1949
-0.302643, 1, 1, 500, 375
-0.341483, 129, 1, 384, 375
-0.38082, 1, 33, 500, 288
-0.425562, 1, 129, 500, 375
-0.508112, 161, 129, 416, 375
-0.582957, 65, 65, 320, 320
-0.644015, 33, 1, 288, 375
-0.659591, 257, 1, 500, 375
-0.682479, 161, 33, 416, 288
-0.725809, 257, 65, 500, 320
-0.853446, 257, 129, 384, 375
-0.85514, 241, 1, 368, 375
-0.870597, 241, 33, 368, 288
-0.871011, 177, 129, 304, 375
-0.875034, 1, 193, 500, 320
-0.87619, 321, 65, 448, 320
-0.876512, 161, 1, 288, 375
-0.879042, 321, 1, 448, 375
-0.880438, 1, 65, 500, 192
-0.883243, 33, 33, 160, 288
-0.884065, 97, 1, 224, 375
-0.885676, 1, 113, 500, 240
-0.889176, 97, 1, 224, 256
-0.892357, 1, 241, 500, 368
-0.893464, 177, 33, 304, 288
-0.893565, 161, 193, 416, 320
-0.893746, 113, 97, 240, 352
-0.897919, 49, 1, 176, 375
-0.901082, 33, 129, 160, 375
-0.903675, 161, 145, 416, 272
-0.911735, 1, 1, 128, 375
-0.912762, 369, 1, 496, 375
-0.914901, 161, 241, 416, 368
-0.916822, 1, 17, 500, 144
-0.920102, 129, 81, 384, 208
-0.921356, 257, 177, 384, 304
-0.925999, 65, 145, 320, 272
-0.933176, 161, 33, 416, 160
-0.933874, 369, 1, 496, 256
-0.934359, 33, 65, 288, 192
-0.935888, 257, 225, 384, 352
-0.936866, 65, 193, 320, 320
-0.937061, 177, 177, 304, 304
-0.937276, 225, 97, 480, 224
-0.937887, 241, 65, 368, 192
-0.939275, 257, 129, 384, 256
-0.941457, 161, 97, 224, 224
-0.941652, 177, 113, 304, 240
-0.942159, 217, 177, 280, 304
-0.943299, 305, 177, 368, 304
-0.947638, 185, 145, 248, 272
-0.948113, 257, 33, 500, 160
-0.94884, 241, 145, 304, 272
-0.949145, 265, 177, 328, 304
-0.949943, 257, 145, 500, 272
-0.94996, 129, 177, 256, 304
-0.950427, 33, 65, 160, 192
-0.950638, 81, 81, 208, 208
-0.952003, 201, 97, 264, 224
-0.952257, 145, 145, 208, 272
-0.953439, 177, 65, 304, 192
-0.953598, 337, 81, 400, 208
-0.953932, 225, 225, 288, 352
-0.954337, 209, 225, 336, 352
-0.954828, 65, 241, 320, 368
-0.954951, 305, 129, 368, 256
-0.955074, 369, 97, 496, 352
-0.955082, 241, 65, 304, 192
-0.955222, 337, 81, 464, 208
-0.955913, 257, 193, 500, 320
-0.956604, 113, 129, 240, 256
-0.956944, 217, 49, 280, 176
-0.956953, 305, 241, 368, 368
-0.957273, 153, 89, 216, 152
-0.957668, 49, 145, 176, 272
-0.959041, 129, 65, 256, 192
-0.959071, 145, 209, 208, 272
-0.959395, 121, 81, 184, 208
-0.959452, 65, 17, 320, 144
-0.959543, 185, 105, 248, 168
-0.960611, 257, 241, 500, 368
-0.960798, 161, 225, 288, 352
-0.961257, 145, 49, 208, 176
-0.961359, 265, 193, 328, 256
-0.961405, 297, 169, 360, 232
-0.961758, 185, 33, 248, 160
-0.96231, 177, 129, 240, 192
-0.962381, 297, 49, 360, 176
-0.962431, 177, 193, 240, 256
-0.962722, 249, 241, 312, 368
-0.963244, 305, 193, 368, 256
-0.964212, 209, 137, 272, 200
-0.964488, 337, 225, 400, 352
-0.96453, 225, 89, 288, 152
-0.964767, 321, 241, 448, 368
-0.964846, 337, 33, 464, 160
-0.965454, 145, 121, 208, 184
-0.965504, 193, 161, 256, 224
-0.965801, 337, 281, 400, 344
-0.965808, 169, 193, 232, 320
-0.966034, 193, 193, 256, 320
-0.966057, 241, 17, 368, 144
-0.966085, 289, 65, 416, 192
-0.966622, 129, 193, 192, 320
-0.967022, 217, 161, 280, 224
-0.967312, 233, 193, 296, 256
-0.967434, 321, 145, 448, 272
-0.967586, 321, 193, 448, 320
-0.967657, 113, 225, 240, 352
-0.967947, 265, 97, 328, 224
-0.967966, 145, 17, 272, 144
-0.968038, 257, 193, 384, 256
-0.968169, 1, 65, 64, 192
-0.968682, 121, 201, 184, 264
-0.969353, 201, 193, 264, 256
-0.969382, 33, 81, 96, 208
-0.969439, 297, 145, 360, 208
-0.969461, 1, 113, 128, 240
-0.96949, 177, 193, 304, 256
-0.969878, 145, 169, 208, 232
-0.970123, 241, 169, 304, 232
-0.970287, 305, 249, 368, 312
-0.970404, 337, 33, 400, 160
-0.970463, 265, 169, 328, 232
-0.970504, 201, 241, 264, 368
-0.970713, 313, 313, 376, 375
-0.970753, 209, 113, 272, 176
-0.971012, 121, 145, 184, 272
-0.971091, 121, 81, 184, 144
-0.971304, 73, 65, 136, 192
-0.97236, 185, 81, 248, 144
-0.972609, 153, 233, 216, 296
-0.972726, 337, 89, 400, 152
-0.973136, 1, 161, 128, 288
-0.973147, 121, 129, 184, 192
-0.97323, 249, 81, 312, 144
-0.973233, 225, 233, 288, 296
-0.973371, 81, 33, 208, 160
-0.973429, 89, 145, 152, 272
-0.973496, 261, 65, 292, 192
-0.973523, 241, 113, 304, 176
-0.973903, 113, 33, 176, 160
-0.973963, 281, 225, 344, 352
-0.97404, 161, 65, 224, 128
-0.974083, 145, 65, 208, 320
-0.974134, 1, 113, 64, 240
-0.974166, 153, 145, 216, 208
-0.974183, 177, 241, 240, 368
-0.974243, 305, 129, 368, 375
-0.974244, 217, 57, 280, 120
-0.974294, 225, 305, 288, 368
-0.974617, 257, 17, 320, 144
-0.974668, 201, 233, 264, 296
-0.974715, 121, 105, 184, 168
-0.974842, 369, 241, 496, 368
-0.975038, 257, 225, 384, 288
-0.975091, 297, 289, 360, 352
-0.975387, 337, 257, 400, 320
-0.975515, 105, 193, 168, 320
-0.975529, 233, 97, 296, 352
-0.97554, 245, 97, 276, 224
-0.975588, 193, 17, 320, 144
-0.975623, 337, 65, 400, 320
-0.975663, 201, 145, 232, 272
-0.975664, 33, 73, 96, 136
-0.976, 81, 65, 144, 128
-0.976203, 245, 177, 276, 304
-0.976209, 249, 81, 280, 144
-0.976246, 241, 121, 368, 184
-0.976407, 177, 97, 240, 352
-0.976458, 297, 105, 360, 168
-0.976526, 233, 177, 264, 304
-0.97663, 65, 113, 128, 240
-0.976681, 289, 17, 416, 144
-0.976683, 241, 313, 368, 375
-0.97678, 269, 177, 300, 304
-0.976801, 337, 313, 400, 375
-0.976983, 433, 313, 496, 375
-0.97708, 113, 89, 240, 152
-0.977323, 221, 177, 252, 304
-0.977382, 265, 225, 328, 288
-0.977421, 321, 297, 448, 360
-0.97743, 241, 81, 368, 144
-0.977449, 257, 193, 288, 320
-0.977518, 305, 217, 368, 280
-0.977528, 157, 65, 188, 192
-0.977569, 33, 65, 160, 128
-0.977725, 297, 73, 360, 136
-0.977728, 261, 89, 292, 152
-0.977745, 241, 129, 272, 192
-0.977762, 273, 313, 336, 375
-0.978094, 265, 113, 296, 240
-0.978315, 57, 65, 120, 128
-0.978428, 49, 105, 112, 168
-0.978451, 177, 97, 208, 224
-0.978461, 237, 97, 268, 160
-0.978477, 129, 241, 192, 304
-0.978535, 345, 273, 376, 336
-0.978538, 189, 97, 220, 224
-0.978593, 49, 97, 176, 160
-0.978756, 113, 225, 240, 288
-0.97896, 209, 1, 272, 128
-0.979, 249, 49, 280, 176
-0.979059, 173, 89, 204, 152
-0.979191, 321, 65, 384, 128
-0.979351, 249, 105, 280, 168
-0.979361, 329, 113, 392, 176
-0.979439, 177, 169, 304, 232
-0.979508, 181, 201, 212, 264
-0.979611, 1, 137, 64, 200
-0.979639, 169, 209, 200, 272
-0.979662, 221, 161, 252, 224
-0.979694, 241, 169, 368, 232
-0.979842, 157, 81, 188, 144
-0.979863, 433, 17, 496, 144
-0.979893, 209, 97, 240, 224
-0.979904, 129, 193, 256, 256
-0.979912, 201, 33, 264, 288
-0.979953, 193, 89, 320, 152
-0.980065, 345, 81, 376, 208
-0.980161, 297, 193, 328, 256
-0.980167, 65, 225, 192, 352
-0.980199, 33, 129, 160, 192
-0.980214, 33, 17, 160, 144
-0.980242, 201, 297, 264, 360
-0.98027, 189, 145, 220, 272
-0.980389, 273, 81, 304, 144
-0.980392, 257, 249, 384, 312
-0.980401, 113, 145, 240, 208
-0.980413, 273, 65, 304, 192
-0.98045, 257, 145, 384, 208
-0.980459, 297, 33, 360, 288
-0.980487, 201, 161, 232, 224
-0.980536, 161, 121, 288, 184
-0.980542, 329, 129, 392, 256
-0.980552, 177, 233, 240, 296
-0.980724, 241, 57, 304, 120
-0.980763, 361, 17, 424, 144
-0.980772, 193, 121, 224, 184
-0.980785, 9, 73, 72, 136
-0.980798, 153, 241, 216, 368
-0.9808, 333, 177, 364, 304
-0.980825, 233, 129, 264, 256
-0.980868, 277, 185, 308, 248
-0.980933, 241, 281, 368, 344
-0.981042, 169, 169, 232, 232
-0.981133, 337, 89, 464, 152
-0.98116, 133, 193, 164, 256
-0.981202, 177, 129, 208, 192
-0.981345, 345, 225, 408, 288
-0.981392, 233, 265, 296, 328
-0.9814, 241, 145, 304, 208
-0.981432, 221, 129, 252, 256
-0.981624, 329, 137, 392, 200
-0.981665, 261, 193, 292, 256
-0.981691, 157, 209, 188, 272
-0.981808, 385, 17, 448, 144
-0.981956, 237, 297, 268, 360
-0.981959, 249, 161, 280, 224
-0.98197, 273, 129, 336, 375
-0.982011, 97, 81, 160, 208
-0.982052, 237, 33, 268, 160
-0.982074, 113, 57, 176, 120
-0.982246, 137, 177, 168, 304
-0.982331, 193, 225, 320, 288
-0.982339, 241, 201, 272, 264
-0.982353, 105, 153, 168, 216
-0.982392, 209, 129, 240, 192
-0.982508, 81, 105, 144, 168
-0.982545, 193, 257, 256, 320
-0.982606, 197, 97, 228, 160
-0.982629, 297, 161, 328, 288
-0.982726, 225, 97, 256, 160
-0.982732, 261, 65, 292, 128
-0.982753, 277, 129, 308, 256
-0.982767, 161, 49, 288, 112
-0.982767, 329, 161, 392, 224
-0.982843, 153, 145, 184, 272
-0.983058, 229, 193, 260, 256
-0.983102, 337, 201, 368, 264
-0.983208, 433, 241, 496, 368
-0.983329, 89, 97, 152, 352
-0.983346, 233, 169, 264, 232
-0.983445, 165, 113, 196, 240
-0.983461, 33, 129, 96, 192
-0.983468, 173, 49, 204, 176
-0.983473, 41, 33, 104, 288
-0.983473, 281, 177, 312, 304
-0.983521, 1, 97, 64, 160
-0.983548, 209, 129, 272, 375
-0.983561, 201, 193, 232, 320
-0.983589, 233, 225, 264, 352
-0.983615, 209, 89, 240, 152
-0.983671, 297, 1, 360, 375
-0.983698, 1, 97, 128, 160
-0.983735, 49, 33, 112, 160
-0.983755, 113, 121, 240, 184
-0.98386, 121, 65, 184, 320
-0.983951, 97, 65, 224, 128
-0.984064, 369, 289, 496, 352
-0.984099, 257, 241, 288, 368
-0.98427, 189, 161, 220, 224
-0.98427, 321, 273, 448, 336
-0.984272, 321, 113, 448, 176
-0.984395, 213, 193, 244, 256
-0.984407, 361, 65, 424, 192
-0.984419, 153, 1, 216, 128
-0.984447, 81, 161, 144, 224
-0.984533, 161, 105, 192, 168
-0.984614, 273, 105, 304, 168
-0.98463, 161, 297, 288, 360
-0.984639, 129, 169, 256, 232
-0.984658, 273, 57, 400, 120
-0.984672, 325, 49, 356, 176
-0.984708, 249, 1, 312, 256
-0.984737, 153, 305, 216, 368
-0.984753, 345, 209, 376, 336
-0.984817, 221, 137, 252, 200
-0.98484, 253, 233, 284, 296
-0.984876, 65, 129, 128, 192
-0.984927, 185, 89, 216, 152
-0.984934, 33, 129, 96, 256
-0.984936, 177, 145, 304, 208
-0.98495, 45, 65, 76, 128
-0.98503, 409, 49, 472, 176
-0.985084, 329, 313, 360, 375
-0.985099, 241, 49, 272, 112
-0.985113, 185, 49, 248, 112
-0.985121, 113, 241, 176, 368
-0.98528, 33, 169, 160, 232
-0.985289, 229, 81, 260, 208
-0.985397, 289, 89, 416, 152
-0.985481, 181, 225, 212, 288
-0.985567, 321, 225, 448, 288
-0.985608, 245, 225, 276, 352
-0.985622, 1, 33, 64, 288
-0.985646, 341, 249, 372, 312
-0.985698, 129, 249, 256, 312
-0.98578, 145, 1, 208, 375
-0.985819, 297, 41, 360, 104
-0.985822, 193, 185, 224, 248
-0.985847, 157, 129, 188, 192
-0.985853, 1, 209, 128, 336
-0.985874, 433, 289, 496, 352
-0.985895, 337, 1, 400, 375
-0.985974, 269, 217, 300, 280
-0.98599, 285, 81, 316, 144
-0.985996, 261, 113, 292, 176
-0.986091, 325, 129, 356, 256
-0.986099, 369, 313, 496, 375
-0.986144, 193, 1, 256, 375
-0.986178, 189, 49, 220, 176
-0.98622, 205, 233, 236, 296
-0.986251, 145, 65, 176, 192
-0.986268, 101, 65, 132, 192
-0.98631, 161, 201, 416, 264
-0.986323, 249, 33, 312, 96
-0.986346, 81, 169, 208, 232
-0.986375, 433, 1, 496, 375
-0.986388, 341, 113, 372, 176
-0.986483, 345, 57, 408, 120
-0.986491, 137, 217, 168, 280
-0.986525, 177, 177, 208, 304
-0.98657, 325, 169, 356, 232
-0.98668, 101, 65, 132, 128
-0.986705, 225, 57, 352, 120
-0.986707, 369, 265, 496, 328
-0.986718, 321, 169, 448, 232
-0.986789, 217, 241, 248, 368
-0.986903, 337, 177, 400, 304
-0.986943, 321, 137, 448, 200
-0.986968, 337, 65, 464, 128
-0.986987, 145, 169, 176, 232
-0.987071, 261, 17, 292, 144
-0.987152, 345, 33, 376, 160
-0.987187, 269, 225, 300, 352
-0.987222, 121, 177, 184, 240
-0.987358, 65, 1, 128, 256
-0.98742, 45, 81, 76, 208
-0.98744, 233, 1, 296, 128
-0.987593, 97, 193, 160, 256
-0.987618, 25, 105, 88, 168
-0.987637, 325, 113, 356, 176
-0.98764, 409, 1, 472, 128
-0.987647, 65, 97, 128, 352
-0.987693, 265, 113, 328, 176
-0.987696, 361, 81, 424, 144
-0.987703, 361, 297, 424, 360
-0.987718, 321, 249, 448, 312
-0.987851, 81, 201, 208, 264
-0.987897, 105, 225, 168, 288
-0.987946, 345, 89, 376, 152
-0.988092, 169, 1, 232, 375
-0.988277, 341, 129, 372, 256
-0.988397, 177, 313, 240, 375
-0.988403, 385, 65, 448, 192
-0.98847, 469, 313, 500, 375
-0.988503, 9, 161, 72, 224
-0.988564, 433, 65, 496, 192
-0.98857, 113, 1, 176, 375
-0.988645, 321, 193, 448, 256
-0.988768, 249, 313, 312, 375
-0.988894, 1, 49, 64, 112
-0.989008, 377, 1, 440, 256
-0.989018, 45, 89, 76, 152
-0.989045, 233, 1, 296, 375
-0.989046, 289, 113, 320, 240
-0.989075, 101, 97, 132, 160
-0.989085, 305, 313, 336, 375
-0.98914, 325, 137, 356, 200
-0.989154, 313, 1, 376, 128
-0.98925, 1, 17, 64, 144
-0.989391, 225, 1, 288, 256
-0.989412, 265, 189, 328, 220
-0.989459, 433, 65, 496, 320
-0.989499, 161, 133, 224, 164
-0.989501, 433, 265, 496, 328
-0.989591, 201, 97, 264, 128
-0.989604, 333, 89, 364, 152
-0.989614, 237, 265, 268, 328
-0.989631, 57, 65, 88, 128
-0.989688, 225, 33, 352, 96
-0.989705, 329, 289, 360, 352
-0.989706, 141, 113, 172, 240
-0.989714, 77, 97, 108, 160
-0.989723, 1, 1, 64, 375
-0.989761, 265, 57, 328, 120
-0.98977, 193, 193, 256, 224
-0.989887, 225, 93, 288, 124
-0.989935, 177, 161, 208, 224
-0.989938, 257, 229, 320, 260
-0.989941, 161, 241, 416, 304
-0.989976, 265, 145, 328, 208
-0.98999, 285, 225, 316, 352
-0.990004, 333, 65, 364, 128
-0.990037, 301, 169, 332, 232
-0.990039, 337, 33, 400, 96
-0.990049, 145, 81, 176, 144
-0.990061, 73, 65, 104, 128
-0.990091, 201, 125, 264, 156
-0.990114, 241, 233, 272, 296
-0.990126, 201, 137, 264, 168
-0.990135, 297, 181, 360, 212
-0.990145, 337, 293, 400, 324
-0.990157, 145, 121, 176, 184
-0.990159, 329, 257, 360, 320
-0.990161, 341, 137, 372, 200
-0.990174, 325, 193, 356, 256
-0.990211, 129, 209, 192, 240
-0.990217, 169, 65, 200, 128
-0.990221, 161, 129, 416, 192
-0.990228, 209, 17, 272, 80
-0.99023, 273, 177, 336, 208
-0.990241, 353, 217, 384, 280
-0.990278, 145, 97, 208, 128
-0.99032, 189, 193, 220, 320
-0.990342, 433, 73, 496, 136
-0.990356, 469, 241, 500, 304
-0.990358, 101, 121, 132, 184
-0.990359, 145, 121, 208, 152
-0.990377, 153, 229, 216, 260
-0.990381, 241, 189, 304, 220
-0.990397, 57, 97, 88, 224
-0.990411, 185, 113, 248, 144
-0.990432, 209, 49, 240, 176
-0.990436, 121, 137, 184, 168
-0.990452, 161, 169, 416, 232
-0.990475, 97, 129, 160, 192
-0.990509, 233, 177, 296, 208
-0.990525, 177, 101, 240, 132
-0.990526, 153, 153, 216, 184
-0.990538, 273, 57, 304, 120
-0.990541, 297, 341, 360, 372
-0.990571, 185, 149, 248, 180
-0.990595, 297, 325, 360, 356
-0.990629, 261, 153, 292, 216
-0.990646, 285, 65, 316, 192
-0.990652, 289, 169, 320, 232
-0.990661, 161, 313, 416, 375
-0.990661, 297, 169, 360, 200
-0.990667, 129, 273, 256, 336
-0.990668, 113, 145, 144, 272
-0.990669, 225, 105, 288, 136
-0.990683, 121, 85, 184, 116
-0.990698, 113, 265, 176, 328
-0.99072, 401, 81, 464, 144
-0.990772, 305, 201, 368, 232
-0.990812, 177, 257, 304, 320
-0.990825, 305, 225, 368, 256
-0.990889, 249, 289, 312, 352
-0.990902, 145, 109, 208, 140
-0.990925, 121, 117, 184, 148
-0.990929, 433, 333, 496, 364
-0.990932, 297, 157, 360, 188
-0.990939, 161, 105, 416, 168
-0.990942, 305, 213, 368, 244
-0.990959, 337, 281, 400, 312
-0.990961, 225, 233, 256, 296
-0.991035, 273, 325, 336, 356
-0.991042, 193, 237, 256, 268
-0.991074, 233, 133, 296, 164
-0.991076, 65, 225, 192, 288
-0.991093, 273, 17, 304, 144
-0.991093, 225, 33, 256, 160
-0.9911, 121, 105, 184, 136
-0.99112, 217, 157, 280, 188
-0.991129, 469, 281, 500, 344
-0.99113, 185, 165, 248, 196
-0.991155, 193, 181, 256, 212
-0.991163, 145, 85, 208, 116
-0.991175, 65, 169, 128, 200
-0.991184, 305, 261, 368, 292
-0.991185, 297, 137, 360, 168
-0.991192, 249, 89, 312, 120
-0.991195, 57, 41, 120, 104
-0.991198, 225, 237, 288, 268
-0.991204, 153, 245, 216, 276
-0.991217, 297, 309, 360, 340
-0.991227, 169, 257, 232, 320
-0.991257, 273, 81, 336, 144
-0.991259, 145, 185, 208, 216
-0.991268, 233, 225, 296, 256
-0.991274, 145, 145, 176, 208
-0.991276, 337, 313, 400, 344
-0.991308, 273, 1, 336, 375
-0.991309, 169, 185, 200, 248
-0.991315, 225, 289, 256, 352
-0.991317, 85, 65, 116, 128
-0.991318, 225, 117, 288, 148
-0.991349, 193, 241, 224, 304
-0.991353, 433, 345, 496, 375
-0.991358, 297, 109, 360, 140
-0.991365, 253, 313, 284, 375
-0.991367, 137, 241, 168, 304
-0.991375, 321, 241, 352, 368
-0.991404, 33, 117, 96, 148
-0.991441, 433, 321, 496, 352
-0.991444, 169, 197, 232, 228
-0.991453, 337, 97, 400, 128
-0.991471, 337, 41, 464, 104
-0.991479, 57, 69, 120, 100
-0.991499, 321, 337, 384, 368
-0.9915, 1, 157, 64, 188
-0.991502, 49, 157, 112, 188
-0.991504, 353, 241, 384, 304
-0.991508, 217, 201, 280, 232
-0.991518, 345, 65, 376, 128
-0.991534, 273, 33, 336, 288
-0.991556, 161, 173, 224, 204
-0.991562, 129, 229, 192, 260
-0.991588, 297, 121, 360, 152
-0.991595, 65, 193, 320, 256
-0.99163, 33, 73, 96, 104
-0.991633, 369, 193, 496, 320
-0.991656, 305, 281, 368, 312
-0.991656, 81, 157, 144, 188
-0.991679, 277, 161, 308, 224
-0.991683, 265, 217, 328, 248
-0.991693, 433, 241, 496, 304
-0.991704, 49, 265, 176, 328
-0.991727, 41, 169, 104, 200
-0.991736, 121, 153, 184, 184
-0.991738, 121, 197, 184, 228
-0.991759, 1, 265, 64, 328
-0.991769, 209, 53, 272, 84
-0.991772, 9, 161, 72, 288
-0.991775, 241, 201, 304, 232
-0.991777, 209, 169, 272, 200
-0.99179, 321, 325, 384, 356
-0.991792, 81, 73, 144, 104
-0.991796, 105, 165, 168, 196
-0.991802, 337, 117, 400, 148
-0.991818, 309, 177, 340, 304
-0.991841, 233, 249, 296, 280
-0.991866, 329, 201, 392, 264
-0.99188, 129, 241, 192, 272
-0.991887, 337, 245, 400, 276
-0.991922, 333, 241, 364, 368
-0.991949, 341, 161, 372, 224
-0.991967, 33, 105, 96, 136
-0.991976, 305, 297, 368, 328
-0.991978, 225, 317, 288, 348
-0.99198, 297, 93, 360, 124
-0.992018, 265, 205, 328, 236
-0.992021, 177, 289, 240, 352
-0.99203, 57, 105, 88, 168
-0.992034, 65, 89, 320, 152
-0.992044, 305, 249, 368, 280
-0.992054, 281, 1, 344, 128
-0.992063, 33, 85, 96, 116
-0.99207, 357, 65, 388, 192
-0.992074, 225, 81, 288, 112
-0.992076, 273, 241, 336, 272
-0.992079, 33, 129, 96, 160
-0.992108, 257, 73, 320, 104
-0.992122, 337, 85, 400, 116
-0.992129, 321, 89, 352, 152
-0.992139, 161, 265, 416, 328
-0.99214, 345, 269, 408, 300
-0.992147, 217, 189, 280, 220
-0.992155, 225, 145, 288, 176
-0.992159, 113, 161, 144, 224
-0.992164, 209, 305, 272, 336
-0.992165, 345, 297, 376, 360
-0.992178, 273, 337, 336, 368
-0.992179, 81, 129, 144, 160
-0.99218, 1, 113, 64, 144
-0.992181, 329, 129, 392, 160
-0.992182, 81, 85, 144, 116
-0.992184, 105, 73, 168, 104
-0.992192, 297, 69, 360, 100
-0.992205, 257, 101, 320, 132
-0.992205, 433, 309, 496, 340
-0.992211, 153, 217, 216, 248
-0.992212, 329, 189, 392, 220
-0.992217, 9, 69, 72, 100
-0.99222, 1, 193, 500, 256
-0.992221, 177, 1, 240, 256
-0.992236, 469, 209, 500, 336
-0.992256, 157, 185, 188, 248
-0.992261, 57, 101, 120, 132
-0.992261, 237, 73, 268, 136
-0.992266, 177, 85, 240, 116
-0.992275, 205, 241, 236, 368
-0.992279, 17, 169, 80, 200
-0.992289, 153, 337, 216, 368
-0.992301, 1, 65, 500, 128
-0.992302, 277, 189, 308, 220
-0.992304, 305, 237, 368, 268
-0.992309, 329, 161, 392, 192
-0.992311, 297, 81, 360, 112
-0.99232, 81, 117, 144, 148
-0.992321, 89, 1, 152, 256
-0.992343, 45, 121, 76, 184
-0.99235, 269, 225, 300, 256
-0.992352, 321, 65, 384, 96
-0.992353, 217, 265, 248, 328
-0.992363, 329, 145, 392, 176
-0.992387, 345, 233, 408, 264
-0.992396, 177, 221, 240, 252
-0.992406, 1, 125, 64, 156
-0.992411, 257, 137, 320, 168
-0.992415, 57, 117, 120, 148
-0.992429, 17, 129, 80, 375
-0.992437, 329, 173, 392, 204
-0.992439, 257, 85, 288, 116
-0.992442, 345, 217, 408, 248
-0.992442, 161, 193, 192, 320
-0.992444, 241, 93, 272, 124
-0.992445, 161, 81, 416, 144
-0.992472, 77, 97, 108, 224
-0.992486, 253, 265, 284, 328
-0.992501, 409, 1, 472, 256
-0.992523, 33, 65, 288, 128
-0.992537, 229, 93, 260, 124
-0.992544, 65, 121, 320, 184
-0.992548, 393, 1, 456, 375
-0.992556, 129, 313, 192, 375
-0.992559, 345, 281, 376, 312
-0.992572, 433, 193, 496, 320
-0.992584, 177, 137, 208, 168
-0.992602, 137, 281, 200, 344
-0.99261, 241, 117, 272, 148
-0.99262, 193, 149, 224, 180
-0.992623, 229, 105, 260, 136
-0.992639, 97, 41, 224, 104
-0.99264, 241, 105, 272, 136
-0.992663, 201, 189, 232, 220
-0.992684, 285, 177, 316, 208
-0.992686, 221, 125, 252, 156
-0.992688, 257, 305, 500, 368
-0.992719, 1, 193, 32, 320
-0.992747, 209, 137, 240, 168
-0.992753, 253, 137, 284, 168
-0.992764, 197, 121, 228, 152
-0.992765, 273, 89, 304, 120
-0.992768, 153, 85, 184, 116
-0.992777, 337, 209, 368, 240
-0.992783, 161, 149, 192, 180
-0.992786, 1, 225, 64, 352
-0.992803, 145, 225, 176, 352
-0.992817, 217, 181, 248, 212
-0.992823, 153, 137, 184, 168
-0.99283, 261, 113, 292, 144
-0.992837, 1, 145, 500, 208
-0.992839, 205, 161, 236, 192
-0.992846, 209, 113, 240, 144
-0.992853, 265, 241, 296, 304
-0.992862, 193, 133, 224, 164
-0.992867, 169, 125, 200, 156
-0.992871, 261, 101, 292, 132
-0.992878, 221, 141, 252, 172
-0.992886, 325, 333, 356, 364
-0.992889, 233, 137, 264, 168
-0.992893, 217, 193, 248, 224
-0.992909, 153, 113, 184, 144
-0.992912, 33, 153, 96, 216
-0.992913, 297, 197, 328, 228
-0.992916, 125, 177, 156, 304
-0.99292, 273, 289, 336, 352
-0.992935, 273, 101, 304, 132
-0.992935, 253, 237, 284, 268
-0.992939, 245, 157, 276, 188
-0.99294, 205, 177, 236, 208
-0.992941, 345, 269, 376, 300
-0.99295, 305, 325, 336, 356
-0.992966, 89, 97, 120, 224
-0.992977, 273, 117, 304, 148
-0.992979, 261, 193, 292, 224
-0.992981, 325, 321, 356, 352
-0.99299, 261, 249, 292, 280
-0.992991, 173, 97, 204, 128
-0.992993, 229, 49, 260, 112
-0.992993, 185, 197, 216, 228
-0.992993, 177, 233, 208, 264
-0.992997, 225, 161, 256, 192
-0.993003, 1, 233, 128, 296
-0.993003, 257, 177, 288, 208
-0.993005, 261, 125, 292, 156
-0.993005, 201, 237, 232, 268
-0.993009, 153, 97, 184, 128
-0.993009, 209, 101, 240, 132
-0.993011, 93, 169, 124, 200
-0.99302, 129, 193, 160, 224
-0.993028, 325, 197, 356, 228
-0.993029, 133, 209, 164, 240
-0.993031, 65, 153, 320, 216
-0.993035, 161, 25, 288, 88
-0.993039, 241, 301, 272, 332
-0.993049, 41, 1, 104, 375
-0.993056, 333, 261, 364, 292
-0.993057, 461, 341, 492, 372
-0.993058, 181, 245, 212, 276
-0.99306, 297, 177, 328, 208
-0.993061, 101, 157, 132, 188
-0.993065, 177, 153, 208, 184
-0.993068, 45, 69, 76, 100
-0.99307, 165, 137, 196, 168
-0.993074, 233, 201, 264, 232
-0.993084, 197, 101, 228, 132
-0.993087, 325, 345, 356, 375
-0.993095, 173, 113, 204, 144
-0.993096, 249, 201, 280, 232
-0.993098, 157, 233, 188, 296
-0.993098, 193, 173, 224, 204
-0.9931, 161, 209, 192, 240
-0.993105, 325, 141, 356, 172
-0.993111, 277, 241, 308, 272
-0.993111, 405, 49, 436, 176
-0.993115, 209, 125, 240, 156
-0.993121, 273, 129, 304, 160
-0.993121, 137, 229, 168, 260
-0.993125, 325, 121, 356, 152
-0.99313, 101, 117, 132, 148
-0.99313, 53, 169, 84, 200
-0.993131, 205, 149, 236, 180
-0.993135, 245, 189, 276, 220
-0.993144, 101, 73, 132, 104
-0.993145, 273, 177, 304, 208
-0.993146, 33, 49, 96, 112
-0.993146, 341, 129, 372, 160
-0.993149, 57, 69, 88, 100
-0.993149, 121, 97, 152, 224
-0.99316, 325, 153, 356, 184
-0.993162, 281, 225, 312, 288
-0.993169, 81, 169, 112, 200
-0.993169, 185, 101, 216, 132
-0.99317, 461, 329, 492, 360
-0.993173, 45, 157, 76, 188
-0.993177, 157, 125, 188, 156
-0.993179, 233, 181, 264, 212
-0.993179, 341, 117, 372, 148
-0.993191, 233, 289, 264, 320
-0.993193, 193, 161, 224, 192
-0.993198, 325, 309, 356, 340
-0.993204, 241, 313, 272, 344
-0.993207, 325, 165, 356, 196
-0.993209, 153, 229, 184, 260
-0.993214, 141, 137, 172, 168
-0.993215, 357, 17, 388, 144
-0.993221, 145, 153, 176, 184
-0.993223, 281, 229, 312, 260
-0.993224, 149, 209, 180, 240
-0.993224, 285, 89, 316, 120
-0.993225, 69, 169, 100, 200
-0.993226, 385, 297, 416, 360
-0.993227, 89, 157, 120, 188
-0.993231, 329, 289, 360, 320
-0.993236, 57, 157, 88, 188
-0.993237, 1, 217, 500, 280
-0.993238, 325, 109, 356, 140
-0.993241, 261, 73, 292, 104
-0.993245, 345, 293, 376, 324
-0.993246, 353, 249, 384, 280
-0.993248, 321, 185, 352, 216
-0.99325, 45, 81, 76, 112
-0.99325, 469, 297, 500, 328
-0.993253, 257, 225, 288, 256
-0.993254, 189, 233, 220, 264
-0.993255, 341, 101, 372, 132
-0.993258, 185, 121, 216, 152
-0.993272, 345, 305, 376, 336
-0.993274, 285, 105, 316, 168
-0.993275, 145, 125, 176, 156
-0.993275, 241, 81, 272, 112
-0.993279, 237, 169, 268, 200
-0.993281, 273, 33, 400, 96
-0.993288, 173, 205, 204, 236
-0.993288, 273, 73, 304, 104
-0.993289, 45, 109, 76, 140
-0.993291, 241, 53, 272, 84
-0.993296, 89, 129, 120, 192
-0.993315, 89, 1, 152, 375
-0.993331, 137, 57, 200, 120
-0.993332, 161, 289, 416, 352
-0.993384, 49, 41, 176, 104
-0.993432, 369, 17, 496, 80
-0.993446, 433, 217, 496, 280
-0.993572, 273, 129, 304, 192
-0.993613, 65, 233, 320, 296
-0.993619, 449, 17, 480, 144
-0.993641, 257, 229, 384, 260
-0.993653, 1, 121, 500, 184
-0.993666, 241, 193, 368, 224
-0.993678, 41, 129, 104, 375
-0.993692, 1, 97, 500, 160
-0.993721, 161, 57, 416, 120
-0.993735, 133, 169, 164, 232
-0.993741, 1, 41, 128, 104
-0.993816, 101, 113, 132, 240
-0.993844, 125, 225, 156, 352
-0.993849, 341, 225, 372, 288
-0.99389, 157, 17, 188, 144
-0.9939, 1, 313, 500, 375
-0.993901, 1, 257, 500, 320
-0.993903, 225, 73, 256, 136
-0.993921, 465, 17, 496, 144
-0.993923, 177, 197, 304, 228
-0.994001, 209, 153, 224, 216
-0.994037, 393, 57, 456, 120
-0.994056, 369, 81, 400, 208
-0.994067, 369, 1, 432, 375
-0.994089, 305, 241, 336, 368
-0.994158, 369, 17, 400, 144
-0.994162, 257, 217, 384, 248
-0.9942, 193, 1, 224, 128
-0.99421, 313, 169, 344, 232
-0.994226, 433, 65, 464, 192
-0.994269, 313, 129, 344, 256
-0.994285, 177, 237, 304, 268
-0.994329, 1, 169, 500, 232
-0.994341, 101, 145, 132, 208
-0.994409, 257, 105, 500, 168
-0.994442, 209, 1, 240, 128
-0.994442, 57, 49, 88, 176
-0.994454, 301, 113, 332, 240
-0.9945, 65, 1, 128, 375
-0.994501, 209, 177, 336, 208
-0.994517, 209, 65, 240, 128
-0.994531, 1, 281, 500, 344
-0.99457, 401, 1, 432, 128
-0.994586, 357, 89, 388, 152
-0.994606, 321, 17, 448, 80
-0.994625, 257, 241, 384, 272
-0.994637, 361, 25, 424, 88
-0.994656, 193, 65, 224, 128
-0.994664, 45, 33, 76, 160
-0.994671, 457, 313, 488, 375
-0.994692, 257, 217, 500, 280
-0.994695, 257, 205, 384, 236
-0.994695, 53, 145, 84, 208
-0.994709, 321, 177, 352, 304
-0.994723, 33, 193, 160, 256
-0.994806, 257, 185, 500, 248
-0.994821, 321, 65, 352, 128
-0.994822, 385, 17, 448, 80
-0.994848, 417, 33, 448, 160
-0.99485, 469, 217, 500, 280
-0.994854, 257, 181, 384, 212
-0.99487, 257, 129, 384, 160
-0.994887, 433, 49, 496, 112
-0.99489, 185, 17, 248, 80
-0.994921, 113, 313, 240, 375
-0.994933, 157, 153, 188, 216
-0.994933, 265, 305, 296, 368
-0.994946, 169, 1, 200, 128
-0.994956, 121, 185, 152, 248
-0.994959, 113, 73, 144, 136
-0.994959, 241, 89, 256, 152
-0.994963, 297, 65, 328, 192
-0.994976, 49, 101, 176, 132
-0.994985, 257, 253, 384, 284
-0.995, 309, 193, 340, 256
-0.995023, 369, 49, 432, 112
-0.995048, 257, 49, 500, 112
-0.995052, 257, 145, 384, 176
-0.995066, 73, 49, 104, 176
-0.995072, 1, 145, 32, 272
-0.995119, 113, 157, 240, 188
-0.995157, 469, 65, 500, 192
-0.99516, 187, 201, 202, 264
-0.995192, 259, 129, 274, 192
-0.995255, 265, 81, 280, 144
-0.995286, 265, 249, 328, 312
-0.995291, 257, 157, 384, 188
-0.995291, 1, 257, 128, 320
-0.995296, 469, 161, 500, 288
-0.995303, 357, 193, 388, 320
-0.99531, 113, 137, 240, 168
-0.995329, 49, 113, 176, 144
-0.995332, 241, 129, 256, 192
-0.995372, 313, 33, 344, 160
-0.995374, 193, 241, 224, 368
-0.995378, 235, 161, 250, 224
-0.995387, 25, 33, 88, 160
-0.995403, 33, 73, 160, 104
-0.995407, 225, 89, 352, 120
-0.995419, 385, 65, 416, 192
-0.99542, 483, 313, 498, 375
-0.995436, 253, 169, 268, 232
-0.995437, 181, 209, 196, 272
-0.995452, 347, 209, 362, 272
-0.995456, 49, 89, 176, 120
-0.995456, 193, 125, 320, 156
-0.995498, 263, 193, 278, 256
-0.995522, 241, 325, 368, 356
-0.995523, 189, 89, 204, 152
-0.995525, 253, 201, 268, 264
-0.995529, 195, 129, 210, 192
-0.995533, 249, 1, 280, 128
-0.995541, 195, 161, 210, 224
-0.995552, 215, 145, 230, 208
-0.99557, 221, 161, 236, 224
-0.995572, 113, 93, 240, 124
-0.995574, 113, 117, 240, 148
-0.995583, 457, 65, 488, 192
-0.995597, 185, 129, 200, 192
-0.995609, 321, 293, 448, 324
-0.99561, 209, 89, 224, 152
-0.995612, 49, 169, 176, 200
-0.995628, 259, 161, 274, 224
-0.995634, 49, 125, 176, 156
-0.995638, 289, 317, 416, 348
-0.995647, 393, 281, 456, 344
-0.995649, 239, 289, 254, 352
-0.99565, 241, 193, 256, 256
-0.995651, 89, 257, 152, 320
-0.995678, 351, 257, 366, 320
-0.995708, 257, 161, 500, 224
-0.995719, 177, 141, 304, 172
-0.995719, 241, 309, 368, 340
-0.995722, 33, 65, 64, 192
-0.995723, 299, 193, 314, 256
-0.995726, 17, 157, 144, 188
-0.995743, 65, 289, 192, 352
-0.995747, 251, 97, 266, 160
-0.995756, 257, 265, 384, 296
-0.995772, 113, 229, 240, 260
-0.995791, 241, 117, 368, 148
-0.995798, 65, 41, 320, 104
-0.995798, 279, 185, 294, 248
-0.995799, 245, 161, 260, 224
-0.995808, 369, 241, 496, 304
-0.995815, 113, 65, 128, 128
-0.995818, 205, 121, 220, 184
-0.995818, 45, 129, 76, 256
-0.995825, 321, 305, 448, 336
-0.995833, 269, 193, 284, 256
-0.995845, 287, 81, 302, 144
-0.995885, 445, 65, 476, 192
-0.995886, 257, 105, 384, 136
-0.995895, 293, 17, 324, 144
-0.995896, 129, 193, 256, 224
-0.995903, 113, 249, 240, 280
-0.995939, 199, 105, 214, 168
-0.995954, 257, 81, 500, 144
-0.995962, 159, 209, 174, 272
-0.995964, 355, 233, 370, 296
-0.99597, 251, 121, 266, 184
-0.99597, 227, 193, 242, 256
-0.995975, 65, 257, 320, 320
-0.995977, 257, 129, 500, 192
-0.995991, 229, 161, 244, 224
-0.995996, 129, 181, 256, 212
-0.996013, 177, 225, 304, 256
-0.996027, 163, 81, 178, 144
-0.996052, 241, 345, 368, 375
-0.996066, 165, 129, 180, 192
-0.996091, 235, 105, 250, 168
-0.996097, 235, 193, 250, 256
-0.99611, 65, 137, 192, 168
-0.996127, 1, 41, 500, 104
-0.996128, 345, 121, 360, 184
-0.996169, 171, 209, 186, 272
-0.996171, 193, 105, 320, 136
-0.996177, 245, 289, 260, 352
-0.996192, 135, 185, 150, 248
-0.996227, 65, 157, 192, 188
-0.996239, 337, 93, 464, 124
-0.996242, 161, 41, 224, 104
-0.996248, 341, 313, 356, 375
-0.99626, 203, 161, 218, 224
-0.996266, 201, 241, 216, 304
-0.996271, 49, 65, 64, 128
-0.996275, 409, 9, 472, 72
-0.996276, 257, 169, 384, 200
-0.996279, 211, 121, 226, 184
-0.99628, 1, 241, 32, 368
-0.996287, 193, 193, 208, 256
-0.99629, 261, 233, 276, 296
-0.996302, 235, 129, 250, 192
-0.996305, 347, 97, 362, 160
-0.996319, 233, 289, 248, 352
-0.996327, 247, 193, 262, 256
-0.996329, 289, 185, 304, 248
-0.996329, 369, 309, 496, 340
-0.996342, 217, 193, 232, 256
-0.996346, 207, 233, 222, 296
-0.996368, 485, 289, 500, 352
-0.996392, 201, 185, 216, 248
-0.996399, 113, 105, 240, 136
-0.996413, 217, 121, 232, 184
-0.996414, 311, 193, 326, 256
-0.996415, 433, 1, 496, 64
-0.996431, 257, 281, 500, 344
-0.996443, 1, 101, 128, 132
-0.996457, 165, 209, 180, 272
-0.996458, 385, 305, 448, 368
-0.996468, 157, 241, 188, 368
-0.996471, 65, 313, 192, 375
-0.996472, 345, 65, 376, 320
-0.996476, 353, 201, 416, 264
-0.996501, 175, 89, 190, 152
-0.996504, 215, 89, 230, 152
-0.996531, 1, 169, 128, 200
-0.996531, 257, 281, 384, 312
-0.996535, 321, 329, 448, 360
-0.99655, 275, 65, 290, 128
-0.996558, 369, 297, 496, 328
-0.996562, 225, 89, 240, 152
-0.996564, 189, 153, 204, 216
-0.996579, 381, 17, 412, 144
-0.996608, 239, 265, 254, 328
-0.996621, 157, 129, 172, 192
-0.99665, 275, 89, 290, 152
-0.996658, 253, 49, 268, 112
-0.99666, 437, 17, 468, 144
-0.996671, 149, 209, 164, 272
-0.996671, 305, 185, 320, 248
-0.996673, 241, 297, 368, 328
-0.996674, 177, 157, 304, 188
-0.996687, 261, 105, 276, 168
-0.996689, 215, 169, 230, 232
-0.996708, 257, 77, 384, 108
-0.996714, 1, 117, 128, 148
-0.996714, 241, 97, 272, 352
-0.996722, 133, 65, 164, 192
-0.996725, 351, 281, 366, 344
-0.996729, 113, 205, 240, 236
-0.996731, 101, 161, 132, 288
-0.99674, 225, 9, 352, 72
-0.996744, 17, 145, 144, 176
-0.996748, 417, 81, 448, 208
-0.99676, 267, 169, 282, 232
-0.996792, 81, 77, 208, 108
-0.996794, 195, 233, 210, 296
-0.996795, 321, 121, 448, 152
-0.996797, 361, 249, 424, 312
-0.996799, 189, 225, 204, 288
-0.996799, 321, 281, 448, 312
-0.996801, 55, 81, 70, 144
-0.996813, 65, 161, 128, 288
-0.996813, 89, 241, 152, 368
-0.996832, 369, 333, 496, 364
-0.996838, 233, 81, 248, 144
-0.996887, 257, 241, 500, 304
-0.99689, 265, 137, 280, 200
-0.996899, 369, 345, 496, 375
-0.996915, 1, 89, 128, 120
-0.996915, 409, 33, 472, 96
-0.996932, 257, 313, 272, 375
-0.996936, 181, 241, 212, 368
-0.996936, 369, 321, 496, 352
-0.996939, 157, 81, 172, 144
-0.996939, 247, 265, 262, 328
-0.99694, 345, 257, 360, 320
-0.996954, 329, 129, 360, 375
-0.996964, 337, 113, 352, 176
-0.996993, 321, 241, 448, 272
-0.997006, 181, 1, 212, 128
-0.997007, 299, 169, 314, 232
-0.997011, 179, 129, 194, 192
-0.997022, 251, 73, 266, 136
-0.997031, 177, 321, 304, 352
-0.997041, 321, 341, 448, 372
-0.997046, 255, 233, 270, 296
-0.997058, 141, 193, 156, 256
-0.997063, 257, 65, 288, 320
-0.997064, 177, 249, 304, 280
-0.99707, 161, 93, 288, 124
-0.997078, 321, 109, 448, 140
-0.997078, 183, 89, 198, 152
-0.99708, 357, 265, 372, 328
-0.997089, 317, 193, 332, 256
-0.997101, 321, 229, 448, 260
-0.997101, 261, 57, 276, 120
-0.997111, 289, 93, 416, 124
-0.997118, 97, 169, 224, 200
-0.997128, 175, 65, 190, 128
-0.99713, 321, 133, 448, 164
-0.99715, 1, 129, 128, 160
-0.997155, 115, 129, 130, 192
-0.997161, 159, 105, 174, 168
-0.997173, 209, 185, 224, 248
-0.997174, 209, 97, 240, 352
-0.997176, 345, 169, 360, 232
-0.997203, 341, 201, 356, 264
-0.997208, 259, 81, 274, 144
-0.997211, 65, 313, 320, 375
-0.997225, 337, 89, 352, 152
-0.997229, 269, 113, 284, 176
-0.997244, 271, 217, 286, 280
-0.997245, 105, 65, 120, 128
-0.997257, 369, 285, 496, 316
-0.997261, 321, 33, 352, 288
-0.997264, 71, 65, 86, 128
-0.997269, 267, 241, 282, 304
-0.99727, 179, 185, 194, 248
-0.997271, 353, 269, 368, 300
-0.997271, 201, 81, 216, 144
-0.997277, 177, 213, 304, 244
-0.99728, 485, 249, 500, 312
-0.997281, 217, 233, 232, 296
-0.997282, 61, 65, 76, 128
-0.997287, 323, 209, 338, 272
-0.997291, 55, 57, 70, 120
-0.997301, 113, 193, 144, 320
-0.997302, 321, 193, 448, 224
-0.997308, 161, 169, 288, 200
-0.997312, 145, 341, 272, 372
-0.99732, 229, 233, 244, 296
-0.997335, 185, 177, 200, 240
-0.997339, 317, 313, 332, 375
-0.997341, 237, 313, 252, 375
-0.997343, 115, 89, 130, 152
-0.997345, 321, 269, 448, 300
-0.997347, 161, 53, 288, 84
-0.997353, 321, 145, 448, 176
-0.997365, 89, 65, 104, 128
-0.997374, 345, 145, 360, 208
-0.997386, 335, 161, 350, 224
-0.997387, 311, 169, 326, 232
-0.997391, 321, 169, 448, 200
-0.997394, 345, 281, 360, 344
-0.997394, 241, 93, 256, 124
-0.997395, 237, 233, 252, 296
-0.997444, 257, 65, 384, 96
-0.997447, 257, 137, 272, 168
-0.997461, 321, 253, 448, 284
-0.997464, 337, 217, 464, 248
-0.997473, 337, 81, 464, 112
-0.997514, 241, 105, 256, 136
-0.997529, 377, 97, 440, 352
-0.99755, 197, 97, 228, 352
-0.997572, 33, 289, 288, 352
-0.997579, 469, 65, 500, 320
-0.997598, 229, 97, 260, 352
-0.99761, 161, 81, 288, 112
-0.997617, 85, 49, 116, 176
-0.997621, 333, 1, 364, 128
-0.997625, 273, 65, 304, 320
-0.99763, 321, 157, 448, 188
-0.997654, 265, 85, 280, 116
-0.997667, 161, 69, 288, 100
-0.997683, 231, 193, 246, 224
-0.997699, 235, 93, 250, 124
-0.997714, 187, 205, 202, 236
-0.997718, 199, 133, 214, 164
-0.997732, 113, 217, 240, 248
-0.99774, 247, 141, 262, 172
-0.997743, 279, 225, 294, 256
-0.997744, 81, 193, 208, 224
-0.997757, 217, 137, 232, 168
-0.997759, 273, 225, 288, 256
-0.997775, 189, 137, 204, 168
-0.997778, 193, 333, 320, 364
-0.997778, 279, 185, 294, 216
-0.997786, 321, 181, 448, 212
-0.9978, 351, 213, 366, 244
-0.997801, 225, 53, 352, 84
-0.997804, 265, 197, 280, 228
-0.997808, 207, 189, 222, 220
-0.99781, 165, 137, 180, 168
-0.997816, 183, 137, 198, 168
-0.997827, 161, 297, 288, 328
-0.997827, 129, 317, 256, 348
-0.997836, 295, 177, 310, 208
-0.997836, 291, 189, 306, 220
-0.99784, 135, 189, 150, 220
-0.997845, 251, 93, 266, 124
-0.997855, 481, 325, 496, 356
-0.997856, 225, 177, 240, 208
-0.997856, 213, 153, 228, 184
-0.997857, 211, 133, 226, 164
-0.997861, 159, 137, 174, 168
-0.997868, 351, 281, 366, 312
-0.997869, 193, 25, 448, 88
-0.997871, 285, 177, 300, 208
-0.997892, 137, 129, 168, 375
-0.997897, 243, 125, 258, 156
-0.997897, 191, 233, 206, 264
-0.997913, 33, 113, 64, 240
-0.997921, 207, 153, 222, 184
-0.997923, 97, 33, 128, 288
-0.997932, 273, 9, 400, 72
-0.997937, 209, 77, 336, 108
-0.997946, 483, 313, 498, 344
-0.997946, 129, 1, 256, 64
-0.997948, 65, 225, 192, 256
-0.997948, 267, 229, 282, 260
-0.997951, 301, 193, 316, 224
-0.997976, 239, 157, 254, 188
-0.997978, 177, 209, 192, 240
-0.997978, 97, 65, 224, 96
-0.997979, 251, 105, 266, 136
-0.997995, 301, 177, 316, 208
-0.998003, 181, 221, 196, 252
-0.998018, 241, 201, 256, 232
-0.998022, 115, 73, 130, 104
-0.998025, 65, 213, 192, 244
-0.998049, 219, 177, 234, 208
-0.998054, 199, 117, 214, 148
-0.998057, 271, 197, 286, 228
-0.998059, 235, 105, 250, 136
-0.998063, 129, 261, 256, 292
-0.998072, 239, 293, 254, 324
-0.998092, 33, 181, 160, 212
-0.998109, 175, 125, 190, 156
-0.998111, 49, 33, 80, 288
-0.998111, 115, 157, 130, 188
-0.998112, 251, 117, 266, 148
-0.998116, 241, 1, 272, 256
-0.998119, 347, 261, 362, 292
-0.99812, 229, 93, 244, 124
-0.998121, 191, 153, 206, 184
-0.998123, 305, 69, 432, 100
-0.998123, 129, 285, 256, 316
-0.998127, 223, 113, 238, 144
-0.998138, 209, 121, 224, 152
-0.998141, 157, 65, 188, 320
-0.998145, 201, 169, 216, 200
-0.998147, 317, 325, 332, 356
-0.998154, 249, 193, 264, 224
-0.998163, 333, 33, 364, 288
-0.998164, 229, 105, 244, 136
-0.998171, 211, 109, 226, 140
-0.998178, 159, 85, 174, 116
-0.998185, 199, 105, 214, 136
-0.998186, 249, 161, 264, 192
-0.998187, 263, 137, 278, 168
-0.998188, 217, 193, 232, 224
-0.998189, 225, 125, 240, 156
-0.99819, 225, 1, 256, 256
-0.998191, 289, 229, 304, 260
-0.998192, 223, 137, 238, 168
-0.998197, 273, 249, 288, 280
-0.9982, 217, 113, 232, 144
-0.998202, 169, 65, 200, 320
-0.998203, 273, 177, 288, 208
-0.998204, 163, 153, 178, 184
-0.998213, 241, 137, 256, 168
-0.998215, 171, 137, 186, 168
-0.998216, 341, 345, 356, 375
-0.998221, 49, 69, 64, 100
-0.998231, 81, 17, 144, 144
-0.998238, 259, 201, 274, 232
-0.998238, 193, 265, 320, 296
-0.99824, 171, 149, 186, 180
-0.998257, 485, 301, 500, 332
-0.998257, 233, 125, 248, 156
-0.998257, 107, 165, 122, 196
-0.998259, 205, 141, 220, 172
-0.998265, 217, 125, 232, 156
-0.998265, 197, 197, 212, 228
-0.998266, 197, 249, 212, 280
-0.998273, 199, 233, 214, 264
-0.998274, 57, 69, 72, 100
-0.998274, 207, 173, 222, 204
-0.998276, 239, 181, 254, 212
-0.998292, 175, 101, 190, 132
-0.998295, 255, 185, 270, 216
-0.998298, 225, 161, 240, 192
-0.998299, 185, 65, 216, 320
-0.998307, 345, 129, 360, 160
-0.99831, 321, 205, 448, 236
-0.99832, 285, 189, 300, 220
-0.998332, 275, 97, 290, 128
-0.998333, 165, 85, 180, 116
-0.998342, 231, 181, 246, 212
-0.998349, 275, 117, 290, 148
-0.998349, 185, 97, 200, 128
-0.998352, 285, 85, 300, 116
-0.998354, 199, 145, 214, 176
-0.998358, 465, 355, 496, 370
-0.998358, 257, 161, 272, 192
-0.998358, 369, 273, 496, 304
-0.998359, 133, 227, 164, 242
-0.998359, 197, 121, 228, 136
-0.998359, 45, 113, 76, 128
-0.998361, 137, 239, 168, 254
-0.998361, 189, 137, 220, 152
-0.998361, 241, 313, 272, 328
-0.998362, 265, 147, 296, 162
-0.998362, 469, 335, 500, 350
-0.998362, 461, 327, 492, 342
-0.998363, 229, 109, 260, 124
-0.998364, 209, 105, 240, 120
-0.998364, 325, 153, 356, 168
-0.998364, 329, 309, 360, 324
-0.998365, 177, 147, 208, 162
-0.998365, 185, 131, 216, 146
-0.998365, 175, 113, 190, 144
-0.998366, 325, 145, 356, 160
-0.998366, 325, 125, 356, 140
-0.998367, 245, 145, 276, 160
-0.998368, 177, 309, 304, 340
-0.998368, 101, 127, 132, 142
-0.998368, 225, 197, 240, 228
-0.998368, 229, 101, 260, 116
-0.998369, 305, 53, 432, 84
-0.998369, 185, 99, 216, 114
-0.99837, 169, 115, 200, 130
-0.998371, 261, 241, 292, 256
-0.998371, 337, 361, 368, 375
-0.998371, 181, 115, 212, 130
-0.998371, 241, 159, 272, 174
-0.998372, 53, 121, 84, 136
-0.998375, 273, 137, 304, 152
-0.998375, 325, 139, 356, 154
-0.998375, 285, 89, 316, 104
-0.998378, 237, 307, 268, 322
-0.998378, 241, 111, 272, 126
-0.99838, 261, 235, 292, 250
-0.99838, 99, 169, 114, 200
-0.998384, 273, 119, 304, 134
-0.998384, 321, 361, 352, 375
-0.998386, 173, 123, 204, 138
-0.998387, 345, 293, 376, 308
-0.998388, 197, 129, 228, 144
-0.998389, 325, 131, 356, 146
-0.998389, 473, 333, 488, 364
-0.998389, 461, 343, 492, 358
-0.99839, 185, 155, 216, 170
-0.99839, 205, 143, 236, 158
-0.99839, 473, 345, 488, 375
-0.998391, 181, 245, 212, 260
-0.998391, 249, 195, 280, 210
-0.998391, 173, 109, 204, 124
-0.998392, 49, 157, 64, 188
-0.998392, 133, 211, 164, 226
-0.998392, 337, 211, 368, 226
-0.998392, 209, 157, 240, 172
-0.998393, 161, 157, 192, 172
-0.998394, 325, 201, 356, 216
-0.998395, 55, 169, 70, 200
-0.998396, 265, 193, 328, 208
-0.998396, 281, 233, 312, 248
-0.998397, 293, 237, 324, 252
-0.998398, 321, 355, 352, 370
-0.998398, 297, 129, 328, 375
-0.998398, 249, 89, 280, 104
-0.998399, 481, 345, 496, 375
-0.998399, 185, 203, 216, 218
-0.998401, 49, 171, 80, 186
-0.998401, 253, 53, 268, 84
-0.998402, 45, 73, 76, 88
-0.998402, 273, 129, 304, 144
-0.998404, 325, 323, 356, 338
-0.998404, 345, 209, 360, 240
-0.998404, 189, 161, 220, 176
-0.998404, 325, 331, 356, 346
-0.998404, 355, 245, 370, 276
-0.998406, 273, 241, 304, 256
-0.998407, 213, 181, 228, 212
-0.99841, 233, 143, 264, 158
-0.998412, 249, 175, 280, 190
-0.998413, 93, 171, 124, 186
-0.998413, 197, 105, 228, 120
-0.998413, 237, 201, 268, 216
-0.998414, 273, 101, 304, 116
-0.998414, 273, 113, 304, 128
-0.998417, 305, 327, 336, 342
-0.998417, 153, 111, 184, 126
-0.998418, 345, 287, 376, 302
-0.998419, 197, 181, 212, 212
-0.998419, 249, 241, 280, 256
-0.998419, 217, 151, 248, 166
-0.998419, 225, 41, 352, 72
-0.99842, 245, 297, 260, 328
-0.99842, 325, 349, 356, 364
-0.998421, 341, 271, 372, 286
-0.998421, 233, 157, 248, 188
-0.998423, 257, 247, 288, 262
-0.998424, 101, 73, 132, 88
-0.998426, 209, 163, 240, 178
-0.998426, 261, 121, 292, 136
-0.998426, 189, 149, 220, 164
-0.998427, 153, 97, 184, 112
-0.998427, 273, 107, 304, 122
-0.998427, 153, 105, 184, 120
-0.998428, 297, 197, 328, 212
-0.998429, 197, 115, 228, 130
-0.99843, 213, 137, 244, 152
-0.998431, 229, 115, 260, 130
-0.998432, 347, 117, 362, 148
-0.998432, 169, 129, 200, 144
-0.998434, 261, 129, 292, 144
-0.998435, 257, 207, 288, 222
-0.998436, 261, 237, 276, 268
-0.998437, 173, 153, 204, 168
-0.998437, 269, 133, 284, 164
-0.998438, 201, 171, 232, 186
-0.998439, 185, 149, 200, 180
-0.99844, 153, 121, 184, 136
-0.99844, 93, 169, 108, 200
-0.998441, 235, 169, 250, 200
-0.998445, 229, 175, 260, 190
-0.998445, 193, 197, 256, 212
-0.998446, 325, 343, 356, 358
-0.998446, 253, 95, 284, 110
-0.998447, 241, 129, 272, 144
-0.998448, 281, 241, 296, 272
-0.998448, 325, 337, 356, 352
-0.998449, 153, 127, 184, 142
-0.99845, 261, 101, 292, 116
-0.998452, 197, 99, 228, 114
-0.998453, 225, 137, 256, 152
-0.998453, 173, 99, 204, 114
-0.998454, 201, 137, 232, 152
-0.998456, 215, 165, 230, 196
-0.998457, 155, 161, 170, 192
-0.998457, 243, 169, 258, 200
-0.998457, 469, 113, 500, 240
-0.998457, 85, 169, 100, 200
-0.998458, 241, 119, 272, 134
-0.998459, 157, 151, 188, 166
-0.99846, 229, 157, 260, 172
-0.998461, 241, 135, 272, 150
-0.998463, 273, 91, 304, 106
-0.998463, 261, 111, 292, 126
-0.998464, 269, 199, 300, 214
-0.998464, 461, 349, 492, 364
-0.998465, 49, 265, 176, 296
-0.998466, 217, 197, 248, 212
-0.998467, 253, 139, 284, 154
-0.998469, 201, 97, 264, 112
-0.998469, 33, 61, 160, 92
-0.998471, 273, 227, 304, 242
-0.998471, 245, 151, 276, 166
-0.998483, 433, 145, 496, 272
-0.998485, 153, 131, 216, 146
-0.998486, 345, 279, 376, 294
-0.998486, 153, 87, 184, 102
-0.998486, 209, 115, 240, 130
-0.998492, 297, 189, 360, 204
-0.998495, 241, 105, 272, 120
-0.998516, 177, 99, 240, 114
-0.998516, 193, 137, 256, 152
-0.99852, 257, 201, 288, 216
-0.998522, 209, 99, 240, 114
-0.998522, 201, 115, 264, 130
-0.998523, 201, 157, 264, 172
-0.998524, 257, 231, 320, 246
-0.998526, 225, 95, 288, 110
-0.998526, 261, 89, 292, 104
-0.998527, 117, 65, 148, 320
-0.998529, 233, 195, 296, 210
-0.998533, 229, 95, 260, 110
-0.998534, 201, 105, 264, 120
-0.998535, 233, 201, 296, 216
-0.998538, 197, 155, 228, 170
-0.998538, 297, 345, 360, 360
-0.998539, 145, 105, 208, 120
-0.998544, 145, 125, 208, 140
-0.998545, 161, 119, 224, 134
-0.998547, 297, 327, 360, 342
-0.99855, 297, 195, 360, 210
-0.998552, 161, 111, 224, 126
-0.998553, 145, 99, 208, 114
-0.998555, 121, 85, 184, 100
-0.998556, 145, 233, 208, 248
-0.998556, 205, 191, 236, 206
-0.998556, 121, 127, 184, 142
-0.998557, 265, 199, 328, 214
-0.998558, 249, 89, 312, 104
-0.998561, 137, 199, 200, 214
-0.998564, 305, 339, 368, 354
-0.998564, 193, 131, 256, 146
-0.998566, 313, 361, 376, 375
-0.998566, 297, 353, 360, 368
-0.998567, 241, 95, 272, 110
-0.998567, 153, 151, 216, 166
-0.998567, 185, 151, 248, 166
-0.998568, 297, 175, 360, 190
-0.998569, 169, 191, 232, 206
-0.998569, 337, 293, 400, 308
-0.998571, 177, 105, 240, 120
-0.998573, 193, 191, 256, 206
-0.998575, 225, 155, 288, 170
-0.998576, 297, 201, 360, 216
-0.998578, 257, 239, 320, 254
-0.998579, 145, 93, 208, 108
-0.998581, 41, 171, 104, 186
-0.998581, 433, 337, 496, 352
-0.998581, 169, 137, 232, 152
-0.998582, 385, 1, 416, 256
-0.998583, 305, 211, 368, 226
-0.998584, 225, 105, 288, 120
-0.998584, 65, 171, 128, 186
-0.998585, 297, 333, 360, 348
-0.998587, 225, 115, 288, 130
-0.998587, 73, 73, 136, 88
-0.99859, 297, 183, 360, 198
-0.998592, 225, 89, 288, 104
-0.998592, 73, 1, 104, 256
-0.998593, 241, 137, 304, 152
-0.998593, 433, 349, 496, 364
-0.998593, 41, 73, 104, 88
-0.998594, 145, 227, 208, 242
-0.998595, 137, 211, 200, 226
-0.998596, 337, 303, 400, 318
-0.998596, 273, 327, 336, 342
-0.998597, 297, 169, 360, 184
-0.998597, 297, 129, 360, 144
-0.998597, 201, 143, 264, 158
-0.998597, 217, 171, 280, 186
-0.998598, 297, 153, 360, 168
-0.998598, 121, 149, 184, 164
-0.998599, 121, 91, 184, 106
-0.998599, 153, 245, 216, 260
-0.9986, 201, 121, 264, 136
-0.9986, 337, 287, 400, 302
-0.998601, 297, 145, 360, 160
-0.998602, 121, 119, 184, 134
-0.998604, 305, 233, 368, 248
-0.998606, 121, 105, 184, 120
-0.998607, 297, 163, 360, 178
-0.998607, 121, 99, 184, 114
-0.998608, 177, 125, 240, 140
-0.998608, 337, 281, 400, 296
-0.998608, 305, 321, 368, 336
-0.998609, 145, 87, 208, 102
-0.99861, 217, 149, 280, 164
-0.99861, 321, 345, 384, 360
-0.998611, 297, 139, 360, 154
-0.998612, 201, 165, 264, 180
-0.998613, 297, 121, 360, 136
-0.998613, 161, 157, 224, 172
-0.998614, 337, 313, 400, 328
-0.998614, 145, 205, 208, 220
-0.998614, 121, 111, 184, 126
-0.998615, 213, 1, 244, 256
-0.998615, 433, 343, 496, 358
-0.998615, 249, 147, 312, 162
-0.998617, 305, 221, 368, 236
-0.998617, 305, 283, 368, 298
-0.998617, 225, 239, 288, 254
-0.998618, 297, 115, 360, 130
-0.998618, 433, 329, 496, 344
-0.998618, 1, 253, 128, 284
-0.998622, 33, 121, 96, 136
-0.998623, 225, 189, 288, 204
-0.998623, 185, 237, 248, 252
-0.998623, 121, 133, 184, 148
-0.998625, 273, 187, 336, 202
-0.998625, 201, 1, 232, 256
-0.998629, 121, 205, 184, 220
-0.998629, 305, 309, 368, 324
-0.99863, 273, 181, 336, 196
-0.998631, 217, 137, 280, 152
-0.998632, 145, 137, 208, 152
-0.998633, 313, 273, 376, 288
-0.998633, 277, 191, 308, 206
-0.998634, 153, 339, 216, 354
-0.998634, 193, 175, 256, 190
-0.998635, 321, 351, 384, 366
-0.998635, 305, 289, 368, 304
-0.998635, 297, 109, 360, 124
-0.998635, 33, 129, 96, 144
-0.998636, 337, 41, 464, 72
-0.998636, 305, 297, 368, 312
-0.998637, 121, 171, 184, 186
-0.998639, 233, 249, 296, 264
-0.998639, 209, 285, 336, 316
-0.998639, 257, 205, 320, 220
-0.998639, 321, 333, 384, 348
-0.998641, 305, 239, 368, 254
-0.998641, 177, 203, 240, 218
-0.998641, 337, 99, 400, 114
-0.998642, 305, 303, 368, 318
-0.998642, 337, 319, 400, 334
-0.998643, 305, 227, 368, 242
-0.998644, 33, 137, 96, 152
-0.998644, 241, 175, 304, 190
-0.998644, 433, 355, 496, 370
-0.998645, 433, 323, 496, 338
-0.998646, 233, 131, 296, 146
-0.998652, 285, 65, 316, 320
-0.998655, 65, 237, 192, 268
-0.998671, 137, 17, 168, 144
-0.998686, 121, 33, 152, 160
-0.998697, 265, 65, 280, 192
-0.998712, 207, 145, 222, 272
-0.998723, 81, 181, 208, 212
-0.998728, 357, 65, 388, 320
-0.998754, 261, 129, 276, 256
-0.998784, 227, 177, 242, 304
-0.998803, 145, 33, 176, 288
-0.998839, 345, 193, 360, 320
-0.998843, 245, 177, 260, 304
-0.998855, 61, 1, 92, 256
-0.998856, 267, 145, 282, 272
-0.99886, 199, 97, 214, 224
-0.998862, 97, 333, 224, 364
-0.998886, 1, 129, 32, 375
-0.998901, 259, 193, 274, 320
-0.998906, 219, 177, 234, 304
-0.998908, 237, 129, 252, 256
-0.998913, 369, 13, 496, 44
-0.998916, 213, 177, 228, 304
-0.998917, 193, 345, 320, 375
-0.998918, 209, 65, 336, 96
-0.998928, 129, 273, 256, 304
-0.998931, 253, 193, 268, 320
-0.99894, 85, 97, 116, 352
-0.998941, 81, 1, 208, 64
-0.998945, 345, 113, 360, 240
-0.998958, 273, 193, 288, 320
-0.998964, 235, 177, 250, 304
-0.998979, 251, 33, 266, 160
-0.998992, 289, 33, 416, 64
-0.999001, 231, 129, 246, 256
-0.99901, 163, 65, 178, 192
-0.999021, 49, 253, 176, 284
-0.999022, 281, 177, 296, 304
-0.999024, 213, 129, 228, 256
-0.999031, 317, 129, 348, 375
-0.999032, 313, 81, 344, 208
-0.999036, 225, 129, 240, 256
-0.999041, 105, 129, 136, 375
-0.99905, 201, 177, 216, 304
-0.999056, 185, 97, 200, 224
-0.999056, 189, 145, 204, 272
-0.999059, 85, 1, 116, 256
-0.999063, 255, 113, 270, 240
-0.999075, 195, 177, 210, 304
-0.999082, 259, 65, 274, 192
-0.999083, 177, 1, 304, 64
-0.999084, 267, 193, 282, 320
-0.999087, 373, 1, 404, 256
-0.999093, 349, 241, 364, 368
-0.999103, 273, 113, 288, 240
-0.999106, 243, 129, 258, 256
-0.99911, 369, 261, 496, 292
-0.999112, 33, 193, 160, 224
-0.999117, 113, 65, 128, 192
-0.99912, 445, 1, 476, 256
-0.999127, 287, 145, 302, 272
-0.99913, 219, 129, 234, 256
-0.999134, 207, 97, 222, 224
-0.99915, 293, 145, 308, 272
-0.99916, 193, 97, 208, 224
-0.999174, 485, 241, 500, 368
-0.999179, 347, 65, 362, 192
-0.999182, 355, 209, 370, 336
-0.999183, 189, 49, 204, 176
-0.999183, 337, 49, 352, 176
-0.999185, 173, 49, 188, 176
-0.999193, 241, 81, 256, 208
-0.999202, 249, 129, 264, 256
-0.999205, 179, 113, 194, 240
-0.999216, 167, 113, 182, 240
-0.999217, 157, 65, 172, 192
-0.999217, 433, 1, 464, 256
-0.999226, 287, 65, 302, 192
-0.999237, 155, 145, 170, 272
-0.999241, 137, 177, 152, 304
-0.999247, 49, 65, 64, 192
-0.999253, 247, 225, 262, 352
-0.999255, 397, 1, 428, 256
-0.999257, 145, 193, 160, 320
-0.999257, 235, 225, 250, 352
-0.999258, 313, 177, 328, 304
-0.99926, 263, 241, 278, 368
-0.999262, 161, 145, 176, 272
-0.999282, 301, 145, 316, 272
-0.999283, 289, 193, 304, 320
-0.999287, 281, 113, 296, 240
-0.99929, 235, 81, 250, 208
-0.999293, 1, 49, 32, 176
-0.999293, 457, 1, 488, 256
-0.999297, 271, 241, 286, 368
-0.999303, 255, 241, 270, 368
-0.999306, 199, 49, 214, 176
-0.999308, 229, 81, 244, 208
-0.999312, 257, 1, 500, 64
-0.999313, 277, 65, 292, 192
-0.999314, 219, 225, 234, 352
-0.999337, 337, 145, 352, 272
-0.999338, 61, 97, 92, 352
-0.999341, 49, 129, 80, 375
-0.999364, 297, 33, 328, 288
-0.999367, 247, 81, 262, 208
-0.999368, 271, 65, 286, 192
-0.999368, 207, 193, 222, 320
-0.999369, 73, 97, 104, 352
-0.999378, 65, 17, 320, 80
-0.999379, 229, 225, 244, 352
-0.99938, 107, 81, 122, 208
-0.999382, 213, 81, 228, 208
-0.999389, 263, 17, 278, 144
-0.99939, 413, 65, 444, 320
-0.999391, 173, 145, 188, 272
-0.999393, 241, 225, 256, 352
-0.999394, 189, 193, 204, 320
-0.999397, 55, 81, 70, 208
-0.9994, 355, 65, 370, 192
-0.9994, 241, 33, 256, 160
-0.999401, 485, 81, 500, 208
-0.999412, 277, 241, 292, 368
-0.999419, 151, 97, 166, 224
-0.999422, 295, 193, 310, 320
-0.999428, 339, 193, 354, 320
-0.999441, 275, 17, 290, 144
-0.999448, 37, 129, 68, 375
-0.999453, 307, 145, 322, 272
-0.999455, 347, 17, 362, 144
-0.999459, 291, 241, 306, 368
-0.99947, 223, 81, 238, 208
-0.999474, 213, 225, 228, 352
-0.999474, 183, 49, 198, 176
-0.999481, 355, 17, 370, 144
-0.999485, 313, 129, 328, 256
-0.999489, 317, 225, 332, 352
-0.999491, 115, 161, 130, 288
-0.999493, 293, 97, 308, 224
-0.999494, 183, 177, 198, 304
-0.999498, 151, 193, 166, 320
-0.9995, 235, 33, 250, 160
-0.999504, 149, 145, 164, 272
-0.999507, 131, 193, 146, 320
-0.999513, 363, 33, 378, 160
-0.999517, 163, 193, 178, 320
-0.999519, 93, 81, 108, 208
-0.999522, 229, 33, 244, 160
-0.999534, 149, 49, 164, 176
-0.999536, 337, 97, 352, 224
-0.999538, 201, 225, 216, 352
-0.999542, 115, 113, 130, 240
-0.999543, 209, 33, 224, 160
-0.999548, 309, 33, 340, 288
-0.999555, 159, 17, 174, 144
-0.999555, 3, 209, 18, 336
-0.999562, 209, 105, 224, 120
-0.999562, 485, 177, 500, 304
-0.999563, 161, 149, 176, 164
-0.999563, 91, 171, 106, 186
-0.999563, 341, 349, 356, 364
-0.999563, 205, 149, 220, 164
-0.999563, 275, 121, 290, 136
-0.999563, 275, 105, 290, 120
-0.999563, 99, 97, 114, 224
-0.999564, 269, 147, 284, 162
-0.999564, 211, 131, 226, 146
-0.999565, 65, 119, 80, 134
-0.999566, 275, 131, 290, 146
-0.999566, 101, 171, 116, 186
-0.999567, 247, 139, 262, 154
-0.999567, 199, 141, 214, 156
-0.999567, 219, 33, 234, 160
-0.999569, 205, 261, 220, 276
-0.99957, 229, 115, 244, 130
-0.99957, 143, 145, 158, 272
-0.99957, 231, 171, 246, 186
-0.999571, 275, 97, 290, 112
-0.999571, 221, 197, 236, 212
-0.999571, 179, 223, 194, 238
-0.999571, 115, 161, 130, 176
-0.999572, 203, 249, 218, 264
-0.999572, 253, 177, 268, 192
-0.999572, 241, 171, 256, 186
-0.999572, 239, 195, 254, 210
-0.999572, 241, 143, 256, 158
-0.999573, 239, 299, 254, 314
-0.999574, 419, 49, 434, 176
-0.999574, 205, 173, 220, 188
-0.999574, 199, 99, 214, 114
-0.999574, 201, 105, 216, 120
-0.999574, 241, 149, 256, 164
-0.999574, 107, 171, 122, 186
-0.999575, 241, 129, 256, 144
-0.999575, 235, 291, 250, 306
-0.999576, 481, 335, 496, 350
-0.999577, 251, 133, 266, 148
-0.999578, 345, 211, 360, 226
-0.999578, 257, 241, 272, 256
-0.999578, 357, 279, 372, 294
-0.999579, 161, 155, 176, 170
-0.99958, 241, 161, 256, 176
-0.99958, 221, 115, 236, 130
-0.99958, 115, 167, 130, 182
-0.99958, 175, 105, 190, 120
-0.999581, 275, 111, 290, 126
-0.999582, 199, 169, 214, 184
-0.999583, 175, 99, 190, 114
-0.999583, 175, 115, 190, 130
-0.999583, 475, 347, 490, 362
-0.999583, 175, 121, 190, 136
-0.999583, 185, 99, 200, 114
-0.999584, 289, 89, 304, 104
-0.999584, 323, 193, 338, 320
-0.999585, 75, 97, 90, 224
-0.999585, 183, 157, 198, 172
-0.999586, 215, 115, 230, 130
-0.999587, 251, 119, 266, 134
-0.999587, 241, 115, 256, 130
-0.999587, 199, 243, 214, 258
-0.999588, 415, 1, 430, 128
-0.99959, 265, 139, 280, 154
-0.99959, 479, 17, 494, 144
-0.999591, 285, 241, 300, 368
-0.999591, 299, 237, 314, 252
-0.999593, 253, 199, 268, 214
-0.999593, 177, 193, 192, 320
-0.999593, 165, 85, 180, 100
-0.999593, 189, 245, 204, 260
-0.999593, 173, 97, 188, 224
-0.999594, 483, 317, 498, 332
-0.999594, 485, 307, 500, 322
-0.999594, 245, 201, 260, 216
-0.999596, 341, 355, 356, 370
-0.999596, 49, 73, 64, 88
-0.999598, 257, 145, 272, 160
-0.999598, 479, 241, 494, 368
-0.9996, 215, 165, 230, 180
-0.999601, 199, 111, 214, 126
-0.999604, 1, 33, 32, 288
-0.999605, 265, 157, 280, 172
-0.999606, 407, 49, 422, 176
-0.999607, 263, 237, 278, 252
-0.999609, 483, 323, 498, 338
-0.99961, 37, 33, 68, 288
-0.99961, 211, 147, 226, 162
-0.99961, 175, 127, 190, 142
-0.999611, 293, 233, 308, 248
-0.999611, 253, 171, 268, 186
-0.999612, 113, 73, 128, 88
-0.999613, 481, 329, 496, 344
-0.999613, 239, 201, 254, 216
-0.999614, 269, 205, 284, 220
-0.999614, 197, 199, 212, 214
-0.999615, 225, 173, 240, 188
-0.999616, 259, 177, 274, 192
-0.999618, 263, 89, 278, 104
-0.999618, 369, 113, 496, 176
-0.999619, 351, 213, 366, 228
-0.999622, 209, 99, 224, 114
-0.999623, 159, 85, 174, 100
-0.999624, 183, 151, 198, 166
-0.999624, 205, 137, 220, 152
-0.999625, 225, 137, 240, 152
-0.999626, 233, 99, 248, 114
-0.999626, 199, 119, 214, 134
-0.999626, 187, 205, 202, 220
-0.999626, 233, 137, 248, 152
-0.999627, 271, 247, 286, 262
-0.999631, 227, 97, 242, 112
-0.999631, 219, 97, 234, 112
-0.999632, 229, 195, 244, 210
-0.999633, 235, 155, 250, 170
-0.999635, 135, 191, 150, 206
-0.999635, 199, 133, 214, 148
-0.999635, 253, 95, 268, 110
-0.999635, 257, 137, 272, 152
-0.999636, 197, 149, 212, 164
-0.999636, 193, 157, 208, 172
-0.999638, 303, 197, 318, 212
-0.999639, 247, 145, 262, 160
-0.999642, 243, 155, 258, 170
-0.999643, 253, 153, 268, 168
-0.999647, 341, 361, 356, 375
-0.999647, 209, 115, 224, 130
-0.999648, 167, 149, 182, 164
-0.99965, 351, 281, 366, 296
-0.999651, 355, 273, 370, 288
-0.999652, 211, 153, 226, 168
-0.999655, 293, 193, 308, 208
-0.999658, 173, 153, 188, 168
-0.99966, 217, 137, 232, 152
-0.999662, 241, 137, 256, 152
-0.999664, 211, 137, 226, 152
-0.999666, 241, 95, 256, 110
-0.999671, 213, 159, 228, 174
-0.999673, 261, 151, 276, 166
-0.999685, 205, 155, 220, 170
-0.999687, 261, 203, 276, 218
-0.999687, 281, 189, 296, 204
-0.999689, 273, 199, 288, 214
-0.999716, 207, 189, 222, 204
-0.999724, 133, 33, 164, 288
-0.999754, 267, 199, 282, 214
-0.999935, 369, 97, 400, 352
-1.00009, 169, 241, 200, 368
-1.00017, 397, 97, 428, 352
-1.0002, 101, 17, 132, 144
-1.00025, 385, 97, 416, 352
-1.00029, 41, 177, 104, 304
-1.0003, 1, 17, 500, 80
-1.00031, 25, 97, 56, 352
-1.00045, 429, 97, 460, 352
-1.00047, 161, 1, 416, 64
-1.00055, 25, 1, 56, 256
-1.00067, 13, 129, 44, 375
-1.00069, 441, 97, 472, 352
-1.00074, 353, 145, 384, 272
-1.00074, 457, 97, 488, 352
-1.00092, 113, 241, 144, 368
-1.00098, 377, 241, 408, 368
-1.00099, 361, 241, 424, 368
-1.00111, 13, 1, 44, 256
-1.00114, 409, 97, 472, 224
-1.00119, 17, 313, 144, 375
-1.00121, 81, 161, 112, 288
-1.00139, 33, 1, 160, 64
-1.00141, 1, 281, 128, 344
-1.00144, 69, 145, 100, 272
-1.00204, 401, 97, 464, 352
-1.00208, 65, 241, 128, 368
-1.00238, 401, 241, 464, 368
-1.00253, 369, 193, 496, 256
-1.00291, 369, 153, 496, 216
-1.00321, 41, 241, 104, 368
-1.00457, 369, 217, 496, 280
-1.00708, 361, 193, 424, 320
-1.00942, 377, 113, 440, 240
-1.00973, 385, 193, 448, 320
-1.01321, 369, 129, 496, 256
-1.01352, 353, 129, 416, 256
-1.01478, 409, 161, 472, 288
