1960
-0.460352, 1, 97, 500, 352
-0.582537, 1, 1, 500, 367
-0.61727, 129, 1, 384, 367
-0.629813, 1, 1, 500, 256
-0.693782, 33, 1, 288, 367
-0.708257, 257, 1, 500, 367
-0.712839, 193, 97, 448, 352
-0.773673, 97, 97, 352, 352
-0.795098, 1, 97, 256, 352
-0.816283, 193, 1, 448, 256
-0.868896, 129, 1, 256, 367
-0.872259, 1, 193, 500, 320
-0.872489, 97, 1, 352, 256
-0.875109, 321, 97, 448, 352
-0.882864, 209, 97, 336, 352
-0.891695, 81, 97, 208, 352
-0.894183, 129, 97, 256, 352
-0.89503, 1, 65, 128, 320
-0.901137, 1, 1, 256, 256
-0.901232, 273, 97, 400, 352
-0.902384, 1, 145, 500, 272
-0.906202, 209, 1, 336, 367
-0.911638, 369, 97, 496, 352
-0.91232, 81, 1, 208, 367
-0.912882, 161, 161, 416, 288
-0.913207, 305, 1, 432, 367
-0.913993, 177, 1, 304, 256
-0.915978, 33, 1, 160, 367
-0.921956, 33, 177, 288, 304
-0.925102, 1, 241, 500, 367
-0.927409, 369, 1, 496, 367
-0.928072, 161, 145, 288, 272
-0.929432, 81, 1, 208, 256
-0.929432, 369, 1, 496, 256
-0.929835, 257, 161, 500, 288
-0.930883, 225, 1, 352, 256
-0.934145, 209, 193, 336, 320
-0.93418, 209, 145, 336, 272
-0.93552, 193, 113, 448, 240
-0.93564, 65, 129, 320, 256
-0.936195, 257, 241, 500, 367
-0.93879, 289, 145, 416, 272
-0.939326, 289, 1, 416, 256
-0.939842, 265, 193, 328, 320
-0.940313, 201, 145, 264, 272
-0.941235, 1, 81, 500, 208
-0.941776, 161, 145, 224, 272
-0.941932, 33, 225, 288, 352
-0.942191, 289, 193, 416, 320
-0.942432, 49, 145, 112, 272
-0.942481, 225, 145, 288, 272
-0.943258, 81, 161, 208, 288
-0.944494, 161, 209, 416, 336
-0.944687, 257, 1, 384, 367
-0.945308, 1, 17, 500, 144
-0.946883, 337, 161, 464, 288
-0.947046, 89, 129, 152, 256
-0.947307, 129, 161, 192, 224
-0.948378, 409, 161, 472, 288
-0.948413, 385, 209, 448, 336
-0.94844, 129, 1, 256, 256
-0.949015, 145, 193, 272, 320
-0.949106, 289, 209, 352, 336
-0.95083, 65, 193, 128, 320
-0.951329, 305, 145, 368, 272
-0.952164, 265, 145, 328, 272
-0.952379, 25, 193, 88, 320
-0.952639, 65, 209, 192, 336
-0.953252, 49, 161, 112, 224
-0.954681, 129, 177, 192, 304
-0.954718, 1, 177, 128, 304
-0.954912, 201, 193, 264, 320
-0.956179, 265, 201, 328, 264
-0.956504, 281, 161, 344, 224
-0.95666, 65, 113, 192, 240
-0.956934, 385, 145, 448, 272
-0.95734, 337, 161, 400, 288
-0.957396, 97, 177, 160, 304
-0.957422, 17, 225, 144, 352
-0.957723, 313, 193, 376, 320
-0.958774, 65, 185, 128, 248
-0.959172, 113, 113, 240, 240
-0.959218, 97, 169, 160, 232
-0.959307, 409, 225, 472, 352
-0.959584, 169, 1, 232, 128
-0.959796, 169, 153, 232, 216
-0.959844, 337, 161, 400, 224
-0.959874, 337, 113, 464, 240
-0.960014, 289, 241, 416, 367
-0.960196, 241, 193, 304, 320
-0.960357, 361, 145, 424, 272
-0.960444, 65, 209, 128, 272
-0.960645, 65, 129, 128, 192
-0.961263, 145, 185, 208, 248
-0.961375, 89, 145, 152, 208
-0.961534, 209, 153, 272, 216
-0.961919, 369, 209, 496, 336
-0.961924, 49, 241, 112, 367
-0.962811, 257, 1, 500, 128
-0.963282, 17, 241, 80, 367
-0.963395, 257, 169, 320, 232
-0.963955, 17, 217, 80, 280
-0.964005, 409, 305, 472, 367
-0.964008, 105, 201, 168, 264
-0.964122, 201, 201, 264, 264
-0.964212, 289, 185, 352, 248
-0.964276, 417, 185, 480, 248
-0.964331, 177, 193, 240, 320
-0.964513, 121, 129, 184, 256
-0.965105, 241, 241, 368, 367
-0.965269, 153, 209, 216, 272
-0.965458, 305, 249, 368, 312
-0.965806, 305, 153, 368, 216
-0.966125, 169, 177, 232, 240
-0.966382, 433, 161, 496, 288
-0.966443, 97, 1, 352, 128
-0.966661, 289, 209, 352, 272
-0.966911, 145, 129, 208, 192
-0.966953, 281, 1, 344, 128
-0.967093, 241, 201, 304, 264
-0.967287, 337, 209, 400, 336
-0.967504, 113, 1, 240, 128
-0.96752, 65, 233, 128, 296
-0.967655, 209, 97, 336, 224
-0.9677, 185, 97, 248, 224
-0.967821, 361, 193, 424, 320
-0.967869, 41, 193, 104, 256
-0.96788, 97, 81, 352, 208
-0.96797, 89, 225, 152, 352
-0.968178, 433, 241, 496, 367
-0.968262, 153, 193, 216, 320
-0.968605, 361, 241, 424, 367
-0.968778, 401, 273, 464, 336
-0.968841, 1, 177, 64, 304
-0.968855, 229, 145, 260, 272
-0.968983, 65, 169, 192, 232
-0.969182, 393, 217, 456, 280
-0.969514, 433, 305, 496, 367
-0.96962, 161, 97, 288, 224
-0.969741, 1, 129, 64, 256
-0.970269, 281, 1, 344, 64
-0.97036, 385, 297, 448, 360
-0.970413, 425, 265, 488, 328
-0.970488, 129, 209, 192, 272
-0.970616, 65, 145, 192, 208
-0.970659, 145, 9, 208, 72
-0.970704, 273, 1, 400, 128
-0.970896, 417, 113, 480, 240
-0.971217, 1, 153, 64, 216
-0.971229, 33, 17, 160, 144
-0.971346, 233, 161, 296, 224
-0.971424, 393, 193, 456, 256
-0.971431, 225, 1, 352, 128
-0.971567, 385, 241, 448, 304
-0.971603, 17, 193, 80, 256
-0.971701, 337, 113, 400, 240
-0.971741, 169, 1, 232, 64
-0.97191, 361, 1, 424, 128
-0.971923, 1, 241, 64, 304
-0.972102, 1, 129, 128, 256
-0.972123, 289, 273, 352, 336
-0.972191, 81, 161, 112, 224
-0.972501, 377, 81, 440, 208
-0.97254, 145, 97, 208, 224
-0.972605, 169, 129, 232, 192
-0.97272, 145, 1, 208, 128
-0.972809, 213, 145, 244, 272
-0.972811, 89, 121, 152, 184
-0.972841, 265, 225, 328, 288
-0.972933, 33, 249, 96, 312
-0.973037, 157, 153, 188, 216
-0.973214, 193, 241, 320, 367
-0.973286, 113, 177, 240, 240
-0.973306, 97, 177, 128, 240
-0.973376, 241, 97, 304, 224
-0.973542, 393, 169, 456, 232
-0.973616, 17, 169, 144, 232
-0.973712, 417, 209, 480, 272
-0.973759, 281, 249, 344, 312
-0.973817, 25, 161, 88, 224
-0.973829, 85, 177, 116, 304
-0.973895, 49, 105, 112, 168
-0.973928, 313, 225, 376, 288
-0.974236, 321, 1, 384, 64
-0.974256, 313, 201, 376, 264
-0.974374, 129, 225, 192, 352
-0.974638, 25, 145, 88, 272
-0.974658, 201, 177, 264, 240
-0.974902, 369, 161, 432, 224
-0.975001, 177, 201, 240, 264
-0.975015, 353, 1, 480, 128
-0.975039, 257, 97, 384, 224
-0.975044, 369, 193, 432, 256
-0.975044, 361, 297, 424, 360
-0.975116, 353, 257, 416, 320
-0.97523, 201, 145, 232, 272
-0.975231, 145, 153, 272, 216
-0.975283, 97, 145, 128, 208
-0.975313, 321, 169, 448, 232
-0.975437, 273, 177, 400, 240
-0.975563, 41, 225, 104, 288
-0.975583, 345, 233, 408, 296
-0.975617, 313, 241, 376, 367
-0.975764, 193, 201, 320, 264
-0.975801, 289, 177, 320, 304
-0.975815, 297, 169, 328, 232
-0.975901, 313, 289, 376, 352
-0.975956, 1, 81, 256, 208
-0.976205, 97, 129, 128, 256
-0.976298, 97, 121, 128, 184
-0.976401, 193, 161, 320, 224
-0.97656, 433, 305, 464, 367
-0.976612, 249, 145, 280, 272
-0.97666, 317, 145, 348, 272
-0.976728, 285, 177, 316, 240
-0.97674, 177, 1, 304, 128
-0.976977, 161, 145, 192, 272
-0.977018, 17, 129, 80, 192
-0.977077, 337, 1, 400, 128
-0.977197, 329, 265, 392, 328
-0.977319, 285, 201, 316, 264
-0.977385, 105, 225, 168, 288
-0.977626, 41, 129, 104, 192
-0.977634, 1, 113, 128, 176
-0.977662, 297, 193, 328, 256
-0.977813, 217, 1, 280, 256
-0.977928, 113, 201, 240, 264
-0.977945, 145, 33, 208, 96
-0.978013, 41, 193, 72, 256
-0.978022, 153, 241, 216, 304
-0.978033, 1, 17, 256, 144
-0.978049, 313, 161, 344, 224
-0.978071, 121, 273, 184, 336
-0.978137, 109, 145, 140, 272
-0.978187, 145, 241, 272, 367
-0.978252, 205, 201, 236, 264
-0.97831, 405, 161, 436, 288
-0.978325, 233, 137, 296, 200
-0.978341, 169, 25, 232, 88
-0.978365, 337, 297, 400, 360
-0.978367, 361, 161, 392, 224
-0.978391, 137, 153, 168, 216
-0.978528, 61, 169, 92, 232
-0.978602, 81, 121, 208, 184
-0.978658, 269, 193, 300, 320
-0.978669, 437, 265, 468, 328
-0.978679, 169, 97, 232, 352
-0.978687, 321, 201, 448, 264
-0.978715, 61, 177, 92, 304
-0.978721, 65, 273, 128, 336
-0.978808, 229, 153, 260, 216
-0.978855, 97, 193, 128, 320
-0.978868, 313, 177, 376, 240
-0.978896, 321, 97, 384, 352
-0.978925, 177, 281, 240, 344
-0.978984, 385, 97, 448, 352
-0.979054, 129, 233, 192, 296
-0.979064, 17, 145, 144, 208
-0.979138, 9, 265, 72, 328
-0.979195, 321, 297, 448, 360
-0.979203, 89, 273, 152, 336
-0.979208, 201, 305, 264, 367
-0.979225, 265, 289, 328, 352
-0.979229, 425, 177, 456, 304
-0.979245, 385, 1, 448, 128
-0.979395, 241, 1, 304, 64
-0.979396, 109, 161, 140, 224
-0.97941, 265, 97, 328, 352
-0.97954, 241, 201, 368, 264
-0.979544, 169, 49, 232, 112
-0.979568, 377, 129, 440, 192
-0.97965, 277, 145, 308, 272
-0.979688, 65, 97, 128, 224
-0.979735, 89, 81, 152, 208
-0.979843, 229, 193, 260, 320
-0.979926, 353, 97, 416, 352
-0.979952, 421, 305, 452, 367
-0.979964, 301, 161, 332, 288
-0.980019, 145, 49, 208, 176
-0.980022, 121, 129, 184, 192
-0.980082, 149, 177, 180, 304
-0.980135, 145, 97, 208, 352
-0.98014, 273, 153, 400, 216
-0.980167, 353, 129, 416, 192
-0.980169, 401, 209, 432, 336
-0.9802, 209, 161, 240, 224
-0.980264, 17, 193, 144, 256
-0.980299, 257, 1, 320, 128
-0.98033, 257, 145, 320, 208
-0.980341, 81, 17, 144, 144
-0.980341, 225, 65, 480, 192
-0.980428, 281, 137, 344, 200
-0.980473, 369, 297, 496, 360
-0.980536, 321, 257, 448, 320
-0.980581, 49, 161, 80, 224
-0.980658, 81, 129, 112, 192
-0.980665, 65, 193, 192, 256
-0.980693, 417, 33, 480, 160
-0.980794, 417, 161, 480, 224
-0.98082, 97, 249, 160, 312
-0.980945, 329, 145, 360, 272
-0.980992, 273, 97, 336, 224
-0.981008, 273, 161, 304, 224
-0.981023, 273, 201, 304, 264
-0.98104, 229, 193, 260, 256
-0.981049, 33, 273, 96, 336
-0.9811, 81, 185, 112, 248
-0.981153, 225, 305, 288, 367
-0.981232, 121, 81, 184, 208
-0.981271, 193, 241, 256, 304
-0.981294, 173, 145, 204, 272
-0.981297, 437, 241, 468, 367
-0.981306, 137, 297, 200, 360
-0.981339, 369, 217, 432, 280
-0.981377, 369, 65, 496, 192
-0.981406, 125, 177, 156, 240
-0.981459, 265, 241, 328, 367
-0.981485, 377, 265, 440, 328
-0.981492, 169, 185, 200, 248
-0.981582, 41, 209, 72, 336
-0.981591, 321, 225, 448, 288
-0.981624, 369, 169, 496, 232
-0.981649, 369, 97, 432, 160
-0.981655, 81, 217, 112, 280
-0.981659, 1, 81, 128, 208
-0.981745, 209, 97, 272, 224
-0.981745, 289, 97, 352, 352
-0.981765, 29, 201, 60, 264
-0.981813, 105, 1, 168, 128
-0.981869, 393, 1, 456, 64
-0.981875, 41, 217, 72, 280
-0.98192, 149, 209, 180, 272
-0.981985, 373, 161, 404, 224
-0.982106, 209, 137, 336, 200
-0.982114, 389, 161, 420, 288
-0.982157, 189, 145, 220, 272
-0.98222, 25, 105, 88, 168
-0.98222, 417, 241, 480, 304
-0.982227, 61, 193, 92, 256
-0.982229, 405, 217, 436, 280
-0.982249, 173, 145, 204, 208
-0.982249, 345, 161, 376, 224
-0.982386, 241, 97, 304, 352
-0.9824, 73, 177, 104, 304
-0.98249, 341, 177, 372, 304
-0.982516, 449, 225, 480, 352
-0.982533, 69, 129, 100, 192
-0.98254, 209, 137, 240, 200
-0.982583, 169, 49, 232, 176
-0.982598, 113, 297, 176, 360
-0.982629, 1, 33, 64, 96
-0.982646, 33, 225, 160, 288
-0.98267, 157, 177, 188, 240
-0.982678, 169, 1, 232, 367
-0.982692, 81, 97, 144, 160
-0.982712, 205, 193, 236, 320
-0.982736, 193, 97, 256, 352
-0.982744, 145, 177, 176, 240
-0.982756, 321, 65, 384, 192
-0.982801, 97, 201, 128, 264
-0.982804, 321, 121, 384, 184
-0.982853, 409, 97, 472, 352
-0.982853, 1, 17, 64, 144
-0.982868, 225, 1, 352, 64
-0.982888, 201, 129, 264, 192
-0.982985, 325, 153, 356, 216
-0.983, 445, 305, 476, 367
-0.983019, 209, 9, 272, 72
-0.983052, 297, 97, 360, 224
-0.983052, 201, 281, 264, 344
-0.98308, 1, 105, 64, 168
-0.983103, 81, 129, 112, 256
-0.983126, 261, 201, 292, 264
-0.983179, 357, 145, 388, 272
-0.983252, 401, 193, 432, 256
-0.983322, 97, 97, 160, 352
-0.983392, 225, 281, 288, 344
-0.983408, 65, 297, 128, 360
-0.983537, 369, 73, 432, 136
-0.98355, 313, 193, 344, 320
-0.983568, 313, 1, 344, 64
-0.983569, 145, 129, 272, 192
-0.983601, 217, 193, 248, 320
-0.983618, 257, 193, 288, 320
-0.983661, 225, 241, 288, 367
-0.983678, 61, 241, 92, 367
-0.98371, 137, 177, 168, 304
-0.983713, 345, 209, 408, 272
-0.983726, 129, 305, 256, 367
-0.983859, 437, 193, 468, 320
-0.983899, 169, 305, 232, 367
-0.983919, 261, 161, 292, 224
-0.983928, 465, 169, 496, 232
-0.983937, 321, 81, 384, 144
-0.983955, 433, 97, 496, 352
-0.983965, 369, 1, 432, 64
-0.984033, 69, 129, 100, 256
-0.984088, 209, 289, 336, 352
-0.98414, 81, 49, 208, 176
-0.984154, 369, 225, 496, 288
-0.984206, 249, 193, 280, 256
-0.984233, 389, 209, 420, 336
-0.984246, 169, 73, 232, 136
-0.984359, 197, 153, 228, 216
-0.984361, 137, 209, 168, 272
-0.984388, 405, 169, 436, 232
-0.984495, 249, 1, 280, 64
-0.984586, 321, 49, 384, 112
-0.984601, 41, 97, 104, 224
-0.984632, 169, 1, 232, 256
-0.98464, 293, 225, 324, 352
-0.984644, 425, 57, 488, 120
-0.984676, 405, 1, 436, 128
-0.98468, 417, 129, 448, 256
-0.984694, 129, 281, 256, 344
-0.984727, 425, 241, 456, 367
-0.984727, 145, 105, 208, 168
-0.984795, 145, 273, 208, 336
-0.984818, 209, 225, 336, 288
-0.984836, 217, 193, 248, 256
-0.98484, 305, 65, 432, 192
-0.984944, 121, 25, 184, 88
-0.984972, 217, 225, 280, 288
-0.984973, 125, 177, 156, 304
-0.985007, 369, 201, 496, 264
-0.985015, 105, 89, 168, 152
-0.985021, 369, 145, 496, 208
-0.985022, 181, 169, 212, 232
-0.985065, 225, 249, 288, 312
-0.985074, 85, 225, 116, 352
-0.985082, 405, 113, 436, 240
-0.985116, 261, 145, 292, 272
-0.985118, 145, 57, 208, 120
-0.985121, 189, 193, 220, 320
-0.985133, 17, 273, 144, 336
-0.98514, 321, 25, 384, 88
-0.985163, 125, 145, 156, 208
-0.985179, 1, 289, 64, 352
-0.985194, 249, 169, 280, 232
-0.985309, 65, 97, 128, 352
-0.985348, 321, 129, 448, 192
-0.98541, 417, 201, 448, 264
-0.985448, 65, 273, 192, 336
-0.985455, 85, 105, 116, 168
-0.985558, 153, 129, 184, 192
-0.985671, 369, 249, 496, 312
-0.985673, 109, 129, 140, 192
-0.985693, 369, 145, 400, 272
-0.985706, 241, 193, 272, 320
-0.985798, 73, 225, 104, 352
-0.98582, 369, 273, 496, 336
-0.985868, 97, 233, 224, 296
-0.985898, 313, 217, 344, 280
-0.985945, 321, 1, 384, 256
-0.985981, 257, 281, 384, 344
-0.986008, 421, 281, 452, 344
-0.986012, 153, 241, 216, 367
-0.986022, 9, 193, 40, 320
-0.986098, 241, 257, 368, 320
-0.986121, 21, 241, 52, 367
-0.98622, 405, 1, 436, 64
-0.986294, 177, 241, 240, 367
-0.986413, 49, 297, 176, 360
-0.986472, 145, 249, 272, 312
-0.986478, 461, 161, 492, 288
-0.986488, 173, 193, 204, 320
-0.986564, 41, 241, 72, 304
-0.986572, 61, 225, 92, 288
-0.986624, 161, 209, 192, 272
-0.986794, 329, 193, 360, 320
-0.98683, 413, 225, 444, 352
-0.986836, 33, 65, 96, 320
-0.986864, 193, 177, 224, 240
-0.986904, 273, 1, 400, 64
-0.986929, 13, 233, 44, 296
-0.986991, 297, 217, 328, 280
-0.987049, 109, 185, 140, 248
-0.98709, 329, 129, 360, 192
-0.987118, 229, 97, 260, 224
-0.987171, 305, 1, 368, 128
-0.987197, 149, 129, 180, 256
-0.987237, 385, 217, 416, 280
-0.987336, 317, 193, 348, 256
-0.98736, 317, 249, 348, 312
-0.987422, 189, 201, 220, 264
-0.987488, 369, 89, 400, 152
-0.987618, 405, 297, 436, 360
-0.987646, 257, 225, 384, 288
-0.987665, 285, 153, 316, 216
-0.987665, 217, 97, 280, 352
-0.987697, 377, 297, 408, 360
-0.987707, 273, 305, 400, 367
-0.987714, 1, 65, 64, 320
-0.987731, 341, 137, 372, 200
-0.987732, 97, 17, 128, 144
-0.987809, 337, 225, 368, 288
-0.987811, 161, 193, 192, 320
-0.987857, 293, 1, 324, 128
-0.987915, 125, 201, 156, 264
-0.987956, 193, 249, 320, 312
-0.988008, 385, 161, 416, 224
-0.988032, 145, 1, 208, 256
-0.988046, 5, 241, 36, 367
-0.988095, 29, 193, 60, 320
-0.98811, 113, 193, 144, 320
-0.988128, 97, 225, 128, 288
-0.98813, 197, 241, 228, 304
-0.988159, 393, 113, 424, 240
-0.98824, 449, 281, 480, 344
-0.988267, 389, 297, 420, 360
-0.988286, 457, 201, 488, 264
-0.98829, 229, 129, 260, 192
-0.988293, 1, 65, 64, 192
-0.988298, 193, 1, 256, 128
-0.988319, 389, 257, 420, 320
-0.988327, 229, 305, 260, 367
-0.988336, 345, 265, 376, 328
-0.988347, 329, 97, 360, 224
-0.988389, 137, 1, 200, 367
-0.988411, 177, 1, 304, 64
-0.988416, 381, 113, 412, 240
-0.988426, 105, 165, 168, 196
-0.98845, 145, 165, 208, 196
-0.988489, 17, 249, 144, 312
-0.988537, 241, 97, 272, 224
-0.988544, 441, 129, 472, 256
-0.988553, 125, 273, 156, 336
-0.988563, 469, 193, 500, 256
-0.988604, 369, 57, 496, 120
-0.988607, 341, 297, 372, 360
-0.988654, 289, 129, 320, 256
-0.988689, 369, 105, 496, 168
-0.988744, 61, 249, 92, 312
-0.988769, 321, 97, 448, 160
-0.988831, 405, 129, 436, 192
-0.988832, 129, 181, 192, 212
-0.988888, 201, 241, 264, 367
-0.988899, 29, 225, 60, 288
-0.98891, 41, 105, 72, 168
-0.988952, 97, 97, 128, 160
-0.988954, 273, 121, 400, 184
-0.988976, 117, 249, 148, 312
-0.988994, 357, 297, 388, 360
-0.989022, 249, 225, 280, 288
-0.989052, 185, 153, 248, 184
-0.989058, 193, 1, 256, 367
-0.98906, 105, 177, 168, 208
-0.989074, 193, 1, 256, 256
-0.989078, 41, 129, 72, 192
-0.989084, 241, 1, 304, 256
-0.989091, 153, 205, 216, 236
-0.989137, 145, 225, 272, 288
-0.98914, 49, 165, 112, 196
-0.989144, 41, 161, 72, 288
-0.989146, 369, 193, 400, 320
-0.989156, 149, 241, 180, 304
-0.989158, 393, 1, 424, 128
-0.989181, 361, 129, 392, 192
-0.989189, 353, 65, 416, 192
-0.989203, 281, 209, 344, 240
-0.98922, 81, 97, 208, 160
-0.989284, 321, 73, 448, 136
-0.989289, 177, 209, 208, 272
-0.989307, 65, 213, 128, 244
-0.989309, 129, 193, 192, 224
-0.989336, 417, 169, 448, 232
-0.989354, 81, 169, 144, 200
-0.989357, 97, 273, 128, 336
-0.989373, 161, 161, 416, 224
-0.989434, 1, 297, 128, 360
-0.98944, 169, 165, 232, 196
-0.989442, 73, 105, 104, 168
-0.989571, 365, 225, 396, 288
-0.989573, 29, 265, 60, 328
-0.98958, 17, 89, 144, 152
-0.989587, 137, 273, 168, 336
-0.989588, 369, 97, 400, 224
-0.989613, 1, 161, 256, 224
-0.989633, 337, 201, 368, 264
-0.989639, 105, 205, 168, 236
-0.989639, 249, 137, 280, 200
-0.989646, 145, 49, 272, 176
-0.989648, 65, 181, 128, 212
-0.989673, 185, 141, 248, 172
-0.989695, 113, 273, 144, 336
-0.989706, 153, 185, 216, 216
-0.989772, 69, 273, 100, 336
-0.989795, 281, 165, 344, 196
-0.989813, 281, 1, 344, 256
-0.989858, 65, 233, 128, 264
-0.989869, 241, 205, 304, 236
-0.989881, 145, 153, 208, 184
-0.98989, 121, 129, 152, 256
-0.989894, 305, 241, 336, 367
-0.989931, 49, 201, 112, 232
-0.989944, 61, 105, 92, 168
-0.989947, 201, 189, 264, 220
-0.989958, 453, 169, 484, 232
-0.989995, 369, 169, 432, 200
-0.990016, 437, 209, 468, 272
-0.990037, 317, 241, 348, 367
-0.990087, 185, 249, 216, 312
-0.990101, 105, 221, 168, 252
-0.990101, 17, 265, 48, 328
-0.990125, 281, 225, 312, 352
-0.990129, 209, 97, 240, 224
-0.990136, 57, 129, 88, 192
-0.990158, 105, 153, 168, 184
-0.990171, 273, 1, 304, 128
-0.990176, 105, 193, 168, 224
-0.990184, 381, 193, 412, 256
-0.990198, 65, 153, 128, 184
-0.990213, 201, 205, 264, 236
-0.990214, 281, 1, 344, 32
-0.990223, 217, 161, 280, 192
-0.990238, 109, 209, 140, 272
-0.990241, 137, 225, 168, 352
-0.990246, 457, 305, 488, 367
-0.990279, 369, 81, 496, 144
-0.99029, 33, 33, 160, 96
-0.990297, 145, 25, 208, 56
-0.990342, 25, 213, 88, 244
-0.990344, 177, 201, 240, 232
-0.990346, 169, 13, 232, 44
-0.990347, 25, 237, 88, 268
-0.990368, 245, 305, 276, 367
-0.990382, 313, 1, 344, 128
-0.990383, 137, 129, 168, 256
-0.990411, 217, 1, 280, 367
-0.990428, 177, 185, 240, 216
-0.990428, 321, 1, 384, 367
-0.990469, 353, 193, 384, 320
-0.990486, 305, 249, 368, 280
-0.99054, 1, 225, 64, 256
-0.990569, 393, 233, 456, 264
-0.990614, 301, 113, 332, 240
-0.990624, 1, 209, 64, 240
-0.99063, 353, 33, 480, 96
-0.990639, 1, 193, 500, 256
-0.990662, 369, 221, 432, 252
-0.990664, 281, 221, 344, 252
-0.990712, 249, 169, 312, 200
-0.990733, 345, 165, 408, 196
-0.990774, 321, 169, 384, 200
-0.990782, 149, 225, 180, 352
-0.990816, 129, 213, 192, 244
-0.99082, 305, 261, 368, 292
-0.990825, 417, 221, 480, 252
-0.990828, 25, 225, 88, 256
-0.990871, 305, 201, 368, 232
-0.990881, 409, 177, 472, 208
-0.990896, 169, 29, 232, 60
-0.990912, 81, 201, 144, 232
-0.990921, 417, 193, 480, 224
-0.99095, 169, 1, 232, 32
-0.990959, 365, 1, 396, 128
-0.990968, 409, 285, 472, 316
-0.990984, 385, 185, 448, 216
-0.990991, 281, 197, 344, 228
-0.991011, 145, 325, 208, 356
-0.991018, 401, 333, 464, 364
-0.991018, 305, 277, 368, 308
-0.991026, 181, 1, 212, 128
-0.991031, 177, 329, 240, 360
-0.991051, 249, 193, 312, 224
-0.991058, 105, 233, 168, 264
-0.991067, 305, 233, 368, 264
-0.991071, 241, 9, 304, 40
-0.99108, 25, 201, 88, 232
-0.991085, 161, 141, 224, 172
-0.991089, 405, 65, 436, 192
-0.99109, 265, 233, 328, 264
-0.991131, 369, 325, 432, 356
-0.991154, 129, 1, 256, 64
-0.991163, 209, 145, 272, 176
-0.991166, 225, 193, 288, 224
-0.991177, 129, 225, 192, 256
-0.991188, 153, 217, 216, 248
-0.991189, 393, 221, 456, 252
-0.991191, 425, 273, 488, 304
-0.991214, 193, 169, 256, 200
-0.991217, 65, 245, 128, 276
-0.991256, 81, 29, 144, 60
-0.991257, 65, 121, 128, 152
-0.99126, 345, 233, 408, 264
-0.991275, 425, 329, 488, 360
-0.991277, 321, 1, 384, 32
-0.991282, 385, 209, 448, 240
-0.99129, 145, 9, 208, 40
-0.991304, 81, 141, 144, 172
-0.991314, 281, 49, 344, 176
-0.991328, 369, 1, 496, 64
-0.991335, 1, 161, 500, 224
-0.991339, 433, 205, 496, 236
-0.991343, 105, 1, 168, 367
-0.99136, 393, 65, 424, 192
-0.991381, 105, 137, 168, 168
-0.991393, 105, 29, 168, 60
-0.991401, 281, 185, 344, 216
-0.99145, 417, 161, 480, 192
-0.991452, 25, 161, 88, 192
-0.991461, 1, 197, 64, 228
-0.991461, 209, 13, 272, 44
-0.991466, 321, 157, 384, 188
-0.991467, 341, 129, 372, 256
-0.991473, 417, 233, 480, 264
-0.991482, 97, 201, 352, 264
-0.991493, 129, 37, 192, 68
-0.991494, 193, 217, 256, 248
-0.991494, 281, 261, 344, 292
-0.991499, 281, 245, 344, 276
-0.991511, 345, 329, 408, 360
-0.991518, 385, 249, 448, 280
-0.991538, 257, 265, 500, 328
-0.991554, 369, 233, 432, 264
-0.991567, 281, 277, 344, 308
-0.991595, 65, 9, 192, 72
-0.991603, 241, 217, 304, 248
-0.991616, 377, 85, 440, 116
-0.991627, 401, 265, 464, 296
-0.991655, 313, 217, 376, 248
-0.99166, 1, 249, 64, 280
-0.991665, 1, 237, 64, 268
-0.991706, 1, 49, 64, 80
-0.991719, 281, 1, 344, 367
-0.99172, 409, 205, 472, 236
-0.991732, 121, 325, 184, 356
-0.991766, 201, 325, 264, 356
-0.991772, 49, 33, 112, 160
-0.991774, 257, 181, 320, 212
-0.991778, 321, 181, 384, 212
-0.991786, 409, 305, 472, 336
-0.991787, 169, 97, 200, 224
-0.991788, 169, 129, 232, 160
-0.991799, 341, 225, 372, 352
-0.991816, 409, 245, 472, 276
-0.991834, 393, 1, 456, 367
-0.991836, 433, 293, 496, 324
-0.991837, 425, 1, 488, 367
-0.991862, 41, 177, 104, 208
-0.991869, 141, 169, 172, 200
-0.991878, 49, 41, 112, 72
-0.991887, 353, 201, 416, 232
-0.991911, 273, 89, 400, 152
-0.991913, 169, 57, 232, 88
-0.991918, 157, 165, 188, 196
-0.991927, 337, 13, 400, 44
-0.991932, 217, 217, 280, 248
-0.991941, 433, 173, 496, 204
-0.991966, 25, 257, 88, 288
-0.991969, 241, 313, 304, 344
-0.991988, 169, 41, 232, 72
-0.992061, 357, 97, 388, 224
-0.992097, 193, 49, 320, 176
-0.992139, 333, 1, 364, 128
-0.99215, 97, 173, 128, 204
-0.992177, 461, 81, 492, 208
-0.992192, 145, 33, 272, 96
-0.992218, 125, 225, 156, 352
-0.992248, 157, 177, 188, 208
-0.992285, 257, 185, 500, 248
-0.992344, 209, 149, 240, 180
-0.992377, 145, 157, 176, 188
-0.992383, 121, 33, 184, 288
-0.992394, 157, 193, 188, 224
-0.992397, 109, 173, 140, 204
-0.992402, 293, 205, 324, 236
-0.992409, 97, 185, 128, 216
-0.992414, 125, 153, 156, 184
-0.992423, 189, 165, 220, 196
-0.992445, 125, 177, 156, 208
-0.992461, 141, 209, 172, 240
-0.992484, 229, 205, 260, 236
-0.992486, 57, 129, 88, 256
-0.992492, 157, 205, 188, 236
-0.992513, 137, 181, 168, 212
-0.992524, 145, 193, 176, 224
-0.992526, 229, 157, 260, 188
-0.992533, 77, 165, 108, 196
-0.992555, 97, 153, 128, 184
-0.992559, 85, 225, 116, 256
-0.992562, 313, 165, 344, 196
-0.992574, 425, 1, 488, 256
-0.992577, 97, 213, 128, 244
-0.992581, 117, 193, 148, 224
-0.992603, 105, 141, 136, 172
-0.992604, 229, 185, 260, 216
-0.992616, 41, 221, 72, 252
-0.992629, 93, 201, 124, 232
-0.992636, 41, 113, 72, 240
-0.992648, 221, 145, 252, 176
-0.992652, 277, 209, 308, 240
-0.992658, 177, 165, 208, 196
-0.99267, 425, 81, 456, 208
-0.992671, 393, 169, 424, 200
-0.992677, 81, 173, 208, 204
-0.992691, 89, 117, 120, 148
-0.992693, 405, 173, 436, 204
-0.992695, 249, 205, 280, 236
-0.992702, 209, 137, 240, 168
-0.992703, 369, 1, 432, 367
-0.992706, 29, 209, 60, 240
-0.992715, 81, 1, 144, 367
-0.992716, 61, 229, 92, 260
-0.992727, 81, 213, 112, 244
-0.992727, 273, 65, 400, 128
-0.992731, 189, 197, 220, 228
-0.992732, 361, 1, 424, 256
-0.992739, 417, 173, 448, 204
-0.992742, 169, 181, 200, 212
-0.992747, 461, 225, 492, 352
-0.992747, 297, 1, 328, 32
-0.992753, 465, 205, 496, 236
-0.992756, 177, 197, 208, 228
-0.992758, 97, 225, 128, 256
-0.992762, 97, 129, 128, 160
-0.992769, 41, 209, 72, 240
-0.99277, 61, 157, 92, 188
-0.992773, 229, 9, 260, 40
-0.99278, 85, 237, 116, 268
-0.992796, 293, 169, 324, 200
-0.992799, 225, 297, 480, 360
-0.992801, 85, 177, 116, 208
-0.992807, 305, 209, 336, 240
-0.992812, 249, 1, 280, 32
-0.992815, 145, 221, 176, 252
-0.992818, 197, 185, 228, 216
-0.992819, 157, 153, 188, 184
-0.992822, 129, 193, 160, 224
-0.992832, 437, 285, 468, 316
-0.992846, 217, 185, 248, 216
-0.99285, 29, 229, 60, 260
-0.99285, 41, 241, 72, 272
-0.992859, 169, 153, 200, 184
-0.992862, 213, 173, 244, 204
-0.992869, 341, 169, 372, 200
-0.992872, 201, 201, 232, 232
-0.992876, 213, 197, 244, 228
-0.992878, 161, 21, 192, 52
-0.99288, 241, 185, 272, 216
-0.992881, 125, 205, 156, 236
-0.992897, 437, 201, 468, 232
-0.992898, 209, 161, 240, 192
-0.992899, 61, 173, 92, 204
-0.992902, 281, 1, 312, 32
-0.992904, 157, 217, 188, 248
-0.992904, 317, 201, 348, 232
-0.99291, 189, 149, 220, 180
-0.992917, 125, 165, 156, 196
-0.992918, 325, 165, 356, 196
-0.992918, 317, 213, 348, 244
-0.99292, 277, 169, 308, 200
-0.992924, 313, 1, 344, 32
-0.992925, 437, 269, 468, 300
-0.992933, 453, 197, 484, 228
-0.992942, 405, 221, 436, 252
-0.992946, 417, 201, 448, 232
-0.992949, 277, 193, 308, 224
-0.992953, 1, 201, 256, 264
-0.992953, 69, 213, 100, 244
-0.992953, 105, 197, 136, 228
-0.992954, 109, 97, 140, 224
-0.992965, 373, 165, 404, 196
-0.99298, 265, 205, 296, 236
-0.992985, 41, 197, 72, 228
-0.992985, 29, 241, 60, 272
-0.992986, 333, 1, 364, 32
-0.992988, 425, 329, 456, 360
-0.992988, 97, 237, 128, 268
-0.992989, 413, 233, 444, 264
-0.992992, 405, 201, 436, 232
-0.992995, 301, 193, 332, 224
-0.993003, 73, 177, 104, 208
-0.993006, 13, 221, 44, 252
-0.993009, 321, 9, 448, 72
-0.993009, 405, 85, 436, 116
-0.99301, 117, 29, 148, 60
-0.993023, 257, 169, 288, 200
-0.993027, 241, 161, 272, 192
-0.993031, 393, 225, 424, 256
-0.993038, 417, 217, 448, 248
-0.993052, 181, 177, 212, 208
-0.993057, 209, 329, 240, 360
-0.99306, 405, 185, 436, 216
-0.993068, 321, 153, 352, 184
-0.99307, 29, 145, 60, 272
-0.99307, 297, 221, 328, 252
-0.99307, 97, 37, 128, 68
-0.993072, 201, 213, 232, 244
-0.993074, 169, 209, 200, 240
-0.993079, 197, 329, 228, 360
-0.993092, 157, 325, 188, 356
-0.993095, 181, 21, 212, 52
-0.993096, 213, 213, 244, 244
-0.993098, 257, 189, 288, 220
-0.993105, 393, 213, 424, 244
-0.993106, 209, 13, 240, 44
-0.993109, 229, 217, 260, 248
-0.993111, 225, 173, 256, 204
-0.993118, 61, 201, 92, 232
-0.993118, 113, 161, 144, 192
-0.99312, 401, 237, 432, 268
-0.99312, 41, 41, 72, 72
-0.993164, 257, 161, 500, 224
-0.993177, 425, 1, 456, 128
-0.993191, 313, 97, 344, 224
-0.993212, 249, 1, 280, 128
-0.993372, 257, 1, 320, 367
-0.99338, 33, 137, 288, 200
-0.993383, 97, 193, 224, 224
-0.993385, 97, 205, 224, 236
-0.993398, 377, 241, 408, 367
-0.993424, 145, 97, 272, 160
-0.993459, 193, 25, 320, 88
-0.993486, 49, 1, 112, 367
-0.993522, 49, 153, 176, 184
-0.993532, 177, 161, 304, 192
-0.993542, 97, 81, 128, 208
-0.993574, 97, 249, 352, 312
-0.993632, 381, 1, 412, 128
-0.993632, 1, 289, 500, 352
-0.993651, 81, 1, 144, 256
-0.993667, 1, 1, 128, 64
-0.993672, 97, 241, 128, 367
-0.993686, 193, 113, 320, 176
-0.99371, 193, 209, 448, 272
-0.993733, 303, 169, 318, 232
-0.993765, 385, 1, 448, 256
-0.993818, 169, 241, 200, 367
-0.993877, 153, 81, 184, 208
-0.993893, 129, 153, 256, 184
-0.993957, 209, 1, 240, 128
-0.993969, 241, 241, 272, 367
-0.99398, 161, 189, 288, 220
-0.993998, 1, 241, 256, 304
-0.994041, 99, 169, 114, 232
-0.994091, 1, 145, 32, 272
-0.994092, 103, 145, 118, 208
-0.994104, 449, 177, 480, 304
-0.994114, 129, 137, 384, 200
-0.994115, 33, 281, 288, 344
-0.994119, 145, 65, 272, 128
-0.994138, 209, 205, 336, 236
-0.994153, 185, 241, 216, 367
-0.994184, 91, 153, 106, 216
-0.994211, 445, 305, 460, 367
-0.994263, 145, 205, 272, 236
-0.994338, 305, 41, 432, 104
-0.994362, 439, 305, 454, 367
-0.99437, 293, 177, 308, 240
-0.994382, 257, 233, 500, 296
-0.994407, 1, 1, 64, 367
-0.99441, 109, 241, 140, 367
-0.994418, 321, 169, 448, 200
-0.994476, 157, 153, 172, 216
-0.994562, 173, 177, 188, 240
-0.994606, 129, 169, 256, 200
-0.994609, 97, 225, 352, 288
-0.994616, 257, 169, 384, 200
-0.994654, 25, 1, 88, 367
-0.994671, 197, 1, 228, 128
-0.994674, 269, 241, 300, 367
-0.994686, 81, 41, 208, 104
-0.994686, 97, 145, 112, 208
-0.9947, 105, 169, 120, 232
-0.994706, 273, 1, 400, 32
-0.994781, 181, 145, 196, 208
-0.994826, 1, 33, 32, 160
-0.994852, 329, 241, 360, 367
-0.994857, 129, 289, 384, 352
-0.994889, 149, 169, 164, 232
-0.994939, 33, 173, 160, 204
-0.994957, 117, 17, 148, 144
-0.995011, 17, 213, 144, 244
-0.995016, 309, 177, 324, 240
-0.995017, 369, 205, 496, 236
-0.995019, 337, 185, 464, 216
-0.995019, 95, 193, 110, 256
-0.995041, 419, 217, 434, 280
-0.995044, 363, 161, 378, 224
-0.995045, 321, 209, 448, 240
-0.995057, 441, 265, 456, 328
-0.995067, 211, 201, 226, 264
-0.99509, 111, 129, 126, 192
-0.995093, 129, 141, 256, 172
-0.995099, 301, 201, 316, 264
-0.995126, 451, 305, 466, 367
-0.995133, 235, 153, 250, 216
-0.995181, 307, 201, 322, 264
-0.995185, 111, 169, 126, 232
-0.995206, 91, 129, 106, 192
-0.995226, 261, 161, 276, 224
-0.995265, 161, 17, 288, 48
-0.995272, 289, 225, 416, 256
-0.995288, 33, 305, 288, 367
-0.995294, 189, 97, 220, 224
-0.995303, 55, 201, 70, 264
-0.995309, 165, 153, 180, 216
-0.995318, 65, 65, 192, 128
-0.995321, 149, 209, 164, 272
-0.995331, 119, 161, 134, 224
-0.995332, 229, 161, 244, 224
-0.995342, 65, 225, 192, 256
-0.995356, 365, 241, 396, 367
-0.995359, 225, 49, 352, 112
-0.995381, 97, 121, 112, 184
-0.995386, 17, 185, 144, 216
-0.995393, 223, 137, 238, 200
-0.995404, 289, 249, 416, 280
-0.995413, 173, 153, 188, 216
-0.995423, 85, 193, 100, 256
-0.995433, 283, 161, 298, 224
-0.995437, 353, 241, 384, 367
-0.995445, 371, 161, 386, 224
-0.995449, 417, 193, 432, 256
-0.995481, 243, 201, 258, 264
-0.995485, 97, 325, 224, 356
-0.995493, 193, 1, 448, 64
-0.995498, 223, 161, 238, 224
-0.995499, 17, 225, 144, 256
-0.995509, 225, 9, 352, 40
-0.995512, 289, 201, 304, 264
-0.995514, 183, 169, 198, 232
-0.995522, 225, 137, 480, 200
-0.995524, 103, 121, 118, 184
-0.99555, 325, 1, 340, 64
-0.99556, 317, 161, 332, 224
-0.995563, 85, 81, 116, 208
-0.995567, 1, 225, 500, 288
-0.99557, 13, 145, 44, 272
-0.995574, 85, 153, 100, 216
-0.995578, 1, 161, 128, 192
-0.995602, 433, 297, 448, 360
-0.995612, 277, 201, 292, 264
-0.995616, 377, 161, 392, 224
-0.995626, 283, 201, 298, 264
-0.99564, 177, 149, 304, 180
-0.995644, 1, 129, 500, 192
-0.995677, 47, 193, 62, 256
-0.995678, 335, 153, 350, 216
-0.99569, 1, 57, 128, 120
-0.995719, 143, 209, 158, 272
-0.995755, 353, 329, 480, 360
-0.995782, 209, 193, 336, 224
-0.995784, 193, 89, 320, 152
-0.995784, 289, 237, 416, 268
-0.995793, 65, 153, 80, 216
-0.995808, 369, 237, 496, 268
-0.995813, 369, 173, 496, 204
-0.995858, 177, 173, 304, 204
-0.995865, 65, 37, 192, 68
-0.995873, 257, 205, 384, 236
-0.995892, 145, 329, 272, 360
-0.995905, 429, 161, 444, 224
-0.995906, 429, 201, 444, 264
-0.995919, 405, 217, 420, 280
-0.995925, 55, 169, 70, 232
-0.995929, 183, 9, 198, 72
-0.995931, 49, 197, 176, 228
-0.995936, 103, 193, 118, 256
-0.995944, 257, 49, 384, 176
-0.995954, 205, 201, 220, 264
-0.995973, 295, 201, 310, 264
-0.995975, 429, 257, 444, 320
-0.995977, 209, 217, 336, 248
-0.99599, 71, 161, 86, 224
-0.996001, 169, 209, 184, 272
-0.996017, 477, 169, 492, 232
-0.996035, 113, 217, 240, 248
-0.996042, 155, 177, 170, 240
-0.996043, 1, 45, 128, 76
-0.996054, 325, 161, 340, 224
-0.996058, 113, 25, 240, 56
-0.996061, 55, 225, 70, 288
-0.996062, 463, 193, 478, 256
-0.996083, 79, 169, 94, 232
-0.996104, 465, 169, 480, 232
-0.996122, 457, 177, 472, 240
-0.996133, 261, 1, 276, 64
-0.996144, 429, 41, 444, 104
-0.996156, 93, 217, 108, 280
-0.99616, 357, 161, 372, 224
-0.996162, 65, 177, 80, 240
-0.996169, 383, 161, 398, 224
-0.996184, 277, 161, 292, 224
-0.996187, 181, 121, 196, 184
-0.996209, 343, 161, 358, 224
-0.996222, 177, 9, 192, 72
-0.996228, 289, 337, 416, 367
-0.996232, 293, 153, 308, 216
-0.996235, 163, 209, 178, 272
-0.996237, 225, 193, 240, 256
-0.996242, 111, 209, 126, 272
-0.996258, 33, 201, 48, 264
-0.996276, 253, 185, 268, 248
-0.996292, 65, 129, 80, 192
-0.996295, 217, 145, 232, 208
-0.996296, 369, 249, 496, 280
-0.9963, 271, 161, 286, 224
-0.996316, 1, 201, 128, 232
-0.996326, 183, 209, 198, 272
-0.996331, 117, 185, 132, 248
-0.996347, 189, 169, 204, 232
-0.996349, 225, 329, 352, 360
-0.996359, 419, 297, 434, 360
-0.996359, 397, 193, 412, 256
-0.996361, 419, 169, 434, 232
-0.996363, 419, 129, 434, 192
-0.996372, 217, 201, 232, 264
-0.996379, 1, 113, 256, 176
-0.996387, 85, 129, 100, 192
-0.996419, 33, 225, 48, 288
-0.996422, 143, 169, 158, 232
-0.996428, 65, 249, 80, 312
-0.99643, 209, 161, 224, 224
-0.99643, 89, 105, 104, 168
-0.996448, 25, 233, 40, 296
-0.996452, 65, 141, 192, 172
-0.996497, 251, 161, 266, 224
-0.996499, 391, 161, 406, 224
-0.996506, 241, 233, 368, 264
-0.996506, 409, 193, 424, 256
-0.996512, 153, 165, 168, 196
-0.996533, 231, 193, 246, 256
-0.996542, 61, 217, 76, 280
-0.996548, 309, 153, 324, 216
-0.996549, 335, 129, 350, 192
-0.996555, 483, 177, 498, 240
-0.996557, 253, 209, 268, 272
-0.996562, 369, 217, 496, 248
-0.996584, 115, 105, 130, 168
-0.996585, 271, 201, 286, 264
-0.996599, 79, 129, 94, 192
-0.996602, 201, 241, 216, 304
-0.996628, 209, 245, 336, 276
-0.996633, 353, 285, 480, 316
-0.996637, 169, 129, 184, 192
-0.996638, 315, 185, 330, 248
-0.996652, 183, 33, 198, 96
-0.996653, 245, 153, 260, 216
-0.996659, 157, 209, 172, 272
-0.996661, 1, 265, 500, 328
-0.996682, 429, 65, 444, 128
-0.99669, 177, 313, 304, 344
-0.996693, 413, 217, 428, 280
-0.9967, 289, 193, 416, 224
-0.996706, 469, 193, 484, 256
-0.996709, 369, 161, 496, 192
-0.996709, 127, 169, 142, 232
-0.996711, 17, 237, 144, 268
-0.996722, 321, 157, 448, 188
-0.996738, 65, 121, 192, 152
-0.996759, 305, 325, 432, 356
-0.996779, 317, 97, 348, 352
-0.996797, 273, 157, 400, 188
-0.996808, 229, 1, 260, 256
-0.996885, 97, 337, 224, 367
-0.996904, 57, 1, 120, 256
-0.996923, 161, 217, 288, 248
-0.996938, 345, 1, 408, 367
-0.996945, 111, 173, 126, 204
-0.996952, 225, 157, 352, 188
-0.996969, 147, 173, 162, 204
-0.996972, 225, 181, 352, 212
-0.996984, 49, 337, 176, 367
-0.997005, 145, 5, 272, 36
-0.997078, 241, 25, 368, 88
-0.997084, 97, 17, 352, 80
-0.997102, 117, 173, 132, 204
-0.997117, 321, 297, 448, 328
-0.997125, 289, 261, 416, 292
-0.997136, 145, 157, 160, 188
-0.997145, 97, 205, 112, 236
-0.997154, 229, 141, 244, 172
-0.997155, 89, 97, 120, 352
-0.997171, 113, 129, 240, 160
-0.997174, 65, 305, 192, 336
-0.997188, 105, 173, 120, 204
-0.997193, 167, 165, 182, 196
-0.997203, 1, 297, 128, 328
-0.997217, 307, 205, 322, 236
-0.997226, 145, 233, 272, 264
-0.997235, 321, 273, 448, 304
-0.997236, 149, 209, 164, 240
-0.997254, 369, 261, 496, 292
-0.997278, 249, 1, 280, 256
-0.997289, 95, 173, 110, 204
-0.997302, 369, 305, 496, 336
-0.99731, 159, 177, 174, 208
-0.997332, 65, 237, 192, 268
-0.997357, 321, 85, 448, 116
-0.997364, 419, 173, 434, 204
-0.99737, 161, 209, 176, 240
-0.997374, 173, 177, 188, 208
-0.997378, 417, 97, 448, 352
-0.997384, 181, 157, 196, 188
-0.997391, 49, 321, 176, 352
-0.997394, 299, 201, 314, 232
-0.997409, 81, 9, 208, 40
-0.997411, 223, 145, 238, 176
-0.997426, 161, 193, 176, 224
-0.997431, 33, 25, 160, 56
-0.997449, 289, 181, 416, 212
-0.997455, 45, 205, 60, 236
-0.997469, 89, 165, 104, 196
-0.997472, 129, 309, 256, 340
-0.99748, 273, 281, 400, 312
-0.997482, 193, 233, 320, 264
-0.99749, 17, 141, 144, 172
-0.997492, 161, 161, 176, 192
-0.997509, 257, 317, 384, 348
-0.997511, 141, 173, 156, 204
-0.997517, 105, 129, 120, 160
-0.997519, 55, 209, 70, 240
-0.997528, 193, 289, 320, 320
-0.997532, 225, 145, 352, 176
-0.997544, 155, 205, 170, 236
-0.997565, 95, 221, 110, 252
-0.997603, 217, 97, 248, 352
-0.997606, 151, 221, 166, 252
-0.99761, 429, 173, 444, 204
-0.997617, 233, 185, 248, 216
-0.997617, 107, 217, 122, 248
-0.997619, 153, 177, 168, 208
-0.997621, 293, 205, 308, 236
-0.99763, 101, 225, 116, 256
-0.997634, 321, 129, 448, 160
-0.997636, 295, 1, 310, 32
-0.997637, 321, 73, 448, 104
-0.997643, 55, 229, 70, 260
-0.997653, 229, 97, 260, 352
-0.997665, 17, 277, 144, 308
-0.997668, 209, 257, 336, 288
-0.997673, 191, 165, 206, 196
-0.997677, 205, 97, 236, 352
-0.997681, 109, 185, 124, 216
-0.997687, 239, 205, 254, 236
-0.997689, 207, 205, 222, 236
-0.997697, 1, 25, 256, 88
-0.997699, 277, 205, 292, 236
-0.997699, 85, 213, 100, 244
-0.9977, 121, 193, 136, 224
-0.997706, 103, 117, 118, 148
-0.997708, 413, 173, 428, 204
-0.997712, 481, 197, 496, 228
-0.997727, 179, 17, 194, 48
-0.997728, 177, 97, 208, 352
-0.997736, 177, 137, 304, 168
-0.997739, 429, 201, 444, 232
-0.997742, 243, 189, 258, 220
-0.997746, 111, 197, 126, 228
-0.997752, 99, 193, 114, 224
-0.997752, 101, 97, 132, 352
-0.997754, 1, 97, 500, 160
-0.997755, 151, 193, 166, 224
-0.997755, 65, 281, 192, 312
-0.997756, 233, 157, 248, 188
-0.997757, 167, 177, 182, 208
-0.997759, 419, 201, 434, 232
-0.997765, 403, 169, 418, 200
-0.997773, 213, 205, 228, 236
-0.997773, 173, 193, 188, 224
-0.997775, 173, 157, 188, 188
-0.997786, 215, 141, 230, 172
-0.997792, 353, 109, 480, 140
-0.997797, 183, 197, 198, 228
-0.997817, 151, 153, 166, 184
-0.997818, 241, 293, 368, 324
-0.99782, 245, 205, 260, 236
-0.99782, 369, 85, 496, 116
-0.997843, 183, 169, 198, 200
-0.997849, 203, 165, 218, 196
-0.997862, 273, 77, 400, 108
-0.997863, 419, 85, 434, 116
-0.997864, 329, 97, 360, 352
-0.997865, 91, 209, 106, 240
-0.997866, 227, 185, 242, 216
-0.99787, 299, 169, 314, 200
-0.99787, 141, 185, 156, 216
-0.997878, 317, 201, 332, 232
-0.997881, 317, 213, 332, 244
-0.997883, 167, 193, 182, 224
-0.997888, 225, 173, 240, 204
-0.99789, 285, 169, 300, 200
-0.997892, 33, 229, 48, 260
-0.997893, 385, 97, 416, 352
-0.997897, 45, 229, 60, 260
-0.997897, 213, 153, 228, 184
-0.997908, 117, 161, 132, 192
-0.997913, 139, 157, 154, 188
-0.997923, 1, 89, 256, 152
-0.997928, 325, 165, 340, 196
-0.997931, 169, 209, 184, 240
-0.997934, 429, 189, 444, 220
-0.997935, 111, 229, 126, 260
-0.997936, 337, 1, 352, 32
-0.997939, 253, 205, 268, 236
-0.997944, 333, 157, 348, 188
-0.997947, 183, 185, 198, 216
-0.997953, 419, 185, 434, 216
-0.99796, 1, 129, 128, 160
-0.997963, 257, 33, 500, 96
-0.997966, 121, 29, 136, 60
-0.997974, 191, 189, 206, 220
-0.997975, 471, 201, 486, 232
-0.997975, 49, 217, 64, 248
-0.997977, 373, 97, 404, 352
-0.997979, 209, 273, 336, 304
-0.99798, 159, 221, 174, 252
-0.997981, 117, 133, 132, 164
-0.997987, 293, 97, 324, 352
-0.997994, 111, 133, 126, 164
-0.997996, 457, 197, 472, 228
-0.997997, 397, 169, 412, 200
-0.997997, 83, 157, 98, 188
-0.997998, 143, 209, 158, 240
-0.997999, 89, 229, 104, 260
-0.998, 317, 165, 332, 196
-0.998, 419, 217, 434, 248
-0.998001, 55, 197, 70, 228
-0.998007, 181, 137, 196, 168
-0.998012, 369, 13, 496, 44
-0.998012, 17, 309, 144, 340
-0.998021, 105, 201, 120, 232
-0.998022, 213, 185, 228, 216
-0.998023, 131, 193, 146, 224
-0.998025, 99, 153, 114, 184
-0.998029, 87, 177, 102, 208
-0.998029, 135, 173, 150, 204
-0.998031, 277, 97, 308, 352
-0.998032, 219, 185, 234, 216
-0.998037, 251, 185, 266, 216
-0.998039, 197, 165, 212, 196
-0.998039, 225, 113, 480, 176
-0.998046, 145, 221, 160, 252
-0.998047, 115, 29, 130, 60
-0.998048, 405, 97, 436, 352
-0.998051, 251, 9, 266, 40
-0.998054, 429, 161, 444, 192
-0.998055, 293, 169, 308, 200
-0.99806, 41, 1, 72, 256
-0.99806, 83, 233, 98, 264
-0.998063, 207, 189, 222, 220
-0.998065, 127, 177, 142, 208
-0.998066, 245, 9, 260, 40
-0.998066, 17, 117, 144, 148
-0.998067, 189, 153, 204, 184
-0.99807, 233, 205, 248, 236
-0.998073, 309, 169, 324, 200
-0.998075, 225, 157, 240, 188
-0.998076, 95, 117, 110, 148
-0.998078, 65, 157, 80, 188
-0.998081, 369, 73, 496, 104
-0.998107, 145, 285, 272, 316
-0.99811, 65, 109, 192, 140
-0.998116, 369, 149, 496, 180
-0.998154, 437, 97, 468, 352
-0.998168, 353, 25, 480, 56
-0.99817, 225, 73, 480, 136
-0.99819, 1, 265, 128, 296
-0.998194, 369, 273, 496, 304
-0.998212, 129, 269, 256, 300
-0.998226, 341, 97, 372, 352
-0.99824, 33, 13, 160, 44
-0.998284, 1, 321, 128, 352
-0.998301, 233, 1, 296, 128
-0.998301, 117, 97, 148, 352
-0.998305, 305, 97, 432, 128
-0.998315, 305, 13, 432, 44
-0.998318, 189, 97, 220, 352
-0.998322, 177, 125, 304, 156
-0.998371, 17, 249, 144, 280
-0.998371, 249, 97, 280, 352
-0.998377, 105, 179, 168, 194
-0.998381, 273, 113, 400, 144
-0.998389, 129, 179, 192, 194
-0.998403, 1, 333, 128, 364
-0.998413, 333, 1, 364, 256
-0.998418, 369, 97, 496, 128
-0.99842, 97, 231, 128, 246
-0.998421, 373, 341, 404, 356
-0.998422, 209, 169, 240, 184
-0.998423, 437, 299, 468, 314
-0.998423, 401, 235, 432, 250
-0.998424, 229, 143, 260, 158
-0.998425, 41, 223, 72, 238
-0.998425, 29, 221, 60, 236
-0.998426, 209, 201, 240, 216
-0.998427, 1, 53, 32, 68
-0.998427, 261, 183, 292, 198
-0.99843, 437, 281, 468, 296
-0.998431, 109, 207, 140, 222
-0.998431, 97, 237, 128, 252
-0.998433, 81, 229, 112, 244
-0.998433, 405, 225, 436, 240
-0.998434, 185, 157, 248, 172
-0.998435, 125, 207, 156, 222
-0.998435, 177, 205, 208, 220
-0.998435, 49, 205, 80, 220
-0.998435, 169, 187, 200, 202
-0.998435, 317, 167, 348, 182
-0.998437, 41, 229, 72, 244
-0.998438, 401, 215, 432, 230
-0.998441, 105, 125, 136, 140
-0.998442, 93, 37, 124, 52
-0.998442, 97, 199, 128, 214
-0.998443, 129, 189, 192, 204
-0.998443, 61, 39, 92, 54
-0.998443, 41, 241, 72, 256
-0.998443, 29, 213, 60, 228
-0.998444, 129, 155, 160, 170
-0.998444, 317, 209, 348, 224
-0.998444, 65, 253, 192, 284
-0.998444, 169, 193, 200, 208
-0.998445, 145, 221, 176, 236
-0.998445, 205, 17, 236, 32
-0.998446, 41, 213, 72, 228
-0.998447, 405, 175, 436, 190
-0.998447, 169, 201, 232, 216
-0.998447, 145, 215, 176, 230
-0.998447, 89, 173, 152, 188
-0.998448, 249, 165, 280, 180
-0.998448, 277, 185, 308, 200
-0.998448, 81, 121, 112, 136
-0.99845, 417, 175, 448, 190
-0.998452, 129, 187, 160, 202
-0.998453, 129, 201, 192, 216
-0.998454, 281, 205, 344, 220
-0.998454, 229, 189, 260, 204
-0.998456, 437, 271, 468, 286
-0.998456, 213, 147, 244, 162
-0.998456, 69, 161, 100, 176
-0.998457, 141, 191, 172, 206
-0.998457, 97, 191, 128, 206
-0.998458, 61, 183, 92, 198
-0.99846, 109, 199, 140, 214
-0.99846, 117, 33, 148, 48
-0.99846, 157, 27, 188, 42
-0.998461, 117, 191, 148, 206
-0.998461, 81, 213, 112, 228
-0.998462, 277, 5, 308, 20
-0.998463, 189, 179, 220, 194
-0.998463, 417, 1, 448, 256
-0.998464, 97, 131, 128, 146
-0.998466, 77, 169, 108, 184
-0.998467, 29, 239, 60, 254
-0.998467, 249, 183, 280, 198
-0.998467, 257, 209, 288, 224
-0.998468, 137, 209, 168, 224
-0.998469, 105, 203, 168, 218
-0.998472, 201, 207, 264, 222
-0.998474, 53, 45, 84, 60
-0.998474, 145, 185, 176, 200
-0.998475, 153, 171, 184, 186
-0.998475, 73, 177, 104, 192
-0.998477, 65, 181, 128, 196
-0.998478, 49, 161, 112, 176
-0.998478, 341, 179, 372, 194
-0.99848, 257, 9, 288, 24
-0.99848, 61, 235, 92, 250
-0.99848, 93, 213, 124, 228
-0.998482, 209, 163, 240, 178
-0.998482, 425, 183, 456, 198
-0.998484, 129, 173, 160, 188
-0.998484, 297, 1, 360, 16
-0.998485, 145, 165, 208, 180
-0.998485, 173, 159, 204, 174
-0.998486, 165, 205, 196, 220
-0.998488, 137, 171, 200, 186
-0.998488, 333, 1, 364, 16
-0.998488, 169, 23, 200, 38
-0.998489, 85, 185, 116, 200
-0.99849, 93, 225, 124, 240
-0.998491, 217, 15, 248, 30
-0.998493, 353, 57, 480, 88
-0.998493, 153, 183, 216, 198
-0.998494, 105, 35, 136, 50
-0.998494, 293, 183, 324, 198
-0.998496, 97, 171, 128, 186
-0.998498, 289, 3, 320, 18
-0.998499, 157, 193, 188, 208
-0.998501, 89, 207, 120, 222
-0.998502, 273, 209, 304, 224
-0.998503, 129, 159, 192, 174
-0.998504, 41, 47, 72, 62
-0.998505, 49, 167, 112, 182
-0.998506, 105, 159, 168, 174
-0.998507, 401, 185, 432, 200
-0.998509, 157, 211, 188, 226
-0.99851, 25, 235, 88, 250
-0.998511, 297, 213, 328, 228
-0.998511, 185, 167, 248, 182
-0.998511, 65, 209, 128, 224
-0.998512, 65, 239, 128, 254
-0.998513, 169, 199, 200, 214
-0.998515, 273, 213, 336, 228
-0.998516, 177, 175, 208, 190
-0.998516, 169, 165, 200, 180
-0.998517, 209, 141, 240, 156
-0.998518, 25, 49, 88, 176
-0.998521, 229, 163, 260, 178
-0.998522, 385, 185, 448, 200
-0.998522, 117, 183, 148, 198
-0.998523, 209, 159, 272, 174
-0.998526, 37, 207, 68, 222
-0.998527, 97, 185, 160, 200
-0.998527, 189, 201, 220, 216
-0.998527, 85, 235, 116, 250
-0.998527, 161, 159, 224, 174
-0.998528, 105, 209, 168, 224
-0.998529, 301, 1, 332, 16
-0.998529, 105, 147, 136, 162
-0.998529, 417, 183, 480, 198
-0.998529, 129, 195, 192, 210
-0.998531, 65, 175, 128, 190
-0.998531, 49, 219, 112, 234
-0.998532, 117, 153, 148, 168
-0.998532, 65, 225, 128, 240
-0.998532, 153, 213, 216, 228
-0.998533, 245, 11, 276, 26
-0.998534, 145, 25, 208, 40
-0.998534, 49, 123, 112, 138
-0.998535, 249, 209, 312, 224
-0.998535, 217, 165, 280, 180
-0.998536, 313, 1, 344, 16
-0.998536, 89, 167, 152, 182
-0.998536, 141, 161, 172, 176
-0.998539, 297, 205, 328, 220
-0.99854, 137, 207, 200, 222
-0.99854, 61, 65, 92, 320
-0.99854, 169, 189, 232, 204
-0.998542, 369, 229, 432, 244
-0.998542, 281, 187, 344, 202
-0.998542, 169, 175, 232, 190
-0.998542, 65, 231, 128, 246
-0.998544, 25, 215, 88, 230
-0.998544, 141, 197, 172, 212
-0.998546, 385, 175, 448, 190
-0.998547, 189, 169, 220, 184
-0.998547, 169, 25, 232, 40
-0.998548, 89, 151, 152, 166
-0.998548, 157, 165, 188, 180
-0.998548, 141, 203, 172, 218
-0.998549, 321, 181, 384, 196
-0.99855, 25, 241, 88, 256
-0.998551, 169, 19, 232, 34
-0.998551, 305, 255, 368, 270
-0.998551, 129, 33, 192, 48
-0.998552, 305, 273, 368, 288
-0.998552, 185, 151, 248, 166
-0.998552, 105, 191, 168, 206
-0.998552, 169, 181, 200, 196
-0.998552, 257, 187, 320, 202
-0.998553, 41, 205, 104, 220
-0.998555, 105, 197, 168, 212
-0.998556, 229, 15, 260, 30
-0.998559, 409, 225, 472, 240
-0.998559, 169, 207, 232, 222
-0.99856, 65, 187, 128, 202
-0.998562, 105, 221, 168, 236
-0.998562, 161, 195, 224, 210
-0.998563, 209, 207, 240, 222
-0.998564, 257, 181, 320, 196
-0.998566, 321, 1, 384, 16
-0.998566, 281, 7, 344, 22
-0.998567, 117, 175, 148, 190
-0.998568, 129, 213, 192, 228
-0.998568, 169, 11, 232, 26
-0.998568, 145, 151, 208, 166
-0.998569, 81, 121, 144, 136
-0.99857, 305, 261, 368, 276
-0.99857, 297, 177, 360, 192
-0.998571, 305, 203, 368, 218
-0.998573, 81, 201, 144, 216
-0.998573, 97, 227, 160, 242
-0.998574, 241, 11, 304, 26
-0.998574, 385, 235, 448, 250
-0.998575, 25, 229, 88, 244
-0.998576, 121, 165, 184, 180
-0.998577, 209, 157, 240, 172
-0.998577, 285, 205, 316, 220
-0.998577, 297, 169, 360, 184
-0.998577, 157, 159, 188, 174
-0.998578, 65, 43, 128, 58
-0.998579, 93, 121, 124, 136
-0.998579, 65, 265, 192, 296
-0.998579, 1, 227, 64, 242
-0.99858, 169, 141, 232, 156
-0.99858, 77, 97, 108, 352
-0.99858, 157, 181, 188, 196
-0.998581, 337, 169, 400, 184
-0.998581, 257, 203, 320, 218
-0.998581, 81, 37, 144, 52
-0.998582, 361, 185, 424, 200
-0.998582, 65, 245, 128, 260
-0.998582, 157, 187, 188, 202
-0.998584, 281, 219, 344, 234
-0.998584, 265, 169, 328, 184
-0.998584, 105, 235, 168, 250
-0.998584, 201, 189, 264, 204
-0.998584, 1, 215, 64, 230
-0.998585, 209, 15, 272, 30
-0.998585, 425, 271, 488, 286
-0.998586, 193, 97, 320, 128
-0.998587, 313, 209, 376, 224
-0.998587, 141, 171, 172, 186
-0.998587, 229, 207, 260, 222
-0.998587, 17, 221, 80, 236
-0.998588, 409, 231, 472, 246
-0.998588, 393, 219, 456, 234
-0.998588, 225, 207, 288, 222
-0.998589, 1, 53, 64, 68
-0.998589, 145, 221, 208, 236
-0.998589, 125, 201, 156, 216
-0.998591, 433, 347, 496, 362
-0.998592, 153, 203, 184, 218
-0.998592, 193, 201, 256, 216
-0.998594, 105, 33, 168, 48
-0.998594, 321, 1, 448, 32
-0.998596, 377, 87, 440, 102
-0.998596, 345, 343, 408, 358
-0.998596, 17, 163, 80, 178
-0.998597, 65, 131, 128, 146
-0.998597, 105, 215, 168, 230
-0.998597, 305, 267, 368, 282
-0.998598, 85, 179, 116, 194
-0.998598, 417, 177, 480, 192
-0.998599, 257, 5, 320, 20
-0.998599, 233, 187, 296, 202
-0.9986, 145, 19, 208, 34
-0.9986, 97, 185, 128, 200
-0.998601, 361, 235, 424, 250
-0.998601, 305, 279, 368, 294
-0.998603, 113, 153, 176, 168
-0.998603, 41, 177, 104, 192
-0.998604, 221, 157, 252, 172
-0.998604, 25, 247, 88, 262
-0.998604, 425, 199, 488, 214
-0.998604, 409, 299, 472, 314
-0.998605, 41, 47, 104, 62
-0.998605, 113, 171, 176, 186
-0.998606, 1, 209, 64, 224
-0.998607, 193, 345, 256, 360
-0.998608, 409, 345, 472, 360
-0.998617, 161, 29, 288, 60
-0.998618, 161, 97, 192, 352
-0.998619, 137, 179, 168, 194
-0.998627, 97, 105, 352, 168
-0.998631, 113, 37, 240, 68
-0.998654, 227, 145, 242, 272
-0.998658, 305, 25, 432, 56
-0.998659, 217, 1, 248, 256
-0.99868, 237, 145, 252, 272
-0.998686, 305, 97, 336, 352
-0.998692, 243, 145, 258, 272
-0.998696, 145, 113, 272, 144
-0.998699, 219, 145, 234, 272
-0.9987, 97, 177, 128, 192
-0.998715, 1, 105, 128, 136
-0.998715, 211, 145, 226, 272
-0.998778, 321, 1, 352, 256
-0.99878, 353, 97, 384, 352
-0.998785, 1, 17, 500, 80
-0.998804, 429, 145, 444, 272
-0.998834, 97, 161, 112, 288
-0.998842, 305, 177, 320, 304
-0.998863, 105, 1, 136, 256
-0.998877, 297, 161, 312, 288
-0.998877, 457, 65, 488, 320
-0.998878, 317, 161, 332, 288
-0.998904, 243, 193, 258, 320
-0.998905, 149, 97, 180, 352
-0.99892, 179, 113, 194, 240
-0.998922, 87, 177, 102, 304
-0.99893, 205, 145, 220, 272
-0.998936, 311, 161, 326, 288
-0.998942, 331, 145, 346, 272
-0.998947, 253, 145, 268, 272
-0.998963, 103, 145, 118, 272
-0.998964, 287, 161, 302, 288
-0.998971, 419, 161, 434, 288
-0.998979, 173, 145, 188, 272
-0.998989, 165, 145, 180, 272
-0.999023, 413, 161, 428, 288
-0.999043, 273, 193, 288, 320
-0.999056, 429, 209, 444, 336
-0.999059, 401, 161, 416, 288
-0.99906, 1, 1, 256, 64
-0.99907, 325, 145, 340, 272
-0.999071, 59, 177, 74, 304
-0.999083, 277, 145, 292, 272
-0.999091, 65, 241, 80, 367
-0.999093, 437, 161, 452, 288
-0.999093, 157, 177, 172, 304
-0.999093, 365, 1, 396, 256
-0.999094, 203, 193, 218, 320
-0.999096, 7, 241, 22, 367
-0.999103, 453, 209, 468, 336
-0.999103, 37, 97, 68, 352
-0.999109, 49, 97, 80, 352
-0.999119, 121, 145, 136, 272
-0.999126, 217, 193, 232, 320
-0.999127, 87, 129, 102, 256
-0.999128, 443, 241, 458, 367
-0.999129, 373, 145, 388, 272
-0.999129, 189, 193, 204, 320
-0.999135, 111, 145, 126, 272
-0.999137, 343, 177, 358, 304
-0.999137, 293, 209, 308, 336
-0.999139, 419, 209, 434, 336
-0.99914, 93, 209, 108, 336
-0.999143, 363, 145, 378, 272
-0.999148, 77, 241, 92, 367
-0.999151, 279, 193, 294, 320
-0.999152, 65, 177, 80, 304
-0.999155, 225, 193, 240, 320
-0.999157, 419, 113, 434, 240
-0.999161, 261, 97, 292, 352
-0.999173, 235, 193, 250, 320
-0.999175, 167, 193, 182, 320
-0.999177, 59, 241, 74, 367
-0.999179, 7, 193, 22, 320
-0.99918, 287, 209, 302, 336
-0.999181, 429, 97, 444, 224
-0.999185, 393, 145, 408, 272
-0.999186, 299, 209, 314, 336
-0.999187, 99, 209, 114, 336
-0.999187, 83, 225, 98, 352
-0.999189, 407, 145, 422, 272
-0.999205, 127, 129, 142, 256
-0.999206, 51, 209, 66, 336
-0.999212, 141, 177, 156, 304
-0.999213, 81, 177, 96, 304
-0.999213, 407, 209, 422, 336
-0.999215, 173, 193, 188, 320
-0.999219, 183, 193, 198, 320
-0.999222, 335, 97, 350, 224
-0.999226, 197, 145, 212, 272
-0.999231, 249, 193, 264, 320
-0.999233, 385, 145, 400, 272
-0.999235, 437, 241, 452, 367
-0.999236, 151, 177, 166, 304
-0.999242, 97, 113, 112, 240
-0.999243, 259, 145, 274, 272
-0.999244, 267, 177, 282, 304
-0.999245, 405, 1, 436, 256
-0.999245, 463, 161, 478, 288
-0.999246, 405, 1, 420, 128
-0.999248, 253, 97, 268, 224
-0.999254, 211, 193, 226, 320
-0.999258, 311, 209, 326, 336
-0.99926, 353, 177, 368, 304
-0.999268, 191, 145, 206, 272
-0.99927, 105, 193, 120, 320
-0.999271, 429, 1, 444, 128
-0.999277, 1, 97, 32, 352
-0.999282, 303, 1, 318, 128
-0.999292, 365, 97, 380, 224
-0.999294, 13, 65, 44, 320
-0.999296, 333, 193, 348, 320
-0.999297, 13, 193, 28, 320
-0.999298, 391, 241, 406, 367
-0.999299, 389, 193, 404, 320
-0.999299, 25, 209, 40, 336
-0.9993, 379, 145, 394, 272
-0.999302, 259, 193, 274, 320
-0.999304, 1, 193, 16, 320
-0.999306, 121, 1, 136, 128
-0.999307, 305, 129, 320, 256
-0.999307, 117, 81, 132, 208
-0.999311, 113, 209, 128, 336
-0.999311, 183, 65, 198, 192
-0.999312, 15, 241, 30, 367
-0.999313, 35, 193, 50, 320
-0.999314, 413, 209, 428, 336
-0.999324, 285, 1, 300, 128
-0.999328, 65, 129, 80, 256
-0.999337, 309, 1, 324, 128
-0.999338, 397, 209, 412, 336
-0.999345, 31, 241, 46, 367
-0.999347, 469, 97, 500, 352
-0.999349, 429, 49, 444, 176
-0.99935, 7, 145, 22, 272
-0.99935, 1, 241, 16, 367
-0.999355, 187, 1, 202, 128
-0.999356, 71, 241, 86, 367
-0.999359, 121, 193, 136, 320
-0.999363, 71, 177, 86, 304
-0.999364, 177, 1, 208, 256
-0.999365, 97, 81, 352, 144
-0.999366, 371, 97, 386, 224
-0.999368, 41, 209, 56, 336
-0.999372, 401, 113, 416, 240
-0.999378, 413, 113, 428, 240
-0.999389, 1, 41, 500, 104
-0.999392, 305, 225, 320, 352
-0.999395, 11, 17, 26, 144
-0.999403, 317, 209, 332, 336
-0.999403, 361, 193, 376, 320
-0.999403, 197, 193, 212, 320
-0.99941, 283, 113, 298, 240
-0.999411, 135, 177, 150, 304
-0.999417, 15, 145, 30, 272
-0.999419, 1, 73, 500, 136
-0.99951, 261, 1, 292, 256
-0.999548, 129, 65, 160, 320
-0.999581, 353, 1, 384, 256
-0.999627, 333, 1, 348, 16
-0.999627, 35, 213, 50, 228
-0.999627, 409, 227, 424, 242
-0.999627, 121, 31, 136, 46
-0.999628, 101, 209, 116, 224
-0.999629, 405, 185, 420, 200
-0.999629, 429, 175, 444, 190
-0.999629, 483, 205, 498, 220
-0.99963, 217, 141, 232, 156
-0.99963, 349, 177, 364, 192
-0.99963, 179, 211, 194, 226
-0.999631, 417, 235, 432, 250
-0.999631, 179, 205, 194, 220
-0.999631, 131, 199, 146, 214
-0.999632, 5, 53, 20, 68
-0.999633, 243, 163, 258, 178
-0.999634, 153, 189, 168, 204
-0.999634, 189, 175, 204, 190
-0.999634, 201, 201, 216, 216
-0.999636, 117, 175, 132, 190
-0.999636, 167, 187, 182, 202
-0.999637, 15, 49, 30, 64
-0.999637, 419, 219, 434, 234
-0.999638, 419, 225, 434, 240
-0.99964, 167, 195, 182, 210
-0.99964, 169, 211, 184, 226
-0.999641, 307, 213, 322, 228
-0.999641, 191, 169, 206, 184
-0.999641, 183, 173, 198, 188
-0.999642, 183, 189, 198, 204
-0.999643, 177, 157, 192, 172
-0.999645, 227, 203, 242, 218
-0.999648, 149, 215, 164, 230
-0.999648, 219, 151, 234, 166
-0.999648, 303, 1, 318, 16
-0.999648, 113, 35, 128, 50
-0.999648, 281, 181, 296, 196
-0.999648, 429, 209, 444, 224
-0.999648, 153, 195, 168, 210
-0.999649, 253, 11, 268, 26
-0.99965, 99, 203, 114, 218
-0.999651, 55, 207, 70, 222
-0.999651, 225, 163, 240, 178
-0.999651, 111, 147, 126, 162
-0.999652, 143, 193, 158, 208
-0.999652, 225, 169, 240, 184
-0.999652, 233, 207, 248, 222
-0.999652, 65, 41, 80, 56
-0.999652, 173, 25, 188, 40
-0.999652, 433, 1, 464, 256
-0.999654, 233, 15, 248, 30
-0.999656, 147, 187, 162, 202
-0.999656, 65, 183, 80, 198
-0.999656, 135, 181, 150, 196
-0.999658, 343, 179, 358, 194
-0.999658, 289, 183, 304, 198
-0.999659, 39, 207, 54, 222
-0.999659, 277, 209, 292, 224
-0.99966, 289, 209, 304, 224
-0.99966, 55, 45, 70, 60
-0.999661, 309, 1, 340, 256
-0.999662, 93, 229, 108, 244
-0.999662, 89, 215, 104, 230
-0.999663, 413, 185, 428, 200
-0.999664, 107, 121, 122, 136
-0.999664, 47, 213, 62, 228
-0.999665, 103, 145, 118, 160
-0.999667, 227, 147, 242, 162
-0.99967, 419, 175, 434, 190
-0.999671, 101, 119, 116, 134
-0.999671, 145, 205, 160, 220
-0.999671, 179, 183, 194, 198
-0.999673, 243, 207, 258, 222
-0.999674, 215, 157, 230, 172
-0.999674, 141, 183, 156, 198
-0.999675, 89, 121, 104, 136
-0.999675, 157, 169, 172, 184
-0.999676, 127, 151, 142, 166
-0.999678, 181, 163, 196, 178
-0.999678, 95, 221, 110, 236
-0.999678, 215, 205, 230, 220
-0.999683, 89, 167, 104, 182
-0.999683, 89, 209, 104, 224
-0.999684, 159, 161, 174, 176
-0.999684, 243, 13, 258, 28
-0.999684, 429, 215, 444, 230
-0.999686, 173, 187, 188, 202
-0.999689, 89, 177, 104, 192
-0.99969, 313, 1, 328, 16
-0.999693, 173, 193, 188, 208
-0.999694, 143, 199, 158, 214
-0.999695, 55, 215, 70, 230
-0.999699, 307, 183, 322, 198
-0.9997, 307, 207, 322, 222
-0.9997, 209, 207, 224, 222
-0.999701, 141, 171, 156, 186
-0.999702, 101, 183, 116, 198
-0.999702, 137, 199, 152, 214
-0.999703, 147, 159, 162, 174
-0.999703, 95, 209, 110, 224
-0.999704, 157, 213, 172, 228
-0.999705, 183, 21, 198, 36
-0.999707, 135, 173, 150, 188
-0.999707, 153, 205, 168, 220
-0.99971, 95, 183, 110, 198
-0.99971, 225, 141, 240, 156
-0.99971, 183, 199, 198, 214
-0.999713, 113, 123, 128, 138
-0.999714, 221, 207, 236, 222
-0.999714, 171, 159, 186, 174
-0.999716, 105, 129, 120, 144
-0.999718, 107, 183, 122, 198
-0.999725, 419, 185, 434, 200
-0.999729, 233, 157, 248, 172
-0.999731, 161, 203, 176, 218
-0.999731, 149, 179, 164, 194
-0.999731, 45, 207, 60, 222
-0.999731, 159, 181, 174, 196
-0.999734, 167, 203, 182, 218
-0.999738, 173, 181, 188, 196
-0.99974, 165, 159, 180, 174
-0.999741, 85, 1, 116, 256
-0.999745, 171, 165, 186, 180
-0.999752, 167, 179, 182, 194
-0.999755, 393, 1, 424, 256
-0.999756, 111, 177, 126, 192
-0.999757, 153, 161, 168, 176
-0.999774, 147, 171, 162, 186
-0.999778, 141, 177, 156, 192
-0.99979, 117, 1, 148, 256
-0.999793, 299, 205, 314, 220
-0.999794, 173, 201, 188, 216
-0.999795, 99, 177, 114, 192
-0.999797, 105, 177, 120, 192
-0.999827, 225, 157, 240, 172
-0.999834, 277, 1, 308, 256
-0.999842, 157, 1, 188, 256
-0.999898, 29, 1, 60, 256
-0.999947, 197, 1, 228, 256
-1.00009, 145, 1, 176, 256
-1.00014, 381, 1, 412, 256
-1.00019, 33, 49, 288, 112
-1.00019, 161, 49, 416, 112
-1.0002, 25, 97, 56, 352
-1.00028, 73, 1, 104, 256
-1.00037, 469, 1, 500, 256
-1.00039, 297, 1, 328, 256
-1.00055, 201, 49, 264, 176
-1.00059, 1, 1, 32, 256
-1.0007, 445, 1, 476, 256
-1.00236, 25, 1, 88, 128
-1.00458, 225, 49, 288, 176
-1.00719, 257, 49, 320, 176
