1976
-0.229497, 1, 225, 375, 480
-0.424028, 1, 225, 256, 480
-0.469585, 129, 193, 375, 448
-0.486982, 1, 1, 375, 500
-0.516759, 1, 129, 375, 384
-0.564778, 97, 1, 352, 500
-0.620522, 1, 1, 256, 500
-0.686407, 1, 1, 375, 256
-0.748212, 97, 97, 352, 352
-0.775003, 1, 129, 256, 384
-0.809772, 33, 225, 160, 480
-0.826745, 97, 193, 224, 448
-0.836326, 145, 193, 272, 448
-0.846492, 1, 225, 375, 352
-0.850518, 1, 289, 375, 416
-0.870782, 225, 193, 352, 448
-0.874313, 33, 209, 288, 336
-0.878421, 1, 337, 375, 464
-0.882979, 209, 1, 336, 500
-0.889291, 209, 97, 336, 352
-0.892314, 49, 1, 176, 500
-0.893493, 129, 1, 256, 500
-0.895925, 1, 305, 256, 432
-0.896731, 65, 257, 320, 384
-0.904946, 145, 97, 272, 352
-0.9056, 129, 209, 375, 336
-0.907911, 97, 305, 352, 432
-0.910293, 49, 129, 176, 384
-0.911361, 1, 1, 128, 500
-0.912186, 1, 177, 375, 304
-0.913432, 49, 257, 176, 384
-0.915048, 41, 241, 104, 368
-0.915213, 161, 209, 224, 336
-0.915531, 1, 257, 64, 384
-0.915747, 65, 209, 192, 336
-0.916636, 129, 225, 256, 352
-0.918138, 17, 305, 144, 432
-0.918325, 105, 241, 168, 368
-0.919975, 73, 225, 136, 352
-0.921457, 97, 97, 224, 352
-0.921855, 33, 289, 96, 416
-0.923266, 129, 225, 192, 352
-0.924592, 1, 369, 256, 496
-0.92707, 1, 241, 128, 368
-0.928242, 137, 273, 200, 400
-0.928438, 129, 273, 256, 400
-0.931041, 185, 225, 248, 352
-0.931559, 1, 305, 64, 432
-0.932719, 97, 353, 352, 480
-0.933327, 65, 305, 192, 432
-0.933595, 113, 305, 176, 432
-0.934652, 1, 353, 64, 480
-0.936191, 113, 321, 240, 448
-0.937089, 9, 297, 72, 360
-0.937101, 73, 321, 136, 448
-0.937449, 25, 337, 88, 464
-0.939654, 89, 217, 152, 280
-0.939785, 1, 129, 128, 384
-0.940087, 209, 241, 272, 368
-0.940196, 129, 233, 192, 296
-0.941095, 129, 161, 375, 288
-0.942075, 81, 273, 144, 400
-0.942348, 177, 273, 304, 400
-0.942923, 105, 241, 168, 304
-0.943127, 97, 193, 160, 320
-0.943992, 33, 281, 96, 344
-0.94422, 241, 273, 368, 400
-0.944267, 49, 225, 112, 288
-0.944947, 177, 225, 304, 352
-0.945537, 1, 129, 375, 256
-0.946951, 145, 265, 208, 328
-0.946966, 73, 249, 136, 312
-0.947136, 209, 177, 336, 304
-0.9472, 49, 193, 112, 320
-0.947364, 49, 353, 176, 480
-0.947433, 161, 289, 224, 416
-0.948058, 17, 193, 144, 320
-0.948798, 1, 273, 64, 336
-0.948919, 161, 321, 288, 448
-0.94961, 41, 305, 104, 368
-0.949989, 1, 321, 64, 384
-0.95016, 137, 337, 200, 464
-0.950256, 17, 209, 80, 336
-0.950438, 105, 353, 168, 480
-0.951588, 113, 305, 176, 368
-0.951599, 185, 289, 248, 416
-0.951703, 169, 225, 232, 288
-0.951961, 25, 241, 88, 304
-0.952095, 185, 289, 248, 352
-0.952562, 1, 353, 128, 480
-0.952799, 49, 257, 112, 320
-0.953091, 121, 281, 184, 344
-0.953245, 145, 289, 208, 352
-0.953623, 9, 345, 72, 408
-0.954501, 209, 193, 272, 320
-0.955694, 81, 377, 144, 440
-0.95616, 233, 209, 296, 336
-0.956468, 65, 297, 128, 360
-0.956695, 225, 225, 352, 352
-0.956806, 313, 273, 375, 400
-0.957081, 177, 1, 304, 256
-0.957116, 41, 225, 104, 480
-0.957498, 97, 265, 160, 328
-0.958084, 49, 369, 112, 496
-0.958129, 73, 369, 136, 496
-0.958269, 113, 177, 240, 304
-0.95842, 217, 289, 280, 416
-0.958504, 73, 273, 136, 336
-0.959046, 121, 361, 184, 424
-0.959204, 73, 225, 136, 480
-0.959601, 1, 249, 64, 312
-0.959615, 241, 321, 368, 448
-0.959632, 193, 225, 256, 288
-0.960255, 33, 265, 160, 328
-0.960889, 17, 225, 80, 480
-0.961244, 169, 193, 232, 448
-0.962219, 29, 289, 60, 416
-0.962228, 129, 225, 192, 480
-0.962229, 149, 225, 180, 352
-0.962278, 57, 241, 88, 368
-0.962412, 97, 369, 224, 496
-0.962489, 33, 329, 96, 392
-0.962552, 145, 313, 208, 376
-0.962587, 73, 177, 136, 304
-0.962694, 217, 305, 280, 368
-0.962725, 97, 193, 160, 448
-0.962732, 85, 241, 116, 368
-0.962755, 41, 241, 72, 368
-0.96278, 161, 177, 288, 304
-0.962949, 33, 161, 288, 288
-0.962982, 169, 209, 200, 336
-0.963075, 97, 1, 352, 256
-0.963176, 33, 385, 96, 448
-0.963747, 73, 209, 104, 336
-0.963935, 289, 241, 352, 368
-0.964059, 121, 177, 184, 304
-0.964528, 169, 249, 232, 312
-0.964838, 1, 273, 32, 400
-0.965018, 149, 265, 180, 328
-0.965037, 65, 225, 192, 288
-0.96505, 265, 161, 328, 288
-0.965132, 201, 145, 264, 272
-0.965158, 105, 385, 168, 448
-0.965211, 57, 385, 120, 448
-0.965561, 129, 225, 160, 352
-0.965862, 193, 249, 256, 312
-0.965906, 313, 337, 375, 464
-0.966029, 217, 273, 280, 336
-0.966072, 217, 249, 280, 312
-0.966106, 129, 225, 256, 288
-0.966217, 53, 273, 84, 336
-0.966322, 9, 265, 40, 328
-0.966343, 41, 289, 72, 416
-0.966398, 33, 305, 64, 368
-0.966439, 17, 241, 48, 368
-0.966648, 17, 297, 48, 360
-0.966685, 185, 209, 216, 336
-0.966828, 97, 241, 128, 368
-0.966843, 113, 217, 144, 280
-0.966949, 1, 433, 64, 496
-0.967168, 1, 377, 64, 440
-0.967333, 81, 305, 208, 368
-0.967335, 113, 209, 176, 272
-0.967337, 89, 321, 152, 384
-0.967337, 73, 257, 104, 384
-0.967463, 133, 305, 164, 432
-0.96749, 17, 289, 48, 416
-0.967503, 17, 329, 144, 392
-0.967808, 77, 225, 108, 288
-0.967808, 29, 281, 60, 344
-0.967997, 101, 217, 132, 280
-0.968032, 193, 369, 320, 496
-0.968066, 249, 337, 312, 464
-0.968174, 1, 241, 128, 304
-0.968332, 29, 241, 60, 368
-0.968655, 17, 353, 48, 480
-0.968794, 117, 209, 148, 336
-0.968876, 29, 249, 60, 312
-0.96907, 1, 81, 375, 208
-0.969105, 65, 225, 96, 288
-0.969461, 121, 305, 152, 432
-0.969495, 129, 273, 256, 336
-0.969539, 41, 241, 72, 304
-0.96954, 29, 337, 60, 464
-0.969588, 137, 337, 200, 400
-0.969626, 1, 297, 128, 360
-0.969651, 149, 233, 180, 296
-0.969671, 209, 225, 240, 352
-0.970247, 81, 265, 208, 328
-0.970352, 241, 369, 368, 496
-0.970541, 53, 233, 84, 296
-0.970607, 89, 297, 152, 360
-0.97068, 209, 129, 336, 256
-0.970688, 89, 217, 120, 280
-0.970741, 153, 393, 216, 456
-0.970763, 313, 297, 375, 360
-0.970856, 177, 313, 240, 376
-0.970904, 5, 329, 36, 392
-0.971047, 225, 369, 288, 496
-0.971139, 133, 225, 164, 288
-0.97116, 129, 249, 256, 312
-0.97122, 169, 297, 200, 360
-0.971499, 129, 393, 192, 456
-0.971519, 161, 337, 224, 464
-0.971611, 65, 265, 96, 328
-0.971626, 257, 289, 320, 416
-0.971635, 1, 289, 32, 352
-0.971641, 117, 241, 148, 304
-0.971747, 145, 209, 208, 272
-0.971767, 217, 209, 280, 272
-0.971897, 125, 361, 156, 424
-0.971912, 33, 337, 64, 400
-0.972098, 45, 297, 76, 360
-0.97211, 105, 193, 136, 320
-0.972127, 61, 305, 92, 432
-0.972216, 81, 249, 112, 312
-0.972285, 129, 249, 160, 312
-0.972482, 233, 161, 296, 288
-0.972517, 217, 225, 280, 480
-0.972532, 109, 305, 140, 432
-0.972559, 73, 305, 104, 432
-0.972575, 313, 225, 375, 352
-0.972614, 97, 353, 160, 416
-0.972648, 217, 241, 248, 304
-0.97266, 161, 257, 192, 384
-0.972799, 65, 161, 192, 288
-0.972902, 33, 353, 96, 416
-0.973124, 65, 353, 128, 416
-0.973125, 133, 297, 164, 360
-0.973316, 93, 241, 124, 304
-0.973348, 257, 297, 320, 360
-0.973527, 145, 337, 176, 464
-0.973536, 197, 209, 228, 336
-0.973739, 181, 297, 212, 360
-0.973742, 69, 297, 100, 360
-0.97381, 145, 369, 272, 496
-0.973867, 165, 225, 196, 288
-0.973868, 201, 369, 264, 496
-0.973883, 241, 1, 368, 256
-0.973888, 85, 193, 116, 320
-0.973905, 17, 385, 144, 448
-0.973912, 129, 297, 256, 360
-0.973993, 17, 217, 144, 280
-0.974003, 105, 241, 136, 304
-0.974038, 289, 193, 352, 320
-0.974063, 113, 369, 144, 432
-0.974105, 65, 369, 192, 432
-0.974284, 233, 225, 264, 352
-0.974285, 145, 313, 176, 376
-0.974553, 1, 353, 32, 480
-0.974642, 145, 161, 208, 288
-0.97476, 85, 305, 116, 432
-0.974824, 149, 273, 180, 400
-0.974832, 17, 353, 48, 416
-0.974934, 289, 369, 352, 496
-0.975048, 289, 273, 352, 336
-0.975144, 241, 225, 304, 288
-0.975182, 129, 353, 160, 480
-0.975338, 221, 257, 252, 384
-0.975384, 97, 305, 128, 432
-0.975435, 41, 273, 72, 336
-0.975444, 201, 401, 264, 464
-0.975598, 313, 329, 375, 392
-0.975648, 241, 113, 304, 240
-0.975727, 257, 225, 320, 352
-0.975759, 165, 249, 196, 312
-0.976304, 109, 369, 140, 496
-0.976348, 209, 209, 336, 272
-0.976378, 193, 225, 256, 480
-0.976521, 33, 33, 160, 288
-0.976541, 17, 409, 80, 472
-0.976562, 65, 321, 128, 384
-0.976621, 209, 241, 336, 304
-0.976642, 57, 297, 88, 360
-0.976717, 177, 217, 208, 280
-0.976765, 173, 257, 204, 384
-0.976814, 189, 217, 220, 280
-0.976832, 177, 393, 240, 456
-0.976893, 201, 225, 232, 288
-0.977429, 313, 273, 375, 336
-0.977447, 241, 129, 304, 192
-0.97747, 161, 321, 192, 384
-0.977683, 1, 353, 32, 416
-0.977778, 109, 257, 140, 384
-0.977799, 145, 329, 272, 392
-0.978033, 133, 393, 164, 456
-0.978088, 241, 297, 368, 360
-0.978139, 289, 241, 352, 304
-0.978145, 97, 377, 128, 440
-0.978306, 157, 289, 188, 352
-0.978325, 205, 273, 236, 336
-0.978345, 193, 201, 256, 264
-0.978436, 45, 337, 76, 464
-0.978485, 185, 257, 216, 384
-0.97856, 273, 329, 336, 392
-0.978721, 289, 385, 352, 448
-0.978729, 169, 161, 232, 288
-0.978731, 121, 313, 152, 376
-0.978745, 97, 345, 224, 408
-0.978872, 1, 353, 128, 416
-0.97898, 49, 321, 80, 384
-0.978993, 313, 249, 375, 312
-0.979088, 1, 33, 256, 288
-0.979131, 85, 377, 116, 440
-0.979228, 145, 369, 208, 432
-0.979267, 21, 321, 52, 384
-0.979297, 337, 289, 368, 416
-0.979371, 129, 273, 160, 336
-0.97942, 257, 129, 320, 384
-0.97956, 161, 305, 192, 432
-0.979611, 209, 273, 336, 336
-0.97967, 233, 337, 296, 400
-0.979849, 281, 305, 344, 432
-0.979942, 65, 393, 192, 456
-0.979991, 57, 385, 88, 448
-0.980038, 273, 193, 336, 256
-0.980062, 173, 305, 204, 432
-0.980088, 9, 425, 40, 488
-0.980169, 109, 297, 140, 360
-0.980196, 77, 273, 108, 336
-0.980282, 113, 393, 240, 456
-0.980303, 241, 321, 368, 384
-0.980449, 241, 105, 304, 168
-0.980469, 297, 193, 360, 448
-0.98049, 169, 273, 200, 336
-0.980683, 89, 305, 120, 368
-0.980703, 241, 377, 304, 440
-0.980763, 189, 273, 220, 336
-0.980763, 81, 369, 112, 496
-0.980909, 145, 201, 272, 264
-0.981012, 145, 345, 176, 408
-0.981095, 129, 129, 192, 384
-0.981138, 61, 193, 92, 320
-0.981184, 237, 233, 268, 296
-0.98129, 145, 129, 272, 256
-0.981302, 265, 353, 328, 416
-0.981342, 241, 201, 304, 264
-0.98147, 177, 305, 304, 368
-0.981585, 25, 377, 56, 440
-0.98167, 81, 401, 144, 464
-0.981713, 41, 425, 104, 488
-0.981783, 65, 369, 96, 496
-0.981954, 217, 281, 248, 344
-0.982003, 73, 129, 136, 384
-0.982024, 121, 393, 152, 456
-0.98208, 5, 225, 36, 352
-0.982088, 105, 409, 168, 472
-0.982127, 257, 401, 320, 464
-0.982451, 1, 33, 375, 160
-0.982452, 257, 169, 320, 232
-0.98255, 145, 393, 176, 456
-0.982606, 93, 265, 124, 328
-0.982622, 241, 345, 368, 408
-0.982709, 161, 337, 224, 400
-0.982712, 225, 401, 288, 464
-0.982755, 201, 113, 264, 176
-0.982858, 65, 201, 192, 264
-0.982868, 241, 289, 272, 416
-0.982902, 233, 257, 264, 320
-0.982929, 217, 129, 280, 384
-0.983046, 193, 129, 256, 384
-0.983098, 113, 369, 240, 432
-0.983111, 17, 241, 48, 304
-0.983168, 41, 377, 72, 440
-0.98317, 305, 433, 368, 496
-0.983196, 169, 201, 232, 264
-0.983222, 97, 1, 224, 256
-0.983306, 241, 297, 272, 360
-0.983315, 201, 329, 264, 392
-0.983316, 209, 185, 336, 248
-0.983316, 133, 177, 164, 304
-0.983352, 289, 217, 352, 280
-0.983448, 313, 353, 375, 416
-0.983759, 325, 257, 356, 384
-0.983764, 93, 369, 124, 496
-0.983857, 189, 249, 220, 312
-0.983997, 69, 393, 100, 456
-0.984073, 313, 401, 375, 464
-0.984116, 137, 417, 200, 480
-0.984144, 129, 113, 375, 240
-0.984363, 181, 321, 212, 384
-0.984376, 229, 177, 260, 304
-0.984384, 337, 289, 368, 352
-0.984443, 245, 241, 276, 368
-0.98449, 65, 425, 128, 488
-0.984749, 245, 193, 276, 256
-0.984786, 145, 289, 176, 352
-0.984845, 257, 273, 320, 336
-0.98502, 113, 329, 176, 392
-0.985024, 321, 265, 352, 328
-0.985025, 241, 393, 368, 456
-0.985055, 105, 433, 168, 496
-0.985161, 225, 425, 288, 488
-0.985178, 337, 241, 368, 304
-0.985242, 345, 337, 375, 464
-0.985329, 65, 201, 128, 264
-0.985351, 225, 305, 256, 432
-0.985356, 249, 177, 280, 304
-0.98541, 73, 369, 104, 432
-0.985411, 217, 137, 280, 200
-0.985544, 109, 321, 140, 384
-0.985559, 1, 433, 128, 496
-0.985618, 25, 433, 56, 496
-0.985695, 109, 265, 140, 328
-0.985753, 253, 305, 284, 432
-0.985791, 313, 225, 375, 288
-0.985822, 209, 369, 336, 432
-0.985865, 177, 369, 240, 432
-0.985908, 17, 409, 144, 472
-0.985922, 13, 377, 44, 440
-0.985938, 77, 321, 108, 384
-0.98595, 97, 353, 128, 416
-0.985955, 289, 361, 352, 424
-0.985961, 201, 425, 264, 488
-0.986019, 221, 305, 252, 368
-0.986073, 141, 369, 172, 432
-0.986079, 257, 425, 320, 488
-0.986093, 161, 393, 288, 456
-0.986167, 129, 201, 160, 264
-0.986188, 97, 65, 352, 192
-0.986242, 1, 241, 256, 304
-0.986282, 145, 177, 176, 304
-0.98637, 177, 369, 208, 496
-0.986401, 49, 193, 80, 320
-0.986431, 201, 273, 232, 400
-0.986467, 201, 297, 232, 360
-0.986598, 161, 433, 224, 496
-0.986638, 177, 249, 208, 312
-0.986707, 25, 217, 88, 280
-0.98675, 133, 321, 164, 384
-0.986758, 153, 209, 184, 272
-0.986781, 229, 209, 260, 272
-0.986796, 45, 345, 76, 408
-0.986829, 265, 257, 328, 500
-0.986844, 117, 161, 148, 288
-0.986869, 161, 393, 192, 456
-0.986916, 177, 393, 208, 456
-0.986921, 1, 265, 256, 328
-0.986952, 89, 1, 152, 500
-0.986966, 225, 1, 288, 500
-0.986967, 337, 225, 368, 352
-0.986982, 289, 409, 352, 472
-0.98714, 313, 209, 344, 336
-0.987157, 297, 113, 360, 240
-0.987168, 97, 97, 160, 352
-0.987183, 241, 65, 304, 192
-0.987283, 193, 329, 320, 392
-0.98729, 249, 217, 280, 280
-0.987291, 185, 161, 216, 288
-0.987312, 341, 329, 372, 392
-0.987356, 1, 317, 64, 348
-0.987368, 209, 377, 272, 440
-0.98738, 209, 433, 336, 496
-0.987413, 157, 177, 188, 304
-0.987479, 265, 113, 328, 240
-0.987559, 89, 193, 152, 256
-0.987617, 313, 177, 375, 304
-0.987645, 341, 265, 372, 328
-0.987675, 301, 193, 332, 320
-0.987697, 1, 297, 256, 360
-0.98777, 145, 433, 272, 496
-0.987799, 49, 129, 112, 384
-0.987804, 313, 377, 375, 440
-0.987957, 209, 81, 336, 208
-0.988003, 33, 297, 96, 328
-0.988027, 81, 249, 144, 280
-0.988049, 105, 261, 168, 292
-0.988073, 1, 273, 64, 304
-0.988193, 209, 161, 336, 224
-0.988197, 321, 289, 352, 352
-0.988198, 209, 321, 240, 448
-0.988201, 9, 301, 72, 332
-0.988226, 197, 393, 228, 456
-0.988317, 193, 121, 320, 184
-0.988332, 121, 245, 184, 276
-0.988353, 81, 381, 144, 412
-0.988354, 249, 249, 312, 312
-0.988382, 109, 345, 140, 408
-0.988437, 9, 329, 72, 360
-0.98846, 145, 277, 208, 308
-0.988503, 249, 321, 280, 384
-0.988552, 185, 305, 216, 432
-0.988555, 97, 233, 352, 296
-0.988562, 173, 161, 204, 288
-0.988578, 325, 377, 356, 440
-0.988623, 265, 321, 296, 448
-0.988633, 305, 369, 336, 496
-0.988636, 233, 177, 296, 240
-0.988641, 121, 321, 184, 352
-0.988686, 29, 193, 60, 320
-0.988715, 233, 369, 264, 496
-0.988719, 33, 265, 96, 296
-0.98872, 205, 249, 236, 312
-0.988729, 65, 269, 128, 300
-0.988767, 305, 225, 336, 288
-0.988771, 289, 369, 320, 496
-0.988789, 241, 257, 304, 500
-0.988814, 145, 301, 208, 332
-0.98882, 33, 241, 96, 272
-0.98883, 105, 305, 168, 336
-0.988858, 201, 177, 264, 240
-0.988871, 25, 285, 88, 316
-0.988905, 197, 321, 228, 384
-0.988922, 81, 393, 144, 424
-0.988925, 85, 353, 116, 416
-0.988968, 49, 381, 112, 412
-0.989053, 97, 221, 160, 252
-0.989055, 1, 225, 375, 288
-0.989061, 229, 281, 260, 344
-0.989075, 1, 289, 64, 320
-0.98913, 9, 261, 72, 292
-0.989135, 157, 345, 188, 408
-0.989181, 61, 361, 92, 424
-0.989222, 49, 253, 112, 284
-0.989235, 49, 281, 112, 312
-0.98927, 129, 433, 160, 496
-0.989366, 97, 273, 352, 336
-0.989375, 41, 309, 104, 340
-0.989377, 73, 309, 136, 340
-0.98941, 33, 321, 96, 352
-0.989411, 21, 409, 52, 472
-0.989434, 161, 225, 224, 256
-0.989465, 57, 233, 120, 264
-0.989492, 1, 321, 256, 384
-0.989504, 161, 97, 224, 352
-0.989506, 109, 393, 140, 456
-0.989525, 1, 313, 375, 376
-0.989535, 217, 393, 248, 456
-0.989549, 161, 261, 224, 292
-0.989593, 329, 369, 360, 496
-0.989599, 305, 273, 336, 336
-0.989688, 129, 289, 192, 320
-0.989692, 1, 353, 64, 384
-0.989697, 137, 233, 200, 264
-0.98972, 185, 289, 248, 320
-0.989726, 17, 385, 80, 416
-0.98973, 161, 333, 224, 364
-0.989741, 197, 321, 228, 448
-0.989754, 185, 269, 248, 300
-0.989782, 113, 373, 176, 404
-0.989785, 245, 369, 276, 496
-0.989817, 265, 129, 328, 192
-0.989819, 121, 1, 184, 500
-0.989822, 81, 237, 144, 268
-0.989835, 265, 369, 296, 496
-0.989875, 9, 129, 72, 384
-0.989877, 305, 369, 336, 432
-0.989888, 161, 369, 288, 432
-0.989896, 281, 433, 344, 496
-0.989912, 97, 297, 352, 360
-0.989935, 169, 1, 232, 500
-0.989976, 49, 433, 176, 496
-0.989986, 185, 241, 248, 272
-0.990006, 81, 325, 144, 356
-0.990016, 41, 393, 104, 424
-0.990036, 121, 337, 152, 400
-0.990082, 165, 369, 196, 496
-0.990085, 209, 249, 272, 280
-0.990085, 265, 377, 328, 440
-0.990094, 25, 345, 88, 376
-0.990111, 281, 113, 312, 240
-0.990123, 217, 177, 248, 304
-0.990167, 1, 457, 64, 488
-0.990233, 177, 321, 240, 352
-0.99024, 237, 433, 268, 496
-0.990259, 29, 225, 60, 288
-0.990293, 145, 245, 208, 276
-0.990293, 1, 341, 64, 372
-0.99031, 301, 201, 332, 264
-0.990316, 313, 257, 344, 384
-0.990322, 49, 1, 112, 500
-0.990338, 113, 393, 176, 424
-0.990346, 325, 409, 356, 472
-0.990381, 1, 353, 375, 416
-0.99041, 209, 325, 272, 356
-0.990457, 217, 225, 280, 256
-0.990485, 209, 321, 240, 384
-0.990502, 17, 365, 80, 396
-0.990504, 129, 261, 192, 292
-0.990505, 165, 201, 196, 264
-0.990516, 1, 265, 375, 328
-0.990521, 33, 333, 96, 364
-0.990532, 145, 345, 208, 376
-0.990544, 121, 277, 184, 308
-0.990563, 141, 417, 172, 480
-0.990586, 209, 237, 272, 268
-0.990588, 309, 393, 340, 456
-0.990633, 37, 433, 68, 496
-0.990637, 73, 221, 136, 252
-0.990638, 325, 433, 356, 496
-0.990685, 161, 289, 224, 320
-0.990706, 217, 369, 248, 496
-0.990711, 277, 369, 308, 496
-0.990737, 209, 277, 272, 308
-0.990754, 153, 313, 216, 344
-0.990774, 9, 469, 72, 500
-0.990814, 185, 229, 248, 260
-0.990874, 1, 217, 256, 280
-0.9909, 137, 333, 200, 364
-0.990903, 233, 245, 296, 276
-0.990913, 153, 369, 184, 432
-0.990915, 1, 437, 64, 468
-0.990922, 9, 249, 72, 280
-0.990935, 257, 225, 288, 352
-0.990939, 89, 273, 152, 304
-0.990944, 137, 405, 200, 436
-0.990971, 113, 233, 176, 264
-0.990979, 129, 361, 192, 392
-0.991025, 129, 321, 375, 384
-0.991054, 197, 369, 228, 496
-0.991057, 313, 329, 375, 360
-0.991074, 97, 425, 224, 488
-0.991108, 249, 1, 312, 500
-0.991109, 201, 213, 264, 244
-0.991115, 73, 297, 136, 328
-0.991119, 209, 265, 272, 296
-0.991146, 105, 293, 168, 324
-0.991163, 217, 313, 280, 344
-0.991252, 97, 345, 352, 408
-0.991299, 297, 277, 360, 308
-0.991317, 129, 209, 375, 272
-0.991328, 25, 1, 88, 500
-0.991341, 17, 309, 144, 340
-0.991349, 185, 309, 248, 340
-0.991353, 289, 297, 352, 360
-0.991379, 241, 225, 304, 256
-0.9914, 161, 397, 224, 428
-0.9914, 289, 397, 352, 428
-0.991428, 137, 393, 200, 424
-0.991443, 297, 293, 360, 324
-0.991456, 289, 121, 352, 184
-0.991458, 1, 257, 128, 288
-0.991459, 313, 253, 375, 284
-0.991468, 57, 333, 120, 364
-0.991476, 249, 301, 312, 332
-0.991479, 57, 321, 120, 352
-0.991491, 105, 333, 168, 364
-0.991509, 185, 253, 248, 284
-0.991536, 105, 405, 168, 436
-0.991538, 217, 289, 280, 320
-0.991549, 225, 337, 288, 368
-0.991603, 25, 445, 88, 476
-0.991612, 201, 405, 264, 436
-0.991659, 65, 265, 192, 296
-0.991664, 89, 369, 152, 400
-0.991684, 193, 1, 256, 500
-0.991778, 113, 345, 176, 376
-0.991785, 241, 209, 304, 240
-0.991796, 257, 285, 320, 316
-0.991804, 233, 257, 296, 288
-0.991811, 289, 305, 320, 432
-0.991851, 265, 337, 328, 368
-0.991858, 145, 469, 208, 500
-0.991864, 17, 301, 48, 332
-0.991865, 289, 161, 320, 288
-0.991925, 1, 345, 256, 408
-0.991934, 241, 393, 304, 424
-0.991938, 49, 1, 176, 128
-0.991955, 313, 349, 375, 380
-0.991957, 121, 221, 184, 252
-0.991958, 33, 309, 64, 340
-0.991978, 33, 293, 64, 324
-0.991989, 313, 321, 344, 448
-0.992002, 41, 369, 104, 400
-0.992004, 249, 317, 312, 348
-0.992005, 313, 305, 375, 336
-0.99202, 249, 137, 312, 168
-0.992031, 265, 405, 328, 436
-0.992039, 17, 261, 48, 292
-0.99204, 233, 269, 296, 300
-0.992044, 9, 313, 40, 344
-0.992045, 65, 369, 128, 400
-0.992052, 177, 445, 240, 476
-0.992053, 313, 241, 375, 272
-0.99206, 281, 97, 344, 352
-0.992078, 85, 249, 116, 280
-0.992111, 5, 301, 36, 332
-0.992118, 241, 33, 304, 288
-0.99212, 225, 405, 288, 436
-0.992127, 289, 265, 352, 296
-0.992127, 53, 285, 84, 316
-0.992139, 69, 257, 100, 288
-0.992141, 225, 301, 288, 332
-0.992149, 117, 245, 148, 276
-0.992149, 145, 273, 176, 304
-0.992171, 153, 445, 216, 476
-0.992176, 5, 273, 36, 304
-0.992181, 289, 245, 352, 276
-0.992187, 217, 449, 280, 480
-0.992195, 273, 209, 336, 240
-0.992209, 133, 313, 164, 344
-0.99221, 33, 345, 64, 376
-0.992214, 49, 273, 80, 304
-0.992223, 49, 333, 80, 364
-0.99223, 161, 177, 288, 240
-0.992238, 37, 269, 68, 300
-0.99224, 65, 269, 96, 300
-0.992255, 69, 381, 100, 412
-0.99226, 29, 253, 60, 284
-0.992286, 89, 349, 152, 380
-0.992287, 241, 357, 304, 388
-0.992291, 45, 305, 60, 368
-0.992292, 97, 369, 352, 432
-0.992296, 185, 393, 248, 424
-0.992298, 85, 265, 116, 296
-0.992302, 265, 185, 328, 216
-0.992302, 81, 405, 144, 436
-0.992304, 17, 329, 48, 360
-0.992319, 1, 357, 32, 388
-0.99232, 105, 385, 136, 416
-0.992324, 89, 381, 120, 412
-0.992327, 305, 169, 368, 232
-0.992331, 45, 301, 76, 332
-0.992333, 273, 221, 336, 252
-0.992356, 33, 321, 64, 352
-0.992359, 129, 301, 160, 332
-0.992367, 265, 349, 328, 380
-0.992369, 137, 433, 200, 464
-0.992369, 9, 341, 40, 372
-0.992371, 145, 233, 176, 264
-0.992379, 33, 113, 288, 240
-0.992382, 237, 129, 268, 256
-0.992388, 137, 245, 168, 276
-0.992391, 109, 221, 140, 252
-0.992398, 217, 429, 280, 460
-0.992407, 65, 233, 96, 264
-0.992411, 165, 265, 196, 296
-0.992419, 25, 281, 56, 312
-0.992434, 101, 249, 132, 280
-0.99245, 145, 1, 208, 500
-0.992455, 117, 317, 148, 348
-0.992461, 325, 305, 356, 432
-0.992462, 133, 233, 164, 264
-0.992465, 193, 225, 224, 256
-0.992465, 45, 241, 76, 272
-0.992472, 97, 261, 128, 292
-0.992472, 113, 305, 144, 336
-0.992477, 101, 233, 132, 264
-0.992486, 89, 221, 120, 252
-0.992525, 169, 277, 200, 308
-0.992527, 133, 401, 164, 432
-0.992532, 149, 289, 180, 320
-0.992544, 57, 381, 88, 412
-0.992556, 113, 261, 144, 292
-0.992557, 157, 229, 188, 260
-0.992565, 37, 333, 68, 364
-0.992568, 1, 457, 32, 488
-0.992576, 21, 313, 52, 344
-0.992577, 161, 337, 192, 368
-0.992581, 21, 357, 52, 388
-0.992584, 5, 369, 36, 400
-0.992584, 77, 229, 108, 260
-0.992585, 1, 1, 64, 500
-0.992587, 49, 261, 80, 292
-0.992599, 201, 161, 232, 288
-0.992601, 101, 309, 132, 340
-0.992608, 1, 285, 32, 316
-0.992621, 177, 325, 208, 356
-0.99263, 17, 381, 48, 412
-0.992631, 81, 309, 112, 340
-0.992633, 117, 393, 148, 424
-0.992633, 181, 293, 212, 324
-0.992645, 165, 305, 196, 336
-0.992647, 1, 325, 32, 356
-0.99265, 37, 281, 68, 312
-0.992659, 141, 353, 172, 384
-0.992666, 213, 273, 244, 304
-0.992668, 153, 245, 184, 276
-0.992672, 13, 289, 44, 320
-0.992681, 217, 249, 248, 280
-0.992682, 193, 285, 224, 316
-0.992688, 133, 257, 164, 288
-0.992693, 169, 229, 200, 260
-0.992695, 69, 309, 100, 340
-0.992705, 61, 321, 92, 352
-0.992707, 1, 385, 256, 448
-0.99271, 65, 281, 96, 312
-0.992721, 89, 393, 120, 424
-0.992728, 209, 233, 240, 264
-0.99273, 149, 341, 180, 372
-0.992732, 81, 321, 208, 352
-0.992753, 5, 437, 36, 468
-0.992753, 233, 233, 264, 264
-0.992767, 69, 297, 100, 328
-0.992767, 121, 373, 152, 404
-0.99277, 169, 249, 200, 280
-0.992779, 149, 321, 180, 352
-0.992789, 1, 289, 375, 352
-0.992798, 41, 389, 72, 420
-0.992813, 45, 321, 76, 352
-0.992827, 145, 397, 176, 428
-0.99283, 29, 385, 60, 416
-0.992831, 181, 225, 212, 256
-0.992831, 29, 449, 60, 480
-0.992837, 65, 397, 96, 428
-0.992842, 125, 221, 156, 252
-0.992844, 17, 445, 48, 476
-0.992845, 237, 265, 268, 296
-0.992859, 1, 273, 16, 336
-0.99286, 133, 413, 164, 444
-0.992865, 189, 265, 220, 296
-0.992866, 153, 261, 184, 292
-0.99287, 181, 305, 212, 336
-0.992876, 325, 237, 356, 268
-0.992876, 129, 361, 160, 392
-0.992881, 35, 281, 50, 344
-0.992888, 317, 369, 348, 496
-0.992891, 1, 269, 128, 300
-0.992895, 77, 393, 108, 424
-0.992897, 21, 369, 52, 400
-0.992899, 65, 253, 192, 284
-0.9929, 105, 321, 136, 352
-0.992901, 221, 261, 252, 292
-0.992902, 161, 325, 192, 356
-0.992904, 47, 281, 62, 344
-0.992916, 89, 237, 120, 268
-0.992919, 77, 277, 108, 308
-0.99293, 53, 393, 84, 424
-0.992934, 89, 325, 120, 356
-0.992943, 201, 269, 232, 300
-0.992946, 189, 249, 220, 280
-0.992953, 221, 321, 252, 352
-0.992954, 237, 245, 268, 276
-0.99297, 57, 301, 88, 332
-0.992973, 17, 245, 144, 276
-0.99298, 1, 305, 16, 368
-0.992997, 141, 301, 172, 332
-0.993007, 45, 377, 76, 408
-0.993012, 17, 297, 32, 360
-0.993019, 189, 325, 220, 356
-0.993019, 109, 373, 140, 404
-0.993023, 129, 289, 160, 320
-0.993023, 277, 321, 308, 448
-0.993028, 249, 229, 280, 260
-0.993035, 65, 225, 192, 256
-0.993036, 161, 49, 288, 176
-0.993037, 153, 301, 184, 332
-0.993044, 17, 457, 48, 488
-0.993045, 209, 285, 240, 316
-0.993048, 333, 249, 364, 280
-0.99305, 5, 261, 36, 292
-0.993051, 33, 241, 64, 272
-0.99306, 129, 273, 256, 304
-0.993098, 119, 217, 134, 280
-0.993101, 25, 161, 88, 288
-0.993123, 33, 281, 160, 312
-0.993177, 225, 97, 352, 160
-0.993179, 137, 185, 200, 248
-0.993192, 39, 305, 54, 368
-0.993193, 41, 241, 56, 304
-0.993217, 11, 265, 26, 328
-0.993247, 301, 305, 332, 432
-0.993255, 41, 281, 56, 344
-0.993266, 91, 217, 106, 280
-0.993297, 167, 225, 182, 288
-0.993323, 129, 217, 144, 280
-0.993338, 161, 225, 176, 288
-0.993346, 1, 217, 64, 280
-0.993353, 13, 329, 28, 392
-0.993362, 73, 161, 104, 288
-0.993373, 53, 265, 68, 328
-0.993395, 113, 229, 240, 260
-0.993407, 313, 1, 375, 500
-0.993443, 7, 289, 22, 352
-0.993446, 53, 233, 68, 296
-0.993461, 79, 225, 94, 288
-0.993471, 23, 257, 38, 320
-0.993497, 17, 385, 144, 416
-0.9935, 139, 217, 154, 280
-0.993552, 173, 297, 188, 360
-0.993566, 121, 369, 136, 432
-0.993568, 113, 185, 176, 248
-0.993601, 61, 265, 76, 328
-0.993604, 145, 153, 272, 216
-0.993614, 27, 281, 42, 344
-0.993631, 209, 353, 272, 416
-0.993644, 73, 225, 88, 288
-0.993653, 99, 233, 114, 296
-0.993675, 31, 249, 46, 312
-0.9937, 129, 285, 256, 316
-0.993702, 111, 217, 126, 280
-0.99371, 145, 105, 272, 168
-0.99371, 97, 309, 224, 340
-0.993715, 97, 145, 160, 272
-0.993721, 129, 297, 256, 328
-0.99373, 289, 97, 352, 160
-0.993771, 229, 241, 244, 304
-0.993773, 65, 297, 192, 328
-0.993795, 85, 225, 100, 288
-0.993796, 129, 401, 375, 464
-0.993798, 297, 193, 360, 256
-0.993807, 153, 233, 168, 296
-0.993814, 67, 265, 82, 328
-0.993824, 67, 225, 82, 288
-0.99383, 7, 345, 22, 408
-0.993834, 17, 265, 32, 328
-0.993836, 179, 225, 194, 288
-0.993845, 91, 241, 106, 304
-0.993883, 35, 337, 50, 400
-0.993889, 269, 97, 300, 224
-0.993948, 201, 81, 264, 208
-0.994057, 65, 389, 192, 420
-0.994083, 29, 345, 44, 408
-0.994105, 131, 361, 146, 424
-0.994109, 21, 353, 36, 416
-0.994116, 173, 225, 188, 288
-0.994126, 105, 217, 120, 280
-0.994127, 61, 233, 76, 296
-0.994134, 145, 241, 272, 272
-0.994138, 77, 265, 92, 328
-0.994161, 1, 337, 16, 400
-0.994168, 47, 241, 62, 304
-0.994174, 217, 33, 280, 160
-0.994235, 147, 273, 162, 336
-0.994237, 265, 217, 328, 280
-0.994238, 33, 305, 48, 368
-0.994248, 147, 225, 162, 288
-0.994267, 161, 313, 176, 376
-0.99427, 25, 305, 40, 368
-0.994317, 1, 297, 128, 328
-0.994365, 179, 297, 194, 360
-0.994371, 117, 193, 148, 448
-0.994376, 53, 289, 68, 352
-0.994383, 167, 289, 182, 352
-0.994392, 77, 297, 92, 360
-0.994417, 1, 417, 256, 480
-0.994431, 7, 313, 22, 376
-0.99446, 1, 385, 375, 448
-0.994482, 41, 225, 72, 480
-0.994488, 121, 241, 136, 304
-0.99454, 151, 313, 166, 376
-0.994583, 213, 225, 228, 288
-0.994593, 131, 241, 146, 304
-0.994631, 177, 81, 304, 144
-0.994631, 129, 261, 256, 292
-0.994636, 187, 297, 202, 360
-0.994648, 203, 217, 218, 280
-0.994667, 273, 1, 336, 500
-0.994679, 17, 333, 144, 364
-0.994681, 111, 249, 126, 312
-0.994703, 73, 225, 104, 480
-0.994739, 1, 201, 375, 264
-0.994745, 115, 377, 130, 440
-0.99477, 1, 193, 128, 256
-0.994787, 223, 233, 238, 296
-0.994794, 41, 337, 56, 400
-0.994797, 143, 393, 158, 456
-0.994817, 53, 225, 84, 480
-0.99482, 191, 217, 206, 280
-0.994825, 53, 321, 68, 384
-0.994829, 105, 241, 120, 304
-0.994837, 129, 289, 144, 352
-0.994844, 171, 249, 186, 312
-0.994891, 97, 225, 128, 480
-0.994896, 137, 249, 152, 312
-0.994907, 17, 233, 144, 264
-0.994926, 153, 273, 168, 336
-0.994948, 99, 257, 114, 320
-0.99497, 71, 297, 86, 360
-0.994981, 17, 365, 144, 396
-0.994985, 313, 97, 375, 352
-0.994999, 79, 393, 94, 456
-0.994999, 141, 273, 156, 336
-0.995002, 129, 193, 160, 448
-0.995005, 325, 209, 356, 336
-0.99502, 65, 241, 192, 272
-0.995032, 41, 377, 56, 440
-0.99505, 143, 297, 158, 360
-0.995057, 83, 265, 98, 328
-0.995061, 173, 193, 204, 448
-0.995066, 193, 193, 224, 448
-0.99507, 185, 225, 200, 288
-0.995075, 31, 377, 46, 440
-0.99508, 231, 273, 246, 336
-0.995098, 209, 253, 336, 284
-0.995144, 17, 321, 144, 352
-0.99515, 67, 385, 82, 448
-0.995152, 83, 297, 98, 360
-0.995173, 65, 289, 80, 352
-0.995175, 65, 377, 192, 408
-0.995181, 161, 309, 288, 340
-0.995188, 3, 433, 18, 496
-0.995192, 217, 33, 280, 288
-0.995201, 81, 277, 208, 308
-0.995207, 123, 305, 138, 368
-0.995237, 197, 281, 212, 344
-0.995241, 293, 241, 324, 368
-0.995245, 141, 353, 156, 416
-0.995272, 91, 265, 106, 328
-0.995273, 161, 325, 288, 356
-0.995276, 161, 225, 192, 480
-0.995309, 65, 333, 192, 364
-0.995318, 59, 289, 74, 352
-0.995332, 135, 289, 150, 352
-0.995339, 167, 321, 182, 384
-0.995341, 225, 73, 288, 136
-0.995344, 57, 377, 72, 440
-0.99536, 113, 401, 240, 432
-0.995365, 29, 225, 60, 480
-0.995376, 17, 397, 144, 428
-0.995376, 197, 217, 212, 280
-0.995381, 189, 257, 204, 320
-0.995428, 97, 209, 112, 272
-0.995447, 185, 89, 248, 152
-0.99545, 47, 345, 62, 408
-0.995463, 177, 273, 192, 336
-0.995465, 129, 345, 256, 376
-0.995468, 161, 265, 176, 328
-0.995477, 209, 229, 336, 260
-0.995487, 33, 17, 288, 144
-0.995496, 13, 353, 28, 416
-0.995508, 269, 241, 300, 368
-0.995531, 181, 249, 196, 312
-0.995532, 143, 249, 158, 312
-0.99555, 85, 225, 116, 480
-0.995553, 99, 369, 114, 432
-0.995568, 89, 289, 104, 352
-0.995575, 17, 345, 144, 376
-0.995591, 203, 281, 218, 344
-0.995592, 177, 281, 304, 312
-0.995592, 13, 225, 44, 480
-0.995606, 243, 225, 258, 288
-0.995607, 113, 297, 128, 360
-0.99561, 107, 297, 122, 360
-0.99561, 209, 241, 336, 272
-0.995624, 241, 285, 368, 316
-0.995653, 137, 393, 152, 456
-0.995657, 97, 425, 352, 488
-0.995688, 241, 65, 368, 128
-0.995689, 135, 313, 150, 376
-0.995714, 203, 257, 218, 320
-0.995718, 89, 385, 104, 448
-0.995719, 355, 297, 370, 360
-0.99574, 333, 273, 348, 336
-0.995747, 261, 161, 292, 288
-0.995752, 127, 385, 142, 448
-0.995754, 157, 337, 172, 400
-0.995758, 147, 345, 162, 408
-0.995764, 183, 273, 198, 336
-0.995777, 145, 225, 176, 480
-0.995782, 161, 229, 288, 260
-0.995783, 343, 297, 358, 360
-0.995806, 149, 393, 164, 456
-0.995812, 95, 305, 110, 368
-0.99583, 289, 145, 352, 208
-0.995844, 11, 425, 26, 488
-0.995848, 109, 377, 124, 440
-0.995872, 241, 33, 368, 160
-0.995882, 351, 329, 366, 392
-0.995935, 1, 257, 32, 500
-0.995957, 241, 329, 368, 360
-0.995968, 177, 293, 304, 324
-0.995983, 225, 213, 352, 244
-0.995995, 129, 185, 375, 248
-0.99601, 209, 265, 336, 296
-0.996017, 177, 57, 304, 120
-0.996055, 241, 317, 368, 348
-0.996073, 241, 297, 368, 328
-0.996085, 41, 193, 104, 256
-0.996088, 17, 145, 144, 272
-0.996144, 241, 353, 368, 384
-0.996181, 209, 197, 336, 228
-0.996189, 1, 409, 375, 472
-0.996203, 145, 129, 272, 192
-0.996221, 1, 457, 128, 488
-0.996246, 177, 341, 304, 372
-0.996283, 129, 81, 256, 144
-0.996306, 65, 401, 192, 432
-0.996389, 225, 401, 352, 432
-0.996427, 241, 341, 368, 372
-0.996527, 97, 365, 224, 396
-0.996529, 249, 113, 280, 240
-0.996582, 5, 321, 20, 352
-0.996597, 17, 441, 144, 472
-0.996608, 205, 225, 236, 480
-0.996637, 53, 269, 68, 300
-0.996642, 63, 265, 78, 296
-0.996686, 145, 217, 272, 248
-0.996701, 241, 121, 368, 184
-0.996705, 31, 305, 46, 336
-0.996721, 9, 305, 24, 336
-0.996798, 3, 357, 18, 388
-0.996799, 161, 401, 288, 432
-0.996812, 33, 193, 288, 256
-0.996816, 41, 337, 56, 368
-0.996837, 39, 317, 54, 348
-0.996851, 11, 317, 26, 348
-0.99688, 1, 433, 375, 496
-0.996899, 43, 293, 58, 324
-0.996906, 33, 253, 48, 284
-0.996908, 113, 385, 240, 416
-0.99693, 87, 385, 102, 416
-0.996938, 209, 185, 336, 216
-0.996952, 21, 301, 36, 332
-0.996957, 3, 309, 18, 340
-0.99697, 27, 257, 42, 288
-0.996989, 113, 333, 240, 364
-0.996996, 145, 65, 208, 128
-0.997001, 37, 293, 52, 324
-0.997025, 35, 273, 50, 304
-0.997033, 33, 469, 160, 500
-0.997034, 1, 453, 16, 484
-0.997038, 11, 273, 26, 304
-0.997042, 135, 245, 150, 276
-0.997046, 3, 273, 18, 304
-0.997056, 27, 289, 42, 320
-0.997057, 41, 277, 56, 308
-0.997065, 83, 265, 98, 296
-0.997081, 71, 277, 86, 308
-0.997089, 193, 389, 320, 420
-0.997089, 129, 1, 256, 128
-0.997108, 63, 277, 78, 308
-0.997113, 133, 317, 148, 348
-0.997118, 69, 261, 84, 292
-0.997132, 229, 225, 260, 480
-0.997142, 117, 249, 132, 280
-0.997146, 123, 313, 138, 344
-0.99715, 53, 329, 68, 360
-0.997154, 123, 245, 138, 276
-0.997167, 79, 253, 94, 284
-0.997176, 19, 261, 34, 292
-0.997178, 91, 265, 106, 296
-0.997182, 129, 245, 144, 276
-0.997183, 49, 289, 64, 320
-0.997187, 95, 249, 110, 280
-0.997202, 225, 129, 256, 256
-0.997203, 105, 33, 168, 96
-0.997206, 47, 273, 62, 304
-0.997222, 113, 389, 128, 420
-0.997224, 147, 233, 162, 264
-0.997226, 89, 249, 104, 280
-0.997226, 171, 269, 186, 300
-0.99723, 23, 361, 38, 392
-0.997244, 113, 177, 240, 240
-0.997248, 33, 321, 48, 352
-0.997259, 11, 337, 26, 368
-0.997267, 47, 329, 62, 360
-0.997275, 293, 113, 324, 240
-0.997281, 45, 309, 60, 340
-0.997286, 41, 257, 56, 288
-0.997292, 1, 465, 16, 496
-0.997294, 1, 333, 16, 364
-0.997309, 123, 377, 138, 408
-0.99732, 155, 345, 170, 376
-0.997329, 77, 269, 92, 300
-0.997344, 105, 221, 120, 252
-0.997347, 145, 309, 160, 340
-0.997365, 139, 401, 154, 432
-0.997366, 203, 221, 218, 252
-0.997373, 177, 257, 192, 288
-0.997384, 345, 257, 375, 500
-0.99739, 45, 245, 60, 276
-0.997396, 65, 345, 192, 376
-0.997397, 81, 381, 96, 412
-0.997404, 15, 305, 30, 336
-0.99741, 23, 313, 38, 344
-0.997413, 19, 273, 34, 304
-0.997414, 155, 233, 170, 264
-0.997422, 241, 225, 272, 480
-0.997423, 111, 253, 126, 284
-0.997429, 55, 281, 70, 312
-0.997431, 167, 229, 182, 260
-0.99745, 93, 381, 108, 412
-0.997455, 93, 225, 108, 256
-0.997456, 17, 429, 144, 460
-0.997461, 157, 269, 172, 300
-0.997474, 53, 241, 68, 272
-0.99748, 241, 413, 368, 444
-0.997482, 129, 305, 144, 336
-0.997486, 73, 381, 88, 412
-0.997488, 97, 265, 112, 296
-0.997504, 325, 257, 356, 500
-0.997519, 257, 65, 288, 192
-0.997521, 141, 241, 156, 272
-0.997522, 175, 333, 190, 364
-0.997523, 139, 225, 154, 256
-0.997533, 161, 233, 176, 264
-0.997537, 161, 445, 288, 476
-0.997544, 209, 173, 336, 204
-0.997555, 85, 309, 100, 340
-0.997556, 241, 365, 368, 396
-0.997568, 113, 437, 240, 468
-0.997569, 39, 305, 54, 336
-0.997579, 101, 253, 116, 284
-0.997584, 17, 369, 32, 400
-0.997585, 65, 213, 192, 244
-0.997594, 79, 229, 94, 260
-0.997596, 191, 281, 206, 312
-0.997597, 113, 221, 128, 252
-0.997598, 117, 309, 132, 340
-0.997598, 209, 121, 336, 152
-0.997602, 217, 225, 248, 480
-0.997614, 29, 273, 44, 304
-0.997617, 81, 453, 208, 484
-0.99762, 177, 305, 192, 336
-0.997621, 121, 393, 136, 424
-0.997623, 149, 353, 164, 384
-0.997625, 183, 301, 198, 332
-0.997628, 189, 297, 204, 328
-0.997641, 173, 229, 188, 260
-0.997642, 57, 1, 120, 64
-0.997645, 113, 33, 240, 96
-0.997651, 81, 465, 208, 496
-0.997656, 63, 385, 78, 416
-0.997659, 11, 361, 26, 392
-0.997659, 129, 17, 375, 144
-0.997663, 167, 337, 182, 368
-0.997666, 39, 245, 54, 276
-0.997669, 99, 221, 114, 252
-0.997669, 35, 341, 50, 372
-0.997679, 111, 309, 126, 340
-0.997679, 187, 261, 202, 292
-0.997682, 19, 289, 34, 320
-0.997686, 47, 261, 62, 292
-0.997692, 1, 285, 16, 316
-0.997699, 231, 249, 246, 280
-0.997699, 11, 461, 26, 492
-0.997705, 87, 229, 102, 260
-0.997711, 53, 301, 68, 332
-0.997725, 165, 325, 180, 356
-0.99773, 105, 265, 120, 296
-0.997735, 9, 293, 24, 324
-0.997737, 133, 397, 148, 428
-0.997752, 61, 237, 76, 268
-0.997755, 67, 233, 82, 264
-0.997757, 129, 41, 192, 104
-0.99776, 101, 381, 116, 412
-0.99777, 211, 229, 226, 260
-0.997771, 277, 97, 308, 352
-0.997773, 225, 273, 240, 304
-0.997777, 149, 245, 164, 276
-0.997782, 79, 393, 94, 424
-0.997787, 195, 293, 210, 324
-0.997788, 161, 457, 288, 488
-0.997796, 123, 325, 138, 356
-0.997801, 1, 297, 16, 328
-0.997803, 9, 349, 24, 380
-0.997811, 17, 193, 48, 320
-0.997824, 79, 309, 94, 340
-0.997828, 49, 145, 112, 272
-0.997831, 25, 381, 40, 412
-0.997833, 117, 377, 132, 408
-0.997838, 165, 265, 180, 296
-0.997848, 219, 237, 234, 268
-0.997862, 1, 441, 16, 472
-0.997872, 193, 433, 320, 464
-0.997891, 193, 361, 320, 392
-0.997897, 81, 413, 208, 444
-0.997939, 149, 129, 180, 384
-0.997941, 225, 377, 352, 408
-0.997991, 85, 129, 116, 384
-0.997992, 33, 17, 160, 80
-0.997992, 65, 41, 192, 104
-0.998001, 205, 129, 236, 384
-0.998013, 281, 241, 312, 368
-0.998059, 41, 289, 56, 416
-0.99806, 241, 437, 368, 468
-0.998081, 277, 161, 308, 288
-0.998103, 97, 129, 128, 384
-0.998103, 305, 193, 336, 448
-0.998107, 17, 221, 144, 252
-0.998133, 193, 33, 256, 288
-0.998151, 241, 129, 272, 384
-0.998156, 129, 469, 256, 500
-0.998187, 177, 97, 208, 352
-0.998198, 113, 425, 240, 456
-0.9982, 293, 161, 324, 416
-0.998216, 161, 125, 288, 156
-0.998219, 209, 449, 336, 480
-0.998243, 225, 109, 352, 140
-0.998247, 51, 225, 66, 352
-0.998248, 129, 153, 375, 216
-0.99825, 193, 469, 320, 500
-0.99827, 45, 241, 60, 368
-0.998274, 3, 273, 18, 400
-0.998311, 209, 161, 336, 192
-0.998324, 79, 209, 94, 336
-0.998347, 257, 129, 288, 384
-0.998347, 1, 323, 64, 338
-0.998355, 177, 209, 192, 336
-0.998361, 89, 241, 104, 368
-0.998362, 33, 307, 96, 322
-0.998364, 145, 205, 272, 236
-0.99837, 57, 241, 72, 368
-0.998378, 159, 225, 174, 352
-0.998383, 167, 209, 182, 336
-0.998384, 71, 241, 86, 368
-0.998384, 33, 275, 96, 290
-0.998384, 193, 149, 320, 180
-0.998388, 81, 395, 144, 410
-0.998389, 229, 129, 260, 384
-0.998389, 1, 317, 64, 332
-0.998396, 9, 303, 72, 318
-0.998397, 9, 333, 72, 348
-0.998397, 73, 387, 136, 402
-0.998404, 121, 97, 152, 352
-0.99841, 95, 241, 110, 368
-0.998416, 1, 311, 64, 326
-0.998417, 9, 297, 72, 312
-0.99842, 81, 251, 144, 266
-0.998426, 65, 441, 192, 472
-0.99844, 169, 229, 232, 244
-0.998441, 49, 387, 112, 402
-0.998441, 121, 247, 184, 262
-0.998443, 113, 319, 176, 334
-0.998443, 57, 275, 120, 290
-0.998444, 17, 409, 144, 440
-0.998444, 193, 209, 208, 336
-0.998445, 33, 249, 96, 264
-0.998445, 33, 299, 96, 314
-0.998445, 103, 241, 118, 368
-0.998446, 37, 389, 68, 404
-0.998446, 73, 381, 136, 396
-0.998447, 145, 397, 176, 412
-0.998447, 117, 397, 148, 412
-0.998447, 9, 459, 40, 474
-0.998449, 57, 129, 88, 384
-0.998449, 57, 267, 120, 282
-0.99845, 17, 453, 48, 468
-0.998451, 33, 269, 96, 284
-0.998452, 97, 243, 128, 258
-0.998452, 145, 225, 160, 352
-0.998452, 5, 293, 36, 308
-0.998453, 13, 337, 44, 352
-0.998453, 65, 399, 96, 414
-0.998454, 5, 377, 36, 392
-0.998454, 13, 369, 44, 384
-0.998455, 1, 177, 375, 240
-0.998455, 181, 263, 212, 278
-0.998456, 237, 251, 268, 266
-0.998456, 57, 261, 120, 276
-0.998457, 229, 239, 260, 254
-0.998458, 205, 237, 236, 252
-0.99846, 21, 319, 52, 334
-0.99846, 129, 399, 160, 414
-0.99846, 81, 383, 112, 398
-0.99846, 153, 351, 184, 366
-0.99846, 187, 209, 202, 336
-0.998461, 11, 273, 26, 400
-0.998461, 1, 281, 64, 296
-0.998462, 135, 305, 150, 432
-0.998462, 25, 291, 88, 306
-0.998463, 89, 223, 152, 238
-0.998466, 61, 393, 92, 408
-0.998466, 237, 271, 268, 286
-0.998466, 145, 301, 208, 316
-0.998467, 153, 225, 168, 352
-0.998469, 41, 243, 104, 258
-0.998469, 69, 381, 100, 396
-0.998469, 61, 237, 92, 252
-0.998469, 177, 255, 208, 270
-0.99847, 117, 383, 148, 398
-0.99847, 149, 293, 180, 308
-0.998471, 9, 267, 72, 282
-0.998471, 17, 293, 48, 308
-0.998472, 165, 231, 196, 246
-0.998474, 1, 275, 64, 290
-0.998474, 33, 453, 64, 468
-0.998474, 25, 281, 88, 296
-0.998474, 81, 311, 112, 326
-0.998475, 49, 283, 112, 298
-0.998475, 49, 393, 80, 408
-0.998475, 57, 263, 88, 278
-0.998476, 33, 327, 64, 342
-0.998477, 5, 353, 36, 368
-0.998479, 153, 249, 184, 264
-0.99848, 185, 293, 248, 308
-0.998481, 85, 389, 116, 404
-0.998482, 161, 339, 192, 354
-0.998483, 105, 251, 136, 266
-0.998483, 41, 259, 72, 274
-0.998484, 105, 309, 168, 324
-0.998484, 137, 363, 168, 378
-0.998484, 141, 407, 172, 422
-0.998485, 45, 343, 76, 358
-0.998485, 9, 339, 72, 354
-0.998485, 89, 261, 152, 276
-0.998487, 89, 269, 120, 284
-0.998488, 181, 299, 212, 314
-0.998488, 177, 229, 208, 244
-0.998489, 25, 255, 88, 270
-0.99849, 93, 395, 124, 410
-0.99849, 17, 261, 80, 276
-0.998492, 57, 235, 120, 250
-0.998492, 111, 225, 126, 352
-0.998492, 145, 279, 208, 294
-0.998493, 65, 241, 80, 368
-0.998494, 97, 245, 160, 260
-0.998495, 125, 243, 156, 258
-0.998495, 79, 257, 94, 384
-0.998496, 41, 395, 104, 410
-0.998496, 141, 239, 172, 254
-0.998496, 137, 295, 200, 310
-0.998499, 41, 329, 104, 344
-0.998499, 121, 317, 152, 332
-0.9985, 145, 285, 208, 300
-0.9985, 81, 271, 144, 286
-0.9985, 49, 309, 80, 324
-0.9985, 1, 337, 32, 352
-0.998501, 37, 249, 68, 264
-0.998501, 1, 365, 32, 380
-0.998501, 45, 269, 76, 284
-0.998502, 105, 253, 168, 268
-0.998502, 149, 283, 180, 298
-0.998503, 51, 305, 66, 432
-0.998503, 109, 223, 140, 238
-0.998504, 97, 263, 128, 278
-0.998505, 209, 283, 240, 298
-0.998505, 33, 337, 64, 352
-0.998506, 45, 331, 76, 346
-0.998506, 93, 249, 124, 264
-0.998506, 121, 307, 152, 322
-0.998507, 145, 357, 176, 372
-0.998508, 1, 371, 32, 386
-0.998508, 125, 225, 156, 240
-0.99851, 113, 261, 176, 276
-0.99851, 97, 223, 128, 238
-0.998511, 105, 391, 136, 406
-0.998512, 157, 345, 188, 360
-0.998513, 49, 239, 80, 254
-0.998515, 225, 249, 288, 264
-0.998515, 23, 305, 38, 432
-0.998518, 189, 227, 220, 242
-0.998518, 69, 311, 100, 326
-0.998518, 21, 325, 52, 340
-0.998519, 129, 253, 160, 268
-0.998519, 1, 269, 32, 284
-0.998519, 165, 277, 196, 292
-0.998521, 65, 275, 96, 290
-0.998521, 25, 321, 88, 336
-0.998522, 121, 271, 184, 286
-0.998522, 9, 345, 72, 360
-0.998522, 161, 291, 224, 306
-0.998523, 117, 225, 132, 352
-0.998525, 121, 281, 184, 296
-0.998526, 9, 351, 72, 366
-0.998526, 145, 273, 208, 288
-0.998528, 217, 273, 248, 288
-0.998528, 35, 289, 50, 416
-0.998529, 185, 287, 248, 302
-0.99853, 17, 387, 80, 402
-0.99853, 165, 271, 196, 286
-0.998531, 1, 291, 64, 306
-0.998531, 73, 393, 104, 408
-0.998532, 129, 405, 160, 420
-0.998532, 133, 225, 148, 352
-0.998534, 81, 329, 144, 344
-0.998534, 33, 313, 96, 328
-0.998535, 209, 133, 336, 164
-0.998535, 81, 309, 144, 324
-0.998535, 117, 255, 148, 270
-0.998536, 161, 267, 224, 282
-0.998536, 77, 273, 108, 288
-0.998537, 177, 299, 240, 314
-0.998538, 53, 283, 84, 298
-0.998538, 149, 277, 180, 292
-0.998538, 129, 255, 192, 270
-0.998539, 1, 365, 64, 380
-0.998539, 227, 225, 242, 352
-0.998539, 41, 339, 104, 354
-0.998539, 149, 305, 164, 432
-0.99854, 1, 327, 32, 342
-0.998541, 85, 227, 116, 242
-0.998542, 137, 247, 168, 262
-0.998542, 21, 277, 52, 292
-0.998542, 121, 325, 184, 340
-0.998542, 225, 239, 288, 254
-0.998543, 169, 333, 232, 348
-0.998544, 193, 281, 256, 296
-0.998545, 93, 381, 124, 396
-0.998545, 37, 315, 68, 330
-0.998547, 109, 261, 140, 276
-0.998547, 17, 331, 48, 346
-0.998547, 57, 311, 120, 326
-0.998548, 69, 231, 100, 246
-0.998548, 281, 65, 344, 192
-0.998549, 113, 323, 144, 338
-0.998549, 31, 337, 46, 464
-0.99855, 33, 379, 96, 394
-0.99855, 129, 485, 192, 500
-0.99855, 81, 251, 112, 266
-0.99855, 1, 359, 32, 374
-0.99855, 153, 341, 216, 356
-0.99855, 121, 287, 184, 302
-0.998552, 177, 323, 240, 338
-0.998552, 177, 421, 304, 452
-0.998552, 105, 231, 168, 246
-0.998556, 113, 399, 176, 414
-0.998557, 33, 273, 64, 288
-0.998559, 209, 229, 272, 244
-0.99856, 17, 301, 48, 316
-0.998561, 9, 283, 40, 298
-0.998561, 193, 251, 256, 266
-0.998561, 57, 255, 120, 270
-0.998562, 203, 209, 218, 336
-0.998563, 49, 303, 80, 318
-0.998563, 193, 271, 256, 286
-0.998563, 145, 231, 208, 246
-0.998564, 33, 309, 64, 324
-0.998564, 65, 229, 128, 244
-0.998564, 9, 455, 72, 470
-0.998567, 33, 265, 64, 280
-0.998567, 169, 265, 200, 280
-0.998567, 29, 255, 60, 270
-0.998567, 185, 245, 248, 260
-0.998567, 17, 359, 80, 374
-0.998567, 45, 337, 76, 352
-0.998569, 49, 289, 112, 304
-0.99857, 97, 389, 160, 404
-0.99857, 145, 249, 208, 264
-0.998571, 145, 311, 208, 326
-0.998572, 201, 239, 264, 254
-0.998574, 33, 343, 64, 358
-0.998574, 137, 395, 200, 410
-0.998574, 1, 443, 64, 458
-0.998575, 129, 367, 192, 382
-0.998576, 65, 303, 128, 318
-0.998576, 233, 255, 296, 270
-0.998577, 121, 241, 184, 256
-0.998577, 145, 349, 208, 364
-0.998577, 145, 321, 208, 336
-0.998579, 105, 383, 168, 398
-0.998579, 9, 461, 72, 476
-0.998579, 153, 271, 184, 286
-0.99858, 69, 259, 100, 274
-0.99858, 257, 225, 288, 480
-0.99858, 29, 303, 60, 318
-0.998581, 33, 321, 64, 336
-0.998583, 25, 287, 56, 302
-0.998584, 121, 405, 184, 420
-0.998584, 65, 401, 128, 416
-0.998586, 89, 315, 152, 330
-0.998586, 193, 259, 256, 274
-0.998589, 49, 275, 80, 290
-0.998589, 65, 281, 96, 296
-0.99859, 281, 403, 344, 418
-0.99859, 105, 303, 168, 318
-0.99859, 1, 477, 64, 492
-0.998591, 201, 223, 264, 238
-0.998592, 161, 261, 224, 276
-0.998593, 81, 277, 144, 292
-0.998594, 17, 393, 80, 408
-0.998594, 217, 281, 280, 296
-0.998595, 33, 451, 96, 466
-0.998595, 1, 305, 32, 320
-0.998595, 113, 375, 176, 390
-0.998597, 297, 297, 360, 312
-0.998598, 217, 317, 280, 332
-0.998599, 41, 337, 56, 464
-0.998601, 153, 327, 216, 342
-0.998603, 37, 291, 68, 306
-0.998603, 17, 307, 48, 322
-0.998604, 209, 265, 272, 280
-0.998605, 129, 333, 192, 348
-0.998605, 89, 323, 152, 338
-0.998605, 65, 387, 96, 402
-0.998606, 313, 335, 375, 350
-0.998607, 9, 371, 72, 386
-0.998607, 21, 265, 52, 280
-0.998608, 23, 241, 38, 368
-0.998609, 137, 261, 200, 276
-0.998609, 33, 241, 48, 368
-0.998609, 217, 327, 280, 342
-0.998609, 33, 349, 64, 364
-0.998609, 225, 339, 288, 354
-0.99861, 225, 289, 288, 304
-0.99861, 9, 277, 40, 292
-0.998612, 49, 323, 112, 338
-0.998612, 9, 471, 72, 486
-0.998612, 37, 281, 68, 296
-0.998614, 49, 289, 80, 304
-0.998619, 117, 249, 148, 264
-0.99862, 5, 311, 36, 326
-0.998627, 9, 317, 40, 332
-0.998628, 121, 305, 136, 432
-0.998629, 17, 271, 48, 286
-0.998629, 69, 129, 100, 384
-0.998635, 133, 315, 164, 330
-0.998635, 39, 241, 54, 368
-0.998635, 57, 269, 88, 284
-0.99864, 29, 129, 60, 384
-0.99864, 189, 97, 220, 352
-0.998641, 33, 297, 64, 312
-0.998649, 21, 313, 52, 328
-0.998662, 233, 241, 248, 368
-0.998664, 129, 121, 375, 184
-0.99867, 177, 257, 192, 384
-0.998679, 57, 289, 72, 416
-0.998682, 183, 257, 198, 384
-0.998682, 17, 257, 32, 384
-0.99869, 113, 57, 240, 120
-0.998693, 21, 353, 36, 480
-0.9987, 125, 241, 140, 368
-0.9987, 127, 305, 142, 432
-0.998704, 167, 257, 182, 384
-0.998714, 77, 321, 92, 448
-0.998716, 121, 129, 184, 256
-0.998728, 47, 353, 62, 480
-0.998729, 29, 289, 44, 416
-0.998729, 241, 425, 368, 456
-0.99875, 85, 193, 100, 320
-0.99875, 101, 305, 116, 432
-0.998758, 5, 337, 20, 464
-0.998761, 143, 337, 158, 464
-0.998763, 115, 305, 130, 432
-0.99877, 85, 305, 100, 432
-0.99877, 41, 129, 72, 384
-0.998773, 123, 193, 138, 320
-0.99878, 109, 97, 140, 352
-0.99878, 93, 193, 108, 320
-0.998783, 139, 209, 154, 336
-0.998783, 221, 225, 236, 352
-0.998809, 217, 129, 248, 384
-0.998811, 241, 469, 368, 500
-0.998822, 241, 389, 368, 420
-0.998824, 95, 305, 110, 432
-0.998847, 129, 109, 256, 140
-0.998847, 99, 193, 114, 320
-0.998849, 143, 289, 158, 416
-0.998853, 105, 193, 120, 320
-0.998854, 209, 209, 224, 336
-0.998855, 161, 373, 288, 404
-0.998857, 109, 305, 124, 432
-0.998859, 123, 353, 138, 480
-0.998869, 131, 353, 146, 480
-0.998878, 215, 225, 230, 352
-0.99888, 71, 289, 86, 416
-0.998881, 161, 193, 288, 224
-0.998897, 155, 305, 170, 432
-0.998908, 351, 273, 366, 400
-0.998908, 63, 321, 78, 448
-0.998921, 161, 129, 192, 384
-0.998941, 115, 369, 130, 496
-0.998942, 161, 273, 176, 400
-0.998947, 17, 305, 32, 432
-0.998967, 89, 145, 120, 272
-0.998967, 15, 369, 30, 496
-0.99897, 177, 93, 304, 124
-0.998977, 193, 273, 208, 400
-0.99898, 113, 49, 240, 176
-0.998999, 177, 305, 192, 432
-0.999, 59, 369, 74, 496
-0.999012, 11, 321, 26, 448
-0.999014, 361, 273, 375, 400
-0.999017, 109, 369, 124, 496
-0.99903, 53, 369, 68, 496
-0.999031, 137, 353, 152, 480
-0.999032, 113, 9, 240, 72
-0.999036, 79, 369, 94, 496
-0.999039, 241, 209, 256, 336
-0.999045, 177, 105, 304, 136
-0.99905, 183, 305, 198, 432
-0.999053, 333, 161, 364, 416
-0.999064, 1, 161, 32, 416
-0.99907, 69, 337, 84, 464
-0.999077, 17, 209, 144, 240
-0.999083, 227, 273, 242, 400
-0.999091, 129, 413, 256, 444
-0.999097, 85, 369, 100, 496
-0.999098, 145, 181, 272, 212
-0.99911, 161, 321, 176, 448
-0.999125, 63, 193, 78, 320
-0.999129, 73, 1, 136, 128
-0.999134, 321, 161, 352, 416
-0.999135, 249, 241, 264, 368
-0.999139, 167, 321, 182, 448
-0.999144, 149, 353, 164, 480
-0.999146, 359, 353, 374, 480
-0.999148, 73, 193, 88, 320
-0.99915, 101, 369, 116, 496
-0.999158, 145, 169, 272, 200
-0.999171, 9, 225, 24, 352
-0.999177, 277, 257, 308, 500
-0.99918, 203, 273, 218, 400
-0.999183, 95, 369, 110, 496
-0.999186, 329, 257, 344, 384
-0.999191, 351, 321, 366, 448
-0.999196, 251, 289, 266, 416
-0.9992, 243, 289, 258, 416
-0.99921, 151, 177, 166, 304
-0.999212, 225, 65, 256, 192
-0.99922, 133, 97, 164, 352
-0.999221, 105, 145, 136, 272
-0.999228, 237, 289, 252, 416
-0.999235, 335, 273, 350, 400
-0.999235, 251, 177, 266, 304
-0.99924, 111, 177, 126, 304
-0.999249, 221, 273, 236, 400
-0.999258, 249, 369, 264, 496
-0.999259, 321, 225, 336, 352
-0.99926, 45, 193, 60, 320
-0.999261, 57, 193, 72, 320
-0.999265, 179, 369, 194, 496
-0.999269, 117, 177, 132, 304
-0.999273, 345, 289, 360, 416
-0.999274, 157, 177, 172, 304
-0.999276, 345, 241, 360, 368
-0.999276, 299, 369, 314, 496
-0.999279, 129, 177, 144, 304
-0.999284, 65, 425, 192, 456
-0.999285, 145, 177, 160, 304
-0.999289, 247, 129, 262, 256
-0.999294, 257, 289, 272, 416
-0.9993, 257, 177, 272, 304
-0.9993, 139, 161, 154, 288
-0.999301, 187, 161, 202, 288
-0.999306, 177, 161, 192, 288
-0.99932, 3, 225, 18, 352
-0.999321, 33, 193, 48, 320
-0.999369, 289, 257, 320, 500
-0.999444, 161, 69, 288, 100
-0.999454, 257, 33, 288, 288
-0.999481, 161, 33, 288, 96
-0.999486, 241, 77, 368, 108
-0.999513, 145, 357, 272, 388
-0.999527, 161, 81, 288, 112
-0.999543, 289, 65, 320, 320
-0.999558, 309, 97, 340, 352
-0.999565, 33, 169, 288, 232
-0.999572, 177, 81, 240, 208
-0.999582, 33, 97, 288, 160
-0.999616, 145, 157, 272, 188
-0.999651, 143, 305, 158, 320
-0.999651, 63, 389, 78, 404
-0.999652, 133, 305, 148, 320
-0.999652, 187, 257, 202, 272
-0.999652, 87, 265, 102, 280
-0.999652, 15, 371, 30, 386
-0.999652, 169, 231, 184, 246
-0.999653, 185, 263, 200, 278
-0.999654, 137, 225, 152, 240
-0.999654, 55, 241, 70, 256
-0.999655, 53, 271, 68, 286
-0.999655, 107, 263, 122, 278
-0.999656, 93, 383, 108, 398
-0.999656, 225, 281, 240, 296
-0.999657, 139, 365, 154, 380
-0.999657, 97, 395, 112, 410
-0.999659, 95, 227, 110, 242
-0.999659, 7, 285, 22, 300
-0.99966, 109, 223, 124, 238
-0.999661, 15, 279, 30, 294
-0.999663, 135, 253, 150, 268
-0.999664, 1, 467, 16, 482
-0.999664, 39, 263, 54, 278
-0.999664, 69, 389, 84, 404
-0.999665, 79, 231, 94, 246
-0.999665, 9, 335, 24, 350
-0.999666, 123, 257, 138, 272
-0.999666, 125, 397, 140, 412
-0.999667, 43, 275, 58, 290
-0.999667, 177, 257, 192, 272
-0.999668, 103, 225, 118, 240
-0.999669, 53, 263, 68, 278
-0.99967, 41, 315, 56, 330
-0.99967, 157, 345, 172, 360
-0.999671, 97, 73, 352, 136
-0.999672, 29, 319, 44, 334
-0.999672, 35, 325, 50, 340
-0.999673, 153, 353, 168, 368
-0.999673, 193, 297, 208, 312
-0.999674, 61, 237, 76, 252
-0.999675, 45, 303, 60, 318
-0.999676, 25, 303, 40, 318
-0.999676, 73, 233, 88, 248
-0.999676, 81, 311, 96, 326
-0.999677, 125, 317, 140, 332
-0.999677, 63, 277, 78, 292
-0.999677, 3, 327, 18, 342
-0.999678, 173, 337, 188, 352
-0.999678, 41, 287, 56, 302
-0.999678, 119, 323, 134, 338
-0.999681, 67, 235, 82, 250
-0.999681, 77, 393, 92, 408
-0.999682, 141, 247, 156, 262
-0.999682, 333, 409, 348, 424
-0.999682, 37, 251, 52, 266
-0.999682, 147, 357, 162, 372
-0.999682, 219, 237, 234, 252
-0.999683, 81, 273, 96, 288
-0.999684, 29, 289, 44, 304
-0.999685, 35, 307, 50, 322
-0.999685, 113, 389, 128, 404
-0.999686, 7, 369, 22, 384
-0.999686, 21, 275, 36, 290
-0.999688, 141, 405, 156, 420
-0.999689, 25, 259, 40, 274
-0.999689, 201, 289, 216, 304
-0.999691, 45, 297, 60, 312
-0.999691, 51, 331, 66, 346
-0.999691, 89, 389, 104, 404
-0.999691, 1, 311, 16, 326
-0.999694, 17, 303, 32, 318
-0.999694, 167, 339, 182, 354
-0.999695, 45, 333, 60, 348
-0.999695, 229, 275, 244, 290
-0.999698, 33, 279, 48, 294
-0.999698, 3, 357, 18, 372
-0.999698, 241, 97, 368, 128
-0.999699, 67, 261, 82, 276
-0.9997, 115, 253, 130, 268
-0.9997, 25, 325, 40, 340
-0.999701, 179, 263, 194, 278
-0.999701, 83, 383, 98, 398
-0.999703, 161, 271, 176, 286
-0.999704, 43, 309, 58, 324
-0.999704, 37, 273, 52, 288
-0.999704, 79, 257, 94, 272
-0.999705, 133, 401, 148, 416
-0.999706, 47, 245, 62, 260
-0.999706, 73, 257, 88, 272
-0.999707, 1, 1, 128, 128
-0.999709, 15, 335, 30, 350
-0.999711, 95, 249, 110, 264
-0.999712, 145, 57, 272, 88
-0.999714, 169, 267, 184, 282
-0.999714, 129, 253, 144, 268
-0.999714, 1, 459, 16, 474
-0.999717, 13, 315, 28, 330
-0.999718, 35, 319, 50, 334
-0.999719, 55, 279, 70, 294
-0.99972, 9, 273, 24, 288
-0.99972, 55, 285, 70, 300
-0.999721, 39, 297, 54, 312
-0.999721, 87, 253, 102, 268
-0.999723, 35, 287, 50, 302
-0.999723, 133, 317, 148, 332
-0.999723, 49, 277, 64, 292
-0.999726, 11, 307, 26, 322
-0.999726, 1, 363, 16, 378
-0.999727, 33, 313, 48, 328
-0.999728, 19, 265, 34, 280
-0.999729, 39, 281, 54, 296
-0.99973, 153, 237, 168, 252
-0.999732, 75, 275, 90, 290
-0.999734, 129, 45, 256, 76
-0.999734, 31, 255, 46, 270
-0.999737, 123, 249, 138, 264
-0.999742, 7, 315, 22, 330
-0.999744, 69, 279, 84, 294
-0.999744, 61, 283, 76, 298
-0.999746, 65, 267, 80, 282
-0.999753, 133, 247, 148, 262
-0.999756, 3, 279, 18, 294
-0.999757, 47, 269, 62, 284
-0.999759, 171, 273, 186, 288
-0.999761, 45, 339, 60, 354
-0.999761, 203, 225, 218, 240
-0.999763, 17, 129, 48, 384
-0.999765, 49, 291, 64, 306
-0.999767, 125, 323, 140, 338
-0.999768, 3, 339, 18, 354
-0.999776, 5, 321, 20, 336
-0.999779, 83, 393, 98, 408
-0.999784, 143, 311, 158, 326
-0.999786, 59, 271, 74, 286
-0.999789, 21, 309, 36, 324
-0.999805, 39, 345, 54, 360
-0.999897, 1, 5, 128, 36
-0.999897, 113, 85, 240, 116
-0.999904, 345, 161, 375, 416
-0.999908, 245, 33, 276, 288
-0.999909, 161, 137, 288, 168
-0.999925, 113, 33, 240, 64
-0.999948, 49, 33, 176, 64
-0.999958, 81, 69, 208, 100
-0.99998, 65, 1, 192, 32
-0.999989, 245, 49, 276, 176
-1.00001, 65, 53, 192, 84
-1.00002, 65, 41, 320, 104
-1.00004, 241, 145, 368, 176
-1.00005, 241, 41, 368, 104
-1.00006, 33, 21, 160, 52
-1.00007, 97, 21, 224, 52
-1.00013, 129, 97, 375, 160
-1.00015, 57, 145, 88, 272
-1.00016, 193, 57, 320, 88
-1.00016, 209, 33, 240, 288
-1.00018, 65, 177, 192, 240
-1.0002, 129, 97, 256, 128
-1.00021, 273, 1, 304, 256
-1.00025, 1, 145, 375, 208
-1.00031, 113, 145, 240, 176
-1.00032, 161, 33, 192, 288
-1.00032, 229, 33, 260, 288
-1.00039, 33, 145, 288, 208
-1.00041, 193, 45, 320, 76
-1.00045, 113, 121, 240, 152
-1.00045, 289, 1, 352, 256
-1.00048, 33, 121, 288, 184
-1.00052, 325, 161, 356, 288
-1.00058, 325, 65, 356, 320
-1.00062, 97, 17, 352, 80
-1.00063, 305, 113, 336, 240
-1.00067, 301, 1, 332, 256
-1.00069, 137, 33, 200, 288
-1.00073, 81, 33, 112, 288
-1.0008, 97, 33, 128, 288
-1.00082, 149, 33, 180, 288
-1.00089, 1, 65, 256, 128
-1.00091, 337, 65, 368, 320
-1.00094, 65, 65, 192, 128
-1.00095, 205, 81, 236, 208
-1.001, 161, 9, 288, 72
-1.00106, 313, 1, 344, 256
-1.00106, 5, 65, 36, 320
-1.0011, 1, 1, 256, 64
-1.00113, 125, 1, 156, 256
-1.00115, 189, 1, 220, 256
-1.00116, 1, 65, 256, 192
-1.00126, 177, 1, 208, 256
-1.00129, 209, 17, 336, 80
-1.00133, 17, 41, 144, 104
-1.00135, 57, 33, 88, 288
-1.00141, 65, 153, 192, 216
-1.00144, 69, 33, 100, 288
-1.00151, 5, 177, 36, 304
-1.00164, 113, 1, 144, 256
-1.00165, 97, 121, 224, 184
-1.00166, 137, 1, 168, 256
-1.0017, 313, 161, 344, 288
-1.00174, 1, 89, 375, 152
-1.00187, 1, 121, 375, 184
-1.00189, 21, 33, 52, 288
-1.0019, 41, 33, 72, 288
-1.00202, 81, 89, 208, 152
-1.00218, 1, 145, 128, 208
-1.00221, 1, 65, 375, 128
-1.00225, 65, 49, 192, 176
-1.00226, 337, 177, 368, 304
-1.00227, 209, 33, 240, 160
-1.00234, 1, 81, 128, 144
-1.00235, 285, 65, 316, 192
-1.00236, 1, 113, 128, 176
-1.0024, 49, 129, 176, 192
-1.00244, 101, 1, 132, 128
-1.00257, 1, 25, 375, 88
-1.00267, 17, 169, 144, 232
-1.00292, 105, 17, 168, 144
-1.00296, 269, 49, 300, 176
-1.00302, 129, 33, 192, 160
-1.00309, 193, 81, 224, 208
-1.00317, 1, 1, 375, 64
-1.00321, 73, 1, 104, 128
-1.00327, 265, 1, 328, 256
-1.00341, 153, 129, 184, 256
-1.00345, 301, 65, 332, 192
-1.00348, 177, 1, 304, 128
-1.00414, 265, 17, 328, 144
-1.00414, 1, 161, 64, 288
-1.00419, 185, 33, 248, 160
-1.00462, 49, 1, 112, 128
-1.00466, 73, 33, 136, 288
-1.00467, 153, 17, 216, 144
-1.00518, 73, 129, 136, 256
-1.00594, 153, 65, 216, 192
-1.00639, 169, 1, 232, 256
-1.00662, 313, 33, 375, 160
-1.00668, 33, 97, 160, 224
-1.00689, 41, 33, 104, 288
-1.00755, 313, 1, 375, 256
-1.00763, 97, 113, 224, 240
-1.00766, 113, 1, 176, 256
-1.00798, 241, 1, 304, 128
-1.00914, 1, 49, 128, 176
-1.01207, 289, 17, 352, 144
-1.01214, 129, 81, 192, 208
-1.01233, 17, 33, 80, 288
-1.01244, 1, 17, 64, 144
-1.01296, 105, 65, 168, 192
-1.01315, 81, 49, 144, 176
-1.01367, 9, 81, 72, 208
-1.0138, 33, 81, 96, 208
-1.01387, 25, 1, 88, 128
-1.01435, 57, 49, 120, 176
-1.01701, 153, 113, 216, 240
