1993
-0.465314, 1, 161, 375, 416
-0.488157, 1, 257, 375, 500
-0.622221, 1, 1, 375, 256
-0.622299, 1, 1, 375, 500
-0.648066, 97, 225, 352, 480
-0.656794, 97, 1, 352, 500
-0.702446, 1, 161, 256, 416
-0.75079, 97, 129, 352, 384
-0.75529, 1, 257, 256, 500
-0.76942, 1, 1, 256, 500
-0.848369, 97, 161, 224, 416
-0.867525, 1, 1, 256, 256
-0.881867, 113, 257, 240, 500
-0.892198, 49, 161, 176, 416
-0.897383, 1, 369, 375, 496
-0.898797, 65, 257, 192, 500
-0.90563, 241, 225, 368, 480
-0.905977, 97, 1, 224, 500
-0.908104, 1, 193, 375, 320
-0.91019, 161, 1, 288, 500
-0.910278, 1, 305, 375, 432
-0.913005, 145, 161, 272, 416
-0.917046, 193, 225, 320, 480
-0.917549, 97, 1, 352, 256
-0.919922, 1, 161, 128, 416
-0.923792, 1, 257, 375, 384
-0.924242, 129, 369, 375, 496
-0.926956, 161, 257, 224, 384
-0.928829, 129, 273, 192, 400
-0.929762, 33, 369, 288, 496
-0.930404, 1, 1, 128, 500
-0.931056, 49, 65, 176, 320
-0.932085, 1, 177, 256, 304
-0.934166, 97, 209, 352, 336
-0.9343, 209, 1, 336, 500
-0.935105, 145, 65, 272, 320
-0.936505, 113, 257, 240, 384
-0.937531, 17, 257, 144, 500
-0.938184, 145, 145, 208, 272
-0.938422, 193, 129, 320, 384
-0.93937, 33, 273, 288, 400
-0.939611, 169, 305, 232, 432
-0.940488, 129, 321, 375, 448
-0.941444, 1, 1, 128, 256
-0.941576, 1, 1, 375, 128
-0.942322, 113, 161, 240, 288
-0.942404, 145, 153, 208, 216
-0.943188, 129, 273, 375, 400
-0.943533, 161, 353, 288, 480
-0.943621, 1, 145, 375, 272
-0.943703, 305, 369, 368, 496
-0.944858, 97, 65, 224, 320
-0.945217, 241, 369, 368, 496
-0.945551, 1, 225, 256, 352
-0.946742, 145, 305, 272, 432
-0.947713, 137, 209, 200, 336
-0.948821, 33, 321, 288, 448
-0.948921, 105, 257, 168, 384
-0.949239, 129, 273, 192, 336
-0.949341, 129, 305, 192, 368
-0.949576, 113, 209, 240, 336
-0.95005, 97, 161, 352, 288
-0.950928, 265, 369, 328, 496
-0.95106, 49, 1, 176, 500
-0.951811, 65, 273, 192, 400
-0.952815, 81, 289, 144, 416
-0.953639, 1, 1, 256, 128
-0.953956, 169, 425, 232, 488
-0.95497, 313, 417, 375, 480
-0.955571, 65, 321, 192, 448
-0.955649, 113, 369, 240, 496
-0.956497, 193, 433, 256, 496
-0.956514, 97, 305, 160, 368
-0.956543, 241, 369, 304, 496
-0.957067, 153, 273, 216, 336
-0.957104, 153, 305, 216, 368
-0.957214, 201, 321, 264, 448
-0.95738, 193, 273, 256, 400
-0.957427, 161, 369, 224, 496
-0.957515, 153, 177, 216, 240
-0.957959, 89, 281, 152, 344
-0.958622, 145, 433, 208, 496
-0.958859, 201, 369, 264, 496
-0.958938, 305, 241, 368, 368
-0.959239, 105, 305, 168, 432
-0.959365, 121, 161, 184, 288
-0.959519, 65, 209, 192, 336
-0.959806, 161, 329, 224, 392
-0.960071, 177, 193, 304, 320
-0.960554, 305, 385, 368, 448
-0.961104, 57, 433, 120, 496
-0.961187, 161, 193, 224, 320
-0.961481, 137, 353, 200, 480
-0.961538, 1, 49, 375, 176
-0.961985, 265, 417, 328, 480
-0.962393, 217, 417, 280, 480
-0.962992, 193, 409, 256, 472
-0.963699, 49, 161, 176, 288
-0.963831, 241, 241, 368, 368
-0.964112, 305, 321, 368, 448
-0.964162, 113, 425, 176, 488
-0.96418, 177, 273, 240, 336
-0.964513, 193, 289, 320, 416
-0.964595, 113, 209, 176, 336
-0.964779, 241, 129, 368, 384
-0.96532, 1, 1, 128, 128
-0.965328, 81, 241, 144, 368
-0.965537, 289, 409, 352, 472
-0.965716, 153, 401, 216, 464
-0.965755, 241, 321, 368, 448
-0.965791, 289, 433, 352, 496
-0.966299, 201, 345, 264, 408
-0.966482, 1, 369, 128, 496
-0.966728, 177, 241, 304, 368
-0.967231, 81, 433, 144, 496
-0.967446, 121, 185, 184, 248
-0.96746, 185, 225, 248, 352
-0.967557, 65, 297, 128, 360
-0.967634, 145, 129, 208, 384
-0.968043, 181, 425, 212, 488
-0.968082, 121, 329, 184, 392
-0.969053, 169, 145, 232, 272
-0.969565, 265, 393, 328, 456
-0.969679, 97, 425, 224, 488
-0.969824, 17, 289, 144, 416
-0.969913, 185, 305, 248, 368
-0.970135, 169, 369, 232, 432
-0.970366, 177, 289, 208, 352
-0.970511, 97, 249, 160, 312
-0.97055, 161, 425, 288, 488
-0.970763, 49, 369, 176, 496
-0.970956, 113, 273, 240, 336
-0.971134, 89, 193, 152, 320
-0.971345, 97, 329, 160, 392
-0.971441, 121, 161, 184, 416
-0.97146, 113, 369, 176, 496
-0.972176, 17, 433, 80, 496
-0.972301, 1, 177, 128, 304
-0.972475, 241, 433, 368, 496
-0.972564, 173, 289, 204, 416
-0.972604, 49, 1, 176, 128
-0.973222, 65, 369, 128, 496
-0.973272, 113, 297, 240, 360
-0.973312, 17, 1, 80, 128
-0.973419, 49, 433, 176, 496
-0.973719, 281, 241, 344, 304
-0.973749, 161, 129, 288, 256
-0.974089, 249, 321, 312, 448
-0.974187, 157, 273, 188, 336
-0.974192, 161, 273, 192, 400
-0.974383, 209, 409, 336, 472
-0.974547, 149, 273, 180, 400
-0.97464, 129, 361, 192, 424
-0.974673, 137, 225, 200, 288
-0.974834, 177, 153, 208, 216
-0.974919, 129, 297, 160, 360
-0.974928, 81, 433, 112, 496
-0.975082, 189, 273, 220, 336
-0.975103, 193, 273, 224, 400
-0.97512, 149, 153, 180, 216
-0.975169, 57, 273, 120, 400
-0.975211, 97, 257, 160, 500
-0.975438, 169, 265, 200, 328
-0.975642, 109, 305, 140, 368
-0.975753, 133, 273, 164, 336
-0.975989, 169, 417, 200, 480
-0.976149, 65, 177, 128, 304
-0.976214, 145, 337, 272, 400
-0.976221, 101, 433, 132, 496
-0.976292, 169, 369, 200, 496
-0.976397, 113, 177, 240, 240
-0.976528, 129, 257, 192, 500
-0.976538, 1, 433, 128, 496
-0.976618, 113, 161, 176, 224
-0.976648, 305, 361, 368, 424
-0.97668, 129, 425, 160, 488
-0.976829, 161, 217, 224, 280
-0.976833, 165, 145, 196, 208
-0.976918, 313, 241, 375, 304
-0.976966, 241, 417, 304, 480
-0.976971, 9, 33, 72, 96
-0.976981, 129, 1, 256, 128
-0.977022, 293, 425, 324, 488
-0.977065, 1, 129, 256, 256
-0.977133, 161, 145, 192, 272
-0.97714, 345, 425, 375, 488
-0.977165, 217, 369, 280, 432
-0.977169, 153, 433, 184, 496
-0.977215, 217, 273, 280, 400
-0.977354, 177, 185, 240, 248
-0.977379, 121, 249, 184, 312
-0.977676, 121, 257, 152, 384
-0.977845, 169, 249, 232, 312
-0.977914, 193, 433, 224, 496
-0.977994, 133, 273, 164, 400
-0.978118, 149, 129, 180, 256
-0.978174, 273, 225, 336, 352
-0.978198, 117, 433, 148, 496
-0.978262, 305, 393, 336, 456
-0.978268, 193, 33, 320, 288
-0.978418, 325, 393, 356, 456
-0.978517, 113, 217, 240, 280
-0.978539, 97, 193, 160, 256
-0.978678, 141, 313, 172, 376
-0.978686, 161, 401, 288, 464
-0.978692, 161, 225, 224, 480
-0.978733, 177, 161, 240, 224
-0.978913, 337, 369, 368, 496
-0.978961, 129, 153, 256, 216
-0.978962, 97, 161, 160, 416
-0.978986, 313, 321, 375, 384
-0.979, 209, 193, 272, 320
-0.979046, 333, 433, 364, 496
-0.979135, 173, 145, 204, 272
-0.979172, 65, 305, 192, 368
-0.979338, 321, 369, 352, 496
-0.979382, 209, 321, 272, 384
-0.979397, 225, 393, 288, 456
-0.979421, 141, 193, 172, 320
-0.979426, 225, 193, 352, 320
-0.979434, 177, 209, 208, 336
-0.979506, 189, 305, 220, 368
-0.979563, 145, 185, 176, 248
-0.979564, 241, 369, 304, 432
-0.979625, 97, 329, 224, 392
-0.97969, 113, 401, 176, 464
-0.979846, 313, 417, 344, 480
-0.979978, 121, 273, 152, 336
-0.980008, 113, 49, 176, 112
-0.98004, 89, 409, 152, 472
-0.980136, 165, 169, 196, 232
-0.980176, 121, 321, 152, 384
-0.980231, 225, 321, 288, 448
-0.9803, 157, 353, 188, 480
-0.980364, 65, 273, 192, 336
-0.980372, 345, 313, 375, 376
-0.980524, 157, 209, 188, 336
-0.980563, 265, 361, 328, 424
-0.980712, 241, 385, 368, 448
-0.981014, 293, 401, 324, 464
-0.981039, 105, 289, 136, 416
-0.98109, 197, 225, 228, 352
-0.981156, 345, 321, 375, 448
-0.981267, 165, 297, 196, 360
-0.98127, 81, 153, 208, 216
-0.981307, 205, 313, 236, 376
-0.981514, 193, 385, 256, 448
-0.981516, 137, 41, 200, 104
-0.981635, 113, 401, 240, 464
-0.98168, 129, 113, 375, 240
-0.981697, 245, 369, 276, 496
-0.981713, 233, 193, 296, 320
-0.981783, 209, 289, 240, 416
-0.981909, 1, 97, 375, 224
-0.981936, 141, 425, 172, 488
-0.98198, 181, 177, 212, 240
-0.982011, 145, 97, 208, 224
-0.982105, 157, 353, 188, 416
-0.982147, 161, 369, 288, 432
-0.982227, 201, 193, 264, 256
-0.982278, 293, 369, 324, 496
-0.982345, 113, 249, 240, 312
-0.982385, 197, 337, 228, 464
-0.982508, 205, 433, 236, 496
-0.982527, 17, 193, 80, 320
-0.982533, 177, 201, 304, 264
-0.982562, 185, 161, 216, 288
-0.982577, 153, 321, 184, 384
-0.98259, 97, 145, 160, 272
-0.982595, 73, 321, 136, 384
-0.982711, 273, 425, 304, 488
-0.982721, 1, 241, 128, 368
-0.98282, 177, 305, 304, 368
-0.982898, 181, 369, 212, 496
-0.982934, 1, 49, 256, 176
-0.982981, 241, 337, 304, 400
-0.983015, 73, 193, 136, 256
-0.983058, 185, 321, 216, 448
-0.983084, 65, 185, 192, 248
-0.983139, 205, 345, 236, 408
-0.983162, 49, 329, 176, 392
-0.983176, 93, 289, 124, 416
-0.983209, 97, 17, 352, 144
-0.983256, 169, 129, 232, 384
-0.983309, 225, 425, 256, 488
-0.983322, 181, 401, 212, 464
-0.983345, 109, 409, 140, 472
-0.983385, 145, 249, 208, 312
-0.983385, 209, 297, 272, 360
-0.983464, 65, 249, 192, 312
-0.983481, 33, 409, 96, 472
-0.983515, 61, 433, 92, 496
-0.983596, 305, 225, 368, 480
-0.983623, 337, 401, 368, 464
-0.983695, 137, 145, 168, 272
-0.983861, 89, 353, 152, 480
-0.983892, 241, 1, 368, 256
-0.984024, 133, 177, 164, 240
-0.984077, 93, 289, 124, 352
-0.984205, 257, 233, 320, 296
-0.98434, 145, 281, 176, 344
-0.984345, 245, 425, 276, 488
-0.984396, 309, 369, 340, 496
-0.984414, 269, 369, 300, 496
-0.98444, 281, 321, 344, 448
-0.984492, 97, 49, 224, 176
-0.984584, 33, 369, 96, 496
-0.984598, 41, 177, 104, 304
-0.984652, 137, 49, 168, 112
-0.984722, 233, 201, 296, 264
-0.984854, 201, 225, 264, 480
-0.984879, 273, 265, 336, 328
-0.984885, 169, 329, 200, 392
-0.984919, 81, 113, 208, 240
-0.984925, 145, 209, 176, 272
-0.985229, 197, 401, 228, 464
-0.985279, 329, 225, 360, 352
-0.985289, 193, 345, 320, 408
-0.985341, 201, 289, 232, 352
-0.985543, 273, 177, 336, 304
-0.985632, 97, 361, 224, 424
-0.985734, 345, 257, 375, 384
-0.985755, 49, 41, 176, 104
-0.985788, 89, 1, 152, 128
-0.985802, 177, 273, 304, 336
-0.985805, 121, 321, 152, 448
-0.985809, 257, 433, 288, 496
-0.985816, 9, 369, 72, 496
-0.98583, 33, 289, 96, 416
-0.985857, 109, 241, 140, 368
-0.985874, 1, 433, 32, 496
-0.98588, 201, 273, 264, 336
-0.985905, 65, 273, 128, 336
-0.985963, 97, 225, 160, 288
-0.985996, 33, 113, 160, 240
-0.986001, 145, 17, 208, 80
-0.986114, 117, 177, 148, 304
-0.986154, 325, 321, 356, 448
-0.986161, 249, 241, 312, 368
-0.98622, 241, 361, 368, 424
-0.986237, 225, 353, 256, 480
-0.986252, 333, 369, 364, 432
-0.986279, 105, 281, 136, 344
-0.986299, 57, 225, 120, 352
-0.986333, 105, 25, 168, 88
-0.986366, 313, 265, 375, 328
-0.986381, 145, 337, 176, 464
-0.986381, 129, 249, 160, 312
-0.986388, 185, 201, 216, 264
-0.986417, 129, 209, 160, 336
-0.986428, 157, 409, 188, 472
-0.986477, 345, 361, 375, 424
-0.986492, 57, 409, 120, 472
-0.986569, 177, 249, 304, 312
-0.98661, 1, 25, 128, 88
-0.986765, 1, 409, 128, 472
-0.986796, 1, 57, 64, 120
-0.986808, 169, 393, 200, 456
-0.98685, 265, 393, 296, 456
-0.986868, 49, 1, 112, 64
-0.986901, 65, 401, 192, 464
-0.986943, 121, 193, 152, 256
-0.986947, 129, 25, 256, 88
-0.98698, 17, 193, 144, 256
-0.986997, 65, 161, 128, 416
-0.987049, 225, 345, 256, 408
-0.987154, 17, 9, 80, 72
-0.987174, 33, 49, 96, 112
-0.987205, 17, 305, 144, 368
-0.987388, 313, 225, 344, 352
-0.987409, 305, 193, 368, 320
-0.98742, 193, 329, 224, 392
-0.987437, 145, 1, 208, 128
-0.987449, 9, 193, 72, 256
-0.987451, 193, 249, 256, 312
-0.987487, 281, 401, 312, 464
-0.987554, 97, 369, 128, 496
-0.987591, 77, 289, 108, 416
-0.987751, 73, 249, 136, 312
-0.987788, 285, 369, 316, 432
-0.987896, 321, 369, 352, 432
-0.98799, 97, 425, 352, 488
-0.988012, 305, 369, 336, 432
-0.988087, 21, 33, 52, 96
-0.988105, 73, 257, 136, 500
-0.988128, 241, 401, 272, 464
-0.988154, 161, 1, 224, 500
-0.988174, 213, 353, 244, 480
-0.988243, 305, 289, 368, 352
-0.988258, 193, 129, 256, 256
-0.988321, 81, 297, 112, 360
-0.988377, 1, 433, 375, 496
-0.988386, 293, 241, 324, 304
-0.988389, 129, 401, 160, 464
-0.988414, 241, 329, 368, 392
-0.98846, 49, 193, 112, 256
-0.988485, 57, 321, 120, 448
-0.988513, 213, 401, 244, 464
-0.988526, 101, 257, 132, 320
-0.988531, 145, 157, 208, 188
-0.988561, 217, 313, 248, 376
-0.988601, 161, 433, 224, 464
-0.988649, 37, 433, 68, 496
-0.988681, 113, 49, 240, 112
-0.988687, 201, 449, 264, 480
-0.988708, 205, 265, 236, 328
-0.988777, 189, 377, 220, 440
-0.988778, 41, 305, 104, 368
-0.98883, 1, 49, 64, 176
-0.988851, 129, 317, 192, 348
-0.988879, 193, 225, 256, 288
-0.988951, 233, 369, 264, 432
-0.989048, 145, 129, 208, 192
-0.989127, 153, 445, 216, 476
-0.989211, 145, 177, 208, 208
-0.989267, 189, 249, 220, 312
-0.989269, 9, 409, 72, 472
-0.989276, 153, 305, 216, 336
-0.989317, 97, 325, 160, 356
-0.989319, 185, 437, 248, 468
-0.989342, 157, 377, 188, 440
-0.989371, 257, 225, 320, 480
-0.989377, 129, 305, 192, 336
-0.989386, 97, 469, 160, 500
-0.989404, 97, 409, 128, 472
-0.989437, 177, 457, 240, 488
-0.989442, 145, 345, 176, 408
-0.989449, 33, 225, 160, 288
-0.98945, 313, 425, 375, 456
-0.989468, 241, 305, 368, 368
-0.98948, 89, 453, 152, 484
-0.989494, 113, 445, 176, 476
-0.989531, 9, 1, 72, 256
-0.989584, 313, 449, 375, 480
-0.98968, 145, 293, 208, 324
-0.989703, 21, 417, 52, 480
-0.989704, 145, 273, 208, 304
-0.989715, 81, 409, 112, 472
-0.989729, 289, 329, 352, 392
-0.98974, 1, 49, 128, 176
-0.989788, 97, 241, 128, 368
-0.98979, 177, 225, 304, 288
-0.989805, 57, 1, 120, 128
-0.989809, 197, 193, 228, 256
-0.989929, 241, 241, 368, 304
-0.989946, 149, 41, 180, 104
-0.989961, 161, 337, 224, 368
-0.989968, 169, 361, 200, 424
-0.989994, 97, 309, 160, 340
-0.990015, 297, 401, 360, 432
-0.990019, 1, 281, 128, 344
-0.990028, 265, 457, 328, 488
-0.990061, 265, 441, 328, 472
-0.990064, 313, 241, 344, 304
-0.990094, 129, 1, 192, 500
-0.990097, 289, 437, 352, 468
-0.990118, 161, 317, 224, 348
-0.990133, 281, 257, 344, 500
-0.99014, 245, 369, 276, 432
-0.990155, 89, 293, 152, 324
-0.990157, 185, 469, 248, 500
-0.990182, 129, 329, 192, 360
-0.990219, 225, 289, 256, 352
-0.990236, 129, 433, 192, 464
-0.990326, 305, 413, 368, 444
-0.990339, 297, 465, 360, 496
-0.990362, 65, 465, 128, 496
-0.990363, 313, 437, 375, 468
-0.99037, 57, 345, 120, 408
-0.990379, 169, 293, 232, 324
-0.990382, 129, 457, 192, 488
-0.990385, 1, 433, 256, 496
-0.990385, 121, 281, 184, 312
-0.9904, 185, 137, 248, 200
-0.990416, 65, 453, 128, 484
-0.990419, 89, 441, 152, 472
-0.990437, 97, 177, 128, 304
-0.990485, 41, 33, 72, 96
-0.990512, 301, 225, 332, 352
-0.990528, 145, 469, 208, 500
-0.990545, 1, 1, 128, 64
-0.990577, 41, 369, 104, 432
-0.990589, 145, 189, 208, 220
-0.990595, 225, 461, 288, 492
-0.990619, 49, 49, 176, 176
-0.990621, 341, 337, 372, 400
-0.990631, 161, 177, 288, 240
-0.990664, 49, 433, 80, 496
-0.990666, 169, 273, 232, 304
-0.990668, 153, 457, 216, 488
-0.990693, 177, 305, 240, 336
-0.990699, 265, 421, 328, 452
-0.990712, 189, 153, 220, 216
-0.990739, 305, 249, 368, 280
-0.990766, 113, 1, 240, 64
-0.990783, 73, 309, 136, 340
-0.990785, 313, 261, 375, 292
-0.990793, 289, 453, 352, 484
-0.9908, 65, 437, 128, 468
-0.990802, 113, 293, 176, 324
-0.990868, 217, 425, 280, 456
-0.990871, 41, 265, 104, 328
-0.990879, 281, 257, 344, 288
-0.990886, 97, 337, 160, 368
-0.990911, 141, 401, 172, 464
-0.990929, 273, 245, 336, 276
-0.990934, 145, 1, 208, 256
-0.990947, 133, 337, 164, 400
-0.99096, 233, 313, 296, 376
-0.990978, 273, 469, 336, 500
-0.99099, 221, 305, 252, 432
-0.991001, 225, 445, 288, 476
-0.991013, 241, 289, 304, 352
-0.991024, 97, 281, 160, 312
-0.99105, 165, 225, 196, 288
-0.9911, 185, 317, 248, 348
-0.9911, 21, 1, 52, 128
-0.991104, 169, 193, 200, 256
-0.991113, 49, 17, 176, 80
-0.991131, 9, 465, 72, 496
-0.991133, 221, 377, 252, 440
-0.991154, 161, 421, 224, 452
-0.99118, 105, 429, 168, 460
-0.991214, 161, 221, 224, 252
-0.991219, 117, 369, 148, 496
-0.991225, 209, 241, 240, 368
-0.991226, 233, 193, 296, 448
-0.991237, 201, 357, 264, 388
-0.991242, 185, 425, 248, 456
-0.991273, 261, 193, 292, 320
-0.991287, 121, 189, 184, 220
-0.991294, 33, 469, 96, 500
-0.991296, 181, 329, 212, 392
-0.991323, 137, 209, 200, 240
-0.991327, 249, 409, 312, 440
-0.991343, 281, 217, 344, 280
-0.991414, 121, 265, 184, 296
-0.991444, 289, 425, 352, 456
-0.99148, 193, 413, 256, 444
-0.991518, 169, 369, 232, 400
-0.991524, 25, 49, 88, 176
-0.991544, 121, 349, 184, 380
-0.991574, 177, 1, 304, 128
-0.991593, 297, 389, 360, 420
-0.991594, 145, 257, 176, 320
-0.991598, 33, 445, 96, 476
-0.991603, 77, 369, 108, 496
-0.991615, 121, 469, 184, 500
-0.991641, 169, 353, 232, 384
-0.991656, 129, 365, 192, 396
-0.991672, 333, 241, 364, 304
-0.991674, 105, 177, 168, 208
-0.991675, 1, 49, 128, 112
-0.991683, 85, 241, 116, 368
-0.991684, 201, 333, 264, 364
-0.991691, 137, 229, 200, 260
-0.991695, 113, 57, 176, 88
-0.991699, 137, 49, 200, 80
-0.991703, 205, 233, 236, 296
-0.991787, 273, 401, 336, 432
-0.991824, 73, 321, 136, 352
-0.991825, 9, 45, 72, 76
-0.991858, 89, 265, 120, 328
-0.991868, 89, 269, 152, 300
-0.991884, 249, 469, 312, 500
-0.991884, 161, 201, 224, 232
-0.991898, 137, 421, 200, 452
-0.991902, 33, 241, 96, 368
-0.991906, 201, 381, 264, 412
-0.991923, 209, 345, 272, 376
-0.991976, 233, 313, 264, 376
-0.992005, 201, 305, 264, 336
-0.992012, 1, 369, 64, 432
-0.99202, 169, 381, 232, 412
-0.992031, 9, 305, 72, 368
-0.992037, 281, 369, 312, 496
-0.99204, 241, 265, 368, 328
-0.992048, 49, 353, 176, 416
-0.992064, 169, 393, 232, 424
-0.992079, 185, 169, 248, 200
-0.992103, 249, 365, 312, 396
-0.992123, 177, 181, 240, 212
-0.992123, 113, 217, 176, 248
-0.992134, 333, 273, 364, 400
-0.99214, 241, 377, 304, 408
-0.992191, 273, 369, 304, 432
-0.9922, 73, 385, 136, 448
-0.992205, 193, 369, 256, 400
-0.992208, 1, 57, 64, 88
-0.992212, 133, 17, 164, 80
-0.992217, 97, 329, 128, 392
-0.992223, 193, 1, 256, 500
-0.992236, 169, 409, 232, 440
-0.992238, 185, 261, 248, 292
-0.992246, 65, 297, 128, 328
-0.992296, 9, 453, 72, 484
-0.992299, 189, 437, 220, 468
-0.992299, 313, 273, 375, 304
-0.992307, 321, 273, 352, 400
-0.992311, 181, 449, 212, 480
-0.992315, 305, 353, 368, 384
-0.992333, 185, 201, 248, 232
-0.992335, 137, 381, 200, 412
-0.992337, 97, 257, 160, 288
-0.992341, 105, 193, 136, 256
-0.992342, 225, 401, 256, 464
-0.992358, 217, 397, 280, 428
-0.992359, 137, 393, 200, 424
-0.992371, 249, 393, 312, 424
-0.992376, 313, 321, 375, 352
-0.992382, 209, 193, 240, 320
-0.992382, 97, 197, 160, 228
-0.992382, 249, 241, 312, 272
-0.992386, 233, 205, 296, 236
-0.992393, 217, 369, 280, 400
-0.9924, 177, 305, 208, 336
-0.9924, 289, 373, 352, 404
-0.992401, 65, 197, 128, 228
-0.992403, 217, 413, 280, 444
-0.99241, 161, 261, 224, 292
-0.992424, 173, 273, 204, 304
-0.992432, 65, 333, 128, 364
-0.992438, 293, 421, 324, 452
-0.992441, 121, 165, 184, 196
-0.992449, 9, 33, 72, 64
-0.992453, 141, 441, 172, 472
-0.992457, 33, 1, 64, 128
-0.992464, 169, 441, 200, 472
-0.992466, 105, 45, 168, 76
-0.992473, 9, 437, 72, 468
-0.992482, 1, 409, 375, 472
-0.992488, 113, 449, 144, 480
-0.9925, 33, 273, 288, 336
-0.992503, 201, 453, 232, 484
-0.992507, 201, 469, 232, 500
-0.992512, 105, 237, 168, 268
-0.992513, 181, 425, 212, 456
-0.99253, 133, 281, 164, 312
-0.992531, 257, 201, 320, 264
-0.992543, 109, 317, 140, 348
-0.992544, 97, 457, 128, 488
-0.992545, 297, 453, 328, 484
-0.992546, 41, 161, 104, 416
-0.992548, 153, 281, 184, 312
-0.99256, 1, 289, 64, 416
-0.99256, 293, 441, 324, 472
-0.992564, 345, 429, 375, 460
-0.992572, 189, 461, 220, 492
-0.992574, 153, 433, 184, 464
-0.992584, 97, 313, 352, 376
-0.992586, 1, 409, 256, 472
-0.992586, 173, 293, 204, 324
-0.992589, 325, 405, 356, 436
-0.992594, 313, 417, 344, 448
-0.992595, 305, 397, 336, 428
-0.992598, 333, 417, 364, 448
-0.992609, 249, 257, 312, 320
-0.992613, 313, 457, 344, 488
-0.99262, 97, 233, 352, 296
-0.992627, 105, 361, 168, 424
-0.992631, 109, 329, 140, 392
-0.992639, 81, 469, 112, 500
-0.992647, 129, 441, 160, 472
-0.992651, 81, 453, 112, 484
-0.992657, 313, 445, 344, 476
-0.992667, 157, 445, 188, 476
-0.99267, 341, 449, 372, 480
-0.992671, 101, 305, 132, 336
-0.992671, 185, 277, 216, 308
-0.992685, 249, 321, 280, 448
-0.992692, 133, 305, 164, 336
-0.992697, 173, 317, 204, 348
-0.992697, 325, 441, 356, 472
-0.992701, 177, 169, 208, 200
-0.992701, 141, 469, 172, 500
-0.99271, 313, 433, 344, 464
-0.992739, 97, 445, 128, 476
-0.992746, 177, 157, 208, 188
-0.992746, 253, 465, 284, 496
-0.992756, 265, 313, 328, 376
-0.992763, 189, 297, 220, 328
-0.992764, 137, 49, 168, 80
-0.992773, 201, 441, 232, 472
-0.992775, 293, 465, 324, 496
-0.992777, 149, 161, 180, 192
-0.992781, 237, 321, 268, 448
-0.992798, 281, 273, 344, 400
-0.992798, 129, 429, 160, 460
-0.992805, 1, 33, 32, 96
-0.99281, 221, 445, 252, 476
-0.992814, 149, 353, 180, 384
-0.992823, 169, 181, 200, 212
-0.992824, 153, 325, 184, 356
-0.992826, 169, 457, 200, 488
-0.992834, 61, 369, 92, 496
-0.992844, 189, 321, 220, 352
-0.992848, 213, 469, 244, 500
-0.992856, 177, 153, 304, 216
-0.992862, 165, 429, 196, 460
-0.992862, 325, 453, 356, 484
-0.992863, 121, 305, 152, 336
-0.992863, 261, 201, 292, 264
-0.992866, 33, 161, 160, 224
-0.992875, 137, 453, 168, 484
-0.992877, 293, 409, 324, 440
-0.992884, 161, 153, 192, 184
-0.992886, 129, 469, 160, 500
-0.992902, 81, 441, 112, 472
-0.992904, 137, 333, 168, 364
-0.992918, 345, 317, 375, 348
-0.992919, 113, 225, 144, 288
-0.992928, 237, 457, 268, 488
-0.992932, 121, 325, 152, 356
-0.992933, 65, 177, 96, 304
-0.992934, 293, 245, 324, 276
-0.992957, 321, 265, 352, 296
-0.992963, 313, 253, 344, 284
-0.992976, 205, 313, 236, 344
-0.992977, 153, 297, 184, 328
-0.992979, 293, 257, 324, 288
-0.992982, 169, 417, 200, 448
-0.992992, 265, 337, 328, 400
-0.992992, 113, 461, 144, 492
-0.992993, 273, 465, 304, 496
-0.992995, 213, 289, 244, 352
-0.992997, 345, 465, 375, 496
-0.993, 325, 429, 356, 460
-0.993005, 93, 293, 124, 324
-0.993005, 109, 437, 140, 468
-0.993008, 117, 293, 148, 324
-0.99302, 213, 457, 244, 488
-0.993025, 77, 177, 108, 304
-0.993028, 329, 469, 360, 500
-0.993041, 345, 337, 375, 368
-0.993042, 273, 453, 304, 484
-0.993043, 133, 369, 164, 496
-0.993044, 173, 469, 204, 500
-0.993047, 345, 365, 375, 396
-0.993047, 145, 213, 176, 244
-0.993053, 185, 217, 216, 248
-0.99306, 281, 245, 312, 276
-0.99306, 345, 417, 375, 448
-0.993062, 37, 193, 68, 320
-0.993065, 93, 469, 124, 500
-0.993066, 109, 329, 140, 360
-0.993067, 157, 309, 188, 340
-0.993068, 333, 249, 364, 280
-0.993074, 189, 337, 220, 368
-0.993074, 217, 345, 248, 376
-0.993078, 149, 49, 180, 80
-0.993082, 173, 97, 204, 224
-0.993082, 305, 469, 336, 500
-0.993084, 209, 301, 240, 332
-0.993091, 97, 433, 128, 464
-0.993093, 149, 341, 180, 372
-0.993094, 341, 405, 372, 436
-0.993096, 157, 365, 188, 396
-0.993097, 177, 377, 208, 408
-0.993098, 1, 453, 32, 484
-0.9931, 165, 341, 196, 372
-0.993101, 193, 425, 224, 456
-0.993104, 273, 437, 304, 468
-0.993105, 189, 177, 220, 208
-0.993106, 121, 1, 184, 64
-0.99311, 245, 337, 276, 400
-0.993111, 321, 393, 352, 424
-0.993119, 309, 265, 340, 296
-0.993123, 225, 361, 256, 392
-0.99313, 205, 329, 236, 360
-0.99313, 285, 453, 316, 484
-0.99313, 149, 457, 180, 488
-0.993132, 141, 293, 172, 324
-0.993136, 109, 281, 140, 312
-0.993137, 297, 385, 328, 416
-0.993139, 145, 193, 176, 224
-0.993157, 125, 337, 156, 368
-0.993161, 241, 377, 272, 408
-0.993162, 133, 193, 164, 224
-0.993166, 181, 413, 212, 444
-0.993167, 153, 421, 184, 452
-0.993171, 149, 173, 180, 204
-0.993173, 337, 261, 368, 292
-0.993177, 141, 317, 172, 348
-0.993177, 125, 453, 156, 484
-0.993208, 57, 41, 120, 104
-0.993215, 65, 401, 96, 464
-0.993256, 297, 417, 312, 480
-0.993257, 177, 449, 304, 480
-0.993288, 113, 1, 176, 128
-0.993308, 161, 129, 288, 192
-0.993316, 17, 193, 48, 320
-0.99332, 225, 241, 288, 304
-0.99333, 97, 453, 224, 484
-0.993335, 9, 193, 72, 448
-0.993347, 1, 329, 128, 392
-0.993358, 277, 233, 308, 296
-0.993385, 325, 345, 356, 408
-0.993406, 149, 17, 180, 80
-0.993411, 185, 265, 200, 328
-0.993416, 97, 361, 352, 424
-0.993474, 49, 377, 176, 440
-0.993494, 1, 249, 128, 312
-0.993513, 113, 441, 240, 472
-0.99352, 1, 305, 256, 368
-0.993539, 1, 337, 256, 400
-0.993546, 185, 225, 216, 288
-0.99357, 49, 241, 112, 304
-0.993573, 225, 217, 352, 280
-0.993613, 209, 369, 240, 432
-0.993631, 1, 385, 128, 448
-0.993648, 253, 401, 284, 464
-0.993651, 333, 313, 364, 376
-0.993676, 121, 65, 184, 320
-0.993718, 9, 17, 40, 144
-0.993753, 65, 1, 128, 500
-0.993779, 197, 177, 228, 304
-0.993801, 89, 1, 152, 500
-0.993806, 225, 445, 352, 476
-0.993853, 257, 369, 288, 496
-0.993861, 177, 33, 240, 288
-0.993869, 161, 437, 288, 468
-0.99387, 325, 393, 340, 456
-0.993936, 199, 425, 214, 488
-0.993969, 9, 337, 72, 400
-0.994027, 305, 217, 368, 280
-0.994056, 81, 129, 208, 192
-0.994075, 191, 417, 206, 480
-0.994076, 289, 225, 320, 352
-0.994082, 97, 209, 352, 272
-0.994105, 97, 337, 352, 400
-0.994175, 325, 417, 340, 480
-0.994209, 185, 289, 200, 352
-0.994213, 197, 129, 228, 256
-0.994236, 113, 465, 240, 496
-0.994251, 209, 433, 336, 464
-0.994308, 191, 273, 206, 336
-0.994345, 129, 393, 375, 456
-0.994384, 189, 153, 204, 216
-0.994391, 105, 97, 168, 224
-0.99442, 129, 289, 375, 352
-0.994438, 129, 297, 144, 360
-0.99445, 133, 321, 164, 448
-0.994452, 41, 1, 104, 256
-0.994459, 17, 369, 48, 496
-0.994473, 81, 361, 144, 424
-0.994493, 175, 265, 190, 328
-0.994496, 49, 193, 80, 320
-0.994527, 49, 457, 176, 488
-0.994552, 161, 425, 288, 456
-0.994567, 129, 333, 256, 364
-0.994571, 1, 337, 375, 400
-0.994578, 241, 457, 368, 488
-0.99458, 49, 469, 176, 500
-0.99458, 177, 1, 240, 128
-0.99461, 17, 145, 80, 272
-0.994634, 103, 433, 118, 496
-0.994641, 183, 153, 198, 216
-0.994659, 125, 129, 156, 256
-0.99467, 241, 417, 368, 448
-0.994676, 331, 417, 346, 480
-0.994677, 1, 361, 256, 424
-0.994678, 143, 273, 158, 336
-0.994689, 161, 81, 288, 208
-0.994714, 153, 153, 168, 216
-0.994744, 177, 433, 192, 496
-0.994747, 113, 277, 240, 308
-0.994753, 133, 425, 148, 488
-0.994756, 149, 185, 164, 248
-0.994765, 1, 445, 128, 476
-0.994807, 81, 321, 208, 352
-0.994878, 65, 289, 96, 416
-0.994891, 277, 241, 308, 368
-0.994918, 1, 177, 256, 240
-0.994934, 81, 429, 208, 460
-0.994944, 205, 433, 220, 496
-0.994944, 189, 177, 204, 240
-0.99495, 281, 321, 312, 448
-0.994958, 33, 337, 96, 400
-0.994972, 1, 361, 128, 424
-0.994974, 175, 297, 190, 360
-0.994975, 291, 425, 306, 488
-0.994983, 169, 1, 232, 64
-0.994993, 121, 49, 184, 176
-0.995035, 175, 145, 190, 208
-0.995039, 1, 377, 375, 440
-0.995047, 165, 433, 180, 496
-0.995062, 241, 405, 368, 436
-0.99507, 145, 297, 160, 360
-0.995075, 199, 273, 214, 336
-0.995085, 97, 65, 352, 192
-0.995097, 303, 433, 318, 496
-0.995098, 201, 1, 264, 128
-0.995135, 191, 297, 206, 360
-0.995148, 121, 305, 136, 368
-0.995152, 171, 417, 186, 480
-0.995172, 33, 217, 96, 280
-0.995172, 261, 321, 292, 448
-0.995176, 113, 297, 240, 328
-0.99518, 135, 297, 150, 360
-0.995182, 155, 273, 170, 336
-0.995213, 177, 469, 304, 500
-0.995216, 341, 425, 356, 488
-0.99525, 1, 305, 375, 368
-0.995255, 295, 393, 310, 456
-0.995268, 317, 409, 332, 472
-0.995271, 25, 73, 88, 136
-0.995276, 155, 425, 170, 488
-0.995278, 45, 1, 76, 128
-0.995289, 123, 433, 138, 496
-0.995289, 9, 241, 72, 368
-0.995319, 73, 217, 136, 280
-0.995336, 165, 145, 180, 208
-0.995338, 167, 273, 182, 336
-0.995343, 303, 401, 318, 464
-0.995358, 309, 321, 340, 448
-0.995361, 145, 41, 160, 104
-0.995365, 359, 425, 374, 488
-0.995382, 333, 393, 348, 456
-0.995387, 1, 9, 256, 72
-0.995405, 1, 73, 128, 136
-0.995417, 167, 313, 182, 376
-0.995425, 201, 1, 264, 64
-0.995438, 225, 469, 352, 500
-0.995455, 185, 433, 200, 496
-0.995491, 129, 165, 256, 196
-0.995501, 97, 189, 224, 220
-0.995506, 1, 465, 128, 496
-0.995526, 137, 273, 152, 336
-0.995528, 139, 433, 154, 496
-0.995529, 85, 433, 100, 496
-0.995557, 1, 241, 256, 304
-0.995558, 209, 313, 224, 376
-0.995562, 225, 193, 256, 320
-0.995583, 273, 289, 336, 352
-0.995599, 111, 297, 126, 360
-0.995601, 41, 257, 104, 500
-0.995637, 81, 333, 208, 364
-0.995661, 97, 433, 112, 496
-0.995664, 353, 417, 368, 480
-0.995667, 183, 409, 198, 472
-0.995683, 49, 445, 176, 476
-0.995685, 155, 193, 170, 256
-0.995694, 149, 129, 180, 384
-0.9957, 73, 1, 136, 64
-0.995703, 147, 161, 162, 224
-0.995719, 149, 273, 164, 336
-0.995763, 161, 353, 288, 384
-0.995769, 149, 417, 164, 480
-0.995769, 129, 321, 256, 352
-0.995792, 33, 385, 288, 448
-0.995797, 127, 273, 142, 336
-0.995808, 109, 425, 124, 488
-0.995809, 161, 97, 192, 224
-0.995816, 347, 425, 362, 488
-0.995818, 169, 25, 232, 88
-0.995831, 167, 353, 182, 416
-0.995846, 199, 313, 214, 376
-0.995898, 97, 185, 352, 248
-0.995902, 225, 1, 288, 500
-0.99591, 1, 153, 256, 216
-0.995917, 153, 313, 168, 376
-0.99593, 97, 153, 352, 216
-0.995935, 129, 329, 144, 392
-0.995935, 209, 345, 224, 408
-0.995965, 221, 257, 252, 384
-0.995969, 159, 313, 174, 376
-0.995971, 315, 433, 330, 496
-0.995975, 325, 369, 340, 432
-0.995977, 65, 277, 192, 308
-0.995979, 195, 169, 210, 232
-0.995987, 113, 225, 240, 256
-0.996018, 1, 49, 256, 112
-0.99603, 97, 309, 224, 340
-0.996065, 137, 161, 168, 416
-0.996083, 105, 137, 168, 200
-0.996125, 159, 153, 174, 216
-0.996127, 211, 433, 226, 496
-0.996153, 319, 385, 334, 448
-0.996159, 137, 321, 152, 384
-0.996182, 1, 1, 64, 500
-0.99619, 151, 41, 166, 104
-0.996193, 241, 393, 368, 424
-0.996228, 137, 233, 152, 296
-0.996252, 161, 273, 176, 336
-0.996258, 113, 177, 240, 208
-0.996299, 5, 193, 36, 320
-0.996306, 123, 409, 138, 472
-0.996313, 129, 409, 256, 440
-0.996319, 201, 129, 264, 384
-0.996334, 149, 1, 180, 128
-0.996336, 203, 337, 218, 400
-0.996337, 115, 433, 130, 496
-0.996342, 169, 161, 200, 416
-0.996347, 159, 345, 174, 408
-0.996385, 119, 281, 134, 344
-0.996391, 237, 193, 268, 320
-0.996415, 261, 433, 276, 496
-0.996415, 121, 1, 152, 128
-0.996423, 81, 161, 208, 192
-0.996437, 231, 417, 246, 480
-0.996447, 249, 1, 312, 500
-0.996475, 175, 329, 190, 392
-0.996475, 163, 177, 178, 240
-0.996476, 199, 401, 214, 464
-0.99649, 193, 373, 320, 404
-0.996499, 177, 393, 192, 456
-0.996513, 1, 209, 256, 272
-0.996518, 349, 313, 364, 376
-0.996528, 307, 377, 322, 440
-0.996536, 129, 257, 375, 320
-0.996554, 241, 365, 368, 396
-0.99656, 175, 361, 190, 424
-0.996575, 97, 65, 160, 320
-0.996597, 113, 345, 240, 376
-0.9966, 137, 193, 152, 256
-0.9966, 113, 253, 240, 284
-0.996616, 75, 433, 90, 496
-0.99662, 285, 409, 300, 472
-0.996629, 241, 177, 368, 240
-0.996635, 237, 433, 252, 496
-0.996638, 267, 433, 282, 496
-0.996644, 289, 377, 304, 440
-0.996646, 81, 33, 144, 96
-0.996659, 183, 177, 198, 240
-0.99666, 105, 297, 120, 360
-0.996669, 113, 265, 240, 296
-0.996693, 9, 225, 72, 288
-0.996707, 209, 145, 336, 272
-0.996708, 243, 417, 258, 480
-0.99672, 241, 245, 368, 276
-0.996734, 33, 1, 96, 500
-0.996735, 113, 237, 240, 268
-0.996739, 49, 309, 176, 340
-0.996764, 207, 289, 222, 352
-0.996791, 189, 393, 204, 456
-0.996803, 145, 365, 272, 396
-0.996836, 65, 265, 192, 296
-0.996841, 139, 41, 154, 104
-0.996854, 81, 169, 144, 232
-0.996876, 33, 197, 160, 228
-0.996878, 9, 169, 72, 232
-0.996887, 225, 353, 352, 384
-0.996891, 193, 341, 320, 372
-0.996892, 49, 49, 176, 80
-0.996897, 129, 249, 144, 312
-0.996903, 345, 401, 360, 464
-0.996907, 177, 305, 304, 336
-0.996915, 33, 433, 160, 464
-0.996915, 163, 409, 178, 472
-0.996915, 141, 169, 156, 232
-0.996932, 199, 193, 214, 256
-0.996936, 1, 273, 375, 336
-0.996942, 343, 377, 358, 440
-0.99696, 177, 321, 304, 352
-0.996962, 177, 205, 304, 236
-0.996965, 21, 433, 36, 496
-0.996991, 237, 273, 268, 400
-0.996996, 273, 193, 304, 320
-0.996996, 65, 345, 192, 376
-0.997001, 331, 369, 346, 432
-0.997009, 239, 385, 254, 448
-0.99701, 81, 361, 208, 392
-0.997013, 193, 1, 320, 64
-0.997017, 225, 433, 240, 496
-0.997018, 357, 321, 372, 384
-0.997019, 359, 345, 374, 408
-0.997019, 223, 353, 238, 416
-0.997044, 129, 153, 256, 184
-0.997044, 241, 261, 368, 292
-0.997044, 47, 433, 62, 496
-0.997055, 129, 257, 160, 500
-0.997057, 177, 261, 304, 292
-0.997064, 33, 49, 64, 176
-0.99707, 53, 433, 68, 496
-0.997073, 217, 313, 232, 376
-0.997084, 219, 433, 234, 496
-0.997085, 33, 325, 160, 356
-0.997085, 295, 437, 310, 468
-0.997095, 131, 193, 146, 256
-0.997098, 153, 225, 184, 480
-0.997105, 181, 161, 212, 416
-0.997107, 57, 169, 120, 232
-0.997108, 207, 193, 222, 256
-0.997108, 189, 449, 204, 480
-0.997108, 155, 401, 170, 464
-0.99711, 197, 453, 212, 484
-0.997111, 129, 49, 256, 80
-0.99712, 205, 401, 220, 464
-0.997121, 141, 17, 156, 80
-0.997124, 249, 193, 280, 320
-0.997136, 221, 469, 236, 500
-0.997139, 261, 241, 292, 368
-0.997139, 113, 401, 128, 464
-0.997147, 205, 265, 220, 328
-0.997147, 189, 257, 220, 500
-0.997176, 49, 177, 176, 208
-0.997176, 97, 281, 112, 344
-0.997181, 141, 257, 172, 500
-0.997182, 177, 169, 192, 232
-0.997182, 103, 265, 118, 328
-0.997187, 161, 385, 288, 416
-0.997198, 109, 161, 140, 416
-0.997199, 297, 421, 312, 452
-0.997206, 1, 193, 375, 256
-0.99722, 199, 437, 214, 468
-0.997226, 293, 321, 324, 448
-0.99723, 193, 413, 320, 444
-0.997247, 97, 213, 224, 244
-0.997253, 173, 445, 188, 476
-0.99726, 207, 461, 222, 492
-0.997267, 213, 453, 228, 484
-0.997273, 107, 445, 122, 476
-0.997275, 167, 449, 182, 480
-0.997282, 1, 49, 128, 80
-0.997295, 213, 465, 228, 496
-0.997301, 135, 469, 150, 500
-0.997306, 297, 1, 360, 500
-0.997309, 325, 405, 340, 436
-0.997317, 273, 129, 336, 384
-0.997323, 165, 257, 196, 500
-0.997325, 181, 441, 196, 472
-0.997339, 183, 289, 198, 320
-0.997342, 315, 445, 330, 476
-0.997385, 177, 233, 304, 264
-0.997396, 325, 393, 340, 424
-0.997411, 317, 425, 332, 456
-0.997424, 301, 449, 316, 480
-0.997431, 193, 245, 320, 276
-0.997432, 21, 49, 52, 176
-0.997458, 129, 201, 256, 232
-0.997458, 189, 165, 204, 196
-0.997473, 145, 49, 160, 80
-0.997477, 1, 309, 128, 340
-0.997479, 189, 277, 204, 308
-0.997489, 65, 289, 192, 320
-0.997498, 161, 273, 288, 304
-0.997508, 225, 329, 352, 360
-0.997517, 325, 421, 340, 452
-0.997517, 1, 369, 32, 496
-0.997522, 189, 301, 204, 332
-0.997523, 103, 461, 118, 492
-0.997527, 323, 437, 338, 468
-0.997536, 225, 265, 288, 328
-0.997537, 191, 433, 206, 464
-0.997542, 195, 465, 210, 496
-0.997546, 181, 301, 196, 332
-0.997548, 33, 237, 160, 268
-0.997566, 183, 273, 198, 304
-0.997573, 61, 241, 92, 368
-0.997573, 193, 401, 320, 432
-0.997585, 345, 409, 360, 440
-0.9976, 81, 393, 208, 424
-0.997611, 297, 409, 312, 440
-0.997623, 203, 449, 218, 480
-0.997636, 195, 277, 210, 308
-0.997637, 81, 417, 208, 448
-0.997656, 201, 465, 216, 496
-0.997657, 97, 449, 112, 480
-0.997662, 151, 165, 166, 196
-0.997664, 73, 241, 104, 368
-0.997671, 291, 417, 306, 448
-0.997676, 175, 317, 190, 348
-0.997677, 177, 273, 192, 304
-0.99768, 345, 437, 360, 468
-0.99773, 161, 177, 288, 208
-0.997737, 335, 405, 350, 436
-0.997739, 189, 289, 204, 320
-0.997747, 145, 397, 272, 428
-0.997747, 157, 441, 172, 472
-0.99775, 151, 433, 166, 464
-0.99775, 97, 33, 352, 96
-0.99775, 137, 33, 168, 160
-0.997751, 123, 441, 138, 472
-0.997761, 171, 433, 186, 464
-0.997765, 175, 305, 190, 336
-0.997769, 179, 457, 194, 488
-0.99777, 113, 453, 128, 484
-0.997774, 295, 461, 310, 492
-0.997775, 145, 437, 160, 468
-0.99778, 241, 341, 368, 372
-0.997789, 319, 413, 334, 444
-0.997802, 191, 185, 206, 216
-0.99781, 189, 461, 204, 492
-0.997817, 207, 437, 222, 468
-0.997821, 233, 177, 296, 240
-0.997832, 355, 429, 370, 460
-0.997835, 313, 457, 328, 488
-0.99784, 185, 153, 200, 184
-0.99784, 351, 469, 366, 500
-0.997843, 227, 469, 242, 500
-0.997845, 219, 457, 234, 488
-0.997854, 141, 469, 156, 500
-0.997854, 165, 433, 180, 464
-0.997857, 167, 277, 182, 308
-0.997863, 343, 421, 358, 452
-0.997865, 125, 161, 156, 416
-0.997875, 319, 401, 334, 432
-0.997876, 29, 289, 60, 416
-0.997876, 113, 441, 128, 472
-0.997881, 109, 1, 140, 128
-0.997895, 33, 1, 160, 32
-0.997905, 135, 325, 150, 356
-0.997906, 177, 429, 192, 460
-0.997915, 151, 49, 166, 80
-0.997919, 97, 257, 128, 500
-0.997919, 345, 449, 360, 480
-0.997921, 201, 425, 216, 456
-0.997921, 161, 453, 176, 484
-0.997925, 295, 449, 310, 480
-0.997937, 307, 393, 322, 424
-0.997946, 183, 181, 198, 212
-0.997948, 319, 457, 334, 488
-0.997956, 135, 457, 150, 488
-0.99796, 97, 461, 112, 492
-0.997963, 183, 429, 198, 460
-0.997967, 81, 381, 208, 412
-0.997973, 1, 217, 375, 280
-0.997975, 335, 425, 350, 456
-0.997981, 255, 461, 270, 492
-0.997983, 331, 393, 346, 424
-0.997988, 129, 317, 144, 348
-0.997996, 1, 1, 375, 64
-0.997996, 329, 441, 344, 472
-0.997998, 169, 325, 184, 356
-0.998001, 197, 321, 212, 352
-0.998001, 327, 453, 342, 484
-0.998006, 141, 309, 156, 340
-0.99801, 339, 437, 354, 468
-0.99801, 293, 257, 324, 500
-0.998015, 139, 53, 154, 84
-0.998016, 155, 281, 170, 312
-0.998017, 115, 309, 130, 340
-0.998026, 149, 189, 164, 220
-0.998032, 309, 273, 340, 400
-0.998036, 147, 309, 162, 340
-0.998038, 209, 349, 224, 380
-0.998039, 225, 313, 352, 344
-0.998039, 359, 449, 374, 480
-0.99804, 319, 385, 334, 416
-0.998042, 309, 437, 324, 468
-0.998049, 305, 245, 320, 276
-0.998053, 133, 437, 148, 468
-0.998061, 323, 265, 338, 296
-0.998065, 177, 217, 304, 248
-0.998069, 297, 397, 312, 428
-0.998071, 177, 293, 304, 324
-0.998074, 129, 37, 256, 68
-0.998079, 201, 225, 232, 480
-0.99808, 117, 257, 148, 500
-0.998081, 123, 453, 138, 484
-0.998089, 245, 457, 260, 488
-0.9981, 239, 453, 254, 484
-0.99811, 217, 145, 280, 272
-0.998122, 33, 225, 160, 256
-0.998127, 307, 461, 322, 492
-0.998132, 241, 377, 368, 408
-0.998137, 353, 417, 368, 448
-0.998139, 159, 429, 174, 460
-0.998148, 33, 249, 160, 280
-0.998148, 153, 469, 168, 500
-0.998149, 287, 449, 302, 480
-0.998155, 301, 465, 316, 496
-0.998157, 129, 469, 144, 500
-0.998164, 151, 293, 166, 324
-0.998167, 161, 153, 176, 184
-0.998168, 211, 313, 226, 344
-0.998168, 1, 161, 375, 224
-0.99817, 99, 437, 114, 468
-0.998171, 147, 277, 162, 308
-0.998174, 303, 421, 318, 452
-0.998175, 353, 453, 368, 484
-0.998179, 291, 405, 306, 436
-0.998181, 33, 137, 160, 200
-0.998183, 325, 253, 340, 284
-0.998183, 159, 341, 174, 372
-0.998188, 225, 457, 240, 488
-0.998195, 129, 337, 144, 368
-0.998197, 289, 437, 304, 468
-0.998199, 139, 429, 154, 460
-0.998201, 317, 225, 348, 480
-0.998206, 121, 325, 136, 356
-0.998213, 81, 149, 208, 180
-0.998214, 85, 161, 116, 416
-0.998236, 1, 33, 128, 64
-0.998252, 1, 297, 128, 328
-0.998272, 145, 189, 272, 220
-0.998285, 193, 25, 256, 88
-0.998295, 193, 25, 320, 88
-0.998301, 333, 225, 364, 480
-0.998306, 49, 289, 80, 416
-0.998322, 49, 65, 176, 128
-0.998387, 33, 397, 160, 428
-0.998398, 153, 311, 184, 326
-0.998398, 329, 467, 360, 482
-0.998399, 81, 405, 208, 436
-0.998399, 189, 293, 220, 308
-0.998399, 253, 469, 284, 484
-0.9984, 129, 335, 160, 350
-0.9984, 109, 331, 140, 346
-0.9984, 281, 253, 312, 268
-0.998401, 321, 253, 352, 268
-0.998401, 181, 277, 212, 292
-0.998402, 185, 339, 216, 354
-0.998402, 293, 423, 324, 438
-0.998404, 105, 481, 136, 496
-0.998406, 301, 247, 332, 262
-0.998407, 305, 405, 336, 420
-0.998408, 149, 51, 180, 66
-0.998408, 73, 473, 104, 488
-0.998409, 125, 57, 156, 72
-0.998409, 209, 341, 240, 356
-0.99841, 93, 465, 124, 480
-0.99841, 333, 253, 364, 268
-0.998412, 297, 263, 328, 278
-0.998412, 193, 309, 224, 324
-0.998412, 305, 397, 336, 412
-0.998414, 189, 425, 220, 440
-0.998416, 189, 287, 220, 302
-0.998416, 145, 469, 176, 484
-0.998417, 237, 459, 268, 474
-0.998418, 109, 439, 140, 454
-0.998418, 49, 369, 80, 496
-0.998418, 157, 317, 188, 332
-0.998419, 49, 213, 176, 244
-0.99842, 177, 423, 208, 438
-0.998421, 325, 455, 356, 470
-0.998423, 337, 449, 368, 464
-0.998424, 145, 175, 176, 190
-0.998424, 209, 485, 240, 500
-0.998425, 17, 337, 144, 368
-0.998425, 337, 461, 368, 476
-0.998426, 189, 321, 220, 336
-0.998426, 177, 321, 208, 336
-0.998426, 141, 451, 172, 466
-0.998426, 333, 427, 364, 442
-0.998432, 177, 429, 208, 444
-0.998433, 125, 329, 156, 344
-0.998433, 325, 441, 356, 456
-0.998435, 329, 483, 360, 498
-0.998435, 137, 441, 200, 456
-0.998435, 1, 61, 128, 92
-0.998438, 321, 423, 352, 438
-0.998441, 153, 291, 184, 306
-0.998443, 81, 465, 112, 480
-0.998443, 145, 157, 208, 172
-0.998444, 201, 453, 264, 468
-0.998445, 289, 469, 320, 484
-0.998445, 189, 301, 220, 316
-0.998445, 305, 255, 336, 270
-0.998448, 173, 157, 204, 172
-0.998449, 165, 455, 196, 470
-0.998449, 217, 447, 248, 462
-0.998449, 325, 447, 356, 462
-0.99845, 133, 313, 164, 328
-0.998451, 225, 455, 256, 470
-0.998452, 121, 321, 152, 336
-0.998452, 129, 319, 192, 334
-0.998452, 285, 417, 316, 432
-0.998453, 153, 453, 184, 468
-0.998453, 197, 315, 228, 330
-0.998456, 153, 447, 216, 462
-0.998456, 197, 441, 228, 456
-0.998456, 305, 259, 368, 274
-0.998456, 173, 179, 204, 194
-0.998457, 309, 463, 340, 478
-0.998457, 293, 429, 324, 444
-0.998457, 313, 457, 344, 472
-0.998458, 173, 467, 204, 482
-0.998458, 97, 327, 160, 342
-0.998459, 301, 443, 332, 458
-0.99846, 345, 455, 375, 470
-0.998461, 221, 485, 252, 500
-0.998462, 129, 449, 160, 464
-0.998462, 345, 319, 375, 334
-0.998463, 113, 447, 176, 462
-0.998463, 333, 419, 364, 434
-0.998465, 81, 479, 112, 494
-0.998466, 105, 323, 136, 338
-0.998466, 161, 277, 224, 292
-0.998467, 125, 441, 156, 456
-0.998468, 333, 259, 364, 274
-0.998468, 145, 181, 208, 196
-0.998469, 189, 457, 220, 472
-0.998472, 117, 475, 148, 490
-0.998473, 85, 453, 116, 468
-0.998475, 209, 469, 240, 484
-0.998476, 145, 313, 208, 328
-0.998478, 161, 457, 224, 472
-0.998478, 177, 459, 208, 474
-0.99848, 177, 173, 208, 188
-0.998481, 137, 475, 168, 490
-0.998482, 189, 431, 220, 446
-0.998482, 165, 435, 196, 450
-0.998482, 153, 433, 216, 448
-0.998484, 293, 257, 324, 272
-0.998485, 297, 417, 328, 432
-0.998485, 85, 485, 116, 500
-0.998485, 317, 397, 348, 412
-0.998485, 153, 281, 184, 296
-0.998485, 105, 313, 136, 328
-0.998487, 169, 311, 232, 326
-0.998489, 265, 459, 328, 474
-0.998491, 289, 459, 320, 474
-0.998491, 177, 303, 208, 318
-0.998493, 177, 451, 240, 466
-0.998494, 81, 459, 112, 474
-0.998494, 93, 475, 124, 490
-0.998495, 205, 459, 236, 474
-0.998496, 89, 459, 152, 474
-0.998497, 73, 453, 136, 468
-0.998497, 161, 155, 192, 170
-0.998498, 121, 283, 184, 298
-0.9985, 305, 409, 368, 424
-0.9985, 113, 311, 176, 326
-0.998501, 93, 459, 124, 474
-0.998502, 177, 445, 208, 460
-0.998502, 145, 307, 208, 322
-0.998504, 169, 321, 232, 336
-0.998504, 29, 369, 60, 496
-0.998504, 133, 469, 164, 484
-0.998504, 97, 471, 160, 486
-0.998505, 341, 439, 372, 454
-0.998506, 329, 409, 360, 424
-0.998507, 49, 37, 176, 68
-0.998507, 273, 259, 336, 274
-0.998508, 121, 325, 184, 340
-0.998509, 145, 163, 208, 178
-0.998509, 205, 453, 236, 468
-0.99851, 97, 481, 160, 496
-0.99851, 293, 437, 324, 452
-0.998511, 153, 441, 184, 456
-0.998512, 305, 423, 336, 438
-0.998518, 113, 455, 144, 470
-0.99852, 301, 455, 332, 470
-0.998521, 169, 275, 200, 290
-0.998522, 177, 437, 240, 452
-0.998522, 313, 435, 344, 450
-0.998524, 117, 447, 148, 462
-0.998524, 121, 453, 184, 468
-0.998524, 169, 297, 232, 312
-0.998524, 317, 261, 348, 276
-0.998524, 313, 447, 375, 462
-0.998525, 181, 437, 212, 452
-0.998525, 145, 187, 208, 202
-0.998526, 345, 225, 375, 480
-0.998526, 33, 421, 160, 452
-0.998528, 169, 65, 200, 320
-0.998528, 305, 435, 368, 450
-0.998528, 1, 269, 128, 300
-0.998529, 193, 473, 256, 488
-0.998529, 97, 333, 160, 348
-0.998533, 145, 293, 208, 308
-0.998533, 305, 455, 368, 470
-0.998534, 145, 301, 208, 316
-0.998535, 297, 403, 360, 418
-0.998536, 305, 253, 368, 268
-0.998536, 113, 439, 176, 454
-0.998536, 173, 293, 204, 308
-0.998537, 185, 467, 248, 482
-0.998538, 313, 427, 375, 442
-0.998538, 145, 193, 208, 208
-0.998539, 65, 477, 128, 492
-0.99854, 177, 257, 208, 500
-0.998541, 197, 483, 228, 498
-0.998541, 193, 473, 224, 488
-0.998542, 89, 447, 152, 462
-0.998542, 193, 449, 224, 464
-0.998542, 177, 315, 208, 330
-0.998543, 105, 445, 136, 460
-0.998544, 201, 459, 264, 474
-0.998545, 97, 453, 128, 468
-0.998546, 137, 173, 200, 188
-0.998547, 305, 421, 368, 436
-0.998547, 185, 483, 248, 498
-0.99855, 193, 445, 256, 460
-0.998551, 137, 331, 200, 346
-0.998552, 161, 339, 224, 354
-0.998552, 81, 441, 144, 456
-0.998553, 165, 443, 196, 458
-0.998554, 153, 479, 216, 494
-0.998554, 137, 53, 200, 68
-0.998554, 153, 447, 184, 462
-0.998555, 305, 463, 368, 478
-0.998556, 137, 441, 168, 456
-0.998556, 89, 295, 152, 310
-0.998557, 65, 129, 128, 256
-0.99856, 133, 481, 164, 496
-0.99856, 177, 309, 208, 324
-0.99856, 265, 437, 328, 452
-0.99856, 249, 241, 280, 368
-0.99856, 317, 417, 348, 432
-0.998561, 209, 475, 240, 490
-0.998562, 121, 337, 184, 352
-0.998562, 189, 463, 220, 478
-0.998563, 305, 441, 368, 456
-0.998563, 65, 471, 128, 486
-0.998565, 97, 321, 160, 336
-0.998567, 137, 485, 200, 500
-0.998567, 281, 265, 344, 280
-0.998567, 169, 473, 232, 488
-0.998568, 85, 257, 116, 500
-0.998569, 165, 449, 196, 464
-0.99857, 305, 415, 368, 430
-0.998571, 217, 465, 280, 480
-0.998571, 185, 305, 248, 320
-0.998572, 9, 469, 72, 484
-0.998574, 225, 459, 288, 474
-0.998574, 97, 453, 160, 468
-0.998577, 57, 1, 88, 128
-0.998578, 145, 287, 208, 302
-0.998579, 185, 431, 248, 446
-0.998581, 89, 315, 152, 330
-0.998583, 281, 417, 344, 432
-0.998583, 97, 465, 160, 480
-0.998583, 305, 481, 368, 496
-0.998583, 137, 275, 200, 290
-0.998585, 201, 345, 264, 360
-0.998588, 169, 49, 232, 176
-0.998589, 137, 427, 200, 442
-0.998591, 225, 441, 288, 456
-0.998591, 181, 451, 212, 466
-0.998591, 161, 463, 224, 478
-0.998593, 113, 305, 176, 320
-0.998594, 89, 301, 152, 316
-0.998594, 273, 477, 336, 492
-0.998594, 97, 339, 160, 354
-0.998594, 297, 247, 360, 262
-0.998596, 249, 453, 312, 468
-0.998596, 305, 475, 368, 490
-0.998596, 57, 465, 120, 480
-0.998597, 217, 471, 280, 486
-0.998598, 161, 223, 224, 238
-0.9986, 265, 443, 328, 458
-0.998602, 313, 265, 375, 280
-0.998603, 137, 215, 200, 230
-0.998603, 249, 465, 312, 480
-0.998604, 169, 371, 232, 386
-0.998607, 105, 57, 168, 72
-0.998607, 281, 465, 344, 480
-0.998607, 193, 335, 256, 350
-0.998608, 73, 307, 136, 322
-0.998609, 9, 57, 72, 72
-0.99861, 289, 447, 352, 462
-0.998611, 137, 53, 168, 68
-0.998611, 129, 467, 192, 482
-0.998612, 265, 405, 328, 420
-0.998613, 145, 473, 208, 488
-0.998614, 225, 435, 288, 450
-0.998614, 185, 291, 248, 306
-0.998615, 161, 427, 224, 442
-0.998615, 137, 221, 200, 236
-0.998616, 225, 447, 288, 462
-0.998616, 121, 191, 184, 206
-0.998617, 265, 431, 328, 446
-0.998617, 225, 425, 288, 440
-0.998619, 265, 485, 328, 500
-0.998619, 121, 473, 184, 488
-0.998619, 313, 177, 344, 304
-0.99862, 73, 483, 136, 498
-0.998621, 57, 447, 120, 462
-0.998621, 265, 397, 328, 412
-0.998622, 169, 381, 232, 396
-0.998622, 113, 431, 176, 446
-0.998622, 257, 471, 320, 486
-0.998624, 265, 411, 328, 426
-0.998625, 145, 325, 208, 340
-0.998625, 149, 81, 180, 208
-0.998627, 273, 253, 336, 268
-0.998628, 185, 271, 248, 286
-0.99863, 193, 421, 256, 436
-0.998632, 273, 245, 336, 260
-0.99864, 41, 1, 72, 256
-0.998652, 97, 161, 128, 416
-0.998656, 129, 1, 375, 64
-0.998664, 177, 161, 304, 192
-0.998665, 65, 65, 128, 320
-0.998674, 277, 257, 308, 500
-0.998695, 213, 257, 244, 500
-0.998698, 65, 61, 192, 92
-0.998712, 179, 289, 194, 416
-0.998735, 153, 145, 168, 272
-0.99876, 273, 1, 336, 500
-0.998763, 33, 369, 160, 400
-0.998781, 167, 257, 182, 384
-0.998802, 21, 241, 52, 368
-0.998805, 341, 209, 372, 336
-0.99883, 197, 273, 212, 400
-0.998846, 1, 249, 375, 312
-0.99886, 173, 305, 188, 432
-0.998865, 261, 225, 292, 480
-0.998866, 305, 225, 336, 480
-0.998873, 179, 209, 194, 336
-0.998873, 73, 161, 104, 416
-0.998888, 187, 257, 202, 384
-0.998889, 323, 369, 338, 496
-0.998893, 161, 141, 288, 172
-0.998895, 9, 289, 40, 416
-0.998913, 189, 145, 204, 272
-0.998914, 225, 301, 352, 332
-0.998922, 173, 257, 188, 384
-0.998925, 163, 145, 178, 272
-0.998925, 149, 33, 180, 288
-0.998929, 185, 113, 216, 240
-0.998931, 171, 353, 186, 480
-0.998938, 81, 201, 208, 232
-0.998955, 1, 25, 375, 88
-0.998961, 211, 305, 226, 432
-0.998966, 305, 369, 320, 496
-0.998972, 161, 273, 176, 400
-0.998982, 187, 209, 202, 336
-0.998982, 29, 1, 60, 256
-0.998995, 179, 129, 194, 256
-0.99903, 337, 369, 352, 496
-0.999031, 129, 9, 256, 40
-0.999032, 1, 21, 128, 52
-0.999038, 133, 273, 148, 400
-0.999041, 173, 209, 188, 336
-0.999049, 343, 369, 358, 496
-0.999051, 203, 257, 218, 384
-0.999062, 329, 369, 344, 496
-0.999071, 147, 273, 162, 400
-0.999075, 209, 273, 336, 304
-0.999075, 17, 349, 144, 380
-0.99908, 163, 209, 178, 336
-0.999085, 349, 369, 364, 496
-0.999088, 219, 305, 234, 432
-0.999096, 187, 321, 202, 448
-0.9991, 243, 369, 258, 496
-0.999103, 147, 145, 162, 272
-0.999105, 165, 353, 180, 480
-0.999107, 81, 5, 208, 36
-0.999114, 17, 285, 144, 316
-0.999118, 171, 129, 186, 256
-0.999128, 347, 241, 362, 368
-0.999129, 153, 273, 168, 400
-0.999132, 197, 209, 212, 336
-0.999139, 203, 321, 218, 448
-0.99915, 17, 97, 80, 352
-0.999152, 45, 49, 76, 176
-0.999153, 1, 77, 128, 108
-0.999154, 177, 353, 192, 480
-0.99916, 249, 369, 264, 496
-0.999162, 141, 225, 156, 352
-0.999164, 33, 381, 160, 412
-0.999165, 317, 369, 332, 496
-0.999175, 113, 61, 240, 92
-0.999175, 99, 273, 114, 400
-0.999178, 157, 193, 172, 320
-0.999184, 121, 305, 136, 432
-0.999185, 195, 161, 210, 288
-0.999186, 167, 305, 182, 432
-0.999192, 193, 321, 208, 448
-0.999194, 209, 257, 224, 384
-0.999195, 241, 233, 368, 264
-0.999203, 109, 289, 124, 416
-0.999205, 339, 225, 354, 352
-0.999212, 193, 369, 208, 496
-0.999234, 295, 369, 310, 496
-0.99924, 17, 409, 144, 440
-0.999243, 159, 337, 174, 464
-0.999258, 115, 289, 130, 416
-0.999267, 203, 369, 218, 496
-0.999269, 129, 129, 375, 192
-0.99927, 141, 273, 156, 400
-0.999272, 183, 369, 198, 496
-0.999275, 241, 289, 368, 320
-0.999279, 245, 193, 276, 448
-0.999284, 289, 369, 304, 496
-0.999285, 61, 161, 92, 416
-0.999285, 151, 193, 166, 320
-0.999286, 209, 353, 224, 480
-0.999291, 225, 225, 256, 480
-0.999291, 135, 177, 150, 304
-0.999293, 127, 257, 142, 384
-0.999305, 311, 369, 326, 496
-0.99932, 135, 225, 150, 352
-0.999328, 345, 321, 360, 448
-0.999328, 221, 257, 236, 384
-0.999332, 203, 209, 218, 336
-0.999337, 317, 225, 332, 352
-0.99935, 223, 369, 238, 496
-0.999351, 49, 161, 80, 416
-0.999351, 353, 321, 368, 448
-0.999353, 141, 177, 156, 304
-0.999353, 121, 257, 136, 384
-0.999358, 129, 177, 144, 304
-0.999359, 225, 209, 352, 240
-0.999362, 337, 321, 352, 448
-0.999373, 215, 353, 230, 480
-0.999376, 189, 33, 220, 288
-0.999378, 109, 241, 124, 368
-0.999381, 359, 337, 374, 464
-0.999381, 257, 369, 272, 496
-0.999389, 353, 241, 368, 368
-0.999396, 83, 289, 98, 416
-0.999396, 123, 177, 138, 304
-0.999397, 115, 241, 130, 368
-0.999409, 267, 369, 282, 496
-0.999416, 211, 209, 226, 336
-0.999419, 323, 225, 338, 352
-0.999419, 131, 337, 146, 464
-0.999421, 89, 289, 104, 416
-0.999421, 45, 145, 76, 272
-0.999423, 239, 321, 254, 448
-0.999427, 333, 225, 348, 352
-0.999441, 249, 321, 264, 448
-0.999444, 177, 49, 304, 112
-0.999445, 231, 337, 246, 464
-0.999447, 225, 321, 240, 448
-0.999453, 227, 273, 242, 400
-0.999453, 113, 25, 240, 56
-0.999462, 311, 225, 326, 352
-0.999462, 1, 49, 375, 112
-0.999468, 23, 17, 38, 144
-0.999476, 1, 129, 256, 192
-0.99948, 29, 161, 60, 416
-0.999484, 107, 369, 122, 496
-0.999485, 99, 369, 114, 496
-0.999487, 215, 257, 230, 384
-0.999487, 359, 289, 374, 416
-0.999487, 237, 369, 252, 496
-0.999487, 119, 369, 134, 496
-0.999498, 113, 177, 128, 304
-0.999498, 13, 1, 44, 256
-0.999502, 241, 193, 368, 224
-0.999506, 113, 369, 128, 496
-0.999509, 105, 177, 120, 304
-0.999513, 255, 321, 270, 448
-0.999513, 101, 321, 116, 448
-0.999518, 1, 185, 128, 216
-0.999523, 73, 257, 104, 500
-0.999525, 149, 33, 164, 160
-0.999532, 185, 97, 200, 224
-0.999533, 137, 337, 152, 464
-0.999535, 149, 353, 164, 480
-0.99954, 221, 193, 236, 320
-0.99954, 331, 321, 346, 448
-0.999541, 283, 353, 298, 480
-0.999555, 33, 157, 160, 188
-0.999555, 43, 193, 58, 320
-0.999558, 361, 241, 375, 368
-0.999559, 1, 209, 128, 240
-0.999562, 71, 177, 86, 304
-0.999564, 103, 225, 118, 352
-0.999565, 271, 193, 286, 320
-0.999569, 97, 177, 112, 304
-0.999569, 97, 1, 128, 128
-0.999577, 125, 353, 140, 480
-0.999577, 337, 273, 352, 400
-0.99958, 51, 1, 66, 128
-0.999584, 91, 337, 106, 464
-0.999587, 129, 33, 160, 288
-0.999591, 33, 17, 48, 144
-0.999593, 233, 289, 248, 416
-0.999594, 143, 17, 158, 144
-0.999595, 19, 193, 34, 320
-0.999596, 39, 1, 54, 128
-0.999602, 45, 1, 60, 128
-0.999603, 157, 97, 172, 224
-0.999604, 295, 321, 310, 448
-0.99961, 139, 469, 154, 484
-0.999611, 193, 291, 208, 306
-0.999611, 125, 315, 140, 330
-0.999611, 299, 469, 314, 484
-0.999611, 147, 191, 162, 206
-0.999611, 189, 477, 204, 492
-0.999611, 249, 459, 264, 474
-0.999612, 145, 449, 160, 464
-0.999613, 173, 433, 188, 448
-0.999615, 157, 283, 172, 298
-0.999618, 319, 445, 334, 460
-0.999618, 349, 473, 364, 488
-0.999619, 231, 471, 246, 486
-0.999619, 193, 427, 208, 442
-0.99962, 299, 459, 314, 474
-0.99962, 255, 465, 270, 480
-0.99962, 175, 291, 190, 306
-0.99962, 143, 477, 158, 492
-0.99962, 117, 449, 132, 464
-0.999621, 187, 159, 202, 174
-0.999621, 189, 277, 204, 292
-0.999622, 309, 399, 324, 414
-0.999623, 133, 447, 148, 462
-0.999623, 183, 435, 198, 450
-0.999623, 325, 451, 340, 466
-0.999626, 325, 411, 340, 426
-0.999626, 163, 155, 178, 170
-0.999626, 123, 441, 138, 456
-0.999626, 209, 485, 224, 500
-0.999627, 179, 443, 194, 458
-0.999627, 177, 297, 192, 312
-0.999627, 133, 463, 148, 478
-0.999628, 167, 281, 182, 296
-0.999628, 155, 447, 170, 462
-0.999628, 105, 463, 120, 478
-0.99963, 335, 423, 350, 438
-0.999631, 151, 51, 166, 66
-0.999631, 147, 311, 162, 326
-0.999632, 183, 275, 198, 290
-0.999632, 187, 427, 202, 442
-0.999634, 319, 427, 334, 442
-0.999634, 207, 441, 222, 456
-0.999634, 301, 433, 316, 448
-0.999636, 145, 303, 160, 318
-0.999637, 171, 449, 186, 464
-0.999638, 297, 409, 312, 424
-0.99964, 325, 431, 340, 446
-0.99964, 175, 321, 190, 336
-0.999642, 323, 401, 338, 416
-0.999643, 291, 419, 306, 434
-0.999644, 107, 475, 122, 490
-0.999645, 191, 169, 206, 184
-0.999645, 113, 441, 128, 456
-0.999645, 129, 321, 144, 336
-0.999646, 329, 397, 344, 412
-0.999647, 305, 439, 320, 454
-0.999648, 347, 259, 362, 274
-0.999648, 137, 481, 152, 496
-0.999648, 191, 445, 206, 460
-0.999649, 177, 311, 192, 326
-0.999649, 107, 481, 122, 496
-0.99965, 167, 455, 182, 470
-0.99965, 173, 275, 188, 290
-0.99965, 189, 307, 204, 322
-0.99965, 189, 459, 204, 474
-0.999652, 343, 439, 358, 454
-0.999653, 189, 437, 204, 452
-0.999654, 307, 261, 322, 276
-0.999655, 103, 447, 118, 462
-0.999656, 183, 459, 198, 474
-0.999657, 99, 477, 114, 492
-0.999659, 315, 259, 330, 274
-0.999662, 331, 417, 346, 432
-0.999665, 203, 471, 218, 486
-0.999665, 345, 417, 360, 432
-0.999665, 167, 443, 182, 458
-0.999666, 203, 447, 218, 462
-0.999667, 197, 455, 212, 470
-0.999669, 113, 457, 128, 472
-0.99967, 295, 449, 310, 464
-0.99967, 295, 429, 310, 444
-0.99967, 199, 439, 214, 454
-0.999673, 1, 33, 32, 288
-0.999674, 297, 255, 312, 270
-0.999674, 325, 423, 340, 438
-0.999676, 213, 161, 244, 416
-0.999677, 199, 431, 214, 446
-0.999679, 99, 453, 114, 468
-0.999679, 161, 439, 176, 454
-0.99968, 203, 477, 218, 492
-0.999681, 213, 475, 228, 490
-0.999684, 177, 5, 304, 36
-0.999684, 213, 467, 228, 482
-0.999685, 199, 465, 214, 480
-0.999685, 317, 395, 332, 410
-0.999686, 5, 193, 36, 448
-0.999689, 325, 437, 340, 452
-0.999689, 161, 447, 176, 462
-0.999689, 183, 301, 198, 316
-0.999691, 297, 415, 312, 430
-0.999691, 313, 455, 328, 470
-0.999691, 187, 451, 202, 466
-0.999692, 317, 417, 332, 432
-0.999695, 241, 221, 368, 252
-0.999695, 195, 473, 210, 488
-0.999696, 139, 57, 154, 72
-0.999696, 223, 481, 238, 496
-0.999698, 151, 441, 166, 456
-0.999698, 219, 473, 234, 488
-0.999698, 123, 447, 138, 462
-0.9997, 181, 449, 196, 464
-0.999703, 195, 483, 210, 498
-0.999704, 97, 57, 352, 120
-0.999704, 295, 437, 310, 452
-0.999705, 191, 175, 206, 190
-0.999706, 205, 465, 220, 480
-0.999711, 297, 423, 312, 438
-0.999714, 213, 453, 228, 468
-0.999716, 315, 435, 330, 450
-0.999716, 203, 457, 218, 472
-0.999719, 109, 451, 124, 466
-0.99972, 145, 483, 160, 498
-0.999721, 215, 459, 230, 474
-0.999721, 185, 291, 200, 306
-0.999725, 137, 475, 152, 490
-0.999728, 105, 457, 120, 472
-0.999729, 225, 473, 240, 488
-0.99973, 325, 417, 340, 432
-0.99973, 223, 467, 238, 482
-0.999732, 323, 395, 338, 410
-0.999734, 133, 469, 148, 484
-0.999737, 215, 481, 230, 496
-0.999747, 241, 1, 368, 64
-0.999749, 295, 443, 310, 458
-0.999754, 145, 53, 160, 68
-0.999761, 57, 257, 88, 500
-0.999762, 189, 299, 204, 314
-0.999765, 197, 449, 212, 464
-0.999786, 101, 129, 132, 256
-0.999806, 193, 129, 224, 384
-0.99983, 161, 21, 288, 52
-0.999833, 57, 1, 88, 256
-0.999885, 33, 241, 64, 368
-0.999907, 177, 45, 304, 76
-0.999996, 17, 193, 48, 448
-1.00002, 177, 33, 304, 64
-1.00003, 317, 129, 348, 384
-1.00006, 293, 129, 324, 384
-1.00009, 69, 65, 100, 320
-1.00009, 49, 21, 176, 52
-1.00009, 117, 65, 148, 320
-1.00016, 225, 1, 352, 128
-1.00017, 97, 65, 128, 320
-1.00019, 81, 129, 112, 256
-1.00019, 81, 1, 112, 256
-1.00025, 277, 161, 308, 416
-1.00026, 49, 49, 112, 176
-1.00029, 257, 129, 288, 384
-1.0003, 33, 257, 64, 500
-1.00035, 297, 177, 328, 304
-1.00038, 17, 145, 48, 272
-1.00038, 337, 129, 368, 384
-1.00042, 17, 97, 48, 352
-1.00045, 305, 129, 336, 384
-1.00047, 225, 129, 256, 384
-1.00047, 29, 145, 60, 272
-1.0005, 1, 73, 256, 136
-1.00061, 45, 257, 76, 500
-1.00071, 245, 97, 276, 352
-1.00078, 49, 241, 80, 368
-1.00082, 277, 65, 308, 320
-1.00085, 205, 65, 236, 320
-1.00095, 221, 33, 252, 288
-1.00095, 177, 73, 304, 136
-1.00097, 129, 105, 256, 168
-1.00099, 217, 145, 248, 272
-1.00099, 233, 33, 264, 288
-1.00101, 97, 105, 352, 168
-1.00105, 201, 1, 232, 128
-1.00106, 305, 97, 368, 352
-1.0011, 325, 177, 356, 304
-1.0011, 129, 81, 375, 144
-1.00111, 177, 1, 208, 128
-1.00116, 257, 33, 288, 288
-1.00116, 129, 73, 256, 136
-1.00118, 345, 33, 375, 288
-1.00119, 241, 153, 368, 216
-1.0012, 225, 49, 352, 112
-1.00122, 1, 105, 256, 168
-1.00132, 321, 33, 352, 288
-1.00132, 245, 1, 276, 256
-1.0014, 333, 1, 364, 256
-1.00145, 309, 33, 340, 288
-1.00153, 189, 1, 220, 128
-1.00153, 293, 33, 324, 288
-1.00159, 85, 1, 116, 128
-1.00162, 1, 97, 128, 160
-1.00165, 1, 81, 375, 144
-1.00178, 241, 25, 368, 88
-1.00194, 241, 105, 368, 168
-1.00217, 225, 81, 352, 144
-1.00227, 233, 97, 296, 352
-1.00231, 241, 129, 368, 192
-1.00246, 41, 129, 104, 256
-1.00253, 1, 105, 375, 168
-1.0026, 65, 105, 192, 168
-1.00263, 1, 137, 375, 200
-1.00264, 209, 49, 336, 176
-1.00326, 201, 33, 264, 288
-1.00338, 169, 97, 232, 224
-1.00345, 145, 49, 208, 176
-1.00418, 177, 105, 304, 168
-1.00427, 249, 145, 312, 272
-1.00429, 233, 1, 296, 128
-1.00557, 225, 97, 352, 224
-1.00619, 273, 33, 336, 288
-1.00636, 313, 1, 375, 256
-1.00659, 233, 1, 296, 256
-1.00661, 97, 49, 160, 176
-1.00786, 209, 49, 272, 176
-1.00796, 73, 49, 136, 176
-1.00822, 313, 1, 375, 128
-1.00897, 233, 49, 296, 176
-1.00906, 289, 1, 352, 128
-1.00943, 17, 97, 80, 224
-1.00946, 273, 129, 336, 256
-1.00949, 297, 145, 360, 272
-1.00991, 257, 17, 320, 144
-1.01264, 257, 65, 320, 192
-1.01341, 313, 97, 375, 224
-1.01351, 281, 49, 344, 176
-1.01387, 313, 49, 375, 176
-1.01414, 217, 97, 280, 224
