1969
-0.380752, 1, 129, 500, 375
-0.562835, 1, 33, 500, 288
-0.589892, 1, 1, 500, 375
-0.649107, 193, 97, 448, 352
-0.680148, 225, 1, 480, 375
-0.708029, 129, 1, 384, 375
-0.713672, 97, 129, 352, 375
-0.746101, 33, 1, 288, 375
-0.775995, 1, 129, 256, 375
-0.849126, 225, 1, 480, 256
-0.868358, 1, 33, 256, 288
-0.872441, 241, 129, 368, 375
-0.877117, 129, 1, 384, 256
-0.879048, 1, 177, 500, 304
-0.880517, 193, 97, 320, 352
-0.880879, 289, 129, 416, 375
-0.890593, 1, 129, 500, 256
-0.890985, 145, 129, 272, 375
-0.902635, 337, 97, 464, 352
-0.903435, 241, 1, 368, 375
-0.907835, 289, 33, 416, 288
-0.911673, 241, 1, 368, 256
-0.912652, 65, 129, 192, 375
-0.915396, 1, 225, 500, 352
-0.918464, 161, 1, 288, 375
-0.920338, 225, 225, 480, 352
-0.921493, 129, 177, 384, 304
-0.922241, 289, 1, 416, 375
-0.922622, 49, 1, 176, 375
-0.925999, 129, 113, 384, 240
-0.927253, 193, 1, 320, 256
-0.927816, 1, 1, 128, 375
-0.931073, 49, 33, 176, 288
-0.931854, 1, 129, 128, 375
-0.932305, 353, 1, 480, 375
-0.934307, 353, 1, 480, 256
-0.93502, 1, 81, 500, 208
-0.936676, 33, 241, 288, 368
-0.936777, 1, 161, 256, 288
-0.93852, 297, 97, 360, 224
-0.938524, 185, 241, 248, 368
-0.938974, 129, 33, 256, 288
-0.939871, 289, 129, 416, 256
-0.940307, 129, 241, 384, 368
-0.941021, 113, 1, 240, 375
-0.941244, 321, 241, 384, 368
-0.943485, 225, 97, 480, 224
-0.943953, 305, 209, 432, 336
-0.945154, 161, 113, 288, 240
-0.945229, 225, 177, 480, 304
-0.945534, 257, 241, 384, 368
-0.946048, 241, 177, 368, 304
-0.946948, 97, 177, 224, 304
-0.947884, 353, 225, 480, 352
-0.948056, 265, 145, 328, 272
-0.948688, 137, 129, 200, 256
-0.948738, 241, 97, 368, 224
-0.948741, 33, 113, 288, 240
-0.949172, 145, 241, 272, 368
-0.95062, 289, 193, 352, 320
-0.950764, 169, 129, 232, 256
-0.951394, 305, 145, 368, 272
-0.95176, 161, 177, 224, 304
-0.952065, 193, 241, 320, 368
-0.952462, 201, 113, 264, 240
-0.952605, 241, 97, 304, 224
-0.953235, 257, 241, 320, 368
-0.95361, 337, 129, 400, 256
-0.953685, 353, 209, 416, 336
-0.953906, 105, 209, 168, 336
-0.954242, 1, 17, 500, 144
-0.954259, 217, 241, 280, 368
-0.955129, 329, 193, 392, 320
-0.955379, 297, 153, 360, 216
-0.955416, 281, 241, 344, 368
-0.955461, 65, 225, 192, 352
-0.955721, 113, 161, 176, 288
-0.955912, 353, 161, 480, 288
-0.955956, 1, 1, 128, 256
-0.956761, 313, 305, 376, 368
-0.957033, 177, 177, 304, 304
-0.957073, 17, 161, 144, 288
-0.957466, 369, 161, 432, 288
-0.957926, 345, 281, 408, 344
-0.958063, 73, 209, 136, 336
-0.958159, 417, 241, 480, 368
-0.958928, 113, 129, 240, 256
-0.958968, 65, 129, 192, 256
-0.959265, 265, 97, 328, 224
-0.959979, 209, 289, 272, 352
-0.960174, 153, 153, 216, 216
-0.9605, 1, 241, 128, 368
-0.960944, 257, 169, 320, 232
-0.961009, 321, 121, 384, 184
-0.961336, 145, 241, 208, 368
-0.962022, 337, 257, 400, 320
-0.962248, 265, 113, 328, 176
-0.962275, 369, 289, 432, 352
-0.962306, 97, 65, 352, 192
-0.962609, 289, 81, 416, 208
-0.962644, 121, 185, 184, 248
-0.962738, 393, 209, 456, 336
-0.963065, 137, 177, 200, 304
-0.963377, 305, 225, 368, 288
-0.963506, 313, 265, 376, 328
-0.963645, 329, 217, 392, 280
-0.963699, 73, 161, 136, 288
-0.963895, 49, 241, 112, 368
-0.964248, 33, 161, 96, 288
-0.964362, 185, 177, 248, 304
-0.964379, 289, 281, 352, 344
-0.964462, 1, 209, 64, 336
-0.96453, 225, 193, 288, 320
-0.964812, 353, 313, 416, 375
-0.965015, 297, 121, 360, 184
-0.965912, 297, 97, 360, 160
-0.966215, 97, 217, 160, 280
-0.966846, 65, 257, 128, 320
-0.966893, 185, 129, 248, 192
-0.966966, 217, 265, 280, 328
-0.967005, 417, 313, 480, 375
-0.967065, 321, 193, 384, 256
-0.96713, 393, 289, 456, 352
-0.967893, 369, 265, 432, 328
-0.968209, 417, 193, 480, 320
-0.968236, 377, 241, 440, 304
-0.968271, 193, 257, 256, 320
-0.968296, 257, 297, 320, 360
-0.968722, 169, 249, 232, 312
-0.968901, 433, 273, 496, 336
-0.969123, 25, 241, 88, 368
-0.969496, 233, 297, 296, 360
-0.969607, 9, 185, 72, 248
-0.970085, 345, 137, 408, 200
-0.970246, 353, 201, 416, 264
-0.970317, 289, 249, 352, 312
-0.970889, 185, 281, 248, 344
-0.970892, 297, 201, 360, 264
-0.970982, 73, 289, 136, 352
-0.971084, 97, 313, 160, 375
-0.971152, 145, 129, 208, 192
-0.971381, 129, 249, 192, 312
-0.971487, 361, 209, 392, 336
-0.971635, 185, 153, 248, 216
-0.971753, 17, 113, 144, 240
-0.971774, 81, 169, 144, 232
-0.971789, 377, 209, 440, 272
-0.971879, 337, 113, 464, 240
-0.971898, 41, 153, 104, 216
-0.971931, 105, 145, 168, 208
-0.972016, 193, 313, 256, 375
-0.972327, 105, 241, 168, 304
-0.972373, 41, 281, 104, 344
-0.972485, 417, 241, 480, 304
-0.972552, 257, 145, 320, 208
-0.972657, 113, 113, 176, 240
-0.972731, 129, 153, 192, 216
-0.972784, 289, 313, 416, 375
-0.972995, 289, 313, 352, 375
-0.973029, 257, 33, 500, 160
-0.973055, 321, 289, 448, 352
-0.973381, 353, 225, 416, 288
-0.973402, 161, 297, 224, 360
-0.973641, 337, 81, 400, 208
-0.973648, 241, 49, 368, 176
-0.974281, 433, 201, 496, 264
-0.974287, 249, 257, 312, 320
-0.974288, 321, 33, 448, 160
-0.974559, 97, 289, 160, 352
-0.97489, 265, 193, 328, 320
-0.975001, 49, 225, 112, 288
-0.975005, 177, 177, 240, 240
-0.975079, 409, 217, 472, 280
-0.975152, 273, 97, 336, 352
-0.975193, 145, 193, 208, 256
-0.975235, 1, 65, 256, 192
-0.975459, 1, 161, 64, 224
-0.975483, 1, 289, 64, 352
-0.975486, 361, 289, 392, 352
-0.975527, 313, 97, 376, 352
-0.975633, 217, 161, 280, 224
-0.975647, 81, 193, 144, 256
-0.975661, 309, 289, 340, 352
-0.975791, 193, 305, 320, 368
-0.975853, 41, 113, 104, 240
-0.975944, 153, 273, 216, 336
-0.976152, 325, 113, 356, 240
-0.976282, 209, 177, 336, 240
-0.976287, 193, 65, 320, 192
-0.976401, 9, 161, 72, 288
-0.976537, 33, 249, 96, 312
-0.976597, 129, 313, 192, 375
-0.976612, 225, 121, 288, 184
-0.976633, 393, 265, 456, 328
-0.976752, 257, 121, 384, 184
-0.976854, 81, 113, 144, 240
-0.976963, 337, 225, 464, 288
-0.976998, 369, 177, 432, 240
-0.977076, 337, 161, 400, 224
-0.977208, 73, 233, 136, 296
-0.977244, 177, 113, 208, 240
-0.977265, 177, 129, 240, 375
-0.977349, 305, 105, 336, 168
-0.977466, 349, 241, 380, 368
-0.977558, 257, 289, 384, 352
-0.977594, 293, 113, 324, 240
-0.977642, 65, 145, 128, 208
-0.977678, 337, 129, 400, 375
-0.977749, 301, 129, 332, 192
-0.977839, 121, 217, 184, 280
-0.977851, 393, 313, 456, 375
-0.977867, 369, 313, 400, 375
-0.977908, 369, 305, 496, 368
-0.977944, 385, 265, 416, 328
-0.977979, 89, 265, 152, 328
-0.97798, 369, 273, 496, 336
-0.978022, 409, 193, 472, 256
-0.978075, 9, 257, 72, 320
-0.978085, 349, 265, 380, 328
-0.97812, 297, 49, 360, 176
-0.978165, 305, 129, 336, 256
-0.978235, 9, 225, 72, 288
-0.978342, 17, 113, 80, 240
-0.978343, 129, 273, 192, 336
-0.978348, 337, 289, 368, 352
-0.978497, 337, 225, 368, 288
-0.97853, 341, 313, 372, 375
-0.978558, 289, 177, 416, 240
-0.978594, 469, 273, 500, 336
-0.978599, 417, 145, 480, 272
-0.978652, 369, 257, 400, 320
-0.978728, 225, 185, 288, 248
-0.978822, 321, 281, 352, 344
-0.978824, 209, 121, 336, 184
-0.978863, 401, 289, 432, 352
-0.978903, 177, 153, 208, 216
-0.978918, 289, 113, 320, 176
-0.979176, 469, 297, 500, 360
-0.979273, 49, 65, 176, 192
-0.979294, 373, 281, 404, 344
-0.979334, 113, 209, 144, 336
-0.979407, 321, 201, 448, 264
-0.979458, 329, 113, 360, 176
-0.979475, 57, 177, 120, 240
-0.979559, 309, 225, 340, 352
-0.979614, 65, 313, 128, 375
-0.979635, 161, 129, 192, 256
-0.979659, 289, 257, 416, 320
-0.979722, 421, 217, 452, 280
-0.979806, 33, 177, 160, 240
-0.979952, 353, 225, 384, 288
-0.979995, 145, 49, 272, 176
-0.980013, 145, 281, 272, 344
-0.980015, 129, 153, 256, 216
-0.980097, 381, 129, 412, 256
-0.980103, 225, 257, 352, 320
-0.980105, 297, 177, 360, 240
-0.980174, 349, 129, 380, 192
-0.980312, 305, 153, 336, 216
-0.980356, 281, 97, 312, 224
-0.980408, 153, 225, 216, 288
-0.980409, 201, 193, 264, 256
-0.980432, 393, 161, 456, 288
-0.98046, 205, 241, 236, 368
-0.980495, 321, 305, 352, 368
-0.980556, 353, 249, 480, 312
-0.980564, 113, 305, 240, 368
-0.980576, 145, 129, 176, 256
-0.980622, 189, 177, 220, 304
-0.980644, 273, 49, 336, 176
-0.980645, 321, 193, 352, 320
-0.980767, 49, 145, 176, 208
-0.980784, 329, 193, 360, 256
-0.980809, 145, 129, 208, 375
-0.980824, 289, 145, 416, 208
-0.980839, 177, 129, 208, 192
-0.98084, 353, 129, 384, 256
-0.980872, 341, 177, 372, 304
-0.980943, 369, 193, 496, 256
-0.981, 113, 193, 240, 256
-0.981033, 17, 289, 144, 352
-0.981052, 405, 265, 436, 328
-0.98115, 241, 153, 368, 216
-0.981245, 317, 129, 348, 192
-0.981265, 193, 129, 224, 192
-0.98132, 225, 129, 288, 375
-0.981403, 177, 153, 304, 216
-0.981413, 197, 313, 228, 375
-0.981466, 33, 201, 96, 264
-0.981515, 137, 81, 200, 208
-0.981515, 361, 113, 424, 240
-0.981535, 113, 209, 144, 272
-0.981543, 221, 289, 252, 352
-0.981581, 353, 313, 384, 375
-0.981586, 385, 241, 416, 304
-0.981638, 161, 153, 192, 216
-0.981651, 453, 313, 484, 375
-0.981697, 245, 305, 276, 368
-0.981703, 125, 217, 156, 280
-0.981708, 197, 113, 228, 240
-0.981725, 409, 169, 472, 232
-0.981821, 389, 289, 420, 352
-0.98183, 129, 161, 160, 288
-0.98183, 153, 177, 184, 304
-0.981917, 241, 97, 304, 160
-0.982003, 321, 249, 352, 312
-0.982013, 121, 129, 184, 375
-0.982042, 161, 1, 416, 128
-0.982221, 201, 49, 264, 176
-0.982297, 337, 249, 368, 312
-0.982347, 241, 313, 368, 375
-0.982394, 161, 81, 224, 208
-0.982417, 297, 177, 328, 304
-0.982438, 241, 145, 304, 272
-0.982439, 49, 233, 176, 296
-0.982533, 173, 241, 204, 368
-0.982585, 249, 65, 312, 320
-0.982612, 1, 249, 128, 312
-0.982624, 269, 241, 300, 368
-0.982646, 337, 97, 400, 160
-0.982679, 437, 225, 468, 288
-0.982715, 225, 113, 256, 240
-0.982733, 81, 241, 112, 368
-0.982763, 145, 121, 272, 184
-0.982782, 81, 233, 112, 296
-0.982813, 81, 257, 112, 320
-0.982851, 257, 97, 384, 160
-0.982857, 177, 249, 208, 312
-0.982885, 17, 313, 80, 375
-0.982891, 273, 201, 336, 264
-0.982941, 49, 265, 176, 328
-0.98295, 109, 241, 140, 304
-0.98295, 301, 265, 332, 328
-0.982973, 309, 313, 340, 375
-0.983034, 281, 225, 344, 288
-0.983077, 161, 193, 288, 256
-0.983099, 365, 225, 396, 288
-0.983099, 33, 17, 288, 144
-0.983137, 465, 209, 496, 336
-0.983166, 141, 177, 172, 304
-0.983197, 193, 241, 224, 368
-0.98321, 337, 225, 368, 352
-0.983248, 177, 177, 208, 304
-0.983252, 193, 233, 256, 296
-0.983299, 185, 105, 248, 168
-0.983324, 145, 257, 272, 320
-0.983378, 249, 49, 312, 176
-0.983411, 13, 193, 44, 320
-0.983431, 297, 289, 328, 352
-0.983501, 361, 129, 424, 375
-0.983503, 413, 297, 444, 360
-0.98351, 81, 289, 112, 352
-0.983541, 281, 297, 312, 360
-0.983567, 345, 193, 376, 256
-0.983587, 65, 289, 192, 352
-0.983629, 101, 281, 132, 344
-0.983641, 97, 81, 224, 208
-0.983697, 61, 241, 92, 368
-0.983791, 297, 225, 328, 352
-0.983794, 97, 225, 128, 352
-0.983818, 233, 265, 264, 328
-0.983828, 233, 241, 264, 368
-0.983845, 349, 289, 380, 352
-0.98388, 261, 289, 292, 352
-0.983953, 197, 153, 228, 216
-0.983988, 161, 105, 224, 168
-0.984008, 65, 313, 192, 375
-0.984022, 209, 281, 336, 344
-0.98408, 373, 209, 404, 336
-0.984141, 425, 281, 456, 344
-0.984254, 65, 289, 96, 352
-0.984285, 341, 129, 372, 256
-0.984335, 297, 65, 328, 192
-0.984362, 365, 161, 396, 288
-0.984413, 285, 169, 316, 232
-0.984415, 417, 193, 448, 320
-0.984431, 109, 177, 140, 240
-0.984475, 325, 241, 356, 368
-0.984497, 201, 177, 232, 304
-0.984589, 129, 177, 160, 240
-0.984608, 249, 241, 280, 368
-0.98462, 361, 201, 392, 264
-0.984621, 289, 225, 416, 288
-0.984666, 57, 249, 88, 312
-0.98467, 405, 193, 436, 320
-0.984685, 217, 225, 248, 352
-0.98471, 385, 113, 448, 240
-0.984764, 213, 177, 244, 304
-0.984815, 209, 113, 240, 240
-0.984898, 205, 257, 236, 320
-0.984983, 165, 177, 196, 304
-0.984987, 33, 177, 96, 240
-0.985074, 205, 129, 236, 192
-0.985153, 141, 185, 172, 248
-0.985156, 109, 145, 140, 272
-0.98518, 93, 241, 124, 304
-0.985221, 217, 241, 280, 304
-0.985241, 217, 97, 280, 160
-0.985283, 93, 217, 124, 280
-0.9853, 449, 241, 480, 368
-0.985319, 233, 297, 264, 360
-0.98542, 269, 97, 300, 224
-0.985453, 425, 241, 456, 304
-0.985455, 337, 153, 464, 216
-0.985493, 33, 129, 96, 375
-0.985497, 281, 145, 312, 272
-0.985667, 41, 129, 104, 192
-0.985673, 157, 241, 188, 304
-0.985682, 33, 201, 160, 264
-0.985731, 149, 153, 180, 216
-0.985749, 273, 201, 400, 264
-0.985786, 353, 33, 416, 160
-0.985892, 149, 225, 180, 352
-0.985912, 369, 145, 432, 208
-0.985954, 1, 225, 128, 288
-0.985965, 381, 313, 412, 375
-0.985988, 245, 97, 276, 224
-0.986066, 9, 137, 72, 200
-0.986114, 285, 241, 316, 368
-0.986136, 385, 225, 416, 352
-0.986147, 201, 97, 264, 352
-0.986221, 421, 241, 452, 368
-0.986222, 241, 233, 368, 296
-0.986261, 309, 81, 340, 208
-0.986271, 385, 217, 416, 280
-0.986276, 325, 225, 356, 288
-0.986283, 1, 145, 128, 208
-0.986298, 457, 289, 488, 352
-0.986334, 193, 289, 224, 352
-0.986385, 113, 217, 240, 280
-0.986415, 461, 217, 492, 280
-0.986421, 9, 193, 40, 256
-0.986475, 81, 129, 144, 375
-0.986506, 21, 177, 52, 240
-0.986524, 17, 313, 144, 375
-0.98653, 169, 201, 232, 264
-0.986568, 401, 209, 432, 272
-0.986589, 433, 129, 496, 375
-0.986601, 121, 121, 184, 184
-0.986637, 361, 129, 392, 192
-0.986642, 221, 257, 252, 320
-0.986669, 297, 1, 360, 256
-0.986684, 225, 129, 256, 192
-0.986707, 445, 281, 476, 344
-0.986734, 69, 153, 100, 216
-0.98674, 17, 289, 48, 352
-0.986777, 265, 89, 328, 152
-0.986819, 225, 177, 256, 304
-0.986845, 345, 105, 376, 168
-0.986868, 265, 161, 296, 288
-0.986934, 385, 129, 448, 375
-0.986958, 305, 201, 336, 264
-0.987024, 97, 177, 128, 304
-0.987034, 201, 177, 232, 240
-0.987038, 305, 241, 336, 304
-0.987046, 33, 161, 64, 288
-0.987063, 177, 281, 208, 344
-0.987068, 41, 313, 104, 375
-0.987078, 137, 145, 168, 208
-0.987095, 97, 129, 224, 192
-0.987111, 93, 169, 124, 232
-0.98715, 61, 177, 92, 304
-0.987214, 277, 105, 308, 168
-0.9873, 97, 265, 224, 328
-0.987307, 165, 129, 196, 192
-0.987345, 241, 113, 272, 176
-0.987364, 129, 209, 160, 336
-0.987423, 433, 177, 496, 240
-0.987424, 77, 313, 108, 375
-0.987429, 97, 121, 160, 184
-0.987492, 209, 297, 240, 360
-0.98753, 417, 193, 448, 256
-0.987607, 273, 1, 400, 128
-0.987654, 209, 97, 336, 160
-0.987728, 401, 185, 432, 248
-0.987755, 321, 65, 352, 192
-0.987766, 141, 313, 172, 375
-0.987774, 77, 161, 108, 288
-0.987812, 281, 145, 312, 208
-0.987865, 125, 289, 156, 352
-0.987912, 217, 217, 280, 280
-0.987913, 69, 233, 100, 296
-0.987919, 161, 233, 288, 296
-0.98796, 69, 257, 100, 320
-0.987992, 129, 241, 160, 304
-0.988004, 393, 313, 424, 375
-0.988025, 57, 145, 88, 208
-0.988032, 369, 65, 496, 192
-0.988087, 261, 113, 292, 176
-0.988101, 113, 265, 144, 328
-0.988102, 225, 49, 288, 176
-0.988112, 253, 177, 284, 304
-0.988126, 373, 185, 404, 248
-0.988126, 53, 281, 84, 344
-0.988133, 45, 161, 76, 224
-0.988275, 405, 241, 436, 304
-0.988336, 141, 241, 172, 304
-0.988413, 257, 97, 288, 224
-0.988466, 245, 281, 276, 344
-0.988476, 81, 169, 208, 232
-0.988489, 381, 145, 412, 208
-0.988537, 93, 129, 124, 256
-0.988616, 305, 105, 432, 168
-0.98864, 181, 185, 212, 248
-0.98864, 61, 129, 92, 256
-0.98865, 385, 65, 448, 192
-0.988657, 341, 65, 372, 192
-0.988704, 429, 193, 460, 320
-0.988711, 297, 1, 360, 128
-0.988722, 317, 193, 348, 256
-0.988783, 161, 241, 192, 368
-0.988801, 249, 233, 312, 296
-0.988868, 349, 169, 380, 232
-0.988892, 469, 249, 500, 312
-0.988926, 49, 241, 80, 368
-0.989044, 153, 185, 184, 248
-0.989073, 105, 65, 168, 192
-0.989075, 337, 281, 400, 312
-0.989078, 309, 177, 340, 304
-0.989097, 297, 117, 360, 148
-0.9891, 289, 249, 320, 312
-0.989116, 329, 137, 360, 200
-0.989125, 57, 129, 120, 375
-0.989158, 65, 121, 128, 184
-0.989179, 337, 137, 400, 168
-0.989202, 213, 193, 244, 256
-0.989255, 437, 201, 468, 264
-0.989344, 313, 309, 376, 340
-0.989345, 329, 217, 392, 248
-0.989373, 49, 193, 80, 320
-0.989394, 297, 133, 360, 164
-0.9894, 209, 293, 272, 324
-0.989413, 329, 229, 392, 260
-0.989421, 1, 129, 64, 375
-0.989441, 353, 265, 416, 296
-0.989529, 361, 105, 424, 168
-0.989582, 345, 313, 408, 344
-0.989602, 49, 121, 176, 184
-0.989608, 225, 201, 352, 264
-0.98963, 25, 209, 56, 336
-0.989695, 237, 193, 268, 320
-0.989717, 449, 193, 480, 320
-0.989801, 313, 321, 376, 352
-0.98982, 321, 121, 384, 152
-0.989827, 265, 285, 328, 316
-0.989869, 289, 313, 352, 344
-0.98989, 397, 241, 428, 368
-0.989893, 273, 297, 336, 328
-0.989898, 289, 285, 352, 316
-0.989898, 321, 17, 384, 144
-0.989903, 257, 177, 320, 208
-0.989904, 273, 325, 336, 356
-0.989933, 241, 305, 304, 336
-0.989941, 1, 241, 32, 368
-0.989953, 97, 241, 224, 304
-0.989963, 193, 281, 256, 312
-0.989983, 185, 1, 248, 256
-0.990002, 393, 301, 456, 332
-0.990003, 313, 253, 376, 284
-0.990004, 337, 253, 400, 284
-0.990036, 369, 209, 432, 240
-0.990038, 369, 309, 432, 340
-0.990053, 369, 285, 432, 316
-0.990062, 345, 33, 408, 288
-0.990068, 257, 121, 320, 152
-0.990074, 461, 161, 492, 288
-0.990082, 337, 301, 400, 332
-0.990106, 37, 225, 68, 352
-0.990119, 353, 325, 416, 356
-0.990127, 313, 333, 376, 364
-0.990131, 209, 265, 272, 296
-0.990134, 377, 273, 440, 304
-0.990134, 233, 293, 296, 324
-0.990145, 169, 253, 232, 284
-0.990149, 353, 237, 416, 268
-0.990158, 337, 129, 464, 192
-0.990195, 329, 269, 392, 300
-0.990242, 313, 241, 376, 272
-0.990252, 433, 309, 496, 340
-0.990318, 289, 341, 352, 372
-0.990389, 177, 269, 240, 300
-0.990409, 313, 281, 376, 312
-0.990414, 97, 177, 160, 208
-0.990429, 273, 133, 336, 164
-0.99043, 193, 317, 256, 348
-0.990437, 153, 33, 216, 288
-0.990449, 369, 337, 432, 368
-0.990461, 385, 221, 448, 252
-0.990539, 345, 149, 408, 180
-0.990548, 297, 157, 360, 188
-0.990583, 233, 281, 296, 312
-0.990585, 153, 301, 216, 332
-0.990594, 209, 305, 272, 336
-0.990596, 305, 297, 368, 328
-0.990613, 305, 229, 368, 260
-0.990623, 297, 105, 360, 136
-0.990644, 417, 321, 480, 352
-0.990716, 313, 145, 376, 176
-0.990756, 305, 265, 368, 296
-0.990768, 1, 177, 32, 304
-0.99078, 297, 73, 360, 136
-0.990782, 417, 297, 480, 328
-0.990809, 433, 285, 496, 316
-0.990819, 145, 97, 272, 160
-0.990822, 345, 337, 408, 368
-0.99083, 281, 145, 344, 176
-0.990862, 217, 317, 280, 348
-0.990885, 41, 173, 104, 204
-0.990888, 305, 197, 368, 228
-0.990897, 313, 345, 376, 375
-0.990899, 65, 241, 128, 272
-0.990901, 393, 313, 456, 344
-0.990903, 225, 165, 288, 196
-0.990917, 89, 221, 152, 252
-0.990928, 433, 265, 496, 296
-0.990945, 41, 285, 104, 316
-0.990946, 433, 333, 496, 364
-0.990948, 369, 297, 432, 328
-0.99096, 121, 113, 152, 240
-0.990964, 377, 261, 440, 292
-0.990969, 57, 201, 120, 264
-0.99097, 353, 221, 416, 252
-0.990978, 393, 289, 456, 320
-0.990983, 153, 273, 216, 304
-0.990987, 265, 249, 328, 280
-0.990989, 369, 33, 432, 288
-0.990996, 297, 181, 360, 212
-0.991012, 169, 313, 232, 344
-0.991034, 201, 185, 264, 216
-0.991038, 401, 189, 464, 220
-0.991038, 201, 253, 264, 284
-0.991044, 73, 281, 136, 312
-0.991055, 73, 177, 136, 208
-0.991056, 9, 309, 72, 340
-0.991063, 433, 225, 496, 256
-0.991064, 177, 293, 240, 324
-0.991072, 113, 245, 176, 276
-0.991093, 65, 293, 128, 324
-0.991097, 81, 257, 144, 288
-0.991105, 17, 17, 144, 144
-0.991109, 17, 205, 80, 236
-0.991129, 129, 269, 192, 300
-0.991149, 297, 169, 360, 200
-0.991158, 289, 241, 352, 272
-0.991164, 169, 325, 232, 356
-0.991168, 389, 177, 420, 304
-0.991189, 65, 165, 128, 196
-0.991193, 321, 81, 448, 144
-0.991198, 177, 153, 240, 184
-0.991201, 49, 273, 112, 304
-0.991203, 121, 185, 184, 216
-0.991203, 369, 249, 432, 280
-0.991208, 257, 189, 320, 220
-0.991219, 437, 241, 468, 368
-0.991219, 1, 189, 64, 220
-0.991246, 401, 233, 464, 264
-0.991253, 265, 313, 328, 344
-0.991257, 241, 325, 304, 356
-0.99126, 1, 281, 256, 344
-0.991264, 89, 209, 152, 240
-0.991287, 361, 197, 424, 228
-0.991308, 145, 253, 208, 284
-0.991342, 73, 269, 136, 300
-0.991344, 153, 133, 216, 164
-0.991346, 257, 109, 320, 140
-0.991361, 329, 205, 392, 236
-0.991366, 105, 257, 168, 288
-0.991408, 33, 161, 96, 192
-0.991421, 329, 189, 392, 220
-0.991425, 257, 165, 320, 196
-0.991435, 105, 309, 168, 340
-0.99145, 409, 201, 472, 232
-0.991481, 257, 149, 320, 180
-0.991481, 265, 337, 328, 368
-0.991497, 105, 329, 168, 360
-0.991502, 33, 221, 96, 252
-0.991503, 169, 185, 232, 216
-0.991504, 129, 309, 192, 340
-0.991508, 97, 105, 224, 168
-0.991512, 17, 173, 80, 204
-0.991514, 417, 145, 480, 208
-0.991519, 393, 329, 456, 360
-0.991536, 81, 65, 144, 192
-0.991549, 201, 121, 264, 152
-0.99155, 409, 221, 472, 252
-0.991562, 41, 65, 104, 192
-0.991564, 105, 273, 168, 304
-0.991587, 45, 129, 76, 256
-0.991697, 257, 289, 500, 352
-0.99191, 257, 73, 384, 136
-0.991963, 353, 41, 416, 104
-0.991967, 161, 289, 416, 352
-0.991981, 321, 1, 384, 256
-0.992084, 321, 41, 448, 104
-0.992147, 309, 133, 340, 164
-0.992163, 385, 17, 448, 144
-0.992194, 401, 145, 432, 272
-0.992217, 325, 121, 356, 152
-0.992285, 273, 1, 336, 375
-0.992339, 469, 337, 500, 368
-0.992399, 357, 221, 388, 252
-0.992411, 249, 289, 280, 320
-0.992413, 345, 133, 376, 164
-0.992422, 353, 105, 480, 168
-0.992431, 321, 137, 352, 168
-0.992483, 225, 265, 480, 328
-0.992495, 409, 129, 472, 375
-0.992504, 381, 293, 412, 324
-0.992513, 357, 309, 388, 340
-0.992533, 333, 237, 364, 268
-0.992544, 373, 309, 404, 340
-0.992547, 309, 297, 340, 328
-0.992548, 341, 277, 372, 308
-0.992579, 401, 305, 432, 336
-0.99258, 301, 113, 332, 144
-0.992583, 325, 285, 356, 316
-0.992583, 209, 273, 240, 304
-0.992592, 365, 281, 396, 312
-0.992592, 373, 321, 404, 352
-0.992607, 393, 325, 424, 356
-0.992612, 301, 153, 332, 184
-0.992618, 321, 333, 352, 364
-0.992624, 97, 185, 352, 248
-0.992633, 257, 305, 288, 336
-0.992646, 157, 81, 188, 208
-0.992647, 333, 133, 364, 164
-0.992651, 133, 113, 164, 240
-0.992654, 469, 325, 500, 356
-0.99266, 465, 305, 496, 336
-0.99266, 365, 261, 396, 292
-0.992663, 333, 221, 364, 252
-0.992665, 345, 221, 376, 252
-0.99268, 129, 161, 384, 224
-0.99268, 409, 241, 440, 368
-0.992682, 293, 125, 324, 156
-0.992685, 281, 193, 312, 320
-0.992687, 353, 277, 384, 308
-0.992688, 265, 65, 328, 128
-0.992688, 305, 333, 336, 364
-0.99269, 345, 209, 376, 240
-0.9927, 365, 293, 396, 324
-0.992705, 269, 289, 300, 320
-0.992706, 1, 177, 256, 240
-0.992713, 393, 137, 456, 200
-0.992719, 341, 305, 372, 336
-0.992721, 445, 305, 476, 336
-0.992722, 389, 305, 420, 336
-0.992723, 301, 313, 332, 344
-0.992724, 197, 253, 228, 284
-0.992728, 197, 317, 228, 348
-0.992731, 321, 313, 352, 344
-0.992731, 57, 1, 120, 375
-0.992733, 381, 273, 412, 304
-0.992752, 365, 241, 396, 272
-0.992754, 233, 297, 264, 328
-0.992754, 221, 257, 252, 288
-0.992755, 329, 345, 360, 375
-0.992756, 245, 305, 276, 336
-0.992759, 373, 333, 404, 364
-0.992759, 345, 249, 376, 280
-0.992777, 173, 293, 204, 324
-0.992778, 213, 305, 244, 336
-0.992784, 341, 121, 372, 152
-0.992786, 297, 293, 328, 324
-0.992791, 353, 233, 384, 264
-0.992794, 345, 333, 376, 364
-0.992799, 417, 305, 448, 336
-0.992799, 425, 293, 456, 324
-0.992802, 113, 209, 144, 240
-0.992803, 221, 317, 252, 348
-0.992805, 357, 133, 388, 164
-0.992814, 341, 321, 372, 352
-0.992814, 361, 321, 392, 352
-0.992817, 97, 257, 128, 288
-0.992822, 281, 169, 312, 200
-0.992822, 317, 241, 348, 272
-0.992824, 401, 285, 432, 316
-0.992829, 393, 249, 424, 280
-0.992829, 321, 297, 352, 328
-0.992834, 329, 257, 360, 288
-0.992838, 193, 293, 224, 324
-0.992841, 309, 345, 340, 375
-0.992842, 453, 317, 484, 348
-0.992846, 421, 217, 452, 248
-0.992847, 313, 105, 344, 136
-0.992862, 109, 257, 140, 288
-0.992863, 385, 337, 416, 368
-0.992864, 377, 237, 408, 268
-0.992868, 1, 65, 64, 192
-0.99287, 229, 269, 260, 300
-0.992882, 105, 277, 136, 308
-0.992882, 73, 281, 104, 312
-0.992889, 457, 337, 488, 368
-0.992898, 93, 273, 124, 304
-0.992899, 297, 137, 328, 168
-0.9929, 161, 121, 416, 184
-0.992901, 357, 209, 388, 240
-0.992902, 117, 273, 148, 304
-0.992904, 353, 289, 384, 320
-0.992905, 377, 221, 408, 252
-0.992906, 105, 177, 136, 208
-0.992911, 369, 141, 400, 172
-0.992912, 81, 1, 144, 128
-0.992914, 9, 113, 72, 176
-0.992914, 193, 305, 224, 336
-0.992921, 281, 329, 312, 360
-0.992923, 349, 261, 380, 292
-0.992929, 57, 161, 88, 192
-0.992929, 313, 121, 344, 152
-0.99293, 125, 213, 156, 244
-0.992932, 321, 225, 352, 256
-0.992933, 189, 277, 220, 308
-0.992947, 377, 261, 408, 292
-0.992948, 173, 249, 204, 280
-0.992949, 169, 137, 200, 168
-0.99295, 129, 33, 192, 288
-0.992951, 45, 173, 76, 204
-0.992957, 153, 257, 184, 288
-0.992959, 237, 285, 268, 316
-0.992965, 293, 333, 324, 364
-0.992965, 281, 117, 312, 148
-0.992967, 81, 233, 112, 264
-0.992973, 401, 337, 432, 368
-0.992976, 301, 281, 332, 312
-0.992977, 173, 265, 204, 296
-0.992978, 437, 317, 468, 348
-0.992979, 289, 281, 320, 312
-0.992984, 397, 209, 428, 240
-0.992985, 465, 289, 496, 320
-0.992987, 393, 273, 424, 304
-0.992988, 133, 269, 164, 300
-0.992988, 221, 293, 252, 324
-0.992996, 413, 257, 444, 288
-0.992997, 77, 261, 108, 292
-0.993, 333, 193, 364, 224
-0.993002, 433, 237, 464, 268
-0.993006, 89, 173, 120, 204
-0.993009, 113, 245, 144, 276
-0.99301, 413, 289, 444, 320
-0.993015, 233, 317, 264, 348
-0.993021, 13, 145, 44, 272
-0.993028, 9, 197, 40, 228
-0.993031, 353, 121, 384, 152
-0.993037, 9, 317, 40, 348
-0.993041, 301, 241, 332, 272
-0.993041, 357, 337, 388, 368
-0.993086, 1, 121, 500, 184
-0.993121, 33, 153, 288, 216
-0.99314, 209, 1, 272, 375
-0.993224, 33, 257, 288, 320
-0.993235, 137, 97, 200, 160
-0.993258, 13, 241, 44, 368
-0.993338, 1, 177, 500, 240
-0.993358, 285, 49, 316, 176
-0.993402, 1, 65, 128, 192
-0.993405, 193, 225, 448, 288
-0.993411, 225, 1, 352, 128
-0.993473, 129, 249, 384, 312
-0.993499, 237, 145, 268, 272
-0.993522, 289, 17, 416, 80
-0.99353, 65, 1, 192, 128
-0.993559, 225, 169, 480, 232
-0.993659, 337, 73, 400, 136
-0.993669, 377, 49, 440, 112
-0.993683, 369, 1, 496, 128
-0.993808, 225, 33, 288, 288
-0.99385, 209, 65, 336, 128
-0.993869, 337, 305, 464, 336
-0.993877, 393, 33, 456, 288
-0.99388, 33, 1, 96, 375
-0.993886, 225, 49, 256, 176
-0.99396, 193, 201, 448, 264
-0.993975, 1, 121, 128, 184
-0.993997, 273, 41, 400, 104
-0.994024, 233, 1, 296, 375
-0.994073, 225, 297, 352, 328
-0.994082, 1, 313, 256, 375
-0.994104, 297, 1, 360, 375
-0.994164, 353, 1, 416, 375
-0.994181, 65, 129, 320, 192
-0.994255, 305, 293, 432, 324
-0.994319, 377, 1, 440, 375
-0.994339, 209, 189, 336, 220
-0.994369, 1, 265, 500, 328
-0.994383, 321, 1, 384, 375
-0.994388, 233, 73, 296, 136
-0.994409, 305, 281, 432, 312
-0.994422, 77, 113, 108, 240
-0.994429, 237, 49, 268, 176
-0.994433, 161, 281, 288, 312
-0.994498, 97, 313, 352, 375
-0.994559, 241, 117, 368, 148
-0.994568, 305, 333, 432, 364
-0.99458, 429, 145, 460, 272
-0.994584, 289, 317, 416, 348
-0.994587, 369, 289, 384, 352
-0.994625, 1, 145, 500, 208
-0.99463, 369, 317, 496, 348
-0.994633, 289, 137, 416, 168
-0.994654, 289, 189, 416, 220
-0.994711, 385, 73, 448, 136
-0.994721, 241, 309, 368, 340
-0.994754, 105, 1, 168, 375
-0.994762, 379, 273, 394, 336
-0.994807, 369, 81, 400, 208
-0.994813, 129, 313, 256, 344
-0.994816, 483, 297, 498, 360
-0.994822, 225, 145, 480, 208
-0.994863, 303, 113, 318, 176
-0.994938, 109, 81, 140, 208
-0.994943, 177, 329, 304, 360
-0.994966, 33, 65, 160, 128
-0.995029, 1, 41, 128, 104
-0.995035, 113, 269, 240, 300
-0.99507, 309, 113, 324, 176
-0.99508, 337, 225, 464, 256
-0.995082, 241, 177, 368, 208
-0.995113, 1, 297, 500, 360
-0.995141, 193, 253, 320, 284
-0.995151, 369, 337, 496, 368
-0.99518, 353, 273, 480, 304
-0.99518, 113, 97, 176, 160
-0.995187, 185, 1, 248, 375
-0.995198, 445, 145, 476, 272
-0.995209, 193, 309, 320, 340
-0.99524, 355, 225, 370, 288
-0.995243, 369, 313, 384, 375
-0.995267, 1, 225, 256, 288
-0.995313, 33, 177, 160, 208
-0.995339, 355, 265, 370, 328
-0.995339, 369, 201, 496, 232
-0.995346, 161, 293, 288, 324
-0.995373, 363, 289, 378, 352
-0.99538, 33, 113, 64, 240
-0.995386, 241, 285, 368, 316
-0.995388, 225, 333, 352, 364
-0.995389, 353, 293, 480, 324
-0.995393, 273, 1, 336, 256
-0.995429, 1, 129, 32, 256
-0.995429, 225, 129, 352, 160
-0.99543, 1, 217, 128, 248
-0.995434, 1, 1, 64, 375
-0.995436, 289, 345, 416, 375
-0.995449, 345, 257, 360, 320
-0.995455, 391, 281, 406, 344
-0.995471, 315, 113, 330, 176
-0.995494, 33, 285, 160, 316
-0.99551, 289, 125, 416, 156
-0.995513, 379, 249, 394, 312
-0.995517, 345, 281, 360, 344
-0.995538, 189, 153, 204, 216
-0.995545, 209, 41, 336, 104
-0.995563, 225, 313, 480, 375
-0.995569, 345, 225, 360, 288
-0.995577, 195, 153, 210, 216
-0.995626, 289, 237, 416, 268
-0.995634, 421, 281, 436, 344
-0.995655, 263, 297, 278, 360
-0.995665, 355, 289, 370, 352
-0.995666, 191, 129, 206, 192
-0.995679, 81, 257, 96, 320
-0.995679, 247, 297, 262, 360
-0.99568, 145, 177, 272, 208
-0.995686, 369, 65, 496, 128
-0.995687, 485, 273, 500, 336
-0.995696, 357, 81, 388, 208
-0.995698, 1, 241, 500, 304
-0.995707, 161, 269, 288, 300
-0.995731, 399, 289, 414, 352
-0.995737, 297, 49, 360, 112
-0.995737, 385, 105, 448, 168
-0.995743, 469, 313, 484, 375
-0.995757, 17, 313, 144, 344
-0.995769, 359, 313, 374, 375
-0.995774, 303, 281, 318, 344
-0.995782, 113, 297, 240, 328
-0.99581, 289, 265, 416, 296
-0.995822, 325, 129, 340, 192
-0.995832, 17, 33, 80, 288
-0.99585, 335, 113, 350, 176
-0.995851, 289, 177, 416, 208
-0.99586, 415, 289, 430, 352
-0.995863, 477, 297, 492, 360
-0.995864, 323, 289, 338, 352
-0.995869, 405, 289, 420, 352
-0.995875, 137, 1, 200, 375
-0.995875, 473, 273, 488, 336
-0.995892, 193, 177, 320, 208
-0.9959, 177, 129, 304, 160
-0.995912, 403, 265, 418, 328
-0.995926, 349, 185, 364, 248
-0.995927, 361, 265, 376, 328
-0.995934, 57, 1, 120, 256
-0.995943, 429, 217, 444, 280
-0.995948, 83, 281, 98, 344
-0.995953, 289, 305, 416, 336
-0.99596, 241, 245, 368, 276
-0.99596, 49, 97, 176, 160
-0.995961, 337, 237, 464, 268
-0.995971, 321, 97, 352, 352
-0.995999, 353, 213, 480, 244
-0.996006, 383, 297, 398, 360
-0.996012, 321, 253, 448, 284
-0.996013, 239, 265, 254, 328
-0.996037, 359, 129, 374, 192
-0.996042, 145, 81, 176, 208
-0.996043, 145, 253, 272, 284
-0.996052, 213, 305, 228, 368
-0.996056, 369, 33, 496, 96
-0.996063, 113, 325, 240, 356
-0.996066, 167, 153, 182, 216
-0.99607, 387, 257, 402, 320
-0.996076, 85, 233, 100, 296
-0.996086, 311, 137, 326, 200
-0.996087, 481, 249, 496, 312
-0.996091, 369, 209, 384, 272
-0.996092, 289, 201, 416, 232
-0.9961, 113, 209, 128, 272
-0.996101, 241, 1, 368, 64
-0.996111, 305, 97, 336, 352
-0.996114, 257, 165, 384, 196
-0.996114, 1, 301, 128, 332
-0.996115, 257, 289, 272, 352
-0.996123, 65, 273, 192, 304
-0.996128, 81, 1, 144, 375
-0.996143, 183, 153, 198, 216
-0.996156, 75, 289, 90, 352
-0.996174, 95, 297, 110, 360
-0.996175, 297, 121, 312, 184
-0.996182, 49, 161, 176, 192
-0.996204, 269, 289, 284, 352
-0.99621, 105, 257, 120, 320
-0.99621, 33, 205, 160, 236
-0.996216, 193, 117, 320, 148
-0.996244, 337, 193, 352, 256
-0.996253, 11, 297, 26, 360
-0.996279, 319, 137, 334, 200
-0.996287, 235, 289, 250, 352
-0.996294, 109, 233, 124, 296
-0.996297, 203, 297, 218, 360
-0.996299, 125, 217, 140, 280
-0.996305, 113, 165, 240, 196
-0.996308, 257, 105, 384, 136
-0.996308, 113, 193, 240, 224
-0.996319, 397, 313, 412, 375
-0.996329, 295, 289, 310, 352
-0.996331, 321, 105, 336, 168
-0.996334, 161, 153, 176, 216
-0.996335, 75, 265, 90, 328
-0.996341, 117, 265, 132, 328
-0.996346, 317, 289, 332, 352
-0.996347, 343, 193, 358, 256
-0.99635, 227, 281, 242, 344
-0.996357, 145, 73, 272, 136
-0.996382, 333, 281, 348, 344
-0.996383, 179, 257, 194, 320
-0.996384, 419, 257, 434, 320
-0.996387, 427, 297, 442, 360
-0.996389, 93, 257, 108, 320
-0.996396, 339, 289, 354, 352
-0.996407, 309, 33, 340, 160
-0.996415, 241, 273, 368, 304
-0.996416, 185, 65, 216, 192
-0.996425, 329, 305, 344, 368
-0.996425, 99, 233, 114, 296
-0.996428, 233, 257, 248, 320
-0.996429, 123, 241, 138, 304
-0.996438, 97, 225, 352, 288
-0.99644, 1, 165, 128, 196
-0.996444, 397, 265, 412, 328
-0.996444, 223, 305, 238, 368
-0.996447, 241, 257, 368, 288
-0.996454, 309, 289, 324, 352
-0.996455, 305, 213, 432, 244
-0.996455, 373, 257, 388, 320
-0.996461, 387, 233, 402, 296
-0.996462, 347, 113, 362, 176
-0.996483, 451, 313, 466, 375
-0.996486, 105, 289, 120, 352
-0.996486, 375, 313, 390, 375
-0.996493, 177, 33, 240, 160
-0.996499, 213, 257, 228, 320
-0.9965, 435, 217, 450, 280
-0.996502, 99, 265, 114, 328
-0.996504, 197, 129, 212, 192
-0.99651, 81, 181, 208, 212
-0.996514, 183, 129, 198, 192
-0.996514, 131, 265, 146, 328
-0.996526, 169, 257, 184, 320
-0.996528, 13, 193, 28, 256
-0.996538, 65, 317, 192, 348
-0.996562, 17, 261, 144, 292
-0.996568, 115, 241, 130, 304
-0.996568, 333, 249, 348, 312
-0.996581, 409, 265, 424, 328
-0.996589, 417, 145, 448, 272
-0.996591, 147, 257, 162, 320
-0.996592, 367, 249, 382, 312
-0.996593, 339, 225, 354, 288
-0.996596, 321, 201, 336, 264
-0.996596, 441, 217, 456, 280
-0.996602, 121, 177, 136, 240
-0.996606, 81, 253, 208, 284
-0.99661, 257, 149, 384, 180
-0.996611, 209, 165, 336, 196
-0.996623, 213, 65, 244, 192
-0.996625, 365, 129, 380, 192
-0.996632, 131, 201, 146, 264
-0.996635, 361, 217, 376, 280
-0.996635, 161, 197, 288, 228
-0.99665, 317, 249, 332, 312
-0.996652, 465, 289, 480, 352
-0.996654, 229, 121, 244, 184
-0.996675, 119, 201, 134, 264
-0.996682, 65, 33, 192, 96
-0.996687, 61, 249, 76, 312
-0.996697, 369, 249, 496, 280
-0.996699, 273, 113, 288, 176
-0.996704, 293, 145, 308, 208
-0.996721, 89, 33, 152, 288
-0.996721, 449, 281, 464, 344
-0.996723, 485, 225, 500, 288
-0.996726, 49, 149, 176, 180
-0.99673, 1, 209, 500, 272
-0.996733, 211, 121, 226, 184
-0.996735, 201, 153, 216, 216
-0.996748, 125, 297, 140, 360
-0.996749, 227, 249, 242, 312
-0.99675, 221, 281, 236, 344
-0.996753, 161, 1, 224, 375
-0.996759, 79, 313, 94, 375
-0.996759, 173, 153, 188, 216
-0.99677, 17, 297, 32, 360
-0.99677, 225, 345, 352, 375
-0.996773, 81, 285, 208, 316
-0.996803, 409, 81, 472, 208
-0.996804, 241, 321, 368, 352
-0.996818, 65, 221, 192, 252
-0.996852, 129, 49, 256, 112
-0.996852, 333, 129, 364, 375
-0.99692, 129, 33, 192, 160
-0.996933, 313, 133, 328, 164
-0.99694, 1, 97, 128, 160
-0.996986, 129, 97, 384, 160
-0.996995, 65, 329, 192, 360
-0.997025, 289, 97, 320, 352
-0.997055, 397, 65, 428, 192
-0.997055, 17, 273, 144, 304
-0.997069, 257, 97, 500, 160
-0.997073, 305, 149, 432, 180
-0.997089, 401, 1, 464, 375
-0.997104, 337, 181, 464, 212
-0.997118, 113, 137, 240, 168
-0.997141, 129, 149, 256, 180
-0.997163, 97, 81, 224, 144
-0.997168, 381, 81, 412, 208
-0.99717, 177, 129, 208, 375
-0.99722, 325, 1, 356, 128
-0.997221, 65, 301, 192, 332
-0.997227, 49, 237, 176, 268
-0.997264, 369, 9, 496, 72
-0.997272, 149, 129, 180, 375
-0.997273, 1, 201, 256, 264
-0.997297, 249, 49, 280, 176
-0.997321, 273, 225, 400, 256
-0.997328, 81, 57, 208, 120
-0.997376, 129, 337, 256, 368
-0.997386, 319, 293, 334, 324
-0.997393, 261, 49, 292, 176
-0.997397, 477, 325, 492, 356
-0.997457, 33, 97, 288, 160
-0.997464, 1, 149, 128, 180
-0.997466, 277, 129, 308, 375
-0.997471, 323, 137, 338, 168
-0.997471, 353, 121, 368, 152
-0.997473, 337, 169, 464, 200
-0.997482, 347, 125, 362, 156
-0.997485, 349, 97, 380, 352
-0.997486, 317, 333, 332, 364
-0.997487, 193, 1, 320, 64
-0.997492, 369, 261, 496, 292
-0.997498, 211, 261, 226, 292
-0.997501, 397, 313, 412, 344
-0.99751, 129, 241, 256, 272
-0.997512, 305, 117, 320, 148
-0.997514, 483, 337, 498, 368
-0.997515, 471, 309, 486, 340
-0.997536, 337, 121, 352, 152
-0.997544, 225, 201, 352, 232
-0.997545, 1, 249, 128, 280
-0.997552, 381, 301, 396, 332
-0.997555, 1, 189, 128, 220
-0.997558, 209, 145, 336, 176
-0.997564, 257, 293, 272, 324
-0.997571, 337, 117, 464, 148
-0.997579, 377, 281, 392, 312
-0.997584, 351, 229, 366, 260
-0.997602, 263, 289, 278, 320
-0.997604, 367, 217, 382, 248
-0.997609, 345, 277, 360, 308
-0.997615, 299, 109, 314, 140
-0.997617, 197, 129, 228, 375
-0.997627, 257, 121, 500, 184
-0.997633, 17, 17, 144, 80
-0.997635, 389, 17, 420, 144
-0.997639, 359, 277, 374, 308
-0.997643, 273, 49, 304, 176
-0.99765, 375, 329, 390, 360
-0.997654, 485, 325, 500, 356
-0.997667, 433, 1, 496, 375
-0.997674, 65, 193, 192, 224
-0.997688, 423, 289, 438, 320
-0.997693, 395, 325, 410, 356
-0.997695, 373, 317, 388, 348
-0.997709, 241, 97, 272, 352
-0.99771, 323, 345, 338, 375
-0.997714, 213, 273, 228, 304
-0.997715, 49, 133, 176, 164
-0.997734, 329, 285, 344, 316
-0.997735, 341, 233, 356, 264
-0.997738, 461, 301, 476, 332
-0.997739, 367, 317, 382, 348
-0.997757, 331, 333, 346, 364
-0.997775, 363, 133, 378, 164
-0.997778, 375, 241, 390, 272
-0.99779, 321, 125, 336, 156
-0.9978, 353, 277, 368, 308
-0.997801, 223, 309, 238, 340
-0.997801, 405, 305, 420, 336
-0.997802, 357, 249, 372, 280
-0.997803, 257, 305, 272, 336
-0.997813, 261, 129, 292, 375
-0.997814, 367, 289, 382, 320
-0.997815, 405, 329, 420, 360
-0.99782, 379, 229, 394, 260
-0.997821, 349, 265, 364, 296
-0.997821, 323, 333, 338, 364
-0.997822, 373, 293, 388, 324
-0.997828, 311, 121, 326, 152
-0.997834, 165, 129, 196, 375
-0.997838, 313, 297, 328, 328
-0.997842, 209, 97, 240, 352
-0.997846, 113, 217, 240, 248
-0.997857, 121, 209, 136, 240
-0.997862, 441, 229, 456, 260
-0.997875, 377, 141, 392, 172
-0.997886, 89, 281, 104, 312
-0.997892, 297, 17, 328, 144
-0.997892, 387, 293, 402, 324
-0.997904, 177, 341, 304, 372
-0.997905, 419, 305, 434, 336
-0.997906, 1, 229, 128, 260
-0.997907, 203, 277, 218, 308
-0.997912, 13, 97, 44, 224
-0.997914, 347, 241, 362, 272
-0.997915, 301, 285, 316, 316
-0.997917, 205, 289, 220, 320
-0.997918, 385, 261, 400, 292
-0.997925, 299, 121, 314, 152
-0.997925, 463, 317, 478, 348
-0.997931, 317, 345, 332, 375
-0.997941, 193, 241, 320, 272
-0.997943, 357, 221, 372, 252
-0.997943, 345, 305, 360, 336
-0.997945, 65, 165, 80, 196
-0.997947, 389, 333, 404, 364
-0.997948, 269, 301, 284, 332
-0.997949, 355, 309, 370, 340
-0.997952, 471, 325, 486, 356
-0.997958, 385, 145, 400, 176
-0.997961, 247, 305, 262, 336
-0.997961, 133, 65, 164, 192
-0.997965, 471, 337, 486, 368
-0.997973, 229, 129, 260, 375
-0.997977, 197, 293, 212, 324
-0.997978, 345, 317, 360, 348
-0.99798, 365, 337, 380, 368
-0.99798, 211, 305, 226, 336
-0.997986, 175, 293, 190, 324
-0.997987, 219, 273, 234, 304
-0.997992, 327, 125, 342, 156
-0.997992, 367, 261, 382, 292
-0.997993, 383, 281, 398, 312
-0.997995, 311, 333, 326, 364
-0.998003, 413, 257, 428, 288
-0.998007, 481, 265, 496, 296
-0.99801, 269, 285, 284, 316
-0.99801, 477, 305, 492, 336
-0.998011, 217, 261, 232, 292
-0.998011, 111, 257, 126, 288
-0.998016, 205, 253, 220, 284
-0.998016, 361, 205, 376, 236
-0.998017, 235, 293, 250, 324
-0.998019, 385, 241, 400, 272
-0.998022, 327, 305, 342, 336
-0.998023, 383, 313, 398, 344
-0.998025, 213, 325, 228, 356
-0.998027, 369, 137, 384, 168
-0.998028, 365, 305, 380, 336
-0.998029, 81, 9, 208, 72
-0.998041, 337, 213, 352, 244
-0.998043, 477, 345, 492, 375
-0.998044, 385, 129, 416, 375
-0.998045, 293, 333, 308, 364
-0.998046, 373, 221, 388, 252
-0.998047, 91, 233, 106, 264
-0.99805, 357, 237, 372, 268
-0.998061, 11, 317, 26, 348
-0.998065, 395, 301, 410, 332
-0.998068, 371, 305, 386, 336
-0.99807, 397, 285, 412, 316
-0.998075, 307, 133, 322, 164
-0.998075, 337, 317, 352, 348
-0.99808, 201, 305, 216, 336
-0.998083, 377, 261, 392, 292
-0.998086, 129, 129, 160, 375
-0.998088, 353, 149, 480, 180
-0.998089, 307, 297, 322, 328
-0.99809, 113, 205, 240, 236
-0.99809, 405, 249, 420, 280
-0.9981, 97, 277, 112, 308
-0.998103, 339, 277, 354, 308
-0.998104, 337, 341, 352, 372
-0.998106, 391, 281, 406, 312
-0.998106, 367, 197, 382, 228
-0.998106, 87, 265, 102, 296
-0.998109, 337, 137, 464, 168
-0.998113, 415, 293, 430, 324
-0.998116, 1, 345, 128, 375
-0.998118, 263, 305, 278, 336
-0.998119, 315, 313, 330, 344
-0.998121, 49, 345, 176, 375
-0.998127, 299, 329, 314, 360
-0.998135, 17, 325, 144, 356
-0.998141, 209, 105, 336, 136
-0.998141, 343, 257, 358, 288
-0.998142, 277, 293, 292, 324
-0.998142, 347, 217, 362, 248
-0.998152, 305, 105, 320, 136
-0.998152, 177, 269, 192, 300
-0.998187, 61, 129, 92, 375
-0.9982, 341, 17, 372, 144
-0.9982, 65, 81, 96, 208
-0.998203, 97, 117, 224, 148
-0.998296, 161, 165, 288, 196
-0.998306, 145, 25, 272, 88
-0.998312, 361, 129, 392, 375
-0.998352, 433, 81, 496, 208
-0.998377, 313, 1, 344, 256
-0.998393, 257, 213, 384, 244
-0.998415, 197, 131, 228, 146
-0.998415, 233, 285, 264, 300
-0.998415, 169, 295, 200, 310
-0.998416, 197, 265, 228, 280
-0.998416, 85, 285, 116, 300
-0.998416, 417, 241, 448, 256
-0.998416, 129, 249, 160, 264
-0.998416, 413, 255, 444, 270
-0.998417, 233, 321, 264, 336
-0.998417, 209, 287, 240, 302
-0.998417, 173, 301, 204, 316
-0.998419, 325, 339, 356, 354
-0.998419, 345, 225, 376, 240
-0.99842, 125, 323, 156, 338
-0.998421, 401, 267, 432, 282
-0.998421, 277, 327, 308, 342
-0.998421, 469, 275, 500, 290
-0.998421, 453, 335, 484, 350
-0.998421, 205, 305, 236, 320
-0.998421, 341, 307, 372, 322
-0.998422, 385, 323, 416, 338
-0.998422, 321, 243, 352, 258
-0.998423, 465, 357, 496, 372
-0.998424, 309, 289, 340, 304
-0.998425, 329, 353, 360, 368
-0.998425, 357, 323, 388, 338
-0.998425, 289, 331, 320, 346
-0.998425, 297, 325, 328, 340
-0.998426, 125, 329, 156, 344
-0.998426, 121, 291, 152, 306
-0.998427, 425, 293, 456, 308
-0.998427, 349, 287, 380, 302
-0.998427, 461, 327, 492, 342
-0.998429, 117, 285, 148, 300
-0.99843, 217, 265, 248, 280
-0.998431, 129, 215, 160, 230
-0.998432, 233, 305, 264, 320
-0.998432, 345, 219, 376, 234
-0.998432, 281, 117, 312, 132
-0.998432, 465, 305, 496, 320
-0.998432, 213, 315, 244, 330
-0.998434, 381, 295, 412, 310
-0.998435, 177, 139, 208, 154
-0.998435, 5, 319, 36, 334
-0.998436, 253, 287, 284, 302
-0.998437, 77, 293, 108, 308
-0.998437, 333, 131, 364, 146
-0.998437, 333, 313, 364, 328
-0.998439, 297, 133, 328, 148
-0.998439, 365, 291, 396, 306
-0.99844, 445, 305, 476, 320
-0.99844, 341, 349, 372, 364
-0.99844, 89, 177, 120, 192
-0.998442, 349, 207, 380, 222
-0.998443, 425, 299, 456, 314
-0.998443, 445, 323, 476, 338
-0.998444, 345, 251, 376, 266
-0.998447, 457, 319, 488, 334
-0.998448, 81, 239, 112, 254
-0.998448, 189, 251, 220, 266
-0.998449, 305, 303, 336, 318
-0.998449, 365, 235, 396, 250
-0.998449, 397, 307, 428, 322
-0.99845, 401, 249, 432, 264
-0.998454, 205, 277, 236, 292
-0.998454, 381, 341, 412, 356
-0.998455, 113, 211, 144, 226
-0.998456, 433, 239, 464, 254
-0.998457, 301, 331, 332, 346
-0.998458, 381, 273, 412, 288
-0.998458, 309, 297, 340, 312
-0.998459, 289, 109, 320, 124
-0.99846, 325, 301, 356, 316
-0.998463, 337, 139, 368, 154
-0.998463, 185, 301, 216, 316
-0.998463, 317, 253, 348, 268
-0.998464, 313, 315, 344, 330
-0.998465, 333, 237, 364, 252
-0.998466, 469, 343, 500, 358
-0.998466, 113, 253, 144, 268
-0.998466, 81, 265, 112, 280
-0.998468, 173, 269, 204, 284
-0.998468, 285, 1, 316, 256
-0.998468, 257, 307, 288, 322
-0.998469, 365, 263, 396, 278
-0.99847, 329, 225, 360, 240
-0.998471, 345, 257, 376, 272
-0.998471, 357, 317, 388, 332
-0.998471, 297, 135, 360, 150
-0.998471, 365, 303, 396, 318
-0.998472, 205, 271, 236, 286
-0.998472, 197, 295, 228, 310
-0.998473, 253, 299, 284, 314
-0.998473, 405, 299, 436, 314
-0.998474, 145, 329, 176, 344
-0.998474, 325, 289, 356, 304
-0.998474, 101, 261, 132, 276
-0.998475, 345, 313, 376, 328
-0.998476, 273, 301, 304, 316
-0.998478, 169, 153, 200, 168
-0.998479, 321, 143, 352, 158
-0.99848, 373, 313, 404, 328
-0.998481, 297, 293, 328, 308
-0.998483, 333, 245, 364, 260
-0.998486, 225, 73, 480, 136
-0.998487, 333, 261, 364, 276
-0.998489, 385, 241, 416, 256
-0.99849, 373, 145, 404, 160
-0.99849, 97, 293, 128, 308
-0.998491, 361, 223, 392, 238
-0.998491, 357, 137, 388, 152
-0.998494, 349, 233, 380, 248
-0.998494, 301, 153, 332, 168
-0.998496, 409, 305, 440, 320
-0.998497, 365, 281, 396, 296
-0.998498, 321, 347, 352, 362
-0.998498, 337, 281, 400, 296
-0.998499, 185, 295, 248, 310
-0.9985, 337, 319, 368, 334
-0.998501, 313, 313, 376, 328
-0.998505, 321, 295, 352, 310
-0.998506, 145, 1, 272, 128
-0.998506, 77, 97, 108, 352
-0.99851, 297, 123, 360, 138
-0.998511, 329, 139, 392, 154
-0.998512, 169, 271, 232, 286
-0.998514, 345, 131, 376, 146
-0.998514, 297, 145, 360, 160
-0.998514, 321, 131, 352, 146
-0.998515, 49, 167, 112, 182
-0.998515, 337, 235, 400, 250
-0.998516, 329, 123, 360, 138
-0.998517, 393, 333, 424, 348
-0.998517, 329, 219, 392, 234
-0.99852, 289, 347, 352, 362
-0.99852, 329, 319, 392, 334
-0.998523, 369, 331, 400, 346
-0.998523, 465, 337, 496, 352
-0.998524, 337, 313, 400, 328
-0.998526, 313, 327, 376, 342
-0.998527, 225, 295, 288, 310
-0.998527, 337, 147, 400, 162
-0.998528, 381, 305, 412, 320
-0.998529, 353, 335, 416, 350
-0.998529, 377, 293, 440, 308
-0.99853, 273, 329, 336, 344
-0.998532, 209, 319, 272, 334
-0.998533, 377, 287, 440, 302
-0.998533, 357, 309, 388, 324
-0.998534, 309, 129, 340, 144
-0.998534, 305, 319, 368, 334
-0.998536, 433, 337, 496, 352
-0.998536, 337, 263, 400, 278
-0.998538, 329, 225, 392, 240
-0.998539, 309, 143, 340, 158
-0.998539, 313, 289, 376, 304
-0.99854, 257, 187, 320, 202
-0.998541, 305, 245, 368, 260
-0.998541, 337, 271, 400, 286
-0.998543, 249, 119, 312, 134
-0.998544, 241, 329, 304, 344
-0.998545, 273, 249, 336, 264
-0.998547, 341, 279, 372, 294
-0.998547, 337, 291, 400, 306
-0.998547, 73, 291, 136, 306
-0.998549, 345, 241, 408, 256
-0.998549, 289, 285, 352, 300
-0.99855, 209, 305, 272, 320
-0.99855, 313, 309, 344, 324
-0.998551, 313, 253, 376, 268
-0.998552, 433, 319, 496, 334
-0.998552, 377, 307, 440, 322
-0.998552, 325, 137, 356, 152
-0.998553, 289, 295, 352, 310
-0.998553, 305, 199, 368, 214
-0.998556, 225, 289, 288, 304
-0.998557, 297, 155, 360, 170
-0.998559, 289, 313, 352, 328
-0.99856, 321, 307, 384, 322
-0.99856, 257, 299, 320, 314
-0.998562, 313, 259, 376, 274
-0.998566, 381, 285, 412, 300
-0.998566, 353, 307, 416, 322
-0.998568, 321, 133, 384, 148
-0.998568, 313, 231, 376, 246
-0.998569, 73, 177, 136, 192
-0.998569, 97, 181, 160, 196
-0.99857, 369, 329, 432, 344
-0.99857, 369, 323, 432, 338
-0.998571, 257, 181, 320, 196
-0.998572, 185, 251, 248, 266
-0.998572, 145, 245, 208, 260
-0.998572, 345, 329, 408, 344
-0.998573, 369, 225, 432, 240
-0.998573, 313, 347, 376, 362
-0.998575, 17, 287, 80, 302
-0.998575, 433, 307, 496, 322
-0.998576, 377, 273, 440, 288
-0.998576, 33, 129, 64, 375
-0.998576, 145, 271, 208, 286
-0.998576, 153, 331, 216, 346
-0.998576, 209, 255, 272, 270
-0.998577, 57, 285, 120, 300
-0.998578, 193, 1, 224, 256
-0.998579, 377, 233, 440, 248
-0.99858, 177, 277, 240, 292
-0.99858, 417, 299, 480, 314
-0.99858, 249, 287, 312, 302
-0.99858, 393, 239, 456, 254
-0.998581, 265, 255, 328, 270
-0.998581, 313, 337, 376, 352
-0.998581, 273, 143, 336, 158
-0.998583, 193, 269, 256, 284
-0.998584, 217, 329, 280, 344
-0.998585, 313, 299, 376, 314
-0.998586, 201, 289, 264, 304
-0.998586, 321, 123, 384, 138
-0.998587, 1, 207, 64, 222
-0.998587, 337, 153, 400, 168
-0.998587, 113, 187, 176, 202
-0.998587, 313, 353, 376, 368
-0.998588, 105, 287, 168, 302
-0.998588, 305, 93, 432, 124
-0.998588, 425, 281, 488, 296
-0.998589, 201, 281, 264, 296
-0.998589, 393, 315, 456, 330
-0.99859, 161, 301, 224, 316
-0.99859, 1, 137, 128, 168
-0.998591, 417, 313, 480, 328
-0.998591, 153, 153, 216, 168
-0.998592, 177, 327, 240, 342
-0.998593, 281, 303, 344, 318
-0.998594, 209, 261, 272, 276
-0.998596, 297, 129, 360, 144
-0.998596, 377, 299, 440, 314
-0.998596, 353, 355, 416, 370
-0.998596, 281, 335, 344, 350
-0.998596, 41, 161, 104, 176
-0.998597, 97, 331, 160, 346
-0.998597, 161, 139, 224, 154
-0.998597, 57, 17, 120, 144
-0.998598, 297, 187, 360, 202
-0.998598, 337, 255, 400, 270
-0.998598, 313, 279, 376, 294
-0.998598, 81, 233, 144, 248
-0.998599, 241, 323, 304, 338
-0.998599, 201, 313, 264, 328
-0.9986, 161, 251, 224, 266
-0.998601, 169, 311, 232, 326
-0.998602, 401, 193, 464, 208
-0.998602, 9, 167, 72, 182
-0.998602, 297, 181, 360, 196
-0.998602, 361, 247, 424, 262
-0.998603, 361, 263, 424, 278
-0.998604, 233, 313, 296, 328
-0.998605, 273, 319, 336, 334
-0.998605, 257, 175, 320, 190
-0.998607, 385, 335, 448, 350
-0.998607, 169, 265, 232, 280
-0.998607, 433, 275, 496, 290
-0.998607, 433, 229, 496, 244
-0.998609, 337, 349, 400, 364
-0.998609, 361, 215, 424, 230
-0.998609, 337, 297, 400, 312
-0.998609, 241, 307, 304, 322
-0.998609, 137, 289, 200, 304
-0.998609, 289, 113, 352, 128
-0.99861, 65, 257, 128, 272
-0.998616, 309, 137, 340, 152
-0.998635, 273, 1, 336, 128
-0.998647, 337, 105, 464, 136
-0.998652, 297, 1, 328, 256
-0.998733, 13, 129, 44, 375
-0.998735, 129, 57, 384, 120
-0.998744, 49, 97, 80, 352
-0.998752, 145, 117, 272, 148
-0.998756, 121, 65, 152, 192
-0.998768, 373, 129, 404, 375
-0.998772, 405, 129, 436, 375
-0.998814, 375, 209, 390, 336
-0.998816, 113, 229, 240, 260
-0.998825, 225, 49, 480, 112
-0.998841, 369, 209, 384, 336
-0.99886, 101, 129, 132, 375
-0.998862, 313, 145, 328, 272
-0.998894, 305, 97, 320, 224
-0.998896, 335, 97, 350, 224
-0.998908, 333, 1, 364, 256
-0.998915, 161, 105, 288, 136
-0.998926, 181, 33, 212, 288
-0.998931, 295, 97, 310, 224
-0.998936, 321, 45, 448, 76
-0.998943, 209, 93, 336, 124
-0.998943, 363, 241, 378, 368
-0.998947, 225, 225, 352, 256
-0.998951, 173, 129, 188, 256
-0.998956, 89, 129, 120, 375
-0.998964, 321, 57, 448, 88
-0.998987, 311, 193, 326, 320
-0.999004, 319, 129, 334, 256
-0.999007, 117, 177, 132, 304
-0.999013, 1, 129, 32, 375
-0.999034, 353, 77, 480, 108
-0.999034, 357, 241, 372, 368
-0.999039, 317, 225, 332, 352
-0.999039, 193, 161, 208, 288
-0.999048, 181, 113, 196, 240
-0.999051, 123, 193, 138, 320
-0.999051, 213, 177, 228, 304
-0.999052, 377, 33, 408, 288
-0.999058, 81, 241, 96, 368
-0.999085, 257, 69, 384, 100
-0.999087, 289, 97, 304, 224
-0.999092, 343, 129, 358, 256
-0.999092, 33, 73, 288, 136
-0.999097, 199, 129, 214, 256
-0.999113, 217, 225, 232, 352
-0.999121, 45, 81, 76, 208
-0.999124, 233, 113, 248, 240
-0.999129, 323, 193, 338, 320
-0.999131, 179, 177, 194, 304
-0.999132, 425, 97, 456, 352
-0.999137, 169, 33, 200, 288
-0.999152, 289, 33, 416, 64
-0.999152, 343, 177, 358, 304
-0.999155, 153, 177, 168, 304
-0.999169, 113, 225, 128, 352
-0.999169, 277, 241, 292, 368
-0.999173, 437, 129, 468, 375
-0.999175, 363, 193, 378, 320
-0.999183, 265, 1, 296, 256
-0.999184, 207, 241, 222, 368
-0.999187, 159, 129, 174, 256
-0.999188, 267, 241, 282, 368
-0.999189, 283, 97, 298, 224
-0.999193, 117, 129, 148, 375
-0.999194, 143, 177, 158, 304
-0.999195, 73, 241, 88, 368
-0.999197, 123, 145, 138, 272
-0.9992, 167, 145, 182, 272
-0.9992, 161, 177, 176, 304
-0.999202, 261, 241, 276, 368
-0.999205, 225, 177, 240, 304
-0.999206, 205, 113, 220, 240
-0.999207, 87, 209, 102, 336
-0.999207, 149, 129, 164, 256
-0.999214, 227, 225, 242, 352
-0.999216, 287, 241, 302, 368
-0.999217, 227, 113, 242, 240
-0.999218, 273, 45, 400, 76
-0.99922, 207, 177, 222, 304
-0.999221, 191, 113, 206, 240
-0.999222, 169, 193, 184, 320
-0.999229, 305, 177, 320, 304
-0.999236, 239, 113, 254, 240
-0.999241, 185, 161, 200, 288
-0.999242, 199, 177, 214, 304
-0.999243, 325, 129, 340, 256
-0.999244, 395, 129, 410, 256
-0.999253, 349, 161, 364, 288
-0.999256, 479, 209, 494, 336
-0.999265, 381, 209, 396, 336
-0.999266, 351, 225, 366, 352
-0.999269, 297, 145, 312, 272
-0.999271, 183, 225, 198, 352
-0.999276, 273, 57, 400, 88
-0.999278, 301, 241, 316, 368
-0.999281, 219, 177, 234, 304
-0.999287, 355, 161, 370, 288
-0.999287, 485, 209, 500, 336
-0.999288, 369, 161, 384, 288
-0.99929, 235, 241, 250, 368
-0.999294, 329, 193, 344, 320
-0.999299, 99, 225, 114, 352
-0.999299, 107, 225, 122, 352
-0.9993, 151, 225, 166, 352
-0.999302, 257, 93, 384, 124
-0.999304, 213, 113, 228, 240
-0.999304, 67, 241, 82, 368
-0.999306, 143, 129, 158, 256
-0.999307, 189, 241, 204, 368
-0.999311, 261, 97, 276, 224
-0.999312, 247, 97, 262, 224
-0.999314, 241, 177, 256, 304
-0.999316, 49, 121, 176, 152
-0.999317, 313, 97, 328, 224
-0.999318, 271, 161, 286, 288
-0.999321, 159, 241, 174, 368
-0.999321, 423, 193, 438, 320
-0.999322, 111, 177, 126, 304
-0.999325, 337, 241, 352, 368
-0.999327, 157, 33, 188, 288
-0.999331, 469, 209, 484, 336
-0.999331, 177, 229, 304, 260
-0.999335, 277, 97, 292, 224
-0.999336, 291, 145, 306, 272
-0.999338, 403, 209, 418, 336
-0.999344, 459, 241, 474, 368
-0.999345, 305, 81, 432, 112
-0.999346, 35, 161, 50, 288
-0.999346, 281, 161, 296, 288
-0.999348, 221, 113, 236, 240
-0.999349, 231, 177, 246, 304
-0.999351, 7, 241, 22, 368
-0.999352, 197, 65, 228, 192
-0.999353, 335, 193, 350, 320
-0.999355, 255, 241, 270, 368
-0.999364, 271, 97, 286, 224
-0.999365, 199, 241, 214, 368
-0.999366, 417, 193, 432, 320
-0.999369, 327, 241, 342, 368
-0.999371, 247, 241, 262, 368
-0.999376, 429, 209, 444, 336
-0.999376, 419, 241, 434, 368
-0.999377, 81, 129, 96, 256
-0.99938, 353, 113, 368, 240
-0.999382, 345, 241, 360, 368
-0.999382, 131, 145, 146, 272
-0.999383, 37, 225, 52, 352
-0.999385, 115, 129, 130, 256
-0.999387, 321, 81, 336, 208
-0.999387, 389, 129, 404, 256
-0.999388, 209, 1, 240, 256
-0.99939, 381, 161, 396, 288
-0.999395, 441, 209, 456, 336
-0.999397, 307, 241, 322, 368
-0.999398, 49, 241, 64, 368
-0.999406, 257, 161, 272, 288
-0.999417, 13, 241, 28, 368
-0.999422, 27, 193, 42, 320
-0.999424, 253, 113, 268, 240
-0.999425, 145, 225, 160, 352
-0.999426, 45, 177, 60, 304
-0.999427, 409, 241, 424, 368
-0.999427, 453, 241, 468, 368
-0.999428, 265, 161, 280, 288
-0.999435, 449, 129, 480, 375
-0.999437, 175, 241, 190, 368
-0.999439, 105, 161, 120, 288
-0.99944, 81, 193, 96, 320
-0.99944, 137, 129, 152, 256
-0.99944, 133, 209, 148, 336
-0.999464, 393, 1, 424, 256
-0.999466, 257, 25, 500, 88
-0.999467, 97, 33, 352, 96
-0.999498, 245, 1, 276, 256
-0.999514, 161, 1, 416, 64
-0.999516, 469, 129, 500, 375
-0.999544, 1, 25, 256, 88
-0.999561, 137, 33, 168, 288
-0.999581, 405, 17, 436, 144
-0.999587, 221, 1, 252, 256
-0.999596, 339, 237, 354, 252
-0.999596, 389, 341, 404, 356
-0.999596, 87, 283, 102, 298
-0.999597, 173, 147, 188, 162
-0.999597, 365, 289, 380, 304
-0.999597, 323, 337, 338, 352
-0.999598, 195, 249, 210, 264
-0.999598, 359, 133, 374, 148
-0.999598, 129, 219, 144, 234
-0.999599, 445, 243, 460, 258
-0.999599, 351, 139, 366, 154
-0.999599, 253, 319, 268, 334
-0.999599, 473, 303, 488, 318
-0.999599, 107, 259, 122, 274
-0.999599, 315, 129, 330, 144
-0.9996, 333, 245, 348, 260
-0.9996, 9, 319, 24, 334
-0.9996, 257, 327, 272, 342
-0.9996, 187, 155, 202, 170
-0.999601, 319, 309, 334, 324
-0.999601, 405, 247, 420, 262
-0.999602, 217, 307, 232, 322
-0.999603, 361, 207, 376, 222
-0.999604, 205, 253, 220, 268
-0.999604, 257, 287, 272, 302
-0.999604, 357, 251, 372, 266
-0.999605, 351, 309, 366, 324
-0.999605, 385, 295, 400, 310
-0.999605, 319, 291, 334, 306
-0.999605, 307, 315, 322, 330
-0.999605, 97, 263, 112, 278
-0.999605, 355, 315, 370, 330
-0.999605, 377, 303, 392, 318
-0.999606, 195, 149, 210, 164
-0.999606, 265, 287, 280, 302
-0.999606, 207, 293, 222, 308
-0.999607, 385, 265, 400, 280
-0.999607, 323, 347, 338, 362
-0.999607, 123, 257, 138, 272
-0.999607, 389, 323, 404, 338
-0.999609, 347, 259, 362, 274
-0.999609, 297, 109, 312, 124
-0.99961, 347, 253, 362, 268
-0.99961, 339, 259, 354, 274
-0.99961, 427, 307, 442, 322
-0.99961, 353, 231, 368, 246
-0.99961, 345, 123, 360, 138
-0.99961, 351, 243, 366, 258
-0.999611, 87, 233, 102, 248
-0.999611, 385, 241, 400, 256
-0.999611, 297, 121, 312, 136
-0.999611, 345, 271, 360, 286
-0.999611, 313, 301, 328, 316
-0.999611, 357, 259, 372, 274
-0.999612, 327, 303, 342, 318
-0.999612, 485, 301, 500, 316
-0.999612, 379, 235, 394, 250
-0.999613, 399, 325, 414, 340
-0.999615, 207, 267, 222, 282
-0.999615, 427, 299, 442, 314
-0.999615, 303, 129, 318, 144
-0.999615, 179, 269, 194, 284
-0.999616, 469, 329, 484, 344
-0.999616, 323, 143, 338, 158
-0.999617, 315, 147, 330, 162
-0.999617, 477, 327, 492, 342
-0.999619, 393, 333, 408, 348
-0.99962, 265, 299, 280, 314
-0.999621, 305, 151, 320, 166
-0.999621, 407, 333, 422, 348
-0.999622, 383, 307, 398, 322
-0.999623, 411, 249, 426, 264
-0.999623, 383, 285, 398, 300
-0.999623, 337, 347, 352, 362
-0.999624, 303, 289, 318, 304
-0.999625, 219, 279, 234, 294
-0.999625, 335, 319, 350, 334
-0.999625, 325, 289, 340, 304
-0.999625, 209, 311, 224, 326
-0.999626, 391, 241, 406, 256
-0.999626, 199, 139, 214, 154
-0.999627, 413, 261, 428, 276
-0.999628, 247, 305, 262, 320
-0.999628, 201, 291, 216, 306
-0.999629, 271, 303, 286, 318
-0.999629, 343, 319, 358, 334
-0.999631, 309, 125, 324, 140
-0.999631, 415, 305, 430, 320
-0.999631, 325, 131, 340, 146
-0.999632, 425, 291, 440, 306
-0.999632, 179, 297, 194, 312
-0.999632, 389, 285, 404, 300
-0.999633, 101, 293, 116, 308
-0.999633, 357, 287, 372, 302
-0.999635, 317, 153, 332, 168
-0.999636, 417, 255, 432, 270
-0.999636, 481, 277, 496, 292
-0.999636, 173, 153, 188, 168
-0.999638, 365, 309, 380, 324
-0.999638, 213, 263, 228, 278
-0.99964, 339, 137, 354, 152
-0.999641, 327, 309, 342, 324
-0.999641, 193, 297, 208, 312
-0.999642, 465, 307, 480, 322
-0.999643, 381, 145, 396, 160
-0.999645, 209, 273, 224, 288
-0.999646, 403, 307, 418, 322
-0.999646, 485, 339, 500, 354
-0.999647, 377, 313, 392, 328
-0.99965, 341, 281, 356, 296
-0.999651, 387, 147, 402, 162
-0.999657, 215, 269, 230, 284
-0.999658, 473, 335, 488, 350
-0.999659, 303, 123, 318, 138
-0.999659, 257, 309, 272, 324
-0.999661, 367, 217, 382, 232
-0.999662, 379, 293, 394, 308
-0.999664, 313, 141, 328, 156
-0.999666, 265, 307, 280, 322
-0.999666, 349, 279, 364, 294
-0.999677, 353, 127, 368, 142
-0.99968, 439, 237, 454, 252
-0.99968, 309, 131, 324, 146
-0.999683, 345, 133, 360, 148
-0.999684, 301, 115, 316, 130
-0.999698, 421, 305, 436, 320
-0.999698, 421, 299, 436, 314
-0.999712, 319, 297, 334, 312
-0.999726, 169, 65, 200, 192
-0.999726, 325, 137, 340, 152
-0.999734, 1, 97, 500, 160
-0.999741, 315, 135, 330, 150
-0.999744, 365, 1, 396, 256
-0.999766, 345, 1, 376, 256
-0.999772, 129, 1, 256, 64
-0.999805, 65, 33, 96, 288
-0.999858, 77, 1, 108, 256
-0.999871, 257, 1, 500, 64
-0.999888, 89, 81, 120, 208
-0.999939, 233, 1, 264, 256
-0.999982, 1, 33, 500, 96
-0.999983, 437, 33, 468, 288
-1.00004, 125, 33, 156, 288
-1.00005, 5, 33, 36, 288
-1.00014, 405, 33, 436, 288
-1.00015, 425, 33, 488, 288
-1.00017, 65, 1, 320, 64
-1.00018, 45, 1, 76, 256
-1.0002, 25, 1, 56, 256
-1.00022, 105, 1, 168, 128
-1.00038, 101, 33, 132, 288
-1.00053, 1, 49, 256, 112
-1.00056, 417, 1, 448, 256
-1.00059, 89, 1, 120, 256
-1.00063, 469, 1, 500, 256
-1.00064, 449, 33, 480, 288
-1.00081, 113, 33, 144, 288
-1.00097, 409, 1, 472, 128
-1.00097, 1, 17, 64, 144
-1.001, 33, 17, 96, 144
-1.00132, 1, 9, 500, 72
-1.00135, 1, 73, 500, 136
-1.00187, 225, 1, 288, 128
-1.00259, 433, 1, 496, 128
-1.00276, 153, 33, 216, 160
-1.00279, 249, 1, 312, 128
-1.00563, 201, 1, 264, 128
