1879
-0.39653, 33, 1, 288, 335
-0.409745, 1, 65, 500, 320
-0.458881, 1, 1, 500, 335
-0.481729, 193, 1, 448, 335
-0.579306, 33, 1, 288, 256
-0.596552, 225, 65, 480, 320
-0.70336, 129, 65, 384, 320
-0.8428, 1, 129, 500, 256
-0.842912, 337, 65, 464, 320
-0.845947, 49, 65, 176, 320
-0.850111, 129, 33, 256, 288
-0.850548, 177, 65, 304, 320
-0.856163, 305, 1, 432, 335
-0.858466, 1, 65, 128, 320
-0.858687, 113, 1, 240, 335
-0.858704, 225, 65, 352, 320
-0.862383, 289, 65, 416, 320
-0.864127, 353, 1, 480, 335
-0.866747, 1, 81, 500, 208
-0.870428, 65, 1, 192, 335
-0.872668, 17, 1, 144, 335
-0.874745, 1, 193, 500, 320
-0.889081, 161, 1, 288, 335
-0.889955, 161, 113, 416, 240
-0.891711, 33, 81, 288, 208
-0.891935, 33, 161, 288, 288
-0.900209, 257, 161, 500, 288
-0.903974, 241, 1, 368, 335
-0.905875, 1, 33, 500, 160
-0.908882, 257, 81, 500, 208
-0.912097, 161, 161, 416, 288
-0.914312, 113, 81, 240, 208
-0.917253, 353, 65, 480, 192
-0.919727, 65, 81, 128, 208
-0.921148, 105, 113, 168, 240
-0.921846, 321, 113, 448, 240
-0.92304, 105, 65, 168, 192
-0.925123, 177, 97, 304, 224
-0.925614, 49, 81, 176, 208
-0.928395, 33, 33, 288, 160
-0.928808, 409, 49, 472, 176
-0.929896, 145, 97, 208, 224
-0.93, 273, 129, 400, 256
-0.931234, 225, 129, 352, 256
-0.932569, 97, 161, 224, 288
-0.932811, 353, 65, 416, 192
-0.932827, 369, 113, 496, 240
-0.933127, 273, 81, 400, 208
-0.933378, 49, 129, 112, 256
-0.934089, 17, 129, 144, 256
-0.934279, 1, 81, 128, 208
-0.934643, 1, 209, 128, 335
-0.935061, 1, 209, 256, 335
-0.936833, 97, 33, 224, 160
-0.937678, 337, 161, 464, 288
-0.938105, 25, 81, 88, 208
-0.938791, 257, 209, 500, 335
-0.939048, 161, 49, 416, 176
-0.939761, 417, 161, 480, 288
-0.939782, 329, 97, 392, 224
-0.940064, 145, 33, 208, 160
-0.940265, 385, 97, 448, 224
-0.940317, 177, 145, 304, 272
-0.940342, 433, 81, 496, 208
-0.940939, 369, 17, 432, 144
-0.941179, 297, 145, 360, 272
-0.942084, 249, 113, 312, 240
-0.942467, 73, 129, 136, 256
-0.942787, 137, 81, 200, 144
-0.942805, 105, 153, 168, 216
-0.942996, 49, 177, 176, 304
-0.943285, 201, 97, 264, 224
-0.943526, 225, 177, 352, 304
-0.944092, 161, 209, 416, 335
-0.944643, 161, 161, 224, 288
-0.944706, 81, 33, 144, 160
-0.945051, 177, 81, 240, 208
-0.945187, 137, 145, 200, 272
-0.945945, 225, 97, 288, 224
-0.946101, 345, 89, 408, 152
-0.946351, 257, 33, 500, 160
-0.946528, 361, 161, 424, 288
-0.946649, 97, 161, 160, 288
-0.947352, 97, 121, 160, 184
-0.947403, 233, 209, 296, 335
-0.947405, 113, 81, 176, 144
-0.947594, 65, 113, 128, 176
-0.948565, 409, 97, 472, 224
-0.948786, 1, 81, 64, 208
-0.948972, 65, 73, 128, 136
-0.949127, 65, 177, 128, 304
-0.949141, 25, 129, 88, 256
-0.949245, 225, 81, 352, 208
-0.949882, 401, 161, 464, 224
-0.950092, 433, 17, 496, 144
-0.950621, 73, 153, 136, 216
-0.951495, 377, 65, 440, 128
-0.951786, 1, 177, 64, 304
-0.952135, 433, 105, 496, 168
-0.952316, 417, 193, 480, 256
-0.952389, 425, 81, 488, 144
-0.953393, 393, 145, 456, 272
-0.95355, 321, 145, 384, 272
-0.953706, 273, 193, 336, 320
-0.954023, 361, 113, 424, 240
-0.954184, 185, 161, 248, 288
-0.954438, 401, 73, 464, 136
-0.955228, 201, 105, 264, 168
-0.955363, 377, 41, 440, 104
-0.955644, 161, 89, 224, 152
-0.955657, 9, 273, 72, 335
-0.956306, 145, 209, 272, 335
-0.956443, 265, 129, 328, 192
-0.956811, 57, 177, 120, 240
-0.956939, 369, 209, 496, 335
-0.956965, 369, 185, 432, 248
-0.957053, 105, 1, 168, 128
-0.95721, 25, 209, 88, 335
-0.957236, 425, 129, 488, 192
-0.957394, 377, 161, 440, 224
-0.957533, 49, 137, 112, 200
-0.95784, 25, 89, 88, 152
-0.957889, 321, 113, 384, 176
-0.958158, 433, 33, 496, 96
-0.95829, 281, 97, 344, 224
-0.958396, 225, 105, 288, 168
-0.958668, 313, 193, 376, 320
-0.958925, 129, 153, 192, 216
-0.959228, 393, 97, 456, 160
-0.95924, 89, 97, 152, 160
-0.959324, 289, 249, 352, 312
-0.959506, 337, 145, 400, 208
-0.959561, 305, 97, 368, 224
-0.959606, 345, 185, 408, 248
-0.9598, 265, 249, 328, 312
-0.959808, 289, 177, 416, 304
-0.959997, 369, 113, 432, 176
-0.960133, 401, 49, 464, 112
-0.960273, 161, 153, 224, 216
-0.960345, 369, 17, 496, 144
-0.960457, 273, 145, 336, 272
-0.960464, 425, 161, 488, 224
-0.960757, 89, 65, 152, 128
-0.961136, 49, 33, 112, 160
-0.961574, 121, 129, 184, 192
-0.961654, 209, 177, 272, 304
-0.961657, 33, 177, 96, 240
-0.961884, 313, 249, 376, 312
-0.961942, 369, 89, 432, 152
-0.962048, 161, 1, 416, 128
-0.962374, 353, 65, 416, 128
-0.962427, 41, 209, 104, 272
-0.962784, 401, 121, 464, 184
-0.962941, 89, 41, 152, 104
-0.963016, 241, 161, 304, 288
-0.963098, 81, 185, 144, 248
-0.963226, 177, 233, 240, 296
-0.963451, 241, 249, 304, 312
-0.963632, 217, 225, 280, 288
-0.963737, 49, 33, 176, 160
-0.96376, 369, 17, 432, 80
-0.963843, 177, 49, 304, 176
-0.964079, 385, 217, 448, 280
-0.964226, 177, 33, 240, 160
-0.964258, 321, 169, 384, 232
-0.96457, 1, 89, 64, 152
-0.964624, 425, 57, 488, 120
-0.96472, 113, 113, 144, 240
-0.96474, 49, 273, 112, 335
-0.964772, 345, 25, 408, 88
-0.964984, 297, 161, 360, 224
-0.965048, 345, 17, 408, 144
-0.965133, 1, 33, 128, 160
-0.96514, 89, 273, 152, 335
-0.965269, 137, 105, 200, 168
-0.965498, 105, 153, 136, 216
-0.965647, 193, 153, 256, 216
-0.965686, 73, 233, 136, 296
-0.965836, 145, 81, 176, 144
-0.966231, 433, 1, 496, 256
-0.966468, 217, 49, 280, 176
-0.966498, 145, 57, 208, 120
-0.966559, 101, 113, 132, 240
-0.966696, 437, 33, 468, 160
-0.966765, 121, 193, 184, 320
-0.966797, 185, 209, 248, 335
-0.966818, 233, 137, 296, 200
-0.966836, 201, 129, 264, 192
-0.967055, 393, 185, 456, 248
-0.967212, 257, 225, 320, 288
-0.9673, 121, 241, 184, 304
-0.967328, 413, 97, 444, 224
-0.96738, 377, 1, 440, 256
-0.967477, 425, 161, 456, 224
-0.967796, 433, 209, 496, 335
-0.967797, 425, 145, 456, 272
-0.967982, 353, 81, 480, 144
-0.968019, 9, 249, 72, 312
-0.96808, 353, 89, 384, 152
-0.968174, 413, 57, 444, 120
-0.968246, 49, 81, 176, 144
-0.968246, 321, 89, 384, 152
-0.968259, 81, 161, 208, 224
-0.968384, 97, 73, 224, 136
-0.968408, 113, 121, 144, 184
-0.96861, 345, 65, 408, 320
-0.968621, 33, 113, 96, 176
-0.968641, 353, 121, 480, 184
-0.968647, 97, 65, 160, 320
-0.968654, 405, 49, 436, 176
-0.968662, 389, 97, 420, 224
-0.968694, 393, 193, 456, 320
-0.968953, 401, 113, 432, 240
-0.968971, 17, 121, 144, 184
-0.9693, 217, 257, 280, 320
-0.969315, 113, 65, 144, 192
-0.969339, 321, 185, 448, 248
-0.969392, 413, 169, 444, 232
-0.969399, 461, 17, 492, 144
-0.969417, 97, 97, 224, 160
-0.969435, 125, 81, 156, 208
-0.96952, 9, 185, 72, 248
-0.969647, 425, 49, 456, 176
-0.969767, 65, 65, 128, 320
-0.969808, 401, 33, 464, 288
-0.969816, 353, 129, 384, 256
-0.969883, 113, 57, 176, 120
-0.969897, 313, 225, 376, 288
-0.9699, 289, 137, 352, 200
-0.969948, 353, 145, 480, 208
-0.969978, 361, 233, 424, 296
-0.970171, 145, 105, 272, 168
-0.970194, 401, 73, 432, 136
-0.970228, 345, 209, 408, 272
-0.970231, 125, 153, 156, 216
-0.970236, 173, 81, 204, 144
-0.970324, 1, 33, 64, 160
-0.970415, 161, 209, 224, 335
-0.970598, 365, 81, 396, 208
-0.97063, 289, 105, 416, 168
-0.970703, 469, 25, 500, 88
-0.970732, 177, 129, 240, 192
-0.970774, 61, 89, 92, 152
-0.970775, 433, 225, 496, 288
-0.970801, 97, 57, 128, 120
-0.970843, 145, 129, 208, 192
-0.970933, 85, 97, 116, 224
-0.97094, 185, 89, 216, 152
-0.970969, 321, 65, 384, 320
-0.970978, 469, 129, 500, 192
-0.971002, 101, 49, 132, 176
-0.971031, 49, 233, 112, 296
-0.971102, 353, 81, 384, 208
-0.971113, 145, 241, 208, 304
-0.971155, 125, 89, 156, 152
-0.97127, 169, 65, 232, 128
-0.971412, 397, 145, 428, 208
-0.971467, 153, 273, 216, 335
-0.971472, 89, 209, 152, 335
-0.97152, 97, 241, 160, 304
-0.971588, 97, 209, 224, 335
-0.971678, 65, 41, 128, 104
-0.971724, 65, 209, 128, 272
-0.971744, 377, 137, 440, 200
-0.971765, 369, 209, 496, 272
-0.971802, 389, 81, 420, 144
-0.971824, 69, 81, 100, 208
-0.971833, 213, 97, 244, 160
-0.972131, 433, 81, 464, 144
-0.972224, 185, 273, 248, 335
-0.972256, 113, 273, 176, 335
-0.972288, 9, 65, 72, 320
-0.972295, 101, 161, 132, 288
-0.972328, 125, 121, 156, 184
-0.972382, 201, 65, 264, 320
-0.972396, 93, 105, 124, 168
-0.972568, 193, 97, 224, 224
-0.972593, 425, 57, 456, 120
-0.972624, 129, 129, 160, 256
-0.972644, 369, 57, 496, 120
-0.972874, 61, 129, 92, 256
-0.972896, 281, 65, 344, 320
-0.972991, 401, 1, 464, 128
-0.973028, 297, 113, 360, 176
-0.973209, 457, 25, 488, 88
-0.97321, 273, 273, 336, 335
-0.973261, 409, 193, 440, 256
-0.973264, 81, 129, 112, 192
-0.973267, 193, 145, 320, 208
-0.973304, 413, 121, 444, 184
-0.973439, 369, 113, 400, 176
-0.973566, 113, 129, 240, 192
-0.973616, 41, 65, 104, 128
-0.973663, 305, 153, 432, 216
-0.973754, 445, 41, 476, 104
-0.973802, 337, 233, 400, 296
-0.973805, 153, 177, 216, 240
-0.973835, 257, 201, 320, 264
-0.973871, 137, 81, 168, 208
-0.973972, 229, 105, 260, 168
-0.974066, 1, 89, 128, 152
-0.974066, 113, 81, 144, 144
-0.974098, 397, 185, 428, 248
-0.974126, 305, 193, 368, 256
-0.974187, 65, 113, 96, 176
-0.974269, 257, 65, 320, 192
-0.974274, 161, 65, 192, 128
-0.97428, 17, 153, 144, 216
-0.974365, 181, 97, 212, 224
-0.974411, 81, 265, 208, 328
-0.97442, 41, 65, 104, 320
-0.974448, 305, 273, 368, 335
-0.97457, 457, 81, 488, 144
-0.974587, 49, 81, 80, 208
-0.974682, 273, 129, 400, 192
-0.974689, 97, 49, 224, 112
-0.974743, 89, 49, 120, 176
-0.97475, 449, 33, 480, 160
-0.974767, 65, 169, 96, 232
-0.974829, 49, 57, 176, 120
-0.974932, 401, 161, 432, 288
-0.974952, 397, 9, 428, 72
-0.975018, 17, 265, 144, 328
-0.975024, 41, 89, 72, 152
-0.975038, 273, 105, 336, 168
-0.975047, 145, 233, 272, 296
-0.975059, 81, 81, 112, 144
-0.975105, 361, 145, 392, 208
-0.975208, 409, 217, 472, 280
-0.975217, 193, 121, 320, 184
-0.975218, 145, 33, 208, 288
-0.975279, 305, 81, 432, 144
-0.975309, 385, 25, 416, 88
-0.975414, 381, 49, 412, 176
-0.975453, 185, 145, 216, 272
-0.97547, 17, 209, 80, 272
-0.975475, 437, 113, 468, 240
-0.97548, 369, 81, 400, 144
-0.975485, 449, 81, 480, 208
-0.975598, 397, 1, 428, 128
-0.975632, 93, 169, 124, 232
-0.97566, 257, 249, 384, 312
-0.975685, 397, 49, 428, 112
-0.975789, 413, 145, 444, 272
-0.975861, 89, 145, 120, 272
-0.975888, 249, 273, 312, 335
-0.975896, 101, 129, 132, 192
-0.975996, 201, 97, 232, 160
-0.976063, 273, 121, 304, 184
-0.976065, 177, 177, 240, 240
-0.976143, 417, 97, 448, 160
-0.976143, 273, 193, 400, 256
-0.976178, 221, 97, 252, 224
-0.976245, 369, 169, 496, 232
-0.976252, 245, 97, 276, 224
-0.976279, 465, 193, 496, 256
-0.97628, 141, 145, 172, 272
-0.976289, 177, 65, 240, 320
-0.976321, 445, 193, 476, 256
-0.976331, 377, 49, 408, 112
-0.976337, 121, 65, 184, 320
-0.97634, 173, 153, 204, 216
-0.976378, 373, 161, 404, 288
-0.976445, 5, 97, 36, 224
-0.97647, 137, 153, 168, 216
-0.976477, 437, 105, 468, 168
-0.976515, 21, 81, 52, 208
-0.976538, 129, 265, 256, 328
-0.976568, 209, 249, 336, 312
-0.976584, 81, 153, 112, 216
-0.976605, 249, 105, 312, 168
-0.976618, 345, 209, 408, 335
-0.976659, 425, 121, 456, 184
-0.976696, 81, 105, 112, 168
-0.976707, 353, 169, 384, 232
-0.976742, 417, 1, 480, 335
-0.976867, 465, 161, 496, 288
-0.976933, 1, 65, 64, 128
-0.976949, 97, 1, 128, 128
-0.976973, 201, 81, 264, 144
-0.977043, 385, 1, 416, 128
-0.977052, 301, 145, 332, 272
-0.977068, 225, 65, 288, 320
-0.977077, 153, 97, 184, 224
-0.977081, 49, 129, 80, 256
-0.977092, 321, 209, 448, 272
-0.9771, 321, 233, 448, 296
-0.977101, 5, 81, 36, 144
-0.977181, 373, 169, 404, 232
-0.977221, 105, 177, 168, 240
-0.977283, 273, 177, 336, 240
-0.977321, 73, 161, 104, 288
-0.977446, 405, 97, 436, 160
-0.977482, 165, 161, 196, 288
-0.97753, 177, 33, 208, 160
-0.977575, 1, 273, 32, 335
-0.977598, 393, 17, 456, 80
-0.977656, 289, 137, 320, 200
-0.977697, 257, 33, 384, 160
-0.977733, 1, 129, 64, 256
-0.977743, 345, 265, 408, 328
-0.977916, 289, 217, 352, 280
-0.977992, 301, 249, 332, 312
-0.978015, 25, 33, 88, 160
-0.978047, 465, 169, 496, 232
-0.978056, 33, 233, 160, 296
-0.97807, 469, 233, 500, 296
-0.978081, 469, 209, 500, 335
-0.978128, 349, 129, 380, 192
-0.978185, 65, 129, 192, 192
-0.978186, 9, 113, 72, 176
-0.978231, 261, 113, 292, 240
-0.978247, 97, 241, 224, 304
-0.978307, 249, 257, 280, 320
-0.978335, 209, 97, 240, 224
-0.978338, 329, 145, 360, 272
-0.978361, 413, 145, 444, 208
-0.978364, 469, 105, 500, 168
-0.97841, 165, 81, 196, 208
-0.97841, 33, 265, 64, 328
-0.97853, 361, 233, 392, 296
-0.978596, 353, 25, 480, 88
-0.978631, 117, 177, 148, 304
-0.978653, 129, 177, 192, 240
-0.978681, 65, 185, 192, 248
-0.978695, 273, 113, 304, 240
-0.978698, 209, 273, 336, 335
-0.978707, 97, 233, 128, 296
-0.978775, 241, 153, 368, 216
-0.978786, 17, 153, 80, 216
-0.978808, 1, 177, 128, 240
-0.978828, 129, 153, 256, 216
-0.978851, 461, 65, 492, 192
-0.978857, 265, 153, 328, 216
-0.97887, 369, 1, 432, 335
-0.97897, 377, 97, 408, 224
-0.979195, 57, 137, 88, 200
-0.979236, 133, 65, 164, 128
-0.979295, 341, 97, 372, 224
-0.979295, 61, 177, 92, 304
-0.979335, 149, 169, 180, 232
-0.979361, 193, 97, 320, 160
-0.979399, 193, 169, 320, 232
-0.979418, 273, 217, 400, 280
-0.979505, 313, 113, 344, 240
-0.979507, 149, 57, 180, 120
-0.979532, 245, 209, 276, 335
-0.979535, 253, 113, 284, 176
-0.979545, 193, 225, 320, 288
-0.97955, 61, 273, 92, 335
-0.979588, 385, 1, 416, 64
-0.979697, 345, 113, 408, 176
-0.979737, 49, 177, 80, 304
-0.979807, 153, 161, 184, 288
-0.97987, 5, 161, 36, 288
-0.979873, 429, 185, 460, 248
-0.979897, 321, 17, 448, 144
-0.979898, 201, 145, 232, 272
-0.979899, 97, 9, 128, 72
-0.980003, 373, 145, 404, 208
-0.980037, 21, 273, 52, 335
-0.980184, 305, 33, 432, 96
-0.980198, 277, 161, 308, 288
-0.980267, 33, 161, 64, 288
-0.980306, 137, 129, 168, 192
-0.98032, 61, 209, 92, 272
-0.98039, 97, 81, 128, 144
-0.980416, 77, 177, 108, 240
-0.98044, 33, 81, 64, 208
-0.980511, 333, 169, 364, 232
-0.980545, 53, 113, 84, 176
-0.980558, 153, 33, 184, 160
-0.980609, 49, 185, 80, 248
-0.980621, 145, 81, 272, 144
-0.980689, 313, 137, 376, 200
-0.980693, 261, 241, 292, 304
-0.98082, 433, 273, 496, 335
-0.980913, 185, 153, 216, 216
-0.981004, 109, 249, 140, 312
-0.981021, 89, 17, 152, 80
-0.981059, 345, 249, 376, 312
-0.981068, 469, 57, 500, 120
-0.981071, 397, 209, 428, 272
-0.981115, 145, 177, 272, 240
-0.981184, 221, 273, 252, 335
-0.981189, 425, 97, 456, 224
-0.981274, 413, 1, 444, 128
-0.981291, 289, 25, 352, 88
-0.981292, 89, 265, 120, 328
-0.981294, 249, 233, 280, 296
-0.981306, 17, 161, 48, 288
-0.981369, 1, 57, 128, 120
-0.981385, 353, 193, 384, 256
-0.9814, 161, 89, 192, 152
-0.981404, 185, 65, 216, 128
-0.981506, 329, 49, 392, 112
-0.98156, 445, 81, 476, 144
-0.981628, 17, 209, 144, 272
-0.981682, 461, 1, 492, 64
-0.981696, 457, 105, 488, 168
-0.981733, 89, 193, 120, 320
-0.981741, 273, 273, 400, 335
-0.981813, 145, 105, 176, 168
-0.981859, 33, 209, 64, 335
-0.981862, 221, 177, 252, 304
-0.981868, 49, 217, 80, 280
-0.981958, 165, 17, 196, 144
-0.98196, 97, 33, 128, 96
-0.982, 345, 1, 408, 64
-0.982052, 457, 57, 488, 120
-0.982096, 69, 137, 100, 200
-0.982096, 393, 49, 424, 176
-0.982118, 69, 65, 100, 128
-0.982201, 369, 233, 496, 296
-0.982225, 185, 113, 216, 176
-0.982238, 225, 81, 288, 144
-0.982272, 389, 121, 420, 184
-0.982308, 165, 241, 196, 304
-0.982373, 241, 105, 368, 168
-0.982376, 469, 81, 500, 144
-0.982399, 241, 161, 304, 224
-0.982422, 345, 1, 408, 335
-0.982423, 89, 193, 120, 256
-0.982461, 229, 233, 260, 296
-0.982509, 385, 185, 416, 248
-0.982544, 277, 257, 308, 320
-0.982569, 73, 273, 104, 335
-0.982578, 341, 97, 372, 160
-0.982657, 385, 145, 416, 208
-0.982708, 117, 273, 148, 335
-0.982716, 261, 217, 292, 280
-0.98272, 289, 257, 320, 320
-0.982775, 225, 201, 352, 264
-0.982849, 29, 89, 60, 152
-0.982929, 393, 1, 456, 335
-0.982991, 65, 1, 128, 335
-0.983025, 161, 169, 192, 232
-0.983029, 209, 129, 240, 192
-0.983141, 5, 57, 36, 120
-0.983219, 285, 113, 316, 240
-0.983226, 265, 161, 296, 288
-0.983245, 257, 33, 320, 288
-0.983299, 189, 49, 220, 176
-0.983308, 1, 209, 32, 335
-0.983512, 129, 177, 160, 304
-0.983586, 445, 177, 476, 304
-0.983645, 65, 17, 128, 80
-0.983703, 145, 1, 208, 335
-0.983715, 345, 177, 376, 304
-0.983718, 73, 209, 104, 335
-0.983859, 153, 217, 216, 280
-0.983899, 233, 201, 296, 264
-0.984142, 261, 65, 292, 192
-0.984207, 113, 17, 144, 144
-0.984222, 17, 1, 80, 335
-0.984272, 89, 1, 152, 335
-0.984526, 369, 209, 432, 335
-0.984567, 233, 209, 264, 335
-0.984776, 233, 129, 264, 256
-0.984836, 13, 209, 44, 335
-0.984982, 369, 257, 496, 320
-0.985018, 461, 113, 492, 240
-0.985031, 321, 57, 448, 120
-0.985091, 389, 177, 420, 304
-0.985294, 361, 177, 392, 304
-0.985612, 289, 193, 320, 320
-0.985703, 73, 33, 104, 160
-0.985991, 161, 1, 288, 128
-0.986011, 353, 1, 480, 64
-0.98617, 177, 193, 208, 320
-0.986396, 313, 1, 376, 335
-0.986432, 193, 1, 256, 335
-0.986599, 305, 193, 336, 320
-0.986749, 321, 49, 384, 176
-0.986792, 65, 25, 192, 88
-0.986839, 305, 9, 432, 72
-0.986848, 113, 1, 176, 335
-0.986853, 33, 97, 288, 160
-0.987016, 333, 193, 364, 320
-0.987115, 413, 193, 444, 320
-0.987118, 209, 73, 336, 136
-0.987189, 141, 33, 172, 160
-0.987212, 233, 81, 264, 208
-0.987331, 85, 1, 116, 128
-0.987409, 5, 49, 36, 176
-0.987554, 265, 209, 296, 335
-0.987644, 193, 145, 448, 208
-0.987826, 141, 193, 172, 320
-0.987861, 245, 145, 276, 272
-0.987891, 1, 33, 128, 96
-0.987952, 49, 117, 112, 148
-0.987971, 169, 1, 232, 335
-0.988112, 317, 161, 348, 288
-0.98822, 129, 81, 192, 112
-0.988385, 73, 125, 136, 156
-0.988403, 233, 129, 296, 160
-0.988435, 73, 109, 136, 140
-0.988453, 1, 121, 500, 184
-0.988473, 329, 97, 360, 224
-0.98849, 265, 141, 328, 172
-0.98849, 385, 161, 448, 192
-0.988494, 321, 265, 448, 328
-0.988537, 145, 57, 272, 120
-0.988543, 61, 33, 92, 160
-0.988549, 369, 77, 432, 108
-0.988568, 89, 65, 152, 96
-0.988647, 25, 269, 88, 300
-0.988657, 257, 193, 500, 256
-0.988667, 65, 177, 320, 240
-0.988679, 57, 185, 120, 216
-0.988709, 417, 61, 480, 92
-0.988737, 33, 145, 288, 208
-0.988739, 97, 177, 160, 208
-0.98876, 49, 105, 112, 136
-0.988788, 457, 209, 488, 335
-0.988877, 401, 177, 464, 208
-0.988905, 313, 261, 376, 292
-0.988939, 257, 129, 320, 160
-0.988944, 73, 81, 136, 112
-0.988946, 417, 205, 480, 236
-0.988981, 81, 217, 208, 280
-0.988992, 345, 109, 408, 140
-0.989013, 385, 101, 448, 132
-0.989033, 41, 1, 104, 335
-0.989042, 153, 89, 216, 120
-0.989048, 425, 157, 488, 188
-0.989053, 433, 93, 496, 124
-0.989064, 33, 121, 288, 184
-0.989068, 177, 305, 240, 335
-0.989071, 1, 89, 500, 152
-0.989082, 105, 77, 168, 108
-0.989097, 129, 105, 384, 168
-0.989103, 97, 97, 160, 128
-0.989109, 41, 89, 104, 120
-0.989163, 401, 193, 464, 224
-0.989174, 97, 161, 160, 192
-0.989175, 65, 173, 128, 204
-0.989198, 49, 133, 112, 164
-0.989207, 369, 53, 432, 84
-0.989239, 345, 89, 408, 120
-0.98924, 409, 97, 472, 128
-0.989242, 33, 289, 96, 320
-0.989246, 409, 85, 472, 116
-0.989251, 377, 65, 440, 96
-0.989311, 177, 93, 240, 124
-0.98937, 417, 217, 480, 248
-0.989376, 105, 129, 168, 160
-0.989377, 201, 129, 264, 160
-0.98938, 433, 105, 496, 136
-0.989396, 57, 285, 120, 316
-0.989431, 1, 277, 64, 308
-0.989435, 9, 93, 72, 124
-0.989441, 425, 145, 488, 176
-0.989509, 329, 173, 392, 204
-0.98952, 433, 49, 496, 80
-0.989534, 33, 73, 288, 136
-0.989562, 65, 145, 128, 176
-0.989563, 1, 169, 500, 232
-0.989578, 273, 261, 336, 292
-0.989582, 201, 109, 264, 140
-0.989599, 129, 33, 160, 160
-0.989626, 105, 41, 168, 72
-0.989626, 89, 141, 152, 172
-0.989627, 37, 33, 68, 160
-0.989647, 361, 193, 424, 224
-0.989653, 361, 153, 424, 184
-0.989708, 9, 297, 72, 328
-0.989713, 153, 101, 216, 132
-0.989749, 365, 33, 396, 160
-0.989753, 233, 101, 296, 132
-0.989776, 401, 113, 464, 144
-0.989798, 113, 109, 176, 140
-0.989816, 409, 73, 472, 104
-0.989857, 377, 173, 440, 204
-0.989861, 257, 41, 384, 104
-0.989892, 153, 177, 216, 208
-0.989944, 201, 305, 264, 335
-0.990014, 49, 265, 112, 296
-0.990016, 377, 209, 440, 240
-0.990047, 385, 41, 448, 72
-0.990063, 257, 169, 500, 232
-0.990075, 73, 97, 136, 128
-0.990096, 65, 69, 128, 100
-0.990109, 81, 277, 144, 308
-0.99013, 153, 37, 216, 68
-0.99015, 321, 137, 384, 168
-0.990197, 17, 257, 80, 288
-0.99021, 385, 89, 448, 120
-0.99022, 73, 261, 136, 292
-0.990227, 201, 33, 232, 160
-0.990241, 33, 181, 96, 212
-0.990263, 165, 209, 196, 335
-0.990268, 209, 209, 240, 335
-0.990271, 241, 117, 304, 148
-0.990308, 313, 273, 376, 304
-0.990308, 297, 157, 360, 188
-0.990319, 353, 121, 416, 152
-0.99034, 313, 189, 376, 220
-0.990351, 201, 141, 264, 172
-0.990354, 73, 157, 136, 188
-0.99036, 385, 149, 448, 180
-0.990365, 65, 241, 320, 304
-0.990379, 225, 141, 288, 172
-0.990387, 425, 125, 488, 156
-0.990402, 89, 189, 152, 220
-0.990403, 193, 169, 256, 200
-0.990405, 193, 193, 224, 320
-0.990422, 121, 161, 184, 192
-0.990425, 225, 249, 288, 280
-0.990449, 313, 121, 376, 152
-0.990459, 49, 157, 112, 188
-0.990467, 305, 97, 368, 128
-0.990479, 129, 177, 192, 208
-0.990481, 233, 265, 296, 296
-0.990485, 289, 249, 352, 280
-0.99049, 201, 97, 264, 128
-0.990497, 245, 49, 276, 176
-0.99051, 321, 201, 384, 232
-0.99052, 433, 193, 496, 224
-0.990523, 9, 173, 72, 204
-0.990535, 153, 49, 216, 80
-0.990545, 81, 297, 144, 328
-0.990555, 433, 81, 496, 112
-0.990563, 257, 97, 500, 160
-0.990571, 289, 141, 352, 172
-0.990616, 313, 109, 376, 140
-0.990628, 401, 129, 464, 160
-0.990632, 377, 113, 440, 144
-0.990641, 289, 193, 352, 224
-0.990641, 209, 293, 272, 324
-0.990691, 57, 229, 120, 260
-0.990695, 129, 57, 192, 88
-0.990702, 57, 249, 120, 280
-0.990714, 337, 153, 400, 184
-0.990721, 145, 305, 208, 335
-0.990723, 177, 293, 240, 324
-0.990748, 97, 245, 160, 276
-0.990751, 337, 189, 400, 220
-0.990756, 313, 249, 376, 280
-0.990771, 177, 105, 240, 136
-0.990781, 9, 193, 72, 224
-0.9908, 353, 209, 416, 240
-0.99081, 337, 265, 400, 296
-0.99082, 105, 257, 168, 288
-0.990824, 353, 37, 416, 68
-0.990833, 105, 297, 168, 328
-0.990835, 137, 69, 200, 100
-0.990849, 193, 265, 256, 296
-0.99086, 113, 141, 176, 172
-0.990893, 257, 93, 320, 124
-0.99103, 101, 209, 132, 335
-0.991074, 161, 169, 416, 232
-0.991086, 241, 1, 304, 335
-0.991164, 1, 145, 500, 208
-0.991334, 145, 33, 272, 96
-0.991365, 1, 193, 500, 256
-0.991462, 1, 9, 128, 72
-0.991495, 257, 81, 384, 144
-0.99154, 193, 217, 448, 280
-0.991543, 129, 209, 256, 272
-0.991582, 65, 273, 320, 335
-0.991674, 321, 169, 448, 200
-0.991769, 217, 1, 280, 335
-0.991777, 277, 209, 308, 335
-0.991804, 297, 81, 328, 208
-0.991831, 425, 193, 456, 320
-0.99186, 407, 73, 422, 136
-0.991876, 257, 121, 500, 184
-0.991916, 401, 93, 432, 124
-0.991921, 265, 1, 328, 335
-0.991934, 417, 161, 448, 192
-0.991963, 401, 109, 432, 140
-0.992002, 1, 65, 500, 128
-0.992037, 101, 157, 132, 188
-0.992083, 61, 117, 92, 148
-0.992103, 413, 181, 444, 212
-0.992106, 73, 85, 104, 116
-0.992117, 145, 77, 176, 108
-0.992125, 285, 133, 316, 164
-0.992136, 129, 73, 160, 104
-0.992138, 257, 33, 500, 96
-0.992166, 209, 305, 240, 335
-0.992166, 193, 73, 448, 136
-0.992173, 113, 65, 144, 96
-0.992187, 265, 129, 296, 160
-0.992196, 73, 97, 104, 128
-0.992197, 479, 17, 494, 80
-0.992227, 165, 85, 196, 116
-0.992236, 425, 181, 456, 212
-0.992242, 93, 129, 124, 160
-0.992244, 425, 193, 456, 224
-0.992248, 421, 61, 452, 92
-0.992254, 97, 113, 128, 144
-0.992266, 409, 209, 440, 240
-0.992271, 461, 93, 492, 124
-0.992278, 413, 97, 444, 128
-0.992281, 353, 33, 384, 160
-0.992284, 185, 93, 216, 124
-0.99231, 433, 109, 464, 140
-0.992312, 161, 49, 192, 80
-0.992318, 465, 201, 496, 232
-0.992325, 365, 121, 396, 152
-0.992326, 17, 33, 48, 160
-0.992332, 205, 97, 236, 128
-0.99234, 81, 109, 112, 140
-0.992344, 427, 161, 442, 224
-0.992348, 141, 89, 172, 120
-0.992356, 353, 113, 384, 144
-0.992359, 61, 89, 92, 120
-0.992361, 233, 121, 264, 152
-0.992364, 229, 109, 260, 140
-0.992371, 101, 177, 132, 208
-0.992376, 197, 305, 228, 335
-0.992377, 301, 145, 332, 176
-0.992378, 217, 105, 248, 136
-0.992382, 369, 169, 400, 200
-0.992386, 405, 77, 436, 108
-0.992388, 441, 85, 472, 116
-0.99239, 257, 257, 500, 320
-0.992401, 89, 141, 120, 172
-0.992406, 353, 121, 480, 152
-0.992414, 81, 189, 112, 220
-0.992424, 393, 5, 424, 36
-0.992425, 421, 109, 452, 140
-0.992429, 97, 61, 128, 92
-0.992442, 249, 129, 280, 160
-0.992449, 357, 173, 388, 204
-0.992452, 153, 97, 184, 128
-0.992453, 225, 305, 256, 335
-0.992457, 129, 89, 160, 120
-0.992462, 461, 33, 492, 64
-0.99247, 73, 125, 104, 156
-0.992476, 113, 125, 144, 156
-0.992481, 393, 81, 424, 112
-0.992485, 469, 141, 500, 172
-0.992486, 413, 193, 444, 224
-0.992488, 433, 97, 464, 128
-0.992492, 397, 193, 428, 224
-0.992497, 289, 145, 320, 176
-0.992505, 369, 153, 400, 184
-0.992507, 29, 93, 60, 124
-0.992508, 469, 157, 500, 188
-0.992513, 57, 105, 88, 136
-0.992515, 413, 129, 444, 160
-0.992525, 213, 133, 244, 164
-0.992527, 77, 69, 108, 100
-0.992528, 385, 101, 416, 132
-0.992528, 17, 297, 48, 328
-0.992531, 349, 93, 380, 124
-0.992536, 117, 85, 148, 116
-0.992545, 269, 141, 300, 172
-0.992546, 425, 149, 456, 180
-0.992549, 161, 257, 416, 320
-0.99255, 29, 293, 60, 324
-0.992556, 69, 177, 100, 208
-0.992558, 89, 97, 120, 128
-0.992559, 5, 89, 36, 120
-0.99256, 445, 193, 476, 224
-0.992569, 357, 133, 388, 164
-0.992569, 141, 109, 172, 140
-0.992574, 337, 173, 368, 204
-0.99258, 381, 81, 412, 112
-0.992587, 425, 85, 456, 116
-0.992589, 173, 49, 204, 80
-0.992593, 49, 289, 80, 320
-0.992596, 333, 185, 364, 216
-0.992598, 41, 89, 72, 120
-0.9926, 57, 181, 88, 212
-0.992601, 469, 213, 500, 244
-0.992604, 213, 289, 244, 320
-0.992604, 125, 161, 156, 192
-0.992615, 181, 177, 212, 208
-0.992625, 397, 149, 428, 180
-0.992626, 113, 137, 144, 168
-0.992634, 345, 261, 376, 292
-0.992634, 249, 117, 280, 148
-0.992637, 393, 25, 424, 56
-0.992642, 301, 257, 332, 288
-0.992648, 469, 109, 500, 140
-0.99265, 269, 117, 300, 148
-0.992654, 445, 41, 476, 72
-0.992654, 137, 157, 168, 188
-0.992655, 321, 261, 352, 292
-0.992657, 101, 145, 132, 176
-0.992659, 33, 121, 160, 152
-0.992663, 417, 73, 448, 104
-0.992664, 21, 265, 52, 296
-0.992668, 49, 33, 80, 160
-0.992669, 401, 177, 432, 208
-0.992673, 93, 77, 124, 108
-0.992678, 89, 177, 120, 208
-0.992683, 305, 133, 336, 164
-0.992684, 465, 233, 496, 264
-0.992685, 113, 161, 144, 192
-0.992686, 53, 261, 84, 292
-0.99269, 13, 285, 44, 316
-0.992693, 33, 81, 160, 112
-0.992693, 65, 289, 96, 320
-0.992696, 193, 109, 224, 140
-0.992698, 253, 105, 284, 136
-0.992698, 445, 101, 476, 132
-0.992698, 475, 129, 490, 192
-0.9927, 257, 249, 288, 280
-0.992703, 165, 101, 196, 132
-0.992703, 33, 109, 160, 140
-0.992705, 245, 265, 276, 296
-0.992705, 177, 81, 208, 112
-0.992707, 373, 181, 404, 212
-0.992708, 113, 177, 144, 208
-0.99271, 125, 125, 156, 156
-0.992711, 93, 189, 124, 220
-0.992712, 89, 265, 120, 296
-0.992714, 433, 205, 464, 236
-0.992714, 149, 37, 180, 68
-0.992769, 117, 121, 132, 184
-0.992797, 113, 97, 240, 128
-0.992821, 281, 65, 312, 192
-0.992926, 97, 177, 224, 208
-0.992939, 471, 25, 486, 88
-0.993061, 321, 189, 448, 220
-0.993183, 187, 57, 202, 120
-0.993187, 129, 153, 144, 216
-0.993191, 353, 85, 480, 116
-0.993192, 371, 81, 386, 144
-0.993208, 113, 153, 128, 216
-0.99321, 177, 201, 304, 264
-0.993259, 415, 185, 430, 248
-0.993291, 151, 73, 166, 136
-0.993381, 97, 157, 224, 188
-0.993418, 419, 153, 434, 216
-0.993433, 97, 77, 224, 108
-0.993445, 123, 153, 138, 216
-0.993462, 139, 121, 154, 184
-0.993465, 107, 105, 122, 168
-0.993467, 317, 209, 348, 335
-0.993495, 207, 89, 222, 152
-0.99352, 17, 281, 144, 312
-0.993528, 289, 133, 416, 164
-0.993538, 485, 233, 500, 296
-0.993609, 183, 81, 198, 144
-0.993641, 415, 65, 430, 128
-0.993645, 437, 121, 452, 184
-0.993654, 145, 129, 160, 192
-0.993674, 209, 133, 336, 164
-0.993674, 113, 81, 128, 144
-0.993688, 1, 273, 500, 335
-0.993692, 369, 121, 384, 184
-0.993704, 321, 109, 448, 140
-0.993712, 139, 153, 154, 216
-0.993712, 369, 109, 496, 140
-0.993728, 353, 89, 368, 152
-0.993753, 447, 41, 462, 104
-0.993755, 97, 97, 112, 160
-0.993755, 479, 153, 494, 216
-0.993786, 139, 89, 154, 152
-0.993802, 369, 149, 496, 180
-0.993808, 1, 209, 256, 272
-0.993813, 427, 57, 442, 120
-0.99382, 485, 17, 500, 80
-0.993824, 281, 49, 344, 176
-0.993836, 437, 145, 452, 208
-0.993853, 321, 145, 448, 176
-0.993869, 369, 225, 496, 256
-0.993883, 425, 1, 456, 128
-0.993888, 113, 113, 240, 144
-0.993914, 377, 81, 392, 144
-0.993919, 409, 185, 424, 248
-0.993953, 353, 133, 480, 164
-0.99399, 77, 73, 92, 136
-0.993993, 1, 185, 128, 216
-0.993999, 409, 9, 424, 72
-0.994008, 477, 89, 492, 152
-0.99402, 163, 65, 178, 128
-0.994026, 447, 81, 462, 144
-0.994027, 473, 49, 488, 112
-0.994036, 107, 137, 122, 200
-0.99405, 177, 113, 304, 144
-0.994051, 113, 125, 240, 156
-0.994068, 421, 185, 436, 248
-0.994076, 235, 105, 250, 168
-0.994088, 83, 105, 98, 168
-0.994093, 85, 81, 100, 144
-0.994107, 95, 121, 110, 184
-0.994138, 65, 93, 192, 124
-0.994138, 33, 137, 160, 168
-0.994145, 1, 97, 128, 128
-0.994163, 411, 105, 426, 168
-0.994171, 305, 257, 320, 320
-0.99418, 321, 157, 448, 188
-0.994181, 393, 81, 408, 144
-0.994194, 1, 269, 128, 300
-0.994206, 485, 153, 500, 216
-0.994207, 161, 193, 416, 256
-0.994214, 189, 89, 204, 152
-0.994221, 399, 73, 414, 136
-0.994229, 145, 81, 160, 144
-0.994237, 257, 257, 384, 288
-0.994256, 371, 145, 386, 208
-0.994267, 389, 145, 404, 208
-0.994269, 175, 73, 190, 136
-0.994271, 193, 101, 320, 132
-0.994271, 55, 89, 70, 152
-0.994275, 399, 49, 414, 112
-0.994301, 43, 89, 58, 152
-0.994312, 65, 265, 192, 296
-0.994328, 439, 65, 454, 128
-0.994339, 241, 97, 368, 128
-0.99434, 385, 73, 400, 136
-0.994352, 65, 105, 80, 168
-0.994354, 289, 93, 416, 124
-0.994366, 133, 121, 148, 184
-0.994377, 107, 169, 122, 232
-0.994381, 241, 161, 368, 192
-0.994394, 169, 81, 184, 144
-0.994399, 145, 305, 272, 335
-0.994402, 389, 25, 404, 88
-0.994403, 337, 205, 464, 236
-0.994406, 127, 121, 142, 184
-0.994408, 103, 41, 118, 104
-0.994409, 71, 169, 86, 232
-0.994413, 409, 49, 424, 112
-0.994439, 221, 105, 236, 168
-0.994448, 273, 121, 400, 152
-0.994455, 17, 173, 144, 204
-0.99447, 103, 9, 118, 72
-0.994477, 225, 149, 352, 180
-0.994477, 73, 113, 88, 176
-0.994483, 473, 1, 488, 64
-0.994497, 399, 185, 414, 248
-0.994505, 359, 89, 374, 152
-0.994506, 121, 81, 136, 144
-0.994531, 49, 69, 176, 100
-0.994546, 201, 89, 216, 152
-0.99455, 337, 97, 464, 128
-0.994551, 385, 169, 400, 232
-0.994565, 145, 261, 272, 292
-0.994591, 91, 81, 106, 144
-0.994594, 157, 65, 172, 128
-0.994595, 145, 153, 160, 216
-0.994599, 71, 81, 86, 144
-0.994602, 479, 41, 494, 104
-0.994603, 485, 193, 500, 256
-0.994616, 177, 145, 304, 176
-0.99462, 133, 89, 148, 152
-0.994626, 485, 121, 500, 184
-0.994634, 105, 73, 120, 136
-0.994638, 17, 293, 144, 324
-0.994645, 13, 81, 28, 144
-0.994679, 97, 161, 112, 224
-0.994682, 259, 249, 274, 312
-0.994689, 369, 161, 496, 192
-0.994703, 81, 129, 96, 192
-0.994709, 111, 49, 126, 112
-0.994714, 401, 113, 416, 176
-0.994715, 113, 137, 240, 168
-0.99474, 97, 61, 224, 92
-0.994743, 339, 161, 354, 224
-0.994761, 273, 173, 400, 204
-0.994762, 97, 217, 352, 280
-0.994777, 227, 97, 242, 160
-0.994786, 413, 33, 444, 288
-0.994798, 7, 97, 22, 160
-0.994802, 289, 1, 352, 335
-0.994806, 73, 137, 88, 200
-0.994818, 99, 73, 114, 136
-0.99484, 299, 137, 314, 200
-0.994871, 227, 273, 242, 335
-0.994871, 215, 97, 230, 160
-0.994882, 161, 49, 416, 112
-0.994903, 49, 241, 176, 272
-0.994906, 421, 89, 436, 152
-0.994907, 5, 273, 20, 335
-0.994919, 145, 81, 272, 112
-0.994945, 385, 49, 400, 112
-0.994953, 209, 305, 336, 335
-0.994968, 17, 149, 144, 180
-0.994975, 359, 233, 374, 296
-0.994979, 195, 89, 210, 152
-0.99499, 385, 33, 416, 288
-0.994997, 471, 89, 486, 152
-0.995006, 363, 121, 378, 184
-0.995009, 33, 49, 288, 112
-0.995012, 147, 105, 162, 168
-0.995023, 65, 81, 80, 144
-0.995027, 405, 209, 420, 272
-0.995031, 391, 49, 406, 112
-0.995031, 109, 233, 124, 296
-0.995034, 285, 121, 300, 184
-0.995034, 81, 177, 96, 240
-0.995039, 153, 97, 168, 160
-0.995054, 405, 145, 420, 208
-0.995054, 127, 89, 142, 152
-0.995068, 249, 105, 264, 168
-0.995087, 393, 185, 408, 248
-0.995101, 265, 241, 280, 304
-0.995103, 379, 121, 394, 184
-0.995112, 427, 129, 442, 192
-0.995115, 389, 1, 404, 64
-0.995115, 365, 89, 380, 152
-0.995121, 369, 73, 496, 104
-0.995122, 311, 257, 326, 320
-0.995126, 113, 293, 240, 324
-0.995145, 89, 137, 104, 200
-0.995151, 33, 25, 288, 88
-0.995156, 457, 193, 472, 256
-0.995158, 273, 109, 400, 140
-0.995162, 225, 9, 352, 72
-0.995186, 369, 181, 496, 212
-0.995188, 209, 257, 336, 288
-0.995209, 225, 269, 352, 300
-0.99523, 225, 113, 352, 144
-0.995236, 1, 257, 128, 288
-0.995242, 369, 193, 496, 224
-0.995272, 1, 305, 128, 335
-0.995314, 177, 157, 304, 188
-0.995322, 273, 201, 400, 232
-0.995325, 97, 37, 224, 68
-0.995336, 49, 161, 176, 192
-0.995337, 161, 133, 288, 164
-0.995344, 65, 277, 192, 308
-0.995355, 1, 69, 128, 100
-0.995359, 273, 145, 400, 176
-0.995366, 1, 249, 500, 312
-0.995418, 257, 9, 500, 72
-0.99544, 65, 193, 192, 224
-0.995462, 65, 297, 192, 328
-0.995549, 257, 245, 384, 276
-0.995571, 97, 249, 224, 280
-0.995578, 81, 1, 208, 64
-0.995609, 85, 65, 116, 320
-0.995616, 1, 41, 500, 104
-0.995624, 97, 49, 224, 80
-0.995693, 145, 53, 272, 84
-0.995729, 177, 41, 304, 72
-0.995756, 445, 1, 476, 256
-0.995774, 193, 49, 320, 112
-0.995803, 177, 169, 304, 200
-0.99585, 353, 41, 480, 72
-0.995865, 337, 301, 464, 332
-0.99587, 1, 205, 128, 236
-0.9959, 49, 65, 80, 320
-0.995958, 97, 1, 352, 64
-0.995958, 149, 33, 180, 288
-0.995964, 257, 225, 384, 256
-0.995976, 225, 173, 352, 204
-0.996012, 365, 65, 396, 320
-0.996019, 105, 33, 136, 288
-0.996075, 17, 65, 48, 320
-0.996088, 161, 273, 288, 304
-0.996099, 177, 237, 304, 268
-0.996109, 193, 289, 320, 320
-0.99612, 69, 65, 100, 320
-0.996126, 305, 237, 432, 268
-0.99614, 397, 1, 428, 256
-0.996159, 309, 65, 340, 320
-0.99616, 289, 213, 416, 244
-0.996189, 433, 1, 464, 256
-0.996196, 129, 65, 160, 320
-0.996204, 1, 217, 500, 280
-0.996205, 369, 29, 496, 60
-0.996226, 457, 1, 488, 256
-0.996304, 273, 185, 400, 216
-0.996313, 49, 45, 176, 76
-0.996346, 1, 161, 128, 192
-0.996392, 353, 53, 480, 84
-0.996396, 1, 245, 128, 276
-0.996449, 257, 305, 384, 335
-0.99645, 201, 65, 232, 320
-0.996478, 173, 65, 204, 320
-0.996501, 241, 65, 272, 320
-0.996541, 469, 1, 500, 256
-0.996552, 113, 273, 240, 304
-0.996584, 145, 249, 272, 280
-0.996584, 305, 261, 432, 292
-0.996621, 427, 161, 442, 192
-0.996642, 129, 237, 256, 268
-0.996649, 193, 85, 320, 116
-0.996658, 49, 253, 176, 284
-0.99667, 185, 65, 216, 320
-0.996674, 17, 229, 144, 260
-0.996703, 193, 225, 320, 256
-0.996711, 193, 185, 320, 216
-0.996742, 405, 93, 420, 124
-0.996751, 419, 177, 434, 208
-0.996755, 5, 65, 36, 320
-0.996755, 367, 121, 382, 152
-0.996782, 37, 65, 68, 320
-0.996799, 421, 165, 436, 196
-0.996857, 147, 77, 162, 108
-0.996864, 409, 73, 424, 104
-0.996869, 369, 133, 384, 164
-0.99687, 353, 65, 384, 320
-0.99687, 221, 65, 252, 320
-0.996878, 293, 133, 308, 164
-0.996882, 213, 301, 228, 332
-0.996892, 485, 153, 500, 184
-0.996924, 153, 77, 168, 108
-0.996944, 161, 33, 192, 288
-0.996953, 79, 85, 94, 116
-0.996953, 175, 81, 190, 112
-0.996953, 369, 289, 496, 320
-0.99696, 147, 89, 162, 120
-0.996966, 479, 157, 494, 188
-0.996972, 97, 125, 112, 156
-0.996978, 475, 145, 490, 176
-0.996982, 219, 293, 234, 324
-0.996997, 437, 153, 452, 184
-0.997001, 229, 305, 244, 335
-0.997008, 413, 193, 428, 224
-0.997011, 249, 17, 312, 144
-0.997012, 305, 249, 432, 280
-0.997018, 105, 29, 120, 60
-0.997026, 289, 273, 416, 304
-0.997036, 479, 21, 494, 52
-0.99704, 427, 173, 442, 204
-0.997049, 303, 137, 318, 168
-0.997053, 223, 305, 238, 335
-0.997065, 307, 253, 322, 284
-0.997091, 369, 245, 496, 276
-0.997105, 403, 109, 418, 140
-0.997106, 421, 193, 436, 224
-0.997111, 231, 105, 246, 136
-0.997117, 85, 85, 100, 116
-0.997118, 167, 49, 182, 80
-0.997122, 145, 181, 272, 212
-0.997124, 107, 117, 122, 148
-0.997127, 465, 89, 480, 120
-0.997129, 91, 97, 106, 128
-0.997133, 117, 65, 148, 320
-0.997138, 103, 17, 118, 48
-0.997144, 261, 65, 292, 320
-0.997162, 189, 89, 204, 120
-0.997169, 417, 205, 432, 236
-0.997173, 341, 65, 372, 320
-0.997175, 1, 89, 16, 120
-0.997176, 139, 73, 154, 104
-0.997188, 241, 213, 368, 244
-0.99719, 91, 133, 106, 164
-0.997193, 351, 93, 366, 124
-0.997195, 305, 81, 432, 112
-0.997201, 201, 93, 216, 124
-0.997202, 281, 129, 296, 160
-0.997209, 243, 109, 258, 140
-0.997212, 479, 9, 494, 40
-0.997219, 153, 97, 168, 128
-0.997224, 397, 109, 412, 140
-0.997226, 427, 61, 442, 92
-0.997241, 91, 85, 106, 116
-0.997246, 265, 129, 280, 160
-0.997249, 117, 125, 132, 156
-0.997252, 369, 261, 496, 292
-0.997253, 437, 165, 452, 196
-0.997254, 427, 193, 442, 224
-0.997255, 131, 77, 146, 108
-0.997256, 409, 109, 424, 140
-0.99726, 287, 133, 302, 164
-0.997261, 263, 249, 278, 280
-0.997272, 397, 81, 412, 112
-0.997281, 161, 81, 176, 112
-0.997282, 105, 1, 120, 32
-0.997304, 437, 53, 452, 84
-0.997305, 385, 169, 400, 200
-0.997306, 31, 293, 46, 324
-0.997319, 83, 133, 98, 164
-0.997337, 439, 97, 454, 128
-0.997338, 471, 89, 486, 120
-0.997342, 167, 81, 182, 112
-0.997343, 211, 97, 226, 128
-0.997354, 321, 225, 448, 256
-0.997357, 387, 157, 402, 188
-0.997357, 83, 105, 98, 136
-0.997365, 183, 49, 198, 80
-0.997365, 149, 113, 164, 144
-0.997366, 253, 261, 268, 292
-0.99737, 65, 117, 80, 148
-0.997371, 257, 249, 272, 280
-0.997374, 315, 261, 330, 292
-0.997377, 103, 177, 118, 208
-0.997378, 447, 101, 462, 132
-0.997385, 273, 129, 288, 160
-0.997387, 127, 161, 142, 192
-0.997394, 415, 93, 430, 124
-0.997398, 473, 29, 488, 60
-0.997399, 97, 137, 112, 168
-0.997399, 7, 89, 22, 120
-0.997401, 207, 305, 222, 335
-0.997404, 191, 49, 206, 80
-0.997409, 159, 61, 174, 92
-0.997413, 159, 37, 174, 68
-0.997418, 473, 53, 488, 84
-0.997421, 397, 97, 412, 128
-0.997424, 477, 93, 492, 124
-0.997427, 369, 277, 496, 308
-0.997429, 107, 141, 122, 172
-0.997431, 409, 5, 424, 36
-0.997449, 313, 249, 328, 280
-0.997453, 65, 89, 80, 120
-0.997453, 389, 41, 404, 72
-0.997455, 105, 57, 120, 88
-0.997461, 159, 49, 174, 80
-0.997467, 403, 77, 418, 108
-0.997468, 115, 81, 130, 112
-0.997481, 121, 73, 136, 104
-0.997487, 183, 89, 198, 120
-0.997493, 245, 265, 260, 296
-0.997496, 423, 113, 438, 144
-0.997502, 105, 157, 120, 188
-0.997505, 485, 217, 500, 248
-0.997505, 485, 21, 500, 52
-0.997511, 379, 157, 394, 188
-0.997512, 57, 125, 72, 156
-0.997515, 257, 93, 272, 124
-0.997516, 293, 145, 308, 176
-0.99752, 141, 85, 156, 116
-0.997521, 223, 101, 238, 132
-0.997521, 99, 105, 114, 136
-0.997521, 225, 289, 240, 320
-0.997524, 115, 61, 130, 92
-0.997525, 437, 85, 452, 116
-0.997531, 409, 213, 424, 244
-0.997533, 475, 133, 490, 164
-0.997535, 111, 105, 126, 136
-0.997536, 139, 125, 154, 156
-0.997538, 103, 45, 118, 76
-0.997543, 407, 193, 422, 224
-0.997544, 297, 65, 328, 320
-0.997544, 369, 109, 384, 140
-0.997545, 225, 201, 352, 232
-0.997546, 97, 189, 112, 220
-0.997555, 37, 289, 52, 320
-0.997558, 415, 77, 430, 108
-0.997562, 121, 173, 136, 204
-0.997576, 257, 81, 384, 112
-0.997586, 273, 33, 400, 64
-0.997604, 369, 17, 496, 48
-0.997631, 81, 225, 208, 256
-0.997693, 1, 217, 128, 248
-0.997696, 257, 289, 384, 320
-0.997714, 145, 65, 272, 96
-0.997777, 161, 25, 416, 88
-0.99778, 1, 57, 128, 88
-0.997843, 49, 57, 176, 88
-0.997962, 145, 29, 272, 60
-0.99799, 65, 205, 192, 236
-0.998045, 281, 65, 312, 320
-0.998084, 129, 193, 256, 224
-0.998113, 305, 289, 432, 320
-0.998116, 225, 45, 352, 76
-0.998132, 321, 65, 352, 320
-0.998277, 117, 97, 132, 224
-0.998349, 49, 125, 112, 140
-0.998364, 73, 125, 136, 140
-0.998369, 177, 9, 304, 72
-0.998371, 107, 97, 122, 224
-0.998374, 65, 135, 128, 150
-0.998375, 49, 119, 112, 134
-0.998379, 105, 73, 168, 88
-0.998387, 97, 127, 160, 142
-0.998389, 241, 135, 304, 150
-0.998393, 153, 93, 216, 108
-0.998407, 417, 61, 480, 76
-0.998408, 345, 115, 408, 130
-0.998413, 385, 161, 448, 176
-0.998417, 425, 159, 488, 174
-0.998423, 129, 79, 192, 94
-0.998423, 385, 67, 448, 82
-0.998426, 257, 141, 320, 156
-0.998436, 105, 79, 168, 94
-0.998438, 17, 95, 80, 110
-0.998443, 433, 93, 496, 108
-0.998444, 65, 111, 128, 126
-0.998445, 385, 111, 448, 126
-0.998447, 409, 103, 472, 118
-0.99845, 225, 129, 288, 144
-0.998456, 385, 97, 448, 112
-0.998456, 73, 101, 136, 116
-0.99846, 193, 315, 256, 330
-0.998462, 81, 69, 144, 84
-0.998462, 137, 101, 200, 116
-0.998463, 57, 187, 120, 202
-0.998463, 377, 73, 440, 88
-0.998464, 185, 101, 248, 116
-0.998469, 345, 107, 408, 122
-0.998469, 321, 143, 384, 158
-0.99847, 377, 81, 440, 96
-0.99847, 97, 97, 160, 112
-0.99847, 113, 87, 176, 102
-0.99847, 377, 61, 440, 76
-0.998471, 193, 321, 256, 335
-0.998473, 433, 165, 496, 180
-0.998473, 81, 83, 144, 98
-0.998475, 369, 35, 432, 50
-0.998476, 329, 175, 392, 190
-0.998477, 89, 161, 152, 176
-0.998477, 417, 195, 480, 210
-0.998478, 97, 105, 160, 120
-0.998482, 145, 85, 208, 100
-0.998482, 73, 119, 136, 134
-0.998484, 417, 207, 480, 222
-0.998485, 401, 77, 464, 92
-0.998487, 105, 47, 168, 62
-0.998489, 417, 69, 480, 84
-0.99849, 65, 145, 128, 160
-0.99849, 409, 169, 472, 184
-0.99849, 425, 55, 488, 70
-0.998492, 9, 307, 72, 322
-0.998493, 129, 93, 192, 108
-0.998494, 447, 33, 462, 160
-0.998497, 393, 23, 424, 38
-0.998497, 137, 83, 168, 98
-0.998497, 233, 139, 264, 154
-0.998498, 477, 1, 492, 128
-0.998498, 97, 81, 128, 96
-0.998498, 433, 99, 496, 114
-0.998499, 377, 53, 440, 68
-0.998499, 57, 181, 120, 196
-0.9985, 229, 321, 260, 335
-0.9985, 305, 195, 368, 210
-0.998501, 413, 77, 444, 92
-0.998501, 409, 97, 472, 112
-0.998501, 377, 163, 408, 178
-0.998502, 93, 27, 124, 42
-0.998502, 369, 321, 432, 335
-0.998502, 349, 95, 380, 110
-0.998502, 129, 253, 160, 268
-0.998502, 57, 237, 120, 252
-0.998502, 433, 87, 464, 102
-0.998503, 297, 267, 328, 282
-0.998503, 45, 261, 76, 276
-0.998503, 305, 143, 336, 158
-0.998504, 369, 123, 432, 138
-0.998505, 121, 159, 184, 174
-0.998505, 433, 109, 464, 124
-0.998505, 89, 133, 152, 148
-0.998506, 357, 131, 388, 146
-0.998506, 177, 317, 208, 332
-0.998506, 417, 219, 480, 234
-0.998507, 433, 77, 464, 92
-0.998507, 217, 263, 280, 278
-0.998507, 421, 93, 452, 108
-0.998507, 425, 153, 488, 168
-0.998508, 385, 103, 448, 118
-0.998508, 201, 311, 232, 326
-0.998508, 425, 191, 456, 206
-0.99851, 345, 93, 408, 108
-0.998511, 373, 115, 404, 130
-0.998511, 349, 111, 380, 126
-0.998511, 201, 141, 264, 156
-0.998511, 357, 175, 388, 190
-0.998511, 105, 153, 168, 168
-0.998512, 257, 263, 320, 278
-0.998512, 81, 177, 144, 192
-0.998512, 65, 77, 96, 92
-0.998512, 57, 175, 120, 190
-0.998513, 409, 109, 472, 124
-0.998513, 445, 197, 476, 212
-0.998513, 313, 263, 376, 278
-0.998513, 9, 303, 40, 318
-0.998513, 361, 155, 424, 170
-0.998514, 425, 181, 456, 196
-0.998514, 433, 107, 496, 122
-0.998515, 353, 41, 416, 56
-0.998515, 49, 93, 80, 108
-0.998516, 281, 147, 344, 162
-0.998518, 141, 101, 172, 116
-0.998518, 33, 133, 96, 148
-0.998519, 245, 129, 276, 144
-0.99852, 385, 119, 416, 134
-0.99852, 113, 135, 144, 150
-0.99852, 61, 139, 92, 154
-0.998521, 385, 177, 448, 192
-0.998521, 337, 177, 368, 192
-0.998522, 217, 319, 248, 334
-0.998522, 313, 273, 376, 288
-0.998523, 177, 89, 208, 104
-0.998524, 93, 101, 124, 116
-0.998524, 469, 223, 500, 238
-0.998524, 41, 89, 104, 104
-0.998524, 193, 307, 256, 322
-0.998524, 17, 293, 80, 308
-0.998524, 345, 121, 408, 136
-0.998524, 201, 107, 264, 122
-0.998525, 121, 127, 184, 142
-0.998525, 57, 83, 88, 98
-0.998525, 413, 187, 444, 202
-0.998525, 337, 99, 400, 114
-0.998526, 113, 137, 176, 152
-0.998526, 173, 53, 204, 68
-0.998527, 133, 89, 164, 104
-0.998527, 57, 289, 120, 304
-0.998528, 33, 97, 64, 112
-0.998529, 465, 237, 496, 252
-0.998529, 153, 55, 216, 70
-0.998529, 385, 167, 448, 182
-0.998529, 93, 151, 124, 166
-0.99853, 13, 93, 44, 108
-0.998531, 25, 301, 88, 316
-0.998531, 13, 297, 44, 312
-0.998531, 401, 101, 432, 116
-0.998531, 297, 159, 360, 174
-0.998532, 73, 283, 136, 298
-0.998532, 49, 105, 112, 120
-0.998532, 461, 99, 492, 114
-0.998533, 369, 181, 400, 196
-0.998533, 101, 41, 132, 56
-0.998534, 405, 211, 436, 226
-0.998534, 409, 91, 472, 106
-0.998535, 41, 267, 104, 282
-0.998535, 105, 143, 168, 158
-0.998535, 417, 213, 480, 228
-0.998535, 25, 295, 56, 310
-0.998536, 401, 187, 464, 202
-0.998536, 1, 281, 64, 296
-0.998536, 153, 107, 216, 122
-0.998536, 405, 89, 436, 104
-0.998537, 161, 53, 192, 68
-0.998537, 65, 75, 128, 90
-0.998538, 133, 127, 164, 142
-0.998538, 9, 309, 40, 324
-0.998538, 73, 99, 104, 114
-0.998538, 121, 49, 136, 176
-0.998538, 469, 163, 500, 178
-0.998539, 1, 283, 32, 298
-0.998539, 77, 139, 108, 154
-0.998539, 433, 131, 496, 146
-0.99854, 337, 187, 400, 202
-0.99854, 465, 203, 496, 218
-0.99854, 297, 165, 360, 180
-0.99854, 77, 85, 108, 100
-0.99854, 65, 153, 128, 168
-0.998541, 297, 171, 360, 186
-0.998541, 329, 181, 392, 196
-0.998542, 321, 149, 384, 164
-0.998542, 461, 35, 492, 50
-0.998542, 9, 275, 40, 290
-0.998542, 281, 265, 344, 280
-0.998543, 41, 261, 104, 276
-0.998543, 305, 115, 368, 130
-0.998544, 413, 165, 444, 180
-0.998544, 425, 141, 488, 156
-0.998544, 377, 213, 440, 228
-0.998544, 97, 243, 160, 258
-0.998545, 241, 257, 304, 272
-0.998545, 89, 41, 152, 56
-0.998545, 401, 117, 464, 132
-0.998547, 89, 169, 152, 184
-0.998547, 97, 75, 128, 90
-0.998548, 421, 99, 452, 114
-0.998548, 361, 193, 424, 208
-0.998549, 345, 35, 408, 50
-0.99855, 305, 99, 368, 114
-0.998551, 41, 243, 104, 258
-0.998551, 269, 131, 300, 146
-0.998551, 61, 133, 92, 148
-0.998551, 97, 119, 128, 134
-0.998552, 393, 45, 456, 60
-0.998552, 105, 111, 168, 126
-0.998552, 397, 17, 428, 32
-0.998554, 81, 125, 112, 140
-0.998554, 201, 101, 232, 116
-0.998555, 381, 107, 412, 122
-0.998556, 413, 197, 444, 212
-0.998556, 151, 97, 166, 224
-0.998557, 125, 113, 140, 240
-0.998558, 403, 65, 418, 192
-0.998559, 105, 127, 136, 142
-0.998559, 101, 177, 132, 192
-0.99856, 393, 83, 424, 98
-0.998562, 377, 37, 408, 52
-0.998562, 149, 81, 180, 96
-0.998562, 409, 49, 424, 176
-0.998563, 367, 81, 382, 208
-0.998563, 465, 213, 496, 228
-0.998563, 293, 147, 324, 162
-0.998564, 81, 119, 112, 134
-0.998564, 357, 81, 372, 208
-0.998567, 421, 71, 452, 86
-0.998568, 401, 95, 432, 110
-0.998568, 229, 111, 260, 126
-0.998568, 57, 117, 88, 132
-0.998571, 245, 261, 276, 276
-0.998571, 141, 113, 156, 240
-0.998572, 209, 305, 240, 320
-0.998573, 195, 81, 210, 208
-0.998573, 101, 163, 132, 178
-0.998574, 397, 121, 428, 136
-0.998575, 189, 95, 220, 110
-0.998577, 397, 9, 428, 24
-0.998577, 413, 131, 444, 146
-0.998578, 369, 171, 400, 186
-0.998578, 93, 145, 124, 160
-0.998579, 425, 157, 456, 172
-0.998579, 413, 111, 444, 126
-0.998583, 469, 153, 500, 168
-0.998588, 441, 101, 472, 116
-0.998588, 193, 317, 224, 332
-0.99859, 77, 133, 108, 148
-0.998591, 217, 313, 248, 328
-0.998592, 425, 169, 456, 184
-0.998596, 217, 107, 248, 122
-0.998596, 77, 71, 108, 86
-0.9986, 421, 61, 452, 76
-0.998603, 427, 49, 442, 176
-0.998604, 365, 121, 396, 136
-0.998605, 461, 93, 492, 108
-0.998608, 85, 107, 116, 122
-0.998609, 129, 77, 160, 92
-0.998611, 93, 125, 124, 140
-0.998612, 101, 157, 132, 172
-0.998612, 353, 125, 384, 140
-0.998613, 115, 49, 130, 176
-0.998615, 93, 135, 124, 150
-0.998617, 285, 137, 316, 152
-0.998621, 25, 301, 56, 316
-0.998621, 465, 17, 480, 144
-0.998627, 421, 105, 452, 120
-0.998627, 413, 113, 428, 240
-0.99863, 401, 109, 432, 124
-0.998631, 97, 65, 128, 80
-0.998632, 105, 1, 120, 128
-0.998634, 205, 317, 236, 332
-0.998635, 131, 81, 146, 208
-0.998639, 429, 129, 444, 256
-0.998644, 401, 115, 432, 130
-0.998647, 379, 81, 394, 208
-0.998647, 61, 123, 92, 138
-0.998648, 485, 129, 500, 256
-0.998652, 419, 113, 434, 240
-0.998653, 417, 175, 448, 190
-0.998653, 425, 163, 456, 178
-0.998655, 471, 17, 486, 144
-0.998655, 455, 33, 470, 160
-0.998674, 117, 127, 148, 142
-0.998676, 353, 119, 384, 134
-0.998687, 71, 81, 86, 208
-0.998688, 65, 129, 80, 256
-0.99869, 73, 129, 88, 256
-0.998691, 189, 97, 204, 224
-0.998693, 113, 71, 144, 86
-0.998693, 437, 81, 452, 208
-0.998701, 389, 33, 404, 160
-0.998707, 109, 49, 124, 176
-0.998744, 417, 161, 432, 288
-0.998745, 97, 65, 112, 192
-0.99875, 369, 129, 384, 256
-0.998753, 405, 129, 420, 256
-0.998762, 55, 81, 70, 208
-0.998767, 397, 97, 412, 224
-0.998768, 77, 65, 92, 192
-0.998768, 447, 97, 462, 224
-0.998771, 415, 49, 430, 176
-0.998781, 415, 1, 430, 128
-0.998783, 483, 1, 498, 128
-0.998787, 135, 129, 150, 256
-0.99879, 395, 49, 410, 176
-0.998793, 351, 113, 366, 240
-0.998796, 147, 145, 162, 272
-0.998816, 207, 97, 222, 224
-0.998822, 111, 145, 126, 272
-0.998835, 225, 97, 240, 224
-0.998837, 195, 161, 210, 288
-0.998847, 13, 97, 28, 224
-0.998864, 7, 81, 22, 208
-0.998867, 439, 33, 454, 160
-0.998877, 117, 161, 132, 288
-0.998888, 185, 33, 200, 160
-0.99889, 99, 129, 114, 256
-0.998892, 171, 177, 186, 304
-0.998896, 35, 81, 50, 208
-0.998896, 65, 81, 80, 208
-0.998898, 187, 145, 202, 272
-0.998898, 179, 161, 194, 288
-0.9989, 421, 49, 436, 176
-0.998901, 473, 129, 488, 256
-0.998908, 253, 81, 268, 208
-0.998908, 163, 161, 178, 288
-0.998916, 157, 97, 172, 224
-0.998916, 305, 145, 320, 272
-0.998917, 85, 81, 100, 208
-0.998918, 485, 209, 500, 335
-0.998921, 273, 97, 288, 224
-0.998925, 19, 97, 34, 224
-0.998926, 79, 129, 94, 256
-0.998928, 53, 161, 68, 288
-0.998928, 69, 177, 84, 304
-0.99893, 105, 145, 120, 272
-0.998931, 391, 97, 406, 224
-0.998934, 157, 33, 172, 160
-0.998936, 43, 161, 58, 288
-0.99894, 373, 81, 388, 208
-0.998942, 87, 161, 102, 288
-0.998946, 239, 209, 254, 335
-0.99895, 201, 145, 216, 272
-0.998952, 411, 161, 426, 288
-0.998958, 183, 97, 198, 224
-0.99896, 409, 1, 424, 128
-0.998961, 41, 81, 56, 208
-0.998961, 47, 81, 62, 208
-0.998969, 201, 81, 216, 208
-0.998973, 339, 145, 354, 272
-0.998973, 153, 177, 168, 304
-0.998975, 29, 81, 44, 208
-0.998976, 285, 113, 300, 240
-0.998976, 435, 145, 450, 272
-0.998982, 133, 177, 148, 304
-0.998987, 167, 97, 182, 224
-0.998991, 363, 129, 378, 256
-0.998992, 75, 177, 90, 304
-0.999, 63, 177, 78, 304
-0.999001, 213, 129, 228, 256
-0.999002, 91, 49, 106, 176
-0.999003, 191, 33, 206, 160
-0.999004, 259, 65, 274, 192
-0.999004, 217, 81, 232, 208
-0.999006, 387, 145, 402, 272
-0.999007, 311, 145, 326, 272
-0.999008, 293, 161, 308, 288
-0.999017, 141, 177, 156, 304
-0.999023, 103, 193, 118, 320
-0.999024, 27, 161, 42, 288
-0.999025, 249, 209, 264, 335
-0.999028, 425, 177, 440, 304
-0.999039, 33, 161, 48, 288
-0.99904, 477, 49, 492, 176
-0.99904, 479, 145, 494, 272
-0.999042, 103, 49, 118, 176
-0.999051, 383, 17, 398, 144
-0.999056, 321, 97, 336, 224
-0.999056, 455, 81, 470, 208
-0.999064, 13, 161, 28, 288
-0.999066, 91, 113, 106, 240
-0.99907, 7, 177, 22, 304
-0.999076, 265, 113, 280, 240
-0.999087, 59, 129, 74, 256
-0.999088, 139, 65, 154, 192
-0.99909, 259, 113, 274, 240
-0.999093, 377, 161, 392, 288
-0.999094, 357, 129, 372, 256
-0.999098, 279, 113, 294, 240
-0.999099, 207, 145, 222, 272
-0.999164, 1, 1, 256, 64
-0.999687, 413, 67, 428, 82
-0.999688, 101, 117, 116, 132
-0.999688, 409, 15, 424, 30
-0.999688, 53, 123, 68, 138
-0.999688, 19, 303, 34, 318
-0.999689, 145, 77, 160, 92
-0.999689, 411, 193, 426, 208
-0.99969, 97, 127, 112, 142
-0.999691, 5, 141, 20, 156
-0.999691, 315, 277, 330, 292
-0.999692, 107, 133, 122, 148
-0.999693, 407, 91, 422, 106
-0.999693, 31, 303, 46, 318
-0.999694, 1, 283, 16, 298
-0.999694, 387, 155, 402, 170
-0.999694, 161, 83, 176, 98
-0.999695, 339, 177, 354, 192
-0.999695, 31, 95, 46, 110
-0.999695, 167, 83, 182, 98
-0.999696, 225, 105, 240, 120
-0.999696, 107, 111, 122, 126
-0.999696, 67, 111, 82, 126
-0.999696, 71, 117, 86, 132
-0.999696, 303, 141, 318, 156
-0.999697, 307, 259, 322, 274
-0.999697, 97, 101, 112, 116
-0.999699, 475, 131, 490, 146
-0.9997, 437, 77, 452, 92
-0.999701, 67, 265, 82, 280
-0.999701, 479, 15, 494, 30
-0.999701, 105, 13, 120, 28
-0.999701, 351, 95, 366, 110
-0.999702, 107, 101, 122, 116
-0.999702, 437, 157, 452, 172
-0.999703, 385, 185, 400, 200
-0.999703, 475, 149, 490, 164
-0.999703, 231, 135, 246, 150
-0.999703, 417, 197, 432, 212
-0.999703, 473, 65, 488, 80
-0.999703, 291, 137, 306, 152
-0.999704, 179, 85, 194, 100
-0.999704, 149, 85, 164, 100
-0.999704, 107, 125, 122, 140
-0.999705, 89, 145, 104, 160
-0.999709, 97, 143, 112, 158
-0.999709, 31, 297, 46, 312
-0.99971, 159, 53, 174, 68
-0.99971, 417, 209, 432, 224
-0.99971, 475, 29, 490, 44
-0.999712, 241, 111, 256, 126
-0.999713, 215, 307, 230, 322
-0.999717, 281, 133, 296, 148
-0.999718, 369, 125, 384, 140
-0.999718, 197, 95, 212, 110
-0.999718, 465, 93, 480, 108
-0.999718, 65, 117, 80, 132
-0.999719, 55, 87, 70, 102
-0.99972, 419, 175, 434, 190
-0.99972, 301, 265, 316, 280
-0.999721, 81, 139, 96, 154
-0.999721, 191, 317, 206, 332
-0.999722, 105, 153, 120, 168
-0.999723, 271, 131, 286, 146
-0.999723, 245, 267, 260, 282
-0.999724, 105, 7, 120, 22
-0.999724, 91, 99, 106, 114
-0.999725, 215, 101, 230, 116
-0.999726, 207, 311, 222, 326
-0.999727, 209, 99, 224, 114
-0.999727, 153, 95, 168, 110
-0.999727, 185, 53, 200, 68
-0.999728, 67, 135, 82, 150
-0.999728, 231, 107, 246, 122
-0.999729, 417, 189, 432, 204
-0.999729, 409, 79, 424, 94
-0.99973, 133, 127, 148, 142
-0.99973, 471, 91, 486, 106
-0.99973, 127, 127, 142, 142
-0.999731, 25, 301, 40, 316
-0.999732, 415, 109, 430, 124
-0.999733, 143, 83, 158, 98
-0.999734, 437, 57, 452, 72
-0.999735, 377, 115, 392, 130
-0.999736, 105, 59, 120, 74
-0.999736, 123, 175, 138, 190
-0.999737, 105, 1, 120, 16
-0.999737, 421, 319, 436, 334
-0.999738, 389, 41, 404, 56
-0.999739, 57, 129, 72, 144
-0.999739, 213, 319, 228, 334
-0.99974, 103, 19, 118, 34
-0.99974, 427, 61, 442, 76
-0.999741, 393, 109, 408, 124
-0.999741, 155, 79, 170, 94
-0.999741, 469, 33, 484, 48
-0.999741, 429, 175, 444, 190
-0.999744, 151, 103, 166, 118
-0.999745, 201, 317, 216, 332
-0.999745, 403, 109, 418, 124
-0.999746, 253, 259, 268, 274
-0.999747, 399, 121, 414, 136
-0.999747, 225, 313, 240, 328
-0.999748, 73, 133, 88, 148
-0.999751, 207, 317, 222, 332
-0.999752, 265, 247, 280, 262
-0.999756, 369, 143, 384, 158
-0.999757, 389, 47, 404, 62
-0.999757, 365, 133, 380, 148
-0.99976, 261, 253, 276, 268
-0.999763, 429, 161, 444, 176
-0.999763, 103, 47, 118, 62
-0.999765, 399, 83, 414, 98
-0.999766, 105, 41, 120, 56
-0.999767, 103, 31, 118, 46
-0.999769, 389, 31, 404, 46
-0.999772, 403, 115, 418, 130
-0.999772, 115, 67, 130, 82
-0.999777, 297, 139, 312, 154
-0.999777, 229, 307, 244, 322
-0.999779, 477, 161, 492, 176
-0.999779, 139, 127, 154, 142
-0.99978, 419, 161, 434, 176
-0.99978, 117, 127, 132, 142
-0.999781, 109, 119, 124, 134
-0.999782, 485, 155, 500, 170
-0.999785, 203, 97, 218, 112
-0.99979, 475, 155, 490, 170
-0.999795, 91, 137, 106, 152
-0.999806, 369, 119, 384, 134
-0.999806, 219, 317, 234, 332
-1.00013, 129, 1, 256, 64
-1.00015, 1, 17, 500, 80
-1.00039, 201, 1, 264, 128
-1.00411, 321, 1, 384, 128
-1.00506, 209, 1, 336, 128
-1.01259, 273, 1, 336, 128
-1.01267, 297, 1, 360, 128
-1.01672, 225, 1, 288, 128
