1941
-0.308408, 1, 65, 500, 320
-0.310994, 1, 1, 500, 375
-0.425249, 65, 1, 320, 375
-0.435789, 257, 1, 500, 375
-0.499145, 257, 33, 500, 288
-0.500624, 161, 1, 416, 375
-0.543164, 161, 65, 416, 320
-0.599705, 257, 129, 500, 375
-0.617465, 33, 65, 288, 320
-0.833025, 337, 1, 464, 375
-0.84117, 369, 65, 496, 320
-0.846006, 1, 97, 500, 224
-0.84716, 257, 65, 384, 320
-0.847323, 305, 33, 432, 288
-0.850433, 17, 65, 144, 320
-0.853196, 273, 1, 400, 375
-0.853464, 65, 1, 192, 375
-0.857881, 1, 145, 500, 272
-0.860898, 1, 1, 128, 375
-0.863852, 209, 65, 336, 320
-0.863915, 113, 1, 240, 375
-0.879079, 65, 33, 192, 288
-0.880105, 1, 49, 500, 176
-0.885037, 193, 1, 320, 375
-0.889057, 257, 129, 500, 256
-0.889653, 113, 33, 240, 288
-0.893623, 161, 65, 288, 320
-0.893914, 97, 129, 224, 375
-0.894249, 321, 129, 448, 375
-0.903774, 1, 209, 500, 336
-0.913979, 193, 65, 448, 192
-0.921512, 129, 193, 384, 320
-0.924476, 305, 49, 432, 176
-0.925511, 161, 113, 416, 240
-0.925999, 65, 97, 320, 224
-0.926418, 225, 177, 480, 304
-0.928196, 337, 113, 464, 240
-0.929425, 65, 145, 320, 272
-0.930041, 1, 49, 256, 176
-0.931437, 1, 1, 500, 128
-0.931891, 1, 81, 128, 208
-0.935494, 337, 1, 464, 128
-0.936042, 337, 65, 400, 192
-0.938065, 225, 177, 352, 304
-0.939214, 273, 145, 400, 272
-0.939603, 257, 17, 500, 144
-0.940386, 313, 49, 376, 176
-0.940832, 97, 49, 352, 176
-0.941638, 257, 81, 384, 208
-0.942959, 369, 81, 432, 208
-0.943085, 329, 129, 392, 256
-0.943285, 353, 1, 416, 128
-0.944853, 273, 193, 400, 320
-0.94545, 225, 177, 288, 304
-0.945814, 289, 113, 352, 240
-0.946145, 289, 49, 352, 176
-0.946998, 1, 193, 256, 320
-0.947019, 1, 129, 128, 256
-0.94726, 113, 177, 240, 304
-0.947385, 49, 65, 176, 192
-0.948126, 57, 81, 120, 208
-0.948513, 393, 129, 456, 256
-0.948825, 225, 129, 352, 256
-0.949693, 289, 161, 352, 288
-0.950025, 169, 177, 232, 304
-0.950038, 65, 113, 192, 240
-0.951295, 177, 177, 304, 304
-0.951422, 145, 177, 208, 304
-0.951993, 433, 177, 496, 304
-0.952558, 201, 177, 264, 304
-0.952605, 265, 97, 328, 224
-0.952721, 369, 49, 496, 176
-0.953141, 393, 81, 456, 208
-0.953148, 265, 49, 328, 176
-0.9532, 353, 161, 480, 288
-0.953344, 33, 81, 96, 208
-0.953855, 73, 81, 136, 144
-0.954203, 369, 129, 432, 256
-0.954688, 233, 185, 296, 248
-0.954809, 209, 65, 336, 192
-0.955225, 257, 209, 320, 272
-0.956048, 249, 161, 312, 288
-0.956067, 377, 129, 440, 192
-0.956104, 81, 65, 144, 192
-0.95614, 313, 65, 376, 128
-0.956326, 1, 241, 256, 368
-0.956779, 33, 73, 96, 136
-0.95728, 113, 145, 176, 272
-0.957299, 289, 209, 352, 272
-0.957305, 377, 1, 440, 128
-0.957702, 105, 97, 168, 224
-0.95814, 9, 65, 72, 192
-0.958275, 337, 89, 400, 152
-0.958439, 9, 113, 72, 240
-0.958514, 233, 209, 296, 272
-0.958574, 345, 193, 408, 320
-0.958693, 201, 217, 264, 280
-0.959246, 41, 97, 104, 160
-0.959286, 337, 57, 400, 120
-0.959667, 145, 129, 272, 256
-0.96072, 33, 193, 160, 320
-0.961253, 65, 105, 128, 168
-0.961703, 113, 65, 240, 192
-0.961794, 377, 97, 440, 160
-0.961814, 281, 185, 344, 248
-0.962321, 57, 129, 120, 256
-0.962521, 417, 81, 480, 208
-0.962545, 1, 97, 64, 160
-0.962659, 273, 73, 336, 136
-0.962729, 233, 81, 296, 208
-0.963067, 321, 177, 384, 240
-0.963155, 257, 17, 384, 144
-0.963692, 145, 201, 208, 264
-0.963696, 177, 233, 240, 296
-0.963751, 161, 81, 288, 208
-0.964031, 153, 97, 216, 224
-0.964054, 353, 201, 416, 264
-0.964275, 81, 145, 144, 272
-0.964481, 225, 225, 480, 352
-0.964515, 369, 65, 432, 128
-0.964768, 233, 81, 296, 144
-0.964845, 401, 33, 464, 160
-0.96502, 313, 177, 376, 304
-0.965484, 193, 193, 256, 256
-0.965918, 97, 81, 160, 144
-0.965965, 305, 105, 368, 168
-0.966169, 97, 113, 160, 176
-0.96625, 321, 33, 384, 288
-0.966332, 273, 73, 400, 136
-0.966586, 257, 97, 320, 160
-0.966681, 201, 129, 264, 256
-0.967033, 321, 1, 384, 128
-0.967354, 385, 33, 448, 288
-0.967588, 121, 193, 184, 320
-0.967675, 41, 129, 104, 192
-0.967793, 281, 65, 344, 320
-0.968118, 113, 49, 176, 176
-0.968227, 177, 225, 304, 352
-0.968229, 241, 209, 368, 272
-0.968336, 9, 137, 72, 200
-0.968358, 225, 185, 352, 248
-0.968449, 417, 129, 480, 256
-0.968498, 369, 177, 432, 304
-0.968651, 257, 185, 320, 248
-0.968785, 337, 113, 400, 176
-0.968871, 425, 65, 488, 128
-0.968901, 129, 97, 192, 224
-0.969045, 1, 73, 128, 136
-0.96905, 9, 73, 72, 136
-0.969239, 65, 153, 128, 216
-0.969486, 65, 81, 192, 144
-0.969566, 305, 97, 432, 160
-0.969583, 409, 89, 472, 152
-0.969641, 433, 193, 496, 256
-0.96966, 281, 121, 344, 184
-0.969668, 177, 169, 240, 232
-0.969739, 321, 137, 384, 200
-0.969829, 353, 209, 480, 336
-0.969886, 345, 33, 408, 288
-0.969954, 233, 233, 296, 296
-0.970314, 65, 129, 128, 192
-0.970355, 121, 217, 184, 280
-0.970388, 193, 217, 320, 280
-0.970411, 129, 225, 256, 352
-0.970459, 349, 73, 380, 136
-0.970586, 225, 225, 352, 352
-0.970695, 329, 201, 392, 264
-0.971052, 33, 129, 96, 256
-0.971075, 73, 65, 136, 320
-0.971085, 337, 137, 464, 200
-0.971103, 257, 161, 320, 224
-0.971142, 73, 57, 136, 120
-0.971207, 121, 65, 184, 128
-0.971353, 169, 209, 232, 272
-0.971374, 169, 73, 232, 136
-0.97139, 225, 129, 288, 256
-0.97158, 145, 241, 208, 304
-0.972042, 129, 105, 192, 168
-0.972076, 1, 33, 128, 160
-0.972106, 257, 209, 320, 336
-0.972142, 137, 169, 200, 232
-0.972259, 273, 185, 400, 248
-0.972326, 177, 129, 240, 256
-0.972359, 289, 209, 416, 272
-0.972359, 241, 65, 304, 320
-0.972417, 33, 105, 160, 168
-0.972435, 353, 25, 416, 88
-0.972494, 401, 209, 464, 336
-0.972499, 401, 57, 464, 120
-0.972645, 353, 177, 416, 240
-0.972792, 369, 89, 400, 152
-0.972798, 201, 81, 264, 144
-0.972825, 233, 225, 296, 352
-0.973023, 137, 49, 200, 176
-0.97311, 57, 33, 120, 160
-0.973175, 313, 225, 376, 288
-0.973311, 281, 209, 312, 272
-0.973439, 349, 145, 380, 272
-0.973488, 97, 241, 352, 368
-0.973782, 365, 81, 396, 208
-0.973805, 1, 129, 128, 192
-0.973901, 361, 1, 392, 128
-0.973965, 345, 65, 376, 192
-0.974022, 25, 169, 88, 232
-0.974055, 233, 217, 264, 280
-0.974091, 361, 49, 392, 112
-0.974229, 49, 81, 80, 208
-0.974302, 289, 153, 352, 216
-0.974349, 225, 73, 352, 136
-0.974467, 81, 81, 112, 144
-0.974522, 113, 145, 176, 208
-0.974663, 145, 209, 272, 272
-0.974766, 73, 193, 136, 320
-0.974885, 309, 113, 340, 240
-0.974955, 33, 33, 96, 160
-0.974998, 409, 81, 440, 208
-0.975009, 329, 49, 360, 176
-0.975148, 417, 65, 480, 320
-0.975174, 9, 177, 72, 304
-0.975397, 153, 113, 216, 176
-0.975428, 145, 169, 272, 232
-0.975515, 229, 193, 260, 256
-0.975531, 429, 145, 460, 272
-0.975598, 245, 217, 276, 280
-0.975636, 49, 177, 112, 240
-0.975706, 161, 73, 288, 136
-0.975725, 353, 1, 416, 64
-0.975756, 397, 81, 428, 208
-0.975858, 97, 169, 160, 232
-0.975934, 337, 201, 464, 264
-0.975972, 177, 225, 240, 352
-0.975979, 145, 81, 208, 144
-0.97601, 337, 65, 368, 128
-0.97606, 321, 57, 448, 120
-0.976083, 193, 105, 256, 168
-0.97612, 49, 17, 176, 144
-0.976153, 249, 177, 280, 304
-0.976183, 393, 1, 456, 64
-0.976201, 25, 105, 56, 168
-0.976237, 317, 201, 348, 264
-0.976247, 381, 97, 412, 160
-0.976301, 65, 161, 192, 224
-0.976586, 145, 233, 272, 296
-0.976611, 393, 129, 456, 375
-0.976625, 289, 209, 352, 336
-0.976671, 281, 185, 312, 248
-0.97669, 333, 113, 364, 240
-0.976872, 225, 105, 288, 168
-0.976926, 225, 105, 352, 168
-0.976982, 201, 225, 264, 352
-0.977036, 345, 129, 408, 375
-0.977106, 105, 65, 168, 320
-0.977175, 317, 49, 348, 176
-0.977179, 253, 185, 284, 248
-0.977316, 185, 65, 248, 320
-0.977395, 281, 81, 312, 144
-0.977402, 65, 97, 96, 224
-0.977432, 365, 121, 396, 184
-0.977464, 381, 81, 412, 208
-0.977497, 401, 137, 464, 200
-0.977508, 301, 185, 332, 248
-0.977597, 377, 129, 408, 256
-0.977601, 273, 177, 304, 304
-0.977658, 405, 97, 436, 160
-0.977708, 209, 65, 272, 320
-0.97773, 421, 81, 452, 208
-0.977793, 265, 209, 296, 272
-0.977822, 273, 121, 400, 184
-0.977839, 329, 33, 392, 96
-0.977917, 229, 177, 260, 304
-0.977937, 97, 57, 160, 120
-0.977964, 25, 97, 88, 352
-0.978017, 385, 129, 416, 192
-0.978197, 417, 129, 448, 256
-0.978244, 349, 49, 380, 112
-0.978246, 209, 81, 272, 208
-0.978371, 433, 97, 496, 160
-0.978436, 89, 137, 152, 200
-0.978444, 17, 49, 80, 112
-0.978446, 37, 105, 68, 168
-0.978585, 373, 1, 404, 128
-0.978607, 357, 177, 388, 240
-0.978635, 121, 241, 184, 304
-0.978638, 353, 169, 480, 232
-0.978646, 49, 97, 80, 160
-0.978702, 113, 73, 240, 136
-0.978776, 301, 65, 332, 192
-0.978781, 101, 81, 132, 144
-0.978825, 177, 81, 240, 208
-0.978833, 357, 201, 388, 264
-0.97884, 369, 65, 496, 128
-0.97889, 121, 193, 184, 256
-0.97891, 393, 217, 456, 280
-0.978975, 321, 113, 352, 240
-0.979006, 265, 233, 328, 296
-0.979059, 293, 209, 324, 272
-0.9791, 73, 105, 104, 168
-0.9791, 409, 185, 472, 248
-0.979102, 177, 17, 304, 144
-0.979108, 289, 145, 416, 208
-0.979145, 401, 33, 432, 160
-0.979191, 41, 73, 72, 136
-0.979226, 81, 225, 208, 352
-0.979286, 345, 145, 408, 208
-0.979349, 265, 185, 296, 248
-0.979458, 373, 65, 404, 128
-0.979481, 401, 161, 464, 224
-0.979802, 145, 225, 208, 352
-0.979811, 69, 81, 100, 144
-0.979814, 49, 65, 112, 320
-0.979848, 337, 1, 464, 64
-0.9799, 9, 145, 40, 208
-0.979956, 269, 97, 300, 160
-0.979969, 273, 65, 304, 192
-0.980013, 401, 25, 464, 88
-0.980035, 189, 217, 220, 280
-0.980163, 177, 177, 208, 304
-0.980184, 65, 201, 128, 264
-0.980205, 61, 113, 92, 176
-0.98024, 65, 57, 192, 120
-0.980333, 449, 177, 480, 304
-0.980365, 425, 145, 456, 208
-0.980415, 161, 1, 416, 128
-0.980416, 9, 225, 72, 352
-0.980538, 49, 137, 176, 200
-0.980548, 365, 145, 396, 272
-0.98056, 121, 241, 184, 368
-0.98059, 393, 97, 424, 160
-0.980633, 201, 225, 232, 288
-0.980714, 225, 153, 352, 216
-0.980738, 97, 193, 160, 320
-0.980743, 321, 65, 352, 128
-0.980762, 177, 217, 208, 280
-0.980764, 1, 97, 64, 352
-0.980768, 357, 97, 388, 160
-0.980789, 97, 233, 224, 296
-0.980852, 377, 1, 440, 375
-0.980866, 1, 17, 64, 144
-0.980903, 293, 81, 324, 144
-0.98092, 425, 33, 488, 160
-0.980928, 17, 81, 48, 144
-0.980985, 33, 209, 160, 272
-0.981003, 217, 233, 248, 296
-0.981042, 329, 1, 392, 375
-0.981155, 161, 177, 192, 240
-0.981168, 77, 97, 108, 224
-0.981178, 105, 1, 168, 375
-0.981205, 317, 105, 348, 168
-0.981229, 413, 129, 444, 192
-0.981267, 261, 73, 292, 136
-0.981302, 377, 193, 440, 256
-0.981389, 145, 145, 208, 208
-0.981435, 249, 73, 280, 136
-0.98147, 385, 33, 416, 160
-0.981479, 297, 113, 328, 240
-0.981481, 81, 113, 208, 176
-0.981531, 433, 81, 464, 208
-0.981548, 81, 185, 208, 248
-0.981647, 33, 193, 96, 320
-0.981651, 305, 129, 368, 375
-0.981698, 261, 177, 292, 304
-0.981723, 97, 233, 160, 296
-0.981785, 1, 97, 32, 160
-0.981824, 293, 177, 324, 304
-0.981835, 401, 1, 464, 375
-0.981962, 93, 97, 124, 224
-0.982007, 1, 153, 128, 216
-0.982031, 281, 97, 344, 160
-0.9821, 333, 193, 364, 256
-0.982121, 153, 217, 184, 280
-0.982195, 313, 161, 344, 288
-0.982197, 97, 209, 224, 272
-0.982249, 153, 177, 184, 304
-0.982259, 281, 113, 312, 240
-0.98227, 201, 161, 264, 224
-0.982301, 129, 97, 256, 160
-0.982301, 201, 241, 264, 304
-0.982306, 305, 121, 336, 184
-0.982309, 337, 33, 464, 96
-0.982499, 241, 33, 304, 160
-0.982514, 1, 1, 256, 128
-0.982517, 169, 145, 232, 208
-0.982526, 369, 129, 432, 375
-0.982591, 353, 97, 480, 160
-0.982628, 357, 193, 388, 320
-0.982653, 377, 25, 440, 88
-0.982664, 329, 217, 360, 280
-0.982689, 1, 177, 128, 240
-0.98271, 261, 65, 292, 192
-0.982763, 33, 33, 64, 160
-0.982819, 241, 193, 272, 256
-0.982824, 453, 193, 484, 256
-0.982836, 189, 161, 220, 288
-0.982852, 329, 97, 360, 160
-0.982936, 273, 49, 400, 112
-0.982969, 1, 169, 64, 232
-0.983019, 337, 225, 400, 288
-0.98305, 165, 193, 196, 320
-0.983098, 433, 161, 496, 224
-0.98311, 329, 161, 360, 288
-0.983174, 177, 97, 304, 160
-0.98324, 57, 73, 88, 136
-0.983241, 165, 241, 196, 304
-0.983277, 137, 129, 200, 375
-0.983372, 1, 65, 32, 192
-0.983442, 461, 177, 492, 304
-0.983469, 177, 145, 304, 208
-0.983488, 421, 1, 452, 128
-0.983535, 385, 1, 416, 64
-0.983542, 313, 177, 344, 240
-0.983551, 109, 105, 140, 168
-0.983557, 217, 209, 248, 272
-0.983582, 349, 17, 380, 144
-0.983694, 345, 153, 376, 216
-0.9837, 241, 57, 304, 120
-0.983734, 425, 97, 456, 160
-0.983773, 61, 153, 92, 216
-0.983852, 29, 113, 60, 240
-0.983854, 417, 225, 480, 288
-0.983883, 113, 81, 144, 144
-0.98389, 289, 233, 352, 296
-0.983899, 225, 161, 288, 224
-0.983907, 289, 65, 320, 192
-0.983967, 97, 193, 160, 256
-0.98397, 73, 177, 136, 240
-0.984017, 293, 105, 324, 168
-0.984024, 237, 81, 268, 144
-0.984048, 113, 65, 144, 192
-0.984171, 461, 73, 492, 136
-0.984235, 125, 81, 156, 144
-0.984237, 241, 233, 368, 296
-0.984274, 161, 129, 224, 375
-0.98429, 413, 57, 444, 120
-0.984315, 261, 129, 292, 256
-0.984588, 317, 225, 348, 288
-0.984624, 345, 193, 376, 256
-0.984635, 389, 129, 420, 256
-0.984775, 353, 1, 416, 375
-0.984838, 1, 49, 128, 112
-0.98485, 305, 73, 336, 136
-0.984861, 225, 97, 256, 160
-0.984863, 341, 217, 372, 280
-0.984883, 433, 121, 496, 184
-0.984922, 165, 201, 196, 264
-0.984929, 97, 137, 224, 200
-0.984931, 97, 145, 128, 272
-0.985014, 205, 209, 236, 336
-0.985033, 397, 129, 428, 192
-0.985043, 465, 193, 496, 256
-0.985129, 189, 241, 220, 304
-0.985139, 205, 81, 236, 144
-0.985221, 33, 241, 96, 368
-0.985259, 369, 153, 432, 216
-0.985261, 149, 81, 180, 144
-0.98531, 177, 193, 208, 256
-0.985347, 433, 1, 496, 375
-0.985359, 217, 33, 280, 160
-0.985392, 145, 33, 208, 288
-0.985395, 13, 113, 44, 240
-0.985411, 193, 49, 256, 112
-0.985427, 217, 177, 248, 304
-0.985494, 1, 241, 128, 368
-0.985502, 369, 209, 400, 272
-0.98555, 25, 1, 88, 256
-0.985605, 13, 65, 44, 192
-0.985629, 29, 49, 60, 112
-0.985647, 101, 57, 132, 120
-0.985664, 81, 57, 112, 120
-0.985729, 177, 241, 208, 304
-0.985814, 93, 121, 124, 184
-0.985816, 129, 1, 192, 375
-0.985845, 441, 185, 472, 248
-0.985915, 257, 121, 320, 184
-0.985934, 81, 1, 144, 375
-0.985946, 1, 265, 64, 328
-0.985953, 305, 97, 336, 160
-0.986008, 301, 161, 332, 224
-0.986049, 321, 225, 384, 352
-0.986057, 261, 233, 292, 296
-0.986195, 93, 145, 124, 208
-0.986227, 445, 81, 476, 208
-0.986235, 425, 65, 456, 128
-0.986238, 185, 33, 248, 160
-0.986249, 97, 17, 224, 144
-0.98626, 145, 57, 208, 120
-0.986266, 73, 169, 104, 232
-0.98629, 289, 233, 416, 296
-0.986315, 305, 209, 336, 272
-0.986331, 361, 25, 392, 88
-0.986345, 133, 233, 164, 296
-0.986398, 177, 169, 208, 232
-0.986407, 449, 129, 480, 256
-0.986421, 137, 97, 168, 160
-0.986492, 1, 1, 64, 256
-0.986557, 69, 145, 100, 272
-0.986566, 365, 153, 396, 216
-0.98658, 89, 49, 120, 176
-0.986587, 73, 129, 104, 192
-0.98659, 61, 49, 92, 176
-0.986626, 193, 241, 320, 304
-0.986691, 89, 17, 152, 144
-0.986736, 281, 105, 312, 168
-0.986775, 337, 225, 464, 288
-0.986854, 17, 1, 80, 375
-0.986866, 433, 1, 464, 128
-0.986939, 141, 193, 172, 320
-0.986964, 161, 81, 192, 144
-0.987012, 101, 49, 132, 176
-0.987094, 41, 129, 72, 192
-0.98714, 317, 129, 348, 192
-0.987162, 145, 49, 272, 112
-0.987192, 125, 113, 156, 176
-0.987217, 177, 121, 304, 184
-0.987317, 125, 49, 156, 176
-0.987347, 381, 193, 412, 256
-0.987411, 425, 9, 488, 72
-0.987419, 161, 1, 224, 375
-0.987509, 305, 41, 368, 104
-0.987542, 141, 97, 172, 224
-0.987652, 305, 1, 368, 375
-0.987658, 149, 241, 180, 304
-0.987697, 425, 1, 456, 64
-0.987707, 329, 89, 392, 120
-0.987756, 145, 257, 272, 320
-0.987789, 25, 193, 88, 256
-0.987791, 101, 169, 132, 232
-0.987834, 341, 105, 372, 168
-0.987837, 189, 209, 220, 336
-0.987882, 281, 1, 344, 375
-0.98791, 121, 57, 152, 120
-0.98797, 49, 49, 112, 112
-0.987986, 17, 241, 80, 304
-0.988035, 121, 113, 152, 240
-0.988045, 369, 193, 400, 320
-0.988054, 285, 161, 316, 224
-0.988104, 345, 193, 376, 320
-0.988111, 49, 233, 176, 296
-0.988287, 401, 129, 432, 256
-0.988341, 1, 73, 32, 136
-0.988373, 5, 265, 36, 328
-0.988503, 281, 209, 344, 240
-0.988535, 249, 129, 280, 256
-0.988544, 257, 213, 320, 244
-0.988571, 313, 153, 344, 216
-0.988573, 333, 161, 364, 224
-0.98865, 337, 129, 368, 192
-0.988693, 141, 201, 172, 264
-0.9887, 1, 121, 32, 184
-0.988701, 241, 1, 304, 375
-0.988712, 169, 97, 200, 224
-0.988746, 21, 137, 52, 200
-0.988752, 45, 33, 76, 160
-0.988777, 225, 209, 480, 272
-0.988812, 249, 97, 280, 160
-0.988813, 209, 49, 336, 112
-0.988892, 157, 129, 188, 256
-0.988937, 313, 69, 376, 100
-0.988939, 405, 193, 436, 256
-0.988949, 161, 105, 192, 168
-0.988976, 137, 49, 168, 176
-0.988976, 469, 97, 500, 160
-0.988985, 161, 153, 192, 216
-0.988988, 33, 73, 288, 136
-0.989063, 57, 89, 120, 120
-0.989089, 377, 133, 440, 164
-0.989201, 281, 221, 344, 252
-0.98921, 217, 217, 280, 248
-0.989215, 1, 257, 128, 320
-0.989269, 405, 177, 436, 304
-0.989273, 169, 257, 232, 320
-0.989293, 265, 49, 328, 112
-0.989318, 289, 25, 416, 88
-0.989346, 265, 105, 328, 136
-0.989358, 245, 49, 276, 176
-0.989367, 233, 97, 296, 128
-0.989375, 53, 129, 84, 256
-0.989378, 185, 1, 248, 375
-0.98944, 33, 97, 96, 128
-0.989442, 1, 141, 64, 172
-0.98946, 233, 97, 264, 224
-0.989543, 57, 101, 120, 132
-0.989553, 109, 145, 140, 272
-0.989588, 225, 129, 352, 192
-0.989591, 129, 217, 384, 280
-0.98961, 25, 125, 88, 156
-0.989629, 57, 1, 120, 375
-0.989674, 201, 161, 232, 288
-0.98971, 33, 85, 96, 116
-0.989722, 353, 93, 416, 124
-0.989728, 345, 57, 408, 88
-0.989755, 73, 77, 136, 108
-0.989755, 241, 225, 304, 256
-0.989765, 353, 217, 416, 248
-0.98977, 41, 137, 104, 168
-0.98982, 205, 97, 236, 224
-0.989827, 353, 81, 416, 112
-0.989843, 193, 221, 256, 252
-0.989854, 257, 153, 500, 216
-0.989871, 313, 101, 376, 132
-0.989883, 25, 181, 88, 212
-0.989884, 1, 161, 500, 224
-0.989906, 321, 209, 384, 240
-0.989931, 57, 117, 120, 148
-0.989953, 25, 217, 88, 280
-0.989985, 85, 145, 116, 272
-0.989985, 321, 197, 384, 228
-0.990083, 305, 225, 368, 256
-0.990152, 321, 57, 384, 88
-0.990203, 169, 41, 232, 104
-0.99021, 353, 69, 416, 100
-0.990213, 249, 69, 312, 100
-0.99022, 225, 85, 288, 116
-0.99022, 281, 1, 344, 128
-0.990266, 97, 81, 160, 112
-0.990281, 161, 169, 224, 200
-0.990283, 225, 189, 288, 220
-0.990321, 25, 273, 88, 336
-0.990352, 209, 1, 272, 375
-0.990354, 1, 129, 64, 160
-0.990373, 33, 113, 96, 144
-0.990391, 393, 209, 424, 336
-0.990454, 65, 185, 320, 248
-0.990466, 113, 101, 176, 132
-0.990513, 161, 157, 224, 188
-0.990534, 49, 181, 112, 212
-0.990581, 97, 105, 352, 168
-0.990598, 281, 189, 344, 220
-0.9906, 49, 193, 112, 224
-0.990603, 193, 113, 448, 176
-0.990624, 425, 209, 456, 336
-0.990635, 1, 105, 500, 168
-0.990643, 73, 157, 136, 188
-0.990651, 1, 113, 32, 240
-0.990655, 73, 49, 104, 176
-0.990661, 113, 165, 176, 196
-0.99067, 81, 105, 144, 136
-0.990675, 289, 69, 352, 100
-0.990683, 49, 73, 112, 104
-0.990685, 217, 233, 280, 264
-0.99069, 265, 225, 296, 352
-0.990737, 369, 57, 432, 88
-0.990748, 137, 105, 200, 136
-0.990766, 177, 241, 240, 272
-0.990775, 401, 113, 464, 176
-0.990776, 185, 161, 248, 192
-0.990818, 425, 33, 488, 96
-0.99082, 65, 133, 128, 164
-0.990829, 241, 109, 304, 140
-0.990846, 329, 181, 392, 212
-0.990857, 289, 109, 352, 140
-0.990874, 265, 81, 328, 112
-0.990877, 9, 101, 72, 132
-0.990885, 169, 225, 232, 256
-0.990912, 65, 257, 192, 320
-0.990914, 137, 161, 200, 192
-0.990935, 65, 169, 128, 200
-0.990943, 305, 89, 368, 120
-0.990952, 185, 65, 216, 192
-0.990978, 321, 153, 384, 184
-0.99098, 145, 221, 208, 252
-0.991008, 41, 145, 72, 272
-0.991013, 321, 113, 384, 144
-0.991018, 9, 169, 72, 200
-0.991022, 393, 225, 456, 256
-0.991037, 257, 185, 320, 216
-0.991057, 113, 69, 176, 100
-0.991109, 153, 241, 216, 272
-0.991133, 97, 117, 160, 148
-0.991166, 217, 225, 248, 352
-0.99117, 281, 121, 344, 152
-0.99117, 141, 145, 172, 272
-0.991179, 401, 177, 464, 208
-0.991189, 265, 93, 328, 124
-0.991189, 345, 169, 408, 200
-0.991191, 305, 185, 368, 216
-0.991193, 17, 73, 80, 104
-0.991201, 129, 241, 192, 272
-0.991205, 57, 273, 120, 336
-0.991208, 9, 153, 72, 184
-0.991217, 353, 205, 416, 236
-0.991244, 217, 129, 248, 256
-0.991251, 129, 161, 160, 288
-0.991256, 469, 129, 500, 256
-0.991263, 1, 181, 64, 212
-0.991282, 233, 201, 296, 232
-0.991288, 193, 185, 448, 248
-0.9913, 149, 49, 180, 176
-0.991314, 353, 21, 416, 52
-0.991322, 185, 201, 248, 232
-0.991328, 401, 157, 464, 188
-0.991333, 81, 93, 144, 124
-0.991335, 9, 161, 40, 288
-0.991351, 9, 89, 72, 120
-0.991358, 369, 193, 432, 224
-0.991367, 1, 117, 64, 148
-0.991368, 321, 169, 384, 200
-0.99139, 145, 197, 208, 228
-0.991399, 1, 113, 256, 176
-0.991403, 117, 209, 148, 336
-0.991408, 113, 221, 176, 252
-0.991439, 41, 153, 104, 184
-0.991448, 381, 177, 412, 304
-0.991475, 353, 45, 416, 76
-0.991509, 329, 221, 392, 252
-0.99151, 393, 61, 456, 92
-0.991514, 257, 197, 320, 228
-0.991519, 337, 129, 400, 160
-0.991521, 1, 65, 500, 128
-0.991533, 81, 193, 144, 224
-0.991539, 193, 105, 256, 136
-0.991541, 145, 181, 208, 212
-0.991597, 1, 137, 500, 200
-0.991606, 377, 97, 440, 128
-0.991628, 217, 49, 280, 112
-0.991637, 393, 49, 456, 80
-0.99164, 97, 153, 160, 184
-0.991645, 225, 73, 480, 136
-0.991647, 185, 177, 248, 208
-0.991657, 433, 193, 496, 224
-0.991661, 217, 81, 248, 208
-0.991669, 425, 89, 488, 120
-0.991673, 89, 169, 152, 200
-0.991675, 105, 193, 136, 320
-0.99171, 385, 85, 448, 116
-0.991716, 25, 193, 88, 224
-0.991717, 65, 145, 128, 176
-0.991725, 185, 113, 216, 240
-0.991731, 133, 241, 164, 368
-0.991775, 177, 189, 240, 220
-0.991782, 41, 169, 104, 200
-0.991784, 185, 73, 248, 104
-0.991788, 353, 181, 416, 212
-0.991791, 345, 141, 408, 172
-0.991795, 393, 145, 456, 176
-0.991808, 289, 165, 352, 196
-0.991809, 385, 1, 448, 32
-0.991823, 281, 225, 312, 352
-0.99184, 401, 101, 464, 132
-0.991852, 253, 225, 284, 352
-0.991855, 209, 73, 272, 104
-0.991855, 369, 165, 432, 196
-0.991871, 65, 205, 128, 236
-0.991874, 129, 81, 192, 112
-0.991875, 265, 233, 328, 264
-0.991883, 73, 65, 136, 96
-0.991894, 129, 117, 192, 148
-0.991923, 341, 89, 372, 120
-0.991941, 217, 165, 280, 196
-0.991949, 433, 101, 496, 132
-0.991985, 265, 97, 296, 128
-0.992021, 357, 81, 388, 112
-0.992038, 165, 49, 196, 176
-0.992132, 201, 137, 264, 200
-0.992136, 357, 93, 388, 124
-0.992178, 249, 217, 280, 248
-0.992202, 65, 161, 320, 224
-0.992237, 61, 97, 92, 128
-0.992242, 345, 73, 376, 104
-0.992246, 225, 137, 288, 200
-0.992268, 1, 241, 256, 304
-0.992288, 81, 89, 112, 120
-0.992302, 309, 209, 340, 240
-0.992314, 269, 213, 300, 244
-0.99232, 369, 89, 400, 120
-0.992383, 145, 241, 176, 368
-0.992392, 289, 213, 320, 244
-0.99245, 285, 105, 316, 136
-0.992459, 325, 209, 356, 336
-0.992471, 1, 233, 128, 296
-0.992478, 121, 41, 184, 104
-0.992502, 337, 101, 368, 132
-0.992504, 229, 221, 260, 252
-0.99251, 41, 133, 72, 164
-0.992513, 357, 57, 388, 88
-0.992521, 129, 81, 384, 144
-0.992523, 369, 225, 432, 288
-0.992534, 365, 69, 396, 100
-0.992538, 81, 101, 112, 132
-0.992566, 253, 97, 284, 128
-0.992573, 321, 109, 352, 140
-0.992593, 297, 109, 328, 140
-0.992615, 277, 89, 308, 120
-0.992615, 1, 217, 500, 280
-0.99262, 273, 241, 400, 368
-0.992627, 73, 225, 136, 288
-0.992639, 61, 85, 92, 116
-0.992642, 69, 109, 100, 140
-0.992663, 101, 81, 132, 112
-0.992671, 341, 61, 372, 92
-0.992672, 101, 109, 132, 140
-0.992678, 173, 161, 204, 192
-0.99269, 45, 105, 76, 136
-0.992723, 197, 225, 228, 256
-0.992736, 345, 225, 376, 256
-0.992738, 17, 93, 48, 124
-0.992739, 65, 177, 96, 208
-0.992748, 321, 69, 352, 100
-0.992754, 369, 57, 400, 88
-0.992762, 397, 129, 428, 160
-0.992764, 177, 173, 208, 204
-0.992768, 25, 137, 56, 168
-0.992769, 197, 49, 228, 176
-0.992783, 325, 225, 356, 256
-0.992801, 305, 121, 336, 152
-0.992813, 41, 181, 72, 212
-0.992829, 245, 233, 276, 264
-0.992831, 313, 185, 344, 216
-0.992834, 397, 57, 428, 88
-0.992835, 273, 93, 400, 124
-0.992837, 313, 225, 344, 256
-0.992838, 293, 77, 324, 108
-0.992839, 73, 121, 104, 152
-0.99284, 417, 137, 448, 168
-0.992845, 141, 105, 172, 136
-0.992847, 233, 193, 264, 224
-0.992854, 53, 117, 84, 148
-0.992857, 1, 85, 32, 116
-0.99286, 253, 85, 284, 116
-0.992868, 185, 161, 216, 192
-0.992871, 353, 201, 384, 232
-0.992877, 25, 125, 56, 156
-0.992878, 97, 153, 128, 184
-0.992888, 305, 73, 336, 104
-0.992897, 185, 241, 216, 272
-0.992904, 385, 57, 416, 88
-0.992905, 265, 85, 296, 116
-0.992906, 85, 113, 116, 144
-0.992913, 285, 225, 316, 256
-0.992916, 161, 161, 192, 192
-0.992918, 341, 149, 372, 180
-0.992924, 177, 221, 208, 252
-0.992924, 5, 97, 36, 128
-0.992927, 45, 93, 76, 124
-0.992937, 53, 181, 84, 212
-0.992938, 325, 209, 356, 240
-0.99294, 385, 133, 416, 164
-0.992943, 309, 109, 340, 140
-0.992947, 121, 101, 152, 132
-0.992949, 233, 233, 264, 264
-0.992953, 69, 133, 100, 164
-0.992953, 1, 185, 500, 248
-0.992957, 273, 233, 304, 264
-0.992958, 209, 225, 240, 256
-0.992959, 317, 121, 348, 152
-0.992963, 369, 213, 400, 244
-0.992964, 197, 241, 228, 272
-0.992967, 261, 225, 292, 256
-0.992973, 353, 169, 384, 200
-0.992978, 189, 173, 220, 204
-0.99298, 269, 109, 300, 140
-0.992981, 377, 101, 408, 132
-0.992983, 381, 217, 412, 248
-0.992988, 213, 241, 244, 272
-0.992989, 357, 105, 388, 136
-0.99299, 265, 73, 296, 104
-0.992996, 53, 141, 84, 172
-0.992999, 165, 173, 196, 204
-0.993003, 337, 181, 368, 212
-0.99301, 121, 73, 152, 104
-0.993012, 29, 181, 60, 212
-0.993015, 289, 185, 320, 216
-0.993016, 77, 73, 108, 104
-0.993017, 301, 229, 332, 260
-0.993017, 53, 129, 84, 160
-0.993017, 225, 209, 352, 240
-0.99302, 353, 181, 384, 212
-0.99302, 261, 189, 292, 220
-0.993022, 9, 153, 40, 184
-0.993026, 21, 105, 52, 136
-0.993029, 153, 105, 184, 136
-0.993037, 469, 85, 500, 116
-0.993039, 77, 177, 108, 208
-0.993039, 85, 193, 116, 224
-0.993041, 357, 221, 388, 252
-0.993044, 41, 77, 72, 108
-0.993044, 369, 129, 400, 160
-0.993055, 281, 77, 312, 108
-0.993056, 389, 45, 420, 76
-0.993057, 97, 241, 160, 368
-0.993057, 409, 57, 440, 88
-0.993059, 29, 61, 60, 92
-0.993062, 365, 45, 396, 76
-0.993064, 93, 93, 124, 124
-0.993065, 89, 141, 120, 172
-0.993072, 241, 81, 272, 112
-0.993075, 329, 89, 360, 120
-0.993077, 249, 189, 280, 220
-0.993082, 109, 69, 140, 100
-0.993082, 425, 157, 456, 188
-0.993083, 381, 89, 412, 120
-0.993095, 397, 221, 428, 252
-0.993098, 249, 205, 280, 236
-0.993099, 101, 181, 132, 212
-0.993104, 377, 45, 408, 76
-0.993104, 73, 145, 104, 176
-0.993108, 13, 77, 44, 108
-0.993114, 121, 85, 152, 116
-0.993132, 273, 209, 400, 240
-0.993282, 257, 225, 384, 256
-0.993318, 57, 193, 88, 320
-0.993404, 1, 89, 128, 120
-0.993426, 359, 73, 374, 136
-0.99343, 337, 137, 464, 168
-0.993449, 413, 225, 444, 352
-0.993515, 321, 89, 448, 120
-0.993688, 353, 65, 368, 128
-0.993764, 247, 217, 262, 280
-0.99378, 65, 101, 192, 132
-0.993872, 365, 49, 380, 112
-0.993873, 49, 249, 112, 312
-0.993883, 301, 209, 316, 272
-0.993948, 1, 217, 256, 280
-0.993955, 437, 209, 468, 336
-0.994029, 469, 49, 500, 176
-0.994038, 225, 189, 352, 220
-0.994048, 327, 209, 342, 272
-0.994051, 321, 209, 448, 240
-0.994055, 65, 161, 192, 192
-0.994078, 241, 81, 368, 112
-0.994147, 347, 65, 362, 128
-0.994162, 233, 225, 264, 352
-0.994176, 289, 69, 416, 100
-0.994199, 337, 57, 464, 88
-0.994215, 17, 77, 144, 108
-0.994218, 369, 225, 432, 352
-0.994258, 1, 101, 128, 132
-0.994309, 65, 173, 192, 204
-0.994386, 293, 209, 308, 272
-0.994399, 275, 209, 290, 272
-0.994408, 319, 201, 334, 264
-0.994426, 379, 89, 394, 152
-0.994429, 5, 241, 36, 368
-0.994443, 1, 117, 128, 148
-0.994453, 193, 221, 320, 252
-0.994487, 289, 1, 416, 64
-0.994488, 261, 217, 276, 280
-0.994521, 337, 149, 464, 180
-0.994531, 1, 17, 32, 144
-0.994544, 237, 193, 252, 256
-0.994561, 387, 97, 402, 160
-0.994564, 49, 113, 176, 144
-0.994569, 49, 281, 176, 344
-0.994571, 257, 105, 384, 136
-0.994573, 145, 221, 272, 252
-0.994602, 253, 209, 268, 272
-0.994611, 157, 241, 188, 368
-0.99462, 283, 185, 298, 248
-0.994658, 161, 241, 416, 304
-0.994658, 33, 137, 288, 200
-0.994675, 241, 217, 256, 280
-0.994687, 371, 89, 386, 152
-0.994687, 99, 81, 114, 144
-0.994704, 1, 181, 128, 212
-0.994707, 303, 185, 318, 248
-0.994709, 311, 185, 326, 248
-0.994727, 305, 221, 432, 252
-0.994743, 291, 185, 306, 248
-0.994763, 267, 209, 282, 272
-0.994772, 113, 173, 240, 204
-0.994786, 13, 145, 28, 208
-0.994834, 17, 133, 144, 164
-0.994839, 161, 33, 224, 160
-0.99484, 283, 217, 298, 280
-0.994847, 417, 97, 432, 160
-0.994904, 253, 185, 268, 248
-0.994913, 37, 97, 52, 160
-0.994917, 365, 177, 380, 240
-0.994922, 193, 105, 320, 136
-0.994923, 275, 185, 290, 248
-0.994949, 341, 65, 356, 128
-0.99495, 269, 185, 284, 248
-0.994963, 161, 137, 416, 200
-0.994978, 411, 97, 426, 160
-0.994987, 445, 17, 476, 144
-0.995, 161, 161, 416, 224
-0.995002, 337, 173, 464, 204
-0.995009, 129, 241, 256, 272
-0.995025, 275, 89, 290, 152
-0.995027, 365, 73, 380, 136
-0.99504, 311, 209, 326, 272
-0.995055, 83, 81, 98, 144
-0.995067, 293, 17, 324, 144
-0.995068, 281, 81, 296, 144
-0.995071, 203, 217, 218, 280
-0.995098, 97, 33, 224, 96
-0.995103, 93, 81, 108, 144
-0.995126, 337, 101, 464, 132
-0.99514, 257, 49, 500, 112
-0.995144, 1, 193, 64, 256
-0.995173, 371, 49, 386, 112
-0.995183, 269, 17, 300, 144
-0.995197, 419, 129, 434, 192
-0.995199, 177, 225, 208, 352
-0.995202, 209, 233, 336, 264
-0.995208, 65, 81, 192, 112
-0.995216, 17, 225, 48, 352
-0.995222, 137, 265, 200, 328
-0.995225, 225, 257, 288, 320
-0.995235, 269, 73, 284, 136
-0.995246, 105, 73, 120, 136
-0.995264, 1, 169, 128, 200
-0.995307, 423, 97, 438, 160
-0.995307, 27, 97, 42, 160
-0.995309, 397, 97, 412, 160
-0.995317, 273, 193, 400, 224
-0.995324, 53, 105, 68, 168
-0.995324, 405, 97, 420, 160
-0.995325, 59, 97, 74, 160
-0.995334, 273, 181, 400, 212
-0.995336, 377, 57, 392, 120
-0.995339, 379, 121, 394, 184
-0.995345, 359, 193, 374, 256
-0.995366, 161, 165, 288, 196
-0.995376, 291, 81, 306, 144
-0.995385, 375, 177, 390, 240
-0.995392, 357, 1, 388, 256
-0.995404, 181, 185, 196, 248
-0.995423, 335, 65, 350, 128
-0.995425, 225, 93, 352, 124
-0.995426, 297, 185, 312, 248
-0.995432, 325, 177, 340, 240
-0.995491, 247, 193, 262, 256
-0.995518, 231, 209, 246, 272
-0.99553, 161, 201, 288, 232
-0.995534, 309, 209, 340, 336
-0.995536, 117, 81, 132, 144
-0.995545, 315, 121, 330, 184
-0.995564, 187, 217, 202, 280
-0.995573, 359, 49, 374, 112
-0.995584, 273, 157, 400, 188
-0.99559, 369, 89, 496, 120
-0.995597, 21, 17, 52, 144
-0.995599, 1, 145, 128, 176
-0.995603, 177, 93, 304, 124
-0.995615, 259, 193, 274, 256
-0.995617, 77, 113, 92, 176
-0.995623, 289, 57, 416, 88
-0.995623, 263, 73, 278, 136
-0.995647, 113, 161, 240, 192
-0.995649, 353, 221, 480, 252
-0.995657, 425, 65, 456, 320
-0.99566, 161, 177, 288, 208
-0.99571, 229, 97, 244, 160
-0.995722, 1, 289, 128, 352
-0.995726, 111, 73, 126, 136
-0.995733, 333, 201, 348, 264
-0.995738, 235, 233, 250, 296
-0.995753, 197, 225, 212, 288
-0.995758, 345, 33, 376, 288
-0.995758, 353, 161, 480, 192
-0.995778, 307, 105, 322, 168
-0.99578, 409, 33, 440, 288
-0.995786, 309, 65, 340, 320
-0.995791, 293, 225, 324, 352
-0.995797, 43, 105, 58, 168
-0.995797, 325, 105, 340, 168
-0.995805, 305, 17, 336, 144
-0.995824, 337, 1, 368, 128
-0.995851, 353, 217, 368, 280
-0.995853, 211, 233, 226, 296
-0.995867, 317, 177, 332, 240
-0.995868, 467, 193, 482, 256
-0.995874, 353, 69, 480, 100
-0.995879, 331, 105, 346, 168
-0.995885, 69, 81, 84, 144
-0.995891, 227, 233, 242, 296
-0.995901, 353, 189, 480, 220
-0.995907, 425, 225, 488, 352
-0.995912, 439, 153, 454, 216
-0.995923, 97, 221, 224, 252
-0.995928, 23, 73, 38, 136
-0.99593, 335, 225, 350, 288
-0.995946, 241, 69, 368, 100
-0.99595, 177, 217, 192, 280
-0.995953, 481, 81, 496, 144
-0.995953, 409, 129, 424, 192
-0.995953, 373, 97, 404, 352
-0.995954, 299, 73, 314, 136
-0.995978, 65, 185, 192, 216
-0.995995, 389, 129, 404, 192
-0.995998, 367, 201, 382, 264
-0.995998, 81, 69, 208, 100
-0.995999, 161, 81, 288, 112
-0.996016, 317, 97, 332, 160
-0.996018, 219, 233, 234, 296
-0.996041, 429, 97, 444, 160
-0.996049, 225, 161, 352, 192
-0.996055, 47, 73, 62, 136
-0.996058, 167, 177, 182, 240
-0.996064, 321, 125, 448, 156
-0.996092, 309, 81, 324, 144
-0.996097, 343, 89, 358, 152
-0.996098, 337, 21, 464, 52
-0.996099, 337, 45, 464, 76
-0.99611, 359, 153, 374, 216
-0.996112, 341, 225, 356, 288
-0.996122, 129, 105, 256, 136
-0.996124, 1, 157, 128, 188
-0.996124, 203, 241, 218, 304
-0.99613, 273, 145, 400, 176
-0.996134, 105, 105, 120, 168
-0.996139, 429, 137, 444, 200
-0.996146, 275, 65, 290, 128
-0.99615, 237, 81, 252, 144
-0.996154, 171, 241, 186, 304
-0.996158, 65, 113, 80, 176
-0.99617, 297, 65, 328, 320
-0.99618, 485, 193, 500, 256
-0.996194, 77, 81, 92, 144
-0.996205, 129, 57, 384, 120
-0.99621, 177, 161, 192, 224
-0.996216, 33, 65, 160, 96
-0.996222, 269, 233, 284, 296
-0.996224, 183, 241, 198, 304
-0.996228, 269, 97, 284, 160
-0.99624, 319, 225, 334, 288
-0.996254, 145, 233, 160, 296
-0.996255, 19, 137, 34, 200
-0.996257, 191, 241, 206, 304
-0.99627, 253, 233, 268, 296
-0.996275, 461, 193, 476, 256
-0.996284, 223, 81, 238, 144
-0.996286, 75, 153, 90, 216
-0.996298, 477, 193, 492, 256
-0.996303, 53, 65, 68, 128
-0.996312, 395, 129, 410, 192
-0.996317, 1, 49, 256, 112
-0.996323, 399, 185, 414, 248
-0.996328, 301, 105, 316, 168
-0.996334, 177, 241, 192, 304
-0.996339, 165, 81, 180, 144
-0.996341, 349, 105, 364, 168
-0.996356, 257, 17, 500, 80
-0.996368, 97, 281, 224, 344
-0.996377, 389, 33, 420, 288
-0.996401, 1, 193, 128, 224
-0.996415, 49, 33, 176, 96
-0.996483, 305, 113, 432, 144
-0.996513, 101, 65, 132, 320
-0.996549, 441, 65, 472, 320
-0.996553, 161, 33, 416, 96
-0.996564, 1, 41, 500, 104
-0.99659, 269, 65, 300, 320
-0.996632, 177, 189, 304, 220
-0.996639, 277, 93, 292, 124
-0.996648, 273, 133, 400, 164
-0.996694, 353, 9, 480, 40
-0.996703, 369, 89, 384, 120
-0.99671, 65, 201, 192, 232
-0.99672, 97, 117, 224, 148
-0.996728, 285, 97, 316, 352
-0.996741, 329, 65, 360, 320
-0.99675, 337, 33, 464, 64
-0.996778, 257, 233, 500, 296
-0.996806, 321, 209, 336, 240
-0.996814, 17, 205, 144, 236
-0.996814, 85, 65, 116, 320
-0.996828, 161, 153, 288, 184
-0.996872, 369, 1, 400, 256
-0.996876, 33, 225, 160, 256
-0.99688, 313, 9, 376, 72
-0.996925, 363, 77, 378, 108
-0.996953, 345, 89, 360, 120
-0.99696, 369, 297, 496, 360
-0.996969, 225, 149, 352, 180
-0.99698, 229, 65, 260, 320
-0.997021, 113, 81, 240, 112
-0.997039, 369, 201, 496, 232
-0.997041, 117, 33, 148, 288
-0.997043, 129, 69, 256, 100
-0.997051, 65, 149, 192, 180
-0.997056, 217, 65, 248, 320
-0.997074, 355, 89, 370, 120
-0.997088, 241, 25, 368, 88
-0.997117, 273, 169, 400, 200
-0.997129, 65, 133, 192, 164
-0.997141, 337, 233, 464, 264
-0.997142, 1, 241, 500, 304
-0.997142, 311, 209, 326, 240
-0.99716, 209, 117, 336, 148
-0.997174, 361, 97, 392, 352
-0.997177, 193, 69, 320, 100
-0.997177, 267, 97, 282, 128
-0.997217, 303, 209, 318, 240
-0.997237, 65, 241, 192, 272
-0.997241, 275, 213, 290, 244
-0.997258, 113, 93, 240, 124
-0.997259, 113, 209, 240, 240
-0.997281, 209, 173, 336, 204
-0.997301, 283, 85, 298, 116
-0.997329, 379, 89, 394, 120
-0.99734, 249, 217, 264, 248
-0.997349, 297, 213, 312, 244
-0.997356, 355, 73, 370, 104
-0.997361, 281, 217, 296, 248
-0.99737, 413, 129, 444, 375
-0.997415, 269, 213, 284, 244
-0.997437, 453, 65, 484, 320
-0.997473, 243, 221, 258, 252
-0.997488, 73, 65, 104, 320
-0.997491, 349, 129, 380, 375
-0.997508, 113, 197, 240, 228
-0.997533, 85, 89, 100, 120
-0.997539, 319, 117, 334, 148
-0.997545, 259, 213, 274, 244
-0.997551, 369, 77, 384, 108
-0.997553, 181, 161, 196, 192
-0.997589, 285, 105, 300, 136
-0.997591, 381, 129, 396, 160
-0.997597, 81, 105, 96, 136
-0.9976, 325, 109, 340, 140
-0.997602, 43, 109, 58, 140
-0.997609, 361, 57, 376, 88
-0.997616, 287, 217, 302, 248
-0.997616, 327, 217, 342, 248
-0.99763, 289, 237, 416, 268
-0.997643, 187, 161, 202, 192
-0.997653, 17, 93, 32, 124
-0.997667, 61, 105, 76, 136
-0.997672, 363, 89, 378, 120
-0.997675, 1, 97, 32, 352
-0.997675, 393, 129, 424, 375
-0.99769, 93, 89, 108, 120
-0.997692, 57, 241, 120, 368
-0.9977, 249, 229, 264, 260
-0.997702, 13, 33, 44, 288
-0.997717, 265, 85, 280, 116
-0.99772, 43, 133, 58, 164
-0.99772, 369, 57, 384, 88
-0.997722, 289, 85, 304, 116
-0.997725, 65, 265, 320, 328
-0.997726, 41, 65, 72, 320
-0.997726, 465, 65, 496, 320
-0.997747, 107, 81, 122, 112
-0.997754, 203, 229, 218, 260
-0.997761, 303, 221, 318, 252
-0.997767, 145, 105, 160, 136
-0.997769, 341, 101, 356, 132
-0.997779, 309, 109, 324, 140
-0.997788, 99, 85, 114, 116
-0.997805, 107, 109, 122, 140
-0.997808, 35, 109, 50, 140
-0.997813, 209, 253, 336, 284
-0.997814, 85, 117, 100, 148
-0.997838, 1, 293, 128, 324
-0.997841, 271, 85, 286, 116
-0.997845, 197, 225, 212, 256
-0.997846, 113, 185, 240, 216
-0.997854, 53, 105, 68, 136
-0.997856, 361, 101, 376, 132
-0.99786, 171, 161, 186, 192
-0.997879, 333, 209, 348, 240
-0.997881, 289, 41, 416, 72
-0.997881, 37, 141, 52, 172
-0.997889, 347, 101, 362, 132
-0.99789, 285, 1, 316, 256
-0.997899, 23, 85, 38, 116
-0.9979, 321, 313, 448, 375
-0.997909, 53, 181, 68, 212
-0.997911, 349, 73, 364, 104
-0.99793, 53, 133, 68, 164
-0.997936, 183, 173, 198, 204
-0.997944, 87, 101, 102, 132
-0.99795, 35, 129, 50, 160
-0.997953, 353, 249, 480, 312
-0.997954, 113, 149, 240, 180
-0.997964, 385, 57, 400, 88
-0.997965, 177, 173, 192, 204
-0.997966, 241, 257, 368, 320
-0.997968, 325, 185, 340, 216
-0.997972, 345, 225, 360, 256
-0.997974, 291, 73, 306, 104
-0.997974, 209, 225, 224, 256
-0.99798, 269, 225, 284, 256
-0.997984, 59, 93, 74, 124
-0.997985, 291, 105, 306, 136
-0.997985, 125, 129, 156, 375
-0.997995, 365, 197, 380, 228
-0.997999, 1, 281, 128, 312
-0.998005, 365, 169, 380, 200
-0.998011, 261, 97, 276, 128
-0.998012, 237, 221, 252, 252
-0.998014, 433, 145, 448, 176
-0.998014, 23, 97, 38, 128
-0.998019, 193, 265, 320, 328
-0.998022, 25, 109, 40, 140
-0.998024, 259, 85, 274, 116
-0.998025, 409, 57, 424, 88
-0.998027, 315, 105, 330, 136
-0.998029, 75, 113, 90, 144
-0.998031, 205, 65, 236, 320
-0.998033, 193, 161, 208, 192
-0.99804, 189, 173, 204, 204
-0.998041, 409, 129, 424, 160
-0.998044, 101, 109, 116, 140
-0.998045, 391, 57, 406, 88
-0.998047, 65, 125, 80, 156
-0.998051, 145, 117, 272, 148
-0.998061, 129, 261, 256, 292
-0.998063, 257, 65, 288, 320
-0.998065, 239, 237, 254, 268
-0.998067, 361, 185, 376, 216
-0.998068, 351, 225, 366, 256
-0.99807, 33, 97, 48, 128
-0.998072, 255, 225, 270, 256
-0.998075, 339, 89, 354, 120
-0.998075, 69, 181, 84, 212
-0.998076, 421, 133, 436, 164
-0.998082, 235, 193, 250, 224
-0.998084, 61, 181, 76, 212
-0.998086, 11, 153, 26, 184
-0.998093, 357, 225, 372, 256
-0.998099, 273, 149, 288, 180
-0.9981, 113, 105, 128, 136
-0.998105, 151, 105, 166, 136
-0.998108, 297, 105, 312, 136
-0.998115, 261, 225, 276, 256
-0.998117, 169, 129, 200, 375
-0.998118, 41, 121, 56, 152
-0.998119, 65, 145, 80, 176
-0.998121, 299, 73, 314, 104
-0.998134, 377, 49, 392, 80
-0.998136, 375, 77, 390, 108
-0.998136, 39, 53, 54, 84
-0.998136, 355, 61, 370, 92
-0.998138, 139, 101, 154, 132
-0.998139, 369, 101, 384, 132
-0.998142, 397, 57, 412, 88
-0.998152, 31, 141, 46, 172
-0.998156, 91, 129, 106, 160
-0.998156, 307, 73, 322, 104
-0.998156, 353, 101, 368, 132
-0.998162, 393, 133, 408, 164
-0.99817, 1, 265, 128, 296
-0.998171, 221, 241, 236, 272
-0.998172, 95, 101, 110, 132
-0.998176, 215, 241, 230, 272
-0.998179, 427, 137, 442, 168
-0.998179, 195, 241, 210, 272
-0.998184, 111, 153, 126, 184
-0.998217, 29, 33, 60, 288
-0.998249, 181, 129, 212, 375
-0.99825, 245, 65, 276, 320
-0.998266, 193, 97, 224, 352
-0.998272, 257, 121, 384, 152
-0.998293, 65, 285, 192, 316
-0.998352, 337, 91, 400, 106
-0.998365, 281, 213, 344, 228
-0.998374, 369, 125, 496, 156
-0.99839, 313, 71, 376, 86
-0.998392, 65, 253, 192, 284
-0.998393, 129, 33, 160, 288
-0.998397, 281, 219, 344, 234
-0.998403, 289, 29, 416, 60
-0.998408, 241, 215, 304, 230
-0.998408, 353, 201, 384, 216
-0.99841, 225, 241, 256, 256
-0.99841, 69, 125, 100, 140
-0.99841, 253, 109, 284, 124
-0.998412, 233, 227, 264, 242
-0.998413, 177, 167, 208, 182
-0.998413, 317, 185, 348, 200
-0.998413, 297, 229, 328, 244
-0.998413, 1, 253, 128, 284
-0.998413, 117, 165, 148, 180
-0.998413, 445, 97, 476, 112
-0.998414, 253, 99, 284, 114
-0.998414, 413, 97, 444, 112
-0.998414, 89, 199, 120, 214
-0.998414, 161, 141, 288, 172
-0.998416, 89, 149, 120, 164
-0.998416, 105, 119, 136, 134
-0.998417, 229, 85, 260, 100
-0.998417, 373, 217, 404, 232
-0.998417, 9, 83, 40, 98
-0.998417, 253, 163, 284, 178
-0.998419, 77, 193, 108, 208
-0.998419, 329, 159, 360, 174
-0.998419, 229, 195, 260, 210
-0.998421, 153, 197, 184, 212
-0.998422, 153, 169, 184, 184
-0.998423, 73, 175, 104, 190
-0.998423, 57, 191, 88, 206
-0.998424, 21, 185, 52, 200
-0.998424, 373, 57, 404, 72
-0.998424, 345, 227, 376, 242
-0.998426, 81, 97, 112, 112
-0.998429, 305, 71, 336, 86
-0.99843, 329, 65, 360, 80
-0.99843, 341, 163, 372, 178
-0.998431, 257, 221, 320, 236
-0.998432, 5, 91, 36, 106
-0.998435, 285, 219, 316, 234
-0.998436, 45, 99, 76, 114
-0.998436, 365, 83, 396, 98
-0.998437, 361, 57, 392, 72
-0.998442, 273, 227, 304, 242
-0.998443, 57, 89, 120, 104
-0.998443, 57, 107, 88, 122
-0.998443, 233, 165, 264, 180
-0.998443, 361, 63, 424, 78
-0.998444, 17, 101, 48, 116
-0.998444, 405, 227, 436, 242
-0.998445, 353, 63, 384, 78
-0.998445, 221, 233, 252, 248
-0.998445, 197, 237, 228, 252
-0.998445, 189, 173, 220, 188
-0.998446, 353, 183, 384, 198
-0.998446, 53, 149, 84, 164
-0.998447, 261, 215, 292, 230
-0.998448, 321, 111, 352, 126
-0.998449, 173, 179, 204, 194
-0.998451, 45, 183, 76, 198
-0.998451, 245, 81, 276, 96
-0.998452, 305, 161, 336, 176
-0.998452, 317, 119, 348, 134
-0.998453, 85, 119, 116, 134
-0.998453, 281, 109, 344, 124
-0.998453, 333, 103, 364, 118
-0.998453, 385, 135, 448, 150
-0.998455, 233, 233, 264, 248
-0.998455, 25, 107, 56, 122
-0.998455, 261, 85, 292, 100
-0.998457, 17, 143, 48, 158
-0.998458, 249, 223, 280, 238
-0.998459, 17, 95, 48, 110
-0.998462, 389, 63, 420, 78
-0.998464, 169, 173, 232, 188
-0.998465, 317, 227, 348, 242
-0.998465, 329, 219, 360, 234
-0.998466, 229, 221, 260, 236
-0.998467, 101, 111, 132, 126
-0.998467, 69, 119, 100, 134
-0.998467, 245, 235, 276, 250
-0.998468, 209, 235, 240, 250
-0.998468, 305, 123, 336, 138
-0.998468, 17, 89, 48, 104
-0.998468, 301, 117, 332, 132
-0.998469, 33, 107, 96, 122
-0.998469, 385, 57, 416, 72
-0.99847, 57, 119, 120, 134
-0.99847, 265, 111, 296, 126
-0.998471, 57, 183, 88, 198
-0.998471, 77, 111, 108, 126
-0.998475, 73, 181, 104, 196
-0.998476, 277, 75, 308, 90
-0.998477, 113, 77, 144, 92
-0.998478, 353, 95, 384, 110
-0.998479, 65, 95, 96, 110
-0.99848, 369, 103, 432, 118
-0.99848, 73, 111, 136, 126
-0.998484, 41, 141, 72, 156
-0.998484, 277, 91, 308, 106
-0.998486, 33, 97, 96, 112
-0.998486, 165, 173, 196, 188
-0.998491, 329, 63, 392, 78
-0.998491, 177, 33, 208, 288
-0.998492, 137, 169, 200, 184
-0.998492, 373, 131, 404, 146
-0.998495, 41, 147, 72, 162
-0.998497, 377, 63, 408, 78
-0.998497, 1, 147, 64, 162
-0.998498, 241, 103, 304, 118
-0.998499, 337, 97, 400, 112
-0.998499, 313, 103, 376, 118
-0.998501, 233, 83, 296, 98
-0.998501, 193, 233, 256, 248
-0.998501, 57, 105, 120, 120
-0.998501, 17, 91, 80, 106
-0.998502, 53, 143, 84, 158
-0.998502, 281, 225, 344, 240
-0.998504, 217, 231, 280, 246
-0.998505, 305, 221, 368, 236
-0.998506, 241, 231, 304, 246
-0.998506, 365, 63, 396, 78
-0.998506, 257, 93, 288, 108
-0.998508, 45, 107, 76, 122
-0.998508, 353, 221, 416, 236
-0.998509, 285, 109, 316, 124
-0.998512, 349, 75, 380, 90
-0.998513, 25, 131, 88, 146
-0.998515, 289, 83, 320, 98
-0.998515, 401, 63, 432, 78
-0.998516, 273, 163, 336, 178
-0.998517, 57, 99, 120, 114
-0.998518, 297, 223, 328, 238
-0.998519, 33, 113, 96, 128
-0.99852, 25, 183, 88, 198
-0.99852, 249, 77, 312, 92
-0.998522, 161, 167, 224, 182
-0.998523, 1, 141, 64, 156
-0.998525, 317, 71, 348, 86
-0.998526, 273, 77, 336, 92
-0.998526, 113, 169, 176, 184
-0.998526, 81, 105, 112, 120
-0.998527, 313, 229, 376, 244
-0.998527, 377, 99, 408, 114
-0.998527, 313, 221, 344, 236
-0.998528, 285, 225, 316, 240
-0.998528, 397, 133, 428, 148
-0.998528, 273, 213, 304, 228
-0.998528, 261, 229, 292, 244
-0.998529, 29, 147, 60, 162
-0.998529, 321, 209, 384, 224
-0.99853, 53, 1, 84, 256
-0.998531, 25, 83, 88, 98
-0.998533, 49, 145, 112, 160
-0.998534, 61, 89, 92, 104
-0.998535, 257, 249, 384, 280
-0.998535, 345, 57, 408, 72
-0.998536, 361, 69, 392, 84
-0.998538, 233, 165, 296, 180
-0.998538, 337, 71, 368, 86
-0.998538, 161, 179, 224, 194
-0.998539, 81, 91, 112, 106
-0.998539, 9, 103, 72, 118
-0.998539, 65, 113, 96, 128
-0.998542, 57, 83, 120, 98
-0.998546, 353, 69, 416, 84
-0.998546, 385, 141, 448, 156
-0.998547, 341, 65, 372, 80
-0.998547, 73, 173, 136, 188
-0.998548, 233, 225, 296, 240
-0.998549, 313, 159, 376, 174
-0.998549, 193, 241, 256, 256
-0.99855, 105, 77, 168, 92
-0.998551, 65, 101, 96, 116
-0.998551, 217, 219, 280, 234
-0.998551, 385, 57, 448, 72
-0.998552, 233, 237, 296, 252
-0.998553, 25, 139, 88, 154
-0.998553, 177, 173, 208, 188
-0.998553, 233, 111, 296, 126
-0.998554, 337, 105, 400, 120
-0.998555, 145, 199, 208, 214
-0.998555, 17, 237, 144, 268
-0.998556, 101, 85, 132, 100
-0.998557, 321, 203, 384, 218
-0.998557, 209, 167, 272, 182
-0.998557, 385, 63, 448, 78
-0.998561, 273, 231, 336, 246
-0.998561, 269, 221, 300, 236
-0.998564, 281, 187, 344, 202
-0.998564, 57, 75, 120, 90
-0.998564, 273, 83, 336, 98
-0.998566, 177, 197, 240, 212
-0.998567, 65, 179, 128, 194
-0.998567, 113, 129, 144, 375
-0.998568, 97, 163, 160, 178
-0.998571, 233, 191, 296, 206
-0.998571, 309, 211, 340, 226
-0.998571, 249, 229, 280, 244
-0.998571, 257, 109, 320, 124
-0.998572, 25, 191, 88, 206
-0.998573, 137, 175, 200, 190
-0.998574, 105, 67, 168, 82
-0.998576, 65, 193, 128, 208
-0.998577, 185, 167, 248, 182
-0.998578, 169, 239, 232, 254
-0.998578, 141, 65, 172, 320
-0.998579, 353, 81, 384, 96
-0.998579, 65, 129, 128, 144
-0.998582, 321, 183, 384, 198
-0.998583, 305, 77, 368, 92
-0.998583, 17, 119, 80, 134
-0.998584, 161, 157, 224, 172
-0.998584, 97, 115, 160, 130
-0.998584, 1, 185, 64, 200
-0.998585, 345, 105, 376, 120
-0.998585, 417, 97, 480, 112
-0.998585, 89, 87, 152, 102
-0.998585, 289, 71, 352, 86
-0.998586, 201, 225, 264, 240
-0.998586, 289, 213, 320, 228
-0.998587, 249, 89, 312, 104
-0.998587, 377, 97, 440, 112
-0.998588, 313, 215, 376, 230
-0.998589, 361, 199, 424, 214
-0.998591, 305, 111, 368, 126
-0.998592, 297, 77, 328, 92
-0.998592, 249, 217, 280, 232
-0.998592, 305, 119, 368, 134
-0.998593, 25, 147, 88, 162
-0.998593, 265, 101, 296, 116
-0.998594, 105, 101, 168, 116
-0.998594, 353, 83, 416, 98
-0.998594, 257, 189, 320, 204
-0.998594, 401, 175, 464, 190
-0.998595, 65, 135, 128, 150
-0.998596, 209, 195, 272, 210
-0.998597, 9, 109, 72, 124
-0.998598, 257, 209, 320, 224
-0.998599, 209, 81, 272, 96
-0.998599, 193, 25, 320, 88
-0.998602, 113, 241, 176, 256
-0.998602, 281, 207, 344, 222
-0.998603, 9, 97, 72, 112
-0.998603, 225, 89, 288, 104
-0.998605, 329, 191, 392, 206
-0.998605, 265, 71, 328, 86
-0.998606, 169, 233, 232, 248
-0.998607, 57, 97, 88, 352
-0.998609, 9, 175, 72, 190
-0.998609, 49, 199, 112, 214
-0.998611, 41, 153, 104, 168
-0.998611, 329, 81, 392, 96
-0.998613, 313, 91, 376, 106
-0.998615, 41, 177, 104, 192
-0.998616, 361, 205, 424, 220
-0.998616, 369, 171, 432, 186
-0.998617, 73, 165, 136, 180
-0.998617, 33, 125, 96, 140
-0.998618, 121, 111, 184, 126
-0.998619, 137, 161, 200, 176
-0.998619, 145, 235, 208, 250
-0.998619, 337, 153, 400, 168
-0.998632, 361, 89, 392, 104
-0.998649, 357, 101, 388, 116
-0.99865, 153, 129, 184, 375
-0.998669, 365, 95, 396, 110
-0.998683, 341, 91, 372, 106
-0.998755, 385, 81, 400, 208
-0.998756, 379, 81, 394, 208
-0.998759, 33, 53, 160, 84
-0.998776, 209, 57, 336, 88
-0.998778, 411, 81, 426, 208
-0.998784, 421, 81, 436, 208
-0.998785, 319, 113, 334, 240
-0.998842, 313, 113, 328, 240
-0.998844, 373, 65, 388, 192
-0.998846, 405, 81, 420, 208
-0.998855, 157, 33, 188, 288
-0.998864, 55, 65, 70, 192
-0.998865, 359, 49, 374, 176
-0.998869, 369, 1, 384, 128
-0.998869, 129, 57, 256, 88
-0.99887, 363, 1, 378, 128
-0.998875, 285, 177, 300, 304
-0.998885, 381, 129, 396, 256
-0.998891, 429, 81, 444, 208
-0.998893, 397, 81, 412, 208
-0.998896, 361, 145, 376, 272
-0.998908, 345, 49, 360, 176
-0.998909, 441, 145, 456, 272
-0.99891, 439, 81, 454, 208
-0.998911, 113, 281, 240, 312
-0.998917, 251, 177, 266, 304
-0.998927, 327, 113, 342, 240
-0.998928, 355, 145, 370, 272
-0.99893, 335, 113, 350, 240
-0.998937, 321, 65, 336, 192
-0.998937, 77, 97, 92, 224
-0.998944, 279, 177, 294, 304
-0.998953, 315, 65, 330, 192
-0.998958, 391, 81, 406, 208
-0.998958, 63, 81, 78, 208
-0.998969, 365, 65, 380, 192
-0.998969, 273, 177, 288, 304
-0.99897, 433, 129, 448, 256
-0.99897, 291, 177, 306, 304
-0.998979, 331, 49, 346, 176
-0.998985, 367, 161, 382, 288
-0.998985, 375, 129, 390, 256
-0.998989, 289, 17, 416, 48
-0.99899, 235, 177, 250, 304
-0.998992, 351, 65, 366, 192
-0.998998, 245, 209, 260, 336
-0.998999, 379, 1, 394, 128
-0.999004, 321, 161, 336, 288
-0.999007, 261, 177, 276, 304
-0.999011, 1, 289, 256, 352
-0.999016, 387, 129, 402, 256
-0.999016, 309, 65, 324, 192
-0.999018, 41, 33, 56, 160
-0.999021, 369, 113, 384, 240
-0.999022, 329, 161, 344, 288
-0.999026, 21, 129, 52, 375
-0.999032, 401, 33, 416, 160
-0.999036, 409, 33, 424, 160
-0.999039, 291, 65, 306, 192
-0.99904, 345, 129, 360, 256
-0.999042, 447, 161, 462, 288
-0.999044, 427, 129, 442, 256
-0.999054, 339, 49, 354, 176
-0.999058, 389, 1, 404, 128
-0.999066, 267, 177, 282, 304
-0.999073, 285, 49, 300, 176
-0.999077, 303, 177, 318, 304
-0.999084, 47, 49, 62, 176
-0.999085, 35, 33, 50, 160
-0.999091, 275, 49, 290, 176
-0.999092, 297, 177, 312, 304
-0.999093, 313, 161, 328, 288
-0.999094, 463, 177, 478, 304
-0.999099, 305, 113, 320, 240
-0.999102, 269, 81, 284, 208
-0.999107, 415, 33, 430, 160
-0.999112, 295, 113, 310, 240
-0.999115, 177, 177, 192, 304
-0.999115, 145, 281, 272, 344
-0.999119, 469, 177, 484, 304
-0.999123, 71, 113, 86, 240
-0.999128, 457, 177, 472, 304
-0.999137, 83, 97, 98, 224
-0.999143, 3, 65, 18, 192
-0.999144, 275, 129, 290, 256
-0.999148, 301, 65, 316, 192
-0.999149, 97, 65, 112, 192
-0.99915, 183, 177, 198, 304
-0.999154, 449, 81, 464, 208
-0.999154, 105, 97, 120, 224
-0.999155, 81, 57, 208, 88
-0.999158, 1, 1, 32, 256
-0.99916, 209, 177, 224, 304
-0.999162, 69, 65, 84, 192
-0.999163, 47, 113, 62, 240
-0.999165, 335, 193, 350, 320
-0.999169, 31, 81, 46, 208
-0.999171, 443, 1, 458, 128
-0.999171, 305, 5, 432, 36
-0.999181, 411, 129, 426, 256
-0.999183, 375, 177, 390, 304
-0.999183, 53, 113, 68, 240
-0.999193, 113, 97, 128, 224
-0.999199, 169, 161, 184, 288
-0.999206, 37, 97, 52, 224
-0.999206, 89, 97, 104, 224
-0.999207, 241, 161, 256, 288
-0.999208, 155, 177, 170, 304
-0.999213, 421, 1, 436, 128
-0.999229, 359, 97, 374, 224
-0.999229, 355, 1, 370, 128
-0.99923, 225, 133, 352, 164
-0.99923, 421, 129, 436, 256
-0.99923, 113, 145, 128, 272
-0.999232, 229, 177, 244, 304
-0.999232, 13, 97, 28, 224
-0.999235, 289, 113, 304, 240
-0.999236, 477, 177, 492, 304
-0.999242, 25, 65, 40, 192
-0.999245, 1, 25, 128, 88
-0.999248, 483, 177, 498, 304
-0.999251, 407, 209, 422, 336
-0.999251, 189, 177, 204, 304
-0.999265, 215, 209, 230, 336
-0.999268, 283, 97, 298, 224
-0.99927, 395, 33, 410, 160
-0.999272, 267, 129, 282, 256
-0.999272, 345, 193, 360, 320
-0.999278, 359, 193, 374, 320
-0.99928, 405, 129, 420, 256
-0.999281, 241, 1, 368, 64
-0.999284, 203, 177, 218, 304
-0.99929, 453, 129, 468, 256
-0.99929, 161, 177, 176, 304
-0.999293, 119, 65, 134, 192
-0.999297, 137, 49, 152, 176
-0.999302, 393, 129, 408, 256
-0.999314, 435, 1, 450, 128
-0.999317, 103, 49, 118, 176
-0.999318, 113, 137, 240, 168
-0.99932, 141, 97, 156, 224
-0.999321, 23, 113, 38, 240
-0.999332, 95, 129, 110, 256
-0.999339, 429, 1, 444, 128
-0.999339, 263, 81, 278, 208
-0.999341, 147, 65, 162, 192
-0.999346, 65, 273, 192, 304
-0.999391, 369, 249, 496, 280
-0.99954, 369, 305, 496, 336
-0.999576, 257, 305, 500, 368
-0.999606, 425, 139, 440, 154
-0.999606, 27, 107, 42, 122
-0.999607, 43, 107, 58, 122
-0.999607, 411, 63, 426, 78
-0.999608, 327, 71, 342, 86
-0.999608, 399, 133, 414, 148
-0.999608, 365, 201, 380, 216
-0.999609, 59, 107, 74, 122
-0.99961, 23, 113, 38, 128
-0.99961, 301, 73, 316, 88
-0.99961, 339, 71, 354, 86
-0.999611, 101, 149, 116, 164
-0.999611, 43, 113, 58, 128
-0.999611, 373, 61, 388, 76
-0.999612, 21, 89, 36, 104
-0.999612, 241, 165, 256, 180
-0.999613, 189, 1, 220, 256
-0.999613, 29, 123, 44, 138
-0.999614, 415, 133, 430, 148
-0.999614, 235, 165, 250, 180
-0.999615, 79, 105, 94, 120
-0.999615, 61, 183, 76, 198
-0.999617, 71, 115, 86, 130
-0.999619, 353, 73, 368, 88
-0.999619, 285, 77, 300, 92
-0.999619, 167, 169, 182, 184
-0.99962, 59, 99, 74, 114
-0.999621, 369, 69, 384, 84
-0.999621, 117, 75, 132, 90
-0.999621, 393, 63, 408, 78
-0.999621, 333, 71, 348, 86
-0.999622, 85, 109, 100, 124
-0.999622, 391, 57, 406, 72
-0.999622, 185, 179, 200, 194
-0.999624, 251, 81, 266, 96
-0.999625, 51, 109, 66, 124
-0.999626, 273, 159, 288, 174
-0.999627, 203, 237, 218, 252
-0.999627, 209, 237, 224, 252
-0.999629, 275, 85, 290, 100
-0.999629, 97, 91, 112, 106
-0.999631, 269, 109, 284, 124
-0.999632, 339, 65, 354, 80
-0.999632, 265, 231, 280, 246
-0.999633, 401, 63, 416, 78
-0.999634, 277, 91, 292, 106
-0.999635, 239, 221, 254, 236
-0.999635, 359, 81, 374, 96
-0.999636, 243, 231, 258, 246
-0.999639, 191, 173, 206, 188
-0.999641, 347, 71, 362, 86
-0.999642, 277, 103, 292, 118
-0.999643, 359, 93, 374, 108
-0.999643, 103, 83, 118, 98
-0.999644, 173, 179, 188, 194
-0.999646, 321, 71, 336, 86
-0.999646, 343, 103, 358, 118
-0.999646, 265, 93, 280, 108
-0.999647, 247, 215, 262, 230
-0.999647, 259, 215, 274, 230
-0.999648, 55, 147, 70, 162
-0.999648, 385, 61, 400, 76
-0.999649, 45, 147, 60, 162
-0.999649, 313, 215, 328, 230
-0.99965, 179, 179, 194, 194
-0.999652, 19, 101, 34, 116
-0.999652, 27, 93, 42, 108
-0.999653, 87, 103, 102, 118
-0.999653, 351, 65, 366, 80
-0.999654, 287, 107, 302, 122
-0.999654, 367, 77, 382, 92
-0.999655, 317, 221, 332, 236
-0.999659, 283, 223, 298, 238
-0.999662, 345, 63, 360, 78
-0.999662, 381, 99, 396, 114
-0.999662, 249, 235, 264, 250
-0.999663, 315, 73, 330, 88
-0.999663, 367, 63, 382, 78
-0.999663, 379, 63, 394, 78
-0.999663, 383, 131, 398, 146
-0.999663, 265, 101, 280, 116
-0.999665, 317, 125, 332, 140
-0.999665, 271, 215, 286, 230
-0.999666, 305, 221, 320, 236
-0.999666, 281, 215, 296, 230
-0.999669, 37, 113, 52, 128
-0.999669, 65, 143, 80, 158
-0.999671, 299, 219, 314, 234
-0.999671, 365, 83, 380, 98
-0.999672, 37, 107, 52, 122
-0.999673, 277, 97, 292, 112
-0.999673, 185, 173, 200, 188
-0.999673, 307, 213, 322, 228
-0.999673, 109, 79, 124, 94
-0.999674, 67, 183, 82, 198
-0.999675, 267, 225, 282, 240
-0.999682, 357, 65, 372, 80
-0.999683, 79, 113, 94, 128
-0.999683, 317, 209, 332, 224
-0.999686, 295, 213, 310, 228
-0.999687, 309, 75, 324, 90
-0.999687, 39, 147, 54, 162
-0.999688, 327, 223, 342, 238
-0.999688, 323, 211, 338, 226
-0.999688, 283, 91, 298, 106
-0.999689, 373, 85, 388, 100
-0.99969, 353, 105, 368, 120
-0.999691, 293, 223, 308, 238
-0.999691, 273, 225, 288, 240
-0.999692, 257, 5, 384, 36
-0.999693, 301, 213, 316, 228
-0.999693, 343, 91, 358, 106
-0.999697, 367, 89, 382, 104
-0.999697, 311, 221, 326, 236
-0.999699, 289, 85, 304, 100
-0.999699, 305, 249, 432, 280
-0.999701, 377, 91, 392, 106
-0.999702, 83, 91, 98, 106
-0.999708, 369, 95, 384, 110
-0.999713, 49, 297, 176, 328
-0.999713, 301, 79, 316, 94
-0.999718, 259, 229, 274, 244
-0.99972, 295, 79, 310, 94
-0.999723, 179, 173, 194, 188
-0.999724, 271, 97, 286, 112
-0.999725, 249, 221, 264, 236
-0.999728, 253, 227, 268, 242
-0.999732, 289, 215, 304, 230
-0.999732, 359, 105, 374, 120
-0.999734, 361, 71, 376, 86
-0.99974, 173, 173, 188, 188
-0.999745, 317, 119, 332, 134
-0.999748, 323, 217, 338, 232
-0.999764, 369, 101, 384, 116
-0.999792, 321, 321, 448, 352
-0.999815, 113, 1, 176, 128
-0.999848, 1, 25, 256, 88
-0.999872, 161, 273, 288, 304
-0.999914, 161, 129, 288, 160
-0.999928, 369, 317, 496, 348
-0.999983, 305, 309, 432, 340
-1, 161, 1, 416, 64
-1.00002, 369, 113, 496, 144
-1.00005, 369, 273, 496, 336
-1.00007, 33, 313, 160, 344
-1.0002, 321, 289, 448, 352
-1.00024, 161, 265, 416, 328
-1.00032, 305, 257, 432, 320
-1.00039, 113, 1, 240, 64
-1.00055, 145, 25, 272, 88
-1.00062, 193, 1, 320, 64
-1.00074, 257, 273, 500, 336
-1.00074, 1, 9, 500, 72
-1.00088, 161, 289, 416, 352
-1.00095, 137, 1, 200, 128
-1.00102, 1, 265, 500, 328
-1.00114, 1, 313, 128, 375
-1.0012, 65, 313, 320, 375
-1.00122, 241, 281, 368, 344
-1.00135, 177, 305, 304, 368
-1.00137, 257, 313, 384, 375
-1.00147, 161, 313, 416, 375
-1.00157, 49, 313, 176, 375
-1.00184, 129, 313, 256, 375
-1.00194, 1, 289, 500, 352
-1.00221, 1, 313, 500, 375
-1.00224, 33, 1, 288, 64
-1.00284, 65, 1, 192, 64
-1.00298, 1, 1, 128, 64
-1.00711, 345, 241, 408, 368
