1962
-0.125357, 1, 1, 500, 375
-0.263114, 1, 33, 500, 288
-0.360082, 225, 1, 480, 375
-0.398768, 1, 129, 500, 375
-0.462237, 1, 1, 256, 375
-0.482462, 129, 1, 384, 375
-0.568161, 193, 1, 448, 256
-0.576327, 225, 97, 480, 352
-0.644158, 97, 129, 352, 375
-0.698972, 97, 1, 352, 256
-0.70472, 1, 97, 256, 352
-0.732919, 1, 1, 256, 256
-0.833576, 273, 1, 400, 375
-0.835895, 1, 49, 500, 176
-0.843164, 369, 1, 496, 256
-0.844659, 305, 97, 432, 352
-0.845334, 321, 1, 448, 375
-0.846432, 305, 1, 432, 256
-0.848834, 17, 1, 144, 375
-0.849395, 209, 1, 336, 375
-0.856442, 369, 1, 496, 375
-0.868064, 81, 1, 208, 375
-0.87031, 1, 97, 500, 224
-0.874178, 209, 65, 336, 320
-0.874943, 129, 1, 256, 375
-0.876609, 353, 97, 480, 352
-0.878898, 257, 97, 384, 352
-0.881236, 17, 65, 144, 320
-0.881551, 1, 1, 500, 128
-0.883965, 1, 161, 500, 288
-0.884438, 113, 97, 240, 352
-0.891545, 257, 1, 384, 256
-0.89312, 65, 33, 192, 288
-0.894364, 145, 1, 272, 256
-0.898982, 161, 129, 288, 375
-0.904995, 1, 209, 500, 336
-0.912309, 225, 161, 480, 288
-0.914809, 225, 33, 480, 160
-0.919596, 193, 225, 448, 352
-0.923421, 97, 177, 352, 304
-0.926256, 225, 113, 480, 240
-0.926547, 305, 161, 432, 288
-0.928661, 289, 33, 416, 160
-0.928904, 97, 1, 352, 128
-0.930416, 65, 129, 192, 375
-0.930551, 369, 177, 496, 304
-0.931809, 129, 97, 384, 224
-0.933397, 337, 161, 400, 288
-0.933744, 257, 177, 384, 304
-0.93388, 337, 1, 400, 128
-0.934984, 33, 49, 288, 176
-0.935007, 361, 129, 424, 256
-0.93591, 129, 49, 384, 176
-0.936979, 353, 1, 480, 128
-0.937699, 1, 113, 256, 240
-0.938478, 209, 177, 336, 304
-0.93953, 241, 177, 304, 304
-0.939823, 33, 225, 288, 352
-0.942364, 385, 177, 448, 304
-0.942405, 305, 113, 432, 240
-0.943124, 209, 193, 272, 320
-0.943199, 81, 49, 144, 176
-0.943369, 313, 177, 376, 304
-0.944936, 113, 161, 240, 288
-0.945238, 177, 1, 304, 128
-0.945289, 273, 177, 336, 304
-0.945779, 353, 49, 416, 176
-0.946621, 425, 193, 488, 320
-0.947617, 281, 33, 344, 160
-0.948266, 177, 193, 240, 320
-0.948658, 393, 1, 456, 128
-0.949639, 257, 129, 384, 256
-0.950193, 65, 49, 192, 176
-0.950617, 225, 225, 352, 352
-0.950928, 337, 113, 400, 240
-0.950953, 369, 129, 496, 256
-0.951823, 233, 17, 296, 144
-0.951975, 161, 209, 288, 336
-0.95201, 257, 225, 320, 352
-0.952829, 329, 225, 392, 288
-0.95294, 257, 81, 384, 208
-0.953424, 361, 1, 424, 128
-0.954814, 273, 225, 336, 288
-0.955755, 305, 217, 368, 280
-0.956158, 361, 177, 424, 304
-0.956566, 225, 33, 352, 160
-0.957354, 81, 57, 144, 120
-0.957408, 89, 209, 152, 336
-0.957482, 353, 169, 416, 232
-0.958232, 161, 129, 288, 256
-0.958473, 97, 1, 224, 128
-0.958561, 1, 1, 256, 128
-0.958965, 297, 193, 360, 256
-0.959199, 313, 1, 376, 128
-0.959393, 273, 225, 400, 352
-0.960401, 369, 81, 496, 208
-0.960873, 1, 1, 128, 128
-0.961042, 209, 81, 336, 208
-0.961586, 281, 225, 344, 352
-0.962205, 353, 113, 416, 176
-0.962265, 217, 241, 280, 304
-0.962348, 425, 201, 488, 264
-0.962463, 201, 145, 264, 272
-0.96261, 337, 193, 400, 256
-0.962616, 385, 1, 448, 64
-0.962866, 1, 177, 256, 304
-0.962921, 65, 97, 192, 224
-0.962988, 337, 209, 400, 336
-0.962991, 385, 185, 448, 248
-0.963069, 153, 161, 216, 288
-0.96308, 273, 65, 336, 128
-0.96312, 345, 17, 408, 80
-0.963587, 257, 1, 320, 128
-0.963831, 193, 185, 256, 248
-0.963919, 57, 65, 120, 192
-0.964226, 433, 129, 496, 256
-0.964728, 209, 1, 272, 128
-0.964828, 145, 17, 208, 144
-0.964851, 281, 41, 344, 104
-0.965009, 217, 185, 280, 248
-0.965071, 385, 129, 448, 256
-0.965202, 33, 1, 96, 128
-0.965249, 265, 193, 328, 256
-0.965346, 113, 209, 240, 336
-0.965372, 1, 161, 128, 288
-0.965964, 225, 241, 288, 368
-0.966018, 353, 225, 416, 288
-0.966303, 273, 129, 336, 256
-0.96666, 321, 49, 384, 176
-0.96673, 313, 129, 376, 256
-0.966886, 89, 217, 152, 280
-0.966922, 353, 89, 416, 152
-0.967042, 1, 1, 64, 64
-0.96739, 377, 25, 440, 88
-0.967529, 241, 177, 304, 240
-0.967646, 321, 25, 384, 88
-0.967802, 321, 209, 448, 336
-0.968037, 1, 113, 128, 240
-0.968114, 161, 33, 224, 96
-0.968367, 89, 161, 152, 288
-0.968546, 65, 193, 192, 320
-0.968624, 257, 49, 320, 176
-0.968758, 273, 217, 400, 280
-0.969088, 129, 49, 256, 176
-0.969217, 193, 25, 256, 88
-0.969421, 209, 161, 272, 224
-0.969471, 329, 113, 392, 176
-0.969564, 129, 161, 192, 288
-0.969746, 89, 81, 152, 144
-0.969855, 201, 241, 264, 368
-0.969902, 177, 145, 240, 272
-0.970252, 121, 81, 184, 208
-0.970306, 105, 57, 168, 120
-0.970364, 233, 209, 296, 272
-0.970391, 469, 161, 500, 288
-0.970448, 65, 145, 192, 272
-0.970616, 233, 97, 296, 224
-0.970628, 369, 65, 432, 320
-0.971005, 209, 49, 272, 112
-0.971036, 409, 1, 472, 64
-0.971174, 313, 1, 376, 64
-0.971239, 193, 1, 256, 64
-0.97125, 17, 49, 144, 176
-0.971477, 393, 33, 456, 288
-0.971488, 345, 33, 408, 288
-0.971921, 361, 137, 424, 200
-0.972183, 289, 81, 352, 208
-0.972217, 273, 193, 400, 256
-0.972306, 361, 225, 392, 288
-0.97239, 185, 49, 248, 112
-0.972402, 225, 25, 288, 88
-0.972491, 193, 233, 256, 296
-0.972545, 121, 1, 184, 128
-0.972697, 377, 81, 440, 208
-0.972725, 425, 177, 488, 240
-0.972745, 305, 129, 368, 375
-0.972887, 377, 209, 440, 272
-0.972906, 321, 177, 448, 240
-0.973029, 457, 193, 488, 256
-0.973186, 369, 209, 496, 272
-0.973276, 305, 33, 432, 96
-0.973326, 177, 209, 240, 272
-0.973333, 193, 73, 256, 136
-0.97349, 65, 81, 128, 144
-0.973629, 209, 129, 336, 256
-0.973681, 169, 177, 232, 240
-0.973812, 377, 129, 408, 256
-0.973887, 341, 225, 372, 288
-0.974063, 265, 177, 296, 304
-0.974108, 313, 225, 376, 352
-0.974178, 33, 97, 96, 224
-0.974204, 297, 81, 360, 144
-0.974216, 337, 145, 400, 208
-0.974244, 249, 233, 312, 296
-0.974261, 241, 257, 304, 320
-0.974292, 469, 201, 500, 264
-0.97431, 397, 1, 428, 128
-0.974316, 337, 129, 400, 375
-0.974369, 177, 241, 240, 368
-0.974383, 65, 217, 128, 280
-0.974496, 345, 161, 376, 288
-0.974628, 193, 257, 256, 320
-0.974659, 209, 209, 336, 272
-0.974727, 297, 225, 328, 288
-0.974971, 353, 1, 480, 64
-0.975144, 369, 49, 432, 112
-0.975225, 201, 97, 264, 224
-0.975283, 265, 97, 328, 352
-0.975459, 209, 209, 272, 272
-0.975531, 65, 57, 192, 120
-0.975558, 193, 233, 320, 296
-0.975565, 297, 241, 360, 304
-0.975616, 369, 185, 496, 248
-0.975711, 113, 41, 240, 104
-0.975733, 369, 241, 496, 368
-0.975846, 65, 225, 128, 352
-0.975941, 377, 161, 440, 224
-0.976056, 277, 177, 308, 304
-0.976058, 225, 1, 288, 64
-0.976093, 9, 1, 72, 128
-0.976179, 409, 145, 472, 272
-0.97618, 389, 177, 420, 304
-0.976383, 361, 177, 392, 304
-0.976391, 381, 49, 412, 176
-0.976404, 217, 177, 248, 304
-0.976467, 205, 49, 236, 112
-0.976641, 217, 273, 280, 336
-0.976661, 257, 25, 320, 88
-0.976678, 225, 129, 288, 375
-0.976707, 65, 161, 128, 288
-0.976799, 65, 65, 128, 320
-0.976826, 417, 1, 480, 128
-0.976915, 233, 49, 296, 112
-0.976935, 345, 249, 408, 312
-0.977009, 209, 185, 336, 248
-0.977164, 9, 113, 72, 240
-0.977202, 113, 113, 240, 240
-0.977234, 241, 193, 272, 320
-0.977299, 273, 57, 400, 120
-0.977387, 313, 161, 376, 224
-0.977395, 433, 281, 496, 344
-0.977556, 193, 25, 320, 88
-0.977573, 213, 209, 244, 272
-0.977582, 85, 33, 116, 160
-0.977589, 349, 193, 380, 256
-0.977672, 169, 233, 232, 296
-0.977686, 201, 1, 264, 256
-0.97769, 169, 153, 232, 216
-0.977834, 397, 1, 428, 64
-0.977863, 241, 1, 368, 64
-0.977982, 345, 41, 408, 104
-0.978033, 305, 89, 432, 152
-0.978072, 113, 185, 240, 248
-0.97808, 441, 193, 472, 320
-0.978127, 209, 49, 336, 112
-0.978168, 273, 1, 336, 64
-0.97826, 225, 1, 288, 256
-0.978281, 445, 201, 476, 264
-0.978296, 317, 217, 348, 280
-0.978427, 373, 217, 404, 280
-0.978443, 313, 33, 344, 160
-0.978507, 457, 193, 488, 320
-0.97855, 273, 169, 336, 232
-0.978592, 385, 1, 416, 128
-0.978713, 321, 225, 448, 288
-0.978756, 329, 217, 360, 280
-0.978832, 221, 233, 252, 296
-0.978888, 121, 193, 184, 256
-0.978928, 317, 193, 348, 256
-0.978961, 241, 241, 368, 304
-0.978965, 305, 113, 432, 176
-0.978978, 305, 201, 336, 264
-0.979047, 273, 137, 400, 200
-0.979049, 401, 25, 464, 88
-0.979095, 17, 209, 144, 336
-0.979188, 201, 97, 264, 352
-0.979201, 333, 1, 364, 128
-0.979257, 385, 113, 416, 176
-0.979266, 193, 49, 256, 176
-0.979281, 425, 241, 488, 304
-0.979291, 253, 177, 284, 304
-0.979432, 401, 33, 432, 96
-0.979433, 329, 1, 392, 375
-0.979632, 233, 153, 296, 216
-0.979642, 265, 89, 328, 152
-0.979671, 81, 1, 144, 375
-0.979679, 161, 97, 224, 224
-0.97983, 305, 177, 336, 304
-0.979846, 413, 1, 444, 64
-0.979909, 333, 177, 364, 304
-0.979956, 249, 185, 280, 248
-0.979991, 101, 49, 132, 112
-0.979993, 97, 33, 128, 160
-0.980049, 81, 49, 112, 112
-0.980068, 41, 193, 104, 320
-0.980106, 393, 73, 456, 136
-0.980252, 273, 249, 336, 312
-0.980265, 381, 17, 412, 80
-0.980402, 25, 1, 56, 64
-0.980418, 201, 185, 232, 248
-0.980446, 305, 105, 368, 168
-0.980472, 361, 1, 392, 64
-0.980514, 389, 129, 420, 256
-0.98054, 313, 57, 344, 120
-0.980579, 229, 177, 260, 304
-0.980601, 365, 129, 396, 256
-0.980616, 41, 225, 104, 288
-0.980701, 353, 1, 416, 375
-0.980731, 241, 89, 304, 152
-0.980734, 25, 1, 88, 64
-0.980734, 321, 1, 384, 256
-0.980764, 153, 9, 216, 72
-0.980766, 17, 1, 80, 256
-0.980782, 89, 193, 152, 256
-0.980823, 393, 129, 456, 375
-0.980845, 41, 65, 104, 128
-0.980863, 377, 105, 440, 168
-0.980867, 113, 121, 176, 184
-0.980912, 469, 177, 500, 240
-0.981104, 113, 65, 144, 128
-0.981127, 33, 113, 96, 176
-0.981168, 177, 73, 304, 136
-0.981178, 305, 57, 368, 120
-0.981195, 89, 241, 152, 304
-0.981219, 201, 209, 232, 336
-0.981247, 201, 1, 264, 375
-0.981259, 361, 1, 392, 128
-0.981296, 285, 217, 316, 280
-0.981316, 1, 161, 64, 288
-0.981346, 169, 33, 232, 160
-0.981381, 205, 129, 236, 256
-0.981431, 225, 225, 256, 352
-0.981433, 177, 97, 240, 352
-0.981456, 145, 1, 272, 64
-0.981506, 209, 113, 272, 176
-0.981556, 121, 153, 184, 216
-0.981606, 169, 257, 232, 320
-0.981631, 49, 1, 176, 128
-0.981672, 281, 65, 312, 128
-0.981684, 97, 65, 160, 320
-0.981713, 293, 177, 324, 304
-0.981725, 229, 193, 260, 256
-0.981849, 145, 177, 208, 240
-0.981985, 293, 49, 324, 112
-0.982157, 281, 49, 312, 176
-0.982167, 197, 25, 228, 88
-0.982174, 257, 137, 320, 200
-0.982184, 145, 161, 272, 224
-0.982213, 129, 129, 192, 375
-0.982251, 337, 193, 368, 256
-0.982277, 429, 193, 460, 256
-0.982313, 345, 1, 376, 128
-0.982328, 285, 193, 316, 256
-0.982338, 273, 161, 400, 224
-0.98236, 217, 49, 248, 112
-0.982373, 321, 249, 384, 312
-0.982392, 429, 177, 460, 304
-0.982395, 453, 241, 484, 304
-0.982397, 401, 1, 464, 375
-0.982457, 129, 209, 192, 336
-0.982475, 417, 177, 448, 304
-0.982486, 401, 161, 432, 288
-0.982487, 433, 1, 496, 64
-0.982523, 193, 257, 320, 320
-0.982552, 73, 65, 104, 192
-0.982643, 161, 185, 288, 248
-0.982657, 361, 225, 424, 352
-0.98268, 261, 1, 292, 128
-0.982714, 433, 1, 464, 64
-0.982737, 353, 121, 480, 184
-0.982765, 97, 97, 160, 224
-0.982769, 9, 1, 72, 375
-0.982847, 49, 81, 176, 144
-0.982855, 41, 25, 104, 88
-0.983108, 317, 161, 348, 288
-0.983137, 301, 33, 332, 160
-0.983146, 321, 153, 448, 216
-0.98322, 273, 225, 304, 288
-0.983231, 261, 233, 292, 296
-0.983238, 65, 193, 128, 256
-0.983244, 233, 161, 264, 224
-0.983244, 385, 209, 416, 272
-0.983264, 213, 185, 244, 248
-0.9833, 41, 65, 104, 320
-0.983301, 377, 1, 440, 375
-0.983321, 381, 137, 412, 200
-0.983324, 113, 89, 176, 152
-0.983337, 401, 209, 464, 272
-0.983371, 377, 193, 408, 320
-0.983494, 1, 217, 64, 280
-0.983504, 81, 1, 144, 128
-0.983508, 49, 249, 112, 312
-0.983527, 285, 225, 316, 352
-0.983576, 305, 1, 368, 375
-0.983598, 305, 9, 432, 72
-0.983602, 321, 81, 384, 144
-0.983638, 241, 1, 272, 128
-0.9837, 309, 33, 340, 96
-0.983701, 121, 33, 184, 96
-0.983754, 261, 177, 292, 240
-0.983782, 13, 1, 44, 64
-0.983784, 249, 1, 312, 64
-0.9838, 353, 25, 480, 88
-0.983828, 385, 89, 416, 152
-0.98383, 233, 1, 296, 375
-0.983847, 113, 209, 240, 272
-0.984033, 257, 97, 384, 160
-0.984074, 417, 185, 448, 248
-0.984124, 77, 89, 108, 152
-0.984139, 257, 1, 320, 375
-0.984177, 249, 1, 312, 256
-0.984244, 257, 33, 384, 96
-0.984279, 461, 281, 492, 344
-0.984282, 465, 225, 496, 288
-0.984303, 209, 137, 272, 200
-0.984342, 153, 1, 216, 375
-0.984344, 289, 33, 352, 288
-0.984345, 385, 41, 416, 104
-0.984388, 385, 161, 416, 224
-0.984388, 369, 145, 496, 208
-0.984415, 373, 1, 404, 128
-0.984471, 321, 57, 448, 120
-0.9845, 209, 73, 240, 136
-0.984574, 9, 25, 72, 88
-0.984579, 1, 25, 128, 88
-0.984619, 349, 209, 380, 336
-0.984629, 129, 249, 192, 312
-0.984662, 73, 217, 104, 280
-0.984666, 369, 153, 400, 216
-0.984712, 129, 249, 256, 312
-0.984715, 249, 113, 312, 176
-0.984734, 229, 25, 260, 88
-0.984849, 209, 97, 336, 160
-0.984871, 361, 121, 392, 184
-0.984916, 305, 249, 432, 312
-0.985003, 249, 161, 280, 224
-0.985014, 397, 185, 428, 248
-0.985064, 1, 1, 32, 64
-0.985088, 81, 33, 144, 96
-0.985154, 373, 193, 404, 256
-0.985159, 97, 17, 224, 80
-0.985182, 241, 1, 272, 64
-0.985191, 433, 129, 496, 375
-0.985221, 345, 65, 408, 128
-0.985226, 57, 105, 120, 168
-0.985337, 341, 1, 372, 64
-0.985363, 129, 65, 256, 128
-0.985377, 369, 81, 496, 144
-0.985383, 65, 153, 192, 216
-0.985424, 57, 1, 120, 128
-0.985433, 281, 113, 344, 176
-0.985439, 265, 225, 296, 352
-0.985579, 161, 209, 288, 272
-0.985625, 321, 201, 448, 264
-0.985652, 49, 225, 176, 288
-0.985726, 369, 249, 496, 312
-0.985744, 373, 241, 404, 304
-0.985754, 49, 1, 112, 375
-0.985764, 213, 225, 244, 352
-0.985786, 377, 233, 440, 296
-0.98584, 353, 97, 384, 224
-0.985878, 145, 137, 272, 200
-0.985974, 89, 209, 120, 336
-0.985977, 277, 1, 308, 128
-0.985992, 317, 81, 348, 208
-0.986007, 205, 257, 236, 320
-0.986019, 325, 81, 356, 144
-0.986022, 189, 177, 220, 304
-0.986066, 413, 1, 444, 128
-0.986079, 161, 57, 224, 120
-0.98608, 49, 105, 176, 168
-0.986146, 401, 113, 432, 240
-0.98615, 281, 1, 344, 375
-0.986194, 37, 1, 68, 64
-0.986236, 409, 265, 472, 328
-0.986279, 161, 1, 224, 256
-0.986283, 113, 49, 144, 176
-0.98635, 129, 89, 256, 152
-0.986426, 17, 57, 144, 120
-0.986472, 273, 201, 304, 264
-0.986479, 1, 129, 64, 375
-0.986479, 401, 81, 432, 144
-0.986513, 369, 81, 400, 208
-0.986558, 393, 137, 456, 200
-0.986588, 425, 241, 488, 368
-0.986608, 193, 217, 224, 280
-0.986645, 1, 209, 128, 272
-0.986657, 9, 129, 72, 192
-0.986698, 329, 49, 360, 176
-0.986715, 401, 57, 432, 120
-0.986736, 105, 1, 168, 375
-0.986875, 321, 209, 352, 336
-0.986895, 193, 1, 320, 64
-0.986954, 237, 241, 268, 368
-0.986997, 225, 161, 352, 224
-0.987005, 349, 105, 380, 168
-0.987068, 161, 121, 224, 184
-0.987082, 237, 241, 268, 304
-0.987111, 49, 1, 176, 64
-0.987132, 209, 65, 240, 192
-0.987138, 305, 97, 336, 224
-0.987182, 153, 209, 216, 272
-0.987189, 9, 193, 72, 256
-0.987196, 185, 33, 216, 96
-0.987241, 85, 81, 116, 208
-0.987247, 89, 161, 152, 224
-0.987283, 329, 241, 360, 304
-0.987365, 121, 9, 184, 72
-0.98738, 433, 1, 464, 128
-0.98739, 453, 169, 484, 232
-0.987416, 297, 225, 328, 352
-0.987431, 225, 257, 256, 320
-0.987448, 209, 121, 336, 184
-0.987493, 369, 49, 496, 112
-0.98751, 1, 129, 128, 192
-0.987536, 117, 209, 148, 336
-0.987544, 133, 81, 164, 208
-0.987647, 129, 65, 160, 128
-0.987655, 361, 193, 392, 256
-0.987668, 393, 49, 456, 112
-0.987713, 449, 145, 480, 272
-0.987739, 137, 81, 200, 144
-0.987847, 337, 9, 400, 40
-0.98788, 65, 241, 192, 368
-0.9879, 249, 233, 280, 296
-0.987907, 449, 273, 480, 336
-0.987961, 369, 273, 496, 336
-0.987979, 385, 185, 416, 248
-0.988011, 145, 113, 272, 176
-0.988077, 193, 281, 256, 344
-0.988095, 41, 241, 104, 368
-0.988209, 121, 33, 184, 288
-0.98823, 313, 137, 376, 200
-0.98825, 469, 209, 500, 336
-0.988298, 341, 113, 372, 240
-0.988309, 153, 33, 184, 160
-0.988323, 177, 1, 240, 375
-0.98839, 229, 17, 260, 144
-0.988395, 65, 129, 192, 192
-0.988419, 97, 225, 128, 288
-0.988421, 281, 129, 312, 256
-0.988457, 345, 33, 376, 96
-0.988472, 329, 1, 360, 64
-0.988472, 333, 33, 364, 96
-0.988522, 413, 33, 444, 96
-0.988587, 109, 217, 140, 280
-0.988618, 225, 73, 352, 136
-0.988677, 297, 25, 328, 88
-0.988768, 241, 185, 304, 216
-0.988807, 77, 177, 108, 304
-0.988814, 89, 81, 120, 144
-0.98893, 273, 177, 304, 240
-0.988935, 337, 21, 400, 52
-0.988935, 425, 1, 488, 375
-0.988942, 129, 217, 192, 280
-0.988946, 425, 209, 488, 240
-0.988958, 285, 241, 316, 304
-0.988989, 85, 233, 116, 296
-0.988996, 145, 273, 272, 336
-0.989001, 249, 129, 280, 256
-0.989046, 253, 1, 284, 64
-0.989053, 81, 105, 144, 168
-0.989054, 297, 217, 360, 248
-0.989101, 425, 153, 488, 216
-0.989112, 425, 33, 488, 288
-0.989138, 1, 185, 128, 248
-0.989191, 337, 233, 400, 264
-0.989222, 441, 177, 472, 240
-0.989285, 73, 113, 136, 240
-0.989307, 49, 1, 112, 64
-0.989316, 1, 65, 500, 128
-0.989341, 377, 25, 440, 56
-0.98935, 41, 145, 104, 272
-0.989351, 385, 65, 416, 128
-0.98936, 1, 153, 64, 216
-0.989365, 217, 177, 280, 208
-0.989383, 81, 57, 144, 88
-0.989412, 17, 161, 144, 224
-0.98944, 129, 1, 192, 375
-0.98945, 129, 33, 160, 160
-0.989463, 229, 49, 260, 112
-0.989586, 33, 49, 96, 176
-0.989587, 301, 73, 332, 136
-0.989622, 121, 161, 152, 288
-0.989642, 361, 9, 424, 40
-0.989651, 193, 185, 256, 216
-0.989692, 1, 1, 128, 64
-0.98973, 41, 17, 72, 144
-0.989772, 221, 73, 252, 136
-0.989813, 221, 1, 252, 64
-0.98983, 393, 13, 456, 44
-0.989837, 373, 105, 404, 168
-0.989839, 213, 161, 244, 224
-0.989843, 317, 249, 348, 312
-0.989869, 241, 265, 272, 328
-0.989875, 189, 185, 220, 248
-0.98988, 225, 13, 288, 44
-0.989888, 273, 249, 304, 312
-0.989892, 261, 153, 292, 216
-0.989897, 313, 9, 376, 40
-0.989927, 321, 105, 352, 168
-0.989927, 357, 169, 388, 232
-0.989953, 225, 161, 480, 224
-0.989962, 281, 53, 344, 84
-0.989966, 65, 193, 192, 256
-0.989972, 1, 233, 128, 296
-0.989977, 69, 65, 100, 128
-0.99002, 225, 185, 480, 248
-0.990023, 313, 237, 376, 268
-0.990042, 377, 37, 440, 68
-0.990093, 261, 209, 292, 272
-0.990117, 361, 121, 424, 152
-0.990164, 193, 61, 256, 92
-0.990182, 361, 249, 392, 312
-0.990196, 397, 153, 428, 216
-0.990201, 433, 197, 496, 228
-0.99021, 221, 113, 252, 240
-0.990234, 125, 185, 156, 248
-0.990242, 97, 77, 160, 108
-0.990255, 313, 197, 376, 228
-0.990268, 305, 177, 336, 240
-0.990269, 61, 81, 92, 208
-0.990271, 209, 197, 272, 228
-0.990284, 361, 25, 392, 88
-0.990286, 353, 173, 416, 204
-0.990286, 321, 221, 384, 252
-0.990292, 225, 65, 480, 128
-0.990298, 129, 89, 160, 152
-0.9903, 349, 249, 380, 312
-0.990311, 293, 129, 324, 256
-0.990317, 193, 57, 224, 120
-0.990353, 265, 229, 328, 260
-0.990374, 313, 21, 376, 52
-0.990412, 29, 113, 60, 240
-0.990429, 25, 1, 56, 128
-0.990431, 169, 181, 232, 212
-0.990437, 209, 261, 272, 292
-0.990443, 241, 25, 272, 88
-0.990453, 289, 229, 352, 260
-0.990474, 469, 137, 500, 200
-0.990476, 161, 145, 192, 272
-0.990486, 265, 97, 296, 224
-0.990513, 277, 89, 308, 152
-0.990516, 353, 105, 416, 136
-0.990519, 469, 113, 500, 240
-0.990521, 57, 17, 88, 144
-0.990523, 101, 193, 132, 320
-0.990525, 345, 217, 408, 248
-0.990526, 273, 201, 336, 232
-0.990531, 213, 25, 244, 88
-0.99056, 241, 237, 304, 268
-0.990562, 225, 89, 480, 152
-0.990566, 377, 241, 408, 368
-0.990594, 333, 105, 364, 168
-0.990607, 101, 193, 132, 256
-0.990616, 201, 13, 264, 44
-0.990618, 65, 85, 128, 116
-0.990632, 257, 217, 320, 248
-0.990655, 281, 249, 344, 280
-0.990662, 9, 1, 72, 32
-0.990675, 273, 73, 336, 104
-0.990701, 89, 229, 152, 260
-0.99071, 197, 153, 228, 216
-0.99077, 369, 49, 432, 80
-0.990815, 9, 13, 72, 44
-0.99086, 73, 73, 136, 104
-0.990875, 337, 37, 400, 68
-0.990885, 353, 253, 416, 284
-0.990908, 217, 273, 280, 304
-0.990909, 313, 109, 376, 140
-0.990936, 337, 241, 368, 368
-0.990962, 89, 89, 152, 120
-0.990967, 309, 225, 340, 352
-0.990978, 225, 41, 480, 104
-0.99098, 209, 249, 272, 280
-0.990985, 313, 37, 376, 68
-0.991, 225, 1, 288, 32
-0.991038, 217, 49, 280, 80
-0.991052, 393, 1, 456, 32
-0.991073, 201, 233, 264, 264
-0.99108, 273, 9, 336, 40
-0.991083, 425, 185, 488, 216
-0.9911, 393, 49, 456, 80
-0.991101, 329, 97, 360, 224
-0.991132, 361, 141, 424, 172
-0.991144, 193, 1, 256, 32
-0.991146, 81, 249, 208, 312
-0.991161, 225, 25, 288, 56
-0.991196, 385, 189, 448, 220
-0.991197, 361, 229, 424, 260
-0.99121, 153, 129, 216, 375
-0.99122, 65, 97, 128, 128
-0.991222, 425, 273, 488, 304
-0.991224, 193, 249, 448, 312
-0.99124, 169, 169, 232, 200
-0.991256, 89, 161, 120, 288
-0.991262, 153, 1, 216, 32
-0.991283, 361, 161, 424, 192
-0.991296, 377, 61, 440, 92
-0.991298, 105, 65, 168, 96
-0.991305, 185, 197, 248, 228
-0.991335, 141, 129, 172, 256
-0.991344, 193, 225, 448, 288
-0.991351, 337, 205, 400, 236
-0.991352, 153, 13, 216, 44
-0.991356, 249, 241, 280, 368
-0.991367, 13, 145, 44, 272
-0.991384, 409, 197, 472, 228
-0.991385, 353, 185, 416, 216
-0.991398, 329, 137, 392, 168
-0.991416, 129, 25, 384, 88
-0.991422, 193, 273, 256, 304
-0.991425, 1, 89, 500, 152
-0.991429, 217, 65, 280, 96
-0.991462, 217, 221, 280, 252
-0.99147, 249, 197, 312, 228
-0.99149, 353, 93, 416, 124
-0.991496, 177, 261, 240, 292
-0.991531, 401, 25, 464, 56
-0.991536, 273, 97, 336, 128
-0.991563, 361, 241, 424, 272
-0.991573, 89, 241, 152, 272
-0.991585, 417, 9, 480, 40
-0.991593, 177, 221, 240, 252
-0.991597, 257, 173, 320, 204
-0.991599, 97, 209, 352, 272
-0.991601, 265, 85, 328, 116
-0.991602, 1, 105, 128, 168
-0.991603, 329, 185, 392, 216
-0.991613, 193, 169, 256, 200
-0.991623, 273, 189, 336, 220
-0.991631, 305, 249, 368, 280
-0.991647, 185, 25, 248, 56
-0.991652, 129, 1, 384, 64
-0.991663, 65, 233, 128, 264
-0.991674, 81, 213, 144, 244
-0.991687, 329, 153, 392, 184
-0.991687, 433, 221, 496, 252
-0.991691, 1, 41, 500, 104
-0.991698, 181, 129, 212, 256
-0.991701, 249, 9, 312, 40
-0.991701, 169, 61, 232, 92
-0.991707, 297, 93, 360, 124
-0.99174, 193, 73, 256, 104
-0.991768, 257, 17, 500, 80
-0.991781, 49, 73, 112, 104
-0.991801, 341, 49, 372, 176
-0.991806, 217, 165, 280, 196
-0.991827, 273, 21, 336, 52
-0.991828, 193, 209, 256, 240
-0.991838, 241, 265, 304, 296
-0.991848, 433, 293, 496, 324
-0.991864, 153, 49, 216, 80
-0.99187, 173, 17, 204, 144
-0.991879, 377, 177, 440, 208
-0.991882, 57, 217, 120, 248
-0.991883, 257, 61, 320, 92
-0.9919, 1, 81, 128, 144
-0.991917, 97, 185, 352, 248
-0.991937, 257, 253, 320, 284
-0.991942, 153, 193, 216, 224
-0.991959, 49, 249, 112, 280
-0.992018, 233, 109, 296, 140
-0.992038, 193, 49, 256, 80
-0.992087, 89, 201, 152, 232
-0.992095, 289, 41, 352, 72
-0.9921, 425, 241, 488, 272
-0.992101, 129, 173, 192, 204
-0.992111, 297, 185, 360, 216
-0.992116, 321, 121, 384, 152
-0.992122, 257, 137, 320, 168
-0.992146, 105, 101, 168, 132
-0.992148, 353, 61, 416, 92
-0.99216, 345, 49, 408, 80
-0.992162, 329, 253, 392, 284
-0.992165, 369, 237, 400, 268
-0.992178, 329, 61, 392, 92
-0.992179, 205, 57, 236, 88
-0.992252, 469, 209, 500, 240
-0.992275, 349, 9, 380, 40
-0.992299, 385, 225, 448, 352
-0.992333, 253, 181, 284, 212
-0.992367, 457, 209, 488, 240
-0.992373, 109, 145, 140, 272
-0.992378, 457, 197, 488, 228
-0.992441, 389, 25, 420, 56
-0.992445, 465, 221, 496, 252
-0.99245, 1, 169, 500, 232
-0.992453, 349, 229, 380, 260
-0.992454, 389, 9, 420, 40
-0.992551, 361, 9, 392, 40
-0.992589, 265, 181, 296, 212
-0.992599, 205, 69, 236, 100
-0.992613, 401, 21, 432, 52
-0.992616, 329, 217, 360, 248
-0.992621, 193, 129, 224, 256
-0.992623, 401, 37, 432, 68
-0.992626, 229, 189, 260, 220
-0.992646, 129, 81, 384, 144
-0.992664, 297, 229, 328, 260
-0.992683, 401, 65, 432, 192
-0.992703, 245, 193, 276, 224
-0.992711, 1, 9, 256, 72
-0.992713, 105, 73, 136, 104
-0.992713, 441, 209, 472, 240
-0.992714, 381, 149, 412, 180
-0.992718, 385, 121, 416, 152
-0.992722, 213, 233, 244, 264
-0.992725, 377, 9, 408, 40
-0.992728, 365, 225, 396, 256
-0.992731, 381, 37, 412, 68
-0.992767, 77, 241, 108, 368
-0.99277, 457, 273, 488, 304
-0.992773, 361, 25, 392, 56
-0.992779, 349, 21, 380, 52
-0.99278, 241, 13, 272, 44
-0.992781, 401, 49, 432, 80
-0.992784, 77, 93, 108, 124
-0.992787, 417, 21, 448, 52
-0.99279, 93, 53, 124, 84
-0.99279, 213, 185, 244, 216
-0.992791, 377, 25, 408, 56
-0.9928, 385, 49, 416, 80
-0.992802, 401, 9, 432, 40
-0.992811, 109, 57, 140, 88
-0.992815, 13, 1, 44, 32
-0.992815, 317, 73, 348, 104
-0.992819, 241, 181, 272, 212
-0.992822, 193, 61, 224, 92
-0.992823, 333, 9, 364, 40
-0.992828, 469, 197, 500, 228
-0.992841, 365, 253, 396, 284
-0.992844, 81, 69, 112, 100
-0.992853, 445, 197, 476, 228
-0.992867, 417, 33, 448, 64
-0.992868, 353, 217, 384, 248
-0.992869, 137, 177, 168, 304
-0.99287, 293, 197, 324, 228
-0.992871, 357, 241, 388, 272
-0.992872, 225, 269, 256, 300
-0.992877, 317, 237, 348, 268
-0.992879, 117, 73, 148, 104
-0.992884, 277, 73, 308, 104
-0.992886, 305, 217, 336, 248
-0.992895, 1, 1, 32, 32
-0.992899, 413, 9, 444, 40
-0.992902, 309, 205, 340, 236
-0.992905, 201, 205, 232, 236
-0.992908, 353, 117, 384, 148
-0.992909, 449, 241, 480, 272
-0.992928, 317, 217, 348, 248
-0.99293, 385, 137, 416, 168
-0.992933, 229, 13, 260, 44
-0.992935, 253, 13, 284, 44
-0.992939, 201, 181, 232, 212
-0.99295, 425, 9, 456, 40
-0.992957, 25, 1, 56, 32
-0.992964, 333, 233, 364, 264
-0.992967, 397, 65, 428, 96
-0.992969, 333, 25, 364, 56
-0.992971, 385, 105, 416, 136
-0.992984, 429, 193, 460, 224
-0.992986, 277, 193, 308, 224
-0.992989, 205, 81, 236, 112
-0.992993, 429, 21, 460, 52
-0.992996, 373, 209, 404, 240
-0.993001, 213, 197, 244, 228
-0.993003, 377, 221, 408, 252
-0.993006, 161, 1, 192, 32
-0.993008, 341, 217, 372, 248
-0.993009, 317, 61, 348, 92
-0.993012, 469, 181, 500, 212
-0.993016, 25, 13, 56, 44
-0.993018, 237, 1, 268, 32
-0.993022, 73, 221, 104, 252
-0.993024, 193, 113, 448, 176
-0.993026, 197, 193, 228, 224
-0.993035, 321, 201, 352, 232
-0.99304, 193, 225, 224, 256
-0.993041, 217, 245, 248, 276
-0.993047, 93, 209, 124, 240
-0.99305, 221, 1, 252, 32
-0.993051, 93, 89, 124, 120
-0.993056, 129, 85, 160, 116
-0.993061, 369, 133, 400, 164
-0.993063, 321, 93, 352, 124
-0.993063, 293, 217, 324, 248
-0.993063, 265, 193, 296, 224
-0.993069, 277, 253, 308, 284
-0.993071, 365, 173, 396, 204
-0.993071, 273, 233, 304, 264
-0.993072, 217, 65, 248, 96
-0.993081, 337, 105, 368, 136
-0.993081, 453, 241, 484, 368
-0.993086, 213, 221, 244, 252
-0.993086, 457, 289, 488, 320
-0.993088, 333, 197, 364, 228
-0.993088, 265, 261, 296, 292
-0.993093, 229, 177, 260, 208
-0.993097, 201, 265, 232, 296
-0.993098, 277, 9, 308, 40
-0.9931, 461, 233, 492, 264
-0.9931, 65, 101, 96, 132
-0.993101, 285, 237, 316, 268
-0.993102, 289, 249, 320, 280
-0.993104, 401, 49, 464, 176
-0.993108, 373, 161, 404, 192
-0.993108, 313, 49, 344, 80
-0.993111, 241, 25, 272, 56
-0.993111, 161, 13, 192, 44
-0.993113, 281, 213, 312, 244
-0.993119, 13, 13, 44, 44
-0.993119, 77, 105, 108, 136
-0.993123, 297, 53, 328, 84
-0.993126, 385, 161, 416, 192
-0.99313, 385, 93, 416, 124
-0.993137, 41, 5, 72, 36
-0.99314, 349, 189, 380, 220
-0.993221, 1, 113, 500, 176
-0.993245, 321, 9, 448, 40
-0.993252, 425, 129, 456, 256
-0.993267, 413, 129, 444, 256
-0.993307, 233, 97, 264, 224
-0.993381, 65, 233, 320, 296
-0.993412, 321, 21, 448, 52
-0.993469, 109, 1, 140, 128
-0.993469, 437, 129, 468, 256
-0.993499, 1, 1, 500, 64
-0.993508, 219, 49, 234, 112
-0.993512, 193, 281, 320, 344
-0.993653, 273, 225, 400, 256
-0.993676, 469, 193, 484, 256
-0.993705, 365, 241, 396, 368
-0.993728, 273, 237, 400, 268
-0.993767, 1, 201, 500, 264
-0.993782, 193, 137, 448, 200
-0.993806, 33, 49, 288, 112
-0.993822, 145, 81, 176, 208
-0.993876, 1, 1, 32, 128
-0.993886, 41, 97, 72, 224
-0.993894, 97, 105, 352, 168
-0.993921, 459, 209, 474, 272
-0.993929, 129, 57, 384, 120
-0.993959, 337, 189, 464, 220
-0.99396, 1, 145, 256, 208
-0.993978, 357, 49, 388, 176
-0.99399, 241, 265, 368, 328
-0.994108, 209, 193, 336, 224
-0.994112, 73, 17, 104, 144
-0.994158, 33, 81, 288, 144
-0.994185, 129, 161, 384, 224
-0.994303, 65, 225, 96, 352
-0.994328, 369, 217, 384, 280
-0.994344, 369, 209, 496, 240
-0.994377, 479, 177, 494, 240
-0.994402, 65, 65, 192, 96
-0.994413, 1, 137, 500, 200
-0.994426, 33, 257, 160, 320
-0.994448, 273, 213, 400, 244
-0.994456, 465, 273, 480, 336
-0.99449, 379, 217, 394, 280
-0.994492, 343, 225, 358, 288
-0.994531, 177, 181, 304, 212
-0.994547, 257, 197, 384, 228
-0.994555, 241, 9, 368, 40
-0.99462, 313, 225, 328, 288
-0.994675, 113, 313, 240, 375
-0.994689, 289, 45, 416, 76
-0.994709, 121, 113, 152, 240
-0.994777, 1, 145, 32, 272
-0.994799, 13, 1, 44, 128
-0.994859, 193, 237, 320, 268
-0.994873, 305, 89, 432, 120
-0.994874, 145, 13, 272, 44
-0.994876, 461, 249, 476, 312
-0.994913, 307, 217, 322, 280
-0.994934, 305, 105, 432, 136
-0.994937, 97, 281, 224, 344
-0.994939, 485, 145, 500, 208
-0.994957, 173, 177, 204, 304
-0.994967, 145, 1, 272, 32
-0.994969, 213, 49, 228, 112
-0.994982, 289, 1, 320, 128
-0.995006, 97, 81, 128, 208
-0.995007, 251, 169, 266, 232
-0.995074, 393, 17, 408, 80
-0.995086, 83, 65, 98, 128
-0.995094, 337, 217, 352, 280
-0.995096, 305, 73, 432, 104
-0.995097, 1, 209, 256, 272
-0.995147, 197, 1, 228, 128
-0.995157, 485, 177, 500, 240
-0.995159, 305, 57, 432, 88
-0.995169, 205, 33, 220, 96
-0.995186, 1, 113, 256, 176
-0.995203, 331, 209, 346, 272
-0.995222, 217, 209, 232, 272
-0.995224, 197, 65, 228, 192
-0.995239, 317, 193, 332, 256
-0.995254, 209, 209, 336, 240
-0.995258, 363, 217, 378, 280
-0.99527, 209, 193, 224, 256
-0.995277, 299, 217, 314, 280
-0.99528, 353, 193, 368, 256
-0.995298, 217, 185, 232, 248
-0.995326, 1, 249, 500, 312
-0.995328, 37, 1, 52, 64
-0.995373, 289, 33, 416, 64
-0.995387, 177, 77, 304, 108
-0.995413, 49, 25, 176, 88
-0.99543, 349, 225, 364, 288
-0.995482, 385, 65, 416, 320
-0.995498, 273, 177, 400, 208
-0.995523, 329, 65, 344, 128
-0.995546, 31, 1, 46, 64
-0.995561, 357, 217, 372, 280
-0.995591, 389, 217, 404, 280
-0.995594, 401, 1, 432, 256
-0.995606, 451, 185, 466, 248
-0.99562, 305, 201, 432, 232
-0.995622, 385, 1, 400, 64
-0.995624, 257, 69, 384, 100
-0.995625, 257, 253, 384, 284
-0.995645, 399, 17, 414, 80
-0.995651, 337, 177, 464, 208
-0.995677, 339, 193, 354, 256
-0.995686, 323, 217, 338, 280
-0.995713, 1, 185, 256, 248
-0.995721, 467, 249, 482, 312
-0.995724, 273, 233, 288, 296
-0.995728, 311, 193, 326, 256
-0.995732, 153, 209, 216, 336
-0.995739, 95, 49, 110, 112
-0.995757, 363, 193, 378, 256
-0.995761, 379, 129, 394, 192
-0.995786, 287, 233, 302, 296
-0.99579, 441, 1, 456, 64
-0.995807, 293, 81, 324, 208
-0.995813, 115, 49, 130, 112
-0.995854, 353, 233, 480, 264
-0.995859, 365, 1, 380, 64
-0.995862, 453, 209, 468, 272
-0.995865, 161, 169, 288, 200
-0.995872, 323, 193, 338, 256
-0.995879, 289, 137, 416, 168
-0.995887, 471, 273, 486, 336
-0.995889, 241, 21, 368, 52
-0.995893, 269, 49, 300, 176
-0.995895, 207, 225, 222, 288
-0.995897, 129, 185, 256, 216
-0.995912, 445, 193, 460, 256
-0.995925, 237, 241, 252, 304
-0.995931, 369, 297, 496, 360
-0.995931, 297, 49, 312, 112
-0.995932, 127, 65, 142, 128
-0.995938, 1, 209, 64, 336
-0.995946, 369, 125, 496, 156
-0.99596, 467, 225, 482, 288
-0.995961, 89, 57, 104, 120
-0.995965, 305, 117, 432, 148
-0.995969, 101, 49, 116, 112
-0.99597, 97, 129, 352, 192
-0.995974, 25, 161, 56, 288
-0.995991, 225, 225, 352, 256
-0.995993, 331, 233, 346, 296
-0.995997, 257, 89, 384, 120
-0.996002, 193, 249, 320, 280
-0.996003, 9, 193, 40, 320
-0.99601, 65, 85, 192, 116
-0.996031, 209, 57, 336, 88
-0.996031, 371, 121, 386, 184
-0.996033, 33, 257, 288, 320
-0.996035, 401, 41, 416, 104
-0.996039, 65, 97, 192, 128
-0.996044, 475, 209, 490, 272
-0.99605, 411, 33, 426, 96
-0.996057, 463, 185, 478, 248
-0.99607, 207, 57, 222, 120
-0.996077, 257, 177, 272, 240
-0.996081, 109, 49, 124, 112
-0.996086, 395, 121, 410, 184
-0.996098, 77, 81, 92, 144
-0.996099, 395, 89, 410, 152
-0.996103, 337, 221, 464, 252
-0.996112, 243, 25, 258, 88
-0.99612, 1, 225, 500, 288
-0.996123, 371, 241, 386, 304
-0.996123, 293, 225, 308, 288
-0.99613, 97, 45, 224, 76
-0.996136, 369, 9, 496, 40
-0.99614, 161, 25, 288, 56
-0.996153, 429, 1, 444, 64
-0.996158, 281, 233, 296, 296
-0.996165, 407, 1, 422, 64
-0.996174, 121, 57, 136, 120
-0.996187, 353, 33, 480, 64
-0.996188, 223, 193, 238, 256
-0.996196, 281, 73, 296, 136
-0.9962, 289, 157, 416, 188
-0.996211, 433, 185, 448, 248
-0.996212, 17, 1, 32, 64
-0.996223, 225, 181, 352, 212
-0.996249, 369, 245, 496, 276
-0.996249, 257, 57, 384, 88
-0.99627, 23, 1, 38, 64
-0.996273, 417, 1, 432, 64
-0.996304, 305, 249, 432, 280
-0.996341, 391, 41, 406, 104
-0.996344, 423, 1, 438, 64
-0.996348, 329, 97, 344, 160
-0.99635, 145, 265, 272, 296
-0.996359, 395, 161, 410, 224
-0.996374, 205, 97, 236, 352
-0.99638, 237, 17, 252, 80
-0.996382, 221, 65, 252, 192
-0.996388, 355, 9, 370, 72
-0.996394, 299, 193, 314, 256
-0.996396, 397, 185, 412, 248
-0.996399, 87, 89, 102, 152
-0.9964, 5, 1, 20, 64
-0.996402, 209, 261, 336, 292
-0.99642, 347, 193, 362, 256
-0.996421, 251, 1, 266, 64
-0.996426, 335, 89, 350, 152
-0.996428, 231, 241, 246, 304
-0.99644, 43, 1, 58, 64
-0.996442, 249, 193, 264, 256
-0.996443, 305, 193, 320, 256
-0.996444, 369, 137, 496, 168
-0.99647, 423, 185, 438, 248
-0.996475, 439, 193, 454, 256
-0.996482, 217, 1, 248, 128
-0.996484, 319, 41, 334, 104
-0.996484, 379, 249, 394, 312
-0.996485, 11, 1, 26, 64
-0.996487, 65, 177, 96, 304
-0.996501, 485, 113, 500, 176
-0.996503, 395, 209, 410, 272
-0.996511, 129, 57, 256, 88
-0.996521, 345, 1, 360, 64
-0.996544, 267, 233, 282, 296
-0.996544, 373, 33, 404, 288
-0.996546, 161, 277, 288, 308
-0.996547, 369, 21, 496, 52
-0.996585, 435, 1, 450, 64
-0.996611, 303, 41, 318, 104
-0.996617, 309, 41, 324, 104
-0.99665, 395, 65, 410, 128
-0.996655, 217, 257, 232, 320
-0.996666, 363, 241, 378, 304
-0.996679, 225, 49, 240, 112
-0.996691, 113, 81, 240, 112
-0.996691, 403, 185, 418, 248
-0.996693, 161, 197, 288, 228
-0.996693, 245, 161, 260, 224
-0.996712, 189, 225, 220, 352
-0.996717, 309, 65, 324, 128
-0.996718, 353, 153, 480, 184
-0.996719, 257, 101, 384, 132
-0.996725, 485, 201, 500, 264
-0.996732, 97, 197, 224, 228
-0.996734, 459, 273, 474, 336
-0.996745, 65, 13, 192, 44
-0.996748, 387, 145, 402, 208
-0.99675, 199, 33, 214, 96
-0.99675, 387, 185, 402, 248
-0.996772, 469, 209, 484, 240
-0.996778, 337, 241, 352, 304
-0.996791, 325, 65, 356, 320
-0.996798, 369, 97, 496, 128
-0.996805, 257, 117, 384, 148
-0.996815, 17, 57, 144, 88
-0.996816, 193, 1, 320, 32
-0.996817, 1, 225, 128, 256
-0.99683, 411, 177, 426, 240
-0.996832, 457, 185, 472, 248
-0.99684, 363, 113, 378, 176
-0.996845, 379, 193, 394, 256
-0.99688, 305, 129, 336, 375
-0.996896, 81, 209, 208, 240
-0.99691, 177, 89, 304, 120
-0.99693, 207, 61, 222, 92
-0.996943, 353, 49, 480, 80
-0.996944, 177, 305, 304, 368
-0.996953, 233, 1, 264, 256
-0.996981, 353, 61, 480, 92
-0.996985, 353, 165, 480, 196
-0.996986, 209, 105, 336, 136
-0.99699, 33, 113, 160, 144
-0.997012, 397, 97, 428, 352
-0.997021, 77, 65, 108, 320
-0.997047, 17, 85, 144, 116
-0.997054, 225, 129, 256, 375
-0.997055, 177, 221, 304, 252
-0.997063, 273, 65, 304, 320
-0.997072, 193, 13, 320, 44
-0.997077, 337, 97, 368, 352
-0.997082, 393, 25, 408, 56
-0.997083, 417, 1, 448, 256
-0.997148, 369, 85, 496, 116
-0.997163, 369, 113, 496, 144
-0.997171, 113, 249, 240, 280
-0.997191, 293, 97, 324, 352
-0.997203, 113, 237, 240, 268
-0.997205, 217, 57, 232, 88
-0.997239, 241, 165, 368, 196
-0.997265, 209, 45, 336, 76
-0.997268, 461, 233, 476, 264
-0.997282, 369, 73, 496, 104
-0.997286, 209, 273, 336, 304
-0.997291, 379, 233, 394, 264
-0.997313, 367, 229, 382, 260
-0.997337, 217, 189, 232, 220
-0.99735, 469, 129, 500, 375
-0.997354, 475, 209, 490, 240
-0.997356, 145, 141, 272, 172
-0.997356, 261, 1, 292, 256
-0.997372, 65, 149, 192, 180
-0.997394, 463, 217, 478, 248
-0.997397, 1, 1, 128, 32
-0.997401, 33, 1, 64, 256
-0.997407, 245, 1, 276, 256
-0.997412, 369, 273, 496, 304
-0.997428, 145, 153, 272, 184
-0.997443, 371, 241, 386, 272
-0.997445, 129, 105, 256, 136
-0.997463, 65, 1, 192, 32
-0.997467, 357, 129, 388, 375
-0.997475, 49, 241, 176, 272
-0.997478, 393, 9, 408, 40
-0.99748, 17, 205, 144, 236
-0.997485, 361, 1, 392, 256
-0.997492, 1, 145, 128, 176
-0.997496, 129, 117, 256, 148
-0.997504, 257, 181, 272, 212
-0.997527, 113, 225, 240, 256
-0.997535, 65, 137, 192, 168
-0.997536, 485, 181, 500, 212
-0.997546, 403, 21, 418, 52
-0.997552, 485, 129, 500, 160
-0.997554, 479, 181, 494, 212
-0.99758, 113, 69, 240, 100
-0.997584, 349, 1, 380, 256
-0.997587, 369, 129, 400, 375
-0.997589, 221, 69, 236, 100
-0.997591, 81, 161, 208, 192
-0.997594, 365, 241, 380, 272
-0.997607, 337, 1, 368, 256
-0.997607, 209, 121, 336, 152
-0.997609, 65, 281, 320, 344
-0.997618, 469, 197, 484, 228
-0.997619, 81, 33, 208, 64
-0.997622, 365, 9, 380, 40
-0.997622, 217, 241, 232, 272
-0.997625, 349, 225, 364, 256
-0.997631, 81, 185, 208, 216
-0.997638, 461, 197, 476, 228
-0.997658, 329, 73, 344, 104
-0.997681, 45, 1, 76, 256
-0.997681, 245, 185, 260, 216
-0.997684, 399, 9, 414, 40
-0.997686, 193, 141, 320, 172
-0.99769, 329, 85, 344, 116
-0.99769, 81, 173, 208, 204
-0.997694, 307, 221, 322, 252
-0.997696, 425, 21, 440, 52
-0.997699, 469, 221, 484, 252
-0.99771, 401, 49, 416, 80
-0.997716, 477, 197, 492, 228
-0.997716, 17, 133, 144, 164
-0.997722, 213, 73, 228, 104
-0.997725, 129, 129, 256, 160
-0.997735, 397, 141, 412, 172
-0.997738, 81, 93, 96, 124
-0.99774, 251, 189, 266, 220
-0.99774, 369, 217, 384, 248
-0.997749, 341, 221, 356, 252
-0.997771, 383, 25, 398, 56
-0.997776, 127, 65, 142, 96
-0.997779, 409, 37, 424, 68
-0.997786, 387, 9, 402, 40
-0.997793, 89, 33, 120, 288
-0.997793, 263, 185, 278, 216
-0.997795, 399, 37, 414, 68
-0.997796, 1, 13, 128, 44
-0.9978, 241, 33, 368, 64
-0.997804, 387, 245, 402, 276
-0.997804, 253, 129, 284, 375
-0.997809, 435, 21, 450, 52
-0.997818, 467, 277, 482, 308
-0.997828, 29, 1, 44, 32
-0.997828, 65, 125, 192, 156
-0.997838, 313, 205, 328, 236
-0.997841, 1, 241, 128, 272
-0.997843, 417, 21, 432, 52
-0.997846, 201, 65, 216, 96
-0.997856, 355, 229, 370, 260
-0.997863, 17, 1, 32, 32
-0.997863, 429, 1, 460, 256
-0.997879, 1, 65, 64, 192
-0.997879, 65, 65, 96, 320
-0.997882, 403, 65, 418, 96
-0.997909, 221, 177, 236, 208
-0.997916, 121, 65, 152, 320
-0.997916, 343, 9, 358, 40
-0.997919, 457, 213, 472, 244
-0.99792, 377, 9, 392, 40
-0.997925, 361, 229, 376, 260
-0.99793, 409, 21, 424, 52
-0.997933, 207, 77, 222, 108
-0.997956, 49, 229, 176, 260
-0.997961, 409, 49, 424, 80
-0.997962, 297, 233, 312, 264
-0.997965, 283, 189, 298, 220
-0.997969, 237, 129, 268, 375
-0.997971, 17, 73, 144, 104
-0.997975, 291, 237, 306, 268
-0.997975, 23, 1, 38, 32
-0.99798, 313, 229, 328, 260
-0.997981, 331, 237, 346, 268
-0.997989, 329, 57, 344, 88
-0.997996, 375, 221, 390, 252
-0.998006, 365, 25, 380, 56
-0.998011, 281, 73, 296, 104
-0.998013, 249, 173, 264, 204
-0.99802, 371, 253, 386, 284
-0.998023, 485, 213, 500, 244
-0.998023, 429, 9, 444, 40
-0.998034, 355, 217, 370, 248
-0.998038, 277, 181, 292, 212
-0.998039, 11, 1, 26, 32
-0.998044, 345, 25, 360, 56
-0.998053, 209, 1, 240, 256
-0.998062, 371, 9, 386, 40
-0.998063, 21, 1, 52, 256
-0.998071, 239, 181, 254, 212
-0.998074, 207, 229, 222, 260
-0.998081, 129, 77, 144, 108
-0.998081, 97, 85, 112, 116
-0.998082, 353, 17, 368, 48
-0.998086, 117, 57, 132, 88
-0.99809, 421, 49, 436, 80
-0.9981, 461, 273, 476, 304
-0.998102, 411, 9, 426, 40
-0.998103, 161, 209, 288, 240
-0.998108, 359, 113, 374, 144
-0.998118, 329, 97, 344, 128
-0.998118, 393, 49, 408, 80
-0.99812, 269, 181, 284, 212
-0.998121, 439, 9, 454, 40
-0.998129, 243, 13, 258, 44
-0.998129, 105, 65, 136, 320
-0.998132, 485, 145, 500, 176
-0.998133, 387, 37, 402, 68
-0.99814, 397, 113, 412, 144
-0.998141, 451, 205, 466, 236
-0.998141, 1, 193, 128, 224
-0.998142, 387, 149, 402, 180
-0.998143, 221, 225, 236, 256
-0.998143, 335, 217, 350, 248
-0.998144, 485, 117, 500, 148
-0.99815, 417, 9, 432, 40
-0.998153, 227, 173, 242, 204
-0.998158, 145, 45, 272, 76
-0.998161, 257, 193, 272, 224
-0.998164, 397, 101, 412, 132
-0.998168, 343, 233, 358, 264
-0.99817, 405, 9, 420, 40
-0.998181, 461, 245, 476, 276
-0.998184, 227, 73, 242, 104
-0.998189, 37, 13, 52, 44
-0.998194, 233, 13, 248, 44
-0.998194, 297, 221, 312, 252
-0.998195, 193, 97, 224, 352
-0.998199, 449, 129, 480, 375
-0.998205, 161, 273, 416, 336
-0.99821, 285, 237, 300, 268
-0.998215, 223, 57, 238, 88
-0.998216, 429, 33, 444, 64
-0.998224, 413, 129, 444, 375
-0.998235, 443, 197, 458, 228
-0.99824, 107, 73, 122, 104
-0.998243, 89, 93, 104, 124
-0.998245, 233, 273, 248, 304
-0.998249, 393, 37, 408, 68
-0.998254, 325, 237, 340, 268
-0.998257, 453, 193, 468, 224
-0.998264, 337, 237, 352, 268
-0.99827, 369, 121, 384, 152
-0.998277, 429, 129, 460, 375
-0.998285, 335, 93, 350, 124
-0.998288, 241, 133, 368, 164
-0.998289, 83, 65, 98, 96
-0.998292, 113, 277, 240, 308
-0.998308, 369, 285, 496, 316
-0.99835, 129, 93, 256, 124
-0.99836, 1, 25, 128, 56
-0.998362, 313, 33, 344, 288
-0.998381, 337, 25, 400, 40
-0.998393, 353, 257, 480, 288
-0.998398, 25, 3, 56, 18
-0.998399, 205, 83, 236, 98
-0.998399, 333, 109, 364, 124
-0.998399, 41, 7, 72, 22
-0.998399, 421, 9, 452, 24
-0.998399, 277, 13, 308, 28
-0.9984, 397, 53, 428, 68
-0.9984, 469, 199, 500, 214
-0.9984, 385, 139, 416, 154
-0.998401, 237, 1, 268, 16
-0.998402, 317, 239, 348, 254
-0.998402, 377, 9, 408, 24
-0.998402, 401, 59, 432, 74
-0.998402, 417, 15, 448, 30
-0.998403, 345, 37, 376, 52
-0.998404, 357, 127, 388, 142
-0.998404, 397, 17, 428, 32
-0.998405, 77, 93, 108, 108
-0.998406, 417, 43, 448, 58
-0.998406, 377, 235, 408, 250
-0.998407, 337, 31, 400, 46
-0.998407, 213, 233, 244, 248
-0.998407, 129, 79, 160, 94
-0.998408, 277, 19, 308, 34
-0.998408, 221, 1, 252, 16
-0.998409, 221, 77, 252, 92
-0.998409, 221, 7, 252, 22
-0.998411, 457, 225, 488, 240
-0.998412, 317, 81, 348, 96
-0.998412, 409, 1, 440, 16
-0.998414, 457, 277, 488, 292
-0.998414, 357, 227, 388, 242
-0.998416, 381, 127, 412, 142
-0.998416, 197, 183, 228, 198
-0.998417, 77, 103, 108, 118
-0.998417, 317, 73, 348, 88
-0.998418, 213, 191, 244, 206
-0.998418, 241, 201, 272, 216
-0.998418, 253, 19, 284, 34
-0.998418, 265, 235, 296, 250
-0.998419, 389, 121, 420, 136
-0.998419, 381, 43, 412, 58
-0.998419, 337, 19, 400, 34
-0.99842, 385, 103, 416, 118
-0.99842, 349, 197, 380, 212
-0.99842, 333, 13, 364, 28
-0.998422, 385, 49, 416, 64
-0.998423, 229, 189, 260, 204
-0.998423, 221, 13, 252, 28
-0.998426, 197, 203, 228, 218
-0.998427, 345, 111, 376, 126
-0.998429, 373, 249, 404, 264
-0.998429, 269, 191, 300, 206
-0.99843, 109, 75, 140, 90
-0.998431, 441, 211, 472, 226
-0.998432, 389, 9, 420, 24
-0.998433, 333, 25, 364, 40
-0.998433, 385, 109, 416, 124
-0.998433, 337, 3, 400, 18
-0.998434, 257, 179, 288, 194
-0.998436, 285, 231, 316, 246
-0.998436, 317, 201, 348, 216
-0.998437, 257, 265, 384, 296
-0.998437, 469, 209, 500, 224
-0.998439, 385, 145, 416, 160
-0.998439, 377, 31, 440, 46
-0.99844, 457, 283, 488, 298
-0.99844, 385, 115, 416, 130
-0.99844, 453, 241, 484, 256
-0.99844, 381, 19, 412, 34
-0.998442, 361, 9, 392, 24
-0.998443, 333, 1, 364, 16
-0.998446, 329, 225, 360, 240
-0.998446, 405, 43, 436, 58
-0.998447, 469, 231, 500, 246
-0.998448, 253, 193, 284, 208
-0.998448, 333, 19, 364, 34
-0.998449, 93, 53, 124, 68
-0.998449, 413, 31, 444, 46
-0.998449, 289, 199, 320, 214
-0.99845, 221, 33, 252, 288
-0.99845, 13, 129, 44, 375
-0.998451, 337, 233, 400, 248
-0.998452, 385, 133, 416, 148
-0.998452, 413, 25, 444, 40
-0.998453, 393, 1, 456, 16
-0.998455, 337, 9, 400, 24
-0.998456, 213, 197, 244, 212
-0.998456, 393, 43, 424, 58
-0.998456, 237, 7, 268, 22
-0.998458, 213, 241, 244, 256
-0.998458, 381, 155, 412, 170
-0.998459, 377, 37, 440, 52
-0.998459, 369, 255, 400, 270
-0.99846, 277, 75, 308, 90
-0.998461, 301, 231, 332, 246
-0.998461, 193, 157, 320, 188
-0.998466, 333, 31, 364, 46
-0.998466, 197, 65, 228, 80
-0.998466, 453, 201, 484, 216
-0.998469, 401, 25, 432, 40
-0.99847, 197, 73, 228, 88
-0.99847, 373, 31, 404, 46
-0.998472, 313, 231, 376, 246
-0.998474, 377, 1, 408, 16
-0.998475, 457, 289, 488, 304
-0.998476, 453, 215, 484, 230
-0.998478, 237, 13, 268, 28
-0.998481, 409, 37, 440, 52
-0.998481, 393, 25, 456, 40
-0.998483, 361, 25, 424, 40
-0.998483, 217, 179, 280, 194
-0.998484, 273, 231, 336, 246
-0.99849, 361, 19, 392, 34
-0.998492, 221, 277, 252, 292
-0.998493, 457, 191, 488, 206
-0.998493, 265, 185, 296, 200
-0.998493, 345, 229, 376, 244
-0.998494, 349, 31, 380, 46
-0.998494, 425, 1, 456, 16
-0.998497, 361, 1, 424, 16
-0.9985, 237, 19, 268, 34
-0.9985, 81, 59, 144, 74
-0.9985, 305, 225, 368, 240
-0.998501, 225, 19, 288, 34
-0.998504, 233, 13, 296, 28
-0.998504, 297, 225, 328, 240
-0.998505, 457, 207, 488, 222
-0.998507, 381, 25, 412, 40
-0.998508, 313, 237, 376, 252
-0.998508, 313, 25, 376, 40
-0.998508, 233, 185, 296, 200
-0.998509, 253, 187, 284, 202
-0.998511, 361, 31, 392, 46
-0.998512, 241, 191, 304, 206
-0.998513, 289, 57, 352, 72
-0.998515, 209, 77, 240, 92
-0.998516, 241, 193, 272, 208
-0.99852, 185, 61, 248, 76
-0.998521, 389, 37, 420, 52
-0.998522, 209, 267, 272, 282
-0.998523, 305, 261, 432, 292
-0.998523, 245, 181, 276, 196
-0.998525, 365, 1, 396, 16
-0.998528, 337, 37, 400, 52
-0.998528, 229, 195, 260, 210
-0.998529, 209, 197, 272, 212
-0.998529, 401, 31, 432, 46
-0.99853, 425, 213, 488, 228
-0.998532, 209, 185, 272, 200
-0.998534, 469, 225, 500, 240
-0.998536, 369, 241, 400, 256
-0.998538, 361, 19, 424, 34
-0.998538, 369, 25, 400, 40
-0.998538, 349, 3, 380, 18
-0.99854, 397, 1, 428, 16
-0.998541, 389, 31, 420, 46
-0.998548, 393, 17, 456, 32
-0.998549, 349, 25, 380, 40
-0.99855, 337, 227, 400, 242
-0.998551, 225, 3, 288, 18
-0.998552, 361, 121, 424, 136
-0.998552, 349, 9, 380, 24
-0.998552, 209, 61, 240, 76
-0.998554, 265, 199, 328, 214
-0.998554, 297, 219, 360, 234
-0.998554, 313, 15, 376, 30
-0.998555, 349, 15, 380, 30
-0.998556, 313, 31, 376, 46
-0.998556, 345, 243, 408, 258
-0.998556, 313, 3, 376, 18
-0.998557, 81, 65, 144, 80
-0.99856, 433, 81, 496, 208
-0.998561, 313, 9, 376, 24
-0.998561, 313, 199, 376, 214
-0.998562, 377, 43, 440, 58
-0.998563, 257, 237, 320, 252
-0.998563, 65, 93, 128, 108
-0.998564, 353, 115, 416, 130
-0.998566, 361, 9, 424, 24
-0.998566, 193, 191, 256, 206
-0.998569, 377, 65, 440, 80
-0.99857, 153, 29, 216, 44
-0.99857, 209, 275, 272, 290
-0.998571, 465, 215, 496, 230
-0.998572, 353, 255, 416, 270
-0.998572, 169, 183, 232, 198
-0.998572, 345, 235, 376, 250
-0.998574, 73, 75, 136, 90
-0.998574, 393, 9, 456, 24
-0.998575, 233, 25, 296, 40
-0.998576, 201, 13, 264, 28
-0.998576, 337, 219, 400, 234
-0.998578, 281, 63, 344, 78
-0.998579, 433, 207, 496, 222
-0.99858, 353, 177, 416, 192
-0.99858, 281, 253, 344, 268
-0.998581, 425, 191, 488, 206
-0.998583, 353, 107, 416, 122
-0.998584, 169, 189, 232, 204
-0.998585, 65, 81, 128, 96
-0.998586, 273, 205, 336, 220
-0.998586, 425, 201, 488, 216
-0.998586, 193, 23, 256, 38
-0.998589, 209, 233, 272, 248
-0.998591, 193, 203, 256, 218
-0.998591, 97, 77, 160, 92
-0.998592, 185, 71, 248, 86
-0.998592, 201, 7, 264, 22
-0.998593, 209, 241, 272, 256
-0.998594, 257, 185, 320, 200
-0.998596, 65, 87, 128, 102
-0.998598, 353, 171, 416, 186
-0.998598, 273, 19, 336, 34
-0.998598, 305, 305, 432, 368
-0.998598, 209, 261, 272, 276
-0.998598, 361, 133, 424, 148
-0.998599, 233, 197, 296, 212
-0.998599, 201, 29, 264, 44
-0.9986, 365, 233, 396, 248
-0.998601, 65, 99, 128, 114
-0.998601, 257, 225, 320, 240
-0.998602, 209, 71, 240, 86
-0.998603, 361, 139, 424, 154
-0.998604, 281, 237, 344, 252
-0.998604, 273, 211, 336, 226
-0.998607, 425, 291, 488, 306
-0.998608, 273, 85, 336, 100
-0.998609, 401, 31, 464, 46
-0.998609, 5, 1, 36, 256
-0.998609, 265, 75, 328, 90
-0.998609, 17, 13, 80, 28
-0.99861, 65, 223, 128, 238
-0.99861, 393, 49, 456, 64
-0.998611, 313, 115, 376, 130
-0.998611, 241, 179, 304, 194
-0.998611, 337, 197, 400, 212
-0.998612, 425, 283, 488, 298
-0.998612, 209, 59, 272, 74
-0.998614, 289, 51, 352, 66
-0.998615, 313, 37, 376, 52
-0.998615, 89, 233, 152, 248
-0.998616, 273, 13, 336, 28
-0.998616, 177, 197, 240, 212
-0.998616, 105, 91, 168, 106
-0.998617, 193, 1, 256, 16
-0.998619, 153, 7, 216, 22
-0.998619, 353, 53, 416, 68
-0.99862, 425, 277, 488, 292
-0.99862, 89, 243, 152, 258
-0.998622, 33, 7, 96, 22
-0.998622, 33, 97, 64, 352
-0.998623, 153, 13, 216, 28
-0.998623, 9, 5, 72, 20
-0.998623, 257, 25, 320, 40
-0.998623, 217, 191, 280, 206
-0.998624, 249, 19, 312, 34
-0.998624, 377, 71, 440, 86
-0.998624, 353, 189, 416, 204
-0.998624, 369, 59, 432, 74
-0.998626, 337, 213, 400, 228
-0.998626, 353, 177, 368, 304
-0.998627, 361, 127, 424, 142
-0.998627, 185, 233, 248, 248
-0.998627, 153, 23, 216, 38
-0.998627, 89, 85, 152, 100
-0.998628, 361, 231, 424, 246
-0.998628, 433, 225, 496, 240
-0.998629, 433, 133, 496, 148
-0.998638, 241, 145, 368, 176
-0.998642, 133, 65, 164, 320
-0.998645, 1, 157, 128, 188
-0.998661, 33, 177, 160, 208
-0.998667, 485, 145, 500, 272
-0.998703, 285, 1, 316, 256
-0.998715, 467, 193, 482, 320
-0.998732, 197, 1, 228, 256
-0.998763, 477, 161, 492, 288
-0.998773, 393, 1, 408, 128
-0.998805, 401, 1, 416, 128
-0.998833, 53, 97, 84, 352
-0.99885, 149, 65, 180, 320
-0.998857, 277, 177, 292, 304
-0.998864, 321, 273, 448, 336
-0.998867, 327, 33, 342, 160
-0.998877, 387, 1, 402, 128
-0.998883, 457, 193, 472, 320
-0.998893, 17, 97, 144, 128
-0.998934, 245, 177, 260, 304
-0.998936, 397, 129, 412, 256
-0.998945, 363, 161, 378, 288
-0.99896, 285, 177, 300, 304
-0.998962, 393, 49, 408, 176
-0.998967, 297, 1, 328, 256
-0.998972, 321, 33, 336, 160
-0.998984, 269, 177, 284, 304
-0.998984, 1, 129, 32, 375
-0.998986, 215, 193, 230, 320
-0.998991, 229, 225, 244, 352
-0.999, 211, 129, 226, 256
-0.999001, 85, 49, 100, 176
-0.999011, 97, 33, 112, 160
-0.999012, 395, 177, 410, 304
-0.999017, 221, 193, 236, 320
-0.999027, 347, 177, 362, 304
-0.999033, 329, 81, 344, 208
-0.99904, 297, 177, 312, 304
-0.99905, 321, 161, 336, 288
-0.999069, 451, 193, 466, 320
-0.999071, 235, 193, 250, 320
-0.999073, 381, 129, 396, 256
-0.999078, 469, 33, 500, 288
-0.999082, 341, 177, 356, 304
-0.999087, 65, 305, 192, 368
-0.99909, 91, 33, 106, 160
-0.999093, 207, 193, 222, 320
-0.99911, 389, 193, 404, 320
-0.999113, 329, 161, 344, 288
-0.999122, 401, 177, 416, 304
-0.999125, 263, 177, 278, 304
-0.999136, 485, 97, 500, 224
-0.999142, 227, 177, 242, 304
-0.999148, 217, 49, 232, 176
-0.999148, 253, 193, 268, 320
-0.99915, 441, 177, 456, 304
-0.999153, 369, 177, 384, 304
-0.999161, 387, 129, 402, 256
-0.999164, 363, 97, 378, 224
-0.99917, 79, 49, 94, 176
-0.999171, 335, 161, 350, 288
-0.999171, 363, 209, 378, 336
-0.999173, 403, 113, 418, 240
-0.999176, 435, 177, 450, 304
-0.999177, 425, 177, 440, 304
-0.999178, 243, 225, 258, 352
-0.999184, 293, 49, 308, 176
-0.999185, 103, 33, 118, 160
-0.999189, 299, 33, 314, 160
-0.999192, 381, 1, 396, 128
-0.999194, 411, 1, 426, 128
-0.999198, 65, 305, 320, 368
-0.999204, 309, 177, 324, 304
-0.999207, 377, 209, 392, 336
-0.999207, 291, 177, 306, 304
-0.999208, 323, 81, 338, 208
-0.999209, 241, 17, 256, 144
-0.99921, 409, 161, 424, 288
-0.99921, 415, 161, 430, 288
-0.999228, 359, 1, 374, 128
-0.999232, 373, 113, 388, 240
-0.999237, 383, 209, 398, 336
-0.999243, 471, 145, 486, 272
-0.999245, 335, 49, 350, 176
-0.999246, 205, 145, 220, 272
-0.999247, 313, 33, 328, 160
-0.999248, 331, 209, 346, 336
-0.999249, 317, 81, 332, 208
-0.999256, 271, 1, 286, 128
-0.999257, 345, 1, 360, 128
-0.999268, 375, 161, 390, 288
-0.999268, 185, 1, 216, 256
-0.999269, 303, 177, 318, 304
-0.999281, 479, 113, 494, 240
-0.999287, 237, 241, 252, 368
-0.999294, 419, 1, 434, 128
-0.999299, 315, 177, 330, 304
-0.999304, 353, 241, 368, 368
-0.999305, 333, 1, 348, 128
-0.999307, 437, 1, 452, 128
-0.999309, 351, 17, 366, 144
-0.999309, 247, 1, 262, 128
-0.999312, 127, 49, 142, 176
-0.999319, 109, 33, 124, 160
-0.999319, 425, 1, 440, 128
-0.999321, 325, 209, 340, 336
-0.999323, 299, 225, 314, 352
-0.999337, 91, 81, 106, 208
-0.99934, 221, 113, 236, 240
-0.99935, 285, 225, 300, 352
-0.999351, 355, 129, 370, 256
-0.999358, 347, 225, 362, 352
-0.999361, 457, 145, 472, 272
-0.999362, 365, 1, 380, 128
-0.999362, 465, 145, 480, 272
-0.999363, 339, 1, 354, 128
-0.999366, 305, 225, 320, 352
-0.999369, 277, 1, 292, 128
-0.999374, 465, 241, 480, 368
-0.999375, 277, 225, 292, 352
-0.999376, 271, 225, 286, 352
-0.999377, 287, 49, 302, 176
-0.999377, 263, 17, 278, 144
-0.999379, 305, 33, 320, 160
-0.999381, 215, 241, 230, 368
-0.999382, 199, 161, 214, 288
-0.999383, 291, 225, 306, 352
-0.999386, 375, 1, 390, 128
-0.999388, 135, 161, 150, 288
-0.999389, 381, 81, 396, 208
-0.999389, 253, 1, 268, 128
-0.999389, 73, 81, 88, 208
-0.99939, 161, 129, 192, 375
-0.9994, 431, 1, 446, 128
-0.999405, 47, 17, 62, 144
-0.999405, 133, 65, 148, 192
-0.999407, 309, 97, 324, 224
-0.999409, 275, 129, 290, 256
-0.999411, 223, 49, 238, 176
-0.999412, 91, 177, 106, 304
-0.999413, 443, 1, 458, 128
-0.999414, 145, 81, 160, 208
-0.999414, 129, 209, 144, 336
-0.999426, 125, 161, 140, 288
-0.999429, 39, 1, 54, 128
-0.999431, 299, 129, 314, 256
-0.999453, 89, 129, 120, 375
-0.999563, 49, 281, 176, 344
-0.999564, 177, 129, 208, 375
-0.999585, 411, 37, 426, 52
-0.999585, 419, 23, 434, 38
-0.999585, 213, 59, 228, 74
-0.999585, 455, 241, 470, 256
-0.999586, 329, 91, 344, 106
-0.999586, 241, 187, 256, 202
-0.999586, 485, 137, 500, 152
-0.999586, 409, 65, 424, 80
-0.999587, 293, 197, 308, 212
-0.999588, 247, 187, 262, 202
-0.999588, 475, 205, 490, 220
-0.999589, 233, 7, 248, 22
-0.999589, 379, 1, 394, 16
-0.99959, 383, 39, 398, 54
-0.99959, 319, 201, 334, 216
-0.99959, 467, 291, 482, 306
-0.999591, 301, 199, 316, 214
-0.999591, 411, 1, 426, 16
-0.999591, 231, 189, 246, 204
-0.999591, 457, 211, 472, 226
-0.999592, 409, 31, 424, 46
-0.999592, 461, 245, 476, 260
-0.999593, 259, 189, 274, 204
-0.999593, 243, 23, 258, 38
-0.999593, 75, 223, 90, 238
-0.999594, 477, 189, 492, 204
-0.999594, 209, 181, 224, 196
-0.999594, 343, 13, 358, 28
-0.999594, 283, 191, 298, 206
-0.999594, 401, 65, 416, 80
-0.999595, 399, 47, 414, 62
-0.999595, 415, 31, 430, 46
-0.999595, 213, 81, 228, 96
-0.999596, 423, 1, 438, 16
-0.999596, 485, 223, 500, 238
-0.999596, 405, 1, 420, 16
-0.999596, 397, 125, 412, 140
-0.999596, 129, 69, 144, 84
-0.999597, 219, 177, 234, 192
-0.999597, 257, 177, 272, 192
-0.999598, 331, 75, 346, 90
-0.999598, 359, 237, 374, 252
-0.999598, 385, 19, 400, 34
-0.999598, 329, 65, 344, 80
-0.999599, 371, 243, 386, 258
-0.999599, 347, 235, 362, 250
-0.9996, 417, 1, 432, 16
-0.9996, 353, 235, 368, 250
-0.9996, 393, 15, 408, 30
-0.999601, 411, 59, 426, 74
-0.999601, 221, 203, 236, 218
-0.999603, 401, 37, 416, 52
-0.999603, 253, 199, 268, 214
-0.999605, 233, 13, 248, 28
-0.999605, 329, 85, 344, 100
-0.999607, 365, 9, 380, 24
-0.999607, 421, 37, 436, 52
-0.999611, 379, 231, 394, 246
-0.999612, 329, 97, 344, 112
-0.999612, 347, 229, 362, 244
-0.999613, 401, 53, 416, 68
-0.999615, 401, 59, 416, 74
-0.999615, 345, 31, 360, 46
-0.999616, 467, 209, 482, 224
-0.999617, 217, 247, 232, 262
-0.999618, 393, 37, 408, 52
-0.999618, 425, 31, 440, 46
-0.999619, 343, 25, 358, 40
-0.99962, 427, 23, 442, 38
-0.99962, 459, 217, 474, 232
-0.99962, 395, 147, 410, 162
-0.99962, 251, 177, 266, 192
-0.999621, 437, 1, 452, 16
-0.999623, 201, 71, 216, 86
-0.999623, 361, 115, 376, 130
-0.999623, 385, 31, 400, 46
-0.999624, 343, 19, 358, 34
-0.999624, 397, 133, 412, 148
-0.999625, 263, 181, 278, 196
-0.999625, 461, 289, 476, 304
-0.999625, 397, 113, 412, 128
-0.999627, 343, 1, 358, 16
-0.999627, 479, 221, 494, 236
-0.999627, 393, 1, 408, 16
-0.999629, 383, 25, 398, 40
-0.999629, 217, 195, 232, 210
-0.999631, 345, 223, 360, 238
-0.999631, 281, 75, 296, 90
-0.999633, 403, 25, 418, 40
-0.999634, 485, 183, 500, 198
-0.999635, 383, 247, 398, 262
-0.999635, 207, 77, 222, 92
-0.999636, 1, 273, 500, 336
-0.999639, 385, 1, 400, 16
-0.999639, 227, 177, 242, 192
-0.99964, 253, 193, 268, 208
-0.999641, 219, 67, 234, 82
-0.999642, 365, 31, 380, 46
-0.999646, 365, 19, 380, 34
-0.999646, 219, 183, 234, 198
-0.99965, 461, 233, 476, 248
-0.999653, 161, 33, 192, 288
-0.999654, 463, 223, 478, 238
-0.999655, 473, 213, 488, 228
-0.999657, 371, 255, 386, 270
-0.999658, 359, 231, 374, 246
-0.999661, 393, 21, 408, 36
-0.999662, 403, 31, 418, 46
-0.999664, 239, 197, 254, 212
-0.999664, 367, 1, 382, 16
-0.999666, 367, 25, 382, 40
-0.999667, 277, 185, 292, 200
-0.999672, 305, 225, 320, 240
-0.999674, 399, 1, 414, 16
-0.99968, 393, 27, 408, 42
-0.999683, 257, 183, 272, 198
-0.999693, 479, 183, 494, 198
-0.999694, 79, 103, 94, 118
-0.999697, 221, 73, 236, 88
-0.999698, 211, 65, 226, 80
-0.99971, 485, 131, 500, 146
-0.999711, 379, 237, 394, 252
-0.999717, 461, 239, 476, 254
-0.999721, 203, 65, 218, 80
-0.999725, 219, 57, 234, 72
-0.999733, 469, 225, 484, 240
-0.999741, 353, 229, 368, 244
-0.999755, 213, 75, 228, 90
-0.999757, 247, 193, 262, 208
-0.999767, 207, 71, 222, 86
-0.999773, 467, 215, 482, 230
-0.999774, 225, 313, 352, 375
-0.999779, 369, 233, 384, 248
-0.999798, 457, 33, 488, 288
-0.999988, 173, 33, 204, 288
-0.999996, 257, 305, 500, 368
-1.00006, 441, 33, 472, 288
-1.00073, 161, 313, 416, 375
-1.00129, 257, 281, 500, 344
-1.00144, 1, 281, 128, 344
-1.00147, 409, 97, 472, 224
-1.00184, 17, 305, 144, 368
-1.00193, 257, 289, 384, 352
-1.00222, 1, 297, 500, 360
