1967
-0.449173, 1, 33, 500, 288
-0.519821, 1, 1, 500, 375
-0.568538, 1, 129, 500, 375
-0.582606, 257, 1, 500, 375
-0.585246, 161, 1, 416, 375
-0.596695, 33, 1, 288, 375
-0.686048, 225, 33, 480, 288
-0.699707, 65, 33, 320, 288
-0.785729, 161, 129, 416, 375
-0.846083, 257, 129, 500, 375
-0.847283, 65, 129, 320, 375
-0.879143, 305, 1, 432, 375
-0.879419, 337, 33, 464, 288
-0.880466, 1, 81, 500, 208
-0.88117, 257, 33, 384, 288
-0.887171, 209, 1, 336, 375
-0.88942, 257, 1, 384, 375
-0.892063, 353, 1, 480, 375
-0.89304, 177, 33, 304, 288
-0.897707, 97, 33, 224, 288
-0.89997, 1, 33, 128, 288
-0.903053, 145, 1, 272, 375
-0.907249, 65, 1, 192, 375
-0.909485, 49, 33, 176, 288
-0.919131, 225, 81, 480, 208
-0.921783, 209, 129, 336, 375
-0.922096, 273, 129, 400, 375
-0.922355, 17, 1, 144, 375
-0.924624, 161, 129, 288, 375
-0.925971, 33, 65, 288, 192
-0.92625, 1, 17, 500, 144
-0.930433, 321, 129, 448, 375
-0.931075, 1, 161, 500, 288
-0.933553, 129, 65, 384, 192
-0.939691, 129, 113, 384, 240
-0.942335, 369, 129, 496, 375
-0.942803, 281, 65, 344, 192
-0.943358, 17, 129, 144, 375
-0.943425, 257, 113, 384, 240
-0.943669, 241, 65, 368, 192
-0.943755, 225, 33, 480, 160
-0.944077, 353, 81, 480, 208
-0.94416, 57, 65, 120, 192
-0.944225, 193, 81, 320, 208
-0.945091, 201, 81, 264, 208
-0.94611, 233, 97, 296, 224
-0.946139, 33, 17, 288, 144
-0.947711, 49, 65, 176, 192
-0.947998, 113, 129, 240, 375
-0.950202, 257, 65, 320, 192
-0.950253, 305, 81, 432, 208
-0.950354, 313, 81, 376, 208
-0.950488, 33, 113, 288, 240
-0.950645, 65, 81, 128, 144
-0.951168, 145, 97, 272, 224
-0.951735, 193, 161, 448, 288
-0.95179, 41, 89, 104, 152
-0.951936, 97, 89, 160, 152
-0.951996, 417, 81, 480, 208
-0.952892, 177, 81, 240, 208
-0.953519, 353, 81, 416, 208
-0.954682, 97, 65, 224, 192
-0.955501, 193, 33, 320, 160
-0.95637, 81, 65, 144, 192
-0.957218, 65, 129, 192, 375
-0.957331, 129, 89, 192, 152
-0.957497, 1, 65, 128, 192
-0.957555, 377, 81, 440, 208
-0.958363, 289, 121, 352, 184
-0.958651, 281, 113, 344, 240
-0.9593, 257, 113, 320, 240
-0.959742, 297, 97, 360, 160
-0.960273, 17, 89, 80, 152
-0.960459, 273, 97, 336, 160
-0.960616, 257, 121, 320, 184
-0.960912, 209, 161, 272, 288
-0.960966, 153, 89, 216, 152
-0.961107, 97, 17, 224, 144
-0.961634, 233, 169, 296, 232
-0.962032, 337, 33, 464, 160
-0.962363, 329, 97, 392, 160
-0.962713, 105, 81, 168, 208
-0.963206, 97, 161, 352, 288
-0.963662, 33, 81, 96, 208
-0.963957, 129, 17, 384, 144
-0.964179, 241, 97, 304, 160
-0.964212, 265, 153, 328, 216
-0.964644, 65, 17, 128, 144
-0.964734, 209, 161, 336, 288
-0.965015, 201, 33, 264, 160
-0.965093, 177, 89, 240, 152
-0.965232, 209, 89, 272, 152
-0.966147, 281, 73, 344, 136
-0.966261, 233, 161, 296, 288
-0.966268, 297, 17, 360, 144
-0.966277, 425, 33, 488, 160
-0.966753, 209, 169, 272, 232
-0.966988, 337, 129, 464, 256
-0.967091, 49, 1, 176, 128
-0.967571, 1, 209, 500, 336
-0.968127, 225, 33, 288, 160
-0.968436, 145, 33, 272, 160
-0.968663, 289, 33, 416, 160
-0.968695, 49, 81, 176, 144
-0.968975, 257, 161, 384, 288
-0.969204, 289, 145, 352, 208
-0.969216, 161, 33, 224, 160
-0.969354, 153, 81, 216, 208
-0.969524, 401, 33, 464, 160
-0.969855, 313, 129, 376, 256
-0.96992, 425, 97, 488, 160
-0.969974, 225, 121, 288, 184
-0.970445, 353, 97, 416, 160
-0.970508, 233, 145, 296, 208
-0.970566, 129, 113, 192, 176
-0.970756, 241, 153, 368, 216
-0.971042, 1, 89, 128, 152
-0.971075, 353, 129, 416, 256
-0.971178, 353, 33, 416, 160
-0.971199, 321, 17, 384, 144
-0.971255, 105, 113, 168, 176
-0.971349, 241, 17, 368, 144
-0.971544, 129, 65, 192, 192
-0.971628, 257, 57, 320, 120
-0.972141, 257, 161, 320, 288
-0.972186, 1, 17, 128, 144
-0.972457, 105, 81, 136, 144
-0.972526, 65, 113, 128, 176
-0.972913, 145, 89, 272, 152
-0.972968, 97, 89, 224, 152
-0.973446, 133, 89, 164, 152
-0.973598, 313, 153, 376, 216
-0.973948, 185, 161, 248, 224
-0.974165, 61, 65, 92, 192
-0.974249, 97, 65, 160, 128
-0.974316, 89, 1, 152, 128
-0.974521, 377, 33, 440, 160
-0.974565, 185, 129, 248, 256
-0.974593, 45, 81, 76, 144
-0.974916, 233, 81, 264, 208
-0.974963, 17, 65, 80, 128
-0.97498, 201, 121, 264, 184
-0.974985, 257, 17, 320, 144
-0.97513, 213, 81, 244, 208
-0.975313, 161, 161, 288, 288
-0.975416, 377, 89, 440, 152
-0.975497, 17, 113, 80, 176
-0.975675, 69, 81, 100, 144
-0.97575, 313, 121, 376, 184
-0.975778, 85, 81, 116, 144
-0.975786, 209, 97, 336, 160
-0.975923, 17, 33, 80, 160
-0.97635, 97, 113, 224, 240
-0.97667, 305, 73, 368, 136
-0.976703, 157, 89, 188, 152
-0.976797, 193, 121, 320, 184
-0.976875, 257, 97, 384, 160
-0.976908, 137, 65, 200, 128
-0.976969, 145, 89, 176, 152
-0.977029, 401, 89, 464, 152
-0.97712, 121, 89, 152, 152
-0.977154, 177, 113, 240, 176
-0.977166, 257, 33, 320, 288
-0.977192, 273, 121, 304, 184
-0.977228, 41, 113, 104, 176
-0.977378, 353, 33, 416, 288
-0.977403, 57, 81, 88, 144
-0.977445, 81, 65, 112, 192
-0.977447, 25, 89, 56, 152
-0.977473, 57, 57, 120, 120
-0.977704, 173, 89, 204, 152
-0.977785, 201, 81, 232, 208
-0.977788, 1, 161, 256, 288
-0.977845, 225, 169, 256, 232
-0.977885, 5, 89, 36, 152
-0.977898, 277, 153, 308, 216
-0.977938, 297, 121, 328, 184
-0.977969, 41, 17, 104, 144
-0.977994, 309, 97, 340, 160
-0.978035, 289, 185, 352, 248
-0.978104, 289, 97, 320, 160
-0.978116, 281, 65, 312, 192
-0.978152, 457, 65, 488, 192
-0.978303, 345, 81, 376, 208
-0.978428, 233, 33, 296, 288
-0.978568, 285, 121, 316, 184
-0.97857, 153, 113, 216, 176
-0.97885, 273, 97, 304, 160
-0.978881, 353, 89, 480, 152
-0.97891, 305, 97, 432, 160
-0.979002, 201, 33, 264, 288
-0.979084, 425, 121, 488, 184
-0.979152, 237, 161, 268, 224
-0.979163, 337, 121, 400, 184
-0.979502, 97, 65, 128, 192
-0.979524, 293, 65, 324, 192
-0.979549, 245, 97, 276, 224
-0.97955, 49, 113, 176, 240
-0.979559, 469, 65, 500, 192
-0.979645, 325, 97, 356, 160
-0.979764, 261, 97, 292, 160
-0.979822, 409, 33, 472, 288
-0.979894, 337, 97, 368, 160
-0.9799, 273, 121, 400, 184
-0.97991, 49, 105, 176, 168
-0.979939, 357, 81, 388, 208
-0.979944, 193, 169, 320, 232
-0.97998, 281, 33, 344, 288
-0.980018, 281, 49, 344, 112
-0.980091, 321, 185, 384, 248
-0.980095, 349, 97, 380, 160
-0.980159, 313, 33, 376, 288
-0.98025, 289, 161, 352, 288
-0.980267, 265, 65, 296, 192
-0.9803, 433, 33, 496, 288
-0.980496, 49, 33, 112, 288
-0.980753, 425, 81, 456, 208
-0.980824, 185, 89, 216, 152
-0.980872, 329, 73, 392, 136
-0.98091, 377, 33, 440, 288
-0.981011, 309, 121, 340, 184
-0.981131, 445, 65, 476, 192
-0.98121, 233, 89, 264, 152
-0.981241, 265, 193, 328, 256
-0.981251, 385, 81, 416, 208
-0.981259, 285, 113, 316, 240
-0.981283, 177, 33, 240, 288
-0.981482, 65, 113, 128, 240
-0.981653, 249, 161, 280, 224
-0.98168, 333, 81, 364, 208
-0.981729, 121, 17, 184, 144
-0.981766, 17, 33, 80, 288
-0.981887, 241, 193, 304, 256
-0.981935, 405, 81, 436, 208
-0.981953, 417, 129, 480, 256
-0.982001, 469, 97, 500, 160
-0.982018, 97, 113, 224, 176
-0.98217, 309, 65, 340, 192
-0.982334, 49, 81, 80, 208
-0.982339, 261, 121, 292, 184
-0.982356, 457, 97, 488, 160
-0.982427, 353, 73, 416, 136
-0.982456, 369, 81, 400, 208
-0.982565, 305, 113, 336, 240
-0.982638, 345, 161, 376, 224
-0.982675, 145, 113, 272, 176
-0.982784, 361, 89, 392, 152
-0.982794, 97, 161, 224, 288
-0.982942, 97, 65, 224, 128
-0.983001, 261, 113, 292, 240
-0.983083, 197, 89, 228, 152
-0.983145, 49, 105, 80, 168
-0.983193, 213, 89, 244, 152
-0.983214, 233, 73, 296, 136
-0.98327, 321, 121, 352, 184
-0.983283, 109, 65, 140, 192
-0.983389, 145, 161, 272, 224
-0.983445, 321, 97, 352, 224
-0.983497, 313, 1, 376, 375
-0.983519, 1, 65, 128, 128
-0.983567, 189, 81, 220, 208
-0.983589, 1, 113, 128, 176
-0.983665, 225, 33, 256, 160
-0.983748, 321, 17, 384, 80
-0.983842, 321, 121, 448, 184
-0.983862, 297, 25, 360, 88
-0.983916, 373, 97, 404, 160
-0.983972, 81, 33, 144, 288
-0.984009, 101, 113, 132, 176
-0.984029, 321, 177, 384, 304
-0.984058, 305, 177, 432, 304
-0.984145, 273, 185, 400, 248
-0.9842, 237, 161, 268, 288
-0.984262, 153, 33, 216, 288
-0.984302, 9, 81, 72, 208
-0.984304, 201, 33, 232, 160
-0.984306, 137, 113, 168, 176
-0.984311, 89, 105, 120, 168
-0.984364, 65, 17, 96, 144
-0.984389, 233, 129, 296, 375
-0.984402, 161, 65, 224, 128
-0.984405, 273, 113, 304, 240
-0.984451, 377, 129, 440, 256
-0.984522, 393, 121, 456, 184
-0.984555, 257, 73, 384, 136
-0.984573, 213, 33, 244, 160
-0.984631, 245, 185, 276, 248
-0.984635, 105, 33, 168, 288
-0.984672, 253, 33, 284, 160
-0.984918, 289, 1, 352, 375
-0.984943, 189, 33, 220, 160
-0.984972, 249, 89, 280, 152
-0.984998, 61, 105, 92, 168
-0.98506, 129, 113, 192, 240
-0.985186, 333, 121, 364, 184
-0.985229, 361, 121, 424, 184
-0.985516, 185, 65, 248, 128
-0.985586, 37, 105, 68, 168
-0.985639, 249, 121, 280, 184
-0.98564, 209, 193, 336, 256
-0.985726, 337, 33, 368, 160
-0.985796, 33, 161, 160, 288
-0.985818, 121, 113, 152, 176
-0.98601, 241, 33, 272, 160
-0.986139, 293, 73, 324, 136
-0.986166, 233, 121, 264, 184
-0.986254, 445, 105, 476, 168
-0.986254, 149, 113, 180, 176
-0.986271, 353, 169, 416, 232
-0.986386, 433, 1, 496, 64
-0.986402, 129, 33, 192, 288
-0.986413, 469, 121, 500, 184
-0.986533, 81, 17, 112, 144
-0.986563, 281, 73, 312, 136
-0.986756, 193, 73, 320, 136
-0.98677, 321, 17, 352, 144
-0.986825, 261, 169, 292, 232
-0.986828, 225, 161, 256, 288
-0.986844, 289, 161, 320, 224
-0.986854, 49, 33, 80, 160
-0.986934, 209, 145, 272, 208
-0.986952, 353, 1, 416, 375
-0.986979, 77, 113, 108, 176
-0.987004, 169, 137, 232, 200
-0.987038, 465, 113, 496, 240
-0.98705, 81, 161, 144, 288
-0.987166, 33, 65, 64, 128
-0.987204, 433, 33, 464, 160
-0.987232, 353, 145, 416, 208
-0.987263, 201, 129, 264, 375
-0.987273, 345, 129, 376, 256
-0.987289, 193, 145, 320, 208
-0.987469, 33, 209, 288, 336
-0.987545, 289, 153, 416, 216
-0.987582, 165, 113, 196, 176
-0.987608, 325, 153, 356, 216
-0.987675, 217, 193, 280, 256
-0.987694, 293, 193, 324, 256
-0.987698, 129, 161, 192, 288
-0.987742, 377, 1, 440, 64
-0.987782, 241, 33, 304, 96
-0.987821, 177, 81, 208, 208
-0.98785, 173, 33, 204, 160
-0.987863, 321, 73, 352, 136
-0.98788, 249, 145, 280, 272
-0.987902, 49, 49, 176, 112
-0.987925, 177, 129, 240, 375
-0.987928, 185, 185, 248, 248
-0.987999, 421, 33, 452, 160
-0.988098, 369, 121, 496, 184
-0.988119, 125, 65, 156, 192
-0.988128, 1, 113, 128, 240
-0.988135, 161, 161, 224, 224
-0.988139, 5, 113, 36, 176
-0.988142, 41, 129, 104, 256
-0.988217, 285, 161, 316, 288
-0.988222, 457, 121, 488, 184
-0.988242, 377, 1, 440, 375
-0.988246, 117, 65, 148, 128
-0.988348, 385, 89, 416, 152
-0.988373, 145, 57, 272, 120
-0.988376, 453, 113, 484, 240
-0.988391, 221, 121, 252, 184
-0.988425, 209, 65, 272, 128
-0.988516, 213, 161, 244, 224
-0.988544, 145, 185, 272, 248
-0.988614, 265, 1, 328, 375
-0.988619, 45, 57, 76, 120
-0.988621, 393, 33, 424, 160
-0.988644, 361, 113, 392, 176
-0.988676, 345, 121, 376, 184
-0.988696, 345, 73, 376, 136
-0.988701, 153, 1, 216, 375
-0.988704, 65, 89, 320, 152
-0.988761, 369, 33, 400, 160
-0.988776, 257, 129, 320, 375
-0.988858, 93, 17, 124, 144
-0.988879, 433, 73, 496, 136
-0.988903, 305, 73, 432, 136
-0.988903, 321, 129, 384, 375
-0.988932, 445, 17, 476, 144
-0.989034, 401, 1, 464, 375
-0.98905, 273, 17, 304, 144
-0.989054, 57, 85, 120, 116
-0.989082, 65, 101, 128, 132
-0.989159, 301, 17, 332, 144
-0.989185, 145, 137, 272, 200
-0.989218, 209, 1, 272, 375
-0.989257, 373, 73, 404, 136
-0.989267, 25, 185, 88, 248
-0.98935, 265, 161, 296, 288
-0.989405, 25, 113, 56, 176
-0.989433, 381, 33, 412, 160
-0.989433, 409, 33, 440, 160
-0.989474, 105, 129, 168, 256
-0.989474, 409, 1, 472, 64
-0.989603, 137, 153, 200, 216
-0.989647, 213, 129, 244, 256
-0.989648, 161, 209, 416, 336
-0.989659, 421, 89, 452, 152
-0.989681, 441, 113, 472, 240
-0.989829, 433, 89, 464, 152
-0.989863, 353, 1, 416, 64
-0.9899, 33, 97, 96, 128
-0.989935, 165, 65, 196, 128
-0.989938, 317, 145, 348, 272
-0.989941, 161, 89, 416, 152
-0.989956, 49, 185, 112, 248
-0.989959, 1, 185, 64, 248
-0.989985, 309, 153, 340, 216
-0.989993, 309, 73, 340, 136
-0.989998, 457, 17, 488, 144
-0.990001, 153, 161, 216, 288
-0.99001, 397, 97, 428, 160
-0.990027, 345, 177, 408, 304
-0.990054, 281, 185, 312, 248
-0.990054, 353, 33, 384, 160
-0.990099, 105, 1, 136, 128
-0.990163, 89, 185, 152, 248
-0.990166, 161, 185, 224, 248
-0.99018, 425, 1, 488, 375
-0.990191, 97, 93, 160, 124
-0.990199, 233, 193, 264, 256
-0.990243, 365, 129, 396, 256
-0.990304, 433, 101, 496, 132
-0.990324, 185, 1, 248, 375
-0.990325, 281, 97, 344, 128
-0.990374, 121, 185, 184, 248
-0.990413, 261, 145, 292, 208
-0.990536, 241, 97, 304, 128
-0.990544, 17, 129, 80, 256
-0.990559, 33, 85, 96, 116
-0.990572, 225, 189, 288, 220
-0.990587, 433, 117, 496, 148
-0.990614, 337, 145, 464, 208
-0.990636, 329, 145, 360, 272
-0.990743, 281, 153, 344, 184
-0.990756, 89, 81, 152, 112
-0.990781, 25, 117, 88, 148
-0.990834, 65, 1, 128, 64
-0.990855, 89, 105, 152, 136
-0.990888, 153, 65, 184, 192
-0.990904, 333, 73, 364, 136
-0.990963, 201, 185, 264, 216
-0.990997, 409, 101, 472, 132
-0.990999, 313, 185, 344, 248
-0.991041, 65, 113, 128, 144
-0.991098, 409, 89, 440, 152
-0.99111, 177, 65, 208, 128
-0.991121, 385, 101, 448, 132
-0.991156, 241, 177, 304, 208
-0.99116, 189, 65, 220, 128
-0.991192, 121, 93, 184, 124
-0.99121, 161, 121, 224, 152
-0.991211, 225, 161, 288, 192
-0.991212, 217, 97, 280, 128
-0.991213, 301, 161, 332, 288
-0.991231, 257, 97, 500, 160
-0.991237, 1, 113, 64, 144
-0.991239, 353, 65, 480, 128
-0.991247, 349, 185, 380, 248
-0.991271, 37, 65, 68, 192
-0.99128, 81, 57, 112, 120
-0.99131, 257, 85, 320, 116
-0.991324, 325, 185, 356, 248
-0.99133, 209, 113, 240, 176
-0.99133, 369, 1, 496, 64
-0.991335, 129, 1, 192, 375
-0.991374, 429, 121, 460, 184
-0.991378, 409, 117, 472, 148
-0.991402, 153, 65, 184, 128
-0.991436, 305, 97, 368, 128
-0.991463, 177, 113, 208, 176
-0.991476, 201, 173, 264, 204
-0.99149, 209, 49, 336, 112
-0.991499, 185, 121, 248, 152
-0.991503, 313, 109, 376, 140
-0.991523, 189, 113, 220, 176
-0.991528, 209, 117, 272, 148
-0.991529, 257, 153, 320, 184
-0.991539, 81, 209, 208, 336
-0.991541, 177, 101, 240, 132
-0.991544, 129, 117, 192, 148
-0.9916, 9, 93, 72, 124
-0.991604, 313, 161, 376, 192
-0.991618, 265, 109, 328, 140
-0.991633, 289, 109, 352, 140
-0.991635, 281, 85, 344, 116
-0.991659, 321, 177, 448, 240
-0.99168, 1, 89, 500, 152
-0.991687, 65, 161, 128, 224
-0.991693, 353, 125, 416, 156
-0.991696, 165, 81, 196, 208
-0.991701, 369, 193, 496, 320
-0.991713, 133, 65, 164, 128
-0.991728, 1, 185, 128, 248
-0.991729, 241, 113, 304, 144
-0.991769, 81, 185, 208, 248
-0.991799, 133, 1, 164, 128
-0.991804, 9, 77, 72, 108
-0.991811, 345, 105, 408, 136
-0.991827, 89, 1, 152, 64
-0.991849, 289, 121, 352, 152
-0.991869, 113, 81, 176, 112
-0.991877, 145, 85, 208, 116
-0.991921, 81, 153, 208, 216
-0.991948, 305, 49, 368, 112
-0.991971, 377, 65, 440, 128
-0.991973, 385, 121, 448, 152
-0.991974, 145, 97, 208, 128
-0.991994, 233, 1, 296, 375
-0.992009, 289, 17, 320, 144
-0.992014, 281, 61, 344, 92
-0.992026, 321, 125, 384, 156
-0.992027, 1, 145, 64, 208
-0.99204, 289, 141, 352, 172
-0.992049, 1, 41, 128, 104
-0.992051, 65, 73, 128, 104
-0.992054, 313, 85, 376, 116
-0.992098, 249, 189, 312, 220
-0.99211, 1, 65, 32, 128
-0.992124, 337, 185, 368, 248
-0.99216, 69, 57, 100, 120
-0.992253, 345, 129, 408, 375
-0.99231, 113, 105, 176, 136
-0.992319, 257, 141, 320, 172
-0.99232, 257, 61, 320, 92
-0.992325, 469, 17, 500, 144
-0.992361, 225, 145, 256, 208
-0.992367, 25, 189, 88, 220
-0.992386, 17, 1, 80, 375
-0.992396, 153, 109, 216, 140
-0.992398, 209, 81, 272, 112
-0.992398, 297, 193, 360, 224
-0.992403, 61, 85, 92, 116
-0.992411, 273, 193, 336, 224
-0.992417, 89, 117, 152, 148
-0.992417, 81, 189, 144, 220
-0.992419, 169, 85, 232, 116
-0.992425, 89, 101, 120, 132
-0.992447, 281, 73, 344, 104
-0.992453, 329, 189, 392, 220
-0.99247, 345, 25, 408, 88
-0.992481, 321, 145, 384, 176
-0.992506, 337, 93, 400, 124
-0.992509, 69, 97, 100, 128
-0.992515, 57, 189, 120, 220
-0.992521, 361, 1, 424, 32
-0.992561, 233, 173, 264, 204
-0.992566, 81, 85, 112, 116
-0.992593, 433, 89, 496, 120
-0.992597, 233, 81, 296, 112
-0.992622, 17, 65, 48, 128
-0.992623, 97, 41, 224, 104
-0.992637, 105, 89, 136, 120
-0.992646, 33, 209, 160, 336
-0.992666, 361, 65, 392, 128
-0.992699, 49, 85, 80, 116
-0.9927, 57, 97, 88, 128
-0.992707, 137, 65, 168, 192
-0.992717, 353, 193, 416, 224
-0.992724, 321, 17, 384, 48
-0.992742, 409, 89, 472, 120
-0.992757, 1, 1, 128, 64
-0.992758, 61, 113, 92, 240
-0.992763, 305, 29, 368, 60
-0.992777, 465, 101, 496, 132
-0.992779, 121, 1, 152, 128
-0.992782, 49, 9, 176, 72
-0.992806, 105, 185, 168, 216
-0.992808, 233, 185, 264, 216
-0.992808, 161, 209, 288, 336
-0.992811, 361, 93, 424, 124
-0.992812, 273, 97, 304, 128
-0.992817, 321, 1, 384, 32
-0.992818, 257, 73, 320, 104
-0.992835, 33, 153, 160, 216
-0.992846, 241, 49, 304, 80
-0.992852, 33, 73, 96, 104
-0.992853, 249, 173, 280, 204
-0.992857, 297, 49, 360, 80
-0.992857, 385, 1, 448, 32
-0.992859, 385, 85, 448, 116
-0.992862, 97, 161, 160, 224
-0.992866, 441, 101, 472, 132
-0.992867, 409, 1, 472, 32
-0.992881, 301, 97, 332, 128
-0.992882, 1, 189, 64, 220
-0.992888, 453, 101, 484, 132
-0.992899, 261, 97, 292, 128
-0.992906, 301, 153, 332, 184
-0.992907, 233, 161, 264, 192
-0.992915, 249, 165, 312, 196
-0.992928, 1, 89, 32, 120
-0.99293, 425, 101, 456, 132
-0.992936, 409, 121, 440, 184
-0.992938, 217, 173, 248, 204
-0.992947, 265, 193, 296, 256
-0.992952, 245, 97, 276, 128
-0.992952, 253, 161, 284, 192
-0.99296, 269, 57, 300, 120
-0.992968, 265, 121, 328, 152
-0.992983, 69, 117, 100, 148
-0.992984, 313, 97, 344, 128
-0.992989, 265, 177, 328, 208
-0.992991, 285, 93, 316, 124
-0.992994, 133, 93, 164, 124
-0.992994, 53, 117, 84, 148
-0.993001, 221, 185, 252, 216
-0.993002, 137, 185, 200, 216
-0.993021, 329, 33, 392, 64
-0.993021, 233, 141, 296, 172
-0.993032, 409, 101, 440, 132
-0.993047, 121, 93, 152, 124
-0.993048, 233, 97, 264, 128
-0.993055, 101, 101, 132, 132
-0.993055, 65, 113, 320, 176
-0.993064, 289, 153, 320, 184
-0.993065, 93, 85, 124, 116
-0.993065, 89, 69, 152, 100
-0.993068, 301, 49, 332, 112
-0.993068, 249, 185, 280, 216
-0.993069, 193, 121, 224, 152
-0.993069, 41, 117, 72, 148
-0.993071, 177, 169, 240, 200
-0.993075, 457, 117, 488, 148
-0.993077, 469, 113, 500, 144
-0.993078, 181, 121, 212, 152
-0.993079, 121, 81, 152, 112
-0.993086, 353, 149, 416, 180
-0.993086, 17, 113, 48, 144
-0.993089, 105, 57, 136, 120
-0.993092, 41, 1, 104, 375
-0.993116, 97, 113, 128, 144
-0.993118, 169, 121, 200, 152
-0.993123, 321, 109, 352, 140
-0.993123, 289, 1, 352, 32
-0.993128, 205, 121, 236, 152
-0.993132, 297, 17, 360, 48
-0.993146, 37, 77, 68, 108
-0.993154, 177, 33, 240, 64
-0.993155, 365, 125, 396, 156
-0.993156, 109, 113, 140, 240
-0.993157, 353, 125, 384, 156
-0.993159, 113, 69, 176, 100
-0.993161, 25, 173, 88, 204
-0.993163, 321, 177, 384, 208
-0.993168, 425, 117, 456, 148
-0.993175, 325, 157, 356, 188
-0.993177, 81, 113, 112, 144
-0.993177, 265, 153, 296, 184
-0.99318, 137, 73, 200, 104
-0.99318, 45, 97, 76, 128
-0.993182, 277, 153, 308, 184
-0.993183, 157, 117, 188, 148
-0.993193, 433, 1, 496, 32
-0.993193, 201, 161, 264, 192
-0.993199, 397, 101, 428, 132
-0.9932, 329, 201, 392, 232
-0.993202, 441, 117, 472, 148
-0.993202, 445, 81, 476, 144
-0.993204, 169, 185, 232, 216
-0.993208, 341, 125, 372, 156
-0.993211, 329, 93, 360, 124
-0.993221, 293, 141, 324, 172
-0.993225, 265, 1, 328, 32
-0.993227, 29, 113, 60, 144
-0.993235, 265, 41, 328, 72
-0.993236, 301, 85, 332, 116
-0.993237, 221, 97, 252, 128
-0.993243, 281, 165, 312, 196
-0.993248, 149, 89, 180, 120
-0.993249, 109, 113, 140, 144
-0.993251, 225, 1, 288, 32
-0.993254, 381, 125, 412, 156
-0.993258, 345, 81, 408, 112
-0.993268, 365, 105, 396, 136
-0.993271, 249, 113, 280, 144
-0.993271, 181, 101, 212, 132
-0.993272, 97, 1, 128, 64
-0.993273, 345, 161, 376, 192
-0.993274, 209, 97, 240, 128
-0.993276, 137, 33, 200, 64
-0.993276, 273, 165, 336, 196
-0.993278, 193, 101, 224, 132
-0.993278, 1, 109, 32, 140
-0.993282, 413, 117, 444, 148
-0.993282, 297, 109, 328, 140
-0.993288, 317, 145, 348, 176
-0.99329, 145, 117, 176, 148
-0.993293, 281, 77, 312, 108
-0.993295, 333, 113, 364, 144
-0.993296, 385, 101, 416, 132
-0.993297, 221, 117, 252, 148
-0.993298, 353, 105, 384, 136
-0.9933, 129, 41, 192, 104
-0.993307, 161, 121, 416, 184
-0.993309, 385, 193, 448, 320
-0.993309, 121, 201, 184, 232
-0.993312, 105, 77, 136, 108
-0.993313, 49, 205, 112, 236
-0.993318, 169, 101, 200, 132
-0.993322, 133, 81, 164, 112
-0.993326, 309, 121, 340, 152
-0.99333, 365, 145, 396, 208
-0.993333, 13, 89, 44, 120
-0.993334, 265, 173, 296, 204
-0.993337, 149, 105, 180, 136
-0.993339, 325, 125, 356, 156
-0.993351, 233, 117, 264, 148
-0.993352, 273, 197, 304, 228
-0.993357, 133, 117, 164, 148
-0.993366, 261, 113, 292, 144
-0.993367, 9, 205, 72, 236
-0.993372, 61, 73, 92, 104
-0.993372, 345, 93, 376, 124
-0.993374, 401, 121, 432, 152
-0.993375, 25, 89, 56, 120
-0.99338, 65, 177, 128, 208
-0.993385, 161, 89, 192, 120
-0.993391, 309, 109, 340, 140
-0.993392, 201, 85, 232, 116
-0.993394, 89, 73, 120, 104
-0.993397, 301, 197, 332, 228
-0.993399, 285, 109, 316, 140
-0.993401, 369, 93, 400, 124
-0.993402, 273, 141, 304, 172
-0.993403, 1, 173, 64, 204
-0.993403, 33, 189, 64, 220
-0.993404, 361, 189, 392, 220
-0.993409, 273, 113, 304, 144
-0.99341, 257, 85, 288, 116
-0.993411, 33, 101, 64, 132
-0.993414, 345, 21, 408, 52
-0.993415, 349, 189, 380, 220
-0.993416, 249, 201, 312, 232
-0.993418, 111, 81, 126, 144
-0.993424, 145, 45, 208, 76
-0.993426, 53, 189, 84, 220
-0.993426, 369, 1, 400, 32
-0.99343, 25, 77, 56, 108
-0.99343, 381, 89, 412, 120
-0.993432, 465, 89, 496, 120
-0.993433, 285, 197, 316, 228
-0.993435, 177, 205, 240, 236
-0.993437, 241, 85, 272, 116
-0.993437, 81, 49, 144, 80
-0.993438, 269, 81, 300, 112
-0.993439, 305, 141, 336, 172
-0.993444, 1, 77, 32, 108
-0.993447, 293, 61, 324, 92
-0.993448, 97, 201, 160, 232
-0.993448, 297, 129, 360, 375
-0.993448, 201, 1, 264, 32
-0.993451, 469, 125, 500, 156
-0.993456, 113, 157, 176, 188
-0.993458, 313, 61, 376, 92
-0.99346, 49, 129, 176, 192
-0.993461, 333, 17, 364, 48
-0.993461, 217, 81, 248, 112
-0.993463, 261, 189, 292, 220
-0.993465, 241, 37, 304, 68
-0.993465, 353, 177, 416, 208
-0.993481, 257, 121, 500, 184
-0.993551, 49, 85, 176, 116
-0.993562, 361, 169, 392, 232
-0.993571, 257, 209, 500, 336
-0.993582, 457, 73, 488, 136
-0.993585, 301, 121, 316, 184
-0.993588, 105, 1, 168, 375
-0.993608, 417, 201, 480, 264
-0.993618, 25, 41, 88, 104
-0.993641, 41, 153, 104, 216
-0.993666, 113, 1, 176, 64
-0.993694, 401, 33, 464, 96
-0.993703, 453, 1, 484, 64
-0.993713, 93, 113, 124, 240
-0.993748, 257, 49, 384, 112
-0.993775, 353, 33, 480, 96
-0.993778, 57, 49, 88, 112
-0.993786, 289, 17, 416, 80
-0.993862, 241, 209, 304, 336
-0.993866, 201, 65, 232, 128
-0.993892, 161, 161, 416, 224
-0.993918, 49, 193, 112, 320
-0.993976, 393, 201, 456, 264
-0.993977, 273, 25, 336, 88
-0.994001, 73, 1, 136, 375
-0.994015, 81, 113, 112, 240
-0.99404, 333, 17, 364, 80
-0.994049, 393, 121, 424, 184
-0.994083, 349, 177, 380, 304
-0.994089, 469, 73, 500, 136
-0.994099, 1, 97, 128, 128
-0.994111, 153, 129, 216, 375
-0.994176, 145, 1, 208, 64
-0.994183, 99, 81, 114, 144
-0.994243, 1, 113, 500, 176
-0.994254, 287, 121, 302, 184
-0.994254, 25, 1, 56, 128
-0.994311, 93, 57, 124, 120
-0.994327, 295, 121, 310, 184
-0.994332, 1, 65, 256, 128
-0.994344, 241, 209, 368, 336
-0.994345, 409, 57, 472, 120
-0.994351, 321, 25, 352, 88
-0.994388, 71, 81, 86, 144
-0.994389, 147, 89, 162, 152
-0.994421, 301, 97, 316, 160
-0.994432, 137, 89, 152, 152
-0.994454, 63, 81, 78, 144
-0.994477, 321, 201, 448, 264
-0.994489, 161, 17, 192, 144
-0.994513, 377, 121, 408, 184
-0.994539, 209, 25, 336, 88
-0.994592, 81, 41, 144, 104
-0.994604, 97, 1, 224, 64
-0.994619, 177, 89, 192, 152
-0.994641, 409, 129, 472, 375
-0.994641, 159, 89, 174, 152
-0.994686, 1, 85, 128, 116
-0.994689, 65, 97, 192, 128
-0.994692, 183, 89, 198, 152
-0.994705, 201, 1, 264, 64
-0.994733, 345, 193, 408, 256
-0.994748, 119, 89, 134, 152
-0.994763, 297, 1, 360, 64
-0.994771, 311, 97, 326, 160
-0.994799, 65, 177, 96, 240
-0.994823, 241, 161, 256, 224
-0.994826, 127, 89, 142, 152
-0.994844, 169, 89, 184, 152
-0.994849, 233, 169, 248, 232
-0.994855, 49, 81, 64, 144
-0.994858, 3, 89, 18, 152
-0.994859, 57, 81, 72, 144
-0.994873, 153, 89, 168, 152
-0.994893, 25, 1, 88, 64
-0.994894, 333, 97, 348, 160
-0.994915, 287, 97, 302, 160
-0.994922, 11, 89, 26, 152
-0.994923, 317, 97, 332, 160
-0.994923, 197, 161, 228, 224
-0.994955, 37, 17, 68, 144
-0.99498, 105, 81, 120, 144
-0.995034, 347, 97, 362, 160
-0.995041, 73, 129, 136, 375
-0.995041, 325, 97, 340, 160
-0.995053, 161, 41, 224, 104
-0.995055, 341, 97, 356, 160
-0.995076, 113, 1, 144, 64
-0.995105, 433, 129, 496, 375
-0.995107, 17, 89, 32, 152
-0.995123, 309, 121, 324, 184
-0.995147, 361, 97, 376, 160
-0.995152, 39, 89, 54, 152
-0.995194, 257, 157, 384, 188
-0.9952, 305, 49, 432, 112
-0.995209, 253, 57, 284, 120
-0.995211, 295, 97, 310, 160
-0.995222, 91, 81, 106, 144
-0.995244, 353, 89, 368, 152
-0.995257, 273, 97, 288, 160
-0.99526, 279, 97, 294, 160
-0.995265, 23, 89, 38, 152
-0.995269, 149, 17, 180, 144
-0.99528, 469, 1, 500, 64
-0.995291, 281, 49, 312, 112
-0.995295, 257, 97, 384, 128
-0.995302, 353, 101, 480, 132
-0.995321, 191, 89, 206, 152
-0.995334, 249, 177, 264, 240
-0.995335, 97, 65, 352, 128
-0.995347, 177, 1, 240, 64
-0.995349, 129, 97, 256, 128
-0.995359, 277, 121, 292, 184
-0.995368, 473, 89, 488, 152
-0.995371, 145, 1, 272, 64
-0.995377, 33, 89, 48, 152
-0.995378, 177, 97, 304, 128
-0.995447, 377, 33, 440, 96
-0.995464, 433, 1, 464, 64
-0.995468, 1, 65, 32, 192
-0.995502, 273, 1, 336, 64
-0.995514, 377, 129, 440, 375
-0.995516, 41, 241, 104, 368
-0.995522, 297, 153, 312, 216
-0.995527, 377, 89, 392, 152
-0.995535, 85, 81, 100, 144
-0.995548, 113, 209, 240, 272
-0.995549, 305, 101, 432, 132
-0.995552, 265, 97, 280, 160
-0.995604, 485, 97, 500, 160
-0.995608, 209, 1, 336, 64
-0.995618, 413, 129, 444, 256
-0.995628, 225, 113, 352, 144
-0.995632, 305, 209, 368, 272
-0.995651, 79, 81, 94, 144
-0.995668, 65, 113, 192, 144
-0.995681, 65, 161, 320, 224
-0.995682, 367, 97, 382, 160
-0.995682, 383, 89, 398, 152
-0.99569, 467, 89, 482, 152
-0.995701, 17, 129, 80, 375
-0.995711, 417, 177, 480, 304
-0.995715, 241, 9, 304, 72
-0.995745, 257, 209, 384, 272
-0.995765, 259, 97, 274, 160
-0.995785, 197, 89, 212, 152
-0.995794, 161, 25, 288, 88
-0.995825, 237, 89, 252, 152
-0.995838, 353, 49, 416, 112
-0.995842, 9, 193, 72, 320
-0.995867, 269, 121, 284, 184
-0.99587, 377, 129, 408, 256
-0.995878, 369, 201, 496, 264
-0.995881, 325, 121, 340, 184
-0.995883, 369, 117, 496, 148
-0.995933, 207, 81, 222, 144
-0.995949, 1, 117, 128, 148
-0.995953, 59, 105, 74, 168
-0.995956, 129, 297, 256, 360
-0.995959, 479, 97, 494, 160
-0.995971, 145, 185, 272, 216
-0.99598, 259, 121, 274, 184
-0.995991, 213, 81, 228, 144
-0.996008, 315, 121, 330, 184
-0.996025, 369, 201, 432, 264
-0.996026, 153, 113, 184, 240
-0.996028, 1, 209, 64, 272
-0.99603, 157, 161, 188, 288
-0.996043, 303, 153, 318, 216
-0.996045, 289, 153, 304, 216
-0.996064, 145, 241, 208, 368
-0.996084, 335, 121, 350, 184
-0.996088, 247, 89, 262, 152
-0.996101, 341, 121, 356, 184
-0.996105, 225, 89, 240, 152
-0.996107, 257, 73, 500, 136
-0.996118, 41, 209, 104, 272
-0.996127, 225, 305, 352, 368
-0.996136, 145, 121, 272, 152
-0.996154, 97, 273, 224, 336
-0.996184, 149, 113, 164, 176
-0.99619, 109, 113, 124, 176
-0.99619, 401, 129, 432, 256
-0.996194, 253, 97, 268, 160
-0.996217, 123, 113, 138, 176
-0.996223, 67, 105, 82, 168
-0.996248, 97, 113, 112, 176
-0.99628, 25, 65, 56, 192
-0.996287, 117, 113, 132, 176
-0.99631, 483, 121, 498, 184
-0.996317, 91, 113, 106, 176
-0.996325, 257, 145, 500, 208
-0.996327, 157, 113, 172, 176
-0.996336, 89, 161, 120, 288
-0.996342, 137, 113, 152, 176
-0.996369, 461, 97, 476, 160
-0.996372, 231, 89, 246, 152
-0.996372, 47, 105, 62, 168
-0.99639, 97, 85, 224, 116
-0.996398, 177, 161, 208, 288
-0.996413, 103, 105, 118, 168
-0.996431, 1, 177, 500, 240
-0.996447, 227, 161, 242, 224
-0.996454, 143, 113, 158, 176
-0.996456, 255, 161, 270, 224
-0.996462, 209, 173, 336, 204
-0.996463, 53, 105, 68, 168
-0.996475, 219, 89, 234, 152
-0.996483, 65, 137, 320, 200
-0.996485, 41, 129, 104, 375
-0.996494, 109, 161, 140, 288
-0.996503, 131, 113, 146, 176
-0.996509, 185, 41, 248, 104
-0.996512, 65, 209, 192, 272
-0.996515, 347, 161, 362, 224
-0.996519, 121, 113, 152, 240
-0.996547, 249, 153, 264, 216
-0.996561, 81, 297, 208, 360
-0.996593, 455, 97, 470, 160
-0.99661, 245, 121, 260, 184
-0.996626, 473, 113, 488, 176
-0.996631, 43, 65, 58, 128
-0.996638, 129, 185, 384, 248
-0.996652, 73, 209, 136, 336
-0.996652, 7, 113, 22, 176
-0.996665, 201, 129, 232, 256
-0.996667, 97, 249, 224, 312
-0.996673, 185, 177, 248, 304
-0.996673, 83, 113, 98, 176
-0.996678, 209, 85, 336, 116
-0.996682, 17, 113, 32, 176
-0.996709, 133, 113, 164, 240
-0.996719, 1, 113, 16, 176
-0.996725, 359, 73, 374, 136
-0.99674, 169, 113, 184, 176
-0.996753, 225, 185, 480, 248
-0.996759, 329, 49, 392, 112
-0.996782, 49, 297, 112, 360
-0.996783, 193, 185, 320, 216
-0.996787, 251, 121, 266, 184
-0.996797, 353, 161, 368, 224
-0.996798, 235, 121, 250, 184
-0.996804, 299, 185, 314, 248
-0.996807, 329, 73, 344, 136
-0.99681, 305, 113, 432, 144
-0.996828, 359, 161, 374, 224
-0.996828, 271, 169, 286, 232
-0.99683, 217, 41, 280, 104
-0.996831, 163, 113, 178, 176
-0.996836, 349, 121, 364, 184
-0.996841, 273, 125, 400, 156
-0.996852, 449, 97, 464, 160
-0.996855, 13, 65, 44, 192
-0.996866, 365, 73, 380, 136
-0.996874, 313, 193, 344, 320
-0.99688, 305, 305, 432, 368
-0.99688, 293, 57, 308, 120
-0.99688, 323, 73, 338, 136
-0.996883, 345, 73, 360, 136
-0.996885, 281, 161, 296, 224
-0.996889, 145, 85, 272, 116
-0.996895, 23, 113, 38, 176
-0.996896, 461, 121, 476, 184
-0.996953, 389, 97, 404, 160
-0.99696, 161, 209, 288, 272
-0.996963, 257, 169, 384, 200
-0.996966, 467, 121, 482, 184
-0.996983, 49, 129, 80, 256
-0.996984, 299, 57, 314, 120
-0.997005, 389, 129, 420, 256
-0.997015, 355, 113, 370, 176
-0.997015, 75, 85, 90, 116
-0.99706, 341, 33, 372, 288
-0.997063, 455, 121, 470, 184
-0.997085, 273, 145, 400, 176
-0.997086, 443, 105, 458, 168
-0.997088, 357, 33, 388, 288
-0.997093, 273, 33, 304, 288
-0.997095, 209, 153, 336, 184
-0.997097, 63, 85, 78, 116
-0.997103, 339, 153, 354, 216
-0.997109, 399, 89, 414, 152
-0.997157, 161, 173, 288, 204
-0.997193, 189, 161, 220, 288
-0.9972, 161, 209, 224, 272
-0.99721, 261, 33, 292, 288
-0.997221, 1, 1, 64, 64
-0.997225, 425, 129, 456, 256
-0.997236, 285, 33, 316, 288
-0.997265, 243, 177, 258, 208
-0.997276, 369, 33, 400, 288
-0.99728, 87, 85, 102, 116
-0.997307, 73, 97, 88, 128
-0.997314, 81, 297, 144, 360
-0.997322, 217, 33, 248, 288
-0.997325, 249, 33, 280, 288
-0.997327, 113, 109, 240, 140
-0.997332, 233, 33, 264, 288
-0.997355, 49, 73, 176, 104
-0.997358, 79, 97, 94, 128
-0.997377, 105, 41, 168, 104
-0.997424, 1, 209, 128, 272
-0.99743, 273, 189, 400, 220
-0.997451, 305, 89, 432, 120
-0.997461, 105, 193, 168, 320
-0.997462, 99, 85, 114, 116
-0.997464, 381, 33, 412, 288
-0.997478, 321, 125, 448, 156
-0.997481, 61, 161, 92, 288
-0.997494, 337, 149, 464, 180
-0.997514, 33, 305, 160, 368
-0.997515, 81, 137, 144, 200
-0.997522, 77, 33, 108, 288
-0.997528, 337, 265, 464, 328
-0.997529, 209, 197, 336, 228
-0.997529, 103, 101, 118, 132
-0.997545, 469, 33, 500, 288
-0.997551, 37, 33, 68, 288
-0.997555, 321, 225, 448, 288
-0.997576, 437, 33, 468, 288
-0.997579, 201, 33, 232, 288
-0.997583, 1, 137, 500, 200
-0.997593, 89, 33, 120, 288
-0.997607, 409, 33, 440, 288
-0.997614, 457, 33, 488, 288
-0.997627, 397, 33, 428, 288
-0.997652, 329, 33, 360, 288
-0.997677, 69, 85, 84, 116
-0.997682, 111, 85, 126, 116
-0.997697, 1, 185, 256, 248
-0.997697, 477, 101, 492, 132
-0.997698, 33, 189, 160, 220
-0.997704, 97, 101, 112, 132
-0.997711, 87, 97, 102, 128
-0.997716, 93, 85, 108, 116
-0.997718, 235, 181, 250, 212
-0.997725, 1, 305, 64, 368
-0.997739, 177, 273, 304, 336
-0.997751, 67, 105, 82, 136
-0.997751, 189, 33, 220, 288
-0.997753, 281, 241, 344, 304
-0.997759, 81, 85, 96, 116
-0.997766, 81, 185, 208, 216
-0.997766, 25, 33, 56, 288
-0.997771, 145, 161, 272, 192
-0.997792, 257, 85, 384, 116
-0.997795, 353, 89, 480, 120
-0.997804, 33, 273, 160, 336
-0.997816, 119, 93, 134, 124
-0.997822, 425, 33, 456, 288
-0.99783, 233, 169, 248, 200
-0.997831, 353, 297, 480, 360
-0.997852, 177, 109, 304, 140
-0.997853, 217, 209, 280, 336
-0.997855, 129, 129, 192, 375
-0.997858, 453, 101, 468, 132
-0.997862, 113, 33, 144, 288
-0.997868, 1, 65, 500, 128
-0.99787, 65, 33, 96, 288
-0.997872, 109, 97, 124, 128
-0.997872, 145, 241, 272, 304
-0.997878, 463, 101, 478, 132
-0.997878, 73, 161, 104, 288
-0.997884, 225, 281, 352, 344
-0.997892, 337, 1, 464, 32
-0.997905, 321, 189, 448, 220
-0.997907, 113, 137, 176, 200
-0.997908, 49, 33, 80, 288
-0.99791, 469, 101, 484, 132
-0.997911, 25, 313, 88, 375
-0.997939, 209, 217, 336, 280
-0.997946, 273, 97, 288, 128
-0.997963, 447, 101, 462, 132
-0.997967, 303, 153, 318, 184
-0.997978, 177, 33, 208, 288
-0.997978, 97, 73, 224, 104
-0.997981, 209, 141, 336, 172
-0.997987, 287, 97, 302, 128
-0.998003, 253, 173, 268, 204
-0.998015, 5, 1, 36, 128
-0.998017, 263, 97, 278, 128
-0.998029, 289, 257, 416, 320
-0.998031, 293, 97, 308, 128
-0.998037, 485, 97, 500, 128
-0.998037, 101, 33, 132, 288
-0.998041, 9, 33, 40, 288
-0.998046, 1, 89, 16, 120
-0.998049, 75, 109, 90, 140
-0.998053, 317, 33, 348, 288
-0.998069, 281, 97, 296, 128
-0.998072, 313, 149, 328, 180
-0.998078, 255, 97, 270, 128
-0.998078, 265, 273, 328, 336
-0.998088, 67, 117, 82, 148
-0.998091, 437, 101, 452, 132
-0.998096, 305, 33, 336, 288
-0.998114, 305, 97, 320, 128
-0.998115, 325, 97, 340, 128
-0.998117, 249, 97, 264, 128
-0.998118, 257, 201, 384, 232
-0.998119, 57, 117, 72, 148
-0.998122, 81, 117, 96, 148
-0.998136, 133, 93, 148, 124
-0.998137, 315, 93, 330, 124
-0.998145, 7, 89, 22, 120
-0.998165, 33, 1, 288, 64
-0.998172, 483, 113, 498, 144
-0.998189, 141, 93, 156, 124
-0.998192, 313, 305, 376, 368
-0.998193, 431, 101, 446, 132
-0.998197, 125, 93, 140, 124
-0.998215, 49, 117, 64, 148
-0.998226, 305, 53, 432, 84
-0.998231, 87, 117, 102, 148
-0.998235, 49, 273, 112, 336
-0.998236, 299, 97, 314, 128
-0.998259, 1, 73, 128, 104
-0.998265, 201, 121, 216, 152
-0.998266, 27, 113, 42, 144
-0.998271, 289, 1, 416, 32
-0.998272, 239, 161, 254, 192
-0.998277, 325, 153, 340, 184
-0.998289, 419, 101, 434, 132
-0.998292, 321, 99, 352, 114
-0.998292, 205, 115, 236, 130
-0.998292, 309, 99, 340, 114
-0.998292, 469, 115, 500, 130
-0.998292, 293, 153, 308, 184
-0.998292, 233, 89, 264, 104
-0.998293, 365, 95, 396, 110
-0.998293, 345, 95, 376, 110
-0.998294, 13, 191, 44, 206
-0.998295, 109, 119, 140, 134
-0.998295, 217, 167, 248, 182
-0.998295, 401, 101, 432, 116
-0.998295, 377, 117, 408, 132
-0.998295, 333, 193, 364, 320
-0.998296, 273, 197, 304, 212
-0.998297, 93, 83, 124, 98
-0.998297, 105, 83, 136, 98
-0.998298, 353, 117, 384, 132
-0.998299, 161, 183, 192, 198
-0.998299, 165, 91, 196, 106
-0.998299, 137, 183, 168, 198
-0.9983, 301, 63, 332, 78
-0.9983, 269, 93, 300, 108
-0.998301, 57, 113, 88, 128
-0.998302, 105, 85, 120, 116
-0.998302, 1, 117, 32, 132
-0.998302, 253, 161, 284, 176
-0.998302, 233, 99, 264, 114
-0.998302, 477, 113, 492, 144
-0.998302, 317, 67, 348, 82
-0.998305, 277, 159, 308, 174
-0.998306, 109, 189, 140, 204
-0.998307, 121, 185, 152, 200
-0.998307, 211, 121, 226, 152
-0.998307, 161, 33, 192, 288
-0.998308, 69, 81, 100, 96
-0.998308, 293, 89, 324, 104
-0.998308, 413, 101, 444, 116
-0.998308, 257, 119, 288, 134
-0.998309, 121, 97, 152, 112
-0.998309, 465, 97, 496, 112
-0.99831, 333, 125, 364, 140
-0.998311, 181, 119, 212, 134
-0.998311, 133, 95, 164, 110
-0.998311, 45, 117, 76, 132
-0.998312, 201, 97, 232, 112
-0.998314, 457, 117, 488, 132
-0.998315, 469, 129, 500, 144
-0.998315, 121, 111, 152, 126
-0.998316, 385, 101, 416, 116
-0.998317, 345, 125, 376, 140
-0.998317, 301, 115, 332, 130
-0.998317, 153, 95, 184, 110
-0.998317, 17, 185, 48, 200
-0.998318, 285, 115, 316, 130
-0.998319, 433, 103, 464, 118
-0.99832, 125, 33, 156, 288
-0.99832, 13, 91, 44, 106
-0.998321, 41, 189, 72, 204
-0.998321, 249, 193, 280, 208
-0.998321, 273, 121, 304, 136
-0.998322, 1, 91, 32, 106
-0.998325, 225, 177, 256, 192
-0.998326, 85, 189, 116, 204
-0.998327, 301, 69, 332, 84
-0.998327, 445, 103, 476, 118
-0.998327, 289, 145, 320, 160
-0.998328, 43, 117, 58, 148
-0.998328, 97, 209, 160, 272
-0.998329, 181, 97, 212, 112
-0.99833, 133, 87, 164, 102
-0.99833, 331, 93, 346, 124
-0.99833, 241, 97, 256, 128
-0.99833, 73, 185, 104, 200
-0.998331, 345, 197, 376, 212
-0.998332, 333, 99, 364, 114
-0.998332, 245, 97, 276, 112
-0.998334, 77, 115, 108, 130
-0.998334, 453, 123, 484, 138
-0.998334, 193, 121, 208, 152
-0.998334, 437, 125, 468, 140
-0.998335, 281, 91, 312, 106
-0.998336, 97, 115, 128, 130
-0.998336, 25, 93, 56, 108
-0.998337, 53, 189, 84, 204
-0.998337, 289, 165, 320, 180
-0.998338, 45, 81, 76, 96
-0.998338, 141, 33, 172, 288
-0.998342, 227, 173, 242, 204
-0.998343, 289, 159, 320, 174
-0.998343, 317, 105, 332, 136
-0.998344, 257, 99, 288, 114
-0.998344, 177, 305, 304, 368
-0.998347, 141, 189, 172, 204
-0.998347, 301, 149, 332, 164
-0.998348, 345, 101, 376, 116
-0.998348, 77, 105, 108, 120
-0.99835, 187, 121, 202, 152
-0.998352, 365, 125, 380, 156
-0.998352, 117, 85, 148, 100
-0.998353, 1, 189, 32, 204
-0.998353, 457, 103, 488, 118
-0.998354, 313, 153, 344, 168
-0.998355, 225, 191, 256, 206
-0.998356, 169, 97, 200, 112
-0.998357, 123, 81, 138, 112
-0.998357, 1, 107, 32, 122
-0.998358, 265, 161, 296, 176
-0.998359, 277, 153, 308, 168
-0.998359, 259, 169, 274, 200
-0.998361, 357, 101, 388, 116
-0.998361, 425, 101, 440, 132
-0.998362, 469, 103, 500, 118
-0.998362, 293, 95, 324, 110
-0.998363, 373, 101, 404, 116
-0.998366, 359, 125, 374, 156
-0.998367, 69, 93, 100, 108
-0.998368, 299, 141, 314, 172
-0.998369, 261, 177, 292, 192
-0.998369, 349, 129, 380, 375
-0.99837, 325, 109, 340, 140
-0.998371, 17, 241, 80, 368
-0.998371, 273, 169, 304, 184
-0.998373, 163, 117, 178, 148
-0.998373, 45, 93, 76, 108
-0.998374, 111, 113, 126, 144
-0.998375, 33, 87, 64, 102
-0.998375, 89, 93, 120, 108
-0.998379, 247, 161, 262, 192
-0.99838, 345, 165, 376, 180
-0.99838, 373, 125, 388, 156
-0.998381, 273, 99, 304, 114
-0.998382, 61, 107, 92, 122
-0.998384, 117, 91, 148, 106
-0.998385, 249, 185, 264, 216
-0.998386, 105, 105, 136, 120
-0.998387, 305, 163, 336, 178
-0.998394, 229, 171, 260, 186
-0.998394, 229, 185, 244, 216
-0.998395, 57, 99, 88, 114
-0.998398, 179, 121, 194, 152
-0.998398, 97, 189, 128, 204
-0.998401, 69, 87, 100, 102
-0.998402, 249, 187, 280, 202
-0.998405, 57, 85, 72, 116
-0.998406, 295, 85, 310, 116
-0.998407, 13, 89, 28, 120
-0.998411, 81, 87, 112, 102
-0.998413, 465, 123, 496, 138
-0.998415, 51, 77, 66, 108
-0.99842, 105, 95, 136, 110
-0.99842, 249, 181, 280, 196
-0.998422, 325, 159, 356, 174
-0.998424, 301, 155, 332, 170
-0.998425, 237, 165, 268, 180
-0.998426, 273, 233, 400, 296
-0.998427, 353, 125, 368, 156
-0.998433, 235, 97, 250, 128
-0.998434, 289, 153, 320, 168
-0.998437, 89, 109, 120, 124
-0.998437, 369, 177, 496, 240
-0.998438, 217, 121, 232, 152
-0.998438, 35, 117, 50, 148
-0.998438, 253, 167, 284, 182
-0.998442, 129, 57, 256, 88
-0.998446, 171, 121, 186, 152
-0.998446, 137, 209, 200, 272
-0.998448, 249, 175, 280, 190
-0.998454, 221, 185, 252, 200
-0.998455, 57, 99, 120, 114
-0.998457, 237, 177, 268, 192
-0.998466, 237, 129, 268, 375
-0.998467, 237, 191, 268, 206
-0.99847, 61, 105, 76, 136
-0.99847, 385, 125, 400, 156
-0.99848, 411, 101, 426, 132
-0.998488, 57, 87, 120, 102
-0.998488, 97, 113, 112, 144
-0.99849, 85, 99, 116, 114
-0.998495, 119, 109, 134, 140
-0.998496, 361, 177, 392, 304
-0.998497, 241, 53, 368, 84
-0.998498, 217, 97, 232, 128
-0.998501, 463, 117, 478, 148
-0.998505, 379, 125, 394, 156
-0.998507, 331, 105, 346, 136
-0.998507, 381, 93, 396, 124
-0.998507, 427, 117, 442, 148
-0.998514, 457, 117, 472, 148
-0.998515, 193, 49, 448, 112
-0.998515, 321, 241, 448, 368
-0.998516, 149, 93, 164, 124
-0.998518, 33, 161, 64, 288
-0.998519, 105, 113, 120, 144
-0.998523, 53, 87, 84, 102
-0.998523, 201, 185, 264, 200
-0.998526, 51, 97, 66, 128
-0.998528, 97, 95, 160, 110
-0.99853, 447, 117, 462, 148
-0.99853, 69, 99, 100, 114
-0.99853, 473, 81, 488, 112
-0.99853, 129, 161, 160, 288
-0.998534, 81, 89, 144, 104
-0.998534, 225, 187, 288, 202
-0.998535, 303, 85, 318, 116
-0.998536, 101, 89, 132, 104
-0.998536, 395, 101, 410, 132
-0.998545, 225, 241, 352, 304
-0.998546, 441, 117, 456, 148
-0.998547, 471, 117, 486, 148
-0.998547, 193, 101, 208, 132
-0.998553, 405, 101, 420, 132
-0.998553, 223, 121, 238, 152
-0.998553, 81, 201, 208, 232
-0.998556, 339, 125, 354, 156
-0.998557, 129, 81, 144, 112
-0.998558, 21, 113, 36, 144
-0.99856, 467, 85, 482, 116
-0.99856, 135, 81, 150, 112
-0.998562, 229, 97, 244, 128
-0.998563, 207, 85, 222, 116
-0.998565, 33, 91, 96, 106
-0.998566, 97, 173, 224, 204
-0.998566, 201, 101, 216, 132
-0.998567, 3, 77, 18, 108
-0.99857, 57, 109, 120, 124
-0.998571, 435, 117, 450, 148
-0.998571, 485, 125, 500, 156
-0.998572, 271, 157, 286, 188
-0.998573, 213, 81, 228, 112
-0.998574, 345, 125, 360, 156
-0.998576, 233, 177, 296, 192
-0.998576, 281, 155, 344, 170
-0.998576, 225, 167, 288, 182
-0.998578, 209, 129, 240, 375
-0.998581, 73, 189, 136, 204
-0.998598, 257, 161, 320, 176
-0.99861, 273, 129, 304, 375
-0.998611, 73, 115, 136, 130
-0.998612, 257, 153, 320, 168
-0.998612, 209, 1, 336, 32
-0.998613, 253, 129, 284, 375
-0.998616, 97, 103, 160, 118
-0.998617, 433, 123, 496, 138
-0.998621, 257, 95, 320, 110
-0.998621, 313, 161, 376, 176
-0.998624, 97, 189, 160, 204
-0.998626, 225, 193, 288, 208
-0.998626, 81, 109, 144, 124
-0.99863, 345, 101, 408, 116
-0.998631, 281, 99, 344, 114
-0.998631, 57, 93, 120, 108
-0.998633, 221, 129, 252, 375
-0.998634, 161, 97, 224, 112
-0.998634, 281, 67, 344, 82
-0.998637, 433, 103, 496, 118
-0.998638, 129, 91, 192, 106
-0.998639, 281, 59, 344, 74
-0.998639, 137, 189, 200, 204
-0.99864, 233, 185, 264, 200
-0.998641, 345, 117, 408, 132
-0.998642, 129, 97, 192, 112
-0.998643, 9, 189, 72, 204
-0.998645, 9, 93, 72, 108
-0.998646, 113, 113, 176, 128
-0.998648, 105, 183, 168, 198
-0.998651, 273, 115, 336, 130
-0.998654, 249, 121, 312, 136
-0.998655, 233, 161, 296, 176
-0.998655, 9, 113, 72, 128
-0.998655, 281, 73, 344, 88
-0.998656, 33, 191, 96, 206
-0.998657, 105, 87, 168, 102
-0.998657, 201, 179, 264, 194
-0.998658, 369, 101, 432, 116
-0.998661, 321, 101, 384, 116
-0.998662, 265, 209, 328, 336
-0.998662, 201, 115, 264, 130
-0.998663, 65, 183, 128, 198
-0.998664, 281, 91, 344, 106
-0.998665, 433, 117, 496, 132
-0.998666, 273, 147, 336, 162
-0.998666, 33, 109, 96, 124
-0.998666, 185, 97, 248, 112
-0.998668, 33, 119, 96, 134
-0.998668, 233, 97, 296, 112
-0.998669, 9, 83, 72, 98
-0.998669, 33, 99, 96, 114
-0.99867, 161, 119, 224, 134
-0.99867, 313, 147, 376, 162
-0.998671, 401, 101, 464, 116
-0.998672, 257, 63, 320, 78
-0.998672, 305, 155, 368, 170
-0.998673, 33, 85, 96, 100
-0.998675, 281, 161, 344, 176
-0.998675, 257, 57, 320, 72
-0.998675, 313, 193, 376, 208
-0.998676, 385, 119, 448, 134
-0.998676, 265, 171, 328, 186
-0.998678, 409, 129, 472, 144
-0.998679, 257, 71, 320, 86
-0.99868, 177, 113, 240, 128
-0.998681, 257, 89, 320, 104
-0.998683, 345, 123, 408, 138
-0.998685, 201, 173, 264, 188
-0.998686, 249, 185, 312, 200
-0.998687, 321, 123, 384, 138
-0.998688, 385, 127, 448, 142
-0.998688, 185, 241, 248, 368
-0.998689, 137, 183, 200, 198
-0.998689, 65, 81, 128, 96
-0.998689, 321, 27, 384, 42
-0.99869, 249, 193, 280, 320
-0.998691, 137, 115, 200, 130
-0.998691, 297, 115, 360, 130
-0.998691, 225, 119, 288, 134
-0.998693, 209, 99, 272, 114
-0.998693, 1, 107, 64, 122
-0.998693, 153, 91, 216, 106
-0.998694, 49, 157, 176, 188
-0.998694, 409, 123, 472, 138
-0.998696, 9, 183, 72, 198
-0.998697, 321, 95, 384, 110
-0.998697, 97, 119, 160, 134
-0.998699, 209, 93, 272, 108
-0.998699, 433, 97, 496, 112
-0.998699, 177, 89, 240, 104
-0.998699, 201, 191, 264, 206
-0.998699, 425, 111, 488, 126
-0.9987, 201, 165, 264, 180
-0.9987, 281, 79, 344, 94
-0.9987, 161, 205, 288, 236
-0.998701, 273, 121, 336, 136
-0.998702, 193, 45, 320, 76
-0.998703, 289, 193, 352, 208
-0.998703, 257, 197, 320, 212
-0.998705, 257, 77, 320, 92
-0.998705, 249, 115, 312, 130
-0.998707, 321, 167, 384, 182
-0.998707, 225, 125, 288, 140
-0.998708, 321, 19, 384, 34
-0.998708, 33, 185, 96, 200
-0.998708, 177, 1, 240, 16
-0.998709, 257, 83, 320, 98
-0.998712, 177, 181, 240, 196
-0.998712, 257, 101, 320, 116
-0.998713, 297, 125, 360, 140
-0.998713, 177, 165, 240, 180
-0.998717, 369, 95, 432, 110
-0.998717, 89, 81, 152, 96
-0.998718, 137, 121, 200, 136
-0.998719, 321, 117, 384, 132
-0.998719, 9, 99, 72, 114
-0.998719, 321, 33, 384, 48
-0.99872, 281, 53, 344, 68
-0.99872, 1, 119, 64, 134
-0.998722, 73, 121, 136, 136
-0.998723, 249, 191, 312, 206
-0.998724, 305, 67, 368, 82
-0.998725, 185, 123, 248, 138
-0.998727, 201, 1, 264, 16
-0.998727, 345, 95, 408, 110
-0.998728, 233, 89, 296, 104
-0.998729, 321, 187, 384, 202
-0.99873, 305, 107, 368, 122
-0.998735, 473, 65, 488, 192
-0.998738, 305, 201, 432, 232
-0.998743, 17, 249, 144, 312
-0.998759, 225, 125, 352, 156
-0.99877, 97, 45, 224, 76
-0.998788, 177, 57, 304, 88
-0.998794, 369, 233, 496, 296
-0.998795, 1, 201, 128, 232
-0.998806, 235, 81, 250, 208
-0.998807, 227, 81, 242, 208
-0.998809, 257, 1, 500, 64
-0.998813, 217, 81, 232, 208
-0.998829, 97, 313, 352, 375
-0.998829, 63, 65, 78, 192
-0.99883, 129, 1, 384, 64
-0.99884, 353, 53, 480, 84
-0.998852, 467, 65, 482, 192
-0.998865, 305, 37, 432, 68
-0.998866, 177, 73, 304, 104
-0.998869, 73, 65, 88, 192
-0.998879, 357, 81, 372, 208
-0.998882, 305, 161, 432, 192
-0.998883, 369, 33, 496, 64
-0.99889, 245, 65, 260, 192
-0.998897, 211, 65, 226, 192
-0.998897, 81, 65, 96, 192
-0.998907, 353, 201, 480, 232
-0.998911, 89, 65, 104, 192
-0.998912, 241, 113, 256, 240
-0.998915, 337, 129, 368, 375
-0.998922, 285, 129, 316, 375
-0.998929, 33, 177, 160, 208
-0.99894, 295, 65, 310, 192
-0.99894, 95, 65, 110, 192
-0.998955, 203, 81, 218, 208
-0.99896, 481, 65, 496, 192
-0.99897, 265, 65, 280, 192
-0.998976, 351, 81, 366, 208
-0.998993, 257, 81, 272, 208
-0.998997, 367, 81, 382, 208
-0.999002, 105, 65, 120, 192
-0.999009, 251, 65, 266, 192
-0.999009, 271, 65, 286, 192
-0.99901, 281, 65, 296, 192
-0.999011, 457, 81, 472, 208
-0.999016, 97, 125, 224, 156
-0.999018, 345, 81, 360, 208
-0.999019, 111, 65, 126, 192
-0.999019, 447, 81, 462, 208
-0.999029, 289, 65, 304, 192
-0.999034, 257, 25, 500, 88
-0.999035, 65, 41, 320, 104
-0.999038, 303, 65, 318, 192
-0.999044, 327, 65, 342, 192
-0.999045, 409, 81, 424, 208
-0.999051, 313, 65, 328, 192
-0.999055, 441, 81, 456, 208
-0.99906, 415, 81, 430, 208
-0.999064, 393, 81, 408, 208
-0.99907, 319, 65, 334, 192
-0.999073, 311, 113, 326, 240
-0.999074, 161, 141, 288, 172
-0.999074, 423, 81, 438, 208
-0.999075, 399, 81, 414, 208
-0.999078, 193, 341, 320, 372
-0.99908, 321, 345, 448, 375
-0.999085, 429, 81, 444, 208
-0.999085, 387, 81, 402, 208
-0.999087, 379, 65, 394, 192
-0.99909, 251, 113, 266, 240
-0.99909, 325, 129, 356, 375
-0.999091, 197, 81, 212, 208
-0.999097, 321, 137, 448, 168
-0.999103, 97, 161, 224, 192
-0.999105, 287, 113, 302, 240
-0.999107, 257, 65, 384, 96
-0.999109, 435, 81, 450, 208
-0.999111, 279, 113, 294, 240
-0.999113, 273, 281, 400, 344
-0.999118, 1, 305, 256, 368
-0.99912, 297, 113, 312, 240
-0.999136, 339, 65, 354, 192
-0.999143, 373, 81, 388, 208
-0.999144, 97, 33, 224, 64
-0.999145, 219, 33, 234, 160
-0.999151, 297, 129, 328, 375
-0.999161, 305, 113, 320, 240
-0.999172, 333, 81, 348, 208
-0.999172, 265, 113, 280, 240
-0.999174, 119, 65, 134, 192
-0.999176, 205, 33, 220, 160
-0.999182, 231, 33, 246, 160
-0.999187, 353, 77, 480, 108
-0.999195, 79, 17, 94, 144
-0.999196, 361, 129, 392, 375
-0.999199, 69, 17, 84, 144
-0.999202, 113, 137, 240, 168
-0.999202, 233, 145, 248, 272
-0.999203, 49, 53, 176, 84
-0.999203, 461, 33, 476, 160
-0.999205, 177, 33, 304, 64
-0.99921, 85, 17, 100, 144
-0.999212, 1, 129, 128, 160
-0.999214, 273, 113, 288, 240
-0.999215, 1, 153, 128, 184
-0.999217, 257, 33, 272, 160
-0.999218, 333, 17, 348, 144
-0.999245, 97, 309, 224, 340
-0.999245, 187, 33, 202, 160
-0.999245, 225, 33, 240, 160
-0.999245, 449, 33, 464, 160
-0.999246, 339, 113, 354, 240
-0.999248, 469, 113, 484, 240
-0.999251, 185, 129, 216, 375
-0.999251, 161, 1, 288, 32
-0.999253, 239, 33, 254, 160
-0.999253, 353, 173, 480, 204
-0.99926, 321, 113, 336, 240
-0.999261, 57, 65, 72, 192
-0.999261, 197, 129, 228, 375
-0.999264, 443, 33, 458, 160
-0.999267, 305, 65, 432, 96
-0.999276, 357, 129, 372, 256
-0.999279, 475, 113, 490, 240
-0.999282, 257, 337, 384, 368
-0.999284, 63, 17, 78, 144
-0.999284, 197, 33, 212, 160
-0.999291, 463, 113, 478, 240
-0.999292, 369, 133, 496, 164
-0.999297, 125, 65, 140, 192
-0.999299, 455, 33, 470, 160
-0.999301, 241, 33, 368, 64
-0.999304, 339, 17, 354, 144
-0.999315, 327, 113, 342, 240
-0.999317, 435, 33, 450, 160
-0.999323, 1, 345, 128, 375
-0.99933, 95, 17, 110, 144
-0.999331, 481, 113, 496, 240
-0.999331, 361, 17, 376, 144
-0.999332, 257, 129, 272, 256
-0.999333, 367, 1, 382, 128
-0.999335, 317, 17, 332, 144
-0.999339, 209, 113, 224, 240
-0.999342, 249, 161, 264, 288
-0.999343, 189, 81, 204, 208
-0.999348, 387, 33, 402, 160
-0.99935, 351, 129, 366, 256
-0.999355, 193, 313, 448, 375
-0.999357, 429, 33, 444, 160
-0.999358, 129, 297, 256, 328
-0.999359, 105, 17, 120, 144
-0.999359, 381, 193, 412, 320
-0.999363, 401, 33, 416, 160
-0.999365, 411, 33, 426, 160
-0.999369, 303, 17, 318, 144
-0.999371, 53, 17, 68, 144
-0.999372, 323, 17, 338, 144
-0.999372, 351, 33, 366, 160
-0.99938, 301, 161, 316, 288
-0.999384, 81, 341, 208, 372
-0.999384, 131, 65, 146, 192
-0.999385, 417, 33, 432, 160
-0.999389, 241, 161, 256, 288
-0.999389, 227, 129, 242, 256
-0.99939, 467, 17, 482, 144
-0.999394, 145, 161, 176, 288
-0.999394, 345, 1, 360, 128
-0.999395, 283, 161, 298, 288
-0.999397, 353, 21, 480, 52
-0.999409, 97, 129, 160, 375
-0.999412, 375, 1, 390, 128
-0.999416, 251, 17, 266, 144
-0.999416, 171, 65, 186, 192
-0.999416, 345, 129, 360, 256
-0.99942, 263, 17, 278, 144
-0.999421, 181, 65, 196, 192
-0.999425, 177, 329, 304, 360
-0.999427, 473, 17, 488, 144
-0.999433, 211, 17, 226, 144
-0.999441, 305, 177, 432, 208
-0.999441, 311, 17, 326, 144
-0.999441, 113, 17, 128, 144
-0.999444, 321, 333, 448, 364
-0.999446, 313, 129, 344, 375
-0.999446, 423, 33, 438, 160
-0.999448, 353, 65, 480, 96
-0.999452, 333, 145, 348, 272
-0.999457, 395, 33, 410, 160
-0.99946, 257, 321, 384, 352
-0.999462, 371, 129, 386, 256
-0.999466, 245, 17, 260, 144
-0.999474, 365, 129, 380, 256
-0.999477, 277, 161, 292, 288
-0.999492, 209, 245, 336, 276
-0.999495, 65, 137, 192, 168
-0.999508, 145, 45, 272, 76
-0.999508, 33, 209, 288, 272
-0.999511, 297, 209, 360, 336
-0.999514, 369, 333, 496, 364
-0.999515, 65, 297, 192, 328
-0.99952, 133, 95, 148, 110
-0.99952, 119, 111, 134, 126
-0.99952, 349, 197, 364, 212
-0.99952, 317, 165, 332, 180
-0.99952, 341, 161, 356, 176
-0.999521, 83, 115, 98, 130
-0.999521, 33, 93, 48, 108
-0.999522, 17, 91, 32, 106
-0.999522, 61, 93, 76, 108
-0.999523, 105, 109, 120, 124
-0.999523, 247, 163, 262, 178
-0.999523, 161, 289, 416, 352
-0.999523, 93, 83, 108, 98
-0.999524, 213, 93, 228, 108
-0.999524, 165, 97, 180, 112
-0.999524, 253, 165, 268, 180
-0.999524, 297, 165, 312, 180
-0.999524, 433, 129, 464, 375
-0.999524, 329, 157, 344, 172
-0.999525, 279, 121, 294, 136
-0.999526, 471, 119, 486, 134
-0.999527, 335, 99, 350, 114
-0.999527, 243, 169, 258, 184
-0.999528, 81, 93, 96, 108
-0.999528, 39, 93, 54, 108
-0.999529, 467, 95, 482, 110
-0.99953, 103, 83, 118, 98
-0.99953, 307, 145, 322, 160
-0.99953, 1, 313, 128, 344
-0.999531, 277, 153, 292, 168
-0.999531, 209, 209, 336, 240
-0.999531, 313, 145, 328, 160
-0.999531, 15, 191, 30, 206
-0.999531, 63, 101, 78, 116
-0.999532, 233, 171, 248, 186
-0.999532, 99, 189, 114, 204
-0.999532, 93, 99, 108, 114
-0.999532, 371, 101, 386, 116
-0.999532, 153, 187, 168, 202
-0.999533, 303, 115, 318, 130
-0.999533, 259, 99, 274, 114
-0.999534, 49, 237, 176, 268
-0.999534, 259, 167, 274, 182
-0.999535, 47, 93, 62, 108
-0.999535, 147, 187, 162, 202
-0.999536, 477, 125, 492, 140
-0.999536, 91, 111, 106, 126
-0.999536, 53, 189, 68, 204
-0.999537, 421, 129, 452, 375
-0.999537, 111, 95, 126, 110
-0.999538, 171, 97, 186, 112
-0.999538, 445, 125, 460, 140
-0.999538, 457, 103, 472, 118
-0.999539, 267, 99, 282, 114
-0.999539, 343, 99, 358, 114
-0.99954, 301, 149, 316, 164
-0.99954, 63, 189, 78, 204
-0.999541, 1, 107, 16, 122
-0.999541, 181, 97, 196, 112
-0.999542, 385, 101, 400, 116
-0.999542, 303, 161, 318, 176
-0.999542, 449, 103, 464, 118
-0.999543, 473, 93, 488, 108
-0.999544, 359, 165, 374, 180
-0.999545, 379, 97, 394, 112
-0.999545, 125, 95, 140, 110
-0.999545, 253, 99, 268, 114
-0.999545, 79, 105, 94, 120
-0.999546, 71, 93, 86, 108
-0.999546, 323, 161, 338, 176
-0.999546, 349, 99, 364, 114
-0.999547, 3, 189, 18, 204
-0.999548, 71, 107, 86, 122
-0.999548, 257, 183, 272, 198
-0.999548, 359, 99, 374, 114
-0.999548, 267, 159, 282, 174
-0.999549, 273, 99, 288, 114
-0.99955, 17, 297, 144, 328
-0.99955, 365, 101, 380, 116
-0.99955, 293, 95, 308, 110
-0.999552, 281, 99, 296, 114
-0.999553, 177, 293, 304, 324
-0.999554, 45, 87, 60, 102
-0.999555, 289, 153, 304, 168
-0.999555, 389, 129, 420, 375
-0.999555, 271, 167, 286, 182
-0.999555, 277, 173, 292, 188
-0.999559, 483, 103, 498, 118
-0.999559, 161, 273, 288, 304
-0.999561, 53, 93, 68, 108
-0.999561, 115, 89, 130, 104
-0.999562, 237, 165, 252, 180
-0.999563, 247, 193, 262, 208
-0.999566, 45, 129, 76, 375
-0.999566, 463, 103, 478, 118
-0.999567, 235, 191, 250, 206
-0.999568, 229, 185, 244, 200
-0.999569, 323, 155, 338, 170
-0.999571, 287, 99, 302, 114
-0.999573, 91, 105, 106, 120
-0.999573, 105, 189, 120, 204
-0.999574, 9, 189, 24, 204
-0.999577, 477, 103, 492, 118
-0.999578, 113, 189, 128, 204
-0.999578, 77, 99, 92, 114
-0.999578, 271, 175, 286, 190
-0.99958, 69, 87, 84, 102
-0.999581, 295, 159, 310, 174
-0.999582, 53, 83, 68, 98
-0.999584, 471, 101, 486, 116
-0.999585, 85, 87, 100, 102
-0.999588, 123, 89, 138, 104
-0.999589, 109, 103, 124, 118
-0.99959, 369, 345, 496, 375
-0.99959, 233, 179, 248, 194
-0.999592, 119, 95, 134, 110
-0.999594, 307, 151, 322, 166
-0.999597, 49, 29, 176, 60
-0.999598, 257, 253, 384, 284
-0.999598, 17, 261, 144, 292
-0.999604, 251, 181, 266, 196
-0.999604, 477, 119, 492, 134
-0.999607, 161, 233, 288, 264
-0.999609, 99, 109, 114, 124
-0.999611, 65, 129, 96, 375
-0.999611, 77, 87, 92, 102
-0.999616, 309, 159, 324, 174
-0.999616, 49, 329, 176, 360
-0.999617, 87, 95, 102, 110
-0.999618, 85, 101, 100, 116
-0.99962, 1, 213, 128, 244
-0.99962, 241, 277, 368, 308
-0.999621, 295, 153, 310, 168
-0.999622, 85, 129, 116, 375
-0.999623, 49, 41, 176, 72
-0.999623, 95, 89, 110, 104
-0.999626, 103, 89, 118, 104
-0.999627, 21, 129, 52, 375
-0.999628, 257, 289, 500, 352
-0.999628, 483, 125, 498, 140
-0.999628, 253, 189, 268, 204
-0.999629, 129, 209, 384, 272
-0.999633, 145, 309, 272, 340
-0.99964, 313, 153, 328, 168
-0.999645, 241, 191, 256, 206
-0.999648, 337, 321, 464, 352
-0.999652, 97, 285, 224, 316
-0.999655, 483, 119, 498, 134
-0.999656, 71, 99, 86, 114
-0.999657, 97, 129, 128, 375
-0.999662, 243, 179, 258, 194
-0.999664, 445, 129, 476, 375
-0.999667, 49, 309, 176, 340
-0.999668, 1, 1, 500, 64
-0.999669, 249, 175, 264, 190
-0.999684, 97, 225, 224, 256
-0.999687, 305, 253, 432, 284
-0.999687, 235, 185, 250, 200
-0.99969, 369, 189, 496, 220
-0.99969, 241, 289, 368, 320
-0.999693, 129, 245, 256, 276
-0.999696, 301, 155, 316, 170
-0.999699, 305, 17, 432, 48
-0.9997, 109, 89, 124, 104
-0.999702, 241, 301, 368, 332
-0.999703, 247, 187, 262, 202
-0.999705, 457, 129, 488, 375
-0.999708, 99, 99, 114, 114
-0.999709, 1, 29, 128, 60
-0.99972, 63, 87, 78, 102
-0.99972, 409, 129, 440, 375
-0.999724, 33, 249, 288, 312
-0.999737, 373, 129, 404, 375
-0.999759, 173, 129, 204, 375
-0.999763, 469, 129, 500, 375
-0.99984, 109, 129, 140, 375
-0.999848, 33, 129, 64, 375
-0.999848, 161, 129, 192, 375
-0.999855, 13, 161, 44, 288
-0.999858, 241, 185, 256, 200
-0.999881, 1, 129, 32, 375
-0.999986, 257, 209, 500, 272
-0.999997, 149, 129, 180, 375
-1, 1, 201, 500, 264
-1.00001, 1, 113, 32, 240
-1.00007, 161, 25, 416, 88
-1.00009, 225, 241, 480, 304
-1.00012, 33, 113, 64, 240
-1.00012, 237, 209, 268, 336
-1.00015, 125, 129, 156, 375
-1.00019, 1, 281, 256, 344
-1.00023, 129, 241, 384, 304
-1.00024, 137, 129, 168, 375
-1.00024, 1, 161, 32, 288
-1.00031, 161, 265, 416, 328
-1.00041, 401, 193, 432, 320
-1.00048, 257, 265, 500, 328
-1.00057, 213, 177, 244, 304
-1.00057, 469, 161, 500, 288
-1.00063, 1, 25, 500, 88
-1.00081, 293, 209, 324, 336
-1.00095, 21, 113, 52, 240
-1.00095, 421, 177, 452, 304
-1.00095, 173, 209, 204, 336
-1.00127, 1, 313, 500, 375
-1.00129, 73, 209, 104, 336
-1.0013, 265, 209, 296, 336
-1.00165, 1, 249, 500, 312
-1.00173, 1, 225, 500, 288
-1.00194, 1, 289, 500, 352
-1.00246, 369, 241, 496, 368
-1.00253, 113, 241, 176, 368
-1.00529, 321, 225, 384, 352
-1.00594, 417, 241, 480, 368
-1.00691, 361, 241, 424, 368
-1.00752, 393, 241, 456, 368
