1969
-0.382038, 1, 1, 500, 375
-0.385351, 1, 1, 500, 256
-0.468985, 257, 1, 500, 375
-0.479932, 1, 129, 500, 375
-0.50718, 33, 1, 288, 375
-0.572609, 129, 1, 384, 375
-0.576744, 65, 129, 320, 375
-0.577305, 257, 1, 500, 256
-0.592661, 65, 1, 320, 256
-0.607425, 161, 1, 416, 256
-0.670388, 161, 97, 416, 352
-0.739309, 257, 97, 500, 352
-0.839513, 145, 1, 272, 375
-0.848739, 209, 65, 336, 320
-0.848784, 193, 1, 320, 375
-0.856209, 369, 1, 496, 375
-0.862458, 305, 1, 432, 256
-0.862964, 305, 1, 432, 375
-0.863978, 81, 1, 208, 375
-0.871479, 145, 1, 272, 256
-0.871516, 1, 1, 500, 128
-0.876799, 65, 1, 192, 256
-0.877614, 289, 97, 416, 352
-0.878395, 161, 97, 288, 352
-0.884774, 257, 1, 384, 256
-0.886618, 353, 1, 480, 256
-0.886819, 241, 1, 368, 375
-0.895555, 113, 129, 240, 375
-0.897959, 337, 97, 464, 352
-0.898284, 33, 1, 160, 375
-0.906912, 97, 193, 352, 320
-0.907015, 1, 1, 128, 256
-0.910883, 65, 97, 192, 352
-0.91135, 1, 49, 500, 176
-0.914371, 1, 209, 500, 336
-0.91555, 17, 97, 144, 352
-0.916329, 193, 49, 448, 176
-0.917942, 193, 1, 448, 128
-0.918119, 1, 97, 500, 224
-0.919919, 1, 145, 500, 272
-0.920127, 97, 1, 352, 128
-0.92381, 361, 1, 424, 128
-0.92454, 193, 145, 448, 272
-0.92465, 193, 193, 448, 320
-0.929042, 401, 1, 464, 128
-0.929241, 97, 145, 352, 272
-0.932575, 257, 97, 500, 224
-0.93552, 1, 33, 256, 160
-0.935907, 401, 49, 464, 176
-0.935914, 305, 1, 432, 128
-0.93597, 209, 161, 336, 288
-0.936181, 161, 177, 288, 304
-0.936569, 305, 1, 368, 128
-0.938368, 65, 97, 320, 224
-0.938832, 193, 113, 320, 240
-0.939019, 209, 145, 272, 272
-0.93939, 249, 177, 312, 304
-0.939826, 97, 49, 352, 176
-0.939908, 161, 177, 224, 304
-0.940491, 329, 1, 392, 128
-0.940867, 161, 185, 224, 248
-0.941034, 193, 81, 256, 208
-0.941062, 33, 1, 96, 128
-0.941953, 161, 97, 416, 224
-0.942502, 185, 177, 248, 304
-0.942588, 1, 177, 256, 304
-0.942933, 121, 33, 184, 160
-0.943289, 369, 1, 496, 128
-0.943978, 369, 49, 432, 176
-0.944636, 273, 161, 336, 288
-0.944901, 217, 105, 280, 168
-0.945635, 433, 81, 496, 208
-0.946008, 193, 1, 320, 128
-0.946054, 345, 49, 408, 176
-0.946614, 185, 1, 248, 128
-0.946716, 129, 1, 256, 128
-0.947279, 97, 241, 352, 368
-0.947403, 17, 1, 144, 128
-0.947539, 113, 193, 240, 320
-0.948002, 161, 1, 224, 128
-0.948016, 241, 113, 368, 240
-0.948096, 209, 193, 272, 320
-0.948172, 185, 185, 248, 248
-0.948324, 249, 129, 312, 256
-0.94844, 241, 33, 368, 160
-0.948663, 193, 65, 320, 192
-0.949132, 65, 1, 192, 128
-0.949309, 289, 97, 352, 224
-0.94978, 377, 97, 440, 224
-0.950242, 297, 145, 360, 272
-0.950375, 281, 1, 344, 128
-0.950489, 217, 49, 280, 176
-0.950853, 193, 241, 448, 368
-0.951013, 369, 17, 432, 80
-0.951119, 145, 129, 272, 256
-0.951138, 1, 225, 256, 352
-0.951805, 425, 105, 488, 168
-0.951956, 73, 1, 136, 128
-0.951977, 121, 193, 184, 320
-0.952435, 433, 129, 496, 256
-0.952758, 121, 201, 184, 264
-0.952816, 385, 41, 448, 104
-0.953514, 257, 161, 384, 288
-0.953741, 257, 33, 320, 160
-0.953934, 145, 49, 272, 176
-0.953934, 209, 81, 272, 144
-0.953956, 345, 105, 408, 168
-0.953969, 321, 49, 448, 176
-0.954354, 209, 1, 272, 128
-0.954536, 185, 129, 248, 256
-0.954814, 289, 97, 416, 224
-0.955094, 353, 97, 416, 224
-0.955305, 305, 9, 368, 72
-0.955691, 401, 113, 464, 240
-0.955843, 249, 177, 312, 240
-0.956263, 305, 177, 432, 304
-0.956658, 217, 169, 280, 232
-0.956661, 161, 49, 224, 176
-0.956713, 297, 49, 360, 176
-0.956981, 241, 209, 368, 336
-0.956988, 233, 225, 296, 352
-0.957084, 321, 49, 384, 176
-0.957236, 289, 153, 352, 216
-0.957335, 49, 49, 176, 176
-0.957779, 161, 97, 224, 224
-0.957851, 337, 97, 464, 224
-0.958161, 209, 209, 272, 272
-0.958371, 329, 33, 392, 96
-0.958446, 9, 33, 72, 160
-0.958782, 417, 193, 480, 320
-0.958868, 329, 129, 392, 256
-0.9589, 401, 1, 464, 64
-0.959064, 217, 97, 280, 224
-0.9592, 169, 89, 232, 152
-0.959369, 193, 161, 256, 224
-0.959443, 385, 73, 448, 136
-0.959671, 57, 49, 120, 176
-0.959729, 433, 1, 496, 128
-0.960056, 137, 17, 200, 80
-0.96037, 209, 241, 272, 368
-0.960529, 377, 121, 440, 184
-0.960545, 289, 177, 352, 240
-0.960557, 193, 105, 256, 168
-0.96066, 409, 65, 472, 128
-0.960727, 97, 1, 160, 128
-0.960824, 369, 241, 496, 368
-0.961178, 345, 81, 408, 144
-0.9613, 369, 49, 496, 176
-0.961475, 249, 153, 312, 216
-0.961726, 145, 209, 208, 272
-0.962273, 337, 153, 400, 216
-0.962626, 233, 241, 296, 304
-0.962626, 273, 209, 336, 336
-0.962669, 289, 81, 352, 144
-0.96282, 97, 129, 224, 256
-0.96286, 361, 49, 424, 112
-0.96333, 273, 33, 336, 96
-0.963403, 257, 81, 320, 208
-0.963538, 369, 145, 496, 272
-0.963914, 129, 145, 192, 272
-0.963979, 185, 225, 248, 352
-0.964105, 353, 145, 416, 272
-0.964154, 33, 49, 96, 176
-0.964233, 249, 209, 312, 272
-0.964322, 313, 193, 376, 320
-0.964384, 417, 25, 480, 88
-0.964401, 257, 97, 320, 160
-0.964567, 337, 1, 400, 256
-0.964808, 169, 113, 232, 176
-0.965074, 193, 225, 320, 352
-0.965095, 97, 49, 224, 176
-0.965108, 313, 145, 376, 208
-0.965244, 185, 209, 248, 272
-0.965358, 233, 1, 296, 128
-0.965463, 321, 225, 448, 352
-0.965469, 369, 97, 432, 160
-0.965519, 249, 73, 312, 136
-0.965599, 345, 1, 408, 64
-0.965994, 1, 49, 128, 176
-0.966055, 97, 49, 160, 176
-0.96609, 89, 209, 152, 336
-0.966197, 393, 161, 456, 224
-0.966223, 313, 113, 376, 176
-0.966313, 177, 65, 240, 128
-0.966604, 345, 241, 408, 368
-0.966808, 105, 25, 168, 88
-0.966813, 169, 161, 232, 224
-0.966861, 185, 233, 248, 296
-0.966876, 209, 233, 272, 296
-0.966947, 17, 65, 80, 128
-0.967352, 433, 81, 496, 144
-0.96739, 17, 1, 80, 64
-0.96742, 345, 129, 408, 192
-0.967625, 145, 201, 176, 264
-0.967637, 129, 193, 256, 256
-0.967665, 177, 1, 240, 64
-0.967665, 393, 241, 456, 368
-0.967676, 433, 1, 496, 64
-0.967776, 73, 1, 136, 64
-0.967806, 433, 57, 496, 120
-0.967825, 217, 17, 280, 80
-0.967825, 193, 137, 256, 200
-0.967989, 217, 49, 280, 112
-0.968027, 185, 65, 248, 320
-0.968042, 41, 57, 104, 120
-0.968483, 433, 137, 496, 200
-0.968669, 289, 129, 352, 192
-0.968727, 197, 185, 228, 248
-0.968883, 305, 33, 368, 96
-0.968994, 129, 177, 192, 240
-0.969419, 217, 145, 280, 208
-0.969436, 425, 161, 488, 224
-0.969439, 65, 209, 192, 336
-0.969535, 353, 177, 416, 240
-0.969648, 49, 129, 176, 256
-0.969757, 297, 57, 360, 120
-0.969946, 73, 49, 136, 112
-0.96995, 137, 49, 200, 112
-0.97034, 405, 1, 436, 128
-0.970404, 257, 9, 320, 72
-0.970706, 209, 129, 272, 375
-0.970782, 361, 1, 392, 128
-0.970974, 217, 1, 280, 256
-0.971187, 289, 201, 352, 264
-0.97121, 17, 41, 80, 104
-0.971224, 409, 185, 472, 248
-0.971313, 393, 97, 456, 160
-0.971563, 81, 25, 144, 88
-0.97158, 9, 89, 72, 152
-0.971588, 313, 177, 376, 240
-0.971831, 377, 145, 440, 272
-0.972163, 177, 33, 240, 96
-0.972171, 397, 41, 428, 104
-0.972185, 225, 265, 288, 328
-0.972345, 205, 89, 236, 152
-0.972405, 33, 89, 96, 152
-0.97245, 305, 97, 368, 352
-0.972515, 361, 1, 392, 64
-0.972552, 41, 33, 104, 96
-0.972592, 369, 145, 432, 208
-0.972612, 297, 1, 360, 256
-0.972695, 193, 185, 320, 248
-0.972728, 381, 1, 412, 128
-0.972824, 409, 289, 472, 352
-0.972828, 445, 97, 476, 160
-0.972898, 305, 1, 432, 64
-0.972985, 313, 81, 376, 144
-0.973048, 173, 193, 204, 256
-0.973115, 461, 81, 492, 144
-0.973149, 281, 105, 344, 168
-0.973227, 97, 25, 224, 88
-0.973324, 129, 241, 256, 368
-0.973366, 145, 169, 272, 232
-0.973382, 241, 161, 368, 224
-0.973387, 417, 209, 480, 272
-0.973404, 109, 1, 140, 128
-0.973532, 249, 33, 312, 96
-0.973587, 369, 193, 496, 320
-0.973592, 217, 185, 248, 248
-0.973648, 313, 201, 376, 264
-0.973681, 393, 1, 424, 128
-0.973762, 113, 49, 176, 112
-0.973823, 425, 241, 488, 368
-0.973867, 413, 1, 444, 64
-0.973941, 41, 1, 104, 64
-0.974052, 433, 65, 496, 320
-0.974109, 221, 65, 252, 192
-0.97413, 249, 265, 312, 328
-0.974255, 185, 177, 216, 240
-0.974264, 377, 193, 440, 320
-0.974307, 113, 1, 240, 64
-0.974335, 401, 137, 464, 200
-0.974337, 361, 97, 424, 352
-0.974378, 325, 1, 356, 64
-0.974445, 113, 217, 240, 280
-0.974515, 465, 65, 496, 192
-0.97465, 241, 105, 368, 168
-0.974663, 225, 1, 352, 64
-0.97468, 221, 177, 252, 304
-0.974683, 57, 81, 120, 144
-0.974744, 145, 105, 208, 168
-0.974859, 329, 97, 360, 224
-0.974867, 41, 73, 72, 136
-0.974907, 33, 193, 96, 256
-0.974947, 385, 25, 416, 88
-0.975057, 205, 81, 236, 208
-0.975119, 385, 257, 448, 320
-0.975137, 257, 41, 384, 104
-0.975144, 313, 241, 376, 368
-0.975187, 329, 241, 392, 304
-0.975202, 281, 225, 344, 288
-0.975242, 369, 1, 432, 256
-0.975261, 273, 273, 336, 336
-0.975416, 453, 97, 484, 224
-0.975477, 449, 73, 480, 136
-0.97553, 321, 1, 352, 128
-0.97554, 201, 161, 232, 224
-0.975601, 105, 145, 168, 272
-0.975618, 209, 137, 336, 200
-0.975666, 113, 89, 176, 152
-0.975739, 429, 1, 460, 64
-0.975795, 105, 1, 168, 64
-0.975886, 329, 97, 392, 352
-0.975973, 161, 17, 288, 80
-0.975987, 401, 17, 432, 80
-0.97603, 385, 1, 416, 64
-0.976065, 97, 1, 160, 256
-0.976105, 337, 193, 400, 320
-0.976113, 265, 33, 328, 288
-0.976147, 205, 17, 236, 144
-0.976161, 233, 89, 264, 152
-0.976178, 293, 153, 324, 216
-0.976251, 121, 225, 184, 288
-0.976257, 237, 177, 268, 240
-0.976274, 337, 57, 400, 120
-0.976288, 465, 105, 496, 168
-0.976304, 193, 177, 224, 304
-0.976305, 257, 129, 320, 192
-0.97635, 221, 81, 252, 144
-0.976396, 245, 105, 276, 168
-0.976479, 205, 177, 236, 304
-0.976511, 161, 73, 288, 136
-0.976513, 305, 121, 432, 184
-0.976541, 237, 241, 268, 304
-0.976582, 305, 257, 368, 320
-0.976599, 241, 193, 368, 256
-0.976672, 1, 97, 64, 224
-0.976678, 133, 201, 164, 264
-0.976699, 417, 17, 448, 144
-0.976702, 185, 81, 216, 144
-0.976865, 353, 225, 416, 288
-0.97699, 281, 249, 344, 312
-0.977002, 241, 1, 304, 256
-0.977046, 413, 25, 444, 88
-0.977059, 153, 1, 216, 256
-0.977079, 241, 177, 272, 304
-0.97709, 313, 1, 344, 64
-0.977125, 193, 257, 256, 320
-0.97713, 225, 113, 256, 176
-0.977247, 129, 1, 192, 256
-0.977291, 161, 41, 288, 104
-0.977297, 65, 1, 192, 64
-0.9774, 385, 185, 448, 248
-0.977465, 137, 73, 200, 136
-0.977477, 157, 185, 188, 248
-0.977496, 137, 41, 168, 104
-0.9775, 433, 265, 496, 328
-0.97754, 409, 97, 472, 352
-0.977543, 433, 185, 496, 248
-0.977707, 309, 33, 340, 160
-0.977737, 369, 49, 496, 112
-0.977778, 133, 1, 164, 128
-0.977783, 289, 185, 416, 248
-0.977851, 1, 97, 128, 224
-0.977934, 121, 81, 184, 208
-0.977942, 329, 129, 360, 192
-0.977953, 145, 97, 272, 160
-0.978007, 45, 1, 76, 128
-0.978046, 285, 193, 316, 256
-0.978099, 73, 1, 104, 64
-0.978153, 161, 233, 224, 296
-0.978154, 193, 161, 320, 224
-0.978157, 353, 17, 480, 80
-0.97826, 345, 105, 376, 168
-0.978298, 61, 65, 92, 128
-0.978321, 301, 129, 332, 256
-0.978362, 397, 49, 428, 176
-0.978426, 305, 73, 432, 136
-0.978435, 153, 1, 184, 64
-0.9785, 205, 129, 236, 256
-0.978505, 437, 145, 468, 272
-0.978594, 365, 41, 396, 104
-0.978604, 337, 161, 368, 224
-0.978607, 97, 217, 160, 280
-0.978645, 237, 129, 268, 256
-0.97867, 213, 153, 244, 216
-0.978731, 345, 25, 376, 88
-0.978801, 361, 201, 424, 264
-0.978857, 17, 49, 144, 112
-0.978978, 309, 33, 340, 96
-0.978978, 217, 209, 248, 272
-0.978982, 97, 81, 224, 144
-0.979031, 233, 145, 264, 208
-0.97906, 369, 89, 496, 152
-0.979085, 201, 281, 264, 344
-0.979086, 369, 193, 496, 256
-0.97913, 345, 17, 376, 144
-0.97913, 233, 65, 264, 192
-0.979175, 221, 1, 252, 128
-0.979195, 209, 49, 336, 112
-0.979293, 373, 161, 404, 224
-0.979344, 441, 193, 472, 320
-0.97943, 289, 153, 416, 216
-0.97943, 145, 177, 176, 304
-0.979453, 409, 313, 472, 375
-0.979497, 333, 25, 364, 88
-0.979577, 41, 1, 104, 256
-0.979616, 173, 97, 204, 160
-0.979655, 161, 1, 192, 128
-0.979658, 293, 81, 324, 208
-0.979705, 457, 201, 488, 264
-0.979794, 301, 81, 332, 144
-0.979827, 61, 1, 92, 64
-0.979841, 369, 249, 496, 312
-0.979854, 361, 137, 392, 200
-0.979892, 241, 73, 368, 136
-0.979909, 89, 281, 152, 344
-0.979919, 369, 113, 496, 176
-0.979927, 305, 25, 432, 88
-0.979949, 65, 1, 96, 128
-0.979969, 121, 17, 152, 144
-0.980009, 297, 17, 328, 144
-0.980028, 145, 225, 208, 352
-0.980034, 193, 241, 320, 304
-0.980113, 73, 105, 136, 168
-0.980125, 1, 1, 128, 64
-0.980146, 245, 81, 276, 144
-0.980161, 177, 313, 240, 375
-0.980169, 469, 1, 500, 64
-0.980213, 377, 105, 408, 168
-0.980218, 393, 1, 456, 256
-0.980218, 273, 129, 336, 375
-0.980225, 321, 49, 448, 112
-0.980275, 297, 177, 328, 240
-0.980317, 225, 113, 256, 240
-0.980358, 105, 1, 136, 64
-0.980497, 441, 201, 472, 264
-0.98051, 9, 1, 72, 256
-0.980511, 221, 249, 252, 312
-0.980522, 441, 33, 472, 160
-0.980592, 341, 193, 372, 256
-0.980631, 377, 49, 408, 112
-0.980649, 257, 129, 384, 192
-0.9807, 21, 49, 52, 112
-0.980713, 17, 177, 144, 304
-0.980766, 237, 225, 268, 352
-0.98077, 273, 57, 336, 120
-0.980782, 281, 1, 344, 64
-0.980815, 281, 145, 312, 272
-0.980851, 117, 65, 148, 192
-0.980888, 9, 185, 72, 248
-0.980943, 433, 297, 496, 360
-0.981007, 453, 209, 484, 336
-0.981008, 453, 49, 484, 176
-0.981052, 365, 49, 396, 176
-0.981129, 309, 81, 340, 208
-0.981139, 145, 121, 272, 184
-0.981153, 205, 113, 236, 176
-0.981265, 125, 25, 156, 88
-0.981309, 33, 25, 160, 88
-0.981353, 341, 113, 372, 240
-0.981382, 105, 177, 168, 240
-0.981389, 249, 129, 312, 375
-0.981394, 321, 97, 448, 160
-0.981434, 461, 161, 492, 288
-0.981447, 333, 1, 364, 128
-0.981452, 9, 1, 40, 64
-0.981507, 461, 57, 492, 120
-0.981518, 81, 49, 208, 112
-0.981525, 193, 265, 320, 328
-0.981531, 249, 193, 280, 256
-0.981562, 397, 65, 428, 128
-0.981571, 385, 289, 448, 352
-0.981572, 321, 25, 352, 88
-0.981591, 57, 225, 120, 352
-0.981646, 65, 1, 128, 256
-0.981679, 61, 41, 92, 104
-0.981698, 209, 25, 336, 88
-0.981715, 137, 1, 168, 64
-0.981723, 241, 297, 304, 360
-0.981726, 65, 209, 192, 272
-0.981729, 193, 113, 224, 240
-0.981773, 433, 89, 464, 152
-0.98179, 97, 97, 160, 224
-0.981828, 377, 225, 440, 288
-0.981835, 197, 65, 228, 128
-0.981835, 381, 137, 412, 200
-0.981849, 261, 193, 292, 320
-0.981857, 237, 17, 268, 144
-0.981959, 153, 33, 184, 96
-0.982103, 429, 1, 460, 128
-0.982105, 453, 169, 484, 232
-0.98215, 381, 49, 412, 176
-0.982165, 9, 33, 40, 96
-0.982187, 213, 225, 244, 352
-0.982206, 125, 209, 156, 336
-0.982237, 297, 33, 328, 96
-0.982238, 361, 249, 424, 312
-0.982279, 161, 209, 192, 272
-0.982287, 41, 97, 104, 224
-0.982322, 205, 1, 236, 64
-0.98242, 193, 209, 320, 272
-0.98244, 125, 1, 156, 64
-0.982467, 241, 49, 272, 112
-0.982579, 345, 129, 376, 192
-0.982598, 253, 217, 284, 280
-0.982643, 177, 25, 208, 88
-0.982685, 241, 265, 368, 328
-0.982686, 441, 81, 472, 208
-0.982708, 313, 129, 344, 256
-0.982724, 433, 137, 464, 200
-0.98274, 145, 33, 176, 160
-0.982752, 337, 145, 464, 208
-0.982777, 269, 1, 300, 128
-0.982794, 85, 9, 116, 72
-0.9828, 373, 17, 404, 80
-0.982812, 233, 217, 264, 280
-0.982867, 365, 105, 396, 168
-0.982872, 189, 1, 220, 128
-0.982888, 381, 113, 412, 240
-0.982892, 281, 153, 312, 216
-0.982898, 97, 1, 128, 128
-0.982907, 309, 137, 340, 200
-0.98292, 169, 177, 200, 304
-0.982921, 369, 241, 432, 368
-0.98294, 65, 177, 192, 240
-0.982949, 17, 177, 80, 304
-0.98302, 325, 89, 356, 152
-0.98305, 385, 177, 416, 240
-0.983056, 169, 129, 200, 256
-0.983059, 337, 281, 464, 344
-0.983074, 433, 65, 464, 128
-0.983103, 353, 129, 384, 256
-0.983118, 453, 121, 484, 184
-0.983132, 365, 65, 396, 128
-0.983192, 297, 113, 328, 176
-0.983219, 33, 17, 64, 144
-0.983264, 161, 129, 224, 375
-0.983384, 21, 33, 52, 160
-0.983404, 185, 105, 216, 168
-0.983405, 169, 169, 200, 232
-0.983416, 97, 153, 224, 216
-0.983471, 469, 113, 500, 240
-0.9835, 245, 65, 276, 192
-0.983522, 325, 49, 356, 176
-0.983522, 353, 65, 384, 192
-0.983567, 469, 129, 500, 192
-0.983593, 441, 169, 472, 232
-0.983599, 17, 225, 144, 352
-0.983611, 465, 17, 496, 144
-0.983698, 165, 33, 196, 96
-0.983719, 385, 129, 448, 375
-0.983721, 341, 81, 372, 144
-0.983725, 117, 73, 148, 136
-0.98377, 357, 177, 388, 240
-0.983837, 17, 81, 144, 144
-0.983883, 261, 41, 292, 104
-0.983884, 209, 65, 240, 128
-0.983895, 381, 81, 412, 144
-0.98394, 185, 201, 216, 264
-0.983993, 205, 233, 236, 296
-0.984027, 193, 113, 320, 176
-0.984046, 229, 17, 260, 80
-0.984069, 353, 281, 384, 344
-0.98408, 129, 97, 192, 352
-0.984115, 273, 225, 400, 288
-0.984158, 405, 241, 436, 304
-0.984174, 369, 169, 496, 232
-0.984214, 341, 65, 372, 192
-0.984328, 201, 209, 232, 272
-0.984354, 181, 153, 212, 216
-0.984422, 41, 49, 72, 112
-0.984469, 105, 25, 136, 88
-0.984477, 449, 145, 480, 272
-0.984479, 249, 9, 280, 72
-0.984487, 145, 257, 272, 320
-0.984512, 77, 33, 108, 96
-0.984665, 97, 105, 224, 168
-0.984678, 349, 57, 380, 120
-0.984684, 337, 1, 368, 64
-0.984713, 321, 57, 352, 120
-0.984744, 309, 113, 340, 176
-0.984854, 97, 97, 160, 352
-0.984869, 321, 185, 352, 248
-0.984892, 321, 249, 448, 312
-0.984892, 41, 97, 72, 160
-0.984986, 181, 177, 212, 304
-0.985005, 161, 89, 192, 152
-0.985021, 41, 177, 104, 304
-0.985062, 469, 217, 500, 280
-0.985077, 65, 97, 128, 352
-0.985103, 257, 1, 320, 375
-0.985117, 321, 209, 448, 272
-0.985163, 269, 1, 300, 64
-0.985166, 409, 225, 440, 352
-0.985195, 81, 1, 112, 128
-0.985333, 81, 161, 144, 288
-0.985407, 17, 185, 144, 248
-0.985467, 421, 225, 452, 352
-0.985638, 313, 1, 376, 375
-0.985669, 177, 1, 208, 128
-0.985699, 73, 113, 136, 240
-0.985872, 261, 145, 292, 272
-0.985935, 161, 49, 192, 176
-0.985941, 429, 65, 460, 192
-0.985962, 281, 1, 344, 375
-0.98598, 281, 33, 312, 160
-0.98601, 225, 241, 256, 368
-0.986017, 393, 1, 456, 375
-0.986034, 53, 49, 84, 176
-0.986036, 209, 1, 272, 375
-0.986101, 249, 129, 280, 256
-0.986106, 409, 65, 440, 192
-0.986108, 341, 225, 372, 352
-0.986273, 233, 1, 296, 375
-0.9863, 369, 313, 496, 375
-0.986375, 129, 1, 192, 375
-0.986401, 289, 281, 416, 344
-0.986405, 365, 97, 396, 224
-0.986407, 257, 1, 288, 128
-0.986456, 129, 65, 160, 192
-0.986483, 97, 273, 224, 336
-0.986501, 189, 49, 220, 176
-0.986683, 397, 97, 428, 224
-0.986748, 141, 129, 172, 256
-0.986802, 329, 145, 360, 272
-0.986809, 145, 145, 272, 208
-0.98696, 353, 1, 416, 375
-0.987059, 105, 49, 136, 176
-0.987152, 361, 209, 392, 336
-0.987156, 105, 1, 168, 375
-0.987194, 49, 1, 112, 375
-0.987338, 181, 97, 212, 224
-0.987345, 425, 177, 456, 304
-0.987352, 193, 289, 320, 352
-0.987414, 253, 241, 284, 368
-0.987462, 161, 1, 224, 375
-0.987625, 417, 1, 480, 375
-0.987656, 469, 241, 500, 368
-0.987669, 185, 1, 248, 375
-0.987759, 81, 129, 208, 192
-0.98782, 129, 201, 384, 264
-0.987821, 277, 97, 308, 224
-0.987908, 129, 209, 192, 240
-0.987921, 169, 197, 232, 228
-0.98795, 369, 217, 496, 280
-0.988069, 453, 1, 484, 128
-0.988102, 289, 193, 320, 320
-0.988144, 1, 1, 32, 128
-0.988228, 313, 177, 344, 304
-0.988398, 389, 177, 420, 304
-0.98844, 81, 49, 112, 176
-0.988503, 193, 189, 256, 220
-0.988529, 157, 177, 188, 304
-0.988731, 193, 313, 320, 375
-0.988772, 385, 25, 448, 56
-0.988885, 433, 89, 496, 120
-0.988887, 409, 97, 472, 128
-0.98892, 313, 1, 376, 32
-0.988924, 353, 17, 416, 48
-0.988946, 201, 225, 232, 352
-0.988978, 373, 209, 404, 336
-0.988991, 341, 161, 372, 288
-0.989007, 145, 197, 208, 228
-0.989065, 421, 129, 452, 256
-0.989081, 121, 221, 184, 252
-0.989089, 329, 209, 360, 336
-0.989126, 33, 65, 64, 192
-0.989154, 409, 17, 472, 48
-0.989179, 377, 37, 440, 68
-0.98922, 169, 213, 232, 244
-0.989226, 257, 313, 384, 375
-0.989254, 217, 197, 280, 228
-0.989269, 401, 1, 464, 32
-0.989347, 313, 21, 376, 52
-0.989348, 353, 1, 416, 32
-0.989394, 433, 21, 496, 52
-0.989437, 105, 37, 168, 68
-0.989479, 65, 233, 192, 296
-0.989486, 393, 49, 456, 80
-0.989493, 177, 89, 240, 120
-0.989501, 101, 209, 132, 336
-0.989527, 397, 241, 428, 368
-0.989538, 201, 97, 264, 128
-0.989554, 289, 125, 352, 156
-0.989555, 25, 1, 88, 375
-0.989571, 17, 105, 144, 168
-0.989617, 433, 77, 496, 108
-0.98964, 153, 41, 216, 72
-0.989656, 249, 189, 312, 220
-0.989673, 193, 209, 256, 240
-0.989701, 289, 181, 352, 212
-0.989706, 377, 1, 440, 32
-0.989714, 321, 41, 384, 72
-0.989752, 297, 145, 360, 176
-0.989756, 405, 145, 436, 272
-0.989766, 209, 261, 272, 292
-0.989766, 201, 169, 264, 200
-0.989774, 201, 229, 264, 260
-0.98979, 273, 241, 304, 368
-0.989807, 113, 209, 144, 336
-0.989841, 233, 209, 296, 240
-0.989844, 425, 1, 488, 32
-0.989861, 409, 201, 472, 232
-0.989866, 73, 37, 136, 68
-0.989881, 121, 49, 184, 80
-0.989882, 273, 169, 336, 200
-0.989889, 249, 49, 312, 80
-0.98989, 241, 261, 304, 292
-0.989899, 169, 181, 232, 212
-0.989902, 433, 61, 496, 92
-0.989909, 41, 97, 104, 352
-0.98991, 409, 85, 472, 116
-0.989923, 289, 105, 352, 136
-0.989934, 353, 45, 416, 76
-0.989938, 377, 13, 440, 44
-0.989943, 33, 281, 160, 344
-0.990001, 145, 29, 208, 60
-0.990014, 233, 245, 296, 276
-0.990026, 273, 33, 336, 64
-0.990045, 257, 121, 320, 152
-0.990057, 161, 225, 224, 256
-0.99007, 145, 305, 272, 368
-0.990071, 297, 45, 360, 76
-0.990071, 417, 213, 480, 244
-0.990096, 217, 77, 280, 108
-0.990105, 209, 241, 272, 272
-0.990108, 261, 49, 292, 176
-0.990134, 201, 109, 264, 140
-0.990152, 289, 89, 352, 120
-0.990161, 121, 1, 184, 32
-0.990181, 81, 25, 144, 56
-0.990181, 409, 29, 472, 60
-0.990195, 225, 177, 288, 208
-0.990221, 361, 121, 424, 152
-0.990237, 169, 5, 232, 36
-0.990237, 81, 1, 144, 375
-0.990259, 433, 105, 496, 136
-0.990261, 177, 77, 240, 108
-0.990261, 385, 189, 448, 220
-0.990264, 93, 49, 124, 176
-0.990278, 153, 225, 184, 352
-0.990298, 201, 21, 264, 52
-0.990315, 433, 117, 496, 148
-0.990317, 297, 33, 360, 64
-0.990325, 273, 49, 336, 80
-0.990337, 65, 49, 96, 176
-0.990347, 89, 293, 152, 324
-0.99035, 289, 1, 352, 32
-0.990355, 249, 101, 312, 132
-0.990357, 129, 17, 192, 48
-0.990379, 433, 193, 496, 224
-0.990379, 385, 121, 448, 152
-0.99039, 289, 193, 352, 224
-0.990399, 361, 61, 424, 92
-0.990402, 289, 65, 352, 96
-0.990416, 321, 129, 384, 160
-0.990421, 425, 137, 488, 168
-0.990443, 353, 29, 416, 60
-0.990445, 345, 105, 408, 136
-0.990459, 5, 49, 36, 176
-0.990465, 329, 57, 392, 88
-0.990466, 217, 137, 280, 168
-0.990471, 177, 49, 208, 176
-0.990479, 33, 189, 96, 220
-0.990481, 193, 37, 256, 68
-0.990502, 177, 25, 240, 56
-0.990514, 217, 65, 280, 96
-0.990514, 433, 149, 496, 180
-0.990522, 257, 41, 500, 104
-0.990526, 121, 241, 184, 368
-0.990532, 385, 97, 448, 128
-0.990545, 401, 73, 464, 104
-0.990561, 49, 17, 112, 48
-0.990585, 337, 185, 400, 216
-0.990592, 153, 101, 216, 132
-0.990593, 361, 93, 424, 124
-0.9906, 225, 1, 288, 32
-0.990606, 257, 133, 320, 164
-0.990621, 41, 113, 72, 240
-0.990623, 233, 33, 296, 64
-0.990632, 17, 1, 80, 32
-0.990645, 49, 45, 112, 76
-0.990646, 17, 33, 80, 64
-0.990647, 257, 69, 320, 100
-0.990674, 401, 157, 464, 188
-0.990676, 257, 85, 320, 116
-0.990677, 313, 113, 376, 144
-0.990686, 393, 289, 456, 320
-0.990698, 257, 1, 500, 64
-0.990704, 345, 145, 408, 176
-0.990726, 361, 173, 424, 204
-0.990733, 161, 113, 416, 176
-0.990754, 345, 133, 408, 164
-0.990767, 233, 165, 296, 196
-0.990772, 113, 101, 176, 132
-0.990806, 409, 113, 472, 144
-0.99081, 113, 185, 176, 216
-0.990817, 1, 189, 64, 220
-0.990826, 305, 161, 368, 192
-0.990876, 177, 169, 240, 200
-0.990877, 105, 17, 168, 48
-0.990884, 265, 157, 328, 188
-0.990884, 145, 185, 208, 216
-0.990889, 393, 177, 456, 208
-0.990895, 401, 145, 464, 176
-0.990895, 113, 61, 176, 92
-0.990898, 273, 21, 336, 52
-0.990898, 369, 109, 432, 140
-0.990905, 313, 269, 376, 300
-0.990918, 369, 145, 400, 272
-0.990923, 385, 225, 448, 256
-0.990924, 249, 273, 312, 304
-0.990942, 17, 129, 80, 375
-0.990966, 305, 313, 432, 375
-0.990993, 241, 289, 368, 352
-0.991032, 225, 89, 480, 152
-0.991112, 157, 129, 188, 256
-0.991282, 97, 81, 352, 144
-0.991429, 225, 65, 480, 128
-0.991478, 257, 113, 500, 176
-0.991588, 1, 41, 500, 104
-0.991623, 257, 169, 500, 232
-0.991708, 433, 241, 464, 368
-0.991732, 125, 145, 156, 272
-0.991852, 97, 177, 352, 240
-0.991913, 1, 1, 500, 64
-0.991975, 221, 193, 252, 224
-0.992049, 461, 101, 492, 132
-0.992105, 409, 29, 440, 60
-0.992169, 153, 205, 184, 236
-0.99219, 373, 5, 404, 36
-0.992222, 469, 113, 500, 144
-0.992229, 461, 89, 492, 120
-0.992253, 365, 37, 396, 68
-0.992278, 133, 209, 164, 240
-0.992301, 193, 193, 224, 224
-0.992307, 373, 49, 404, 80
-0.992311, 385, 21, 416, 52
-0.992316, 449, 97, 480, 128
-0.992326, 33, 225, 288, 288
-0.992343, 321, 29, 352, 60
-0.99236, 405, 41, 436, 72
-0.992366, 361, 21, 392, 52
-0.992368, 97, 41, 352, 104
-0.992372, 389, 37, 420, 68
-0.992374, 441, 85, 472, 116
-0.992392, 353, 37, 384, 68
-0.992394, 325, 1, 356, 32
-0.992397, 201, 181, 232, 212
-0.992409, 457, 205, 488, 236
-0.992427, 225, 205, 256, 236
-0.992441, 209, 193, 240, 224
-0.992455, 233, 177, 264, 208
-0.992478, 429, 1, 460, 32
-0.992479, 413, 17, 444, 48
-0.992492, 165, 209, 196, 240
-0.992496, 189, 181, 220, 212
-0.992498, 237, 253, 268, 284
-0.9925, 201, 93, 232, 124
-0.992502, 341, 33, 372, 64
-0.992517, 217, 217, 248, 248
-0.992517, 309, 45, 340, 76
-0.99252, 181, 197, 212, 228
-0.992524, 5, 1, 36, 32
-0.992525, 161, 9, 416, 72
-0.992542, 345, 49, 376, 80
-0.992544, 209, 105, 240, 136
-0.99255, 397, 25, 428, 56
-0.992556, 233, 189, 264, 220
-0.992559, 373, 21, 404, 52
-0.992566, 397, 13, 428, 44
-0.992567, 245, 193, 276, 224
-0.992568, 241, 241, 272, 272
-0.992571, 393, 49, 424, 80
-0.992588, 453, 341, 484, 372
-0.992592, 153, 217, 184, 248
-0.992594, 221, 81, 252, 112
-0.992596, 145, 45, 176, 76
-0.992606, 237, 205, 268, 236
-0.992616, 445, 165, 476, 196
-0.992618, 157, 33, 188, 64
-0.992628, 161, 193, 192, 224
-0.992638, 101, 289, 132, 320
-0.992652, 81, 1, 112, 32
-0.992662, 469, 1, 500, 32
-0.992663, 201, 205, 232, 236
-0.992668, 309, 33, 340, 64
-0.992675, 1, 193, 256, 256
-0.992679, 361, 49, 392, 80
-0.99268, 133, 25, 164, 56
-0.992684, 213, 169, 244, 200
-0.992685, 401, 117, 432, 148
-0.992685, 225, 261, 256, 292
-0.992686, 397, 1, 428, 32
-0.992691, 381, 69, 412, 100
-0.992693, 293, 105, 324, 136
-0.992694, 245, 97, 276, 128
-0.992697, 229, 241, 260, 272
-0.992698, 377, 33, 408, 64
-0.992699, 309, 117, 340, 148
-0.9927, 357, 9, 388, 40
-0.9927, 381, 117, 412, 148
-0.992702, 301, 157, 332, 188
-0.992711, 281, 45, 312, 76
-0.992712, 233, 129, 264, 160
-0.992713, 33, 189, 64, 220
-0.992714, 377, 97, 408, 128
-0.992715, 25, 1, 56, 32
-0.992715, 341, 141, 372, 172
-0.992721, 249, 205, 280, 236
-0.992722, 153, 1, 184, 32
-0.992729, 425, 33, 456, 64
-0.992735, 197, 1, 228, 32
-0.992744, 213, 181, 244, 212
-0.992744, 333, 21, 364, 52
-0.99275, 449, 113, 480, 144
-0.992752, 69, 41, 100, 72
-0.992754, 141, 221, 172, 252
-0.992755, 417, 1, 448, 32
-0.992756, 229, 105, 260, 136
-0.992756, 53, 1, 84, 32
-0.992757, 49, 185, 80, 216
-0.992757, 345, 21, 376, 52
-0.992758, 241, 85, 272, 116
-0.99276, 141, 13, 172, 44
-0.992761, 453, 177, 484, 208
-0.992762, 321, 153, 352, 184
-0.992764, 329, 129, 360, 160
-0.992765, 365, 133, 396, 164
-0.992765, 329, 105, 360, 136
-0.992765, 381, 177, 412, 208
-0.992766, 281, 201, 312, 232
-0.992766, 445, 149, 476, 180
-0.992767, 245, 137, 276, 168
-0.992768, 173, 9, 204, 40
-0.992769, 441, 197, 472, 228
-0.992769, 13, 33, 44, 64
-0.99277, 233, 117, 264, 148
-0.992772, 65, 25, 96, 56
-0.992773, 217, 229, 248, 260
-0.992781, 53, 65, 84, 96
-0.992783, 289, 157, 320, 188
-0.992785, 293, 77, 324, 108
-0.992785, 449, 17, 480, 48
-0.992786, 321, 181, 352, 212
-0.992787, 329, 49, 360, 80
-0.992793, 261, 41, 292, 72
-0.992796, 81, 37, 112, 68
-0.992798, 317, 13, 348, 44
-0.992805, 297, 33, 328, 64
-0.992806, 265, 201, 296, 232
-0.992809, 53, 29, 84, 60
-0.99281, 293, 189, 324, 220
-0.992812, 193, 17, 224, 48
-0.992814, 41, 73, 72, 104
-0.992818, 17, 49, 48, 80
-0.99282, 293, 49, 324, 80
-0.992822, 129, 9, 160, 40
-0.992822, 365, 105, 396, 136
-0.992824, 125, 221, 156, 252
-0.992884, 113, 213, 240, 244
-0.992922, 225, 201, 480, 264
-0.992993, 145, 201, 272, 232
-0.993016, 321, 45, 448, 76
-0.99311, 1, 89, 256, 152
-0.993126, 225, 185, 240, 248
-0.993218, 1, 33, 256, 96
-0.993293, 161, 225, 416, 288
-0.993295, 17, 209, 144, 272
-0.993344, 455, 89, 470, 152
-0.993361, 33, 305, 160, 368
-0.993394, 177, 189, 304, 220
-0.993403, 97, 265, 352, 328
-0.993423, 217, 193, 232, 256
-0.993492, 33, 137, 160, 200
-0.993552, 273, 33, 400, 64
-0.993567, 147, 201, 162, 264
-0.99365, 257, 225, 500, 288
-0.99371, 153, 201, 168, 264
-0.993718, 161, 97, 288, 128
-0.993722, 409, 17, 424, 80
-0.993733, 353, 17, 480, 48
-0.993763, 1, 161, 500, 224
-0.993778, 97, 305, 224, 368
-0.993835, 205, 169, 220, 232
-0.993844, 211, 177, 226, 240
-0.993902, 1, 57, 256, 120
-0.993932, 321, 29, 448, 60
-0.993942, 469, 97, 484, 160
-0.99396, 427, 1, 442, 64
-0.993962, 241, 101, 368, 132
-0.993999, 291, 169, 306, 232
-0.994045, 403, 33, 418, 96
-0.994061, 65, 137, 320, 200
-0.994078, 379, 33, 394, 96
-0.994082, 475, 105, 490, 168
-0.994087, 163, 201, 178, 264
-0.99411, 257, 249, 500, 312
-0.99413, 257, 97, 272, 160
-0.994143, 65, 9, 320, 72
-0.994144, 353, 1, 480, 32
-0.994145, 1, 1, 64, 375
-0.994221, 417, 17, 432, 80
-0.994232, 461, 97, 476, 160
-0.994241, 233, 153, 248, 216
-0.99426, 49, 257, 176, 320
-0.994264, 367, 9, 382, 72
-0.994282, 1, 193, 500, 256
-0.994295, 225, 121, 240, 184
-0.994298, 219, 89, 234, 152
-0.9943, 1, 169, 256, 232
-0.994308, 235, 105, 250, 168
-0.994331, 321, 57, 448, 88
-0.994353, 129, 9, 256, 40
-0.994381, 485, 1, 500, 64
-0.994404, 369, 41, 496, 72
-0.994415, 409, 41, 424, 104
-0.994422, 193, 273, 448, 336
-0.994435, 193, 185, 208, 248
-0.99445, 463, 177, 478, 240
-0.994462, 305, 1, 432, 32
-0.994466, 347, 113, 362, 176
-0.994471, 81, 9, 208, 40
-0.994504, 257, 145, 500, 208
-0.994516, 299, 153, 314, 216
-0.994525, 369, 101, 496, 132
-0.994536, 333, 1, 348, 64
-0.994537, 145, 281, 272, 344
-0.99456, 237, 81, 252, 144
-0.994579, 139, 201, 154, 264
-0.994674, 241, 53, 368, 84
-0.994695, 1, 65, 500, 128
-0.994703, 147, 41, 162, 104
-0.994723, 353, 177, 480, 208
-0.994729, 209, 77, 336, 108
-0.994735, 199, 169, 214, 232
-0.994748, 113, 177, 240, 208
-0.994748, 313, 153, 328, 216
-0.99475, 355, 97, 370, 160
-0.994766, 211, 201, 226, 264
-0.994776, 201, 193, 216, 256
-0.99479, 251, 233, 266, 296
-0.994792, 225, 89, 240, 152
-0.994812, 193, 209, 320, 240
-0.994823, 327, 1, 342, 64
-0.994828, 369, 29, 496, 60
-0.994829, 459, 201, 474, 264
-0.994835, 291, 193, 306, 256
-0.994839, 399, 9, 414, 72
-0.994841, 465, 73, 480, 136
-0.994863, 205, 89, 220, 152
-0.994871, 213, 97, 228, 160
-0.994883, 289, 117, 416, 148
-0.994895, 289, 101, 416, 132
-0.994902, 361, 1, 376, 64
-0.994947, 215, 65, 230, 128
-0.994956, 81, 25, 208, 56
-0.994957, 251, 185, 266, 248
-0.994958, 257, 185, 272, 248
-0.994958, 305, 13, 432, 44
-0.994968, 129, 189, 256, 220
-0.994985, 193, 237, 320, 268
-0.994985, 355, 25, 370, 88
-0.994986, 231, 177, 246, 240
-0.994988, 391, 41, 406, 104
-0.994991, 1, 105, 500, 168
-0.994994, 241, 233, 256, 296
-0.995003, 129, 109, 256, 140
-0.995005, 447, 97, 462, 160
-0.995012, 371, 49, 386, 112
-0.995028, 1, 41, 128, 72
-0.99503, 161, 81, 288, 112
-0.995031, 241, 113, 368, 144
-0.995039, 289, 153, 416, 184
-0.995047, 369, 141, 496, 172
-0.995052, 113, 225, 240, 256
-0.995053, 339, 129, 354, 192
-0.995073, 439, 1, 454, 64
-0.995073, 239, 177, 254, 240
-0.995085, 247, 89, 262, 152
-0.995096, 483, 121, 498, 184
-0.9951, 313, 25, 328, 88
-0.995104, 433, 1, 448, 64
-0.995109, 15, 1, 30, 64
-0.995124, 381, 9, 396, 72
-0.995125, 1, 1, 16, 64
-0.995125, 75, 1, 90, 64
-0.995129, 303, 129, 318, 192
-0.995129, 1, 113, 256, 176
-0.995139, 381, 65, 396, 128
-0.995145, 259, 121, 274, 184
-0.995161, 161, 153, 416, 216
-0.995163, 1, 217, 500, 280
-0.995174, 339, 1, 354, 64
-0.995179, 361, 25, 376, 88
-0.995185, 225, 181, 352, 212
-0.995193, 345, 161, 360, 224
-0.995197, 241, 113, 256, 176
-0.995215, 369, 117, 496, 148
-0.995228, 217, 1, 232, 64
-0.995244, 453, 65, 468, 128
-0.995248, 161, 37, 288, 68
-0.995268, 247, 209, 262, 272
-0.995269, 233, 209, 248, 272
-0.995272, 209, 89, 336, 120
-0.995272, 465, 201, 480, 264
-0.995276, 379, 89, 394, 152
-0.995282, 369, 57, 496, 88
-0.995284, 289, 165, 416, 196
-0.995286, 253, 209, 268, 272
-0.995296, 245, 65, 260, 128
-0.995298, 369, 201, 496, 232
-0.995312, 175, 185, 190, 248
-0.995314, 289, 177, 416, 208
-0.995316, 157, 1, 172, 64
-0.995321, 113, 97, 240, 128
-0.99533, 193, 109, 320, 140
-0.995333, 177, 1, 304, 32
-0.995349, 321, 1, 336, 64
-0.99535, 1, 225, 64, 352
-0.99535, 223, 65, 238, 128
-0.995353, 335, 185, 350, 248
-0.995361, 217, 161, 232, 224
-0.995364, 471, 73, 486, 136
-0.995376, 255, 41, 270, 104
-0.995385, 151, 9, 166, 72
-0.995398, 389, 89, 404, 152
-0.995416, 447, 65, 462, 128
-0.99542, 225, 145, 352, 176
-0.995421, 231, 57, 246, 120
-0.995427, 225, 5, 352, 36
-0.995432, 353, 81, 480, 112
-0.995436, 429, 25, 444, 88
-0.995437, 373, 25, 388, 88
-0.995445, 485, 41, 500, 104
-0.995469, 415, 57, 430, 120
-0.995469, 395, 169, 410, 232
-0.99547, 323, 177, 338, 240
-0.995473, 163, 225, 178, 288
-0.995474, 393, 1, 408, 64
-0.995486, 349, 33, 364, 96
-0.995503, 193, 89, 208, 152
-0.995504, 283, 201, 298, 264
-0.995506, 169, 209, 184, 272
-0.99551, 261, 73, 276, 136
-0.995513, 245, 169, 260, 232
-0.99552, 421, 41, 436, 104
-0.995523, 179, 89, 194, 152
-0.995529, 153, 41, 168, 104
-0.995534, 459, 65, 474, 128
-0.995538, 305, 153, 320, 216
-0.995542, 307, 49, 322, 112
-0.995545, 133, 209, 148, 272
-0.995547, 79, 33, 94, 96
-0.995551, 297, 201, 312, 264
-0.995561, 65, 217, 192, 248
-0.995567, 1, 257, 128, 320
-0.995569, 381, 121, 396, 184
-0.995575, 1, 25, 128, 56
-0.995585, 261, 1, 276, 64
-0.995585, 65, 189, 192, 220
-0.995591, 209, 41, 336, 72
-0.995601, 301, 177, 316, 240
-0.995606, 243, 145, 258, 208
-0.995607, 221, 217, 236, 280
-0.995616, 199, 81, 214, 144
-0.995617, 161, 221, 288, 252
-0.995619, 371, 137, 386, 200
-0.99562, 145, 237, 272, 268
-0.99562, 119, 25, 134, 88
-0.995624, 321, 129, 448, 160
-0.99563, 283, 177, 298, 240
-0.995633, 209, 65, 224, 128
-0.995637, 483, 97, 498, 160
-0.995641, 279, 249, 294, 312
-0.995648, 161, 69, 288, 100
-0.995653, 193, 121, 320, 152
-0.995656, 49, 65, 176, 96
-0.995693, 289, 69, 416, 100
-0.995697, 49, 41, 176, 72
-0.995704, 145, 141, 272, 172
-0.995706, 113, 85, 240, 116
-0.995762, 257, 21, 384, 52
-0.995763, 209, 21, 336, 52
-0.995769, 97, 201, 224, 232
-0.995774, 321, 217, 448, 248
-0.995783, 225, 273, 352, 304
-0.995786, 193, 253, 320, 284
-0.995794, 1, 161, 128, 224
-0.995809, 129, 53, 256, 84
-0.995815, 161, 177, 288, 208
-0.99584, 273, 197, 400, 228
-0.995843, 145, 121, 272, 152
-0.995854, 369, 345, 496, 375
-0.995867, 373, 1, 404, 256
-0.995903, 369, 161, 496, 192
-0.995909, 225, 157, 352, 188
-0.995929, 177, 153, 304, 184
-0.995934, 209, 221, 336, 252
-0.99596, 1, 13, 128, 44
-0.996006, 241, 65, 368, 96
-0.996021, 369, 189, 496, 220
-0.996022, 353, 281, 480, 312
-0.996054, 209, 169, 336, 200
-0.996099, 25, 225, 88, 352
-0.996114, 321, 261, 448, 292
-0.996117, 273, 273, 400, 304
-0.996169, 205, 33, 236, 288
-0.996169, 161, 25, 288, 56
-0.996183, 289, 89, 416, 120
-0.996205, 353, 1, 384, 256
-0.996305, 65, 105, 192, 136
-0.996321, 1, 53, 128, 84
-0.996326, 337, 229, 464, 260
-0.996333, 225, 193, 352, 224
-0.996336, 369, 253, 496, 284
-0.996362, 241, 133, 368, 164
-0.996365, 321, 189, 448, 220
-0.996428, 17, 189, 144, 220
-0.996433, 17, 77, 144, 108
-0.996455, 225, 97, 256, 352
-0.996463, 193, 57, 320, 88
-0.996488, 465, 1, 496, 256
-0.996513, 193, 305, 448, 368
-0.996577, 225, 189, 240, 220
-0.996592, 369, 69, 496, 100
-0.996622, 369, 129, 496, 160
-0.996637, 113, 41, 240, 72
-0.996637, 297, 1, 328, 256
-0.996638, 369, 213, 496, 244
-0.996643, 413, 25, 428, 56
-0.996645, 257, 233, 384, 264
-0.996647, 321, 141, 448, 172
-0.996663, 177, 301, 304, 332
-0.996673, 33, 1, 160, 32
-0.996693, 97, 161, 224, 192
-0.996698, 81, 149, 208, 180
-0.996704, 65, 85, 192, 116
-0.996745, 257, 209, 384, 240
-0.996768, 369, 329, 496, 360
-0.996773, 337, 1, 368, 256
-0.996788, 165, 205, 180, 236
-0.996805, 449, 1, 480, 256
-0.996805, 81, 53, 208, 84
-0.996805, 33, 289, 288, 352
-0.996809, 1, 265, 500, 328
-0.996814, 225, 1, 256, 256
-0.996821, 1, 93, 128, 124
-0.99683, 197, 129, 228, 375
-0.996836, 33, 205, 160, 236
-0.996856, 145, 257, 272, 288
-0.996858, 471, 113, 486, 144
-0.996866, 305, 293, 432, 324
-0.996866, 309, 1, 340, 256
-0.996867, 207, 185, 222, 216
-0.996875, 145, 165, 272, 196
-0.996915, 49, 177, 176, 208
-0.996919, 467, 97, 482, 128
-0.996919, 257, 221, 384, 252
-0.996925, 333, 97, 364, 352
-0.996933, 65, 129, 192, 160
-0.996942, 367, 37, 382, 68
-0.996961, 97, 293, 224, 324
-0.996966, 321, 249, 448, 280
-0.996985, 331, 1, 346, 32
-0.996998, 133, 1, 164, 256
-0.997007, 241, 249, 368, 280
-0.997008, 245, 33, 276, 288
-0.997022, 269, 1, 300, 256
-0.997033, 321, 201, 448, 232
-0.997055, 193, 33, 224, 288
-0.997073, 357, 33, 372, 64
-0.997089, 33, 293, 160, 324
-0.997091, 113, 345, 240, 375
-0.997093, 113, 65, 240, 96
-0.997102, 1, 65, 128, 96
-0.997102, 445, 89, 460, 120
-0.997102, 159, 205, 174, 236
-0.997102, 469, 97, 500, 352
-0.99711, 227, 205, 242, 236
-0.997116, 193, 133, 320, 164
-0.997123, 453, 97, 468, 128
-0.997135, 273, 261, 400, 292
-0.997157, 215, 197, 230, 228
-0.997165, 237, 129, 268, 375
-0.997172, 149, 209, 164, 240
-0.997188, 375, 1, 390, 32
-0.997201, 375, 29, 390, 60
-0.997205, 155, 37, 170, 68
-0.997219, 235, 193, 250, 224
-0.997227, 215, 101, 230, 132
-0.99723, 467, 337, 482, 368
-0.99724, 321, 41, 336, 72
-0.997244, 345, 97, 376, 352
-0.997249, 23, 33, 38, 64
-0.997259, 401, 17, 416, 48
-0.997269, 407, 33, 422, 64
-0.997281, 219, 1, 234, 32
-0.997287, 385, 41, 400, 72
-0.997305, 455, 85, 470, 116
-0.99731, 407, 165, 422, 196
-0.997311, 379, 41, 394, 72
-0.997314, 353, 297, 480, 328
-0.997322, 381, 1, 396, 32
-0.997327, 367, 9, 382, 40
-0.997328, 199, 193, 214, 224
-0.997332, 221, 205, 236, 236
-0.99734, 165, 217, 180, 248
-0.997344, 9, 1, 40, 256
-0.997351, 479, 105, 494, 136
-0.997356, 461, 93, 476, 124
-0.997359, 145, 1, 176, 256
-0.997369, 415, 41, 430, 72
-0.997372, 399, 65, 414, 96
-0.997384, 463, 201, 478, 232
-0.997386, 213, 1, 228, 32
-0.997389, 351, 33, 366, 64
-0.997392, 387, 21, 402, 52
-0.997393, 209, 109, 224, 140
-0.997393, 403, 45, 418, 76
-0.997402, 375, 13, 390, 44
-0.997407, 251, 97, 266, 128
-0.99741, 419, 17, 434, 48
-0.99743, 191, 197, 206, 228
-0.997441, 357, 97, 388, 352
-0.997441, 281, 33, 312, 288
-0.997444, 327, 29, 342, 60
-0.997449, 137, 209, 152, 240
-0.997453, 25, 1, 56, 256
-0.997455, 337, 29, 352, 60
-0.997457, 15, 25, 30, 56
-0.997467, 393, 49, 408, 80
-0.997468, 183, 93, 198, 124
-0.997476, 359, 21, 374, 52
-0.997476, 213, 13, 228, 44
-0.997479, 129, 29, 144, 60
-0.997483, 473, 97, 488, 128
-0.997485, 463, 113, 478, 144
-0.997486, 395, 1, 410, 32
-0.997491, 83, 37, 98, 68
-0.997498, 201, 181, 216, 212
-0.997507, 213, 129, 244, 375
-0.997512, 143, 209, 158, 240
-0.997522, 35, 189, 50, 220
-0.997525, 321, 25, 336, 56
-0.997532, 401, 1, 416, 32
-0.997532, 173, 193, 188, 224
-0.997532, 19, 1, 34, 32
-0.997537, 323, 177, 338, 208
-0.997539, 457, 97, 488, 352
-0.997543, 361, 49, 376, 80
-0.997547, 195, 181, 210, 212
-0.997549, 301, 97, 332, 352
-0.997561, 167, 229, 182, 260
-0.997565, 185, 129, 216, 375
-0.997566, 333, 45, 348, 76
-0.997566, 397, 169, 412, 200
-0.997568, 321, 1, 352, 256
-0.997569, 325, 1, 340, 32
-0.997573, 377, 109, 392, 140
-0.997574, 303, 77, 318, 108
-0.997591, 219, 21, 234, 52
-0.997592, 251, 77, 266, 108
-0.997595, 327, 13, 342, 44
-0.997599, 327, 41, 342, 72
-0.9976, 315, 37, 330, 68
-0.997603, 415, 53, 430, 84
-0.997606, 357, 129, 372, 160
-0.997613, 331, 121, 346, 152
-0.997613, 171, 209, 186, 240
-0.997617, 393, 1, 424, 256
-0.997622, 391, 33, 406, 64
-0.997622, 215, 181, 230, 212
-0.997623, 185, 201, 200, 232
-0.997624, 23, 13, 38, 44
-0.997628, 219, 225, 234, 256
-0.997628, 61, 1, 92, 256
-0.99763, 239, 249, 254, 280
-0.997634, 401, 33, 416, 64
-0.997636, 163, 193, 178, 224
-0.997639, 345, 41, 360, 72
-0.99764, 447, 77, 462, 108
-0.997643, 313, 93, 328, 124
-0.997647, 421, 33, 436, 64
-0.997648, 99, 293, 114, 324
-0.997649, 393, 21, 408, 52
-0.99765, 439, 1, 454, 32
-0.997653, 225, 117, 240, 148
-0.997653, 81, 21, 96, 52
-0.997659, 233, 181, 248, 212
-0.997661, 87, 17, 102, 48
-0.997662, 455, 217, 470, 248
-0.997667, 391, 65, 406, 96
-0.997667, 373, 49, 388, 80
-0.997667, 343, 125, 358, 156
-0.997669, 409, 1, 424, 32
-0.997672, 85, 1, 116, 256
-0.997673, 129, 17, 144, 48
-0.997674, 367, 145, 382, 176
-0.997682, 387, 1, 402, 32
-0.997685, 483, 117, 498, 148
-0.99769, 199, 89, 214, 120
-0.99769, 227, 249, 242, 280
-0.997697, 337, 1, 352, 32
-0.997697, 461, 17, 476, 48
-0.997697, 131, 217, 146, 248
-0.997705, 153, 49, 168, 80
-0.997707, 205, 97, 220, 128
-0.997708, 363, 133, 378, 164
-0.997709, 457, 337, 472, 368
-0.99771, 435, 185, 450, 216
-0.997717, 257, 197, 272, 228
-0.997719, 289, 205, 304, 236
-0.997722, 159, 217, 174, 248
-0.997726, 479, 93, 494, 124
-0.997728, 261, 113, 276, 144
-0.99774, 317, 97, 348, 352
-0.997775, 41, 33, 72, 288
-0.997777, 433, 129, 464, 375
-0.997792, 161, 1, 192, 256
-0.997811, 1, 305, 500, 368
-0.997817, 181, 1, 212, 256
-0.997895, 377, 97, 408, 352
-0.99792, 261, 129, 292, 375
-0.998003, 1, 249, 256, 312
-0.998039, 101, 1, 132, 256
-0.99809, 97, 129, 128, 375
-0.998137, 149, 97, 180, 352
-0.998147, 1, 129, 500, 192
-0.998158, 97, 313, 352, 375
-0.998167, 17, 233, 144, 296
-0.998177, 421, 97, 452, 352
-0.998235, 73, 1, 104, 256
-0.998261, 289, 129, 320, 375
-0.998294, 41, 129, 72, 375
-0.998319, 137, 97, 168, 352
-0.998346, 193, 195, 256, 210
-0.998351, 445, 97, 476, 352
-0.998365, 405, 1, 436, 256
-0.99837, 129, 211, 192, 226
-0.998386, 345, 43, 408, 58
-0.998407, 321, 41, 384, 56
-0.99841, 385, 41, 448, 56
-0.998414, 25, 191, 88, 206
-0.998432, 161, 97, 192, 352
-0.998435, 121, 223, 184, 238
-0.998442, 313, 47, 376, 62
-0.998443, 361, 51, 424, 66
-0.998443, 169, 203, 232, 218
-0.998444, 177, 95, 240, 110
-0.998445, 385, 35, 448, 50
-0.998447, 393, 97, 424, 352
-0.998449, 417, 15, 480, 30
-0.99845, 217, 107, 280, 122
-0.998451, 433, 1, 496, 16
-0.998452, 129, 217, 192, 232
-0.998452, 403, 1, 418, 128
-0.998455, 289, 47, 352, 62
-0.998456, 257, 33, 288, 288
-0.998456, 145, 205, 208, 220
-0.998458, 409, 97, 472, 112
-0.998462, 137, 55, 200, 70
-0.998464, 385, 1, 448, 16
-0.998466, 273, 179, 336, 194
-0.998467, 369, 7, 432, 22
-0.998468, 169, 197, 232, 212
-0.998472, 361, 37, 424, 52
-0.998473, 161, 189, 224, 204
-0.998473, 201, 171, 264, 186
-0.998473, 385, 49, 448, 64
-0.998474, 345, 19, 408, 34
-0.998474, 385, 17, 448, 32
-0.998475, 289, 199, 352, 214
-0.998476, 409, 103, 472, 118
-0.998478, 265, 45, 328, 60
-0.998478, 217, 97, 280, 112
-0.998479, 305, 163, 368, 178
-0.99848, 161, 107, 224, 122
-0.998481, 305, 29, 368, 44
-0.998482, 185, 105, 248, 120
-0.998483, 393, 25, 456, 40
-0.998483, 177, 99, 208, 114
-0.998483, 137, 45, 200, 60
-0.998483, 217, 89, 280, 104
-0.998483, 125, 59, 156, 74
-0.998483, 229, 183, 260, 198
-0.998484, 201, 95, 232, 110
-0.998484, 445, 1, 476, 16
-0.998484, 449, 115, 480, 130
-0.998484, 141, 63, 172, 78
-0.998484, 181, 105, 212, 120
-0.998485, 433, 1, 464, 16
-0.998487, 405, 17, 436, 32
-0.998487, 329, 133, 360, 148
-0.998487, 297, 35, 360, 50
-0.998487, 73, 9, 104, 24
-0.998488, 413, 57, 444, 72
-0.998488, 313, 55, 376, 70
-0.998489, 469, 93, 500, 108
-0.998489, 77, 39, 108, 54
-0.998489, 405, 69, 436, 84
-0.998489, 153, 101, 216, 116
-0.99849, 293, 41, 324, 56
-0.99849, 153, 219, 184, 234
-0.998491, 225, 161, 240, 288
-0.998491, 345, 137, 408, 152
-0.998492, 225, 205, 288, 220
-0.998492, 13, 49, 44, 64
-0.998493, 361, 15, 392, 30
-0.998493, 341, 291, 372, 306
-0.998493, 273, 39, 336, 54
-0.998494, 325, 53, 356, 68
-0.998494, 321, 1, 384, 16
-0.998494, 297, 41, 360, 56
-0.998494, 153, 7, 184, 22
-0.998494, 173, 27, 204, 42
-0.998495, 397, 111, 428, 126
-0.998495, 361, 1, 424, 16
-0.998495, 325, 139, 356, 154
-0.998496, 193, 189, 224, 204
-0.998496, 221, 251, 252, 266
-0.998497, 425, 31, 488, 46
-0.998497, 217, 245, 248, 260
-0.998497, 237, 101, 268, 116
-0.998498, 249, 199, 312, 214
-0.998498, 341, 141, 372, 156
-0.998498, 293, 107, 324, 122
-0.998499, 73, 37, 136, 52
-0.998499, 333, 29, 364, 44
-0.998499, 321, 23, 384, 38
-0.998499, 401, 215, 464, 230
-0.9985, 173, 219, 204, 234
-0.998502, 393, 17, 424, 32
-0.998502, 465, 1, 496, 16
-0.998502, 161, 195, 192, 210
-0.998503, 293, 161, 324, 176
-0.998503, 345, 197, 376, 212
-0.998504, 201, 203, 264, 218
-0.998504, 433, 99, 496, 114
-0.998504, 337, 49, 400, 64
-0.998504, 353, 31, 416, 46
-0.998505, 281, 201, 312, 216
-0.998505, 385, 61, 448, 76
-0.998506, 185, 183, 216, 198
-0.998506, 309, 59, 340, 74
-0.998507, 393, 167, 424, 182
-0.998507, 121, 1, 152, 256
-0.998508, 321, 29, 352, 44
-0.998509, 193, 165, 256, 180
-0.998509, 401, 43, 432, 58
-0.998509, 173, 213, 204, 228
-0.99851, 249, 107, 280, 122
-0.99851, 41, 197, 72, 212
-0.99851, 169, 209, 232, 224
-0.99851, 233, 55, 296, 70
-0.998511, 169, 229, 232, 244
-0.998512, 445, 169, 476, 184
-0.998512, 153, 57, 184, 72
-0.998512, 221, 209, 252, 224
-0.998512, 433, 149, 496, 164
-0.998513, 161, 43, 192, 58
-0.998514, 345, 109, 408, 124
-0.998514, 317, 41, 348, 56
-0.998514, 273, 185, 336, 200
-0.998514, 369, 23, 432, 38
-0.998515, 301, 153, 332, 168
-0.998515, 257, 115, 320, 130
-0.998515, 289, 87, 352, 102
-0.998515, 185, 93, 216, 108
-0.998515, 185, 189, 248, 204
-0.998515, 129, 35, 192, 50
-0.998515, 401, 161, 464, 176
-0.998515, 273, 171, 336, 186
-0.998515, 233, 245, 296, 260
-0.998516, 433, 25, 496, 40
-0.998516, 157, 31, 188, 46
-0.998516, 185, 111, 248, 126
-0.998517, 201, 25, 264, 40
-0.998518, 381, 53, 412, 68
-0.998518, 101, 299, 132, 314
-0.998519, 393, 183, 456, 198
-0.998519, 209, 249, 272, 264
-0.998519, 341, 135, 372, 150
-0.99852, 409, 1, 472, 16
-0.99852, 425, 11, 456, 26
-0.998521, 209, 239, 272, 254
-0.998521, 345, 123, 408, 138
-0.998521, 417, 91, 480, 106
-0.998521, 217, 197, 280, 212
-0.998521, 217, 141, 280, 156
-0.998521, 273, 193, 336, 208
-0.998521, 321, 9, 384, 24
-0.998521, 377, 95, 440, 110
-0.998522, 181, 201, 212, 216
-0.998522, 145, 199, 208, 214
-0.998522, 469, 125, 500, 140
-0.998523, 393, 9, 456, 24
-0.998523, 297, 65, 360, 80
-0.998523, 257, 29, 320, 44
-0.998524, 401, 57, 432, 72
-0.998524, 249, 187, 312, 202
-0.998524, 153, 225, 184, 240
-0.998525, 161, 29, 224, 44
-0.998525, 249, 207, 280, 222
-0.998526, 405, 51, 436, 66
-0.998526, 149, 37, 180, 52
-0.998526, 333, 45, 364, 60
-0.998526, 353, 13, 416, 28
-0.998527, 305, 129, 368, 144
-0.998527, 209, 265, 272, 280
-0.998528, 249, 275, 312, 290
-0.998529, 153, 95, 216, 110
-0.998529, 105, 43, 168, 58
-0.998529, 381, 1, 412, 16
-0.998529, 461, 111, 492, 126
-0.998529, 237, 249, 268, 264
-0.998529, 389, 1, 404, 128
-0.998529, 401, 171, 464, 186
-0.99853, 241, 93, 272, 108
-0.99853, 357, 291, 388, 306
-0.99853, 377, 177, 440, 192
-0.99853, 365, 59, 396, 74
-0.99853, 257, 107, 320, 122
-0.99853, 321, 35, 384, 50
-0.998531, 377, 121, 440, 136
-0.998531, 393, 23, 424, 38
-0.998531, 401, 7, 432, 22
-0.998531, 113, 51, 176, 66
-0.998531, 161, 221, 224, 236
-0.998531, 273, 53, 336, 68
-0.998532, 289, 105, 352, 120
-0.998532, 249, 129, 280, 375
-0.998533, 217, 73, 280, 88
-0.998533, 453, 347, 484, 362
-0.998534, 457, 205, 488, 220
-0.998534, 161, 359, 224, 374
-0.998534, 413, 25, 444, 40
-0.998535, 225, 211, 288, 226
-0.998535, 353, 67, 416, 82
-0.998536, 137, 53, 168, 68
-0.998536, 5, 5, 36, 20
-0.998536, 425, 139, 488, 154
-0.998536, 345, 57, 408, 72
-0.998536, 361, 33, 392, 48
-0.998536, 433, 105, 496, 120
-0.998537, 345, 115, 408, 130
-0.998537, 381, 33, 412, 48
-0.998537, 249, 91, 312, 106
-0.998538, 225, 191, 256, 206
-0.998538, 305, 53, 336, 68
-0.998539, 209, 107, 240, 122
-0.998539, 305, 47, 336, 62
-0.99854, 313, 197, 376, 212
-0.99854, 369, 49, 400, 64
-0.99854, 193, 89, 256, 104
-0.998541, 425, 217, 488, 232
-0.998541, 297, 169, 360, 184
-0.998542, 345, 43, 376, 58
-0.998542, 209, 257, 272, 272
-0.998544, 433, 61, 496, 76
-0.998544, 449, 103, 480, 118
-0.998544, 217, 271, 280, 286
-0.998544, 385, 293, 448, 308
-0.998544, 357, 41, 388, 56
-0.998544, 225, 171, 288, 186
-0.998545, 201, 227, 264, 242
-0.998545, 401, 151, 464, 166
-0.998545, 277, 129, 308, 375
-0.998545, 401, 1, 432, 16
-0.998546, 453, 93, 484, 108
-0.998547, 201, 101, 232, 116
-0.998549, 409, 33, 440, 48
-0.998549, 321, 5, 352, 20
-0.99855, 357, 21, 388, 36
-0.99855, 321, 35, 352, 50
-0.998551, 469, 117, 500, 132
-0.998553, 389, 41, 420, 56
-0.998553, 373, 11, 404, 26
-0.998554, 345, 49, 376, 64
-0.998555, 85, 129, 116, 375
-0.998556, 369, 3, 400, 18
-0.998559, 335, 1, 350, 128
-0.998559, 441, 91, 472, 106
-0.998562, 221, 203, 252, 218
-0.998565, 37, 191, 68, 206
-0.998569, 341, 35, 372, 50
-0.998569, 317, 47, 348, 62
-0.998571, 233, 203, 264, 218
-0.998573, 417, 17, 448, 32
-0.998583, 369, 41, 400, 56
-0.998583, 377, 19, 408, 34
-0.998585, 225, 197, 256, 212
-0.998586, 405, 97, 436, 352
-0.998587, 153, 213, 184, 228
-0.998588, 149, 49, 180, 64
-0.998589, 461, 213, 492, 228
-0.998594, 141, 209, 172, 224
-0.998594, 213, 191, 244, 206
-0.998595, 193, 195, 224, 210
-0.998598, 53, 191, 84, 206
-0.998598, 461, 105, 492, 120
-0.998599, 421, 1, 452, 16
-0.998603, 165, 207, 196, 222
-0.998605, 461, 99, 492, 114
-0.998617, 223, 97, 238, 224
-0.998618, 357, 47, 388, 62
-0.99862, 413, 33, 428, 160
-0.99863, 441, 97, 472, 112
-0.998631, 173, 129, 204, 375
-0.998637, 393, 51, 424, 66
-0.998641, 323, 1, 338, 128
-0.998643, 381, 47, 412, 62
-0.998645, 377, 1, 392, 128
-0.99865, 419, 1, 434, 128
-0.99866, 433, 33, 464, 288
-0.998667, 227, 49, 242, 176
-0.998671, 153, 207, 184, 222
-0.998672, 213, 197, 244, 212
-0.998702, 217, 177, 232, 304
-0.998715, 359, 1, 374, 128
-0.998723, 213, 1, 228, 128
-0.99873, 255, 177, 270, 304
-0.998735, 317, 17, 332, 144
-0.998782, 247, 161, 262, 288
-0.998814, 329, 33, 344, 160
-0.998815, 289, 161, 304, 288
-0.998827, 73, 97, 104, 352
-0.998833, 371, 1, 386, 128
-0.998837, 205, 161, 220, 288
-0.998845, 217, 129, 232, 256
-0.99885, 229, 97, 244, 224
-0.998866, 215, 81, 230, 208
-0.998871, 457, 65, 472, 192
-0.998873, 61, 1, 76, 128
-0.998876, 231, 177, 246, 304
-0.998879, 239, 81, 254, 208
-0.998883, 121, 1, 136, 128
-0.998884, 383, 1, 398, 128
-0.998886, 53, 97, 84, 352
-0.998903, 125, 97, 156, 352
-0.998908, 153, 1, 168, 128
-0.998908, 295, 113, 310, 240
-0.998909, 445, 65, 460, 192
-0.998911, 207, 1, 222, 128
-0.998912, 189, 161, 204, 288
-0.998918, 463, 97, 478, 224
-0.99892, 249, 209, 264, 336
-0.998921, 457, 193, 472, 320
-0.998922, 53, 1, 68, 128
-0.998922, 109, 97, 140, 352
-0.998928, 195, 161, 210, 288
-0.998929, 337, 49, 352, 176
-0.998929, 87, 1, 102, 128
-0.998931, 81, 1, 96, 128
-0.998931, 207, 113, 222, 240
-0.998933, 395, 1, 410, 128
-0.998933, 67, 1, 82, 128
-0.998933, 177, 1, 192, 128
-0.998941, 479, 97, 494, 224
-0.998942, 469, 65, 484, 192
-0.998948, 221, 49, 236, 176
-0.998964, 309, 1, 324, 128
-0.998966, 397, 65, 412, 192
-0.998974, 421, 1, 452, 256
-0.998975, 447, 17, 462, 144
-0.998976, 243, 225, 258, 352
-0.998978, 477, 49, 492, 176
-0.998982, 183, 1, 198, 128
-0.998988, 75, 1, 90, 128
-0.998993, 139, 1, 154, 128
-0.998993, 227, 225, 242, 352
-0.998998, 237, 225, 252, 352
-0.999001, 227, 1, 242, 128
-0.999007, 453, 145, 468, 272
-0.999008, 133, 33, 148, 160
-0.999009, 211, 161, 226, 288
-0.999011, 403, 49, 418, 176
-0.999012, 111, 1, 126, 128
-0.999015, 201, 81, 216, 208
-0.999015, 303, 129, 318, 256
-0.999023, 333, 113, 348, 240
-0.999025, 235, 129, 250, 256
-0.999026, 123, 65, 138, 192
-0.999032, 391, 113, 406, 240
-0.999035, 433, 1, 448, 128
-0.999037, 159, 17, 174, 144
-0.999038, 233, 1, 248, 128
-0.99904, 15, 1, 30, 128
-0.99904, 253, 129, 268, 256
-0.999043, 261, 193, 276, 320
-0.999047, 209, 49, 224, 176
-0.99905, 365, 17, 380, 144
-0.999055, 191, 1, 206, 128
-0.999056, 385, 81, 400, 208
-0.999065, 463, 49, 478, 176
-0.999066, 157, 177, 172, 304
-0.999066, 463, 145, 478, 272
-0.999067, 347, 17, 362, 144
-0.999068, 1, 313, 256, 375
-0.999068, 219, 1, 234, 128
-0.999076, 485, 113, 500, 240
-0.999079, 391, 65, 406, 192
-0.99908, 319, 65, 334, 192
-0.99908, 469, 17, 484, 144
-0.999082, 199, 33, 214, 160
-0.999086, 233, 49, 248, 176
-0.999087, 441, 1, 456, 128
-0.99909, 251, 65, 266, 192
-0.999091, 345, 97, 360, 224
-0.999091, 379, 49, 394, 176
-0.999096, 305, 65, 320, 192
-0.99911, 345, 145, 360, 272
-0.999111, 439, 65, 454, 192
-0.999115, 281, 177, 296, 304
-0.999117, 147, 177, 162, 304
-0.999118, 485, 1, 500, 128
-0.999119, 285, 17, 300, 144
-0.999123, 353, 65, 368, 192
-0.999125, 237, 177, 252, 304
-0.999128, 309, 129, 324, 256
-0.999132, 239, 17, 254, 144
-0.999134, 327, 177, 342, 304
-0.999136, 289, 113, 304, 240
-0.999137, 443, 113, 458, 240
-0.999145, 353, 17, 368, 144
-0.999147, 271, 1, 286, 128
-0.999147, 291, 65, 306, 192
-0.999148, 451, 65, 466, 192
-0.999151, 367, 225, 382, 352
-0.999151, 245, 65, 260, 192
-0.999152, 425, 1, 440, 128
-0.999157, 29, 129, 60, 375
-0.999158, 147, 1, 162, 128
-0.999164, 247, 113, 262, 240
-0.999171, 321, 129, 336, 256
-0.999171, 29, 17, 44, 144
-0.999171, 163, 193, 178, 320
-0.999175, 311, 81, 326, 208
-0.999176, 405, 97, 420, 224
-0.99918, 139, 193, 154, 320
-0.999182, 373, 65, 388, 192
-0.999187, 47, 1, 62, 128
-0.999189, 261, 129, 276, 256
-0.99919, 409, 225, 424, 352
-0.99919, 357, 129, 372, 256
-0.999211, 1, 241, 500, 304
-0.999409, 17, 97, 48, 352
-0.999679, 385, 27, 400, 42
-0.999679, 239, 247, 254, 262
-0.999679, 427, 3, 442, 18
-0.999679, 251, 113, 266, 128
-0.99968, 155, 37, 170, 52
-0.99968, 329, 53, 344, 68
-0.99968, 385, 149, 400, 164
-0.99968, 461, 155, 476, 170
-0.999681, 323, 195, 338, 210
-0.999681, 199, 89, 214, 104
-0.999681, 289, 217, 304, 232
-0.999681, 53, 189, 68, 204
-0.999681, 261, 107, 276, 122
-0.999682, 17, 31, 32, 46
-0.999682, 225, 187, 240, 202
-0.999683, 361, 135, 376, 150
-0.999683, 129, 31, 144, 46
-0.999683, 311, 163, 326, 178
-0.999683, 125, 229, 140, 244
-0.999684, 301, 167, 316, 182
-0.999684, 459, 215, 474, 230
-0.999684, 237, 255, 252, 270
-0.999685, 449, 99, 464, 114
-0.999685, 431, 31, 446, 46
-0.999686, 473, 105, 488, 120
-0.999687, 455, 101, 470, 116
-0.999687, 165, 221, 180, 236
-0.999687, 375, 11, 390, 26
-0.999688, 241, 87, 256, 102
-0.999689, 217, 105, 232, 120
-0.999689, 183, 99, 198, 114
-0.99969, 421, 35, 436, 50
-0.99969, 41, 191, 56, 206
-0.999691, 323, 37, 338, 52
-0.999691, 395, 195, 410, 210
-0.999692, 31, 193, 46, 208
-0.999692, 463, 203, 478, 218
-0.999693, 391, 33, 406, 48
-0.999693, 481, 119, 496, 134
-0.999693, 27, 49, 42, 64
-0.999694, 411, 57, 426, 72
-0.999694, 361, 53, 376, 68
-0.999694, 203, 95, 218, 110
-0.999694, 291, 175, 306, 190
-0.999694, 289, 201, 304, 216
-0.999694, 347, 45, 362, 60
-0.999695, 79, 37, 94, 52
-0.999695, 347, 137, 362, 152
-0.999696, 261, 113, 276, 128
-0.999696, 381, 39, 396, 54
-0.999696, 225, 213, 240, 228
-0.999696, 177, 207, 192, 222
-0.999697, 467, 345, 482, 360
-0.999697, 369, 11, 384, 26
-0.999697, 393, 53, 408, 68
-0.999697, 319, 45, 334, 60
-0.999697, 231, 193, 246, 208
-0.999698, 321, 57, 336, 72
-0.999698, 473, 123, 488, 138
-0.999699, 401, 159, 416, 174
-0.999701, 253, 55, 268, 70
-0.999701, 223, 199, 238, 214
-0.999701, 425, 19, 440, 34
-0.999703, 31, 55, 46, 70
-0.999703, 375, 49, 390, 64
-0.999704, 363, 35, 378, 50
-0.999704, 195, 195, 210, 210
-0.999705, 47, 189, 62, 204
-0.999705, 261, 145, 276, 160
-0.999706, 205, 177, 220, 192
-0.999707, 351, 37, 366, 52
-0.999708, 251, 91, 266, 106
-0.999708, 413, 1, 428, 16
-0.999708, 433, 1, 448, 16
-0.999709, 65, 191, 80, 206
-0.999709, 411, 37, 426, 52
-0.99971, 149, 209, 164, 224
-0.99971, 369, 235, 384, 250
-0.99971, 379, 19, 394, 34
-0.999711, 385, 9, 400, 24
-0.999712, 165, 213, 180, 228
-0.999713, 305, 157, 320, 172
-0.999714, 221, 207, 236, 222
-0.999714, 251, 99, 266, 114
-0.999714, 331, 31, 346, 46
-0.999716, 227, 205, 242, 220
-0.999716, 325, 27, 340, 42
-0.999716, 237, 205, 252, 220
-0.999716, 391, 21, 406, 36
-0.999716, 257, 93, 272, 108
-0.999717, 405, 165, 420, 180
-0.999718, 201, 105, 216, 120
-0.999718, 165, 227, 180, 242
-0.999718, 417, 23, 432, 38
-0.999719, 193, 95, 208, 110
-0.999719, 211, 111, 226, 126
-0.99972, 375, 5, 390, 20
-0.99972, 355, 49, 370, 64
-0.999721, 411, 51, 426, 66
-0.999725, 375, 41, 390, 56
-0.999725, 465, 111, 480, 126
-0.999727, 401, 45, 416, 60
-0.999732, 385, 1, 400, 16
-0.999733, 413, 29, 428, 44
-0.999734, 171, 209, 186, 224
-0.999734, 421, 1, 436, 16
-0.999734, 445, 93, 460, 108
-0.999737, 315, 37, 330, 52
-0.999738, 471, 115, 486, 130
-0.999739, 245, 249, 260, 264
-0.999739, 357, 33, 372, 48
-0.999742, 359, 41, 374, 56
-0.999746, 465, 97, 480, 112
-0.999746, 403, 51, 418, 66
-0.999752, 295, 203, 310, 218
-0.999752, 207, 193, 222, 208
-0.999753, 455, 95, 470, 110
-0.999756, 391, 47, 406, 62
-0.999757, 217, 197, 232, 212
-0.999758, 359, 293, 374, 308
-0.999761, 465, 103, 480, 118
-0.999761, 229, 199, 244, 214
-0.999763, 419, 17, 434, 32
-0.999767, 225, 193, 240, 208
-0.999767, 385, 45, 400, 60
-0.999768, 367, 45, 382, 60
-0.999768, 333, 3, 348, 18
-0.999777, 365, 293, 380, 308
-0.999804, 165, 207, 180, 222
-0.999891, 159, 205, 174, 220
-0.999948, 5, 129, 36, 375
