1947
-0.331459, 1, 1, 500, 358
-0.391918, 1, 1, 500, 256
-0.407412, 1, 97, 500, 352
-0.419306, 33, 1, 288, 358
-0.479876, 193, 1, 448, 358
-0.565231, 65, 1, 320, 256
-0.622958, 33, 97, 288, 352
-0.716666, 161, 1, 416, 256
-0.724736, 161, 97, 416, 352
-0.757596, 257, 1, 500, 256
-0.764081, 257, 97, 500, 352
-0.850936, 65, 1, 192, 256
-0.853765, 161, 1, 288, 358
-0.85649, 161, 1, 288, 256
-0.857682, 65, 1, 192, 358
-0.86268, 209, 1, 336, 358
-0.864878, 17, 1, 144, 358
-0.866516, 49, 97, 176, 352
-0.867343, 113, 1, 240, 358
-0.87106, 161, 97, 288, 352
-0.871858, 113, 1, 240, 256
-0.872485, 1, 65, 128, 320
-0.874205, 225, 33, 352, 288
-0.877309, 1, 177, 500, 304
-0.878554, 1, 33, 500, 160
-0.884396, 353, 1, 480, 358
-0.887187, 1, 225, 500, 352
-0.897849, 1, 81, 500, 208
-0.89971, 97, 97, 224, 352
-0.900164, 289, 97, 416, 352
-0.900231, 337, 33, 464, 288
-0.902701, 289, 1, 416, 256
-0.903004, 1, 177, 256, 304
-0.904331, 257, 1, 384, 358
-0.907903, 305, 1, 432, 358
-0.908177, 1, 129, 500, 256
-0.912241, 65, 33, 320, 160
-0.912728, 65, 225, 320, 352
-0.913007, 225, 209, 480, 336
-0.92458, 193, 161, 448, 288
-0.925553, 1, 209, 128, 336
-0.927702, 33, 129, 288, 256
-0.929048, 257, 1, 500, 128
-0.929392, 81, 33, 144, 160
-0.92963, 65, 81, 320, 208
-0.931625, 97, 177, 352, 304
-0.932395, 321, 209, 448, 336
-0.934014, 81, 209, 208, 336
-0.935237, 401, 209, 464, 336
-0.935708, 49, 81, 176, 208
-0.936965, 257, 193, 384, 320
-0.937036, 281, 193, 344, 320
-0.938119, 17, 161, 144, 288
-0.938269, 369, 225, 496, 352
-0.938471, 57, 97, 120, 224
-0.938471, 145, 161, 208, 288
-0.938583, 81, 161, 208, 288
-0.939133, 57, 193, 120, 320
-0.939371, 121, 161, 184, 288
-0.941, 33, 17, 160, 144
-0.941061, 97, 1, 224, 128
-0.941221, 105, 209, 168, 336
-0.942712, 193, 193, 320, 320
-0.943115, 377, 209, 440, 336
-0.943269, 209, 33, 272, 160
-0.943304, 257, 193, 320, 320
-0.943486, 17, 209, 80, 336
-0.944879, 41, 145, 104, 272
-0.946001, 81, 209, 144, 336
-0.946033, 161, 209, 224, 336
-0.946625, 1, 65, 128, 192
-0.94782, 89, 161, 152, 288
-0.947974, 305, 193, 368, 320
-0.948325, 161, 49, 416, 176
-0.949031, 105, 1, 168, 128
-0.949409, 425, 193, 488, 320
-0.949414, 329, 225, 392, 352
-0.949672, 177, 49, 304, 176
-0.949696, 57, 49, 120, 176
-0.950281, 225, 41, 288, 104
-0.951077, 241, 1, 368, 128
-0.951265, 225, 49, 352, 176
-0.951492, 145, 177, 272, 304
-0.952535, 185, 161, 248, 288
-0.952977, 113, 217, 176, 280
-0.953499, 393, 241, 456, 304
-0.954009, 89, 185, 152, 248
-0.954067, 233, 33, 296, 160
-0.954135, 385, 161, 448, 288
-0.954382, 369, 1, 496, 128
-0.954467, 305, 161, 432, 288
-0.954529, 33, 65, 96, 192
-0.954695, 129, 185, 192, 248
-0.954923, 257, 113, 500, 240
-0.955233, 353, 241, 416, 304
-0.955846, 1, 113, 128, 240
-0.956037, 89, 217, 152, 280
-0.95632, 129, 81, 256, 208
-0.956665, 65, 201, 128, 264
-0.956751, 417, 249, 480, 312
-0.956888, 177, 97, 240, 224
-0.956909, 41, 1, 104, 128
-0.957198, 353, 209, 416, 336
-0.957245, 113, 97, 176, 224
-0.957396, 145, 113, 208, 240
-0.957717, 289, 257, 352, 320
-0.957921, 41, 169, 104, 232
-0.957921, 329, 257, 392, 320
-0.958241, 129, 225, 256, 352
-0.958285, 129, 209, 192, 336
-0.958297, 257, 49, 500, 176
-0.958363, 177, 129, 304, 256
-0.958477, 249, 57, 312, 120
-0.958726, 145, 1, 272, 128
-0.958908, 233, 193, 296, 320
-0.958934, 81, 81, 144, 208
-0.959069, 185, 49, 248, 176
-0.959104, 65, 97, 128, 160
-0.95943, 9, 65, 72, 192
-0.959685, 265, 249, 328, 312
-0.960179, 161, 1, 416, 128
-0.960317, 409, 145, 472, 272
-0.96037, 409, 1, 472, 128
-0.960394, 425, 273, 488, 336
-0.960464, 33, 193, 96, 256
-0.960625, 321, 233, 384, 296
-0.960628, 73, 73, 136, 136
-0.96073, 369, 177, 496, 304
-0.960971, 129, 129, 256, 256
-0.961175, 161, 1, 224, 128
-0.961262, 321, 1, 448, 128
-0.961543, 153, 193, 216, 256
-0.961584, 17, 161, 80, 288
-0.961757, 161, 97, 416, 224
-0.961758, 137, 1, 200, 128
-0.962045, 169, 225, 232, 288
-0.962257, 89, 49, 152, 112
-0.962378, 113, 161, 176, 224
-0.962886, 57, 273, 120, 336
-0.962924, 89, 25, 152, 88
-0.963163, 65, 41, 128, 104
-0.963286, 209, 177, 272, 304
-0.963299, 17, 225, 80, 288
-0.96341, 377, 217, 440, 280
-0.963412, 241, 145, 304, 272
-0.963637, 185, 201, 248, 264
-0.963806, 57, 129, 120, 192
-0.964142, 65, 177, 128, 240
-0.964252, 65, 145, 128, 272
-0.964285, 9, 257, 72, 320
-0.96431, 209, 81, 272, 208
-0.964333, 57, 225, 120, 288
-0.964384, 281, 217, 344, 280
-0.964558, 385, 1, 448, 128
-0.964854, 185, 209, 248, 336
-0.964941, 377, 265, 440, 328
-0.965022, 73, 249, 136, 312
-0.965352, 209, 201, 272, 264
-0.965522, 97, 265, 160, 328
-0.965655, 97, 1, 160, 64
-0.965764, 25, 289, 88, 352
-0.965841, 65, 33, 128, 288
-0.966265, 105, 81, 168, 144
-0.966618, 241, 145, 368, 272
-0.966629, 393, 193, 456, 256
-0.966722, 241, 241, 304, 304
-0.966928, 329, 177, 392, 304
-0.967026, 137, 49, 200, 176
-0.967334, 105, 49, 168, 176
-0.967347, 193, 225, 256, 288
-0.967386, 41, 65, 104, 128
-0.967405, 257, 209, 320, 272
-0.967564, 169, 105, 232, 168
-0.967729, 49, 249, 112, 312
-0.967814, 209, 81, 272, 144
-0.968072, 89, 1, 152, 256
-0.968389, 401, 273, 464, 336
-0.96845, 145, 73, 208, 136
-0.968801, 433, 17, 496, 144
-0.969032, 121, 289, 184, 352
-0.969284, 417, 97, 480, 224
-0.969303, 145, 161, 208, 224
-0.969315, 417, 225, 480, 288
-0.969323, 225, 1, 288, 256
-0.969418, 137, 225, 200, 288
-0.969424, 121, 1, 184, 64
-0.969485, 257, 49, 320, 176
-0.969644, 353, 241, 480, 304
-0.969767, 1, 289, 64, 352
-0.969908, 353, 217, 416, 280
-0.970114, 33, 137, 96, 200
-0.970322, 65, 153, 128, 216
-0.97038, 185, 1, 248, 128
-0.970425, 257, 1, 320, 128
-0.970786, 33, 97, 96, 352
-0.970831, 201, 1, 264, 256
-0.970935, 185, 65, 248, 128
-0.971182, 89, 161, 152, 224
-0.971294, 65, 209, 192, 272
-0.971369, 289, 257, 416, 320
-0.971421, 65, 17, 128, 80
-0.971446, 201, 41, 264, 104
-0.971539, 337, 49, 464, 176
-0.971563, 121, 249, 184, 312
-0.971652, 265, 145, 328, 272
-0.97202, 193, 1, 320, 128
-0.972057, 89, 33, 120, 160
-0.972224, 217, 233, 280, 296
-0.972428, 169, 169, 232, 232
-0.972638, 1, 281, 128, 344
-0.97271, 121, 65, 184, 320
-0.972902, 33, 41, 96, 104
-0.973041, 33, 89, 96, 152
-0.973054, 241, 33, 272, 160
-0.973089, 409, 49, 472, 176
-0.973128, 409, 193, 440, 320
-0.973261, 113, 225, 240, 288
-0.973421, 45, 169, 76, 232
-0.973538, 113, 25, 176, 88
-0.973552, 377, 9, 440, 72
-0.973576, 233, 81, 296, 144
-0.973641, 353, 265, 416, 328
-0.973749, 361, 161, 424, 288
-0.973795, 105, 1, 136, 128
-0.973903, 297, 1, 360, 128
-0.973998, 365, 249, 396, 312
-0.974151, 17, 169, 80, 232
-0.97419, 217, 129, 280, 256
-0.974261, 421, 241, 452, 304
-0.974287, 417, 201, 480, 264
-0.974341, 433, 145, 496, 272
-0.974362, 1, 209, 128, 272
-0.974377, 97, 241, 160, 304
-0.974533, 225, 249, 352, 312
-0.974554, 273, 225, 400, 288
-0.974567, 13, 225, 44, 352
-0.974612, 257, 57, 288, 120
-0.974624, 69, 65, 100, 192
-0.974754, 153, 265, 216, 328
-0.974784, 257, 1, 320, 64
-0.974922, 49, 145, 80, 272
-0.974937, 289, 73, 352, 136
-0.974959, 437, 209, 468, 336
-0.974981, 257, 33, 320, 96
-0.974983, 289, 65, 352, 192
-0.974998, 49, 81, 176, 144
-0.975026, 281, 193, 344, 256
-0.975037, 353, 265, 480, 328
-0.975051, 89, 297, 152, 358
-0.975056, 105, 137, 168, 200
-0.975082, 285, 193, 316, 320
-0.975101, 173, 193, 204, 256
-0.975163, 285, 249, 316, 312
-0.975237, 177, 41, 304, 104
-0.975245, 113, 193, 240, 256
-0.975332, 425, 225, 456, 352
-0.975344, 393, 209, 424, 336
-0.975364, 341, 233, 372, 296
-0.975411, 161, 225, 288, 288
-0.975522, 289, 49, 416, 176
-0.975536, 1, 233, 128, 296
-0.97558, 17, 65, 80, 128
-0.975582, 121, 217, 152, 280
-0.975621, 125, 209, 156, 336
-0.97563, 137, 161, 168, 288
-0.975729, 177, 177, 208, 304
-0.975749, 353, 241, 384, 304
-0.975998, 193, 201, 320, 264
-0.976075, 65, 113, 96, 240
-0.976221, 289, 113, 416, 240
-0.976287, 369, 113, 432, 240
-0.976346, 29, 193, 60, 320
-0.976365, 425, 17, 488, 80
-0.976438, 233, 201, 296, 264
-0.976498, 225, 97, 288, 352
-0.976508, 381, 257, 412, 320
-0.976567, 321, 1, 384, 128
-0.976618, 321, 209, 352, 336
-0.97665, 241, 273, 304, 336
-0.97673, 65, 1, 192, 64
-0.97674, 33, 33, 160, 96
-0.976829, 13, 257, 44, 320
-0.976844, 201, 9, 264, 72
-0.976849, 221, 33, 252, 160
-0.976874, 197, 201, 228, 264
-0.976934, 237, 41, 268, 104
-0.97694, 9, 113, 72, 240
-0.977023, 409, 233, 440, 296
-0.977111, 57, 193, 88, 320
-0.977248, 369, 193, 432, 256
-0.977287, 321, 217, 448, 280
-0.977303, 169, 1, 232, 256
-0.977308, 153, 129, 216, 192
-0.977319, 465, 257, 496, 320
-0.977321, 329, 281, 392, 344
-0.977355, 233, 81, 296, 208
-0.97741, 401, 17, 464, 80
-0.977469, 265, 225, 296, 352
-0.977469, 65, 177, 192, 240
-0.977573, 105, 209, 136, 272
-0.977719, 145, 1, 208, 256
-0.977744, 369, 225, 400, 288
-0.977773, 177, 65, 304, 128
-0.9778, 377, 209, 408, 336
-0.977831, 313, 209, 376, 272
-0.977886, 257, 81, 320, 144
-0.977944, 113, 57, 176, 120
-0.977959, 369, 129, 496, 256
-0.97796, 329, 241, 360, 304
-0.97797, 421, 177, 452, 304
-0.978022, 33, 129, 160, 192
-0.978054, 97, 25, 224, 88
-0.978058, 85, 209, 116, 272
-0.9781, 161, 17, 224, 80
-0.978105, 305, 193, 336, 320
-0.978122, 341, 225, 372, 352
-0.978141, 177, 97, 304, 160
-0.978145, 149, 145, 180, 272
-0.978213, 389, 233, 420, 296
-0.978214, 281, 281, 344, 344
-0.978236, 97, 65, 224, 128
-0.978247, 137, 97, 200, 160
-0.978265, 153, 193, 184, 256
-0.978271, 65, 201, 96, 264
-0.978275, 393, 153, 456, 216
-0.978322, 25, 113, 88, 176
-0.978436, 41, 193, 72, 320
-0.978532, 25, 1, 88, 256
-0.97854, 193, 177, 256, 240
-0.978586, 129, 105, 256, 168
-0.978614, 109, 161, 140, 288
-0.978633, 141, 1, 172, 128
-0.978665, 109, 177, 140, 240
-0.978808, 433, 241, 464, 304
-0.97893, 225, 17, 288, 80
-0.979021, 81, 193, 112, 320
-0.979025, 361, 1, 424, 256
-0.979056, 65, 297, 128, 358
-0.979065, 161, 49, 224, 176
-0.979094, 225, 73, 352, 136
-0.979098, 185, 193, 216, 256
-0.979145, 41, 193, 72, 256
-0.979152, 49, 105, 176, 168
-0.97917, 353, 1, 416, 128
-0.979241, 297, 249, 328, 312
-0.979242, 161, 209, 192, 336
-0.979245, 21, 233, 52, 296
-0.97925, 365, 209, 396, 336
-0.979258, 65, 265, 192, 328
-0.979322, 297, 113, 360, 240
-0.979342, 97, 105, 160, 168
-0.979437, 113, 25, 144, 88
-0.979468, 93, 25, 124, 88
-0.979483, 33, 57, 160, 120
-0.979616, 197, 105, 228, 168
-0.979635, 133, 1, 164, 64
-0.979734, 197, 225, 228, 288
-0.979735, 393, 97, 456, 224
-0.979749, 209, 225, 272, 352
-0.979762, 125, 89, 156, 152
-0.979771, 177, 41, 240, 104
-0.979898, 81, 81, 112, 208
-0.979923, 221, 201, 252, 264
-0.979937, 1, 185, 128, 248
-0.979972, 9, 201, 72, 264
-0.980038, 393, 121, 456, 184
-0.980105, 453, 249, 484, 312
-0.980197, 61, 265, 92, 328
-0.980214, 193, 105, 256, 168
-0.980223, 421, 201, 452, 264
-0.980327, 129, 1, 160, 128
-0.980336, 377, 49, 440, 176
-0.980393, 125, 161, 156, 288
-0.980436, 169, 97, 232, 352
-0.98044, 97, 137, 224, 200
-0.98047, 317, 257, 348, 320
-0.980579, 329, 217, 360, 280
-0.980592, 185, 257, 248, 320
-0.980598, 137, 201, 168, 264
-0.980624, 53, 97, 84, 224
-0.980677, 153, 161, 184, 224
-0.980756, 113, 209, 144, 336
-0.980778, 33, 153, 160, 216
-0.980839, 49, 1, 112, 358
-0.980841, 225, 49, 352, 112
-0.980847, 173, 217, 204, 280
-0.980878, 85, 177, 116, 240
-0.980909, 205, 177, 236, 304
-0.980913, 9, 41, 72, 104
-0.980915, 209, 209, 240, 272
-0.980928, 1, 105, 128, 168
-0.980943, 209, 33, 240, 160
-0.980953, 313, 81, 376, 144
-0.980991, 289, 97, 352, 352
-0.981009, 369, 217, 496, 280
-0.981017, 393, 209, 424, 272
-0.981054, 353, 225, 384, 352
-0.981055, 329, 1, 392, 64
-0.981056, 341, 257, 372, 320
-0.981104, 305, 281, 432, 344
-0.981108, 1, 297, 32, 358
-0.981163, 65, 161, 96, 224
-0.981213, 161, 217, 192, 280
-0.981229, 361, 97, 424, 352
-0.98124, 37, 145, 68, 272
-0.981289, 41, 17, 104, 80
-0.981331, 165, 161, 196, 288
-0.981361, 185, 105, 216, 168
-0.981394, 249, 65, 312, 320
-0.98142, 241, 177, 304, 240
-0.981447, 81, 129, 144, 192
-0.981469, 85, 145, 116, 272
-0.981485, 305, 1, 368, 64
-0.981531, 441, 265, 472, 328
-0.981531, 121, 273, 152, 336
-0.981572, 409, 209, 440, 272
-0.981574, 121, 185, 152, 248
-0.981612, 393, 1, 424, 64
-0.981626, 61, 225, 92, 288
-0.981728, 101, 225, 132, 352
-0.981753, 137, 41, 200, 104
-0.981778, 97, 161, 128, 288
-0.981803, 201, 97, 264, 352
-0.981804, 65, 129, 96, 192
-0.981834, 417, 169, 480, 232
-0.981867, 177, 249, 304, 312
-0.981889, 245, 73, 276, 136
-0.981916, 29, 209, 60, 272
-0.98192, 89, 89, 120, 152
-0.981962, 105, 1, 136, 64
-0.981984, 97, 289, 224, 352
-0.98199, 345, 49, 408, 176
-0.982022, 309, 217, 340, 280
-0.982081, 297, 41, 360, 104
-0.982086, 321, 113, 384, 240
-0.982096, 105, 49, 136, 176
-0.982135, 97, 97, 160, 352
-0.982168, 65, 233, 192, 296
-0.982241, 101, 57, 132, 120
-0.98226, 9, 145, 72, 208
-0.982278, 189, 177, 220, 304
-0.982282, 433, 145, 496, 208
-0.982313, 17, 1, 144, 64
-0.982387, 321, 65, 384, 192
-0.982412, 241, 201, 368, 264
-0.982421, 353, 9, 480, 72
-0.982442, 337, 193, 400, 256
-0.982563, 177, 137, 240, 200
-0.982592, 121, 81, 152, 208
-0.982617, 401, 257, 432, 320
-0.982674, 93, 81, 124, 208
-0.982683, 49, 265, 80, 328
-0.982686, 225, 1, 288, 358
-0.982712, 361, 57, 424, 120
-0.982749, 321, 193, 448, 256
-0.982759, 113, 1, 240, 64
-0.982789, 217, 233, 248, 296
-0.982877, 313, 97, 376, 352
-0.982879, 117, 17, 148, 144
-0.982938, 269, 249, 300, 312
-0.983027, 385, 41, 448, 104
-0.983048, 413, 1, 444, 128
-0.983062, 369, 289, 432, 352
-0.983095, 369, 161, 432, 224
-0.983098, 153, 297, 216, 358
-0.983144, 97, 177, 128, 240
-0.983151, 77, 97, 108, 160
-0.983186, 121, 153, 152, 216
-0.983186, 353, 265, 384, 328
-0.983198, 265, 153, 328, 216
-0.983234, 457, 225, 488, 352
-0.983334, 225, 97, 352, 224
-0.98334, 97, 273, 128, 336
-0.98334, 69, 193, 100, 320
-0.983438, 297, 169, 360, 232
-0.983482, 89, 1, 152, 358
-0.983502, 273, 273, 304, 336
-0.983507, 141, 225, 172, 288
-0.983532, 289, 1, 352, 256
-0.983543, 137, 73, 168, 136
-0.983547, 261, 177, 292, 304
-0.983571, 253, 225, 284, 352
-0.983637, 281, 209, 312, 272
-0.98371, 161, 169, 288, 232
-0.983752, 89, 65, 120, 128
-0.983834, 273, 177, 304, 304
-0.983855, 137, 177, 168, 240
-0.983929, 1, 1, 64, 256
-0.983962, 217, 81, 248, 144
-0.983962, 385, 1, 448, 256
-0.983987, 397, 161, 428, 288
-0.984063, 221, 145, 252, 272
-0.98407, 229, 81, 260, 208
-0.984104, 369, 289, 496, 352
-0.984141, 53, 145, 84, 208
-0.984148, 225, 225, 352, 288
-0.984179, 73, 265, 104, 328
-0.984194, 413, 265, 444, 328
-0.984223, 237, 193, 268, 320
-0.984241, 425, 265, 456, 328
-0.984288, 289, 57, 416, 120
-0.984289, 113, 169, 240, 232
-0.984304, 137, 97, 168, 224
-0.984334, 253, 33, 284, 160
-0.984354, 425, 97, 488, 352
-0.98436, 241, 81, 272, 208
-0.984386, 257, 33, 288, 96
-0.984399, 9, 1, 72, 358
-0.984448, 405, 185, 436, 248
-0.984515, 253, 241, 284, 304
-0.984525, 1, 81, 128, 144
-0.984573, 37, 65, 68, 192
-0.984616, 61, 105, 92, 168
-0.984651, 93, 1, 124, 64
-0.984716, 161, 17, 288, 80
-0.984737, 453, 273, 484, 336
-0.984771, 69, 73, 100, 136
-0.984775, 241, 1, 368, 64
-0.98485, 153, 1, 216, 358
-0.984887, 353, 217, 384, 280
-0.984909, 329, 1, 392, 256
-0.984911, 17, 17, 80, 144
-0.984924, 113, 73, 144, 136
-0.984929, 241, 25, 368, 88
-0.984937, 257, 97, 320, 224
-0.984956, 149, 193, 180, 320
-0.98496, 269, 49, 300, 112
-0.984998, 145, 129, 272, 192
-0.98505, 17, 257, 144, 320
-0.985054, 137, 209, 168, 336
-0.985094, 293, 217, 324, 280
-0.985124, 109, 289, 140, 352
-0.985139, 105, 113, 136, 240
-0.985163, 461, 33, 492, 160
-0.985221, 49, 297, 176, 358
-0.985297, 269, 209, 300, 272
-0.985303, 177, 1, 240, 358
-0.985354, 409, 1, 472, 256
-0.985357, 245, 17, 276, 80
-0.985383, 185, 233, 216, 296
-0.98543, 197, 1, 228, 128
-0.985475, 333, 177, 364, 304
-0.985478, 385, 97, 448, 352
-0.985579, 181, 161, 212, 224
-0.9856, 393, 1, 424, 128
-0.985639, 129, 241, 160, 304
-0.98571, 257, 281, 384, 344
-0.985949, 53, 49, 84, 176
-0.985949, 289, 1, 416, 64
-0.985958, 165, 153, 196, 216
-0.985972, 113, 249, 240, 312
-0.985998, 465, 281, 496, 344
-0.986011, 417, 129, 448, 256
-0.986065, 25, 49, 56, 112
-0.986089, 141, 265, 172, 328
-0.986092, 189, 81, 220, 208
-0.986198, 445, 225, 476, 288
-0.986316, 241, 177, 368, 240
-0.986345, 201, 1, 264, 358
-0.986377, 113, 49, 144, 112
-0.986381, 101, 153, 132, 216
-0.986492, 353, 177, 384, 304
-0.986497, 209, 185, 240, 248
-0.986555, 169, 1, 200, 128
-0.98656, 169, 113, 200, 240
-0.98661, 201, 81, 232, 208
-0.986654, 189, 129, 220, 256
-0.986661, 145, 1, 176, 64
-0.986661, 221, 41, 252, 104
-0.986669, 125, 65, 156, 128
-0.986692, 49, 121, 80, 184
-0.98674, 81, 41, 112, 104
-0.986836, 141, 49, 172, 176
-0.986857, 321, 161, 352, 288
-0.986902, 337, 49, 464, 112
-0.986908, 41, 41, 72, 104
-0.986911, 209, 129, 240, 256
-0.986971, 221, 193, 252, 320
-0.98698, 129, 1, 192, 358
-0.987008, 97, 297, 128, 358
-0.987033, 361, 1, 424, 358
-0.98707, 241, 241, 272, 304
-0.987111, 205, 81, 236, 144
-0.98716, 193, 145, 320, 208
-0.987215, 145, 273, 272, 336
-0.987221, 233, 81, 264, 144
-0.98729, 185, 225, 216, 352
-0.987307, 209, 273, 336, 336
-0.987339, 377, 1, 408, 128
-0.98737, 109, 249, 140, 312
-0.987458, 125, 25, 156, 88
-0.987505, 153, 1, 184, 128
-0.987513, 353, 81, 480, 144
-0.987525, 249, 177, 280, 304
-0.987561, 405, 1, 436, 64
-0.987675, 249, 1, 312, 358
-0.987692, 225, 121, 352, 184
-0.987705, 381, 209, 412, 272
-0.987714, 177, 81, 208, 144
-0.987755, 41, 145, 72, 208
-0.987786, 13, 289, 44, 352
-0.987915, 121, 1, 152, 64
-0.987917, 337, 97, 400, 352
-0.987929, 257, 81, 288, 144
-0.987939, 1, 273, 32, 336
-0.987971, 345, 97, 408, 224
-0.987992, 129, 297, 160, 358
-0.988063, 429, 1, 460, 128
-0.988168, 273, 81, 400, 144
-0.988293, 73, 17, 104, 144
-0.988302, 233, 145, 264, 272
-0.988309, 145, 97, 208, 352
-0.988377, 305, 153, 432, 216
-0.988402, 289, 33, 416, 96
-0.988424, 297, 145, 328, 272
-0.98855, 401, 1, 464, 358
-0.988574, 369, 193, 496, 256
-0.988586, 289, 1, 352, 358
-0.988607, 1, 97, 64, 352
-0.988632, 329, 1, 392, 358
-0.988657, 449, 49, 480, 176
-0.988687, 265, 49, 296, 176
-0.9887, 217, 81, 248, 208
-0.988798, 469, 225, 500, 352
-0.988917, 153, 97, 184, 224
-0.988946, 173, 225, 204, 352
-0.988994, 441, 161, 472, 288
-0.989006, 89, 213, 152, 244
-0.989026, 433, 1, 496, 256
-0.98907, 257, 65, 320, 96
-0.989247, 417, 273, 480, 304
-0.989359, 257, 257, 500, 320
-0.989415, 121, 225, 184, 256
-0.989426, 97, 225, 160, 256
-0.989436, 65, 209, 128, 240
-0.989495, 401, 261, 464, 292
-0.98951, 281, 257, 344, 288
-0.989511, 393, 241, 456, 272
-0.989523, 369, 277, 432, 308
-0.989533, 89, 81, 152, 112
-0.989637, 353, 257, 416, 288
-0.989645, 225, 225, 480, 288
-0.989666, 225, 45, 288, 76
-0.989675, 57, 45, 120, 76
-0.989772, 41, 73, 104, 104
-0.98983, 393, 277, 456, 308
-0.989854, 233, 249, 296, 280
-0.989884, 33, 53, 96, 84
-0.989929, 65, 225, 320, 288
-0.989975, 449, 1, 480, 128
-0.990003, 369, 161, 496, 224
-0.990032, 105, 181, 168, 212
-0.990061, 465, 97, 496, 224
-0.990078, 97, 237, 160, 268
-0.990084, 65, 77, 128, 108
-0.990091, 33, 197, 96, 228
-0.990095, 57, 281, 120, 312
-0.990142, 65, 193, 128, 224
-0.990171, 209, 241, 272, 272
-0.990196, 73, 57, 136, 88
-0.9902, 377, 261, 440, 292
-0.990204, 89, 197, 152, 228
-0.990224, 1, 185, 256, 248
-0.990225, 217, 57, 280, 88
-0.990251, 113, 165, 176, 196
-0.990255, 337, 277, 400, 308
-0.990269, 97, 93, 160, 124
-0.990288, 161, 233, 224, 264
-0.99029, 17, 285, 80, 316
-0.990293, 417, 249, 480, 280
-0.990298, 57, 101, 120, 132
-0.990317, 257, 257, 320, 288
-0.990339, 353, 245, 416, 276
-0.99034, 65, 41, 320, 104
-0.990369, 321, 265, 384, 296
-0.990389, 97, 29, 160, 60
-0.99039, 201, 41, 264, 72
-0.990394, 425, 285, 488, 316
-0.990412, 301, 65, 332, 192
-0.990424, 185, 237, 248, 268
-0.990429, 429, 65, 460, 192
-0.990455, 273, 121, 400, 184
-0.990466, 169, 109, 232, 140
-0.990494, 65, 221, 128, 252
-0.990506, 425, 1, 488, 358
-0.990512, 393, 221, 456, 252
-0.990512, 73, 237, 136, 268
-0.990524, 457, 177, 488, 304
-0.990524, 57, 121, 120, 152
-0.990525, 281, 245, 344, 276
-0.990581, 89, 69, 152, 100
-0.990585, 145, 217, 208, 248
-0.990585, 309, 17, 340, 144
-0.990592, 121, 213, 184, 244
-0.990622, 433, 261, 496, 292
-0.990622, 33, 233, 96, 264
-0.990633, 385, 17, 448, 48
-0.990654, 265, 53, 328, 84
-0.990664, 121, 25, 184, 56
-0.990673, 145, 189, 208, 220
-0.990677, 25, 85, 88, 116
-0.990685, 1, 89, 256, 152
-0.990689, 321, 249, 384, 280
-0.990708, 1, 69, 64, 100
-0.990721, 73, 249, 136, 280
-0.990722, 25, 213, 88, 244
-0.990732, 25, 17, 56, 144
-0.990749, 105, 293, 168, 324
-0.99076, 81, 45, 144, 76
-0.990766, 1, 273, 64, 304
-0.990772, 425, 21, 488, 52
-0.990772, 249, 277, 312, 308
-0.9908, 225, 97, 352, 160
-0.990805, 97, 253, 160, 284
-0.990816, 97, 1, 160, 32
-0.990826, 169, 121, 232, 152
-0.990835, 41, 157, 104, 188
-0.990836, 65, 177, 128, 208
-0.990847, 65, 89, 128, 120
-0.990854, 9, 241, 72, 272
-0.990862, 177, 197, 240, 228
-0.990862, 369, 289, 432, 320
-0.990863, 417, 233, 480, 264
-0.990884, 257, 241, 320, 272
-0.990885, 33, 41, 96, 72
-0.990888, 1, 81, 32, 208
-0.990921, 49, 141, 112, 172
-0.990935, 201, 225, 232, 352
-0.990944, 193, 225, 256, 256
-0.990994, 1, 297, 64, 328
-0.991002, 321, 225, 384, 256
-0.991006, 49, 293, 112, 324
-0.991046, 249, 77, 312, 108
-0.991049, 33, 265, 96, 296
-0.991077, 209, 201, 272, 232
-0.991087, 129, 89, 192, 120
-0.991118, 393, 209, 456, 240
-0.991123, 153, 177, 216, 208
-0.991129, 401, 289, 464, 320
-0.991132, 9, 53, 72, 84
-0.991144, 25, 297, 88, 328
-0.991156, 353, 233, 416, 264
-0.991165, 193, 101, 256, 132
-0.991177, 121, 201, 184, 232
-0.991183, 373, 161, 404, 288
-0.991202, 121, 237, 184, 268
-0.991222, 73, 33, 136, 64
-0.991232, 281, 113, 312, 240
-0.991232, 41, 173, 104, 204
-0.991236, 225, 69, 288, 100
-0.99124, 9, 257, 72, 288
-0.991255, 313, 237, 376, 268
-0.991266, 89, 13, 152, 44
-0.991288, 169, 217, 232, 248
-0.991293, 297, 61, 360, 92
-0.991299, 297, 221, 360, 252
-0.991303, 89, 309, 152, 340
-0.991305, 73, 161, 136, 192
-0.991308, 153, 165, 216, 196
-0.991313, 265, 213, 328, 244
-0.991315, 137, 77, 200, 108
-0.991335, 81, 105, 144, 136
-0.991348, 145, 109, 208, 140
-0.991352, 97, 57, 160, 88
-0.991369, 121, 273, 184, 304
-0.991379, 121, 305, 184, 336
-0.99141, 353, 221, 416, 252
-0.991413, 89, 281, 152, 312
-0.991414, 369, 137, 496, 200
-0.991416, 341, 1, 372, 128
-0.991419, 281, 289, 344, 320
-0.991421, 129, 9, 192, 40
-0.991437, 209, 85, 272, 116
-0.991439, 73, 133, 136, 164
-0.99145, 65, 65, 320, 128
-0.991464, 49, 245, 112, 276
-0.991476, 73, 269, 136, 300
-0.991479, 233, 237, 296, 268
-0.99148, 433, 33, 496, 64
-0.991483, 417, 221, 480, 252
-0.991484, 385, 161, 416, 288
-0.991505, 137, 253, 200, 284
-0.991516, 129, 61, 192, 92
-0.991569, 161, 249, 416, 312
-0.991619, 181, 17, 212, 144
-0.991638, 289, 1, 320, 128
-0.991687, 161, 201, 416, 264
-0.991712, 337, 105, 464, 168
-0.991772, 49, 1, 80, 128
-0.991947, 13, 177, 44, 304
-0.992011, 209, 297, 336, 358
-0.99207, 365, 1, 396, 128
-0.992157, 33, 113, 288, 176
-0.992179, 65, 17, 320, 80
-0.992181, 441, 97, 472, 224
-0.992283, 105, 217, 136, 248
-0.992295, 377, 273, 408, 304
-0.992311, 465, 277, 496, 308
-0.992313, 245, 129, 276, 256
-0.992332, 1, 209, 500, 272
-0.992337, 289, 65, 320, 192
-0.992388, 161, 65, 416, 128
-0.992396, 153, 49, 184, 176
-0.99245, 453, 269, 484, 300
-0.992453, 337, 49, 368, 176
-0.992484, 1, 241, 500, 304
-0.992545, 129, 225, 160, 256
-0.99255, 261, 69, 292, 100
-0.992561, 341, 245, 372, 276
-0.99257, 37, 53, 68, 84
-0.992576, 397, 281, 428, 312
-0.992593, 381, 261, 412, 292
-0.992596, 129, 81, 160, 112
-0.992605, 117, 217, 148, 248
-0.992608, 373, 49, 404, 176
-0.992611, 205, 221, 236, 252
-0.992628, 405, 265, 436, 296
-0.992628, 49, 49, 80, 80
-0.992634, 357, 265, 388, 296
-0.992642, 333, 265, 364, 296
-0.992647, 253, 81, 284, 208
-0.992651, 93, 37, 124, 68
-0.992668, 197, 105, 228, 136
-0.99267, 173, 217, 204, 248
-0.992675, 465, 257, 496, 288
-0.992676, 81, 209, 112, 240
-0.992678, 433, 269, 464, 300
-0.992685, 317, 113, 348, 240
-0.992689, 45, 65, 76, 96
-0.99269, 113, 81, 144, 112
-0.992691, 109, 29, 140, 60
-0.992692, 93, 213, 124, 244
-0.992699, 153, 225, 184, 256
-0.9927, 265, 249, 296, 280
-0.9927, 321, 129, 448, 192
-0.992704, 77, 289, 108, 320
-0.992707, 365, 253, 396, 284
-0.992713, 345, 229, 376, 260
-0.992716, 329, 249, 360, 280
-0.992722, 425, 241, 456, 272
-0.992723, 417, 269, 448, 300
-0.992727, 445, 281, 476, 312
-0.992737, 289, 257, 320, 288
-0.992743, 225, 241, 256, 272
-0.992745, 5, 297, 36, 328
-0.992746, 373, 233, 404, 264
-0.992753, 45, 197, 76, 228
-0.992753, 105, 173, 136, 204
-0.992755, 61, 277, 92, 308
-0.992761, 257, 41, 288, 72
-0.992762, 125, 25, 156, 56
-0.992764, 445, 257, 476, 288
-0.992779, 237, 241, 268, 272
-0.99278, 257, 57, 288, 88
-0.99278, 129, 93, 160, 124
-0.992792, 185, 109, 216, 140
-0.992799, 233, 41, 264, 72
-0.992817, 361, 237, 392, 268
-0.992818, 269, 57, 300, 88
-0.992818, 329, 237, 360, 268
-0.992823, 109, 229, 140, 260
-0.992826, 245, 53, 276, 84
-0.992827, 141, 209, 172, 240
-0.992829, 93, 193, 124, 224
-0.992833, 173, 193, 204, 224
-0.992834, 253, 245, 284, 276
-0.99284, 409, 237, 440, 268
-0.992852, 197, 201, 228, 232
-0.992853, 165, 229, 196, 260
-0.992855, 273, 277, 304, 308
-0.992858, 37, 37, 68, 68
-0.99286, 425, 257, 456, 288
-0.992862, 81, 57, 112, 88
-0.992862, 257, 49, 500, 112
-0.992867, 389, 237, 420, 268
-0.992869, 193, 233, 224, 264
-0.992871, 345, 265, 376, 296
-0.992873, 409, 281, 440, 312
-0.992875, 45, 169, 76, 200
-0.992878, 117, 205, 148, 236
-0.992881, 217, 85, 248, 116
-0.992883, 357, 277, 388, 308
-0.992884, 157, 189, 188, 220
-0.992884, 197, 121, 228, 152
-0.992886, 9, 285, 40, 316
-0.992893, 105, 205, 136, 236
-0.992894, 277, 253, 308, 284
-0.992895, 405, 197, 436, 228
-0.992895, 65, 233, 96, 264
-0.992895, 69, 205, 100, 236
-0.992896, 125, 305, 156, 336
-0.9929, 421, 281, 452, 312
-0.992901, 413, 17, 444, 48
-0.992902, 21, 241, 52, 272
-0.992903, 85, 229, 116, 260
-0.992904, 393, 269, 424, 300
-0.992906, 237, 89, 268, 120
-0.992907, 397, 1, 428, 32
-0.992911, 161, 297, 288, 358
-0.992911, 25, 49, 56, 80
-0.992915, 385, 249, 416, 280
-0.992924, 1, 41, 500, 104
-0.992928, 117, 173, 148, 204
-0.992929, 141, 225, 172, 256
-0.992929, 433, 281, 464, 312
-0.992932, 317, 245, 348, 276
-0.992934, 109, 41, 140, 72
-0.992937, 93, 85, 124, 116
-0.992944, 217, 225, 248, 256
-0.992946, 33, 69, 64, 100
-0.992947, 161, 213, 192, 244
-0.992953, 185, 193, 216, 224
-0.992954, 109, 313, 140, 344
-0.992959, 57, 69, 88, 100
-0.99296, 97, 89, 352, 152
-0.992967, 241, 77, 272, 108
-0.992971, 33, 193, 64, 224
-0.99298, 145, 17, 176, 48
-0.992989, 305, 69, 336, 100
-0.992991, 61, 57, 92, 88
-0.992995, 453, 97, 484, 224
-0.992996, 181, 229, 212, 260
-0.992996, 333, 225, 364, 256
-0.992997, 141, 169, 172, 200
-0.992999, 433, 21, 464, 52
-0.992999, 469, 289, 500, 320
-0.993, 317, 261, 348, 292
-0.993001, 265, 113, 296, 240
-0.993005, 81, 117, 112, 148
-0.993006, 393, 13, 424, 44
-0.993007, 213, 237, 244, 268
-0.993009, 185, 217, 216, 248
-0.993013, 9, 309, 40, 340
-0.993017, 117, 293, 148, 324
-0.993018, 425, 217, 456, 248
-0.993018, 293, 205, 324, 236
-0.993019, 401, 253, 432, 284
-0.99302, 57, 197, 88, 228
-0.993025, 53, 153, 84, 184
-0.993025, 65, 157, 96, 188
-0.993026, 13, 261, 44, 292
-0.993028, 177, 181, 208, 212
-0.993163, 1, 297, 256, 358
-0.993242, 161, 1, 416, 64
-0.993287, 173, 65, 204, 192
-0.993322, 393, 113, 424, 240
-0.993323, 369, 265, 496, 296
-0.993409, 225, 25, 480, 88
-0.993506, 329, 1, 360, 128
-0.993576, 33, 213, 160, 244
-0.99358, 1, 185, 500, 248
-0.9937, 25, 145, 56, 272
-0.993747, 321, 269, 448, 300
-0.993749, 225, 281, 480, 344
-0.993773, 113, 229, 240, 260
-0.993805, 365, 233, 380, 296
-0.993856, 37, 1, 68, 128
-0.993904, 33, 137, 288, 200
-0.993937, 1, 81, 500, 144
-0.993966, 1, 129, 500, 192
-0.99398, 253, 49, 268, 112
-0.994024, 65, 265, 320, 328
-0.994066, 375, 233, 390, 296
-0.994069, 33, 73, 160, 104
-0.994106, 273, 257, 400, 288
-0.994109, 175, 185, 190, 248
-0.994182, 97, 289, 352, 352
-0.994202, 241, 153, 368, 216
-0.994296, 193, 245, 320, 276
-0.994301, 381, 241, 396, 304
-0.994322, 145, 241, 272, 272
-0.994324, 183, 201, 198, 264
-0.99436, 387, 249, 402, 312
-0.994391, 17, 297, 144, 328
-0.994414, 65, 225, 192, 256
-0.994429, 257, 1, 500, 64
-0.994568, 59, 169, 74, 232
-0.99461, 1, 201, 128, 232
-0.994617, 219, 209, 234, 272
-0.994662, 97, 177, 352, 240
-0.994694, 469, 257, 484, 320
-0.994702, 65, 41, 192, 72
-0.994723, 305, 281, 432, 312
-0.994744, 353, 237, 480, 268
-0.994748, 291, 249, 306, 312
-0.994756, 113, 209, 240, 240
-0.994774, 321, 257, 448, 288
-0.994787, 177, 53, 304, 84
-0.994807, 369, 257, 384, 320
-0.994812, 241, 69, 368, 100
-0.99482, 1, 285, 128, 316
-0.994832, 427, 241, 442, 304
-0.994872, 65, 29, 192, 60
-0.994887, 169, 193, 184, 256
-0.99492, 355, 233, 370, 296
-0.99492, 177, 73, 304, 104
-0.994943, 49, 85, 176, 116
-0.994953, 49, 97, 176, 128
-0.994964, 419, 241, 434, 304
-0.994975, 477, 257, 492, 320
-0.995003, 329, 241, 344, 304
-0.995019, 381, 265, 396, 328
-0.995044, 297, 249, 312, 312
-0.995047, 1, 265, 500, 328
-0.995074, 199, 105, 214, 168
-0.995078, 33, 61, 160, 92
-0.995091, 1, 161, 256, 224
-0.995096, 393, 257, 408, 320
-0.995106, 353, 281, 480, 312
-0.995106, 435, 241, 450, 304
-0.99511, 131, 217, 146, 280
-0.995115, 273, 269, 400, 300
-0.995148, 393, 233, 408, 296
-0.995151, 369, 249, 496, 280
-0.995154, 49, 169, 64, 232
-0.995167, 323, 257, 338, 320
-0.995168, 225, 161, 480, 224
-0.995172, 65, 161, 80, 224
-0.995185, 137, 89, 152, 152
-0.995193, 241, 237, 368, 268
-0.995225, 463, 257, 478, 320
-0.99524, 241, 57, 368, 88
-0.995252, 97, 77, 224, 108
-0.995258, 1, 105, 500, 168
-0.995276, 285, 249, 300, 312
-0.995299, 375, 257, 390, 320
-0.995301, 225, 81, 352, 112
-0.995302, 387, 225, 402, 288
-0.995312, 1, 233, 128, 264
-0.995315, 321, 221, 448, 252
-0.99534, 343, 233, 358, 296
-0.995352, 265, 57, 280, 120
-0.995354, 17, 49, 144, 80
-0.995362, 209, 201, 224, 264
-0.995364, 129, 153, 384, 216
-0.995364, 71, 193, 86, 256
-0.995376, 97, 209, 112, 272
-0.995379, 361, 257, 376, 320
-0.995385, 177, 209, 192, 272
-0.995391, 335, 225, 350, 288
-0.99541, 99, 185, 114, 248
-0.995424, 441, 249, 456, 312
-0.995445, 305, 245, 432, 276
-0.995446, 113, 1, 128, 64
-0.995459, 191, 193, 206, 256
-0.995469, 55, 257, 70, 320
-0.995473, 143, 1, 158, 64
-0.995545, 337, 257, 352, 320
-0.995553, 121, 209, 136, 272
-0.995562, 161, 229, 288, 260
-0.995566, 303, 249, 318, 312
-0.995571, 245, 41, 260, 104
-0.995571, 103, 9, 118, 72
-0.995589, 121, 177, 136, 240
-0.995591, 257, 193, 500, 256
-0.995595, 33, 121, 160, 152
-0.995599, 33, 133, 160, 164
-0.995611, 225, 257, 352, 288
-0.995613, 421, 217, 436, 280
-0.995624, 17, 33, 144, 64
-0.99564, 151, 201, 166, 264
-0.995651, 105, 49, 120, 112
-0.995654, 259, 49, 274, 112
-0.995655, 83, 201, 98, 264
-0.995664, 447, 249, 462, 312
-0.995666, 81, 297, 208, 328
-0.995679, 213, 225, 228, 288
-0.995679, 355, 257, 370, 320
-0.995685, 49, 109, 176, 140
-0.995687, 49, 277, 176, 308
-0.995703, 257, 73, 500, 136
-0.995708, 113, 25, 128, 88
-0.995718, 113, 101, 240, 132
-0.995721, 1, 9, 500, 72
-0.995734, 405, 1, 420, 64
-0.995738, 13, 257, 28, 320
-0.995738, 61, 129, 76, 192
-0.995739, 207, 105, 222, 168
-0.995744, 81, 9, 208, 40
-0.995745, 177, 85, 304, 116
-0.995754, 225, 201, 240, 264
-0.99576, 127, 81, 142, 144
-0.995788, 23, 249, 38, 312
-0.995793, 159, 185, 174, 248
-0.995794, 457, 257, 472, 320
-0.995809, 161, 217, 176, 280
-0.995816, 345, 257, 360, 320
-0.995817, 349, 225, 364, 288
-0.995826, 159, 161, 174, 224
-0.995833, 181, 177, 196, 240
-0.995834, 77, 201, 92, 264
-0.995844, 65, 193, 192, 224
-0.99585, 1, 85, 128, 116
-0.995852, 129, 129, 384, 192
-0.99587, 137, 1, 152, 64
-0.995883, 259, 73, 274, 136
-0.995884, 137, 217, 152, 280
-0.995885, 403, 241, 418, 304
-0.995885, 75, 129, 90, 192
-0.995886, 95, 81, 110, 144
-0.995887, 193, 217, 208, 280
-0.995898, 161, 201, 288, 232
-0.995902, 105, 185, 120, 248
-0.99591, 425, 265, 440, 328
-0.99591, 229, 1, 260, 256
-0.995912, 413, 241, 428, 304
-0.995914, 289, 233, 416, 264
-0.995918, 279, 257, 294, 320
-0.995923, 369, 25, 496, 56
-0.995931, 113, 89, 240, 120
-0.995939, 289, 73, 416, 104
-0.995939, 11, 297, 26, 358
-0.99595, 321, 217, 336, 280
-0.995968, 121, 281, 136, 344
-0.995972, 161, 41, 288, 72
-0.995992, 219, 233, 234, 296
-0.995994, 81, 169, 96, 232
-0.995995, 257, 113, 500, 176
-0.996002, 483, 257, 498, 320
-0.996015, 317, 249, 332, 312
-0.99603, 199, 225, 214, 288
-0.996032, 33, 149, 160, 180
-0.996041, 99, 273, 114, 336
-0.996046, 113, 185, 240, 216
-0.996059, 97, 1, 128, 256
-0.996063, 41, 185, 56, 248
-0.996067, 65, 165, 192, 196
-0.99607, 143, 73, 158, 136
-0.996074, 1, 245, 128, 276
-0.996081, 145, 185, 160, 248
-0.996082, 273, 41, 288, 104
-0.99609, 369, 221, 496, 252
-0.996094, 71, 169, 86, 232
-0.996097, 27, 225, 42, 288
-0.9961, 415, 185, 430, 248
-0.996109, 91, 169, 106, 232
-0.996132, 115, 169, 130, 232
-0.996142, 225, 209, 352, 240
-0.996144, 17, 21, 144, 52
-0.996165, 55, 145, 70, 208
-0.996166, 1, 161, 500, 224
-0.996167, 119, 25, 134, 88
-0.996175, 91, 201, 106, 264
-0.996184, 291, 209, 306, 272
-0.996188, 407, 201, 422, 264
-0.996195, 131, 17, 146, 80
-0.996202, 67, 265, 82, 328
-0.996202, 197, 193, 212, 256
-0.996212, 33, 177, 160, 208
-0.996221, 441, 225, 456, 288
-0.996227, 265, 33, 280, 96
-0.996236, 161, 113, 288, 144
-0.996244, 113, 321, 240, 352
-0.996251, 203, 201, 218, 264
-0.996258, 381, 217, 396, 280
-0.996259, 251, 17, 266, 80
-0.996267, 73, 273, 88, 336
-0.996268, 415, 265, 430, 328
-0.996269, 61, 265, 76, 328
-0.996275, 33, 225, 48, 288
-0.996277, 167, 217, 182, 280
-0.996283, 85, 1, 116, 256
-0.996285, 241, 45, 368, 76
-0.996285, 161, 217, 288, 248
-0.99629, 129, 125, 256, 156
-0.996298, 65, 201, 80, 264
-0.996299, 225, 233, 240, 296
-0.996313, 121, 233, 136, 296
-0.996326, 273, 221, 400, 252
-0.996328, 307, 217, 322, 280
-0.996337, 297, 217, 312, 280
-0.996358, 309, 249, 324, 312
-0.996389, 113, 197, 240, 228
-0.996431, 97, 309, 224, 340
-0.996447, 1, 309, 128, 340
-0.996463, 241, 285, 368, 316
-0.996469, 1, 261, 128, 292
-0.996502, 1, 109, 128, 140
-0.996521, 65, 249, 192, 280
-0.996573, 69, 65, 100, 320
-0.996581, 257, 137, 500, 200
-0.996681, 129, 145, 256, 176
-0.996682, 217, 1, 248, 256
-0.996697, 289, 205, 416, 236
-0.996703, 337, 13, 464, 44
-0.996703, 193, 273, 320, 304
-0.996706, 177, 101, 304, 132
-0.996721, 113, 25, 240, 56
-0.996724, 81, 133, 208, 164
-0.99673, 305, 1, 432, 32
-0.99675, 145, 169, 272, 200
-0.996755, 225, 225, 352, 256
-0.996756, 113, 65, 240, 96
-0.996769, 1, 273, 128, 304
-0.996772, 113, 37, 240, 68
-0.996805, 65, 237, 192, 268
-0.996832, 241, 33, 368, 64
-0.996881, 17, 161, 144, 192
-0.996886, 97, 113, 224, 144
-0.996929, 353, 65, 480, 96
-0.996959, 141, 1, 172, 256
-0.996987, 53, 97, 84, 352
-0.997012, 177, 125, 304, 156
-0.997038, 177, 1, 208, 256
-0.997041, 241, 1, 272, 256
-0.997059, 257, 1, 288, 256
-0.997063, 177, 149, 304, 180
-0.997103, 65, 261, 192, 292
-0.99711, 241, 197, 368, 228
-0.997112, 205, 1, 236, 256
-0.997118, 353, 293, 480, 324
-0.997143, 113, 257, 240, 288
-0.997186, 225, 185, 352, 216
-0.997189, 353, 209, 480, 240
-0.997191, 121, 1, 152, 256
-0.997219, 203, 109, 218, 140
-0.997224, 289, 61, 416, 92
-0.997224, 33, 1, 160, 32
-0.997227, 97, 53, 224, 84
-0.997248, 177, 257, 304, 288
-0.997283, 273, 85, 400, 116
-0.997292, 129, 285, 256, 316
-0.997294, 197, 97, 228, 352
-0.997318, 289, 45, 416, 76
-0.997329, 129, 157, 256, 188
-0.997336, 377, 1, 408, 256
-0.997356, 267, 61, 282, 92
-0.997358, 161, 29, 288, 60
-0.997359, 337, 89, 464, 120
-0.99736, 237, 97, 268, 352
-0.997361, 193, 285, 320, 316
-0.997375, 193, 1, 224, 256
-0.997388, 49, 309, 176, 340
-0.997391, 305, 161, 432, 192
-0.997393, 135, 89, 150, 120
-0.9974, 33, 325, 160, 356
-0.997411, 81, 97, 112, 352
-0.997419, 469, 277, 484, 308
-0.997422, 157, 65, 188, 320
-0.997425, 369, 77, 496, 108
-0.997432, 475, 277, 490, 308
-0.997444, 209, 161, 336, 192
-0.997472, 321, 97, 352, 352
-0.997497, 483, 277, 498, 308
-0.997503, 161, 189, 288, 220
-0.997518, 1, 297, 500, 358
-0.997526, 387, 253, 402, 284
-0.997542, 363, 245, 378, 276
-0.997549, 131, 77, 146, 108
-0.997562, 257, 57, 272, 88
-0.99757, 459, 265, 474, 296
-0.997592, 241, 1, 368, 32
-0.9976, 353, 53, 480, 84
-0.997604, 337, 193, 464, 224
-0.997607, 389, 1, 420, 256
-0.997609, 385, 237, 400, 268
-0.99761, 107, 213, 122, 244
-0.997621, 105, 97, 136, 352
-0.997624, 369, 1, 496, 32
-0.997639, 225, 133, 352, 164
-0.997641, 381, 273, 396, 304
-0.997643, 305, 301, 432, 332
-0.997664, 49, 1, 80, 256
-0.997675, 17, 189, 144, 220
-0.997678, 449, 265, 464, 296
-0.997678, 133, 221, 148, 252
-0.997681, 183, 205, 198, 236
-0.997693, 209, 113, 224, 144
-0.997702, 177, 137, 304, 168
-0.997703, 225, 297, 352, 328
-0.997703, 185, 217, 200, 248
-0.997713, 145, 309, 272, 340
-0.997717, 197, 105, 212, 136
-0.997718, 193, 1, 320, 32
-0.997719, 419, 269, 434, 300
-0.99772, 177, 213, 192, 244
-0.997731, 99, 193, 114, 224
-0.997738, 41, 97, 72, 352
-0.997745, 389, 97, 420, 352
-0.997745, 119, 213, 134, 244
-0.997755, 359, 265, 374, 296
-0.997758, 113, 29, 128, 60
-0.997762, 29, 1, 60, 256
-0.997785, 97, 213, 112, 244
-0.997789, 273, 57, 288, 88
-0.997794, 113, 269, 240, 300
-0.997794, 239, 89, 254, 120
-0.997795, 477, 265, 492, 296
-0.997795, 353, 233, 368, 264
-0.997804, 367, 233, 382, 264
-0.997805, 121, 169, 136, 200
-0.997809, 457, 1, 488, 256
-0.997813, 353, 245, 368, 276
-0.997823, 391, 233, 406, 264
-0.997825, 405, 1, 420, 32
-0.997826, 459, 253, 474, 284
-0.997831, 345, 249, 360, 280
-0.997832, 281, 261, 296, 292
-0.997834, 443, 269, 458, 300
-0.997835, 461, 277, 476, 308
-0.997841, 61, 49, 76, 80
-0.997856, 225, 97, 256, 352
-0.997863, 285, 273, 300, 304
-0.99787, 53, 49, 68, 80
-0.99787, 141, 81, 156, 112
-0.997876, 469, 265, 484, 296
-0.997886, 169, 97, 200, 352
-0.997887, 139, 225, 154, 256
-0.997894, 373, 257, 388, 288
-0.997896, 375, 245, 390, 276
-0.997896, 261, 245, 276, 276
-0.997899, 165, 225, 180, 256
-0.997906, 413, 281, 428, 312
-0.997906, 197, 117, 212, 148
-0.997907, 51, 69, 66, 100
-0.997917, 109, 1, 140, 256
-0.997918, 345, 225, 360, 256
-0.997921, 401, 277, 416, 308
-0.997923, 263, 45, 278, 76
-0.997929, 375, 233, 390, 264
-0.99793, 217, 221, 232, 252
-0.997931, 393, 257, 408, 288
-0.997931, 145, 97, 176, 352
-0.997935, 437, 269, 452, 300
-0.997946, 109, 293, 124, 324
-0.997949, 381, 257, 396, 288
-0.997949, 291, 253, 306, 284
-0.99795, 369, 273, 384, 304
-0.997955, 73, 281, 88, 312
-0.997958, 341, 265, 356, 296
-0.997966, 247, 45, 262, 76
-0.997972, 135, 25, 150, 56
-0.997977, 129, 97, 160, 352
-0.997978, 261, 73, 276, 104
-0.997984, 425, 269, 440, 300
-0.997989, 145, 229, 160, 260
-0.997989, 11, 297, 26, 328
-0.997993, 333, 97, 364, 352
-0.998004, 225, 237, 240, 268
-0.998007, 61, 289, 76, 320
-0.99801, 115, 165, 130, 196
-0.998012, 281, 249, 296, 280
-0.998017, 191, 217, 206, 248
-0.998019, 467, 249, 482, 280
-0.998021, 435, 241, 450, 272
-0.998023, 447, 249, 462, 280
-0.998024, 277, 97, 308, 352
-0.998024, 57, 65, 72, 96
-0.998025, 185, 193, 200, 224
-0.998026, 153, 225, 168, 256
-0.998029, 415, 193, 430, 224
-0.998031, 151, 209, 166, 240
-0.998032, 241, 41, 256, 72
-0.998032, 419, 281, 434, 312
-0.998034, 409, 1, 440, 256
-0.998037, 257, 97, 288, 352
-0.998039, 41, 193, 56, 224
-0.99804, 249, 241, 264, 272
-0.998041, 291, 273, 306, 304
-0.998045, 39, 49, 54, 80
-0.998047, 367, 257, 382, 288
-0.998049, 9, 281, 24, 312
-0.998053, 271, 249, 286, 280
-0.998053, 191, 109, 206, 140
-0.998057, 239, 241, 254, 272
-0.998061, 357, 97, 388, 352
-0.998071, 309, 33, 340, 288
-0.998075, 181, 97, 212, 352
-0.998076, 173, 189, 188, 220
-0.998082, 347, 265, 362, 296
-0.998083, 413, 265, 428, 296
-0.998088, 255, 85, 270, 116
-0.998089, 219, 237, 234, 268
-0.998089, 95, 285, 110, 316
-0.998095, 125, 217, 140, 248
-0.998096, 113, 213, 128, 244
-0.998098, 293, 97, 324, 352
-0.998099, 159, 229, 174, 260
-0.998101, 393, 273, 408, 304
-0.998102, 427, 237, 442, 268
-0.998104, 45, 37, 60, 68
-0.998116, 333, 245, 348, 276
-0.998117, 103, 33, 118, 64
-0.998118, 89, 197, 104, 228
-0.99812, 231, 237, 246, 268
-0.998125, 373, 97, 404, 352
-0.998125, 431, 269, 446, 300
-0.998128, 483, 41, 498, 72
-0.998128, 407, 277, 422, 308
-0.998141, 247, 81, 262, 112
-0.998143, 401, 265, 416, 296
-0.998146, 45, 61, 60, 92
-0.99815, 353, 265, 368, 296
-0.998151, 199, 229, 214, 260
-0.998152, 167, 193, 182, 224
-0.998161, 3, 321, 18, 352
-0.998168, 75, 201, 90, 232
-0.99817, 255, 245, 270, 276
-0.998171, 421, 253, 436, 284
-0.998173, 291, 285, 306, 316
-0.998174, 451, 277, 466, 308
-0.998176, 253, 37, 268, 68
-0.998176, 91, 209, 106, 240
-0.998206, 209, 97, 240, 352
-0.998285, 409, 97, 440, 352
-0.998297, 365, 1, 396, 256
-0.998324, 469, 1, 500, 256
-0.998342, 29, 97, 60, 352
-0.998356, 9, 97, 40, 352
-0.998388, 117, 97, 148, 352
-0.998393, 57, 47, 88, 62
-0.998393, 237, 249, 268, 264
-0.998394, 413, 25, 444, 40
-0.998395, 425, 21, 456, 36
-0.998395, 109, 93, 140, 108
-0.998395, 121, 309, 152, 324
-0.998395, 337, 223, 368, 238
-0.998397, 309, 77, 340, 92
-0.998397, 189, 227, 220, 242
-0.998398, 401, 277, 432, 292
-0.998398, 37, 67, 68, 82
-0.998398, 413, 19, 444, 34
-0.998399, 157, 233, 188, 248
-0.998399, 37, 203, 68, 218
-0.998399, 225, 247, 256, 262
-0.9984, 425, 209, 456, 224
-0.9984, 365, 261, 396, 276
-0.998401, 117, 175, 148, 190
-0.998401, 149, 203, 180, 218
-0.998402, 73, 95, 104, 110
-0.998402, 409, 257, 440, 272
-0.998402, 217, 97, 248, 112
-0.998404, 129, 75, 160, 90
-0.998406, 409, 207, 440, 222
-0.998406, 425, 27, 456, 42
-0.998406, 81, 71, 112, 86
-0.998406, 201, 235, 232, 250
-0.998407, 341, 259, 372, 274
-0.998409, 329, 257, 360, 272
-0.998409, 409, 235, 440, 250
-0.998409, 13, 289, 44, 304
-0.99841, 145, 221, 176, 236
-0.99841, 1, 301, 32, 316
-0.99841, 345, 243, 376, 258
-0.99841, 85, 59, 116, 74
-0.998411, 181, 193, 212, 208
-0.998411, 125, 219, 156, 234
-0.998411, 45, 171, 76, 186
-0.998411, 465, 267, 496, 282
-0.998412, 109, 81, 140, 96
-0.998412, 109, 45, 140, 60
-0.998412, 237, 83, 268, 98
-0.998412, 97, 309, 128, 324
-0.998413, 237, 51, 268, 66
-0.998414, 301, 259, 332, 274
-0.998415, 237, 97, 268, 112
-0.998415, 93, 49, 124, 64
-0.998416, 317, 259, 348, 274
-0.998418, 9, 307, 40, 322
-0.998418, 269, 275, 300, 290
-0.998419, 237, 243, 268, 258
-0.998419, 445, 287, 476, 302
-0.99842, 205, 229, 236, 244
-0.99842, 213, 239, 244, 254
-0.99842, 137, 157, 168, 172
-0.998421, 49, 67, 80, 82
-0.998422, 205, 221, 236, 236
-0.998424, 257, 49, 288, 64
-0.998424, 373, 249, 404, 264
-0.998425, 277, 283, 308, 298
-0.998425, 61, 283, 92, 298
-0.998426, 45, 83, 76, 98
-0.998426, 389, 277, 420, 292
-0.998427, 389, 235, 420, 250
-0.998427, 93, 85, 124, 100
-0.998428, 249, 41, 280, 56
-0.998428, 117, 181, 148, 196
-0.998429, 225, 91, 256, 106
-0.998429, 57, 53, 88, 68
-0.998431, 289, 213, 320, 228
-0.998431, 77, 293, 108, 308
-0.998431, 345, 265, 376, 280
-0.998432, 37, 61, 68, 76
-0.998434, 237, 89, 268, 104
-0.998436, 385, 253, 416, 268
-0.998436, 269, 59, 300, 74
-0.998438, 137, 227, 168, 242
-0.998439, 441, 265, 472, 280
-0.99844, 97, 205, 128, 220
-0.99844, 437, 281, 468, 296
-0.998441, 93, 39, 124, 54
-0.998442, 261, 249, 292, 264
-0.998443, 225, 241, 256, 256
-0.998444, 265, 65, 296, 80
-0.998447, 381, 267, 412, 282
-0.998447, 85, 227, 116, 242
-0.998447, 97, 225, 160, 240
-0.998449, 417, 281, 448, 296
-0.99845, 105, 177, 136, 192
-0.99845, 333, 243, 364, 258
-0.998451, 257, 75, 288, 90
-0.998451, 45, 289, 76, 304
-0.998452, 61, 289, 92, 304
-0.998453, 109, 87, 140, 102
-0.998454, 69, 205, 100, 220
-0.998454, 181, 115, 212, 130
-0.998456, 193, 117, 224, 132
-0.998459, 189, 233, 220, 248
-0.998459, 165, 225, 196, 240
-0.99846, 37, 197, 68, 212
-0.998461, 45, 51, 76, 66
-0.998461, 41, 43, 72, 58
-0.998462, 101, 211, 132, 226
-0.998463, 9, 295, 40, 310
-0.998463, 365, 269, 396, 284
-0.998465, 229, 45, 260, 60
-0.998466, 121, 227, 184, 242
-0.998466, 457, 277, 488, 292
-0.998475, 249, 59, 280, 74
-0.998475, 177, 229, 208, 244
-0.998475, 289, 255, 320, 270
-0.998478, 249, 247, 280, 262
-0.998478, 241, 251, 304, 266
-0.998482, 81, 209, 112, 224
-0.998482, 109, 31, 140, 46
-0.998483, 281, 257, 344, 272
-0.998484, 125, 27, 156, 42
-0.998485, 453, 267, 484, 282
-0.998485, 149, 227, 180, 242
-0.998485, 357, 277, 388, 292
-0.998485, 33, 69, 96, 84
-0.998486, 129, 83, 160, 98
-0.998486, 41, 53, 104, 68
-0.998488, 89, 87, 152, 102
-0.998489, 345, 97, 376, 352
-0.998493, 361, 279, 424, 294
-0.998494, 89, 93, 152, 108
-0.998495, 101, 217, 132, 232
-0.998497, 53, 199, 84, 214
-0.998501, 409, 281, 472, 296
-0.998502, 73, 227, 136, 242
-0.998502, 217, 247, 280, 262
-0.998508, 65, 209, 128, 224
-0.998511, 113, 217, 144, 232
-0.998511, 181, 109, 212, 124
-0.998511, 49, 77, 112, 92
-0.998512, 273, 253, 304, 268
-0.998512, 377, 275, 408, 290
-0.998515, 97, 235, 160, 250
-0.998517, 385, 283, 448, 298
-0.998517, 89, 217, 152, 232
-0.998522, 57, 61, 120, 76
-0.998523, 201, 241, 264, 256
-0.998526, 257, 67, 320, 82
-0.998526, 65, 95, 128, 110
-0.998528, 65, 47, 128, 62
-0.998533, 433, 285, 496, 300
-0.998533, 465, 285, 496, 300
-0.998534, 401, 257, 464, 272
-0.998534, 161, 235, 224, 250
-0.998534, 197, 105, 228, 120
-0.998536, 105, 29, 168, 44
-0.998536, 49, 281, 112, 296
-0.998537, 105, 227, 136, 242
-0.998538, 25, 205, 88, 220
-0.998538, 129, 91, 160, 106
-0.998539, 361, 273, 424, 288
-0.998541, 249, 75, 312, 90
-0.998543, 225, 55, 288, 70
-0.998545, 65, 89, 128, 104
-0.998545, 33, 83, 96, 98
-0.998546, 145, 229, 208, 244
-0.998546, 353, 257, 416, 272
-0.99855, 73, 285, 136, 300
-0.998551, 25, 199, 88, 214
-0.998553, 57, 215, 120, 230
-0.998554, 425, 253, 488, 268
-0.998554, 125, 225, 156, 240
-0.998554, 169, 119, 232, 134
-0.998554, 89, 77, 152, 92
-0.998555, 73, 71, 136, 86
-0.998557, 225, 49, 288, 64
-0.998557, 197, 111, 228, 126
-0.998558, 65, 235, 128, 250
-0.998559, 417, 27, 480, 42
-0.998559, 17, 295, 80, 310
-0.998561, 201, 45, 264, 60
-0.998564, 105, 303, 168, 318
-0.998564, 89, 211, 152, 226
-0.998566, 249, 81, 312, 96
-0.998568, 169, 113, 232, 128
-0.998568, 81, 177, 144, 192
-0.998568, 401, 275, 464, 290
-0.998569, 257, 57, 320, 72
-0.998569, 65, 101, 128, 116
-0.998569, 49, 203, 112, 218
-0.998571, 401, 263, 464, 278
-0.998573, 33, 63, 96, 78
-0.998573, 193, 105, 256, 120
-0.998573, 81, 53, 144, 68
-0.998574, 265, 251, 328, 266
-0.998574, 25, 213, 88, 228
-0.998575, 97, 1, 160, 16
-0.998575, 33, 275, 96, 290
-0.998575, 113, 183, 176, 198
-0.998575, 73, 275, 136, 290
-0.998576, 385, 23, 448, 38
-0.998576, 121, 221, 184, 236
-0.998578, 169, 107, 232, 122
-0.998578, 329, 257, 392, 272
-0.998579, 397, 283, 428, 298
-0.998579, 121, 233, 184, 248
-0.998581, 81, 241, 144, 256
-0.998581, 369, 289, 432, 304
-0.998581, 17, 289, 80, 304
-0.998581, 257, 257, 320, 272
-0.998582, 57, 247, 120, 262
-0.998583, 65, 195, 128, 210
-0.998583, 65, 83, 128, 98
-0.998584, 289, 263, 352, 278
-0.998584, 89, 203, 152, 218
-0.998585, 57, 291, 120, 306
-0.998585, 393, 227, 456, 242
-0.998585, 421, 97, 452, 352
-0.998586, 97, 249, 160, 264
-0.998586, 49, 131, 112, 146
-0.998587, 313, 265, 376, 280
-0.998587, 377, 235, 440, 250
-0.998587, 121, 91, 184, 106
-0.998588, 337, 277, 400, 292
-0.998589, 89, 39, 152, 54
-0.998589, 225, 61, 288, 76
-0.998592, 57, 113, 120, 128
-0.998593, 433, 271, 496, 286
-0.998593, 129, 269, 192, 284
-0.998594, 225, 43, 288, 58
-0.998595, 73, 123, 136, 138
-0.998595, 65, 35, 128, 50
-0.998595, 225, 75, 288, 90
-0.998596, 49, 137, 112, 152
-0.998597, 25, 219, 88, 234
-0.998598, 409, 21, 472, 36
-0.998598, 41, 163, 104, 178
-0.998599, 33, 45, 96, 60
-0.998599, 9, 65, 72, 80
-0.9986, 73, 253, 136, 268
-0.9986, 137, 203, 200, 218
-0.9986, 33, 269, 96, 284
-0.998601, 433, 263, 496, 278
-0.998602, 433, 33, 496, 48
-0.998602, 25, 89, 88, 104
-0.998602, 121, 175, 184, 190
-0.998603, 97, 99, 160, 114
-0.998606, 393, 209, 456, 224
-0.998607, 201, 201, 264, 216
-0.998607, 9, 241, 72, 256
-0.998607, 193, 99, 256, 114
-0.998608, 393, 241, 456, 256
-0.998609, 369, 265, 432, 280
-0.99861, 393, 269, 456, 284
-0.99861, 353, 251, 416, 266
-0.998611, 17, 51, 80, 66
-0.998611, 401, 249, 464, 264
-0.998611, 89, 197, 152, 212
-0.998611, 409, 287, 472, 302
-0.998611, 89, 297, 152, 312
-0.998611, 113, 207, 176, 222
-0.998612, 81, 59, 144, 74
-0.998612, 169, 125, 232, 140
-0.998612, 225, 81, 288, 96
-0.998612, 17, 233, 80, 248
-0.998612, 1, 275, 64, 290
-0.998613, 433, 1, 464, 256
-0.998635, 293, 1, 324, 256
-0.998636, 465, 97, 496, 352
-0.998733, 353, 1, 384, 256
-0.998785, 107, 1, 122, 128
-0.998788, 249, 33, 264, 160
-0.998793, 437, 209, 452, 336
-0.998832, 445, 1, 476, 256
-0.998843, 415, 177, 430, 304
-0.998855, 67, 145, 82, 272
-0.998857, 341, 1, 372, 256
-0.998872, 233, 33, 248, 160
-0.998878, 241, 33, 256, 160
-0.998879, 93, 97, 124, 352
-0.998888, 63, 209, 78, 336
-0.998895, 429, 225, 444, 352
-0.998897, 183, 177, 198, 304
-0.998897, 301, 193, 316, 320
-0.998903, 409, 193, 424, 320
-0.998906, 399, 209, 414, 336
-0.99891, 381, 225, 396, 352
-0.998911, 291, 193, 306, 320
-0.998916, 317, 209, 332, 336
-0.998919, 129, 209, 144, 336
-0.99892, 307, 193, 322, 320
-0.998925, 113, 17, 128, 144
-0.998939, 281, 193, 296, 320
-0.99894, 57, 193, 72, 320
-0.998942, 423, 209, 438, 336
-0.998948, 169, 193, 184, 320
-0.99895, 101, 1, 116, 128
-0.99895, 151, 161, 166, 288
-0.998963, 333, 225, 348, 352
-0.998971, 77, 65, 92, 192
-0.998975, 327, 225, 342, 352
-0.998983, 83, 65, 98, 192
-0.998984, 73, 129, 88, 256
-0.998985, 61, 145, 76, 272
-0.998989, 443, 225, 458, 352
-0.99899, 175, 161, 190, 288
-0.998991, 371, 209, 386, 336
-0.998995, 195, 177, 210, 304
-0.999001, 139, 161, 154, 288
-0.999011, 421, 1, 452, 256
-0.999023, 345, 193, 360, 320
-0.999032, 37, 193, 52, 320
-0.999033, 23, 225, 38, 352
-0.999035, 129, 17, 144, 144
-0.999038, 123, 225, 138, 352
-0.99904, 69, 193, 84, 320
-0.99904, 43, 177, 58, 304
-0.999042, 147, 1, 162, 128
-0.999046, 55, 145, 70, 272
-0.999048, 103, 145, 118, 272
-0.99905, 159, 145, 174, 272
-0.99905, 71, 65, 86, 192
-0.999051, 97, 65, 112, 192
-0.999052, 355, 225, 370, 352
-0.999053, 61, 97, 76, 224
-0.999059, 93, 17, 108, 144
-0.99906, 29, 209, 44, 336
-0.999063, 189, 177, 204, 304
-0.999066, 91, 193, 106, 320
-0.999067, 389, 225, 404, 352
-0.999073, 257, 209, 272, 336
-0.99908, 271, 225, 286, 352
-0.999081, 133, 81, 148, 208
-0.999084, 145, 161, 160, 288
-0.999089, 123, 1, 138, 128
-0.999091, 81, 113, 96, 240
-0.999096, 255, 33, 270, 160
-0.999104, 111, 209, 126, 336
-0.999104, 121, 145, 136, 272
-0.999113, 435, 161, 450, 288
-0.999116, 153, 1, 168, 128
-0.999117, 101, 209, 116, 336
-0.999118, 321, 1, 352, 256
-0.999118, 421, 161, 436, 288
-0.999136, 265, 209, 280, 336
-0.999141, 87, 113, 102, 240
-0.999143, 227, 33, 242, 160
-0.999143, 459, 225, 474, 352
-0.999145, 117, 225, 132, 352
-0.999148, 415, 225, 430, 352
-0.999158, 415, 1, 430, 128
-0.999158, 427, 161, 442, 288
-0.999163, 93, 145, 108, 272
-0.999166, 339, 225, 354, 352
-0.999186, 49, 145, 64, 272
-0.999191, 139, 17, 154, 144
-0.999192, 103, 49, 118, 176
-0.999192, 181, 129, 196, 256
-0.999192, 133, 161, 148, 288
-0.999193, 221, 49, 236, 176
-0.999194, 167, 129, 182, 256
-0.999194, 135, 209, 150, 336
-0.999195, 215, 33, 230, 160
-0.999208, 433, 97, 464, 352
-0.999208, 75, 193, 90, 320
-0.999209, 51, 193, 66, 320
-0.999221, 323, 177, 338, 304
-0.999223, 201, 161, 216, 288
-0.999225, 113, 65, 128, 192
-0.999227, 261, 33, 276, 160
-0.999231, 335, 177, 350, 304
-0.999233, 123, 81, 138, 208
-0.999234, 147, 209, 162, 336
-0.999241, 17, 225, 32, 352
-0.999245, 115, 161, 130, 288
-0.999248, 225, 177, 240, 304
-0.999248, 153, 209, 168, 336
-0.999249, 273, 177, 288, 304
-0.99925, 141, 209, 156, 336
-0.999252, 239, 193, 254, 320
-0.999252, 163, 209, 178, 336
-0.999254, 365, 225, 380, 352
-0.999254, 241, 81, 256, 208
-0.999257, 247, 161, 262, 288
-0.999261, 315, 161, 330, 288
-0.999262, 425, 1, 440, 128
-0.999263, 393, 1, 408, 128
-0.999265, 177, 209, 192, 336
-0.999266, 409, 1, 424, 128
-0.99927, 89, 65, 104, 192
-0.99927, 113, 113, 128, 240
-0.999271, 147, 113, 162, 240
-0.999273, 475, 33, 490, 160
-0.999273, 109, 161, 124, 288
-0.999277, 219, 129, 234, 256
-0.999291, 139, 65, 154, 192
-0.999292, 377, 177, 392, 304
-0.999293, 433, 1, 448, 128
-0.999295, 381, 1, 396, 128
-0.999295, 187, 129, 202, 256
-0.999296, 17, 1, 48, 256
-0.999299, 467, 33, 482, 160
-0.999306, 81, 225, 96, 352
-0.999307, 423, 113, 438, 240
-0.999308, 211, 97, 226, 224
-0.999309, 449, 225, 464, 352
-0.999312, 201, 209, 216, 336
-0.999355, 269, 1, 300, 256
-0.999574, 33, 243, 48, 258
-0.999575, 375, 253, 390, 268
-0.999575, 295, 205, 310, 220
-0.999575, 217, 215, 232, 230
-0.999575, 157, 231, 172, 246
-0.999575, 449, 271, 464, 286
-0.999576, 459, 279, 474, 294
-0.999576, 367, 241, 382, 256
-0.999576, 485, 39, 500, 54
-0.999577, 101, 235, 116, 250
-0.999577, 255, 57, 270, 72
-0.999577, 81, 291, 96, 306
-0.999578, 399, 1, 414, 16
-0.999578, 247, 45, 262, 60
-0.999579, 303, 209, 318, 224
-0.99958, 395, 247, 410, 262
-0.99958, 247, 85, 262, 100
-0.99958, 89, 203, 104, 218
-0.999581, 129, 179, 144, 194
-0.999581, 239, 99, 254, 114
-0.999582, 331, 257, 346, 272
-0.999583, 427, 27, 442, 42
-0.999583, 43, 195, 58, 210
-0.999583, 107, 301, 122, 316
-0.999583, 385, 257, 400, 272
-0.999583, 193, 115, 208, 130
-0.999584, 57, 287, 72, 302
-0.999584, 415, 193, 430, 208
-0.999584, 137, 337, 152, 352
-0.999584, 385, 237, 400, 252
-0.999585, 425, 283, 440, 298
-0.999585, 345, 241, 360, 256
-0.999586, 465, 263, 480, 278
-0.999586, 251, 245, 266, 260
-0.999586, 57, 67, 72, 82
-0.999588, 393, 275, 408, 290
-0.999588, 461, 273, 476, 288
-0.999588, 103, 307, 118, 322
-0.999588, 91, 209, 106, 224
-0.999588, 153, 201, 168, 216
-0.999589, 229, 241, 244, 256
-0.999589, 51, 67, 66, 82
-0.999589, 123, 183, 138, 198
-0.99959, 3, 299, 18, 314
-0.99959, 479, 293, 494, 308
-0.999591, 401, 275, 416, 290
-0.999591, 185, 203, 200, 218
-0.999592, 115, 179, 130, 194
-0.999593, 365, 269, 380, 284
-0.999593, 9, 301, 24, 316
-0.999594, 113, 43, 128, 58
-0.999594, 291, 283, 306, 298
-0.999595, 1, 323, 16, 338
-0.999596, 153, 225, 168, 240
-0.999597, 369, 277, 384, 292
-0.999598, 375, 265, 390, 280
-0.999599, 107, 211, 122, 226
-0.9996, 197, 231, 212, 246
-0.9996, 189, 109, 204, 124
-0.999601, 241, 243, 256, 258
-0.999602, 277, 251, 292, 266
-0.999602, 469, 285, 484, 300
-0.999603, 55, 199, 70, 214
-0.999605, 75, 203, 90, 218
-0.999606, 265, 55, 280, 70
-0.999607, 419, 283, 434, 298
-0.999607, 55, 51, 70, 66
-0.999607, 135, 225, 150, 240
-0.999608, 413, 283, 428, 298
-0.999608, 221, 239, 236, 254
-0.999608, 57, 293, 72, 308
-0.99961, 241, 43, 256, 58
-0.99961, 139, 93, 154, 108
-0.99961, 63, 199, 78, 214
-0.999611, 297, 213, 312, 228
-0.999611, 175, 207, 190, 222
-0.999611, 61, 51, 76, 66
-0.999612, 109, 309, 124, 324
-0.999612, 161, 225, 176, 240
-0.999613, 271, 251, 286, 266
-0.999618, 203, 233, 218, 248
-0.999618, 263, 249, 278, 264
-0.999618, 255, 91, 270, 106
-0.999619, 145, 229, 160, 244
-0.999619, 119, 227, 134, 242
-0.999619, 103, 37, 118, 52
-0.999619, 479, 287, 494, 302
-0.99962, 245, 97, 260, 112
-0.99962, 385, 265, 400, 280
-0.999621, 281, 275, 296, 290
-0.999621, 199, 103, 214, 118
-0.999621, 287, 259, 302, 274
-0.999621, 447, 263, 462, 278
-0.999624, 485, 289, 500, 304
-0.999625, 453, 97, 484, 352
-0.999625, 207, 107, 222, 122
-0.999625, 293, 255, 308, 270
-0.999626, 127, 219, 142, 234
-0.999627, 47, 79, 62, 94
-0.999629, 355, 245, 370, 260
-0.99963, 207, 113, 222, 128
-0.99963, 249, 91, 264, 106
-0.999631, 267, 69, 282, 84
-0.999631, 177, 227, 192, 242
-0.999633, 251, 51, 266, 66
-0.999633, 183, 229, 198, 244
-0.999634, 107, 219, 122, 234
-0.999635, 377, 245, 392, 260
-0.999636, 469, 269, 484, 284
-0.999637, 183, 209, 198, 224
-0.999637, 363, 247, 378, 262
-0.999637, 241, 91, 256, 106
-0.999639, 379, 271, 394, 286
-0.999643, 113, 33, 128, 48
-0.999645, 283, 253, 298, 268
-0.999646, 167, 229, 182, 244
-0.999648, 117, 215, 132, 230
-0.999651, 385, 251, 400, 266
-0.999653, 459, 265, 474, 280
-0.999655, 261, 61, 276, 76
-0.999656, 123, 175, 138, 190
-0.999656, 403, 281, 418, 296
-0.999667, 63, 291, 78, 306
-0.999674, 275, 55, 290, 70
-0.999683, 269, 63, 284, 78
-0.999695, 139, 87, 154, 102
-0.999695, 131, 83, 146, 98
-0.999699, 195, 109, 210, 124
-0.999708, 199, 117, 214, 132
-0.99974, 133, 89, 148, 104
-0.999748, 201, 111, 216, 126
-0.999846, 281, 1, 312, 256
-1.00013, 1, 1, 32, 256
