1861
-0.549762, 1, 1, 500, 308
-0.564812, 193, 1, 448, 308
-0.621047, 97, 1, 352, 308
-0.623609, 1, 65, 500, 308
-0.736986, 225, 1, 480, 256
-0.774314, 1, 1, 256, 308
-0.807924, 129, 65, 384, 308
-0.869564, 209, 65, 336, 308
-0.874743, 209, 1, 336, 308
-0.876368, 257, 1, 384, 308
-0.890389, 289, 1, 416, 256
-0.896748, 129, 1, 256, 308
-0.899439, 33, 65, 288, 308
-0.902489, 305, 1, 432, 308
-0.917034, 353, 1, 480, 308
-0.920381, 161, 65, 288, 308
-0.921166, 337, 1, 464, 256
-0.927154, 1, 65, 500, 192
-0.932731, 161, 177, 416, 304
-0.935407, 321, 1, 448, 128
-0.93575, 225, 65, 480, 192
-0.939336, 257, 1, 500, 128
-0.940903, 193, 161, 320, 288
-0.941063, 33, 1, 160, 308
-0.941701, 1, 1, 500, 128
-0.94529, 1, 1, 128, 256
-0.946118, 257, 49, 384, 176
-0.946703, 257, 177, 320, 304
-0.948714, 129, 17, 384, 144
-0.949689, 257, 49, 320, 176
-0.950533, 217, 161, 280, 288
-0.950556, 129, 65, 384, 192
-0.951435, 193, 113, 448, 240
-0.951604, 369, 1, 432, 128
-0.953145, 257, 161, 500, 288
-0.95323, 1, 177, 500, 304
-0.953838, 209, 81, 336, 208
-0.954238, 337, 1, 400, 128
-0.954293, 273, 1, 400, 128
-0.954472, 65, 161, 320, 288
-0.955264, 225, 97, 288, 224
-0.955502, 113, 65, 240, 308
-0.957032, 265, 1, 328, 128
-0.957246, 1, 65, 256, 192
-0.958824, 241, 225, 304, 288
-0.959022, 321, 49, 448, 176
-0.960182, 265, 129, 328, 256
-0.960279, 281, 177, 344, 304
-0.960702, 193, 177, 256, 304
-0.961476, 289, 1, 352, 128
-0.961975, 65, 113, 320, 240
-0.962139, 81, 1, 208, 308
-0.962294, 369, 1, 496, 128
-0.962316, 193, 225, 256, 288
-0.962465, 305, 49, 368, 176
-0.962501, 209, 1, 336, 128
-0.962829, 241, 161, 368, 288
-0.963693, 49, 33, 176, 288
-0.965019, 217, 225, 280, 288
-0.965297, 257, 73, 320, 136
-0.966762, 201, 201, 264, 264
-0.96679, 241, 201, 304, 264
-0.967035, 161, 113, 288, 240
-0.96786, 289, 57, 352, 120
-0.968329, 273, 201, 336, 264
-0.9685, 225, 113, 288, 176
-0.969102, 241, 1, 304, 128
-0.969754, 225, 217, 352, 280
-0.96981, 145, 65, 272, 192
-0.969895, 297, 225, 360, 288
-0.9699, 377, 49, 440, 176
-0.969916, 129, 177, 256, 304
-0.971066, 41, 73, 104, 136
-0.972629, 1, 129, 500, 256
-0.972769, 337, 41, 400, 104
-0.97296, 17, 81, 80, 208
-0.973007, 393, 1, 456, 128
-0.973819, 161, 17, 288, 144
-0.974117, 329, 49, 392, 176
-0.974123, 353, 9, 416, 72
-0.974143, 305, 177, 368, 304
-0.974575, 273, 1, 336, 64
-0.974674, 257, 1, 320, 256
-0.974931, 289, 177, 416, 304
-0.975013, 281, 65, 344, 192
-0.975151, 1, 81, 128, 208
-0.975161, 177, 209, 304, 272
-0.975308, 225, 145, 288, 208
-0.975409, 369, 49, 496, 176
-0.975469, 273, 225, 336, 288
-0.97547, 177, 97, 240, 224
-0.975493, 257, 137, 320, 200
-0.975583, 393, 33, 456, 96
-0.975693, 257, 97, 384, 224
-0.976101, 225, 65, 288, 308
-0.976209, 1, 33, 128, 160
-0.976262, 265, 177, 328, 240
-0.976266, 313, 1, 376, 128
-0.976442, 113, 113, 240, 240
-0.976615, 225, 89, 288, 152
-0.97686, 169, 241, 232, 304
-0.976928, 265, 161, 296, 288
-0.976975, 405, 1, 436, 128
-0.977144, 297, 201, 360, 264
-0.97724, 337, 217, 400, 280
-0.977367, 361, 49, 424, 112
-0.977414, 289, 89, 352, 152
-0.97754, 33, 1, 288, 128
-0.977624, 17, 81, 80, 144
-0.977715, 377, 1, 440, 64
-0.977874, 209, 49, 272, 112
-0.978084, 97, 49, 224, 176
-0.978111, 249, 49, 312, 112
-0.978196, 361, 225, 424, 288
-0.978242, 417, 217, 480, 280
-0.978309, 145, 49, 208, 176
-0.978489, 249, 225, 280, 288
-0.978489, 193, 185, 320, 248
-0.978664, 177, 233, 304, 296
-0.978843, 377, 1, 408, 128
-0.979042, 249, 1, 312, 64
-0.979043, 209, 65, 336, 128
-0.979059, 201, 209, 232, 272
-0.979142, 425, 33, 488, 96
-0.979191, 169, 209, 232, 272
-0.979315, 353, 65, 416, 192
-0.979317, 257, 113, 320, 176
-0.979646, 273, 57, 400, 120
-0.979879, 209, 177, 272, 240
-0.980492, 329, 9, 392, 72
-0.980681, 305, 225, 432, 288
-0.980859, 417, 1, 480, 128
-0.980913, 221, 225, 252, 288
-0.980916, 277, 161, 308, 288
-0.980963, 325, 225, 356, 288
-0.981085, 265, 201, 296, 264
-0.981168, 341, 1, 372, 128
-0.981169, 189, 225, 220, 288
-0.981196, 129, 233, 256, 296
-0.981368, 353, 33, 480, 96
-0.981435, 305, 1, 368, 64
-0.981486, 297, 177, 328, 304
-0.981517, 201, 49, 264, 176
-0.981957, 241, 177, 304, 240
-0.982045, 313, 65, 376, 128
-0.982219, 233, 233, 264, 296
-0.98254, 321, 9, 448, 72
-0.98255, 253, 161, 284, 288
-0.982604, 301, 65, 332, 128
-0.982691, 185, 121, 248, 184
-0.982845, 209, 153, 336, 216
-0.982905, 321, 65, 448, 128
-0.983052, 313, 33, 376, 96
-0.983155, 129, 73, 192, 136
-0.983222, 217, 1, 280, 128
-0.98323, 241, 193, 368, 256
-0.983233, 257, 81, 384, 144
-0.983238, 389, 1, 420, 128
-0.983278, 257, 1, 384, 64
-0.983309, 209, 121, 336, 184
-0.983315, 297, 1, 360, 256
-0.983373, 169, 73, 232, 136
-0.983404, 233, 49, 296, 176
-0.983469, 385, 233, 448, 296
-0.983481, 289, 65, 320, 128
-0.983485, 273, 33, 400, 96
-0.983585, 145, 57, 272, 120
-0.983682, 209, 161, 240, 288
-0.983957, 305, 97, 432, 224
-0.983997, 265, 1, 328, 308
-0.984031, 209, 41, 336, 104
-0.984045, 373, 49, 404, 112
-0.984163, 249, 81, 280, 208
-0.984169, 241, 1, 304, 308
-0.984288, 1, 81, 128, 144
-0.984302, 305, 97, 368, 224
-0.984351, 337, 65, 400, 128
-0.984527, 273, 33, 304, 160
-0.984564, 49, 65, 80, 128
-0.984567, 261, 225, 292, 288
-0.984619, 461, 33, 492, 96
-0.98469, 249, 201, 280, 264
-0.984719, 297, 1, 328, 128
-0.984786, 209, 97, 336, 160
-0.984906, 321, 201, 448, 264
-0.98496, 305, 49, 336, 176
-0.984967, 361, 41, 392, 104
-0.984969, 201, 73, 264, 136
-0.985075, 321, 241, 384, 304
-0.98509, 41, 65, 104, 192
-0.985105, 265, 65, 296, 128
-0.985108, 145, 233, 208, 296
-0.985123, 145, 81, 272, 144
-0.985166, 241, 25, 304, 88
-0.98517, 289, 65, 320, 192
-0.985222, 325, 49, 356, 176
-0.985298, 257, 241, 384, 304
-0.985407, 309, 177, 340, 304
-0.985476, 41, 49, 104, 112
-0.985551, 113, 209, 240, 272
-0.985585, 49, 33, 176, 160
-0.985677, 337, 177, 464, 304
-0.985781, 221, 145, 252, 272
-0.985816, 309, 217, 340, 280
-0.98582, 65, 57, 192, 120
-0.985854, 365, 1, 396, 128
-0.985957, 249, 97, 280, 160
-0.985967, 353, 1, 384, 64
-0.985986, 65, 65, 128, 128
-0.986017, 161, 57, 192, 120
-0.986125, 33, 81, 64, 144
-0.986261, 401, 1, 432, 64
-0.986278, 209, 233, 240, 296
-0.986391, 425, 9, 488, 72
-0.986398, 385, 41, 416, 104
-0.986471, 301, 89, 332, 152
-0.986644, 265, 25, 328, 88
-0.986668, 233, 209, 264, 272
-0.986761, 273, 225, 304, 288
-0.986775, 193, 17, 256, 80
-0.98678, 289, 33, 352, 96
-0.986848, 321, 193, 384, 256
-0.987062, 377, 1, 440, 256
-0.987125, 361, 73, 424, 136
-0.987125, 285, 17, 316, 144
-0.987167, 121, 49, 184, 176
-0.98726, 345, 1, 408, 256
-0.987325, 89, 241, 152, 304
-0.987391, 209, 9, 336, 72
-0.987405, 265, 161, 296, 224
-0.987408, 401, 9, 464, 72
-0.987432, 369, 225, 496, 288
-0.987455, 277, 1, 308, 64
-0.987512, 217, 1, 280, 308
-0.987569, 409, 193, 472, 256
-0.98766, 369, 1, 496, 64
-0.987726, 369, 1, 400, 64
-0.987733, 237, 49, 268, 112
-0.987766, 297, 209, 328, 272
-0.987779, 265, 97, 296, 224
-0.987848, 389, 49, 420, 176
-0.987855, 313, 57, 344, 120
-0.98788, 161, 161, 288, 224
-0.987884, 369, 57, 496, 120
-0.987951, 341, 49, 372, 176
-0.987971, 81, 177, 208, 304
-0.987978, 1, 233, 64, 296
-0.987991, 145, 185, 272, 248
-0.988019, 445, 33, 476, 96
-0.988023, 9, 33, 72, 160
-0.988041, 153, 161, 216, 288
-0.988057, 217, 1, 280, 64
-0.98806, 337, 225, 368, 288
-0.988089, 65, 65, 96, 128
-0.988225, 105, 89, 168, 152
-0.988261, 209, 121, 240, 184
-0.988302, 353, 1, 384, 128
-0.988309, 413, 33, 444, 96
-0.988321, 341, 1, 372, 64
-0.988338, 369, 225, 400, 288
-0.98838, 201, 113, 264, 240
-0.988434, 145, 17, 272, 80
-0.988475, 377, 201, 440, 264
-0.988536, 201, 153, 264, 216
-0.988545, 381, 17, 412, 80
-0.988558, 185, 97, 248, 160
-0.988596, 297, 153, 360, 216
-0.988692, 393, 57, 456, 120
-0.988709, 297, 1, 328, 64
-0.988748, 309, 193, 340, 256
-0.988854, 237, 97, 268, 224
-0.988856, 153, 113, 216, 240
-0.988904, 145, 209, 208, 272
-0.988924, 145, 97, 208, 160
-0.988977, 97, 1, 224, 128
-0.989074, 273, 233, 336, 264
-0.98926, 1, 49, 64, 112
-0.989297, 241, 233, 304, 264
-0.989371, 145, 49, 208, 112
-0.989382, 321, 201, 352, 264
-0.98942, 49, 33, 176, 96
-0.98949, 161, 217, 416, 280
-0.989511, 237, 105, 268, 168
-0.989596, 289, 69, 352, 100
-0.989598, 49, 89, 80, 152
-0.989663, 353, 1, 416, 308
-0.989707, 201, 245, 264, 276
-0.989751, 257, 161, 384, 224
-0.989769, 281, 201, 312, 264
-0.989815, 253, 73, 284, 136
-0.989844, 253, 169, 284, 232
-0.98986, 277, 49, 308, 112
-0.989886, 161, 137, 288, 200
-0.9899, 297, 177, 360, 240
-0.989901, 49, 17, 112, 144
-0.989941, 417, 57, 480, 120
-0.989956, 41, 241, 104, 304
-0.989985, 281, 97, 312, 160
-0.990018, 265, 137, 296, 200
-0.990178, 177, 161, 240, 224
-0.990243, 465, 1, 496, 128
-0.990274, 97, 81, 224, 144
-0.990284, 297, 233, 360, 264
-0.990295, 265, 221, 328, 252
-0.990323, 185, 233, 248, 264
-0.990328, 217, 233, 280, 264
-0.990346, 249, 81, 312, 112
-0.99037, 81, 89, 144, 152
-0.990432, 169, 49, 232, 112
-0.990436, 5, 81, 36, 208
-0.990444, 257, 105, 384, 168
-0.99047, 325, 65, 356, 128
-0.990474, 169, 49, 232, 176
-0.990532, 221, 137, 252, 200
-0.990578, 385, 225, 416, 288
-0.99058, 309, 1, 340, 128
-0.990596, 41, 217, 104, 280
-0.990626, 329, 61, 392, 92
-0.990636, 33, 73, 96, 104
-0.990642, 297, 129, 360, 192
-0.990648, 353, 45, 416, 76
-0.990688, 237, 177, 268, 304
-0.990705, 153, 1, 216, 128
-0.990824, 345, 41, 376, 104
-0.990827, 201, 65, 264, 308
-0.990837, 221, 97, 252, 160
-0.990889, 309, 1, 340, 64
-0.990924, 241, 221, 304, 252
-0.990942, 401, 45, 464, 76
-0.990944, 277, 73, 308, 136
-0.990979, 433, 37, 496, 68
-0.990984, 369, 201, 496, 264
-0.990998, 213, 201, 244, 264
-0.991014, 225, 117, 288, 148
-0.991019, 369, 237, 432, 268
-0.991051, 417, 17, 448, 144
-0.99108, 361, 57, 424, 88
-0.991091, 145, 105, 272, 168
-0.9911, 249, 17, 280, 80
-0.991128, 345, 237, 408, 268
-0.991151, 177, 245, 240, 276
-0.991156, 1, 225, 128, 288
-0.991181, 321, 233, 384, 264
-0.991218, 225, 149, 288, 180
-0.991227, 289, 221, 352, 252
-0.991237, 281, 9, 344, 40
-0.991249, 285, 113, 316, 240
-0.991286, 177, 233, 208, 296
-0.991289, 285, 225, 316, 288
-0.991315, 225, 245, 288, 276
-0.991346, 257, 69, 320, 100
-0.991362, 425, 229, 488, 260
-0.991371, 461, 9, 492, 72
-0.991377, 329, 73, 392, 104
-0.991423, 225, 129, 288, 160
-0.991437, 249, 41, 280, 104
-0.991458, 153, 241, 216, 272
-0.991505, 197, 177, 228, 304
-0.991527, 25, 85, 88, 116
-0.991531, 257, 57, 320, 88
-0.991559, 329, 97, 392, 224
-0.991562, 401, 237, 464, 268
-0.991569, 17, 105, 144, 168
-0.991578, 313, 5, 376, 36
-0.99158, 433, 177, 496, 304
-0.991599, 289, 81, 352, 112
-0.9916, 425, 49, 488, 80
-0.991611, 257, 129, 320, 160
-0.991615, 401, 49, 464, 176
-0.991633, 449, 217, 480, 280
-0.991647, 349, 209, 380, 272
-0.991676, 265, 145, 328, 176
-0.991692, 305, 245, 368, 276
-0.991694, 201, 209, 264, 240
-0.991694, 353, 33, 416, 64
-0.991702, 193, 221, 256, 252
-0.991716, 353, 73, 416, 104
-0.991729, 257, 9, 320, 40
-0.991755, 1, 17, 128, 80
-0.991758, 353, 49, 384, 176
-0.991777, 361, 9, 424, 40
-0.991785, 265, 165, 328, 196
-0.99179, 249, 93, 312, 124
-0.991794, 129, 89, 192, 120
-0.991822, 217, 169, 280, 200
-0.991844, 249, 209, 312, 240
-0.991846, 337, 5, 400, 36
-0.991854, 49, 9, 176, 72
-0.991861, 329, 45, 392, 76
-0.991863, 209, 193, 272, 224
-0.991875, 213, 169, 244, 232
-0.991903, 281, 245, 344, 276
-0.991905, 393, 33, 456, 64
-0.991923, 153, 65, 216, 96
-0.991934, 49, 49, 80, 176
-0.991943, 193, 129, 256, 160
-0.991956, 397, 225, 428, 288
-0.991981, 217, 221, 280, 252
-0.991982, 353, 21, 416, 52
-0.992001, 261, 1, 292, 128
-0.992001, 397, 49, 428, 112
-0.992004, 289, 57, 352, 88
-0.992008, 153, 85, 216, 116
-0.992024, 233, 105, 296, 136
-0.992027, 65, 233, 128, 296
-0.992029, 49, 233, 176, 296
-0.992033, 257, 189, 320, 220
-0.992054, 257, 245, 320, 276
-0.992057, 373, 49, 404, 176
-0.992072, 161, 229, 224, 260
-0.992108, 257, 177, 320, 208
-0.992114, 1, 117, 64, 148
-0.992126, 433, 33, 464, 96
-0.992129, 241, 37, 304, 68
-0.992132, 377, 69, 440, 100
-0.992134, 265, 1, 296, 64
-0.992177, 261, 49, 292, 176
-0.992192, 257, 105, 320, 136
-0.992194, 309, 97, 340, 224
-0.992202, 165, 81, 196, 144
-0.992247, 33, 177, 160, 304
-0.992249, 301, 41, 332, 104
-0.99225, 273, 21, 336, 52
-0.992265, 377, 45, 440, 76
-0.992288, 377, 225, 440, 256
-0.99229, 417, 25, 480, 56
-0.992309, 313, 21, 376, 52
-0.992322, 285, 137, 316, 200
-0.992351, 241, 165, 304, 196
-0.992372, 385, 9, 448, 40
-0.992374, 233, 193, 296, 224
-0.992383, 289, 93, 352, 124
-0.9924, 313, 221, 376, 252
-0.992408, 321, 1, 384, 256
-0.992413, 65, 77, 128, 108
-0.992471, 273, 205, 336, 236
-0.992476, 313, 85, 376, 116
-0.992499, 217, 181, 280, 212
-0.992499, 105, 93, 168, 124
-0.992515, 177, 113, 240, 144
-0.992516, 425, 241, 488, 272
-0.992519, 269, 229, 300, 260
-0.992528, 65, 41, 128, 104
-0.992531, 249, 233, 280, 264
-0.992541, 225, 77, 288, 108
-0.992543, 257, 117, 320, 148
-0.992544, 281, 233, 312, 264
-0.992548, 401, 225, 464, 256
-0.992564, 29, 49, 60, 176
-0.992566, 229, 241, 260, 272
-0.992573, 185, 1, 248, 308
-0.992576, 1, 85, 64, 116
-0.992585, 345, 225, 408, 256
-0.992597, 225, 209, 288, 240
-0.992598, 321, 177, 352, 304
-0.992616, 217, 93, 280, 124
-0.992643, 177, 81, 240, 112
-0.992659, 65, 253, 128, 284
-0.99266, 121, 49, 184, 112
-0.99266, 1, 129, 64, 256
-0.992694, 233, 5, 296, 36
-0.992701, 9, 69, 72, 100
-0.992705, 265, 45, 328, 76
-0.992715, 301, 225, 332, 256
-0.992718, 281, 181, 344, 212
-0.992737, 37, 49, 68, 112
-0.992742, 53, 73, 84, 104
-0.992744, 297, 165, 360, 196
-0.992768, 457, 37, 488, 68
-0.992773, 129, 61, 192, 92
-0.992778, 401, 57, 464, 88
-0.992778, 201, 113, 264, 144
-0.992778, 153, 253, 216, 284
-0.992787, 313, 233, 344, 264
-0.99279, 113, 77, 176, 108
-0.992802, 9, 261, 72, 292
-0.992803, 233, 49, 296, 80
-0.992809, 225, 65, 288, 96
-0.992812, 177, 257, 240, 288
-0.992838, 217, 245, 248, 276
-0.992858, 193, 233, 224, 264
-0.992862, 297, 69, 328, 100
-0.992869, 293, 237, 324, 268
-0.992875, 401, 69, 464, 100
-0.992888, 41, 77, 72, 108
-0.992893, 325, 65, 356, 96
-0.992893, 89, 257, 152, 288
-0.992897, 213, 133, 244, 164
-0.992907, 381, 237, 412, 268
-0.992912, 297, 5, 328, 36
-0.992913, 329, 33, 392, 64
-0.992931, 369, 237, 400, 268
-0.992933, 409, 237, 440, 268
-0.992936, 205, 241, 236, 272
-0.992936, 265, 217, 296, 248
-0.992951, 325, 233, 356, 264
-0.992963, 157, 65, 188, 192
-0.992974, 121, 249, 184, 280
-0.992976, 257, 137, 384, 200
-0.992977, 389, 53, 420, 84
-0.992982, 397, 237, 428, 268
-0.992983, 265, 41, 296, 104
-0.992989, 177, 169, 240, 200
-0.992992, 361, 85, 424, 116
-0.992996, 121, 49, 184, 80
-0.992997, 185, 141, 248, 172
-0.993005, 1, 113, 32, 144
-0.99301, 253, 97, 284, 128
-0.993014, 377, 21, 440, 52
-0.993026, 41, 29, 104, 60
-0.993027, 289, 1, 352, 308
-0.993031, 297, 137, 360, 168
-0.99304, 289, 221, 320, 252
-0.993041, 9, 233, 72, 264
-0.993042, 373, 9, 404, 40
-0.993048, 249, 109, 280, 140
-0.993048, 41, 249, 104, 280
-0.993053, 181, 241, 212, 272
-0.993059, 225, 125, 256, 156
-0.993061, 269, 49, 300, 80
-0.993065, 361, 61, 392, 92
-0.993065, 33, 233, 96, 264
-0.993072, 113, 161, 240, 224
-0.993075, 225, 229, 256, 260
-0.993079, 193, 245, 224, 276
-0.993084, 437, 45, 468, 76
-0.993085, 417, 273, 480, 304
-0.993086, 277, 65, 308, 96
-0.993093, 81, 97, 144, 128
-0.993096, 29, 85, 60, 116
-0.993096, 337, 81, 368, 112
-0.993096, 321, 245, 352, 276
-0.993097, 337, 233, 368, 264
-0.993098, 361, 41, 392, 72
-0.993101, 177, 157, 240, 188
-0.993101, 377, 249, 440, 280
-0.993102, 265, 165, 296, 196
-0.993102, 153, 213, 216, 244
-0.993103, 201, 81, 264, 112
-0.993105, 65, 73, 96, 104
-0.993109, 49, 81, 176, 144
-0.993119, 253, 221, 284, 252
-0.993122, 161, 65, 192, 96
-0.993128, 281, 77, 312, 108
-0.993128, 373, 57, 404, 88
-0.993129, 377, 1, 440, 308
-0.993136, 349, 13, 380, 44
-0.993141, 337, 65, 368, 96
-0.993149, 277, 9, 308, 40
-0.993151, 265, 113, 296, 144
-0.99316, 193, 1, 256, 128
-0.993164, 17, 57, 144, 120
-0.993173, 153, 85, 184, 116
-0.993173, 469, 21, 500, 52
-0.993174, 237, 229, 268, 260
-0.993174, 357, 237, 388, 268
-0.993176, 321, 77, 352, 108
-0.993184, 41, 89, 72, 120
-0.993187, 309, 61, 340, 92
-0.993198, 349, 45, 380, 76
-0.993201, 397, 9, 428, 40
-0.993202, 121, 241, 184, 304
-0.993202, 393, 65, 424, 96
-0.993206, 453, 229, 484, 260
-0.993207, 277, 217, 308, 248
-0.993207, 17, 81, 48, 208
-0.993214, 377, 45, 408, 76
-0.993221, 1, 129, 128, 192
-0.993223, 181, 253, 212, 284
-0.993226, 225, 229, 352, 260
-0.993231, 257, 181, 288, 212
-0.993231, 349, 57, 380, 88
-0.993247, 469, 45, 500, 76
-0.993247, 361, 9, 392, 40
-0.99325, 65, 25, 96, 56
-0.993253, 465, 233, 496, 264
-0.993256, 297, 89, 328, 120
-0.993258, 265, 241, 296, 272
-0.993259, 373, 73, 404, 104
-0.993262, 313, 221, 344, 252
-0.993265, 457, 25, 488, 56
-0.993269, 405, 65, 436, 96
-0.993274, 425, 237, 456, 268
-0.993278, 261, 201, 292, 232
-0.993284, 245, 245, 276, 276
-0.993288, 121, 89, 152, 120
-0.99329, 409, 41, 440, 72
-0.993291, 165, 81, 196, 112
-0.993292, 17, 117, 48, 148
-0.993301, 57, 105, 120, 168
-0.993308, 245, 121, 276, 152
-0.993311, 153, 81, 184, 144
-0.993314, 225, 113, 256, 144
-0.993315, 261, 77, 292, 108
-0.993323, 301, 17, 332, 48
-0.993328, 213, 229, 244, 260
-0.993333, 449, 49, 480, 80
-0.993335, 349, 1, 380, 32
-0.993339, 385, 17, 416, 48
-0.993339, 141, 89, 172, 120
-0.993343, 365, 25, 396, 56
-0.993344, 169, 241, 200, 272
-0.993344, 305, 245, 336, 276
-0.993353, 309, 81, 340, 112
-0.993358, 197, 221, 228, 252
-0.993362, 265, 133, 296, 164
-0.993363, 349, 25, 380, 56
-0.993372, 89, 257, 120, 288
-0.993382, 129, 81, 384, 144
-0.993384, 249, 209, 280, 240
-0.993387, 281, 21, 312, 52
-0.99339, 265, 5, 296, 36
-0.993391, 173, 65, 204, 96
-0.993393, 53, 85, 84, 116
-0.993393, 369, 225, 400, 256
-0.993395, 177, 85, 208, 116
-0.993398, 261, 61, 292, 92
-0.993399, 409, 13, 440, 44
-0.993402, 389, 225, 420, 256
-0.99341, 429, 33, 460, 64
-0.993413, 437, 237, 468, 268
-0.993413, 337, 1, 368, 32
-0.993416, 333, 245, 364, 276
-0.993417, 105, 257, 136, 288
-0.993419, 289, 49, 320, 80
-0.993419, 281, 129, 312, 160
-0.993421, 313, 17, 344, 48
-0.993421, 385, 1, 416, 32
-0.993426, 445, 33, 476, 64
-0.993427, 265, 153, 296, 184
-0.993432, 405, 225, 436, 256
-0.993434, 349, 73, 380, 104
-0.993437, 249, 49, 280, 80
-0.993437, 77, 253, 108, 284
-0.993437, 149, 57, 180, 120
-0.993439, 289, 149, 320, 180
-0.993449, 285, 89, 316, 120
-0.993449, 177, 185, 240, 248
-0.993449, 161, 53, 192, 84
-0.993536, 333, 201, 364, 264
-0.993538, 401, 49, 432, 176
-0.993541, 113, 1, 176, 308
-0.993552, 49, 81, 176, 208
-0.993555, 417, 241, 480, 304
-0.993556, 297, 129, 328, 256
-0.993577, 53, 41, 84, 104
-0.993595, 337, 65, 368, 128
-0.993596, 285, 177, 316, 240
-0.993598, 177, 241, 304, 272
-0.993622, 33, 129, 160, 256
-0.993626, 129, 97, 192, 224
-0.993679, 349, 233, 380, 296
-0.993702, 225, 65, 480, 128
-0.993727, 229, 73, 260, 136
-0.993728, 173, 49, 204, 176
-0.993746, 265, 97, 296, 160
-0.993845, 33, 65, 288, 128
-0.993855, 9, 105, 72, 168
-0.993936, 189, 201, 220, 264
-0.993961, 329, 1, 360, 128
-0.993968, 65, 225, 320, 288
-0.993976, 325, 41, 356, 104
-0.99401, 249, 33, 280, 160
-0.994037, 313, 89, 376, 152
-0.994104, 209, 113, 240, 240
-0.994126, 97, 217, 160, 280
-0.994149, 145, 1, 208, 308
-0.994235, 329, 177, 392, 304
-0.99429, 161, 193, 416, 256
-0.994296, 273, 69, 400, 100
-0.994314, 257, 1, 500, 64
-0.994316, 21, 81, 52, 144
-0.994344, 385, 97, 448, 224
-0.994364, 161, 241, 416, 304
-0.994426, 173, 57, 204, 120
-0.994433, 321, 1, 384, 308
-0.994441, 1, 225, 500, 288
-0.994489, 201, 185, 232, 248
-0.994534, 153, 185, 216, 248
-0.994538, 65, 193, 320, 256
-0.994579, 97, 105, 224, 168
-0.994608, 401, 25, 432, 88
-0.994614, 121, 241, 152, 304
-0.994621, 177, 229, 304, 260
-0.994637, 253, 145, 284, 208
-0.994646, 313, 81, 344, 144
-0.994726, 169, 25, 232, 88
-0.994738, 221, 97, 252, 224
-0.994788, 17, 25, 80, 88
-0.994801, 305, 237, 432, 268
-0.994803, 221, 49, 252, 112
-0.994875, 409, 233, 440, 296
-0.994937, 97, 33, 224, 96
-0.994974, 449, 9, 480, 72
-0.994989, 289, 25, 320, 88
-0.995009, 353, 177, 480, 240
-0.995074, 233, 137, 264, 200
-0.99511, 421, 233, 452, 296
-0.995127, 225, 241, 352, 272
-0.995134, 201, 89, 232, 152
-0.995141, 113, 89, 144, 152
-0.995146, 243, 225, 258, 288
-0.995181, 257, 233, 500, 296
-0.995199, 413, 9, 444, 72
-0.995213, 225, 161, 256, 224
-0.99523, 325, 1, 356, 64
-0.995249, 49, 209, 176, 272
-0.99525, 161, 161, 416, 224
-0.995259, 33, 233, 64, 296
-0.995272, 207, 209, 222, 272
-0.995279, 97, 9, 224, 72
-0.995323, 97, 185, 224, 248
-0.995326, 209, 77, 336, 108
-0.995329, 33, 89, 288, 152
-0.995356, 461, 217, 492, 280
-0.995366, 425, 9, 456, 72
-0.995375, 377, 73, 408, 136
-0.995381, 235, 225, 250, 288
-0.995391, 305, 57, 432, 88
-0.995412, 303, 65, 318, 128
-0.995416, 177, 81, 208, 144
-0.995437, 61, 89, 92, 152
-0.995519, 195, 225, 210, 288
-0.995529, 305, 89, 432, 152
-0.995529, 305, 161, 432, 224
-0.99554, 33, 113, 96, 176
-0.995551, 329, 225, 344, 288
-0.995559, 201, 225, 216, 288
-0.995564, 219, 225, 234, 288
-0.995565, 89, 1, 152, 308
-0.995571, 237, 185, 268, 248
-0.995585, 433, 49, 496, 176
-0.995586, 385, 81, 448, 144
-0.995598, 377, 49, 392, 112
-0.995603, 209, 161, 336, 192
-0.995606, 193, 137, 448, 200
-0.995616, 177, 217, 304, 248
-0.995619, 401, 1, 464, 256
-0.995634, 273, 5, 400, 36
-0.995639, 271, 209, 286, 272
-0.995689, 257, 201, 500, 264
-0.995691, 73, 209, 136, 272
-0.995701, 97, 113, 352, 176
-0.995716, 353, 49, 480, 80
-0.995727, 305, 153, 336, 216
-0.99574, 337, 225, 352, 288
-0.995744, 313, 241, 344, 304
-0.995746, 129, 57, 384, 120
-0.995754, 217, 9, 248, 72
-0.995767, 317, 217, 332, 280
-0.995796, 65, 161, 320, 224
-0.995801, 113, 137, 240, 200
-0.995813, 249, 233, 264, 296
-0.995816, 77, 73, 108, 136
-0.995854, 145, 85, 272, 116
-0.99587, 9, 129, 40, 256
-0.995892, 433, 1, 496, 256
-0.99591, 225, 225, 240, 288
-0.995923, 305, 137, 432, 200
-0.995933, 105, 1, 168, 128
-0.99595, 161, 33, 192, 96
-0.995961, 277, 201, 292, 264
-0.995965, 283, 225, 298, 288
-0.995981, 309, 1, 324, 64
-0.995995, 453, 57, 484, 120
-0.996086, 295, 73, 310, 136
-0.996087, 209, 125, 336, 156
-0.996091, 193, 105, 448, 168
-0.996099, 409, 161, 472, 288
-0.99611, 193, 193, 320, 224
-0.996112, 129, 245, 256, 276
-0.996118, 273, 81, 400, 112
-0.99614, 321, 69, 448, 100
-0.996172, 53, 65, 68, 128
-0.996217, 241, 217, 368, 248
-0.996245, 213, 225, 228, 288
-0.996266, 265, 225, 280, 288
-0.996271, 259, 73, 274, 136
-0.996301, 353, 97, 480, 224
-0.996315, 343, 225, 358, 288
-0.996337, 209, 149, 336, 180
-0.996349, 327, 201, 342, 264
-0.996351, 385, 177, 448, 304
-0.996354, 229, 49, 260, 176
-0.996358, 97, 137, 352, 200
-0.99636, 129, 233, 256, 264
-0.996373, 437, 217, 468, 280
-0.996392, 45, 233, 76, 296
-0.996394, 269, 185, 284, 248
-0.996399, 323, 225, 338, 288
-0.996414, 45, 65, 60, 128
-0.996423, 453, 17, 484, 144
-0.99646, 177, 205, 304, 236
-0.996463, 225, 89, 352, 120
-0.996486, 105, 113, 168, 176
-0.996489, 1, 201, 500, 264
-0.996502, 353, 37, 480, 68
-0.996503, 33, 41, 288, 104
-0.996543, 289, 225, 416, 256
-0.996547, 469, 33, 484, 96
-0.996548, 249, 209, 264, 272
-0.99655, 365, 17, 380, 80
-0.996553, 177, 209, 208, 272
-0.996566, 33, 1, 64, 128
-0.996566, 369, 41, 384, 104
-0.996581, 223, 121, 238, 184
-0.996595, 477, 33, 492, 96
-0.996598, 209, 173, 336, 204
-0.9966, 65, 65, 80, 128
-0.996609, 1, 201, 128, 264
-0.996611, 237, 1, 268, 128
-0.996624, 159, 57, 174, 120
-0.996624, 277, 225, 292, 288
-0.996628, 353, 237, 480, 268
-0.99663, 385, 201, 416, 264
-0.99664, 459, 33, 474, 96
-0.996642, 25, 177, 88, 304
-0.996646, 337, 57, 352, 120
-0.996671, 335, 201, 350, 264
-0.996678, 57, 17, 88, 80
-0.996689, 257, 41, 500, 104
-0.996692, 333, 177, 364, 304
-0.996703, 189, 233, 204, 296
-0.996704, 17, 81, 144, 112
-0.996705, 1, 209, 64, 272
-0.996712, 209, 65, 336, 96
-0.996741, 241, 205, 368, 236
-0.996746, 169, 113, 200, 240
-0.996761, 59, 65, 74, 128
-0.996761, 385, 225, 400, 288
-0.996764, 81, 129, 144, 192
-0.996766, 259, 225, 274, 288
-0.996767, 289, 225, 304, 288
-0.996768, 209, 9, 336, 40
-0.996782, 65, 81, 128, 208
-0.9968, 321, 9, 448, 40
-0.99681, 285, 1, 300, 64
-0.996818, 485, 17, 500, 80
-0.996831, 297, 185, 328, 248
-0.996833, 383, 41, 398, 104
-0.996834, 175, 57, 190, 120
-0.996854, 9, 1, 72, 64
-0.996854, 283, 201, 298, 264
-0.996855, 453, 33, 468, 96
-0.996857, 259, 201, 274, 264
-0.996859, 353, 193, 416, 256
-0.996862, 309, 65, 324, 128
-0.996865, 209, 137, 336, 168
-0.996871, 1, 105, 32, 168
-0.996879, 65, 73, 192, 104
-0.996883, 201, 145, 232, 208
-0.996885, 165, 57, 180, 120
-0.996889, 307, 225, 322, 288
-0.996891, 355, 1, 370, 64
-0.996931, 229, 17, 260, 80
-0.996944, 53, 1, 84, 128
-0.996947, 353, 105, 480, 168
-0.996966, 189, 65, 220, 192
-0.996971, 403, 49, 418, 112
-0.99701, 393, 41, 408, 104
-0.997032, 461, 217, 476, 280
-0.997042, 375, 25, 390, 88
-0.997043, 21, 121, 52, 184
-0.997079, 249, 65, 280, 308
-0.997101, 207, 233, 222, 296
-0.997115, 361, 65, 392, 128
-0.997125, 113, 257, 240, 288
-0.997125, 89, 65, 152, 128
-0.997131, 1, 57, 500, 120
-0.997144, 433, 177, 496, 240
-0.997146, 269, 65, 284, 128
-0.997148, 311, 201, 326, 264
-0.997159, 243, 201, 258, 264
-0.997165, 75, 65, 90, 128
-0.99717, 289, 65, 304, 128
-0.997175, 307, 89, 322, 152
-0.997207, 257, 17, 384, 48
-0.997209, 415, 1, 430, 64
-0.997212, 369, 225, 496, 256
-0.997216, 317, 57, 332, 120
-0.997241, 303, 1, 318, 64
-0.997266, 301, 209, 316, 272
-0.997268, 337, 97, 400, 160
-0.997275, 229, 145, 244, 208
-0.99728, 161, 9, 416, 72
-0.997283, 279, 1, 294, 64
-0.997286, 225, 105, 352, 136
-0.997287, 251, 97, 266, 160
-0.997303, 383, 1, 398, 64
-0.997303, 65, 145, 192, 208
-0.997307, 271, 137, 286, 200
-0.997322, 257, 57, 384, 88
-0.997325, 269, 161, 284, 224
-0.997329, 121, 217, 184, 280
-0.99733, 213, 201, 228, 264
-0.997337, 47, 89, 62, 152
-0.997344, 241, 33, 256, 96
-0.997346, 39, 81, 54, 144
-0.997348, 181, 161, 212, 288
-0.997354, 145, 73, 272, 104
-0.99736, 97, 93, 224, 124
-0.997362, 177, 101, 304, 132
-0.99738, 325, 57, 340, 120
-0.997386, 53, 89, 68, 152
-0.997388, 293, 233, 308, 264
-0.997391, 447, 33, 462, 96
-0.997395, 477, 9, 492, 72
-0.997403, 317, 229, 332, 260
-0.997418, 257, 177, 500, 240
-0.997424, 301, 89, 316, 152
-0.997427, 275, 161, 290, 224
-0.997441, 241, 189, 368, 220
-0.997448, 271, 41, 286, 104
-0.997455, 273, 41, 400, 72
-0.997473, 403, 225, 418, 288
-0.997475, 349, 1, 364, 64
-0.997487, 403, 25, 418, 88
-0.997496, 161, 53, 288, 84
-0.997516, 389, 1, 404, 64
-0.997521, 145, 121, 208, 184
-0.997524, 219, 169, 234, 232
-0.997535, 379, 225, 394, 288
-0.997542, 269, 233, 284, 264
-0.99756, 247, 57, 262, 120
-0.99757, 257, 165, 384, 196
-0.997576, 467, 217, 482, 280
-0.997579, 291, 1, 306, 64
-0.997581, 271, 233, 286, 296
-0.997588, 281, 233, 296, 264
-0.997593, 353, 25, 480, 56
-0.997597, 331, 65, 346, 128
-0.997606, 349, 225, 364, 288
-0.997615, 273, 249, 400, 280
-0.997618, 393, 225, 408, 288
-0.997627, 175, 81, 190, 144
-0.997627, 279, 105, 294, 168
-0.997631, 241, 121, 256, 184
-0.99764, 281, 1, 312, 256
-0.997654, 181, 57, 196, 120
-0.99766, 153, 1, 216, 64
-0.997661, 403, 1, 418, 64
-0.997664, 225, 201, 240, 264
-0.997665, 301, 1, 332, 256
-0.997669, 371, 225, 386, 288
-0.99767, 343, 65, 358, 128
-0.997673, 369, 81, 496, 144
-0.997674, 177, 113, 304, 144
-0.997682, 371, 65, 386, 128
-0.997691, 225, 245, 240, 276
-0.997692, 243, 241, 258, 272
-0.997694, 235, 201, 250, 264
-0.997699, 363, 41, 378, 104
-0.997701, 321, 85, 448, 116
-0.997703, 423, 1, 438, 64
-0.997715, 65, 249, 192, 280
-0.997717, 229, 113, 244, 176
-0.997731, 161, 137, 288, 168
-0.997737, 455, 217, 470, 280
-0.997739, 201, 201, 216, 264
-0.997749, 375, 1, 390, 64
-0.997753, 287, 229, 302, 260
-0.997763, 307, 233, 322, 264
-0.99777, 413, 33, 428, 96
-0.997792, 301, 145, 316, 208
-0.997792, 189, 245, 204, 276
-0.997811, 327, 233, 342, 264
-0.997811, 167, 33, 182, 96
-0.997813, 413, 225, 428, 288
-0.997824, 161, 181, 288, 212
-0.997828, 53, 41, 68, 104
-0.997831, 225, 253, 352, 284
-0.997835, 13, 33, 44, 160
-0.99784, 275, 229, 290, 260
-0.997846, 269, 1, 300, 256
-0.997848, 361, 225, 376, 288
-0.99785, 1, 113, 128, 144
-0.997851, 253, 49, 268, 112
-0.997853, 299, 233, 314, 264
-0.997856, 369, 129, 496, 192
-0.99786, 297, 49, 312, 112
-0.997869, 223, 129, 238, 160
-0.99787, 219, 201, 234, 264
-0.997878, 231, 245, 246, 276
-0.997878, 291, 201, 306, 264
-0.99788, 441, 33, 456, 96
-0.997885, 233, 49, 248, 112
-0.997889, 1, 33, 128, 64
-0.997889, 61, 89, 76, 152
-0.997893, 433, 1, 496, 308
-0.997897, 295, 225, 310, 288
-0.997901, 237, 237, 252, 268
-0.997917, 321, 249, 448, 280
-0.997932, 89, 41, 152, 104
-0.997941, 43, 77, 58, 108
-0.997947, 65, 61, 192, 92
-0.997948, 65, 1, 320, 64
-0.997953, 469, 161, 500, 288
-0.997961, 129, 221, 256, 252
-0.997964, 9, 129, 72, 192
-0.997974, 161, 165, 288, 196
-0.99798, 65, 1, 128, 308
-0.997982, 301, 73, 316, 104
-0.997987, 1, 33, 500, 96
-0.997987, 261, 229, 276, 260
-0.997992, 311, 221, 326, 252
-0.997995, 369, 61, 496, 92
-0.998001, 237, 65, 268, 308
-0.998002, 161, 33, 416, 96
-0.998015, 197, 233, 212, 264
-0.998018, 273, 93, 400, 124
-0.998029, 305, 5, 320, 36
-0.998031, 251, 233, 266, 264
-0.99805, 17, 261, 144, 292
-0.998055, 209, 53, 336, 84
-0.998056, 465, 49, 496, 176
-0.998063, 161, 257, 288, 288
-0.998073, 379, 233, 394, 264
-0.998078, 385, 105, 448, 168
-0.998079, 257, 145, 384, 176
-0.998084, 219, 237, 234, 268
-0.998092, 303, 221, 318, 252
-0.998093, 389, 237, 404, 268
-0.998093, 321, 161, 384, 224
-0.998096, 321, 241, 336, 272
-0.998101, 53, 69, 68, 100
-0.998105, 289, 213, 416, 244
-0.998106, 397, 237, 412, 268
-0.998117, 113, 201, 240, 232
-0.998121, 423, 237, 438, 268
-0.99814, 361, 177, 424, 304
-0.998142, 269, 221, 284, 252
-0.998153, 459, 37, 474, 68
-0.998158, 339, 65, 354, 96
-0.998163, 403, 53, 418, 84
-0.998164, 313, 241, 328, 272
-0.998169, 337, 233, 352, 264
-0.998177, 451, 45, 466, 76
-0.99818, 305, 21, 432, 52
-0.998181, 369, 73, 496, 104
-0.998189, 161, 149, 288, 180
-0.998191, 373, 237, 388, 268
-0.998192, 169, 61, 184, 92
-0.998197, 365, 45, 380, 76
-0.998208, 17, 69, 144, 100
-0.998211, 129, 17, 192, 80
-0.998215, 277, 217, 292, 248
-0.998217, 177, 65, 240, 308
-0.998222, 65, 1, 96, 128
-0.998231, 161, 125, 288, 156
-0.998231, 65, 177, 128, 304
-0.998231, 113, 177, 176, 304
-0.998234, 363, 237, 378, 268
-0.998238, 411, 237, 426, 268
-0.998249, 65, 73, 80, 104
-0.998256, 145, 49, 176, 176
-0.998261, 403, 237, 418, 268
-0.998262, 373, 53, 388, 84
-0.998272, 129, 113, 256, 144
-0.998274, 81, 237, 208, 268
-0.998275, 49, 33, 112, 288
-0.998277, 417, 237, 432, 268
-0.99828, 383, 1, 398, 32
-0.998286, 225, 1, 256, 128
-0.998315, 225, 233, 240, 264
-0.99832, 475, 37, 490, 68
-0.998328, 289, 13, 304, 44
-0.99833, 1, 1, 64, 256
-0.998332, 231, 233, 246, 264
-0.998336, 257, 177, 384, 208
-0.998338, 329, 97, 360, 224
-0.998338, 311, 1, 326, 32
-0.998343, 209, 21, 336, 52
-0.998344, 13, 113, 28, 144
-0.998348, 293, 63, 324, 78
-0.998348, 249, 225, 280, 240
-0.998348, 289, 225, 320, 240
-0.998348, 253, 193, 284, 208
-0.998348, 361, 45, 392, 60
-0.998349, 331, 65, 346, 96
-0.99835, 1, 161, 64, 224
-0.99835, 265, 121, 296, 136
-0.998351, 397, 75, 428, 90
-0.998351, 317, 13, 348, 28
-0.998352, 117, 99, 148, 114
-0.998353, 291, 77, 306, 108
-0.998353, 65, 261, 192, 292
-0.998354, 465, 235, 496, 250
-0.998354, 253, 209, 284, 224
-0.998355, 341, 85, 372, 100
-0.998355, 165, 87, 196, 102
-0.998356, 41, 89, 72, 104
-0.998357, 285, 143, 316, 158
-0.998359, 277, 225, 308, 240
-0.998359, 181, 89, 212, 104
-0.99836, 257, 93, 288, 108
-0.99836, 397, 9, 428, 24
-0.998363, 457, 229, 488, 244
-0.998363, 381, 75, 412, 90
-0.998364, 445, 45, 460, 76
-0.998364, 213, 241, 228, 272
-0.998365, 265, 211, 296, 226
-0.998365, 205, 239, 236, 254
-0.998366, 265, 245, 296, 260
-0.998367, 397, 15, 428, 30
-0.998367, 445, 237, 476, 252
-0.998369, 465, 43, 496, 58
-0.99837, 193, 237, 224, 252
-0.998371, 345, 67, 376, 82
-0.998371, 345, 59, 376, 74
-0.998371, 337, 19, 368, 34
-0.998371, 209, 129, 240, 144
-0.998372, 333, 247, 364, 262
-0.998372, 401, 241, 432, 256
-0.998373, 265, 173, 296, 188
-0.998373, 265, 185, 296, 200
-0.998373, 265, 137, 296, 152
-0.998373, 317, 79, 348, 94
-0.998374, 237, 47, 268, 62
-0.998375, 421, 239, 452, 254
-0.998375, 305, 253, 336, 268
-0.998376, 281, 85, 312, 100
-0.998377, 181, 243, 212, 258
-0.998378, 181, 255, 212, 270
-0.998379, 17, 121, 48, 136
-0.998379, 357, 21, 388, 36
-0.998379, 297, 7, 328, 22
-0.99838, 297, 91, 328, 106
-0.998381, 265, 127, 296, 142
-0.998381, 49, 85, 64, 116
-0.998382, 237, 249, 268, 264
-0.998382, 309, 63, 340, 78
-0.998382, 69, 81, 100, 96
-0.998383, 193, 249, 224, 264
-0.998383, 159, 85, 174, 116
-0.998383, 285, 13, 316, 28
-0.998383, 285, 19, 316, 34
-0.998384, 365, 79, 396, 94
-0.998384, 5, 113, 20, 144
-0.998388, 65, 75, 96, 90
-0.998388, 273, 11, 304, 26
-0.998389, 325, 73, 356, 88
-0.998389, 253, 105, 284, 120
-0.998389, 361, 67, 392, 82
-0.99839, 357, 239, 388, 254
-0.998391, 61, 25, 92, 40
-0.998391, 311, 13, 326, 44
-0.998392, 317, 251, 348, 266
-0.998392, 189, 233, 204, 264
-0.998393, 249, 245, 264, 276
-0.998395, 49, 77, 80, 92
-0.998396, 277, 79, 308, 94
-0.998396, 389, 57, 420, 72
-0.998397, 301, 81, 332, 96
-0.998397, 437, 49, 468, 64
-0.998398, 243, 229, 258, 260
-0.998399, 265, 143, 296, 158
-0.998399, 385, 17, 416, 32
-0.9984, 265, 163, 296, 178
-0.998401, 273, 231, 336, 246
-0.998401, 369, 237, 400, 252
-0.998401, 265, 113, 296, 128
-0.998401, 265, 179, 296, 194
-0.998402, 353, 15, 384, 30
-0.998404, 337, 75, 368, 90
-0.998405, 217, 25, 280, 88
-0.998405, 381, 239, 412, 254
-0.998406, 133, 93, 164, 108
-0.998409, 323, 221, 338, 252
-0.99841, 277, 71, 308, 86
-0.998412, 329, 81, 360, 96
-0.998412, 281, 247, 312, 262
-0.998414, 73, 77, 88, 108
-0.99842, 265, 239, 296, 254
-0.998421, 461, 37, 492, 52
-0.998421, 289, 217, 304, 248
-0.998422, 153, 89, 184, 104
-0.998422, 257, 121, 384, 152
-0.998422, 33, 81, 64, 96
-0.998423, 353, 81, 384, 96
-0.998423, 325, 67, 356, 82
-0.998424, 195, 245, 210, 276
-0.998426, 361, 51, 392, 66
-0.998426, 313, 65, 344, 308
-0.998426, 369, 59, 400, 74
-0.998428, 453, 45, 484, 60
-0.998432, 333, 239, 364, 254
-0.998432, 71, 21, 86, 52
-0.998433, 249, 111, 280, 126
-0.998434, 389, 65, 420, 80
-0.998435, 365, 33, 380, 64
-0.998436, 317, 217, 332, 248
-0.998438, 217, 243, 248, 258
-0.99844, 373, 13, 404, 28
-0.99844, 321, 239, 352, 254
-0.998442, 375, 9, 390, 40
-0.998443, 175, 61, 190, 92
-0.998447, 429, 33, 460, 160
-0.998448, 181, 249, 212, 264
-0.998449, 193, 243, 224, 258
-0.998449, 429, 237, 444, 268
-0.998449, 297, 69, 328, 84
-0.998451, 249, 231, 312, 246
-0.998451, 301, 225, 332, 240
-0.998451, 253, 231, 284, 246
-0.998452, 217, 135, 248, 150
-0.998452, 293, 251, 324, 266
-0.998453, 17, 153, 144, 216
-0.998457, 5, 119, 36, 134
-0.998457, 381, 49, 412, 64
-0.998458, 273, 241, 336, 256
-0.998461, 165, 85, 180, 116
-0.998461, 185, 245, 248, 260
-0.998461, 79, 77, 94, 108
-0.998462, 297, 15, 328, 30
-0.998462, 225, 249, 256, 264
-0.998462, 351, 237, 366, 268
-0.998463, 183, 241, 198, 272
-0.998465, 369, 5, 496, 36
-0.998466, 241, 243, 272, 258
-0.998466, 265, 227, 296, 242
-0.998467, 293, 245, 324, 260
-0.998468, 309, 69, 340, 84
-0.998468, 161, 63, 192, 78
-0.998468, 49, 83, 80, 98
-0.998468, 259, 93, 274, 124
-0.998469, 289, 77, 352, 92
-0.99847, 117, 93, 148, 108
-0.998475, 205, 247, 236, 262
-0.998476, 281, 5, 296, 36
-0.998479, 233, 243, 296, 258
-0.998482, 281, 241, 312, 256
-0.998485, 241, 237, 304, 252
-0.998485, 321, 245, 352, 260
-0.998487, 321, 231, 352, 246
-0.998487, 485, 25, 500, 56
-0.998493, 37, 85, 52, 116
-0.998494, 293, 239, 324, 254
-0.998496, 357, 237, 372, 268
-0.998497, 221, 129, 252, 144
-0.998498, 465, 41, 480, 72
-0.998498, 345, 81, 360, 112
-0.998499, 289, 69, 352, 84
-0.9985, 297, 233, 360, 248
-0.9985, 209, 245, 272, 260
-0.998505, 297, 245, 360, 260
-0.998508, 175, 73, 190, 104
-0.998509, 163, 57, 178, 88
-0.998509, 159, 73, 174, 104
-0.998511, 41, 83, 104, 98
-0.998514, 393, 49, 408, 80
-0.998514, 361, 97, 424, 160
-0.998516, 379, 53, 394, 84
-0.998516, 249, 237, 280, 252
-0.99852, 369, 65, 384, 96
-0.998521, 361, 57, 376, 88
-0.998522, 273, 247, 336, 262
-0.998524, 29, 87, 60, 102
-0.998527, 481, 233, 496, 264
-0.998527, 383, 13, 398, 44
-0.998527, 289, 201, 416, 232
-0.998529, 229, 129, 244, 160
-0.998531, 301, 231, 332, 246
-0.998532, 205, 245, 220, 276
-0.998532, 409, 113, 472, 240
-0.998535, 297, 239, 360, 254
-0.998535, 249, 81, 312, 96
-0.998539, 299, 5, 314, 36
-0.99854, 283, 217, 298, 248
-0.998542, 361, 61, 424, 76
-0.998544, 123, 89, 138, 120
-0.998546, 167, 73, 182, 104
-0.998547, 433, 45, 496, 60
-0.998547, 355, 33, 370, 64
-0.998549, 409, 65, 424, 96
-0.998551, 313, 75, 376, 90
-0.998552, 467, 25, 482, 56
-0.998553, 267, 57, 282, 88
-0.998554, 107, 257, 122, 288
-0.998555, 265, 11, 328, 26
-0.998556, 185, 239, 248, 254
-0.998557, 233, 125, 296, 140
-0.998559, 137, 93, 200, 108
-0.998561, 329, 67, 392, 82
-0.998562, 229, 243, 260, 258
-0.998563, 361, 239, 424, 254
-0.998564, 309, 241, 340, 256
-0.998565, 273, 225, 336, 240
-0.998565, 289, 83, 352, 98
-0.998566, 353, 55, 416, 70
-0.998566, 353, 15, 416, 30
-0.998572, 321, 247, 384, 262
-0.998572, 297, 75, 328, 90
-0.998573, 353, 49, 416, 64
-0.998573, 257, 75, 320, 90
-0.998576, 113, 91, 176, 106
-0.998577, 391, 9, 406, 40
-0.998578, 225, 131, 288, 146
-0.998582, 289, 15, 352, 30
-0.998582, 1, 225, 128, 256
-0.998584, 361, 75, 424, 90
-0.998585, 479, 21, 494, 52
-0.998586, 33, 75, 96, 90
-0.998586, 269, 165, 284, 196
-0.998587, 305, 247, 336, 262
-0.998587, 321, 239, 384, 254
-0.998592, 257, 91, 320, 106
-0.998592, 1, 121, 64, 136
-0.998592, 329, 81, 392, 96
-0.998592, 225, 145, 288, 160
-0.998593, 233, 113, 296, 128
-0.998595, 203, 229, 218, 260
-0.998596, 353, 153, 480, 216
-0.998599, 409, 37, 472, 52
-0.998599, 277, 157, 292, 188
-0.998599, 257, 65, 320, 80
-0.9986, 153, 247, 216, 262
-0.9986, 289, 65, 304, 96
-0.998601, 289, 93, 352, 108
-0.998602, 337, 73, 400, 88
-0.998602, 409, 239, 472, 254
-0.998602, 41, 177, 72, 304
-0.998604, 361, 67, 424, 82
-0.998605, 341, 1, 372, 256
-0.998605, 241, 225, 304, 240
-0.998606, 297, 227, 360, 242
-0.998607, 321, 137, 384, 200
-0.998607, 1, 85, 64, 100
-0.998608, 355, 17, 370, 48
-0.998609, 345, 25, 360, 56
-0.998609, 59, 69, 74, 100
-0.99861, 409, 1, 440, 256
-0.998611, 153, 87, 216, 102
-0.998612, 281, 253, 344, 268
-0.998612, 113, 97, 176, 112
-0.998612, 329, 221, 344, 252
-0.998613, 393, 51, 456, 66
-0.998613, 249, 19, 312, 34
-0.998613, 257, 143, 320, 158
-0.998614, 257, 219, 320, 234
-0.998615, 297, 221, 312, 252
-0.998616, 281, 231, 312, 246
-0.998617, 275, 113, 290, 144
-0.998618, 241, 119, 304, 134
-0.998619, 265, 135, 328, 150
-0.998619, 161, 239, 224, 254
-0.99862, 225, 161, 288, 176
-0.998621, 257, 179, 320, 194
-0.998623, 233, 249, 296, 264
-0.998623, 217, 169, 280, 184
-0.998623, 309, 69, 324, 100
-0.998624, 343, 237, 358, 268
-0.998625, 363, 13, 378, 44
-0.998626, 209, 239, 272, 254
-0.998626, 385, 239, 448, 254
-0.998626, 471, 233, 486, 264
-0.998627, 273, 5, 336, 20
-0.998628, 225, 231, 288, 246
-0.998628, 257, 129, 320, 144
-0.998628, 321, 61, 384, 76
-0.99863, 265, 233, 296, 248
-0.99863, 403, 65, 418, 96
-0.99863, 339, 77, 354, 108
-0.998632, 265, 169, 328, 184
-0.998632, 333, 77, 348, 108
-0.998632, 201, 251, 264, 266
-0.998632, 417, 31, 480, 46
-0.998632, 385, 45, 448, 60
-0.998633, 113, 177, 240, 208
-0.998633, 313, 13, 376, 28
-0.998633, 433, 235, 496, 250
-0.998634, 289, 63, 352, 78
-0.998634, 77, 25, 92, 56
-0.998635, 225, 155, 288, 170
-0.998636, 257, 151, 320, 166
-0.998636, 353, 81, 416, 96
-0.998639, 225, 137, 288, 152
-0.99864, 25, 89, 88, 104
-0.99864, 273, 45, 288, 76
-0.998641, 421, 29, 436, 60
-0.998641, 299, 85, 314, 116
-0.998642, 233, 53, 296, 68
-0.998642, 369, 277, 496, 308
-0.998643, 193, 131, 256, 146
-0.998644, 1, 113, 256, 176
-0.998644, 273, 21, 336, 36
-0.998644, 153, 65, 216, 80
-0.998645, 129, 89, 144, 120
-0.998647, 233, 185, 296, 200
-0.998647, 257, 207, 320, 222
-0.998648, 313, 41, 376, 56
-0.99865, 225, 47, 288, 62
-0.998651, 9, 1, 72, 308
-0.998651, 369, 1, 400, 256
-0.998653, 25, 65, 88, 308
-0.998654, 401, 245, 464, 260
-0.998654, 265, 185, 328, 200
-0.998654, 241, 13, 304, 28
-0.998655, 433, 39, 496, 54
-0.998655, 369, 7, 432, 22
-0.998655, 257, 111, 320, 126
-0.998656, 345, 9, 408, 24
-0.998656, 337, 21, 400, 36
-0.998656, 233, 211, 296, 226
-0.998656, 385, 71, 448, 86
-0.998658, 297, 3, 360, 18
-0.998659, 337, 87, 400, 102
-0.998659, 249, 97, 312, 112
-0.998659, 225, 105, 288, 120
-0.99866, 209, 191, 272, 206
-0.99866, 81, 93, 144, 108
-0.99866, 257, 213, 320, 228
-0.998661, 425, 245, 488, 260
-0.998662, 217, 175, 280, 190
-0.998662, 201, 233, 264, 248
-0.998662, 241, 191, 304, 206
-0.998662, 257, 105, 320, 120
-0.998663, 17, 115, 80, 130
-0.998664, 425, 53, 488, 68
-0.998665, 145, 253, 208, 268
-0.998665, 17, 237, 80, 252
-0.998665, 1, 267, 64, 282
-0.998666, 385, 57, 448, 72
-0.998666, 313, 89, 376, 104
-0.99867, 265, 119, 328, 134
-0.99867, 265, 163, 328, 178
-0.998671, 345, 245, 408, 260
-0.998671, 177, 89, 240, 104
-0.998672, 385, 39, 448, 54
-0.998673, 41, 263, 104, 278
-0.998673, 209, 25, 272, 40
-0.998674, 265, 201, 328, 216
-0.998674, 385, 13, 448, 28
-0.99869, 49, 25, 176, 56
-0.998731, 257, 133, 384, 164
-0.99874, 225, 41, 352, 72
-0.998741, 289, 261, 416, 292
-0.998742, 425, 89, 488, 152
-0.998778, 113, 61, 240, 92
-0.998779, 1, 249, 128, 280
-0.998804, 1, 89, 500, 152
-0.998811, 33, 237, 160, 268
-0.998855, 1, 93, 128, 124
-0.998875, 161, 25, 288, 56
-0.998875, 1, 185, 64, 248
-0.998898, 389, 1, 404, 128
-0.998904, 205, 65, 236, 192
-0.998913, 209, 265, 336, 296
-0.998925, 269, 161, 284, 288
-0.998928, 425, 129, 488, 192
-0.998929, 325, 1, 356, 256
-0.99894, 49, 177, 176, 240
-0.99894, 169, 177, 200, 304
-0.998955, 353, 1, 384, 256
-0.998957, 49, 93, 176, 124
-0.998961, 41, 25, 104, 88
-0.998996, 1, 129, 128, 160
-0.998998, 113, 157, 240, 188
-0.999009, 381, 1, 412, 256
-0.999011, 225, 65, 256, 308
-0.999021, 369, 249, 496, 280
-0.99903, 305, 113, 432, 176
-0.999033, 415, 1, 430, 128
-0.999037, 289, 189, 416, 220
-0.999045, 277, 161, 292, 288
-0.999048, 1, 137, 256, 200
-0.999064, 353, 169, 416, 232
-0.999092, 409, 1, 424, 128
-0.999107, 25, 193, 88, 256
-0.99911, 113, 189, 240, 220
-0.999111, 165, 1, 196, 128
-0.999114, 161, 273, 288, 304
-0.99913, 397, 1, 412, 128
-0.999133, 309, 177, 324, 304
-0.999133, 289, 273, 416, 304
-0.999137, 353, 97, 384, 224
-0.999137, 365, 97, 396, 224
-0.999151, 1, 9, 500, 72
-0.999153, 283, 161, 298, 288
-0.999174, 49, 109, 176, 140
-0.999181, 289, 177, 304, 304
-0.999187, 357, 1, 372, 128
-0.999189, 337, 49, 352, 176
-0.999197, 301, 177, 316, 304
-0.9992, 397, 1, 428, 256
-0.999201, 311, 1, 326, 128
-0.999207, 129, 13, 256, 44
-0.999218, 269, 49, 284, 176
-0.999222, 271, 1, 286, 128
-0.999224, 381, 1, 396, 128
-0.999224, 49, 221, 176, 252
-0.999235, 351, 1, 366, 128
-0.999236, 403, 1, 418, 128
-0.99924, 345, 1, 360, 128
-0.99924, 353, 265, 480, 296
-0.999248, 221, 145, 236, 272
-0.999249, 257, 29, 384, 60
-0.999249, 113, 185, 176, 248
-0.999256, 49, 13, 176, 44
-0.999265, 1, 21, 128, 52
-0.999269, 317, 177, 332, 304
-0.999278, 327, 49, 342, 176
-0.999285, 305, 153, 432, 184
-0.999286, 371, 1, 386, 128
-0.999291, 421, 1, 436, 128
-0.999292, 291, 1, 306, 128
-0.999297, 273, 109, 400, 140
-0.99931, 305, 169, 432, 200
-0.99931, 311, 49, 326, 176
-0.999319, 283, 1, 298, 128
-0.999321, 305, 49, 320, 176
-0.999326, 49, 41, 176, 72
-0.999332, 227, 161, 242, 288
-0.999351, 161, 41, 288, 72
-0.999352, 65, 145, 192, 176
-0.999355, 323, 177, 338, 304
-0.999362, 215, 177, 230, 304
-0.999368, 261, 65, 276, 192
-0.999368, 295, 177, 310, 304
-0.999369, 343, 49, 358, 176
-0.99938, 217, 49, 248, 176
-0.999384, 259, 161, 274, 288
-0.999386, 209, 177, 224, 304
-0.999388, 299, 17, 314, 144
-0.999393, 33, 277, 160, 308
-0.999403, 369, 193, 496, 224
-0.999404, 13, 81, 28, 208
-0.999404, 277, 1, 292, 128
-0.999406, 5, 81, 20, 208
-0.99941, 1, 49, 128, 80
-0.999416, 393, 49, 408, 176
-0.99942, 363, 1, 378, 128
-0.999431, 305, 1, 320, 128
-0.99944, 161, 1, 288, 32
-0.999441, 353, 49, 368, 176
-0.999442, 479, 1, 494, 128
-0.999443, 277, 113, 292, 240
-0.999445, 251, 177, 266, 304
-0.999448, 53, 49, 68, 176
-0.999452, 317, 1, 332, 128
-0.999452, 289, 49, 304, 176
-0.999457, 299, 81, 314, 208
-0.99946, 269, 113, 284, 240
-0.999464, 335, 1, 350, 128
-0.99947, 203, 177, 218, 304
-0.999471, 19, 81, 34, 208
-0.999481, 359, 49, 374, 176
-0.999483, 223, 97, 238, 224
-0.999488, 467, 1, 482, 128
-0.999496, 283, 49, 298, 176
-0.999499, 249, 97, 264, 224
-0.9995, 319, 49, 334, 176
-0.9995, 399, 49, 414, 176
-0.999502, 239, 177, 254, 304
-0.999502, 97, 125, 224, 156
-0.999506, 409, 1, 472, 308
-0.999511, 89, 81, 152, 208
-0.999517, 405, 49, 420, 176
-0.999517, 233, 145, 248, 272
-0.999521, 485, 1, 500, 128
-0.999524, 17, 157, 144, 188
-0.999526, 381, 49, 396, 176
-0.999534, 387, 49, 402, 176
-0.999535, 461, 1, 476, 128
-0.999541, 301, 129, 316, 256
-0.999546, 33, 209, 160, 240
-0.999547, 177, 49, 192, 176
-0.999549, 213, 1, 244, 128
-0.999561, 205, 247, 220, 262
-0.999563, 337, 213, 464, 244
-0.999563, 393, 65, 408, 80
-0.999563, 329, 177, 344, 304
-0.999564, 385, 9, 400, 24
-0.999565, 291, 73, 306, 88
-0.999565, 369, 61, 384, 76
-0.999565, 275, 65, 290, 192
-0.999565, 375, 237, 390, 252
-0.999566, 243, 45, 258, 60
-0.999566, 311, 15, 326, 30
-0.999566, 389, 239, 404, 254
-0.999566, 419, 49, 434, 176
-0.999566, 53, 77, 68, 92
-0.999567, 397, 15, 412, 30
-0.999567, 373, 53, 388, 68
-0.999568, 221, 237, 236, 252
-0.999569, 153, 91, 168, 106
-0.999569, 213, 247, 228, 262
-0.99957, 161, 67, 176, 82
-0.999571, 299, 15, 314, 30
-0.999571, 159, 87, 174, 102
-0.999572, 371, 245, 386, 260
-0.999572, 301, 91, 316, 106
-0.999572, 269, 163, 284, 178
-0.999572, 261, 237, 276, 252
-0.999572, 277, 111, 292, 126
-0.999573, 309, 5, 324, 20
-0.999573, 77, 29, 92, 44
-0.999573, 299, 85, 314, 100
-0.999574, 437, 49, 452, 64
-0.999574, 317, 225, 332, 240
-0.999574, 161, 49, 176, 176
-0.999574, 345, 83, 360, 98
-0.999575, 271, 177, 286, 192
-0.999575, 329, 249, 344, 264
-0.999576, 337, 77, 352, 92
-0.999577, 459, 41, 474, 56
-0.999577, 393, 51, 408, 66
-0.999577, 273, 203, 288, 218
-0.999579, 299, 241, 314, 256
-0.999579, 275, 137, 290, 152
-0.99958, 345, 73, 360, 88
-0.99958, 365, 43, 380, 58
-0.99958, 47, 17, 62, 144
-0.99958, 97, 277, 224, 308
-0.999581, 113, 33, 240, 64
-0.999581, 65, 73, 80, 88
-0.999581, 225, 249, 240, 264
-0.999582, 369, 239, 384, 254
-0.999582, 197, 243, 212, 258
-0.999582, 309, 129, 324, 256
-0.999583, 367, 81, 382, 96
-0.999583, 37, 83, 52, 98
-0.999584, 369, 75, 384, 90
-0.999584, 255, 81, 270, 208
-0.999585, 335, 241, 350, 256
-0.999585, 3, 119, 18, 134
-0.999586, 447, 47, 462, 62
-0.999586, 11, 117, 26, 132
-0.999587, 223, 135, 238, 150
-0.999587, 175, 65, 190, 80
-0.99959, 271, 187, 286, 202
-0.99959, 475, 41, 490, 56
-0.999591, 299, 249, 314, 264
-0.999591, 369, 85, 496, 116
-0.999592, 327, 71, 342, 86
-0.999592, 293, 19, 308, 34
-0.999592, 305, 233, 320, 248
-0.999593, 311, 225, 326, 240
-0.999595, 315, 67, 330, 82
-0.999595, 353, 81, 368, 96
-0.999597, 393, 59, 408, 74
-0.999597, 271, 197, 286, 212
-0.999597, 243, 249, 258, 264
-0.999598, 245, 177, 260, 304
-0.9996, 147, 93, 162, 108
-0.9996, 301, 225, 316, 240
-0.999601, 367, 49, 382, 176
-0.999602, 137, 93, 152, 108
-0.999602, 335, 63, 350, 78
-0.999602, 381, 237, 396, 252
-0.999602, 363, 55, 378, 70
-0.999603, 365, 49, 380, 64
-0.999603, 291, 13, 306, 28
-0.999604, 311, 251, 326, 266
-0.999604, 261, 231, 276, 246
-0.999604, 275, 163, 290, 178
-0.999605, 45, 89, 60, 104
-0.999606, 361, 79, 376, 94
-0.999606, 317, 73, 332, 88
-0.999606, 329, 237, 344, 252
-0.999607, 401, 55, 416, 70
-0.999608, 231, 249, 246, 264
-0.999609, 335, 247, 350, 262
-0.999609, 293, 243, 308, 258
-0.99961, 191, 243, 206, 258
-0.999611, 291, 79, 306, 94
-0.999612, 17, 119, 32, 134
-0.999614, 237, 249, 252, 264
-0.999614, 305, 11, 320, 26
-0.999615, 131, 95, 146, 110
-0.999616, 403, 65, 418, 80
-0.999616, 71, 25, 86, 40
-0.999617, 393, 137, 456, 200
-0.99962, 191, 49, 206, 176
-0.999622, 47, 65, 62, 192
-0.999622, 121, 93, 136, 108
-0.999623, 339, 71, 354, 86
-0.999624, 327, 227, 342, 242
-0.999624, 363, 239, 378, 254
-0.999625, 55, 1, 70, 128
-0.999626, 167, 63, 182, 78
-0.999628, 189, 249, 204, 264
-0.999628, 417, 81, 448, 208
-0.999629, 421, 33, 436, 48
-0.999633, 215, 113, 230, 240
-0.999633, 243, 97, 258, 224
-0.999634, 391, 15, 406, 30
-0.999639, 49, 121, 176, 152
-0.999644, 195, 249, 210, 264
-0.999645, 219, 243, 234, 258
-0.999646, 271, 227, 286, 242
-0.999646, 293, 237, 308, 252
-0.999646, 283, 241, 298, 256
-0.999647, 373, 49, 388, 176
-0.999651, 209, 65, 240, 308
-0.999651, 427, 17, 442, 144
-0.999652, 171, 49, 186, 176
-0.999653, 309, 71, 324, 86
-0.999653, 225, 243, 240, 258
-0.999655, 265, 1, 280, 128
-0.999656, 185, 49, 200, 176
-0.999658, 323, 247, 338, 262
-0.999659, 283, 113, 298, 240
-0.999662, 191, 177, 206, 304
-0.999664, 329, 243, 344, 258
-0.999666, 249, 33, 264, 160
-0.999667, 43, 83, 58, 98
-0.999667, 353, 121, 416, 184
-0.999667, 311, 231, 326, 246
-0.99967, 277, 237, 292, 252
-0.99967, 315, 97, 330, 224
-0.999674, 27, 81, 42, 208
-0.999676, 305, 241, 320, 256
-0.999678, 323, 235, 338, 250
-0.999678, 257, 17, 272, 144
-0.999679, 327, 1, 342, 128
-0.99968, 41, 1, 104, 308
-0.999681, 305, 247, 320, 262
-0.999684, 413, 65, 428, 192
-0.999688, 301, 75, 316, 90
-0.999689, 473, 17, 488, 144
-0.999692, 243, 49, 258, 176
-0.999695, 249, 243, 264, 258
-0.999696, 237, 243, 252, 258
-0.999697, 317, 247, 332, 262
-0.999699, 231, 243, 246, 258
-0.999705, 197, 177, 212, 304
-0.999708, 69, 1, 84, 128
-0.999709, 229, 97, 244, 224
-0.999715, 289, 129, 304, 256
-0.999717, 299, 233, 314, 248
-0.999719, 311, 245, 326, 260
-0.999721, 3, 129, 18, 256
-0.999725, 321, 241, 336, 256
-0.999725, 377, 177, 440, 240
-0.999729, 61, 49, 76, 176
-0.999729, 19, 33, 34, 160
-0.999731, 335, 177, 350, 304
-0.999732, 469, 1, 500, 256
-0.999734, 317, 231, 332, 246
-0.999738, 221, 129, 236, 144
-0.99974, 97, 49, 224, 80
-0.999742, 167, 97, 182, 224
-0.999742, 187, 97, 202, 224
-0.999742, 277, 231, 292, 246
-0.999742, 243, 1, 258, 128
-0.999743, 283, 231, 298, 246
-0.999747, 243, 243, 258, 258
-0.999748, 315, 237, 330, 252
-0.99975, 237, 97, 252, 224
-0.99975, 269, 233, 284, 248
-0.99975, 261, 113, 276, 240
-0.999752, 461, 49, 476, 176
-0.999752, 155, 49, 170, 176
-0.999752, 61, 65, 92, 192
-0.999754, 337, 97, 464, 128
-0.999755, 291, 231, 306, 246
-0.999759, 13, 129, 28, 256
-0.999763, 455, 17, 470, 144
-0.999764, 179, 129, 194, 256
-0.99977, 41, 49, 56, 176
-0.999771, 113, 137, 240, 168
-0.999772, 481, 49, 496, 176
-0.999775, 333, 97, 348, 224
-0.999776, 325, 97, 340, 224
-0.999778, 21, 129, 36, 256
-0.999782, 33, 65, 48, 192
-0.99979, 197, 49, 212, 176
-0.999797, 167, 1, 182, 128
-0.999801, 441, 33, 472, 160
-0.999806, 381, 97, 412, 224
-0.999808, 1, 121, 500, 184
-0.999809, 75, 1, 90, 128
-0.999812, 483, 161, 498, 288
-0.999816, 193, 97, 208, 224
-0.99982, 67, 49, 82, 176
-0.999844, 45, 1, 76, 256
-0.999888, 13, 1, 44, 256
-0.999949, 1, 1, 32, 256
-1.00001, 421, 1, 452, 256
-1.00003, 57, 33, 88, 288
-1.00004, 457, 1, 488, 256
-1.00012, 33, 97, 64, 224
-1.00013, 105, 137, 168, 200
-1.00013, 145, 145, 208, 208
-1.00016, 69, 33, 100, 288
-1.0002, 149, 145, 180, 272
-1.00025, 41, 145, 104, 208
-1.00025, 49, 97, 80, 224
-1.00026, 197, 113, 228, 240
-1.00027, 33, 1, 64, 256
-1.00038, 197, 33, 228, 288
-1.00045, 445, 1, 476, 256
-1.00046, 433, 65, 464, 308
-1.00062, 1, 145, 500, 208
-1.00068, 341, 97, 372, 224
-1.00073, 141, 65, 172, 308
-1.00075, 1, 169, 500, 232
-1.00076, 181, 65, 212, 308
-1.00078, 185, 113, 216, 240
-1.00078, 1, 177, 128, 240
-1.0008, 165, 1, 196, 256
-1.00085, 373, 161, 404, 288
-1.00086, 93, 65, 124, 308
-1.00088, 105, 65, 136, 308
-1.00089, 1, 177, 64, 304
-1.00089, 125, 1, 156, 256
-1.00091, 1, 33, 32, 160
-1.00094, 153, 33, 184, 288
-1.00103, 101, 81, 132, 208
-1.00105, 81, 1, 112, 256
-1.00118, 97, 177, 128, 304
-1.00122, 73, 49, 104, 176
-1.00132, 193, 17, 224, 144
-1.00132, 129, 1, 192, 128
-1.00135, 445, 177, 476, 304
-1.00141, 69, 177, 100, 304
-1.00142, 73, 33, 136, 160
-1.00145, 73, 1, 136, 256
-1.00157, 433, 81, 464, 208
-1.0016, 349, 177, 380, 304
-1.00166, 177, 1, 208, 128
-1.00172, 361, 113, 424, 240
-1.00175, 57, 145, 88, 272
-1.00184, 33, 129, 96, 256
-1.00195, 145, 1, 176, 128
-1.00197, 89, 177, 152, 304
-1.00205, 21, 129, 52, 256
-1.00208, 85, 65, 116, 192
-1.00212, 113, 81, 144, 208
-1.00213, 17, 177, 48, 304
-1.00222, 425, 145, 456, 272
-1.00224, 137, 1, 200, 256
-1.00226, 393, 97, 424, 224
-1.00234, 405, 113, 436, 240
-1.00234, 97, 65, 160, 308
-1.00241, 129, 177, 160, 304
-1.0025, 445, 81, 476, 208
-1.00262, 385, 145, 416, 272
-1.00283, 145, 97, 176, 224
-1.00287, 73, 113, 104, 240
-1.00297, 133, 33, 164, 160
-1.00297, 457, 177, 488, 304
-1.00301, 405, 161, 436, 288
-1.00306, 125, 97, 156, 224
-1.00312, 85, 113, 116, 240
-1.00317, 65, 129, 128, 256
-1.00318, 29, 177, 60, 304
-1.00324, 437, 129, 468, 256
-1.00325, 105, 33, 136, 160
-1.00334, 457, 97, 488, 224
-1.00342, 113, 177, 144, 304
-1.00347, 113, 129, 144, 256
-1.00351, 85, 161, 116, 288
-1.00361, 433, 129, 496, 256
-1.00386, 105, 129, 168, 256
-1.0043, 85, 17, 116, 144
-1.00439, 469, 113, 500, 240
-1.00441, 121, 1, 152, 128
-1.00444, 361, 177, 392, 304
-1.00447, 1, 177, 32, 304
-1.00521, 97, 129, 128, 256
