1955
-0.208992, 1, 1, 500, 375
-0.306731, 97, 1, 352, 375
-0.358854, 1, 33, 500, 288
-0.372738, 257, 1, 500, 375
-0.461093, 1, 129, 500, 375
-0.471047, 1, 1, 256, 375
-0.488592, 161, 33, 416, 288
-0.555735, 65, 33, 320, 288
-0.617049, 257, 33, 500, 288
-0.627248, 161, 129, 416, 375
-0.634326, 257, 129, 500, 375
-0.697914, 65, 129, 320, 375
-0.83204, 97, 1, 224, 375
-0.836944, 145, 33, 272, 288
-0.837743, 225, 1, 352, 375
-0.842352, 81, 65, 208, 320
-0.842617, 289, 65, 416, 320
-0.843173, 209, 1, 336, 256
-0.845253, 161, 1, 288, 375
-0.845847, 17, 1, 144, 375
-0.848919, 289, 1, 416, 375
-0.85809, 1, 97, 500, 224
-0.858708, 241, 97, 368, 352
-0.863855, 1, 1, 500, 128
-0.866481, 161, 129, 288, 375
-0.868426, 1, 33, 128, 288
-0.869689, 337, 1, 464, 375
-0.872727, 1, 129, 128, 375
-0.880153, 1, 193, 500, 320
-0.880345, 353, 1, 480, 256
-0.885741, 1, 145, 500, 272
-0.886657, 1, 49, 500, 176
-0.890288, 369, 129, 496, 375
-0.902158, 193, 81, 448, 208
-0.905631, 97, 17, 352, 144
-0.907632, 225, 161, 480, 288
-0.91256, 193, 33, 448, 160
-0.913841, 97, 161, 352, 288
-0.91978, 129, 209, 384, 336
-0.923678, 1, 177, 256, 304
-0.925726, 97, 97, 352, 224
-0.928702, 1, 1, 256, 128
-0.929102, 289, 65, 416, 192
-0.930784, 209, 81, 336, 208
-0.932177, 225, 209, 480, 336
-0.933927, 321, 161, 448, 288
-0.93426, 81, 177, 208, 304
-0.934518, 161, 97, 288, 224
-0.934881, 1, 33, 64, 160
-0.934903, 241, 129, 368, 256
-0.935722, 161, 161, 288, 288
-0.935766, 1, 49, 256, 176
-0.936486, 273, 1, 400, 128
-0.936709, 305, 113, 432, 240
-0.9378, 81, 81, 208, 208
-0.938326, 273, 129, 336, 256
-0.93889, 161, 161, 224, 288
-0.939947, 305, 161, 368, 288
-0.940372, 1, 225, 256, 352
-0.940854, 17, 1, 144, 128
-0.940887, 353, 113, 416, 240
-0.941246, 1, 241, 500, 368
-0.941366, 361, 17, 424, 144
-0.942259, 209, 1, 336, 128
-0.94231, 209, 17, 272, 144
-0.942411, 161, 49, 224, 176
-0.942532, 185, 65, 248, 192
-0.942558, 329, 17, 392, 144
-0.943064, 217, 161, 280, 288
-0.943411, 1, 161, 128, 288
-0.943663, 129, 81, 192, 208
-0.94423, 97, 145, 160, 272
-0.944274, 321, 1, 448, 128
-0.944462, 161, 17, 288, 144
-0.944511, 241, 177, 368, 304
-0.944645, 97, 129, 224, 256
-0.944741, 113, 17, 240, 144
-0.94493, 273, 65, 336, 192
-0.945664, 1, 97, 256, 224
-0.946668, 105, 1, 168, 128
-0.946785, 105, 65, 168, 192
-0.94689, 249, 161, 312, 288
-0.946985, 329, 145, 392, 272
-0.948126, 377, 161, 440, 288
-0.948849, 401, 1, 464, 128
-0.948849, 161, 97, 224, 224
-0.949288, 249, 49, 312, 176
-0.949626, 297, 81, 360, 208
-0.949719, 273, 177, 336, 304
-0.949817, 121, 137, 184, 200
-0.950146, 353, 177, 416, 304
-0.950418, 17, 49, 144, 176
-0.95065, 249, 1, 312, 128
-0.95075, 129, 1, 192, 128
-0.951534, 81, 1, 144, 128
-0.951534, 345, 65, 408, 192
-0.951555, 177, 1, 240, 128
-0.951748, 1, 113, 128, 240
-0.952151, 113, 17, 176, 80
-0.953387, 369, 161, 496, 288
-0.954637, 121, 129, 184, 256
-0.954928, 273, 17, 336, 144
-0.955166, 321, 209, 448, 336
-0.955248, 137, 105, 200, 168
-0.955316, 385, 1, 448, 64
-0.955609, 321, 209, 384, 336
-0.955802, 169, 57, 232, 120
-0.955817, 1, 113, 64, 240
-0.955944, 369, 161, 432, 224
-0.955954, 177, 209, 304, 336
-0.955962, 161, 9, 224, 72
-0.956554, 161, 129, 224, 192
-0.956652, 217, 113, 280, 240
-0.956701, 329, 177, 392, 240
-0.95675, 73, 193, 136, 320
-0.956958, 185, 113, 248, 240
-0.957032, 377, 113, 440, 240
-0.957261, 321, 97, 384, 224
-0.957375, 369, 209, 496, 336
-0.957457, 369, 33, 432, 96
-0.957487, 265, 137, 328, 200
-0.957487, 241, 113, 304, 240
-0.957589, 161, 105, 224, 168
-0.957905, 241, 209, 304, 336
-0.957982, 337, 25, 400, 88
-0.958229, 25, 1, 88, 128
-0.958708, 1, 41, 64, 104
-0.958859, 297, 33, 360, 160
-0.958921, 129, 209, 256, 336
-0.959195, 281, 193, 344, 256
-0.959344, 169, 209, 232, 336
-0.95954, 1, 65, 64, 128
-0.959586, 305, 65, 368, 128
-0.959682, 361, 193, 424, 256
-0.959808, 369, 17, 496, 144
-0.959856, 297, 153, 360, 216
-0.960228, 65, 1, 192, 128
-0.960235, 73, 145, 136, 272
-0.960361, 361, 1, 424, 64
-0.960492, 185, 1, 248, 64
-0.960545, 121, 177, 184, 304
-0.960678, 193, 161, 256, 288
-0.96081, 9, 1, 72, 64
-0.960912, 9, 177, 72, 304
-0.961508, 65, 225, 192, 352
-0.961553, 145, 41, 208, 104
-0.961607, 305, 177, 368, 240
-0.961702, 97, 129, 160, 192
-0.96172, 305, 201, 368, 264
-0.961756, 1, 113, 64, 176
-0.961955, 97, 161, 160, 224
-0.962159, 265, 65, 328, 128
-0.962197, 241, 225, 304, 288
-0.962224, 233, 169, 296, 232
-0.96265, 153, 1, 216, 128
-0.962852, 297, 209, 360, 336
-0.963024, 193, 73, 256, 136
-0.963191, 89, 1, 152, 64
-0.963315, 169, 217, 232, 280
-0.963327, 137, 1, 200, 64
-0.963352, 113, 97, 176, 160
-0.963852, 185, 97, 248, 160
-0.963952, 209, 17, 272, 80
-0.96397, 385, 49, 448, 176
-0.964223, 353, 129, 416, 192
-0.964227, 409, 1, 472, 64
-0.964227, 225, 145, 288, 208
-0.96428, 361, 225, 424, 352
-0.964301, 273, 33, 336, 96
-0.964497, 25, 97, 88, 224
-0.964621, 49, 129, 176, 256
-0.964651, 217, 209, 280, 336
-0.964755, 313, 121, 376, 184
-0.96483, 393, 185, 456, 248
-0.96487, 201, 177, 264, 240
-0.965006, 273, 97, 336, 160
-0.965129, 129, 1, 192, 256
-0.96513, 313, 225, 376, 288
-0.965137, 1, 241, 128, 368
-0.965284, 329, 97, 392, 160
-0.965423, 273, 161, 336, 224
-0.965645, 329, 153, 392, 216
-0.965858, 353, 113, 480, 240
-0.965862, 329, 1, 392, 64
-0.965908, 233, 113, 296, 176
-0.965985, 81, 97, 144, 224
-0.966081, 401, 177, 464, 304
-0.966082, 81, 217, 144, 280
-0.966261, 225, 1, 288, 256
-0.966394, 209, 201, 272, 264
-0.966527, 161, 81, 224, 144
-0.966625, 33, 145, 96, 272
-0.966685, 161, 153, 224, 216
-0.966957, 257, 185, 320, 248
-0.967124, 241, 225, 368, 352
-0.967328, 289, 225, 352, 288
-0.96764, 265, 217, 328, 280
-0.967921, 393, 25, 456, 88
-0.96793, 185, 121, 248, 184
-0.968001, 81, 49, 144, 176
-0.968031, 49, 17, 112, 144
-0.968087, 433, 193, 496, 320
-0.968094, 97, 1, 160, 256
-0.968153, 105, 209, 168, 272
-0.968201, 257, 65, 320, 320
-0.968447, 289, 129, 352, 192
-0.968472, 321, 25, 448, 88
-0.968489, 297, 81, 328, 208
-0.968505, 305, 113, 432, 176
-0.968568, 241, 57, 304, 120
-0.968611, 81, 193, 144, 256
-0.968629, 9, 89, 72, 152
-0.96863, 193, 33, 320, 96
-0.968686, 381, 201, 412, 264
-0.968861, 113, 57, 176, 120
-0.968861, 89, 73, 152, 136
-0.968978, 13, 81, 44, 144
-0.969086, 337, 201, 400, 264
-0.969107, 353, 1, 416, 256
-0.969155, 193, 209, 256, 336
-0.969461, 33, 1, 96, 64
-0.969655, 1, 137, 64, 200
-0.96966, 129, 217, 192, 280
-0.969664, 169, 105, 200, 168
-0.96968, 321, 161, 448, 224
-0.969747, 369, 65, 496, 192
-0.969782, 377, 49, 408, 176
-0.96983, 25, 49, 88, 176
-0.96991, 353, 233, 416, 296
-0.970027, 377, 57, 440, 120
-0.970082, 297, 41, 360, 104
-0.970149, 225, 65, 288, 192
-0.970228, 361, 1, 392, 128
-0.970317, 97, 193, 160, 320
-0.970318, 321, 153, 352, 216
-0.970404, 209, 105, 272, 168
-0.970421, 225, 89, 352, 152
-0.970448, 145, 209, 208, 336
-0.970522, 1, 1, 64, 256
-0.970671, 289, 49, 416, 112
-0.970846, 353, 105, 416, 168
-0.970869, 177, 33, 240, 288
-0.970912, 113, 49, 240, 112
-0.970933, 97, 129, 160, 375
-0.970991, 389, 153, 420, 216
-0.970992, 281, 65, 344, 320
-0.971005, 385, 225, 448, 352
-0.971064, 1, 65, 32, 128
-0.971199, 241, 1, 304, 64
-0.97121, 361, 129, 424, 375
-0.971235, 193, 41, 256, 104
-0.971248, 385, 209, 448, 272
-0.971474, 25, 57, 88, 120
-0.971514, 337, 73, 400, 136
-0.971611, 389, 145, 420, 272
-0.971695, 81, 225, 208, 288
-0.971971, 129, 113, 256, 176
-0.971984, 185, 153, 248, 216
-0.971985, 273, 225, 336, 352
-0.971996, 297, 97, 360, 160
-0.972013, 305, 137, 432, 200
-0.972049, 145, 25, 272, 88
-0.972059, 137, 81, 200, 144
-0.972097, 169, 33, 232, 96
-0.972118, 225, 145, 352, 208
-0.972138, 337, 49, 400, 112
-0.972145, 161, 193, 224, 256
-0.97216, 113, 1, 240, 64
-0.972212, 381, 193, 412, 320
-0.972312, 401, 145, 432, 272
-0.972368, 121, 145, 152, 208
-0.9724, 13, 49, 44, 112
-0.972527, 201, 97, 264, 352
-0.972688, 89, 105, 152, 168
-0.97272, 289, 185, 416, 248
-0.972804, 341, 169, 372, 232
-0.972878, 389, 41, 420, 104
-0.972928, 401, 113, 464, 240
-0.972944, 1, 17, 32, 144
-0.973043, 305, 105, 336, 168
-0.973111, 365, 49, 396, 176
-0.97324, 401, 177, 432, 240
-0.973254, 321, 145, 352, 272
-0.973324, 329, 1, 392, 256
-0.973426, 273, 249, 336, 312
-0.973447, 321, 193, 352, 256
-0.973452, 1, 129, 64, 375
-0.973506, 57, 65, 120, 192
-0.973527, 65, 9, 192, 72
-0.973558, 17, 1, 48, 128
-0.97361, 293, 129, 324, 256
-0.973704, 57, 225, 120, 288
-0.973745, 101, 145, 132, 272
-0.973855, 5, 145, 36, 272
-0.973857, 141, 121, 172, 184
-0.973859, 193, 57, 320, 120
-0.97387, 201, 1, 264, 256
-0.973926, 201, 233, 264, 296
-0.973971, 137, 97, 200, 352
-0.973979, 253, 161, 284, 288
-0.974019, 309, 129, 340, 192
-0.97406, 225, 97, 288, 352
-0.974106, 149, 89, 180, 152
-0.97413, 305, 145, 336, 272
-0.974156, 273, 1, 400, 64
-0.974194, 365, 97, 396, 224
-0.97424, 33, 1, 96, 256
-0.974337, 5, 169, 36, 232
-0.974441, 377, 137, 440, 200
-0.974501, 233, 33, 296, 96
-0.974532, 209, 121, 336, 184
-0.974542, 289, 209, 416, 272
-0.974553, 385, 1, 448, 256
-0.974576, 81, 153, 208, 216
-0.974606, 133, 1, 164, 64
-0.974813, 337, 161, 368, 288
-0.974827, 33, 25, 96, 88
-0.974888, 313, 81, 344, 208
-0.974955, 169, 97, 200, 224
-0.974958, 365, 81, 396, 144
-0.974981, 97, 209, 128, 272
-0.974989, 13, 25, 44, 88
-0.975085, 329, 97, 392, 352
-0.97509, 17, 161, 144, 224
-0.975098, 305, 81, 432, 144
-0.9751, 257, 25, 384, 88
-0.97513, 261, 1, 292, 64
-0.975139, 33, 33, 64, 160
-0.975151, 193, 25, 224, 88
-0.975229, 193, 1, 320, 64
-0.975326, 33, 89, 96, 152
-0.975434, 393, 161, 456, 224
-0.975455, 373, 121, 404, 184
-0.975483, 141, 97, 172, 224
-0.975515, 241, 201, 368, 264
-0.975519, 165, 161, 196, 288
-0.975532, 241, 129, 272, 256
-0.975618, 277, 65, 308, 192
-0.975671, 41, 193, 104, 320
-0.975718, 161, 17, 192, 80
-0.975732, 377, 129, 408, 256
-0.975843, 169, 241, 232, 304
-0.97595, 101, 161, 132, 224
-0.976035, 369, 177, 400, 240
-0.976108, 233, 201, 296, 264
-0.97613, 377, 105, 440, 168
-0.976188, 129, 81, 160, 144
-0.976353, 353, 1, 480, 64
-0.976424, 117, 161, 148, 288
-0.97646, 145, 193, 272, 256
-0.97646, 65, 201, 192, 264
-0.976522, 217, 81, 280, 144
-0.976583, 337, 201, 464, 264
-0.976611, 117, 65, 148, 192
-0.976612, 393, 209, 424, 336
-0.976655, 9, 225, 72, 352
-0.976712, 5, 113, 36, 176
-0.976751, 33, 169, 96, 232
-0.976921, 213, 1, 244, 128
-0.976945, 369, 177, 400, 304
-0.976993, 369, 257, 432, 320
-0.977018, 353, 209, 384, 272
-0.977076, 17, 33, 144, 96
-0.977097, 73, 161, 136, 224
-0.977143, 277, 1, 308, 128
-0.977154, 281, 33, 312, 96
-0.977163, 17, 9, 144, 72
-0.977183, 117, 1, 148, 64
-0.97719, 297, 1, 360, 64
-0.97725, 297, 137, 328, 200
-0.977268, 377, 33, 408, 96
-0.977286, 57, 193, 120, 256
-0.977345, 1, 89, 32, 152
-0.977462, 89, 41, 152, 104
-0.977493, 121, 161, 184, 224
-0.977498, 129, 73, 256, 136
-0.977501, 201, 1, 232, 64
-0.977583, 433, 225, 496, 288
-0.977583, 257, 121, 384, 184
-0.977628, 361, 145, 392, 208
-0.977629, 1, 121, 128, 184
-0.977641, 21, 1, 52, 64
-0.977662, 125, 1, 156, 128
-0.977721, 177, 225, 304, 288
-0.977733, 89, 145, 120, 272
-0.977743, 33, 33, 64, 96
-0.977744, 161, 137, 288, 200
-0.977759, 149, 1, 180, 64
-0.97777, 21, 97, 52, 224
-0.977786, 105, 73, 136, 136
-0.977795, 289, 1, 320, 128
-0.977848, 333, 209, 364, 272
-0.977852, 273, 129, 304, 256
-0.977919, 261, 185, 292, 248
-0.977942, 105, 233, 168, 296
-0.977951, 9, 97, 40, 224
-0.977982, 73, 129, 136, 192
-0.977985, 1, 25, 32, 88
-0.978033, 409, 17, 440, 80
-0.978039, 353, 97, 384, 160
-0.978056, 389, 225, 420, 288
-0.978087, 181, 17, 212, 80
-0.978103, 13, 49, 44, 176
-0.978105, 89, 185, 120, 248
-0.978173, 65, 1, 128, 64
-0.978322, 305, 1, 368, 256
-0.978381, 361, 81, 424, 144
-0.978391, 293, 193, 324, 256
-0.978497, 165, 145, 196, 208
-0.978537, 401, 1, 432, 128
-0.978594, 177, 33, 208, 160
-0.978661, 177, 81, 304, 144
-0.978669, 153, 1, 216, 256
-0.978691, 353, 185, 384, 248
-0.978733, 1, 169, 64, 232
-0.978772, 265, 1, 296, 128
-0.978791, 121, 113, 152, 240
-0.978832, 121, 225, 184, 352
-0.978837, 273, 145, 304, 208
-0.978868, 129, 113, 160, 176
-0.978893, 225, 201, 256, 264
-0.978914, 241, 49, 368, 112
-0.978915, 265, 33, 296, 96
-0.978928, 425, 193, 488, 256
-0.978938, 393, 113, 424, 176
-0.979104, 245, 17, 276, 80
-0.979114, 385, 97, 448, 352
-0.979152, 81, 121, 208, 184
-0.979206, 417, 1, 448, 128
-0.979216, 157, 113, 188, 240
-0.979231, 425, 1, 488, 128
-0.979285, 17, 73, 144, 136
-0.979334, 305, 193, 336, 320
-0.979335, 321, 129, 352, 192
-0.979422, 433, 1, 464, 64
-0.97943, 293, 177, 324, 304
-0.979435, 281, 193, 312, 320
-0.979485, 17, 113, 48, 176
-0.979502, 293, 57, 324, 120
-0.979556, 465, 193, 496, 320
-0.979561, 33, 209, 96, 272
-0.979589, 273, 161, 400, 224
-0.979593, 241, 105, 272, 168
-0.979605, 153, 113, 184, 176
-0.979616, 29, 65, 60, 128
-0.979621, 121, 169, 152, 232
-0.979638, 5, 145, 36, 208
-0.979661, 65, 177, 192, 240
-0.979698, 129, 241, 192, 304
-0.979713, 9, 249, 72, 312
-0.979714, 229, 161, 260, 288
-0.979782, 157, 169, 188, 232
-0.979796, 265, 9, 328, 72
-0.979809, 257, 1, 320, 375
-0.979826, 157, 225, 188, 288
-0.979843, 209, 169, 336, 232
-0.979863, 281, 201, 312, 264
-0.979867, 81, 89, 208, 152
-0.979875, 161, 73, 192, 136
-0.979939, 385, 233, 448, 296
-0.979954, 105, 1, 136, 64
-0.97998, 241, 137, 272, 200
-0.979988, 417, 25, 480, 88
-0.979997, 309, 161, 340, 224
-0.980037, 73, 129, 136, 375
-0.980043, 233, 1, 296, 375
-0.98007, 73, 249, 136, 312
-0.980078, 25, 137, 88, 200
-0.980148, 365, 41, 396, 104
-0.980148, 393, 201, 424, 264
-0.980196, 241, 225, 368, 288
-0.980273, 249, 249, 312, 312
-0.980289, 173, 41, 204, 104
-0.980291, 261, 49, 292, 176
-0.980294, 133, 57, 164, 120
-0.980295, 325, 81, 356, 208
-0.980301, 113, 209, 144, 272
-0.980344, 157, 201, 188, 264
-0.980364, 389, 17, 420, 144
-0.980471, 377, 73, 408, 136
-0.980511, 113, 1, 144, 128
-0.980523, 313, 73, 344, 136
-0.980541, 349, 145, 380, 272
-0.980569, 65, 41, 192, 104
-0.980576, 153, 161, 184, 288
-0.980581, 349, 17, 380, 144
-0.980601, 25, 193, 56, 256
-0.980655, 369, 177, 496, 240
-0.980662, 137, 209, 168, 272
-0.980669, 101, 129, 132, 192
-0.98071, 57, 1, 120, 256
-0.980717, 157, 209, 188, 336
-0.980741, 241, 161, 272, 224
-0.980774, 193, 49, 224, 112
-0.980776, 397, 17, 428, 80
-0.980825, 193, 33, 224, 160
-0.980837, 221, 113, 252, 176
-0.980845, 9, 193, 72, 256
-0.980902, 33, 97, 96, 352
-0.980924, 225, 1, 256, 128
-0.980932, 321, 233, 448, 296
-0.980959, 337, 57, 464, 120
-0.981024, 433, 1, 496, 64
-0.981046, 425, 145, 488, 272
-0.981066, 369, 153, 496, 216
-0.98109, 469, 209, 500, 272
-0.981174, 309, 201, 340, 264
-0.98118, 17, 233, 144, 296
-0.981214, 305, 129, 368, 375
-0.981216, 301, 225, 332, 288
-0.981218, 105, 185, 168, 248
-0.981224, 321, 225, 352, 288
-0.981241, 153, 137, 184, 200
-0.981307, 353, 1, 416, 375
-0.981327, 253, 137, 284, 200
-0.981406, 137, 145, 168, 208
-0.981414, 149, 25, 180, 88
-0.981503, 57, 41, 120, 104
-0.981536, 89, 161, 120, 224
-0.981543, 1, 185, 128, 248
-0.981547, 225, 177, 256, 240
-0.981551, 241, 81, 272, 208
-0.981553, 25, 113, 88, 176
-0.981553, 281, 1, 344, 375
-0.981567, 277, 9, 308, 72
-0.981592, 221, 113, 252, 240
-0.981607, 49, 1, 80, 64
-0.981638, 369, 217, 400, 280
-0.981665, 373, 1, 404, 128
-0.981731, 41, 241, 104, 368
-0.981756, 85, 209, 116, 272
-0.981826, 161, 129, 224, 375
-0.981844, 245, 1, 276, 128
-0.981896, 129, 233, 256, 296
-0.981912, 357, 1, 388, 64
-0.981922, 101, 185, 132, 248
-0.98193, 321, 193, 352, 320
-0.982016, 393, 257, 456, 320
-0.982049, 389, 65, 420, 192
-0.982055, 269, 65, 300, 128
-0.9821, 129, 1, 192, 375
-0.982103, 209, 49, 240, 112
-0.98211, 317, 105, 348, 168
-0.982122, 1, 1, 64, 375
-0.982143, 25, 169, 56, 232
-0.982163, 401, 49, 432, 176
-0.982215, 389, 65, 420, 128
-0.982219, 129, 65, 160, 192
-0.982254, 225, 17, 256, 80
-0.982258, 193, 81, 224, 144
-0.982278, 129, 161, 160, 288
-0.982281, 209, 177, 240, 304
-0.982296, 21, 145, 52, 272
-0.982308, 193, 201, 320, 264
-0.982378, 253, 113, 284, 240
-0.982405, 25, 193, 56, 320
-0.982413, 281, 73, 312, 136
-0.982481, 149, 33, 180, 160
-0.982509, 201, 1, 264, 375
-0.982531, 121, 49, 152, 112
-0.982749, 137, 33, 168, 96
-0.982823, 329, 1, 392, 375
-0.982873, 293, 97, 324, 160
-0.982901, 97, 233, 128, 296
-0.982907, 333, 105, 364, 168
-0.982949, 161, 49, 192, 176
-0.982993, 261, 209, 292, 336
-0.983023, 89, 193, 120, 320
-0.983105, 161, 161, 288, 224
-0.983139, 125, 25, 156, 88
-0.983175, 305, 49, 336, 112
-0.983254, 33, 9, 64, 72
-0.983256, 285, 129, 316, 192
-0.98327, 277, 225, 308, 288
-0.983299, 377, 241, 408, 304
-0.983312, 369, 129, 496, 192
-0.983316, 145, 57, 176, 120
-0.983327, 381, 97, 412, 160
-0.983409, 193, 81, 224, 208
-0.983435, 401, 41, 432, 104
-0.983443, 349, 97, 380, 224
-0.983497, 409, 225, 472, 352
-0.983504, 29, 113, 60, 176
-0.983543, 245, 185, 276, 248
-0.983574, 421, 1, 452, 64
-0.983941, 357, 193, 388, 320
-0.983964, 137, 1, 168, 128
-0.983979, 385, 1, 448, 375
-0.983997, 1, 97, 128, 160
-0.984033, 413, 177, 444, 304
-0.984166, 369, 265, 496, 328
-0.984181, 101, 193, 132, 320
-0.984189, 369, 225, 496, 288
-0.984232, 433, 241, 496, 368
-0.984247, 189, 161, 220, 288
-0.984412, 369, 225, 400, 352
-0.984423, 1, 257, 128, 320
-0.984473, 181, 81, 212, 208
-0.98448, 241, 177, 272, 304
-0.984492, 305, 1, 336, 128
-0.9845, 89, 97, 120, 224
-0.984559, 101, 81, 132, 208
-0.984608, 213, 65, 244, 192
-0.98465, 337, 97, 368, 224
-0.984663, 105, 1, 168, 375
-0.984694, 141, 193, 172, 320
-0.984695, 369, 33, 496, 96
-0.984769, 161, 1, 224, 375
-0.985074, 53, 1, 84, 128
-0.985142, 353, 89, 480, 152
-0.985303, 169, 209, 200, 336
-0.985326, 81, 1, 144, 375
-0.985637, 177, 161, 208, 288
-0.985663, 41, 1, 104, 375
-0.98573, 77, 177, 108, 304
-0.985796, 65, 65, 192, 128
-0.986065, 101, 1, 132, 128
-0.9863, 73, 1, 104, 128
-0.98638, 81, 249, 208, 312
-0.986397, 85, 1, 116, 128
-0.986496, 17, 209, 144, 272
-0.987205, 161, 1, 192, 128
-0.987531, 345, 209, 376, 336
-0.987551, 113, 209, 144, 336
-0.987731, 381, 241, 412, 368
-0.987783, 45, 113, 76, 240
-0.98791, 305, 1, 368, 375
-0.98803, 193, 209, 224, 336
-0.988125, 209, 249, 336, 312
-0.98823, 313, 173, 376, 204
-0.988235, 9, 209, 40, 336
-0.988297, 369, 169, 432, 200
-0.988302, 333, 17, 364, 144
-0.988344, 305, 257, 432, 320
-0.988396, 205, 113, 236, 240
-0.988433, 129, 125, 192, 156
-0.98848, 1, 73, 64, 104
-0.988549, 369, 37, 432, 68
-0.988574, 457, 145, 488, 272
-0.988584, 433, 129, 496, 375
-0.98866, 129, 149, 192, 180
-0.988781, 33, 81, 64, 208
-0.988848, 289, 153, 352, 184
-0.988868, 369, 205, 432, 236
-0.988896, 121, 5, 184, 36
-0.988918, 313, 193, 376, 224
-0.988949, 353, 225, 416, 256
-0.988966, 97, 65, 352, 128
-0.989011, 289, 165, 352, 196
-0.989056, 193, 105, 448, 168
-0.989098, 289, 177, 352, 208
-0.989106, 89, 85, 152, 116
-0.989107, 385, 49, 448, 80
-0.98912, 281, 133, 344, 164
-0.98914, 97, 169, 160, 200
-0.989146, 305, 217, 368, 248
-0.989149, 337, 181, 400, 212
-0.98921, 265, 149, 328, 180
-0.989238, 77, 129, 108, 256
-0.98929, 9, 93, 72, 124
-0.98936, 385, 21, 448, 52
-0.989362, 401, 97, 432, 224
-0.989373, 1, 9, 500, 72
-0.989375, 145, 49, 208, 80
-0.989381, 345, 209, 408, 240
-0.989383, 337, 193, 400, 224
-0.98939, 361, 25, 424, 56
-0.989452, 289, 73, 352, 104
-0.989452, 105, 17, 168, 48
-0.989455, 385, 217, 448, 248
-0.989508, 329, 161, 392, 192
-0.989511, 193, 65, 448, 128
-0.989529, 377, 181, 440, 212
-0.989536, 45, 177, 76, 304
-0.989542, 273, 57, 336, 88
-0.989575, 409, 1, 472, 32
-0.989639, 77, 225, 108, 352
-0.989653, 97, 137, 160, 168
-0.989663, 337, 17, 400, 48
-0.989677, 353, 157, 416, 188
-0.989704, 233, 129, 296, 160
-0.989709, 145, 21, 208, 52
-0.98971, 113, 97, 176, 128
-0.989732, 257, 249, 384, 312
-0.989747, 393, 193, 456, 224
-0.989758, 361, 121, 424, 152
-0.989765, 249, 81, 312, 112
-0.989772, 317, 33, 348, 160
-0.989772, 1, 29, 64, 60
-0.989772, 177, 37, 240, 68
-0.989777, 161, 137, 224, 168
-0.989783, 81, 1, 144, 32
-0.98979, 321, 109, 384, 140
-0.9898, 425, 49, 488, 176
-0.989812, 281, 253, 344, 284
-0.989823, 137, 101, 200, 132
-0.989824, 193, 25, 448, 88
-0.989861, 401, 37, 464, 68
-0.989868, 169, 57, 232, 88
-0.989886, 217, 25, 280, 56
-0.989899, 153, 1, 216, 32
-0.989901, 1, 57, 64, 88
-0.989902, 241, 21, 304, 52
-0.989908, 249, 1, 312, 32
-0.989909, 1, 1, 64, 32
-0.989912, 105, 69, 168, 100
-0.989914, 281, 189, 344, 220
-0.989919, 361, 145, 424, 176
-0.989934, 229, 65, 260, 192
-0.989943, 193, 109, 256, 140
-0.989972, 137, 37, 200, 68
-0.989982, 265, 33, 328, 64
-0.989984, 257, 1, 500, 64
-0.989985, 1, 33, 500, 96
-0.990013, 1, 41, 64, 72
-0.990016, 385, 5, 448, 36
-0.99003, 337, 241, 400, 272
-0.990033, 201, 77, 264, 108
-0.990036, 129, 237, 192, 268
-0.990051, 353, 101, 416, 132
-0.990053, 409, 25, 472, 56
-0.990059, 161, 233, 224, 264
-0.990077, 97, 1, 352, 64
-0.990097, 249, 69, 312, 100
-0.990105, 121, 137, 184, 168
-0.990142, 321, 205, 384, 236
-0.990158, 161, 113, 224, 144
-0.990175, 121, 173, 184, 204
-0.990192, 233, 177, 296, 208
-0.9902, 161, 161, 224, 192
-0.99021, 321, 121, 384, 152
-0.990212, 169, 21, 232, 52
-0.990223, 217, 165, 280, 196
-0.990233, 185, 125, 248, 156
-0.990262, 297, 205, 360, 236
-0.990264, 105, 113, 168, 144
-0.990268, 161, 221, 224, 252
-0.990279, 233, 141, 296, 172
-0.990299, 433, 225, 496, 256
-0.990308, 201, 213, 264, 244
-0.990311, 97, 157, 160, 188
-0.990314, 193, 57, 256, 88
-0.990336, 361, 193, 424, 224
-0.990355, 313, 241, 376, 272
-0.990373, 1, 133, 64, 164
-0.990388, 169, 69, 232, 100
-0.990388, 361, 1, 424, 32
-0.990397, 329, 221, 392, 252
-0.990406, 41, 29, 104, 60
-0.990408, 201, 45, 264, 76
-0.990427, 297, 117, 360, 148
-0.990432, 409, 1, 472, 375
-0.990439, 361, 57, 424, 88
-0.990446, 17, 13, 80, 44
-0.990454, 385, 125, 448, 156
-0.99049, 297, 85, 360, 116
-0.990538, 97, 213, 160, 244
-0.990562, 257, 173, 320, 204
-0.990566, 225, 129, 480, 192
-0.990578, 361, 133, 424, 164
-0.990582, 257, 129, 320, 160
-0.990582, 1, 153, 64, 184
-0.990595, 337, 33, 400, 64
-0.990601, 161, 249, 224, 280
-0.990606, 329, 149, 392, 180
-0.990609, 97, 125, 160, 156
-0.990611, 257, 257, 320, 288
-0.990617, 41, 13, 104, 44
-0.990624, 113, 29, 176, 60
-0.990625, 289, 241, 352, 272
-0.990637, 217, 117, 280, 148
-0.990653, 337, 45, 400, 76
-0.990697, 241, 233, 304, 264
-0.990702, 185, 153, 248, 184
-0.990702, 73, 205, 136, 236
-0.990707, 265, 225, 328, 256
-0.990713, 233, 205, 296, 236
-0.990713, 33, 25, 288, 88
-0.99072, 361, 237, 424, 268
-0.990749, 161, 89, 224, 120
-0.990762, 97, 201, 160, 232
-0.990772, 329, 77, 392, 108
-0.990773, 201, 225, 264, 256
-0.990776, 17, 105, 80, 136
-0.990797, 201, 97, 264, 128
-0.990835, 49, 241, 80, 368
-0.99091, 437, 225, 468, 352
-0.99105, 1, 201, 500, 264
-0.991079, 97, 137, 352, 200
-0.991121, 193, 161, 448, 224
-0.99114, 1, 89, 256, 152
-0.991169, 221, 209, 252, 336
-0.99122, 129, 217, 384, 280
-0.991338, 73, 241, 136, 368
-0.991498, 97, 89, 352, 152
-0.991544, 181, 209, 212, 336
-0.991572, 45, 65, 76, 192
-0.991582, 225, 185, 480, 248
-0.991589, 453, 209, 484, 336
-0.991677, 417, 225, 448, 352
-0.991776, 1, 57, 500, 120
-0.99182, 145, 257, 272, 320
-0.99193, 141, 125, 172, 156
-0.991938, 65, 161, 320, 224
-0.991972, 225, 209, 480, 272
-0.991998, 205, 225, 236, 352
-0.992008, 1, 169, 500, 232
-0.992011, 13, 93, 44, 124
-0.99204, 465, 241, 496, 368
-0.992109, 381, 205, 412, 236
-0.992116, 1, 89, 32, 120
-0.992116, 317, 153, 348, 184
-0.992156, 293, 225, 324, 352
-0.992173, 369, 193, 400, 224
-0.992192, 5, 73, 36, 104
-0.992204, 129, 137, 160, 168
-0.992205, 1, 113, 500, 176
-0.992217, 333, 217, 364, 248
-0.992218, 249, 225, 280, 352
-0.992222, 141, 141, 172, 172
-0.992245, 425, 5, 456, 36
-0.992253, 161, 133, 192, 164
-0.992258, 337, 181, 368, 212
-0.992308, 365, 173, 396, 204
-0.99233, 153, 1, 184, 32
-0.992352, 321, 169, 352, 200
-0.992365, 385, 157, 416, 188
-0.992374, 1, 61, 32, 92
-0.992383, 397, 193, 428, 224
-0.99239, 193, 37, 224, 68
-0.992395, 101, 161, 132, 192
-0.9924, 321, 197, 352, 228
-0.992401, 157, 233, 188, 264
-0.992403, 13, 53, 44, 84
-0.992406, 1, 137, 500, 200
-0.992413, 1, 217, 256, 280
-0.992422, 365, 57, 396, 88
-0.992426, 397, 213, 428, 244
-0.992435, 309, 185, 340, 216
-0.992437, 89, 209, 120, 240
-0.992438, 197, 57, 228, 88
-0.99244, 297, 149, 328, 180
-0.99245, 357, 213, 388, 244
-0.992451, 153, 17, 184, 48
-0.992455, 297, 181, 328, 212
-0.992456, 349, 185, 380, 216
-0.99246, 269, 221, 300, 252
-0.992464, 385, 217, 416, 248
-0.992465, 417, 21, 448, 52
-0.992477, 257, 13, 288, 44
-0.992481, 169, 157, 200, 188
-0.992484, 393, 53, 424, 84
-0.992492, 25, 181, 56, 212
-0.992493, 129, 169, 160, 200
-0.992495, 321, 181, 352, 212
-0.992496, 333, 165, 364, 196
-0.992498, 409, 33, 440, 64
-0.992501, 25, 37, 56, 68
-0.992504, 141, 9, 172, 40
-0.992511, 169, 145, 200, 176
-0.992532, 17, 133, 48, 164
-0.992532, 337, 193, 368, 224
-0.992541, 21, 113, 52, 144
-0.992546, 353, 101, 384, 132
-0.992547, 381, 73, 412, 104
-0.99255, 121, 1, 152, 32
-0.992551, 157, 217, 188, 248
-0.992551, 433, 1, 464, 128
-0.992552, 217, 29, 248, 60
-0.992556, 373, 125, 404, 156
-0.992562, 113, 157, 144, 188
-0.992563, 361, 225, 392, 256
-0.992566, 157, 173, 188, 204
-0.992569, 277, 29, 308, 60
-0.992571, 161, 105, 192, 136
-0.992573, 381, 181, 412, 212
-0.992585, 381, 45, 412, 76
-0.992598, 309, 117, 340, 148
-0.992598, 181, 37, 212, 68
-0.992599, 321, 217, 352, 248
-0.9926, 5, 177, 36, 208
-0.992605, 209, 65, 240, 96
-0.992605, 345, 161, 376, 192
-0.992608, 385, 125, 416, 156
-0.992609, 277, 209, 308, 240
-0.99261, 113, 77, 144, 108
-0.992613, 109, 193, 140, 224
-0.992616, 297, 193, 328, 224
-0.992616, 297, 165, 328, 196
-0.992616, 265, 33, 296, 64
-0.992617, 353, 173, 384, 204
-0.992621, 365, 161, 396, 192
-0.992622, 141, 93, 172, 124
-0.992622, 21, 145, 52, 176
-0.992627, 1, 25, 32, 56
-0.992628, 277, 145, 308, 176
-0.992628, 289, 37, 320, 68
-0.992631, 161, 121, 192, 152
-0.992631, 89, 193, 120, 224
-0.992633, 309, 137, 340, 168
-0.992634, 145, 217, 176, 248
-0.992636, 5, 133, 36, 164
-0.992637, 245, 29, 276, 60
-0.992642, 297, 25, 328, 56
-0.992645, 97, 225, 128, 256
-0.992646, 1, 41, 32, 72
-0.992647, 117, 133, 148, 164
-0.992648, 265, 1, 296, 32
-0.992648, 13, 21, 44, 52
-0.99265, 353, 197, 384, 228
-0.992653, 365, 101, 396, 132
-0.992655, 173, 13, 204, 44
-0.992655, 1, 101, 32, 132
-0.992657, 161, 29, 192, 60
-0.992663, 405, 9, 436, 40
-0.992667, 89, 165, 120, 196
-0.992669, 153, 145, 184, 176
-0.992669, 129, 149, 160, 180
-0.99267, 373, 217, 404, 248
-0.992671, 21, 77, 52, 108
-0.992671, 5, 149, 36, 180
-0.992672, 413, 49, 444, 176
-0.992675, 149, 109, 180, 140
-0.992676, 377, 61, 408, 92
-0.992678, 277, 197, 308, 228
-0.992681, 125, 85, 156, 116
-0.992683, 5, 165, 36, 196
-0.992684, 361, 73, 392, 104
-0.992684, 261, 185, 292, 216
-0.992684, 241, 169, 272, 200
-0.992685, 297, 209, 328, 240
-0.992688, 257, 217, 288, 248
-0.992691, 341, 229, 372, 260
-0.992692, 41, 1, 72, 32
-0.992693, 309, 201, 340, 232
-0.992698, 401, 165, 432, 196
-0.992698, 365, 113, 396, 144
-0.992703, 101, 77, 132, 108
-0.992704, 465, 217, 496, 248
-0.992704, 137, 229, 168, 260
-0.992704, 65, 177, 96, 304
-0.992705, 221, 113, 252, 144
-0.99271, 405, 181, 436, 212
-0.992714, 217, 1, 248, 32
-0.992715, 205, 45, 236, 76
-0.992727, 15, 89, 30, 152
-0.992735, 1, 57, 256, 120
-0.992741, 97, 113, 352, 176
-0.992809, 305, 201, 432, 232
-0.992839, 1, 1, 256, 64
-0.992863, 65, 241, 320, 304
-0.992886, 65, 193, 320, 256
-0.993113, 1, 81, 500, 144
-0.99316, 305, 117, 432, 148
-0.993214, 193, 241, 448, 304
-0.993376, 9, 105, 24, 168
-0.993416, 1, 129, 256, 192
-0.993438, 289, 189, 416, 220
-0.993453, 25, 89, 40, 152
-0.993456, 193, 61, 320, 92
-0.993471, 273, 73, 400, 104
-0.993549, 273, 25, 400, 56
-0.993557, 257, 217, 384, 248
-0.993578, 321, 153, 448, 184
-0.993582, 165, 137, 180, 200
-0.993589, 91, 201, 106, 264
-0.993619, 165, 161, 180, 224
-0.993682, 405, 185, 420, 248
-0.993693, 257, 41, 384, 72
-0.993694, 209, 97, 336, 128
-0.993767, 397, 129, 412, 192
-0.993775, 7, 65, 22, 128
-0.993809, 321, 173, 448, 204
-0.993813, 305, 225, 432, 256
-0.993815, 257, 53, 384, 84
-0.993826, 19, 49, 34, 112
-0.99383, 315, 105, 330, 168
-0.993841, 143, 113, 158, 176
-0.993843, 337, 25, 464, 56
-0.99385, 97, 29, 224, 60
-0.99386, 177, 45, 304, 76
-0.993894, 129, 125, 256, 156
-0.993909, 403, 153, 418, 216
-0.993916, 19, 153, 34, 216
-0.993937, 21, 113, 36, 176
-0.993964, 171, 97, 186, 160
-0.993987, 423, 1, 438, 64
-0.993998, 9, 129, 24, 192
-0.994029, 241, 161, 368, 192
-0.994066, 289, 105, 416, 136
-0.994091, 129, 9, 256, 40
-0.994096, 209, 145, 336, 176
-0.99411, 401, 33, 416, 96
-0.994119, 305, 65, 320, 128
-0.994155, 395, 33, 410, 96
-0.994186, 351, 169, 366, 232
-0.994199, 161, 141, 288, 172
-0.994203, 117, 193, 132, 256
-0.994219, 267, 1, 282, 64
-0.99423, 177, 221, 304, 252
-0.994237, 241, 229, 368, 260
-0.994243, 113, 69, 240, 100
-0.994251, 337, 185, 464, 216
-0.99427, 321, 9, 448, 40
-0.99427, 91, 169, 106, 232
-0.994271, 193, 33, 320, 64
-0.994298, 305, 57, 432, 88
-0.994321, 353, 217, 480, 248
-0.994323, 193, 9, 320, 40
-0.994325, 413, 169, 428, 232
-0.994355, 125, 153, 140, 216
-0.994364, 345, 169, 360, 232
-0.994367, 155, 89, 170, 152
-0.994369, 1, 225, 500, 288
-0.994385, 31, 113, 46, 176
-0.994399, 177, 233, 304, 264
-0.994405, 209, 121, 336, 152
-0.994408, 161, 113, 176, 176
-0.994416, 113, 41, 240, 72
-0.994417, 289, 85, 416, 116
-0.994426, 383, 177, 398, 240
-0.994435, 81, 1, 208, 32
-0.994453, 305, 213, 432, 244
-0.994459, 399, 201, 414, 264
-0.994469, 97, 153, 224, 184
-0.994483, 171, 121, 186, 184
-0.994491, 129, 101, 256, 132
-0.994494, 305, 37, 432, 68
-0.994494, 19, 25, 34, 88
-0.994517, 325, 121, 340, 184
-0.994518, 305, 129, 432, 160
-0.994526, 131, 1, 146, 64
-0.994543, 369, 161, 496, 192
-0.994545, 137, 129, 152, 192
-0.994562, 367, 81, 382, 144
-0.994569, 391, 201, 406, 264
-0.99457, 111, 193, 126, 256
-0.994591, 281, 41, 296, 104
-0.994594, 177, 137, 192, 200
-0.994604, 383, 121, 398, 184
-0.994606, 167, 1, 182, 64
-0.994643, 65, 213, 192, 244
-0.994663, 433, 1, 448, 64
-0.994672, 33, 29, 160, 60
-0.994679, 241, 205, 368, 236
-0.994691, 337, 169, 352, 232
-0.994691, 65, 169, 192, 200
-0.994692, 31, 65, 46, 128
-0.994696, 9, 17, 24, 80
-0.994704, 389, 113, 404, 176
-0.994706, 145, 21, 272, 52
-0.994716, 193, 73, 320, 104
-0.994721, 1, 65, 16, 128
-0.994724, 289, 141, 416, 172
-0.99473, 369, 185, 384, 248
-0.994748, 81, 233, 208, 264
-0.994759, 241, 189, 368, 220
-0.994763, 315, 129, 330, 192
-0.994782, 209, 85, 336, 116
-0.99479, 273, 173, 400, 204
-0.994798, 145, 89, 160, 152
-0.994799, 119, 153, 134, 216
-0.994809, 93, 137, 108, 200
-0.994834, 3, 105, 18, 168
-0.994834, 323, 193, 338, 256
-0.994861, 315, 81, 330, 144
-0.99487, 31, 89, 46, 152
-0.994874, 275, 145, 290, 208
-0.994874, 109, 1, 124, 64
-0.994876, 131, 145, 146, 208
-0.99488, 129, 113, 256, 144
-0.994896, 157, 193, 172, 256
-0.994914, 209, 109, 336, 140
-0.994919, 275, 33, 290, 96
-0.994922, 1, 189, 128, 220
-0.994942, 221, 1, 252, 256
-0.994943, 393, 153, 408, 216
-0.994946, 13, 57, 28, 120
-0.994958, 129, 233, 256, 264
-0.994966, 65, 245, 192, 276
-0.994986, 17, 165, 144, 196
-0.994995, 17, 77, 144, 108
-0.994996, 125, 177, 140, 240
-0.995002, 327, 145, 342, 208
-0.995015, 173, 161, 188, 224
-0.995017, 383, 73, 398, 136
-0.995027, 381, 49, 396, 112
-0.995028, 257, 1, 272, 64
-0.995032, 305, 237, 432, 268
-0.995035, 331, 169, 346, 232
-0.995042, 281, 217, 296, 280
-0.995049, 273, 185, 288, 248
-0.995061, 371, 17, 386, 80
-0.995061, 25, 33, 40, 96
-0.995061, 187, 105, 202, 168
-0.995062, 293, 1, 308, 64
-0.995063, 125, 121, 140, 184
-0.995066, 89, 225, 104, 288
-0.995072, 117, 217, 132, 280
-0.995081, 65, 201, 192, 232
-0.995082, 417, 17, 432, 80
-0.995084, 213, 33, 228, 96
-0.995093, 15, 129, 30, 192
-0.995101, 163, 201, 178, 264
-0.995109, 411, 1, 426, 64
-0.995111, 267, 113, 282, 176
-0.995118, 101, 201, 116, 264
-0.995126, 145, 81, 272, 112
-0.995129, 239, 25, 254, 88
-0.995133, 359, 177, 374, 240
-0.995149, 233, 1, 248, 64
-0.995151, 375, 177, 390, 240
-0.995167, 409, 129, 472, 375
-0.995174, 315, 217, 330, 280
-0.995184, 375, 89, 390, 152
-0.995185, 101, 161, 116, 224
-0.995199, 359, 153, 374, 216
-0.995204, 1, 17, 128, 48
-0.995207, 275, 225, 290, 288
-0.99521, 149, 113, 164, 176
-0.995219, 49, 17, 176, 48
-0.995224, 273, 9, 400, 40
-0.995234, 39, 33, 54, 96
-0.995245, 181, 1, 196, 64
-0.995257, 81, 89, 208, 120
-0.995258, 193, 21, 320, 52
-0.995274, 187, 9, 202, 72
-0.995274, 201, 25, 216, 88
-0.99528, 207, 33, 222, 96
-0.995281, 349, 217, 364, 280
-0.995283, 113, 53, 240, 84
-0.995291, 207, 1, 222, 64
-0.995298, 215, 1, 230, 64
-0.995303, 179, 105, 194, 168
-0.995304, 393, 57, 408, 120
-0.995307, 225, 133, 352, 164
-0.995326, 395, 105, 410, 168
-0.995345, 355, 1, 370, 64
-0.995346, 183, 137, 198, 200
-0.995355, 285, 9, 300, 72
-0.995358, 343, 193, 358, 256
-0.995364, 17, 65, 144, 96
-0.995366, 1, 153, 128, 184
-0.99538, 25, 169, 40, 232
-0.995393, 111, 217, 126, 280
-0.995397, 95, 225, 110, 288
-0.995399, 97, 241, 160, 368
-0.995404, 215, 65, 230, 128
-0.995405, 291, 217, 306, 280
-0.995417, 303, 97, 318, 160
-0.995426, 245, 185, 260, 248
-0.995429, 27, 1, 42, 64
-0.995435, 31, 33, 46, 96
-0.995444, 403, 225, 418, 288
-0.995445, 267, 33, 282, 96
-0.995455, 257, 241, 384, 272
-0.995459, 173, 9, 188, 72
-0.995463, 33, 1, 160, 32
-0.99547, 145, 209, 272, 240
-0.995474, 375, 65, 390, 128
-0.995478, 81, 137, 208, 168
-0.99548, 375, 209, 390, 272
-0.9955, 349, 145, 364, 208
-0.995518, 373, 33, 404, 288
-0.995566, 269, 33, 300, 288
-0.995644, 353, 205, 480, 236
-0.995644, 161, 169, 288, 200
-0.995659, 113, 249, 240, 280
-0.995665, 257, 117, 384, 148
-0.995687, 353, 49, 480, 80
-0.995697, 369, 149, 496, 180
-0.995702, 241, 1, 272, 256
-0.995703, 389, 33, 420, 288
-0.995722, 161, 157, 288, 188
-0.995738, 353, 233, 480, 264
-0.995802, 145, 65, 176, 320
-0.995837, 353, 37, 480, 68
-0.995857, 177, 245, 304, 276
-0.9959, 17, 93, 144, 124
-0.995906, 1, 129, 128, 160
-0.995911, 33, 41, 160, 72
-0.995919, 305, 281, 432, 344
-0.995923, 125, 1, 156, 256
-0.99594, 305, 253, 432, 284
-0.996005, 161, 1, 192, 256
-0.996015, 13, 33, 44, 288
-0.99604, 81, 109, 208, 140
-0.996041, 17, 249, 144, 280
-0.996082, 25, 1, 56, 256
-0.996121, 65, 181, 192, 212
-0.996136, 33, 233, 160, 264
-0.996142, 353, 289, 480, 352
-0.996165, 209, 173, 336, 204
-0.996192, 101, 33, 132, 288
-0.996216, 145, 197, 272, 228
-0.996226, 81, 125, 208, 156
-0.996293, 361, 1, 392, 256
-0.996335, 17, 201, 144, 232
-0.99634, 17, 177, 144, 208
-0.996369, 293, 65, 324, 320
-0.996388, 321, 65, 352, 320
-0.996432, 1, 281, 128, 344
-0.996455, 369, 245, 496, 276
-0.99646, 113, 33, 144, 288
-0.996473, 33, 53, 160, 84
-0.996483, 361, 97, 392, 352
-0.996485, 221, 97, 252, 352
-0.996561, 1, 217, 128, 248
-0.996581, 113, 221, 240, 252
-0.996587, 17, 117, 144, 148
-0.996595, 401, 1, 432, 256
-0.996598, 65, 77, 192, 108
-0.996607, 193, 265, 448, 328
-0.996644, 369, 173, 496, 204
-0.996675, 193, 1, 224, 256
-0.996739, 1, 261, 128, 292
-0.996744, 281, 33, 312, 288
-0.996749, 17, 141, 144, 172
-0.996752, 257, 1, 288, 256
-0.996764, 23, 133, 38, 164
-0.996781, 321, 73, 448, 104
-0.996823, 377, 129, 408, 375
-0.996832, 17, 105, 144, 136
-0.996841, 341, 65, 372, 320
-0.996848, 369, 13, 496, 44
-0.996905, 161, 97, 192, 352
-0.996905, 143, 137, 158, 168
-0.996906, 25, 97, 40, 128
-0.996913, 15, 89, 30, 120
-0.996936, 89, 33, 120, 288
-0.996949, 369, 65, 496, 96
-0.996956, 141, 125, 156, 156
-0.996961, 89, 229, 104, 260
-0.996962, 193, 209, 320, 240
-0.996967, 101, 129, 132, 375
-0.99697, 159, 133, 174, 164
-0.996974, 405, 157, 420, 188
-0.996994, 169, 149, 184, 180
-0.996997, 369, 137, 496, 168
-0.997004, 1, 93, 16, 124
-0.997005, 1, 33, 32, 288
-0.997039, 407, 213, 422, 244
-0.997051, 91, 197, 106, 228
-0.997061, 15, 109, 30, 140
-0.997064, 113, 177, 240, 208
-0.997069, 111, 205, 126, 236
-0.997075, 133, 97, 164, 352
-0.997082, 177, 1, 208, 256
-0.997104, 5, 129, 36, 375
-0.997105, 391, 205, 406, 236
-0.997117, 397, 209, 412, 240
-0.997137, 181, 97, 212, 352
-0.99714, 105, 205, 120, 236
-0.997144, 353, 97, 480, 128
-0.997164, 419, 29, 434, 60
-0.997165, 331, 185, 346, 216
-0.997166, 355, 185, 370, 216
-0.997172, 209, 1, 240, 256
-0.997173, 433, 1, 496, 375
-0.997175, 165, 137, 180, 168
-0.997199, 309, 65, 340, 320
-0.997206, 343, 189, 358, 220
-0.997228, 207, 37, 222, 68
-0.997237, 137, 137, 152, 168
-0.997247, 23, 85, 38, 116
-0.997251, 9, 97, 24, 128
-0.997259, 369, 121, 496, 152
-0.997265, 13, 57, 28, 88
-0.997265, 349, 217, 364, 248
-0.997266, 151, 141, 166, 172
-0.997272, 309, 149, 324, 180
-0.997273, 249, 97, 280, 352
-0.997274, 23, 169, 38, 200
-0.997276, 169, 125, 184, 156
-0.997289, 399, 221, 414, 252
-0.997292, 429, 1, 444, 32
-0.997293, 3, 57, 18, 88
-0.997294, 397, 145, 412, 176
-0.997297, 397, 129, 428, 375
-0.997298, 269, 129, 300, 375
-0.9973, 151, 121, 166, 152
-0.99731, 147, 105, 162, 136
-0.997312, 425, 97, 488, 224
-0.997322, 233, 97, 264, 352
-0.997323, 355, 173, 370, 204
-0.997325, 241, 257, 368, 288
-0.997329, 369, 273, 496, 304
-0.997331, 193, 197, 320, 228
-0.997337, 121, 161, 136, 192
-0.997338, 159, 109, 174, 140
-0.997345, 323, 201, 338, 232
-0.997347, 419, 9, 434, 40
-0.997357, 91, 165, 106, 196
-0.997367, 365, 181, 380, 212
-0.997371, 97, 205, 112, 236
-0.997371, 27, 189, 42, 220
-0.997374, 329, 153, 344, 184
-0.997384, 17, 149, 32, 180
-0.997385, 159, 169, 174, 200
-0.997387, 119, 193, 134, 224
-0.99739, 317, 145, 332, 176
-0.997393, 29, 113, 44, 144
-0.997395, 389, 153, 404, 184
-0.997397, 313, 105, 328, 136
-0.997421, 209, 49, 224, 80
-0.997422, 9, 137, 24, 168
-0.997429, 413, 37, 428, 68
-0.997434, 345, 177, 360, 208
-0.997434, 19, 121, 34, 152
-0.997435, 99, 217, 114, 248
-0.997438, 257, 273, 384, 336
-0.99744, 65, 65, 192, 96
-0.997445, 369, 1, 496, 32
-0.997451, 405, 241, 420, 272
-0.997451, 165, 113, 180, 144
-0.997461, 429, 41, 444, 72
-0.997462, 281, 25, 296, 56
-0.997463, 151, 93, 166, 124
-0.997464, 215, 65, 230, 96
-0.997465, 401, 197, 416, 228
-0.997466, 217, 33, 232, 64
-0.997467, 381, 29, 396, 60
-0.997467, 323, 121, 338, 152
-0.997474, 263, 181, 278, 212
-0.997475, 413, 13, 428, 44
-0.997475, 37, 65, 52, 96
-0.997478, 65, 257, 192, 288
-0.997487, 321, 265, 448, 296
-0.997488, 269, 1, 284, 32
-0.997492, 315, 185, 330, 216
-0.997493, 177, 1, 192, 32
-0.997496, 349, 189, 364, 220
-0.997497, 193, 185, 320, 216
-0.997497, 339, 169, 354, 200
-0.997501, 291, 233, 306, 264
-0.997504, 311, 209, 326, 240
-0.997504, 419, 41, 434, 72
-0.997504, 17, 77, 32, 108
-0.997511, 183, 129, 198, 160
-0.997518, 381, 201, 396, 232
-0.997521, 429, 1, 460, 256
-0.997522, 275, 41, 290, 72
-0.997525, 353, 85, 480, 116
-0.997525, 383, 49, 398, 80
-0.997527, 395, 65, 410, 96
-0.99753, 129, 165, 144, 196
-0.99753, 85, 129, 116, 375
-0.997532, 91, 217, 106, 248
-0.997533, 127, 233, 142, 264
-0.997535, 355, 229, 370, 260
-0.997541, 289, 81, 304, 112
-0.997544, 49, 273, 176, 336
-0.997547, 173, 137, 188, 168
-0.997547, 167, 1, 182, 32
-0.997549, 405, 45, 420, 76
-0.997554, 323, 133, 338, 164
-0.997554, 259, 17, 274, 48
-0.997556, 263, 1, 278, 32
-0.997558, 267, 33, 282, 64
-0.997559, 89, 241, 104, 272
-0.997562, 375, 189, 390, 220
-0.997571, 167, 177, 182, 208
-0.997572, 337, 197, 352, 228
-0.997573, 91, 185, 106, 216
-0.997574, 423, 53, 438, 84
-0.997576, 131, 137, 146, 168
-0.997578, 207, 25, 222, 56
-0.997579, 379, 221, 394, 252
-0.997579, 303, 17, 318, 48
-0.997584, 167, 17, 182, 48
-0.997585, 155, 9, 170, 40
-0.997586, 209, 97, 240, 352
-0.99759, 49, 153, 176, 184
-0.997592, 183, 29, 198, 60
-0.997595, 145, 1, 160, 32
-0.997597, 273, 185, 288, 216
-0.997597, 345, 165, 360, 196
-0.997603, 387, 121, 402, 152
-0.997604, 19, 45, 34, 76
-0.997608, 273, 217, 288, 248
-0.997608, 25, 97, 56, 352
-0.997617, 5, 73, 20, 104
-0.99762, 373, 37, 388, 68
-0.99762, 37, 1, 68, 256
-0.997623, 169, 101, 184, 132
-0.99763, 141, 13, 156, 44
-0.997633, 177, 25, 192, 56
-0.997637, 241, 29, 256, 60
-0.997639, 201, 49, 216, 80
-0.997641, 183, 1, 198, 32
-0.997647, 215, 45, 230, 76
-0.997648, 129, 5, 144, 36
-0.99765, 411, 169, 426, 200
-0.997767, 193, 273, 320, 336
-0.997815, 1, 257, 500, 320
-0.997819, 469, 129, 500, 375
-0.997829, 409, 33, 472, 288
-0.99787, 369, 109, 496, 140
-0.997878, 121, 129, 152, 375
-0.997947, 281, 129, 312, 375
-0.997984, 417, 1, 448, 256
-0.998105, 369, 257, 496, 288
-0.998124, 369, 285, 496, 316
-0.998164, 369, 313, 496, 375
-0.998218, 65, 265, 320, 328
-0.998406, 305, 175, 368, 190
-0.998406, 1, 101, 64, 116
-0.998416, 89, 169, 152, 184
-0.998423, 377, 49, 440, 64
-0.998436, 369, 177, 432, 192
-0.998437, 385, 43, 448, 58
-0.998438, 129, 127, 192, 142
-0.998443, 129, 247, 192, 262
-0.998445, 137, 133, 200, 148
-0.99845, 121, 175, 184, 190
-0.998452, 329, 193, 392, 208
-0.99846, 377, 21, 440, 36
-0.998463, 329, 169, 392, 184
-0.998465, 105, 251, 168, 266
-0.998469, 369, 37, 432, 52
-0.99847, 265, 181, 328, 196
-0.99847, 321, 241, 384, 256
-0.998472, 273, 67, 336, 82
-0.998473, 305, 187, 368, 202
-0.998474, 137, 147, 200, 162
-0.998474, 353, 189, 416, 204
-0.998474, 273, 149, 336, 164
-0.998478, 321, 125, 384, 140
-0.998482, 305, 169, 368, 184
-0.998485, 329, 185, 392, 200
-0.998487, 353, 167, 416, 182
-0.99849, 161, 173, 224, 188
-0.998492, 369, 123, 432, 138
-0.998492, 161, 251, 224, 266
-0.998493, 353, 197, 416, 212
-0.998494, 113, 1, 176, 16
-0.998494, 305, 193, 368, 208
-0.998496, 169, 39, 232, 54
-0.998498, 149, 65, 180, 80
-0.998498, 305, 163, 368, 178
-0.998499, 193, 19, 224, 34
-0.998499, 253, 145, 284, 160
-0.9985, 373, 129, 404, 144
-0.9985, 169, 27, 232, 42
-0.9985, 297, 195, 328, 210
-0.998501, 129, 121, 160, 136
-0.998501, 69, 19, 100, 34
-0.998501, 265, 35, 296, 50
-0.998501, 357, 91, 388, 106
-0.998501, 1, 109, 32, 124
-0.998501, 133, 15, 164, 30
-0.998501, 385, 129, 416, 144
-0.998501, 157, 221, 188, 236
-0.998501, 13, 101, 44, 116
-0.998502, 193, 89, 224, 104
-0.998502, 321, 199, 352, 214
-0.998502, 265, 175, 328, 190
-0.998503, 109, 251, 140, 266
-0.998503, 201, 95, 264, 110
-0.998504, 329, 219, 360, 234
-0.998505, 1, 97, 32, 112
-0.998505, 189, 51, 220, 66
-0.998506, 17, 95, 80, 110
-0.998507, 281, 255, 344, 270
-0.998507, 369, 217, 432, 232
-0.998507, 161, 95, 224, 110
-0.998507, 285, 95, 316, 110
-0.998507, 289, 239, 352, 254
-0.998508, 369, 183, 432, 198
-0.998508, 145, 219, 176, 234
-0.998509, 5, 183, 36, 198
-0.998509, 113, 161, 144, 176
-0.998509, 381, 247, 412, 262
-0.998509, 161, 231, 224, 246
-0.998509, 365, 47, 396, 62
-0.998509, 309, 231, 340, 246
-0.998509, 317, 153, 348, 168
-0.99851, 305, 181, 368, 196
-0.998511, 249, 183, 280, 198
-0.998511, 141, 115, 172, 130
-0.998511, 9, 77, 72, 92
-0.998511, 313, 165, 344, 180
-0.998511, 345, 223, 408, 238
-0.998511, 89, 199, 120, 214
-0.998511, 97, 253, 128, 268
-0.998512, 361, 159, 424, 174
-0.998512, 221, 25, 252, 40
-0.998512, 173, 15, 204, 30
-0.998512, 361, 27, 424, 42
-0.998513, 393, 37, 456, 52
-0.998513, 145, 25, 208, 40
-0.998513, 153, 147, 184, 162
-0.998513, 157, 19, 188, 34
-0.998513, 321, 115, 384, 130
-0.998514, 281, 81, 344, 96
-0.998514, 277, 33, 308, 48
-0.998514, 401, 15, 464, 30
-0.998515, 1, 149, 64, 164
-0.998515, 297, 217, 360, 232
-0.998515, 97, 141, 160, 156
-0.998516, 161, 173, 192, 188
-0.998516, 349, 185, 380, 200
-0.998516, 277, 225, 308, 240
-0.998517, 369, 15, 432, 30
-0.998517, 377, 171, 440, 186
-0.998517, 169, 131, 200, 146
-0.998517, 305, 181, 336, 196
-0.998518, 169, 159, 200, 174
-0.998518, 121, 7, 184, 22
-0.998518, 125, 83, 156, 98
-0.998519, 217, 175, 280, 190
-0.998519, 373, 143, 404, 158
-0.998519, 201, 101, 264, 116
-0.998519, 201, 35, 264, 50
-0.998519, 137, 109, 200, 124
-0.99852, 133, 1, 164, 16
-0.99852, 281, 25, 312, 40
-0.99852, 133, 57, 164, 72
-0.998521, 353, 225, 384, 240
-0.998521, 101, 37, 132, 52
-0.998521, 393, 123, 424, 138
-0.998521, 161, 129, 224, 144
-0.998521, 277, 149, 308, 164
-0.998521, 369, 207, 432, 222
-0.998521, 385, 129, 448, 144
-0.998522, 145, 179, 208, 194
-0.998522, 141, 21, 172, 36
-0.998522, 385, 213, 416, 228
-0.998522, 169, 103, 232, 118
-0.998523, 1, 35, 64, 50
-0.998523, 25, 191, 56, 206
-0.998524, 425, 11, 456, 26
-0.998524, 197, 35, 228, 50
-0.998525, 89, 85, 152, 100
-0.998525, 413, 215, 444, 230
-0.998525, 385, 55, 448, 70
-0.998525, 149, 27, 180, 42
-0.998525, 377, 195, 440, 210
-0.998525, 321, 221, 384, 236
-0.998526, 465, 167, 496, 182
-0.998526, 249, 151, 312, 166
-0.998526, 193, 45, 224, 60
-0.998527, 385, 49, 416, 64
-0.998527, 185, 19, 248, 34
-0.998527, 145, 11, 208, 26
-0.998527, 169, 41, 200, 56
-0.998527, 177, 45, 240, 60
-0.998527, 153, 123, 216, 138
-0.998528, 169, 63, 232, 78
-0.998528, 289, 155, 352, 170
-0.998528, 361, 43, 424, 58
-0.998529, 401, 5, 464, 20
-0.998529, 373, 117, 404, 132
-0.998529, 241, 181, 304, 196
-0.998529, 401, 23, 464, 38
-0.998529, 89, 209, 120, 224
-0.99853, 169, 245, 232, 260
-0.998531, 161, 237, 224, 252
-0.998531, 417, 31, 448, 46
-0.998531, 405, 43, 436, 58
-0.998532, 361, 239, 424, 254
-0.998533, 361, 115, 424, 130
-0.998533, 149, 129, 180, 144
-0.998533, 377, 193, 408, 208
-0.998533, 401, 51, 432, 66
-0.998533, 161, 149, 224, 164
-0.998534, 321, 247, 384, 262
-0.998534, 361, 57, 424, 72
-0.998535, 409, 31, 472, 46
-0.998535, 193, 57, 224, 72
-0.998536, 113, 45, 144, 60
-0.998537, 401, 193, 432, 208
-0.998537, 329, 179, 392, 194
-0.998537, 161, 33, 224, 48
-0.998537, 281, 191, 344, 206
-0.998538, 341, 171, 372, 186
-0.998539, 157, 239, 188, 254
-0.998539, 233, 141, 296, 156
-0.99854, 201, 25, 264, 40
-0.99854, 73, 205, 136, 220
-0.99854, 89, 115, 152, 130
-0.99854, 353, 229, 416, 244
-0.99854, 161, 35, 192, 50
-0.998541, 337, 241, 368, 256
-0.998541, 157, 71, 188, 86
-0.998541, 337, 23, 400, 38
-0.998541, 249, 85, 312, 100
-0.998542, 201, 107, 264, 122
-0.998542, 157, 99, 188, 114
-0.998542, 149, 13, 180, 28
-0.998542, 397, 165, 428, 180
-0.998542, 1, 61, 64, 76
-0.998543, 193, 119, 256, 134
-0.998543, 305, 103, 368, 118
-0.998543, 1, 67, 64, 82
-0.998544, 1, 137, 32, 152
-0.998544, 281, 261, 344, 276
-0.998544, 329, 199, 392, 214
-0.998544, 397, 221, 428, 236
-0.998544, 389, 63, 420, 78
-0.998545, 21, 71, 52, 86
-0.998545, 129, 153, 192, 168
-0.998545, 205, 27, 236, 42
-0.998545, 361, 79, 424, 94
-0.998547, 361, 133, 424, 148
-0.998547, 309, 195, 340, 210
-0.998547, 309, 119, 340, 134
-0.998547, 385, 31, 448, 46
-0.998548, 161, 71, 224, 86
-0.998548, 225, 123, 288, 138
-0.998548, 157, 229, 188, 244
-0.998548, 185, 53, 248, 68
-0.998549, 65, 163, 128, 178
-0.998549, 157, 249, 188, 264
-0.998549, 169, 105, 200, 120
-0.99855, 265, 37, 328, 52
-0.99855, 129, 41, 192, 56
-0.998551, 281, 233, 344, 248
-0.998551, 361, 99, 392, 114
-0.998552, 233, 31, 296, 46
-0.998552, 297, 147, 360, 162
-0.998552, 169, 179, 200, 194
-0.998552, 161, 57, 224, 72
-0.998552, 353, 107, 416, 122
-0.998553, 273, 197, 336, 212
-0.998553, 345, 127, 408, 142
-0.998553, 21, 185, 52, 200
-0.998554, 361, 245, 424, 260
-0.998554, 225, 149, 288, 164
-0.998554, 113, 81, 144, 96
-0.998554, 145, 167, 208, 182
-0.998556, 325, 241, 356, 256
-0.998556, 105, 75, 136, 90
-0.998557, 365, 85, 396, 100
-0.998557, 89, 165, 120, 180
-0.998557, 145, 95, 176, 110
-0.998559, 177, 47, 208, 62
-0.998561, 45, 97, 76, 352
-0.998562, 201, 63, 232, 78
-0.998563, 41, 3, 72, 18
-0.998563, 113, 167, 144, 182
-0.998564, 101, 161, 132, 176
-0.998566, 89, 31, 120, 46
-0.998566, 125, 51, 156, 66
-0.998568, 169, 137, 200, 152
-0.99857, 21, 115, 52, 130
-0.998574, 17, 145, 48, 160
-0.998574, 337, 191, 368, 206
-0.998574, 1, 61, 32, 76
-0.998577, 401, 145, 416, 272
-0.998581, 317, 159, 348, 174
-0.998581, 57, 13, 88, 28
-0.998582, 141, 123, 172, 138
-0.998586, 1, 67, 32, 82
-0.998587, 21, 95, 52, 110
-0.998591, 321, 173, 352, 188
-0.998594, 393, 151, 424, 166
-0.998595, 149, 175, 180, 190
-0.998598, 21, 113, 36, 240
-0.998603, 133, 89, 164, 104
-0.998603, 381, 205, 412, 220
-0.998604, 317, 189, 348, 204
-0.998604, 169, 151, 200, 166
-0.998612, 97, 145, 112, 272
-0.998615, 73, 129, 104, 375
-0.998619, 141, 143, 172, 158
-0.998625, 129, 171, 160, 186
-0.99863, 377, 33, 392, 160
-0.998635, 305, 151, 336, 166
-0.998663, 167, 113, 182, 240
-0.998665, 1, 73, 32, 88
-0.998669, 101, 167, 132, 182
-0.998683, 111, 145, 126, 272
-0.998689, 117, 145, 132, 272
-0.998698, 21, 1, 36, 128
-0.998705, 89, 145, 104, 272
-0.998711, 391, 97, 406, 224
-0.998728, 313, 81, 328, 208
-0.998728, 1, 1, 16, 128
-0.998737, 9, 17, 24, 144
-0.998745, 313, 129, 328, 256
-0.998746, 371, 1, 386, 128
-0.998747, 385, 49, 400, 176
-0.998755, 407, 145, 422, 272
-0.998758, 15, 145, 30, 272
-0.998787, 301, 81, 316, 208
-0.998791, 23, 161, 38, 288
-0.998795, 163, 161, 178, 288
-0.998811, 39, 33, 54, 160
-0.998822, 393, 145, 408, 272
-0.998832, 421, 1, 436, 128
-0.998833, 291, 129, 306, 256
-0.998839, 391, 49, 406, 176
-0.99884, 15, 97, 30, 224
-0.998849, 297, 161, 312, 288
-0.998852, 283, 1, 298, 128
-0.998852, 69, 1, 100, 256
-0.998857, 193, 129, 224, 375
-0.99886, 263, 161, 278, 288
-0.998861, 123, 1, 138, 128
-0.998862, 267, 49, 282, 176
-0.998863, 477, 193, 492, 320
-0.998876, 291, 65, 306, 192
-0.998878, 169, 161, 184, 288
-0.998884, 271, 113, 286, 240
-0.998886, 433, 33, 496, 288
-0.998888, 261, 1, 276, 128
-0.998888, 27, 113, 42, 240
-0.998889, 291, 1, 306, 128
-0.99889, 269, 161, 284, 288
-0.998892, 321, 129, 336, 256
-0.998897, 449, 129, 480, 375
-0.998899, 141, 113, 156, 240
-0.998901, 119, 97, 134, 224
-0.998903, 351, 161, 366, 288
-0.998905, 89, 193, 104, 320
-0.998906, 15, 49, 30, 176
-0.998907, 31, 1, 46, 128
-0.998914, 243, 113, 258, 240
-0.998916, 321, 65, 336, 192
-0.998916, 253, 129, 268, 256
-0.998918, 129, 177, 144, 304
-0.998937, 173, 81, 188, 208
-0.998939, 157, 177, 172, 304
-0.998943, 269, 1, 284, 128
-0.998943, 399, 193, 414, 320
-0.998948, 413, 1, 428, 128
-0.99895, 9, 129, 24, 256
-0.998955, 193, 1, 208, 128
-0.998957, 215, 129, 230, 256
-0.998958, 23, 65, 38, 192
-0.99896, 291, 193, 306, 320
-0.998962, 285, 65, 300, 192
-0.998963, 383, 177, 398, 304
-0.998967, 393, 193, 408, 320
-0.998972, 341, 97, 356, 224
-0.998974, 403, 1, 418, 128
-0.998975, 273, 49, 288, 176
-0.998975, 331, 145, 346, 272
-0.998978, 217, 1, 232, 128
-0.99898, 153, 81, 168, 208
-0.998989, 285, 145, 300, 272
-0.998991, 365, 1, 380, 128
-0.998991, 119, 193, 134, 320
-0.999003, 225, 1, 240, 128
-0.999007, 357, 97, 372, 224
-0.999012, 103, 129, 118, 256
-0.999016, 367, 65, 382, 192
-0.99902, 149, 1, 164, 128
-0.999021, 141, 49, 156, 176
-0.999026, 365, 161, 380, 288
-0.999027, 183, 97, 198, 224
-0.999028, 171, 33, 186, 160
-0.999034, 15, 1, 30, 128
-0.999036, 161, 113, 176, 240
-0.999037, 337, 161, 352, 288
-0.999042, 383, 113, 398, 240
-0.999048, 125, 97, 140, 224
-0.99905, 297, 1, 312, 128
-0.999056, 399, 65, 414, 192
-0.999056, 3, 49, 18, 176
-0.999056, 167, 209, 182, 336
-0.999057, 485, 161, 500, 288
-0.999058, 97, 193, 112, 320
-0.999058, 31, 65, 46, 192
-0.999061, 397, 17, 412, 144
-0.999062, 131, 65, 146, 192
-0.999065, 187, 1, 202, 128
-0.999066, 343, 145, 358, 272
-0.99907, 331, 17, 346, 144
-0.999071, 307, 1, 322, 128
-0.999074, 417, 129, 448, 375
-0.999078, 307, 81, 322, 208
-0.999079, 307, 145, 322, 272
-0.999086, 321, 177, 336, 304
-0.999086, 331, 81, 346, 208
-0.999086, 373, 161, 388, 288
-0.99909, 413, 161, 428, 288
-0.999097, 263, 97, 278, 224
-0.9991, 211, 1, 226, 128
-0.999102, 199, 1, 214, 128
-0.999107, 193, 97, 208, 224
-0.999108, 305, 209, 320, 336
-0.999108, 223, 161, 238, 288
-0.999123, 17, 193, 32, 320
-0.999128, 281, 193, 296, 320
-0.99913, 359, 145, 374, 272
-0.999131, 235, 113, 250, 240
-0.999132, 315, 209, 330, 336
-0.999133, 321, 1, 336, 128
-0.999136, 111, 193, 126, 320
-0.99914, 275, 161, 290, 288
-0.999141, 35, 145, 50, 272
-0.999143, 91, 97, 106, 224
-0.999143, 87, 1, 102, 128
-0.999144, 123, 145, 138, 272
-0.999149, 315, 17, 330, 144
-0.99915, 177, 177, 192, 304
-0.999158, 249, 1, 264, 128
-0.999159, 223, 113, 238, 240
-0.99916, 213, 209, 228, 336
-0.99916, 245, 161, 260, 288
-0.999233, 61, 97, 92, 352
-0.999328, 57, 1, 88, 256
-0.999341, 437, 129, 468, 375
-0.999459, 97, 273, 224, 336
-0.999553, 145, 281, 272, 344
-0.999616, 257, 289, 500, 352
-0.999618, 305, 305, 432, 368
-0.999675, 151, 9, 166, 24
-0.999675, 407, 49, 422, 64
-0.999675, 39, 97, 54, 112
-0.999676, 123, 227, 138, 242
-0.999676, 349, 241, 364, 256
-0.999676, 399, 53, 414, 68
-0.999677, 485, 171, 500, 186
-0.999677, 293, 85, 308, 100
-0.999677, 359, 187, 374, 202
-0.999678, 419, 43, 434, 58
-0.999678, 267, 5, 282, 20
-0.999678, 333, 241, 348, 256
-0.999678, 159, 15, 174, 30
-0.999678, 377, 107, 392, 122
-0.999679, 271, 179, 286, 194
-0.999679, 9, 137, 24, 152
-0.999682, 23, 189, 38, 204
-0.999682, 403, 213, 418, 228
-0.999682, 121, 159, 136, 174
-0.999683, 109, 165, 124, 180
-0.999683, 311, 151, 326, 166
-0.999684, 143, 123, 158, 138
-0.999685, 293, 255, 308, 270
-0.999685, 399, 127, 414, 142
-0.999685, 339, 245, 354, 260
-0.999685, 167, 239, 182, 254
-0.999686, 165, 71, 180, 86
-0.999686, 25, 135, 40, 150
-0.999686, 393, 207, 408, 222
-0.999686, 311, 145, 326, 160
-0.999686, 37, 67, 52, 82
-0.999686, 89, 251, 104, 266
-0.999687, 119, 199, 134, 214
-0.999687, 163, 181, 178, 196
-0.999687, 405, 245, 420, 260
-0.999687, 413, 57, 428, 72
-0.999687, 175, 3, 190, 18
-0.999688, 267, 121, 282, 136
-0.999688, 5, 59, 20, 74
-0.999689, 423, 213, 438, 228
-0.999689, 135, 53, 150, 68
-0.999689, 345, 165, 360, 180
-0.999689, 407, 61, 422, 76
-0.99969, 109, 209, 124, 224
-0.999692, 115, 161, 130, 176
-0.999693, 173, 151, 188, 166
-0.999693, 139, 171, 154, 186
-0.999693, 241, 213, 256, 228
-0.999694, 213, 31, 228, 46
-0.999694, 5, 73, 20, 88
-0.999694, 437, 11, 452, 26
-0.999694, 151, 63, 166, 78
-0.999695, 411, 183, 426, 198
-0.999697, 97, 167, 112, 182
-0.999697, 177, 249, 192, 264
-0.999697, 187, 13, 202, 28
-0.999698, 123, 233, 138, 248
-0.999698, 173, 27, 188, 42
-0.999699, 23, 147, 38, 162
-0.9997, 91, 203, 106, 218
-0.9997, 179, 127, 194, 142
-0.9997, 411, 173, 426, 188
-0.999702, 313, 163, 328, 178
-0.999703, 267, 37, 282, 52
-0.999703, 311, 181, 326, 196
-0.999703, 405, 173, 420, 188
-0.999704, 141, 57, 156, 72
-0.999704, 29, 147, 44, 162
-0.999704, 167, 21, 182, 36
-0.999704, 353, 185, 368, 200
-0.999704, 331, 193, 346, 208
-0.999704, 23, 183, 38, 198
-0.999704, 263, 11, 278, 26
-0.999705, 403, 67, 418, 82
-0.999705, 195, 19, 210, 34
-0.999706, 179, 79, 194, 94
-0.999706, 89, 237, 104, 252
-0.999708, 205, 17, 220, 32
-0.999708, 401, 61, 416, 76
-0.999709, 401, 165, 416, 180
-0.999709, 91, 197, 106, 212
-0.99971, 89, 245, 104, 260
-0.99971, 19, 131, 34, 146
-0.999711, 365, 189, 380, 204
-0.999711, 393, 147, 408, 162
-0.999713, 103, 167, 118, 182
-0.999713, 27, 115, 42, 130
-0.999714, 275, 145, 290, 160
-0.999714, 317, 191, 332, 206
-0.999716, 153, 175, 168, 190
-0.999716, 241, 45, 256, 60
-0.999717, 115, 207, 130, 222
-0.999717, 391, 159, 406, 174
-0.999717, 27, 93, 42, 108
-0.999717, 149, 123, 164, 138
-0.999718, 329, 153, 344, 168
-0.999718, 17, 91, 32, 106
-0.999723, 147, 143, 162, 158
-0.999724, 165, 149, 180, 164
-0.999724, 161, 119, 176, 134
-0.999726, 11, 61, 26, 76
-0.999727, 109, 203, 124, 218
-0.99973, 155, 145, 170, 160
-0.999732, 153, 217, 168, 232
-0.999732, 101, 203, 116, 218
-0.999732, 155, 125, 170, 140
-0.999732, 411, 167, 426, 182
-0.999733, 145, 173, 160, 188
-0.999734, 171, 247, 186, 262
-0.999738, 357, 179, 372, 194
-0.99974, 35, 185, 50, 200
-0.99974, 91, 165, 106, 180
-0.99974, 207, 25, 222, 40
-0.999742, 141, 141, 156, 156
-0.999743, 169, 177, 184, 192
-0.999744, 145, 117, 160, 132
-0.999746, 13, 67, 28, 82
-0.999753, 115, 167, 130, 182
-0.999755, 397, 157, 412, 172
-0.999759, 29, 185, 44, 200
-0.999762, 33, 95, 48, 110
-0.999771, 165, 125, 180, 140
-0.999772, 3, 67, 18, 82
-0.999774, 131, 169, 146, 184
-0.999776, 21, 141, 36, 156
-0.999782, 169, 157, 184, 172
-0.999783, 343, 191, 358, 206
-0.999785, 169, 131, 184, 146
-0.999796, 163, 173, 178, 188
-0.999814, 125, 165, 140, 180
-0.999967, 1, 281, 500, 344
-1.00001, 445, 1, 476, 256
-1.00001, 457, 33, 488, 288
-1.00026, 469, 33, 500, 288
-1.00055, 257, 313, 500, 375
-1.00135, 161, 289, 416, 352
-1.00152, 1, 289, 256, 352
-1.0019, 257, 297, 384, 360
-1.00203, 161, 313, 416, 375
-1.00205, 1, 313, 256, 375
-1.0025, 49, 305, 176, 368
-1.00259, 209, 297, 336, 360
-1.00271, 113, 313, 240, 375
-1.00291, 161, 313, 288, 375
-1.00326, 1, 305, 500, 368
-1.00338, 1, 313, 128, 375
