1881
-0.38643, 1, 1, 500, 331
-0.485083, 1, 33, 500, 288
-0.530044, 257, 1, 500, 331
-0.565529, 65, 1, 320, 331
-0.595438, 161, 1, 416, 331
-0.64821, 65, 33, 320, 288
-0.653831, 257, 33, 500, 288
-0.727987, 161, 1, 416, 256
-0.860809, 129, 1, 256, 331
-0.870469, 145, 1, 272, 256
-0.873067, 337, 1, 464, 331
-0.882921, 81, 65, 208, 320
-0.883146, 337, 33, 464, 288
-0.888885, 177, 1, 304, 331
-0.896438, 65, 1, 192, 331
-0.904258, 193, 1, 320, 256
-0.909145, 33, 65, 160, 320
-0.909731, 1, 209, 500, 331
-0.916529, 1, 65, 500, 192
-0.92207, 273, 65, 400, 320
-0.923513, 97, 81, 352, 208
-0.923518, 273, 1, 400, 331
-0.927222, 17, 1, 144, 331
-0.929235, 1, 145, 500, 272
-0.931306, 257, 65, 500, 192
-0.933783, 257, 129, 500, 256
-0.934181, 225, 1, 352, 331
-0.935625, 161, 209, 416, 331
-0.935964, 1, 17, 500, 144
-0.941074, 1, 177, 256, 304
-0.94396, 337, 49, 464, 176
-0.944025, 161, 17, 416, 144
-0.945618, 113, 81, 240, 208
-0.95031, 113, 209, 240, 331
-0.950675, 97, 145, 352, 272
-0.950774, 49, 161, 176, 288
-0.953228, 433, 145, 496, 272
-0.95442, 433, 193, 496, 320
-0.954635, 97, 161, 224, 288
-0.955818, 161, 209, 288, 331
-0.956008, 137, 177, 200, 304
-0.956057, 1, 81, 256, 208
-0.959591, 169, 209, 232, 331
-0.959927, 185, 65, 248, 192
-0.960266, 129, 81, 192, 208
-0.960402, 33, 1, 288, 128
-0.961751, 361, 33, 424, 160
-0.963308, 1, 129, 256, 256
-0.965276, 369, 113, 496, 240
-0.965437, 97, 161, 160, 288
-0.965463, 409, 113, 472, 240
-0.965858, 33, 209, 160, 331
-0.965894, 433, 201, 496, 264
-0.96621, 169, 209, 232, 272
-0.966975, 137, 193, 200, 256
-0.967038, 369, 49, 432, 112
-0.967434, 209, 177, 336, 304
-0.967893, 185, 41, 248, 104
-0.968049, 257, 209, 500, 331
-0.968321, 193, 73, 256, 136
-0.969186, 257, 129, 320, 256
-0.969193, 121, 129, 184, 256
-0.96948, 161, 161, 224, 288
-0.969517, 177, 65, 304, 192
-0.969517, 225, 129, 352, 256
-0.969644, 161, 161, 288, 288
-0.969722, 257, 17, 500, 144
-0.969745, 97, 33, 224, 160
-0.970635, 161, 65, 224, 192
-0.970708, 417, 137, 480, 200
-0.970957, 65, 81, 192, 208
-0.971087, 97, 97, 160, 224
-0.971605, 353, 1, 480, 128
-0.971684, 385, 49, 448, 176
-0.972466, 161, 113, 288, 240
-0.972897, 121, 89, 184, 152
-0.973202, 137, 225, 200, 288
-0.974418, 177, 233, 240, 296
-0.974614, 337, 65, 400, 192
-0.974615, 161, 49, 224, 112
-0.974731, 41, 209, 104, 331
-0.974759, 433, 177, 496, 240
-0.975164, 185, 1, 248, 256
-0.975493, 169, 73, 232, 136
-0.975861, 113, 161, 176, 224
-0.976025, 33, 217, 96, 280
-0.976034, 121, 65, 184, 320
-0.976088, 209, 161, 272, 288
-0.976111, 209, 49, 272, 112
-0.976296, 17, 113, 144, 240
-0.976385, 169, 17, 232, 144
-0.976415, 417, 65, 480, 192
-0.976777, 201, 209, 264, 331
-0.976824, 337, 57, 464, 120
-0.977327, 145, 33, 208, 288
-0.977341, 193, 1, 256, 128
-0.977852, 113, 209, 240, 272
-0.978337, 273, 113, 400, 240
-0.9784, 209, 65, 272, 192
-0.97855, 433, 225, 496, 288
-0.978631, 97, 217, 160, 280
-0.978991, 97, 265, 224, 328
-0.97912, 177, 17, 304, 144
-0.979321, 193, 209, 256, 272
-0.979364, 113, 193, 176, 256
-0.979622, 113, 81, 240, 144
-0.979627, 257, 129, 320, 192
-0.979836, 97, 65, 160, 320
-0.979881, 297, 137, 360, 200
-0.980441, 73, 177, 136, 304
-0.980442, 433, 65, 496, 320
-0.980497, 137, 169, 200, 232
-0.980656, 113, 241, 240, 304
-0.980768, 121, 33, 184, 160
-0.980873, 305, 113, 368, 240
-0.980913, 169, 185, 232, 248
-0.981052, 225, 193, 288, 256
-0.98112, 161, 217, 288, 280
-0.981129, 81, 49, 144, 176
-0.981216, 201, 209, 232, 272
-0.981356, 337, 1, 400, 128
-0.981482, 281, 129, 344, 256
-0.981513, 209, 193, 336, 256
-0.981573, 113, 209, 176, 331
-0.981763, 9, 217, 72, 280
-0.981852, 193, 1, 256, 64
-0.981905, 81, 113, 144, 176
-0.981974, 409, 209, 472, 331
-0.981992, 81, 177, 144, 240
-0.98207, 9, 209, 72, 331
-0.982105, 185, 209, 216, 331
-0.982123, 273, 65, 400, 192
-0.982212, 201, 49, 232, 112
-0.982259, 289, 1, 416, 128
-0.982487, 409, 65, 472, 320
-0.982697, 337, 25, 400, 88
-0.982719, 345, 57, 408, 120
-0.982735, 225, 65, 352, 192
-0.982737, 417, 113, 480, 176
-0.982809, 125, 81, 156, 208
-0.982843, 441, 129, 472, 256
-0.982969, 465, 145, 496, 272
-0.983066, 33, 209, 160, 272
-0.983112, 177, 41, 304, 104
-0.983131, 217, 1, 280, 256
-0.983198, 81, 81, 144, 144
-0.983261, 465, 161, 496, 224
-0.983365, 345, 1, 408, 256
-0.983366, 369, 129, 496, 192
-0.983423, 137, 249, 200, 312
-0.983509, 113, 137, 176, 200
-0.983555, 97, 49, 224, 112
-0.983623, 417, 17, 480, 144
-0.983716, 17, 65, 144, 192
-0.983726, 265, 177, 328, 240
-0.98376, 369, 161, 496, 288
-0.983831, 145, 1, 208, 128
-0.983837, 185, 49, 216, 112
-0.983959, 337, 97, 464, 160
-0.984005, 145, 81, 208, 144
-0.984055, 217, 57, 248, 120
-0.984089, 257, 209, 384, 331
-0.984131, 465, 201, 496, 264
-0.984346, 233, 177, 296, 304
-0.984462, 257, 201, 320, 264
-0.984555, 89, 137, 152, 200
-0.984561, 49, 185, 176, 248
-0.984804, 257, 193, 320, 320
-0.984823, 321, 193, 448, 320
-0.984839, 141, 177, 172, 304
-0.984881, 97, 1, 160, 128
-0.984898, 49, 1, 176, 128
-0.984909, 445, 137, 476, 200
-0.985035, 381, 41, 412, 104
-0.98506, 189, 73, 220, 136
-0.985066, 165, 209, 196, 272
-0.985239, 217, 65, 248, 192
-0.985269, 417, 81, 480, 144
-0.985276, 385, 33, 448, 288
-0.985317, 241, 137, 368, 200
-0.985387, 189, 209, 220, 272
-0.985515, 97, 137, 224, 200
-0.985629, 233, 65, 296, 192
-0.985681, 137, 81, 168, 208
-0.985702, 97, 185, 224, 248
-0.985835, 233, 129, 296, 256
-0.98594, 49, 193, 112, 256
-0.985969, 209, 217, 336, 280
-0.986026, 361, 25, 424, 88
-0.986106, 157, 161, 188, 288
-0.986148, 177, 1, 240, 331
-0.986197, 41, 241, 104, 304
-0.986264, 201, 73, 232, 136
-0.986298, 453, 129, 484, 256
-0.986339, 297, 113, 360, 176
-0.986413, 161, 241, 288, 304
-0.986415, 465, 137, 496, 200
-0.986527, 321, 121, 352, 184
-0.986543, 141, 193, 172, 256
-0.986553, 161, 193, 288, 256
-0.986569, 97, 113, 224, 176
-0.986661, 161, 169, 288, 232
-0.986663, 17, 249, 144, 312
-0.986746, 161, 65, 288, 128
-0.98679, 153, 169, 184, 232
-0.986829, 369, 209, 496, 331
-0.986922, 197, 65, 228, 192
-0.986936, 281, 201, 344, 264
-0.986989, 205, 209, 236, 331
-0.987072, 233, 41, 264, 104
-0.98712, 185, 233, 216, 296
-0.987136, 409, 41, 472, 104
-0.987174, 185, 145, 248, 272
-0.987223, 73, 113, 136, 240
-0.987247, 217, 169, 280, 232
-0.987256, 125, 89, 156, 152
-0.98728, 137, 1, 200, 331
-0.987324, 209, 161, 336, 224
-0.987334, 369, 1, 432, 331
-0.987393, 177, 257, 240, 320
-0.987508, 65, 161, 192, 224
-0.987557, 121, 65, 184, 128
-0.987625, 105, 257, 168, 320
-0.987764, 409, 193, 472, 256
-0.987791, 37, 217, 68, 280
-0.987811, 121, 145, 152, 272
-0.988011, 17, 193, 80, 256
-0.988137, 297, 65, 360, 192
-0.988188, 377, 33, 408, 160
-0.988223, 217, 1, 280, 128
-0.988237, 365, 57, 396, 120
-0.988301, 361, 49, 392, 176
-0.988331, 265, 129, 296, 256
-0.988371, 161, 81, 192, 208
-0.988447, 345, 1, 408, 64
-0.988485, 393, 113, 456, 176
-0.988578, 465, 209, 496, 331
-0.988639, 217, 217, 280, 280
-0.988777, 177, 33, 208, 160
-0.988789, 217, 33, 248, 96
-0.9888, 217, 81, 280, 144
-0.9888, 65, 233, 192, 296
-0.988813, 369, 25, 496, 88
-0.988877, 321, 113, 448, 240
-0.988899, 17, 241, 80, 304
-0.988908, 137, 225, 168, 288
-0.988951, 257, 81, 320, 208
-0.988957, 409, 65, 440, 192
-0.98896, 81, 241, 144, 304
-0.989017, 185, 81, 216, 208
-0.989031, 273, 65, 336, 320
-0.989049, 441, 193, 472, 256
-0.989049, 177, 209, 208, 272
-0.989059, 49, 97, 176, 160
-0.989063, 409, 225, 472, 288
-0.989081, 217, 105, 280, 168
-0.98913, 257, 193, 288, 256
-0.989208, 113, 81, 144, 208
-0.989213, 113, 1, 176, 331
-0.989294, 49, 161, 112, 288
-0.989361, 433, 257, 496, 320
-0.989434, 321, 65, 384, 320
-0.989457, 233, 33, 264, 160
-0.989475, 121, 217, 152, 280
-0.989493, 441, 193, 472, 320
-0.989558, 337, 1, 400, 331
-0.98961, 385, 73, 448, 136
-0.989635, 233, 129, 296, 192
-0.989681, 189, 17, 220, 144
-0.989743, 165, 209, 196, 331
-0.98979, 113, 113, 144, 176
-0.989819, 161, 145, 288, 208
-0.989871, 177, 161, 208, 288
-0.989904, 209, 1, 272, 331
-0.989956, 321, 113, 384, 176
-0.989981, 105, 1, 168, 64
-0.989994, 213, 217, 244, 280
-0.990131, 329, 113, 392, 240
-0.990154, 257, 185, 384, 248
-0.990188, 369, 53, 432, 84
-0.990194, 185, 73, 248, 104
-0.990213, 313, 49, 376, 112
-0.990258, 169, 217, 232, 248
-0.990272, 1, 161, 128, 288
-0.990285, 89, 1, 152, 331
-0.990296, 233, 33, 296, 96
-0.990299, 73, 209, 136, 272
-0.990314, 185, 41, 248, 72
-0.99042, 393, 1, 456, 331
-0.990428, 433, 1, 496, 331
-0.990475, 193, 185, 256, 248
-0.990511, 169, 161, 232, 224
-0.990546, 121, 113, 184, 176
-0.990589, 177, 1, 304, 64
-0.990611, 389, 33, 420, 160
-0.990718, 161, 265, 288, 328
-0.990734, 137, 209, 200, 240
-0.990784, 49, 129, 176, 192
-0.990788, 289, 177, 352, 240
-0.990791, 125, 153, 156, 216
-0.990832, 433, 213, 496, 244
-0.990868, 153, 193, 184, 256
-0.990872, 241, 113, 368, 176
-0.990907, 425, 141, 488, 172
-0.990961, 97, 17, 224, 80
-0.99098, 177, 121, 304, 184
-0.990998, 321, 33, 448, 96
-0.99108, 137, 229, 200, 260
-0.991154, 221, 81, 252, 144
-0.991189, 149, 81, 180, 208
-0.991218, 129, 197, 192, 228
-0.991272, 125, 257, 156, 320
-0.991276, 393, 41, 424, 104
-0.991276, 453, 177, 484, 240
-0.991279, 17, 161, 80, 288
-0.99128, 453, 193, 484, 320
-0.991291, 193, 85, 256, 116
-0.991309, 145, 73, 208, 104
-0.991334, 177, 241, 240, 272
-0.991367, 433, 201, 496, 232
-0.991369, 161, 89, 288, 152
-0.991394, 281, 193, 344, 320
-0.991408, 177, 185, 208, 248
-0.99145, 173, 81, 204, 208
-0.991473, 205, 1, 236, 128
-0.991533, 137, 249, 200, 280
-0.99155, 305, 161, 368, 288
-0.991553, 337, 97, 368, 224
-0.991594, 217, 209, 248, 331
-0.991623, 297, 141, 360, 172
-0.991627, 217, 209, 280, 240
-0.991636, 273, 33, 400, 96
-0.991676, 209, 73, 272, 104
-0.991707, 309, 129, 340, 192
-0.991709, 121, 93, 184, 124
-0.99171, 113, 169, 176, 200
-0.991727, 433, 225, 496, 256
-0.991736, 369, 33, 400, 96
-0.991774, 97, 57, 160, 120
-0.991774, 405, 57, 436, 120
-0.991786, 369, 161, 496, 224
-0.991796, 221, 17, 252, 144
-0.991818, 357, 1, 388, 128
-0.991838, 97, 221, 160, 252
-0.991861, 41, 225, 104, 256
-0.991901, 153, 85, 216, 116
-0.991905, 353, 1, 480, 64
-0.991911, 369, 185, 496, 248
-0.991936, 129, 185, 192, 216
-0.991957, 241, 97, 272, 224
-0.991987, 17, 213, 80, 244
-0.992007, 113, 161, 240, 224
-0.99201, 81, 85, 144, 116
-0.992011, 209, 25, 272, 88
-0.992011, 177, 53, 240, 84
-0.992011, 125, 193, 156, 256
-0.992013, 113, 233, 176, 264
-0.992024, 297, 129, 360, 160
-0.992033, 93, 1, 124, 64
-0.992043, 225, 1, 256, 64
-0.992045, 369, 217, 496, 280
-0.992057, 309, 113, 340, 240
-0.99207, 209, 221, 272, 252
-0.992076, 253, 161, 284, 224
-0.992082, 73, 1, 136, 256
-0.992095, 137, 145, 200, 208
-0.992096, 169, 197, 232, 228
-0.992112, 265, 133, 328, 164
-0.992119, 433, 189, 496, 220
-0.992128, 185, 29, 248, 60
-0.992134, 113, 157, 176, 188
-0.992134, 177, 229, 240, 260
-0.992148, 345, 37, 408, 68
-0.992196, 209, 41, 272, 72
-0.992227, 209, 233, 272, 264
-0.992234, 169, 65, 200, 128
-0.992234, 241, 169, 304, 232
-0.992247, 273, 185, 336, 216
-0.99225, 449, 113, 480, 176
-0.99226, 33, 193, 64, 320
-0.992262, 233, 185, 296, 216
-0.992273, 249, 65, 312, 320
-0.992292, 257, 201, 320, 232
-0.992306, 401, 17, 464, 80
-0.992318, 81, 113, 144, 144
-0.992352, 433, 157, 496, 188
-0.992359, 349, 49, 380, 176
-0.99238, 81, 97, 144, 128
-0.992395, 425, 125, 488, 156
-0.992408, 253, 145, 284, 272
-0.992418, 433, 177, 496, 208
-0.99242, 273, 193, 304, 256
-0.992437, 81, 145, 144, 176
-0.992447, 89, 165, 152, 196
-0.992451, 321, 265, 448, 328
-0.992453, 81, 269, 144, 300
-0.992455, 429, 129, 460, 256
-0.992479, 321, 129, 384, 160
-0.992481, 81, 125, 144, 156
-0.992487, 17, 229, 80, 260
-0.992525, 121, 81, 184, 112
-0.992529, 133, 129, 164, 256
-0.992537, 433, 237, 496, 268
-0.992544, 265, 129, 296, 192
-0.992549, 369, 65, 432, 96
-0.992568, 113, 209, 176, 240
-0.992578, 337, 57, 400, 88
-0.992581, 433, 65, 464, 192
-0.992612, 417, 85, 480, 116
-0.992614, 113, 89, 144, 152
-0.992622, 41, 237, 104, 268
-0.992622, 17, 73, 144, 136
-0.992631, 129, 261, 192, 292
-0.99264, 121, 117, 184, 148
-0.992644, 201, 217, 232, 248
-0.992646, 201, 73, 232, 104
-0.99266, 121, 193, 152, 320
-0.992662, 89, 233, 152, 264
-0.992679, 49, 205, 112, 236
-0.992687, 121, 105, 184, 136
-0.992695, 145, 33, 208, 64
-0.992705, 137, 173, 200, 204
-0.992711, 177, 261, 240, 292
-0.992714, 233, 81, 264, 144
-0.992717, 249, 217, 312, 248
-0.992724, 225, 17, 352, 144
-0.992727, 401, 129, 464, 160
-0.992729, 33, 249, 96, 280
-0.992731, 385, 49, 416, 80
-0.992738, 89, 205, 152, 236
-0.992741, 141, 169, 172, 232
-0.992798, 297, 153, 360, 184
-0.992807, 409, 65, 472, 96
-0.992811, 425, 113, 488, 144
-0.992817, 97, 193, 160, 224
-0.992823, 217, 73, 248, 104
-0.992832, 121, 145, 184, 176
-0.992836, 417, 101, 480, 132
-0.99284, 377, 41, 440, 72
-0.992872, 409, 49, 472, 80
-0.992873, 321, 129, 352, 160
-0.992877, 193, 205, 256, 236
-0.99288, 121, 273, 184, 304
-0.992887, 209, 57, 272, 88
-0.992893, 185, 1, 248, 32
-0.992903, 89, 177, 152, 208
-0.992903, 233, 169, 296, 200
-0.992911, 73, 217, 136, 248
-0.992926, 197, 41, 228, 72
-0.992927, 465, 213, 496, 244
-0.99293, 89, 281, 152, 312
-0.992931, 225, 113, 288, 144
-0.992934, 409, 209, 472, 240
-0.992937, 153, 45, 216, 76
-0.99294, 309, 153, 340, 216
-0.992948, 105, 33, 136, 160
-0.992952, 177, 281, 240, 312
-0.992956, 465, 165, 496, 196
-0.99296, 17, 161, 144, 224
-0.992963, 449, 81, 480, 208
-0.992983, 289, 129, 320, 256
-0.992998, 189, 81, 220, 112
-0.992998, 297, 177, 360, 208
-0.993016, 189, 53, 220, 84
-0.993023, 57, 217, 88, 280
-0.993025, 453, 141, 484, 172
-0.993034, 373, 57, 404, 88
-0.993036, 9, 249, 72, 280
-0.993039, 41, 265, 104, 296
-0.993046, 113, 129, 176, 160
-0.993051, 233, 197, 296, 228
-0.993059, 89, 245, 152, 276
-0.993067, 177, 297, 240, 328
-0.993068, 273, 213, 336, 244
-0.993071, 433, 293, 496, 324
-0.993077, 221, 41, 252, 72
-0.993077, 153, 185, 216, 216
-0.993078, 305, 209, 368, 331
-0.993089, 153, 201, 184, 232
-0.993094, 433, 253, 496, 284
-0.993098, 281, 197, 344, 228
-0.993104, 225, 133, 288, 164
-0.993108, 125, 221, 156, 252
-0.99311, 209, 41, 240, 72
-0.993117, 433, 265, 496, 296
-0.993121, 177, 221, 208, 252
-0.99313, 125, 89, 156, 120
-0.993133, 105, 1, 168, 32
-0.993143, 189, 1, 220, 64
-0.993145, 145, 57, 176, 120
-0.993146, 145, 273, 208, 304
-0.993151, 37, 237, 68, 268
-0.993153, 137, 81, 168, 144
-0.993169, 409, 221, 472, 252
-0.993172, 17, 261, 80, 292
-0.993184, 321, 141, 352, 172
-0.993188, 177, 73, 208, 104
-0.99319, 201, 117, 264, 148
-0.993194, 465, 177, 496, 208
-0.993197, 273, 161, 400, 288
-0.993202, 297, 117, 360, 148
-0.993205, 293, 193, 324, 256
-0.993211, 137, 301, 200, 331
-0.993217, 189, 213, 220, 244
-0.993219, 433, 281, 496, 312
-0.99322, 141, 33, 172, 160
-0.99322, 169, 1, 232, 64
-0.993223, 465, 153, 496, 184
-0.993224, 305, 201, 336, 264
-0.993225, 221, 85, 252, 116
-0.993227, 185, 241, 216, 272
-0.993232, 185, 41, 216, 72
-0.993233, 125, 233, 156, 264
-0.993235, 233, 77, 264, 108
-0.993239, 193, 105, 256, 136
-0.993239, 145, 285, 208, 316
-0.993241, 273, 173, 336, 204
-0.993244, 321, 141, 384, 172
-0.993253, 217, 85, 280, 116
-0.993255, 37, 221, 68, 252
-0.993257, 205, 61, 236, 92
-0.993263, 385, 85, 448, 116
-0.993263, 217, 53, 248, 84
-0.993264, 173, 197, 204, 228
-0.993264, 141, 229, 172, 260
-0.993265, 217, 149, 280, 180
-0.993272, 173, 233, 204, 296
-0.993277, 273, 189, 304, 220
-0.993287, 289, 57, 416, 120
-0.99329, 209, 113, 272, 240
-0.993293, 97, 73, 160, 104
-0.993294, 57, 253, 120, 284
-0.993295, 445, 201, 476, 232
-0.993301, 257, 249, 384, 312
-0.993302, 97, 89, 352, 152
-0.993309, 465, 201, 496, 232
-0.993311, 393, 117, 456, 148
-0.993314, 233, 97, 296, 128
-0.993315, 309, 141, 340, 172
-0.99332, 285, 181, 316, 212
-0.993322, 149, 189, 180, 220
-0.993323, 161, 213, 192, 244
-0.993324, 233, 41, 264, 72
-0.993325, 233, 73, 296, 104
-0.993325, 449, 189, 480, 220
-0.993336, 265, 201, 296, 232
-0.993341, 141, 201, 172, 232
-0.993347, 361, 65, 392, 96
-0.993348, 221, 221, 252, 252
-0.99335, 53, 209, 84, 331
-0.993351, 309, 129, 340, 160
-0.993353, 237, 65, 268, 96
-0.993353, 453, 201, 484, 264
-0.993356, 465, 97, 496, 224
-0.993356, 209, 9, 272, 40
-0.993357, 9, 201, 72, 232
-0.993365, 301, 197, 332, 228
-0.993371, 89, 257, 152, 288
-0.993377, 317, 153, 348, 184
-0.993383, 113, 85, 144, 116
-0.993395, 189, 225, 220, 256
-0.993395, 153, 177, 184, 208
-0.993397, 125, 157, 156, 188
-0.9934, 113, 153, 144, 184
-0.993404, 261, 185, 292, 216
-0.993405, 169, 233, 200, 264
-0.993407, 25, 217, 56, 248
-0.993408, 165, 73, 196, 104
-0.993413, 409, 197, 472, 228
-0.993422, 357, 49, 388, 80
-0.993422, 49, 229, 80, 260
-0.993424, 109, 109, 140, 140
-0.993429, 161, 201, 416, 264
-0.993431, 41, 209, 72, 240
-0.993432, 469, 225, 500, 256
-0.993433, 297, 185, 328, 216
-0.993433, 113, 137, 144, 168
-0.993436, 177, 89, 208, 120
-0.993436, 129, 169, 160, 200
-0.993437, 217, 233, 248, 264
-0.993452, 257, 121, 500, 184
-0.993456, 393, 1, 456, 128
-0.993459, 369, 37, 400, 68
-0.993463, 121, 101, 152, 132
-0.993464, 433, 137, 464, 168
-0.993468, 113, 137, 144, 200
-0.993468, 241, 169, 272, 232
-0.993472, 145, 73, 176, 104
-0.993473, 141, 241, 172, 272
-0.993473, 129, 197, 160, 228
-0.993474, 429, 121, 460, 152
-0.993478, 253, 197, 284, 228
-0.993478, 109, 265, 140, 296
-0.993484, 113, 125, 144, 156
-0.993485, 113, 165, 144, 196
-0.993485, 201, 245, 232, 276
-0.993488, 241, 201, 272, 232
-0.993492, 1, 265, 256, 328
-0.993492, 201, 85, 232, 116
-0.993496, 37, 249, 68, 280
-0.993498, 265, 133, 296, 164
-0.993502, 185, 261, 216, 292
-0.993505, 465, 189, 496, 220
-0.993508, 165, 249, 196, 280
-0.993511, 133, 77, 164, 108
-0.993513, 245, 141, 276, 172
-0.993513, 397, 53, 428, 84
-0.993519, 469, 241, 500, 272
-0.99352, 285, 197, 316, 228
-0.99352, 257, 213, 288, 244
-0.993522, 137, 89, 168, 120
-0.993526, 237, 93, 268, 124
-0.993527, 129, 265, 160, 296
-0.993528, 21, 229, 52, 260
-0.993534, 153, 89, 184, 120
-0.993536, 317, 177, 348, 208
-0.993536, 165, 89, 196, 120
-0.993537, 145, 165, 176, 196
-0.993538, 109, 97, 140, 128
-0.99354, 137, 217, 168, 248
-0.993541, 245, 161, 276, 192
-0.993549, 469, 253, 500, 284
-0.993551, 193, 97, 256, 160
-0.993552, 189, 29, 220, 60
-0.993552, 221, 209, 252, 240
-0.993553, 161, 189, 192, 220
-0.993553, 469, 141, 500, 172
-0.993556, 429, 97, 460, 128
-0.993558, 121, 209, 152, 240
-0.993558, 217, 1, 280, 64
-0.993558, 469, 289, 500, 320
-0.99356, 469, 273, 500, 304
-0.993563, 217, 29, 248, 60
-0.993563, 333, 137, 364, 168
-0.993564, 205, 205, 236, 236
-0.993564, 113, 277, 144, 308
-0.993565, 313, 197, 344, 228
-0.993568, 213, 1, 244, 32
-0.993569, 189, 93, 220, 124
-0.993573, 337, 81, 400, 144
-0.993574, 233, 1, 296, 331
-0.993574, 389, 37, 420, 68
-0.993575, 205, 229, 236, 260
-0.993582, 121, 113, 152, 144
-0.993585, 89, 33, 120, 64
-0.993587, 137, 185, 168, 216
-0.99359, 33, 269, 64, 300
-0.99359, 189, 69, 220, 100
-0.993591, 221, 193, 252, 256
-0.993591, 441, 213, 472, 244
-0.993635, 161, 41, 416, 104
-0.993653, 297, 169, 328, 232
-0.993665, 381, 17, 412, 80
-0.993666, 81, 1, 144, 64
-0.993666, 257, 97, 500, 160
-0.993705, 157, 65, 188, 128
-0.993719, 65, 73, 192, 136
-0.993743, 109, 177, 140, 304
-0.993774, 305, 121, 432, 184
-0.993782, 313, 17, 376, 144
-0.993815, 149, 89, 180, 152
-0.993849, 161, 65, 416, 128
-0.993883, 429, 97, 460, 160
-0.993923, 321, 161, 352, 288
-0.993944, 305, 201, 368, 264
-0.993946, 1, 201, 256, 264
-0.993962, 257, 209, 384, 272
-0.993997, 109, 169, 140, 232
-0.993997, 469, 225, 500, 288
-0.994019, 1, 185, 128, 248
-0.994075, 369, 265, 496, 328
-0.994113, 197, 161, 228, 288
-0.99416, 101, 129, 132, 256
-0.994181, 433, 129, 464, 192
-0.994189, 1, 209, 500, 272
-0.994198, 345, 49, 376, 112
-0.994223, 193, 129, 256, 192
-0.994228, 225, 81, 352, 144
-0.994242, 265, 1, 328, 331
-0.994266, 241, 129, 272, 192
-0.994273, 89, 177, 120, 304
-0.994278, 189, 25, 220, 88
-0.994301, 125, 33, 156, 160
-0.994322, 321, 145, 352, 208
-0.994331, 145, 129, 176, 256
-0.994353, 97, 129, 352, 192
-0.994367, 321, 113, 352, 240
-0.99437, 201, 233, 232, 296
-0.994378, 333, 129, 364, 192
-0.99438, 313, 1, 376, 331
-0.994483, 125, 129, 156, 192
-0.994491, 273, 105, 336, 168
-0.99451, 277, 129, 308, 256
-0.994526, 273, 233, 336, 296
-0.994534, 73, 265, 136, 328
-0.994574, 129, 225, 256, 256
-0.994609, 65, 177, 320, 240
-0.994624, 161, 257, 416, 320
-0.994631, 337, 241, 464, 304
-0.994654, 221, 161, 252, 288
-0.994658, 321, 137, 384, 200
-0.994662, 317, 177, 348, 240
-0.994675, 257, 57, 500, 120
-0.994683, 409, 265, 472, 328
-0.994688, 21, 209, 52, 331
-0.994705, 265, 193, 296, 320
-0.994705, 429, 193, 460, 320
-0.994708, 305, 241, 368, 304
-0.994722, 341, 105, 372, 168
-0.994765, 357, 25, 388, 88
-0.994807, 1, 225, 256, 288
-0.994811, 169, 265, 200, 328
-0.994819, 233, 57, 296, 120
-0.994851, 97, 225, 352, 288
-0.994854, 289, 9, 416, 72
-0.994857, 41, 193, 72, 256
-0.994905, 273, 153, 336, 216
-0.994949, 409, 161, 472, 288
-0.99497, 289, 1, 352, 331
-0.995027, 65, 1, 128, 331
-0.995068, 301, 161, 332, 288
-0.995149, 209, 1, 240, 64
-0.995149, 25, 209, 56, 272
-0.995152, 297, 1, 360, 256
-0.995184, 313, 89, 376, 152
-0.995218, 17, 265, 80, 328
-0.995263, 353, 73, 384, 136
-0.99527, 177, 89, 208, 152
-0.995273, 433, 57, 496, 120
-0.995277, 245, 193, 276, 256
-0.995285, 421, 81, 452, 208
-0.995323, 37, 241, 68, 304
-0.995329, 65, 41, 320, 104
-0.995342, 469, 249, 500, 312
-0.995398, 257, 161, 384, 224
-0.995407, 165, 177, 196, 240
-0.995433, 321, 193, 448, 256
-0.995433, 25, 233, 56, 296
-0.995436, 89, 33, 120, 160
-0.995452, 1, 241, 500, 304
-0.995464, 113, 241, 144, 304
-0.995508, 145, 121, 208, 184
-0.995514, 225, 49, 352, 112
-0.995523, 213, 49, 228, 112
-0.995532, 253, 193, 284, 320
-0.995544, 369, 9, 400, 72
-0.995573, 65, 153, 320, 216
-0.995599, 97, 273, 224, 304
-0.995667, 1, 97, 500, 160
-0.995674, 273, 89, 400, 152
-0.995675, 153, 33, 184, 160
-0.995734, 187, 209, 202, 272
-0.99577, 305, 145, 432, 208
-0.995793, 241, 105, 304, 168
-0.995801, 241, 145, 272, 272
-0.995802, 57, 193, 88, 256
-0.995804, 161, 17, 416, 80
-0.995823, 257, 153, 500, 216
-0.995877, 227, 49, 242, 112
-0.995885, 429, 201, 460, 264
-0.995897, 97, 41, 128, 104
-0.995907, 105, 65, 136, 128
-0.995928, 65, 65, 320, 128
-0.995954, 193, 209, 208, 272
-0.995957, 257, 201, 500, 264
-0.995959, 337, 73, 464, 104
-0.99596, 213, 209, 228, 272
-0.995975, 225, 141, 352, 172
-0.995981, 175, 209, 190, 272
-0.995984, 129, 213, 256, 244
-0.99599, 57, 169, 120, 232
-0.996022, 113, 89, 240, 120
-0.996045, 257, 177, 500, 240
-0.996058, 201, 185, 232, 248
-0.99606, 97, 73, 224, 104
-0.996076, 337, 57, 464, 88
-0.996086, 89, 33, 152, 96
-0.996116, 41, 65, 104, 320
-0.99612, 177, 41, 304, 72
-0.996144, 285, 129, 316, 192
-0.996171, 467, 161, 482, 224
-0.996174, 205, 57, 220, 120
-0.996182, 203, 209, 218, 272
-0.996232, 81, 209, 208, 240
-0.996245, 273, 169, 304, 232
-0.996246, 369, 141, 496, 172
-0.996247, 429, 65, 460, 128
-0.996249, 149, 145, 180, 208
-0.99627, 237, 33, 252, 96
-0.996278, 165, 33, 196, 160
-0.996279, 209, 249, 272, 312
-0.996301, 165, 89, 196, 152
-0.996309, 225, 217, 256, 280
-0.996334, 337, 85, 464, 116
-0.996373, 321, 217, 448, 280
-0.996377, 467, 137, 482, 200
-0.996395, 219, 33, 234, 96
-0.996404, 97, 285, 224, 316
-0.996414, 49, 49, 176, 112
-0.996433, 191, 49, 206, 112
-0.996433, 65, 145, 128, 208
-0.996456, 145, 77, 272, 108
-0.996494, 305, 169, 432, 232
-0.996494, 459, 137, 474, 200
-0.996503, 113, 245, 240, 276
-0.996517, 65, 193, 96, 320
-0.996521, 219, 57, 234, 120
-0.996521, 205, 25, 236, 88
-0.996527, 133, 57, 164, 120
-0.996544, 1, 41, 500, 104
-0.996548, 209, 217, 336, 248
-0.996549, 97, 261, 224, 292
-0.996591, 93, 137, 124, 200
-0.996624, 85, 49, 116, 112
-0.996641, 161, 153, 416, 216
-0.996647, 225, 153, 352, 184
-0.996669, 17, 17, 144, 80
-0.996684, 209, 249, 336, 312
-0.996685, 329, 129, 344, 192
-0.996715, 199, 49, 214, 112
-0.996763, 161, 241, 192, 304
-0.996764, 241, 225, 304, 288
-0.996768, 1, 89, 256, 152
-0.99677, 49, 225, 176, 256
-0.996776, 229, 81, 260, 208
-0.996782, 65, 1, 128, 128
-0.996782, 33, 1, 288, 64
-0.996786, 93, 81, 124, 208
-0.996789, 65, 41, 128, 104
-0.996793, 257, 233, 500, 296
-0.996804, 313, 169, 376, 232
-0.996806, 211, 73, 226, 136
-0.996813, 125, 65, 156, 320
-0.996822, 323, 129, 338, 192
-0.996841, 171, 169, 186, 232
-0.996845, 129, 201, 256, 232
-0.996849, 97, 297, 224, 328
-0.996862, 379, 49, 394, 112
-0.996876, 195, 73, 210, 136
-0.996888, 233, 65, 248, 128
-0.996889, 225, 1, 352, 64
-0.996918, 263, 185, 278, 248
-0.996929, 209, 205, 336, 236
-0.996934, 45, 217, 60, 280
-0.996945, 181, 193, 196, 256
-0.996955, 385, 41, 400, 104
-0.996964, 137, 65, 168, 320
-0.99697, 1, 73, 500, 136
-0.996971, 337, 101, 464, 132
-0.996971, 153, 193, 168, 256
-0.996971, 187, 233, 202, 296
-0.996981, 337, 49, 368, 176
-0.996998, 49, 241, 80, 304
-0.997, 127, 89, 142, 152
-0.997003, 161, 237, 288, 268
-0.997025, 1, 121, 500, 184
-0.997036, 185, 257, 216, 320
-0.99706, 473, 137, 488, 200
-0.99706, 269, 193, 284, 256
-0.997104, 385, 97, 448, 224
-0.997107, 1, 265, 500, 328
-0.997108, 227, 73, 242, 136
-0.997117, 221, 217, 236, 280
-0.997135, 1, 185, 500, 248
-0.997141, 97, 121, 224, 152
-0.997159, 145, 25, 208, 88
-0.997159, 201, 81, 216, 144
-0.997162, 49, 237, 176, 268
-0.997172, 97, 165, 224, 196
-0.997178, 337, 145, 352, 208
-0.997194, 149, 217, 180, 280
-0.997218, 305, 265, 368, 328
-0.997239, 461, 177, 476, 240
-0.997268, 129, 265, 144, 328
-0.997273, 205, 33, 220, 96
-0.997293, 387, 17, 402, 80
-0.997296, 97, 153, 224, 184
-0.997309, 97, 101, 224, 132
-0.997317, 327, 153, 342, 216
-0.997318, 371, 57, 386, 120
-0.997321, 409, 81, 440, 144
-0.99733, 233, 9, 248, 72
-0.997338, 161, 113, 224, 240
-0.997339, 481, 209, 496, 272
-0.997347, 33, 257, 160, 288
-0.997368, 97, 141, 224, 172
-0.997368, 145, 177, 160, 240
-0.997372, 163, 169, 178, 232
-0.997376, 169, 137, 232, 200
-0.997376, 209, 161, 240, 288
-0.997376, 101, 265, 132, 328
-0.997398, 173, 41, 204, 104
-0.997407, 169, 97, 232, 160
-0.997421, 1, 129, 256, 192
-0.997431, 225, 1, 256, 256
-0.997438, 297, 129, 328, 192
-0.997447, 247, 65, 262, 128
-0.997467, 1, 213, 128, 244
-0.997467, 247, 41, 262, 104
-0.997468, 227, 1, 242, 64
-0.997471, 133, 81, 148, 144
-0.997472, 375, 25, 390, 88
-0.997474, 129, 41, 256, 72
-0.997474, 277, 177, 308, 304
-0.997475, 149, 65, 180, 320
-0.997479, 335, 121, 350, 184
-0.997482, 201, 1, 232, 256
-0.997488, 33, 1, 96, 331
-0.99749, 39, 209, 54, 272
-0.997495, 189, 1, 220, 256
-0.997498, 241, 105, 272, 168
-0.997505, 193, 161, 256, 224
-0.997511, 49, 193, 176, 224
-0.99753, 453, 193, 468, 256
-0.997534, 93, 113, 124, 176
-0.997551, 69, 193, 100, 256
-0.997555, 139, 89, 154, 152
-0.997556, 225, 25, 240, 88
-0.997556, 241, 73, 256, 136
-0.997558, 225, 129, 352, 160
-0.997558, 161, 65, 192, 320
-0.997578, 185, 49, 200, 112
-0.997582, 337, 121, 464, 152
-0.997588, 77, 209, 108, 331
-0.997588, 141, 233, 156, 296
-0.997589, 285, 169, 316, 232
-0.997595, 135, 249, 150, 312
-0.997602, 369, 161, 496, 192
-0.997611, 161, 161, 288, 192
-0.997617, 257, 265, 500, 328
-0.99762, 51, 217, 66, 280
-0.997629, 225, 185, 352, 216
-0.997633, 161, 257, 288, 288
-0.997633, 145, 209, 160, 272
-0.997635, 229, 209, 260, 331
-0.997642, 119, 153, 134, 216
-0.997645, 299, 177, 314, 240
-0.99766, 45, 193, 60, 256
-0.997665, 213, 1, 244, 256
-0.997669, 157, 57, 172, 120
-0.997671, 113, 265, 144, 328
-0.997675, 193, 77, 320, 108
-0.997679, 333, 133, 348, 164
-0.997682, 369, 45, 496, 76
-0.997698, 257, 33, 500, 96
-0.997704, 109, 1, 140, 64
-0.997706, 189, 81, 204, 144
-0.997707, 57, 1, 120, 64
-0.997713, 209, 229, 336, 260
-0.997721, 127, 145, 142, 208
-0.997722, 49, 181, 176, 212
-0.99773, 393, 17, 424, 80
-0.997755, 33, 277, 160, 308
-0.997758, 467, 185, 482, 248
-0.997758, 343, 113, 358, 176
-0.997763, 117, 105, 132, 168
-0.997768, 177, 1, 208, 256
-0.997772, 177, 233, 192, 296
-0.997776, 299, 201, 314, 264
-0.99779, 117, 129, 132, 192
-0.9978, 125, 233, 140, 296
-0.997801, 395, 41, 410, 104
-0.997802, 93, 177, 124, 240
-0.997805, 49, 109, 176, 140
-0.997805, 39, 233, 54, 296
-0.997809, 293, 193, 308, 256
-0.997809, 101, 89, 132, 152
-0.997809, 157, 169, 172, 232
-0.997811, 161, 177, 416, 240
-0.997819, 465, 113, 496, 176
-0.997824, 161, 293, 288, 324
-0.99783, 409, 161, 472, 224
-0.997831, 177, 53, 304, 84
-0.997838, 151, 161, 166, 224
-0.997842, 77, 161, 108, 288
-0.997842, 299, 129, 314, 192
-0.997843, 169, 209, 184, 272
-0.997853, 161, 281, 288, 312
-0.997862, 423, 73, 438, 136
-0.997865, 365, 65, 380, 128
-0.997868, 129, 53, 256, 84
-0.997877, 217, 81, 232, 144
-0.99788, 137, 249, 168, 312
-0.997881, 305, 161, 320, 224
-0.997881, 177, 65, 304, 96
-0.997881, 321, 301, 448, 331
-0.997887, 97, 29, 224, 60
-0.997893, 203, 233, 218, 296
-0.997897, 129, 189, 256, 220
-0.9979, 447, 193, 462, 256
-0.997902, 459, 201, 474, 264
-0.997904, 225, 165, 352, 196
-0.997907, 69, 217, 100, 280
-0.997928, 275, 193, 290, 256
-0.997938, 441, 65, 472, 320
-0.997949, 305, 201, 320, 264
-0.99795, 169, 65, 184, 128
-0.997955, 201, 77, 216, 108
-0.997958, 97, 177, 224, 208
-0.997962, 451, 137, 466, 200
-0.997967, 89, 73, 120, 136
-0.99797, 241, 1, 256, 64
-0.997974, 257, 193, 272, 256
-0.997982, 227, 73, 242, 104
-0.997985, 179, 81, 194, 144
-0.997993, 49, 161, 176, 192
-0.997996, 161, 269, 288, 300
-0.998, 33, 85, 160, 116
-0.998009, 323, 125, 338, 156
-0.998021, 261, 161, 276, 224
-0.998025, 189, 221, 204, 252
-0.998025, 93, 1, 124, 256
-0.998028, 107, 73, 122, 136
-0.998029, 381, 17, 396, 80
-0.998032, 161, 89, 288, 120
-0.998037, 151, 57, 166, 120
-0.998047, 379, 57, 394, 88
-0.998047, 161, 89, 176, 152
-0.99805, 267, 129, 282, 192
-0.998057, 139, 201, 154, 264
-0.998062, 325, 65, 356, 192
-0.998064, 345, 1, 376, 128
-0.998066, 211, 73, 226, 104
-0.998067, 123, 121, 138, 184
-0.998068, 281, 177, 296, 240
-0.998071, 59, 217, 74, 280
-0.998074, 101, 33, 116, 96
-0.998074, 177, 149, 304, 180
-0.998076, 49, 97, 176, 128
-0.998081, 289, 177, 320, 304
-0.998085, 131, 217, 146, 280
-0.998089, 241, 17, 272, 80
-0.998092, 273, 145, 400, 176
-0.998099, 461, 65, 492, 320
-0.998104, 289, 45, 416, 76
-0.998111, 213, 241, 228, 304
-0.998115, 463, 113, 478, 176
-0.998116, 313, 201, 328, 264
-0.998119, 237, 1, 268, 256
-0.998152, 251, 177, 266, 240
-0.998159, 287, 193, 302, 256
-0.998168, 33, 145, 160, 176
-0.998169, 209, 41, 224, 72
-0.998174, 151, 89, 166, 152
-0.998175, 441, 201, 456, 264
-0.99819, 193, 41, 208, 72
-0.998199, 145, 89, 160, 152
-0.9982, 337, 289, 464, 320
-0.9982, 417, 65, 432, 128
-0.998203, 411, 57, 426, 120
-0.998204, 103, 1, 118, 64
-0.998206, 1, 129, 128, 192
-0.998213, 113, 65, 144, 320
-0.998213, 369, 33, 384, 96
-0.998216, 111, 97, 126, 160
-0.998222, 33, 301, 160, 331
-0.998231, 97, 1, 112, 64
-0.998232, 1, 225, 128, 256
-0.998235, 49, 265, 112, 328
-0.998239, 181, 225, 196, 256
-0.998249, 405, 49, 420, 112
-0.998259, 217, 73, 232, 104
-0.99826, 199, 41, 214, 72
-0.998266, 387, 49, 402, 80
-0.998269, 105, 131, 136, 146
-0.998269, 137, 209, 168, 224
-0.99827, 21, 229, 52, 244
-0.998271, 113, 269, 144, 284
-0.998271, 121, 107, 152, 122
-0.998271, 289, 191, 320, 206
-0.998271, 121, 207, 152, 222
-0.998271, 129, 273, 160, 288
-0.998272, 245, 141, 276, 156
-0.998272, 241, 203, 272, 218
-0.998272, 145, 79, 176, 94
-0.998272, 265, 199, 296, 214
-0.998272, 229, 91, 260, 106
-0.998272, 265, 137, 296, 152
-0.998272, 469, 245, 500, 260
-0.998273, 245, 149, 276, 164
-0.998273, 313, 199, 344, 214
-0.998273, 157, 199, 188, 214
-0.998274, 315, 129, 330, 192
-0.998274, 305, 149, 336, 164
-0.998274, 113, 167, 144, 182
-0.998275, 165, 249, 196, 264
-0.998276, 353, 89, 368, 152
-0.998276, 469, 237, 500, 252
-0.998277, 33, 229, 64, 244
-0.998277, 237, 113, 268, 128
-0.998277, 385, 45, 416, 60
-0.998277, 109, 175, 140, 190
-0.998279, 105, 95, 136, 110
-0.99828, 117, 125, 148, 140
-0.99828, 329, 123, 360, 138
-0.99828, 117, 135, 148, 150
-0.99828, 469, 231, 500, 246
-0.99828, 25, 221, 56, 236
-0.998281, 337, 131, 368, 146
-0.998282, 451, 113, 466, 176
-0.998282, 169, 201, 200, 216
-0.998283, 465, 185, 496, 200
-0.998285, 333, 137, 364, 152
-0.998286, 141, 227, 172, 242
-0.998287, 221, 235, 252, 250
-0.998287, 429, 133, 460, 148
-0.998288, 149, 191, 180, 206
-0.998288, 175, 213, 190, 244
-0.998289, 161, 77, 192, 92
-0.998289, 261, 185, 292, 200
-0.998289, 113, 159, 144, 174
-0.998289, 133, 81, 164, 96
-0.998291, 177, 169, 192, 232
-0.998292, 17, 65, 80, 320
-0.998292, 113, 89, 144, 104
-0.998292, 465, 207, 496, 222
-0.998292, 197, 71, 228, 86
-0.998292, 117, 101, 148, 116
-0.998294, 169, 237, 200, 252
-0.998294, 253, 205, 284, 220
-0.998294, 469, 153, 500, 168
-0.998294, 429, 141, 460, 156
-0.998295, 121, 175, 152, 190
-0.998296, 121, 213, 152, 228
-0.998296, 253, 199, 284, 214
-0.998297, 245, 155, 276, 170
-0.998297, 245, 165, 276, 180
-0.998297, 305, 189, 336, 204
-0.9983, 185, 243, 216, 258
-0.998301, 205, 53, 236, 68
-0.998301, 469, 147, 500, 162
-0.998302, 117, 113, 148, 128
-0.998303, 121, 243, 152, 258
-0.998303, 373, 45, 404, 60
-0.998303, 209, 1, 224, 64
-0.998304, 445, 185, 476, 200
-0.998305, 277, 183, 308, 198
-0.998305, 101, 111, 132, 126
-0.998305, 445, 205, 476, 220
-0.998305, 125, 221, 156, 236
-0.998305, 309, 143, 340, 158
-0.998306, 113, 153, 144, 168
-0.998307, 321, 153, 352, 168
-0.998307, 213, 43, 244, 58
-0.998308, 37, 241, 68, 256
-0.998309, 373, 63, 404, 78
-0.998309, 181, 237, 212, 252
-0.998313, 129, 169, 160, 184
-0.998314, 157, 213, 188, 228
-0.998315, 145, 153, 160, 216
-0.998315, 113, 147, 144, 162
-0.998316, 113, 141, 144, 156
-0.998317, 247, 97, 262, 160
-0.998317, 141, 201, 172, 216
-0.998317, 125, 237, 156, 252
-0.998319, 37, 223, 68, 238
-0.99832, 465, 223, 496, 238
-0.99832, 465, 141, 480, 172
-0.998321, 181, 87, 212, 102
-0.998321, 129, 95, 160, 110
-0.998322, 37, 247, 68, 262
-0.998323, 227, 41, 242, 72
-0.998323, 233, 73, 248, 104
-0.998324, 201, 43, 232, 58
-0.998326, 141, 241, 172, 256
-0.998326, 445, 191, 476, 206
-0.998326, 465, 159, 496, 174
-0.998328, 185, 225, 216, 240
-0.998329, 289, 183, 320, 198
-0.998329, 235, 41, 250, 72
-0.99833, 229, 75, 260, 90
-0.998331, 465, 179, 496, 194
-0.998331, 221, 227, 252, 242
-0.998333, 189, 53, 220, 68
-0.998333, 217, 53, 248, 68
-0.998334, 441, 143, 472, 158
-0.998335, 141, 233, 172, 248
-0.998337, 185, 81, 216, 96
-0.998338, 193, 213, 224, 228
-0.998338, 309, 133, 340, 148
-0.998339, 469, 169, 484, 200
-0.99834, 177, 213, 208, 228
-0.99834, 273, 191, 304, 206
-0.998341, 209, 71, 240, 86
-0.998348, 215, 41, 230, 72
-0.998352, 127, 85, 142, 116
-0.998352, 361, 55, 392, 70
-0.998353, 125, 89, 156, 104
-0.998354, 173, 221, 204, 236
-0.998355, 465, 173, 496, 188
-0.998356, 33, 133, 160, 164
-0.998357, 195, 81, 210, 112
-0.998359, 377, 57, 408, 72
-0.998363, 181, 75, 212, 90
-0.998368, 125, 231, 156, 246
-0.998373, 237, 81, 268, 96
-0.998374, 325, 141, 340, 172
-0.99838, 321, 143, 352, 158
-0.998381, 153, 205, 184, 220
-0.998384, 381, 1, 412, 256
-0.998384, 369, 201, 496, 232
-0.998386, 465, 165, 496, 180
-0.998388, 393, 45, 408, 76
-0.998391, 321, 131, 352, 146
-0.998394, 225, 43, 256, 58
-0.998395, 217, 77, 248, 92
-0.998397, 197, 83, 228, 98
-0.998404, 217, 85, 248, 100
-0.998413, 215, 217, 230, 248
-0.998414, 453, 145, 484, 160
-0.998426, 337, 217, 464, 248
-0.998429, 1, 169, 64, 232
-0.998432, 481, 213, 496, 244
-0.998433, 465, 213, 496, 228
-0.998436, 205, 219, 236, 234
-0.998444, 321, 137, 352, 152
-0.998454, 185, 219, 216, 234
-0.998455, 369, 33, 496, 64
-0.99846, 221, 41, 236, 72
-0.998462, 373, 65, 388, 96
-0.998467, 189, 45, 220, 60
-0.998478, 205, 77, 236, 92
-0.998492, 385, 51, 416, 66
-0.998496, 325, 153, 340, 184
-0.998519, 473, 157, 488, 188
-0.998524, 201, 217, 216, 248
-0.998524, 353, 21, 480, 52
-0.998527, 177, 29, 304, 60
-0.99853, 185, 45, 248, 60
-0.998534, 177, 219, 240, 234
-0.998539, 137, 229, 152, 260
-0.998541, 219, 53, 234, 84
-0.998542, 81, 41, 208, 72
-0.99855, 33, 289, 160, 320
-0.998555, 1, 161, 500, 224
-0.998556, 145, 193, 160, 224
-0.998557, 369, 57, 432, 72
-0.998559, 49, 121, 176, 152
-0.998564, 257, 201, 384, 232
-0.99857, 145, 177, 272, 208
-0.99857, 185, 77, 248, 92
-0.998572, 237, 61, 252, 92
-0.998574, 137, 215, 200, 230
-0.998574, 185, 85, 248, 100
-0.998578, 225, 25, 352, 88
-0.998578, 177, 125, 304, 156
-0.99858, 425, 143, 488, 158
-0.998581, 321, 133, 448, 164
-0.998582, 319, 141, 334, 172
-0.998591, 137, 93, 152, 124
-0.998593, 47, 225, 62, 256
-0.998597, 261, 201, 276, 232
-0.998599, 129, 209, 192, 224
-0.998606, 81, 61, 208, 92
-0.998606, 273, 129, 400, 160
-0.998606, 137, 239, 200, 254
-0.998608, 369, 51, 432, 66
-0.998614, 433, 213, 496, 228
-0.998614, 239, 73, 254, 104
-0.998616, 213, 57, 228, 88
-0.998616, 153, 75, 216, 90
-0.998617, 113, 167, 176, 182
-0.998617, 303, 177, 318, 208
-0.998617, 257, 289, 384, 320
-0.998618, 369, 63, 432, 78
-0.99862, 169, 225, 232, 240
-0.998622, 433, 225, 496, 240
-0.998624, 433, 205, 496, 220
-0.998626, 117, 161, 132, 192
-0.998626, 207, 217, 222, 248
-0.998628, 209, 77, 272, 92
-0.99863, 97, 233, 160, 248
-0.998631, 297, 143, 360, 158
-0.998633, 321, 277, 448, 308
-0.998636, 209, 85, 272, 100
-0.998637, 137, 249, 200, 264
-0.998639, 121, 95, 184, 110
-0.998639, 137, 233, 200, 248
-0.998643, 433, 231, 496, 246
-0.998643, 433, 219, 496, 234
-0.998644, 169, 243, 232, 258
-0.998645, 473, 145, 488, 176
-0.99865, 457, 189, 472, 220
-0.99865, 297, 137, 360, 152
-0.99865, 237, 85, 252, 116
-0.99865, 1, 201, 128, 232
-0.998651, 177, 231, 240, 246
-0.998653, 113, 239, 176, 254
-0.998653, 185, 53, 248, 68
-0.998653, 113, 175, 176, 190
-0.998654, 129, 221, 192, 236
-0.998654, 161, 81, 224, 96
-0.998658, 97, 221, 160, 236
-0.998661, 189, 73, 204, 104
-0.998662, 17, 219, 80, 234
-0.998662, 129, 203, 192, 218
-0.998663, 409, 33, 440, 288
-0.998663, 41, 239, 104, 254
-0.998664, 81, 175, 144, 190
-0.998665, 129, 193, 192, 208
-0.998666, 217, 225, 280, 240
-0.998666, 177, 137, 304, 168
-0.998666, 401, 17, 432, 144
-0.998667, 137, 317, 200, 331
-0.998667, 257, 191, 320, 206
-0.99867, 381, 45, 396, 76
-0.99867, 137, 227, 200, 242
-0.998671, 81, 101, 144, 116
-0.998671, 227, 221, 242, 252
-0.998671, 113, 227, 176, 242
-0.998674, 17, 227, 80, 242
-0.998674, 257, 137, 320, 152
-0.998675, 217, 217, 280, 232
-0.998675, 37, 221, 52, 252
-0.998676, 127, 157, 142, 188
-0.998677, 345, 47, 408, 62
-0.998678, 185, 237, 200, 268
-0.99868, 433, 199, 496, 214
-0.99868, 113, 181, 176, 196
-0.998681, 81, 145, 144, 160
-0.998682, 257, 183, 320, 198
-0.998682, 195, 225, 210, 256
-0.998684, 89, 271, 152, 286
-0.998685, 433, 185, 496, 200
-0.998685, 153, 89, 216, 104
-0.998685, 281, 187, 344, 202
-0.998686, 297, 131, 360, 146
-0.998686, 209, 43, 272, 58
-0.998686, 209, 211, 272, 226
-0.998686, 161, 213, 224, 228
-0.998687, 201, 91, 264, 106
-0.998689, 137, 255, 200, 270
-0.998689, 81, 115, 144, 130
-0.998689, 81, 151, 144, 166
-0.998689, 153, 47, 216, 62
-0.99869, 329, 57, 392, 72
-0.99869, 467, 157, 482, 188
-0.998691, 81, 107, 144, 122
-0.998691, 297, 149, 360, 164
-0.998691, 81, 95, 144, 110
-0.998692, 41, 245, 104, 260
-0.998693, 97, 89, 160, 104
-0.998693, 41, 225, 104, 240
-0.998694, 81, 133, 144, 148
-0.998694, 73, 219, 136, 234
-0.998694, 81, 121, 144, 136
-0.998694, 169, 209, 184, 240
-0.998695, 417, 87, 480, 102
-0.998696, 129, 187, 192, 202
-0.998696, 409, 71, 472, 86
-0.998697, 177, 91, 240, 106
-0.998697, 425, 131, 488, 146
-0.998698, 97, 211, 160, 226
-0.998698, 41, 233, 104, 248
-0.998699, 81, 159, 144, 174
-0.998699, 81, 139, 144, 154
-0.9987, 429, 65, 460, 320
-0.9987, 433, 165, 496, 180
-0.998701, 433, 191, 496, 206
-0.998702, 185, 71, 248, 86
-0.998702, 81, 169, 144, 184
-0.998703, 189, 89, 204, 120
-0.998703, 137, 83, 200, 98
-0.998703, 129, 263, 192, 278
-0.998703, 113, 161, 176, 176
-0.998703, 49, 209, 112, 224
-0.998703, 209, 71, 272, 86
-0.998704, 233, 185, 296, 200
-0.998705, 185, 39, 248, 54
-0.998705, 209, 235, 272, 250
-0.998705, 417, 77, 480, 92
-0.998705, 433, 237, 496, 252
-0.998706, 409, 63, 472, 78
-0.998706, 81, 127, 144, 142
-0.998706, 335, 121, 350, 152
-0.998706, 199, 53, 214, 84
-0.998706, 129, 1, 256, 32
-0.998707, 49, 215, 112, 230
-0.998707, 117, 125, 132, 156
-0.998707, 401, 139, 464, 154
-0.998707, 425, 149, 488, 164
-0.998708, 121, 149, 184, 164
-0.998709, 121, 137, 184, 152
-0.99871, 425, 159, 488, 174
-0.998711, 121, 113, 184, 128
-0.998711, 33, 251, 96, 266
-0.998712, 121, 269, 184, 284
-0.998713, 433, 179, 496, 194
-0.998713, 185, 213, 248, 228
-0.998713, 121, 275, 184, 290
-0.998713, 17, 233, 80, 248
-0.998714, 281, 181, 344, 196
-0.998715, 417, 93, 480, 108
-0.998716, 173, 197, 188, 228
-0.998716, 121, 121, 184, 136
-0.998716, 193, 225, 256, 240
-0.998717, 337, 63, 400, 78
-0.998717, 1, 17, 500, 80
-0.998717, 49, 237, 64, 268
-0.998717, 313, 197, 328, 228
-0.998717, 425, 137, 488, 152
-0.998718, 233, 191, 296, 206
-0.998718, 9, 211, 72, 226
-0.998719, 17, 257, 80, 272
-0.998719, 161, 199, 224, 214
-0.998719, 177, 237, 240, 252
-0.998719, 89, 243, 152, 258
-0.998719, 401, 53, 464, 68
-0.998719, 177, 263, 240, 278
-0.998719, 89, 181, 152, 196
-0.998723, 231, 61, 246, 92
-0.998728, 123, 169, 138, 200
-0.998736, 273, 65, 304, 320
-0.998746, 191, 53, 206, 84
-0.998748, 89, 129, 120, 256
-0.998749, 49, 113, 112, 240
-0.998749, 143, 221, 158, 252
-0.998752, 275, 189, 290, 220
-0.998754, 303, 189, 318, 220
-0.998767, 337, 65, 368, 320
-0.998776, 459, 141, 474, 172
-0.998776, 219, 29, 234, 60
-0.998777, 399, 49, 414, 80
-0.998778, 237, 29, 252, 60
-0.99878, 241, 45, 256, 76
-0.99879, 145, 241, 160, 272
-0.998791, 39, 233, 54, 264
-0.998796, 467, 209, 482, 240
-0.998797, 463, 173, 478, 204
-0.9988, 117, 149, 132, 180
-0.998801, 281, 185, 296, 216
-0.998803, 131, 269, 146, 300
-0.998805, 369, 1, 400, 256
-0.998808, 257, 213, 384, 244
-0.998813, 163, 189, 178, 220
-0.998816, 111, 113, 126, 144
-0.998818, 147, 209, 162, 240
-0.998819, 129, 221, 144, 252
-0.998822, 247, 81, 262, 112
-0.998825, 155, 201, 170, 232
-0.998831, 309, 153, 324, 184
-0.998837, 289, 57, 416, 88
-0.998838, 331, 145, 346, 176
-0.998839, 181, 73, 196, 104
-0.998842, 335, 165, 350, 196
-0.998843, 41, 245, 56, 276
-0.998844, 27, 209, 42, 240
-0.998847, 177, 249, 192, 280
-0.998849, 181, 205, 196, 236
-0.998853, 337, 149, 352, 180
-0.998853, 419, 69, 434, 100
-0.998854, 413, 61, 428, 92
-0.998855, 1, 245, 128, 276
-0.998856, 175, 225, 190, 256
-0.998856, 247, 45, 262, 76
-0.998857, 57, 65, 120, 128
-0.998857, 285, 65, 316, 320
-0.998858, 309, 185, 324, 216
-0.998866, 369, 229, 496, 260
-0.998875, 127, 101, 142, 132
-0.998877, 387, 37, 402, 68
-0.998878, 117, 137, 132, 168
-0.998883, 457, 201, 472, 232
-0.998883, 225, 53, 240, 84
-0.998885, 181, 89, 196, 120
-0.998886, 107, 93, 122, 124
-0.998888, 405, 53, 420, 84
-0.998891, 173, 73, 188, 104
-0.998901, 145, 169, 160, 200
-0.998902, 451, 141, 466, 172
-0.998906, 195, 213, 210, 244
-0.998906, 167, 73, 182, 104
-0.998906, 221, 229, 236, 260
-0.998906, 241, 9, 304, 72
-0.998909, 369, 189, 496, 220
-0.99891, 241, 17, 304, 144
-0.998911, 177, 193, 304, 224
-0.998916, 117, 113, 132, 144
-0.998917, 341, 121, 356, 152
-0.998918, 45, 205, 60, 236
-0.998919, 225, 1, 240, 32
-0.998925, 275, 201, 290, 232
-0.998925, 433, 25, 496, 88
-0.998925, 253, 189, 268, 220
-0.998927, 135, 257, 150, 288
-0.998928, 205, 53, 220, 84
-0.99893, 121, 269, 136, 300
-0.998931, 373, 49, 388, 80
-0.998936, 177, 237, 192, 268
-0.998939, 99, 61, 114, 92
-0.998941, 321, 265, 448, 296
-0.998944, 297, 197, 312, 228
-0.998944, 367, 69, 382, 100
-0.998946, 117, 93, 132, 124
-0.998959, 349, 1, 380, 256
-0.998989, 257, 117, 384, 148
-0.999012, 289, 189, 416, 220
-0.99903, 369, 177, 496, 208
-0.999046, 249, 249, 312, 312
-0.99905, 225, 33, 352, 64
-0.999056, 241, 249, 368, 280
-0.999072, 353, 9, 480, 40
-0.999076, 273, 69, 400, 100
-0.999081, 49, 73, 176, 104
-0.999086, 253, 65, 284, 320
-0.999098, 253, 65, 284, 192
-0.999099, 177, 1, 304, 32
-0.999113, 459, 129, 474, 256
-0.999117, 257, 301, 384, 331
-0.99912, 305, 209, 336, 331
-0.999123, 9, 1, 72, 331
-0.999142, 145, 101, 272, 132
-0.999157, 385, 185, 448, 248
-0.999161, 145, 113, 272, 144
-0.999168, 241, 81, 304, 144
-0.999187, 469, 129, 484, 256
-0.999203, 81, 1, 208, 32
-0.999211, 121, 41, 184, 104
-0.999221, 257, 277, 384, 308
-0.999226, 209, 209, 224, 331
-0.999227, 189, 209, 204, 331
-0.999237, 97, 13, 224, 44
-0.999239, 139, 81, 154, 208
-0.999244, 133, 81, 148, 208
-0.999246, 127, 81, 142, 208
-0.999259, 453, 129, 468, 256
-0.99926, 257, 97, 384, 128
-0.999272, 217, 209, 232, 331
-0.999294, 191, 33, 206, 160
-0.999303, 145, 161, 160, 288
-0.99931, 199, 65, 214, 192
-0.999311, 213, 65, 228, 192
-0.999317, 257, 81, 384, 112
-0.999325, 177, 209, 192, 331
-0.999326, 321, 253, 448, 284
-0.999338, 393, 1, 424, 256
-0.999345, 289, 33, 416, 64
-0.999351, 369, 273, 496, 304
-0.99936, 447, 129, 462, 256
-0.999364, 235, 33, 250, 160
-0.999367, 377, 49, 392, 176
-0.999367, 209, 113, 336, 144
-0.999368, 191, 81, 206, 208
-0.999379, 349, 97, 380, 224
-0.999381, 165, 161, 180, 288
-0.999383, 207, 49, 222, 176
-0.999384, 289, 177, 416, 208
-0.999402, 45, 161, 76, 288
-0.999408, 461, 177, 476, 304
-0.99941, 201, 209, 216, 331
-0.999412, 481, 209, 496, 331
-0.999413, 273, 157, 400, 188
-0.999414, 297, 65, 328, 320
-0.999416, 383, 1, 398, 128
-0.999419, 219, 65, 234, 192
-0.99942, 227, 65, 242, 192
-0.999422, 177, 65, 192, 192
-0.999427, 453, 193, 468, 320
-0.999432, 151, 193, 166, 320
-0.999439, 17, 13, 144, 44
-0.999442, 225, 1, 240, 128
-0.999442, 321, 145, 448, 176
-0.999442, 367, 49, 382, 176
-0.999443, 185, 65, 200, 192
-0.999445, 203, 1, 218, 128
-0.999446, 149, 81, 164, 208
-0.999446, 119, 145, 134, 272
-0.999449, 265, 129, 280, 256
-0.999452, 179, 161, 194, 288
-0.999457, 257, 9, 500, 72
-0.999458, 167, 81, 182, 208
-0.999458, 139, 177, 154, 304
-0.999463, 121, 97, 136, 224
-0.999464, 367, 1, 382, 128
-0.999468, 329, 113, 344, 240
-0.99947, 219, 17, 234, 144
-0.999473, 145, 13, 272, 44
-0.999477, 157, 161, 172, 288
-0.999479, 127, 129, 142, 256
-0.999487, 131, 95, 146, 110
-0.999487, 293, 183, 308, 198
-0.999488, 135, 89, 150, 104
-0.999488, 471, 145, 486, 160
-0.999488, 247, 45, 262, 60
-0.999488, 465, 211, 480, 226
-0.999488, 279, 191, 294, 206
-0.999488, 205, 53, 220, 68
-0.999489, 117, 95, 132, 110
-0.999489, 115, 113, 130, 128
-0.999489, 299, 129, 314, 256
-0.99949, 137, 95, 152, 110
-0.99949, 157, 203, 172, 218
-0.99949, 143, 229, 158, 244
-0.99949, 281, 183, 296, 198
-0.999491, 457, 191, 472, 206
-0.999491, 261, 205, 276, 220
-0.999491, 219, 69, 234, 84
-0.999491, 469, 159, 484, 174
-0.999491, 247, 37, 262, 52
-0.999491, 231, 41, 246, 56
-0.999492, 321, 153, 336, 168
-0.999493, 225, 231, 240, 246
-0.999494, 137, 241, 152, 256
-0.999494, 459, 143, 474, 158
-0.999494, 223, 1, 238, 16
-0.999494, 335, 165, 350, 180
-0.999494, 119, 179, 134, 194
-0.999494, 191, 53, 206, 68
-0.999495, 125, 99, 140, 114
-0.999495, 117, 141, 132, 156
-0.999495, 171, 177, 186, 304
-0.999495, 105, 61, 120, 76
-0.999496, 39, 247, 54, 262
-0.999496, 235, 71, 250, 86
-0.999496, 95, 9, 110, 24
-0.999497, 177, 251, 192, 266
-0.999498, 245, 53, 260, 68
-0.999499, 457, 201, 472, 216
-0.999499, 177, 237, 192, 252
-0.999499, 101, 15, 116, 30
-0.999499, 291, 191, 306, 206
-0.9995, 223, 209, 238, 331
-0.999502, 245, 83, 260, 98
-0.999502, 257, 233, 384, 264
-0.999502, 243, 71, 258, 86
-0.999502, 235, 81, 250, 208
-0.999503, 117, 135, 132, 150
-0.999505, 457, 185, 472, 200
-0.999505, 339, 133, 354, 148
-0.999505, 423, 65, 438, 192
-0.999506, 227, 53, 242, 68
-0.999506, 451, 143, 466, 158
-0.999506, 107, 113, 122, 128
-0.999506, 299, 181, 314, 196
-0.999506, 155, 81, 170, 208
-0.999507, 95, 17, 110, 32
-0.999507, 273, 187, 288, 202
-0.999507, 333, 141, 348, 156
-0.999507, 117, 125, 132, 140
-0.999507, 239, 83, 254, 98
-0.999507, 145, 201, 160, 216
-0.999508, 117, 155, 132, 170
-0.999509, 463, 169, 478, 184
-0.999509, 373, 1, 388, 128
-0.99951, 369, 59, 384, 74
-0.999512, 239, 53, 254, 68
-0.999512, 123, 87, 138, 102
-0.999513, 143, 235, 158, 250
-0.999514, 173, 199, 188, 214
-0.999514, 201, 85, 216, 100
-0.999515, 123, 173, 138, 188
-0.999515, 237, 93, 252, 108
-0.999517, 209, 43, 224, 58
-0.999517, 43, 239, 58, 254
-0.999518, 201, 71, 216, 86
-0.999518, 127, 165, 142, 180
-0.999518, 127, 149, 142, 164
-0.999519, 161, 81, 176, 208
-0.999519, 123, 157, 138, 172
-0.99952, 39, 221, 54, 236
-0.99952, 183, 209, 198, 331
-0.999521, 219, 43, 234, 58
-0.999521, 265, 197, 280, 212
-0.999522, 117, 161, 132, 176
-0.999522, 401, 49, 416, 64
-0.999523, 471, 165, 486, 180
-0.999523, 441, 129, 456, 256
-0.999523, 99, 61, 114, 76
-0.999524, 379, 51, 394, 66
-0.999526, 181, 215, 196, 230
-0.999527, 275, 129, 290, 256
-0.999527, 327, 155, 342, 170
-0.999527, 371, 67, 386, 82
-0.999527, 147, 195, 162, 210
-0.999528, 385, 47, 400, 62
-0.999528, 195, 193, 210, 320
-0.999529, 183, 237, 198, 252
-0.999529, 467, 179, 482, 194
-0.99953, 223, 75, 238, 90
-0.99953, 219, 53, 234, 68
-0.999531, 175, 219, 190, 234
-0.999531, 209, 217, 224, 232
-0.999531, 241, 77, 256, 92
-0.999533, 305, 201, 432, 232
-0.999533, 391, 17, 406, 144
-0.999533, 339, 127, 354, 142
-0.999534, 233, 83, 248, 98
-0.999534, 289, 13, 416, 44
-0.999534, 323, 137, 338, 152
-0.999535, 169, 211, 184, 226
-0.999537, 337, 241, 464, 272
-0.999538, 445, 193, 460, 320
-0.999538, 51, 241, 66, 256
-0.99954, 225, 43, 240, 58
-0.99954, 213, 69, 228, 84
-0.999541, 1, 189, 128, 220
-0.999541, 193, 77, 208, 92
-0.999542, 381, 57, 396, 72
-0.999542, 237, 43, 252, 58
-0.999542, 241, 33, 256, 160
-0.999543, 467, 177, 482, 304
-0.999543, 217, 75, 232, 90
-0.999544, 481, 215, 496, 230
-0.999545, 227, 225, 242, 240
-0.999548, 119, 167, 134, 182
-0.999549, 383, 49, 398, 176
-0.99955, 151, 145, 166, 272
-0.99955, 47, 193, 62, 320
-0.999551, 323, 113, 338, 240
-0.999551, 475, 145, 490, 272
-0.999551, 177, 227, 192, 242
-0.999552, 199, 45, 214, 60
-0.999555, 339, 113, 354, 240
-0.999555, 309, 157, 324, 172
-0.999559, 309, 65, 340, 320
-0.999559, 323, 143, 338, 158
-0.999559, 101, 1, 116, 128
-0.99956, 481, 161, 496, 288
-0.99956, 223, 85, 238, 100
-0.999564, 209, 161, 224, 288
-0.999564, 193, 85, 208, 100
-0.999566, 185, 221, 200, 236
-0.999567, 333, 129, 348, 144
-0.999568, 213, 17, 228, 144
-0.999569, 361, 1, 376, 128
-0.999569, 197, 17, 212, 144
-0.99957, 465, 145, 480, 160
-0.999571, 217, 219, 232, 234
-0.999574, 355, 33, 370, 160
-0.999574, 369, 261, 496, 292
-0.999574, 389, 53, 404, 68
-0.999575, 115, 97, 130, 224
-0.999576, 201, 161, 216, 288
-0.999577, 243, 81, 258, 208
-0.999578, 469, 173, 484, 188
-0.999578, 249, 49, 264, 176
-0.999579, 197, 223, 212, 238
-0.999581, 109, 113, 124, 240
-0.999582, 39, 193, 54, 320
-0.999582, 211, 75, 226, 90
-0.999583, 235, 77, 250, 92
-0.999583, 395, 49, 410, 64
-0.999584, 329, 161, 344, 288
-0.999586, 129, 87, 144, 102
-0.999587, 81, 1, 112, 256
-0.999587, 377, 63, 392, 78
-0.999589, 229, 75, 244, 90
-0.99959, 263, 177, 278, 304
-0.999591, 139, 33, 154, 160
-0.999593, 369, 301, 496, 331
-0.999594, 401, 33, 416, 160
-0.9996, 361, 49, 376, 176
-0.999603, 185, 161, 200, 288
-0.999607, 17, 25, 144, 56
-0.999607, 127, 33, 142, 160
-0.999609, 1, 97, 128, 160
-0.999611, 91, 1, 106, 128
-0.999613, 133, 193, 148, 320
-0.999613, 241, 209, 272, 331
-0.999616, 435, 129, 450, 256
-0.999616, 201, 79, 216, 94
-0.999617, 29, 193, 44, 320
-0.999619, 323, 131, 338, 146
-0.99962, 149, 1, 164, 128
-0.999621, 345, 265, 408, 328
-0.999621, 155, 33, 170, 160
-0.999622, 243, 129, 258, 256
-0.999625, 453, 65, 468, 192
-0.999626, 333, 135, 348, 150
-0.999628, 413, 49, 428, 176
-0.999631, 269, 177, 284, 304
-0.999638, 17, 61, 144, 92
-0.999639, 191, 219, 206, 234
-0.999641, 289, 129, 304, 256
-0.999643, 347, 97, 362, 224
-0.999643, 201, 217, 216, 232
-0.999644, 135, 129, 150, 256
-0.999647, 305, 145, 320, 272
-0.999647, 191, 45, 206, 60
-0.999649, 257, 177, 272, 304
-0.999649, 255, 97, 270, 224
-0.999651, 185, 17, 200, 144
-0.999657, 125, 177, 140, 304
-0.99966, 439, 193, 454, 320
-0.999662, 235, 161, 250, 288
-0.999663, 117, 49, 132, 176
-0.999665, 313, 129, 328, 256
-0.999666, 215, 161, 230, 288
-0.999671, 283, 129, 298, 256
-0.999675, 59, 193, 74, 320
-0.999679, 107, 33, 122, 160
-0.999679, 323, 161, 338, 288
-0.99968, 335, 161, 350, 288
-0.999681, 113, 161, 128, 288
-0.999685, 93, 177, 108, 304
-0.999686, 469, 81, 484, 208
-0.999691, 311, 177, 326, 304
-0.999693, 407, 49, 422, 176
-0.999697, 171, 33, 186, 160
-0.999698, 461, 81, 476, 208
-0.999702, 349, 33, 364, 160
-0.999709, 145, 209, 160, 331
-0.999712, 83, 209, 98, 331
-0.999716, 165, 33, 180, 160
-0.999719, 105, 161, 120, 288
-0.999722, 433, 65, 448, 192
-0.999723, 353, 81, 368, 208
-0.999726, 103, 97, 118, 224
-0.99976, 129, 1, 192, 64
-0.999915, 321, 33, 352, 288
-0.999925, 265, 81, 296, 208
-0.999995, 1, 49, 128, 112
-1.00003, 69, 65, 100, 320
-1.00006, 153, 209, 184, 331
-1.00006, 333, 145, 364, 272
-1.00018, 1, 17, 128, 144
-1.0002, 385, 209, 448, 272
-1.00021, 429, 17, 460, 144
-1.00027, 29, 65, 60, 320
-1.00028, 433, 1, 496, 64
-1.00042, 9, 193, 40, 320
-1.00047, 57, 65, 88, 320
-1.0005, 45, 65, 76, 320
-1.0006, 417, 129, 448, 256
-1.00062, 17, 65, 48, 320
-1.00067, 313, 25, 376, 88
-1.00074, 5, 65, 36, 320
-1.00075, 317, 209, 348, 331
-1.00078, 369, 1, 432, 64
-1.00092, 297, 81, 328, 208
-1.00101, 253, 1, 284, 128
-1.00111, 453, 33, 484, 160
-1.00113, 285, 81, 316, 208
-1.00123, 57, 89, 120, 152
-1.00143, 385, 161, 448, 288
-1.0015, 465, 49, 496, 176
-1.00152, 413, 1, 444, 128
-1.00154, 33, 145, 64, 272
-1.00159, 73, 113, 104, 240
-1.0016, 309, 65, 340, 192
-1.00172, 469, 1, 500, 128
-1.00178, 77, 33, 108, 160
-1.00198, 417, 209, 448, 331
-1.00207, 49, 121, 112, 184
-1.00216, 377, 257, 440, 320
-1.00218, 345, 105, 408, 168
-1.00294, 21, 161, 52, 288
-1.00296, 337, 209, 368, 331
-1.00298, 57, 49, 120, 176
-1.003, 333, 1, 364, 128
-1.00308, 217, 113, 248, 240
-1.00309, 9, 145, 40, 272
-1.00351, 57, 145, 88, 272
-1.00466, 385, 209, 448, 331
-1.00485, 205, 113, 236, 240
-1.00522, 345, 209, 408, 331
-1.00543, 441, 1, 472, 128
-1.00567, 401, 209, 432, 331
-1.00574, 45, 113, 76, 240
-1.00575, 357, 209, 388, 331
-1.00576, 1, 113, 64, 240
-1.00581, 65, 1, 96, 128
-1.00642, 265, 17, 296, 144
-1.00655, 329, 161, 392, 288
-1.00672, 41, 1, 104, 128
-1.00702, 289, 33, 320, 160
-1.00721, 21, 113, 52, 240
-1.00721, 5, 97, 36, 224
-1.00729, 277, 33, 308, 160
-1.00741, 65, 49, 96, 176
-1.00746, 373, 81, 404, 208
-1.00757, 309, 1, 340, 128
-1.00774, 57, 97, 88, 224
-1.00791, 321, 17, 352, 144
-1.00794, 25, 113, 88, 240
-1.00878, 273, 33, 336, 160
-1.01065, 9, 65, 72, 192
-1.01078, 9, 1, 72, 128
-1.01097, 33, 49, 96, 176
-1.01146, 361, 113, 424, 240
-1.01555, 353, 161, 416, 288
