1952
-0.149847, 1, 1, 500, 375
-0.253505, 33, 1, 288, 375
-0.276072, 1, 129, 500, 375
-0.321486, 193, 1, 448, 375
-0.327071, 1, 33, 500, 288
-0.473667, 33, 129, 288, 375
-0.509601, 65, 1, 320, 256
-0.534758, 193, 97, 448, 352
-0.633927, 257, 1, 500, 256
-0.635, 161, 1, 416, 256
-0.804295, 97, 1, 224, 375
-0.818175, 81, 65, 208, 320
-0.820962, 145, 1, 272, 375
-0.839442, 1, 193, 500, 320
-0.842762, 145, 129, 272, 375
-0.84529, 129, 1, 256, 256
-0.847182, 193, 129, 320, 375
-0.847944, 49, 1, 176, 375
-0.854538, 289, 1, 416, 375
-0.85845, 337, 1, 464, 375
-0.859886, 1, 129, 128, 375
-0.861067, 1, 97, 500, 224
-0.862193, 1, 1, 128, 256
-0.86453, 1, 145, 500, 272
-0.86666, 1, 1, 128, 375
-0.873662, 273, 33, 400, 288
-0.873662, 337, 129, 464, 375
-0.874478, 177, 1, 304, 256
-0.876763, 241, 129, 368, 375
-0.879108, 1, 1, 500, 128
-0.880853, 193, 1, 320, 375
-0.884411, 1, 241, 500, 368
-0.892233, 1, 49, 500, 176
-0.899106, 321, 1, 448, 256
-0.899167, 97, 129, 352, 256
-0.900775, 241, 1, 368, 375
-0.902857, 193, 81, 448, 208
-0.904862, 65, 81, 320, 208
-0.905401, 161, 225, 416, 352
-0.906106, 289, 129, 416, 375
-0.907853, 161, 177, 416, 304
-0.910684, 129, 1, 384, 128
-0.913332, 65, 209, 320, 336
-0.914651, 369, 1, 496, 256
-0.917325, 257, 241, 500, 368
-0.918461, 81, 81, 208, 208
-0.920394, 161, 225, 224, 352
-0.921659, 1, 161, 256, 288
-0.922953, 97, 161, 224, 288
-0.923334, 193, 145, 320, 272
-0.923832, 257, 129, 500, 256
-0.924316, 169, 145, 232, 272
-0.925858, 129, 225, 256, 352
-0.928058, 321, 241, 448, 368
-0.92909, 17, 1, 144, 128
-0.929321, 257, 33, 500, 160
-0.930593, 225, 33, 352, 288
-0.930669, 193, 241, 320, 368
-0.931428, 249, 145, 312, 272
-0.932867, 145, 129, 272, 256
-0.93346, 105, 49, 168, 176
-0.934089, 17, 145, 144, 272
-0.934483, 305, 1, 432, 128
-0.934554, 209, 209, 272, 336
-0.935158, 137, 241, 200, 368
-0.935515, 209, 113, 272, 240
-0.936338, 129, 81, 256, 208
-0.936547, 241, 241, 368, 368
-0.937356, 145, 97, 208, 224
-0.937502, 129, 1, 256, 128
-0.937861, 337, 193, 464, 320
-0.938588, 257, 81, 384, 208
-0.938851, 73, 1, 136, 128
-0.939299, 353, 1, 416, 128
-0.939506, 169, 97, 232, 224
-0.939625, 193, 193, 320, 320
-0.939826, 257, 193, 500, 320
-0.939985, 193, 113, 256, 176
-0.94036, 185, 225, 248, 352
-0.940696, 81, 81, 144, 208
-0.941272, 145, 305, 208, 368
-0.941622, 145, 161, 208, 288
-0.941763, 33, 17, 288, 144
-0.942184, 177, 81, 304, 208
-0.942435, 49, 225, 176, 352
-0.942551, 337, 241, 400, 368
-0.942578, 169, 137, 232, 200
-0.944247, 57, 145, 120, 272
-0.944396, 65, 1, 192, 128
-0.944626, 225, 137, 288, 200
-0.94533, 153, 113, 216, 176
-0.945556, 153, 217, 216, 280
-0.946106, 1, 65, 128, 192
-0.94612, 305, 1, 368, 128
-0.946292, 249, 193, 312, 320
-0.946838, 273, 193, 400, 320
-0.947445, 401, 241, 464, 368
-0.947519, 233, 97, 296, 224
-0.947722, 377, 241, 440, 368
-0.948215, 1, 193, 128, 320
-0.948439, 49, 1, 112, 128
-0.948816, 193, 161, 256, 288
-0.948952, 97, 177, 160, 304
-0.949241, 57, 97, 120, 224
-0.949507, 193, 137, 256, 200
-0.949957, 97, 225, 160, 352
-0.950182, 241, 161, 304, 224
-0.950694, 121, 129, 184, 256
-0.950904, 121, 137, 184, 200
-0.951186, 193, 217, 256, 280
-0.951335, 353, 1, 480, 128
-0.951385, 153, 1, 216, 128
-0.951975, 57, 193, 120, 320
-0.952316, 129, 281, 192, 344
-0.952491, 105, 65, 168, 128
-0.952948, 97, 129, 160, 256
-0.952977, 177, 193, 240, 256
-0.953202, 265, 97, 328, 224
-0.953548, 169, 161, 232, 224
-0.95361, 385, 1, 448, 128
-0.953809, 297, 225, 360, 352
-0.953901, 97, 169, 160, 232
-0.954077, 393, 65, 456, 192
-0.95412, 201, 241, 264, 304
-0.954157, 337, 129, 464, 256
-0.954166, 145, 137, 208, 200
-0.954228, 329, 1, 392, 128
-0.954637, 193, 65, 256, 192
-0.954816, 153, 249, 216, 312
-0.955029, 209, 161, 272, 224
-0.955121, 161, 1, 224, 64
-0.95579, 145, 177, 272, 304
-0.955901, 249, 121, 312, 184
-0.955938, 145, 169, 208, 232
-0.956226, 57, 153, 120, 216
-0.956574, 153, 89, 216, 152
-0.956736, 305, 1, 368, 64
-0.956941, 337, 49, 464, 176
-0.957336, 33, 65, 96, 192
-0.957359, 1, 1, 64, 128
-0.957664, 401, 281, 464, 344
-0.958276, 249, 241, 312, 368
-0.958514, 145, 49, 208, 176
-0.958658, 121, 1, 184, 128
-0.958878, 313, 65, 376, 192
-0.95922, 201, 185, 264, 248
-0.95933, 425, 1, 488, 128
-0.959366, 97, 145, 160, 208
-0.959472, 129, 97, 192, 160
-0.95971, 97, 1, 160, 128
-0.959747, 105, 89, 168, 152
-0.959997, 401, 193, 464, 320
-0.960044, 345, 177, 408, 304
-0.960106, 73, 1, 136, 64
-0.96012, 193, 97, 256, 352
-0.960171, 81, 97, 144, 160
-0.960663, 329, 1, 392, 64
-0.961667, 249, 193, 312, 256
-0.961708, 217, 113, 280, 176
-0.962101, 33, 1, 96, 64
-0.962141, 377, 193, 440, 320
-0.962618, 273, 129, 400, 256
-0.962752, 9, 193, 72, 320
-0.962987, 265, 313, 328, 375
-0.963177, 425, 241, 488, 368
-0.963205, 369, 241, 496, 368
-0.963231, 57, 129, 120, 375
-0.963531, 65, 241, 128, 368
-0.963622, 289, 81, 352, 208
-0.963638, 97, 145, 224, 208
-0.963646, 169, 49, 232, 176
-0.963726, 153, 129, 216, 375
-0.963899, 297, 289, 360, 352
-0.964049, 161, 145, 288, 208
-0.964088, 177, 257, 240, 320
-0.964245, 177, 209, 208, 272
-0.964298, 177, 33, 304, 160
-0.965057, 265, 49, 328, 176
-0.965203, 57, 217, 120, 280
-0.965241, 25, 1, 88, 128
-0.965463, 361, 113, 424, 240
-0.965582, 41, 241, 104, 368
-0.965589, 33, 177, 96, 304
-0.965721, 169, 313, 232, 375
-0.965811, 377, 289, 440, 352
-0.965897, 185, 1, 248, 64
-0.96593, 313, 57, 376, 120
-0.965984, 157, 145, 188, 272
-0.96599, 425, 49, 488, 176
-0.966115, 97, 33, 160, 288
-0.966307, 385, 113, 448, 240
-0.966323, 97, 233, 160, 296
-0.966338, 33, 129, 96, 256
-0.966379, 189, 145, 220, 272
-0.9665, 393, 57, 456, 120
-0.9665, 305, 313, 368, 375
-0.966512, 209, 313, 272, 375
-0.966529, 249, 129, 312, 375
-0.966579, 337, 249, 400, 312
-0.966658, 65, 121, 192, 184
-0.966937, 197, 129, 228, 192
-0.96699, 153, 281, 216, 344
-0.96709, 57, 57, 120, 120
-0.967111, 57, 129, 120, 192
-0.967183, 177, 289, 240, 352
-0.967236, 97, 257, 160, 320
-0.967272, 401, 257, 464, 320
-0.967378, 113, 305, 176, 368
-0.967394, 237, 129, 268, 192
-0.967496, 297, 89, 360, 152
-0.96763, 193, 1, 256, 128
-0.967832, 185, 145, 216, 208
-0.968003, 345, 297, 408, 360
-0.968018, 165, 145, 196, 208
-0.968039, 377, 265, 440, 328
-0.968062, 153, 121, 184, 184
-0.968069, 57, 49, 120, 176
-0.968127, 353, 49, 416, 176
-0.968249, 129, 113, 256, 176
-0.968447, 225, 121, 256, 184
-0.968499, 185, 121, 216, 184
-0.968604, 105, 281, 168, 344
-0.968629, 217, 145, 248, 208
-0.96867, 145, 249, 272, 312
-0.96874, 425, 113, 488, 240
-0.968766, 205, 105, 236, 168
-0.969314, 81, 169, 208, 232
-0.969414, 1, 65, 64, 128
-0.969464, 65, 89, 192, 152
-0.969605, 97, 225, 224, 288
-0.969688, 185, 1, 248, 256
-0.969722, 129, 313, 256, 375
-0.969765, 249, 137, 280, 200
-0.969827, 225, 17, 352, 144
-0.969875, 161, 1, 224, 256
-0.969993, 425, 57, 488, 120
-0.969995, 1, 241, 128, 368
-0.970119, 177, 121, 304, 184
-0.970164, 269, 97, 300, 224
-0.970198, 145, 217, 272, 280
-0.970237, 193, 225, 224, 352
-0.970271, 81, 73, 144, 136
-0.970448, 253, 113, 284, 240
-0.970472, 409, 241, 440, 368
-0.970475, 209, 273, 272, 336
-0.97051, 93, 1, 124, 128
-0.970518, 57, 185, 120, 248
-0.970522, 93, 81, 124, 208
-0.97063, 1, 217, 64, 280
-0.970741, 361, 137, 424, 200
-0.970773, 181, 209, 212, 336
-0.970816, 145, 81, 176, 208
-0.970833, 209, 97, 240, 224
-0.970857, 337, 249, 464, 312
-0.970952, 73, 25, 136, 88
-0.970982, 1, 49, 64, 176
-0.971004, 129, 65, 192, 320
-0.971045, 97, 65, 224, 128
-0.971068, 65, 1, 128, 256
-0.971094, 425, 193, 488, 320
-0.971146, 337, 273, 400, 336
-0.97121, 297, 265, 360, 328
-0.971239, 121, 177, 184, 240
-0.971242, 353, 17, 416, 80
-0.971316, 57, 241, 120, 304
-0.971325, 141, 265, 172, 328
-0.971333, 193, 241, 320, 304
-0.971366, 217, 97, 280, 352
-0.971415, 205, 153, 236, 216
-0.971423, 145, 305, 176, 368
-0.971612, 217, 49, 280, 176
-0.971711, 173, 185, 204, 248
-0.971792, 225, 161, 288, 288
-0.971928, 249, 249, 312, 312
-0.972008, 177, 145, 208, 272
-0.97212, 137, 1, 200, 64
-0.972143, 289, 1, 416, 64
-0.972188, 281, 1, 344, 128
-0.972386, 337, 289, 464, 352
-0.972399, 193, 185, 320, 248
-0.972698, 393, 81, 456, 144
-0.972724, 145, 225, 176, 352
-0.972775, 153, 1, 184, 128
-0.972809, 433, 305, 496, 368
-0.972854, 193, 89, 256, 152
-0.97291, 97, 129, 160, 375
-0.973015, 165, 97, 196, 160
-0.973063, 137, 89, 168, 152
-0.973143, 129, 1, 256, 64
-0.973182, 165, 209, 196, 272
-0.973209, 141, 137, 172, 200
-0.973319, 189, 225, 220, 288
-0.973336, 177, 305, 208, 368
-0.973348, 41, 81, 104, 144
-0.973378, 289, 1, 352, 256
-0.973419, 337, 57, 400, 120
-0.973442, 137, 57, 200, 120
-0.97349, 33, 185, 96, 248
-0.97354, 209, 225, 240, 352
-0.973576, 321, 89, 384, 152
-0.973631, 297, 225, 360, 288
-0.973656, 113, 9, 176, 72
-0.973707, 49, 265, 112, 328
-0.973758, 201, 145, 232, 272
-0.973891, 121, 49, 152, 176
-0.973925, 237, 209, 268, 336
-0.97413, 217, 217, 280, 280
-0.974154, 81, 201, 208, 264
-0.974192, 209, 313, 336, 375
-0.974226, 9, 1, 72, 64
-0.974241, 381, 1, 412, 128
-0.974318, 101, 169, 132, 232
-0.974318, 129, 89, 256, 152
-0.974396, 385, 169, 448, 232
-0.974471, 329, 1, 360, 64
-0.974556, 145, 273, 272, 336
-0.974583, 225, 249, 256, 312
-0.974601, 33, 1, 64, 128
-0.974616, 81, 129, 112, 256
-0.974623, 205, 217, 236, 280
-0.974633, 257, 217, 320, 280
-0.974833, 237, 153, 268, 216
-0.9749, 197, 81, 228, 208
-0.975001, 17, 193, 144, 256
-0.975002, 273, 161, 304, 224
-0.975015, 145, 177, 272, 240
-0.975059, 297, 33, 360, 96
-0.975116, 209, 161, 336, 224
-0.975119, 233, 313, 296, 375
-0.975242, 81, 121, 144, 184
-0.975262, 193, 273, 320, 336
-0.975283, 157, 289, 188, 352
-0.975293, 105, 1, 136, 128
-0.975304, 269, 129, 300, 192
-0.97535, 33, 1, 96, 256
-0.975421, 249, 289, 312, 352
-0.975438, 109, 145, 140, 208
-0.975449, 17, 153, 144, 216
-0.97547, 109, 49, 140, 176
-0.975478, 109, 65, 140, 128
-0.975498, 157, 81, 188, 208
-0.975546, 353, 129, 416, 375
-0.975559, 97, 1, 160, 375
-0.975576, 33, 145, 96, 208
-0.975581, 241, 241, 368, 304
-0.975665, 421, 241, 452, 368
-0.975694, 393, 33, 456, 96
-0.975706, 225, 89, 288, 152
-0.975709, 149, 97, 180, 160
-0.975718, 209, 217, 336, 280
-0.975719, 345, 217, 408, 280
-0.975802, 301, 1, 332, 64
-0.975811, 121, 257, 184, 320
-0.975899, 341, 1, 372, 64
-0.975927, 353, 1, 416, 256
-0.975936, 137, 33, 200, 96
-0.975976, 329, 25, 392, 88
-0.976023, 161, 225, 192, 352
-0.976085, 153, 145, 184, 208
-0.976126, 113, 41, 176, 104
-0.976205, 237, 129, 268, 256
-0.976226, 405, 281, 436, 344
-0.976249, 97, 41, 224, 104
-0.976286, 289, 257, 416, 320
-0.976401, 145, 193, 208, 256
-0.976415, 177, 25, 240, 88
-0.976492, 49, 233, 176, 296
-0.976529, 409, 161, 472, 224
-0.976546, 1, 65, 64, 320
-0.976557, 273, 241, 336, 368
-0.976562, 121, 177, 184, 304
-0.976598, 97, 249, 224, 312
-0.976636, 81, 297, 208, 360
-0.976659, 273, 145, 304, 272
-0.976714, 133, 65, 164, 192
-0.976766, 377, 241, 440, 304
-0.977098, 169, 121, 200, 184
-0.977135, 401, 233, 464, 296
-0.977142, 81, 145, 112, 208
-0.977198, 237, 225, 268, 288
-0.977204, 289, 313, 320, 375
-0.97727, 289, 297, 416, 360
-0.977306, 49, 1, 112, 375
-0.977336, 221, 177, 252, 240
-0.977354, 241, 273, 368, 336
-0.977363, 157, 169, 188, 232
-0.977372, 49, 65, 176, 128
-0.977376, 173, 81, 204, 208
-0.97744, 273, 217, 400, 280
-0.97747, 193, 313, 224, 375
-0.97753, 129, 225, 192, 288
-0.977635, 237, 177, 268, 240
-0.977645, 297, 177, 360, 304
-0.977651, 197, 177, 228, 240
-0.97767, 17, 1, 144, 64
-0.97768, 349, 241, 380, 368
-0.977731, 361, 9, 392, 72
-0.977787, 361, 1, 392, 128
-0.977796, 409, 129, 472, 192
-0.97781, 185, 97, 216, 224
-0.977824, 49, 265, 176, 328
-0.977865, 129, 57, 160, 120
-0.977933, 185, 1, 248, 375
-0.978004, 257, 121, 384, 184
-0.978008, 153, 225, 184, 288
-0.978021, 177, 97, 304, 160
-0.978172, 309, 1, 340, 128
-0.978259, 169, 65, 232, 128
-0.978288, 217, 1, 280, 256
-0.978309, 273, 89, 400, 152
-0.978391, 105, 113, 168, 176
-0.978426, 1, 145, 64, 272
-0.978441, 201, 241, 232, 304
-0.978467, 281, 1, 344, 64
-0.978504, 225, 193, 288, 256
-0.978549, 185, 169, 216, 232
-0.978625, 273, 97, 336, 160
-0.978643, 385, 121, 448, 184
-0.978646, 81, 81, 112, 208
-0.978666, 425, 289, 456, 352
-0.978671, 289, 57, 352, 120
-0.978779, 33, 121, 96, 184
-0.978812, 85, 177, 116, 304
-0.978829, 313, 1, 376, 256
-0.978979, 97, 209, 160, 272
-0.97903, 1, 217, 128, 280
-0.979101, 193, 1, 224, 64
-0.979112, 149, 57, 180, 120
-0.979136, 137, 1, 200, 375
-0.979214, 141, 17, 172, 144
-0.979233, 337, 217, 464, 280
-0.979264, 89, 89, 120, 152
-0.979303, 237, 281, 268, 344
-0.979386, 337, 49, 464, 112
-0.979475, 433, 273, 496, 336
-0.979477, 89, 249, 120, 312
-0.979534, 73, 265, 136, 328
-0.979543, 57, 105, 120, 168
-0.979622, 225, 113, 256, 240
-0.979647, 417, 97, 480, 352
-0.979719, 241, 201, 272, 264
-0.979732, 225, 249, 288, 312
-0.979753, 361, 113, 424, 176
-0.979791, 181, 1, 212, 128
-0.979823, 1, 97, 64, 224
-0.979845, 281, 97, 312, 224
-0.979881, 265, 161, 328, 224
-0.979967, 401, 305, 464, 368
-0.97997, 189, 249, 220, 312
-0.979988, 337, 17, 464, 80
-0.980007, 425, 33, 488, 96
-0.98001, 93, 241, 124, 368
-0.980045, 217, 1, 280, 64
-0.98006, 225, 193, 256, 320
-0.980066, 17, 241, 80, 304
-0.980113, 409, 193, 472, 256
-0.980169, 81, 49, 144, 112
-0.980224, 213, 177, 244, 304
-0.980231, 241, 249, 272, 312
-0.980286, 69, 121, 100, 184
-0.980286, 33, 129, 96, 375
-0.980289, 1, 73, 128, 136
-0.980311, 257, 113, 288, 176
-0.980325, 337, 137, 464, 200
-0.980388, 273, 169, 400, 232
-0.980403, 337, 193, 464, 256
-0.980418, 49, 41, 176, 104
-0.980492, 213, 241, 244, 304
-0.980501, 37, 1, 68, 64
-0.980552, 393, 129, 456, 375
-0.980662, 73, 1, 136, 375
-0.980693, 381, 9, 412, 72
-0.980743, 261, 153, 292, 216
-0.980768, 237, 313, 268, 375
-0.98077, 137, 129, 168, 256
-0.980808, 417, 265, 448, 328
-0.98087, 117, 1, 148, 128
-0.980875, 225, 217, 256, 280
-0.980912, 81, 17, 208, 80
-0.980938, 201, 265, 232, 328
-0.980952, 125, 121, 156, 184
-0.980954, 181, 281, 212, 344
-0.980984, 337, 169, 464, 232
-0.981155, 417, 137, 448, 200
-0.981171, 101, 129, 132, 256
-0.981173, 181, 1, 212, 64
-0.981176, 165, 1, 196, 128
-0.981203, 17, 121, 144, 184
-0.981246, 289, 25, 416, 88
-0.981287, 353, 1, 416, 375
-0.981325, 421, 193, 452, 320
-0.981454, 65, 1, 96, 128
-0.981461, 221, 1, 252, 64
-0.981466, 157, 249, 188, 312
-0.981618, 85, 1, 116, 64
-0.981723, 393, 1, 424, 128
-0.981724, 73, 1, 104, 64
-0.981863, 333, 313, 364, 375
-0.981893, 137, 113, 168, 176
-0.981941, 165, 313, 196, 375
-0.981985, 205, 1, 236, 64
-0.982005, 173, 233, 204, 296
-0.982023, 425, 1, 488, 256
-0.982028, 385, 57, 416, 120
-0.98211, 269, 105, 300, 168
-0.982169, 29, 49, 60, 112
-0.98226, 273, 145, 400, 208
-0.982261, 409, 193, 440, 320
-0.982308, 409, 161, 440, 224
-0.982364, 317, 1, 348, 64
-0.982515, 209, 297, 240, 360
-0.982554, 349, 1, 380, 128
-0.982555, 161, 1, 224, 375
-0.982641, 225, 313, 256, 375
-0.982731, 61, 1, 92, 64
-0.982734, 97, 1, 128, 64
-0.982808, 401, 57, 432, 120
-0.982811, 1, 97, 128, 160
-0.982814, 221, 65, 252, 192
-0.982873, 397, 241, 428, 368
-0.982919, 329, 57, 360, 120
-0.982935, 133, 313, 164, 375
-0.982944, 185, 97, 216, 160
-0.982964, 329, 1, 360, 128
-0.982981, 429, 265, 460, 328
-0.982988, 273, 193, 400, 256
-0.982993, 393, 257, 424, 320
-0.98301, 121, 145, 152, 208
-0.983074, 393, 281, 424, 344
-0.983159, 161, 73, 192, 136
-0.98328, 353, 193, 384, 320
-0.983373, 17, 1, 48, 64
-0.983446, 17, 241, 80, 368
-0.983541, 1, 57, 32, 120
-0.983547, 81, 1, 112, 128
-0.983558, 145, 25, 272, 88
-0.983585, 209, 1, 336, 64
-0.983615, 385, 1, 448, 375
-0.983615, 53, 137, 84, 200
-0.983638, 349, 289, 380, 352
-0.983745, 289, 129, 352, 256
-0.983763, 421, 169, 452, 232
-0.98377, 349, 249, 380, 312
-0.983778, 145, 65, 272, 128
-0.983813, 97, 273, 224, 336
-0.98383, 429, 65, 460, 192
-0.983847, 305, 305, 336, 368
-0.983852, 249, 161, 280, 224
-0.983878, 209, 177, 240, 240
-0.983905, 157, 1, 188, 64
-0.984068, 413, 241, 444, 304
-0.984069, 465, 313, 496, 375
-0.984075, 137, 177, 168, 304
-0.984084, 17, 33, 48, 160
-0.984118, 201, 17, 232, 144
-0.984175, 13, 49, 44, 112
-0.984176, 321, 193, 384, 320
-0.984186, 337, 313, 464, 375
-0.984287, 133, 161, 164, 224
-0.984347, 5, 1, 36, 64
-0.984361, 241, 49, 304, 176
-0.984364, 353, 113, 480, 176
-0.984463, 337, 129, 400, 256
-0.984482, 33, 161, 64, 288
-0.984504, 249, 33, 312, 288
-0.984608, 433, 241, 464, 368
-0.984612, 397, 65, 428, 192
-0.98468, 413, 313, 444, 375
-0.984716, 289, 49, 416, 112
-0.984812, 425, 1, 488, 375
-0.984828, 45, 161, 76, 288
-0.984839, 301, 49, 332, 176
-0.984849, 429, 65, 460, 128
-0.984872, 297, 129, 360, 375
-0.985012, 301, 81, 332, 144
-0.985065, 89, 225, 120, 288
-0.985253, 257, 241, 288, 368
-0.985356, 1, 241, 128, 304
-0.985377, 189, 201, 220, 264
-0.985417, 281, 113, 312, 176
-0.985436, 93, 145, 124, 208
-0.985552, 193, 73, 320, 136
-0.985575, 169, 281, 200, 344
-0.98561, 425, 113, 456, 240
-0.985611, 337, 73, 464, 136
-0.985632, 437, 1, 468, 128
-0.985656, 81, 121, 112, 184
-0.985661, 169, 1, 200, 64
-0.985802, 209, 1, 272, 375
-0.985817, 69, 113, 100, 240
-0.985835, 249, 313, 280, 375
-0.985903, 133, 289, 164, 352
-0.985921, 225, 97, 352, 160
-0.985928, 417, 17, 448, 144
-0.985998, 85, 201, 116, 264
-0.986049, 313, 97, 344, 160
-0.986054, 313, 49, 344, 112
-0.986085, 33, 129, 288, 192
-0.986116, 37, 49, 68, 176
-0.986131, 225, 241, 256, 368
-0.986168, 329, 1, 392, 375
-0.98624, 9, 1, 72, 375
-0.986241, 393, 33, 456, 288
-0.986477, 285, 241, 316, 368
-0.986592, 305, 1, 368, 375
-0.986733, 1, 49, 128, 112
-0.98676, 369, 225, 400, 352
-0.986777, 101, 177, 132, 304
-0.986905, 385, 241, 416, 368
-0.986935, 49, 65, 80, 192
-0.986953, 185, 49, 216, 176
-0.986965, 453, 241, 484, 368
-0.987118, 245, 65, 276, 192
-0.987172, 133, 241, 164, 368
-0.987204, 293, 97, 324, 224
-0.987208, 137, 301, 200, 332
-0.987223, 53, 1, 84, 128
-0.987268, 385, 49, 416, 176
-0.987345, 221, 1, 252, 128
-0.987617, 169, 137, 232, 168
-0.987657, 369, 81, 400, 208
-0.987672, 365, 129, 396, 256
-0.987696, 65, 209, 96, 336
-0.987709, 345, 81, 376, 208
-0.987858, 81, 241, 112, 368
-0.987864, 469, 241, 500, 368
-0.987898, 69, 49, 100, 176
-0.987924, 233, 65, 264, 192
-0.987964, 65, 153, 320, 216
-0.987974, 261, 161, 292, 288
-0.988022, 161, 121, 416, 184
-0.988128, 161, 217, 224, 248
-0.988142, 217, 141, 280, 172
-0.988177, 137, 313, 200, 344
-0.988243, 169, 153, 232, 184
-0.988253, 405, 17, 436, 144
-0.988259, 265, 329, 328, 360
-0.988267, 393, 289, 456, 320
-0.988311, 49, 209, 80, 336
-0.988328, 33, 97, 288, 160
-0.98834, 161, 229, 224, 260
-0.98838, 241, 161, 304, 192
-0.988426, 153, 169, 216, 200
-0.988433, 153, 121, 216, 152
-0.988455, 97, 177, 160, 208
-0.988459, 241, 57, 368, 120
-0.98846, 193, 117, 256, 148
-0.988534, 193, 153, 256, 184
-0.988631, 193, 245, 256, 276
-0.988663, 137, 289, 200, 320
-0.98868, 65, 241, 320, 304
-0.988764, 297, 1, 328, 128
-0.988797, 1, 265, 128, 328
-0.988834, 201, 225, 264, 256
-0.988846, 193, 137, 256, 168
-0.98886, 145, 149, 208, 180
-0.988863, 177, 313, 240, 344
-0.988902, 333, 225, 364, 352
-0.988945, 105, 165, 168, 196
-0.989002, 153, 249, 216, 280
-0.989049, 177, 105, 240, 136
-0.989102, 129, 165, 192, 196
-0.989116, 177, 1, 240, 32
-0.989151, 249, 1, 312, 375
-0.989199, 153, 97, 216, 128
-0.989204, 241, 177, 304, 208
-0.989218, 153, 109, 216, 140
-0.989223, 177, 165, 240, 196
-0.989238, 289, 329, 352, 360
-0.989242, 249, 193, 280, 320
-0.989243, 1, 25, 128, 88
-0.989258, 89, 149, 152, 180
-0.989301, 201, 181, 264, 212
-0.98931, 225, 129, 288, 160
-0.989318, 321, 49, 352, 176
-0.989323, 305, 9, 368, 40
-0.98934, 129, 133, 192, 164
-0.989366, 161, 273, 416, 336
-0.989372, 201, 321, 264, 352
-0.989394, 177, 325, 240, 356
-0.989453, 249, 125, 312, 156
-0.989465, 105, 77, 168, 108
-0.989465, 217, 169, 280, 200
-0.989488, 161, 225, 416, 288
-0.989524, 217, 153, 280, 184
-0.989537, 129, 1, 160, 128
-0.989571, 137, 277, 200, 308
-0.989572, 125, 113, 156, 240
-0.989594, 345, 9, 408, 40
-0.989608, 441, 49, 472, 176
-0.989626, 121, 97, 184, 128
-0.989679, 113, 97, 144, 224
-0.989713, 461, 1, 492, 128
-0.989713, 281, 193, 312, 320
-0.989759, 113, 293, 176, 324
-0.989775, 65, 177, 320, 240
-0.989783, 369, 17, 432, 48
-0.989783, 113, 333, 176, 364
-0.989822, 129, 121, 192, 152
-0.989826, 217, 333, 280, 364
-0.989835, 209, 25, 336, 88
-0.989842, 297, 309, 360, 340
-0.989843, 257, 65, 288, 192
-0.989853, 345, 297, 408, 328
-0.989897, 129, 313, 384, 375
-0.989913, 257, 145, 500, 208
-0.989952, 97, 261, 160, 292
-0.989961, 417, 65, 448, 192
-0.989986, 73, 53, 136, 84
-0.989989, 249, 213, 312, 244
-0.990032, 241, 113, 304, 144
-0.990033, 113, 281, 176, 312
-0.990051, 177, 177, 240, 208
-0.990057, 217, 257, 280, 288
-0.990059, 105, 225, 136, 352
-0.990063, 201, 1, 264, 32
-0.990106, 225, 321, 288, 352
-0.99011, 137, 333, 200, 364
-0.990115, 333, 49, 364, 176
-0.990127, 33, 313, 160, 375
-0.99014, 153, 185, 216, 216
-0.990149, 193, 273, 256, 304
-0.990152, 65, 157, 128, 188
-0.990153, 73, 13, 136, 44
-0.990155, 33, 5, 96, 36
-0.99016, 5, 65, 36, 192
-0.990256, 409, 173, 472, 204
-0.99026, 281, 1, 344, 375
-0.990262, 273, 193, 336, 320
-0.990269, 1, 241, 500, 304
-0.990271, 417, 301, 480, 332
-0.990272, 57, 241, 120, 272
-0.990287, 249, 189, 312, 220
-0.99029, 21, 193, 52, 320
-0.990315, 257, 289, 500, 352
-0.990328, 129, 177, 192, 208
-0.990353, 153, 261, 216, 292
-0.990353, 57, 145, 88, 272
-0.990362, 241, 149, 304, 180
-0.990385, 97, 245, 160, 276
-0.990399, 153, 5, 216, 36
-0.990405, 385, 301, 448, 332
-0.990409, 97, 65, 160, 96
-0.990414, 241, 337, 304, 368
-0.990416, 305, 93, 368, 124
-0.990417, 1, 137, 500, 200
-0.990418, 289, 341, 352, 372
-0.990426, 161, 249, 416, 312
-0.990465, 113, 13, 176, 44
-0.990475, 369, 289, 432, 320
-0.990481, 89, 97, 152, 128
-0.99052, 193, 197, 256, 228
-0.990528, 329, 129, 392, 375
-0.990538, 137, 217, 200, 248
-0.990554, 1, 73, 64, 104
-0.990558, 137, 85, 200, 116
-0.99056, 337, 253, 400, 284
-0.9906, 17, 129, 48, 256
-0.990612, 33, 217, 288, 280
-0.990617, 1, 17, 32, 144
-0.99063, 49, 137, 112, 168
-0.990636, 161, 289, 224, 320
-0.990677, 65, 225, 128, 256
-0.990681, 137, 237, 200, 268
-0.990687, 433, 161, 464, 288
-0.990741, 313, 325, 376, 356
-0.990747, 265, 165, 328, 196
-0.990749, 393, 65, 456, 96
-0.990757, 305, 81, 368, 112
-0.990766, 1, 217, 64, 248
-0.99078, 409, 313, 472, 344
-0.990787, 33, 113, 64, 240
-0.990791, 313, 49, 376, 80
-0.990795, 393, 77, 456, 108
-0.990799, 385, 169, 448, 200
-0.990804, 113, 145, 176, 176
-0.990822, 217, 237, 280, 268
-0.990825, 129, 81, 384, 144
-0.990825, 121, 109, 184, 140
-0.990826, 161, 301, 224, 332
-0.990827, 57, 193, 120, 224
-0.990837, 65, 253, 128, 284
-0.990841, 249, 237, 312, 268
-0.990862, 409, 145, 440, 272
-0.990883, 249, 225, 312, 256
-0.990894, 337, 281, 400, 312
-0.990904, 73, 65, 136, 96
-0.990912, 297, 281, 360, 312
-0.990913, 65, 213, 128, 244
-0.990938, 201, 13, 264, 44
-0.990939, 249, 269, 312, 300
-0.990965, 249, 249, 312, 280
-0.990968, 1, 169, 500, 232
-0.990979, 161, 205, 224, 236
-0.991014, 297, 297, 360, 328
-0.991014, 281, 5, 344, 36
-0.99102, 1, 217, 500, 280
-0.991034, 297, 269, 360, 300
-0.991036, 161, 169, 416, 232
-0.99104, 217, 105, 280, 136
-0.991041, 417, 269, 480, 300
-0.991047, 185, 213, 248, 244
-0.991068, 449, 1, 480, 128
-0.991075, 249, 317, 312, 348
-0.991081, 265, 113, 328, 144
-0.991091, 397, 161, 428, 288
-0.991108, 217, 281, 280, 312
-0.991119, 57, 77, 120, 108
-0.991127, 1, 105, 500, 168
-0.99113, 305, 69, 368, 100
-0.991143, 361, 137, 424, 168
-0.991256, 161, 193, 416, 256
-0.991273, 145, 149, 272, 180
-0.991332, 1, 193, 500, 256
-0.991381, 257, 121, 500, 184
-0.991405, 353, 145, 384, 272
-0.991414, 177, 161, 304, 192
-0.991549, 273, 97, 336, 352
-0.991677, 5, 145, 36, 272
-0.991733, 161, 145, 416, 208
-0.991741, 97, 161, 224, 192
-0.991764, 1, 273, 500, 336
-0.991851, 193, 1, 448, 64
-0.991866, 173, 213, 204, 244
-0.991899, 189, 229, 220, 260
-0.991999, 45, 113, 76, 240
-0.992004, 157, 297, 188, 328
-0.992014, 165, 149, 196, 180
-0.992023, 173, 169, 204, 200
-0.992039, 269, 161, 300, 192
-0.992046, 193, 57, 448, 120
-0.992052, 181, 309, 212, 340
-0.99206, 141, 333, 172, 364
-0.992065, 197, 137, 228, 168
-0.992069, 425, 293, 456, 324
-0.992075, 217, 137, 248, 168
-0.992077, 189, 153, 220, 184
-0.992091, 65, 1, 320, 64
-0.992121, 289, 325, 320, 356
-0.992124, 189, 217, 220, 248
-0.992155, 245, 137, 276, 168
-0.992157, 145, 297, 176, 328
-0.992161, 209, 149, 240, 180
-0.992188, 33, 265, 288, 328
-0.992199, 257, 149, 288, 180
-0.992205, 177, 173, 304, 204
-0.992243, 197, 317, 228, 348
-0.992256, 145, 329, 272, 360
-0.992256, 145, 277, 176, 308
-0.992264, 97, 149, 224, 180
-0.992288, 257, 265, 500, 328
-0.992297, 257, 169, 500, 232
-0.992298, 137, 97, 168, 128
-0.992299, 109, 165, 140, 196
-0.992303, 229, 129, 260, 160
-0.992305, 201, 221, 232, 252
-0.992307, 149, 113, 180, 144
-0.992328, 157, 177, 188, 208
-0.992347, 177, 157, 208, 188
-0.992354, 409, 285, 440, 316
-0.992358, 161, 93, 192, 124
-0.992362, 229, 141, 260, 172
-0.992365, 33, 289, 160, 352
-0.992367, 177, 141, 208, 172
-0.992368, 213, 1, 244, 32
-0.992371, 445, 113, 476, 240
-0.992372, 361, 13, 392, 44
-0.992379, 157, 285, 188, 316
-0.992383, 189, 241, 220, 272
-0.992388, 325, 325, 356, 356
-0.992399, 469, 177, 500, 304
-0.992401, 229, 181, 260, 212
-0.992414, 217, 125, 248, 156
-0.992424, 169, 289, 200, 320
-0.992427, 177, 229, 208, 260
-0.992437, 185, 129, 216, 160
-0.992444, 169, 305, 200, 336
-0.992457, 121, 165, 152, 196
-0.992462, 329, 9, 360, 40
-0.99247, 153, 149, 184, 180
-0.992471, 205, 233, 236, 264
-0.99248, 413, 169, 444, 200
-0.992485, 225, 313, 480, 375
-0.992495, 269, 117, 300, 148
-0.992502, 185, 173, 216, 204
-0.992502, 397, 289, 428, 320
-0.992509, 309, 341, 340, 372
-0.99251, 249, 169, 280, 200
-0.992512, 237, 321, 268, 352
-0.992524, 197, 173, 228, 204
-0.992535, 181, 321, 212, 352
-0.992537, 145, 133, 176, 164
-0.992537, 209, 273, 240, 304
-0.99254, 313, 5, 344, 36
-0.992545, 149, 309, 180, 340
-0.992551, 409, 305, 440, 336
-0.992557, 437, 301, 468, 332
-0.992563, 101, 181, 132, 212
-0.992566, 157, 165, 188, 196
-0.992568, 273, 333, 304, 364
-0.992572, 209, 181, 240, 212
-0.992576, 213, 161, 244, 192
-0.992592, 273, 173, 304, 204
-0.992593, 357, 49, 388, 176
-0.992603, 93, 161, 124, 192
-0.992604, 345, 9, 376, 40
-0.99261, 165, 113, 196, 144
-0.992615, 97, 177, 224, 208
-0.992618, 137, 177, 168, 208
-0.992618, 113, 149, 144, 180
-0.992623, 397, 53, 428, 84
-0.992626, 141, 53, 172, 84
-0.992629, 381, 293, 412, 324
-0.992633, 197, 105, 228, 136
-0.992635, 373, 13, 404, 44
-0.992639, 325, 341, 356, 372
-0.992643, 237, 153, 268, 184
-0.992644, 169, 317, 200, 348
-0.992655, 421, 313, 452, 344
-0.992658, 161, 233, 192, 264
-0.992658, 93, 93, 124, 124
-0.992671, 165, 125, 196, 156
-0.992671, 205, 245, 236, 276
-0.992676, 265, 129, 296, 160
-0.992679, 121, 177, 152, 208
-0.992682, 141, 265, 172, 296
-0.992686, 413, 273, 444, 304
-0.992687, 137, 165, 168, 196
-0.992703, 389, 17, 420, 48
-0.992703, 237, 201, 268, 232
-0.992706, 417, 53, 448, 84
-0.992709, 179, 209, 194, 272
-0.992709, 301, 1, 332, 32
-0.99272, 193, 5, 224, 36
-0.992724, 425, 173, 456, 204
-0.992724, 305, 317, 336, 348
-0.992726, 173, 201, 204, 232
-0.992727, 65, 97, 192, 128
-0.992728, 225, 321, 256, 352
-0.992734, 225, 157, 256, 188
-0.992742, 209, 129, 224, 192
-0.992751, 69, 137, 100, 168
-0.992761, 453, 309, 484, 340
-0.992761, 89, 261, 120, 292
-0.992764, 161, 137, 288, 168
-0.992764, 125, 145, 156, 176
-0.992765, 189, 253, 220, 284
-0.992766, 241, 261, 272, 292
-0.992769, 221, 221, 252, 252
-0.99277, 193, 329, 224, 360
-0.992781, 213, 329, 244, 360
-0.992783, 181, 113, 212, 144
-0.992787, 199, 129, 214, 192
-0.99279, 229, 169, 260, 200
-0.99279, 93, 149, 124, 180
-0.992794, 241, 245, 272, 276
-0.992802, 9, 1, 40, 32
-0.99281, 241, 125, 272, 156
-0.992817, 157, 249, 188, 280
-0.992818, 157, 53, 188, 84
-0.992827, 191, 209, 206, 272
-0.992829, 245, 333, 276, 364
-0.992832, 233, 281, 264, 312
-0.992839, 225, 241, 256, 272
-0.992844, 409, 321, 440, 352
-0.992844, 81, 153, 112, 184
-0.992847, 97, 213, 224, 244
-0.992848, 297, 337, 328, 368
-0.992852, 21, 65, 52, 96
-0.992856, 129, 57, 160, 88
-0.992857, 157, 213, 188, 244
-0.992859, 305, 241, 336, 368
-0.992863, 349, 253, 380, 284
-0.992865, 333, 81, 364, 112
-0.992868, 141, 81, 172, 112
-0.992873, 237, 229, 268, 260
-0.992888, 113, 137, 240, 168
-0.992901, 337, 293, 464, 324
-0.992919, 225, 97, 480, 160
-0.992933, 129, 33, 384, 96
-0.992939, 1, 313, 500, 375
-0.99299, 209, 321, 336, 352
-0.993065, 277, 49, 308, 176
-0.993076, 201, 105, 216, 168
-0.993082, 155, 105, 170, 168
-0.993092, 145, 217, 272, 248
-0.993127, 209, 153, 224, 216
-0.993286, 151, 249, 166, 312
-0.993333, 193, 257, 320, 288
-0.993349, 185, 209, 200, 272
-0.99339, 177, 145, 192, 208
-0.993395, 313, 113, 376, 240
-0.993452, 129, 117, 256, 148
-0.993462, 97, 253, 224, 284
-0.993469, 157, 305, 172, 368
-0.993471, 207, 105, 222, 168
-0.993473, 173, 209, 188, 272
-0.993542, 253, 129, 268, 192
-0.993553, 65, 133, 192, 164
-0.993567, 219, 145, 234, 208
-0.993574, 221, 105, 236, 168
-0.993637, 305, 113, 432, 176
-0.993639, 97, 233, 224, 264
-0.993647, 419, 273, 434, 336
-0.99365, 225, 337, 352, 368
-0.993668, 129, 317, 256, 348
-0.993689, 257, 241, 500, 304
-0.993727, 197, 225, 212, 288
-0.99373, 321, 309, 448, 340
-0.993736, 203, 233, 218, 296
-0.993763, 1, 49, 500, 112
-0.9938, 65, 289, 320, 352
-0.993806, 129, 5, 256, 36
-0.993811, 289, 9, 416, 40
-0.993828, 1, 73, 256, 136
-0.993832, 181, 185, 196, 248
-0.993845, 239, 121, 254, 184
-0.993855, 231, 137, 246, 200
-0.993861, 145, 313, 160, 375
-0.993906, 17, 209, 144, 240
-0.993907, 103, 161, 118, 224
-0.993908, 413, 297, 428, 360
-0.993913, 189, 121, 204, 184
-0.993937, 97, 61, 224, 92
-0.993938, 167, 137, 182, 200
-0.993947, 159, 129, 174, 192
-0.993975, 187, 169, 202, 232
-0.994024, 241, 153, 256, 216
-0.994049, 49, 145, 176, 176
-0.994055, 193, 145, 208, 208
-0.994057, 193, 197, 320, 228
-0.994162, 97, 57, 352, 120
-0.994184, 33, 249, 160, 280
-0.994205, 177, 125, 304, 156
-0.994229, 273, 289, 400, 320
-0.994233, 145, 185, 272, 216
-0.994241, 1, 73, 500, 136
-0.994243, 193, 245, 320, 276
-0.99425, 145, 253, 272, 284
-0.994267, 145, 89, 160, 152
-0.994297, 145, 289, 160, 352
-0.994325, 151, 305, 166, 368
-0.994332, 321, 277, 448, 308
-0.994336, 241, 265, 368, 296
-0.994348, 273, 121, 288, 184
-0.994352, 153, 137, 168, 200
-0.994368, 265, 129, 280, 192
-0.994376, 337, 261, 464, 292
-0.9944, 193, 149, 320, 180
-0.994417, 149, 113, 164, 176
-0.994459, 257, 325, 384, 356
-0.994471, 193, 185, 320, 216
-0.994472, 245, 129, 260, 192
-0.994496, 27, 49, 42, 112
-0.994498, 65, 121, 192, 152
-0.994502, 81, 85, 208, 116
-0.99452, 109, 145, 124, 208
-0.994524, 273, 301, 400, 332
-0.994528, 49, 165, 176, 196
-0.994537, 97, 73, 224, 104
-0.994545, 231, 161, 246, 224
-0.994564, 129, 105, 256, 136
-0.99457, 285, 161, 300, 224
-0.994575, 257, 217, 500, 280
-0.994602, 353, 173, 480, 204
-0.994608, 419, 241, 434, 304
-0.994626, 257, 253, 384, 284
-0.994628, 145, 269, 272, 300
-0.994659, 355, 1, 370, 64
-0.994666, 81, 301, 208, 332
-0.994678, 129, 305, 256, 336
-0.994685, 215, 105, 230, 168
-0.994695, 179, 113, 194, 176
-0.994708, 207, 1, 222, 64
-0.994714, 1, 1, 500, 64
-0.994744, 257, 193, 500, 256
-0.994746, 161, 97, 176, 160
-0.994758, 201, 313, 216, 375
-0.994761, 187, 145, 202, 208
-0.994769, 227, 113, 242, 176
-0.994769, 223, 177, 238, 240
-0.994788, 427, 281, 442, 344
-0.994792, 81, 197, 208, 228
-0.994792, 193, 277, 320, 308
-0.994798, 225, 137, 240, 200
-0.994826, 233, 113, 248, 176
-0.994864, 193, 221, 320, 252
-0.994873, 255, 241, 270, 304
-0.994874, 113, 65, 128, 128
-0.994877, 237, 249, 252, 312
-0.994898, 345, 1, 360, 64
-0.994941, 229, 249, 244, 312
-0.994946, 421, 161, 436, 224
-0.994946, 159, 225, 174, 288
-0.994951, 145, 229, 272, 260
-0.994953, 147, 49, 162, 112
-0.994965, 377, 17, 392, 80
-0.994968, 195, 105, 210, 168
-0.994972, 129, 89, 256, 120
-0.994979, 249, 201, 264, 264
-0.99499, 175, 185, 190, 248
-0.994996, 245, 233, 260, 296
-0.995007, 241, 177, 256, 240
-0.995022, 257, 277, 384, 308
-0.995024, 257, 25, 500, 88
-0.995041, 183, 297, 198, 360
-0.995042, 151, 73, 166, 136
-0.995052, 301, 313, 316, 375
-0.995057, 369, 53, 496, 84
-0.99506, 85, 129, 116, 375
-0.995099, 95, 153, 110, 216
-0.995127, 237, 217, 252, 280
-0.995127, 407, 41, 422, 104
-0.995129, 139, 57, 154, 120
-0.995141, 413, 273, 428, 336
-0.995142, 437, 49, 452, 112
-0.995147, 305, 1, 320, 64
-0.995164, 195, 305, 210, 368
-0.995169, 383, 9, 398, 72
-0.995172, 17, 229, 144, 260
-0.995213, 145, 153, 160, 216
-0.99522, 185, 233, 200, 296
-0.995227, 215, 193, 230, 256
-0.995238, 201, 1, 216, 64
-0.995255, 33, 313, 288, 375
-0.995268, 85, 121, 100, 184
-0.99527, 209, 233, 224, 296
-0.995271, 191, 233, 206, 296
-0.995292, 145, 281, 272, 312
-0.995292, 217, 1, 280, 128
-0.995293, 257, 313, 384, 344
-0.995297, 49, 261, 176, 292
-0.9953, 225, 165, 352, 196
-0.995305, 371, 1, 386, 64
-0.995314, 91, 1, 106, 64
-0.995319, 97, 333, 224, 364
-0.995326, 249, 257, 264, 320
-0.995333, 337, 1, 352, 64
-0.995334, 203, 153, 218, 216
-0.995337, 81, 317, 208, 348
-0.99534, 233, 313, 248, 375
-0.995346, 337, 249, 464, 280
-0.995356, 171, 89, 186, 152
-0.995364, 177, 113, 304, 144
-0.995369, 221, 129, 252, 375
-0.995371, 145, 241, 272, 272
-0.995381, 209, 233, 336, 264
-0.995412, 155, 281, 170, 344
-0.995412, 195, 169, 210, 232
-0.995425, 353, 17, 480, 48
-0.995435, 139, 313, 154, 375
-0.995439, 93, 1, 124, 256
-0.99544, 321, 321, 448, 352
-0.995454, 425, 193, 440, 256
-0.99546, 65, 109, 192, 140
-0.99546, 181, 1, 196, 64
-0.995476, 273, 153, 288, 216
-0.995482, 247, 161, 262, 224
-0.995485, 255, 201, 270, 264
-0.99549, 125, 137, 140, 200
-0.99549, 33, 9, 160, 40
-0.995491, 193, 129, 224, 375
-0.995497, 119, 65, 134, 128
-0.995516, 315, 1, 330, 64
-0.995517, 279, 129, 294, 192
-0.995524, 273, 241, 400, 272
-0.995524, 197, 193, 212, 256
-0.995535, 193, 1, 208, 64
-0.995536, 331, 1, 346, 64
-0.995544, 193, 49, 320, 112
-0.99556, 193, 209, 320, 240
-0.995568, 219, 225, 234, 288
-0.995569, 177, 297, 192, 360
-0.995578, 353, 249, 368, 312
-0.99558, 33, 77, 160, 108
-0.99558, 101, 217, 116, 280
-0.995586, 189, 305, 204, 368
-0.995586, 205, 65, 236, 320
-0.995596, 97, 17, 224, 48
-0.9956, 429, 169, 444, 232
-0.995622, 161, 153, 176, 216
-0.995622, 33, 1, 48, 64
-0.995625, 253, 313, 268, 375
-0.995626, 201, 257, 216, 320
-0.995637, 317, 65, 332, 128
-0.995642, 23, 1, 38, 64
-0.995642, 103, 265, 118, 328
-0.995646, 273, 177, 400, 208
-0.99566, 365, 1, 380, 64
-0.995677, 139, 153, 154, 216
-0.995678, 129, 293, 256, 324
-0.995678, 237, 97, 268, 352
-0.995683, 401, 57, 416, 120
-0.995697, 337, 233, 464, 264
-0.995703, 415, 161, 430, 224
-0.995708, 257, 153, 384, 184
-0.995711, 177, 73, 192, 136
-0.995715, 261, 161, 276, 224
-0.995731, 81, 289, 208, 320
-0.995735, 17, 197, 144, 228
-0.995745, 337, 161, 464, 192
-0.995805, 273, 229, 400, 260
-0.99581, 257, 1, 320, 128
-0.995818, 193, 305, 320, 336
-0.99583, 1, 145, 128, 176
-0.995831, 273, 337, 400, 368
-0.995869, 273, 197, 400, 228
-0.995892, 1, 25, 500, 88
-0.995895, 97, 41, 224, 72
-0.995908, 273, 213, 400, 244
-0.995922, 1, 89, 128, 120
-0.995935, 209, 1, 336, 32
-0.995945, 209, 137, 336, 168
-0.995948, 145, 341, 272, 372
-0.995973, 33, 25, 288, 88
-0.99599, 185, 1, 216, 256
-0.996052, 177, 97, 208, 352
-0.996072, 273, 101, 400, 132
-0.996089, 305, 21, 432, 52
-0.996101, 305, 85, 432, 116
-0.99611, 145, 205, 272, 236
-0.996128, 1, 101, 128, 132
-0.996136, 353, 5, 480, 36
-0.996138, 157, 65, 188, 320
-0.996156, 337, 209, 464, 240
-0.9962, 209, 93, 336, 124
-0.996205, 289, 265, 416, 296
-0.996214, 305, 57, 432, 88
-0.99622, 209, 13, 336, 44
-0.996231, 105, 65, 136, 320
-0.996243, 97, 265, 224, 296
-0.996247, 321, 221, 448, 252
-0.996249, 145, 65, 272, 96
-0.996261, 81, 277, 208, 308
-0.996266, 273, 165, 400, 196
-0.9963, 369, 309, 496, 340
-0.996326, 1, 113, 128, 144
-0.996357, 337, 197, 464, 228
-0.996433, 49, 181, 176, 212
-0.996436, 17, 133, 144, 164
-0.996469, 33, 273, 160, 304
-0.996484, 369, 65, 496, 96
-0.996494, 81, 1, 112, 256
-0.996503, 337, 145, 464, 176
-0.996537, 1, 157, 128, 188
-0.996537, 65, 129, 96, 375
-0.996556, 49, 21, 176, 52
-0.99662, 225, 125, 352, 156
-0.99662, 141, 1, 172, 256
-0.996631, 221, 1, 252, 256
-0.996642, 197, 149, 212, 180
-0.996661, 353, 129, 480, 160
-0.996679, 145, 21, 272, 52
-0.996683, 289, 41, 416, 72
-0.996705, 145, 45, 272, 76
-0.996709, 159, 297, 174, 328
-0.996709, 17, 65, 48, 320
-0.996731, 145, 77, 272, 108
-0.996736, 1, 261, 128, 292
-0.996737, 1, 49, 256, 112
-0.996741, 97, 29, 224, 60
-0.996761, 49, 61, 176, 92
-0.996767, 147, 301, 162, 332
-0.996792, 249, 129, 280, 375
-0.996807, 419, 273, 434, 304
-0.996825, 277, 161, 292, 192
-0.996851, 183, 309, 198, 340
-0.996852, 195, 233, 210, 264
-0.996862, 207, 141, 222, 172
-0.996901, 193, 313, 208, 344
-0.996911, 177, 213, 192, 244
-0.996923, 177, 305, 192, 336
-0.996929, 109, 165, 124, 196
-0.996953, 151, 253, 166, 284
-0.996956, 233, 137, 248, 168
-0.996957, 173, 1, 204, 256
-0.996964, 233, 125, 248, 156
-0.997019, 145, 333, 160, 364
-0.99702, 293, 1, 324, 256
-0.997046, 199, 133, 214, 164
-0.997063, 191, 213, 206, 244
-0.997072, 169, 145, 184, 176
-0.997074, 261, 145, 276, 176
-0.997084, 53, 129, 84, 375
-0.997089, 199, 317, 214, 348
-0.9971, 409, 285, 424, 316
-0.997127, 427, 289, 442, 320
-0.997145, 179, 145, 194, 176
-0.997153, 197, 217, 212, 248
-0.997154, 269, 153, 284, 184
-0.997165, 419, 285, 434, 316
-0.997166, 423, 313, 438, 344
-0.997172, 305, 1, 320, 32
-0.997183, 189, 157, 204, 188
-0.997187, 241, 125, 256, 156
-0.997205, 155, 117, 170, 148
-0.997207, 171, 301, 186, 332
-0.997209, 215, 149, 230, 180
-0.997219, 301, 321, 316, 352
-0.997229, 173, 289, 188, 320
-0.997233, 105, 153, 120, 184
-0.997242, 337, 325, 352, 356
-0.997247, 283, 161, 298, 192
-0.997252, 221, 149, 236, 180
-0.997256, 405, 129, 436, 375
-0.997259, 5, 1, 36, 256
-0.99726, 201, 237, 216, 268
-0.997261, 121, 1, 152, 256
-0.997268, 163, 173, 178, 204
-0.99727, 157, 333, 172, 364
-0.997271, 187, 229, 202, 260
-0.997276, 151, 97, 166, 128
-0.997285, 409, 49, 424, 80
-0.997292, 69, 1, 100, 256
-0.997306, 353, 129, 384, 375
-0.997309, 187, 241, 202, 272
-0.997329, 329, 337, 344, 368
-0.997334, 363, 9, 378, 40
-0.997335, 179, 157, 194, 188
-0.997354, 187, 137, 202, 168
-0.997356, 329, 325, 344, 356
-0.997361, 177, 169, 192, 200
-0.997368, 329, 1, 360, 256
-0.997377, 149, 317, 164, 348
-0.997381, 365, 129, 396, 375
-0.997395, 183, 209, 198, 240
-0.997396, 421, 169, 436, 200
-0.997403, 183, 169, 198, 200
-0.997412, 127, 165, 142, 196
-0.997412, 449, 301, 464, 332
-0.997413, 151, 333, 166, 364
-0.997422, 251, 133, 266, 164
-0.997422, 345, 1, 376, 256
-0.997431, 347, 9, 362, 40
-0.997437, 217, 1, 232, 32
-0.997441, 223, 181, 238, 212
-0.997445, 139, 177, 154, 208
-0.997449, 209, 129, 224, 160
-0.997457, 207, 173, 222, 204
-0.997459, 385, 1, 416, 256
-0.997459, 375, 13, 390, 44
-0.997471, 277, 129, 308, 375
-0.997476, 417, 301, 432, 332
-0.997482, 223, 1, 238, 32
-0.997503, 165, 297, 180, 328
-0.997505, 171, 213, 186, 244
-0.997515, 425, 129, 456, 375
-0.997517, 147, 53, 162, 84
-0.99752, 203, 221, 218, 252
-0.99753, 261, 129, 292, 375
-0.997539, 133, 165, 148, 196
-0.997542, 233, 161, 248, 192
-0.99755, 353, 9, 368, 40
-0.997552, 423, 229, 438, 260
-0.997554, 243, 181, 258, 212
-0.997565, 251, 321, 266, 352
-0.997575, 179, 289, 194, 320
-0.99758, 429, 169, 444, 200
-0.997588, 115, 165, 130, 196
-0.99759, 29, 61, 44, 92
-0.99759, 413, 313, 428, 344
-0.997593, 207, 157, 222, 188
-0.997593, 261, 157, 276, 188
-0.997596, 231, 1, 246, 32
-0.997607, 337, 5, 352, 36
-0.997608, 103, 169, 118, 200
-0.99761, 271, 129, 286, 160
-0.997614, 277, 113, 292, 144
-0.997614, 177, 229, 192, 260
-0.997616, 253, 225, 268, 256
-0.997616, 205, 317, 220, 348
-0.997624, 141, 297, 156, 328
-0.997624, 201, 329, 216, 360
-0.997624, 201, 249, 216, 280
-0.997625, 189, 169, 204, 200
-0.997626, 381, 13, 396, 44
-0.997631, 187, 321, 202, 352
-0.997631, 213, 181, 228, 212
-0.997632, 207, 233, 222, 264
-0.997632, 153, 297, 168, 328
-0.997634, 401, 53, 416, 84
-0.997635, 229, 177, 244, 208
-0.997642, 331, 5, 346, 36
-0.997647, 151, 265, 166, 296
-0.997652, 315, 345, 330, 375
-0.997654, 161, 101, 176, 132
-0.997655, 435, 293, 450, 324
-0.997663, 161, 113, 176, 144
-0.99767, 251, 193, 266, 224
-0.997672, 83, 137, 98, 168
-0.997674, 89, 149, 104, 180
-0.997675, 263, 133, 278, 164
-0.997688, 227, 329, 242, 360
-0.997692, 209, 269, 224, 300
-0.997697, 133, 177, 148, 208
-0.997698, 243, 241, 258, 272
-0.997699, 207, 1, 222, 32
-0.997703, 201, 265, 216, 296
-0.997715, 369, 9, 384, 40
-0.997725, 175, 317, 190, 348
-0.997726, 139, 161, 154, 192
-0.997731, 457, 305, 472, 336
-0.997732, 167, 285, 182, 316
-0.997735, 441, 173, 456, 204
-0.997735, 393, 293, 408, 324
-0.997735, 241, 321, 256, 352
-0.99775, 33, 65, 64, 320
-0.997893, 469, 1, 500, 256
-0.997986, 309, 1, 340, 256
-0.99799, 233, 1, 264, 256
-0.99805, 433, 1, 464, 256
-0.998084, 393, 97, 424, 352
-0.998093, 365, 1, 396, 256
-0.998094, 145, 97, 176, 352
-0.998229, 1, 97, 32, 352
-0.998304, 169, 157, 232, 172
-0.99834, 53, 1, 84, 256
-0.998341, 137, 309, 200, 324
-0.998351, 385, 293, 448, 308
-0.998366, 381, 129, 412, 375
-0.998372, 193, 153, 256, 168
-0.998377, 169, 163, 232, 178
-0.998384, 145, 155, 208, 170
-0.998384, 161, 221, 224, 236
-0.998389, 169, 143, 232, 158
-0.998391, 137, 131, 200, 146
-0.998396, 137, 287, 200, 302
-0.998398, 169, 151, 232, 166
-0.998406, 113, 179, 176, 194
-0.998409, 193, 253, 256, 268
-0.998411, 281, 333, 344, 348
-0.998413, 217, 143, 280, 158
-0.998417, 209, 159, 272, 174
-0.998425, 161, 229, 224, 244
-0.998427, 329, 11, 392, 26
-0.99843, 153, 175, 216, 190
-0.998431, 217, 153, 280, 168
-0.998431, 177, 247, 240, 262
-0.998433, 209, 137, 272, 152
-0.998435, 297, 327, 360, 342
-0.998435, 137, 125, 200, 140
-0.998436, 137, 293, 200, 308
-0.998438, 153, 113, 216, 128
-0.998439, 89, 179, 152, 194
-0.998442, 161, 215, 224, 230
-0.998442, 193, 125, 256, 140
-0.998445, 153, 103, 216, 118
-0.998447, 137, 303, 200, 318
-0.998447, 177, 7, 240, 22
-0.998448, 161, 129, 224, 144
-0.998449, 249, 165, 312, 180
-0.998449, 153, 315, 216, 330
-0.99845, 233, 159, 296, 174
-0.99845, 425, 313, 488, 328
-0.99845, 161, 235, 224, 250
-0.998451, 193, 239, 256, 254
-0.998452, 137, 137, 200, 152
-0.998452, 153, 253, 216, 268
-0.998453, 185, 327, 248, 342
-0.998454, 193, 109, 256, 124
-0.998454, 177, 137, 240, 152
-0.998458, 193, 147, 256, 162
-0.99846, 169, 169, 232, 184
-0.998461, 345, 303, 408, 318
-0.998464, 257, 335, 320, 350
-0.998465, 137, 181, 200, 196
-0.998471, 97, 265, 160, 280
-0.998472, 201, 247, 264, 262
-0.998473, 121, 337, 184, 352
-0.998478, 185, 169, 216, 184
-0.998479, 325, 335, 356, 350
-0.998479, 349, 305, 380, 320
-0.99848, 341, 11, 372, 26
-0.99848, 201, 131, 264, 146
-0.99848, 33, 7, 96, 22
-0.99848, 153, 259, 216, 274
-0.998482, 253, 169, 284, 184
-0.998482, 369, 303, 400, 318
-0.998482, 169, 293, 200, 308
-0.998482, 137, 97, 200, 112
-0.998483, 205, 249, 236, 264
-0.998483, 137, 281, 200, 296
-0.998483, 297, 7, 360, 22
-0.998484, 237, 259, 268, 274
-0.998485, 193, 223, 256, 238
-0.998486, 257, 1, 288, 256
-0.998487, 233, 243, 264, 258
-0.998488, 141, 303, 172, 318
-0.998488, 157, 251, 188, 266
-0.998488, 129, 315, 192, 330
-0.998489, 81, 153, 112, 168
-0.99849, 113, 145, 176, 160
-0.998492, 209, 323, 272, 338
-0.998492, 229, 323, 260, 338
-0.998492, 177, 319, 208, 334
-0.998492, 205, 165, 236, 180
-0.998493, 305, 345, 336, 360
-0.998493, 145, 175, 176, 190
-0.998495, 369, 19, 432, 34
-0.998495, 145, 119, 208, 134
-0.998495, 169, 123, 200, 138
-0.998495, 401, 301, 464, 316
-0.998495, 53, 235, 84, 250
-0.998495, 385, 287, 448, 302
-0.998496, 189, 225, 220, 240
-0.998496, 145, 141, 176, 156
-0.998496, 177, 233, 208, 248
-0.998497, 145, 157, 176, 172
-0.998497, 457, 313, 488, 328
-0.998498, 213, 329, 244, 344
-0.9985, 273, 327, 336, 342
-0.9985, 141, 59, 172, 74
-0.9985, 97, 185, 160, 200
-0.998502, 189, 219, 220, 234
-0.998502, 149, 125, 180, 140
-0.998502, 249, 171, 312, 186
-0.998502, 297, 317, 360, 332
-0.998503, 77, 159, 108, 174
-0.998506, 105, 93, 168, 108
-0.998506, 113, 283, 176, 298
-0.998506, 401, 175, 464, 190
-0.998506, 201, 223, 232, 238
-0.998507, 305, 333, 336, 348
-0.998507, 237, 193, 268, 208
-0.998507, 233, 123, 296, 138
-0.998507, 129, 161, 192, 176
-0.998507, 225, 167, 288, 182
-0.998509, 145, 295, 176, 310
-0.998509, 305, 95, 368, 110
-0.998509, 445, 97, 476, 352
-0.998509, 113, 99, 176, 114
-0.99851, 141, 131, 172, 146
-0.998511, 177, 141, 208, 156
-0.998511, 161, 309, 224, 324
-0.998511, 193, 117, 256, 132
-0.998511, 217, 333, 280, 348
-0.998511, 157, 157, 188, 172
-0.998511, 97, 259, 160, 274
-0.998512, 413, 293, 444, 308
-0.998512, 417, 307, 480, 322
-0.998513, 181, 125, 212, 140
-0.998513, 93, 155, 124, 170
-0.998513, 177, 319, 240, 334
-0.998514, 233, 137, 296, 152
-0.998514, 313, 7, 344, 22
-0.998515, 89, 153, 152, 168
-0.998515, 101, 181, 132, 196
-0.998515, 137, 143, 200, 158
-0.998515, 421, 315, 452, 330
-0.998516, 195, 241, 210, 368
-0.998516, 369, 299, 432, 314
-0.998517, 313, 91, 344, 106
-0.998518, 345, 17, 408, 32
-0.998518, 157, 185, 188, 200
-0.998519, 257, 335, 288, 350
-0.99852, 193, 277, 256, 292
-0.99852, 241, 181, 304, 196
-0.99852, 249, 329, 312, 344
-0.99852, 345, 297, 408, 312
-0.998521, 177, 183, 240, 198
-0.998521, 173, 163, 204, 178
-0.998522, 181, 327, 212, 342
-0.998522, 211, 129, 226, 256
-0.998522, 73, 11, 136, 26
-0.998523, 169, 179, 200, 194
-0.998523, 249, 135, 280, 150
-0.998524, 201, 231, 232, 246
-0.998525, 257, 153, 288, 168
-0.998525, 185, 253, 216, 268
-0.998525, 393, 17, 456, 32
-0.998527, 249, 217, 312, 232
-0.998527, 193, 165, 256, 180
-0.998527, 97, 275, 160, 290
-0.998528, 325, 341, 356, 356
-0.998528, 133, 125, 164, 140
-0.998528, 197, 327, 228, 342
-0.998528, 249, 197, 312, 212
-0.998528, 209, 189, 272, 204
-0.998528, 1, 219, 64, 234
-0.998529, 273, 173, 304, 188
-0.998529, 217, 221, 280, 236
-0.998531, 265, 341, 328, 356
-0.998531, 105, 167, 168, 182
-0.998532, 197, 109, 228, 124
-0.998532, 329, 95, 360, 110
-0.998533, 97, 97, 128, 112
-0.998533, 97, 83, 160, 98
-0.998534, 113, 293, 176, 308
-0.998534, 133, 129, 164, 375
-0.998534, 205, 141, 236, 156
-0.998535, 57, 269, 120, 284
-0.998535, 101, 161, 132, 176
-0.998535, 193, 321, 224, 336
-0.998536, 429, 175, 460, 190
-0.998536, 201, 5, 264, 20
-0.998536, 381, 19, 412, 34
-0.998537, 113, 13, 176, 28
-0.998537, 169, 129, 200, 144
-0.998538, 329, 327, 360, 342
-0.998538, 269, 121, 300, 136
-0.998539, 161, 337, 224, 352
-0.998539, 137, 227, 200, 242
-0.998539, 141, 277, 172, 292
-0.99854, 193, 233, 256, 248
-0.99854, 137, 331, 200, 346
-0.998541, 237, 159, 268, 174
-0.998541, 169, 215, 200, 230
-0.998541, 413, 169, 444, 184
-0.998541, 73, 65, 136, 80
-0.998541, 289, 343, 352, 358
-0.998541, 137, 91, 200, 106
-0.998543, 225, 247, 288, 262
-0.998543, 249, 129, 312, 144
-0.998544, 217, 241, 280, 256
-0.998545, 113, 1, 128, 128
-0.998545, 145, 169, 208, 184
-0.998545, 153, 247, 216, 262
-0.998546, 89, 159, 152, 174
-0.998546, 229, 143, 260, 158
-0.998547, 113, 169, 144, 184
-0.998547, 151, 241, 166, 368
-0.998549, 1, 77, 64, 92
-0.998549, 145, 149, 208, 164
-0.99855, 105, 311, 168, 326
-0.998552, 121, 179, 152, 194
-0.998553, 189, 241, 220, 256
-0.998553, 97, 251, 160, 266
-0.998553, 65, 227, 128, 242
-0.998553, 65, 261, 128, 276
-0.998553, 297, 311, 360, 326
-0.998554, 217, 3, 248, 18
-0.998555, 213, 159, 244, 174
-0.998555, 377, 297, 408, 312
-0.998556, 301, 5, 332, 20
-0.998558, 225, 157, 256, 172
-0.99856, 289, 333, 320, 348
-0.998563, 195, 145, 210, 272
-0.998567, 185, 163, 216, 178
-0.998568, 161, 97, 192, 112
-0.998568, 445, 307, 476, 322
-0.998569, 157, 301, 188, 316
-0.99857, 149, 119, 180, 134
-0.99857, 141, 283, 172, 298
-0.998571, 149, 65, 164, 192
-0.998571, 409, 313, 440, 328
-0.998574, 209, 135, 240, 150
-0.998575, 241, 143, 272, 158
-0.998577, 397, 293, 428, 308
-0.998583, 329, 9, 360, 24
-0.998583, 109, 175, 140, 190
-0.998584, 169, 227, 200, 242
-0.998587, 89, 269, 120, 284
-0.998589, 237, 221, 268, 236
-0.99859, 157, 287, 188, 302
-0.99859, 421, 33, 452, 288
-0.99859, 141, 181, 172, 196
-0.99859, 245, 153, 276, 168
-0.99859, 201, 241, 216, 368
-0.998595, 141, 335, 172, 350
-0.998597, 137, 99, 168, 114
-0.998599, 193, 133, 224, 148
-0.998599, 361, 13, 392, 28
-0.998602, 275, 97, 290, 224
-0.998604, 173, 147, 204, 162
-0.998606, 201, 157, 232, 172
-0.998607, 229, 131, 260, 146
-0.998607, 141, 289, 172, 304
-0.998611, 189, 247, 220, 262
-0.998612, 145, 309, 176, 324
-0.998613, 169, 173, 200, 188
-0.998616, 425, 297, 456, 312
-0.998622, 457, 1, 488, 256
-0.998622, 217, 151, 248, 166
-0.998623, 257, 159, 288, 174
-0.998624, 269, 165, 300, 180
-0.998625, 205, 147, 236, 162
-0.998629, 217, 141, 248, 156
-0.998631, 173, 307, 204, 322
-0.998633, 205, 145, 220, 272
-0.998634, 173, 209, 204, 224
-0.998634, 289, 327, 320, 342
-0.998639, 461, 97, 492, 352
-0.998644, 173, 221, 204, 236
-0.998652, 157, 311, 188, 326
-0.998655, 221, 97, 236, 224
-0.998656, 157, 151, 188, 166
-0.998657, 297, 97, 328, 352
-0.998661, 189, 153, 220, 168
-0.998664, 173, 157, 204, 172
-0.998668, 281, 97, 296, 224
-0.998669, 157, 179, 188, 194
-0.998677, 189, 231, 220, 246
-0.998678, 419, 193, 434, 320
-0.998679, 201, 81, 216, 208
-0.99868, 189, 241, 204, 368
-0.998683, 409, 287, 440, 302
-0.998686, 237, 137, 268, 152
-0.998687, 211, 209, 226, 336
-0.998692, 95, 81, 110, 208
-0.998705, 415, 241, 430, 368
-0.998715, 181, 313, 212, 328
-0.998724, 405, 33, 436, 288
-0.998734, 253, 193, 268, 320
-0.998735, 185, 145, 200, 272
-0.998745, 145, 241, 160, 368
-0.99875, 101, 81, 116, 208
-0.998756, 169, 129, 184, 256
-0.998759, 101, 209, 116, 336
-0.998767, 423, 241, 438, 368
-0.998769, 117, 49, 132, 176
-0.998775, 287, 113, 302, 240
-0.998778, 155, 113, 170, 240
-0.998784, 269, 97, 284, 224
-0.998785, 157, 1, 172, 128
-0.998787, 179, 161, 194, 288
-0.998797, 89, 81, 104, 208
-0.998799, 203, 193, 218, 320
-0.998814, 161, 65, 176, 192
-0.998815, 195, 193, 210, 320
-0.998819, 105, 1, 120, 128
-0.998826, 95, 1, 110, 128
-0.998836, 159, 161, 174, 288
-0.998844, 209, 81, 224, 208
-0.998847, 109, 81, 124, 208
-0.998848, 281, 1, 312, 256
-0.998855, 177, 81, 192, 208
-0.998861, 219, 209, 234, 336
-0.998868, 251, 113, 266, 240
-0.998868, 429, 241, 444, 368
-0.998876, 215, 81, 230, 208
-0.998878, 359, 1, 374, 128
-0.998884, 39, 1, 54, 128
-0.998888, 241, 129, 256, 256
-0.998892, 185, 193, 200, 320
-0.998901, 95, 129, 110, 256
-0.998904, 123, 49, 138, 176
-0.998907, 323, 1, 338, 128
-0.99891, 439, 1, 454, 128
-0.998913, 349, 1, 364, 128
-0.998925, 353, 225, 368, 352
-0.998926, 171, 81, 186, 208
-0.998928, 157, 225, 172, 352
-0.998935, 315, 1, 330, 128
-0.998939, 149, 113, 164, 240
-0.998939, 445, 1, 476, 256
-0.99894, 143, 65, 158, 192
-0.998947, 407, 17, 422, 144
-0.998954, 377, 1, 392, 128
-0.998956, 29, 1, 44, 128
-0.998962, 387, 1, 402, 128
-0.998967, 221, 49, 236, 176
-0.998968, 247, 209, 262, 336
-0.998971, 255, 241, 270, 368
-0.998978, 399, 1, 414, 128
-0.998979, 151, 1, 166, 128
-0.998983, 81, 1, 96, 128
-0.999009, 425, 193, 440, 320
-0.999012, 211, 1, 226, 128
-0.999019, 101, 161, 116, 288
-0.999023, 195, 97, 210, 224
-0.999027, 119, 1, 134, 128
-0.999029, 239, 193, 254, 320
-0.999039, 165, 1, 180, 128
-0.999043, 229, 193, 244, 320
-0.999045, 89, 1, 104, 128
-0.999054, 287, 161, 302, 288
-0.999056, 137, 49, 152, 176
-0.999061, 433, 33, 448, 160
-0.999068, 155, 65, 170, 192
-0.999071, 87, 129, 102, 256
-0.999072, 293, 97, 308, 224
-0.999076, 171, 1, 186, 128
-0.99908, 277, 145, 292, 272
-0.999083, 45, 1, 60, 128
-0.999086, 153, 177, 168, 304
-0.99909, 183, 1, 198, 128
-0.999091, 179, 225, 194, 352
-0.999097, 263, 113, 278, 240
-0.999112, 45, 161, 60, 288
-0.999113, 439, 65, 454, 192
-0.999117, 475, 1, 490, 128
-0.999121, 235, 113, 250, 240
-0.999123, 173, 209, 188, 336
-0.999123, 409, 241, 424, 368
-0.999124, 83, 49, 98, 176
-0.999131, 435, 241, 450, 368
-0.999132, 357, 177, 372, 304
-0.999137, 129, 49, 144, 176
-0.999142, 31, 49, 46, 176
-0.999142, 217, 145, 232, 272
-0.999148, 163, 209, 178, 336
-0.99915, 183, 97, 198, 224
-0.999153, 107, 161, 122, 288
-0.999156, 393, 1, 408, 128
-0.999159, 229, 145, 244, 272
-0.999174, 315, 49, 330, 176
-0.999185, 269, 1, 300, 256
-0.999187, 371, 1, 386, 128
-0.999192, 235, 241, 250, 368
-0.999194, 95, 241, 110, 368
-0.999195, 271, 145, 286, 272
-0.999196, 145, 17, 160, 144
-0.99921, 261, 241, 276, 368
-0.999212, 443, 241, 458, 368
-0.999216, 95, 177, 110, 304
-0.999217, 321, 49, 336, 176
-0.999222, 419, 145, 434, 272
-0.999222, 405, 65, 420, 192
-0.999232, 107, 225, 122, 352
-0.999241, 383, 49, 398, 176
-0.999242, 145, 177, 160, 304
-0.999245, 81, 97, 96, 224
-0.999246, 293, 193, 308, 320
-0.999247, 431, 161, 446, 288
-0.999257, 177, 1, 192, 128
-0.999258, 383, 225, 398, 352
-0.999258, 231, 65, 246, 192
-0.999263, 351, 49, 366, 176
-0.999532, 333, 129, 364, 375
-0.999608, 245, 1, 276, 256
-0.999663, 193, 245, 208, 260
-0.999663, 417, 169, 432, 184
-0.999663, 227, 153, 242, 168
-0.999664, 425, 201, 440, 216
-0.999664, 319, 5, 334, 20
-0.999664, 163, 173, 178, 188
-0.999665, 263, 161, 278, 176
-0.999665, 181, 173, 196, 188
-0.999666, 187, 245, 202, 260
-0.999666, 461, 309, 476, 324
-0.999667, 201, 265, 216, 280
-0.999667, 227, 161, 242, 176
-0.999667, 123, 169, 138, 184
-0.999667, 153, 123, 168, 138
-0.999668, 177, 311, 192, 326
-0.999668, 237, 153, 252, 168
-0.999668, 177, 159, 192, 174
-0.999669, 261, 155, 276, 170
-0.99967, 305, 5, 320, 20
-0.99967, 285, 171, 300, 186
-0.99967, 221, 145, 236, 160
-0.99967, 235, 243, 250, 258
-0.999671, 409, 53, 424, 68
-0.999672, 201, 237, 216, 252
-0.999673, 121, 97, 152, 352
-0.999674, 419, 283, 434, 298
-0.999675, 145, 301, 160, 316
-0.999675, 101, 95, 116, 110
-0.999676, 199, 109, 214, 124
-0.999677, 233, 355, 248, 370
-0.999679, 145, 91, 160, 106
-0.999679, 389, 295, 404, 310
-0.999679, 177, 167, 192, 182
-0.999681, 231, 1, 246, 16
-0.999682, 387, 19, 402, 34
-0.999682, 253, 221, 268, 236
-0.999682, 419, 295, 434, 310
-0.999682, 193, 255, 208, 270
-0.999684, 177, 209, 192, 224
-0.999685, 151, 267, 166, 282
-0.999685, 139, 93, 154, 108
-0.999685, 145, 181, 160, 196
-0.999685, 105, 181, 120, 196
-0.999686, 417, 315, 432, 330
-0.999686, 175, 219, 190, 234
-0.999686, 211, 163, 226, 178
-0.999687, 193, 237, 208, 252
-0.999687, 433, 293, 448, 308
-0.999687, 201, 257, 216, 272
-0.999688, 211, 141, 226, 156
-0.999689, 159, 337, 174, 352
-0.999689, 441, 173, 456, 188
-0.999689, 143, 125, 158, 140
-0.999691, 145, 333, 160, 348
-0.999692, 151, 99, 166, 114
-0.999693, 199, 251, 214, 266
-0.999693, 169, 173, 184, 188
-0.999694, 147, 135, 162, 150
-0.999695, 169, 155, 184, 170
-0.999696, 115, 169, 130, 184
-0.999696, 427, 295, 442, 310
-0.999699, 191, 215, 206, 230
-0.999699, 243, 141, 258, 156
-0.999699, 201, 329, 216, 344
-0.9997, 169, 179, 184, 194
-0.9997, 243, 153, 258, 168
-0.999701, 221, 159, 236, 174
-0.999702, 103, 159, 118, 174
-0.999702, 159, 299, 174, 314
-0.999702, 167, 303, 182, 318
-0.999703, 405, 289, 420, 304
-0.999703, 151, 183, 166, 198
-0.999704, 241, 219, 256, 234
-0.999704, 327, 341, 342, 356
-0.999704, 171, 229, 186, 244
-0.999704, 97, 267, 112, 282
-0.999704, 275, 165, 290, 180
-0.999705, 157, 179, 172, 194
-0.999705, 87, 151, 102, 166
-0.999707, 159, 153, 174, 168
-0.999711, 123, 177, 138, 192
-0.999711, 187, 155, 202, 170
-0.999711, 207, 157, 222, 172
-0.999714, 455, 305, 470, 320
-0.999715, 199, 315, 214, 330
-0.999718, 273, 159, 288, 174
-0.99972, 423, 171, 438, 186
-0.999722, 199, 135, 214, 150
-0.999723, 139, 181, 154, 196
-0.999723, 247, 219, 262, 234
-0.999723, 147, 59, 162, 74
-0.999724, 133, 179, 148, 194
-0.999725, 423, 317, 438, 332
-0.999726, 261, 141, 276, 156
-0.999726, 263, 149, 278, 164
-0.999727, 237, 129, 252, 144
-0.999728, 151, 257, 166, 272
-0.999732, 107, 173, 122, 188
-0.999733, 159, 307, 174, 322
-0.999733, 245, 133, 260, 148
-0.999734, 179, 145, 194, 160
-0.999737, 191, 229, 206, 244
-0.999739, 189, 161, 204, 176
-0.999741, 113, 175, 128, 190
-0.999743, 433, 175, 448, 190
-0.999743, 151, 305, 166, 320
-0.999749, 421, 231, 436, 246
-0.99975, 411, 289, 426, 304
-0.999751, 301, 327, 316, 342
-0.999751, 173, 305, 188, 320
-0.999752, 175, 175, 190, 190
-0.999755, 109, 165, 124, 180
-0.999756, 179, 153, 194, 168
-0.999756, 189, 209, 204, 224
-0.999758, 183, 309, 198, 324
-0.99976, 201, 229, 216, 244
-0.999761, 211, 147, 226, 162
-0.999761, 283, 165, 298, 180
-0.999762, 103, 269, 118, 284
-0.999764, 219, 153, 234, 168
-0.999765, 145, 311, 160, 326
-0.999766, 253, 135, 268, 150
-0.999766, 197, 153, 212, 168
-0.999778, 233, 139, 248, 154
-0.999787, 209, 135, 224, 150
-0.999793, 191, 313, 206, 328
-0.999794, 213, 157, 228, 172
-0.999799, 417, 289, 432, 304
-0.999802, 163, 179, 178, 194
-0.999803, 169, 149, 184, 164
-0.999803, 427, 289, 442, 304
-1.00092, 317, 97, 348, 352
