1947
-0.359345, 1, 1, 500, 375
-0.432898, 1, 97, 500, 352
-0.465166, 1, 1, 500, 256
-0.495206, 97, 1, 352, 375
-0.582925, 65, 129, 320, 375
-0.595403, 1, 1, 256, 375
-0.606853, 257, 1, 500, 375
-0.674024, 225, 129, 480, 375
-0.699036, 193, 33, 448, 288
-0.702863, 33, 1, 288, 256
-0.851117, 1, 97, 128, 352
-0.86012, 49, 65, 176, 320
-0.861637, 209, 97, 336, 352
-0.865273, 33, 1, 160, 375
-0.872987, 161, 1, 288, 375
-0.873592, 1, 241, 500, 368
-0.877831, 145, 129, 272, 375
-0.878475, 97, 129, 224, 375
-0.880382, 369, 1, 496, 375
-0.881515, 1, 81, 500, 208
-0.882587, 1, 193, 500, 320
-0.888369, 369, 1, 496, 256
-0.888606, 113, 1, 240, 375
-0.892088, 1, 1, 128, 256
-0.893442, 305, 65, 432, 320
-0.89454, 97, 33, 224, 288
-0.895797, 209, 1, 336, 375
-0.897809, 369, 129, 496, 375
-0.901416, 1, 145, 500, 272
-0.901801, 145, 33, 272, 288
-0.904024, 241, 1, 368, 256
-0.907672, 257, 97, 384, 352
-0.910926, 65, 209, 320, 336
-0.911815, 161, 177, 416, 304
-0.913279, 305, 1, 432, 375
-0.91351, 1, 81, 256, 208
-0.914973, 193, 1, 320, 256
-0.915802, 33, 161, 288, 288
-0.921896, 1, 33, 500, 160
-0.922539, 193, 81, 448, 208
-0.923081, 257, 1, 384, 375
-0.924713, 81, 225, 208, 352
-0.933064, 129, 161, 256, 288
-0.933455, 129, 129, 384, 256
-0.934251, 193, 193, 320, 320
-0.934439, 257, 177, 500, 304
-0.934816, 161, 241, 416, 368
-0.935698, 1, 177, 128, 304
-0.93642, 33, 97, 96, 224
-0.93674, 97, 33, 352, 160
-0.938662, 137, 241, 200, 368
-0.939109, 257, 129, 500, 256
-0.939306, 369, 241, 496, 368
-0.939559, 49, 97, 176, 224
-0.939691, 161, 241, 288, 368
-0.940611, 257, 225, 500, 352
-0.941524, 1, 1, 256, 128
-0.94195, 1, 97, 128, 224
-0.94213, 273, 209, 400, 336
-0.943071, 161, 113, 288, 240
-0.943124, 329, 177, 392, 304
-0.943502, 161, 161, 224, 288
-0.943586, 89, 225, 152, 352
-0.944144, 97, 81, 352, 208
-0.94511, 225, 33, 480, 160
-0.945527, 25, 161, 88, 288
-0.946638, 1, 113, 64, 240
-0.946864, 73, 129, 136, 256
-0.947155, 105, 81, 168, 208
-0.947293, 97, 81, 224, 208
-0.947293, 65, 145, 192, 272
-0.948466, 1, 1, 128, 128
-0.949085, 105, 161, 168, 288
-0.949388, 129, 81, 192, 208
-0.95002, 201, 113, 264, 240
-0.950047, 33, 241, 160, 368
-0.950351, 65, 241, 128, 368
-0.950634, 1, 49, 128, 176
-0.950876, 49, 177, 112, 304
-0.950906, 225, 129, 352, 256
-0.95121, 289, 193, 352, 320
-0.951387, 337, 161, 464, 288
-0.951833, 113, 241, 176, 368
-0.952913, 177, 241, 240, 368
-0.953946, 361, 193, 424, 320
-0.954928, 129, 193, 192, 320
-0.955085, 65, 81, 128, 208
-0.955269, 9, 1, 72, 128
-0.955388, 193, 33, 320, 160
-0.95557, 409, 65, 472, 192
-0.955686, 113, 217, 176, 280
-0.955997, 201, 193, 264, 320
-0.956039, 193, 65, 256, 192
-0.956522, 369, 145, 432, 272
-0.956727, 153, 65, 216, 192
-0.956743, 129, 145, 192, 272
-0.957053, 1, 225, 64, 352
-0.95734, 425, 129, 488, 256
-0.957371, 49, 273, 112, 336
-0.957802, 361, 241, 424, 368
-0.95783, 433, 241, 496, 304
-0.957913, 289, 161, 416, 288
-0.958047, 409, 209, 472, 336
-0.958124, 153, 113, 216, 240
-0.958499, 137, 257, 200, 320
-0.958978, 33, 161, 96, 224
-0.959633, 1, 49, 64, 176
-0.960009, 329, 225, 392, 352
-0.960135, 369, 65, 432, 192
-0.960167, 81, 33, 208, 160
-0.960167, 241, 81, 368, 208
-0.960182, 241, 177, 304, 304
-0.960562, 393, 113, 456, 240
-0.960752, 129, 153, 192, 216
-0.961553, 97, 241, 160, 304
-0.961769, 337, 49, 464, 176
-0.962018, 369, 113, 496, 240
-0.962164, 113, 121, 176, 184
-0.962262, 433, 193, 496, 320
-0.962384, 137, 313, 200, 375
-0.962542, 113, 177, 176, 240
-0.962629, 65, 97, 128, 160
-0.963121, 225, 97, 288, 224
-0.963983, 137, 209, 200, 272
-0.964039, 345, 241, 408, 304
-0.964215, 265, 225, 328, 352
-0.964359, 129, 289, 192, 352
-0.964404, 153, 169, 216, 232
-0.964604, 329, 113, 392, 240
-0.964628, 41, 241, 104, 368
-0.964943, 129, 33, 256, 160
-0.965153, 265, 257, 328, 320
-0.965179, 25, 89, 88, 152
-0.965503, 217, 33, 280, 160
-0.965928, 201, 169, 264, 232
-0.966177, 105, 89, 168, 152
-0.966389, 417, 273, 480, 336
-0.966787, 337, 193, 400, 256
-0.966881, 433, 241, 496, 368
-0.966967, 89, 313, 152, 375
-0.966993, 233, 241, 296, 368
-0.967086, 73, 265, 136, 328
-0.967152, 289, 129, 352, 256
-0.967214, 201, 233, 264, 296
-0.967314, 289, 65, 416, 192
-0.967329, 1, 177, 64, 304
-0.967467, 289, 217, 352, 280
-0.967472, 321, 113, 448, 240
-0.967675, 177, 241, 240, 304
-0.967714, 1, 97, 64, 160
-0.967718, 105, 153, 168, 216
-0.967936, 81, 145, 144, 208
-0.968031, 249, 65, 312, 192
-0.968071, 289, 81, 352, 208
-0.968086, 49, 185, 112, 248
-0.968503, 233, 185, 296, 248
-0.968554, 177, 161, 240, 224
-0.968674, 129, 193, 256, 256
-0.968687, 433, 81, 496, 208
-0.969012, 433, 201, 496, 264
-0.969428, 177, 113, 240, 240
-0.969492, 409, 225, 472, 288
-0.969656, 361, 89, 424, 152
-0.969804, 9, 185, 72, 248
-0.969931, 1, 161, 64, 224
-0.970103, 249, 113, 312, 240
-0.970357, 433, 145, 496, 208
-0.970378, 385, 193, 448, 320
-0.970448, 33, 297, 96, 360
-0.970475, 249, 233, 312, 296
-0.970476, 65, 161, 192, 224
-0.970675, 361, 193, 424, 256
-0.970698, 321, 217, 384, 280
-0.970717, 177, 265, 240, 328
-0.97076, 345, 169, 408, 232
-0.970984, 1, 65, 64, 320
-0.971041, 65, 65, 128, 320
-0.971094, 81, 249, 208, 312
-0.971103, 97, 281, 160, 344
-0.97127, 401, 113, 464, 176
-0.971304, 329, 65, 392, 192
-0.971439, 89, 33, 152, 160
-0.971529, 89, 129, 152, 375
-0.971631, 377, 17, 440, 144
-0.971843, 73, 177, 136, 304
-0.971976, 225, 273, 288, 336
-0.972102, 169, 193, 232, 256
-0.972153, 241, 1, 304, 128
-0.972166, 289, 193, 352, 256
-0.97235, 353, 265, 416, 328
-0.972556, 161, 265, 288, 328
-0.972688, 425, 177, 488, 240
-0.972834, 1, 121, 64, 184
-0.972849, 361, 305, 424, 368
-0.972916, 169, 129, 232, 375
-0.973045, 425, 105, 488, 168
-0.973084, 41, 49, 104, 176
-0.973103, 153, 121, 216, 184
-0.973112, 161, 169, 288, 232
-0.973165, 9, 1, 72, 64
-0.973199, 417, 57, 480, 120
-0.97325, 365, 225, 396, 352
-0.973276, 385, 49, 448, 112
-0.973276, 33, 113, 96, 176
-0.973335, 201, 73, 264, 136
-0.973412, 257, 81, 320, 144
-0.973434, 321, 1, 448, 128
-0.97347, 73, 177, 136, 240
-0.973523, 153, 81, 216, 144
-0.973619, 25, 273, 88, 336
-0.973833, 241, 33, 368, 160
-0.974141, 385, 217, 448, 280
-0.974259, 401, 81, 464, 144
-0.974262, 313, 185, 376, 248
-0.974467, 41, 97, 104, 352
-0.974486, 241, 1, 304, 64
-0.974559, 89, 217, 152, 280
-0.974673, 225, 225, 288, 288
-0.974673, 1, 233, 64, 296
-0.974732, 209, 233, 336, 296
-0.974831, 129, 81, 192, 144
-0.974833, 77, 265, 108, 328
-0.974838, 33, 97, 64, 224
-0.974907, 5, 65, 36, 192
-0.974912, 225, 241, 352, 368
-0.97495, 1, 73, 64, 136
-0.975053, 121, 97, 184, 352
-0.975193, 257, 313, 320, 375
-0.975248, 225, 73, 288, 136
-0.975308, 177, 81, 240, 144
-0.975523, 1, 105, 128, 168
-0.975538, 289, 209, 416, 272
-0.975608, 113, 313, 176, 375
-0.975636, 113, 33, 176, 160
-0.975772, 337, 81, 400, 144
-0.975978, 369, 249, 496, 312
-0.976148, 153, 145, 216, 208
-0.976201, 377, 153, 440, 216
-0.976231, 33, 273, 160, 336
-0.976295, 21, 97, 52, 224
-0.976365, 297, 89, 360, 152
-0.976421, 45, 97, 76, 224
-0.976474, 49, 305, 176, 368
-0.976489, 153, 281, 216, 344
-0.976511, 401, 137, 464, 200
-0.976527, 117, 217, 148, 280
-0.976617, 25, 1, 88, 256
-0.976701, 97, 225, 224, 288
-0.976794, 89, 241, 120, 368
-0.977051, 49, 185, 176, 248
-0.977072, 425, 81, 488, 144
-0.97726, 321, 209, 448, 336
-0.97728, 209, 193, 336, 256
-0.97737, 133, 81, 164, 208
-0.977455, 45, 281, 76, 344
-0.977472, 409, 249, 472, 312
-0.977482, 201, 97, 264, 160
-0.977614, 425, 17, 488, 144
-0.977625, 133, 241, 164, 368
-0.977662, 145, 129, 208, 375
-0.977673, 57, 273, 88, 336
-0.977679, 161, 241, 288, 304
-0.97783, 241, 129, 304, 375
-0.977868, 329, 65, 392, 320
-0.977911, 57, 73, 120, 136
-0.977932, 377, 129, 440, 192
-0.977975, 57, 113, 88, 240
-0.977989, 321, 281, 384, 344
-0.97799, 365, 177, 396, 304
-0.978035, 81, 281, 208, 344
-0.978062, 401, 193, 464, 256
-0.978118, 337, 305, 400, 368
-0.978242, 265, 281, 328, 344
-0.97827, 289, 257, 352, 320
-0.978289, 141, 209, 172, 272
-0.978305, 169, 257, 200, 320
-0.978581, 113, 145, 240, 208
-0.978587, 337, 201, 464, 264
-0.978613, 169, 17, 232, 144
-0.978655, 121, 145, 152, 208
-0.978685, 73, 241, 104, 368
-0.978706, 225, 249, 288, 312
-0.978779, 233, 305, 296, 368
-0.978781, 449, 265, 480, 328
-0.978824, 73, 289, 136, 352
-0.97891, 97, 81, 224, 144
-0.97892, 145, 113, 272, 176
-0.97895, 225, 49, 288, 112
-0.97897, 133, 185, 164, 248
-0.979003, 149, 185, 180, 248
-0.979023, 297, 193, 328, 320
-0.979028, 365, 289, 396, 352
-0.979093, 441, 233, 472, 296
-0.979112, 61, 209, 92, 336
-0.979162, 369, 233, 400, 296
-0.979175, 321, 57, 384, 120
-0.979182, 369, 273, 496, 336
-0.979228, 369, 1, 496, 128
-0.979333, 149, 225, 180, 352
-0.979361, 433, 297, 496, 360
-0.979371, 305, 33, 368, 160
-0.979432, 61, 185, 92, 248
-0.979564, 457, 113, 488, 240
-0.979581, 161, 241, 192, 368
-0.979618, 145, 73, 272, 136
-0.979685, 193, 73, 320, 136
-0.979738, 233, 97, 296, 160
-0.979786, 249, 209, 312, 272
-0.979906, 369, 153, 496, 216
-0.979954, 117, 97, 148, 224
-0.979971, 273, 257, 400, 320
-0.979986, 273, 233, 400, 296
-0.979988, 1, 281, 64, 344
-0.980054, 469, 273, 500, 336
-0.980056, 281, 57, 344, 120
-0.980111, 81, 121, 144, 184
-0.980135, 17, 1, 48, 64
-0.980135, 17, 153, 144, 216
-0.980196, 241, 137, 304, 200
-0.980198, 229, 193, 260, 320
-0.980225, 65, 105, 192, 168
-0.980259, 37, 161, 68, 288
-0.980304, 17, 113, 48, 176
-0.980335, 17, 209, 80, 272
-0.980463, 109, 145, 140, 208
-0.980467, 209, 145, 272, 208
-0.980487, 109, 209, 140, 336
-0.980489, 337, 177, 464, 240
-0.980492, 185, 49, 248, 112
-0.980495, 385, 249, 448, 312
-0.980503, 1, 1, 128, 64
-0.980575, 1, 225, 128, 288
-0.980583, 33, 129, 160, 192
-0.980599, 273, 97, 400, 160
-0.980619, 145, 17, 208, 144
-0.980625, 209, 161, 240, 288
-0.980651, 153, 161, 184, 224
-0.980667, 221, 225, 252, 288
-0.980813, 9, 113, 40, 240
-0.980823, 193, 97, 256, 352
-0.980865, 345, 193, 376, 256
-0.98087, 321, 257, 384, 320
-0.980882, 93, 257, 124, 320
-0.980906, 401, 169, 464, 232
-0.980951, 57, 65, 88, 192
-0.98096, 161, 193, 192, 320
-0.980992, 105, 249, 136, 312
-0.981016, 425, 65, 488, 320
-0.98103, 73, 97, 104, 224
-0.98106, 461, 241, 492, 304
-0.981134, 1, 81, 32, 144
-0.981237, 377, 241, 408, 368
-0.981309, 209, 241, 272, 368
-0.981356, 169, 33, 232, 288
-0.981377, 169, 313, 232, 375
-0.981496, 353, 177, 384, 304
-0.98161, 129, 313, 256, 375
-0.981638, 289, 177, 416, 240
-0.981657, 217, 97, 280, 352
-0.981665, 369, 305, 496, 368
-0.981705, 125, 289, 156, 352
-0.981708, 249, 1, 280, 128
-0.981713, 41, 217, 104, 280
-0.981797, 457, 225, 488, 352
-0.981863, 89, 97, 120, 160
-0.981867, 33, 137, 96, 200
-0.981913, 181, 169, 212, 232
-0.981949, 465, 145, 496, 208
-0.981966, 121, 177, 152, 304
-0.981982, 361, 65, 424, 128
-0.981983, 137, 153, 168, 216
-0.981997, 341, 161, 372, 288
-0.981998, 177, 113, 240, 176
-0.982007, 157, 65, 188, 192
-0.982024, 265, 305, 296, 368
-0.982039, 109, 145, 140, 272
-0.982069, 141, 313, 172, 375
-0.982081, 113, 169, 240, 232
-0.982125, 1, 73, 128, 136
-0.982152, 89, 97, 120, 224
-0.982154, 361, 97, 424, 352
-0.982172, 49, 225, 176, 288
-0.982234, 21, 1, 52, 128
-0.982253, 417, 65, 448, 192
-0.982294, 161, 289, 288, 352
-0.982448, 353, 81, 480, 144
-0.982519, 5, 233, 36, 296
-0.982538, 297, 209, 328, 272
-0.982575, 73, 177, 104, 304
-0.982625, 265, 177, 328, 304
-0.982646, 401, 17, 464, 144
-0.982681, 197, 249, 228, 312
-0.982765, 201, 265, 264, 328
-0.982808, 337, 113, 400, 176
-0.982818, 117, 313, 148, 375
-0.982913, 9, 25, 72, 88
-0.982954, 193, 161, 224, 224
-0.982972, 369, 49, 496, 112
-0.982982, 137, 161, 168, 288
-0.982989, 73, 241, 136, 304
-0.983016, 105, 81, 136, 208
-0.983018, 305, 33, 368, 288
-0.98306, 33, 161, 64, 224
-0.983084, 385, 129, 448, 375
-0.9831, 209, 233, 240, 296
-0.983156, 1, 177, 128, 240
-0.983172, 1, 201, 128, 264
-0.98318, 197, 81, 228, 208
-0.983192, 193, 97, 320, 160
-0.983259, 121, 225, 152, 352
-0.983263, 173, 241, 204, 368
-0.983289, 285, 273, 316, 336
-0.98329, 153, 121, 184, 184
-0.983345, 445, 177, 476, 304
-0.983377, 233, 161, 296, 224
-0.983384, 149, 113, 180, 240
-0.9834, 37, 121, 68, 184
-0.983404, 53, 161, 84, 224
-0.983405, 153, 233, 216, 296
-0.983406, 113, 121, 144, 184
-0.983408, 65, 1, 128, 64
-0.983428, 1, 113, 32, 176
-0.98346, 377, 193, 408, 320
-0.983476, 121, 169, 152, 232
-0.983531, 169, 169, 200, 232
-0.983565, 241, 81, 272, 208
-0.983566, 437, 257, 468, 320
-0.983663, 209, 121, 272, 184
-0.983685, 213, 225, 244, 352
-0.983798, 225, 257, 352, 320
-0.983808, 241, 129, 272, 256
-0.983882, 241, 193, 272, 320
-0.983895, 365, 201, 396, 264
-0.983958, 353, 225, 480, 288
-0.983995, 377, 65, 408, 128
-0.984021, 457, 121, 488, 184
-0.984065, 49, 209, 80, 336
-0.984068, 241, 73, 368, 136
-0.98411, 349, 225, 380, 288
-0.984111, 49, 249, 112, 312
-0.98412, 129, 1, 192, 256
-0.984127, 193, 17, 256, 144
-0.984166, 181, 113, 212, 240
-0.984189, 429, 225, 460, 288
-0.98422, 49, 81, 176, 144
-0.984227, 45, 185, 76, 248
-0.984248, 57, 161, 88, 288
-0.984256, 241, 185, 272, 248
-0.984262, 169, 113, 200, 240
-0.984265, 353, 257, 384, 320
-0.984303, 273, 281, 400, 344
-0.984323, 257, 185, 320, 248
-0.984341, 253, 273, 284, 336
-0.984344, 289, 129, 352, 375
-0.984417, 409, 1, 472, 375
-0.984455, 241, 169, 368, 232
-0.984458, 1, 33, 128, 96
-0.984459, 1, 257, 64, 320
-0.984485, 469, 129, 500, 256
-0.984495, 201, 201, 264, 264
-0.984628, 65, 217, 128, 280
-0.984689, 265, 17, 328, 144
-0.984701, 137, 97, 168, 160
-0.984716, 449, 201, 480, 264
-0.984729, 193, 161, 224, 288
-0.98474, 373, 313, 404, 375
-0.98478, 49, 89, 80, 152
-0.984789, 321, 105, 448, 168
-0.984802, 1, 297, 128, 360
-0.98482, 425, 193, 456, 320
-0.984859, 209, 1, 272, 256
-0.984875, 21, 137, 52, 200
-0.984892, 237, 81, 268, 144
-0.984921, 273, 273, 304, 336
-0.984931, 17, 49, 80, 112
-0.984943, 405, 113, 436, 240
-0.984962, 129, 217, 160, 280
-0.984974, 37, 89, 68, 152
-0.985052, 69, 49, 100, 176
-0.985067, 369, 129, 496, 192
-0.985091, 225, 177, 256, 240
-0.985144, 145, 217, 272, 280
-0.985153, 225, 113, 256, 240
-0.985172, 33, 1, 96, 128
-0.985176, 457, 161, 488, 288
-0.985194, 361, 1, 424, 256
-0.985224, 385, 241, 448, 368
-0.985242, 289, 73, 416, 136
-0.985313, 209, 49, 336, 112
-0.985323, 321, 257, 448, 320
-0.985379, 177, 65, 208, 192
-0.985385, 65, 33, 128, 160
-0.985459, 213, 113, 244, 240
-0.98546, 17, 49, 48, 176
-0.985552, 401, 33, 464, 288
-0.985569, 165, 145, 196, 208
-0.985596, 33, 185, 64, 248
-0.985601, 33, 297, 64, 360
-0.985616, 365, 265, 396, 328
-0.985617, 469, 177, 500, 240
-0.985732, 89, 1, 152, 256
-0.985762, 441, 225, 472, 352
-0.985778, 129, 121, 160, 184
-0.985802, 101, 121, 132, 184
-0.985808, 105, 1, 168, 375
-0.985845, 381, 273, 412, 336
-0.985892, 209, 65, 240, 192
-0.985916, 377, 65, 408, 192
-0.985922, 1, 33, 32, 96
-0.98601, 237, 161, 268, 224
-0.986021, 329, 17, 392, 144
-0.986036, 73, 177, 104, 240
-0.986037, 113, 81, 144, 144
-0.986041, 153, 249, 184, 312
-0.98608, 321, 33, 448, 96
-0.986114, 25, 145, 56, 272
-0.986116, 225, 73, 256, 136
-0.986172, 185, 265, 216, 328
-0.986225, 57, 17, 88, 144
-0.986259, 33, 249, 160, 312
-0.986267, 129, 313, 160, 375
-0.98627, 249, 241, 280, 368
-0.986274, 117, 241, 148, 304
-0.986302, 141, 249, 172, 312
-0.986344, 193, 1, 256, 375
-0.986355, 105, 225, 136, 288
-0.986417, 457, 49, 488, 176
-0.986443, 153, 289, 184, 352
-0.986456, 177, 193, 208, 320
-0.986491, 437, 193, 468, 256
-0.986498, 461, 209, 492, 272
-0.986516, 353, 225, 384, 352
-0.986824, 233, 33, 264, 160
-0.986843, 285, 225, 316, 352
-0.986848, 281, 241, 312, 304
-0.98686, 461, 297, 492, 360
-0.986871, 421, 49, 452, 112
-0.986871, 165, 313, 196, 375
-0.986908, 405, 41, 436, 104
-0.986929, 225, 137, 352, 200
-0.986934, 13, 89, 44, 152
-0.986943, 429, 113, 460, 240
-0.986981, 73, 97, 104, 160
-0.987052, 469, 177, 500, 304
-0.987061, 449, 97, 480, 160
-0.987089, 333, 201, 364, 264
-0.987109, 293, 73, 324, 136
-0.987155, 149, 177, 180, 304
-0.987212, 257, 49, 384, 112
-0.987233, 241, 1, 368, 64
-0.987279, 125, 81, 156, 144
-0.987285, 445, 129, 476, 256
-0.987347, 369, 169, 400, 232
-0.987394, 133, 33, 164, 160
-0.987434, 129, 1, 192, 375
-0.987449, 1, 17, 32, 144
-0.987546, 65, 73, 96, 136
-0.987585, 377, 193, 408, 256
-0.987592, 453, 145, 484, 208
-0.987599, 257, 81, 288, 208
-0.987617, 209, 169, 240, 232
-0.987619, 377, 145, 408, 272
-0.987637, 93, 233, 124, 296
-0.987638, 49, 1, 112, 375
-0.987723, 45, 49, 76, 176
-0.987729, 433, 1, 496, 375
-0.987777, 429, 33, 460, 160
-0.98779, 321, 193, 352, 320
-0.987838, 189, 225, 220, 352
-0.987853, 113, 33, 144, 160
-0.987866, 241, 249, 272, 312
-0.987901, 321, 153, 448, 216
-0.987936, 309, 89, 340, 152
-0.987938, 265, 241, 296, 368
-0.987958, 153, 209, 184, 272
-0.987965, 321, 81, 352, 144
-0.988049, 101, 89, 132, 152
-0.988051, 141, 121, 172, 184
-0.988082, 389, 145, 420, 272
-0.988132, 289, 241, 352, 368
-0.988184, 469, 81, 500, 208
-0.988277, 293, 65, 324, 192
-0.988285, 385, 1, 448, 375
-0.988299, 273, 313, 400, 375
-0.988314, 265, 97, 328, 352
-0.988321, 57, 25, 88, 88
-0.988352, 253, 249, 284, 312
-0.988393, 113, 49, 240, 112
-0.988407, 105, 289, 136, 352
-0.98841, 405, 129, 436, 192
-0.988445, 81, 49, 112, 176
-0.988465, 169, 193, 200, 256
-0.988475, 433, 57, 464, 120
-0.988482, 1, 193, 32, 320
-0.98851, 361, 49, 392, 176
-0.988535, 1, 1, 64, 375
-0.98854, 249, 1, 312, 375
-0.988543, 85, 289, 116, 352
-0.988557, 77, 153, 108, 216
-0.988563, 269, 73, 300, 136
-0.988597, 361, 65, 392, 128
-0.988626, 421, 73, 452, 136
-0.988635, 161, 145, 288, 208
-0.988682, 193, 313, 320, 375
-0.988719, 461, 65, 492, 128
-0.988735, 413, 105, 444, 168
-0.988746, 149, 81, 180, 144
-0.988749, 161, 49, 288, 112
-0.988789, 469, 241, 500, 368
-0.988833, 21, 161, 52, 224
-0.988858, 73, 1, 136, 375
-0.98886, 161, 97, 192, 160
-0.988864, 353, 281, 384, 344
-0.988961, 21, 225, 52, 352
-0.989001, 229, 201, 260, 264
-0.989014, 169, 1, 232, 375
-0.989018, 97, 193, 128, 320
-0.989075, 85, 161, 116, 288
-0.989102, 361, 1, 424, 375
-0.989134, 321, 129, 352, 256
-0.989144, 445, 81, 476, 208
-0.989271, 1, 257, 500, 320
-0.98932, 17, 109, 80, 140
-0.989328, 13, 161, 44, 288
-0.98934, 161, 197, 224, 228
-0.989352, 309, 193, 340, 320
-0.989384, 369, 105, 496, 168
-0.989418, 401, 17, 432, 144
-0.989422, 201, 225, 232, 352
-0.989441, 129, 165, 192, 196
-0.989524, 105, 249, 168, 280
-0.989568, 41, 185, 104, 216
-0.989577, 137, 333, 200, 364
-0.989726, 33, 165, 96, 196
-0.989743, 197, 33, 228, 160
-0.989774, 121, 153, 184, 184
-0.989815, 129, 345, 192, 375
-0.989844, 73, 265, 136, 296
-0.989909, 349, 97, 380, 224
-0.989976, 65, 49, 192, 112
-0.989979, 337, 197, 400, 228
-0.990002, 221, 33, 252, 160
-0.990003, 65, 169, 320, 232
-0.990057, 121, 117, 184, 148
-0.990075, 97, 217, 160, 248
-0.990168, 281, 265, 344, 296
-0.990175, 1, 233, 64, 264
-0.990193, 49, 1, 176, 64
-0.990199, 409, 265, 472, 296
-0.990229, 1, 161, 64, 192
-0.990233, 249, 257, 312, 288
-0.990239, 33, 249, 288, 312
-0.990249, 433, 261, 496, 292
-0.990255, 41, 281, 104, 312
-0.990257, 97, 237, 160, 268
-0.990289, 217, 1, 280, 375
-0.990296, 129, 305, 192, 336
-0.990297, 361, 261, 424, 292
-0.990298, 417, 201, 480, 232
-0.990312, 105, 129, 168, 160
-0.990334, 321, 9, 448, 72
-0.990342, 193, 253, 256, 284
-0.990405, 321, 269, 384, 300
-0.990421, 177, 173, 240, 204
-0.990432, 161, 17, 288, 80
-0.990449, 81, 161, 144, 192
-0.990454, 441, 33, 472, 160
-0.990536, 65, 181, 128, 212
-0.990573, 105, 173, 168, 204
-0.990574, 81, 101, 144, 132
-0.9906, 417, 129, 448, 256
-0.990609, 313, 201, 376, 232
-0.990614, 425, 285, 488, 316
-0.990644, 37, 1, 68, 128
-0.990659, 113, 89, 176, 120
-0.990662, 257, 341, 320, 372
-0.990669, 305, 129, 432, 192
-0.990673, 153, 261, 216, 292
-0.990677, 281, 85, 344, 116
-0.990687, 253, 177, 284, 304
-0.990689, 177, 269, 240, 300
-0.990703, 25, 225, 88, 256
-0.990717, 49, 269, 112, 300
-0.99073, 41, 109, 104, 140
-0.990732, 413, 193, 444, 320
-0.99074, 137, 193, 200, 224
-0.990755, 1, 345, 64, 375
-0.990761, 105, 141, 168, 172
-0.990765, 377, 209, 440, 240
-0.990776, 9, 185, 72, 216
-0.990807, 289, 217, 352, 248
-0.990811, 337, 1, 400, 375
-0.990811, 129, 209, 192, 240
-0.990844, 33, 121, 96, 152
-0.990868, 17, 289, 80, 320
-0.990884, 405, 65, 436, 192
-0.990893, 105, 285, 168, 316
-0.990897, 137, 317, 200, 348
-0.990918, 433, 213, 496, 244
-0.990944, 105, 297, 168, 328
-0.990953, 249, 1, 312, 256
-0.990983, 201, 109, 264, 140
-0.990992, 9, 241, 40, 368
-0.991, 433, 273, 496, 304
-0.991014, 225, 261, 288, 292
-0.991017, 137, 289, 200, 320
-0.991026, 161, 185, 224, 216
-0.991033, 361, 341, 424, 372
-0.991034, 1, 273, 256, 336
-0.991044, 337, 89, 400, 120
-0.99107, 89, 317, 152, 348
-0.991071, 129, 133, 192, 164
-0.9911, 321, 257, 384, 288
-0.991102, 41, 305, 104, 336
-0.991103, 365, 129, 396, 256
-0.991111, 361, 249, 424, 280
-0.991112, 209, 177, 272, 208
-0.991113, 1, 93, 64, 124
-0.991118, 145, 65, 176, 192
-0.991127, 49, 217, 112, 248
-0.991129, 265, 277, 328, 308
-0.99114, 137, 181, 200, 212
-0.991153, 433, 245, 496, 276
-0.991167, 25, 97, 88, 128
-0.991171, 97, 117, 160, 148
-0.991172, 145, 153, 208, 184
-0.991174, 161, 241, 416, 304
-0.991185, 297, 45, 360, 76
-0.991185, 169, 345, 232, 375
-0.991193, 233, 337, 296, 368
-0.991193, 193, 209, 256, 240
-0.991194, 281, 97, 312, 224
-0.991201, 25, 1, 88, 375
-0.991235, 377, 197, 440, 228
-0.99125, 345, 273, 408, 304
-0.991256, 65, 1, 128, 32
-0.991257, 401, 113, 464, 144
-0.991264, 401, 229, 464, 260
-0.991272, 433, 165, 496, 196
-0.991275, 361, 101, 424, 132
-0.991276, 17, 1, 80, 32
-0.991288, 225, 85, 288, 116
-0.991299, 9, 173, 72, 204
-0.991299, 105, 185, 168, 216
-0.991342, 73, 289, 136, 320
-0.991362, 1, 81, 64, 112
-0.991371, 1, 273, 64, 304
-0.991371, 201, 241, 264, 272
-0.991388, 369, 161, 432, 192
-0.991394, 225, 273, 288, 304
-0.9914, 241, 185, 304, 216
-0.9914, 73, 229, 136, 260
-0.991413, 337, 173, 400, 204
-0.991424, 337, 213, 400, 244
-0.991445, 153, 121, 216, 152
-0.991448, 385, 261, 448, 292
-0.991456, 225, 193, 480, 256
-0.991457, 81, 253, 144, 284
-0.991463, 129, 229, 192, 260
-0.99147, 49, 89, 112, 120
-0.991479, 17, 333, 80, 364
-0.991494, 433, 185, 496, 216
-0.991497, 129, 253, 192, 284
-0.991505, 193, 189, 256, 220
-0.991511, 425, 133, 488, 164
-0.991516, 225, 105, 288, 136
-0.991528, 273, 193, 304, 320
-0.991529, 113, 105, 176, 136
-0.991538, 25, 209, 88, 240
-0.991561, 225, 201, 288, 232
-0.991565, 297, 97, 360, 128
-0.991566, 417, 345, 480, 375
-0.991572, 97, 345, 160, 375
-0.991576, 337, 309, 400, 340
-0.991587, 129, 217, 384, 280
-0.991588, 297, 1, 360, 375
-0.991605, 361, 321, 424, 352
-0.991635, 217, 225, 280, 256
-0.991636, 193, 73, 256, 104
-0.991645, 145, 277, 208, 308
-0.991651, 249, 105, 312, 136
-0.991664, 153, 81, 216, 112
-0.99167, 273, 49, 304, 176
-0.991671, 401, 125, 464, 156
-0.991676, 425, 109, 488, 140
-0.991676, 361, 113, 424, 144
-0.991677, 185, 89, 248, 120
-0.991689, 265, 1, 328, 32
-0.991781, 305, 129, 336, 256
-0.991794, 37, 209, 68, 336
-0.991828, 313, 65, 344, 192
-0.991901, 413, 17, 444, 144
-0.991964, 193, 169, 448, 232
-0.992109, 1, 97, 256, 160
-0.992268, 333, 113, 364, 240
-0.992313, 257, 241, 500, 304
-0.992314, 401, 193, 432, 320
-0.992467, 457, 281, 488, 312
-0.992476, 1, 313, 256, 375
-0.992502, 225, 89, 480, 152
-0.99253, 25, 109, 56, 140
-0.992545, 109, 121, 140, 152
-0.992551, 129, 117, 160, 148
-0.99256, 161, 265, 416, 328
-0.992596, 61, 273, 92, 304
-0.992611, 161, 185, 192, 216
-0.992613, 1, 145, 256, 208
-0.992619, 173, 193, 204, 224
-0.992636, 449, 269, 480, 300
-0.992639, 117, 245, 148, 276
-0.992644, 273, 1, 336, 375
-0.992654, 125, 153, 156, 184
-0.992669, 21, 333, 52, 364
-0.992673, 349, 269, 380, 300
-0.992684, 53, 193, 84, 224
-0.992689, 41, 285, 72, 316
-0.99269, 117, 285, 148, 316
-0.992712, 97, 145, 128, 272
-0.992713, 469, 281, 500, 312
-0.992724, 161, 121, 192, 152
-0.992726, 29, 161, 60, 192
-0.992731, 117, 221, 148, 252
-0.992736, 93, 261, 124, 292
-0.992736, 17, 233, 48, 264
-0.992748, 369, 25, 496, 88
-0.99275, 365, 305, 396, 336
-0.992753, 29, 229, 60, 260
-0.992757, 469, 293, 500, 324
-0.99276, 181, 261, 212, 292
-0.992763, 121, 173, 152, 204
-0.992769, 137, 157, 168, 188
-0.992781, 369, 317, 400, 348
-0.992784, 13, 117, 44, 148
-0.992788, 73, 177, 104, 208
-0.992789, 73, 265, 104, 296
-0.992793, 365, 233, 396, 264
-0.992796, 349, 197, 380, 228
-0.992799, 133, 345, 164, 375
-0.992801, 137, 209, 168, 240
-0.992802, 113, 161, 144, 192
-0.992808, 65, 193, 320, 256
-0.992809, 393, 65, 424, 192
-0.992818, 153, 197, 184, 228
-0.992818, 97, 81, 352, 144
-0.992822, 265, 321, 296, 352
-0.992832, 265, 333, 296, 364
-0.992838, 249, 257, 280, 288
-0.992841, 461, 245, 492, 276
-0.992842, 225, 25, 352, 88
-0.992844, 149, 121, 180, 152
-0.992846, 293, 265, 324, 296
-0.992848, 5, 81, 36, 112
-0.992854, 33, 181, 64, 212
-0.992854, 285, 277, 316, 308
-0.992863, 37, 109, 68, 140
-0.992864, 185, 197, 216, 228
-0.992864, 1, 109, 32, 140
-0.992867, 469, 153, 500, 184
-0.992871, 309, 265, 340, 296
-0.992874, 129, 289, 160, 320
-0.992883, 49, 213, 80, 244
-0.992886, 433, 273, 464, 304
-0.992891, 33, 281, 160, 312
-0.992891, 1, 233, 32, 264
-0.992892, 157, 133, 188, 164
-0.992894, 441, 257, 472, 288
-0.992894, 465, 269, 496, 300
-0.992899, 105, 249, 136, 280
-0.992903, 25, 149, 56, 180
-0.992904, 329, 269, 360, 300
-0.992907, 229, 261, 260, 292
-0.992913, 261, 345, 292, 375
-0.992916, 425, 205, 456, 236
-0.992918, 33, 321, 64, 352
-0.99292, 1, 341, 32, 372
-0.992925, 113, 25, 240, 88
-0.992926, 25, 129, 56, 160
-0.992928, 45, 225, 76, 256
-0.992928, 121, 321, 152, 352
-0.992929, 13, 345, 44, 375
-0.99293, 17, 1, 48, 32
-0.992934, 5, 97, 36, 128
-0.992934, 253, 277, 284, 308
-0.992938, 265, 309, 296, 340
-0.992938, 193, 257, 224, 288
-0.99294, 65, 189, 96, 220
-0.992943, 137, 173, 168, 204
-0.992947, 369, 245, 400, 276
-0.992947, 329, 205, 360, 236
-0.99295, 273, 1, 336, 256
-0.992953, 341, 209, 372, 240
-0.992954, 201, 201, 232, 232
-0.992956, 149, 153, 180, 184
-0.992963, 297, 217, 328, 248
-0.992967, 49, 305, 80, 336
-0.992968, 225, 281, 352, 344
-0.99297, 153, 169, 184, 200
-0.992975, 109, 93, 140, 124
-0.992977, 49, 105, 80, 136
-0.992985, 421, 221, 452, 252
-0.992988, 173, 177, 204, 208
-0.99299, 365, 293, 396, 324
-0.992993, 369, 213, 400, 244
-0.993002, 445, 285, 476, 316
-0.993002, 349, 281, 380, 312
-0.993003, 37, 125, 68, 156
-0.993005, 69, 105, 100, 136
-0.993011, 161, 257, 192, 288
-0.993017, 105, 237, 136, 268
-0.993019, 145, 141, 176, 172
-0.99302, 361, 273, 392, 304
-0.993021, 141, 333, 172, 364
-0.993022, 29, 293, 60, 324
-0.993026, 137, 237, 168, 268
-0.993027, 381, 197, 412, 228
-0.993028, 125, 89, 156, 120
-0.993029, 445, 229, 476, 260
-0.993032, 53, 285, 84, 316
-0.993034, 237, 181, 268, 212
-0.993034, 213, 205, 244, 236
-0.993035, 409, 213, 440, 244
-0.993036, 113, 141, 144, 172
-0.993039, 165, 205, 196, 236
-0.993039, 405, 197, 436, 228
-0.993041, 433, 221, 464, 252
-0.993047, 37, 149, 68, 180
-0.99305, 125, 233, 156, 264
-0.993053, 273, 289, 304, 320
-0.993054, 469, 181, 500, 212
-0.993056, 129, 301, 160, 332
-0.993057, 241, 205, 272, 236
-0.993059, 141, 109, 172, 140
-0.993059, 457, 145, 488, 176
-0.99306, 1, 285, 32, 316
-0.993061, 329, 41, 360, 72
-0.993065, 165, 341, 196, 372
-0.993069, 273, 277, 304, 308
-0.993074, 1, 225, 256, 288
-0.993077, 353, 225, 384, 256
-0.993078, 89, 1, 120, 32
-0.993079, 221, 229, 252, 260
-0.993079, 421, 261, 452, 292
-0.993082, 137, 225, 168, 256
-0.993134, 329, 65, 360, 192
-0.993364, 1, 161, 500, 224
-0.993499, 1, 97, 500, 160
-0.993534, 261, 33, 292, 160
-0.993623, 29, 49, 60, 176
-0.993748, 81, 257, 208, 288
-0.993779, 113, 345, 240, 375
-0.993896, 1, 181, 128, 212
-0.993905, 161, 177, 288, 208
-0.993919, 161, 273, 288, 304
-0.993922, 321, 313, 448, 375
-0.993925, 17, 225, 144, 256
-0.99402, 1, 217, 500, 280
-0.994054, 273, 265, 400, 296
-0.994078, 49, 25, 176, 88
-0.994081, 193, 113, 448, 176
-0.994137, 81, 181, 208, 212
-0.994153, 81, 289, 208, 320
-0.994219, 97, 145, 352, 208
-0.994313, 1, 121, 256, 184
-0.994353, 97, 1, 224, 64
-0.994408, 1, 281, 500, 344
-0.994413, 129, 201, 256, 232
-0.994458, 225, 137, 480, 200
-0.994512, 209, 257, 336, 288
-0.994513, 81, 301, 208, 332
-0.994555, 365, 257, 380, 320
-0.994565, 257, 217, 500, 280
-0.994578, 33, 101, 160, 132
-0.99462, 129, 213, 256, 244
-0.994646, 81, 161, 208, 192
-0.994656, 21, 1, 36, 64
-0.99468, 1, 1, 256, 64
-0.994709, 161, 253, 288, 284
-0.994747, 97, 289, 352, 352
-0.994755, 47, 281, 62, 344
-0.99481, 1, 117, 128, 148
-0.994818, 1, 193, 500, 256
-0.994863, 209, 233, 336, 264
-0.994878, 49, 269, 176, 300
-0.994896, 61, 33, 76, 96
-0.994903, 369, 281, 384, 344
-0.994946, 81, 193, 208, 224
-0.994946, 1, 1, 128, 32
-0.994956, 465, 273, 480, 336
-0.99499, 257, 265, 500, 328
-0.994992, 337, 345, 464, 375
-0.994994, 137, 209, 152, 272
-0.995004, 149, 185, 164, 248
-0.99501, 115, 121, 130, 184
-0.995037, 113, 217, 128, 280
-0.995047, 337, 261, 464, 292
-0.995091, 97, 121, 352, 184
-0.995118, 57, 273, 72, 336
-0.995121, 225, 33, 480, 96
-0.995128, 73, 265, 88, 328
-0.995132, 443, 225, 458, 288
-0.995134, 1, 73, 500, 136
-0.995149, 39, 153, 54, 216
-0.995154, 63, 273, 78, 336
-0.995156, 369, 1, 496, 64
-0.995181, 145, 209, 160, 272
-0.995189, 459, 265, 474, 328
-0.995213, 81, 129, 208, 160
-0.995218, 177, 189, 304, 220
-0.995232, 143, 185, 158, 248
-0.995259, 369, 201, 496, 232
-0.995266, 225, 1, 480, 64
-0.995279, 137, 289, 152, 352
-0.995292, 1, 269, 128, 300
-0.995299, 257, 57, 500, 120
-0.995313, 367, 193, 382, 256
-0.995316, 97, 57, 352, 120
-0.995327, 33, 161, 160, 192
-0.995331, 143, 313, 158, 375
-0.995333, 9, 81, 24, 144
-0.995365, 129, 165, 256, 196
-0.995369, 181, 257, 196, 320
-0.995379, 273, 277, 400, 308
-0.995388, 85, 265, 100, 328
-0.995395, 1, 241, 16, 304
-0.995399, 121, 145, 136, 208
-0.995416, 79, 265, 94, 328
-0.995444, 31, 121, 46, 184
-0.995454, 477, 153, 492, 216
-0.995455, 77, 177, 92, 240
-0.995456, 483, 273, 498, 336
-0.995463, 249, 169, 264, 232
-0.995467, 97, 277, 224, 308
-0.995481, 289, 209, 416, 240
-0.995488, 381, 65, 396, 128
-0.995497, 155, 185, 170, 248
-0.995528, 133, 313, 148, 375
-0.995536, 209, 221, 336, 252
-0.995539, 353, 277, 480, 308
-0.995543, 3, 97, 18, 160
-0.995545, 1, 49, 256, 112
-0.995569, 241, 189, 368, 220
-0.995572, 353, 185, 368, 248
-0.99559, 453, 249, 468, 312
-0.995593, 91, 265, 106, 328
-0.995598, 129, 281, 144, 344
-0.995633, 97, 225, 224, 256
-0.995658, 129, 237, 256, 268
-0.995663, 57, 65, 72, 128
-0.995695, 161, 309, 288, 340
-0.995697, 209, 205, 336, 236
-0.995733, 57, 185, 72, 248
-0.99574, 33, 149, 160, 180
-0.995745, 113, 333, 240, 364
-0.995745, 373, 233, 388, 296
-0.99575, 49, 213, 176, 244
-0.995756, 157, 121, 172, 184
-0.995769, 475, 281, 490, 344
-0.995775, 289, 253, 416, 284
-0.995796, 125, 217, 140, 280
-0.995815, 447, 249, 462, 312
-0.995841, 145, 121, 272, 152
-0.995842, 103, 249, 118, 312
-0.995844, 321, 281, 448, 344
-0.995857, 41, 281, 56, 344
-0.995861, 153, 209, 168, 272
-0.995868, 183, 169, 198, 232
-0.995887, 369, 245, 496, 276
-0.995896, 369, 161, 496, 192
-0.995897, 65, 117, 192, 148
-0.9959, 21, 113, 36, 176
-0.995904, 1, 45, 128, 76
-0.995906, 299, 209, 314, 272
-0.995908, 353, 233, 480, 264
-0.995914, 161, 289, 288, 320
-0.995919, 127, 145, 142, 208
-0.995933, 41, 121, 56, 184
-0.995945, 35, 97, 50, 160
-0.995955, 65, 89, 192, 120
-0.995963, 277, 265, 292, 328
-0.995973, 215, 241, 230, 304
-0.995976, 289, 241, 416, 272
-0.995983, 345, 185, 360, 248
-0.995984, 305, 93, 432, 124
-0.99599, 265, 273, 280, 336
-0.995998, 377, 273, 392, 336
-0.996002, 337, 213, 464, 244
-0.996008, 353, 97, 480, 128
-0.996018, 151, 145, 166, 208
-0.99602, 437, 233, 452, 296
-0.996023, 81, 321, 208, 352
-0.996026, 67, 185, 82, 248
-0.996032, 33, 313, 160, 344
-0.996032, 361, 217, 376, 280
-0.996034, 53, 65, 84, 320
-0.996039, 9, 113, 24, 176
-0.99604, 15, 89, 30, 152
-0.996043, 137, 185, 152, 248
-0.996051, 287, 273, 302, 336
-0.996057, 33, 293, 160, 324
-0.996064, 1, 313, 500, 375
-0.996072, 33, 193, 160, 224
-0.996083, 161, 345, 288, 375
-0.996091, 159, 161, 174, 224
-0.996099, 209, 101, 336, 132
-0.996105, 179, 313, 194, 375
-0.996106, 353, 17, 416, 144
-0.996106, 115, 153, 130, 216
-0.996108, 223, 233, 238, 296
-0.996147, 189, 265, 204, 328
-0.996152, 49, 185, 64, 248
-0.996152, 131, 209, 146, 272
-0.996171, 273, 25, 400, 88
-0.996178, 369, 309, 496, 340
-0.996179, 81, 149, 208, 180
-0.99618, 321, 41, 448, 72
-0.996181, 189, 169, 204, 232
-0.996182, 225, 345, 352, 375
-0.996183, 233, 225, 248, 288
-0.996184, 161, 321, 288, 352
-0.996199, 119, 217, 134, 280
-0.996203, 289, 197, 416, 228
-0.996214, 481, 177, 496, 240
-0.996224, 413, 129, 428, 192
-0.996232, 337, 333, 464, 364
-0.996251, 1, 17, 128, 48
-0.996292, 15, 113, 30, 176
-0.996301, 297, 257, 312, 320
-0.996303, 97, 257, 112, 320
-0.99631, 111, 89, 126, 152
-0.996317, 371, 81, 386, 144
-0.996329, 109, 249, 124, 312
-0.996342, 177, 169, 192, 232
-0.996348, 61, 89, 76, 152
-0.996349, 449, 225, 464, 288
-0.996354, 145, 97, 272, 128
-0.996358, 1, 137, 500, 200
-0.996362, 13, 33, 28, 96
-0.996367, 209, 241, 224, 304
-0.996368, 137, 249, 152, 312
-0.996372, 17, 237, 144, 268
-0.996387, 373, 201, 388, 264
-0.996407, 273, 221, 400, 252
-0.996413, 113, 85, 240, 116
-0.996415, 209, 245, 336, 276
-0.99642, 141, 81, 156, 144
-0.996428, 275, 289, 290, 352
-0.996432, 135, 145, 150, 208
-0.996437, 359, 193, 374, 256
-0.996438, 81, 105, 208, 136
-0.996444, 475, 249, 490, 312
-0.996461, 369, 293, 496, 324
-0.996477, 257, 105, 384, 136
-0.996481, 239, 177, 254, 240
-0.996496, 369, 181, 496, 212
-0.996502, 175, 257, 190, 320
-0.996514, 271, 313, 286, 375
-0.996521, 471, 145, 486, 208
-0.996525, 45, 161, 60, 224
-0.996528, 255, 177, 270, 240
-0.99653, 339, 185, 354, 248
-0.996542, 129, 189, 256, 220
-0.996547, 9, 225, 24, 288
-0.996551, 81, 245, 208, 276
-0.996553, 225, 313, 480, 375
-0.996559, 483, 145, 498, 208
-0.99656, 75, 89, 90, 152
-0.996562, 125, 169, 140, 232
-0.996568, 415, 105, 430, 168
-0.996579, 423, 49, 438, 112
-0.996582, 379, 241, 394, 304
-0.99659, 387, 249, 402, 312
-0.996591, 71, 161, 86, 224
-0.996593, 45, 97, 60, 160
-0.996596, 199, 161, 214, 224
-0.996606, 163, 185, 178, 248
-0.996607, 193, 81, 320, 112
-0.996607, 165, 257, 180, 320
-0.996611, 29, 97, 44, 160
-0.996612, 103, 97, 118, 160
-0.996614, 161, 333, 288, 364
-0.996615, 375, 297, 390, 360
-0.996615, 453, 273, 468, 336
-0.996616, 431, 49, 446, 112
-0.996617, 163, 121, 178, 184
-0.996623, 53, 161, 68, 224
-0.996631, 97, 9, 352, 72
-0.996637, 171, 153, 186, 216
-0.996655, 1, 89, 128, 120
-0.996658, 1, 73, 256, 136
-0.996664, 199, 249, 214, 312
-0.996671, 243, 249, 258, 312
-0.996679, 1, 25, 256, 88
-0.996685, 173, 313, 188, 375
-0.996694, 97, 313, 352, 375
-0.996702, 241, 85, 368, 116
-0.996705, 129, 109, 256, 140
-0.99675, 225, 269, 352, 300
-0.996759, 241, 49, 368, 80
-0.996766, 105, 129, 136, 375
-0.996784, 145, 153, 272, 184
-0.996786, 1, 77, 128, 108
-0.996826, 1, 133, 128, 164
-0.996845, 369, 145, 496, 176
-0.996864, 289, 181, 416, 212
-0.996888, 29, 65, 60, 320
-0.996975, 1, 1, 32, 256
-0.996982, 85, 65, 116, 320
-0.996984, 121, 129, 152, 375
-0.997018, 1, 57, 128, 88
-0.997041, 369, 77, 496, 108
-0.997044, 273, 321, 400, 352
-0.997056, 369, 61, 496, 92
-0.997059, 65, 333, 192, 364
-0.997085, 213, 129, 244, 375
-0.997085, 305, 109, 432, 140
-0.997222, 273, 333, 400, 364
-0.997247, 321, 165, 448, 196
-0.997265, 145, 141, 272, 172
-0.997294, 161, 97, 192, 352
-0.997295, 97, 33, 352, 96
-0.997301, 145, 73, 272, 104
-0.997322, 1, 33, 128, 64
-0.997324, 193, 117, 320, 148
-0.997346, 225, 165, 352, 196
-0.997356, 65, 65, 96, 320
-0.997377, 141, 341, 156, 372
-0.997405, 305, 81, 432, 112
-0.997437, 457, 129, 488, 375
-0.997463, 273, 345, 400, 375
-0.997504, 241, 1, 368, 32
-0.997507, 369, 321, 496, 352
-0.997512, 321, 53, 448, 84
-0.997532, 139, 233, 154, 264
-0.997539, 469, 97, 500, 352
-0.997546, 241, 177, 368, 208
-0.99759, 173, 129, 204, 375
-0.997597, 193, 69, 320, 100
-0.997611, 49, 1, 176, 32
-0.997622, 241, 37, 368, 68
-0.997631, 37, 161, 52, 192
-0.997639, 61, 49, 76, 80
-0.997654, 367, 281, 382, 312
-0.997682, 341, 33, 372, 288
-0.997684, 273, 297, 400, 328
-0.997689, 39, 109, 54, 140
-0.9977, 103, 257, 118, 288
-0.997701, 133, 285, 148, 316
-0.997711, 363, 269, 378, 300
-0.997711, 321, 69, 448, 100
-0.997713, 3, 93, 18, 124
-0.997717, 3, 109, 18, 140
-0.997729, 13, 1, 44, 256
-0.997746, 229, 97, 260, 352
-0.99776, 437, 97, 468, 352
-0.99776, 341, 129, 372, 375
-0.997765, 21, 9, 36, 40
-0.997765, 173, 181, 188, 212
-0.997767, 131, 157, 146, 188
-0.997768, 329, 1, 360, 256
-0.997772, 273, 61, 400, 92
-0.997773, 113, 121, 128, 152
-0.997785, 115, 241, 130, 272
-0.99779, 137, 325, 152, 356
-0.997794, 243, 253, 258, 284
-0.997794, 455, 277, 470, 308
-0.997797, 33, 325, 48, 356
-0.997802, 367, 225, 382, 256
-0.997811, 73, 185, 88, 216
-0.997817, 21, 229, 36, 260
-0.997818, 27, 109, 42, 140
-0.997833, 31, 129, 46, 160
-0.997837, 61, 37, 76, 68
-0.997849, 393, 1, 424, 256
-0.997866, 481, 157, 496, 188
-0.997868, 185, 265, 200, 296
-0.997874, 1, 1, 500, 64
-0.997874, 33, 113, 48, 144
-0.997874, 135, 345, 150, 375
-0.997877, 43, 285, 58, 316
-0.997882, 81, 177, 96, 208
-0.997883, 7, 81, 22, 112
-0.997884, 193, 97, 224, 352
-0.997887, 273, 309, 400, 340
-0.997887, 39, 325, 54, 356
-0.997895, 369, 49, 496, 80
-0.9979, 373, 65, 404, 320
-0.997906, 141, 129, 172, 375
-0.997922, 51, 285, 66, 316
-0.997923, 183, 193, 198, 224
-0.997923, 105, 33, 136, 288
-0.997925, 461, 285, 476, 316
-0.997926, 7, 233, 22, 264
-0.99793, 153, 121, 168, 152
-0.997947, 249, 129, 280, 375
-0.997947, 305, 29, 432, 60
-0.997959, 277, 289, 292, 320
-0.997959, 251, 181, 266, 212
-0.997962, 205, 253, 220, 284
-0.997963, 23, 333, 38, 364
-0.997963, 297, 265, 312, 296
-0.997966, 137, 165, 152, 196
-0.997967, 13, 341, 28, 372
-0.997968, 353, 269, 368, 300
-0.997969, 461, 269, 476, 300
-0.997973, 41, 65, 72, 320
-0.997974, 13, 233, 28, 264
-0.997982, 17, 345, 144, 375
-0.997984, 485, 281, 500, 312
-0.997991, 125, 33, 156, 288
-0.997993, 161, 149, 176, 180
-0.997998, 87, 265, 102, 296
-0.998005, 157, 205, 172, 236
-0.998005, 113, 225, 128, 256
-0.998011, 353, 125, 480, 156
-0.998011, 121, 161, 136, 192
-0.998012, 143, 109, 158, 140
-0.998015, 381, 73, 396, 104
-0.998015, 31, 153, 46, 184
-0.998019, 343, 269, 358, 300
-0.998019, 267, 277, 282, 308
-0.998021, 455, 253, 470, 284
-0.998032, 189, 193, 204, 224
-0.998032, 351, 197, 366, 228
-0.998033, 41, 149, 56, 180
-0.998041, 313, 265, 328, 296
-0.998042, 469, 277, 484, 308
-0.998042, 143, 329, 158, 360
-0.998044, 341, 205, 356, 236
-0.998046, 353, 109, 480, 140
-0.998047, 369, 293, 384, 324
-0.998053, 123, 121, 138, 152
-0.998055, 1, 277, 16, 308
-0.998056, 305, 129, 432, 160
-0.998059, 319, 265, 334, 296
-0.99806, 27, 229, 42, 260
-0.998061, 1, 81, 16, 112
-0.998064, 449, 269, 464, 300
-0.998065, 173, 329, 188, 360
-0.998067, 157, 137, 172, 168
-0.998067, 97, 257, 112, 288
-0.998069, 7, 345, 22, 375
-0.998071, 357, 65, 388, 320
-0.998073, 225, 133, 352, 164
-0.998075, 109, 237, 124, 268
-0.998076, 197, 261, 212, 292
-0.998077, 483, 181, 498, 212
-0.998091, 301, 213, 316, 244
-0.998091, 109, 253, 124, 284
-0.998092, 43, 125, 58, 156
-0.998093, 193, 57, 320, 88
-0.998098, 373, 233, 388, 264
-0.998101, 263, 257, 278, 288
-0.998103, 405, 65, 436, 320
-0.998106, 1, 237, 16, 268
-0.998107, 371, 265, 386, 296
-0.998114, 53, 105, 68, 136
-0.998115, 73, 273, 88, 304
-0.998117, 43, 301, 58, 332
-0.998122, 181, 177, 196, 208
-0.998122, 149, 209, 164, 240
-0.998127, 339, 41, 354, 72
-0.998129, 163, 197, 178, 228
-0.998132, 127, 281, 142, 312
-0.998133, 455, 265, 470, 296
-0.998138, 61, 105, 76, 136
-0.998139, 177, 1, 208, 256
-0.998142, 133, 117, 148, 148
-0.998144, 393, 129, 424, 375
-0.998156, 473, 293, 488, 324
-0.998158, 333, 269, 348, 300
-0.998159, 133, 237, 148, 268
-0.998161, 157, 193, 172, 224
-0.998163, 429, 201, 444, 232
-0.998163, 241, 73, 368, 104
-0.998164, 289, 273, 304, 304
-0.99817, 481, 301, 496, 332
-0.998172, 171, 193, 186, 224
-0.998174, 193, 41, 320, 72
-0.998176, 73, 169, 88, 200
-0.998178, 47, 109, 62, 140
-0.998182, 79, 269, 94, 300
-0.998185, 5, 97, 36, 352
-0.998188, 117, 137, 132, 168
-0.998188, 177, 165, 304, 196
-0.998193, 303, 265, 318, 296
-0.998194, 125, 141, 140, 172
-0.998195, 7, 281, 22, 312
-0.998199, 53, 213, 68, 244
-0.998201, 443, 225, 458, 256
-0.998208, 241, 265, 256, 296
-0.998209, 51, 165, 66, 196
-0.998212, 39, 229, 54, 260
-0.998216, 449, 245, 464, 276
-0.998218, 467, 289, 482, 320
-0.998219, 165, 129, 180, 160
-0.998222, 325, 265, 340, 296
-0.998228, 143, 153, 158, 184
-0.998232, 59, 89, 74, 120
-0.998235, 313, 33, 344, 288
-0.998235, 129, 173, 144, 204
-0.998237, 59, 193, 74, 224
-0.998238, 347, 209, 362, 240
-0.998241, 37, 125, 52, 156
-0.998326, 277, 97, 308, 352
-0.998397, 329, 211, 360, 226
-0.998399, 221, 209, 252, 224
-0.998399, 153, 153, 184, 168
-0.998399, 265, 343, 296, 358
-0.998399, 161, 341, 192, 356
-0.998401, 245, 349, 276, 364
-0.998402, 93, 185, 124, 200
-0.998402, 369, 277, 400, 292
-0.998403, 209, 111, 240, 126
-0.998403, 373, 195, 404, 210
-0.998403, 137, 175, 168, 190
-0.998403, 341, 213, 372, 228
-0.998403, 437, 277, 468, 292
-0.998405, 361, 215, 392, 230
-0.998405, 265, 315, 296, 330
-0.998405, 417, 267, 448, 282
-0.998405, 225, 111, 256, 126
-0.998406, 37, 127, 68, 142
-0.998406, 177, 257, 208, 272
-0.998406, 241, 183, 272, 198
-0.998407, 405, 267, 436, 282
-0.998407, 5, 113, 36, 128
-0.998408, 129, 167, 160, 182
-0.998408, 5, 167, 36, 182
-0.998408, 349, 281, 380, 296
-0.998409, 109, 187, 140, 202
-0.99841, 125, 127, 156, 142
-0.998412, 233, 227, 264, 242
-0.998412, 37, 325, 68, 340
-0.998413, 441, 231, 472, 246
-0.998413, 161, 201, 224, 216
-0.998413, 117, 321, 148, 336
-0.998414, 61, 307, 92, 322
-0.998414, 29, 331, 60, 346
-0.998414, 461, 277, 492, 292
-0.998414, 149, 161, 180, 176
-0.998414, 465, 301, 496, 316
-0.998414, 153, 257, 184, 272
-0.998417, 33, 189, 64, 204
-0.998417, 445, 271, 476, 286
-0.998417, 53, 223, 84, 238
-0.998418, 141, 253, 172, 268
-0.99842, 161, 131, 192, 146
-0.998421, 17, 163, 48, 178
-0.998421, 109, 125, 140, 140
-0.998421, 9, 345, 40, 360
-0.998423, 153, 1, 184, 256
-0.998423, 77, 291, 108, 306
-0.998423, 117, 105, 148, 120
-0.998423, 369, 249, 400, 264
-0.998424, 45, 283, 76, 298
-0.998425, 129, 285, 160, 300
-0.998426, 369, 327, 400, 342
-0.998426, 157, 121, 188, 136
-0.998429, 53, 163, 84, 178
-0.998429, 137, 215, 168, 230
-0.998429, 301, 217, 332, 232
-0.99843, 17, 337, 48, 352
-0.998431, 469, 155, 500, 170
-0.998432, 57, 115, 88, 130
-0.998433, 261, 349, 292, 364
-0.998434, 345, 199, 376, 214
-0.998434, 21, 137, 52, 152
-0.998435, 365, 307, 396, 322
-0.998436, 165, 261, 196, 276
-0.998436, 157, 187, 188, 202
-0.998438, 5, 91, 36, 106
-0.998438, 265, 337, 296, 352
-0.998439, 105, 251, 168, 266
-0.998441, 1, 287, 32, 302
-0.998441, 197, 169, 228, 184
-0.998442, 437, 265, 468, 280
-0.998442, 17, 9, 48, 24
-0.998443, 61, 279, 92, 294
-0.998443, 153, 203, 184, 218
-0.998444, 13, 119, 44, 134
-0.998444, 365, 243, 396, 258
-0.998445, 457, 1, 488, 256
-0.998446, 285, 277, 316, 292
-0.998447, 129, 357, 160, 372
-0.998447, 265, 327, 296, 342
-0.998448, 185, 347, 216, 362
-0.998448, 209, 205, 240, 220
-0.998448, 69, 187, 100, 202
-0.99845, 65, 183, 128, 198
-0.998451, 309, 47, 340, 62
-0.998451, 33, 167, 64, 182
-0.998451, 25, 229, 56, 244
-0.998452, 457, 293, 488, 308
-0.998452, 117, 181, 148, 196
-0.998453, 133, 291, 164, 306
-0.998453, 265, 321, 296, 336
-0.998453, 181, 267, 212, 282
-0.998454, 85, 265, 116, 280
-0.998454, 297, 97, 328, 352
-0.998455, 369, 321, 400, 336
-0.998455, 137, 159, 168, 174
-0.998458, 349, 273, 380, 288
-0.998459, 173, 345, 204, 360
-0.998459, 241, 221, 272, 236
-0.998459, 133, 351, 164, 366
-0.99846, 37, 289, 68, 304
-0.998461, 145, 209, 176, 224
-0.998462, 137, 343, 168, 358
-0.998464, 69, 273, 100, 288
-0.998466, 101, 99, 132, 114
-0.998468, 169, 195, 200, 210
-0.99847, 177, 203, 208, 218
-0.99847, 1, 237, 32, 252
-0.99847, 197, 349, 228, 364
-0.99847, 365, 313, 396, 328
-0.998471, 121, 291, 152, 306
-0.998471, 217, 351, 248, 366
-0.998472, 449, 277, 480, 292
-0.998477, 29, 113, 60, 128
-0.998478, 121, 161, 184, 176
-0.998481, 469, 283, 500, 298
-0.998481, 1, 167, 64, 182
-0.998482, 137, 115, 168, 130
-0.998482, 453, 283, 484, 298
-0.998485, 241, 255, 272, 270
-0.998488, 129, 341, 192, 356
-0.99849, 185, 197, 216, 212
-0.998491, 1, 85, 32, 100
-0.998496, 97, 289, 128, 304
-0.998497, 125, 159, 156, 174
-0.998497, 109, 253, 140, 268
-0.998498, 329, 45, 360, 60
-0.9985, 241, 355, 272, 370
-0.998505, 41, 229, 72, 244
-0.998506, 261, 129, 292, 375
-0.998507, 17, 111, 80, 126
-0.998508, 229, 353, 260, 368
-0.998508, 77, 181, 108, 196
-0.998509, 97, 287, 160, 302
-0.99851, 121, 247, 152, 262
-0.998514, 217, 353, 280, 368
-0.998516, 197, 201, 228, 216
-0.998517, 321, 271, 384, 286
-0.998517, 105, 187, 168, 202
-0.998524, 169, 207, 232, 222
-0.998524, 41, 285, 104, 300
-0.998526, 13, 233, 44, 248
-0.998527, 57, 189, 120, 204
-0.998527, 25, 121, 56, 136
-0.998528, 41, 181, 104, 196
-0.998534, 185, 171, 248, 186
-0.998535, 361, 263, 424, 278
-0.998539, 73, 99, 136, 114
-0.99854, 185, 349, 248, 364
-0.99854, 241, 351, 304, 366
-0.99854, 97, 259, 128, 274
-0.998541, 109, 131, 140, 146
-0.998542, 433, 277, 496, 292
-0.998542, 97, 127, 160, 142
-0.998542, 129, 349, 192, 364
-0.998542, 289, 219, 352, 234
-0.998544, 409, 269, 472, 284
-0.998545, 121, 119, 184, 134
-0.998545, 433, 269, 496, 284
-0.998549, 41, 175, 104, 190
-0.99855, 1, 233, 64, 248
-0.99855, 105, 135, 168, 150
-0.998552, 121, 173, 184, 188
-0.998554, 161, 345, 224, 360
-0.998555, 117, 285, 148, 300
-0.998555, 337, 199, 400, 214
-0.998559, 137, 335, 200, 350
-0.998559, 25, 189, 88, 204
-0.99856, 81, 105, 144, 120
-0.998562, 129, 319, 192, 334
-0.998562, 313, 213, 376, 228
-0.998562, 33, 291, 96, 306
-0.998562, 33, 167, 96, 182
-0.998563, 1, 119, 64, 134
-0.998564, 185, 273, 248, 288
-0.998564, 137, 33, 168, 288
-0.998564, 377, 211, 440, 226
-0.998564, 9, 285, 72, 300
-0.998565, 137, 293, 200, 308
-0.998565, 41, 195, 104, 210
-0.998565, 161, 195, 224, 210
-0.998565, 129, 325, 192, 340
-0.998565, 113, 257, 176, 272
-0.998568, 297, 45, 360, 60
-0.998568, 121, 129, 184, 144
-0.99857, 417, 263, 480, 278
-0.99857, 81, 265, 144, 280
-0.998571, 153, 263, 216, 278
-0.998571, 1, 195, 64, 210
-0.998571, 337, 205, 400, 220
-0.998575, 281, 279, 344, 294
-0.998577, 89, 161, 152, 176
-0.998577, 201, 253, 264, 268
-0.998577, 89, 181, 152, 196
-0.998578, 113, 221, 176, 236
-0.998579, 361, 269, 424, 284
-0.99858, 385, 267, 448, 282
-0.998582, 137, 135, 200, 150
-0.998582, 217, 111, 280, 126
-0.998583, 17, 129, 48, 375
-0.998583, 1, 173, 64, 188
-0.998583, 249, 255, 312, 270
-0.998584, 25, 229, 88, 244
-0.998584, 89, 241, 152, 256
-0.998585, 113, 95, 176, 110
-0.998586, 425, 287, 488, 302
-0.998586, 113, 361, 176, 375
-0.998587, 105, 229, 168, 244
-0.998589, 121, 179, 184, 194
-0.99859, 73, 291, 136, 306
-0.99859, 81, 135, 144, 150
-0.998591, 337, 213, 400, 228
-0.998591, 145, 299, 208, 314
-0.998593, 57, 275, 120, 290
-0.998593, 193, 199, 256, 214
-0.998593, 49, 223, 112, 238
-0.998594, 129, 213, 192, 228
-0.998594, 1, 347, 64, 362
-0.998594, 217, 347, 280, 362
-0.998594, 25, 117, 88, 132
-0.998595, 417, 205, 480, 220
-0.998596, 153, 123, 216, 138
-0.998598, 105, 153, 168, 168
-0.998599, 89, 317, 152, 332
-0.998602, 145, 285, 208, 300
-0.998602, 193, 259, 256, 274
-0.998602, 1, 279, 64, 294
-0.998603, 121, 355, 184, 370
-0.998605, 137, 187, 200, 202
-0.998605, 137, 207, 200, 222
-0.998606, 129, 313, 192, 328
-0.998607, 193, 209, 256, 224
-0.998607, 65, 1, 128, 16
-0.998609, 17, 137, 80, 152
-0.998609, 161, 169, 224, 184
-0.998609, 297, 203, 360, 218
-0.998611, 25, 123, 88, 138
-0.998611, 153, 251, 216, 266
-0.998611, 361, 345, 424, 360
-0.998612, 121, 141, 184, 156
-0.998612, 121, 285, 184, 300
-0.998612, 281, 89, 344, 104
-0.998612, 33, 105, 96, 120
-0.998613, 249, 223, 312, 238
-0.998614, 337, 361, 400, 375
-0.998615, 297, 271, 360, 286
-0.998615, 401, 275, 464, 290
-0.998615, 17, 7, 80, 22
-0.998615, 425, 349, 488, 364
-0.998617, 89, 171, 152, 186
-0.998617, 41, 307, 104, 322
-0.998617, 89, 259, 152, 274
-0.998617, 9, 89, 72, 104
-0.998617, 185, 119, 248, 134
-0.998618, 289, 225, 352, 240
-0.998618, 361, 339, 424, 354
-0.998619, 25, 1, 88, 16
-0.998621, 433, 293, 496, 308
-0.998622, 217, 229, 280, 244
-0.998622, 225, 277, 288, 292
-0.998622, 369, 165, 432, 180
-0.998622, 233, 119, 296, 134
-0.998623, 369, 203, 432, 218
-0.998623, 9, 13, 72, 28
-0.998623, 401, 121, 464, 136
-0.998636, 417, 65, 448, 320
-0.99867, 329, 97, 360, 352
-0.998719, 369, 241, 384, 368
-0.998771, 41, 97, 56, 224
-0.998774, 253, 1, 284, 256
-0.998804, 165, 1, 196, 256
-0.998835, 47, 97, 62, 224
-0.998836, 213, 1, 244, 256
-0.998863, 61, 33, 76, 160
-0.998865, 9, 65, 24, 192
-0.998872, 91, 241, 106, 368
-0.998875, 375, 225, 390, 352
-0.998891, 145, 241, 160, 368
-0.998914, 233, 1, 264, 256
-0.998919, 33, 97, 48, 224
-0.998942, 313, 129, 344, 375
-0.99895, 193, 1, 224, 256
-0.998968, 81, 113, 96, 240
-0.99897, 53, 97, 68, 224
-0.998977, 17, 49, 32, 176
-0.998982, 367, 177, 382, 304
-0.998988, 177, 241, 192, 368
-0.99899, 63, 209, 78, 336
-0.998994, 69, 113, 84, 240
-0.998997, 383, 225, 398, 352
-0.99901, 85, 241, 100, 368
-0.999021, 477, 97, 492, 224
-0.999022, 3, 65, 18, 192
-0.999022, 97, 241, 112, 368
-0.999026, 301, 193, 316, 320
-0.99903, 169, 241, 184, 368
-0.999034, 379, 177, 394, 304
-0.999038, 69, 177, 84, 304
-0.999048, 55, 33, 70, 160
-0.999057, 155, 241, 170, 368
-0.999065, 373, 177, 388, 304
-0.999074, 75, 209, 90, 336
-0.999078, 117, 129, 132, 256
-0.999083, 241, 177, 256, 304
-0.999085, 21, 113, 36, 240
-0.999094, 165, 193, 180, 320
-0.999103, 163, 241, 178, 368
-0.999112, 149, 81, 164, 208
-0.999114, 381, 65, 396, 192
-0.999124, 229, 209, 244, 336
-0.999125, 75, 113, 90, 240
-0.999125, 125, 161, 140, 288
-0.99913, 135, 81, 150, 208
-0.999135, 415, 113, 430, 240
-0.999138, 61, 97, 76, 224
-0.99914, 201, 145, 216, 272
-0.999145, 213, 161, 228, 288
-0.999155, 453, 225, 468, 352
-0.999163, 467, 225, 482, 352
-0.999164, 129, 209, 144, 336
-0.999168, 233, 161, 248, 288
-0.999169, 39, 145, 54, 272
-0.999169, 219, 177, 234, 304
-0.99917, 247, 113, 262, 240
-0.999173, 171, 161, 186, 288
-0.999174, 129, 97, 144, 224
-0.999175, 183, 241, 198, 368
-0.999184, 233, 81, 248, 208
-0.999188, 89, 97, 104, 224
-0.999189, 103, 241, 118, 368
-0.999193, 79, 49, 94, 176
-0.999193, 419, 65, 434, 192
-0.9992, 81, 193, 96, 320
-0.999209, 275, 241, 290, 368
-0.99921, 27, 113, 42, 240
-0.999213, 21, 1, 36, 128
-0.999213, 139, 241, 154, 368
-0.999213, 123, 225, 138, 352
-0.999221, 215, 225, 230, 352
-0.999221, 111, 81, 126, 208
-0.999223, 121, 81, 136, 208
-0.999224, 247, 193, 262, 320
-0.999227, 457, 113, 472, 240
-0.99923, 255, 97, 270, 224
-0.999234, 141, 81, 156, 208
-0.999236, 7, 113, 22, 240
-0.999236, 57, 177, 72, 304
-0.999236, 13, 113, 28, 240
-0.999237, 251, 1, 266, 128
-0.99924, 135, 193, 150, 320
-0.999247, 75, 161, 90, 288
-0.999248, 221, 225, 236, 352
-0.999254, 445, 1, 476, 256
-0.999256, 175, 113, 190, 240
-0.999261, 69, 225, 84, 352
-0.999275, 99, 81, 114, 208
-0.999275, 409, 113, 424, 240
-0.999275, 429, 193, 444, 320
-0.999275, 473, 145, 488, 272
-0.999278, 213, 81, 228, 208
-0.999278, 235, 209, 250, 336
-0.999281, 361, 193, 376, 320
-0.999282, 177, 193, 192, 320
-0.999283, 483, 161, 498, 288
-0.999283, 227, 161, 242, 288
-0.999284, 45, 145, 60, 272
-0.999289, 199, 81, 214, 208
-0.999295, 431, 33, 446, 160
-0.999296, 73, 65, 88, 192
-0.999298, 181, 113, 196, 240
-0.9993, 113, 241, 128, 368
-0.999302, 239, 113, 254, 240
-0.999303, 467, 177, 482, 304
-0.999303, 53, 241, 68, 368
-0.999304, 461, 193, 476, 320
-0.999306, 31, 161, 46, 288
-0.999309, 85, 49, 100, 176
-0.999313, 63, 161, 78, 288
-0.999313, 469, 1, 500, 256
-0.999314, 451, 81, 466, 208
-0.999314, 307, 193, 322, 320
-0.999318, 425, 33, 440, 160
-0.999319, 67, 33, 82, 160
-0.99932, 345, 177, 360, 304
-0.999322, 451, 129, 466, 256
-0.999322, 467, 97, 482, 224
-0.999323, 159, 193, 174, 320
-0.999325, 363, 241, 378, 368
-0.999331, 191, 81, 206, 208
-0.999331, 209, 225, 224, 352
-0.999335, 207, 161, 222, 288
-0.999337, 265, 1, 280, 128
-0.999341, 113, 193, 128, 320
-0.999341, 23, 65, 38, 192
-0.999344, 105, 97, 120, 224
-0.999345, 437, 33, 452, 160
-0.999346, 189, 225, 204, 352
-0.999347, 227, 81, 242, 208
-0.999349, 111, 145, 126, 272
-0.999351, 389, 177, 404, 304
-0.999351, 449, 177, 464, 304
-0.999351, 295, 193, 310, 320
-0.999352, 185, 161, 200, 288
-0.999355, 473, 225, 488, 352
-0.999356, 375, 65, 390, 192
-0.999492, 429, 1, 460, 256
-0.999554, 257, 289, 500, 352
-0.99957, 1, 49, 500, 112
-0.999595, 471, 201, 486, 216
-0.999595, 149, 157, 164, 172
-0.999596, 81, 271, 96, 286
-0.999596, 145, 293, 160, 308
-0.999596, 331, 45, 346, 60
-0.999596, 197, 263, 212, 278
-0.999596, 139, 251, 154, 266
-0.999597, 145, 253, 160, 268
-0.999597, 255, 185, 270, 200
-0.999597, 261, 255, 276, 270
-0.999598, 117, 287, 132, 302
-0.999598, 205, 349, 220, 364
-0.999598, 49, 287, 64, 302
-0.999599, 41, 167, 56, 182
-0.999599, 481, 157, 496, 172
-0.999599, 153, 127, 168, 142
-0.999599, 225, 209, 240, 224
-0.999599, 357, 221, 372, 236
-0.999599, 173, 183, 188, 198
-0.999599, 219, 351, 234, 366
-0.999599, 133, 353, 148, 368
-0.9996, 347, 199, 362, 214
-0.9996, 405, 265, 420, 280
-0.9996, 15, 287, 30, 302
-0.9996, 443, 265, 458, 280
-0.999601, 63, 215, 78, 230
-0.999601, 19, 233, 34, 248
-0.999601, 289, 277, 304, 292
-0.999601, 189, 347, 204, 362
-0.999601, 43, 125, 58, 140
-0.999601, 151, 299, 166, 314
-0.999601, 131, 291, 146, 306
-0.999602, 19, 87, 34, 102
-0.999602, 141, 111, 156, 126
-0.999602, 31, 141, 46, 156
-0.999602, 35, 323, 50, 338
-0.999603, 75, 273, 90, 288
-0.999603, 231, 351, 246, 366
-0.999604, 133, 119, 148, 134
-0.999604, 301, 217, 316, 232
-0.999605, 73, 113, 88, 128
-0.999605, 237, 353, 252, 368
-0.999606, 49, 317, 64, 332
-0.999606, 463, 287, 478, 302
-0.999608, 255, 221, 270, 236
-0.999608, 127, 125, 142, 140
-0.999608, 195, 347, 210, 362
-0.999609, 57, 225, 72, 240
-0.99961, 117, 245, 132, 260
-0.99961, 475, 191, 490, 206
-0.999611, 61, 35, 76, 50
-0.999611, 219, 207, 234, 222
-0.999611, 67, 189, 82, 204
-0.999611, 277, 289, 292, 304
-0.999611, 129, 245, 144, 260
-0.999611, 179, 345, 194, 360
-0.999612, 57, 283, 72, 298
-0.999612, 31, 131, 46, 146
-0.999612, 473, 283, 488, 298
-0.999613, 323, 47, 338, 62
-0.999613, 67, 277, 82, 292
-0.999614, 21, 9, 36, 24
-0.999615, 103, 289, 118, 304
-0.999615, 211, 349, 226, 364
-0.999616, 137, 329, 152, 344
-0.999616, 7, 91, 22, 106
-0.999617, 133, 167, 148, 182
-0.999618, 139, 159, 154, 174
-0.999618, 433, 219, 448, 234
-0.999619, 167, 201, 182, 216
-0.999619, 39, 293, 54, 308
-0.999619, 117, 161, 132, 176
-0.99962, 33, 113, 48, 128
-0.999622, 361, 273, 376, 288
-0.999623, 61, 49, 76, 64
-0.999623, 205, 201, 220, 216
-0.999624, 371, 277, 386, 292
-0.999624, 225, 351, 240, 366
-0.999624, 455, 267, 470, 282
-0.999626, 9, 283, 24, 298
-0.999626, 137, 289, 152, 304
-0.999628, 137, 237, 152, 252
-0.999629, 15, 343, 30, 358
-0.999629, 3, 279, 18, 294
-0.999629, 123, 287, 138, 302
-0.999631, 43, 323, 58, 338
-0.999632, 111, 97, 126, 112
-0.999632, 115, 103, 130, 118
-0.999632, 49, 171, 64, 186
-0.999633, 51, 227, 66, 242
-0.999633, 191, 197, 206, 212
-0.999635, 367, 293, 382, 308
-0.999636, 213, 205, 228, 220
-0.999636, 27, 233, 42, 248
-0.999636, 241, 253, 256, 268
-0.999637, 45, 227, 60, 242
-0.999638, 187, 267, 202, 282
-0.999638, 9, 85, 24, 100
-0.999639, 199, 199, 214, 214
-0.99964, 185, 195, 200, 210
-0.999642, 315, 47, 330, 62
-0.999642, 367, 229, 382, 244
-0.999644, 87, 267, 102, 282
-0.999644, 119, 251, 134, 266
-0.999646, 139, 347, 154, 362
-0.999649, 485, 151, 500, 166
-0.999649, 365, 287, 380, 302
-0.999649, 113, 125, 128, 140
-0.999652, 457, 283, 472, 298
-0.999655, 27, 115, 42, 130
-0.999658, 243, 353, 258, 368
-0.999659, 67, 115, 82, 130
-0.999661, 37, 123, 52, 138
-0.999664, 29, 329, 44, 344
-0.999665, 75, 185, 90, 200
-0.999667, 93, 263, 108, 278
-0.999667, 21, 337, 36, 352
-0.999668, 39, 229, 54, 244
-0.999669, 1, 93, 16, 108
-0.99967, 33, 231, 48, 246
-0.99967, 81, 181, 96, 196
-0.999672, 451, 277, 466, 292
-0.999679, 127, 161, 142, 176
-0.999681, 93, 289, 108, 304
-0.999684, 255, 355, 270, 370
-0.999686, 29, 121, 44, 136
-0.999686, 265, 1, 296, 256
-0.999701, 101, 259, 116, 274
-0.999706, 143, 341, 158, 356
-0.999711, 131, 285, 146, 300
-0.999737, 109, 257, 124, 272
-0.999859, 301, 1, 332, 256
-0.999924, 281, 1, 312, 256
-1.00039, 1, 25, 500, 88
