1923
-0.441446, 1, 97, 500, 342
-0.539911, 1, 1, 500, 256
-0.569685, 1, 1, 500, 342
-0.576519, 129, 97, 384, 342
-0.651287, 33, 1, 288, 342
-0.654713, 225, 1, 480, 342
-0.668002, 225, 97, 480, 342
-0.702397, 33, 97, 288, 342
-0.709672, 129, 1, 384, 342
-0.734889, 225, 1, 480, 256
-0.83702, 97, 1, 352, 256
-0.844857, 193, 65, 320, 320
-0.858735, 369, 97, 496, 342
-0.868422, 1, 1, 256, 256
-0.873781, 145, 97, 272, 342
-0.876083, 1, 113, 500, 240
-0.885021, 241, 33, 368, 288
-0.885091, 97, 129, 352, 256
-0.892229, 193, 1, 320, 342
-0.894881, 241, 1, 368, 342
-0.899615, 1, 129, 256, 256
-0.900295, 145, 1, 272, 342
-0.901196, 321, 97, 448, 342
-0.9053, 257, 113, 500, 240
-0.911589, 369, 1, 496, 256
-0.914653, 1, 65, 500, 192
-0.915266, 161, 81, 416, 208
-0.915506, 369, 97, 496, 224
-0.918153, 97, 97, 224, 342
-0.918236, 1, 161, 500, 288
-0.919697, 409, 81, 472, 208
-0.922521, 353, 1, 480, 342
-0.924178, 49, 97, 176, 342
-0.924358, 97, 1, 224, 342
-0.926084, 321, 1, 448, 256
-0.926625, 177, 113, 304, 240
-0.927924, 233, 129, 296, 256
-0.928067, 257, 65, 500, 192
-0.931854, 113, 1, 240, 256
-0.932062, 225, 129, 352, 256
-0.932552, 153, 129, 216, 256
-0.933007, 129, 129, 256, 256
-0.934966, 305, 1, 432, 342
-0.936565, 49, 1, 176, 342
-0.937151, 1, 97, 128, 342
-0.938171, 193, 161, 448, 288
-0.938213, 65, 129, 192, 256
-0.938828, 177, 113, 240, 240
-0.938832, 233, 81, 296, 208
-0.939252, 385, 113, 448, 240
-0.939303, 273, 129, 336, 256
-0.93984, 41, 129, 104, 256
-0.940427, 289, 129, 416, 256
-0.942496, 65, 81, 320, 208
-0.943687, 113, 129, 176, 256
-0.944754, 417, 97, 480, 160
-0.945994, 209, 65, 336, 192
-0.947462, 17, 129, 144, 256
-0.947883, 201, 81, 264, 208
-0.950864, 297, 129, 360, 256
-0.951522, 9, 129, 72, 256
-0.951637, 177, 161, 304, 288
-0.951959, 409, 129, 472, 192
-0.951966, 233, 145, 296, 208
-0.952234, 433, 65, 496, 192
-0.952427, 177, 137, 240, 200
-0.952759, 65, 129, 128, 256
-0.952819, 361, 113, 424, 240
-0.952913, 257, 49, 320, 176
-0.953699, 209, 145, 272, 272
-0.955324, 257, 177, 320, 240
-0.955936, 417, 129, 480, 256
-0.955943, 97, 177, 352, 304
-0.955951, 257, 81, 384, 208
-0.956181, 337, 145, 464, 272
-0.956771, 89, 129, 152, 256
-0.957831, 97, 137, 160, 200
-0.95798, 241, 177, 368, 304
-0.958431, 161, 65, 288, 192
-0.958446, 385, 129, 448, 192
-0.958663, 121, 137, 184, 200
-0.958845, 257, 137, 320, 200
-0.959959, 9, 145, 72, 208
-0.960307, 217, 169, 280, 232
-0.960567, 73, 137, 136, 200
-0.960916, 209, 145, 272, 208
-0.961055, 113, 161, 176, 224
-0.961092, 393, 97, 456, 160
-0.961154, 337, 129, 400, 256
-0.961476, 345, 137, 408, 200
-0.961567, 321, 81, 448, 208
-0.962126, 225, 65, 288, 320
-0.962303, 417, 73, 480, 136
-0.962603, 33, 137, 96, 200
-0.962897, 257, 177, 320, 304
-0.963429, 33, 1, 160, 256
-0.963508, 209, 105, 272, 168
-0.963571, 1, 177, 256, 304
-0.964126, 425, 81, 456, 208
-0.964648, 153, 129, 216, 192
-0.964744, 1, 1, 128, 342
-0.966547, 441, 81, 472, 208
-0.966694, 217, 73, 280, 136
-0.967386, 185, 113, 248, 176
-0.967511, 405, 97, 436, 224
-0.967647, 425, 97, 456, 160
-0.967907, 265, 49, 328, 112
-0.96798, 409, 65, 472, 320
-0.968026, 145, 137, 272, 200
-0.968259, 81, 161, 144, 224
-0.968349, 393, 153, 456, 216
-0.968506, 313, 137, 376, 200
-0.968547, 385, 65, 448, 192
-0.968568, 281, 137, 344, 200
-0.96876, 225, 193, 288, 256
-0.968921, 193, 177, 256, 240
-0.969111, 185, 177, 248, 304
-0.969197, 1, 145, 128, 208
-0.96922, 369, 129, 496, 192
-0.969759, 241, 65, 304, 128
-0.969895, 137, 161, 200, 224
-0.970258, 261, 113, 292, 240
-0.970609, 257, 201, 320, 264
-0.970691, 137, 81, 200, 208
-0.970786, 281, 169, 344, 232
-0.970947, 233, 121, 296, 184
-0.971494, 225, 17, 480, 144
-0.971955, 49, 137, 176, 200
-0.972141, 441, 113, 472, 176
-0.972226, 193, 113, 320, 176
-0.97234, 185, 201, 248, 264
-0.972408, 225, 137, 352, 200
-0.972435, 89, 145, 120, 208
-0.972611, 65, 81, 192, 208
-0.973188, 249, 33, 312, 288
-0.973287, 237, 145, 268, 208
-0.973297, 241, 129, 272, 256
-0.973329, 445, 65, 476, 128
-0.973381, 273, 169, 304, 232
-0.973398, 189, 129, 220, 192
-0.973821, 65, 177, 192, 304
-0.973833, 129, 177, 256, 304
-0.973864, 289, 137, 416, 200
-0.973873, 433, 121, 496, 184
-0.97395, 405, 105, 436, 168
-0.974047, 417, 153, 480, 216
-0.974098, 257, 33, 384, 160
-0.97412, 185, 97, 248, 342
-0.974215, 25, 129, 56, 256
-0.974216, 369, 105, 496, 168
-0.974297, 41, 169, 104, 232
-0.974631, 209, 177, 336, 240
-0.974673, 257, 97, 320, 160
-0.974759, 253, 121, 284, 184
-0.974885, 289, 129, 320, 256
-0.975018, 153, 185, 216, 248
-0.975101, 361, 161, 424, 224
-0.975114, 229, 145, 260, 272
-0.975194, 161, 129, 192, 256
-0.975293, 233, 33, 296, 160
-0.975297, 17, 81, 144, 208
-0.975334, 257, 169, 384, 232
-0.975445, 233, 177, 296, 304
-0.975728, 421, 121, 452, 184
-0.975823, 337, 81, 400, 208
-0.975825, 393, 97, 424, 224
-0.975854, 41, 129, 72, 256
-0.975909, 113, 81, 176, 208
-0.975954, 113, 81, 240, 208
-0.975965, 101, 137, 132, 200
-0.976102, 157, 137, 188, 200
-0.976164, 9, 169, 72, 232
-0.976187, 257, 57, 288, 120
-0.976219, 73, 129, 104, 256
-0.976254, 125, 137, 156, 200
-0.976324, 21, 145, 52, 208
-0.976592, 453, 81, 484, 208
-0.976718, 73, 81, 136, 208
-0.97681, 237, 81, 268, 208
-0.976913, 325, 129, 356, 256
-0.977037, 137, 129, 168, 256
-0.977182, 285, 177, 316, 240
-0.977204, 385, 129, 416, 192
-0.977205, 177, 129, 208, 256
-0.977229, 277, 129, 308, 256
-0.977333, 225, 81, 256, 208
-0.97735, 145, 137, 176, 200
-0.977355, 353, 153, 480, 216
-0.977438, 365, 137, 396, 200
-0.977474, 409, 137, 440, 200
-0.977542, 305, 81, 368, 208
-0.977551, 109, 161, 140, 224
-0.97756, 313, 129, 344, 256
-0.977596, 265, 49, 296, 176
-0.977684, 65, 169, 192, 232
-0.977696, 385, 65, 448, 320
-0.977711, 209, 201, 336, 264
-0.977931, 113, 137, 144, 200
-0.97808, 97, 129, 224, 192
-0.978111, 369, 105, 432, 168
-0.978146, 61, 129, 92, 256
-0.978228, 265, 137, 296, 200
-0.978529, 33, 81, 96, 208
-0.978544, 129, 161, 256, 224
-0.978582, 329, 169, 392, 232
-0.978603, 169, 137, 200, 200
-0.978632, 445, 137, 476, 200
-0.97885, 225, 177, 256, 240
-0.978871, 121, 177, 184, 304
-0.978922, 109, 129, 140, 256
-0.979011, 433, 73, 464, 136
-0.979097, 217, 145, 248, 272
-0.979245, 381, 113, 412, 240
-0.979264, 253, 161, 284, 224
-0.979309, 261, 161, 292, 288
-0.979447, 125, 129, 156, 256
-0.979468, 17, 177, 80, 304
-0.979473, 209, 97, 240, 224
-0.979942, 249, 65, 280, 192
-0.979991, 273, 33, 336, 288
-0.979995, 89, 129, 120, 256
-0.980105, 189, 113, 220, 240
-0.980116, 61, 145, 92, 208
-0.980248, 177, 89, 304, 152
-0.980379, 277, 49, 308, 176
-0.980463, 241, 121, 272, 184
-0.98047, 201, 113, 232, 176
-0.980669, 33, 145, 64, 208
-0.980672, 77, 137, 108, 200
-0.980681, 369, 49, 496, 176
-0.980719, 281, 49, 312, 112
-0.980724, 261, 97, 292, 160
-0.980791, 353, 137, 384, 200
-0.98094, 145, 113, 272, 176
-0.980959, 277, 137, 308, 200
-0.981003, 161, 97, 224, 342
-0.981085, 449, 89, 480, 152
-0.9812, 305, 169, 368, 232
-0.981247, 301, 129, 332, 256
-0.981391, 321, 113, 448, 176
-0.981401, 9, 153, 40, 216
-0.981428, 149, 129, 180, 256
-0.981443, 433, 65, 496, 320
-0.981461, 281, 177, 344, 304
-0.981478, 241, 57, 368, 120
-0.981585, 245, 73, 276, 136
-0.981683, 97, 169, 128, 232
-0.98173, 281, 201, 344, 264
-0.981952, 417, 129, 448, 256
-0.982002, 377, 161, 440, 288
-0.982116, 145, 185, 272, 248
-0.982181, 449, 129, 480, 256
-0.982236, 345, 129, 376, 256
-0.982287, 1, 177, 128, 304
-0.982356, 13, 129, 44, 256
-0.982714, 121, 161, 152, 224
-0.982764, 161, 161, 224, 224
-0.982781, 305, 169, 432, 232
-0.982826, 213, 105, 244, 168
-0.983243, 157, 161, 188, 224
-0.983301, 133, 161, 164, 224
-0.983332, 225, 81, 352, 144
-0.983406, 249, 1, 312, 342
-0.983486, 121, 185, 184, 248
-0.983497, 205, 137, 236, 200
-0.983549, 145, 161, 176, 224
-0.983586, 361, 65, 424, 192
-0.983635, 233, 97, 296, 160
-0.983642, 409, 33, 472, 160
-0.983842, 41, 177, 104, 304
-0.983864, 289, 137, 320, 200
-0.98392, 49, 169, 80, 232
-0.984031, 217, 145, 248, 208
-0.984048, 269, 49, 300, 112
-0.984166, 45, 137, 76, 200
-0.984206, 177, 209, 304, 336
-0.984261, 369, 81, 496, 144
-0.98438, 333, 137, 364, 200
-0.984387, 241, 113, 368, 176
-0.984886, 369, 113, 400, 240
-0.985194, 405, 145, 436, 272
-0.985295, 161, 217, 224, 280
-0.98534, 457, 137, 488, 200
-0.985356, 421, 145, 452, 208
-0.985386, 1, 169, 128, 232
-0.985474, 113, 97, 176, 342
-0.985602, 357, 129, 388, 256
-0.985604, 297, 169, 328, 232
-0.985665, 305, 137, 336, 200
-0.985679, 321, 137, 352, 200
-0.985682, 145, 209, 272, 272
-0.985703, 397, 145, 428, 208
-0.985806, 265, 193, 296, 256
-0.98582, 209, 201, 240, 264
-0.985911, 233, 81, 264, 144
-0.985954, 313, 177, 376, 304
-0.985985, 361, 97, 424, 342
-0.985995, 1, 209, 500, 336
-0.986187, 209, 1, 272, 342
-0.986213, 209, 193, 272, 320
-0.986264, 461, 73, 492, 136
-0.986451, 281, 81, 344, 208
-0.986531, 137, 97, 200, 342
-0.986566, 457, 113, 488, 176
-0.986873, 225, 137, 480, 200
-0.986888, 85, 169, 116, 232
-0.986896, 153, 209, 216, 336
-0.986947, 97, 113, 160, 176
-0.987103, 97, 161, 352, 224
-0.987323, 65, 33, 320, 160
-0.987368, 237, 193, 268, 256
-0.987423, 297, 97, 360, 342
-0.987532, 265, 73, 328, 136
-0.987632, 273, 177, 304, 304
-0.987658, 357, 161, 388, 224
-0.987696, 41, 97, 104, 342
-0.987888, 9, 81, 72, 208
-0.987891, 1, 137, 256, 200
-0.987949, 409, 105, 472, 136
-0.987996, 21, 169, 52, 232
-0.988013, 213, 177, 244, 240
-0.98823, 129, 113, 192, 176
-0.988318, 437, 33, 468, 160
-0.988332, 409, 1, 472, 342
-0.988338, 185, 145, 248, 176
-0.988466, 209, 149, 272, 180
-0.988473, 161, 97, 224, 160
-0.988504, 393, 145, 424, 272
-0.98851, 385, 161, 416, 224
-0.98865, 417, 153, 480, 184
-0.988711, 417, 117, 480, 148
-0.988748, 253, 193, 284, 256
-0.988765, 241, 41, 304, 104
-0.988795, 321, 97, 384, 342
-0.988807, 161, 65, 224, 192
-0.988931, 177, 49, 304, 112
-0.989067, 73, 169, 104, 232
-0.989069, 97, 105, 224, 168
-0.989088, 33, 177, 64, 304
-0.989102, 417, 133, 480, 164
-0.989117, 273, 1, 336, 128
-0.989118, 1, 97, 64, 342
-0.989159, 181, 153, 212, 216
-0.989199, 209, 205, 272, 236
-0.989228, 105, 165, 168, 196
-0.989246, 413, 49, 444, 176
-0.989287, 249, 201, 312, 232
-0.989314, 377, 121, 440, 152
-0.989331, 429, 129, 460, 256
-0.989364, 257, 201, 384, 264
-0.989414, 217, 161, 280, 192
-0.989482, 289, 177, 416, 304
-0.989488, 1, 137, 500, 200
-0.989546, 61, 169, 92, 232
-0.989556, 97, 193, 224, 256
-0.989683, 417, 93, 480, 124
-0.989693, 393, 157, 456, 188
-0.989712, 249, 137, 312, 168
-0.989714, 277, 201, 308, 264
-0.989792, 97, 137, 352, 200
-0.989828, 369, 169, 400, 232
-0.989833, 137, 137, 200, 168
-0.989861, 89, 141, 152, 172
-0.98988, 241, 169, 304, 200
-0.989927, 461, 129, 492, 256
-0.989958, 233, 81, 296, 112
-0.990064, 169, 81, 200, 208
-0.990183, 121, 81, 152, 208
-0.99019, 217, 101, 280, 132
-0.990201, 45, 177, 76, 304
-0.990207, 33, 145, 96, 176
-0.990229, 1, 157, 64, 188
-0.990259, 113, 177, 176, 208
-0.990283, 137, 165, 200, 196
-0.990316, 57, 141, 120, 172
-0.990319, 217, 217, 280, 280
-0.990345, 425, 77, 488, 108
-0.990407, 273, 205, 336, 236
-0.990412, 185, 209, 248, 240
-0.990423, 137, 209, 200, 272
-0.990499, 273, 177, 336, 208
-0.990509, 225, 193, 288, 224
-0.99051, 205, 161, 236, 288
-0.990533, 465, 81, 496, 208
-0.990539, 297, 201, 328, 264
-0.990574, 89, 177, 152, 208
-0.990596, 377, 169, 440, 200
-0.990605, 169, 133, 232, 164
-0.99062, 345, 173, 408, 204
-0.990649, 169, 157, 232, 188
-0.990739, 49, 113, 176, 176
-0.990774, 417, 165, 480, 196
-0.9908, 149, 81, 180, 208
-0.990801, 209, 133, 272, 164
-0.990809, 41, 113, 104, 176
-0.990824, 265, 53, 328, 84
-0.990856, 129, 149, 192, 180
-0.990867, 249, 65, 312, 96
-0.990872, 225, 113, 480, 176
-0.990884, 249, 213, 312, 244
-0.99089, 369, 57, 496, 120
-0.990898, 197, 209, 228, 272
-0.990901, 37, 169, 68, 232
-0.990948, 89, 81, 120, 208
-0.990965, 433, 145, 464, 208
-0.990979, 193, 165, 256, 196
-0.991013, 329, 113, 392, 176
-0.991023, 309, 177, 340, 240
-0.991035, 413, 81, 444, 144
-0.991075, 73, 113, 136, 176
-0.991087, 385, 109, 448, 140
-0.991092, 145, 177, 176, 304
-0.991107, 321, 169, 384, 200
-0.991138, 297, 173, 360, 204
-0.991138, 265, 189, 328, 220
-0.991151, 41, 177, 104, 208
-0.991162, 1, 177, 64, 208
-0.991166, 273, 73, 304, 136
-0.99117, 97, 153, 160, 184
-0.991172, 333, 81, 364, 208
-0.99121, 345, 161, 376, 224
-0.991219, 377, 145, 440, 176
-0.991246, 65, 157, 128, 188
-0.991287, 153, 201, 216, 232
-0.991304, 177, 113, 208, 176
-0.991311, 65, 177, 128, 208
-0.991322, 89, 97, 152, 342
-0.991327, 361, 133, 424, 164
-0.991359, 233, 149, 296, 180
-0.991401, 321, 33, 448, 160
-0.991473, 305, 81, 336, 208
-0.991474, 281, 25, 344, 88
-0.991505, 257, 169, 500, 232
-0.991512, 249, 125, 312, 156
-0.991577, 1, 121, 128, 184
-0.99158, 249, 97, 280, 160
-0.991585, 9, 145, 72, 176
-0.991599, 169, 1, 232, 342
-0.991666, 225, 181, 288, 212
-0.991707, 1, 17, 500, 144
-0.991738, 209, 113, 272, 144
-0.991759, 113, 137, 176, 168
-0.991764, 353, 161, 416, 192
-0.991805, 141, 185, 172, 248
-0.991865, 161, 145, 224, 176
-0.991873, 109, 81, 140, 208
-0.99191, 225, 193, 256, 320
-0.991914, 177, 1, 304, 128
-0.991937, 321, 181, 384, 212
-0.991938, 165, 113, 196, 176
-0.991951, 217, 217, 280, 248
-0.992022, 161, 217, 224, 248
-0.992042, 433, 105, 496, 136
-0.992049, 169, 161, 200, 224
-0.992051, 241, 49, 304, 80
-0.992056, 209, 33, 272, 160
-0.992079, 201, 185, 264, 216
-0.992087, 449, 109, 480, 140
-0.992087, 237, 153, 268, 184
-0.992091, 449, 149, 480, 180
-0.992105, 305, 209, 368, 272
-0.992111, 25, 165, 88, 196
-0.992136, 65, 185, 128, 248
-0.992171, 1, 169, 256, 232
-0.992171, 221, 201, 252, 264
-0.992179, 433, 101, 464, 132
-0.99219, 185, 121, 248, 152
-0.99219, 125, 165, 156, 196
-0.992218, 1, 161, 500, 224
-0.992221, 257, 105, 320, 136
-0.99223, 273, 137, 336, 168
-0.992232, 65, 129, 128, 160
-0.99224, 185, 141, 216, 172
-0.992258, 185, 197, 248, 228
-0.992258, 105, 169, 136, 200
-0.992263, 257, 157, 320, 188
-0.992266, 393, 133, 456, 164
-0.992284, 1, 153, 128, 184
-0.992286, 317, 177, 348, 304
-0.992297, 385, 97, 448, 128
-0.992299, 237, 205, 268, 236
-0.992316, 153, 189, 216, 220
-0.992321, 413, 153, 444, 184
-0.992322, 273, 217, 336, 248
-0.992339, 313, 137, 376, 168
-0.992344, 297, 213, 360, 244
-0.992353, 421, 105, 452, 136
-0.992354, 277, 201, 308, 232
-0.992357, 237, 169, 268, 232
-0.992389, 161, 145, 288, 176
-0.992405, 225, 65, 288, 96
-0.992433, 349, 81, 380, 208
-0.992443, 225, 89, 480, 152
-0.992453, 449, 73, 480, 104
-0.992458, 145, 177, 208, 208
-0.992459, 337, 137, 400, 168
-0.992472, 165, 193, 196, 256
-0.992486, 29, 81, 60, 208
-0.992504, 65, 97, 128, 342
-0.992514, 425, 153, 456, 184
-0.992528, 445, 161, 476, 224
-0.992532, 297, 209, 328, 240
-0.992542, 257, 137, 288, 168
-0.992553, 41, 189, 104, 220
-0.992558, 209, 205, 240, 236
-0.992559, 297, 185, 360, 216
-0.992559, 405, 109, 436, 140
-0.99256, 229, 121, 260, 184
-0.992565, 289, 161, 352, 192
-0.992575, 265, 93, 328, 124
-0.992579, 265, 57, 296, 88
-0.992593, 65, 141, 96, 172
-0.992596, 85, 137, 116, 168
-0.992618, 257, 209, 288, 240
-0.992618, 225, 157, 256, 188
-0.992627, 33, 133, 96, 164
-0.992635, 221, 205, 252, 236
-0.992637, 261, 169, 292, 200
-0.992641, 333, 161, 364, 224
-0.992653, 69, 81, 100, 208
-0.992659, 81, 137, 208, 168
-0.992666, 421, 133, 452, 164
-0.992671, 41, 177, 72, 208
-0.992671, 309, 201, 340, 264
-0.992679, 425, 89, 456, 120
-0.992687, 173, 137, 204, 168
-0.992688, 197, 129, 228, 160
-0.99269, 277, 173, 308, 204
-0.992692, 437, 145, 468, 176
-0.992698, 281, 41, 344, 72
-0.992701, 197, 145, 228, 176
-0.992702, 13, 153, 44, 184
-0.992725, 177, 153, 208, 184
-0.992729, 401, 153, 432, 184
-0.992746, 29, 185, 60, 216
-0.99275, 441, 85, 472, 116
-0.992755, 145, 121, 208, 152
-0.992759, 45, 141, 76, 172
-0.992765, 257, 69, 288, 100
-0.992766, 265, 197, 296, 228
-0.992776, 421, 117, 452, 148
-0.992776, 449, 161, 480, 192
-0.992781, 157, 165, 188, 196
-0.992793, 185, 129, 216, 160
-0.992799, 273, 69, 336, 100
-0.992801, 249, 177, 280, 304
-0.992804, 221, 169, 252, 200
-0.99281, 369, 161, 496, 192
-0.992811, 133, 81, 164, 208
-0.992822, 309, 209, 340, 240
-0.992823, 121, 189, 184, 220
-0.992839, 441, 121, 472, 152
-0.992845, 345, 117, 408, 148
-0.992845, 443, 81, 458, 144
-0.992851, 129, 113, 384, 176
-0.992864, 105, 137, 136, 168
-0.992865, 289, 177, 320, 208
-0.992865, 137, 177, 168, 208
-0.992867, 265, 81, 328, 112
-0.992875, 277, 49, 308, 80
-0.992879, 393, 105, 424, 168
-0.992889, 141, 165, 172, 196
-0.992891, 209, 89, 272, 120
-0.992894, 89, 129, 152, 160
-0.9929, 229, 193, 260, 224
-0.992906, 277, 189, 308, 220
-0.992911, 453, 97, 484, 128
-0.992918, 97, 185, 160, 248
-0.992921, 401, 121, 432, 152
-0.992926, 89, 177, 120, 208
-0.992936, 449, 137, 480, 168
-0.992958, 409, 165, 440, 196
-0.992967, 373, 165, 404, 196
-0.992967, 349, 169, 380, 200
-0.992969, 409, 141, 440, 172
-0.992989, 237, 141, 268, 172
-0.99299, 329, 173, 360, 204
-0.992991, 321, 157, 384, 188
-0.992996, 5, 173, 36, 204
-0.993003, 393, 169, 424, 200
-0.993012, 33, 145, 64, 176
-0.993014, 437, 157, 468, 188
-0.993022, 249, 149, 280, 180
-0.993024, 209, 145, 240, 176
-0.993034, 177, 185, 240, 216
-0.99304, 89, 149, 120, 180
-0.993043, 353, 1, 416, 256
-0.993047, 289, 49, 320, 80
-0.993051, 385, 129, 416, 160
-0.993054, 421, 165, 452, 196
-0.993063, 241, 165, 272, 196
-0.993064, 257, 125, 288, 156
-0.993069, 161, 137, 192, 168
-0.993073, 17, 177, 48, 208
-0.993074, 29, 169, 60, 200
-0.993079, 121, 209, 184, 240
-0.993084, 169, 169, 232, 200
-0.993091, 229, 89, 260, 120
-0.993098, 133, 153, 164, 184
-0.993098, 117, 177, 148, 208
-0.993106, 393, 57, 456, 120
-0.993108, 1, 157, 32, 188
-0.993112, 453, 33, 484, 160
-0.993114, 253, 193, 284, 224
-0.993116, 257, 33, 384, 96
-0.993117, 461, 137, 492, 168
-0.99312, 357, 137, 388, 168
-0.993128, 121, 153, 152, 184
-0.993129, 141, 137, 172, 168
-0.993131, 1, 189, 64, 220
-0.993133, 317, 177, 348, 208
-0.993137, 361, 169, 392, 200
-0.993147, 197, 213, 228, 244
-0.99316, 265, 105, 296, 136
-0.993161, 225, 145, 256, 176
-0.993161, 229, 217, 260, 248
-0.993162, 73, 177, 136, 304
-0.993164, 53, 177, 84, 208
-0.993166, 305, 169, 336, 200
-0.993177, 461, 149, 492, 180
-0.993182, 105, 153, 136, 184
-0.993185, 401, 81, 464, 112
-0.993198, 241, 221, 272, 252
-0.993202, 217, 101, 248, 132
-0.993207, 209, 201, 336, 232
-0.993219, 165, 149, 196, 180
-0.993221, 373, 137, 404, 168
-0.993234, 433, 133, 464, 164
-0.993244, 293, 165, 324, 196
-0.993245, 241, 81, 272, 112
-0.993246, 289, 197, 320, 228
-0.993247, 461, 165, 492, 196
-0.993251, 217, 189, 248, 220
-0.993253, 389, 157, 420, 188
-0.993263, 461, 121, 492, 152
-0.993266, 161, 201, 192, 232
-0.99327, 117, 141, 148, 172
-0.993271, 201, 117, 232, 148
-0.993275, 321, 169, 352, 232
-0.993276, 297, 197, 360, 228
-0.993276, 77, 177, 108, 208
-0.99328, 285, 213, 316, 244
-0.993288, 65, 177, 96, 208
-0.99329, 233, 129, 264, 160
-0.993294, 201, 69, 264, 100
-0.9933, 377, 85, 440, 116
-0.9933, 261, 153, 292, 184
-0.993303, 93, 165, 124, 196
-0.993305, 157, 189, 188, 220
-0.993306, 209, 169, 240, 200
-0.993315, 197, 197, 228, 228
-0.993322, 185, 85, 248, 116
-0.993325, 249, 37, 312, 68
-0.993333, 241, 193, 272, 224
-0.993336, 289, 53, 352, 84
-0.993337, 249, 101, 280, 132
-0.993341, 393, 69, 456, 100
-0.993343, 317, 165, 348, 196
-0.993353, 469, 81, 500, 112
-0.993354, 465, 93, 496, 124
-0.993359, 169, 97, 232, 128
-0.99336, 245, 125, 276, 156
-0.993362, 277, 73, 308, 104
-0.993365, 149, 177, 180, 208
-0.993367, 273, 125, 336, 156
-0.993371, 233, 113, 296, 144
-0.993376, 297, 125, 360, 156
-0.993383, 49, 193, 176, 256
-0.993402, 297, 1, 360, 256
-0.993405, 189, 65, 220, 192
-0.993416, 121, 125, 184, 156
-0.993426, 417, 105, 432, 168
-0.993431, 361, 101, 424, 132
-0.993446, 321, 125, 384, 156
-0.993469, 321, 201, 384, 232
-0.993503, 185, 221, 248, 252
-0.993506, 417, 65, 480, 96
-0.993515, 193, 101, 256, 132
-0.993525, 99, 145, 114, 208
-0.993553, 273, 1, 336, 342
-0.993554, 217, 53, 280, 84
-0.993578, 369, 129, 496, 160
-0.993578, 181, 185, 212, 248
-0.993595, 17, 201, 80, 232
-0.993629, 137, 221, 200, 252
-0.993646, 417, 49, 480, 112
-0.993653, 57, 81, 88, 208
-0.993663, 129, 193, 384, 256
-0.99369, 241, 93, 304, 124
-0.99372, 129, 65, 256, 128
-0.993725, 425, 33, 456, 160
-0.993737, 427, 97, 442, 160
-0.993755, 177, 129, 304, 160
-0.99377, 1, 133, 64, 164
-0.993783, 241, 17, 304, 80
-0.993842, 457, 161, 488, 224
-0.993844, 409, 161, 440, 224
-0.993844, 231, 177, 246, 240
-0.993881, 161, 109, 224, 140
-0.99389, 113, 153, 240, 184
-0.993901, 385, 1, 448, 342
-0.993931, 369, 117, 496, 148
-0.993963, 433, 89, 448, 152
-0.993968, 385, 313, 448, 342
-0.993974, 153, 313, 216, 342
-0.993991, 321, 81, 352, 208
-0.993993, 261, 1, 292, 128
-0.994005, 225, 313, 288, 342
-0.994011, 185, 313, 248, 342
-0.994011, 69, 113, 100, 176
-0.994015, 277, 169, 292, 232
-0.994041, 421, 129, 436, 192
-0.994049, 193, 193, 224, 320
-0.994097, 27, 145, 42, 208
-0.994105, 301, 177, 332, 304
-0.994112, 451, 73, 466, 136
-0.994112, 459, 105, 474, 168
-0.994133, 285, 177, 316, 304
-0.994161, 109, 137, 124, 200
-0.994194, 97, 217, 224, 280
-0.994214, 269, 25, 300, 88
-0.994247, 369, 149, 496, 180
-0.994248, 33, 141, 160, 172
-0.994285, 201, 177, 232, 240
-0.994343, 255, 121, 270, 184
-0.994355, 273, 97, 304, 160
-0.99436, 453, 113, 468, 176
-0.994376, 145, 137, 160, 200
-0.994389, 267, 137, 282, 200
-0.994396, 145, 1, 208, 342
-0.994407, 283, 169, 298, 232
-0.99442, 113, 165, 240, 196
-0.99446, 225, 137, 352, 168
-0.994481, 261, 121, 276, 184
-0.994482, 161, 157, 288, 188
-0.994482, 33, 169, 160, 200
-0.994503, 1, 121, 64, 184
-0.994507, 79, 137, 94, 200
-0.994514, 171, 137, 186, 200
-0.994524, 193, 169, 320, 200
-0.994526, 191, 129, 206, 192
-0.994568, 21, 145, 36, 208
-0.994588, 131, 137, 146, 200
-0.994631, 193, 25, 320, 88
-0.994651, 321, 89, 448, 152
-0.994653, 289, 177, 304, 240
-0.994702, 211, 113, 226, 176
-0.994708, 257, 177, 384, 208
-0.994736, 201, 129, 216, 192
-0.994744, 157, 137, 172, 200
-0.994761, 225, 213, 352, 244
-0.994778, 445, 105, 460, 168
-0.994779, 161, 217, 192, 280
-0.994782, 373, 137, 388, 200
-0.994784, 465, 129, 480, 192
-0.994787, 145, 205, 272, 236
-0.994819, 457, 137, 472, 200
-0.994822, 87, 145, 102, 208
-0.994826, 73, 145, 88, 208
-0.994844, 271, 57, 286, 120
-0.99489, 185, 65, 248, 128
-0.994904, 181, 145, 196, 208
-0.994908, 107, 169, 122, 232
-0.994923, 151, 137, 166, 200
-0.994983, 369, 105, 496, 136
-0.994985, 185, 209, 216, 272
-0.995028, 321, 169, 448, 200
-0.995032, 119, 137, 134, 200
-0.995042, 459, 65, 474, 128
-0.995051, 289, 105, 352, 168
-0.995068, 267, 161, 282, 224
-0.99508, 1, 193, 256, 256
-0.995088, 13, 153, 28, 216
-0.995099, 401, 49, 432, 176
-0.995115, 165, 137, 180, 200
-0.995119, 293, 81, 324, 208
-0.995128, 137, 137, 152, 200
-0.995132, 389, 129, 404, 192
-0.995162, 277, 137, 292, 200
-0.995164, 237, 153, 252, 216
-0.995165, 367, 137, 382, 200
-0.995171, 379, 137, 394, 200
-0.995175, 427, 121, 442, 184
-0.995188, 121, 161, 136, 224
-0.99524, 185, 1, 248, 256
-0.995254, 435, 121, 450, 184
-0.995269, 93, 137, 108, 200
-0.995281, 67, 145, 82, 208
-0.995282, 293, 41, 324, 104
-0.995293, 321, 125, 448, 156
-0.995311, 261, 33, 292, 288
-0.995314, 177, 117, 304, 148
-0.995323, 465, 89, 480, 152
-0.995341, 361, 137, 376, 200
-0.995348, 237, 209, 268, 336
-0.995366, 193, 153, 224, 216
-0.995373, 269, 97, 284, 160
-0.995374, 113, 169, 128, 232
-0.995382, 397, 169, 428, 232
-0.995416, 125, 137, 140, 200
-0.99542, 415, 137, 430, 200
-0.995422, 33, 1, 96, 342
-0.995443, 283, 137, 298, 200
-0.995482, 61, 137, 76, 200
-0.995492, 1, 113, 256, 176
-0.995537, 1, 129, 32, 256
-0.995552, 89, 121, 120, 184
-0.995573, 297, 177, 312, 240
-0.995606, 37, 145, 52, 208
-0.995627, 321, 137, 448, 168
-0.995666, 245, 137, 260, 200
-0.995678, 239, 177, 254, 240
-0.995691, 9, 129, 40, 192
-0.995692, 163, 161, 178, 224
-0.995702, 193, 189, 320, 220
-0.995724, 361, 1, 424, 342
-0.995752, 121, 1, 184, 342
-0.995775, 289, 137, 304, 200
-0.995775, 261, 161, 276, 224
-0.995783, 287, 49, 302, 112
-0.995797, 225, 177, 240, 240
-0.995802, 101, 169, 116, 232
-0.995867, 355, 137, 370, 200
-0.995912, 241, 65, 272, 320
-0.995916, 41, 81, 72, 208
-0.995919, 281, 41, 296, 104
-0.995954, 9, 177, 40, 240
-0.995955, 253, 145, 268, 208
-0.995958, 263, 65, 278, 128
-0.995966, 225, 65, 480, 128
-0.995978, 399, 121, 414, 184
-0.995982, 305, 193, 432, 256
-0.995995, 349, 137, 364, 200
-0.995999, 81, 177, 208, 208
-0.996, 365, 113, 396, 176
-0.996011, 433, 1, 496, 342
-0.996019, 409, 113, 424, 176
-0.996028, 229, 153, 244, 216
-0.996033, 295, 137, 310, 200
-0.996051, 43, 137, 58, 200
-0.996056, 177, 105, 304, 136
-0.996075, 209, 93, 336, 124
-0.9961, 221, 33, 252, 160
-0.996103, 33, 193, 96, 256
-0.996128, 153, 113, 184, 176
-0.996132, 281, 1, 312, 128
-0.996133, 371, 161, 386, 224
-0.996141, 421, 65, 452, 320
-0.996163, 381, 161, 412, 288
-0.996179, 465, 65, 480, 128
-0.996214, 449, 41, 480, 104
-0.996214, 325, 137, 340, 200
-0.996222, 49, 153, 176, 184
-0.996224, 9, 81, 40, 208
-0.996227, 369, 161, 400, 288
-0.996229, 209, 157, 336, 188
-0.996241, 189, 105, 220, 168
-0.996243, 97, 177, 160, 304
-0.996245, 273, 165, 400, 196
-0.996246, 55, 137, 70, 200
-0.99625, 301, 137, 316, 200
-0.99626, 343, 137, 358, 200
-0.996281, 49, 169, 64, 232
-0.996282, 145, 161, 160, 224
-0.996288, 161, 209, 192, 336
-0.996312, 145, 193, 272, 224
-0.996324, 409, 145, 424, 208
-0.996333, 181, 121, 196, 184
-0.996345, 57, 113, 88, 176
-0.996346, 225, 77, 352, 108
-0.996351, 319, 137, 334, 200
-0.996367, 365, 161, 380, 224
-0.996401, 257, 73, 272, 136
-0.996403, 337, 137, 352, 200
-0.996407, 369, 73, 496, 104
-0.996409, 127, 161, 142, 224
-0.996431, 321, 153, 448, 184
-0.996442, 307, 137, 322, 200
-0.996446, 139, 161, 154, 224
-0.996446, 281, 193, 296, 256
-0.996448, 451, 137, 466, 200
-0.996454, 153, 161, 168, 224
-0.996465, 101, 113, 132, 176
-0.996471, 187, 153, 202, 216
-0.996473, 129, 133, 256, 164
-0.996485, 221, 65, 252, 320
-0.996487, 369, 93, 496, 124
-0.996491, 381, 65, 412, 192
-0.996527, 313, 137, 328, 200
-0.996527, 263, 97, 278, 160
-0.996529, 219, 105, 234, 168
-0.99653, 453, 33, 484, 288
-0.996535, 281, 73, 296, 136
-0.996569, 307, 177, 322, 240
-0.996595, 49, 137, 64, 200
-0.996611, 321, 65, 448, 128
-0.996611, 401, 81, 432, 144
-0.996616, 221, 201, 236, 264
-0.996635, 219, 169, 234, 232
-0.996636, 249, 113, 264, 176
-0.996639, 21, 177, 52, 304
-0.996643, 273, 193, 288, 256
-0.99665, 65, 1, 128, 342
-0.996685, 331, 137, 346, 200
-0.996704, 245, 81, 260, 144
-0.996704, 177, 77, 304, 108
-0.996718, 241, 189, 368, 220
-0.996735, 225, 125, 352, 156
-0.99675, 141, 113, 172, 176
-0.996753, 309, 201, 324, 264
-0.996759, 239, 201, 254, 264
-0.996774, 427, 145, 442, 208
-0.996787, 241, 217, 272, 280
-0.996812, 441, 129, 456, 192
-0.996813, 209, 49, 240, 176
-0.996832, 21, 169, 36, 232
-0.996847, 7, 153, 22, 216
-0.996858, 219, 137, 234, 200
-0.996861, 97, 217, 352, 280
-0.996871, 95, 169, 110, 232
-0.996871, 153, 185, 184, 248
-0.996884, 245, 177, 260, 240
-0.996893, 233, 201, 248, 232
-0.996896, 1, 181, 128, 212
-0.996909, 173, 217, 204, 280
-0.996928, 421, 153, 436, 216
-0.996931, 293, 41, 308, 104
-0.996935, 83, 169, 98, 232
-0.996941, 329, 177, 360, 304
-0.996942, 257, 97, 272, 160
-0.996948, 259, 201, 274, 264
-0.996962, 89, 169, 104, 232
-0.996971, 357, 161, 372, 224
-0.996976, 425, 105, 440, 136
-0.996985, 209, 97, 240, 342
-0.997005, 185, 137, 200, 168
-0.997033, 369, 65, 400, 192
-0.997055, 443, 101, 458, 132
-0.997057, 209, 49, 272, 112
-0.997057, 251, 205, 266, 236
-0.997059, 127, 165, 142, 196
-0.997084, 145, 217, 272, 248
-0.997087, 459, 141, 474, 172
-0.997115, 117, 169, 132, 200
-0.997115, 1, 113, 500, 176
-0.997122, 135, 161, 150, 192
-0.997139, 441, 65, 472, 320
-0.997174, 79, 141, 94, 172
-0.997189, 145, 177, 272, 208
-0.997214, 129, 113, 160, 176
-0.997216, 89, 137, 104, 168
-0.997236, 199, 141, 214, 172
-0.997238, 417, 145, 432, 176
-0.997286, 193, 209, 448, 336
-0.997305, 193, 97, 224, 342
-0.997307, 21, 121, 52, 184
-0.997309, 249, 1, 280, 128
-0.997311, 37, 193, 68, 256
-0.997312, 457, 153, 472, 184
-0.997319, 113, 33, 240, 160
-0.997325, 17, 157, 32, 188
-0.997329, 409, 65, 440, 320
-0.997332, 243, 209, 258, 240
-0.997336, 241, 57, 368, 88
-0.997362, 45, 113, 76, 176
-0.997363, 431, 93, 446, 124
-0.997366, 251, 149, 266, 180
-0.997394, 199, 129, 214, 160
-0.997399, 193, 137, 208, 168
-0.997404, 231, 165, 246, 196
-0.997406, 423, 153, 438, 184
-0.997423, 109, 173, 124, 204
-0.997426, 69, 141, 84, 172
-0.997438, 369, 173, 496, 204
-0.997442, 437, 105, 452, 136
-0.997451, 11, 157, 26, 188
-0.997452, 273, 33, 304, 288
-0.997456, 259, 137, 274, 168
-0.997459, 417, 109, 432, 140
-0.997464, 441, 85, 456, 116
-0.997472, 425, 133, 440, 164
-0.997497, 461, 109, 476, 140
-0.997497, 463, 157, 478, 188
-0.997498, 101, 137, 116, 168
-0.997501, 65, 89, 320, 152
-0.997503, 181, 97, 212, 342
-0.997504, 225, 193, 480, 256
-0.997522, 429, 153, 444, 184
-0.997527, 41, 185, 56, 216
-0.997534, 229, 153, 244, 184
-0.997546, 181, 209, 212, 336
-0.997555, 149, 209, 180, 272
-0.997574, 97, 1, 160, 342
-0.997589, 317, 209, 332, 240
-0.997592, 239, 157, 254, 188
-0.997604, 257, 41, 500, 104
-0.997619, 369, 81, 432, 144
-0.997623, 453, 113, 468, 144
-0.997631, 161, 89, 288, 120
-0.997634, 65, 189, 192, 220
-0.997641, 337, 177, 400, 304
-0.997642, 51, 177, 66, 208
-0.997647, 193, 149, 208, 180
-0.99765, 411, 149, 426, 180
-0.997661, 283, 49, 298, 80
-0.997672, 389, 97, 420, 342
-0.997674, 451, 145, 466, 176
-0.997694, 281, 201, 296, 232
-0.997696, 181, 157, 196, 188
-0.997705, 275, 197, 290, 228
-0.997708, 57, 177, 88, 304
-0.99771, 103, 173, 118, 204
-0.997736, 291, 205, 306, 236
-0.997736, 223, 205, 238, 236
-0.997738, 307, 209, 322, 240
-0.997747, 205, 141, 220, 172
-0.997759, 301, 209, 316, 240
-0.997762, 269, 105, 284, 136
-0.997765, 97, 65, 352, 128
-0.997776, 285, 173, 300, 204
-0.997777, 165, 97, 196, 342
-0.997784, 273, 137, 400, 168
-0.997795, 469, 49, 500, 112
-0.997796, 193, 57, 320, 88
-0.997796, 353, 177, 480, 240
-0.997811, 237, 169, 252, 200
-0.997822, 369, 33, 496, 96
-0.997831, 237, 213, 252, 244
-0.997832, 275, 169, 290, 200
-0.997834, 435, 153, 450, 184
-0.997841, 463, 129, 478, 160
-0.997842, 277, 57, 292, 88
-0.997862, 305, 1, 368, 342
-0.997873, 259, 209, 274, 240
-0.997874, 59, 141, 74, 172
-0.997878, 461, 73, 476, 104
-0.997894, 257, 89, 384, 120
-0.997895, 465, 145, 480, 176
-0.997899, 141, 165, 156, 196
-0.997902, 259, 125, 274, 156
-0.997902, 1, 201, 500, 264
-0.997904, 97, 201, 224, 232
-0.997917, 25, 149, 40, 180
-0.997942, 285, 1, 316, 256
-0.997952, 257, 201, 384, 232
-0.997959, 441, 153, 456, 184
-0.997963, 1, 57, 500, 120
-0.997965, 427, 117, 442, 148
-0.997976, 111, 137, 126, 168
-0.997979, 465, 97, 480, 128
-0.997988, 321, 113, 448, 144
-0.997996, 469, 165, 484, 196
-0.997997, 295, 45, 310, 76
-0.998009, 225, 165, 240, 196
-0.998015, 291, 173, 306, 204
-0.998024, 81, 125, 208, 156
-0.998025, 27, 177, 42, 208
-0.998032, 255, 161, 270, 192
-0.998032, 103, 153, 118, 184
-0.998036, 447, 113, 462, 144
-0.998048, 281, 189, 296, 220
-0.99805, 193, 45, 320, 76
-0.99805, 243, 193, 258, 224
-0.998057, 241, 113, 368, 144
-0.998061, 179, 145, 194, 176
-0.998064, 95, 137, 110, 168
-0.998069, 447, 81, 462, 112
-0.998085, 263, 169, 278, 200
-0.998094, 97, 177, 112, 208
-0.99811, 329, 1, 392, 342
-0.998115, 367, 169, 382, 200
-0.998117, 467, 117, 482, 148
-0.998119, 341, 173, 356, 204
-0.998121, 373, 169, 388, 200
-0.998127, 35, 189, 50, 220
-0.99813, 159, 165, 174, 196
-0.998134, 435, 117, 450, 148
-0.998142, 149, 177, 164, 208
-0.998145, 229, 189, 244, 220
-0.998146, 245, 153, 260, 184
-0.998152, 415, 161, 430, 192
-0.998165, 147, 165, 162, 196
-0.998171, 287, 185, 302, 216
-0.998174, 137, 1, 200, 256
-0.998181, 129, 121, 256, 152
-0.998184, 273, 45, 400, 76
-0.998185, 297, 177, 312, 208
-0.998186, 237, 145, 252, 176
-0.998188, 269, 193, 284, 224
-0.99819, 323, 177, 338, 208
-0.9982, 289, 41, 304, 72
-0.998204, 455, 101, 470, 132
-0.998209, 205, 125, 220, 156
-0.998212, 387, 133, 402, 164
-0.998212, 17, 129, 144, 160
-0.998224, 447, 161, 462, 192
-0.998225, 379, 169, 394, 200
-0.99823, 397, 165, 412, 196
-0.998237, 471, 153, 486, 184
-0.998243, 347, 173, 362, 204
-0.998245, 37, 173, 52, 204
-0.998248, 329, 173, 344, 204
-0.998257, 335, 177, 350, 208
-0.998259, 137, 149, 152, 180
-0.998259, 241, 89, 256, 120
-0.998265, 141, 137, 156, 168
-0.998276, 355, 173, 370, 204
-0.99828, 267, 65, 282, 96
-0.998287, 155, 177, 170, 208
-0.998311, 419, 133, 434, 164
-0.998321, 377, 137, 392, 168
-0.998325, 53, 141, 68, 172
-0.998327, 129, 149, 144, 180
-0.998327, 265, 117, 280, 148
-0.998331, 403, 165, 418, 196
-0.998333, 249, 81, 264, 112
-0.998339, 37, 145, 52, 176
-0.998351, 285, 97, 316, 342
-0.998352, 257, 153, 384, 184
-0.998363, 273, 213, 400, 244
-0.998363, 401, 113, 432, 128
-0.998365, 257, 161, 288, 176
-0.998366, 221, 179, 252, 194
-0.998367, 141, 97, 172, 342
-0.998367, 137, 177, 168, 192
-0.998368, 461, 149, 492, 164
-0.998368, 197, 213, 228, 228
-0.99837, 237, 175, 268, 190
-0.998371, 401, 125, 432, 140
-0.998373, 169, 161, 200, 176
-0.998373, 429, 93, 460, 108
-0.998373, 5, 163, 36, 178
-0.998373, 413, 141, 444, 156
-0.998375, 425, 127, 456, 142
-0.998378, 125, 159, 156, 174
-0.998378, 449, 141, 480, 156
-0.998378, 25, 185, 56, 200
-0.998379, 97, 41, 352, 104
-0.99838, 273, 49, 304, 64
-0.998381, 325, 179, 356, 194
-0.998382, 1, 173, 32, 188
-0.998383, 417, 101, 480, 116
-0.998383, 293, 177, 324, 192
-0.998386, 249, 107, 280, 122
-0.998388, 89, 153, 120, 168
-0.998392, 425, 135, 456, 150
-0.998393, 389, 173, 420, 188
-0.998393, 229, 219, 260, 234
-0.998394, 261, 131, 292, 146
-0.998395, 73, 151, 104, 166
-0.998398, 237, 169, 268, 184
-0.9984, 217, 141, 248, 156
-0.9984, 217, 165, 280, 180
-0.998401, 253, 145, 284, 160
-0.998403, 437, 117, 468, 132
-0.998404, 105, 171, 168, 186
-0.998405, 409, 155, 440, 170
-0.998405, 157, 139, 188, 154
-0.998408, 269, 171, 300, 186
-0.99841, 325, 97, 356, 342
-0.998411, 105, 139, 136, 154
-0.998411, 117, 177, 148, 192
-0.998412, 41, 187, 72, 202
-0.998412, 209, 207, 272, 222
-0.998413, 417, 99, 448, 114
-0.998415, 273, 187, 304, 202
-0.998415, 245, 131, 276, 146
-0.998416, 297, 1, 328, 256
-0.998416, 317, 215, 348, 230
-0.998418, 137, 159, 168, 174
-0.998419, 193, 147, 256, 162
-0.99842, 337, 177, 368, 192
-0.998421, 441, 123, 472, 138
-0.998422, 69, 139, 100, 154
-0.998423, 157, 167, 188, 182
-0.998423, 257, 75, 288, 90
-0.998424, 413, 147, 444, 162
-0.998426, 69, 177, 100, 304
-0.998428, 361, 139, 392, 154
-0.99843, 449, 105, 480, 120
-0.998431, 89, 177, 120, 192
-0.998432, 417, 161, 480, 176
-0.998433, 257, 169, 288, 184
-0.998433, 293, 211, 324, 226
-0.998434, 449, 81, 480, 96
-0.998436, 113, 165, 144, 180
-0.998439, 409, 143, 472, 158
-0.998439, 349, 175, 380, 190
-0.998439, 273, 201, 304, 216
-0.998439, 455, 81, 470, 208
-0.99844, 441, 99, 472, 114
-0.998441, 361, 173, 392, 188
-0.998441, 33, 145, 64, 160
-0.998442, 409, 109, 472, 124
-0.998442, 437, 151, 468, 166
-0.998442, 385, 127, 448, 142
-0.998443, 225, 151, 256, 166
-0.998444, 225, 211, 256, 226
-0.998445, 113, 165, 176, 180
-0.998445, 217, 171, 248, 186
-0.998446, 57, 143, 88, 158
-0.998447, 393, 119, 456, 134
-0.998448, 417, 125, 480, 140
-0.998448, 13, 177, 44, 192
-0.99845, 373, 171, 404, 186
-0.99845, 277, 55, 308, 70
-0.998452, 201, 149, 232, 164
-0.998453, 249, 151, 280, 166
-0.998455, 393, 167, 424, 182
-0.998455, 61, 151, 92, 166
-0.998456, 97, 217, 224, 248
-0.998458, 185, 137, 216, 152
-0.998459, 137, 165, 168, 180
-0.99846, 417, 119, 480, 134
-0.998461, 129, 171, 160, 186
-0.998461, 421, 157, 452, 172
-0.998462, 405, 165, 436, 180
-0.998463, 181, 157, 212, 172
-0.998463, 13, 155, 44, 170
-0.998466, 201, 213, 264, 228
-0.998466, 269, 61, 300, 76
-0.998467, 449, 161, 480, 176
-0.99847, 213, 147, 244, 162
-0.998471, 313, 97, 344, 342
-0.998471, 433, 111, 464, 126
-0.998473, 49, 181, 80, 196
-0.998473, 25, 179, 56, 194
-0.998475, 265, 67, 296, 82
-0.998477, 217, 159, 280, 174
-0.998478, 457, 167, 488, 182
-0.998479, 429, 99, 460, 114
-0.998481, 281, 207, 312, 222
-0.998482, 393, 167, 456, 182
-0.998483, 257, 209, 288, 224
-0.998485, 173, 139, 204, 154
-0.998486, 241, 207, 272, 222
-0.998489, 21, 149, 52, 164
-0.998489, 377, 133, 440, 148
-0.998491, 285, 49, 316, 64
-0.998493, 101, 171, 132, 186
-0.998495, 237, 145, 268, 160
-0.998496, 249, 213, 312, 228
-0.998497, 429, 163, 460, 178
-0.998497, 45, 143, 76, 158
-0.998497, 81, 141, 112, 156
-0.998499, 253, 139, 284, 154
-0.998499, 449, 153, 480, 168
-0.998505, 241, 163, 272, 178
-0.998507, 417, 95, 480, 110
-0.998508, 249, 139, 312, 154
-0.99851, 425, 149, 488, 164
-0.998511, 417, 163, 448, 178
-0.998512, 449, 111, 480, 126
-0.998512, 37, 181, 68, 196
-0.998514, 209, 141, 272, 156
-0.998515, 177, 157, 240, 172
-0.998516, 217, 105, 280, 120
-0.998517, 281, 209, 344, 224
-0.998518, 417, 107, 448, 122
-0.998518, 209, 209, 240, 224
-0.998521, 209, 153, 272, 168
-0.998523, 405, 119, 436, 134
-0.998523, 189, 149, 220, 164
-0.998525, 89, 147, 120, 162
-0.998525, 193, 167, 256, 182
-0.998526, 233, 171, 296, 186
-0.998526, 25, 145, 88, 160
-0.998527, 417, 131, 480, 146
-0.998532, 169, 141, 232, 156
-0.998535, 305, 181, 432, 212
-0.998538, 329, 1, 392, 256
-0.99854, 137, 163, 200, 178
-0.998541, 409, 137, 472, 152
-0.998542, 101, 177, 132, 192
-0.998543, 229, 205, 260, 220
-0.998544, 177, 149, 208, 164
-0.998546, 69, 145, 100, 160
-0.998547, 305, 211, 336, 226
-0.998548, 233, 149, 296, 164
-0.998548, 237, 151, 268, 166
-0.998551, 411, 97, 426, 224
-0.998551, 233, 91, 296, 106
-0.998552, 249, 205, 312, 220
-0.998553, 197, 143, 228, 158
-0.998553, 225, 97, 288, 112
-0.998554, 425, 85, 488, 100
-0.998554, 89, 177, 152, 192
-0.998556, 233, 85, 296, 100
-0.998557, 89, 149, 152, 164
-0.998558, 369, 171, 432, 186
-0.99856, 65, 141, 128, 156
-0.998561, 145, 139, 208, 154
-0.998563, 249, 199, 312, 214
-0.998567, 413, 113, 444, 128
-0.998568, 265, 113, 280, 240
-0.998569, 449, 147, 480, 162
-0.99857, 425, 79, 488, 94
-0.998571, 401, 149, 464, 164
-0.998571, 417, 97, 432, 224
-0.998572, 393, 155, 456, 170
-0.998573, 231, 129, 246, 256
-0.998573, 49, 97, 80, 342
-0.998574, 265, 187, 328, 202
-0.998575, 353, 177, 416, 192
-0.998575, 237, 213, 268, 228
-0.998577, 321, 175, 384, 190
-0.998578, 113, 171, 144, 186
-0.998578, 137, 157, 200, 172
-0.998581, 41, 179, 104, 194
-0.998584, 185, 135, 248, 150
-0.998585, 225, 213, 288, 228
-0.998588, 241, 79, 304, 94
-0.998589, 17, 151, 80, 166
-0.99859, 217, 203, 248, 218
-0.998591, 221, 165, 252, 180
-0.998591, 433, 105, 464, 120
-0.998591, 257, 67, 320, 82
-0.998592, 417, 167, 480, 182
-0.998593, 65, 147, 128, 162
-0.998593, 113, 177, 176, 192
-0.998595, 1, 159, 64, 174
-0.998595, 281, 179, 344, 194
-0.998595, 1, 179, 64, 194
-0.998597, 169, 151, 232, 166
-0.998597, 425, 155, 488, 170
-0.998598, 169, 163, 232, 178
-0.9986, 153, 211, 216, 226
-0.9986, 177, 213, 240, 228
-0.998601, 273, 51, 336, 66
-0.998602, 393, 161, 456, 176
-0.998603, 421, 121, 452, 136
-0.998603, 297, 97, 328, 342
-0.998604, 305, 201, 432, 232
-0.998605, 185, 203, 248, 218
-0.998607, 345, 169, 408, 184
-0.998608, 217, 129, 280, 144
-0.998608, 369, 165, 432, 180
-0.998609, 185, 143, 216, 158
-0.998609, 217, 201, 280, 216
-0.99861, 249, 73, 312, 88
-0.998612, 65, 179, 128, 194
-0.998615, 265, 59, 328, 74
-0.998617, 453, 75, 484, 90
-0.99862, 329, 181, 392, 196
-0.998623, 193, 125, 256, 140
-0.998626, 225, 195, 288, 210
-0.998628, 449, 117, 480, 132
-0.998628, 73, 169, 136, 184
-0.998628, 105, 139, 168, 154
-0.998633, 145, 169, 208, 184
-0.998635, 361, 139, 424, 154
-0.998635, 249, 133, 312, 148
-0.998635, 25, 185, 88, 200
-0.998639, 113, 187, 176, 202
-0.998639, 41, 139, 104, 154
-0.99864, 241, 59, 304, 74
-0.998643, 209, 115, 272, 130
-0.998643, 145, 147, 208, 162
-0.998643, 153, 97, 184, 342
-0.998646, 377, 103, 440, 118
-0.998649, 241, 165, 304, 180
-0.998649, 29, 97, 60, 342
-0.998649, 385, 113, 448, 128
-0.99865, 1, 327, 64, 342
-0.998651, 249, 157, 312, 172
-0.998651, 257, 175, 320, 190
-0.998653, 297, 215, 360, 230
-0.998655, 209, 135, 272, 150
-0.998655, 433, 173, 496, 188
-0.998655, 285, 129, 300, 256
-0.998657, 225, 181, 288, 196
-0.99866, 273, 215, 336, 230
-0.99866, 193, 173, 256, 188
-0.998661, 161, 205, 224, 220
-0.998663, 385, 97, 448, 112
-0.998663, 193, 219, 256, 234
-0.998664, 249, 47, 312, 62
-0.998665, 237, 157, 268, 172
-0.998666, 17, 173, 80, 188
-0.998666, 217, 219, 280, 234
-0.998666, 89, 155, 152, 170
-0.998666, 369, 121, 432, 136
-0.998667, 305, 181, 368, 196
-0.998667, 257, 103, 320, 118
-0.998668, 125, 165, 156, 180
-0.998668, 153, 191, 216, 206
-0.998669, 1, 165, 64, 180
-0.998671, 153, 221, 216, 236
-0.998671, 233, 67, 296, 82
-0.998674, 41, 129, 56, 256
-0.998674, 49, 153, 112, 168
-0.998674, 337, 139, 400, 154
-0.998674, 41, 327, 104, 342
-0.998676, 425, 73, 488, 88
-0.998679, 249, 53, 312, 68
-0.99868, 81, 327, 144, 342
-0.998681, 289, 45, 352, 60
-0.998682, 217, 187, 280, 202
-0.998683, 145, 133, 208, 148
-0.998683, 377, 147, 440, 162
-0.998685, 89, 163, 152, 178
-0.998686, 377, 97, 408, 342
-0.998691, 51, 129, 66, 256
-0.998692, 241, 81, 256, 208
-0.998692, 237, 129, 252, 256
-0.998695, 279, 129, 294, 256
-0.998696, 427, 81, 442, 208
-0.998699, 337, 97, 368, 342
-0.9987, 397, 1, 428, 256
-0.998719, 405, 97, 420, 224
-0.998731, 439, 81, 454, 208
-0.998765, 463, 81, 478, 208
-0.998773, 229, 81, 244, 208
-0.998776, 81, 177, 112, 304
-0.998789, 433, 81, 448, 208
-0.998791, 349, 97, 380, 342
-0.998795, 129, 97, 160, 342
-0.998798, 273, 129, 288, 256
-0.998805, 271, 81, 286, 208
-0.998819, 185, 129, 200, 256
-0.998832, 35, 129, 50, 256
-0.998838, 29, 129, 44, 256
-0.998848, 449, 97, 464, 224
-0.99885, 163, 129, 178, 256
-0.998853, 57, 129, 72, 256
-0.998854, 319, 129, 334, 256
-0.998867, 393, 113, 408, 240
-0.998884, 329, 129, 344, 256
-0.998896, 277, 81, 292, 208
-0.998903, 73, 129, 88, 256
-0.998911, 291, 129, 306, 256
-0.998911, 93, 129, 108, 256
-0.998915, 1, 81, 500, 144
-0.998916, 259, 113, 274, 240
-0.998919, 117, 97, 148, 342
-0.99892, 103, 129, 118, 256
-0.99893, 153, 129, 168, 256
-0.998933, 87, 129, 102, 256
-0.998933, 369, 61, 496, 92
-0.998933, 253, 129, 268, 256
-0.998934, 113, 129, 128, 256
-0.998937, 265, 49, 280, 176
-0.998945, 273, 125, 400, 156
-0.998948, 131, 129, 146, 256
-0.998951, 313, 129, 328, 256
-0.998955, 399, 113, 414, 240
-0.998958, 65, 129, 80, 256
-0.998961, 171, 129, 186, 256
-0.998962, 17, 97, 48, 342
-0.998964, 81, 129, 96, 256
-0.998989, 113, 105, 240, 136
-0.998994, 119, 129, 134, 256
-0.999004, 321, 89, 448, 120
-0.999005, 273, 69, 400, 100
-0.999008, 307, 129, 322, 256
-0.999011, 463, 129, 478, 256
-0.999015, 147, 129, 162, 256
-0.999016, 93, 177, 124, 304
-0.999018, 245, 129, 260, 256
-0.99902, 387, 113, 402, 240
-0.999021, 177, 129, 192, 256
-0.999023, 341, 129, 356, 256
-0.999036, 297, 129, 312, 256
-0.999038, 445, 49, 460, 176
-0.999041, 125, 113, 140, 240
-0.999047, 227, 177, 242, 304
-0.999054, 257, 65, 272, 192
-0.999071, 137, 129, 152, 256
-0.999073, 191, 129, 206, 256
-0.999077, 335, 129, 350, 256
-0.99908, 193, 217, 448, 280
-0.999082, 235, 81, 250, 208
-0.999101, 465, 33, 496, 288
-0.999103, 233, 177, 248, 304
-0.999104, 23, 129, 38, 256
-0.999106, 249, 65, 264, 192
-0.99911, 257, 101, 384, 132
-0.999111, 349, 129, 364, 256
-0.999121, 261, 161, 276, 288
-0.999122, 275, 33, 290, 160
-0.999147, 457, 129, 472, 256
-0.99915, 225, 129, 240, 256
-0.999166, 101, 97, 132, 342
-0.999172, 361, 97, 392, 342
-0.999183, 357, 129, 372, 256
-0.999198, 273, 9, 400, 72
-0.999201, 267, 161, 282, 288
-0.999206, 219, 97, 234, 224
-0.99921, 371, 129, 386, 256
-0.99921, 279, 177, 294, 304
-0.999214, 197, 113, 212, 240
-0.999219, 377, 113, 392, 240
-0.999223, 363, 113, 378, 240
-0.999238, 283, 65, 298, 192
-0.999256, 205, 113, 220, 240
-0.999263, 423, 129, 438, 256
-0.999275, 273, 89, 400, 152
-0.999283, 469, 97, 484, 224
-0.999285, 429, 129, 444, 256
-0.999288, 433, 17, 496, 144
-0.999293, 239, 177, 254, 304
-0.999304, 61, 97, 92, 342
-0.999317, 77, 97, 108, 342
-0.99932, 41, 177, 56, 304
-0.99933, 89, 97, 120, 342
-0.999344, 409, 145, 424, 272
-0.999352, 145, 65, 272, 96
-0.999362, 317, 177, 332, 304
-0.999362, 219, 161, 234, 288
-0.999369, 211, 113, 226, 240
-0.999376, 451, 33, 466, 160
-0.99938, 285, 177, 300, 304
-0.999383, 385, 17, 448, 144
-0.999388, 461, 33, 476, 160
-0.999393, 5, 97, 36, 342
-0.999395, 17, 129, 32, 256
-0.999404, 47, 177, 62, 304
-0.999405, 415, 145, 430, 272
-0.999406, 181, 81, 196, 208
-0.999436, 155, 177, 170, 304
-0.999438, 415, 49, 430, 176
-0.999444, 273, 177, 288, 304
-0.999444, 469, 145, 484, 272
-0.999455, 435, 129, 450, 256
-0.999455, 321, 101, 448, 132
-0.99946, 175, 81, 190, 208
-0.99946, 105, 81, 120, 208
-0.999461, 245, 177, 260, 304
-0.999464, 397, 65, 412, 192
-0.999464, 113, 81, 128, 208
-0.999465, 281, 17, 296, 144
-0.999465, 385, 1, 416, 256
-0.999469, 159, 81, 174, 208
-0.99947, 125, 161, 140, 288
-0.999472, 85, 81, 100, 208
-0.999472, 135, 81, 150, 208
-0.999478, 95, 81, 110, 208
-0.999482, 119, 81, 134, 208
-0.999485, 289, 49, 352, 112
-0.999492, 191, 81, 206, 208
-0.999494, 161, 1, 224, 256
-0.999497, 35, 177, 50, 304
-0.999508, 439, 33, 454, 160
-0.999508, 353, 81, 368, 208
-0.999509, 51, 81, 66, 208
-0.999509, 335, 81, 350, 208
-0.99951, 147, 81, 162, 208
-0.999511, 67, 81, 82, 208
-0.999513, 169, 81, 184, 208
-0.999518, 343, 81, 358, 208
-0.999519, 311, 177, 326, 304
-0.99952, 295, 81, 310, 208
-0.999523, 319, 81, 334, 208
-0.999527, 75, 81, 90, 208
-0.999529, 11, 129, 26, 256
-0.999529, 141, 81, 156, 208
-0.999533, 289, 33, 304, 160
-0.999577, 113, 93, 240, 124
-0.999587, 1, 97, 128, 160
-0.999588, 369, 1, 400, 256
-0.999591, 49, 201, 176, 232
-0.999592, 75, 141, 90, 156
-0.999592, 421, 139, 436, 154
-0.999592, 205, 151, 220, 166
-0.999594, 425, 155, 440, 170
-0.999595, 203, 215, 218, 230
-0.999595, 161, 313, 288, 342
-0.999595, 259, 167, 274, 182
-0.999595, 467, 155, 482, 170
-0.999596, 451, 151, 466, 166
-0.999596, 91, 153, 106, 168
-0.999596, 293, 177, 308, 192
-0.999597, 187, 151, 202, 166
-0.999598, 263, 105, 278, 120
-0.999599, 43, 145, 58, 160
-0.999599, 129, 77, 256, 108
-0.9996, 123, 173, 138, 188
-0.9996, 175, 139, 190, 154
-0.9996, 143, 171, 158, 186
-0.999601, 393, 169, 408, 184
-0.999602, 385, 137, 400, 152
-0.999603, 375, 139, 390, 154
-0.999603, 427, 135, 442, 150
-0.999603, 453, 101, 468, 116
-0.999604, 135, 169, 150, 184
-0.999604, 69, 153, 84, 168
-0.999605, 315, 211, 330, 226
-0.999606, 435, 123, 450, 138
-0.999607, 97, 179, 112, 194
-0.999607, 233, 155, 248, 170
-0.999607, 235, 181, 250, 196
-0.999607, 237, 217, 252, 232
-0.999608, 403, 167, 418, 182
-0.999608, 269, 103, 284, 118
-0.999609, 129, 169, 144, 184
-0.99961, 461, 109, 476, 124
-0.999611, 117, 177, 132, 192
-0.999612, 465, 117, 480, 132
-0.999612, 107, 139, 122, 154
-0.999612, 301, 47, 316, 62
-0.999613, 215, 147, 230, 162
-0.999616, 459, 141, 474, 156
-0.999616, 413, 165, 428, 180
-0.999617, 183, 157, 198, 172
-0.999617, 229, 177, 244, 192
-0.99962, 253, 147, 268, 162
-0.999621, 441, 163, 456, 178
-0.999624, 255, 129, 270, 144
-0.999626, 421, 163, 436, 178
-0.999626, 17, 157, 32, 172
-0.999628, 235, 175, 250, 190
-0.999628, 309, 209, 324, 224
-0.99963, 421, 103, 436, 118
-0.99963, 257, 313, 384, 342
-0.999631, 27, 179, 42, 194
-0.999631, 459, 155, 474, 170
-0.999632, 433, 107, 448, 122
-0.999633, 149, 167, 164, 182
-0.999633, 293, 45, 308, 60
-0.999634, 59, 141, 74, 156
-0.999635, 447, 113, 462, 128
-0.999635, 199, 149, 214, 164
-0.999635, 437, 157, 452, 172
-0.999635, 9, 161, 24, 176
-0.999636, 209, 313, 336, 342
-0.999637, 465, 73, 480, 88
-0.999638, 329, 215, 344, 230
-0.999642, 239, 157, 254, 172
-0.999642, 431, 157, 446, 172
-0.999643, 99, 143, 114, 158
-0.999643, 431, 163, 446, 178
-0.999643, 455, 109, 470, 124
-0.999644, 181, 151, 196, 166
-0.999645, 37, 177, 52, 192
-0.999647, 237, 205, 252, 220
-0.999647, 49, 181, 64, 196
-0.999649, 63, 149, 78, 164
-0.99965, 193, 137, 208, 152
-0.999651, 433, 95, 448, 110
-0.999651, 113, 1, 176, 256
-0.999652, 449, 121, 464, 136
-0.999657, 31, 149, 46, 164
-0.999659, 141, 161, 156, 176
-0.999662, 469, 167, 484, 182
-0.999662, 321, 213, 336, 228
-0.999665, 303, 211, 318, 226
-0.999667, 415, 145, 430, 160
-0.999667, 261, 131, 276, 146
-0.999669, 261, 209, 276, 224
-0.99967, 259, 139, 274, 154
-0.999672, 201, 1, 232, 256
-0.999673, 253, 159, 268, 174
-0.999673, 295, 207, 310, 222
-0.999674, 237, 211, 252, 226
-0.999677, 427, 119, 442, 134
-0.999681, 443, 123, 458, 138
-0.999681, 41, 183, 56, 198
-0.999682, 341, 177, 372, 304
-0.999684, 209, 145, 224, 160
-0.999684, 113, 169, 128, 184
-0.999686, 103, 177, 118, 192
-0.999687, 465, 149, 480, 164
-0.999688, 239, 151, 254, 166
-0.999688, 221, 203, 236, 218
-0.99969, 253, 207, 268, 222
-0.999691, 287, 49, 302, 64
-0.999693, 203, 143, 218, 158
-0.999696, 25, 151, 40, 166
-0.999697, 191, 143, 206, 158
-0.999699, 453, 115, 468, 130
-0.999699, 77, 149, 92, 164
-0.9997, 247, 207, 262, 222
-0.999704, 247, 147, 262, 162
-0.999706, 123, 167, 138, 182
-0.999706, 245, 153, 260, 168
-0.999706, 427, 101, 442, 116
-0.999707, 243, 213, 258, 228
-0.999712, 225, 225, 352, 288
-0.999712, 289, 225, 416, 288
-0.999712, 417, 109, 432, 124
-0.999717, 87, 147, 102, 162
-0.99972, 129, 163, 144, 178
-0.999724, 231, 203, 246, 218
-0.999724, 443, 101, 458, 116
-0.999725, 437, 117, 452, 132
-0.999727, 91, 141, 106, 156
-0.999732, 69, 141, 84, 156
-0.999734, 457, 147, 472, 162
-0.999734, 81, 141, 96, 156
-0.999745, 197, 143, 212, 158
-0.999746, 193, 149, 208, 164
-0.999747, 251, 213, 266, 228
-0.99975, 231, 209, 246, 224
-0.999755, 69, 147, 84, 162
-0.999762, 185, 141, 200, 156
-0.99977, 321, 313, 448, 342
-0.999772, 427, 111, 442, 126
-0.999786, 135, 163, 150, 178
-0.999788, 229, 165, 244, 180
-0.999797, 251, 153, 266, 168
-0.999824, 99, 149, 114, 164
-0.999857, 1, 193, 128, 256
-0.999871, 369, 313, 496, 342
-0.999896, 313, 1, 344, 256
-0.999907, 237, 33, 268, 160
-0.999909, 433, 177, 496, 240
-0.999909, 1, 217, 256, 280
-0.999929, 65, 313, 192, 342
-0.99994, 329, 1, 360, 256
-0.999999, 1, 1, 64, 256
-1.00001, 193, 33, 320, 64
-1.00002, 321, 77, 448, 108
-1.00004, 341, 1, 372, 256
-1.0001, 105, 177, 136, 304
-1.0001, 121, 1, 152, 256
-1.00015, 97, 17, 352, 80
-1.00016, 177, 1, 208, 256
-1.00019, 465, 33, 496, 160
-1.00019, 185, 33, 248, 160
-1.0002, 273, 33, 400, 64
-1.00025, 113, 313, 240, 342
-1.00031, 353, 1, 384, 256
-1.00034, 141, 1, 172, 256
-1.00037, 189, 1, 220, 256
-1.00038, 257, 17, 500, 80
-1.0004, 157, 1, 188, 256
-1.00041, 109, 1, 140, 256
-1.00041, 81, 1, 144, 256
-1.00042, 321, 213, 448, 244
-1.00044, 225, 225, 352, 256
-1.00044, 49, 213, 176, 244
-1.0005, 97, 1, 128, 256
-1.00052, 289, 57, 416, 88
-1.00054, 29, 1, 60, 256
-1.00054, 145, 53, 272, 84
-1.00055, 121, 177, 152, 304
-1.00055, 329, 201, 392, 264
-1.00061, 17, 117, 144, 148
-1.00063, 1, 65, 256, 128
-1.00067, 1, 313, 128, 342
-1.00068, 289, 225, 416, 256
-1.00069, 133, 177, 164, 304
-1.00069, 49, 1, 80, 256
-1.00079, 9, 1, 40, 256
-1.00085, 81, 1, 112, 256
-1.00086, 65, 1, 96, 256
-1.00089, 1, 193, 128, 224
-1.00095, 241, 21, 368, 52
-1.00101, 193, 17, 320, 48
-1.00101, 9, 193, 72, 256
-1.00103, 1, 1, 64, 342
-1.00106, 369, 41, 496, 72
-1.00106, 353, 201, 480, 232
-1.00107, 33, 261, 160, 292
-1.00107, 81, 261, 208, 292
-1.00107, 129, 261, 256, 292
-1.00107, 177, 261, 304, 292
-1.00107, 225, 261, 352, 292
-1.00107, 273, 261, 400, 292
-1.00107, 321, 261, 448, 292
-1.00107, 369, 261, 496, 292
-1.00107, 33, 273, 160, 304
-1.00107, 81, 273, 208, 304
-1.00107, 129, 273, 256, 304
-1.00107, 177, 273, 304, 304
-1.00107, 225, 273, 352, 304
-1.00107, 273, 273, 400, 304
-1.00107, 321, 273, 448, 304
-1.00107, 369, 273, 496, 304
-1.00107, 33, 285, 160, 316
-1.00107, 81, 285, 208, 316
-1.00107, 129, 285, 256, 316
-1.00107, 177, 285, 304, 316
-1.00107, 225, 285, 352, 316
-1.00107, 273, 285, 400, 316
-1.00107, 321, 285, 448, 316
-1.00107, 369, 285, 496, 316
-1.00107, 33, 297, 160, 328
-1.00107, 81, 297, 208, 328
-1.00107, 129, 297, 256, 328
-1.00107, 177, 297, 304, 328
-1.00107, 225, 297, 352, 328
-1.00107, 273, 297, 400, 328
-1.00107, 321, 297, 448, 328
-1.00107, 369, 297, 496, 328
-1.00137, 193, 1, 320, 64
-1.00146, 41, 1, 104, 256
-1.00168, 5, 177, 36, 304
-1.00168, 453, 177, 484, 304
-1.00179, 113, 209, 176, 272
-1.00193, 433, 177, 496, 304
-1.00212, 1, 9, 256, 72
-1.00212, 65, 241, 320, 304
-1.00212, 161, 241, 416, 304
-1.00212, 257, 241, 500, 304
-1.00212, 65, 265, 320, 328
-1.00212, 161, 265, 416, 328
-1.00212, 257, 265, 500, 328
-1.0023, 345, 89, 408, 152
-1.00238, 305, 33, 432, 96
-1.00253, 1, 33, 256, 96
-1.00272, 369, 9, 496, 72
-1.00273, 213, 209, 244, 336
-1.00279, 129, 41, 256, 104
-1.0028, 353, 209, 480, 272
-1.00291, 17, 1, 144, 64
-1.00291, 65, 1, 192, 64
-1.00291, 321, 9, 448, 72
-1.00291, 113, 17, 240, 80
-1.00291, 33, 25, 160, 88
-1.00291, 81, 41, 208, 104
-1.00291, 17, 49, 144, 112
-1.00291, 65, 65, 192, 128
-1.00291, 17, 73, 144, 136
-1.00291, 17, 217, 144, 280
-1.00291, 33, 241, 160, 304
-1.00291, 81, 241, 208, 304
-1.00291, 129, 241, 256, 304
-1.00291, 177, 241, 304, 304
-1.00291, 369, 241, 496, 304
-1.00291, 33, 265, 160, 328
-1.00291, 81, 265, 208, 328
-1.00291, 129, 265, 256, 328
-1.00291, 177, 265, 304, 328
-1.00291, 225, 265, 352, 328
-1.00291, 273, 265, 400, 328
-1.00291, 321, 265, 448, 328
-1.00291, 369, 265, 496, 328
-1.00295, 281, 225, 344, 288
-1.00316, 9, 97, 72, 160
-1.00337, 1, 33, 500, 96
-1.00345, 1, 225, 500, 288
-1.00366, 353, 185, 416, 248
-1.0038, 1, 1, 500, 64
-1.0038, 353, 177, 384, 304
-1.00387, 1, 265, 500, 328
-1.00396, 293, 1, 324, 128
-1.0046, 261, 209, 292, 336
-1.00466, 441, 177, 472, 304
-1.00544, 217, 25, 280, 88
-1.0059, 385, 177, 448, 240
-1.00606, 465, 177, 496, 304
-1.00611, 161, 73, 224, 136
-1.00612, 425, 25, 488, 88
-1.0063, 265, 1, 328, 64
-1.00645, 305, 25, 368, 88
-1.00651, 185, 89, 248, 152
-1.00653, 369, 1, 496, 128
-1.00675, 193, 225, 256, 288
-1.00701, 409, 177, 472, 240
-1.00726, 241, 225, 304, 288
-1.00741, 197, 17, 228, 144
-1.00745, 393, 33, 456, 96
-1.00767, 209, 1, 240, 128
-1.00777, 289, 1, 352, 64
-1.008, 177, 33, 208, 160
-1.00831, 137, 89, 200, 152
-1.00864, 333, 33, 364, 160
-1.00868, 413, 1, 444, 128
-1.00869, 417, 177, 448, 304
-1.00878, 305, 33, 336, 160
-1.00879, 389, 17, 420, 144
-1.00898, 313, 89, 376, 152
-1.00903, 329, 225, 392, 288
-1.00921, 429, 177, 460, 304
-1.00924, 313, 1, 376, 64
-1.00924, 353, 209, 416, 272
-1.00924, 357, 33, 388, 160
-1.00929, 49, 241, 112, 304
-1.00929, 73, 241, 136, 304
-1.00929, 97, 241, 160, 304
-1.00929, 121, 241, 184, 304
-1.00929, 145, 241, 208, 304
-1.00929, 169, 241, 232, 304
-1.00929, 217, 241, 280, 304
-1.00929, 305, 241, 368, 304
-1.00929, 361, 241, 424, 304
-1.00929, 385, 241, 448, 304
-1.00929, 409, 241, 472, 304
-1.00929, 433, 241, 496, 304
-1.00929, 1, 265, 64, 328
-1.00929, 25, 265, 88, 328
-1.00929, 49, 265, 112, 328
-1.00929, 73, 265, 136, 328
-1.00929, 97, 265, 160, 328
-1.00929, 121, 265, 184, 328
-1.00929, 145, 265, 208, 328
-1.00929, 169, 265, 232, 328
-1.00929, 193, 265, 256, 328
-1.00929, 217, 265, 280, 328
-1.00929, 241, 265, 304, 328
-1.00929, 265, 265, 328, 328
-1.00929, 289, 265, 352, 328
-1.00929, 313, 265, 376, 328
-1.00929, 337, 265, 400, 328
-1.00929, 361, 265, 424, 328
-1.00929, 385, 265, 448, 328
-1.00929, 409, 265, 472, 328
-1.00929, 433, 265, 496, 328
-1.00954, 317, 33, 348, 160
-1.00956, 73, 1, 104, 128
-1.00956, 85, 1, 116, 128
-1.00956, 97, 1, 128, 128
-1.00956, 109, 1, 140, 128
-1.00956, 121, 1, 152, 128
-1.00956, 133, 1, 164, 128
-1.00956, 145, 1, 176, 128
-1.00956, 161, 1, 192, 128
-1.01, 1, 33, 128, 160
-1.01038, 65, 1, 192, 128
-1.01121, 401, 177, 464, 304
-1.01173, 297, 1, 360, 128
-1.01302, 337, 33, 400, 160
-1.01312, 361, 17, 424, 144
-1.01478, 9, 1, 72, 128
-1.01478, 33, 1, 96, 128
-1.01478, 57, 1, 120, 128
-1.01478, 81, 1, 144, 128
-1.01478, 105, 1, 168, 128
-1.01478, 129, 1, 192, 128
-1.01481, 161, 17, 224, 144
-1.0149, 337, 193, 464, 320
-1.01961, 377, 209, 440, 336
