1939
-0.513076, 1, 97, 500, 352
-0.597841, 1, 1, 500, 256
-0.63302, 97, 1, 352, 354
-0.665587, 1, 1, 500, 354
-0.672036, 193, 1, 448, 354
-0.683358, 161, 97, 416, 352
-0.781006, 257, 97, 500, 352
-0.784833, 65, 97, 320, 352
-0.818487, 1, 1, 256, 354
-0.827156, 193, 1, 448, 256
-0.870872, 97, 1, 352, 256
-0.882356, 273, 97, 400, 352
-0.891139, 209, 97, 336, 352
-0.896556, 145, 97, 272, 352
-0.905268, 209, 1, 336, 354
-0.906359, 273, 1, 400, 354
-0.91133, 1, 129, 500, 256
-0.915493, 321, 97, 448, 352
-0.919953, 241, 1, 368, 256
-0.919988, 97, 97, 224, 352
-0.922052, 145, 1, 272, 256
-0.923467, 97, 97, 352, 224
-0.923522, 1, 1, 256, 256
-0.923628, 129, 1, 256, 354
-0.92488, 193, 129, 448, 256
-0.927935, 321, 1, 448, 354
-0.931096, 65, 1, 192, 354
-0.935091, 65, 1, 192, 256
-0.935533, 193, 81, 448, 208
-0.935987, 289, 1, 416, 256
-0.936256, 193, 1, 320, 256
-0.938133, 1, 81, 500, 208
-0.938284, 369, 1, 496, 354
-0.941395, 337, 1, 464, 256
-0.941706, 289, 129, 416, 256
-0.946014, 369, 97, 496, 352
-0.946927, 49, 97, 176, 352
-0.947874, 97, 145, 352, 272
-0.949723, 129, 97, 256, 224
-0.950673, 209, 129, 336, 256
-0.952789, 145, 113, 208, 240
-0.95411, 1, 193, 500, 320
-0.954255, 1, 97, 256, 224
-0.954333, 273, 129, 336, 256
-0.955992, 305, 129, 368, 256
-0.957433, 337, 129, 400, 256
-0.957571, 201, 113, 264, 240
-0.959595, 1, 65, 128, 320
-0.960501, 17, 1, 144, 354
-0.961262, 225, 81, 352, 208
-0.961711, 97, 49, 352, 176
-0.961742, 233, 129, 296, 256
-0.961798, 169, 113, 232, 240
-0.962735, 1, 33, 500, 160
-0.963362, 145, 121, 208, 184
-0.963921, 193, 177, 448, 304
-0.963993, 361, 129, 424, 256
-0.96491, 257, 81, 320, 208
-0.96711, 81, 113, 208, 240
-0.968414, 289, 81, 416, 208
-0.968745, 305, 81, 368, 208
-0.969092, 177, 81, 304, 208
-0.969111, 121, 97, 184, 224
-0.969531, 337, 145, 464, 272
-0.96983, 337, 81, 400, 208
-0.970239, 161, 145, 288, 272
-0.970874, 169, 129, 232, 192
-0.97152, 313, 129, 376, 192
-0.971669, 353, 145, 416, 208
-0.97167, 169, 161, 232, 288
-0.972108, 217, 145, 280, 208
-0.972165, 1, 49, 256, 176
-0.972358, 193, 193, 320, 320
-0.972619, 273, 145, 336, 208
-0.972744, 97, 193, 352, 320
-0.972862, 217, 65, 280, 192
-0.972933, 241, 145, 304, 208
-0.973106, 193, 97, 256, 160
-0.973264, 281, 81, 344, 208
-0.973298, 217, 177, 280, 304
-0.973395, 129, 49, 256, 176
-0.973516, 161, 65, 224, 192
-0.973588, 145, 97, 208, 160
-0.973685, 193, 33, 448, 160
-0.974117, 241, 177, 304, 304
-0.97444, 257, 121, 320, 184
-0.974778, 337, 97, 464, 224
-0.975088, 1, 161, 256, 288
-0.975344, 137, 161, 200, 288
-0.975843, 329, 97, 392, 352
-0.975853, 145, 121, 272, 184
-0.97604, 121, 113, 184, 176
-0.976343, 121, 137, 184, 200
-0.976347, 289, 137, 416, 200
-0.976608, 113, 177, 240, 304
-0.9769, 145, 145, 208, 208
-0.977042, 193, 209, 256, 336
-0.977082, 145, 169, 208, 232
-0.977318, 337, 113, 400, 176
-0.977431, 257, 193, 384, 320
-0.977482, 169, 97, 232, 160
-0.977711, 65, 65, 192, 192
-0.977775, 281, 121, 344, 184
-0.977836, 201, 121, 264, 184
-0.977838, 157, 97, 188, 224
-0.978052, 233, 97, 296, 352
-0.978065, 233, 113, 296, 176
-0.978999, 265, 97, 328, 352
-0.979229, 305, 97, 368, 352
-0.979497, 185, 65, 248, 192
-0.979529, 245, 129, 276, 256
-0.980432, 209, 97, 272, 352
-0.98061, 201, 209, 264, 272
-0.980724, 157, 113, 188, 176
-0.980845, 249, 185, 312, 248
-0.980893, 225, 113, 352, 176
-0.980901, 233, 129, 264, 256
-0.980973, 265, 129, 296, 256
-0.981006, 177, 185, 240, 248
-0.981118, 305, 129, 336, 256
-0.981212, 209, 145, 336, 208
-0.981266, 169, 113, 200, 240
-0.981486, 281, 209, 344, 336
-0.981624, 169, 153, 232, 216
-0.981708, 361, 81, 424, 208
-0.98193, 217, 185, 280, 248
-0.982016, 249, 145, 280, 208
-0.982076, 377, 153, 440, 216
-0.982217, 105, 89, 168, 152
-0.982247, 97, 1, 352, 128
-0.982352, 385, 81, 448, 208
-0.982358, 185, 65, 248, 320
-0.982378, 181, 113, 212, 176
-0.98277, 305, 105, 368, 168
-0.983071, 321, 137, 352, 200
-0.983112, 361, 177, 424, 240
-0.983309, 177, 209, 240, 272
-0.983602, 361, 177, 424, 304
-0.983724, 97, 65, 160, 192
-0.983749, 293, 129, 324, 256
-0.983768, 193, 113, 224, 240
-0.983785, 205, 97, 236, 160
-0.98381, 137, 49, 200, 176
-0.983844, 393, 129, 456, 192
-0.983898, 161, 145, 288, 208
-0.984045, 393, 129, 456, 256
-0.984168, 97, 121, 224, 184
-0.984311, 337, 129, 368, 256
-0.984328, 365, 129, 396, 256
-0.984387, 305, 193, 432, 320
-0.9844, 353, 97, 416, 352
-0.984613, 161, 65, 224, 320
-0.984684, 233, 129, 264, 192
-0.984701, 305, 33, 368, 160
-0.984788, 129, 97, 256, 160
-0.984873, 193, 153, 256, 216
-0.984896, 325, 129, 356, 256
-0.984916, 277, 145, 308, 272
-0.98498, 349, 129, 380, 256
-0.98499, 209, 185, 336, 248
-0.985079, 193, 225, 448, 352
-0.98539, 245, 81, 276, 208
-0.985445, 177, 33, 304, 160
-0.9856, 273, 185, 336, 248
-0.985674, 305, 193, 368, 320
-0.985698, 289, 113, 416, 176
-0.985893, 197, 121, 228, 184
-0.985907, 269, 145, 300, 208
-0.985957, 337, 145, 464, 208
-0.986225, 145, 177, 272, 240
-0.986251, 289, 145, 320, 208
-0.986372, 241, 81, 304, 144
-0.986439, 193, 161, 256, 288
-0.986493, 137, 97, 168, 224
-0.986518, 113, 145, 176, 272
-0.986572, 381, 129, 412, 256
-0.986573, 297, 1, 360, 354
-0.986627, 221, 113, 252, 240
-0.986661, 233, 209, 296, 272
-0.986709, 221, 105, 252, 168
-0.986771, 49, 113, 176, 176
-0.986798, 281, 97, 344, 160
-0.986848, 345, 129, 376, 192
-0.986875, 281, 97, 312, 224
-0.986883, 257, 81, 288, 208
-0.986902, 1, 225, 256, 352
-0.986927, 333, 129, 364, 192
-0.986932, 161, 201, 288, 264
-0.986955, 33, 113, 160, 240
-0.987111, 217, 65, 280, 128
-0.987162, 349, 81, 380, 208
-0.987238, 205, 113, 236, 240
-0.987302, 309, 113, 340, 176
-0.987305, 305, 81, 336, 208
-0.987319, 113, 225, 240, 352
-0.987347, 309, 137, 340, 200
-0.987371, 193, 241, 256, 304
-0.987408, 361, 113, 424, 176
-0.987411, 233, 81, 264, 208
-0.987539, 313, 161, 376, 224
-0.987658, 289, 121, 320, 184
-0.987659, 97, 145, 224, 208
-0.987786, 181, 113, 212, 240
-0.987847, 385, 153, 416, 216
-0.987855, 209, 129, 240, 192
-0.987979, 169, 121, 200, 184
-0.988006, 65, 161, 192, 288
-0.98807, 245, 113, 276, 176
-0.988084, 289, 1, 352, 256
-0.988182, 225, 1, 288, 256
-0.988196, 361, 81, 392, 208
-0.98841, 113, 161, 176, 224
-0.98863, 337, 49, 464, 176
-0.988702, 305, 169, 432, 232
-0.988742, 257, 161, 384, 224
-0.98875, 257, 17, 384, 144
-0.988829, 193, 97, 224, 160
-0.988949, 337, 121, 464, 184
-0.988964, 273, 217, 336, 280
-0.988991, 293, 81, 324, 208
-0.989004, 145, 121, 208, 152
-0.989013, 213, 193, 244, 256
-0.989107, 225, 1, 288, 354
-0.989163, 181, 65, 212, 192
-0.98917, 321, 81, 352, 208
-0.989204, 217, 89, 280, 152
-0.98921, 233, 105, 264, 168
-0.989217, 337, 169, 400, 232
-0.989247, 169, 161, 200, 224
-0.989269, 249, 177, 280, 304
-0.989281, 49, 137, 176, 200
-0.989293, 257, 121, 288, 184
-0.989295, 365, 137, 396, 200
-0.989303, 153, 193, 216, 256
-0.989436, 133, 129, 164, 192
-0.989554, 145, 113, 176, 176
-0.989567, 305, 57, 368, 120
-0.989582, 257, 49, 320, 112
-0.989623, 201, 201, 232, 264
-0.989635, 297, 209, 360, 272
-0.989814, 241, 233, 304, 296
-0.989876, 249, 1, 312, 354
-0.989922, 169, 209, 232, 336
-0.989939, 221, 129, 252, 192
-0.989954, 265, 1, 328, 256
-0.989957, 329, 177, 392, 304
-0.989968, 209, 241, 336, 304
-0.989991, 133, 97, 164, 160
-0.990113, 97, 169, 224, 232
-0.990197, 177, 97, 304, 160
-0.990322, 97, 121, 352, 184
-0.990361, 353, 209, 480, 336
-0.990385, 65, 89, 192, 152
-0.99039, 153, 73, 216, 136
-0.990435, 157, 137, 188, 200
-0.990468, 97, 113, 160, 176
-0.990477, 249, 33, 312, 160
-0.990481, 321, 1, 384, 354
-0.990592, 273, 1, 336, 354
-0.990611, 277, 121, 308, 184
-0.990635, 305, 81, 368, 144
-0.990649, 321, 193, 384, 256
-0.990655, 209, 217, 336, 280
-0.990665, 321, 137, 384, 168
-0.990685, 305, 1, 432, 128
-0.99074, 201, 137, 264, 168
-0.990753, 265, 73, 328, 136
-0.990761, 257, 73, 384, 136
-0.990763, 273, 149, 336, 180
-0.990792, 213, 177, 244, 304
-0.990809, 177, 265, 240, 328
-0.990831, 161, 241, 224, 304
-0.990848, 153, 161, 184, 288
-0.99085, 177, 133, 240, 164
-0.990853, 193, 265, 320, 328
-0.990856, 153, 217, 216, 280
-0.990861, 333, 81, 364, 208
-0.990871, 225, 225, 288, 352
-0.990954, 181, 89, 212, 152
-0.990978, 269, 81, 300, 208
-0.990984, 173, 161, 204, 288
-0.991073, 297, 141, 360, 172
-0.99111, 1, 1, 256, 128
-0.99115, 201, 117, 264, 148
-0.991196, 161, 109, 224, 140
-0.991196, 237, 177, 268, 304
-0.991201, 161, 225, 288, 288
-0.991214, 193, 145, 448, 208
-0.991214, 157, 169, 188, 232
-0.991255, 337, 97, 464, 160
-0.991263, 249, 225, 312, 352
-0.991265, 145, 73, 272, 136
-0.991267, 225, 41, 288, 104
-0.991307, 241, 149, 304, 180
-0.99131, 201, 1, 264, 128
-0.99132, 213, 65, 244, 192
-0.991358, 257, 137, 320, 168
-0.991361, 249, 169, 280, 232
-0.991368, 129, 73, 192, 136
-0.991386, 185, 1, 248, 354
-0.991452, 401, 153, 464, 216
-0.991473, 229, 185, 260, 248
-0.991497, 137, 97, 200, 352
-0.99152, 129, 145, 192, 176
-0.991553, 145, 273, 272, 336
-0.991618, 233, 133, 296, 164
-0.99162, 281, 273, 344, 336
-0.991723, 113, 201, 240, 264
-0.991726, 105, 129, 168, 160
-0.99175, 217, 149, 280, 180
-0.991765, 217, 197, 280, 228
-0.991791, 169, 121, 232, 152
-0.991807, 145, 225, 208, 352
-0.99181, 353, 145, 416, 176
-0.991813, 129, 1, 256, 128
-0.991818, 265, 193, 296, 320
-0.991846, 121, 117, 184, 148
-0.991857, 345, 89, 408, 152
-0.991873, 169, 289, 232, 352
-0.991881, 321, 1, 384, 256
-0.99189, 145, 177, 208, 208
-0.991927, 241, 273, 368, 336
-0.991952, 345, 1, 408, 354
-0.991992, 193, 201, 256, 232
-0.991994, 65, 225, 192, 352
-0.991999, 145, 161, 208, 192
-0.992031, 321, 125, 384, 156
-0.992041, 113, 105, 176, 136
-0.992066, 357, 113, 388, 176
-0.992153, 237, 209, 268, 272
-0.992153, 193, 73, 256, 136
-0.992158, 241, 193, 304, 224
-0.992179, 145, 133, 208, 164
-0.99218, 361, 177, 424, 208
-0.992198, 169, 161, 232, 192
-0.992215, 289, 241, 416, 304
-0.99224, 281, 129, 344, 160
-0.992245, 233, 121, 296, 152
-0.99226, 361, 157, 424, 188
-0.992277, 217, 233, 280, 296
-0.992283, 241, 181, 304, 212
-0.992299, 153, 149, 216, 180
-0.992312, 353, 1, 416, 256
-0.992321, 305, 193, 432, 256
-0.992348, 193, 101, 256, 132
-0.992352, 209, 273, 272, 336
-0.992412, 345, 117, 408, 148
-0.992426, 217, 209, 280, 240
-0.992427, 137, 105, 200, 136
-0.99243, 153, 89, 184, 152
-0.992435, 105, 141, 168, 172
-0.992466, 113, 161, 176, 192
-0.99247, 297, 249, 360, 312
-0.992488, 145, 137, 176, 200
-0.992491, 169, 189, 232, 220
-0.992503, 209, 185, 272, 216
-0.992504, 153, 1, 216, 354
-0.992504, 285, 209, 316, 336
-0.992505, 257, 85, 320, 116
-0.992554, 257, 73, 320, 104
-0.992559, 393, 141, 456, 172
-0.992585, 169, 201, 232, 232
-0.992642, 265, 185, 328, 216
-0.992646, 321, 113, 352, 176
-0.992648, 169, 97, 200, 160
-0.992651, 225, 77, 288, 108
-0.992653, 233, 93, 296, 124
-0.992671, 369, 129, 432, 160
-0.992671, 193, 261, 256, 292
-0.992682, 177, 213, 240, 244
-0.992688, 129, 249, 256, 312
-0.992699, 273, 105, 336, 136
-0.992701, 153, 117, 184, 148
-0.992704, 297, 117, 360, 148
-0.992707, 373, 81, 404, 208
-0.992709, 197, 193, 228, 320
-0.992713, 161, 97, 224, 128
-0.992718, 241, 209, 304, 240
-0.992724, 169, 173, 232, 204
-0.992726, 181, 121, 212, 152
-0.992741, 233, 105, 296, 136
-0.992741, 225, 217, 256, 280
-0.992745, 369, 169, 496, 232
-0.992756, 209, 125, 240, 156
-0.992775, 225, 65, 288, 96
-0.992778, 169, 261, 232, 292
-0.992786, 393, 165, 456, 196
-0.992793, 225, 165, 288, 196
-0.992805, 361, 189, 424, 220
-0.992812, 197, 129, 228, 160
-0.992861, 201, 249, 264, 280
-0.992864, 189, 109, 220, 140
-0.99288, 249, 257, 312, 320
-0.992882, 225, 125, 256, 156
-0.9929, 209, 49, 336, 112
-0.992905, 137, 93, 200, 124
-0.992905, 113, 65, 176, 320
-0.992927, 257, 209, 384, 272
-0.992939, 209, 73, 336, 136
-0.99294, 313, 165, 376, 196
-0.99294, 169, 121, 200, 152
-0.992953, 201, 113, 232, 144
-0.992959, 385, 81, 416, 208
-0.992962, 401, 153, 464, 184
-0.992977, 201, 221, 264, 252
-0.99298, 113, 193, 176, 256
-0.992986, 313, 57, 376, 88
-0.992988, 345, 129, 408, 160
-0.99299, 261, 185, 292, 248
-0.992991, 273, 161, 336, 192
-0.993, 241, 249, 304, 280
-0.993002, 281, 89, 344, 120
-0.993009, 121, 173, 184, 204
-0.99302, 145, 249, 208, 280
-0.993035, 97, 145, 352, 208
-0.993036, 305, 89, 368, 120
-0.993042, 229, 141, 260, 172
-0.993046, 257, 61, 320, 92
-0.993046, 305, 205, 368, 236
-0.993051, 249, 149, 280, 180
-0.993063, 209, 201, 240, 232
-0.993074, 317, 141, 348, 172
-0.993078, 257, 269, 320, 300
-0.993078, 345, 1, 408, 128
-0.993079, 189, 161, 220, 224
-0.993079, 329, 137, 360, 168
-0.99308, 313, 77, 376, 108
-0.993096, 209, 53, 272, 84
-0.993096, 225, 221, 288, 252
-0.993109, 261, 141, 292, 172
-0.993114, 173, 109, 204, 140
-0.993119, 49, 129, 112, 192
-0.993134, 277, 153, 308, 184
-0.993137, 361, 201, 424, 264
-0.993149, 133, 133, 164, 164
-0.99315, 265, 173, 328, 204
-0.993159, 337, 189, 400, 220
-0.993166, 169, 309, 232, 340
-0.993168, 161, 225, 224, 256
-0.993174, 193, 81, 256, 112
-0.993187, 257, 125, 320, 156
-0.993189, 265, 201, 328, 232
-0.993197, 217, 137, 248, 168
-0.9932, 313, 129, 344, 160
-0.993201, 97, 117, 160, 148
-0.993208, 229, 201, 260, 232
-0.993212, 305, 145, 336, 176
-0.993214, 173, 161, 204, 192
-0.993223, 185, 237, 248, 268
-0.993223, 193, 113, 448, 176
-0.993223, 249, 305, 312, 336
-0.993232, 193, 321, 256, 352
-0.993251, 241, 137, 272, 168
-0.993255, 213, 217, 244, 280
-0.993259, 249, 189, 280, 220
-0.993265, 133, 109, 164, 140
-0.993268, 345, 81, 408, 112
-0.993268, 41, 125, 104, 156
-0.993268, 157, 165, 188, 196
-0.993269, 261, 153, 292, 184
-0.993271, 289, 49, 416, 112
-0.993275, 341, 137, 372, 168
-0.993294, 369, 1, 496, 128
-0.993299, 293, 149, 324, 180
-0.993302, 289, 229, 352, 260
-0.993302, 213, 113, 244, 144
-0.993304, 281, 77, 344, 108
-0.993307, 293, 133, 324, 164
-0.993307, 353, 249, 416, 280
-0.993309, 161, 41, 288, 104
-0.993309, 113, 225, 240, 288
-0.993311, 173, 173, 204, 204
-0.993311, 241, 49, 304, 80
-0.993316, 181, 133, 212, 164
-0.993317, 265, 213, 328, 244
-0.993323, 157, 177, 188, 208
-0.993323, 269, 185, 300, 216
-0.993327, 393, 177, 456, 208
-0.993328, 381, 149, 412, 180
-0.993329, 229, 213, 260, 244
-0.99333, 265, 173, 296, 204
-0.993333, 137, 1, 200, 256
-0.993339, 277, 133, 308, 164
-0.993341, 137, 145, 168, 176
-0.993341, 149, 129, 180, 160
-0.993353, 361, 141, 392, 172
-0.993353, 233, 261, 296, 292
-0.993356, 281, 57, 344, 88
-0.993358, 157, 153, 188, 184
-0.993361, 209, 309, 272, 340
-0.993366, 253, 129, 284, 160
-0.993366, 197, 205, 228, 236
-0.993369, 169, 249, 232, 280
-0.993379, 129, 129, 256, 160
-0.99338, 361, 201, 424, 232
-0.99338, 65, 17, 192, 144
-0.993381, 193, 193, 224, 224
-0.993384, 201, 173, 264, 204
-0.993385, 169, 321, 232, 352
-0.993385, 113, 69, 176, 100
-0.99339, 281, 249, 344, 280
-0.993397, 161, 105, 192, 136
-0.993397, 225, 113, 256, 144
-0.993399, 169, 85, 232, 116
-0.993404, 241, 201, 272, 232
-0.993404, 177, 277, 240, 308
-0.993405, 265, 225, 328, 256
-0.993406, 273, 109, 304, 140
-0.993418, 253, 201, 284, 232
-0.99342, 157, 141, 188, 172
-0.993426, 193, 161, 256, 192
-0.993428, 349, 121, 380, 152
-0.993429, 201, 261, 232, 292
-0.993432, 305, 73, 432, 136
-0.993439, 209, 41, 272, 72
-0.993439, 273, 281, 336, 312
-0.993444, 149, 105, 180, 136
-0.993445, 145, 197, 208, 228
-0.993447, 201, 273, 264, 304
-0.993448, 301, 113, 332, 144
-0.99345, 129, 121, 160, 152
-0.993452, 229, 185, 260, 216
-0.993455, 89, 85, 152, 116
-0.99346, 321, 101, 384, 132
-0.993465, 209, 185, 240, 216
-0.993466, 305, 45, 368, 76
-0.993469, 329, 125, 360, 156
-0.99347, 121, 1, 184, 354
-0.993476, 193, 289, 256, 320
-0.993478, 245, 69, 276, 100
-0.993479, 253, 173, 284, 204
-0.993481, 289, 217, 352, 248
-0.993482, 81, 137, 144, 168
-0.993483, 189, 261, 220, 292
-0.993483, 217, 233, 280, 264
-0.993483, 201, 65, 264, 96
-0.993485, 205, 217, 236, 248
-0.993489, 257, 237, 320, 268
-0.993491, 253, 105, 284, 136
-0.993492, 137, 209, 200, 240
-0.993492, 205, 97, 236, 128
-0.993492, 369, 129, 400, 160
-0.993497, 293, 97, 324, 128
-0.993498, 177, 149, 240, 180
-0.993499, 145, 237, 208, 268
-0.993509, 241, 117, 272, 148
-0.993512, 353, 241, 416, 304
-0.993515, 313, 233, 376, 264
-0.993515, 153, 273, 216, 304
-0.993527, 285, 109, 316, 140
-0.993528, 189, 157, 220, 188
-0.99354, 329, 201, 360, 232
-0.993545, 189, 185, 220, 248
-0.993553, 301, 193, 332, 320
-0.993558, 253, 89, 284, 120
-0.993565, 189, 301, 220, 332
-0.993566, 269, 97, 300, 128
-0.993569, 233, 237, 264, 268
-0.993571, 185, 217, 216, 248
-0.993576, 73, 129, 136, 192
-0.993577, 269, 197, 300, 228
-0.993581, 141, 181, 172, 212
-0.993582, 385, 173, 416, 204
-0.993584, 365, 181, 396, 212
-0.993586, 177, 265, 208, 296
-0.993587, 385, 137, 416, 168
-0.99359, 169, 145, 200, 176
-0.993591, 265, 209, 296, 240
-0.993596, 217, 249, 248, 280
-0.993598, 361, 117, 392, 148
-0.993599, 277, 269, 308, 300
-0.9936, 265, 85, 296, 116
-0.9936, 181, 189, 212, 220
-0.993601, 181, 97, 212, 128
-0.993601, 189, 169, 220, 200
-0.993609, 237, 81, 268, 112
-0.993611, 277, 121, 308, 152
-0.993612, 385, 161, 416, 192
-0.993616, 217, 217, 248, 248
-0.993617, 221, 101, 252, 132
-0.99362, 289, 121, 320, 152
-0.993622, 185, 205, 216, 236
-0.993628, 293, 85, 324, 116
-0.99363, 241, 213, 272, 244
-0.993632, 281, 181, 312, 212
-0.993634, 197, 141, 228, 172
-0.993636, 245, 53, 276, 84
-0.993636, 161, 189, 192, 220
-0.99364, 265, 69, 296, 100
-0.993641, 313, 209, 344, 240
-0.993642, 165, 205, 196, 236
-0.993643, 405, 165, 436, 196
-0.993643, 277, 257, 308, 288
-0.993646, 261, 117, 292, 148
-0.993649, 265, 129, 296, 160
-0.993651, 209, 317, 240, 348
-0.993653, 213, 237, 244, 268
-0.993654, 325, 161, 356, 192
-0.993659, 137, 161, 168, 192
-0.993659, 197, 249, 228, 280
-0.993663, 281, 41, 344, 104
-0.993663, 193, 97, 224, 128
-0.993667, 349, 81, 380, 112
-0.993672, 241, 105, 272, 136
-0.993672, 237, 93, 268, 124
-0.993676, 405, 177, 436, 208
-0.993677, 181, 245, 212, 276
-0.993684, 197, 281, 228, 312
-0.993684, 309, 101, 340, 132
-0.993686, 169, 133, 200, 164
-0.993687, 109, 137, 140, 168
-0.993687, 233, 53, 264, 84
-0.993688, 305, 61, 336, 92
-0.99369, 249, 225, 280, 256
-0.993733, 49, 161, 176, 224
-0.993783, 145, 265, 208, 328
-0.993826, 289, 141, 416, 172
-0.993858, 237, 33, 268, 160
-0.99388, 97, 281, 224, 344
-0.993893, 225, 209, 256, 336
-0.993976, 181, 137, 212, 200
-0.993988, 281, 1, 344, 128
-0.994023, 385, 177, 448, 304
-0.994037, 393, 177, 456, 240
-0.994105, 89, 65, 152, 128
-0.994148, 201, 41, 264, 104
-0.994246, 393, 97, 456, 352
-0.994291, 81, 257, 208, 320
-0.994293, 1, 137, 500, 200
-0.994305, 225, 1, 288, 128
-0.99439, 169, 65, 200, 192
-0.994407, 345, 105, 376, 168
-0.994448, 381, 129, 412, 192
-0.994496, 393, 145, 424, 272
-0.994541, 345, 65, 408, 128
-0.994541, 73, 97, 136, 160
-0.994541, 137, 241, 200, 304
-0.994575, 97, 97, 352, 160
-0.994578, 65, 57, 192, 120
-0.994579, 405, 137, 436, 200
-0.994581, 289, 273, 416, 336
-0.994593, 273, 177, 304, 240
-0.994703, 185, 177, 216, 304
-0.994708, 257, 185, 384, 248
-0.994711, 193, 65, 224, 192
-0.994735, 1, 121, 256, 184
-0.994741, 97, 137, 160, 200
-0.994753, 337, 161, 368, 224
-0.994797, 213, 225, 244, 352
-0.994815, 249, 193, 280, 256
-0.994832, 153, 49, 184, 176
-0.994848, 377, 1, 440, 354
-0.994865, 17, 65, 144, 192
-0.994878, 369, 113, 400, 176
-0.994912, 129, 217, 192, 280
-0.994932, 73, 113, 136, 240
-0.994986, 49, 105, 112, 168
-0.994993, 333, 105, 364, 168
-0.995016, 385, 105, 448, 168
-0.995028, 417, 129, 480, 256
-0.995029, 241, 281, 304, 344
-0.995068, 141, 145, 172, 272
-0.995082, 193, 289, 320, 352
-0.995103, 241, 57, 272, 120
-0.99512, 293, 73, 324, 136
-0.995123, 337, 249, 464, 312
-0.995161, 209, 169, 240, 232
-0.995172, 133, 49, 164, 176
-0.995194, 17, 193, 144, 320
-0.995231, 183, 113, 198, 176
-0.995283, 289, 9, 352, 72
-0.995304, 249, 25, 312, 88
-0.995373, 1, 137, 128, 200
-0.995394, 225, 129, 352, 160
-0.995396, 225, 25, 352, 88
-0.995467, 1, 105, 128, 168
-0.995502, 129, 117, 256, 148
-0.99551, 261, 209, 292, 272
-0.995532, 113, 17, 176, 144
-0.995545, 33, 265, 160, 328
-0.995574, 321, 201, 352, 264
-0.995601, 145, 169, 176, 232
-0.995634, 261, 81, 292, 144
-0.995688, 129, 17, 256, 80
-0.99571, 145, 141, 272, 172
-0.995711, 49, 81, 112, 208
-0.995787, 121, 49, 184, 112
-0.995807, 305, 25, 432, 88
-0.995808, 297, 185, 360, 248
-0.995816, 405, 129, 436, 256
-0.995819, 329, 33, 360, 160
-0.995826, 141, 73, 172, 136
-0.99584, 259, 145, 274, 208
-0.995843, 225, 169, 480, 232
-0.995847, 49, 185, 176, 248
-0.995886, 225, 1, 352, 64
-0.995927, 225, 149, 352, 180
-0.99594, 237, 153, 268, 216
-0.99596, 193, 89, 448, 152
-0.996028, 377, 177, 408, 304
-0.996054, 81, 121, 208, 152
-0.996084, 221, 241, 252, 304
-0.996099, 433, 81, 496, 208
-0.996154, 321, 1, 448, 64
-0.996185, 251, 145, 266, 208
-0.996199, 353, 225, 416, 352
-0.996204, 273, 241, 336, 304
-0.996211, 285, 97, 316, 160
-0.996231, 155, 105, 170, 168
-0.996256, 113, 41, 240, 104
-0.996256, 369, 73, 496, 136
-0.996262, 285, 145, 300, 208
-0.996278, 313, 177, 344, 304
-0.996282, 323, 137, 338, 200
-0.99629, 73, 65, 136, 192
-0.996292, 201, 113, 216, 176
-0.996297, 173, 113, 188, 176
-0.996317, 243, 137, 258, 200
-0.996327, 125, 113, 156, 240
-0.996328, 185, 273, 216, 336
-0.996362, 337, 41, 400, 104
-0.996368, 209, 1, 272, 64
-0.996368, 65, 73, 128, 136
-0.996373, 293, 217, 324, 280
-0.996393, 9, 137, 72, 200
-0.99643, 207, 121, 222, 184
-0.996445, 291, 145, 306, 208
-0.996461, 329, 241, 392, 304
-0.996469, 97, 73, 352, 136
-0.996472, 347, 129, 362, 192
-0.996507, 331, 137, 346, 200
-0.996516, 267, 145, 282, 208
-0.996531, 285, 193, 316, 256
-0.996535, 309, 89, 340, 152
-0.996575, 337, 265, 400, 328
-0.996605, 33, 177, 288, 240
-0.996626, 231, 105, 246, 168
-0.996635, 129, 185, 384, 248
-0.996639, 65, 225, 192, 288
-0.996667, 337, 225, 464, 288
-0.996684, 201, 281, 232, 344
-0.996688, 317, 137, 332, 200
-0.99669, 279, 145, 294, 208
-0.996694, 1, 65, 128, 128
-0.996696, 207, 97, 222, 160
-0.996705, 339, 129, 354, 192
-0.996713, 249, 225, 280, 288
-0.996721, 1, 161, 500, 224
-0.996772, 177, 129, 304, 160
-0.996785, 225, 121, 240, 184
-0.996794, 189, 121, 204, 184
-0.996803, 237, 129, 252, 192
-0.996809, 241, 257, 272, 320
-0.996819, 225, 153, 256, 216
-0.996829, 305, 273, 368, 336
-0.996841, 225, 193, 480, 256
-0.996879, 163, 113, 178, 176
-0.996892, 33, 289, 160, 352
-0.996934, 183, 145, 198, 208
-0.996937, 315, 113, 330, 176
-0.996939, 249, 89, 280, 152
-0.996943, 219, 193, 234, 256
-0.996944, 309, 145, 324, 208
-0.996968, 193, 117, 320, 148
-0.996987, 229, 81, 260, 144
-0.997034, 249, 113, 264, 176
-0.997039, 195, 113, 210, 176
-0.99705, 369, 201, 496, 264
-0.997058, 169, 249, 200, 312
-0.997072, 357, 177, 388, 240
-0.997085, 177, 137, 192, 200
-0.997104, 175, 161, 190, 224
-0.997107, 113, 1, 176, 64
-0.997109, 81, 109, 208, 140
-0.997125, 269, 121, 284, 184
-0.997147, 255, 121, 270, 184
-0.997149, 309, 57, 340, 120
-0.997152, 49, 141, 176, 172
-0.997157, 281, 49, 312, 176
-0.997161, 293, 113, 308, 176
-0.997174, 263, 185, 278, 248
-0.997178, 299, 145, 314, 208
-0.997202, 273, 97, 304, 160
-0.99722, 299, 121, 314, 184
-0.997221, 385, 201, 448, 264
-0.997235, 25, 113, 88, 240
-0.997235, 113, 193, 176, 320
-0.997235, 353, 129, 480, 160
-0.99724, 337, 281, 464, 344
-0.997241, 215, 105, 230, 168
-0.997244, 393, 145, 408, 208
-0.997252, 273, 145, 288, 208
-0.997253, 249, 33, 280, 160
-0.997261, 333, 201, 364, 264
-0.997265, 137, 289, 200, 352
-0.99727, 353, 129, 368, 192
-0.997289, 365, 177, 396, 304
-0.997301, 323, 113, 338, 176
-0.997301, 149, 121, 164, 184
-0.997302, 227, 193, 242, 256
-0.997314, 433, 89, 496, 152
-0.997317, 273, 97, 304, 352
-0.997323, 401, 1, 464, 354
-0.997327, 305, 121, 320, 184
-0.997348, 367, 137, 382, 200
-0.997355, 201, 89, 216, 152
-0.99736, 381, 97, 412, 160
-0.997375, 305, 157, 432, 188
-0.997381, 193, 233, 448, 296
-0.997387, 231, 129, 246, 192
-0.997391, 129, 105, 256, 136
-0.997408, 237, 97, 268, 352
-0.997416, 221, 97, 252, 352
-0.997416, 237, 105, 252, 168
-0.99743, 337, 193, 368, 320
-0.997436, 285, 97, 316, 352
-0.997441, 349, 97, 380, 352
-0.997441, 1, 97, 256, 160
-0.997457, 177, 185, 304, 216
-0.997457, 309, 209, 340, 272
-0.997461, 89, 17, 152, 144
-0.997464, 287, 113, 302, 176
-0.997468, 153, 49, 216, 112
-0.997471, 369, 149, 496, 180
-0.997471, 337, 49, 464, 112
-0.997472, 165, 273, 196, 336
-0.997484, 147, 97, 162, 160
-0.997487, 297, 97, 328, 160
-0.997511, 267, 209, 282, 272
-0.997518, 9, 113, 72, 176
-0.997522, 389, 177, 420, 240
-0.997523, 97, 241, 352, 304
-0.997528, 369, 1, 496, 64
-0.997532, 273, 177, 288, 240
-0.997538, 261, 97, 292, 352
-0.997539, 373, 137, 388, 200
-0.99754, 333, 97, 364, 352
-0.997541, 255, 185, 270, 248
-0.997548, 213, 265, 244, 328
-0.997557, 243, 113, 258, 176
-0.997561, 113, 189, 240, 220
-0.997561, 305, 33, 368, 96
-0.997563, 193, 205, 320, 236
-0.997565, 387, 137, 402, 200
-0.997569, 217, 129, 232, 192
-0.997569, 225, 65, 480, 128
-0.997576, 165, 177, 180, 240
-0.997582, 399, 153, 414, 216
-0.997583, 305, 129, 432, 160
-0.997589, 129, 157, 256, 188
-0.997604, 225, 97, 240, 160
-0.997619, 97, 1, 160, 354
-0.99762, 349, 177, 380, 304
-0.997621, 359, 137, 374, 200
-0.997623, 379, 137, 394, 200
-0.997633, 33, 33, 160, 96
-0.997636, 321, 217, 384, 280
-0.997644, 279, 121, 294, 184
-0.997651, 225, 33, 256, 160
-0.997671, 321, 161, 352, 224
-0.997678, 175, 89, 190, 152
-0.997679, 207, 201, 222, 264
-0.997702, 277, 225, 308, 288
-0.997704, 113, 249, 176, 312
-0.997707, 213, 201, 228, 264
-0.997723, 195, 89, 210, 152
-0.997728, 329, 289, 392, 352
-0.99773, 261, 225, 276, 288
-0.997741, 297, 97, 328, 352
-0.997741, 265, 17, 296, 144
-0.997742, 177, 257, 304, 288
-0.997753, 185, 17, 248, 80
-0.997753, 425, 129, 488, 192
-0.997756, 263, 113, 278, 176
-0.997764, 141, 105, 156, 168
-0.997769, 171, 137, 186, 200
-0.99777, 359, 113, 374, 176
-0.997775, 97, 209, 352, 272
-0.997776, 193, 273, 448, 336
-0.997778, 193, 225, 224, 288
-0.997785, 1, 153, 256, 216
-0.997786, 227, 217, 242, 280
-0.997789, 145, 201, 272, 232
-0.997803, 253, 209, 268, 272
-0.997823, 183, 117, 198, 148
-0.997832, 367, 113, 382, 176
-0.997837, 177, 173, 304, 204
-0.997842, 183, 89, 198, 152
-0.99785, 305, 169, 432, 200
-0.997852, 225, 125, 240, 156
-0.997853, 375, 113, 390, 176
-0.997858, 149, 145, 164, 208
-0.997859, 129, 169, 256, 200
-0.997861, 41, 81, 104, 144
-0.997864, 329, 113, 344, 176
-0.997866, 97, 141, 224, 172
-0.997866, 177, 153, 304, 184
-0.997868, 145, 1, 208, 64
-0.997868, 155, 137, 170, 200
-0.997873, 193, 97, 224, 352
-0.997876, 109, 65, 140, 192
-0.997893, 177, 17, 304, 80
-0.997895, 249, 97, 280, 352
-0.997903, 293, 81, 308, 144
-0.997904, 189, 121, 204, 152
-0.997917, 65, 265, 128, 328
-0.997919, 177, 185, 208, 248
-0.997921, 173, 65, 204, 320
-0.997923, 1, 161, 128, 224
-0.997927, 361, 97, 392, 352
-0.997939, 113, 237, 240, 268
-0.997943, 1, 113, 500, 176
-0.997945, 129, 249, 256, 280
-0.997953, 209, 241, 240, 304
-0.997962, 203, 129, 218, 160
-0.997972, 129, 269, 256, 300
-0.997988, 197, 125, 212, 156
-0.997992, 155, 177, 170, 240
-0.998007, 97, 265, 352, 328
-0.998018, 211, 169, 226, 232
-0.998028, 189, 177, 204, 240
-0.998033, 243, 177, 258, 240
-0.998035, 273, 117, 400, 148
-0.998051, 189, 89, 204, 152
-0.998056, 177, 217, 304, 248
-0.998064, 121, 65, 152, 192
-0.998073, 233, 209, 248, 272
-0.998078, 309, 97, 340, 352
-0.998079, 257, 165, 384, 196
-0.998099, 369, 161, 496, 192
-0.998102, 153, 117, 168, 148
-0.99812, 405, 161, 436, 224
-0.998121, 97, 289, 160, 352
-0.998134, 81, 1, 208, 64
-0.998134, 245, 141, 260, 172
-0.998145, 369, 1, 432, 128
-0.998146, 167, 89, 182, 152
-0.998152, 259, 81, 274, 144
-0.998169, 321, 65, 352, 320
-0.998175, 213, 125, 228, 156
-0.998178, 241, 33, 272, 96
-0.998185, 161, 97, 192, 352
-0.998192, 161, 153, 176, 216
-0.998203, 253, 149, 268, 180
-0.998207, 203, 113, 218, 144
-0.998217, 177, 237, 304, 268
-0.998222, 237, 129, 252, 160
-0.998226, 17, 225, 144, 288
-0.998239, 41, 177, 104, 240
-0.998239, 177, 105, 304, 136
-0.99824, 273, 1, 400, 64
-0.998242, 149, 149, 180, 164
-0.998242, 153, 107, 184, 122
-0.998242, 197, 257, 228, 272
-0.998243, 329, 203, 360, 218
-0.998243, 217, 259, 248, 274
-0.998244, 169, 183, 200, 198
-0.998244, 245, 65, 276, 80
-0.998244, 405, 171, 436, 186
-0.998244, 201, 167, 232, 182
-0.998245, 293, 105, 324, 120
-0.998245, 373, 169, 404, 232
-0.998245, 237, 95, 268, 110
-0.998246, 265, 117, 296, 132
-0.998246, 397, 149, 428, 164
-0.998246, 293, 93, 324, 108
-0.998247, 241, 191, 272, 206
-0.998247, 141, 155, 172, 170
-0.998247, 221, 111, 252, 126
-0.998248, 269, 125, 300, 140
-0.998249, 385, 159, 416, 174
-0.998251, 253, 187, 284, 202
-0.998251, 181, 141, 212, 156
-0.998252, 385, 179, 416, 194
-0.998253, 309, 121, 340, 136
-0.998253, 257, 173, 288, 188
-0.998254, 157, 161, 188, 176
-0.998255, 385, 143, 416, 158
-0.998255, 253, 181, 284, 196
-0.998256, 309, 127, 340, 142
-0.998256, 189, 175, 220, 190
-0.998256, 297, 117, 328, 132
-0.998257, 249, 213, 280, 228
-0.998258, 209, 219, 240, 234
-0.998258, 157, 185, 188, 200
-0.998259, 169, 135, 200, 150
-0.99826, 245, 75, 276, 90
-0.99826, 289, 129, 320, 144
-0.998261, 241, 127, 272, 142
-0.998262, 229, 243, 260, 258
-0.998262, 321, 133, 352, 148
-0.998263, 297, 143, 328, 158
-0.998264, 65, 153, 192, 184
-0.998267, 229, 149, 260, 164
-0.998269, 245, 81, 276, 96
-0.998269, 285, 115, 316, 130
-0.998269, 161, 149, 192, 164
-0.99827, 197, 209, 228, 224
-0.99827, 137, 149, 168, 164
-0.998271, 241, 117, 272, 132
-0.998272, 265, 157, 296, 172
-0.998272, 149, 73, 164, 136
-0.998272, 205, 107, 236, 122
-0.998273, 231, 117, 246, 148
-0.998273, 209, 195, 240, 210
-0.998273, 293, 99, 324, 114
-0.998274, 213, 117, 244, 132
-0.998274, 189, 169, 220, 184
-0.998274, 253, 207, 284, 222
-0.998274, 237, 197, 268, 212
-0.998274, 241, 221, 272, 236
-0.998277, 245, 135, 276, 150
-0.998279, 257, 111, 288, 126
-0.998279, 197, 141, 228, 156
-0.998279, 197, 263, 228, 278
-0.998279, 193, 197, 224, 212
-0.998279, 217, 169, 232, 232
-0.99828, 281, 147, 312, 162
-0.99828, 133, 143, 164, 158
-0.99828, 209, 213, 240, 228
-0.99828, 185, 107, 216, 122
-0.998283, 265, 179, 296, 194
-0.998284, 341, 133, 372, 148
-0.998287, 297, 123, 328, 138
-0.998289, 273, 105, 304, 120
-0.998289, 133, 121, 164, 136
-0.998291, 249, 225, 280, 352
-0.998292, 281, 121, 312, 136
-0.998294, 265, 187, 296, 202
-0.998295, 279, 153, 294, 184
-0.998297, 349, 139, 380, 154
-0.998297, 381, 153, 412, 168
-0.998297, 153, 113, 184, 128
-0.998299, 325, 139, 356, 154
-0.998301, 133, 135, 164, 150
-0.998303, 173, 165, 204, 180
-0.998304, 173, 111, 204, 126
-0.998304, 137, 115, 168, 130
-0.998305, 241, 203, 272, 218
-0.998307, 133, 129, 164, 144
-0.998307, 385, 113, 400, 176
-0.998308, 173, 177, 204, 192
-0.998308, 225, 189, 352, 220
-0.998309, 157, 179, 188, 194
-0.998311, 373, 147, 404, 162
-0.998312, 253, 193, 284, 208
-0.998314, 225, 197, 256, 212
-0.998314, 157, 143, 188, 158
-0.998315, 197, 203, 228, 218
-0.998316, 153, 173, 184, 188
-0.998316, 293, 257, 308, 320
-0.998316, 309, 137, 340, 152
-0.998317, 229, 215, 260, 230
-0.998318, 361, 143, 392, 158
-0.998321, 305, 185, 336, 248
-0.998322, 253, 133, 268, 164
-0.998323, 331, 141, 346, 172
-0.998324, 201, 113, 232, 128
-0.998325, 209, 97, 240, 352
-0.998328, 197, 249, 212, 312
-0.998329, 173, 113, 188, 144
-0.998331, 193, 269, 320, 300
-0.998331, 161, 89, 176, 152
-0.998333, 169, 129, 200, 144
-0.998336, 225, 121, 256, 136
-0.998341, 149, 133, 180, 148
-0.998344, 157, 167, 188, 182
-0.998346, 177, 171, 208, 186
-0.998346, 269, 149, 300, 164
-0.998347, 277, 155, 308, 170
-0.998347, 349, 105, 364, 168
-0.998347, 253, 153, 284, 168
-0.998348, 273, 73, 304, 136
-0.998348, 213, 201, 244, 216
-0.998352, 1, 193, 500, 256
-0.998353, 213, 123, 244, 138
-0.998358, 229, 205, 260, 220
-0.998362, 313, 145, 328, 176
-0.998365, 293, 151, 324, 166
-0.998365, 209, 141, 240, 156
-0.998365, 257, 147, 288, 162
-0.998367, 225, 137, 256, 152
-0.99837, 205, 129, 236, 144
-0.998372, 249, 141, 280, 156
-0.998372, 175, 125, 190, 156
-0.998376, 169, 117, 200, 132
-0.998377, 223, 137, 238, 168
-0.998377, 207, 241, 222, 304
-0.998377, 181, 135, 212, 150
-0.998378, 257, 177, 384, 208
-0.998379, 155, 81, 170, 144
-0.998381, 189, 117, 220, 132
-0.998383, 201, 153, 216, 216
-0.998388, 221, 129, 252, 144
-0.998388, 65, 185, 192, 216
-0.99839, 241, 149, 272, 164
-0.998392, 193, 135, 224, 150
-0.998392, 209, 207, 240, 222
-0.998393, 337, 139, 368, 154
-0.998394, 305, 149, 336, 164
-0.998396, 273, 209, 288, 272
-0.998396, 201, 123, 232, 138
-0.998397, 185, 123, 216, 138
-0.998398, 197, 113, 212, 144
-0.998398, 317, 145, 348, 160
-0.9984, 1, 193, 128, 256
-0.998406, 153, 125, 184, 140
-0.998412, 9, 1, 72, 354
-0.998412, 273, 173, 288, 204
-0.998413, 265, 81, 280, 144
-0.998414, 181, 249, 196, 312
-0.998415, 285, 265, 316, 328
-0.998421, 175, 145, 190, 176
-0.998425, 181, 241, 212, 304
-0.998427, 339, 137, 354, 168
-0.998428, 231, 169, 246, 232
-0.998428, 177, 161, 192, 192
-0.998429, 229, 143, 260, 158
-0.998429, 129, 221, 256, 252
-0.998429, 201, 193, 216, 256
-0.998437, 181, 129, 212, 144
-0.998445, 243, 129, 258, 160
-0.998448, 205, 135, 236, 150
-0.998449, 219, 117, 234, 148
-0.998455, 285, 225, 300, 288
-0.998456, 279, 169, 294, 232
-0.998461, 145, 123, 208, 138
-0.998462, 343, 105, 358, 168
-0.998475, 247, 217, 262, 280
-0.998476, 167, 117, 182, 148
-0.998477, 207, 197, 222, 228
-0.998478, 309, 97, 324, 160
-0.998478, 65, 1, 128, 354
-0.998479, 269, 137, 284, 168
-0.99848, 209, 85, 336, 116
-0.998484, 153, 119, 184, 134
-0.998486, 291, 225, 306, 288
-0.99849, 273, 153, 288, 184
-0.998494, 325, 141, 340, 172
-0.998495, 319, 145, 334, 176
-0.998502, 221, 217, 236, 280
-0.998508, 173, 123, 204, 138
-0.998508, 317, 209, 332, 272
-0.998508, 205, 265, 220, 328
-0.998512, 147, 129, 162, 160
-0.998515, 261, 93, 276, 124
-0.998522, 105, 113, 136, 176
-0.998526, 285, 185, 300, 248
-0.998526, 259, 149, 274, 180
-0.998531, 225, 225, 352, 256
-0.998532, 385, 65, 448, 128
-0.998533, 149, 185, 164, 248
-0.998533, 329, 141, 392, 156
-0.998533, 261, 137, 276, 168
-0.998535, 193, 129, 224, 144
-0.998535, 183, 105, 198, 136
-0.998537, 145, 129, 208, 144
-0.998541, 159, 117, 174, 148
-0.998544, 343, 161, 358, 224
-0.998549, 229, 137, 244, 168
-0.998549, 217, 197, 232, 228
-0.998557, 285, 153, 300, 184
-0.998563, 169, 129, 232, 144
-0.998565, 269, 57, 284, 120
-0.998568, 329, 49, 360, 112
-0.998568, 239, 209, 254, 272
-0.998573, 169, 135, 232, 150
-0.998573, 265, 173, 280, 204
-0.998582, 193, 41, 448, 104
-0.998583, 213, 113, 228, 144
-0.998583, 201, 141, 264, 156
-0.998583, 147, 109, 162, 140
-0.998585, 49, 153, 112, 216
-0.998586, 237, 177, 252, 240
-0.99859, 257, 145, 320, 160
-0.998598, 299, 149, 314, 180
-0.998598, 193, 135, 256, 150
-0.998601, 273, 265, 304, 328
-0.998603, 129, 137, 144, 200
-0.998606, 303, 193, 318, 256
-0.998606, 217, 147, 280, 162
-0.998609, 173, 209, 204, 336
-0.998611, 195, 225, 210, 288
-0.998615, 201, 125, 264, 140
-0.998615, 337, 193, 352, 256
-0.998616, 321, 129, 336, 160
-0.998624, 297, 145, 360, 160
-0.998625, 153, 145, 168, 176
-0.998627, 145, 73, 272, 104
-0.998627, 161, 117, 224, 132
-0.99863, 273, 151, 336, 166
-0.998639, 257, 237, 384, 268
-0.99864, 177, 141, 240, 156
-0.998642, 183, 201, 198, 264
-0.998643, 273, 139, 336, 154
-0.998645, 217, 133, 280, 148
-0.998645, 145, 147, 208, 162
-0.998645, 185, 119, 248, 134
-0.998648, 241, 151, 304, 166
-0.99865, 145, 169, 208, 184
-0.99865, 209, 73, 240, 136
-0.99865, 291, 185, 306, 248
-0.998653, 205, 1, 236, 256
-0.998654, 171, 177, 186, 208
-0.998656, 129, 153, 192, 168
-0.998658, 65, 173, 192, 204
-0.998659, 183, 129, 198, 160
-0.998661, 291, 149, 306, 180
-0.998662, 113, 119, 176, 134
-0.998662, 377, 97, 408, 352
-0.998662, 105, 133, 168, 148
-0.998663, 349, 161, 364, 224
-0.998665, 233, 139, 296, 154
-0.998665, 137, 117, 200, 132
-0.998667, 137, 135, 200, 150
-0.998667, 169, 161, 232, 176
-0.998668, 145, 179, 208, 194
-0.998671, 121, 125, 184, 140
-0.998671, 65, 73, 192, 104
-0.998672, 227, 221, 242, 252
-0.998673, 285, 265, 300, 328
-0.998673, 177, 211, 240, 226
-0.998673, 267, 149, 282, 180
-0.998674, 201, 199, 264, 214
-0.998675, 145, 161, 208, 176
-0.998676, 361, 177, 376, 240
-0.998677, 223, 201, 238, 232
-0.998681, 297, 133, 360, 148
-0.998681, 161, 111, 224, 126
-0.998682, 361, 187, 424, 202
-0.998683, 113, 113, 176, 128
-0.998685, 169, 167, 232, 182
-0.998685, 329, 135, 392, 150
-0.998685, 113, 147, 176, 162
-0.998686, 209, 221, 272, 236
-0.998689, 105, 139, 168, 154
-0.99869, 353, 151, 416, 166
-0.99869, 233, 213, 296, 228
-0.998691, 361, 181, 424, 196
-0.998692, 33, 113, 160, 144
-0.998693, 249, 189, 312, 204
-0.998695, 217, 153, 280, 168
-0.998695, 305, 139, 368, 154
-0.998696, 249, 157, 312, 172
-0.998696, 153, 189, 216, 204
-0.998697, 221, 289, 252, 352
-0.998697, 233, 207, 296, 222
-0.998697, 193, 205, 256, 220
-0.998699, 153, 129, 168, 160
-0.998699, 181, 141, 196, 172
-0.9987, 193, 193, 256, 208
-0.998702, 261, 185, 276, 216
-0.998703, 113, 159, 176, 174
-0.998703, 257, 273, 384, 304
-0.998703, 233, 119, 296, 134
-0.998704, 201, 211, 264, 226
-0.998704, 183, 157, 198, 188
-0.998704, 145, 141, 208, 156
-0.998704, 369, 141, 432, 156
-0.998704, 121, 97, 152, 160
-0.998705, 393, 151, 456, 166
-0.998705, 249, 183, 312, 198
-0.998706, 225, 195, 288, 210
-0.998706, 249, 195, 312, 210
-0.998707, 361, 175, 424, 190
-0.998709, 161, 203, 224, 218
-0.99871, 121, 173, 184, 188
-0.998711, 257, 87, 320, 102
-0.998711, 169, 173, 232, 188
-0.998713, 393, 171, 456, 186
-0.998713, 233, 201, 296, 216
-0.998715, 217, 79, 280, 94
-0.998715, 361, 159, 424, 174
-0.998717, 297, 151, 360, 166
-0.998718, 169, 155, 232, 170
-0.998718, 121, 25, 184, 88
-0.998718, 241, 125, 304, 140
-0.998719, 293, 49, 324, 112
-0.998719, 191, 109, 206, 140
-0.99872, 217, 87, 280, 102
-0.99872, 361, 135, 424, 150
-0.998721, 177, 101, 240, 116
-0.998722, 305, 91, 368, 106
-0.998724, 393, 157, 456, 172
-0.998724, 121, 179, 184, 194
-0.998726, 149, 97, 180, 352
-0.998726, 345, 121, 408, 136
-0.998726, 185, 217, 248, 232
-0.998726, 283, 141, 298, 172
-0.998727, 137, 109, 200, 124
-0.998728, 257, 93, 320, 108
-0.998728, 185, 267, 248, 282
-0.998729, 177, 95, 240, 110
-0.998731, 241, 65, 304, 80
-0.998731, 169, 181, 232, 196
-0.998731, 361, 193, 424, 208
-0.998733, 105, 153, 168, 168
-0.998733, 305, 149, 320, 180
-0.998734, 97, 127, 160, 142
-0.998734, 345, 137, 360, 168
-0.998734, 185, 113, 248, 128
-0.998735, 225, 257, 352, 288
-0.998735, 241, 75, 304, 90
-0.998736, 233, 95, 296, 110
-0.998736, 273, 123, 336, 138
-0.998736, 393, 165, 456, 180
-0.998736, 337, 117, 464, 148
-0.998736, 305, 133, 320, 164
-0.998737, 225, 189, 288, 204
-0.998737, 121, 165, 184, 180
-0.998738, 233, 219, 296, 234
-0.998738, 165, 169, 180, 200
-0.998738, 169, 261, 232, 276
-0.998738, 313, 169, 376, 184
-0.998738, 361, 167, 424, 182
-0.998739, 257, 81, 320, 96
-0.998739, 229, 205, 244, 236
-0.998739, 201, 323, 264, 338
-0.99874, 265, 131, 328, 146
-0.99874, 169, 195, 232, 210
-0.99874, 229, 265, 260, 328
-0.99874, 193, 107, 256, 122
-0.998742, 273, 179, 336, 194
-0.998742, 337, 129, 400, 144
-0.998742, 265, 111, 328, 126
-0.998743, 225, 167, 288, 182
-0.998743, 209, 99, 272, 114
-0.998744, 281, 207, 344, 222
-0.998744, 265, 117, 328, 132
-0.998744, 161, 221, 224, 236
-0.998745, 217, 107, 280, 122
-0.998745, 393, 177, 456, 192
-0.998745, 137, 101, 200, 116
-0.998745, 129, 185, 192, 200
-0.998745, 41, 131, 104, 146
-0.998746, 273, 157, 336, 172
-0.998747, 257, 101, 320, 116
-0.998747, 217, 73, 280, 88
-0.998747, 193, 163, 256, 178
-0.998747, 209, 275, 272, 290
-0.998748, 321, 205, 384, 220
-0.998748, 313, 61, 376, 76
-0.998748, 361, 199, 424, 214
-0.998749, 177, 313, 240, 328
-0.998749, 161, 235, 224, 250
-0.99875, 193, 187, 256, 202
-0.998765, 197, 265, 212, 296
-0.998775, 277, 133, 292, 164
-0.998776, 241, 69, 368, 100
-0.998782, 97, 49, 352, 112
-0.998782, 1, 201, 256, 264
-0.998783, 157, 105, 172, 136
-0.998786, 321, 193, 448, 224
-0.998787, 395, 153, 410, 184
-0.998792, 377, 225, 440, 288
-0.998795, 369, 173, 496, 204
-0.998807, 329, 129, 344, 160
-0.998808, 241, 41, 368, 72
-0.998812, 217, 137, 232, 168
-0.998814, 369, 265, 432, 328
-0.99882, 273, 249, 400, 280
-0.998821, 305, 205, 432, 236
-0.99883, 65, 85, 192, 116
-0.998834, 243, 117, 258, 148
-0.998836, 269, 1, 300, 256
-0.998838, 351, 125, 366, 156
-0.998841, 275, 185, 290, 216
-0.998844, 315, 133, 330, 164
-0.998845, 261, 81, 276, 112
-0.998847, 97, 289, 352, 352
-0.998848, 49, 97, 176, 128
-0.998849, 241, 1, 272, 256
-0.998853, 147, 141, 162, 172
-0.998854, 263, 205, 278, 236
-0.998854, 237, 213, 252, 244
-0.998861, 267, 185, 282, 216
-0.998861, 161, 93, 288, 124
-0.998861, 345, 1, 376, 128
-0.998861, 359, 137, 374, 168
-0.99887, 263, 113, 278, 144
-0.998874, 213, 249, 228, 280
-0.998874, 265, 49, 296, 112
-0.998874, 371, 141, 386, 172
-0.998876, 215, 209, 230, 240
-0.998878, 341, 1, 372, 256
-0.998881, 177, 41, 304, 72
-0.998882, 283, 257, 298, 288
-0.998883, 33, 125, 160, 156
-0.998886, 225, 105, 352, 136
-0.998886, 241, 205, 368, 236
-0.998886, 161, 17, 224, 144
-0.998888, 33, 9, 160, 72
-0.99889, 289, 133, 304, 164
-0.998892, 171, 161, 186, 192
-0.998901, 241, 201, 256, 232
-0.998903, 97, 285, 224, 316
-0.998905, 185, 1, 216, 256
-0.99891, 207, 257, 222, 288
-0.998912, 235, 141, 250, 172
-0.998914, 251, 193, 266, 224
-0.998914, 155, 181, 170, 212
-0.998915, 193, 65, 320, 96
-0.998922, 281, 177, 296, 208
-0.998922, 321, 181, 448, 212
-0.998923, 257, 85, 384, 116
-0.99893, 191, 265, 206, 296
-0.998935, 81, 225, 208, 256
-0.998937, 141, 121, 156, 152
-0.998942, 253, 121, 268, 152
-0.998948, 201, 253, 216, 284
-0.99895, 191, 249, 206, 280
-0.998952, 365, 137, 380, 168
-0.998953, 351, 137, 366, 168
-0.998955, 205, 93, 220, 124
-0.998958, 81, 105, 112, 168
-0.998959, 227, 105, 242, 136
-0.998961, 163, 105, 178, 136
-0.998968, 313, 1, 376, 64
-0.99897, 133, 153, 164, 216
-0.998971, 269, 197, 284, 228
-0.998971, 259, 241, 274, 272
-0.998978, 65, 177, 128, 240
-0.99898, 293, 101, 308, 132
-0.998989, 295, 133, 310, 164
-0.99899, 345, 125, 360, 156
-0.99899, 149, 97, 164, 128
-0.998993, 73, 41, 136, 104
-0.998993, 279, 165, 294, 196
-0.998993, 177, 101, 192, 132
-0.998995, 189, 137, 204, 168
-0.998996, 215, 265, 230, 296
-0.998998, 247, 129, 262, 256
-0.998998, 259, 173, 274, 204
-0.998998, 259, 229, 274, 260
-0.999001, 221, 261, 236, 292
-0.999008, 297, 117, 312, 148
-0.999009, 267, 101, 282, 132
-0.999011, 231, 253, 246, 284
-0.999012, 165, 97, 180, 224
-0.999018, 279, 269, 294, 300
-0.999019, 253, 205, 268, 236
-0.99902, 259, 97, 274, 224
-0.999027, 387, 149, 402, 180
-0.99903, 221, 217, 236, 248
-0.999032, 233, 105, 248, 136
-0.999034, 387, 137, 402, 168
-0.999034, 273, 53, 400, 84
-0.999036, 311, 129, 326, 256
-0.999038, 247, 181, 262, 212
-0.999039, 105, 225, 168, 288
-0.999041, 401, 193, 432, 320
-0.999042, 253, 241, 268, 272
-0.999043, 81, 249, 208, 280
-0.999044, 233, 225, 248, 256
-0.999044, 221, 1, 252, 256
-0.999044, 173, 225, 188, 256
-0.999044, 207, 281, 222, 312
-0.999046, 81, 1, 144, 64
-0.999063, 1, 65, 256, 128
-0.999075, 305, 129, 320, 256
-0.999081, 65, 61, 192, 92
-0.999082, 253, 129, 268, 256
-0.999082, 305, 81, 432, 112
-0.999091, 153, 1, 184, 256
-0.999103, 97, 201, 224, 232
-0.999104, 273, 129, 288, 256
-0.999106, 289, 169, 320, 232
-0.999109, 229, 17, 260, 80
-0.999109, 393, 129, 424, 192
-0.999109, 225, 1, 480, 64
-0.99912, 177, 281, 304, 312
-0.99912, 175, 113, 190, 240
-0.999129, 65, 237, 192, 268
-0.999132, 193, 53, 320, 84
-0.999135, 181, 113, 196, 240
-0.999139, 159, 97, 174, 224
-0.999143, 267, 129, 282, 256
-0.99915, 351, 113, 366, 240
-0.999155, 273, 293, 400, 324
-0.999164, 289, 225, 416, 256
-0.99918, 1, 89, 500, 152
-0.999186, 317, 113, 332, 240
-0.999189, 353, 25, 480, 88
-0.999194, 241, 129, 256, 256
-0.999195, 259, 145, 274, 272
-0.99921, 207, 113, 222, 240
-0.999212, 289, 261, 416, 292
-0.999214, 273, 189, 400, 220
-0.999231, 345, 113, 360, 240
-0.999232, 325, 129, 340, 256
-0.999238, 337, 101, 464, 132
-0.99924, 233, 289, 264, 352
-0.999242, 309, 1, 340, 256
-0.999247, 365, 129, 380, 256
-0.999249, 113, 89, 240, 120
-0.999253, 241, 29, 368, 60
-0.999258, 253, 81, 268, 208
-0.999264, 229, 49, 260, 112
-0.999274, 151, 97, 166, 224
-0.999276, 375, 129, 390, 256
-0.999277, 385, 129, 400, 256
-0.999278, 279, 129, 294, 256
-0.999279, 247, 81, 262, 208
-0.999279, 287, 145, 302, 272
-0.999285, 357, 113, 372, 240
-0.999288, 201, 113, 216, 240
-0.99929, 293, 129, 308, 256
-0.999291, 113, 53, 240, 84
-0.999296, 253, 1, 284, 256
-0.999296, 89, 161, 152, 224
-0.999297, 61, 105, 92, 168
-0.999298, 1, 249, 256, 312
-0.999301, 289, 101, 416, 132
-0.999301, 129, 305, 256, 336
-0.999312, 187, 113, 202, 240
-0.999314, 193, 297, 320, 328
-0.999316, 227, 129, 242, 256
-0.999317, 65, 273, 192, 304
-0.999318, 389, 97, 420, 352
-0.999318, 433, 1, 496, 354
-0.999319, 281, 1, 312, 256
-0.999324, 293, 1, 324, 256
-0.999325, 325, 193, 356, 320
-0.99933, 337, 129, 352, 256
-0.999336, 195, 113, 210, 240
-0.999337, 235, 113, 250, 240
-0.999343, 221, 129, 236, 256
-0.999345, 137, 193, 168, 256
-0.999346, 299, 129, 314, 256
-0.999348, 331, 113, 346, 240
-0.999356, 137, 65, 168, 320
-0.999361, 309, 81, 324, 208
-0.999364, 249, 1, 312, 64
-0.999364, 365, 81, 380, 208
-0.999367, 17, 89, 80, 152
-0.999369, 211, 193, 226, 320
-0.999376, 301, 81, 316, 208
-0.999376, 405, 201, 436, 264
-0.999384, 305, 281, 432, 312
-0.999394, 285, 81, 300, 208
-0.999418, 219, 209, 234, 336
-0.999419, 369, 185, 496, 216
-0.999421, 161, 209, 192, 336
-0.999426, 1, 101, 128, 132
-0.999429, 267, 81, 282, 208
-0.999436, 181, 217, 212, 280
-0.999444, 379, 81, 394, 208
-0.999444, 233, 65, 248, 192
-0.999447, 265, 177, 280, 304
-0.999448, 305, 65, 432, 96
-0.999453, 113, 129, 144, 256
-0.999454, 291, 81, 306, 208
-0.999461, 167, 161, 182, 288
-0.999467, 315, 65, 330, 192
-0.99947, 371, 81, 386, 208
-0.999471, 215, 113, 230, 240
-0.999472, 353, 1, 384, 256
-0.999475, 279, 271, 294, 286
-0.999475, 277, 177, 292, 192
-0.999476, 335, 135, 350, 150
-0.999477, 363, 141, 378, 156
-0.999477, 325, 81, 340, 208
-0.999477, 337, 241, 464, 272
-0.999477, 261, 107, 276, 122
-0.999477, 211, 261, 226, 276
-0.999477, 223, 195, 238, 210
-0.999477, 277, 133, 292, 148
-0.999477, 229, 225, 244, 240
-0.999478, 349, 133, 364, 148
-0.999478, 265, 177, 280, 192
-0.999478, 181, 171, 196, 186
-0.999478, 257, 193, 272, 208
-0.999478, 283, 185, 298, 200
-0.999479, 213, 113, 228, 128
-0.999479, 147, 135, 162, 150
-0.999479, 205, 65, 220, 192
-0.99948, 177, 273, 192, 288
-0.99948, 233, 129, 248, 144
-0.99948, 269, 125, 284, 140
-0.99948, 241, 119, 256, 134
-0.999481, 159, 113, 174, 128
-0.999481, 183, 141, 198, 156
-0.999482, 261, 183, 276, 198
-0.999483, 129, 41, 256, 72
-0.999483, 17, 73, 144, 104
-0.999483, 303, 119, 318, 134
-0.999483, 175, 181, 190, 196
-0.999484, 147, 147, 162, 162
-0.999485, 267, 135, 282, 150
-0.999485, 157, 141, 172, 156
-0.999485, 267, 205, 282, 220
-0.999486, 231, 219, 246, 234
-0.999487, 369, 143, 384, 158
-0.999488, 375, 145, 390, 160
-0.999489, 181, 165, 196, 180
-0.999489, 205, 117, 220, 132
-0.999489, 183, 109, 198, 124
-0.999489, 213, 197, 228, 212
-0.999489, 33, 301, 160, 332
-0.99949, 169, 181, 184, 196
-0.99949, 205, 197, 220, 212
-0.999491, 269, 157, 284, 172
-0.999491, 281, 149, 296, 164
-0.999492, 235, 123, 250, 138
-0.999493, 183, 157, 198, 172
-0.999493, 305, 143, 320, 158
-0.999493, 173, 151, 188, 166
-0.999494, 397, 145, 412, 272
-0.999494, 253, 137, 268, 152
-0.999495, 269, 171, 284, 186
-0.999495, 175, 167, 190, 182
-0.999498, 247, 151, 262, 166
-0.999498, 391, 153, 406, 168
-0.999498, 117, 145, 148, 208
-0.999499, 225, 215, 240, 230
-0.999499, 163, 177, 178, 192
-0.9995, 271, 179, 286, 194
-0.999501, 255, 105, 270, 120
-0.999502, 311, 143, 326, 158
-0.999502, 329, 137, 344, 152
-0.999502, 147, 141, 162, 156
-0.999503, 261, 95, 276, 110
-0.999504, 145, 97, 160, 224
-0.999504, 391, 129, 406, 256
-0.999505, 207, 139, 222, 154
-0.999505, 301, 151, 316, 166
-0.999505, 347, 139, 362, 154
-0.999506, 265, 189, 280, 204
-0.999507, 179, 65, 194, 192
-0.999508, 169, 169, 184, 184
-0.999508, 279, 157, 294, 172
-0.999509, 275, 151, 290, 166
-0.999509, 263, 101, 278, 116
-0.99951, 9, 161, 72, 224
-0.999511, 217, 123, 232, 138
-0.999512, 209, 207, 224, 222
-0.999512, 177, 111, 192, 126
-0.999513, 225, 193, 240, 320
-0.999515, 215, 65, 230, 192
-0.999515, 241, 49, 256, 176
-0.999515, 313, 1, 344, 128
-0.999515, 147, 111, 162, 126
-0.999516, 143, 127, 158, 142
-0.999517, 205, 109, 220, 124
-0.999518, 323, 139, 338, 154
-0.999518, 81, 297, 208, 328
-0.999518, 179, 147, 194, 162
-0.999518, 249, 177, 264, 304
-0.999519, 169, 175, 184, 190
-0.999519, 243, 139, 258, 154
-0.99952, 243, 177, 258, 304
-0.99952, 317, 141, 332, 156
-0.999521, 177, 313, 304, 344
-0.999523, 269, 147, 284, 162
-0.999523, 285, 155, 300, 170
-0.999523, 175, 175, 190, 190
-0.999524, 209, 127, 224, 142
-0.999524, 263, 147, 278, 162
-0.999524, 191, 119, 206, 134
-0.999524, 49, 261, 176, 292
-0.999525, 273, 187, 288, 202
-0.999525, 295, 153, 310, 168
-0.999525, 173, 123, 188, 138
-0.999527, 173, 129, 188, 144
-0.999528, 153, 125, 168, 140
-0.999528, 251, 143, 266, 158
-0.999529, 173, 161, 188, 288
-0.999529, 153, 147, 168, 162
-0.999529, 301, 265, 332, 328
-0.99953, 201, 137, 216, 152
-0.99953, 233, 143, 248, 158
-0.999531, 221, 209, 236, 224
-0.999531, 259, 153, 274, 168
-0.999533, 153, 133, 168, 148
-0.999533, 187, 131, 202, 146
-0.999536, 221, 201, 236, 216
-0.999537, 289, 209, 304, 336
-0.999537, 81, 309, 208, 340
-0.999538, 307, 149, 322, 164
-0.999538, 221, 131, 236, 146
-0.999538, 173, 65, 188, 192
-0.999539, 193, 25, 320, 56
-0.999541, 259, 49, 274, 176
-0.999541, 237, 137, 252, 152
-0.999543, 159, 161, 174, 288
-0.999543, 215, 203, 230, 218
-0.999544, 319, 147, 334, 162
-0.999544, 293, 241, 324, 304
-0.999544, 253, 257, 284, 320
-0.999545, 185, 117, 200, 132
-0.999546, 229, 123, 244, 138
-0.999546, 227, 81, 242, 208
-0.999546, 341, 139, 356, 154
-0.999546, 179, 129, 194, 144
-0.999548, 187, 161, 202, 288
-0.99955, 347, 65, 362, 192
-0.999551, 231, 207, 246, 222
-0.999552, 185, 65, 200, 192
-0.999555, 193, 133, 208, 148
-0.999556, 257, 145, 272, 160
-0.999556, 313, 149, 328, 164
-0.999557, 215, 129, 230, 144
-0.999557, 329, 143, 344, 158
-0.999559, 81, 213, 208, 244
-0.999561, 227, 141, 242, 156
-0.999562, 149, 117, 164, 132
-0.999562, 197, 121, 212, 136
-0.999565, 157, 119, 172, 134
-0.999565, 165, 117, 180, 132
-0.999565, 335, 141, 350, 156
-0.999565, 233, 209, 248, 336
-0.999566, 279, 193, 294, 320
-0.999566, 1, 1, 128, 128
-0.999569, 179, 117, 194, 132
-0.999569, 195, 65, 210, 192
-0.99957, 203, 123, 218, 138
-0.999571, 179, 123, 194, 138
-0.999573, 227, 131, 242, 146
-0.999575, 357, 65, 372, 192
-0.999582, 173, 117, 188, 132
-0.999583, 213, 17, 244, 144
-0.999585, 205, 193, 220, 320
-0.999587, 193, 249, 224, 312
-0.999589, 345, 185, 376, 248
-0.99959, 271, 177, 286, 304
-0.999591, 165, 73, 196, 136
-0.999591, 1, 89, 128, 120
-0.999592, 93, 137, 124, 200
-0.999594, 299, 209, 314, 336
-0.999595, 301, 33, 332, 160
-0.999596, 97, 97, 128, 224
-0.999598, 337, 81, 352, 208
-0.999605, 279, 81, 294, 208
-0.999605, 253, 151, 268, 166
-0.999607, 369, 1, 400, 256
-0.999607, 385, 81, 400, 208
-0.99961, 1, 289, 128, 320
-0.999613, 221, 137, 236, 152
-0.999617, 289, 33, 416, 64
-0.999619, 181, 161, 196, 288
-0.999621, 193, 177, 208, 304
-0.999624, 215, 135, 230, 150
-0.999625, 393, 81, 408, 208
-0.999625, 73, 129, 104, 192
-0.999626, 129, 29, 256, 60
-0.999626, 251, 17, 266, 144
-0.999629, 225, 285, 352, 316
-0.999632, 233, 161, 248, 288
-0.999634, 209, 133, 224, 148
-0.999637, 153, 49, 168, 176
-0.999645, 151, 145, 166, 272
-0.999645, 359, 161, 374, 288
-0.999647, 161, 49, 176, 176
-0.999649, 129, 321, 256, 352
-0.99965, 243, 145, 258, 160
-0.999651, 193, 127, 208, 142
-0.999655, 1, 177, 128, 208
-0.99966, 61, 97, 92, 224
-0.999665, 311, 193, 326, 320
-0.999667, 185, 123, 200, 138
-0.999671, 147, 49, 162, 176
-0.999677, 305, 193, 320, 320
-0.999678, 273, 81, 288, 208
-0.999679, 259, 1, 274, 128
-0.999682, 317, 161, 332, 288
-0.999683, 203, 131, 218, 146
-0.999683, 1, 161, 128, 192
-0.999685, 141, 49, 156, 176
-0.99969, 193, 1, 320, 32
-0.99969, 167, 49, 182, 176
-0.999692, 403, 145, 418, 272
-0.999697, 93, 97, 124, 160
-0.999702, 221, 81, 236, 208
-0.999705, 1, 137, 128, 168
-0.999709, 353, 73, 480, 104
-0.999718, 125, 65, 140, 192
-0.999728, 135, 81, 150, 208
-0.99973, 349, 161, 364, 288
-0.99973, 337, 225, 464, 256
-0.999737, 33, 225, 160, 256
-0.999738, 317, 209, 332, 336
-0.999743, 379, 177, 394, 304
-0.99975, 331, 65, 346, 192
-0.99975, 353, 89, 480, 120
-0.999751, 145, 1, 272, 32
-0.999757, 177, 209, 192, 336
-0.999759, 433, 129, 464, 256
-0.999761, 399, 97, 414, 224
-0.999761, 263, 225, 278, 352
-0.999764, 199, 177, 214, 304
-0.999766, 409, 129, 424, 256
-0.999766, 33, 49, 160, 80
-0.999775, 401, 97, 432, 352
-0.999775, 255, 193, 270, 320
-0.999776, 369, 177, 384, 304
-0.999776, 227, 33, 242, 160
-0.999781, 331, 193, 346, 320
-0.999782, 193, 225, 208, 352
-0.999783, 125, 129, 140, 256
-0.999784, 385, 177, 400, 304
-0.999793, 165, 209, 180, 336
-0.999794, 233, 1, 248, 128
-0.999795, 17, 277, 144, 308
-0.999798, 321, 301, 448, 332
-0.999803, 343, 161, 358, 288
-0.999805, 33, 201, 160, 232
-0.999809, 241, 1, 256, 128
-0.999815, 135, 129, 150, 256
-0.999817, 337, 265, 464, 296
-0.99982, 291, 33, 306, 160
-0.999823, 183, 209, 198, 336
-0.999824, 369, 197, 496, 228
-0.999828, 337, 193, 352, 320
-0.99983, 323, 193, 338, 320
-0.99983, 373, 225, 388, 352
-0.999831, 391, 177, 406, 304
-0.999836, 337, 253, 464, 284
-0.999838, 381, 1, 412, 256
-0.999843, 321, 53, 448, 84
-0.999849, 369, 213, 496, 244
-0.999852, 225, 309, 352, 340
-0.999852, 17, 65, 80, 128
-0.999869, 1, 225, 256, 288
-0.999874, 81, 217, 144, 280
-0.999894, 305, 1, 432, 32
-0.999896, 129, 1, 384, 64
-0.999929, 393, 1, 456, 256
-0.999974, 97, 25, 352, 88
-0.999986, 1, 289, 256, 352
-1.00007, 1, 41, 256, 104
-1.00008, 137, 1, 200, 128
-1.00009, 417, 129, 448, 256
-1.00009, 385, 1, 416, 128
-1.0001, 401, 81, 432, 208
-1.00012, 329, 225, 392, 352
-1.00016, 357, 225, 388, 352
-1.00022, 113, 1, 144, 256
-1.00024, 145, 1, 176, 128
-1.00026, 65, 209, 128, 336
-1.00028, 125, 209, 156, 336
-1.00029, 41, 33, 104, 160
-1.00029, 41, 1, 104, 354
-1.00031, 33, 1, 288, 64
-1.00032, 125, 65, 156, 320
-1.00032, 425, 97, 456, 352
-1.00033, 89, 33, 152, 288
-1.00038, 405, 1, 436, 256
-1.00039, 1, 257, 500, 320
-1.00041, 389, 193, 420, 320
-1.00042, 393, 225, 456, 352
-1.00043, 413, 97, 444, 352
-1.00043, 101, 65, 132, 320
-1.00045, 1, 65, 500, 128
-1.00047, 49, 1, 80, 256
-1.00047, 125, 161, 156, 288
-1.00048, 185, 225, 216, 352
-1.00054, 445, 81, 476, 208
-1.00056, 53, 97, 84, 352
-1.00057, 65, 65, 96, 320
-1.00058, 85, 97, 116, 352
-1.00058, 1, 233, 500, 296
-1.00062, 445, 65, 476, 320
-1.00067, 37, 97, 68, 352
-1.00069, 113, 97, 144, 352
-1.00076, 425, 1, 456, 256
-1.00079, 393, 1, 424, 256
-1.00079, 289, 1, 320, 128
-1.00079, 373, 225, 404, 352
-1.00083, 85, 1, 116, 256
-1.00083, 1, 281, 500, 344
-1.00086, 5, 97, 36, 352
-1.00089, 105, 209, 136, 336
-1.00091, 457, 65, 488, 320
-1.00097, 21, 65, 52, 320
-1.00101, 121, 17, 152, 144
-1.00102, 313, 225, 344, 352
-1.00103, 469, 33, 500, 288
-1.00104, 49, 129, 112, 256
-1.00104, 33, 177, 96, 304
-1.00105, 37, 1, 68, 256
-1.0011, 165, 17, 196, 144
-1.00115, 5, 1, 36, 256
-1.00119, 49, 97, 80, 224
-1.00121, 61, 49, 92, 176
-1.00124, 145, 209, 176, 336
-1.00137, 37, 81, 68, 208
-1.00138, 417, 97, 480, 352
-1.00154, 81, 81, 112, 208
-1.00157, 429, 81, 460, 208
-1.00161, 97, 145, 128, 272
-1.00162, 25, 225, 88, 352
-1.00166, 277, 1, 308, 128
-1.00175, 433, 33, 496, 160
-1.00181, 1, 113, 64, 240
-1.00181, 49, 193, 80, 320
-1.00183, 413, 81, 444, 208
-1.00188, 9, 65, 72, 192
-1.00189, 373, 1, 404, 128
-1.00189, 97, 49, 128, 176
-1.00197, 357, 33, 388, 160
-1.002, 49, 49, 80, 176
-1.00202, 57, 65, 120, 320
-1.00204, 409, 81, 472, 208
-1.00208, 1, 1, 500, 64
-1.00226, 65, 17, 128, 144
-1.00226, 1, 41, 500, 104
-1.0024, 189, 17, 220, 144
-1.00242, 9, 65, 72, 320
-1.00245, 61, 177, 92, 304
-1.00256, 237, 225, 268, 352
-1.00262, 73, 1, 104, 128
-1.00263, 417, 177, 480, 304
-1.00269, 109, 17, 140, 144
-1.00269, 77, 225, 108, 352
-1.00275, 9, 177, 72, 304
-1.00283, 33, 97, 96, 352
-1.00283, 85, 129, 116, 256
-1.00301, 37, 129, 68, 256
-1.00304, 73, 177, 104, 304
-1.00318, 425, 177, 456, 304
-1.0032, 457, 81, 488, 208
-1.00327, 397, 1, 428, 128
-1.00334, 413, 209, 444, 336
-1.00349, 17, 81, 48, 208
-1.00349, 49, 145, 80, 272
-1.00372, 97, 1, 128, 128
-1.00376, 445, 129, 476, 256
-1.00381, 433, 1, 496, 256
-1.00382, 73, 161, 136, 288
-1.00398, 61, 1, 92, 128
-1.00399, 177, 17, 208, 144
-1.00403, 417, 225, 480, 352
-1.00406, 201, 17, 232, 144
-1.00409, 89, 225, 120, 352
-1.00447, 393, 17, 456, 144
-1.00473, 89, 209, 152, 336
-1.00522, 1, 225, 64, 352
-1.00568, 33, 1, 96, 256
-1.00675, 9, 17, 72, 144
