1954
-0.386364, 1, 1, 500, 375
-0.440421, 161, 1, 416, 375
-0.458531, 1, 1, 500, 256
-0.604895, 65, 1, 320, 375
-0.619132, 1, 97, 500, 352
-0.619228, 257, 1, 500, 375
-0.643565, 161, 1, 416, 256
-0.674935, 257, 1, 500, 256
-0.68805, 65, 1, 320, 256
-0.789284, 1, 97, 256, 352
-0.840879, 97, 97, 352, 352
-0.865656, 177, 1, 304, 256
-0.868758, 193, 129, 448, 375
-0.869783, 225, 1, 352, 375
-0.869957, 161, 1, 288, 375
-0.892781, 113, 1, 240, 375
-0.897394, 241, 1, 368, 256
-0.900283, 49, 65, 176, 320
-0.900389, 129, 1, 256, 256
-0.906677, 1, 1, 128, 375
-0.90716, 273, 1, 400, 375
-0.908658, 369, 1, 496, 375
-0.908771, 1, 17, 500, 144
-0.910088, 49, 1, 176, 375
-0.914161, 1, 65, 128, 320
-0.9256, 257, 1, 500, 128
-0.92645, 97, 97, 224, 352
-0.927526, 369, 1, 496, 256
-0.928885, 1, 241, 500, 368
-0.930219, 1, 65, 500, 192
-0.931245, 193, 129, 320, 375
-0.93128, 289, 1, 416, 256
-0.934294, 161, 33, 416, 160
-0.938135, 145, 97, 272, 352
-0.940503, 1, 81, 256, 208
-0.942883, 321, 1, 448, 375
-0.945758, 273, 129, 400, 375
-0.947668, 321, 129, 448, 375
-0.951254, 257, 241, 500, 368
-0.951497, 177, 17, 304, 144
-0.951699, 65, 17, 320, 144
-0.954073, 369, 129, 496, 375
-0.954708, 1, 177, 500, 304
-0.957193, 185, 17, 248, 144
-0.962083, 425, 33, 488, 160
-0.962348, 113, 81, 240, 208
-0.963016, 161, 241, 416, 368
-0.963452, 97, 81, 352, 208
-0.963674, 153, 1, 216, 128
-0.964199, 161, 193, 416, 320
-0.965495, 281, 33, 344, 160
-0.965623, 225, 33, 352, 160
-0.966327, 289, 1, 416, 128
-0.966801, 65, 241, 320, 368
-0.966852, 65, 81, 192, 208
-0.966914, 153, 81, 216, 208
-0.966991, 97, 1, 224, 128
-0.967352, 153, 209, 216, 336
-0.968121, 369, 17, 496, 144
-0.968353, 17, 81, 144, 208
-0.968598, 305, 1, 368, 128
-0.968738, 217, 33, 280, 160
-0.970432, 145, 161, 272, 288
-0.970467, 257, 241, 384, 368
-0.971555, 145, 225, 208, 288
-0.971649, 1, 129, 500, 256
-0.972155, 425, 41, 488, 104
-0.972655, 393, 1, 456, 128
-0.972825, 65, 81, 128, 208
-0.972888, 305, 241, 432, 368
-0.973107, 281, 241, 344, 368
-0.973394, 193, 25, 256, 88
-0.973561, 385, 1, 448, 64
-0.973669, 241, 33, 304, 160
-0.973886, 41, 81, 104, 208
-0.974348, 113, 81, 176, 208
-0.974966, 161, 241, 288, 368
-0.975367, 193, 145, 448, 272
-0.975382, 193, 1, 256, 256
-0.975445, 177, 65, 240, 192
-0.975482, 297, 257, 360, 320
-0.975967, 313, 241, 376, 368
-0.97625, 1, 193, 256, 320
-0.976464, 89, 81, 152, 208
-0.976571, 129, 225, 192, 352
-0.976667, 65, 129, 320, 256
-0.976814, 321, 1, 384, 64
-0.976911, 353, 225, 480, 352
-0.977373, 161, 65, 288, 192
-0.977642, 161, 81, 224, 144
-0.978375, 265, 273, 328, 336
-0.978591, 289, 1, 352, 256
-0.97864, 17, 97, 80, 224
-0.978845, 225, 97, 480, 224
-0.979117, 321, 249, 384, 312
-0.979306, 169, 17, 232, 80
-0.979505, 181, 1, 212, 128
-0.97955, 97, 225, 224, 352
-0.979945, 401, 25, 464, 88
-0.980154, 169, 1, 232, 256
-0.98061, 321, 1, 448, 64
-0.980641, 281, 33, 344, 96
-0.98127, 257, 49, 500, 176
-0.981374, 241, 297, 304, 360
-0.981556, 209, 41, 336, 104
-0.981689, 209, 177, 336, 304
-0.98175, 209, 241, 336, 368
-0.981904, 217, 1, 280, 256
-0.981945, 425, 33, 488, 288
-0.981955, 249, 41, 312, 104
-0.982013, 153, 49, 216, 112
-0.982023, 153, 201, 216, 264
-0.982116, 257, 193, 500, 320
-0.982147, 273, 257, 400, 320
-0.982205, 113, 65, 176, 320
-0.982447, 57, 97, 120, 160
-0.982527, 185, 65, 248, 128
-0.982697, 361, 225, 424, 352
-0.982765, 145, 161, 208, 288
-0.982805, 305, 25, 368, 88
-0.982914, 321, 1, 352, 128
-0.982916, 97, 145, 224, 272
-0.983064, 305, 193, 432, 320
-0.983155, 177, 65, 304, 128
-0.983192, 161, 25, 288, 88
-0.983252, 249, 1, 312, 256
-0.983279, 25, 105, 88, 168
-0.983594, 225, 81, 352, 208
-0.983822, 369, 241, 432, 304
-0.983929, 385, 225, 448, 352
-0.983973, 425, 17, 488, 80
-0.983997, 65, 65, 128, 320
-0.984054, 401, 233, 464, 296
-0.984089, 145, 65, 208, 320
-0.984104, 121, 217, 184, 280
-0.984281, 209, 97, 272, 224
-0.984372, 217, 33, 280, 96
-0.984382, 1, 33, 128, 160
-0.984678, 281, 1, 344, 375
-0.98472, 153, 225, 184, 288
-0.984904, 337, 225, 400, 352
-0.984926, 145, 249, 208, 312
-0.985004, 433, 33, 464, 160
-0.985155, 413, 1, 444, 64
-0.985188, 369, 33, 496, 96
-0.985282, 433, 41, 464, 104
-0.985315, 169, 1, 232, 375
-0.985372, 217, 1, 280, 375
-0.985377, 113, 161, 176, 288
-0.985411, 321, 241, 448, 304
-0.985463, 193, 129, 320, 256
-0.985492, 17, 49, 80, 176
-0.985554, 1, 105, 64, 168
-0.985649, 241, 1, 304, 375
-0.985703, 257, 281, 384, 344
-0.985709, 417, 209, 480, 336
-0.985733, 137, 89, 200, 152
-0.98576, 193, 17, 224, 144
-0.985888, 153, 193, 184, 320
-0.985961, 105, 241, 168, 368
-0.986122, 309, 33, 340, 160
-0.986177, 449, 33, 480, 160
-0.986379, 433, 1, 496, 375
-0.986432, 345, 249, 408, 312
-0.986497, 129, 89, 256, 152
-0.986578, 209, 161, 272, 224
-0.986596, 121, 241, 184, 304
-0.986612, 177, 265, 304, 328
-0.986649, 193, 161, 256, 288
-0.986668, 205, 17, 236, 144
-0.986689, 97, 97, 160, 160
-0.986785, 113, 25, 240, 88
-0.986794, 325, 9, 356, 72
-0.986952, 257, 241, 320, 368
-0.986991, 49, 33, 176, 160
-0.987043, 41, 65, 104, 320
-0.987082, 353, 145, 480, 272
-0.987134, 309, 33, 340, 96
-0.987159, 1, 97, 128, 160
-0.987167, 169, 161, 232, 288
-0.987209, 289, 25, 416, 88
-0.987303, 265, 297, 328, 360
-0.987363, 241, 81, 304, 208
-0.987366, 241, 17, 368, 80
-0.987433, 193, 1, 256, 375
-0.987482, 225, 265, 288, 328
-0.987517, 185, 81, 216, 144
-0.987772, 169, 1, 200, 128
-0.987783, 145, 1, 208, 375
-0.987874, 469, 49, 500, 176
-0.987954, 89, 65, 152, 320
-0.988055, 129, 161, 256, 224
-0.988108, 453, 49, 484, 112
-0.98811, 49, 97, 176, 160
-0.988173, 297, 33, 328, 160
-0.988288, 401, 1, 464, 256
-0.988314, 157, 81, 188, 208
-0.988385, 409, 1, 472, 375
-0.988386, 197, 25, 228, 88
-0.988457, 417, 1, 448, 128
-0.988539, 197, 65, 228, 128
-0.988596, 289, 281, 352, 344
-0.988623, 49, 161, 176, 288
-0.988652, 181, 81, 212, 208
-0.988689, 241, 305, 368, 368
-0.988699, 89, 33, 152, 160
-0.988755, 313, 193, 376, 320
-0.98876, 245, 33, 276, 160
-0.989013, 49, 209, 176, 336
-0.989021, 57, 33, 120, 160
-0.989028, 181, 49, 212, 112
-0.98904, 221, 17, 252, 144
-0.989098, 129, 233, 256, 296
-0.98927, 81, 217, 208, 280
-0.989303, 129, 17, 192, 144
-0.989316, 97, 57, 224, 120
-0.989343, 217, 241, 280, 368
-0.989532, 309, 257, 340, 320
-0.989631, 217, 313, 280, 375
-0.989635, 185, 161, 248, 224
-0.989639, 273, 49, 400, 176
-0.989724, 153, 137, 216, 200
-0.989733, 273, 1, 336, 64
-0.989752, 17, 81, 80, 144
-0.989842, 297, 1, 360, 64
-0.989876, 225, 257, 352, 320
-0.98994, 69, 81, 100, 208
-0.98997, 281, 33, 312, 160
-0.989972, 1, 97, 64, 352
-0.989974, 257, 249, 320, 312
-0.989974, 201, 273, 264, 336
-0.990006, 185, 89, 248, 152
-0.990064, 105, 1, 168, 375
-0.990101, 369, 241, 496, 304
-0.990194, 269, 33, 300, 160
-0.990253, 217, 145, 280, 272
-0.990269, 129, 305, 256, 368
-0.990417, 185, 185, 248, 248
-0.990487, 297, 265, 328, 328
-0.990515, 257, 33, 288, 160
-0.990547, 129, 81, 160, 208
-0.990579, 185, 113, 248, 240
-0.990606, 145, 313, 208, 375
-0.990654, 161, 201, 192, 264
-0.990673, 321, 249, 352, 312
-0.990728, 9, 1, 72, 375
-0.990745, 121, 265, 184, 328
-0.990799, 145, 241, 176, 368
-0.990882, 161, 185, 288, 248
-0.990903, 161, 1, 288, 64
-0.990937, 181, 17, 212, 80
-0.990939, 333, 249, 364, 312
-0.99106, 177, 137, 240, 200
-0.991066, 113, 73, 176, 136
-0.991067, 393, 177, 456, 304
-0.991088, 177, 281, 240, 344
-0.991102, 169, 81, 200, 208
-0.991106, 257, 17, 500, 80
-0.991138, 425, 49, 488, 80
-0.99114, 469, 57, 500, 120
-0.991152, 93, 81, 124, 208
-0.99118, 145, 17, 208, 80
-0.991194, 49, 1, 112, 375
-0.991219, 69, 97, 100, 160
-0.991225, 129, 209, 256, 272
-0.991258, 309, 241, 340, 368
-0.991323, 145, 241, 208, 272
-0.99136, 81, 241, 208, 304
-0.991369, 193, 65, 224, 192
-0.991406, 233, 33, 264, 160
-0.99142, 281, 281, 312, 344
-0.991444, 433, 17, 464, 80
-0.991479, 193, 161, 320, 224
-0.991485, 305, 1, 368, 375
-0.99149, 169, 21, 232, 52
-0.991508, 297, 261, 360, 292
-0.99153, 73, 73, 136, 136
-0.991579, 145, 81, 176, 208
-0.991583, 289, 41, 320, 104
-0.991598, 109, 81, 140, 208
-0.991624, 49, 73, 176, 136
-0.991643, 177, 297, 304, 360
-0.99165, 145, 229, 208, 260
-0.99176, 385, 13, 448, 44
-0.991761, 53, 97, 84, 224
-0.991779, 321, 17, 384, 48
-0.99181, 385, 1, 448, 32
-0.991817, 81, 193, 208, 256
-0.991821, 161, 89, 224, 120
-0.991823, 393, 33, 456, 64
-0.991859, 193, 73, 256, 104
-0.991923, 57, 101, 120, 132
-0.991932, 281, 193, 344, 320
-0.992009, 249, 153, 312, 216
-0.992022, 17, 109, 80, 140
-0.992034, 113, 193, 176, 256
-0.992042, 313, 29, 376, 60
-0.992056, 321, 5, 384, 36
-0.992085, 185, 33, 248, 64
-0.992091, 145, 253, 208, 284
-0.992093, 273, 277, 336, 308
-0.9921, 297, 241, 328, 368
-0.992133, 273, 41, 336, 72
-0.992139, 81, 81, 112, 208
-0.992141, 153, 217, 216, 248
-0.992171, 173, 89, 204, 152
-0.992174, 321, 253, 384, 284
-0.992221, 217, 33, 248, 96
-0.992266, 401, 73, 464, 136
-0.992266, 225, 233, 352, 296
-0.992283, 425, 25, 488, 56
-0.992291, 273, 57, 336, 120
-0.992294, 185, 85, 248, 116
-0.992302, 145, 137, 272, 200
-0.99236, 401, 45, 464, 76
-0.992397, 21, 97, 52, 224
-0.992449, 337, 81, 464, 208
-0.992466, 121, 241, 184, 272
-0.992471, 425, 13, 488, 44
-0.992497, 273, 289, 336, 320
-0.992499, 417, 1, 480, 32
-0.992526, 421, 25, 452, 88
-0.992532, 345, 249, 376, 312
-0.992538, 241, 33, 272, 96
-0.992544, 401, 241, 432, 304
-0.992572, 193, 57, 256, 88
-0.992599, 209, 137, 272, 200
-0.992608, 153, 205, 216, 236
-0.99262, 209, 37, 272, 68
-0.99263, 401, 49, 464, 112
-0.992632, 81, 97, 144, 128
-0.992635, 369, 9, 496, 72
-0.99264, 281, 25, 344, 56
-0.99264, 257, 301, 320, 332
-0.992645, 153, 177, 216, 240
-0.992651, 297, 273, 360, 304
-0.992653, 209, 165, 272, 196
-0.992658, 257, 81, 320, 144
-0.992663, 121, 225, 184, 256
-0.992674, 73, 1, 136, 375
-0.992674, 377, 245, 440, 276
-0.992688, 297, 41, 360, 72
-0.992728, 169, 97, 232, 352
-0.992732, 241, 45, 304, 76
-0.992741, 321, 217, 448, 280
-0.992784, 121, 253, 184, 284
-0.992786, 265, 81, 328, 208
-0.992792, 225, 345, 288, 375
-0.992807, 161, 77, 224, 108
-0.992819, 425, 37, 488, 68
-0.992822, 269, 289, 300, 352
-0.992831, 161, 57, 224, 88
-0.992838, 401, 237, 464, 268
-0.992862, 249, 17, 312, 80
-0.992888, 169, 153, 232, 184
-0.9929, 353, 249, 416, 280
-0.992901, 241, 313, 304, 344
-0.992926, 433, 61, 496, 92
-0.992929, 169, 165, 232, 196
-0.99294, 273, 265, 336, 296
-0.992944, 249, 269, 312, 300
-0.99295, 137, 97, 200, 128
-0.99297, 281, 233, 344, 296
-0.99298, 321, 241, 352, 368
-0.993005, 145, 17, 208, 48
-0.993008, 161, 33, 416, 96
-0.99301, 289, 9, 352, 40
-0.993031, 129, 257, 256, 320
-0.99309, 105, 97, 168, 128
-0.993096, 121, 265, 184, 296
-0.993109, 313, 225, 376, 288
-0.993125, 413, 5, 444, 36
-0.993125, 153, 233, 184, 264
-0.99314, 169, 229, 232, 260
-0.993141, 433, 45, 464, 76
-0.993154, 201, 177, 264, 208
-0.993155, 425, 225, 488, 288
-0.993158, 225, 333, 288, 364
-0.993177, 33, 97, 64, 224
-0.993179, 333, 5, 364, 36
-0.993182, 121, 345, 184, 375
-0.99319, 185, 241, 248, 368
-0.993191, 33, 97, 96, 128
-0.993203, 161, 241, 192, 368
-0.993208, 201, 73, 232, 104
-0.993221, 289, 49, 416, 112
-0.993222, 157, 89, 188, 152
-0.993232, 325, 21, 356, 52
-0.993237, 113, 213, 176, 244
-0.993247, 161, 309, 224, 340
-0.993248, 409, 81, 472, 208
-0.993252, 185, 21, 216, 52
-0.993252, 145, 153, 208, 184
-0.993263, 401, 77, 464, 108
-0.993264, 137, 81, 200, 112
-0.993268, 417, 29, 448, 60
-0.993272, 273, 249, 336, 280
-0.993275, 193, 85, 224, 116
-0.993276, 417, 17, 448, 48
-0.993277, 313, 261, 344, 292
-0.993281, 445, 49, 476, 80
-0.993283, 181, 89, 212, 120
-0.993284, 257, 193, 384, 320
-0.993288, 1, 97, 32, 224
-0.99329, 457, 53, 488, 84
-0.993292, 309, 37, 340, 68
-0.993299, 157, 221, 188, 252
-0.993302, 297, 273, 328, 304
-0.993314, 161, 265, 224, 296
-0.993315, 469, 61, 500, 92
-0.993319, 69, 97, 100, 128
-0.993336, 433, 29, 464, 60
-0.993339, 153, 185, 216, 216
-0.993351, 321, 33, 352, 64
-0.993352, 177, 89, 304, 152
-0.993354, 325, 257, 356, 288
-0.993358, 149, 245, 180, 276
-0.993369, 321, 273, 384, 336
-0.993375, 297, 41, 328, 72
-0.993377, 249, 33, 312, 64
-0.993378, 173, 17, 204, 48
-0.993382, 225, 289, 288, 320
-0.993387, 193, 137, 320, 200
-0.993403, 169, 241, 232, 272
-0.993405, 285, 281, 316, 312
-0.993406, 233, 301, 296, 332
-0.993413, 177, 141, 240, 172
-0.993415, 197, 25, 228, 56
-0.993416, 185, 45, 248, 76
-0.993416, 249, 289, 312, 320
-0.993422, 53, 105, 84, 136
-0.993429, 153, 45, 216, 76
-0.99343, 9, 113, 40, 144
-0.993442, 433, 13, 464, 44
-0.993443, 137, 329, 200, 360
-0.993444, 357, 249, 388, 312
-0.993444, 321, 273, 448, 336
-0.993446, 421, 41, 452, 72
-0.993447, 21, 109, 52, 140
-0.993453, 113, 85, 176, 116
-0.993461, 177, 297, 240, 328
-0.993461, 337, 253, 368, 284
-0.993467, 269, 297, 300, 328
-0.993469, 177, 217, 240, 248
-0.99347, 57, 89, 120, 120
-0.993471, 209, 321, 272, 352
-0.993484, 169, 113, 232, 176
-0.993487, 213, 161, 244, 192
-0.993489, 217, 153, 280, 184
-0.993492, 241, 97, 304, 128
-0.9935, 253, 309, 284, 340
-0.993502, 101, 97, 132, 128
-0.993504, 33, 105, 64, 136
-0.993505, 433, 1, 464, 32
-0.993507, 153, 257, 184, 288
-0.993507, 329, 241, 392, 272
-0.993518, 185, 61, 216, 92
-0.993523, 425, 237, 488, 268
-0.993525, 213, 33, 244, 64
-0.993526, 145, 33, 208, 64
-0.993528, 337, 173, 400, 204
-0.993528, 301, 261, 332, 292
-0.993536, 81, 169, 208, 232
-0.993538, 225, 161, 256, 192
-0.993547, 253, 45, 284, 76
-0.993549, 297, 165, 360, 196
-0.993551, 249, 61, 312, 92
-0.993554, 137, 293, 200, 324
-0.993558, 169, 93, 200, 124
-0.99356, 409, 241, 440, 272
-0.993562, 97, 249, 160, 280
-0.993563, 173, 233, 204, 264
-0.993564, 353, 237, 416, 268
-0.993565, 393, 145, 456, 176
-0.993566, 241, 41, 272, 72
-0.993572, 201, 337, 264, 368
-0.993576, 113, 161, 176, 192
-0.99358, 337, 161, 400, 192
-0.993581, 253, 41, 284, 104
-0.993582, 225, 37, 256, 68
-0.993583, 245, 321, 276, 352
-0.993586, 233, 165, 296, 196
-0.99359, 201, 305, 264, 336
-0.993591, 153, 277, 216, 308
-0.993591, 305, 53, 368, 84
-0.993594, 349, 253, 380, 284
-0.993595, 345, 225, 408, 288
-0.993598, 389, 249, 420, 280
-0.993602, 157, 97, 188, 128
-0.993603, 217, 49, 280, 80
-0.993607, 85, 101, 116, 132
-0.993607, 309, 25, 340, 56
-0.993607, 289, 261, 320, 292
-0.993612, 137, 253, 168, 284
-0.993617, 237, 337, 268, 368
-0.993621, 97, 237, 160, 268
-0.993621, 265, 41, 296, 72
-0.993623, 233, 177, 296, 240
-0.993625, 129, 173, 192, 204
-0.993627, 409, 89, 472, 120
-0.993633, 125, 345, 156, 375
-0.993635, 273, 77, 336, 108
-0.993641, 145, 97, 176, 128
-0.993645, 185, 109, 248, 140
-0.993646, 177, 185, 240, 216
-0.993648, 249, 181, 312, 212
-0.99365, 209, 269, 272, 300
-0.993653, 161, 209, 192, 240
-0.993657, 121, 101, 152, 132
-0.993657, 245, 313, 276, 375
-0.993659, 189, 73, 220, 104
-0.993666, 433, 225, 496, 256
-0.993669, 169, 125, 232, 156
-0.993669, 321, 9, 352, 40
-0.993672, 161, 157, 192, 188
-0.993674, 421, 237, 452, 268
-0.993678, 205, 61, 236, 92
-0.993679, 133, 241, 164, 272
-0.993679, 361, 249, 392, 280
-0.99368, 377, 249, 408, 280
-0.993682, 329, 269, 392, 300
-0.993683, 169, 9, 232, 40
-0.993686, 177, 301, 208, 332
-0.993687, 369, 177, 432, 304
-0.993687, 177, 281, 240, 312
-0.993688, 181, 37, 212, 68
-0.993688, 169, 33, 200, 64
-0.993694, 177, 77, 208, 108
-0.993695, 161, 193, 192, 224
-0.993695, 149, 269, 180, 300
-0.993696, 301, 65, 332, 96
-0.993699, 49, 93, 80, 124
-0.9937, 281, 41, 312, 72
-0.993701, 177, 221, 208, 252
-0.993702, 469, 49, 500, 80
-0.993703, 97, 345, 160, 375
-0.993704, 217, 25, 280, 56
-0.993705, 273, 169, 336, 200
-0.993708, 281, 293, 312, 324
-0.993709, 161, 13, 192, 44
-0.993716, 309, 9, 340, 40
-0.993716, 289, 53, 320, 84
-0.993717, 165, 245, 196, 276
-0.993718, 445, 37, 476, 68
-0.99372, 269, 273, 300, 304
-0.99372, 1, 73, 128, 136
-0.993721, 89, 89, 120, 120
-0.993721, 217, 173, 248, 204
-0.993726, 201, 49, 232, 80
-0.993726, 361, 173, 424, 204
-0.993731, 225, 185, 288, 216
-0.993734, 145, 141, 208, 172
-0.993734, 385, 257, 448, 288
-0.993734, 181, 49, 212, 80
-0.993736, 373, 173, 404, 204
-0.993736, 9, 97, 72, 128
-0.993738, 229, 173, 260, 204
-0.99374, 349, 169, 380, 200
-0.993741, 313, 49, 344, 80
-0.993743, 161, 177, 192, 208
-0.993743, 309, 273, 340, 304
-0.993744, 133, 229, 164, 260
-0.993745, 205, 277, 236, 308
-0.993746, 381, 241, 412, 304
-0.993748, 133, 97, 164, 128
-0.993748, 165, 257, 196, 288
-0.993751, 157, 145, 188, 176
-0.993751, 325, 245, 356, 276
-0.993752, 137, 337, 168, 368
-0.993756, 457, 41, 488, 72
-0.993758, 165, 313, 196, 344
-0.99376, 273, 61, 336, 92
-0.993761, 137, 265, 168, 296
-0.993763, 149, 325, 180, 356
-0.993763, 185, 253, 248, 284
-0.993763, 121, 89, 152, 120
-0.993763, 429, 73, 460, 104
-0.993767, 305, 241, 368, 272
-0.993768, 313, 181, 376, 212
-0.993777, 245, 157, 276, 188
-0.993777, 141, 205, 172, 236
-0.993784, 337, 241, 368, 272
-0.993786, 285, 77, 316, 108
-0.993787, 225, 341, 256, 372
-0.993788, 313, 249, 344, 280
-0.993793, 201, 165, 232, 196
-0.993794, 433, 233, 464, 264
-0.993795, 217, 273, 248, 304
-0.993796, 397, 237, 428, 268
-0.993797, 173, 5, 204, 36
-0.993812, 249, 57, 280, 88
-0.993818, 301, 249, 332, 280
-0.99382, 137, 217, 168, 248
-0.993824, 189, 217, 220, 248
-0.993827, 21, 97, 52, 128
-0.993827, 141, 233, 172, 296
-0.993828, 401, 253, 432, 284
-0.993858, 257, 305, 288, 368
-0.993861, 413, 225, 444, 352
-0.993889, 57, 97, 88, 160
-0.993894, 169, 233, 232, 296
-0.993907, 313, 1, 376, 256
-0.993951, 49, 73, 112, 136
-0.993972, 305, 49, 368, 112
-0.993997, 337, 169, 400, 232
-0.993999, 25, 105, 56, 168
-0.994015, 145, 273, 208, 336
-0.994081, 33, 89, 288, 152
-0.99409, 13, 105, 44, 168
-0.994181, 241, 145, 368, 208
-0.994194, 97, 89, 128, 152
-0.994194, 17, 1, 80, 256
-0.994215, 321, 33, 352, 96
-0.994244, 225, 9, 288, 72
-0.994262, 209, 57, 272, 120
-0.994262, 113, 97, 144, 160
-0.994312, 193, 305, 256, 368
-0.994314, 257, 41, 500, 104
-0.994318, 229, 153, 260, 216
-0.994372, 401, 225, 432, 352
-0.99443, 281, 153, 344, 216
-0.994477, 241, 89, 368, 152
-0.994496, 333, 225, 364, 352
-0.994566, 161, 9, 416, 72
-0.994569, 169, 9, 200, 72
-0.994583, 337, 161, 464, 224
-0.994675, 225, 65, 352, 128
-0.994698, 81, 145, 208, 208
-0.994733, 229, 97, 260, 224
-0.994741, 209, 185, 336, 248
-0.994752, 425, 209, 456, 336
-0.994768, 265, 41, 296, 104
-0.994772, 177, 233, 304, 296
-0.994786, 289, 145, 416, 272
-0.994792, 337, 137, 464, 200
-0.994819, 161, 257, 416, 320
-0.994872, 369, 265, 432, 328
-0.994893, 129, 113, 256, 176
-0.994933, 285, 241, 316, 368
-0.994961, 81, 97, 112, 160
-0.994964, 289, 153, 416, 216
-0.994986, 177, 209, 240, 272
-0.994998, 277, 41, 308, 104
-0.995015, 369, 57, 496, 120
-0.995045, 229, 33, 260, 96
-0.995081, 369, 249, 400, 312
-0.995107, 365, 225, 396, 352
-0.995112, 273, 233, 400, 296
-0.995149, 241, 177, 304, 304
-0.99516, 173, 209, 204, 336
-0.995189, 241, 129, 304, 256
-0.995201, 353, 225, 384, 352
-0.995217, 213, 161, 244, 224
-0.99524, 169, 305, 232, 368
-0.995248, 161, 73, 416, 136
-0.99527, 45, 105, 76, 168
-0.995305, 81, 1, 208, 64
-0.995373, 81, 273, 208, 336
-0.995386, 241, 129, 368, 256
-0.99545, 145, 97, 176, 160
-0.99545, 153, 249, 184, 312
-0.995459, 1, 9, 500, 72
-0.995464, 257, 257, 500, 320
-0.995481, 133, 97, 164, 160
-0.995483, 169, 257, 232, 320
-0.995504, 321, 1, 448, 32
-0.995505, 369, 209, 432, 272
-0.995514, 177, 209, 304, 272
-0.995518, 33, 313, 160, 375
-0.995537, 389, 225, 420, 352
-0.995553, 265, 265, 296, 328
-0.995584, 413, 233, 444, 296
-0.99562, 385, 1, 448, 375
-0.995626, 257, 81, 288, 208
-0.995628, 133, 177, 164, 304
-0.995639, 369, 265, 496, 328
-0.995672, 201, 113, 264, 176
-0.995689, 333, 1, 348, 64
-0.995713, 157, 145, 188, 272
-0.995752, 193, 113, 320, 176
-0.995777, 427, 1, 442, 64
-0.995804, 155, 225, 170, 288
-0.995812, 273, 129, 336, 375
-0.995849, 425, 233, 456, 296
-0.995928, 337, 177, 400, 304
-0.995942, 97, 233, 352, 296
-0.995986, 301, 9, 332, 72
-0.996015, 377, 225, 408, 352
-0.996028, 369, 217, 496, 280
-0.996028, 161, 281, 416, 344
-0.996036, 165, 241, 196, 304
-0.996069, 345, 129, 408, 375
-0.996084, 327, 17, 342, 80
-0.996088, 1, 113, 32, 176
-0.996173, 49, 49, 80, 176
-0.996244, 201, 1, 264, 64
-0.996247, 285, 257, 316, 320
-0.99626, 205, 65, 236, 192
-0.996272, 369, 49, 496, 80
-0.99629, 97, 217, 160, 280
-0.996294, 193, 233, 256, 296
-0.99631, 81, 305, 208, 368
-0.996328, 177, 209, 208, 272
-0.99633, 305, 49, 368, 176
-0.996354, 321, 13, 448, 44
-0.996378, 333, 1, 364, 128
-0.996398, 65, 33, 320, 96
-0.9964, 33, 209, 160, 272
-0.996415, 233, 65, 296, 128
-0.996476, 129, 281, 256, 344
-0.996498, 257, 177, 384, 240
-0.996521, 469, 1, 500, 128
-0.996532, 393, 257, 456, 320
-0.996548, 161, 33, 288, 64
-0.996551, 177, 77, 304, 108
-0.996557, 273, 201, 400, 264
-0.996575, 361, 137, 424, 200
-0.996586, 33, 65, 288, 128
-0.996589, 321, 33, 336, 96
-0.996594, 225, 45, 352, 76
-0.996594, 289, 97, 416, 224
-0.9966, 73, 33, 104, 160
-0.996613, 233, 97, 296, 352
-0.996618, 437, 209, 468, 336
-0.996628, 209, 185, 272, 248
-0.99664, 113, 169, 176, 232
-0.996689, 241, 161, 272, 224
-0.996694, 289, 257, 416, 288
-0.996709, 225, 161, 256, 288
-0.996712, 209, 113, 240, 240
-0.996718, 281, 81, 344, 144
-0.996731, 305, 25, 432, 56
-0.996761, 289, 313, 416, 375
-0.996763, 1, 105, 128, 136
-0.996772, 353, 185, 480, 248
-0.996788, 245, 241, 276, 368
-0.99681, 121, 33, 152, 160
-0.996825, 337, 1, 368, 64
-0.996842, 93, 33, 124, 160
-0.996865, 265, 241, 296, 368
-0.996884, 225, 25, 352, 56
-0.9969, 309, 233, 340, 296
-0.996927, 1, 81, 500, 144
-0.996931, 209, 1, 240, 256
-0.99694, 401, 209, 464, 272
-0.996956, 437, 41, 452, 104
-0.99697, 177, 61, 304, 92
-0.99698, 257, 225, 320, 288
-0.99698, 445, 41, 460, 104
-0.997036, 225, 97, 288, 160
-0.997045, 197, 81, 212, 144
-0.997064, 245, 97, 276, 224
-0.997093, 289, 37, 416, 68
-0.997112, 1, 33, 500, 96
-0.997139, 345, 1, 408, 375
-0.997141, 413, 177, 444, 304
-0.997146, 353, 81, 480, 144
-0.997153, 369, 97, 432, 160
-0.997155, 129, 305, 384, 368
-0.997158, 195, 49, 210, 112
-0.997158, 209, 161, 240, 288
-0.99716, 65, 273, 320, 336
-0.997181, 1, 249, 500, 312
-0.997181, 257, 281, 500, 344
-0.997188, 161, 89, 288, 120
-0.997205, 305, 1, 336, 256
-0.997206, 433, 17, 448, 80
-0.997259, 313, 129, 376, 375
-0.99726, 193, 17, 208, 80
-0.9973, 289, 129, 416, 192
-0.997301, 369, 113, 496, 176
-0.997318, 97, 93, 224, 124
-0.997319, 141, 193, 172, 256
-0.997332, 233, 241, 296, 304
-0.997335, 433, 97, 496, 224
-0.997361, 49, 101, 176, 132
-0.997383, 289, 73, 416, 136
-0.997394, 181, 9, 196, 72
-0.997408, 177, 45, 304, 76
-0.997414, 169, 305, 200, 368
-0.997417, 37, 49, 68, 176
-0.997419, 209, 273, 336, 304
-0.997423, 273, 281, 400, 312
-0.997424, 303, 41, 318, 104
-0.997435, 451, 41, 466, 104
-0.99744, 337, 37, 464, 68
-0.997453, 417, 257, 480, 320
-0.997459, 305, 193, 336, 320
-0.997491, 317, 193, 348, 320
-0.997495, 203, 17, 218, 80
-0.997497, 319, 257, 334, 320
-0.997499, 313, 257, 328, 320
-0.997506, 257, 293, 384, 324
-0.997512, 273, 269, 400, 300
-0.997517, 417, 145, 480, 272
-0.997521, 281, 177, 344, 240
-0.997525, 57, 193, 120, 256
-0.997525, 197, 1, 228, 256
-0.997532, 369, 129, 432, 375
-0.997539, 469, 49, 484, 112
-0.99754, 433, 65, 496, 128
-0.99754, 129, 113, 192, 176
-0.99754, 335, 249, 350, 312
-0.997554, 285, 281, 300, 344
-0.997566, 385, 81, 448, 208
-0.997567, 307, 265, 322, 328
-0.997567, 463, 49, 478, 112
-0.997581, 309, 33, 324, 96
-0.997589, 341, 249, 356, 312
-0.99759, 157, 65, 188, 320
-0.997603, 203, 65, 218, 128
-0.997614, 321, 245, 448, 276
-0.997616, 69, 97, 84, 160
-0.997655, 1, 209, 256, 272
-0.997655, 33, 185, 160, 248
-0.997658, 483, 57, 498, 120
-0.99766, 257, 177, 320, 240
-0.997661, 457, 49, 472, 112
-0.997685, 417, 97, 480, 160
-0.997701, 105, 33, 136, 160
-0.997701, 349, 249, 364, 312
-0.997706, 449, 25, 480, 88
-0.99771, 411, 241, 426, 304
-0.99771, 301, 57, 332, 120
-0.997711, 173, 161, 204, 288
-0.997715, 241, 257, 368, 288
-0.997716, 325, 257, 340, 320
-0.997717, 191, 81, 206, 144
-0.997719, 257, 233, 500, 296
-0.997723, 229, 1, 260, 256
-0.997725, 315, 41, 330, 104
-0.997728, 1, 233, 256, 296
-0.997739, 161, 209, 176, 272
-0.997745, 161, 165, 288, 196
-0.997753, 345, 273, 408, 336
-0.997758, 405, 241, 420, 304
-0.997766, 153, 273, 184, 336
-0.997768, 469, 33, 500, 96
-0.997777, 301, 273, 316, 336
-0.997783, 257, 1, 288, 256
-0.99779, 241, 5, 368, 36
-0.997794, 297, 41, 312, 104
-0.997795, 75, 97, 90, 160
-0.997809, 137, 65, 168, 320
-0.99781, 129, 233, 256, 264
-0.997815, 173, 89, 188, 152
-0.997819, 339, 1, 354, 64
-0.997822, 141, 129, 172, 256
-0.997827, 241, 305, 368, 336
-0.997833, 81, 73, 112, 136
-0.997833, 45, 81, 76, 144
-0.997837, 133, 241, 164, 368
-0.997838, 147, 241, 162, 304
-0.997842, 187, 9, 202, 72
-0.997857, 245, 145, 276, 272
-0.997865, 475, 57, 490, 120
-0.997867, 161, 177, 192, 240
-0.997871, 25, 105, 40, 168
-0.997875, 225, 305, 480, 368
-0.997881, 317, 1, 348, 256
-0.997889, 185, 89, 200, 152
-0.997894, 433, 33, 464, 288
-0.997901, 219, 25, 234, 88
-0.997914, 361, 249, 376, 312
-0.997922, 179, 89, 194, 152
-0.997929, 81, 225, 208, 256
-0.997934, 157, 17, 188, 144
-0.997935, 227, 33, 242, 96
-0.997941, 291, 281, 306, 344
-0.997943, 277, 1, 308, 256
-0.997944, 355, 249, 370, 312
-0.997945, 251, 33, 266, 96
-0.997945, 129, 213, 256, 244
-0.997948, 87, 97, 102, 160
-0.997952, 399, 241, 414, 304
-0.99796, 393, 121, 456, 184
-0.997961, 293, 1, 324, 256
-0.997965, 65, 153, 320, 216
-0.997972, 449, 209, 480, 336
-0.997985, 145, 33, 176, 160
-0.997986, 117, 73, 148, 136
-0.997987, 273, 81, 304, 208
-0.99799, 45, 105, 60, 168
-0.997991, 165, 89, 180, 152
-0.997999, 55, 105, 70, 168
-0.99801, 249, 313, 264, 375
-0.998023, 117, 97, 132, 160
-0.998025, 113, 25, 240, 56
-0.998028, 161, 293, 288, 324
-0.998028, 129, 137, 192, 200
-0.998032, 401, 177, 432, 304
-0.99804, 237, 33, 252, 96
-0.998044, 161, 153, 192, 216
-0.998049, 129, 337, 256, 368
-0.99805, 241, 1, 272, 256
-0.998065, 261, 41, 276, 104
-0.998065, 17, 105, 32, 168
-0.99807, 291, 41, 306, 104
-0.998073, 245, 33, 260, 96
-0.998075, 439, 9, 454, 72
-0.998099, 81, 97, 96, 160
-0.998104, 143, 97, 158, 160
-0.99811, 161, 209, 416, 272
-0.998122, 457, 33, 488, 288
-0.998129, 137, 97, 152, 160
-0.99813, 225, 317, 352, 348
-0.998131, 211, 25, 226, 88
-0.998133, 113, 65, 240, 96
-0.998139, 141, 257, 172, 320
-0.998142, 161, 313, 288, 344
-0.998147, 393, 241, 408, 304
-0.998159, 159, 97, 174, 160
-0.99816, 33, 249, 160, 312
-0.998161, 425, 1, 440, 32
-0.998161, 151, 89, 166, 152
-0.998162, 431, 41, 446, 104
-0.998163, 31, 105, 46, 168
-0.998171, 361, 169, 424, 232
-0.998187, 369, 241, 496, 272
-0.998191, 369, 241, 384, 304
-0.998194, 103, 97, 118, 160
-0.998196, 1, 177, 128, 304
-0.998197, 97, 97, 112, 160
-0.998198, 279, 41, 294, 104
-0.998208, 137, 225, 168, 240
-0.998208, 125, 353, 156, 368
-0.998208, 209, 171, 240, 186
-0.99821, 225, 163, 256, 178
-0.99821, 245, 325, 276, 340
-0.99821, 185, 59, 216, 74
-0.998211, 133, 265, 164, 280
-0.998211, 317, 267, 348, 282
-0.998211, 409, 247, 440, 262
-0.998213, 169, 35, 200, 50
-0.998213, 381, 249, 412, 264
-0.998213, 173, 89, 204, 104
-0.998213, 125, 101, 156, 116
-0.998215, 285, 267, 316, 282
-0.998216, 133, 259, 164, 274
-0.998216, 429, 75, 460, 90
-0.998216, 213, 177, 244, 192
-0.998216, 369, 251, 400, 266
-0.998217, 141, 217, 172, 232
-0.998217, 285, 287, 316, 302
-0.998217, 165, 259, 196, 274
-0.998218, 161, 203, 192, 218
-0.998219, 241, 333, 272, 348
-0.998219, 145, 99, 176, 114
-0.998219, 381, 171, 412, 186
-0.99822, 181, 49, 212, 64
-0.998221, 249, 315, 280, 330
-0.998222, 237, 339, 268, 354
-0.998222, 193, 53, 224, 68
-0.998222, 189, 79, 220, 94
-0.998222, 177, 229, 208, 244
-0.998223, 341, 255, 372, 270
-0.998223, 113, 101, 144, 116
-0.998223, 89, 97, 120, 112
-0.998223, 233, 347, 264, 362
-0.998224, 65, 107, 96, 122
-0.998224, 285, 45, 316, 60
-0.998225, 189, 67, 220, 82
-0.998227, 97, 177, 352, 240
-0.998227, 169, 253, 200, 268
-0.998228, 161, 181, 192, 196
-0.998228, 257, 45, 288, 60
-0.998228, 221, 35, 252, 50
-0.998229, 25, 49, 56, 176
-0.99823, 201, 61, 232, 76
-0.99823, 49, 101, 80, 116
-0.99823, 301, 47, 332, 62
-0.99823, 397, 251, 428, 266
-0.998231, 261, 309, 292, 324
-0.998231, 285, 41, 300, 104
-0.998231, 277, 297, 308, 312
-0.998231, 233, 353, 264, 368
-0.998232, 149, 267, 180, 282
-0.998232, 213, 165, 244, 180
-0.998232, 189, 221, 220, 236
-0.998232, 229, 359, 260, 374
-0.998233, 161, 97, 192, 112
-0.998234, 133, 243, 164, 258
-0.998234, 185, 41, 216, 56
-0.998234, 109, 89, 124, 152
-0.998236, 81, 103, 112, 118
-0.998236, 193, 1, 224, 64
-0.998236, 313, 17, 344, 32
-0.998237, 285, 273, 316, 288
-0.998237, 173, 241, 204, 256
-0.998239, 185, 1, 216, 256
-0.998241, 309, 23, 340, 38
-0.998241, 161, 211, 192, 226
-0.998244, 237, 41, 268, 56
-0.998245, 321, 1, 352, 16
-0.998245, 133, 237, 164, 252
-0.998246, 317, 11, 348, 26
-0.998246, 385, 241, 400, 304
-0.998248, 305, 269, 336, 284
-0.998248, 379, 249, 394, 312
-0.998248, 133, 251, 164, 266
-0.998248, 185, 85, 216, 100
-0.998251, 309, 29, 340, 44
-0.998252, 185, 73, 216, 88
-0.998253, 309, 35, 340, 50
-0.998254, 421, 47, 452, 62
-0.998254, 293, 281, 324, 296
-0.998256, 233, 153, 248, 216
-0.998257, 185, 25, 216, 40
-0.998258, 9, 115, 40, 130
-0.998259, 161, 217, 192, 232
-0.99826, 209, 31, 240, 46
-0.99826, 453, 57, 484, 72
-0.99826, 165, 15, 196, 30
-0.998261, 269, 303, 300, 318
-0.998263, 205, 71, 236, 86
-0.998263, 37, 109, 68, 124
-0.998266, 161, 21, 288, 52
-0.998267, 297, 263, 328, 278
-0.998267, 197, 89, 228, 104
-0.998271, 63, 97, 78, 160
-0.998273, 65, 65, 96, 320
-0.998273, 53, 107, 84, 122
-0.998275, 101, 99, 132, 114
-0.998277, 301, 275, 332, 290
-0.998278, 417, 241, 432, 304
-0.99828, 469, 65, 500, 80
-0.998281, 173, 95, 204, 110
-0.998282, 329, 259, 360, 274
-0.998283, 255, 305, 270, 368
-0.998286, 225, 153, 240, 216
-0.998288, 197, 27, 228, 42
-0.99829, 317, 261, 348, 276
-0.998291, 21, 111, 52, 126
-0.998291, 321, 39, 352, 54
-0.998293, 329, 15, 360, 30
-0.998295, 325, 27, 356, 42
-0.998296, 149, 259, 180, 274
-0.998296, 263, 305, 278, 368
-0.9983, 161, 223, 192, 238
-0.998301, 465, 59, 496, 74
-0.998301, 149, 249, 180, 264
-0.998302, 165, 249, 180, 312
-0.998303, 429, 1, 460, 16
-0.998304, 429, 7, 460, 22
-0.998305, 205, 77, 236, 92
-0.998307, 433, 19, 464, 34
-0.998308, 129, 177, 256, 208
-0.998309, 193, 177, 320, 208
-0.998309, 153, 237, 184, 252
-0.998309, 433, 39, 464, 54
-0.998312, 433, 33, 464, 48
-0.998312, 433, 13, 464, 28
-0.998312, 445, 33, 476, 288
-0.998313, 333, 9, 364, 24
-0.998314, 325, 33, 356, 48
-0.998314, 329, 21, 360, 36
-0.998315, 445, 51, 476, 66
-0.998316, 185, 91, 216, 106
-0.998317, 239, 153, 254, 216
-0.998317, 153, 249, 168, 312
-0.99832, 433, 25, 464, 40
-0.99832, 201, 83, 232, 98
-0.998323, 305, 41, 336, 56
-0.998326, 337, 1, 352, 32
-0.998327, 177, 19, 208, 34
-0.998329, 417, 25, 448, 40
-0.998331, 113, 53, 240, 84
-0.998331, 337, 1, 368, 16
-0.998336, 413, 1, 444, 16
-0.998336, 69, 101, 100, 116
-0.998337, 417, 41, 448, 56
-0.998338, 417, 31, 448, 46
-0.998338, 209, 57, 240, 120
-0.998339, 157, 231, 188, 246
-0.998343, 413, 13, 444, 28
-0.998351, 153, 243, 184, 258
-0.998354, 219, 161, 234, 224
-0.998354, 417, 19, 448, 34
-0.998361, 413, 7, 444, 22
-0.998365, 97, 77, 224, 108
-0.998366, 433, 47, 464, 62
-0.998366, 127, 97, 142, 160
-0.998372, 331, 17, 346, 48
-0.998379, 3, 113, 18, 176
-0.998399, 209, 161, 336, 192
-0.998401, 427, 13, 442, 44
-0.998402, 145, 73, 176, 136
-0.998405, 175, 233, 190, 296
-0.998411, 193, 129, 448, 192
-0.998411, 279, 289, 294, 352
-0.998413, 169, 65, 200, 320
-0.998419, 113, 153, 240, 184
-0.998419, 205, 273, 236, 336
-0.99842, 129, 189, 256, 220
-0.998429, 315, 17, 330, 80
-0.998429, 425, 233, 440, 296
-0.998431, 81, 213, 208, 244
-0.998432, 193, 153, 448, 216
-0.998438, 129, 97, 384, 160
-0.998439, 313, 9, 344, 72
-0.998443, 327, 29, 342, 60
-0.998443, 369, 1, 496, 32
-0.998447, 145, 325, 272, 356
-0.99845, 289, 73, 320, 136
-0.998451, 225, 329, 352, 360
-0.998453, 193, 261, 320, 292
-0.998462, 209, 341, 336, 372
-0.998466, 201, 81, 216, 112
-0.998471, 189, 57, 204, 120
-0.99848, 469, 33, 500, 288
-0.99848, 209, 293, 336, 324
-0.998485, 209, 97, 272, 352
-0.998496, 437, 81, 468, 144
-0.998497, 245, 161, 260, 224
-0.998497, 39, 105, 54, 168
-0.998501, 97, 65, 128, 320
-0.998501, 11, 105, 26, 168
-0.998502, 33, 137, 160, 200
-0.998502, 81, 241, 208, 272
-0.998508, 125, 65, 156, 320
-0.998512, 437, 45, 452, 76
-0.998514, 109, 65, 140, 320
-0.998521, 273, 297, 288, 360
-0.998525, 129, 245, 256, 276
-0.998527, 213, 161, 228, 224
-0.998529, 321, 37, 336, 68
-0.998535, 225, 65, 352, 96
-0.998538, 155, 169, 170, 232
-0.998539, 377, 57, 440, 120
-0.998539, 175, 9, 190, 72
-0.99854, 81, 177, 208, 208
-0.998542, 77, 65, 108, 320
-0.998543, 185, 225, 216, 352
-0.998556, 169, 65, 200, 128
-0.998559, 113, 165, 240, 196
-0.998564, 13, 49, 44, 176
-0.998566, 273, 41, 288, 104
-0.998574, 205, 41, 220, 104
-0.998577, 133, 33, 164, 160
-0.998584, 429, 29, 444, 60
-0.998597, 1, 9, 256, 72
-0.9986, 89, 313, 152, 375
-0.998609, 267, 41, 282, 104
-0.99861, 145, 241, 208, 256
-0.998622, 53, 65, 84, 320
-0.998631, 409, 49, 472, 64
-0.998632, 169, 25, 232, 40
-0.998634, 195, 85, 210, 116
-0.998635, 385, 17, 448, 32
-0.998637, 421, 49, 452, 112
-0.998638, 269, 265, 284, 328
-0.998639, 409, 129, 472, 375
-0.998641, 145, 247, 208, 262
-0.998643, 385, 29, 448, 44
-0.998644, 329, 1, 392, 16
-0.998644, 425, 55, 488, 70
-0.998647, 385, 23, 448, 38
-0.998649, 289, 49, 416, 80
-0.998649, 385, 11, 448, 26
-0.998653, 321, 17, 384, 32
-0.998656, 385, 3, 448, 18
-0.998656, 257, 65, 500, 128
-0.998658, 57, 103, 120, 118
-0.998659, 145, 227, 208, 242
-0.998662, 177, 31, 240, 46
-0.998665, 313, 37, 376, 52
-0.998665, 153, 221, 216, 236
-0.998666, 321, 9, 384, 24
-0.998666, 185, 87, 248, 102
-0.998669, 193, 79, 256, 94
-0.998669, 157, 225, 172, 256
-0.998669, 321, 23, 384, 38
-0.99867, 393, 43, 456, 58
-0.998671, 281, 41, 344, 56
-0.998672, 369, 13, 496, 44
-0.998673, 425, 27, 488, 42
-0.998674, 385, 35, 448, 50
-0.998675, 113, 265, 240, 296
-0.998676, 17, 111, 80, 126
-0.998676, 137, 253, 200, 268
-0.998677, 81, 189, 208, 220
-0.998678, 425, 35, 488, 50
-0.998678, 327, 233, 342, 296
-0.998679, 193, 73, 256, 88
-0.998679, 321, 257, 384, 272
-0.99868, 145, 233, 208, 248
-0.99868, 145, 259, 208, 274
-0.998681, 313, 31, 376, 46
-0.998685, 437, 33, 452, 64
-0.998688, 417, 3, 480, 18
-0.998689, 297, 271, 360, 286
-0.998691, 161, 19, 224, 34
-0.998692, 297, 261, 360, 276
-0.998692, 121, 243, 184, 258
-0.998693, 425, 19, 488, 34
-0.998693, 145, 265, 208, 280
-0.998693, 161, 95, 224, 110
-0.998694, 289, 277, 352, 292
-0.998697, 433, 61, 496, 76
-0.998697, 417, 9, 480, 24
-0.9987, 161, 215, 224, 230
-0.998701, 281, 29, 344, 44
-0.998701, 121, 259, 184, 274
-0.998703, 1, 217, 500, 280
-0.998703, 185, 37, 248, 52
-0.998704, 425, 41, 488, 56
-0.998707, 289, 9, 352, 24
-0.998708, 193, 61, 256, 76
-0.998708, 155, 237, 170, 268
-0.998712, 273, 287, 336, 302
-0.998712, 273, 47, 336, 62
-0.998712, 193, 67, 256, 82
-0.998715, 289, 3, 352, 18
-0.998715, 459, 25, 474, 88
-0.998716, 265, 301, 328, 316
-0.998716, 265, 265, 328, 280
-0.998716, 87, 73, 102, 136
-0.998717, 257, 273, 320, 288
-0.998717, 161, 209, 224, 224
-0.998717, 275, 265, 290, 328
-0.998718, 273, 295, 336, 310
-0.998718, 281, 21, 344, 36
-0.998719, 281, 35, 344, 50
-0.99872, 369, 25, 496, 56
-0.99872, 289, 15, 352, 30
-0.99872, 137, 97, 200, 112
-0.998721, 291, 249, 306, 312
-0.998721, 305, 43, 368, 58
-0.998721, 233, 313, 264, 375
-0.998721, 431, 233, 446, 296
-0.998723, 161, 67, 224, 82
-0.998724, 165, 177, 180, 240
-0.998724, 97, 101, 160, 116
-0.998724, 225, 351, 288, 366
-0.998724, 253, 161, 268, 224
-0.998725, 97, 73, 112, 136
-0.998726, 209, 167, 272, 182
-0.998727, 185, 93, 248, 108
-0.998727, 25, 105, 88, 120
-0.998729, 105, 251, 168, 266
-0.99873, 225, 357, 288, 372
-0.998731, 209, 39, 272, 54
-0.998732, 161, 89, 224, 104
-0.998732, 113, 233, 176, 248
-0.998733, 153, 203, 216, 218
-0.998733, 249, 311, 312, 326
-0.998733, 311, 41, 326, 72
-0.998733, 121, 265, 184, 280
-0.998734, 1, 117, 64, 132
-0.998734, 161, 73, 224, 88
-0.998734, 49, 89, 176, 120
-0.998734, 113, 357, 176, 372
-0.998734, 321, 9, 336, 72
-0.998734, 73, 97, 136, 112
-0.998736, 169, 157, 232, 172
-0.998737, 249, 45, 312, 60
-0.998739, 161, 253, 224, 268
-0.99874, 225, 345, 288, 360
-0.99874, 353, 249, 416, 264
-0.998741, 177, 169, 240, 184
-0.998741, 153, 79, 216, 94
-0.998743, 465, 53, 480, 84
-0.998743, 1, 305, 500, 368
-0.998744, 113, 227, 176, 242
-0.998744, 185, 355, 248, 370
-0.998745, 169, 163, 232, 178
-0.998746, 241, 319, 304, 334
-0.998747, 161, 213, 176, 244
-0.998748, 377, 249, 440, 264
-0.998748, 193, 55, 256, 70
-0.998748, 129, 271, 192, 286
-0.998748, 113, 219, 176, 234
-0.998749, 113, 351, 176, 366
-0.998749, 401, 243, 464, 258
-0.998749, 81, 73, 96, 136
-0.998751, 265, 279, 328, 294
-0.998751, 161, 59, 224, 74
-0.998751, 233, 337, 296, 352
-0.998751, 169, 233, 232, 248
-0.998752, 201, 175, 264, 190
-0.998754, 137, 15, 200, 30
-0.998754, 169, 175, 232, 190
-0.998756, 161, 275, 224, 290
-0.998756, 201, 185, 264, 200
-0.998757, 169, 227, 232, 242
-0.998757, 137, 157, 200, 172
-0.998758, 177, 45, 240, 60
-0.998759, 169, 185, 232, 200
-0.998761, 185, 361, 248, 375
-0.998761, 209, 161, 272, 176
-0.998761, 145, 169, 208, 184
-0.998761, 241, 305, 304, 320
-0.998762, 281, 255, 344, 270
-0.998762, 353, 167, 416, 182
-0.998762, 129, 151, 192, 166
-0.998763, 153, 53, 216, 68
-0.998764, 177, 303, 240, 318
-0.998764, 265, 55, 328, 70
-0.998764, 121, 211, 184, 226
-0.998764, 185, 207, 248, 222
-0.998766, 233, 331, 296, 346
-0.998766, 329, 251, 392, 266
-0.998767, 361, 255, 424, 270
-0.998767, 161, 139, 224, 154
-0.998768, 201, 349, 264, 364
-0.998772, 1, 49, 32, 176
-0.998773, 437, 233, 468, 296
-0.998778, 75, 97, 90, 128
-0.998779, 129, 201, 256, 232
-0.998779, 115, 73, 130, 136
-0.998779, 171, 305, 186, 368
-0.998788, 157, 313, 188, 375
-0.998794, 81, 121, 208, 184
-0.998794, 127, 73, 142, 136
-0.998798, 121, 73, 136, 136
-0.9988, 469, 25, 484, 88
-0.998801, 477, 33, 492, 96
-0.998807, 103, 73, 118, 136
-0.998809, 317, 233, 332, 296
-0.998811, 225, 245, 352, 276
-0.998812, 41, 65, 72, 320
-0.998814, 25, 209, 88, 272
-0.998815, 129, 277, 256, 308
-0.998816, 75, 73, 90, 136
-0.998817, 69, 101, 84, 132
-0.998819, 69, 73, 100, 136
-0.998827, 97, 41, 224, 72
-0.998831, 207, 73, 222, 104
-0.998833, 1, 273, 500, 336
-0.998834, 449, 49, 464, 80
-0.998846, 421, 1, 452, 256
-0.998848, 471, 57, 486, 88
-0.998854, 479, 61, 494, 92
-0.998854, 333, 257, 348, 288
-0.998858, 153, 249, 168, 280
-0.998859, 437, 21, 452, 52
-0.998865, 257, 169, 384, 200
-0.998866, 455, 49, 470, 80
-0.998873, 31, 109, 46, 140
-0.998876, 337, 297, 464, 360
-0.998885, 21, 113, 36, 144
-0.998891, 443, 45, 458, 76
-0.9989, 183, 17, 198, 48
-0.998903, 29, 97, 60, 352
-0.998905, 297, 241, 328, 304
-0.998905, 189, 93, 204, 124
-0.998906, 327, 257, 342, 288
-0.998907, 9, 97, 40, 352
-0.998908, 33, 297, 288, 360
-0.998909, 319, 261, 334, 292
-0.998911, 257, 41, 272, 72
-0.998912, 129, 73, 160, 136
-0.998918, 339, 253, 354, 284
-0.998932, 305, 45, 320, 76
-0.998935, 313, 261, 328, 292
-0.998939, 63, 105, 78, 136
-0.998944, 81, 345, 208, 375
-0.99895, 177, 13, 192, 44
-0.998952, 205, 25, 220, 56
-0.998953, 87, 101, 102, 132
-0.998961, 189, 17, 204, 48
-0.998962, 113, 97, 128, 128
-0.998965, 485, 65, 500, 96
-0.998969, 15, 113, 30, 144
-0.998971, 197, 21, 212, 52
-0.998973, 193, 1, 208, 128
-0.998986, 307, 273, 322, 304
-0.998986, 289, 61, 416, 92
-0.998992, 81, 253, 208, 284
-0.998996, 287, 285, 302, 316
-0.998998, 435, 1, 450, 32
-0.999001, 247, 41, 262, 72
-0.999007, 297, 277, 312, 308
-0.999008, 193, 281, 224, 344
-0.99901, 81, 97, 96, 128
-0.999014, 225, 177, 480, 240
-0.999024, 307, 261, 322, 292
-0.999027, 431, 41, 446, 72
-0.999032, 321, 105, 448, 168
-0.999036, 183, 93, 198, 124
-0.999039, 171, 93, 186, 124
-0.999039, 461, 209, 492, 336
-0.999039, 263, 45, 278, 76
-0.99904, 213, 29, 228, 60
-0.999043, 331, 5, 346, 36
-0.999044, 97, 101, 112, 132
-0.999049, 49, 105, 64, 136
-0.999052, 201, 69, 216, 100
-0.999059, 43, 105, 58, 136
-0.999062, 337, 257, 464, 288
-0.999067, 345, 253, 360, 284
-0.999067, 155, 209, 170, 336
-0.999071, 61, 33, 92, 160
-0.999072, 81, 201, 208, 232
-0.999073, 57, 105, 72, 136
-0.999074, 225, 33, 240, 64
-0.999078, 37, 109, 52, 140
-0.999078, 257, 89, 500, 152
-0.999079, 145, 125, 272, 156
-0.999081, 107, 97, 122, 128
-0.999081, 399, 249, 414, 280
-0.999081, 253, 317, 268, 348
-0.999087, 257, 201, 500, 264
-0.99909, 187, 1, 202, 128
-0.999091, 331, 1, 346, 128
-0.999092, 9, 117, 24, 148
-0.999094, 161, 149, 288, 180
-0.999097, 235, 37, 250, 68
-0.999097, 307, 65, 322, 96
-0.999101, 233, 185, 264, 248
-0.999101, 161, 97, 176, 128
-0.999102, 151, 97, 166, 128
-0.999107, 353, 253, 368, 284
-0.999111, 315, 29, 330, 60
-0.999117, 149, 265, 164, 296
-0.99913, 285, 45, 300, 76
-0.999135, 1, 117, 16, 148
-0.999138, 405, 245, 420, 276
-0.99914, 177, 93, 192, 124
-0.999141, 361, 253, 376, 284
-0.999142, 229, 161, 244, 192
-0.999142, 267, 305, 282, 336
-0.999145, 199, 57, 214, 88
-0.999149, 145, 253, 160, 284
-0.99915, 429, 1, 444, 128
-0.999151, 17, 345, 144, 375
-0.999155, 121, 101, 136, 132
-0.999156, 241, 37, 256, 68
-0.999158, 113, 13, 240, 44
-0.999159, 247, 325, 262, 356
-0.999162, 273, 41, 288, 72
-0.999163, 321, 25, 336, 56
-0.999163, 291, 45, 306, 76
-0.999165, 137, 97, 152, 128
-0.999167, 219, 161, 234, 192
-0.999167, 177, 189, 304, 220
-0.999173, 233, 9, 264, 72
-0.999174, 177, 217, 304, 248
-0.999182, 179, 233, 194, 264
-0.999183, 129, 101, 144, 132
-0.999184, 189, 225, 204, 256
-0.999184, 257, 129, 288, 256
-0.999189, 261, 309, 276, 340
-0.99919, 155, 201, 170, 232
-0.999193, 279, 41, 294, 72
-0.999194, 165, 201, 180, 232
-0.999196, 193, 45, 208, 76
-0.999197, 273, 301, 288, 332
-0.9992, 225, 209, 352, 272
-0.9992, 97, 241, 160, 304
-0.9992, 299, 265, 314, 296
-0.999203, 291, 273, 306, 304
-0.999203, 471, 45, 486, 76
-0.999205, 237, 165, 252, 196
-0.999206, 147, 225, 162, 256
-0.999206, 183, 305, 198, 336
-0.99921, 413, 245, 428, 276
-0.99921, 149, 237, 164, 268
-0.999216, 477, 49, 492, 80
-0.99922, 163, 225, 178, 256
-0.999222, 193, 73, 208, 104
-0.999226, 361, 177, 392, 304
-0.999228, 325, 1, 340, 128
-0.999229, 193, 145, 224, 272
-0.999231, 279, 297, 294, 328
-0.999231, 9, 169, 72, 232
-0.999232, 393, 249, 408, 280
-0.999232, 199, 1, 214, 128
-0.999233, 371, 249, 386, 280
-0.999234, 377, 249, 392, 280
-0.999236, 63, 93, 78, 124
-0.999236, 337, 13, 352, 44
-0.999236, 449, 37, 464, 68
-0.999236, 237, 341, 252, 372
-0.999239, 143, 97, 158, 128
-0.999243, 461, 41, 476, 72
-0.999247, 297, 41, 312, 72
-0.999249, 171, 13, 186, 44
-0.999251, 253, 169, 268, 200
-0.999256, 301, 73, 316, 104
-0.99926, 485, 53, 500, 84
-0.999264, 365, 225, 396, 288
-0.999271, 463, 33, 478, 160
-0.999274, 337, 145, 400, 208
-0.999276, 321, 273, 448, 304
-0.999296, 445, 33, 460, 160
-0.9993, 451, 33, 466, 160
-0.999302, 81, 329, 208, 360
-0.999303, 437, 33, 452, 160
-0.999305, 181, 1, 196, 128
-0.999314, 97, 129, 352, 192
-0.999324, 311, 33, 326, 160
-0.999326, 177, 233, 208, 296
-0.999327, 241, 97, 368, 128
-0.999329, 177, 233, 304, 264
-0.99933, 161, 101, 288, 132
-0.999335, 209, 149, 336, 180
-0.99934, 319, 33, 334, 160
-0.999343, 289, 17, 320, 80
-0.999349, 205, 17, 220, 144
-0.999349, 113, 301, 240, 332
-0.999368, 353, 145, 480, 176
-0.999369, 301, 33, 316, 160
-0.999375, 457, 33, 472, 160
-0.999383, 165, 81, 180, 208
-0.999386, 157, 81, 172, 208
-0.999388, 161, 177, 176, 304
-0.99939, 481, 49, 496, 176
-0.999393, 253, 33, 268, 160
-0.999397, 257, 85, 384, 116
-0.9994, 181, 97, 212, 352
-0.999402, 177, 81, 192, 208
-0.999405, 259, 33, 274, 160
-0.999414, 275, 33, 290, 160
-0.999418, 193, 81, 208, 208
-0.999421, 293, 33, 308, 160
-0.999422, 1, 185, 256, 248
-0.999426, 287, 33, 302, 160
-0.999426, 471, 49, 486, 176
-0.999428, 1, 161, 128, 224
-0.99943, 333, 253, 348, 268
-0.99943, 263, 311, 278, 326
-0.99943, 191, 41, 206, 56
-0.999431, 181, 29, 196, 44
-0.999431, 345, 255, 360, 270
-0.999431, 165, 325, 180, 340
-0.999432, 145, 245, 160, 260
-0.999432, 71, 107, 86, 122
-0.999432, 231, 169, 246, 184
-0.999432, 377, 129, 440, 256
-0.999432, 265, 33, 280, 160
-0.999432, 63, 101, 78, 116
-0.999433, 269, 307, 284, 322
-0.999433, 207, 69, 222, 84
-0.999433, 171, 319, 186, 334
-0.999434, 273, 45, 288, 60
-0.999434, 403, 251, 418, 266
-0.999434, 383, 177, 398, 192
-0.999434, 337, 225, 368, 288
-0.999434, 151, 269, 166, 284
-0.999434, 195, 95, 210, 110
-0.999434, 165, 203, 180, 218
-0.999435, 405, 245, 420, 260
-0.999435, 171, 81, 186, 208
-0.999435, 201, 53, 216, 68
-0.999435, 185, 81, 200, 208
-0.999435, 375, 177, 390, 192
-0.999436, 153, 261, 168, 276
-0.999436, 135, 81, 150, 208
-0.999436, 275, 301, 290, 316
-0.999437, 155, 211, 170, 226
-0.999438, 189, 31, 204, 46
-0.999438, 229, 161, 244, 176
-0.999438, 303, 265, 318, 280
-0.999439, 333, 1, 348, 16
-0.99944, 327, 17, 342, 32
-0.99944, 151, 81, 166, 208
-0.999441, 231, 37, 246, 52
-0.999441, 145, 251, 160, 266
-0.999441, 235, 159, 250, 174
-0.999441, 471, 53, 486, 68
-0.999441, 251, 43, 266, 58
-0.999441, 209, 27, 224, 42
-0.999443, 195, 83, 210, 98
-0.999443, 303, 45, 318, 60
-0.999443, 477, 57, 492, 72
-0.999444, 1, 119, 16, 134
-0.999444, 165, 209, 180, 224
-0.999444, 97, 289, 224, 320
-0.999445, 155, 217, 170, 232
-0.999445, 119, 101, 134, 116
-0.999445, 177, 97, 192, 112
-0.999446, 199, 49, 214, 176
-0.999446, 103, 101, 118, 116
-0.999447, 281, 33, 296, 160
-0.999447, 197, 41, 212, 56
-0.999447, 143, 261, 158, 276
-0.999448, 261, 45, 276, 60
-0.999448, 297, 281, 312, 296
-0.999449, 171, 97, 186, 112
-0.999451, 339, 257, 354, 272
-0.999451, 325, 27, 340, 42
-0.999452, 315, 263, 330, 278
-0.999452, 181, 17, 196, 32
-0.999452, 193, 49, 208, 64
-0.999453, 97, 101, 112, 116
-0.999453, 217, 167, 232, 182
-0.999453, 321, 261, 336, 276
-0.999453, 459, 55, 474, 70
-0.999453, 11, 117, 26, 132
-0.999453, 215, 31, 230, 46
-0.999454, 331, 9, 346, 24
-0.999454, 309, 263, 324, 278
-0.999454, 241, 181, 368, 212
-0.999454, 461, 49, 476, 64
-0.999456, 225, 35, 240, 50
-0.999457, 203, 25, 218, 40
-0.999457, 199, 73, 214, 88
-0.999457, 59, 109, 74, 124
-0.999457, 163, 227, 178, 242
-0.999458, 309, 273, 324, 288
-0.999458, 53, 109, 68, 124
-0.999458, 147, 231, 162, 246
-0.999459, 47, 107, 62, 122
-0.999459, 37, 109, 52, 124
-0.99946, 149, 237, 164, 252
-0.99946, 89, 103, 104, 118
-0.99946, 305, 153, 432, 184
-0.999461, 303, 275, 318, 290
-0.999462, 119, 81, 134, 208
-0.999462, 145, 81, 160, 208
-0.999464, 187, 93, 202, 108
-0.999464, 327, 259, 342, 274
-0.999465, 113, 99, 128, 114
-0.999465, 197, 23, 212, 38
-0.999467, 17, 115, 32, 130
-0.999467, 321, 33, 336, 48
-0.999469, 73, 81, 88, 208
-0.99947, 239, 33, 254, 160
-0.99947, 247, 33, 262, 160
-0.999471, 31, 111, 46, 126
-0.999472, 311, 43, 326, 58
-0.999473, 175, 15, 190, 30
-0.999473, 83, 101, 98, 116
-0.999474, 231, 17, 246, 144
-0.999474, 333, 259, 348, 274
-0.999475, 443, 47, 458, 62
-0.999476, 207, 75, 222, 90
-0.999476, 81, 81, 96, 208
-0.999476, 67, 81, 82, 208
-0.999478, 187, 19, 202, 34
-0.999479, 433, 7, 448, 22
-0.999479, 129, 137, 256, 168
-0.999479, 455, 49, 470, 64
-0.99948, 65, 107, 80, 122
-0.99948, 153, 249, 168, 264
-0.99948, 25, 113, 40, 128
-0.999481, 425, 161, 456, 288
-0.999482, 163, 221, 178, 236
-0.999483, 213, 17, 228, 144
-0.999483, 481, 63, 496, 78
-0.999485, 437, 21, 452, 36
-0.999485, 471, 59, 486, 74
-0.999486, 465, 55, 480, 70
-0.99949, 153, 255, 168, 270
-0.999492, 89, 81, 104, 208
-0.999492, 33, 97, 48, 224
-0.999494, 125, 81, 140, 208
-0.999494, 435, 13, 450, 28
-0.999496, 109, 81, 124, 208
-0.999496, 145, 169, 176, 232
-0.999497, 449, 49, 464, 64
-0.999497, 165, 215, 180, 230
-0.999497, 437, 33, 452, 48
-0.999497, 323, 39, 338, 54
-0.999498, 73, 101, 88, 116
-0.9995, 201, 87, 216, 102
-0.999502, 317, 241, 332, 368
-0.999502, 433, 1, 448, 16
-0.999505, 99, 81, 114, 208
-0.999505, 333, 15, 348, 30
-0.999508, 331, 23, 346, 38
-0.999508, 437, 27, 452, 42
-0.999509, 429, 41, 444, 56
-0.999509, 317, 41, 332, 56
-0.99951, 203, 81, 218, 96
-0.999511, 197, 89, 228, 152
-0.999511, 429, 29, 444, 44
-0.999511, 327, 33, 342, 48
-0.999514, 369, 61, 496, 92
-0.999514, 157, 231, 172, 246
-0.999515, 353, 165, 480, 196
-0.999517, 437, 39, 452, 54
-0.999518, 129, 113, 256, 144
-0.999519, 195, 89, 210, 104
-0.999519, 339, 1, 354, 16
-0.999519, 337, 7, 352, 22
-0.99952, 155, 243, 170, 258
-0.999523, 47, 97, 62, 224
-0.999524, 157, 237, 172, 252
-0.999524, 305, 293, 432, 324
-0.999527, 429, 35, 444, 50
-0.999527, 429, 21, 444, 36
-0.999527, 311, 241, 326, 368
-0.999532, 253, 161, 284, 224
-0.999536, 435, 45, 450, 60
-0.999536, 273, 241, 400, 272
-0.999537, 221, 17, 236, 144
-0.999542, 23, 97, 38, 224
-0.999543, 427, 15, 442, 30
-0.999544, 41, 97, 56, 224
-0.999546, 33, 81, 64, 144
-0.999551, 425, 5, 440, 20
-0.999552, 175, 1, 190, 128
-0.999553, 57, 97, 72, 224
-0.999553, 369, 73, 496, 104
-0.999553, 149, 241, 164, 368
-0.999556, 213, 9, 244, 72
-0.999556, 129, 225, 160, 288
-0.999557, 285, 193, 316, 320
-0.999559, 323, 241, 338, 368
-0.999562, 305, 165, 432, 196
-0.999564, 333, 225, 348, 352
-0.999564, 33, 229, 160, 260
-0.999573, 93, 65, 124, 128
-0.999573, 177, 9, 304, 40
-0.999574, 305, 241, 320, 368
-0.999575, 265, 145, 296, 208
-0.999582, 415, 225, 430, 352
-0.999584, 437, 81, 468, 208
-0.999584, 13, 97, 28, 224
-0.999589, 385, 217, 416, 280
-0.999592, 421, 225, 436, 352
-0.999592, 155, 161, 170, 288
-0.999599, 33, 177, 96, 240
-0.999602, 409, 225, 424, 352
-0.999606, 1, 97, 16, 224
-0.999607, 289, 317, 416, 348
-0.999608, 163, 241, 178, 368
-0.999619, 7, 97, 22, 224
-0.99962, 97, 313, 224, 344
-0.999622, 169, 225, 184, 352
-0.999623, 189, 145, 220, 208
-0.999628, 361, 225, 376, 352
-0.999629, 193, 113, 320, 144
-0.999632, 377, 25, 440, 88
-0.999632, 227, 129, 242, 256
-0.999638, 427, 209, 442, 336
-0.999639, 337, 1, 352, 128
-0.999643, 341, 225, 356, 352
-0.999645, 273, 73, 400, 104
-0.999645, 351, 225, 366, 352
-0.999648, 403, 225, 418, 352
-0.999653, 193, 97, 224, 352
-0.999654, 177, 201, 304, 232
-0.999654, 249, 97, 264, 224
-0.999655, 289, 305, 416, 336
-0.99966, 239, 97, 254, 224
-0.999663, 367, 225, 382, 352
-0.999664, 253, 265, 284, 328
-0.999668, 329, 1, 392, 128
-0.999673, 433, 209, 448, 336
-0.999678, 221, 129, 236, 256
-0.999678, 377, 225, 392, 352
-0.999683, 205, 65, 220, 192
-0.999684, 305, 177, 432, 208
-0.999684, 61, 49, 76, 176
-0.999684, 1, 93, 128, 124
-0.999685, 257, 17, 288, 80
-0.999689, 167, 177, 182, 304
-0.999691, 269, 81, 284, 208
-0.999692, 257, 157, 384, 188
-0.999693, 95, 33, 110, 160
-0.999693, 285, 97, 316, 352
-0.999694, 33, 273, 160, 336
-0.999699, 81, 133, 208, 164
-0.999701, 299, 241, 314, 368
-0.999702, 215, 113, 230, 240
-0.999703, 397, 225, 412, 352
-0.999706, 257, 197, 384, 228
-0.999708, 291, 241, 306, 368
-0.999708, 175, 209, 190, 336
-0.999708, 439, 209, 454, 336
-0.999709, 49, 313, 176, 344
-0.999709, 233, 97, 248, 224
-0.999709, 473, 1, 488, 128
-0.99971, 73, 33, 88, 160
-0.999711, 83, 33, 98, 160
-0.999712, 445, 209, 460, 336
-0.999712, 109, 33, 124, 160
-0.999715, 1, 57, 500, 120
-0.999719, 421, 177, 436, 304
-0.999721, 55, 49, 70, 176
-0.999723, 385, 225, 400, 352
-0.999726, 89, 33, 104, 160
-0.999726, 159, 33, 174, 160
-0.999727, 415, 177, 430, 304
-0.999728, 169, 17, 184, 144
-0.999728, 49, 161, 176, 192
-0.99973, 275, 241, 290, 368
-0.999731, 41, 49, 56, 176
-0.999733, 103, 33, 118, 160
-0.999736, 137, 33, 152, 160
-0.999736, 149, 33, 164, 160
-0.999737, 47, 49, 62, 176
-0.999739, 165, 129, 180, 256
-0.99974, 119, 33, 134, 160
-0.99974, 391, 225, 406, 352
-0.999742, 177, 249, 304, 280
-0.999744, 127, 33, 142, 160
-0.999745, 281, 241, 296, 368
-0.999749, 321, 229, 448, 260
-0.99975, 263, 81, 278, 208
-0.999753, 467, 209, 482, 336
-0.999755, 27, 49, 42, 176
-0.999756, 327, 193, 342, 320
-0.999757, 217, 121, 248, 184
-0.999758, 17, 1, 48, 256
-0.999759, 457, 209, 472, 336
-0.999759, 147, 177, 162, 304
-0.999759, 239, 145, 254, 272
-0.99976, 481, 1, 496, 128
-0.999762, 275, 81, 290, 208
-0.999763, 233, 145, 248, 272
-0.999763, 191, 209, 206, 336
-0.999766, 33, 333, 160, 364
-0.999778, 1, 89, 32, 152
-0.999781, 305, 169, 368, 232
-0.999782, 1, 189, 128, 220
-0.999785, 65, 269, 192, 300
-0.999786, 233, 97, 264, 352
-0.999788, 29, 1, 60, 256
-0.999795, 369, 181, 496, 212
-0.999801, 289, 329, 416, 360
-0.999814, 193, 125, 320, 156
-0.999816, 197, 241, 228, 368
-0.999826, 33, 217, 160, 248
-0.999831, 41, 249, 104, 312
-0.999833, 225, 209, 352, 240
-0.999838, 369, 229, 496, 260
-0.999852, 353, 133, 480, 164
-0.999857, 361, 129, 392, 375
-0.999858, 81, 113, 208, 144
-0.999867, 33, 241, 160, 272
-0.999875, 49, 293, 176, 324
-0.999878, 337, 217, 464, 248
-0.999884, 257, 229, 384, 260
-0.999886, 289, 209, 352, 272
-0.999895, 341, 177, 372, 304
-0.999899, 305, 313, 368, 375
-0.9999, 1, 1, 32, 256
-0.999905, 217, 185, 248, 248
-0.999909, 273, 97, 304, 352
-0.999917, 241, 129, 304, 192
-0.999918, 349, 129, 380, 375
-0.999931, 373, 129, 404, 375
-0.999959, 217, 193, 280, 320
-0.999963, 329, 129, 360, 375
-0.999979, 1, 113, 256, 176
-0.999991, 349, 225, 380, 288
-1.00001, 181, 297, 212, 360
-1.00001, 393, 145, 456, 208
-1.00002, 257, 97, 288, 352
-1.00003, 9, 161, 72, 288
-1.00003, 289, 81, 320, 208
-1.00003, 309, 129, 340, 375
-1.00004, 229, 241, 260, 368
-1.00005, 157, 129, 188, 192
-1.00011, 409, 129, 440, 375
-1.00013, 81, 177, 144, 240
-1.00013, 57, 73, 88, 136
-1.00016, 329, 1, 360, 256
-1.00016, 421, 129, 452, 375
-1.00018, 385, 129, 416, 375
-1.00019, 421, 49, 452, 176
-1.00023, 1, 49, 128, 112
-1.00023, 245, 97, 276, 352
-1.00025, 1, 169, 500, 232
-1.00025, 105, 65, 136, 128
-1.00025, 297, 97, 328, 352
-1.00027, 321, 225, 352, 288
-1.00028, 221, 97, 252, 352
-1.00028, 425, 201, 488, 264
-1.00029, 441, 129, 472, 375
-1.00031, 241, 265, 272, 328
-1.00032, 433, 121, 496, 184
-1.00032, 397, 97, 428, 352
-1.00033, 181, 257, 212, 320
-1.00033, 201, 137, 232, 200
-1.00033, 417, 209, 448, 272
-1.00034, 381, 177, 412, 304
-1.00037, 205, 97, 236, 352
-1.00038, 205, 185, 236, 248
-1.0004, 265, 89, 296, 152
-1.00043, 21, 81, 52, 144
-1.00045, 49, 153, 112, 216
-1.00047, 157, 65, 188, 128
-1.00049, 453, 217, 484, 280
-1.00049, 1, 105, 500, 168
-1.0005, 305, 145, 368, 208
-1.00051, 277, 81, 308, 144
-1.00051, 385, 33, 416, 288
-1.00052, 221, 265, 252, 328
-1.00057, 373, 33, 404, 288
-1.00061, 121, 289, 184, 352
-1.00067, 453, 129, 484, 375
-1.00067, 469, 129, 500, 375
-1.00069, 217, 241, 248, 368
-1.00076, 361, 33, 392, 288
-1.00086, 433, 129, 496, 375
-1.00087, 197, 193, 228, 320
-1.00088, 241, 113, 368, 176
-1.00088, 121, 313, 184, 375
-1.00091, 41, 193, 104, 320
-1.00092, 1, 193, 500, 256
-1.00094, 349, 33, 380, 288
-1.00094, 269, 129, 300, 256
-1.00095, 409, 33, 440, 288
-1.00096, 65, 217, 128, 280
-1.00106, 273, 145, 336, 272
-1.00111, 65, 25, 192, 88
-1.00115, 1, 145, 500, 208
-1.00121, 397, 1, 428, 256
-1.00123, 377, 1, 440, 256
-1.00123, 361, 81, 424, 208
-1.00138, 329, 177, 360, 304
-1.00159, 49, 49, 176, 112
-1.00173, 217, 65, 248, 192
-1.00186, 1, 25, 128, 88
-1.00191, 81, 177, 144, 304
-1.00213, 1, 1, 128, 64
-1.00214, 57, 129, 120, 256
-1.00214, 437, 145, 468, 272
-1.00219, 261, 177, 292, 304
-1.00223, 369, 33, 432, 160
-1.00228, 1, 225, 128, 352
-1.00228, 281, 129, 312, 256
-1.00237, 1, 129, 128, 256
-1.00251, 409, 97, 440, 224
-1.00263, 85, 177, 116, 304
-1.00266, 393, 65, 424, 192
-1.00272, 245, 193, 276, 320
-1.00276, 297, 97, 360, 224
-1.00276, 9, 209, 72, 336
-1.00277, 337, 33, 400, 288
-1.00281, 273, 193, 304, 320
-1.00282, 301, 81, 332, 208
-1.00293, 101, 145, 132, 272
-1.00323, 449, 97, 480, 224
-1.0033, 65, 193, 96, 320
-1.00345, 409, 49, 440, 176
-1.0035, 373, 113, 404, 240
-1.00374, 5, 241, 36, 368
-1.00376, 53, 193, 84, 320
-1.0038, 41, 241, 104, 368
-1.00383, 113, 241, 144, 368
-1.00389, 381, 65, 412, 192
-1.00397, 121, 145, 152, 272
-1.00397, 105, 193, 136, 320
-1.004, 13, 161, 44, 288
-1.00401, 397, 1, 428, 128
-1.00403, 65, 241, 96, 368
-1.00408, 33, 241, 64, 368
-1.00419, 77, 129, 108, 256
-1.0042, 397, 113, 428, 240
-1.00425, 349, 113, 380, 240
-1.00447, 81, 241, 144, 368
-1.00461, 337, 81, 400, 208
-1.00529, 33, 1, 96, 128
-1.00584, 33, 145, 96, 272
-1.00602, 337, 129, 400, 256
-1.00647, 297, 145, 360, 272
-1.00818, 81, 129, 144, 256
-1.01205, 9, 1, 72, 128
