1892
-0.0494896, 1, 1, 327, 500
-0.225188, 1, 1, 256, 500
-0.25652, 1, 1, 327, 256
-0.300048, 1, 97, 327, 352
-0.37656, 1, 257, 327, 500
-0.483932, 1, 97, 256, 352
-0.543597, 1, 1, 256, 256
-0.601741, 1, 193, 256, 448
-0.821602, 33, 33, 160, 288
-0.83025, 113, 1, 240, 500
-0.836926, 161, 1, 288, 256
-0.843336, 193, 1, 320, 500
-0.849645, 17, 1, 144, 500
-0.849816, 113, 97, 240, 352
-0.849851, 161, 225, 288, 480
-0.85106, 65, 129, 192, 384
-0.851677, 193, 129, 320, 384
-0.852361, 65, 1, 192, 500
-0.854535, 1, 17, 327, 144
-0.855242, 1, 65, 327, 192
-0.861783, 1, 193, 128, 448
-0.864756, 113, 193, 240, 448
-0.867712, 65, 225, 192, 480
-0.870688, 1, 113, 327, 240
-0.875842, 1, 193, 327, 320
-0.8784, 81, 1, 208, 256
-0.889894, 1, 321, 327, 448
-0.89584, 1, 241, 327, 368
-0.897319, 1, 49, 256, 176
-0.899894, 1, 1, 256, 128
-0.902146, 1, 97, 256, 224
-0.906464, 33, 177, 288, 304
-0.914151, 1, 369, 327, 496
-0.918233, 65, 225, 320, 352
-0.920362, 33, 273, 288, 400
-0.920479, 33, 33, 160, 160
-0.924347, 33, 337, 288, 464
-0.925841, 49, 81, 176, 208
-0.925904, 1, 97, 128, 224
-0.92593, 25, 97, 88, 224
-0.927472, 65, 49, 128, 176
-0.92876, 33, 49, 96, 176
-0.928898, 81, 145, 208, 272
-0.930222, 57, 97, 120, 224
-0.932372, 1, 305, 128, 432
-0.933362, 249, 193, 312, 320
-0.934119, 161, 177, 288, 304
-0.936413, 81, 321, 208, 448
-0.93656, 81, 161, 144, 288
-0.936754, 129, 97, 256, 224
-0.937892, 113, 337, 176, 464
-0.938058, 121, 129, 184, 256
-0.938466, 49, 1, 112, 128
-0.93879, 1, 145, 128, 272
-0.940908, 193, 241, 320, 368
-0.941272, 97, 225, 224, 352
-0.941783, 1, 193, 128, 320
-0.942194, 225, 177, 288, 304
-0.942436, 73, 369, 136, 496
-0.942449, 129, 289, 256, 416
-0.942693, 161, 81, 224, 208
-0.9435, 17, 145, 80, 272
-0.943785, 97, 113, 160, 240
-0.943932, 81, 17, 208, 144
-0.944111, 265, 145, 327, 272
-0.944306, 33, 65, 96, 128
-0.944331, 65, 273, 192, 400
-0.944466, 153, 305, 216, 432
-0.945226, 113, 177, 176, 304
-0.945351, 49, 369, 176, 496
-0.945653, 57, 145, 120, 272
-0.946467, 265, 1, 327, 128
-0.946533, 177, 33, 304, 160
-0.946619, 41, 41, 104, 104
-0.947433, 89, 49, 152, 176
-0.948014, 25, 97, 88, 160
-0.94821, 217, 241, 280, 368
-0.948495, 73, 1, 136, 128
-0.948901, 65, 57, 128, 120
-0.949247, 49, 193, 176, 320
-0.949379, 105, 257, 168, 384
-0.949467, 81, 209, 144, 336
-0.949631, 257, 225, 320, 288
-0.950094, 177, 129, 304, 256
-0.950267, 113, 65, 176, 192
-0.95187, 177, 273, 240, 400
-0.952321, 25, 121, 88, 184
-0.952924, 57, 89, 120, 152
-0.953083, 89, 305, 152, 432
-0.953867, 145, 161, 208, 288
-0.954034, 137, 321, 200, 384
-0.954068, 17, 145, 80, 208
-0.95449, 193, 33, 256, 160
-0.955001, 113, 217, 176, 280
-0.955062, 1, 369, 128, 496
-0.955348, 57, 17, 120, 80
-0.957132, 225, 249, 288, 312
-0.957338, 137, 81, 200, 208
-0.957536, 81, 169, 144, 232
-0.95774, 129, 177, 192, 240
-0.957833, 129, 49, 256, 176
-0.957958, 137, 257, 200, 384
-0.958077, 57, 193, 120, 320
-0.958328, 25, 417, 88, 480
-0.95835, 121, 153, 184, 216
-0.958358, 1, 257, 128, 384
-0.958502, 265, 97, 327, 224
-0.958587, 89, 25, 152, 88
-0.958668, 17, 369, 80, 496
-0.959233, 41, 33, 104, 288
-0.959394, 89, 241, 152, 304
-0.959409, 145, 241, 272, 368
-0.959568, 129, 73, 192, 136
-0.959735, 113, 345, 176, 408
-0.960141, 89, 81, 152, 144
-0.960184, 89, 273, 152, 336
-0.960199, 57, 161, 120, 224
-0.96024, 225, 1, 288, 128
-0.960335, 265, 49, 327, 176
-0.960485, 249, 241, 312, 368
-0.96087, 241, 129, 304, 256
-0.960988, 265, 153, 327, 216
-0.961645, 161, 105, 224, 168
-0.962081, 49, 121, 112, 184
-0.962209, 57, 185, 120, 248
-0.962456, 161, 321, 224, 384
-0.962592, 177, 289, 304, 416
-0.96281, 105, 177, 168, 240
-0.962815, 145, 33, 208, 160
-0.962908, 193, 281, 256, 344
-0.963163, 73, 217, 136, 280
-0.963405, 249, 193, 312, 256
-0.963478, 81, 257, 144, 384
-0.963662, 17, 177, 80, 240
-0.963827, 89, 49, 152, 112
-0.963949, 17, 193, 80, 320
-0.964087, 65, 305, 128, 432
-0.964341, 153, 81, 216, 144
-0.964377, 97, 369, 224, 496
-0.96458, 153, 185, 216, 248
-0.96477, 177, 193, 240, 320
-0.964892, 65, 65, 128, 320
-0.965017, 97, 145, 160, 208
-0.965106, 53, 17, 84, 144
-0.965211, 9, 49, 72, 176
-0.96533, 81, 193, 144, 256
-0.965413, 65, 73, 192, 136
-0.965686, 1, 433, 64, 496
-0.965689, 193, 81, 320, 208
-0.965976, 97, 1, 160, 128
-0.966272, 257, 129, 320, 384
-0.966484, 33, 41, 160, 104
-0.966579, 169, 297, 232, 360
-0.966858, 121, 121, 184, 184
-0.967065, 113, 297, 176, 360
-0.967204, 17, 97, 80, 352
-0.967307, 81, 385, 144, 448
-0.967646, 105, 369, 168, 432
-0.967974, 81, 33, 112, 160
-0.968023, 41, 49, 72, 176
-0.968262, 57, 241, 120, 368
-0.968319, 69, 65, 100, 192
-0.96839, 97, 225, 160, 480
-0.968438, 249, 249, 312, 312
-0.968472, 105, 433, 168, 496
-0.968497, 129, 1, 256, 128
-0.968707, 257, 1, 320, 64
-0.968846, 113, 257, 176, 320
-0.968851, 73, 73, 104, 136
-0.968918, 153, 209, 216, 336
-0.969075, 129, 65, 192, 320
-0.969279, 233, 225, 296, 288
-0.969282, 153, 161, 216, 416
-0.969335, 137, 345, 200, 408
-0.969474, 149, 321, 180, 448
-0.969634, 177, 129, 240, 256
-0.969635, 65, 289, 128, 352
-0.96979, 89, 145, 120, 272
-0.969881, 1, 97, 64, 224
-0.970043, 61, 97, 92, 160
-0.970278, 225, 185, 288, 248
-0.970659, 145, 337, 272, 464
-0.970728, 81, 361, 144, 424
-0.970738, 65, 433, 128, 496
-0.970778, 265, 25, 327, 88
-0.970842, 17, 73, 144, 136
-0.971128, 97, 33, 160, 288
-0.971137, 17, 201, 80, 264
-0.97128, 29, 113, 60, 240
-0.971338, 65, 249, 128, 312
-0.971356, 241, 153, 304, 216
-0.971359, 89, 313, 152, 376
-0.971457, 169, 1, 232, 256
-0.971478, 81, 177, 208, 240
-0.971656, 1, 97, 64, 160
-0.971721, 57, 409, 120, 472
-0.972074, 253, 241, 284, 304
-0.972117, 201, 257, 264, 320
-0.972135, 121, 17, 184, 144
-0.972191, 157, 321, 188, 384
-0.972249, 145, 49, 208, 112
-0.972314, 121, 353, 152, 416
-0.97247, 169, 33, 232, 160
-0.972487, 49, 369, 112, 496
-0.972494, 1, 169, 128, 232
-0.972536, 201, 161, 264, 288
-0.972598, 149, 177, 180, 240
-0.972778, 145, 145, 208, 208
-0.972778, 225, 225, 288, 480
-0.972797, 265, 193, 296, 320
-0.972867, 97, 409, 160, 472
-0.972897, 69, 17, 100, 144
-0.972948, 33, 97, 64, 160
-0.972967, 25, 385, 88, 448
-0.973023, 1, 409, 64, 472
-0.973048, 225, 257, 256, 320
-0.973051, 85, 57, 116, 120
-0.973156, 129, 337, 160, 464
-0.97316, 169, 305, 200, 432
-0.973196, 149, 97, 180, 224
-0.973262, 73, 49, 104, 112
-0.973345, 65, 273, 192, 336
-0.973429, 113, 337, 240, 400
-0.97355, 137, 353, 200, 480
-0.973597, 65, 257, 128, 500
-0.973923, 105, 177, 136, 304
-0.973933, 65, 113, 96, 240
-0.973977, 189, 289, 220, 416
-0.974214, 153, 161, 184, 288
-0.974227, 65, 297, 192, 360
-0.974268, 65, 9, 96, 72
-0.974287, 177, 65, 240, 128
-0.974352, 265, 113, 327, 176
-0.974365, 241, 49, 304, 176
-0.974403, 89, 129, 152, 384
-0.974434, 153, 257, 216, 500
-0.974435, 137, 281, 200, 344
-0.974445, 265, 49, 327, 112
-0.974449, 129, 129, 160, 256
-0.974455, 209, 25, 272, 88
-0.974501, 93, 185, 124, 248
-0.974513, 213, 257, 244, 384
-0.974516, 201, 225, 264, 480
-0.97453, 93, 17, 124, 144
-0.974558, 25, 1, 88, 128
-0.974686, 109, 353, 140, 480
-0.974733, 45, 97, 76, 224
-0.974769, 145, 313, 272, 376
-0.9748, 145, 329, 176, 392
-0.974929, 173, 305, 204, 368
-0.974941, 193, 257, 320, 320
-0.974962, 65, 153, 192, 216
-0.974981, 193, 185, 320, 248
-0.97502, 225, 1, 288, 256
-0.975053, 1, 121, 128, 184
-0.975099, 269, 217, 300, 280
-0.975109, 49, 97, 176, 160
-0.975192, 93, 193, 124, 320
-0.975195, 253, 177, 284, 304
-0.975208, 137, 257, 200, 320
-0.975256, 273, 129, 304, 256
-0.975279, 41, 73, 72, 136
-0.975285, 241, 241, 272, 368
-0.975374, 281, 177, 312, 304
-0.975376, 137, 233, 200, 296
-0.975434, 89, 209, 120, 272
-0.975451, 1, 97, 128, 160
-0.97546, 201, 129, 264, 384
-0.975508, 5, 369, 36, 496
-0.975522, 97, 273, 128, 336
-0.975566, 61, 73, 92, 136
-0.975568, 129, 225, 192, 480
-0.975611, 85, 161, 116, 224
-0.975642, 33, 401, 160, 464
-0.975644, 25, 153, 56, 216
-0.975656, 213, 273, 244, 336
-0.975732, 201, 289, 264, 416
-0.975774, 29, 121, 60, 184
-0.975775, 177, 81, 208, 144
-0.976008, 97, 377, 128, 440
-0.976152, 229, 241, 260, 368
-0.976265, 177, 129, 240, 384
-0.97629, 45, 129, 76, 192
-0.976299, 113, 321, 176, 384
-0.976302, 133, 177, 164, 304
-0.976358, 117, 209, 148, 336
-0.976407, 129, 121, 256, 184
-0.97643, 253, 225, 284, 352
-0.976437, 53, 33, 84, 96
-0.976442, 113, 241, 240, 304
-0.976461, 209, 161, 272, 224
-0.976487, 77, 177, 108, 304
-0.976527, 217, 113, 280, 240
-0.97653, 9, 393, 40, 456
-0.976541, 133, 337, 164, 400
-0.976554, 161, 161, 288, 224
-0.976561, 1, 369, 128, 432
-0.976615, 145, 209, 208, 272
-0.976819, 33, 17, 96, 80
-0.976912, 1, 425, 128, 488
-0.976951, 113, 89, 240, 152
-0.976989, 257, 193, 288, 256
-0.977123, 1, 145, 128, 208
-0.977156, 97, 57, 128, 120
-0.977198, 165, 81, 196, 208
-0.977204, 25, 161, 56, 288
-0.977219, 201, 273, 232, 400
-0.977329, 265, 169, 296, 232
-0.977346, 81, 25, 112, 88
-0.977372, 189, 289, 220, 352
-0.977396, 105, 233, 136, 296
-0.97748, 49, 209, 112, 272
-0.977492, 101, 209, 132, 272
-0.977635, 145, 121, 176, 184
-0.977777, 57, 385, 120, 448
-0.977879, 97, 361, 224, 424
-0.977896, 289, 1, 320, 128
-0.977936, 29, 65, 60, 192
-0.977946, 161, 161, 192, 224
-0.977959, 65, 321, 192, 384
-0.97796, 129, 289, 256, 352
-0.978076, 297, 241, 327, 368
-0.978119, 33, 17, 160, 80
-0.978197, 193, 1, 320, 64
-0.978235, 233, 25, 296, 88
-0.978244, 33, 233, 160, 296
-0.978284, 113, 65, 144, 128
-0.978345, 33, 1, 96, 500
-0.978379, 109, 273, 140, 336
-0.978536, 105, 177, 136, 240
-0.978554, 25, 321, 88, 448
-0.978566, 29, 417, 60, 480
-0.978588, 145, 153, 176, 216
-0.9786, 193, 1, 256, 256
-0.978607, 157, 273, 188, 400
-0.978757, 1, 73, 64, 136
-0.978782, 177, 1, 240, 500
-0.978806, 97, 305, 128, 432
-0.978837, 93, 17, 124, 80
-0.978868, 109, 361, 140, 424
-0.978884, 237, 249, 268, 312
-0.978902, 97, 121, 160, 184
-0.978972, 105, 1, 136, 128
-0.979023, 225, 129, 288, 192
-0.979029, 193, 233, 320, 296
-0.979064, 93, 233, 124, 296
-0.979141, 1, 337, 128, 400
-0.979262, 165, 89, 196, 152
-0.97931, 121, 65, 152, 192
-0.979342, 1, 273, 128, 336
-0.979343, 177, 73, 304, 136
-0.979367, 73, 337, 136, 400
-0.979395, 33, 201, 160, 264
-0.979453, 1, 121, 64, 184
-0.979459, 133, 257, 164, 384
-0.979465, 113, 265, 240, 328
-0.979471, 105, 417, 136, 480
-0.979488, 265, 33, 327, 288
-0.979515, 177, 281, 304, 344
-0.979543, 113, 129, 144, 256
-0.979574, 113, 201, 144, 264
-0.979614, 97, 1, 160, 500
-0.979614, 73, 97, 104, 160
-0.979628, 201, 281, 232, 344
-0.979634, 57, 65, 88, 192
-0.979709, 41, 129, 104, 384
-0.979784, 93, 81, 124, 144
-0.979796, 81, 217, 208, 280
-0.979816, 137, 1, 200, 500
-0.979871, 81, 97, 112, 224
-0.979886, 113, 97, 176, 160
-0.97992, 193, 353, 320, 480
-0.979951, 177, 41, 304, 104
-0.979958, 177, 337, 240, 464
-0.979961, 73, 1, 136, 500
-0.979993, 129, 425, 192, 488
-0.980053, 129, 369, 192, 432
-0.980117, 297, 241, 327, 304
-0.980129, 241, 177, 272, 304
-0.980135, 129, 41, 256, 104
-0.980218, 49, 121, 176, 184
-0.980277, 49, 105, 80, 168
-0.980297, 97, 369, 128, 496
-0.980428, 233, 129, 296, 384
-0.980448, 129, 217, 256, 280
-0.980451, 113, 257, 144, 384
-0.980475, 65, 161, 96, 288
-0.980523, 81, 185, 112, 248
-0.980611, 137, 81, 168, 208
-0.98063, 73, 137, 136, 200
-0.980636, 49, 377, 176, 440
-0.980662, 281, 129, 312, 192
-0.980703, 9, 433, 40, 496
-0.980804, 265, 1, 327, 500
-0.980837, 17, 1, 80, 256
-0.980853, 129, 153, 160, 216
-0.980911, 69, 185, 100, 248
-0.980912, 101, 129, 132, 256
-0.980928, 177, 225, 240, 480
-0.980963, 61, 121, 92, 184
-0.980998, 137, 217, 168, 280
-0.981001, 81, 49, 208, 112
-0.981025, 73, 161, 104, 224
-0.981094, 9, 257, 72, 384
-0.981118, 265, 225, 327, 480
-0.981128, 81, 25, 208, 88
-0.981221, 265, 73, 327, 136
-0.981228, 137, 401, 200, 464
-0.981324, 161, 345, 224, 408
-0.981332, 25, 177, 56, 240
-0.981377, 177, 193, 240, 256
-0.981447, 285, 97, 316, 224
-0.98146, 109, 65, 140, 192
-0.981528, 281, 225, 312, 288
-0.981531, 185, 1, 248, 64
-0.981549, 161, 249, 224, 312
-0.981571, 113, 49, 176, 112
-0.981593, 129, 265, 160, 328
-0.981632, 125, 73, 156, 136
-0.981636, 149, 81, 180, 144
-0.981696, 193, 137, 320, 200
-0.981717, 105, 1, 168, 64
-0.981777, 77, 233, 108, 296
-0.981779, 89, 241, 120, 368
-0.98179, 217, 65, 280, 192
-0.981808, 225, 289, 288, 416
-0.981824, 1, 377, 64, 440
-0.98185, 185, 81, 248, 208
-0.981878, 1, 297, 128, 360
-0.981988, 177, 153, 240, 216
-0.982063, 53, 145, 84, 272
-0.982195, 185, 33, 248, 96
-0.982226, 65, 161, 128, 416
-0.982242, 81, 369, 112, 496
-0.982252, 217, 281, 280, 344
-0.982287, 177, 81, 208, 208
-0.982318, 125, 233, 156, 296
-0.982357, 277, 193, 308, 256
-0.982392, 129, 185, 160, 248
-0.982395, 17, 369, 48, 496
-0.98243, 173, 329, 204, 392
-0.982438, 277, 161, 308, 224
-0.982495, 185, 329, 248, 392
-0.982528, 93, 65, 124, 192
-0.982623, 69, 401, 100, 464
-0.982631, 101, 241, 132, 368
-0.982808, 233, 49, 296, 112
-0.982813, 289, 105, 320, 168
-0.982853, 173, 185, 204, 248
-0.982943, 145, 257, 176, 384
-0.983014, 85, 385, 116, 448
-0.983166, 209, 337, 272, 464
-0.983176, 49, 345, 176, 408
-0.983227, 137, 305, 168, 368
-0.983234, 121, 409, 152, 472
-0.98333, 69, 337, 100, 464
-0.983395, 109, 385, 140, 448
-0.983424, 293, 49, 324, 176
-0.983453, 1, 321, 64, 448
-0.98346, 169, 129, 232, 192
-0.983491, 17, 305, 80, 368
-0.983522, 249, 273, 312, 336
-0.983532, 101, 153, 132, 216
-0.98363, 177, 369, 240, 432
-0.983687, 105, 33, 136, 96
-0.98371, 73, 113, 136, 176
-0.983761, 17, 193, 80, 448
-0.983818, 133, 417, 164, 480
-0.983853, 241, 225, 272, 288
-0.983933, 161, 393, 224, 456
-0.983957, 265, 433, 327, 496
-0.983958, 189, 49, 220, 176
-0.983996, 117, 305, 148, 432
-0.984154, 201, 1, 264, 500
-0.984169, 193, 105, 320, 168
-0.984179, 177, 209, 304, 272
-0.984189, 137, 89, 168, 152
-0.984199, 133, 113, 164, 176
-0.984272, 157, 113, 188, 176
-0.984285, 153, 49, 184, 176
-0.984296, 117, 177, 148, 240
-0.984311, 93, 433, 124, 496
-0.984371, 121, 297, 152, 360
-0.984387, 113, 153, 240, 216
-0.984467, 53, 417, 84, 480
-0.984508, 9, 281, 72, 344
-0.984513, 81, 1, 144, 64
-0.984592, 149, 297, 180, 360
-0.984682, 277, 225, 308, 352
-0.984786, 85, 265, 116, 328
-0.984794, 157, 209, 188, 272
-0.984805, 193, 305, 256, 368
-0.984842, 53, 153, 84, 216
-0.984867, 81, 433, 208, 496
-0.984949, 57, 361, 120, 424
-0.984959, 9, 49, 72, 112
-0.985058, 209, 1, 272, 64
-0.985089, 285, 1, 316, 64
-0.985101, 165, 33, 196, 160
-0.98516, 117, 433, 148, 496
-0.985161, 133, 361, 164, 424
-0.985165, 161, 185, 192, 248
-0.98523, 129, 65, 256, 128
-0.985259, 41, 249, 104, 312
-0.985272, 209, 329, 272, 392
-0.985306, 177, 33, 208, 160
-0.985306, 297, 193, 327, 320
-0.985307, 125, 49, 156, 112
-0.985388, 265, 49, 296, 176
-0.985439, 41, 145, 72, 272
-0.985501, 153, 369, 184, 496
-0.985534, 233, 353, 296, 480
-0.985751, 41, 49, 72, 112
-0.985819, 297, 217, 327, 280
-0.985848, 145, 185, 272, 248
-0.985869, 17, 225, 80, 288
-0.985879, 41, 257, 104, 500
-0.986034, 229, 1, 260, 128
-0.986101, 293, 145, 324, 272
-0.986183, 153, 25, 216, 88
-0.986225, 113, 1, 240, 64
-0.986268, 241, 1, 272, 128
-0.986285, 241, 1, 304, 500
-0.986298, 93, 353, 124, 416
-0.986309, 285, 249, 316, 312
-0.986349, 169, 273, 232, 336
-0.986362, 121, 321, 152, 384
-0.986397, 81, 409, 208, 472
-0.986518, 169, 49, 200, 112
-0.98652, 1, 361, 32, 424
-0.986528, 85, 305, 116, 432
-0.986583, 9, 1, 72, 500
-0.986583, 41, 273, 104, 336
-0.986594, 9, 353, 72, 416
-0.986614, 169, 177, 200, 304
-0.986634, 97, 385, 224, 448
-0.986649, 193, 313, 320, 376
-0.986652, 29, 73, 60, 136
-0.986661, 149, 353, 180, 416
-0.986814, 121, 377, 152, 440
-0.98692, 185, 313, 216, 376
-0.986955, 161, 337, 288, 400
-0.986965, 157, 137, 188, 200
-0.986979, 201, 57, 264, 120
-0.987098, 169, 353, 200, 480
-0.987109, 189, 73, 220, 136
-0.987145, 85, 137, 116, 200
-0.987157, 77, 225, 108, 352
-0.987217, 145, 209, 176, 336
-0.987294, 241, 305, 304, 368
-0.987403, 73, 209, 104, 272
-0.987455, 201, 337, 232, 464
-0.987456, 229, 177, 260, 304
-0.987477, 137, 33, 168, 160
-0.987497, 145, 361, 272, 424
-0.987504, 9, 257, 72, 320
-0.987507, 161, 1, 224, 64
-0.987562, 177, 257, 208, 384
-0.987566, 105, 9, 136, 72
-0.987577, 105, 89, 136, 152
-0.987628, 161, 289, 192, 352
-0.98765, 33, 241, 96, 368
-0.987847, 185, 217, 248, 280
-0.987869, 73, 77, 136, 108
-0.987906, 225, 233, 256, 296
-0.98792, 33, 85, 96, 116
-0.987934, 241, 273, 272, 336
-0.98794, 241, 73, 304, 136
-0.987955, 261, 129, 292, 256
-0.987965, 245, 153, 276, 216
-0.987977, 9, 153, 40, 216
-0.988181, 137, 65, 168, 128
-0.988192, 293, 57, 324, 120
-0.988257, 113, 153, 144, 216
-0.988269, 189, 49, 220, 112
-0.988325, 149, 57, 180, 120
-0.988376, 49, 37, 112, 68
-0.988427, 97, 297, 128, 360
-0.988499, 25, 117, 88, 148
-0.988528, 141, 393, 172, 456
-0.988608, 53, 353, 84, 480
-0.988641, 33, 97, 96, 128
-0.988673, 65, 89, 128, 120
-0.988696, 129, 417, 256, 480
-0.988703, 33, 73, 96, 104
-0.988808, 57, 25, 120, 56
-0.988837, 41, 61, 104, 92
-0.988898, 249, 249, 312, 280
-0.988905, 1, 49, 256, 112
-0.988949, 41, 49, 104, 80
-0.988966, 201, 285, 264, 316
-0.988992, 17, 133, 80, 164
-0.989016, 29, 353, 60, 480
-0.989082, 17, 145, 80, 176
-0.989137, 145, 321, 208, 352
-0.989242, 1, 25, 256, 88
-0.98925, 25, 429, 88, 460
-0.989355, 145, 333, 208, 364
-0.989358, 145, 393, 272, 456
-0.98936, 257, 233, 320, 264
-0.989396, 137, 181, 200, 212
-0.989492, 257, 181, 320, 212
-0.989493, 81, 185, 144, 216
-0.989549, 113, 221, 176, 252
-0.989581, 257, 369, 320, 496
-0.989614, 105, 77, 168, 108
-0.989627, 137, 345, 200, 376
-0.989668, 17, 113, 48, 240
-0.989734, 113, 241, 176, 272
-0.98976, 153, 113, 216, 144
-0.989783, 233, 261, 296, 292
-0.989801, 113, 361, 176, 392
-0.989903, 209, 17, 240, 144
-0.989906, 17, 173, 80, 204
-0.989907, 153, 1, 184, 128
-0.989924, 89, 277, 152, 308
-0.989931, 65, 61, 128, 92
-0.989938, 33, 185, 288, 248
-0.989972, 65, 5, 128, 36
-0.98999, 1, 97, 256, 160
-0.990004, 1, 73, 256, 136
-0.990012, 277, 1, 308, 128
-0.990017, 97, 261, 160, 292
-0.990037, 141, 369, 172, 496
-0.990062, 113, 349, 176, 380
-0.990071, 1, 33, 327, 96
-0.990104, 1, 1, 256, 64
-0.990106, 65, 169, 128, 200
-0.99013, 57, 101, 120, 132
-0.990136, 5, 321, 36, 448
-0.990157, 249, 289, 312, 416
-0.990161, 49, 125, 112, 156
-0.990187, 25, 401, 88, 432
-0.990202, 1, 445, 64, 476
-0.990221, 89, 293, 152, 324
-0.990238, 209, 273, 272, 304
-0.990258, 105, 469, 168, 500
-0.990296, 105, 373, 168, 404
-0.990343, 41, 369, 72, 496
-0.990345, 177, 301, 240, 332
-0.990362, 221, 321, 252, 448
-0.9904, 169, 321, 232, 352
-0.990402, 97, 457, 160, 488
-0.990406, 73, 409, 136, 440
-0.990413, 73, 257, 136, 288
-0.990431, 81, 25, 144, 56
-0.990468, 57, 185, 120, 216
-0.990492, 25, 161, 88, 192
-0.990495, 13, 177, 44, 304
-0.990508, 201, 113, 232, 240
-0.990509, 137, 77, 200, 108
-0.990528, 81, 205, 144, 236
-0.99055, 89, 93, 152, 124
-0.990559, 73, 37, 136, 68
-0.99056, 17, 193, 80, 224
-0.990569, 193, 433, 320, 496
-0.990587, 65, 225, 320, 288
-0.990589, 97, 173, 160, 204
-0.990636, 265, 241, 296, 368
-0.990689, 217, 209, 248, 336
-0.990689, 49, 137, 112, 168
-0.990708, 193, 361, 320, 424
-0.99072, 265, 157, 327, 188
-0.990722, 225, 249, 288, 280
-0.990736, 113, 277, 176, 308
-0.990779, 121, 161, 184, 192
-0.990793, 265, 261, 327, 292
-0.990811, 249, 169, 312, 200
-0.99083, 161, 189, 224, 220
-0.990839, 197, 1, 228, 128
-0.99084, 73, 49, 136, 80
-0.990848, 33, 273, 288, 336
-0.990849, 265, 221, 327, 252
-0.990854, 297, 97, 327, 224
-0.990864, 17, 209, 80, 240
-0.990885, 81, 469, 144, 500
-0.990891, 225, 185, 288, 216
-0.990893, 169, 333, 232, 364
-0.990904, 129, 93, 192, 124
-0.990911, 265, 193, 327, 224
-0.99092, 73, 245, 136, 276
-0.990939, 81, 225, 144, 256
-0.990942, 169, 97, 232, 128
-0.991018, 145, 365, 208, 396
-0.991019, 81, 445, 144, 476
-0.99102, 125, 17, 156, 144
-0.991021, 81, 397, 144, 428
-0.991027, 1, 233, 327, 296
-0.991029, 113, 185, 176, 216
-0.991064, 121, 141, 184, 172
-0.991105, 89, 61, 152, 92
-0.991109, 121, 261, 184, 292
-0.991119, 57, 221, 120, 252
-0.991129, 1, 81, 327, 144
-0.991129, 49, 113, 112, 144
-0.991136, 1, 105, 327, 168
-0.991157, 33, 413, 96, 444
-0.991172, 121, 329, 184, 360
-0.991173, 137, 221, 200, 252
-0.991187, 121, 125, 184, 156
-0.991241, 233, 237, 296, 268
-0.991246, 89, 385, 152, 416
-0.991249, 41, 173, 104, 204
-0.991251, 265, 45, 327, 76
-0.991278, 57, 233, 120, 264
-0.991288, 257, 17, 320, 48
-0.991292, 65, 157, 128, 188
-0.991323, 1, 377, 256, 440
-0.991329, 9, 105, 72, 136
-0.99134, 41, 201, 104, 232
-0.991341, 153, 309, 216, 340
-0.991357, 113, 201, 176, 232
-0.991365, 265, 145, 327, 176
-0.991387, 1, 93, 64, 124
-0.991388, 97, 41, 160, 72
-0.991402, 265, 205, 327, 236
-0.991438, 57, 469, 120, 500
-0.99145, 145, 257, 208, 288
-0.991455, 145, 201, 208, 232
-0.991471, 129, 305, 192, 336
-0.991473, 265, 133, 327, 164
-0.991477, 209, 261, 272, 292
-0.991482, 65, 277, 128, 308
-0.991501, 265, 57, 327, 88
-0.991502, 17, 221, 80, 252
-0.991506, 161, 349, 224, 380
-0.991509, 265, 33, 327, 64
-0.991525, 177, 277, 240, 308
-0.991546, 241, 273, 304, 304
-0.991549, 65, 293, 128, 324
-0.991557, 57, 421, 120, 452
-0.99157, 201, 297, 264, 328
-0.991576, 233, 197, 296, 228
-0.991577, 33, 25, 96, 56
-0.991583, 73, 433, 136, 464
-0.991593, 97, 409, 160, 440
-0.991595, 249, 1, 312, 32
-0.991612, 105, 441, 168, 472
-0.991632, 169, 81, 232, 112
-0.99166, 145, 65, 208, 96
-0.991684, 1, 81, 64, 112
-0.991707, 33, 441, 96, 472
-0.991734, 33, 145, 288, 208
-0.991802, 1, 57, 327, 120
-0.991987, 1, 121, 256, 184
-0.992015, 193, 393, 320, 456
-0.992043, 65, 93, 96, 124
-0.992071, 153, 333, 184, 364
-0.992134, 233, 305, 264, 432
-0.992213, 73, 77, 104, 108
-0.992217, 157, 209, 188, 336
-0.992228, 33, 249, 288, 312
-0.992249, 189, 241, 220, 368
-0.992251, 221, 273, 252, 304
-0.992265, 77, 65, 92, 128
-0.992269, 257, 249, 288, 280
-0.992283, 133, 349, 164, 380
-0.992304, 93, 81, 124, 112
-0.992315, 109, 257, 140, 288
-0.992325, 141, 337, 172, 368
-0.992355, 61, 113, 92, 144
-0.992357, 273, 229, 304, 260
-0.992366, 233, 257, 264, 288
-0.992375, 105, 77, 136, 108
-0.992385, 169, 317, 200, 348
-0.992399, 209, 285, 240, 316
-0.992414, 1, 401, 256, 464
-0.992421, 281, 249, 312, 280
-0.99243, 149, 177, 180, 208
-0.992434, 73, 105, 104, 136
-0.992436, 1, 1, 327, 64
-0.992462, 25, 169, 56, 200
-0.992465, 57, 33, 88, 64
-0.992473, 277, 217, 308, 248
-0.992494, 25, 157, 56, 188
-0.992498, 77, 89, 108, 120
-0.992505, 249, 129, 280, 256
-0.992511, 81, 61, 112, 92
-0.992511, 109, 457, 140, 488
-0.992516, 157, 321, 188, 352
-0.992524, 245, 253, 276, 284
-0.992537, 177, 89, 208, 120
-0.992559, 29, 429, 60, 460
-0.99256, 265, 181, 296, 212
-0.992567, 65, 21, 96, 52
-0.992575, 121, 357, 152, 388
-0.992583, 85, 33, 116, 64
-0.992585, 89, 245, 120, 276
-0.992593, 93, 21, 124, 52
-0.992597, 105, 273, 136, 304
-0.992605, 181, 309, 212, 340
-0.992606, 29, 121, 60, 152
-0.992613, 105, 89, 136, 120
-0.992613, 257, 289, 288, 416
-0.99263, 61, 125, 92, 156
-0.99264, 53, 45, 84, 76
-0.992646, 5, 445, 36, 476
-0.992647, 93, 393, 124, 424
-0.992651, 105, 445, 136, 476
-0.992652, 33, 105, 64, 136
-0.992654, 93, 93, 124, 124
-0.992655, 45, 133, 76, 164
-0.992662, 29, 145, 60, 176
-0.992665, 93, 273, 124, 304
-0.992669, 1, 353, 256, 416
-0.992687, 85, 165, 116, 196
-0.992689, 121, 77, 152, 108
-0.992691, 89, 189, 120, 220
-0.992694, 101, 381, 132, 412
-0.992694, 133, 221, 164, 252
-0.992699, 193, 301, 224, 332
-0.992702, 93, 225, 124, 256
-0.992704, 285, 261, 316, 292
-0.992706, 117, 369, 148, 400
-0.992707, 1, 1, 64, 128
-0.992708, 117, 221, 148, 252
-0.992711, 261, 261, 292, 292
-0.992715, 161, 177, 192, 208
-0.99272, 117, 277, 148, 308
-0.992721, 105, 181, 136, 212
-0.992725, 77, 185, 108, 216
-0.992727, 49, 117, 80, 148
-0.992734, 25, 181, 56, 212
-0.992737, 29, 133, 60, 164
-0.992737, 261, 237, 292, 268
-0.992739, 97, 261, 128, 292
-0.992742, 41, 145, 72, 176
-0.99275, 9, 401, 40, 432
-0.992758, 249, 189, 280, 220
-0.992765, 133, 265, 164, 296
-0.992767, 105, 229, 136, 260
-0.992792, 141, 125, 172, 156
-0.992809, 197, 289, 228, 320
-0.99281, 37, 89, 68, 120
-0.992813, 297, 253, 327, 284
-0.992818, 69, 409, 100, 440
-0.992821, 65, 177, 96, 208
-0.992823, 53, 89, 84, 120
-0.992828, 157, 117, 188, 148
-0.992836, 97, 209, 128, 240
-0.992841, 173, 333, 204, 364
-0.992843, 261, 201, 292, 232
-0.992854, 97, 293, 128, 324
-0.992862, 145, 353, 176, 384
-0.992864, 237, 241, 268, 272
-0.992866, 101, 409, 132, 440
-0.992867, 277, 197, 308, 228
-0.992868, 17, 437, 48, 468
-0.992871, 93, 469, 124, 500
-0.992876, 45, 57, 76, 88
-0.992876, 281, 145, 312, 176
-0.992876, 121, 265, 152, 296
-0.992883, 277, 161, 308, 192
-0.992886, 81, 397, 112, 428
-0.992889, 37, 77, 68, 108
-0.992892, 129, 369, 160, 400
-0.992895, 69, 9, 100, 40
-0.992903, 109, 209, 140, 240
-0.992908, 269, 249, 300, 280
-0.992913, 45, 105, 76, 136
-0.992919, 81, 229, 112, 260
-0.992921, 77, 45, 108, 76
-0.992923, 61, 137, 92, 168
-0.992926, 177, 189, 208, 220
-0.992931, 129, 277, 160, 308
-0.992933, 109, 297, 140, 328
-0.992934, 233, 269, 264, 300
-0.992938, 25, 193, 56, 224
-0.992941, 109, 469, 140, 500
-0.992946, 17, 93, 144, 124
-0.992952, 105, 369, 136, 400
-0.992954, 209, 273, 240, 304
-0.992954, 137, 233, 168, 264
-0.992956, 93, 69, 124, 100
-0.992962, 165, 81, 196, 112
-0.992963, 121, 449, 152, 480
-0.992964, 161, 345, 192, 376
-0.99297, 141, 77, 172, 108
-0.992974, 101, 245, 132, 276
-0.99298, 105, 169, 136, 200
-0.992981, 297, 469, 327, 500
-0.992984, 105, 65, 136, 96
-0.992989, 149, 189, 180, 220
-0.99299, 53, 153, 84, 184
-0.99299, 101, 193, 132, 224
-0.992994, 125, 189, 156, 220
-0.992997, 249, 273, 280, 304
-0.992997, 121, 469, 152, 500
-0.993037, 1, 297, 256, 360
-0.993048, 205, 209, 236, 336
-0.993161, 73, 273, 104, 400
-0.993165, 1, 273, 327, 336
-0.993178, 17, 73, 144, 104
-0.993183, 165, 129, 196, 256
-0.993183, 181, 337, 212, 464
-0.993294, 65, 225, 96, 352
-0.993299, 201, 65, 232, 192
-0.993316, 17, 225, 48, 352
-0.993413, 1, 209, 327, 272
-0.99342, 175, 313, 190, 376
-0.99345, 1, 137, 327, 200
-0.993465, 81, 181, 208, 212
-0.993509, 17, 53, 144, 84
-0.993511, 83, 65, 98, 128
-0.993524, 1, 369, 327, 432
-0.993524, 69, 73, 84, 136
-0.993532, 1, 321, 256, 384
-0.993554, 81, 81, 208, 112
-0.993677, 271, 193, 286, 256
-0.993687, 189, 97, 220, 224
-0.993689, 81, 93, 208, 124
-0.993706, 271, 225, 286, 288
-0.993783, 217, 273, 232, 336
-0.993794, 65, 105, 80, 168
-0.993837, 1, 401, 128, 432
-0.993853, 281, 49, 312, 176
-0.993853, 33, 41, 160, 72
-0.993865, 39, 89, 54, 152
-0.993966, 1, 185, 128, 216
-0.994002, 177, 129, 208, 256
-0.994018, 17, 321, 48, 448
-0.994037, 1, 185, 327, 248
-0.994046, 183, 305, 198, 368
-0.994079, 147, 337, 162, 400
-0.994129, 75, 89, 90, 152
-0.994155, 163, 169, 178, 232
-0.994159, 159, 113, 174, 176
-0.99417, 253, 1, 284, 128
-0.994217, 257, 241, 272, 304
-0.994252, 113, 349, 240, 380
-0.994274, 47, 57, 62, 120
-0.994317, 265, 233, 280, 296
-0.994325, 113, 281, 240, 312
-0.994332, 225, 265, 240, 328
-0.994334, 1, 329, 327, 392
-0.99435, 161, 185, 288, 216
-0.994407, 137, 337, 152, 400
-0.99442, 153, 329, 168, 392
-0.994442, 167, 321, 182, 384
-0.994491, 83, 41, 98, 104
-0.99452, 61, 25, 76, 88
-0.994538, 111, 433, 126, 496
-0.994548, 181, 177, 212, 304
-0.994579, 73, 1, 88, 64
-0.994581, 55, 33, 70, 96
-0.994589, 277, 209, 292, 272
-0.9946, 1, 105, 128, 136
-0.994612, 45, 1, 76, 256
-0.994628, 1, 173, 128, 204
-0.994649, 81, 297, 208, 328
-0.994676, 31, 417, 46, 480
-0.994689, 1, 125, 128, 156
-0.994707, 97, 193, 224, 224
-0.994736, 169, 161, 184, 224
-0.994739, 89, 33, 104, 96
-0.994739, 271, 169, 286, 232
-0.99477, 159, 329, 174, 392
-0.994778, 117, 361, 132, 424
-0.99479, 153, 177, 168, 240
-0.994798, 131, 345, 146, 408
-0.994802, 41, 65, 56, 128
-0.99481, 89, 57, 104, 120
-0.994822, 129, 333, 256, 364
-0.994826, 103, 185, 118, 248
-0.994827, 99, 49, 114, 112
-0.994839, 49, 409, 176, 440
-0.994856, 129, 265, 256, 296
-0.99486, 113, 209, 128, 272
-0.994872, 193, 197, 320, 228
-0.994873, 117, 273, 132, 336
-0.994896, 1, 389, 128, 420
-0.994923, 109, 233, 124, 296
-0.994931, 123, 353, 138, 416
-0.99497, 57, 1, 88, 256
-0.994988, 65, 169, 192, 200
-0.994989, 213, 129, 244, 256
-0.994997, 59, 105, 74, 168
-0.995004, 21, 401, 36, 464
-0.995007, 193, 261, 320, 292
-0.995035, 207, 281, 222, 344
-0.995038, 95, 161, 110, 224
-0.995057, 1, 441, 128, 472
-0.995068, 115, 73, 130, 136
-0.995079, 33, 25, 160, 56
-0.99508, 145, 173, 272, 204
-0.995084, 183, 81, 198, 144
-0.995091, 81, 241, 208, 272
-0.995096, 221, 369, 252, 496
-0.995099, 111, 273, 126, 336
-0.995104, 193, 297, 208, 360
-0.995105, 49, 113, 176, 144
-0.995124, 129, 125, 256, 156
-0.995144, 239, 257, 254, 320
-0.995149, 67, 9, 82, 72
-0.99516, 265, 193, 280, 256
-0.995171, 251, 249, 266, 312
-0.995174, 193, 281, 320, 312
-0.995187, 113, 361, 240, 392
-0.995188, 85, 1, 116, 256
-0.99519, 89, 161, 104, 224
-0.995193, 105, 273, 120, 336
-0.995193, 193, 249, 320, 280
-0.995245, 145, 321, 272, 352
-0.995255, 81, 397, 208, 428
-0.995273, 31, 129, 46, 192
-0.995282, 105, 17, 120, 80
-0.995284, 49, 257, 176, 288
-0.995285, 167, 105, 182, 168
-0.995288, 9, 65, 40, 192
-0.995308, 81, 89, 96, 152
-0.995329, 299, 241, 314, 304
-0.99535, 77, 41, 92, 104
-0.995362, 177, 297, 304, 328
-0.995381, 159, 137, 174, 200
-0.995383, 65, 433, 320, 496
-0.995387, 49, 125, 176, 156
-0.995401, 277, 273, 308, 400
-0.995406, 97, 309, 224, 340
-0.995412, 109, 73, 124, 136
-0.995419, 95, 25, 110, 88
-0.995419, 231, 249, 246, 312
-0.995446, 63, 145, 78, 208
-0.995456, 71, 113, 86, 176
-0.995458, 177, 53, 304, 84
-0.995458, 1, 413, 128, 444
-0.995468, 111, 369, 126, 432
-0.995474, 65, 277, 192, 308
-0.995477, 33, 105, 48, 168
-0.995481, 99, 273, 114, 336
-0.995484, 71, 49, 86, 112
-0.995485, 115, 233, 130, 296
-0.995505, 17, 429, 144, 460
-0.995508, 57, 129, 72, 192
-0.995514, 69, 33, 100, 288
-0.995528, 49, 1, 176, 32
-0.995528, 49, 13, 176, 44
-0.99554, 283, 193, 298, 256
-0.995542, 37, 425, 52, 488
-0.995551, 49, 193, 176, 224
-0.995556, 309, 241, 324, 304
-0.995559, 105, 41, 120, 104
-0.995565, 1, 137, 128, 168
-0.995568, 277, 161, 292, 224
-0.995572, 31, 153, 46, 216
-0.995576, 161, 213, 288, 244
-0.995576, 89, 81, 104, 144
-0.995587, 127, 257, 142, 320
-0.995589, 153, 145, 168, 208
-0.99559, 201, 289, 216, 352
-0.995612, 49, 205, 176, 236
-0.995612, 177, 81, 192, 144
-0.995619, 33, 65, 64, 320
-0.995624, 245, 257, 260, 320
-0.995625, 1, 393, 327, 456
-0.995639, 149, 121, 164, 184
-0.995643, 65, 345, 192, 376
-0.995643, 1, 161, 128, 192
-0.995655, 119, 417, 134, 480
-0.995656, 81, 385, 208, 416
-0.995671, 145, 105, 272, 136
-0.995673, 177, 41, 304, 72
-0.995674, 103, 369, 118, 432
-0.995683, 109, 185, 124, 248
-0.995685, 63, 81, 78, 144
-0.995689, 65, 325, 192, 356
-0.995693, 1, 305, 327, 368
-0.995697, 49, 137, 176, 168
-0.9957, 109, 393, 124, 456
-0.995709, 1, 469, 128, 500
-0.995732, 133, 193, 164, 448
-0.995738, 101, 145, 116, 208
-0.995745, 193, 149, 320, 180
-0.995759, 133, 265, 148, 328
-0.995769, 1, 149, 128, 180
-0.995773, 81, 161, 96, 224
-0.995774, 193, 25, 320, 56
-0.995778, 171, 73, 186, 136
-0.995784, 241, 369, 272, 496
-0.995786, 41, 1, 72, 128
-0.995795, 105, 209, 120, 272
-0.995806, 163, 81, 178, 144
-0.995816, 33, 297, 160, 328
-0.995824, 293, 233, 308, 296
-0.995839, 139, 113, 154, 176
-0.995852, 193, 5, 320, 36
-0.995853, 225, 97, 256, 224
-0.995862, 1, 245, 128, 276
-0.995875, 243, 233, 258, 296
-0.995878, 89, 185, 104, 248
-0.995881, 273, 97, 304, 352
-0.995882, 1, 197, 128, 228
-0.995883, 165, 137, 180, 200
-0.995889, 95, 217, 110, 280
-0.995901, 81, 373, 208, 404
-0.995906, 49, 313, 176, 344
-0.995917, 49, 469, 176, 500
-0.99592, 161, 309, 288, 340
-0.995946, 129, 253, 256, 284
-0.995954, 103, 241, 118, 304
-0.995965, 129, 73, 144, 136
-0.995972, 181, 65, 212, 320
-0.995979, 1, 349, 128, 380
-0.995985, 81, 57, 208, 88
-0.996002, 283, 217, 298, 280
-0.996006, 95, 185, 110, 248
-0.996035, 161, 233, 288, 264
-0.996035, 113, 225, 144, 480
-0.996036, 245, 321, 276, 448
-0.996045, 193, 137, 320, 168
-0.996079, 121, 249, 136, 312
-0.996081, 161, 85, 288, 116
-0.996082, 139, 265, 154, 328
-0.996086, 25, 425, 40, 488
-0.99609, 147, 313, 162, 376
-0.996094, 135, 65, 150, 128
-0.996096, 291, 1, 306, 64
-0.996096, 65, 357, 192, 388
-0.996114, 49, 225, 176, 256
-0.996127, 143, 185, 158, 248
-0.996127, 177, 65, 304, 96
-0.996128, 103, 433, 118, 496
-0.996128, 1, 285, 128, 316
-0.996133, 125, 433, 140, 496
-0.996151, 121, 65, 136, 128
-0.99616, 241, 225, 272, 480
-0.996162, 125, 281, 140, 344
-0.996163, 115, 49, 130, 112
-0.996164, 101, 73, 116, 136
-0.996174, 97, 229, 224, 260
-0.996185, 115, 393, 130, 456
-0.996189, 15, 401, 30, 464
-0.996189, 9, 433, 24, 496
-0.996192, 141, 313, 156, 376
-0.9962, 289, 1, 320, 256
-0.996208, 133, 97, 164, 352
-0.996229, 151, 233, 166, 296
-0.996231, 27, 393, 42, 456
-0.996244, 189, 81, 204, 144
-0.996255, 133, 233, 148, 296
-0.996267, 113, 145, 240, 176
-0.996282, 129, 73, 256, 104
-0.99629, 1, 377, 128, 408
-0.996323, 129, 293, 256, 324
-0.99633, 261, 161, 292, 416
-0.996339, 121, 97, 152, 352
-0.996364, 1, 161, 327, 224
-0.996365, 1, 257, 128, 288
-0.996373, 153, 129, 184, 384
-0.99638, 81, 41, 208, 72
-0.996384, 97, 217, 224, 248
-0.99639, 165, 161, 196, 416
-0.996423, 1, 209, 128, 240
-0.996431, 65, 69, 192, 100
-0.996439, 229, 161, 260, 416
-0.99644, 193, 161, 320, 192
-0.996453, 17, 365, 144, 396
-0.996477, 145, 225, 176, 480
-0.996515, 1, 313, 128, 344
-0.996535, 97, 109, 224, 140
-0.996535, 49, 457, 176, 488
-0.996577, 193, 117, 320, 148
-0.996578, 101, 257, 132, 500
-0.996617, 105, 33, 136, 288
-0.996629, 1, 229, 128, 260
-0.996656, 161, 1, 192, 256
-0.996661, 57, 97, 88, 352
-0.996717, 149, 341, 164, 372
-0.996727, 45, 97, 76, 352
-0.996729, 293, 161, 324, 416
-0.996763, 205, 257, 236, 500
-0.996764, 81, 257, 112, 500
-0.996791, 161, 257, 192, 500
-0.996811, 129, 157, 256, 188
-0.996832, 193, 173, 320, 204
-0.996837, 81, 29, 208, 60
-0.996854, 65, 157, 192, 188
-0.996868, 1, 457, 128, 488
-0.996872, 93, 129, 124, 384
-0.996878, 213, 281, 228, 312
-0.996896, 49, 445, 176, 476
-0.996939, 1, 273, 128, 304
-0.996958, 197, 1, 228, 256
-0.997004, 1, 337, 128, 368
-0.997005, 117, 77, 132, 108
-0.997015, 97, 409, 224, 440
-0.997015, 65, 117, 80, 148
-0.997029, 225, 257, 256, 500
-0.997063, 129, 377, 256, 408
-0.99707, 107, 77, 122, 108
-0.997074, 129, 61, 256, 92
-0.99709, 277, 229, 292, 260
-0.997092, 221, 277, 236, 308
-0.997094, 67, 93, 82, 124
-0.997113, 113, 205, 240, 236
-0.997127, 217, 129, 248, 384
-0.99714, 157, 333, 172, 364
-0.99715, 81, 97, 112, 352
-0.997161, 263, 245, 278, 276
-0.997171, 97, 81, 112, 112
-0.997171, 161, 345, 288, 376
-0.997173, 179, 317, 194, 348
-0.997175, 253, 253, 268, 284
-0.997183, 207, 285, 222, 316
-0.997193, 249, 129, 280, 384
-0.997198, 135, 349, 150, 380
-0.997226, 75, 77, 90, 108
-0.997231, 113, 441, 240, 472
-0.997261, 181, 193, 212, 448
-0.997274, 163, 329, 178, 360
-0.997295, 143, 345, 158, 376
-0.997308, 213, 1, 244, 256
-0.997321, 177, 333, 304, 364
-0.997321, 145, 1, 176, 256
-0.997324, 67, 105, 82, 136
-0.997336, 265, 185, 280, 216
-0.99734, 109, 89, 124, 120
-0.997342, 79, 93, 94, 124
-0.99735, 109, 253, 124, 284
-0.997364, 239, 265, 254, 296
-0.997368, 193, 373, 320, 404
-0.997374, 245, 261, 260, 292
-0.997386, 281, 193, 312, 448
-0.99739, 127, 357, 142, 388
-0.997401, 169, 325, 184, 356
-0.997414, 205, 129, 236, 384
-0.997417, 69, 257, 100, 500
-0.997467, 227, 269, 242, 300
-0.997471, 299, 253, 314, 284
-0.997474, 25, 161, 56, 416
-0.997475, 59, 33, 74, 64
-0.997482, 279, 217, 294, 248
-0.997486, 117, 257, 132, 288
-0.997505, 133, 1, 164, 256
-0.997531, 193, 257, 224, 500
-0.99754, 143, 357, 158, 388
-0.997542, 273, 205, 288, 236
-0.997561, 97, 465, 224, 496
-0.997566, 81, 73, 96, 104
-0.99757, 185, 313, 200, 344
-0.997571, 27, 433, 42, 464
-0.997576, 43, 73, 58, 104
-0.997585, 73, 93, 88, 124
-0.997589, 161, 177, 176, 208
-0.997595, 59, 137, 74, 168
-0.997597, 65, 17, 80, 48
-0.997603, 199, 301, 214, 332
-0.997604, 129, 37, 256, 68
-0.997611, 91, 81, 106, 112
-0.997613, 73, 5, 88, 36
-0.997615, 1, 13, 128, 44
-0.997616, 119, 445, 134, 476
-0.997616, 291, 249, 306, 280
-0.997617, 121, 361, 136, 392
-0.997618, 85, 61, 100, 92
-0.997621, 1, 417, 327, 480
-0.997632, 129, 9, 256, 40
-0.997641, 65, 129, 80, 160
-0.997642, 85, 89, 100, 120
-0.997646, 49, 57, 64, 88
-0.997647, 229, 257, 244, 288
-0.997656, 237, 253, 252, 284
-0.997656, 119, 277, 134, 308
-0.997662, 153, 125, 168, 156
-0.997663, 73, 113, 88, 144
-0.997663, 111, 273, 126, 304
-0.997664, 229, 1, 260, 256
-0.997664, 109, 449, 124, 480
-0.997677, 233, 269, 248, 300
-0.997679, 39, 93, 54, 124
-0.997702, 55, 45, 70, 76
-0.997708, 69, 81, 84, 112
-0.997713, 21, 401, 36, 432
-0.99772, 149, 185, 164, 216
-0.997723, 103, 89, 118, 120
-0.997728, 191, 305, 206, 336
-0.997729, 163, 117, 178, 148
-0.997733, 79, 185, 94, 216
-0.997737, 161, 361, 288, 392
-0.997739, 271, 233, 286, 264
-0.997749, 301, 469, 316, 500
-0.997763, 193, 449, 320, 480
-0.997767, 115, 89, 130, 120
-0.997777, 257, 33, 288, 288
-0.997779, 101, 261, 116, 292
-0.9978, 169, 181, 184, 212
-0.997806, 93, 61, 108, 92
-0.997806, 1, 325, 128, 356
-0.997806, 109, 129, 140, 384
-0.997809, 33, 429, 48, 460
-0.997812, 35, 109, 50, 140
-0.99782, 125, 73, 140, 104
-0.99782, 129, 49, 256, 80
-0.997824, 95, 389, 110, 420
-0.997824, 179, 93, 194, 124
-0.997833, 73, 173, 88, 204
-0.997846, 103, 185, 118, 216
-0.997867, 31, 153, 46, 184
-0.997867, 193, 97, 224, 352
-0.997872, 97, 93, 112, 124
-0.997872, 291, 261, 306, 292
-0.997872, 79, 1, 94, 32
-0.997873, 205, 297, 220, 328
-0.99788, 149, 353, 164, 384
-0.997881, 129, 25, 256, 56
-0.997886, 105, 21, 120, 52
-0.99789, 103, 249, 118, 280
-0.997893, 95, 229, 110, 260
-0.997894, 129, 277, 144, 308
-0.997895, 125, 261, 140, 292
-0.997898, 117, 65, 132, 96
-0.997903, 129, 393, 256, 424
-0.997906, 59, 113, 74, 144
-0.997909, 241, 1, 272, 256
-0.997912, 311, 249, 326, 280
-0.997916, 267, 197, 282, 228
-0.997919, 307, 461, 322, 492
-0.997922, 21, 441, 36, 472
-0.997931, 103, 381, 118, 412
-0.997932, 271, 177, 286, 208
-0.99794, 285, 245, 300, 276
-0.997942, 105, 277, 120, 308
-0.99795, 307, 261, 322, 292
-0.997952, 177, 465, 304, 496
-0.997955, 281, 261, 296, 292
-0.997956, 123, 457, 138, 488
-0.997964, 253, 257, 284, 500
-0.99798, 31, 137, 46, 168
-0.997985, 135, 225, 150, 256
-0.997986, 313, 453, 327, 484
-0.997992, 261, 261, 276, 292
-0.997997, 281, 197, 296, 228
-0.997999, 243, 249, 258, 280
-0.998003, 271, 249, 286, 280
-0.998006, 181, 81, 196, 112
-0.998009, 187, 77, 202, 108
-0.998011, 99, 277, 114, 308
-0.998017, 173, 101, 188, 132
-0.998021, 107, 397, 122, 428
-0.998022, 107, 437, 122, 468
-0.998022, 143, 73, 158, 104
-0.998027, 93, 185, 108, 216
-0.998028, 155, 181, 170, 212
-0.99803, 113, 285, 128, 316
-0.998031, 107, 233, 122, 264
-0.998034, 85, 185, 100, 216
-0.998045, 117, 373, 132, 404
-0.998047, 79, 173, 94, 204
-0.998048, 61, 101, 76, 132
-0.998048, 255, 265, 270, 296
-0.998049, 135, 277, 150, 308
-0.998059, 193, 105, 320, 136
-0.998074, 113, 429, 240, 460
-0.998106, 193, 321, 320, 352
-0.998106, 129, 453, 256, 484
-0.998129, 193, 385, 320, 416
-0.998148, 21, 65, 52, 320
-0.998154, 65, 429, 192, 460
-0.99816, 117, 1, 148, 256
-0.99825, 1, 1, 128, 32
-0.998257, 177, 437, 304, 468
-0.998319, 69, 129, 100, 384
-0.99837, 57, 93, 120, 108
-0.998373, 293, 257, 324, 500
-0.99838, 33, 89, 96, 104
-0.998395, 25, 95, 88, 110
-0.998407, 33, 73, 96, 88
-0.998417, 33, 101, 96, 116
-0.998431, 233, 269, 296, 284
-0.998434, 117, 485, 148, 500
-0.998434, 45, 65, 76, 80
-0.998434, 281, 149, 312, 164
-0.998434, 277, 209, 308, 224
-0.998435, 93, 253, 124, 268
-0.998435, 249, 251, 312, 266
-0.998435, 109, 259, 140, 274
-0.998436, 277, 157, 308, 172
-0.998436, 81, 407, 112, 422
-0.998436, 49, 109, 80, 124
-0.998436, 97, 209, 128, 224
-0.998437, 89, 275, 120, 290
-0.998437, 53, 99, 84, 114
-0.998437, 37, 93, 68, 108
-0.998438, 149, 333, 180, 348
-0.998439, 281, 219, 312, 234
-0.998439, 37, 87, 68, 102
-0.99844, 9, 407, 40, 422
-0.99844, 77, 83, 108, 98
-0.998441, 137, 275, 168, 290
-0.998441, 33, 83, 96, 98
-0.998441, 149, 195, 180, 210
-0.998442, 25, 121, 88, 136
-0.998442, 113, 271, 144, 286
-0.998442, 93, 225, 124, 240
-0.998443, 269, 237, 300, 252
-0.998443, 93, 85, 124, 100
-0.998444, 73, 9, 104, 24
-0.998444, 93, 293, 124, 308
-0.998444, 49, 115, 80, 130
-0.998446, 117, 227, 148, 242
-0.998446, 145, 339, 208, 354
-0.998446, 41, 125, 72, 140
-0.998447, 61, 143, 92, 158
-0.998448, 89, 33, 120, 48
-0.998448, 25, 127, 88, 142
-0.998448, 105, 183, 136, 198
-0.998448, 109, 465, 140, 480
-0.998449, 69, 187, 100, 202
-0.998449, 137, 341, 168, 356
-0.998449, 17, 141, 80, 156
-0.99845, 257, 187, 320, 202
-0.99845, 189, 309, 220, 324
-0.998451, 67, 1, 82, 128
-0.998451, 225, 267, 256, 282
-0.998454, 113, 479, 144, 494
-0.998454, 65, 87, 96, 102
-0.998456, 277, 203, 308, 218
-0.998456, 177, 317, 208, 332
-0.998456, 153, 333, 216, 348
-0.998457, 25, 133, 88, 148
-0.998457, 269, 263, 300, 278
-0.998458, 197, 289, 228, 304
-0.998458, 67, 81, 82, 208
-0.998459, 41, 77, 72, 92
-0.998459, 241, 263, 304, 278
-0.99846, 169, 323, 200, 338
-0.998461, 133, 227, 164, 242
-0.998461, 269, 255, 300, 270
-0.998461, 93, 99, 124, 114
-0.998463, 237, 249, 268, 264
-0.998463, 201, 289, 264, 304
-0.998464, 265, 245, 296, 260
-0.998465, 89, 247, 120, 262
-0.998465, 33, 101, 64, 116
-0.998466, 97, 25, 128, 40
-0.998467, 25, 189, 56, 204
-0.998467, 49, 55, 80, 70
-0.998467, 17, 149, 80, 164
-0.998467, 97, 483, 128, 498
-0.998468, 89, 401, 120, 416
-0.998468, 33, 67, 96, 82
-0.99847, 121, 189, 184, 204
-0.99847, 97, 275, 160, 290
-0.998471, 249, 275, 280, 290
-0.998471, 277, 1, 308, 256
-0.998471, 165, 193, 196, 208
-0.998471, 221, 287, 252, 302
-0.998472, 249, 257, 312, 272
-0.998472, 61, 137, 92, 152
-0.998472, 65, 77, 128, 92
-0.998474, 41, 49, 104, 64
-0.998474, 101, 411, 132, 426
-0.998475, 261, 187, 292, 202
-0.998475, 25, 151, 56, 166
-0.998476, 49, 39, 112, 54
-0.998477, 41, 149, 72, 164
-0.998479, 61, 123, 92, 138
-0.998479, 33, 115, 64, 130
-0.998479, 41, 131, 72, 146
-0.99848, 113, 277, 144, 292
-0.998481, 41, 61, 104, 76
-0.998481, 273, 197, 304, 212
-0.998482, 25, 111, 88, 126
-0.998486, 197, 303, 228, 318
-0.998486, 121, 181, 184, 196
-0.998486, 121, 75, 152, 90
-0.998486, 297, 259, 327, 274
-0.998487, 129, 359, 160, 374
-0.998488, 105, 97, 136, 112
-0.998488, 165, 115, 196, 130
-0.998488, 117, 365, 148, 380
-0.998488, 117, 371, 148, 386
-0.998489, 49, 33, 112, 48
-0.998489, 41, 55, 104, 70
-0.99849, 29, 141, 60, 156
-0.998491, 61, 31, 92, 46
-0.998491, 97, 183, 160, 198
-0.998492, 33, 107, 64, 122
-0.998493, 177, 93, 208, 108
-0.998494, 109, 459, 140, 474
-0.998495, 53, 45, 84, 60
-0.998496, 25, 183, 56, 198
-0.998498, 233, 255, 264, 270
-0.998499, 117, 87, 148, 102
-0.998499, 257, 269, 288, 284
-0.998499, 121, 355, 184, 370
-0.998499, 65, 87, 128, 102
-0.9985, 65, 95, 96, 110
-0.9985, 105, 451, 136, 466
-0.998503, 281, 263, 312, 278
-0.998504, 153, 119, 216, 134
-0.998504, 57, 37, 88, 52
-0.998505, 57, 27, 120, 42
-0.998505, 165, 329, 196, 344
-0.998506, 29, 125, 60, 140
-0.998506, 105, 83, 136, 98
-0.998506, 29, 135, 60, 150
-0.998507, 125, 277, 156, 292
-0.998509, 57, 101, 120, 116
-0.998509, 25, 421, 88, 436
-0.998511, 41, 139, 72, 154
-0.998512, 129, 349, 192, 364
-0.998513, 209, 281, 240, 296
-0.998513, 169, 319, 232, 334
-0.998514, 81, 189, 144, 204
-0.998515, 97, 77, 160, 92
-0.998518, 265, 227, 327, 242
-0.998519, 81, 93, 144, 108
-0.99852, 217, 275, 280, 290
-0.998522, 145, 325, 208, 340
-0.998523, 25, 177, 56, 192
-0.998523, 137, 347, 168, 362
-0.998523, 257, 193, 320, 208
-0.998524, 17, 155, 80, 170
-0.998526, 101, 77, 132, 92
-0.998526, 1, 447, 64, 462
-0.998526, 33, 183, 96, 198
-0.998526, 65, 107, 96, 122
-0.998528, 145, 187, 208, 202
-0.998529, 145, 189, 176, 204
-0.998529, 149, 345, 180, 360
-0.998531, 73, 411, 136, 426
-0.998531, 161, 113, 224, 128
-0.998533, 57, 21, 120, 36
-0.998533, 57, 189, 120, 204
-0.998534, 61, 113, 92, 128
-0.998535, 249, 181, 312, 196
-0.998537, 25, 157, 56, 172
-0.99854, 105, 475, 168, 490
-0.99854, 153, 181, 184, 196
-0.99854, 257, 245, 320, 260
-0.99854, 33, 171, 96, 186
-0.99854, 17, 197, 80, 212
-0.99854, 49, 129, 112, 144
-0.99854, 225, 253, 288, 268
-0.998541, 249, 233, 312, 248
-0.998542, 81, 99, 144, 114
-0.998543, 25, 411, 88, 426
-0.998543, 57, 15, 120, 30
-0.998544, 65, 71, 128, 86
-0.998545, 25, 169, 56, 184
-0.998546, 113, 89, 176, 104
-0.998546, 209, 281, 272, 296
-0.998546, 5, 447, 36, 462
-0.998547, 145, 181, 208, 196
-0.998547, 65, 177, 128, 192
-0.998547, 73, 41, 136, 56
-0.998547, 281, 253, 312, 268
-0.998548, 113, 223, 176, 238
-0.998548, 149, 339, 180, 354
-0.998548, 113, 365, 176, 380
-0.998549, 265, 199, 327, 214
-0.998549, 77, 77, 108, 92
-0.998549, 97, 269, 160, 284
-0.99855, 237, 269, 268, 284
-0.998551, 101, 275, 132, 290
-0.998551, 105, 373, 168, 388
-0.998551, 275, 145, 290, 272
-0.998552, 49, 139, 112, 154
-0.998553, 161, 335, 192, 350
-0.998555, 273, 231, 304, 246
-0.998555, 17, 191, 80, 206
-0.998557, 73, 251, 136, 266
-0.998558, 81, 31, 144, 46
-0.998558, 249, 259, 280, 274
-0.998558, 17, 165, 80, 180
-0.998558, 17, 177, 80, 192
-0.998559, 25, 163, 56, 178
-0.998559, 97, 465, 160, 480
-0.998561, 25, 431, 88, 446
-0.998563, 217, 263, 280, 278
-0.998564, 17, 203, 80, 218
-0.998565, 265, 239, 327, 254
-0.998565, 81, 257, 144, 272
-0.998568, 73, 1, 136, 16
-0.998569, 89, 293, 152, 308
-0.998569, 201, 295, 264, 310
-0.998569, 265, 155, 327, 170
-0.99857, 137, 85, 200, 100
-0.99857, 121, 343, 184, 358
-0.998571, 65, 9, 128, 24
-0.998571, 105, 481, 168, 496
-0.998572, 265, 263, 327, 278
-0.998572, 81, 471, 144, 486
-0.998572, 221, 279, 252, 294
-0.998572, 97, 459, 160, 474
-0.998573, 49, 107, 112, 122
-0.998575, 73, 183, 136, 198
-0.998575, 89, 299, 152, 314
-0.998576, 17, 209, 80, 224
-0.998579, 77, 65, 92, 192
-0.99858, 177, 283, 240, 298
-0.99858, 185, 307, 248, 322
-0.99858, 121, 275, 184, 290
-0.998581, 49, 119, 112, 134
-0.998582, 121, 195, 184, 210
-0.998582, 257, 251, 288, 266
-0.998583, 89, 71, 152, 86
-0.998583, 221, 273, 252, 288
-0.998584, 81, 169, 144, 184
-0.998585, 133, 353, 164, 368
-0.998585, 265, 205, 327, 220
-0.998585, 121, 77, 184, 92
-0.998585, 113, 235, 176, 250
-0.998586, 205, 295, 236, 310
-0.998587, 65, 417, 128, 432
-0.998587, 73, 47, 136, 62
-0.998587, 73, 405, 136, 420
-0.998587, 265, 161, 327, 176
-0.998588, 17, 215, 80, 230
-0.998588, 89, 87, 152, 102
-0.998588, 169, 193, 232, 208
-0.998588, 73, 219, 136, 234
-0.998589, 209, 269, 272, 284
-0.998589, 65, 101, 96, 116
-0.998589, 89, 17, 104, 144
-0.99859, 81, 213, 144, 228
-0.998591, 113, 249, 176, 264
-0.998591, 153, 125, 216, 140
-0.998592, 121, 145, 184, 160
-0.998593, 105, 261, 168, 276
-0.998593, 73, 275, 136, 290
-0.998594, 105, 175, 168, 190
-0.998594, 97, 229, 160, 244
-0.998598, 277, 225, 308, 240
-0.9986, 39, 65, 54, 192
-0.998605, 209, 287, 240, 302
-0.998608, 97, 91, 128, 106
-0.998611, 77, 93, 108, 108
-0.998615, 93, 145, 108, 272
-0.998621, 1, 257, 32, 500
-0.998624, 237, 263, 268, 278
-0.998624, 265, 177, 280, 304
-0.998642, 55, 33, 70, 160
-0.998661, 83, 17, 98, 144
-0.998686, 45, 49, 60, 176
-0.99869, 61, 17, 76, 144
-0.998707, 159, 321, 174, 448
-0.99872, 159, 97, 174, 224
-0.998722, 153, 129, 168, 256
-0.998722, 273, 193, 288, 320
-0.998727, 223, 257, 238, 384
-0.998735, 99, 145, 114, 272
-0.998755, 57, 225, 88, 480
-0.998764, 167, 305, 182, 432
-0.99877, 77, 17, 92, 144
-0.998777, 107, 1, 122, 128
-0.998778, 283, 113, 298, 240
-0.99878, 33, 113, 48, 240
-0.998781, 259, 225, 274, 352
-0.998782, 109, 177, 124, 304
-0.998788, 117, 353, 132, 480
-0.998798, 17, 369, 32, 496
-0.998802, 247, 241, 262, 368
-0.998808, 95, 17, 110, 144
-0.998822, 205, 273, 220, 400
-0.998827, 17, 257, 48, 500
-0.998827, 145, 129, 160, 256
-0.998833, 101, 1, 116, 128
-0.998834, 149, 321, 164, 448
-0.998851, 153, 177, 168, 304
-0.998858, 129, 337, 144, 464
-0.998865, 87, 145, 102, 272
-0.998865, 233, 257, 248, 384
-0.998866, 29, 257, 60, 500
-0.998874, 177, 305, 192, 432
-0.998876, 265, 257, 296, 500
-0.998876, 83, 65, 98, 192
-0.998879, 117, 209, 132, 336
-0.99888, 169, 97, 184, 224
-0.998888, 147, 177, 162, 304
-0.998895, 139, 337, 154, 464
-0.998899, 111, 369, 126, 496
-0.998918, 13, 161, 44, 416
-0.998927, 123, 321, 138, 448
-0.998928, 313, 241, 327, 368
-0.998933, 281, 209, 296, 336
-0.998936, 109, 305, 124, 432
-0.998939, 193, 289, 208, 416
-0.998939, 87, 193, 102, 320
-0.99894, 215, 257, 230, 384
-0.998944, 183, 305, 198, 432
-0.998944, 81, 113, 96, 240
-0.998948, 139, 129, 154, 256
-0.998949, 5, 369, 20, 496
-0.998957, 123, 129, 138, 256
-0.998958, 305, 241, 320, 368
-0.99896, 265, 225, 280, 352
-0.998964, 95, 193, 110, 320
-0.998966, 103, 241, 118, 368
-0.998977, 125, 65, 140, 192
-0.998979, 241, 241, 256, 368
-0.99898, 61, 97, 76, 224
-0.998987, 253, 241, 268, 368
-0.99899, 103, 305, 118, 432
-0.998994, 147, 65, 162, 192
-0.998999, 103, 369, 118, 496
-0.999005, 163, 145, 178, 272
-0.999005, 255, 177, 270, 304
-0.999005, 89, 65, 104, 192
-0.999014, 105, 129, 120, 256
-0.99902, 123, 177, 138, 304
-0.999025, 287, 177, 302, 304
-0.999033, 97, 369, 112, 496
-0.999037, 249, 177, 264, 304
-0.999041, 161, 257, 176, 384
-0.999042, 139, 81, 154, 208
-0.999044, 153, 81, 168, 208
-0.999049, 199, 289, 214, 416
-0.999053, 111, 225, 126, 352
-0.999056, 131, 65, 146, 192
-0.999061, 163, 49, 178, 176
-0.999062, 299, 1, 314, 128
-0.999071, 101, 193, 116, 320
-0.999074, 129, 129, 144, 256
-0.99908, 45, 97, 60, 224
-0.999093, 103, 49, 118, 176
-0.999097, 45, 257, 76, 500
-0.999107, 293, 1, 308, 128
-0.99911, 117, 65, 132, 192
-0.999115, 23, 369, 38, 496
-0.999118, 119, 273, 134, 400
-0.999126, 299, 225, 314, 352
-0.99913, 95, 305, 110, 432
-0.999137, 177, 49, 192, 176
-0.999138, 111, 129, 126, 256
-0.999139, 67, 129, 82, 256
-0.99914, 169, 353, 184, 480
-0.999147, 95, 65, 110, 192
-0.999148, 11, 369, 26, 496
-0.999148, 169, 17, 184, 144
-0.999153, 155, 273, 170, 400
-0.999155, 117, 129, 132, 256
-0.999156, 133, 177, 148, 304
-0.999157, 81, 177, 96, 304
-0.999169, 175, 97, 190, 224
-0.99917, 281, 161, 296, 288
-0.999179, 293, 161, 308, 288
-0.99918, 141, 177, 156, 304
-0.999181, 61, 145, 76, 272
-0.999183, 75, 113, 90, 240
-0.999188, 131, 273, 146, 400
-0.999192, 143, 289, 158, 416
-0.99921, 185, 33, 200, 160
-0.999215, 27, 129, 42, 256
-0.999219, 193, 49, 208, 176
-0.999237, 179, 257, 194, 384
-0.99924, 289, 97, 304, 224
-0.999241, 33, 65, 48, 192
-0.999241, 9, 33, 40, 288
-0.999243, 169, 257, 184, 384
-0.999245, 305, 33, 320, 160
-0.999247, 147, 369, 162, 496
-0.999252, 243, 1, 258, 128
-0.999256, 73, 353, 88, 480
-0.999261, 73, 161, 88, 288
-0.999266, 185, 81, 200, 208
-0.999267, 153, 33, 168, 160
-0.999269, 87, 369, 102, 496
-0.99927, 149, 257, 164, 384
-0.999276, 295, 97, 310, 224
-0.999276, 123, 369, 138, 496
-0.999613, 85, 63, 100, 78
-0.999613, 157, 341, 172, 356
-0.999614, 283, 253, 298, 268
-0.999615, 177, 89, 192, 104
-0.999615, 93, 395, 108, 410
-0.999615, 239, 263, 254, 278
-0.999616, 215, 279, 230, 294
-0.999616, 119, 411, 134, 426
-0.999617, 31, 145, 46, 160
-0.999617, 123, 261, 138, 276
-0.999617, 229, 267, 244, 282
-0.999617, 137, 227, 152, 242
-0.999617, 145, 357, 160, 372
-0.999617, 117, 451, 132, 466
-0.999617, 99, 85, 114, 100
-0.999617, 215, 293, 230, 308
-0.999618, 95, 189, 110, 204
-0.999619, 121, 71, 136, 86
-0.99962, 305, 467, 320, 482
-0.999621, 51, 57, 66, 72
-0.999622, 173, 195, 188, 210
-0.999622, 275, 257, 290, 272
-0.999623, 265, 245, 280, 260
-0.999624, 281, 263, 296, 278
-0.999626, 75, 179, 90, 194
-0.999627, 151, 129, 166, 144
-0.999629, 279, 271, 294, 286
-0.99963, 253, 275, 268, 290
-0.99963, 107, 187, 122, 202
-0.999631, 75, 185, 90, 200
-0.999631, 33, 137, 48, 152
-0.999631, 233, 261, 248, 276
-0.999632, 313, 457, 327, 472
-0.999634, 115, 75, 130, 90
-0.999634, 279, 201, 294, 216
-0.999634, 101, 189, 116, 204
-0.999634, 117, 259, 132, 274
-0.999634, 43, 81, 58, 96
-0.999635, 31, 153, 46, 168
-0.999636, 73, 113, 88, 128
-0.999636, 289, 257, 304, 272
-0.999636, 107, 83, 122, 98
-0.999636, 171, 113, 186, 128
-0.999638, 117, 371, 132, 386
-0.999639, 63, 139, 78, 154
-0.999641, 45, 75, 60, 90
-0.999641, 65, 107, 80, 122
-0.999641, 227, 283, 242, 298
-0.999641, 143, 349, 158, 364
-0.999641, 107, 253, 122, 268
-0.999643, 305, 473, 320, 488
-0.999643, 155, 183, 170, 198
-0.999643, 115, 445, 130, 460
-0.999643, 257, 255, 272, 270
-0.999644, 123, 365, 138, 380
-0.999644, 265, 263, 280, 278
-0.999645, 77, 5, 92, 20
-0.999645, 39, 93, 54, 108
-0.999648, 163, 117, 178, 132
-0.999648, 109, 445, 124, 460
-0.999648, 289, 251, 304, 266
-0.99965, 107, 75, 122, 90
-0.99965, 21, 405, 36, 420
-0.99965, 53, 51, 68, 66
-0.999651, 275, 235, 290, 250
-0.999654, 57, 43, 72, 58
-0.999654, 127, 359, 142, 374
-0.999654, 261, 197, 276, 212
-0.999655, 63, 133, 78, 148
-0.999656, 117, 277, 132, 292
-0.999656, 35, 115, 50, 130
-0.999657, 125, 77, 140, 92
-0.999658, 183, 91, 198, 106
-0.999658, 81, 93, 96, 108
-0.99966, 197, 305, 212, 320
-0.999661, 309, 261, 324, 276
-0.999661, 37, 99, 52, 114
-0.999661, 59, 147, 74, 162
-0.999662, 165, 195, 180, 210
-0.999662, 95, 93, 110, 108
-0.999663, 129, 275, 144, 290
-0.999666, 67, 101, 82, 116
-0.999667, 265, 187, 280, 202
-0.999667, 155, 335, 170, 350
-0.999669, 299, 479, 314, 494
-0.999669, 191, 309, 206, 324
-0.999672, 179, 319, 194, 334
-0.999673, 101, 275, 116, 290
-0.999675, 37, 107, 52, 122
-0.999675, 267, 201, 282, 216
-0.999675, 79, 77, 94, 92
-0.999678, 299, 255, 314, 270
-0.999678, 229, 273, 244, 288
-0.999679, 185, 313, 200, 328
-0.999681, 117, 95, 132, 110
-0.999682, 71, 15, 86, 30
-0.999683, 107, 275, 122, 290
-0.999683, 81, 185, 96, 200
-0.999685, 75, 83, 90, 98
-0.999685, 101, 91, 116, 106
-0.999685, 65, 27, 80, 42
-0.999686, 71, 89, 86, 104
-0.999689, 149, 351, 164, 366
-0.999691, 219, 285, 234, 300
-0.999691, 241, 269, 256, 284
-0.999692, 281, 223, 296, 238
-0.999694, 251, 257, 266, 272
-0.999695, 169, 325, 184, 340
-0.999695, 63, 125, 78, 140
-0.999697, 59, 37, 74, 52
-0.999697, 117, 81, 132, 96
-0.999698, 149, 185, 164, 200
-0.999699, 139, 275, 154, 290
-0.999703, 67, 113, 82, 128
-0.999704, 69, 95, 84, 110
-0.999706, 235, 269, 250, 284
-0.999708, 251, 263, 266, 278
-0.999709, 205, 297, 220, 312
-0.999716, 135, 351, 150, 366
-0.999716, 161, 331, 176, 346
-0.999718, 65, 119, 80, 134
-0.999723, 151, 341, 166, 356
-0.999731, 259, 249, 274, 264
-0.999732, 111, 91, 126, 106
-0.999732, 245, 263, 260, 278
-0.999738, 277, 229, 292, 244
-0.999739, 163, 177, 178, 192
-0.999752, 221, 279, 236, 294
-0.999761, 209, 291, 224, 306
-0.999776, 213, 285, 228, 300
-1.00061, 1, 129, 32, 384
