1979
-0.598447, 1, 33, 500, 288
-0.644726, 1, 129, 500, 375
-0.704269, 257, 1, 500, 375
-0.721141, 1, 1, 500, 375
-0.782255, 257, 1, 500, 256
-0.805601, 257, 97, 500, 352
-0.83969, 161, 1, 416, 375
-0.850658, 353, 33, 480, 288
-0.863363, 337, 1, 464, 375
-0.890278, 33, 1, 288, 375
-0.897597, 65, 129, 320, 375
-0.913009, 305, 65, 432, 320
-0.914298, 161, 129, 416, 375
-0.926244, 161, 1, 416, 256
-0.931541, 337, 81, 464, 208
-0.936421, 257, 113, 500, 240
-0.939511, 81, 129, 208, 375
-0.939766, 337, 33, 464, 160
-0.939828, 1, 129, 500, 256
-0.939964, 273, 1, 400, 375
-0.941902, 401, 33, 464, 160
-0.943691, 385, 81, 448, 208
-0.945537, 353, 129, 480, 375
-0.945952, 257, 33, 500, 160
-0.946393, 257, 65, 384, 320
-0.947209, 337, 97, 400, 224
-0.948231, 337, 121, 400, 184
-0.949801, 377, 33, 440, 160
-0.950691, 1, 177, 500, 304
-0.952339, 361, 81, 424, 208
-0.952751, 401, 49, 464, 112
-0.953314, 1, 17, 500, 144
-0.953645, 129, 129, 256, 375
-0.956953, 97, 1, 224, 375
-0.958325, 337, 129, 464, 256
-0.959055, 1, 81, 500, 208
-0.959199, 409, 81, 472, 208
-0.960139, 377, 49, 440, 112
-0.96188, 225, 1, 352, 375
-0.961931, 257, 161, 500, 288
-0.962565, 425, 145, 488, 272
-0.963118, 401, 73, 464, 136
-0.963546, 425, 161, 488, 224
-0.964344, 377, 89, 440, 152
-0.965227, 145, 1, 272, 375
-0.965373, 65, 161, 320, 288
-0.965779, 361, 129, 424, 192
-0.966724, 177, 129, 304, 375
-0.966827, 413, 49, 444, 112
-0.968091, 273, 97, 400, 224
-0.968609, 413, 33, 444, 160
-0.968886, 345, 97, 408, 160
-0.969006, 425, 33, 488, 160
-0.96905, 1, 225, 500, 352
-0.969848, 345, 145, 408, 272
-0.970471, 385, 1, 448, 256
-0.970544, 313, 97, 376, 224
-0.970657, 161, 97, 416, 224
-0.972048, 113, 33, 240, 288
-0.972081, 349, 97, 380, 224
-0.972748, 425, 65, 488, 128
-0.972774, 353, 33, 416, 160
-0.97309, 1, 1, 128, 375
-0.973144, 409, 1, 472, 256
-0.973178, 369, 113, 400, 176
-0.973486, 337, 97, 464, 160
-0.973777, 433, 97, 496, 224
-0.973924, 401, 25, 464, 88
-0.974025, 345, 153, 408, 216
-0.974105, 357, 129, 388, 192
-0.974171, 361, 1, 424, 256
-0.97446, 161, 161, 416, 288
-0.974623, 361, 97, 392, 224
-0.974735, 401, 145, 464, 272
-0.974771, 289, 145, 416, 272
-0.974792, 401, 161, 464, 224
-0.974934, 401, 33, 432, 160
-0.974965, 49, 1, 176, 375
-0.975097, 369, 129, 432, 256
-0.975155, 337, 49, 464, 112
-0.976164, 1, 241, 256, 368
-0.976326, 413, 73, 444, 136
-0.976333, 337, 145, 464, 208
-0.976381, 353, 97, 384, 160
-0.976399, 321, 145, 384, 272
-0.977086, 33, 97, 160, 352
-0.977385, 385, 137, 448, 200
-0.977468, 429, 161, 460, 224
-0.977668, 425, 65, 456, 128
-0.977673, 337, 73, 464, 136
-0.977922, 425, 41, 488, 104
-0.978085, 401, 97, 464, 160
-0.978219, 413, 81, 444, 208
-0.978486, 313, 129, 376, 192
-0.979043, 425, 33, 456, 160
-0.979728, 161, 33, 288, 288
-0.980031, 441, 161, 472, 224
-0.980074, 401, 49, 432, 112
-0.980078, 321, 121, 448, 184
-0.980093, 361, 25, 424, 88
-0.980282, 345, 121, 376, 184
-0.980298, 373, 97, 404, 224
-0.980305, 289, 17, 416, 144
-0.98057, 337, 97, 400, 352
-0.981168, 425, 185, 488, 248
-0.981876, 49, 1, 176, 256
-0.982288, 453, 161, 484, 224
-0.982411, 321, 169, 384, 232
-0.982653, 113, 161, 240, 288
-0.983132, 401, 81, 432, 208
-0.983404, 397, 73, 428, 136
-0.983414, 393, 97, 456, 352
-0.983602, 465, 161, 496, 224
-0.983674, 193, 177, 320, 304
-0.983866, 425, 81, 456, 208
-0.983867, 413, 25, 444, 88
-0.984029, 185, 161, 248, 288
-0.984123, 329, 49, 392, 176
-0.98436, 453, 145, 484, 272
-0.984559, 365, 153, 396, 216
-0.984581, 273, 129, 400, 192
-0.984637, 337, 25, 464, 88
-0.984644, 429, 145, 460, 272
-0.984749, 353, 73, 416, 136
-0.984947, 401, 1, 464, 375
-0.98507, 425, 137, 488, 200
-0.985254, 465, 145, 496, 272
-0.985269, 441, 145, 472, 272
-0.985345, 369, 1, 432, 375
-0.985358, 321, 97, 384, 160
-0.985555, 209, 33, 336, 288
-0.985621, 49, 241, 176, 368
-0.985887, 409, 97, 440, 160
-0.985937, 97, 209, 352, 336
-0.986038, 369, 177, 496, 304
-0.98605, 97, 113, 224, 240
-0.986257, 369, 121, 496, 184
-0.986399, 361, 97, 424, 352
-0.986409, 353, 49, 416, 112
-0.986724, 289, 153, 416, 216
-0.986822, 425, 41, 456, 104
-0.98684, 365, 145, 396, 272
-0.987134, 353, 145, 384, 272
-0.987184, 433, 33, 496, 288
-0.987365, 365, 89, 396, 152
-0.987381, 381, 121, 412, 184
-0.987554, 353, 169, 480, 232
-0.987598, 225, 161, 288, 288
-0.987678, 241, 145, 368, 272
-0.987852, 65, 113, 320, 240
-0.988115, 377, 145, 408, 208
-0.988134, 337, 97, 368, 224
-0.988212, 113, 81, 176, 208
-0.988299, 65, 193, 192, 320
-0.988334, 273, 105, 400, 168
-0.988381, 353, 153, 384, 216
-0.988421, 417, 161, 448, 224
-0.988437, 437, 17, 468, 144
-0.988463, 161, 33, 416, 160
-0.988519, 385, 65, 416, 192
-0.988672, 445, 97, 476, 224
-0.988697, 341, 145, 372, 208
-0.988851, 81, 177, 144, 304
-0.989017, 297, 153, 360, 216
-0.989085, 337, 125, 400, 156
-0.989114, 401, 57, 464, 88
-0.989244, 401, 69, 464, 100
-0.989274, 329, 137, 392, 168
-0.989288, 425, 89, 488, 152
-0.989575, 337, 113, 400, 144
-0.989681, 105, 281, 168, 344
-0.989823, 377, 89, 408, 152
-0.989845, 137, 289, 200, 352
-0.989871, 401, 85, 464, 116
-0.989905, 377, 73, 440, 104
-0.990143, 105, 193, 168, 320
-0.990256, 377, 53, 440, 84
-0.990267, 361, 125, 424, 156
-0.990282, 361, 49, 392, 176
-0.990389, 377, 85, 440, 116
-0.990393, 433, 169, 496, 200
-0.990396, 425, 89, 456, 152
-0.990415, 389, 17, 420, 144
-0.990472, 329, 149, 392, 180
-0.990516, 233, 177, 296, 240
-0.99055, 401, 45, 464, 76
-0.990607, 397, 97, 428, 160
-0.990715, 145, 161, 208, 288
-0.990826, 289, 73, 416, 136
-0.99095, 353, 137, 416, 168
-0.990954, 425, 17, 488, 80
-0.991022, 377, 97, 440, 128
-0.991194, 401, 185, 464, 248
-0.991319, 361, 149, 424, 180
-0.991327, 397, 25, 428, 88
-0.991368, 145, 113, 272, 240
-0.991388, 73, 193, 136, 256
-0.991415, 401, 97, 464, 128
-0.991444, 425, 65, 488, 96
-0.991447, 373, 49, 404, 176
-0.991504, 425, 53, 488, 84
-0.991509, 209, 177, 272, 240
-0.991517, 425, 1, 488, 375
-0.991594, 345, 161, 408, 192
-0.991605, 389, 49, 420, 112
-0.991729, 289, 49, 416, 112
-0.991789, 313, 117, 376, 148
-0.991827, 425, 81, 488, 112
-0.991849, 313, 161, 376, 192
-0.991874, 409, 169, 472, 200
-0.991896, 241, 153, 368, 216
-0.991898, 113, 89, 176, 152
-0.991951, 417, 129, 448, 256
-0.991957, 361, 41, 424, 72
-0.991978, 177, 169, 304, 232
-0.991999, 145, 209, 272, 336
-0.992001, 457, 97, 488, 224
-0.992056, 385, 117, 448, 148
-0.992062, 385, 129, 448, 160
-0.992063, 81, 241, 144, 368
-0.992071, 353, 101, 416, 132
-0.99216, 1, 225, 128, 352
-0.99222, 321, 173, 384, 204
-0.992245, 441, 185, 472, 248
-0.99227, 385, 145, 448, 176
-0.992276, 425, 189, 488, 220
-0.992292, 413, 53, 444, 84
-0.992294, 361, 113, 424, 144
-0.9923, 425, 41, 488, 72
-0.992314, 373, 121, 404, 152
-0.992321, 401, 181, 464, 212
-0.992377, 401, 33, 464, 64
-0.992388, 413, 73, 444, 104
-0.992404, 365, 137, 396, 168
-0.992419, 349, 117, 380, 148
-0.992571, 413, 85, 444, 116
-0.992572, 369, 161, 432, 192
-0.992613, 357, 105, 388, 136
-0.992659, 341, 161, 372, 288
-0.992691, 353, 53, 416, 84
-0.992705, 193, 209, 256, 336
-0.992738, 453, 185, 484, 248
-0.992749, 1, 1, 128, 256
-0.992813, 185, 169, 248, 232
-0.992816, 397, 69, 428, 100
-0.992822, 425, 73, 456, 104
-0.992838, 377, 133, 408, 164
-0.992846, 425, 85, 456, 116
-0.992861, 397, 81, 428, 112
-0.992878, 353, 129, 384, 160
-0.992879, 425, 157, 488, 188
-0.992897, 445, 169, 476, 200
-0.99291, 429, 185, 460, 248
-0.992919, 337, 1, 464, 64
-0.992924, 257, 49, 500, 112
-0.992932, 401, 157, 464, 188
-0.992934, 397, 57, 428, 88
-0.992943, 353, 153, 384, 184
-0.992946, 429, 165, 460, 196
-0.99297, 329, 101, 392, 132
-0.992988, 381, 145, 412, 176
-0.993, 369, 109, 400, 140
-0.993029, 413, 97, 444, 128
-0.993036, 425, 93, 488, 124
-0.993039, 313, 129, 376, 375
-0.993043, 461, 169, 492, 200
-0.993061, 121, 289, 184, 320
-0.993063, 413, 41, 444, 72
-0.993078, 419, 49, 434, 112
-0.99312, 429, 61, 460, 92
-0.993125, 353, 169, 384, 200
-0.993166, 341, 169, 372, 232
-0.993177, 365, 157, 396, 188
-0.993187, 113, 113, 176, 176
-0.993189, 305, 149, 368, 180
-0.993236, 429, 177, 460, 208
-0.993245, 353, 65, 416, 96
-0.993249, 341, 129, 372, 160
-0.99326, 137, 305, 200, 336
-0.993284, 401, 93, 432, 124
-0.993297, 341, 161, 372, 192
-0.993309, 353, 81, 416, 112
-0.993326, 345, 173, 408, 204
-0.993329, 397, 41, 428, 72
-0.993382, 353, 141, 384, 172
-0.993384, 417, 165, 448, 196
-0.993399, 393, 1, 456, 64
-0.993402, 129, 169, 256, 232
-0.993402, 437, 41, 468, 104
-0.993404, 389, 133, 420, 164
-0.993416, 445, 189, 476, 220
-0.993421, 429, 49, 460, 80
-0.993424, 329, 1, 392, 256
-0.993432, 337, 145, 368, 176
-0.993447, 297, 129, 360, 160
-0.993448, 377, 29, 440, 60
-0.993453, 417, 177, 448, 208
-0.993466, 465, 185, 496, 216
-0.993474, 113, 97, 176, 128
-0.993476, 425, 97, 456, 128
-0.993486, 73, 209, 136, 240
-0.99351, 49, 273, 176, 336
-0.993517, 377, 157, 408, 188
-0.993527, 365, 169, 396, 200
-0.993529, 105, 177, 168, 208
-0.993529, 341, 177, 372, 208
-0.993542, 425, 37, 456, 68
-0.99355, 337, 117, 368, 148
-0.993552, 377, 93, 408, 124
-0.993554, 233, 181, 296, 212
-0.993555, 113, 121, 176, 152
-0.993555, 329, 161, 360, 192
-0.993557, 89, 233, 152, 264
-0.993558, 141, 281, 172, 312
-0.993562, 433, 189, 464, 220
-0.993568, 385, 121, 416, 152
-0.993572, 97, 277, 160, 308
-0.993577, 345, 105, 376, 136
-0.993577, 289, 161, 352, 192
-0.993598, 141, 293, 172, 324
-0.993613, 225, 145, 480, 208
-0.993619, 121, 285, 152, 316
-0.993619, 377, 173, 440, 204
-0.993626, 217, 161, 248, 288
-0.993629, 397, 121, 428, 152
-0.993632, 193, 201, 320, 264
-0.993635, 417, 153, 448, 184
-0.993637, 367, 129, 382, 192
-0.993659, 233, 209, 296, 240
-0.993666, 429, 153, 460, 184
-0.993675, 193, 173, 256, 204
-0.99368, 413, 109, 444, 140
-0.993691, 461, 157, 492, 188
-0.993692, 113, 137, 176, 168
-0.993692, 121, 273, 152, 304
-0.993695, 409, 109, 472, 140
-0.993704, 393, 109, 424, 140
-0.993704, 357, 93, 388, 124
-0.993705, 133, 305, 164, 336
-0.993705, 121, 161, 184, 192
-0.993706, 385, 57, 416, 88
-0.993713, 81, 189, 144, 220
-0.99372, 81, 221, 144, 252
-0.993721, 441, 157, 472, 188
-0.993721, 329, 129, 360, 160
-0.993722, 65, 209, 192, 272
-0.993724, 437, 73, 468, 104
-0.993744, 297, 105, 360, 136
-0.993746, 413, 29, 444, 60
-0.993747, 41, 225, 104, 256
-0.993747, 233, 201, 296, 264
-0.993754, 289, 25, 416, 88
-0.993755, 105, 217, 168, 248
-0.993769, 345, 1, 408, 375
-0.993772, 137, 277, 200, 308
-0.993776, 89, 185, 120, 216
-0.993778, 393, 145, 424, 176
-0.993778, 329, 173, 360, 204
-0.993781, 385, 69, 416, 100
-0.993783, 149, 313, 180, 344
-0.993784, 325, 149, 356, 180
-0.993784, 217, 173, 248, 204
-0.993785, 325, 113, 356, 144
-0.993787, 137, 313, 200, 375
-0.993788, 465, 185, 496, 248
-0.993791, 333, 101, 364, 132
-0.993793, 437, 37, 468, 68
-0.993794, 113, 85, 176, 116
-0.993794, 441, 61, 472, 92
-0.993799, 425, 17, 456, 80
-0.993802, 105, 301, 168, 332
-0.993802, 141, 97, 172, 128
-0.993806, 397, 29, 428, 60
-0.993806, 145, 293, 208, 324
-0.993807, 145, 137, 176, 168
-0.993813, 141, 281, 172, 344
-0.993815, 241, 197, 304, 228
-0.993816, 401, 21, 464, 52
-0.993818, 345, 93, 376, 124
-0.993819, 137, 121, 168, 152
-0.993825, 137, 333, 200, 364
-0.993826, 385, 45, 416, 76
-0.993829, 441, 49, 472, 80
-0.993832, 133, 269, 164, 300
-0.993833, 121, 317, 184, 348
-0.993835, 77, 205, 108, 236
-0.993841, 237, 209, 268, 240
-0.993841, 193, 217, 256, 248
-0.993843, 65, 185, 192, 248
-0.993846, 41, 325, 104, 356
-0.993846, 401, 133, 432, 164
-0.993847, 97, 201, 128, 232
-0.993856, 137, 317, 168, 348
-0.993856, 105, 345, 168, 375
-0.993858, 265, 189, 296, 220
-0.993859, 257, 177, 384, 240
-0.993862, 261, 177, 292, 208
-0.993867, 89, 265, 152, 296
-0.993869, 405, 169, 436, 200
-0.993875, 65, 341, 128, 372
-0.993877, 273, 189, 336, 220
-0.993878, 145, 205, 176, 236
-0.993879, 121, 313, 152, 344
-0.993882, 469, 97, 500, 224
-0.993882, 405, 157, 436, 188
-0.993882, 165, 169, 196, 200
-0.993884, 229, 177, 260, 208
-0.993887, 145, 225, 208, 352
-0.99389, 49, 237, 112, 268
-0.993891, 421, 189, 452, 220
-0.993892, 381, 105, 412, 136
-0.993895, 113, 217, 144, 248
-0.993896, 113, 173, 144, 204
-0.993896, 29, 301, 60, 332
-0.993896, 161, 173, 224, 204
-0.993897, 413, 121, 444, 152
-0.993899, 97, 237, 128, 268
-0.993906, 113, 109, 176, 140
-0.993906, 105, 189, 168, 220
-0.993906, 425, 145, 488, 176
-0.993907, 37, 329, 68, 360
-0.993908, 437, 85, 468, 116
-0.99391, 121, 137, 152, 168
-0.993911, 377, 81, 408, 112
-0.993914, 137, 345, 200, 375
-0.993914, 145, 161, 176, 192
-0.993914, 97, 213, 128, 244
-0.993915, 417, 141, 448, 172
-0.993916, 425, 109, 456, 140
-0.993918, 133, 141, 164, 172
-0.993919, 185, 205, 248, 236
-0.99392, 113, 193, 144, 224
-0.993921, 97, 325, 160, 356
-0.993922, 161, 305, 192, 336
-0.993932, 117, 261, 148, 292
-0.993932, 125, 333, 156, 364
-0.993933, 25, 317, 56, 348
-0.993933, 217, 201, 248, 232
-0.993934, 121, 205, 152, 236
-0.993939, 101, 185, 132, 216
-0.993941, 449, 77, 480, 108
-0.993941, 89, 225, 120, 256
-0.993942, 97, 257, 128, 288
-0.993943, 221, 217, 252, 248
-0.993943, 429, 25, 460, 56
-0.993944, 77, 233, 108, 264
-0.993946, 69, 341, 100, 372
-0.993948, 149, 149, 180, 180
-0.993966, 329, 145, 360, 208
-0.993971, 97, 289, 160, 320
-0.993981, 97, 313, 160, 344
-0.993982, 297, 173, 360, 204
-0.993985, 425, 29, 488, 60
-0.993994, 297, 97, 360, 160
-0.994023, 129, 173, 192, 204
-0.994024, 353, 29, 416, 60
-0.994032, 329, 85, 392, 116
-0.994057, 73, 253, 136, 284
-0.994064, 105, 205, 168, 236
-0.994081, 65, 269, 128, 300
-0.994093, 105, 149, 168, 180
-0.994099, 145, 317, 208, 348
-0.994119, 65, 321, 128, 352
-0.994132, 273, 177, 336, 208
-0.99414, 81, 177, 144, 208
-0.994145, 17, 317, 80, 348
-0.994148, 137, 209, 200, 240
-0.994153, 233, 169, 296, 200
-0.994153, 145, 161, 208, 192
-0.994156, 41, 337, 104, 368
-0.99416, 375, 113, 390, 176
-0.994183, 289, 117, 352, 148
-0.994187, 153, 221, 216, 252
-0.994195, 409, 121, 472, 152
-0.994195, 185, 229, 248, 260
-0.994203, 145, 233, 208, 264
-0.994205, 145, 265, 208, 296
-0.994218, 113, 229, 176, 260
-0.994224, 105, 245, 168, 276
-0.994226, 137, 105, 200, 136
-0.994241, 353, 13, 416, 44
-0.99425, 9, 333, 72, 364
-0.99426, 145, 197, 208, 228
-0.994262, 41, 313, 104, 344
-0.994265, 337, 41, 400, 72
-0.994285, 417, 137, 448, 200
-0.994286, 265, 201, 328, 232
-0.994322, 433, 17, 496, 48
-0.994335, 409, 133, 472, 164
-0.994338, 329, 73, 392, 104
-0.994343, 41, 213, 104, 244
-0.994354, 89, 109, 152, 140
-0.994449, 321, 1, 384, 375
-0.994496, 367, 97, 382, 160
-0.994502, 97, 137, 224, 200
-0.994519, 113, 97, 176, 352
-0.994565, 429, 73, 444, 136
-0.994579, 333, 121, 364, 184
-0.994649, 97, 281, 224, 344
-0.994665, 161, 169, 224, 232
-0.994666, 429, 137, 460, 200
-0.994671, 49, 193, 112, 320
-0.994683, 89, 225, 152, 288
-0.994739, 385, 113, 416, 240
-0.994747, 257, 169, 500, 232
-0.994779, 121, 153, 184, 216
-0.994806, 297, 145, 360, 272
-0.994855, 369, 53, 496, 84
-0.9949, 433, 161, 448, 224
-0.994904, 441, 161, 456, 224
-0.994947, 225, 81, 352, 208
-0.995029, 105, 177, 168, 240
-0.995054, 337, 105, 464, 136
-0.995067, 419, 73, 434, 136
-0.995071, 447, 161, 462, 224
-0.995215, 369, 65, 496, 96
-0.99523, 361, 129, 376, 192
-0.995255, 49, 129, 176, 256
-0.995281, 321, 157, 448, 188
-0.995288, 257, 89, 500, 152
-0.995331, 257, 121, 500, 184
-0.995359, 329, 73, 392, 136
-0.995362, 453, 161, 468, 224
-0.995377, 337, 93, 464, 124
-0.995383, 413, 49, 428, 112
-0.995401, 361, 105, 376, 168
-0.995413, 413, 1, 444, 256
-0.995437, 429, 49, 444, 112
-0.995497, 113, 313, 176, 375
-0.995509, 337, 81, 464, 112
-0.995518, 49, 249, 176, 312
-0.995522, 49, 81, 176, 208
-0.99554, 49, 217, 112, 280
-0.995568, 387, 121, 402, 184
-0.995583, 237, 161, 268, 288
-0.995589, 193, 217, 256, 280
-0.995651, 397, 121, 428, 184
-0.995667, 409, 73, 424, 136
-0.995707, 105, 145, 168, 272
-0.995715, 97, 233, 224, 296
-0.995718, 1, 225, 128, 288
-0.995756, 437, 65, 468, 128
-0.995766, 381, 113, 396, 176
-0.995769, 459, 161, 474, 224
-0.995796, 113, 193, 240, 256
-0.995823, 289, 121, 416, 152
-0.995873, 467, 161, 482, 224
-0.995908, 257, 25, 500, 88
-0.995945, 65, 97, 192, 160
-0.995967, 479, 161, 494, 224
-0.99598, 81, 161, 208, 224
-0.995993, 419, 97, 434, 160
-0.996004, 65, 241, 128, 304
-0.996008, 249, 161, 312, 288
-0.996018, 473, 161, 488, 224
-0.99607, 407, 49, 422, 112
-0.996083, 425, 1, 456, 256
-0.996102, 337, 121, 464, 152
-0.996138, 153, 129, 216, 375
-0.996154, 373, 137, 388, 200
-0.996186, 355, 105, 370, 168
-0.996228, 485, 161, 500, 224
-0.996258, 321, 169, 448, 200
-0.996269, 337, 41, 464, 72
-0.996302, 201, 161, 232, 288
-0.996311, 129, 257, 256, 320
-0.99635, 1, 297, 128, 360
-0.996365, 97, 305, 224, 368
-0.99637, 423, 25, 438, 88
-0.996419, 401, 1, 432, 256
-0.996425, 93, 177, 124, 304
-0.99643, 49, 313, 176, 375
-0.996436, 89, 249, 152, 312
-0.996446, 289, 133, 416, 164
-0.996456, 349, 49, 380, 176
-0.996485, 321, 145, 448, 176
-0.996487, 373, 89, 388, 152
-0.996524, 113, 105, 240, 168
-0.996656, 217, 177, 248, 240
-0.996685, 305, 65, 432, 96
-0.996693, 105, 201, 168, 264
-0.996694, 367, 153, 382, 216
-0.996721, 49, 129, 176, 192
-0.996749, 145, 145, 272, 208
-0.996751, 97, 241, 224, 368
-0.996752, 65, 177, 320, 240
-0.99679, 177, 225, 304, 288
-0.996796, 241, 81, 368, 144
-0.99686, 427, 161, 442, 224
-0.996879, 349, 113, 364, 176
-0.996906, 325, 113, 356, 240
-0.996928, 419, 77, 434, 108
-0.996936, 369, 149, 496, 180
-0.996936, 145, 265, 208, 328
-0.996969, 273, 157, 400, 188
-0.996976, 357, 65, 388, 320
-0.99698, 441, 137, 472, 200
-0.997011, 1, 201, 128, 264
-0.997032, 379, 145, 394, 208
-0.997054, 359, 169, 374, 232
-0.997058, 435, 49, 450, 112
-0.997062, 417, 25, 432, 88
-0.997086, 305, 53, 432, 84
-0.997096, 141, 81, 172, 208
-0.997107, 369, 125, 384, 156
-0.997122, 237, 177, 268, 240
-0.997159, 369, 1, 432, 64
-0.997225, 185, 193, 248, 256
-0.997236, 355, 145, 370, 208
-0.997255, 373, 161, 388, 224
-0.997257, 341, 97, 372, 160
-0.997294, 411, 25, 426, 88
-0.997303, 289, 109, 416, 140
-0.997336, 369, 161, 432, 224
-0.997361, 289, 81, 352, 208
-0.997396, 429, 25, 444, 88
-0.997404, 419, 89, 434, 120
-0.997444, 457, 185, 472, 248
-0.997482, 385, 145, 400, 208
-0.9975, 193, 209, 448, 336
-0.997508, 447, 185, 462, 248
-0.997512, 393, 129, 408, 192
-0.997514, 145, 281, 272, 344
-0.99752, 369, 65, 400, 320
-0.997618, 371, 137, 386, 168
-0.997625, 161, 121, 416, 184
-0.997627, 261, 169, 292, 232
-0.997632, 337, 133, 464, 164
-0.997632, 273, 145, 400, 176
-0.997643, 105, 241, 168, 368
-0.997643, 413, 97, 428, 160
-0.997704, 369, 101, 384, 132
-0.997714, 129, 273, 160, 336
-0.997721, 343, 121, 358, 184
-0.997728, 425, 97, 440, 160
-0.99774, 377, 117, 392, 148
-0.997761, 305, 33, 368, 288
-0.997783, 433, 137, 448, 200
-0.997793, 441, 185, 456, 248
-0.997795, 379, 89, 394, 152
-0.997799, 1, 153, 500, 216
-0.997803, 429, 73, 444, 104
-0.997832, 369, 113, 384, 144
-0.997836, 369, 169, 496, 200
-0.997862, 363, 129, 378, 160
-0.997878, 409, 69, 424, 100
-0.997886, 353, 169, 368, 232
-0.99789, 475, 185, 490, 248
-0.997902, 349, 137, 364, 200
-0.997911, 463, 185, 478, 248
-0.997926, 369, 181, 496, 212
-0.997958, 249, 161, 280, 288
-0.997975, 337, 29, 464, 60
-0.997996, 273, 169, 400, 200
-0.997997, 289, 1, 416, 64
-0.998, 137, 89, 168, 152
-0.998004, 429, 85, 444, 116
-0.998005, 363, 105, 378, 136
-0.99801, 435, 73, 450, 136
-0.998012, 483, 185, 498, 248
-0.998015, 129, 97, 384, 160
-0.998018, 469, 185, 484, 248
-0.998025, 353, 113, 368, 144
-0.998029, 141, 305, 172, 368
-0.998051, 361, 117, 376, 148
-0.998054, 1, 273, 128, 336
-0.998055, 419, 53, 434, 84
-0.998066, 375, 105, 390, 136
-0.998067, 437, 1, 468, 256
-0.9981, 377, 133, 392, 164
-0.998109, 113, 81, 240, 144
-0.998112, 249, 177, 280, 240
-0.998113, 121, 1, 184, 375
-0.998117, 129, 153, 384, 216
-0.998121, 409, 85, 424, 116
-0.998123, 389, 125, 404, 156
-0.998126, 373, 161, 388, 192
-0.998142, 447, 169, 462, 200
-0.99815, 261, 161, 292, 288
-0.998164, 455, 169, 470, 200
-0.998167, 145, 193, 208, 256
-0.998181, 433, 165, 448, 196
-0.998183, 421, 145, 436, 208
-0.998184, 435, 25, 450, 88
-0.998188, 125, 333, 156, 348
-0.998188, 333, 111, 364, 126
-0.998188, 381, 101, 412, 116
-0.998189, 385, 51, 416, 66
-0.998192, 361, 177, 392, 192
-0.998192, 125, 317, 156, 332
-0.998194, 325, 169, 356, 184
-0.998194, 393, 117, 424, 132
-0.998194, 377, 189, 408, 204
-0.998195, 441, 175, 472, 190
-0.998195, 145, 139, 176, 154
-0.998196, 137, 275, 168, 290
-0.998196, 441, 55, 472, 70
-0.998197, 329, 147, 360, 162
-0.998197, 329, 125, 360, 140
-0.998197, 385, 69, 416, 84
-0.998198, 125, 293, 156, 308
-0.998198, 377, 117, 408, 132
-0.998199, 321, 157, 352, 172
-0.9982, 341, 161, 372, 176
-0.9982, 441, 61, 472, 76
-0.998203, 93, 209, 124, 224
-0.998205, 133, 309, 164, 324
-0.998206, 385, 57, 416, 72
-0.998209, 329, 131, 360, 146
-0.998209, 337, 139, 368, 154
-0.998209, 381, 109, 412, 124
-0.99821, 385, 63, 416, 78
-0.998212, 125, 277, 156, 292
-0.998213, 393, 189, 424, 204
-0.998214, 429, 43, 460, 58
-0.998214, 357, 99, 388, 114
-0.998215, 469, 159, 500, 174
-0.998216, 93, 185, 124, 248
-0.998219, 413, 109, 444, 124
-0.998222, 397, 103, 428, 118
-0.998223, 121, 287, 152, 302
-0.998224, 457, 163, 488, 178
-0.998224, 369, 99, 400, 114
-0.998224, 445, 163, 476, 178
-0.998225, 413, 187, 444, 202
-0.998225, 333, 119, 364, 134
-0.998227, 425, 103, 456, 118
-0.998228, 141, 303, 172, 318
-0.998228, 345, 109, 376, 124
-0.998232, 343, 145, 358, 208
-0.998233, 417, 159, 448, 174
-0.998233, 353, 143, 384, 158
-0.998238, 393, 123, 424, 138
-0.998239, 141, 293, 172, 308
-0.998244, 329, 163, 360, 178
-0.998248, 429, 163, 460, 178
-0.99825, 469, 183, 500, 198
-0.998251, 137, 281, 168, 296
-0.998251, 413, 175, 444, 190
-0.998253, 419, 65, 434, 96
-0.998255, 457, 183, 488, 198
-0.998255, 433, 191, 464, 206
-0.998255, 411, 57, 426, 88
-0.998257, 345, 65, 376, 320
-0.998257, 413, 43, 444, 58
-0.998257, 193, 129, 320, 256
-0.998262, 141, 287, 172, 302
-0.998262, 347, 169, 362, 232
-0.998267, 461, 169, 476, 200
-0.998268, 397, 45, 428, 60
-0.998268, 345, 179, 376, 194
-0.998269, 389, 1, 420, 256
-0.998271, 417, 181, 448, 196
-0.998273, 417, 97, 448, 352
-0.998274, 361, 81, 376, 144
-0.998275, 393, 145, 424, 160
-0.998276, 337, 173, 368, 188
-0.998278, 341, 147, 372, 162
-0.998279, 369, 111, 400, 126
-0.99828, 397, 97, 428, 112
-0.998281, 445, 183, 476, 198
-0.998283, 417, 167, 448, 182
-0.998283, 429, 49, 460, 64
-0.998284, 465, 189, 496, 204
-0.998284, 381, 153, 412, 168
-0.998286, 393, 129, 424, 144
-0.998288, 345, 115, 376, 130
-0.99829, 429, 55, 460, 70
-0.99829, 441, 169, 472, 184
-0.998292, 361, 123, 392, 138
-0.998292, 429, 175, 460, 190
-0.998293, 445, 191, 476, 206
-0.998297, 453, 169, 484, 184
-0.998298, 425, 97, 456, 112
-0.998298, 469, 167, 500, 182
-0.998304, 145, 273, 160, 336
-0.998308, 413, 103, 444, 118
-0.998308, 365, 169, 380, 200
-0.998309, 361, 149, 392, 164
-0.998311, 387, 97, 402, 160
-0.998315, 369, 105, 400, 120
-0.998319, 397, 139, 428, 154
-0.99832, 397, 51, 428, 66
-0.99832, 393, 77, 424, 92
-0.998321, 377, 159, 408, 174
-0.998324, 369, 149, 384, 180
-0.998326, 337, 153, 368, 168
-0.998327, 353, 161, 384, 176
-0.998331, 429, 63, 460, 78
-0.998331, 349, 173, 380, 188
-0.998331, 257, 177, 320, 240
-0.998334, 341, 133, 372, 148
-0.998341, 401, 49, 416, 112
-0.998341, 369, 165, 400, 180
-0.998344, 361, 171, 392, 186
-0.998346, 381, 147, 412, 162
-0.998353, 397, 59, 428, 74
-0.998358, 365, 143, 396, 158
-0.998358, 429, 183, 460, 198
-0.998359, 185, 161, 216, 288
-0.99836, 397, 91, 428, 106
-0.998363, 419, 33, 434, 160
-0.998365, 345, 167, 376, 182
-0.99837, 341, 127, 372, 142
-0.99837, 377, 139, 408, 154
-0.998371, 353, 137, 384, 152
-0.998374, 33, 201, 288, 264
-0.998374, 403, 73, 418, 136
-0.998378, 413, 49, 444, 64
-0.99838, 429, 75, 460, 90
-0.998381, 337, 137, 352, 200
-0.998384, 405, 25, 420, 88
-0.998385, 357, 155, 388, 170
-0.998385, 429, 69, 460, 84
-0.998391, 425, 91, 456, 106
-0.998393, 113, 257, 176, 320
-0.998397, 429, 169, 460, 184
-0.998398, 413, 97, 444, 112
-0.998402, 81, 193, 112, 320
-0.998406, 365, 117, 396, 132
-0.998408, 397, 85, 428, 100
-0.998411, 397, 69, 428, 84
-0.998413, 357, 105, 388, 120
-0.998419, 425, 85, 456, 100
-0.998422, 385, 137, 400, 168
-0.998431, 363, 153, 378, 184
-0.998434, 417, 67, 448, 82
-0.998436, 347, 121, 362, 152
-0.998442, 413, 61, 444, 76
-0.998443, 433, 185, 448, 248
-0.998445, 337, 127, 400, 142
-0.998445, 447, 137, 462, 200
-0.99845, 133, 265, 148, 328
-0.998456, 405, 75, 436, 90
-0.998463, 357, 111, 388, 126
-0.998469, 155, 281, 170, 344
-0.998473, 417, 73, 448, 88
-0.998476, 365, 137, 396, 152
-0.998477, 193, 145, 320, 208
-0.998481, 477, 169, 492, 200
-0.998482, 353, 133, 416, 148
-0.998482, 357, 157, 372, 188
-0.998486, 401, 61, 464, 76
-0.998488, 413, 91, 444, 106
-0.998488, 353, 131, 384, 146
-0.998488, 413, 55, 444, 70
-0.998496, 401, 67, 464, 82
-0.998497, 401, 55, 464, 70
-0.998502, 401, 87, 464, 102
-0.998506, 337, 119, 400, 134
-0.998507, 467, 169, 482, 200
-0.998508, 373, 123, 404, 138
-0.998509, 377, 83, 440, 98
-0.998509, 439, 137, 454, 200
-0.99851, 383, 121, 398, 152
-0.998512, 139, 289, 154, 352
-0.998517, 383, 149, 398, 180
-0.998517, 329, 133, 392, 148
-0.998517, 401, 75, 464, 90
-0.998518, 349, 121, 380, 136
-0.99852, 377, 133, 408, 148
-0.998531, 329, 153, 392, 168
-0.998537, 345, 139, 408, 154
-0.998538, 413, 85, 444, 100
-0.99854, 431, 61, 446, 92
-0.998541, 377, 89, 440, 104
-0.998543, 1, 297, 256, 360
-0.998544, 417, 79, 448, 94
-0.998545, 359, 173, 374, 204
-0.998548, 401, 81, 464, 96
-0.998554, 419, 101, 434, 132
-0.998558, 401, 93, 464, 108
-0.998559, 395, 105, 410, 168
-0.998561, 377, 69, 440, 84
-0.998562, 231, 169, 246, 232
-0.998569, 65, 225, 320, 288
-0.998572, 377, 75, 440, 90
-0.998579, 439, 169, 454, 200
-0.998581, 365, 129, 396, 144
-0.998583, 329, 147, 392, 162
-0.998583, 377, 59, 440, 74
-0.998585, 329, 159, 392, 174
-0.998592, 449, 17, 480, 144
-0.998596, 361, 127, 424, 142
-0.998597, 401, 49, 464, 64
-0.998597, 369, 147, 432, 162
-0.9986, 1, 257, 256, 320
-0.998603, 337, 113, 400, 128
-0.998605, 377, 95, 440, 110
-0.998607, 241, 121, 368, 152
-0.998612, 329, 165, 392, 180
-0.998612, 421, 37, 436, 68
-0.998614, 377, 53, 440, 68
-0.998614, 425, 169, 488, 184
-0.998615, 425, 65, 488, 80
-0.998616, 1, 177, 128, 304
-0.998624, 401, 99, 464, 114
-0.998627, 395, 137, 410, 168
-0.998631, 401, 183, 464, 198
-0.998634, 369, 159, 432, 174
-0.998635, 369, 101, 432, 116
-0.998636, 413, 33, 428, 160
-0.998637, 337, 171, 400, 186
-0.998642, 425, 59, 488, 74
-0.998644, 353, 107, 416, 122
-0.998648, 353, 73, 384, 136
-0.998648, 313, 123, 376, 138
-0.998648, 385, 141, 448, 156
-0.998649, 137, 225, 168, 352
-0.99865, 427, 49, 442, 80
-0.998652, 361, 165, 424, 180
-0.998652, 385, 127, 448, 142
-0.998653, 425, 53, 488, 68
-0.998658, 243, 177, 258, 240
-0.998659, 369, 153, 432, 168
-0.99866, 483, 169, 498, 200
-0.998663, 385, 133, 448, 148
-0.998666, 425, 71, 488, 86
-0.998672, 313, 171, 376, 186
-0.998675, 329, 107, 392, 122
-0.998675, 425, 85, 488, 100
-0.998676, 369, 47, 432, 62
-0.998678, 447, 189, 462, 220
-0.99868, 377, 121, 440, 136
-0.99868, 413, 45, 428, 76
-0.998687, 425, 183, 488, 198
-0.998687, 425, 79, 488, 94
-0.998689, 401, 43, 464, 58
-0.998691, 401, 167, 464, 182
-0.998691, 65, 137, 192, 168
-0.998694, 425, 189, 488, 204
-0.998694, 321, 139, 384, 154
-0.9987, 425, 91, 488, 106
-0.998703, 377, 107, 440, 122
-0.998704, 369, 113, 432, 128
-0.998706, 425, 47, 488, 62
-0.998707, 353, 63, 416, 78
-0.998708, 453, 189, 468, 220
-0.998712, 361, 171, 424, 186
-0.998712, 425, 175, 488, 190
-0.998713, 297, 163, 360, 178
-0.998713, 401, 189, 464, 204
-0.998714, 401, 105, 464, 120
-0.998715, 405, 97, 436, 352
-0.998715, 353, 55, 416, 70
-0.998721, 149, 305, 164, 368
-0.998724, 305, 129, 368, 144
-0.998724, 351, 165, 366, 196
-0.998728, 385, 177, 448, 192
-0.998729, 1, 249, 128, 312
-0.998735, 353, 69, 416, 84
-0.998737, 425, 163, 488, 178
-0.998738, 429, 97, 460, 352
-0.998739, 425, 17, 440, 144
-0.998739, 81, 169, 144, 232
-0.99874, 257, 177, 272, 240
-0.99874, 425, 97, 488, 112
-0.99874, 313, 177, 376, 192
-0.998743, 137, 295, 200, 310
-0.998746, 313, 117, 376, 132
-0.998749, 121, 289, 184, 304
-0.99875, 369, 41, 432, 56
-0.998751, 401, 161, 464, 176
-0.998751, 337, 177, 400, 192
-0.998752, 121, 301, 184, 316
-0.998753, 329, 101, 392, 116
-0.998754, 441, 65, 456, 128
-0.998755, 305, 153, 368, 168
-0.998756, 425, 97, 440, 128
-0.998757, 401, 37, 464, 52
-0.998759, 353, 79, 416, 94
-0.998759, 375, 97, 390, 224
-0.99876, 401, 111, 464, 126
-0.998764, 81, 189, 144, 204
-0.998765, 121, 307, 184, 322
-0.998767, 433, 177, 448, 208
-0.998767, 369, 189, 432, 204
-0.998768, 297, 135, 360, 150
-0.998769, 425, 41, 488, 56
-0.998769, 425, 1, 440, 64
-0.99877, 113, 173, 240, 204
-0.998771, 113, 99, 176, 114
-0.998771, 137, 283, 200, 298
-0.998774, 97, 285, 160, 300
-0.998777, 305, 147, 368, 162
-0.998777, 65, 213, 128, 228
-0.998777, 113, 295, 176, 310
-0.998778, 97, 279, 160, 294
-0.998778, 441, 41, 456, 104
-0.998778, 377, 183, 440, 198
-0.99878, 361, 35, 424, 50
-0.99878, 81, 237, 144, 252
-0.998782, 353, 95, 416, 110
-0.998782, 113, 105, 176, 120
-0.998782, 237, 177, 252, 240
-0.998783, 105, 361, 168, 375
-0.998783, 421, 81, 436, 208
-0.998784, 113, 113, 176, 128
-0.998784, 113, 141, 176, 156
-0.998785, 113, 133, 176, 148
-0.998785, 377, 145, 392, 176
-0.998785, 89, 271, 152, 286
-0.998786, 185, 173, 248, 188
-0.998786, 137, 333, 200, 348
-0.998787, 137, 313, 200, 328
-0.998787, 73, 229, 136, 244
-0.998788, 297, 141, 360, 156
-0.998789, 401, 31, 464, 46
-0.998789, 105, 191, 168, 206
-0.99879, 105, 235, 168, 250
-0.998791, 145, 307, 208, 322
-0.998791, 113, 93, 176, 108
-0.998791, 81, 195, 144, 210
-0.998792, 401, 117, 464, 132
-0.998792, 113, 121, 176, 136
-0.998792, 329, 183, 392, 198
-0.998792, 73, 219, 136, 234
-0.998793, 105, 181, 168, 196
-0.998793, 345, 49, 408, 64
-0.998793, 137, 327, 200, 342
-0.998793, 97, 333, 160, 348
-0.998793, 305, 111, 368, 126
-0.998795, 353, 85, 416, 100
-0.998795, 41, 239, 104, 254
-0.998795, 105, 229, 168, 244
-0.998795, 153, 301, 216, 316
-0.998798, 361, 97, 376, 224
-0.998801, 251, 177, 266, 240
-0.998808, 439, 181, 454, 212
-0.998813, 413, 97, 428, 128
-0.998819, 263, 177, 278, 240
-0.998831, 289, 41, 416, 72
-0.998847, 193, 177, 320, 208
-0.998849, 461, 189, 476, 220
-0.998851, 367, 73, 382, 136
-0.998855, 275, 169, 290, 232
-0.998858, 407, 45, 422, 76
-0.99886, 17, 297, 80, 360
-0.998864, 161, 177, 416, 240
-0.998866, 363, 141, 378, 172
-0.998867, 145, 1, 208, 375
-0.998883, 357, 133, 372, 164
-0.998888, 353, 177, 368, 208
-0.998896, 427, 37, 442, 68
-0.998902, 473, 189, 488, 220
-0.998904, 453, 137, 468, 200
-0.998906, 161, 145, 224, 208
-0.998912, 431, 33, 446, 160
-0.998929, 449, 33, 480, 288
-0.998936, 289, 77, 416, 108
-0.998937, 367, 113, 382, 240
-0.998938, 467, 185, 482, 216
-0.998944, 427, 165, 442, 196
-0.998953, 269, 177, 284, 240
-0.998954, 49, 217, 176, 248
-0.998959, 257, 1, 500, 64
-0.998959, 337, 161, 352, 224
-0.998966, 349, 89, 364, 152
-0.998966, 415, 33, 430, 64
-0.998967, 405, 57, 420, 88
-0.998968, 33, 153, 160, 216
-0.998976, 353, 17, 480, 48
-0.998979, 185, 129, 248, 375
-0.998982, 241, 201, 368, 264
-0.998984, 481, 185, 496, 216
-0.998986, 427, 177, 442, 208
-0.998999, 357, 101, 372, 132
-0.999001, 431, 97, 446, 160
-0.999001, 341, 129, 356, 160
-0.999003, 49, 325, 176, 356
-0.999007, 425, 129, 488, 375
-0.999009, 407, 33, 422, 160
-0.999016, 101, 177, 116, 240
-0.999032, 395, 81, 410, 144
-0.999036, 427, 137, 442, 200
-0.999036, 113, 65, 240, 192
-0.999041, 289, 97, 416, 128
-0.999041, 433, 49, 448, 80
-0.999047, 355, 97, 370, 224
-0.999048, 177, 257, 304, 320
-0.999056, 437, 17, 468, 80
-0.999061, 345, 165, 360, 196
-0.999062, 161, 297, 176, 360
-0.999074, 135, 285, 150, 316
-0.999088, 437, 61, 452, 92
-0.999092, 463, 137, 478, 200
-0.999104, 389, 149, 404, 180
-0.999106, 133, 273, 148, 304
-0.999116, 415, 81, 430, 208
-0.999126, 379, 161, 394, 192
-0.999136, 449, 145, 464, 272
-0.999136, 427, 185, 442, 248
-0.99914, 447, 65, 462, 128
-0.999146, 457, 145, 472, 272
-0.999147, 425, 61, 440, 92
-0.99915, 155, 313, 170, 375
-0.999151, 343, 145, 358, 176
-0.999156, 151, 89, 166, 152
-0.999159, 431, 1, 446, 64
-0.999159, 479, 137, 494, 200
-0.999166, 443, 157, 458, 188
-0.999167, 417, 1, 432, 64
-0.999168, 95, 209, 110, 272
-0.999171, 485, 137, 500, 200
-0.999173, 347, 177, 362, 208
-0.999175, 427, 81, 442, 208
-0.999182, 349, 97, 364, 224
-0.999183, 435, 73, 450, 104
-0.999183, 97, 237, 224, 268
-0.99919, 141, 313, 156, 375
-0.99919, 455, 157, 470, 188
-0.999194, 65, 189, 192, 220
-0.999195, 381, 101, 396, 132
-0.999196, 289, 129, 352, 192
-0.9992, 443, 145, 458, 272
-0.999206, 409, 33, 424, 64
-0.999207, 305, 177, 432, 240
-0.999207, 239, 201, 254, 264
-0.999211, 143, 277, 158, 308
-0.999211, 1, 201, 500, 264
-0.999212, 433, 37, 448, 68
-0.999212, 49, 273, 176, 304
-0.999213, 113, 281, 240, 312
-0.999213, 353, 177, 384, 240
-0.999214, 161, 145, 192, 272
-0.999215, 49, 341, 176, 372
-0.999216, 157, 97, 172, 160
-0.999216, 337, 145, 352, 176
-0.999219, 129, 297, 160, 360
-0.99922, 363, 93, 378, 124
-0.999222, 81, 293, 208, 324
-0.999224, 403, 69, 418, 100
-0.999224, 463, 145, 478, 272
-0.999225, 471, 145, 486, 272
-0.999229, 17, 233, 144, 264
-0.99923, 143, 297, 158, 328
-0.999232, 421, 169, 436, 200
-0.999235, 479, 145, 494, 272
-0.999241, 485, 145, 500, 272
-0.999247, 401, 105, 416, 168
-0.999248, 485, 157, 500, 188
-0.999248, 449, 157, 464, 188
-0.999252, 433, 81, 448, 208
-0.999255, 463, 157, 478, 188
-0.999255, 221, 169, 236, 232
-0.999258, 437, 17, 452, 144
-0.999262, 141, 317, 156, 348
-0.999265, 409, 81, 424, 208
-0.99927, 437, 129, 452, 256
-0.999274, 159, 129, 174, 192
-0.999279, 339, 165, 354, 196
-0.999286, 431, 153, 446, 184
-0.999289, 159, 153, 174, 216
-0.999291, 421, 157, 436, 188
-0.999291, 155, 289, 170, 320
-0.999295, 473, 157, 488, 188
-0.999299, 193, 189, 320, 220
-0.999302, 151, 313, 166, 344
-0.999303, 343, 113, 358, 240
-0.999304, 395, 125, 410, 156
-0.999304, 93, 177, 108, 240
-0.999308, 471, 137, 486, 200
-0.999314, 233, 209, 248, 272
-0.999315, 225, 205, 352, 236
-0.999315, 355, 81, 370, 144
-0.999316, 395, 49, 410, 112
-0.999317, 159, 137, 174, 168
-0.999324, 431, 97, 446, 128
-0.999327, 105, 193, 136, 320
-0.999332, 469, 137, 500, 200
-0.999337, 437, 1, 452, 64
-0.999337, 1, 321, 128, 352
-0.999341, 133, 289, 148, 352
-0.999341, 369, 89, 384, 120
-0.999341, 381, 97, 396, 224
-0.999342, 447, 97, 462, 224
-0.999343, 97, 217, 224, 248
-0.999347, 479, 157, 494, 188
-0.999349, 17, 177, 144, 240
-0.999367, 129, 225, 192, 288
-0.999368, 89, 209, 104, 272
-0.999369, 135, 313, 150, 344
-0.999371, 373, 145, 388, 272
-0.999375, 347, 133, 362, 164
-0.999381, 113, 265, 240, 296
-0.999385, 387, 65, 402, 192
-0.999385, 439, 49, 454, 80
-0.999389, 369, 65, 384, 192
-0.999389, 145, 305, 272, 368
-0.99939, 145, 81, 160, 144
-0.999391, 231, 173, 246, 204
-0.999393, 97, 241, 112, 304
-0.999396, 431, 189, 446, 220
-0.9994, 387, 105, 402, 136
-0.9994, 65, 125, 192, 156
-0.999403, 453, 97, 468, 224
-0.999404, 97, 333, 224, 364
-0.999404, 65, 73, 192, 136
-0.999407, 407, 97, 422, 160
-0.99941, 233, 153, 296, 216
-0.999413, 399, 25, 414, 88
-0.999414, 43, 329, 58, 360
-0.999416, 351, 153, 366, 184
-0.999417, 421, 145, 436, 176
-0.999417, 107, 185, 122, 248
-0.999419, 161, 201, 416, 264
-0.999421, 421, 121, 436, 184
-0.999422, 395, 109, 410, 140
-0.999423, 421, 169, 436, 232
-0.999424, 379, 89, 394, 120
-0.999426, 185, 1, 248, 375
-0.999429, 437, 153, 452, 184
-0.999429, 113, 161, 240, 192
-0.99943, 151, 193, 166, 256
-0.99943, 401, 45, 416, 76
-0.99943, 241, 109, 368, 140
-0.999432, 411, 1, 426, 64
-0.999433, 395, 125, 410, 140
-0.999435, 405, 49, 420, 64
-0.999435, 337, 149, 352, 164
-0.999436, 435, 51, 450, 66
-0.999436, 413, 103, 428, 118
-0.999436, 459, 163, 474, 178
-0.999436, 425, 167, 440, 182
-0.999436, 177, 213, 304, 244
-0.999436, 431, 129, 446, 256
-0.999436, 355, 109, 370, 124
-0.999438, 413, 43, 428, 58
-0.999438, 149, 317, 164, 332
-0.999439, 131, 279, 146, 294
-0.999439, 353, 151, 368, 166
-0.99944, 149, 301, 164, 332
-0.999441, 347, 177, 362, 192
-0.999441, 345, 163, 360, 178
-0.999441, 435, 57, 450, 72
-0.999442, 465, 163, 480, 178
-0.999442, 437, 65, 452, 80
-0.999442, 477, 163, 492, 178
-0.999443, 415, 67, 430, 82
-0.999444, 439, 65, 454, 192
-0.999444, 1, 177, 500, 240
-0.999444, 359, 155, 374, 170
-0.999444, 401, 125, 416, 156
-0.999444, 473, 183, 488, 198
-0.999445, 343, 135, 358, 150
-0.999445, 141, 277, 156, 292
-0.999445, 437, 175, 452, 190
-0.999447, 423, 175, 438, 190
-0.999448, 407, 189, 422, 204
-0.99945, 425, 181, 440, 196
-0.999451, 377, 151, 392, 166
-0.999451, 441, 191, 456, 206
-0.999452, 365, 151, 380, 166
-0.999452, 367, 159, 382, 174
-0.999452, 451, 163, 466, 178
-0.999452, 355, 133, 370, 148
-0.999453, 379, 105, 394, 120
-0.999457, 361, 145, 376, 160
-0.999457, 135, 287, 150, 302
-0.999458, 357, 145, 372, 176
-0.999459, 385, 155, 400, 170
-0.999459, 447, 41, 462, 104
-0.99946, 441, 73, 456, 104
-0.99946, 357, 165, 372, 180
-0.99946, 457, 183, 472, 198
-0.999461, 467, 183, 482, 198
-0.999465, 413, 61, 428, 76
-0.999465, 427, 47, 442, 62
-0.999465, 463, 97, 478, 224
-0.999466, 399, 57, 414, 88
-0.999468, 65, 105, 192, 136
-0.99947, 353, 179, 368, 194
-0.99947, 347, 171, 362, 186
-0.999473, 335, 133, 350, 164
-0.999474, 363, 115, 378, 130
-0.999474, 407, 55, 422, 70
-0.999474, 445, 185, 460, 200
-0.999474, 429, 99, 444, 114
-0.999476, 419, 105, 434, 120
-0.999476, 239, 209, 254, 240
-0.999476, 349, 161, 364, 288
-0.999476, 409, 97, 424, 112
-0.999476, 481, 187, 496, 202
-0.999476, 431, 63, 446, 78
-0.999478, 403, 81, 418, 112
-0.999479, 365, 103, 380, 118
-0.999481, 349, 117, 364, 132
-0.999482, 385, 127, 400, 142
-0.999482, 225, 173, 240, 204
-0.999482, 383, 135, 398, 150
-0.999482, 473, 189, 488, 204
-0.999484, 369, 109, 384, 124
-0.999484, 377, 145, 392, 160
-0.999485, 411, 49, 426, 64
-0.999486, 463, 189, 478, 204
-0.999488, 359, 127, 374, 142
-0.99949, 137, 301, 152, 332
-0.99949, 451, 185, 466, 200
-0.99949, 395, 139, 410, 154
-0.999491, 345, 129, 360, 144
-0.999492, 153, 197, 168, 228
-0.999492, 257, 181, 384, 212
-0.999493, 479, 169, 494, 184
-0.999493, 439, 183, 454, 198
-0.999493, 431, 175, 446, 190
-0.999493, 469, 169, 484, 184
-0.999493, 401, 33, 416, 160
-0.999493, 407, 61, 422, 76
-0.999494, 51, 313, 66, 344
-0.999499, 429, 53, 444, 68
-0.999499, 81, 149, 208, 180
-0.9995, 421, 47, 436, 62
-0.999502, 461, 169, 476, 184
-0.999505, 447, 169, 462, 184
-0.999506, 113, 185, 240, 216
-0.999507, 457, 189, 472, 204
-0.999509, 485, 165, 500, 180
-0.999511, 447, 191, 462, 206
-0.999512, 385, 121, 400, 136
-0.999512, 455, 169, 470, 184
-0.999514, 355, 145, 370, 272
-0.999514, 413, 55, 428, 70
-0.999514, 441, 167, 456, 182
-0.999514, 409, 79, 424, 94
-0.999518, 353, 171, 368, 186
-0.999519, 349, 123, 364, 138
-0.99952, 371, 153, 386, 168
-0.999521, 433, 183, 448, 198
-0.999521, 359, 175, 374, 190
-0.999522, 377, 139, 392, 154
-0.999523, 359, 121, 374, 136
-0.999524, 461, 33, 492, 288
-0.999525, 257, 193, 384, 224
-0.999526, 393, 145, 408, 160
-0.999526, 443, 17, 458, 144
-0.999527, 365, 161, 380, 288
-0.999529, 393, 97, 424, 352
-0.99953, 391, 131, 406, 146
-0.99953, 409, 91, 424, 106
-0.999531, 375, 49, 390, 176
-0.999533, 375, 111, 390, 126
-0.999535, 409, 67, 424, 82
-0.999535, 371, 169, 386, 184
-0.999535, 429, 93, 444, 108
-0.999536, 383, 141, 398, 156
-0.999536, 387, 149, 402, 164
-0.999538, 387, 113, 402, 240
-0.999538, 377, 127, 392, 142
-0.999538, 431, 167, 446, 182
-0.999538, 419, 53, 434, 68
-0.999539, 469, 97, 484, 224
-0.99954, 337, 5, 464, 36
-0.999541, 421, 69, 436, 84
-0.999542, 431, 69, 446, 84
-0.999544, 97, 305, 224, 336
-0.999544, 379, 157, 394, 172
-0.999545, 371, 123, 386, 138
-0.999547, 65, 177, 192, 208
-0.999547, 321, 181, 448, 212
-0.999553, 429, 81, 444, 96
-0.999555, 475, 97, 490, 224
-0.999556, 81, 249, 208, 280
-0.999558, 225, 157, 352, 188
-0.999559, 377, 121, 392, 136
-0.999559, 97, 345, 224, 375
-0.99956, 379, 145, 394, 272
-0.999562, 371, 141, 386, 156
-0.999565, 419, 99, 434, 114
-0.999566, 33, 285, 160, 316
-0.999569, 361, 109, 376, 124
-0.999572, 365, 171, 380, 186
-0.999572, 365, 139, 380, 154
-0.999573, 409, 85, 424, 100
-0.999575, 375, 163, 390, 178
-0.999577, 137, 97, 200, 160
-0.999584, 355, 115, 370, 130
-0.999585, 429, 87, 444, 102
-0.999585, 365, 123, 380, 138
-0.999588, 305, 17, 432, 48
-0.999592, 231, 161, 246, 288
-0.999593, 289, 29, 416, 60
-0.999593, 369, 115, 384, 130
-0.999595, 65, 93, 192, 124
-0.999596, 425, 129, 440, 256
-0.999603, 411, 73, 426, 88
-0.99961, 389, 137, 404, 152
-0.999612, 225, 161, 240, 288
-0.999613, 429, 75, 444, 90
-0.999617, 403, 81, 418, 208
-0.999617, 371, 103, 386, 118
-0.999618, 333, 97, 364, 352
-0.999619, 241, 133, 368, 164
-0.999619, 419, 75, 434, 90
-0.999621, 361, 49, 376, 176
-0.999629, 377, 133, 392, 148
-0.999635, 481, 97, 496, 224
-0.999639, 145, 201, 272, 232
-0.999641, 395, 65, 410, 192
-0.999641, 241, 161, 256, 288
-0.999642, 65, 205, 192, 236
-0.999645, 371, 135, 386, 150
-0.999656, 361, 133, 376, 148
-0.999656, 161, 73, 416, 136
-0.999663, 225, 113, 288, 240
-0.999669, 419, 87, 434, 102
-0.999669, 219, 161, 234, 288
-0.999671, 1, 337, 128, 368
-0.999671, 177, 225, 304, 256
-0.999671, 419, 93, 434, 108
-0.999671, 449, 17, 464, 144
-0.999682, 337, 113, 352, 240
-0.999683, 381, 49, 396, 176
-0.999693, 213, 161, 228, 288
-0.999706, 97, 317, 224, 348
-0.999711, 437, 177, 452, 304
-0.999712, 173, 161, 204, 288
-0.999715, 431, 177, 446, 304
-0.999722, 343, 161, 358, 288
-0.999722, 113, 93, 240, 124
-0.999725, 117, 225, 148, 352
-0.999725, 247, 161, 262, 288
-0.999741, 253, 161, 268, 288
-0.999744, 1, 309, 128, 340
-0.999745, 395, 17, 410, 144
-0.999747, 65, 165, 192, 196
-0.999748, 457, 137, 488, 200
-0.999754, 205, 161, 220, 288
-0.99976, 145, 293, 272, 324
-0.999761, 393, 113, 408, 240
-0.99977, 419, 81, 434, 96
-0.999772, 131, 225, 146, 352
-0.999776, 259, 161, 274, 288
-0.999776, 93, 193, 108, 320
-0.999783, 199, 161, 214, 288
-0.999788, 141, 65, 172, 320
-0.999788, 187, 161, 202, 288
-0.99979, 275, 161, 290, 288
-0.999791, 345, 177, 408, 240
-0.999794, 57, 241, 120, 368
-0.999794, 1, 49, 500, 112
-0.999796, 143, 225, 158, 352
-0.999798, 107, 177, 122, 304
-0.999798, 265, 161, 280, 288
-0.999801, 33, 245, 160, 276
-0.999804, 369, 129, 384, 144
-0.999804, 113, 117, 240, 148
-0.999807, 49, 305, 176, 336
-0.999809, 85, 177, 100, 304
-0.99981, 1, 213, 128, 244
-0.999822, 81, 201, 112, 264
-0.999824, 101, 161, 116, 288
-0.999834, 193, 161, 208, 288
-0.999839, 1, 297, 128, 328
-0.99984, 113, 105, 240, 136
-0.999845, 159, 129, 174, 256
-0.999846, 153, 81, 168, 208
-0.99985, 161, 225, 416, 288
-0.999851, 351, 49, 366, 176
-0.999851, 455, 17, 470, 144
-0.999868, 113, 193, 128, 320
-0.999868, 135, 65, 150, 192
-0.999871, 87, 225, 102, 352
-0.999884, 113, 133, 240, 164
-0.999884, 29, 289, 60, 352
-0.999884, 425, 177, 440, 304
-0.999886, 241, 97, 368, 128
-0.999888, 329, 169, 360, 232
-0.999894, 369, 17, 384, 144
-0.999895, 147, 65, 162, 192
-0.999896, 81, 273, 144, 336
-0.999896, 341, 65, 356, 192
-0.999896, 49, 261, 176, 292
-0.999899, 137, 209, 152, 336
-0.9999, 33, 149, 160, 180
-0.999902, 79, 193, 94, 320
-0.999902, 141, 65, 156, 192
-0.999902, 179, 161, 194, 288
-0.999905, 241, 113, 256, 240
-0.999908, 99, 209, 114, 336
-0.999911, 167, 145, 182, 272
-0.999912, 447, 193, 462, 320
-0.999914, 419, 129, 434, 256
-0.999916, 387, 17, 402, 144
-0.999916, 173, 145, 188, 272
-0.999917, 149, 177, 164, 304
-0.999917, 155, 225, 170, 352
-0.99992, 231, 113, 246, 240
-0.999923, 231, 209, 246, 336
-0.999925, 413, 129, 428, 256
-0.999927, 453, 193, 468, 320
-0.999927, 247, 113, 262, 240
-0.99993, 409, 1, 440, 64
-0.999934, 261, 113, 276, 240
-0.999935, 255, 113, 270, 240
-0.999936, 199, 209, 214, 336
-0.999937, 281, 161, 296, 288
-0.999938, 119, 193, 134, 320
-0.999939, 117, 97, 148, 352
-0.999946, 145, 137, 176, 200
-0.999946, 125, 113, 140, 240
-0.999946, 269, 113, 284, 240
-0.999947, 115, 145, 130, 272
-0.999949, 33, 145, 288, 208
-0.999958, 225, 209, 240, 336
-0.999958, 381, 97, 412, 352
-0.999964, 221, 113, 236, 240
-0.999964, 149, 225, 164, 352
-0.999964, 35, 241, 50, 368
-0.999964, 461, 193, 476, 320
-0.999964, 461, 1, 476, 128
-0.999965, 237, 201, 268, 264
-0.999966, 129, 65, 144, 192
-0.999967, 217, 209, 232, 336
-0.999971, 125, 161, 140, 288
-0.999972, 473, 193, 488, 320
-0.999972, 479, 193, 494, 320
-0.999972, 105, 225, 120, 352
-0.999975, 157, 177, 172, 304
-0.999976, 399, 129, 414, 256
-0.999982, 161, 277, 288, 308
-0.999983, 95, 145, 110, 272
-0.999987, 485, 193, 500, 320
-0.99999, 89, 97, 152, 352
-1, 369, 193, 496, 256
-1.00001, 405, 153, 436, 216
-1.00002, 129, 253, 256, 284
-1.00003, 89, 241, 120, 304
-1.00003, 177, 237, 304, 268
-1.00006, 161, 165, 288, 196
-1.00007, 161, 49, 416, 112
-1.00007, 145, 149, 272, 180
-1.00008, 177, 249, 304, 280
-1.00012, 193, 113, 256, 240
-1.00014, 397, 129, 428, 256
-1.00014, 433, 193, 496, 320
-1.00015, 161, 25, 416, 88
-1.00015, 161, 129, 192, 375
-1.00017, 113, 81, 240, 112
-1.00017, 225, 145, 352, 176
-1.00018, 17, 105, 144, 168
-1.00018, 17, 201, 144, 232
-1.00019, 129, 305, 384, 368
-1.00019, 173, 129, 204, 375
-1.0002, 17, 189, 144, 220
-1.0002, 177, 261, 304, 292
-1.00022, 369, 193, 496, 224
-1.00022, 153, 217, 216, 280
-1.00023, 417, 177, 448, 304
-1.00023, 65, 81, 192, 112
-1.00024, 89, 313, 152, 375
-1.00024, 289, 5, 416, 36
-1.00026, 145, 305, 272, 336
-1.00028, 193, 129, 224, 375
-1.00029, 161, 113, 224, 240
-1.0003, 225, 105, 352, 168
-1.0003, 209, 129, 240, 375
-1.00031, 457, 129, 488, 375
-1.00031, 17, 137, 144, 168
-1.00032, 117, 265, 148, 328
-1.00032, 129, 65, 160, 320
-1.00032, 153, 289, 184, 352
-1.00032, 257, 57, 384, 88
-1.00034, 17, 125, 144, 156
-1.00034, 229, 129, 260, 375
-1.00034, 1, 73, 500, 136
-1.00035, 445, 129, 476, 375
-1.00036, 145, 129, 176, 256
-1.00037, 1, 257, 128, 288
-1.00038, 137, 113, 200, 240
-1.00038, 129, 249, 384, 312
-1.00039, 161, 321, 288, 352
-1.00041, 225, 217, 352, 248
-1.00042, 133, 177, 164, 304
-1.00042, 333, 1, 364, 256
-1.00045, 1, 273, 128, 304
-1.00046, 257, 17, 384, 48
-1.00046, 17, 169, 144, 200
-1.00047, 469, 129, 500, 375
-1.00049, 297, 1, 360, 375
-1.0005, 89, 145, 152, 208
-1.00051, 337, 49, 368, 176
-1.00054, 81, 129, 144, 256
-1.00054, 329, 49, 392, 112
-1.00054, 93, 129, 124, 375
-1.00055, 129, 65, 160, 192
-1.00056, 385, 25, 416, 88
-1.00056, 1, 25, 500, 88
-1.00057, 105, 97, 136, 352
-1.00057, 41, 313, 104, 375
-1.00057, 377, 65, 408, 128
-1.00057, 17, 113, 144, 144
-1.00059, 161, 137, 288, 168
-1.0006, 241, 129, 272, 375
-1.0006, 17, 89, 144, 120
-1.00063, 145, 333, 272, 364
-1.00063, 145, 345, 272, 375
-1.00064, 1, 97, 500, 160
-1.00064, 113, 57, 240, 120
-1.00066, 17, 101, 144, 132
-1.00068, 41, 289, 104, 352
-1.00073, 417, 185, 448, 248
-1.00073, 449, 57, 480, 120
-1.00076, 305, 193, 432, 224
-1.00076, 17, 77, 144, 108
-1.00076, 253, 129, 284, 375
-1.00077, 113, 69, 240, 100
-1.00078, 89, 1, 152, 375
-1.00078, 377, 1, 408, 128
-1.0008, 157, 33, 188, 288
-1.00082, 117, 145, 148, 272
-1.00083, 241, 69, 368, 100
-1.00084, 209, 129, 272, 375
-1.00084, 161, 125, 288, 156
-1.00087, 89, 89, 152, 152
-1.00087, 65, 69, 192, 100
-1.00087, 97, 281, 352, 344
-1.00088, 241, 45, 368, 76
-1.00088, 345, 1, 408, 64
-1.0009, 161, 1, 416, 64
-1.00091, 133, 113, 164, 176
-1.00091, 81, 129, 112, 375
-1.00091, 241, 5, 368, 36
-1.00093, 265, 129, 296, 375
-1.00093, 97, 209, 128, 272
-1.00095, 141, 257, 172, 320
-1.00095, 1, 257, 500, 320
-1.00096, 225, 81, 352, 112
-1.00097, 389, 145, 420, 208
-1.00098, 273, 205, 400, 236
-1.00098, 161, 101, 288, 132
-1.00099, 93, 225, 124, 352
-1.00099, 241, 33, 368, 64
-1.00099, 193, 341, 320, 372
-1.001, 193, 169, 224, 232
-1.00101, 161, 81, 288, 112
-1.00101, 217, 1, 280, 375
-1.00102, 69, 193, 100, 320
-1.00107, 321, 33, 352, 288
-1.00107, 329, 161, 360, 288
-1.00108, 1, 89, 256, 152
-1.00109, 257, 193, 500, 256
-1.00109, 65, 121, 320, 184
-1.00111, 161, 113, 288, 176
-1.00111, 169, 33, 200, 288
-1.00111, 109, 169, 140, 232
-1.00113, 17, 81, 144, 144
-1.00114, 33, 33, 160, 160
-1.00114, 105, 1, 136, 256
-1.00115, 165, 145, 196, 208
-1.00116, 117, 1, 148, 256
-1.00116, 93, 33, 124, 288
-1.00121, 1, 225, 500, 288
-1.00124, 181, 33, 212, 288
-1.00124, 193, 33, 224, 288
-1.00124, 1, 129, 500, 192
-1.00126, 165, 169, 196, 232
-1.00126, 225, 209, 256, 272
-1.00129, 209, 33, 240, 288
-1.00129, 229, 33, 260, 288
-1.00131, 321, 129, 352, 375
-1.00131, 57, 265, 120, 328
-1.00133, 277, 129, 308, 375
-1.00133, 257, 201, 320, 264
-1.00134, 81, 33, 112, 288
-1.00135, 337, 25, 400, 88
-1.00135, 1, 289, 500, 352
-1.00136, 289, 129, 320, 375
-1.00137, 77, 233, 108, 296
-1.00139, 69, 129, 100, 375
-1.0014, 245, 33, 276, 288
-1.00142, 201, 209, 232, 336
-1.00143, 205, 169, 236, 232
-1.00143, 29, 129, 60, 375
-1.00143, 325, 97, 356, 160
-1.00144, 265, 33, 296, 288
-1.00146, 145, 113, 176, 176
-1.00148, 149, 193, 180, 320
-1.00148, 57, 129, 88, 375
-1.00151, 153, 241, 216, 304
-1.00152, 81, 177, 112, 240
-1.00155, 65, 1, 128, 375
-1.00156, 137, 129, 200, 192
-1.00156, 285, 33, 316, 288
-1.00159, 41, 97, 72, 352
-1.00161, 41, 241, 104, 304
-1.00162, 217, 113, 248, 240
-1.00162, 65, 65, 320, 128
-1.00164, 13, 97, 44, 352
-1.00165, 309, 65, 340, 320
-1.00165, 273, 153, 336, 216
-1.00165, 65, 313, 128, 375
-1.00165, 65, 33, 96, 288
-1.00166, 1, 313, 500, 375
-1.00166, 33, 49, 160, 112
-1.00167, 161, 89, 288, 152
-1.00168, 241, 33, 368, 96
-1.00168, 437, 89, 468, 152
-1.0017, 1, 1, 500, 64
-1.00173, 297, 33, 328, 288
-1.00176, 209, 209, 240, 272
-1.00178, 245, 113, 276, 240
-1.00179, 185, 145, 248, 208
-1.0018, 105, 145, 136, 272
-1.00181, 161, 289, 224, 352
-1.00181, 1, 129, 32, 375
-1.00183, 21, 1, 52, 256
-1.00183, 33, 1, 64, 256
-1.00184, 253, 201, 284, 264
-1.00184, 5, 1, 36, 256
-1.00185, 37, 313, 68, 375
-1.00185, 53, 1, 84, 256
-1.00188, 137, 201, 168, 264
-1.00189, 153, 313, 184, 375
-1.00198, 65, 41, 320, 104
-1.00199, 273, 177, 304, 240
-1.002, 121, 193, 152, 256
-1.00201, 241, 1, 304, 375
-1.00202, 49, 193, 112, 256
-1.00202, 153, 73, 216, 136
-1.00203, 193, 273, 448, 336
-1.00203, 445, 193, 476, 320
-1.00205, 65, 65, 320, 192
-1.00206, 113, 65, 176, 128
-1.00206, 209, 153, 272, 216
-1.00207, 397, 1, 428, 64
-1.00208, 233, 113, 264, 240
-1.00209, 185, 241, 248, 304
-1.0021, 1, 129, 128, 192
-1.00212, 65, 17, 320, 80
-1.00212, 257, 249, 500, 312
-1.00212, 257, 313, 500, 375
-1.00212, 241, 193, 368, 320
-1.00213, 33, 1, 96, 375
-1.00216, 425, 113, 488, 176
-1.00219, 221, 209, 252, 336
-1.0022, 145, 161, 176, 224
-1.00221, 169, 209, 232, 336
-1.00223, 257, 225, 500, 288
-1.00224, 81, 241, 112, 368
-1.00225, 365, 65, 396, 128
-1.00229, 273, 161, 304, 288
-1.0023, 325, 65, 356, 192
-1.00236, 125, 89, 156, 152
-1.0024, 241, 9, 368, 72
-1.00243, 273, 1, 336, 375
-1.00245, 149, 241, 180, 368
-1.00245, 121, 129, 152, 192
-1.0025, 49, 289, 80, 352
-1.00251, 461, 1, 492, 128
-1.00251, 157, 97, 188, 224
-1.00255, 281, 177, 344, 240
-1.00256, 109, 217, 140, 280
-1.00259, 257, 113, 288, 240
-1.00261, 97, 33, 224, 96
-1.00261, 193, 281, 320, 344
-1.00266, 189, 209, 220, 336
-1.00268, 117, 241, 148, 304
-1.0027, 69, 209, 100, 272
-1.00271, 209, 57, 336, 120
-1.00273, 461, 193, 492, 320
-1.00276, 321, 201, 448, 264
-1.00279, 49, 313, 80, 375
-1.00282, 121, 169, 152, 232
-1.00284, 137, 225, 168, 288
-1.00288, 113, 97, 144, 224
-1.00288, 49, 25, 176, 88
-1.0029, 197, 209, 228, 272
-1.0029, 181, 169, 212, 232
-1.00291, 1, 1, 128, 64
-1.00291, 49, 1, 176, 64
-1.00291, 97, 9, 224, 72
-1.00291, 193, 9, 320, 72
-1.00291, 145, 17, 272, 80
-1.00291, 1, 25, 128, 88
-1.00291, 193, 33, 320, 96
-1.00291, 369, 217, 496, 280
-1.00291, 273, 241, 400, 304
-1.00291, 321, 241, 448, 304
-1.00291, 369, 241, 496, 304
-1.00291, 225, 257, 352, 320
-1.00291, 273, 265, 400, 328
-1.00291, 321, 265, 448, 328
-1.00291, 369, 265, 496, 328
-1.00291, 273, 289, 400, 352
-1.00291, 321, 289, 448, 352
-1.00291, 369, 289, 496, 352
-1.00291, 225, 313, 352, 375
-1.00291, 273, 313, 400, 375
-1.00291, 321, 313, 448, 375
-1.00291, 369, 313, 496, 375
-1.00291, 153, 33, 216, 288
-1.00292, 233, 129, 296, 375
-1.00293, 17, 297, 48, 360
-1.00296, 449, 81, 480, 144
-1.00298, 25, 241, 88, 368
-1.00301, 241, 33, 368, 160
-1.00303, 225, 233, 352, 296
-1.00303, 305, 33, 368, 160
-1.00304, 9, 1, 72, 375
-1.00306, 161, 65, 288, 128
-1.00307, 105, 241, 136, 304
-1.0031, 165, 281, 196, 344
-1.00314, 129, 113, 160, 240
-1.00317, 265, 201, 296, 264
-1.00324, 133, 169, 164, 232
-1.00325, 193, 113, 224, 240
-1.00326, 217, 209, 280, 336
-1.00329, 185, 273, 248, 336
-1.00331, 33, 265, 96, 328
-1.00338, 273, 145, 336, 272
-1.00339, 113, 1, 176, 256
-1.00346, 321, 121, 352, 184
-1.00349, 157, 97, 188, 160
-1.00352, 321, 1, 384, 64
-1.00352, 429, 113, 460, 176
-1.00358, 237, 153, 268, 216
-1.00359, 233, 209, 264, 336
-1.0036, 25, 241, 56, 368
-1.00364, 149, 193, 180, 256
-1.00368, 341, 73, 372, 136
-1.0037, 129, 249, 160, 312
-1.00374, 93, 129, 124, 256
-1.00375, 137, 65, 168, 128
-1.00376, 217, 153, 248, 216
-1.00377, 197, 233, 228, 296
-1.00377, 49, 161, 112, 224
-1.00378, 433, 193, 464, 320
-1.00379, 373, 33, 404, 96
-1.0038, 117, 289, 148, 352
-1.00381, 165, 241, 196, 368
-1.00387, 105, 241, 136, 368
-1.00395, 205, 113, 236, 240
-1.00397, 129, 17, 256, 144
-1.00401, 305, 73, 368, 136
-1.00404, 317, 145, 348, 208
-1.00405, 89, 113, 152, 176
-1.00409, 173, 113, 204, 240
-1.0041, 177, 313, 240, 375
-1.0041, 449, 33, 480, 96
-1.00411, 105, 265, 136, 328
-1.00415, 109, 129, 140, 192
-1.00415, 249, 113, 312, 240
-1.00415, 77, 145, 108, 272
-1.00418, 461, 49, 492, 176
-1.00421, 25, 201, 88, 264
-1.00422, 53, 241, 84, 368
-1.00422, 37, 241, 68, 368
-1.00436, 269, 113, 300, 240
-1.00438, 177, 209, 208, 336
-1.00442, 17, 241, 80, 304
-1.00456, 365, 1, 396, 128
-1.00462, 65, 129, 128, 375
-1.0049, 69, 241, 100, 368
-1.00493, 153, 65, 216, 192
-1.00497, 161, 113, 224, 176
-1.00512, 41, 145, 104, 272
-1.00513, 9, 273, 72, 336
-1.00515, 257, 129, 320, 375
-1.00523, 281, 113, 312, 240
-1.00527, 313, 25, 376, 88
-1.00533, 141, 33, 172, 160
-1.00536, 89, 65, 152, 128
-1.0054, 9, 241, 40, 368
-1.00545, 65, 129, 128, 192
-1.00546, 285, 161, 316, 288
-1.0055, 409, 193, 472, 320
-1.00551, 57, 177, 88, 304
-1.00581, 153, 33, 184, 160
-1.00591, 101, 81, 132, 208
-1.00594, 117, 49, 148, 176
-1.00596, 41, 193, 72, 320
-1.00602, 281, 65, 344, 320
-1.00606, 217, 225, 280, 288
-1.00612, 161, 65, 288, 192
-1.00616, 185, 33, 248, 288
-1.00636, 65, 33, 320, 288
-1.00639, 1, 129, 128, 256
-1.00641, 249, 209, 280, 336
-1.00644, 313, 81, 344, 208
-1.00645, 41, 97, 104, 352
-1.00645, 145, 49, 208, 112
-1.00647, 129, 17, 160, 144
-1.00647, 353, 1, 384, 128
-1.00655, 89, 65, 152, 192
-1.00672, 225, 129, 288, 192
-1.00673, 313, 145, 344, 272
-1.00677, 65, 33, 128, 288
-1.00682, 301, 145, 332, 272
-1.00686, 25, 177, 88, 240
-1.00691, 17, 193, 48, 320
-1.00691, 1, 217, 64, 280
-1.00693, 65, 105, 128, 168
-1.00695, 193, 225, 320, 352
-1.00704, 241, 33, 304, 288
-1.0071, 89, 1, 152, 256
-1.00711, 269, 209, 300, 336
-1.00719, 209, 33, 272, 288
-1.00723, 161, 193, 192, 320
-1.00735, 65, 17, 320, 144
-1.00753, 341, 1, 372, 128
-1.00768, 405, 177, 436, 304
-1.00772, 329, 1, 392, 128
-1.00772, 313, 193, 376, 256
-1.00773, 1, 81, 128, 208
-1.00775, 113, 33, 176, 160
-1.00779, 105, 33, 136, 160
-1.00782, 165, 49, 196, 176
-1.00787, 81, 97, 112, 224
-1.00792, 61, 129, 92, 256
-1.00803, 301, 97, 332, 224
-1.00803, 377, 161, 408, 288
-1.00809, 29, 193, 60, 320
-1.00816, 309, 193, 340, 320
-1.0083, 377, 185, 440, 248
-1.0083, 281, 201, 344, 264
-1.00838, 265, 129, 328, 192
-1.00841, 17, 129, 80, 375
-1.00841, 65, 73, 128, 136
-1.00843, 113, 41, 176, 104
-1.00851, 389, 177, 420, 304
-1.00855, 89, 41, 152, 104
-1.00855, 1, 193, 64, 256
-1.00857, 145, 17, 208, 144
-1.00863, 25, 193, 88, 320
-1.00869, 281, 209, 312, 336
-1.00876, 297, 49, 360, 112
-1.0088, 41, 145, 72, 272
-1.00889, 117, 1, 148, 128
-1.00891, 21, 145, 52, 272
-1.00893, 89, 17, 152, 144
-1.00899, 65, 81, 128, 208
-1.00903, 273, 65, 336, 128
-1.00903, 209, 265, 272, 328
-1.0091, 89, 49, 120, 176
-1.00913, 81, 17, 208, 144
-1.00916, 5, 193, 36, 320
-1.00917, 325, 17, 356, 144
-1.00924, 41, 137, 104, 200
-1.00924, 273, 41, 336, 104
-1.00924, 337, 201, 400, 264
-1.00928, 177, 65, 208, 192
-1.00929, 337, 313, 400, 375
-1.00929, 361, 313, 424, 375
-1.00929, 385, 313, 448, 375
-1.00929, 409, 313, 472, 375
-1.00929, 433, 313, 496, 375
-1.00932, 1, 225, 64, 352
-1.00939, 165, 1, 196, 128
-1.00939, 337, 209, 368, 336
-1.00966, 305, 193, 432, 320
-1.00978, 241, 209, 304, 336
-1.01023, 281, 193, 344, 320
-1.01038, 193, 17, 320, 144
-1.01038, 273, 241, 400, 368
-1.01038, 321, 241, 448, 368
-1.01038, 369, 241, 496, 368
-1.0108, 41, 1, 104, 256
-1.01086, 9, 1, 72, 256
-1.0116, 377, 177, 440, 304
-1.01192, 305, 193, 368, 320
-1.01299, 17, 145, 80, 272
-1.01308, 65, 33, 128, 160
-1.0137, 41, 97, 104, 224
-1.01406, 353, 193, 416, 320
-1.01442, 329, 209, 392, 336
-1.01471, 185, 33, 248, 160
-1.01478, 41, 1, 104, 128
-1.01478, 9, 33, 72, 160
-1.01478, 217, 33, 280, 160
-1.01478, 241, 33, 304, 160
-1.01478, 265, 33, 328, 160
-1.01478, 33, 49, 96, 176
-1.01478, 9, 81, 72, 208
-1.01478, 281, 241, 344, 368
-1.01478, 305, 241, 368, 368
-1.01478, 361, 241, 424, 368
-1.01478, 385, 241, 448, 368
-1.01478, 409, 241, 472, 368
-1.01478, 433, 241, 496, 368
