1971
-0.246526, 1, 1, 500, 375
-0.340232, 1, 1, 500, 256
-0.412331, 257, 1, 500, 375
-0.488818, 1, 97, 500, 352
-0.494104, 129, 1, 384, 375
-0.506637, 33, 1, 288, 375
-0.587504, 33, 1, 288, 256
-0.641277, 161, 1, 416, 256
-0.64347, 257, 97, 500, 352
-0.656697, 257, 1, 500, 256
-0.693847, 1, 97, 256, 352
-0.78336, 161, 97, 416, 352
-0.834575, 97, 1, 224, 256
-0.843516, 1, 1, 500, 128
-0.847694, 369, 97, 496, 352
-0.84931, 97, 1, 224, 375
-0.849314, 337, 1, 464, 375
-0.850707, 337, 1, 464, 256
-0.856539, 1, 65, 500, 192
-0.858246, 289, 1, 416, 375
-0.860971, 49, 1, 176, 256
-0.866304, 321, 97, 448, 352
-0.871794, 49, 1, 176, 375
-0.878748, 289, 1, 416, 256
-0.884769, 97, 97, 224, 352
-0.885092, 1, 1, 128, 375
-0.885638, 1, 1, 128, 256
-0.886119, 17, 97, 144, 352
-0.89829, 145, 33, 272, 288
-0.899042, 257, 1, 500, 128
-0.901006, 1, 193, 500, 320
-0.901246, 145, 1, 272, 375
-0.90196, 241, 1, 368, 256
-0.902781, 129, 1, 384, 128
-0.903011, 241, 1, 368, 375
-0.909575, 257, 49, 500, 176
-0.911944, 257, 193, 500, 320
-0.913344, 1, 49, 256, 176
-0.913384, 273, 97, 400, 352
-0.913979, 161, 49, 416, 176
-0.918116, 1, 1, 256, 128
-0.920464, 145, 129, 272, 375
-0.922398, 289, 1, 416, 128
-0.923237, 1, 145, 500, 272
-0.924532, 81, 33, 208, 160
-0.928539, 65, 97, 320, 224
-0.930805, 17, 17, 144, 144
-0.931251, 345, 17, 408, 144
-0.932879, 137, 49, 200, 176
-0.932956, 113, 33, 176, 160
-0.933996, 313, 1, 376, 128
-0.934352, 369, 193, 496, 320
-0.935051, 33, 33, 96, 160
-0.935167, 9, 33, 72, 160
-0.935203, 353, 1, 480, 128
-0.93593, 209, 97, 336, 352
-0.935947, 409, 81, 472, 208
-0.936866, 345, 65, 408, 192
-0.936973, 433, 49, 496, 176
-0.937152, 289, 65, 416, 192
-0.937246, 393, 209, 456, 336
-0.937479, 89, 49, 152, 176
-0.939146, 225, 145, 480, 272
-0.939216, 225, 241, 480, 368
-0.939357, 257, 97, 500, 224
-0.940001, 1, 241, 500, 368
-0.940927, 433, 209, 496, 336
-0.941591, 49, 81, 176, 208
-0.941839, 137, 1, 200, 128
-0.943258, 377, 17, 440, 144
-0.945588, 65, 193, 320, 320
-0.945924, 17, 81, 80, 208
-0.945975, 433, 1, 496, 128
-0.946367, 321, 193, 448, 320
-0.946465, 57, 17, 120, 144
-0.94685, 33, 145, 288, 272
-0.946869, 425, 161, 488, 288
-0.94713, 369, 193, 432, 320
-0.947202, 377, 113, 440, 240
-0.94755, 345, 57, 408, 120
-0.947758, 369, 145, 496, 272
-0.947847, 113, 41, 176, 104
-0.948326, 137, 113, 200, 240
-0.94841, 337, 49, 464, 176
-0.949596, 89, 1, 152, 128
-0.949635, 345, 9, 408, 72
-0.94991, 433, 57, 496, 120
-0.950423, 401, 113, 464, 176
-0.950866, 1, 65, 128, 192
-0.95107, 73, 97, 136, 224
-0.951144, 321, 73, 384, 136
-0.951308, 97, 97, 160, 224
-0.951527, 353, 97, 480, 224
-0.952027, 193, 1, 320, 375
-0.952128, 129, 145, 384, 272
-0.952244, 345, 81, 408, 144
-0.952253, 49, 97, 112, 224
-0.95229, 97, 81, 224, 208
-0.952491, 425, 113, 488, 176
-0.952705, 105, 17, 168, 80
-0.953732, 377, 65, 440, 192
-0.954758, 49, 105, 112, 168
-0.954998, 433, 9, 496, 72
-0.955326, 17, 57, 80, 120
-0.955419, 25, 81, 88, 144
-0.955509, 281, 49, 344, 176
-0.955647, 321, 65, 384, 192
-0.95579, 97, 105, 160, 168
-0.956053, 433, 137, 496, 200
-0.956352, 313, 33, 376, 96
-0.956526, 129, 33, 256, 160
-0.956673, 161, 97, 416, 224
-0.956686, 137, 49, 200, 112
-0.956836, 401, 161, 464, 288
-0.956958, 73, 33, 136, 96
-0.95714, 433, 81, 496, 144
-0.957583, 161, 193, 416, 320
-0.957598, 241, 33, 368, 160
-0.957939, 377, 113, 440, 176
-0.958376, 121, 97, 184, 160
-0.958622, 345, 33, 408, 96
-0.958737, 137, 137, 200, 200
-0.958797, 33, 25, 96, 88
-0.959097, 129, 17, 192, 80
-0.959283, 161, 65, 224, 192
-0.959315, 369, 241, 496, 368
-0.959447, 385, 73, 448, 136
-0.959745, 409, 137, 472, 200
-0.960499, 409, 33, 472, 160
-0.960552, 377, 209, 440, 272
-0.960835, 385, 129, 448, 375
-0.96146, 289, 1, 352, 128
-0.962121, 33, 129, 160, 256
-0.962225, 49, 73, 112, 136
-0.962495, 1, 89, 64, 152
-0.962934, 425, 217, 488, 280
-0.962946, 377, 25, 440, 88
-0.963072, 433, 97, 496, 224
-0.963109, 241, 225, 304, 352
-0.963221, 313, 1, 376, 64
-0.963451, 385, 137, 448, 200
-0.963542, 177, 65, 304, 192
-0.963809, 89, 57, 152, 120
-0.963816, 433, 249, 496, 312
-0.964112, 409, 33, 472, 96
-0.964164, 113, 129, 240, 256
-0.964335, 241, 209, 368, 336
-0.964369, 9, 1, 72, 64
-0.964638, 369, 49, 432, 112
-0.964886, 305, 241, 432, 368
-0.965002, 345, 1, 408, 256
-0.965079, 105, 33, 168, 288
-0.965275, 137, 73, 200, 136
-0.965395, 1, 33, 64, 96
-0.965806, 369, 217, 496, 280
-0.965834, 81, 81, 144, 144
-0.965949, 129, 1, 192, 256
-0.966361, 297, 97, 360, 224
-0.966421, 289, 17, 416, 80
-0.96651, 305, 113, 432, 240
-0.966614, 129, 241, 384, 368
-0.966623, 281, 57, 344, 120
-0.966632, 73, 105, 136, 168
-0.96755, 353, 105, 416, 168
-0.967567, 193, 1, 320, 256
-0.967819, 161, 209, 288, 336
-0.967824, 117, 1, 148, 128
-0.967983, 89, 129, 152, 192
-0.968234, 49, 25, 176, 88
-0.968324, 401, 217, 464, 280
-0.968347, 433, 33, 496, 96
-0.9684, 113, 65, 176, 128
-0.968495, 409, 97, 472, 352
-0.968563, 105, 145, 168, 272
-0.968579, 265, 1, 328, 128
-0.968594, 97, 41, 224, 104
-0.968654, 289, 41, 416, 104
-0.968866, 117, 9, 148, 72
-0.968922, 49, 49, 112, 112
-0.969158, 37, 25, 68, 88
-0.969224, 25, 121, 88, 184
-0.969247, 37, 17, 68, 144
-0.969429, 409, 89, 472, 152
-0.969453, 433, 33, 496, 288
-0.969463, 345, 193, 408, 320
-0.969632, 369, 1, 400, 128
-0.969656, 25, 1, 88, 256
-0.969951, 265, 177, 328, 304
-0.969993, 145, 97, 208, 160
-0.970148, 425, 273, 488, 336
-0.970482, 17, 49, 144, 112
-0.970609, 369, 241, 432, 368
-0.970673, 369, 113, 496, 176
-0.970855, 425, 113, 456, 176
-0.970884, 321, 97, 384, 160
-0.970896, 429, 209, 460, 336
-0.970904, 81, 9, 144, 72
-0.970939, 273, 161, 400, 288
-0.971002, 369, 65, 400, 128
-0.971162, 437, 113, 468, 176
-0.97121, 377, 1, 440, 64
-0.971215, 469, 225, 500, 288
-0.971245, 289, 65, 416, 128
-0.97125, 241, 81, 368, 208
-0.971316, 161, 145, 288, 272
-0.971589, 353, 145, 416, 272
-0.971762, 49, 73, 176, 136
-0.972206, 117, 33, 148, 96
-0.972252, 349, 1, 380, 128
-0.972391, 461, 1, 492, 128
-0.972656, 465, 121, 496, 184
-0.972679, 353, 17, 480, 80
-0.972682, 37, 65, 68, 128
-0.973031, 153, 105, 184, 168
-0.973124, 97, 97, 224, 160
-0.973134, 313, 57, 344, 120
-0.973195, 409, 1, 472, 64
-0.973209, 97, 161, 160, 224
-0.973242, 25, 129, 88, 256
-0.973342, 409, 113, 440, 176
-0.973461, 389, 113, 420, 240
-0.973482, 461, 9, 492, 72
-0.973484, 49, 177, 176, 304
-0.973542, 97, 17, 224, 80
-0.974019, 249, 225, 312, 288
-0.974067, 369, 81, 496, 144
-0.974173, 177, 1, 240, 128
-0.974467, 385, 1, 448, 256
-0.97451, 405, 193, 436, 320
-0.974625, 153, 17, 216, 80
-0.974716, 329, 65, 360, 128
-0.974717, 209, 129, 336, 256
-0.974748, 297, 89, 360, 152
-0.974761, 193, 161, 256, 288
-0.97485, 401, 281, 464, 344
-0.974875, 201, 177, 264, 240
-0.974909, 341, 73, 372, 136
-0.974917, 165, 49, 196, 176
-0.974963, 353, 97, 416, 352
-0.975062, 469, 193, 500, 320
-0.975152, 33, 1, 96, 64
-0.975169, 337, 49, 464, 112
-0.975349, 225, 177, 288, 304
-0.975372, 361, 145, 424, 208
-0.975376, 133, 17, 164, 80
-0.97545, 449, 137, 480, 200
-0.975519, 121, 49, 152, 176
-0.975522, 305, 89, 432, 152
-0.975559, 321, 65, 384, 320
-0.975559, 165, 105, 196, 168
-0.975603, 441, 81, 472, 208
-0.975666, 437, 49, 468, 112
-0.975698, 1, 25, 128, 88
-0.975706, 133, 49, 164, 112
-0.975741, 461, 41, 492, 104
-0.975902, 97, 33, 128, 160
-0.976014, 49, 97, 176, 160
-0.976058, 289, 145, 352, 272
-0.976107, 317, 1, 348, 128
-0.976237, 133, 33, 164, 160
-0.976264, 289, 9, 352, 72
-0.976314, 389, 33, 420, 160
-0.976315, 117, 73, 148, 136
-0.976318, 353, 73, 384, 136
-0.976378, 449, 161, 480, 288
-0.976428, 177, 17, 304, 144
-0.976499, 437, 73, 468, 136
-0.976566, 1, 97, 128, 160
-0.976702, 373, 41, 404, 104
-0.976748, 461, 65, 492, 128
-0.977082, 65, 129, 128, 192
-0.977096, 17, 33, 48, 160
-0.977101, 37, 65, 68, 192
-0.977107, 417, 113, 448, 240
-0.977135, 449, 209, 480, 336
-0.977139, 369, 137, 496, 200
-0.977149, 433, 137, 464, 200
-0.977407, 73, 1, 136, 256
-0.977462, 369, 65, 400, 192
-0.977552, 389, 105, 420, 168
-0.977572, 257, 129, 320, 256
-0.977757, 353, 41, 384, 104
-0.977823, 49, 1, 112, 256
-0.977849, 161, 129, 224, 192
-0.977879, 97, 65, 224, 128
-0.978, 273, 81, 336, 144
-0.978118, 265, 225, 328, 352
-0.978135, 53, 97, 84, 224
-0.978143, 17, 49, 48, 112
-0.978311, 113, 193, 240, 320
-0.978461, 177, 97, 240, 160
-0.978478, 457, 89, 488, 152
-0.978583, 57, 17, 88, 144
-0.978594, 453, 225, 484, 288
-0.978624, 433, 1, 496, 375
-0.978655, 345, 1, 408, 375
-0.978699, 265, 193, 328, 256
-0.978704, 57, 113, 88, 176
-0.978717, 249, 81, 312, 208
-0.978723, 49, 1, 176, 64
-0.978734, 417, 209, 448, 336
-0.97891, 141, 121, 172, 184
-0.978954, 449, 113, 480, 176
-0.97904, 41, 89, 72, 152
-0.979099, 357, 49, 388, 176
-0.97913, 217, 129, 280, 256
-0.979229, 401, 113, 432, 240
-0.979253, 389, 193, 420, 320
-0.979253, 373, 1, 404, 64
-0.979331, 1, 1, 64, 256
-0.979353, 53, 41, 84, 104
-0.979472, 273, 33, 336, 96
-0.979485, 377, 265, 440, 328
-0.979606, 105, 193, 168, 256
-0.979689, 297, 1, 328, 128
-0.979791, 249, 273, 312, 336
-0.979845, 429, 161, 460, 288
-0.979901, 409, 65, 472, 128
-0.979914, 321, 113, 448, 176
-0.979963, 393, 129, 424, 192
-0.979986, 433, 129, 496, 375
-0.980001, 137, 97, 200, 352
-0.980075, 469, 81, 500, 208
-0.980098, 129, 217, 192, 280
-0.980099, 81, 97, 112, 224
-0.98012, 369, 265, 496, 328
-0.980214, 113, 129, 176, 192
-0.980225, 421, 73, 452, 136
-0.980311, 161, 129, 224, 256
-0.980327, 417, 137, 448, 200
-0.980378, 177, 65, 240, 128
-0.980429, 241, 65, 368, 128
-0.980448, 153, 129, 184, 192
-0.980456, 305, 145, 432, 208
-0.980524, 425, 65, 456, 192
-0.980627, 57, 81, 88, 144
-0.980745, 389, 73, 420, 136
-0.980794, 329, 145, 392, 272
-0.980877, 173, 1, 204, 128
-0.98092, 313, 49, 344, 176
-0.980958, 145, 113, 176, 240
-0.980961, 165, 65, 196, 128
-0.980996, 69, 113, 100, 176
-0.981142, 281, 169, 344, 232
-0.981158, 101, 89, 132, 152
-0.98117, 121, 97, 152, 160
-0.981237, 457, 49, 488, 176
-0.98127, 289, 1, 352, 256
-0.981289, 401, 257, 464, 320
-0.981351, 429, 217, 460, 280
-0.98138, 337, 185, 400, 248
-0.981381, 217, 65, 280, 192
-0.981439, 17, 121, 144, 184
-0.981446, 41, 97, 104, 352
-0.9815, 25, 81, 56, 144
-0.981504, 145, 33, 176, 160
-0.981531, 353, 9, 384, 72
-0.981531, 97, 33, 128, 96
-0.981537, 65, 97, 128, 352
-0.981592, 337, 65, 368, 192
-0.981612, 105, 1, 168, 375
-0.981628, 101, 113, 132, 176
-0.981659, 65, 185, 128, 248
-0.981669, 413, 65, 444, 192
-0.981669, 429, 113, 460, 240
-0.981676, 469, 249, 500, 312
-0.981688, 265, 1, 328, 64
-0.981688, 433, 193, 496, 256
-0.981811, 469, 145, 500, 208
-0.981835, 313, 25, 344, 88
-0.981881, 257, 153, 320, 216
-0.981886, 133, 97, 164, 224
-0.98192, 53, 17, 84, 80
-0.981973, 329, 153, 392, 216
-0.982016, 89, 105, 120, 168
-0.982123, 141, 97, 172, 160
-0.982205, 137, 193, 200, 320
-0.982225, 369, 89, 400, 152
-0.982231, 345, 241, 408, 368
-0.98226, 1, 113, 64, 176
-0.982283, 241, 41, 368, 104
-0.982283, 361, 289, 424, 352
-0.982294, 297, 17, 328, 80
-0.982304, 437, 1, 468, 128
-0.982316, 241, 185, 304, 248
-0.982362, 1, 49, 32, 176
-0.982364, 369, 1, 432, 375
-0.982368, 313, 89, 344, 152
-0.982486, 109, 81, 140, 208
-0.982487, 65, 145, 128, 272
-0.98259, 169, 33, 232, 288
-0.982688, 209, 225, 272, 352
-0.982701, 113, 137, 240, 200
-0.982841, 161, 65, 288, 128
-0.982865, 405, 137, 436, 200
-0.98289, 57, 9, 120, 72
-0.982892, 389, 9, 420, 72
-0.982947, 401, 209, 432, 272
-0.982986, 25, 81, 56, 208
-0.983033, 257, 89, 384, 152
-0.983098, 453, 249, 484, 312
-0.983209, 169, 41, 232, 104
-0.983243, 289, 185, 416, 248
-0.983278, 161, 1, 192, 128
-0.983337, 377, 193, 408, 320
-0.983364, 17, 25, 48, 88
-0.983395, 469, 145, 500, 272
-0.983412, 329, 89, 360, 152
-0.983454, 169, 129, 200, 192
-0.983528, 1, 177, 128, 304
-0.983648, 377, 113, 408, 240
-0.983664, 137, 1, 200, 375
-0.983683, 201, 153, 264, 216
-0.9837, 33, 1, 64, 64
-0.98373, 233, 153, 296, 216
-0.983754, 177, 185, 240, 248
-0.983766, 101, 65, 132, 128
-0.983776, 353, 241, 480, 304
-0.983826, 353, 209, 416, 272
-0.983952, 281, 145, 344, 208
-0.984005, 417, 161, 448, 288
-0.984021, 25, 105, 56, 168
-0.984091, 329, 129, 392, 192
-0.984109, 361, 169, 424, 232
-0.984113, 441, 217, 472, 280
-0.984144, 389, 49, 420, 112
-0.984228, 325, 49, 356, 176
-0.984242, 145, 25, 272, 88
-0.984319, 69, 97, 100, 224
-0.984338, 225, 9, 352, 72
-0.984374, 73, 89, 104, 152
-0.984398, 17, 1, 80, 375
-0.98446, 1, 241, 256, 368
-0.98451, 441, 9, 472, 72
-0.984524, 409, 1, 472, 256
-0.984585, 317, 1, 348, 64
-0.98464, 1, 73, 128, 136
-0.984687, 225, 233, 352, 296
-0.984697, 65, 153, 128, 216
-0.984706, 257, 209, 288, 336
-0.984729, 145, 89, 272, 152
-0.984741, 433, 273, 464, 336
-0.984773, 97, 97, 128, 224
-0.98479, 45, 113, 76, 176
-0.984791, 69, 33, 100, 160
-0.984799, 125, 145, 156, 208
-0.984812, 321, 1, 384, 375
-0.984877, 89, 81, 120, 144
-0.984943, 181, 49, 212, 176
-0.984954, 301, 65, 332, 128
-0.984961, 233, 249, 296, 312
-0.985021, 245, 241, 276, 304
-0.985022, 289, 193, 352, 256
-0.98503, 289, 1, 352, 375
-0.98504, 217, 73, 280, 136
-0.985086, 289, 209, 352, 336
-0.985119, 321, 209, 448, 272
-0.985147, 161, 209, 288, 272
-0.985174, 65, 121, 192, 184
-0.985182, 373, 145, 404, 208
-0.985189, 425, 161, 488, 224
-0.985201, 353, 257, 416, 320
-0.985209, 317, 97, 348, 224
-0.985217, 149, 25, 180, 88
-0.985263, 137, 145, 168, 208
-0.985278, 321, 265, 448, 328
-0.98539, 153, 209, 216, 272
-0.985463, 405, 89, 436, 152
-0.985482, 245, 209, 276, 336
-0.985482, 1, 129, 64, 256
-0.985522, 137, 177, 200, 240
-0.985629, 297, 49, 328, 176
-0.985684, 389, 209, 420, 272
-0.985711, 177, 9, 240, 72
-0.985738, 469, 97, 500, 160
-0.985744, 145, 113, 272, 176
-0.985758, 401, 193, 464, 256
-0.985787, 337, 289, 464, 352
-0.985843, 193, 145, 320, 208
-0.98588, 209, 169, 240, 232
-0.985914, 341, 97, 372, 160
-0.986051, 1, 1, 128, 64
-0.986072, 49, 177, 176, 240
-0.986072, 33, 145, 96, 208
-0.986133, 145, 49, 176, 112
-0.986187, 341, 1, 372, 64
-0.986193, 281, 113, 344, 176
-0.986229, 453, 113, 484, 240
-0.98624, 337, 1, 368, 128
-0.986357, 181, 33, 212, 96
-0.986361, 209, 249, 272, 312
-0.986431, 73, 1, 136, 375
-0.986442, 193, 185, 320, 248
-0.986495, 185, 49, 248, 176
-0.986522, 409, 1, 472, 375
-0.986568, 165, 25, 196, 88
-0.986802, 181, 65, 212, 128
-0.986812, 329, 33, 360, 96
-0.986849, 161, 193, 224, 320
-0.986868, 85, 49, 116, 176
-0.986895, 13, 97, 44, 160
-0.986903, 5, 17, 36, 80
-0.986977, 241, 281, 368, 344
-0.987001, 257, 17, 500, 80
-0.987007, 25, 193, 88, 256
-0.987046, 281, 145, 312, 208
-0.987061, 97, 1, 128, 64
-0.987078, 225, 209, 288, 272
-0.987158, 461, 241, 492, 368
-0.987347, 401, 65, 432, 192
-0.987394, 49, 1, 112, 375
-0.987405, 241, 177, 368, 240
-0.987422, 297, 41, 328, 104
-0.987428, 113, 193, 176, 320
-0.98749, 133, 73, 164, 136
-0.987519, 305, 145, 368, 208
-0.987632, 417, 217, 448, 280
-0.987653, 241, 81, 304, 144
-0.987664, 377, 113, 408, 176
-0.987673, 177, 105, 208, 168
-0.987718, 1, 17, 500, 80
-0.987811, 121, 97, 152, 224
-0.987814, 273, 217, 336, 280
-0.98789, 89, 129, 120, 192
-0.9879, 301, 177, 332, 240
-0.987909, 353, 97, 384, 160
-0.987912, 385, 169, 448, 232
-0.98798, 165, 129, 196, 256
-0.988098, 1, 241, 128, 368
-0.988129, 313, 177, 376, 240
-0.988162, 65, 201, 192, 264
-0.988182, 129, 177, 256, 240
-0.988198, 13, 81, 44, 208
-0.988277, 185, 1, 216, 128
-0.988285, 153, 217, 184, 280
-0.988315, 21, 1, 52, 64
-0.988361, 257, 145, 384, 208
-0.988374, 345, 21, 408, 52
-0.98839, 345, 65, 408, 96
-0.98841, 185, 121, 248, 184
-0.988449, 313, 81, 376, 112
-0.988454, 137, 133, 200, 164
-0.988482, 1, 89, 32, 152
-0.988522, 105, 33, 168, 64
-0.988523, 105, 45, 168, 76
-0.988582, 65, 25, 96, 88
-0.988583, 401, 241, 432, 368
-0.988638, 433, 73, 496, 104
-0.988659, 353, 161, 480, 224
-0.98866, 233, 121, 296, 184
-0.98869, 261, 233, 292, 296
-0.988692, 161, 17, 416, 80
-0.988701, 33, 117, 96, 148
-0.988705, 369, 193, 496, 256
-0.98876, 337, 281, 400, 344
-0.988863, 177, 241, 304, 304
-0.988896, 57, 117, 120, 148
-0.988931, 73, 37, 136, 68
-0.98895, 33, 129, 64, 256
-0.988982, 285, 185, 316, 248
-0.989002, 17, 97, 80, 128
-0.989027, 365, 145, 396, 272
-0.98905, 433, 229, 496, 260
-0.98905, 129, 49, 384, 112
-0.989053, 161, 129, 224, 375
-0.989058, 153, 81, 184, 144
-0.989071, 1, 41, 64, 72
-0.989121, 73, 193, 136, 320
-0.989144, 129, 37, 192, 68
-0.989155, 345, 77, 408, 108
-0.989173, 269, 209, 300, 336
-0.989175, 393, 137, 456, 168
-0.989184, 105, 113, 168, 144
-0.989203, 41, 33, 104, 64
-0.989236, 273, 209, 400, 272
-0.989289, 33, 129, 96, 160
-0.989296, 17, 77, 80, 108
-0.989297, 273, 121, 400, 184
-0.989306, 433, 29, 496, 60
-0.989313, 1, 137, 64, 200
-0.989344, 17, 145, 144, 208
-0.989384, 9, 61, 72, 92
-0.989413, 89, 21, 152, 52
-0.989425, 345, 89, 408, 120
-0.989473, 97, 101, 160, 132
-0.98952, 305, 25, 368, 56
-0.989581, 161, 1, 288, 64
-0.989588, 25, 169, 88, 232
-0.989603, 433, 61, 496, 92
-0.98962, 313, 13, 376, 44
-0.989628, 25, 49, 88, 80
-0.989628, 201, 201, 264, 264
-0.989637, 73, 105, 136, 136
-0.989649, 385, 241, 416, 368
-0.989656, 193, 113, 256, 240
-0.989662, 341, 41, 372, 104
-0.989672, 289, 241, 416, 304
-0.989684, 433, 17, 496, 48
-0.989698, 129, 21, 192, 52
-0.989707, 121, 97, 184, 128
-0.989746, 361, 53, 424, 84
-0.989756, 337, 9, 400, 40
-0.989763, 129, 49, 192, 80
-0.989778, 361, 37, 424, 68
-0.989786, 461, 201, 492, 264
-0.989793, 105, 125, 168, 156
-0.989832, 345, 233, 408, 296
-0.989844, 385, 113, 448, 144
-0.989845, 273, 281, 336, 344
-0.989901, 377, 77, 440, 108
-0.989903, 1, 65, 500, 128
-0.989944, 401, 1, 432, 64
-0.989947, 433, 145, 496, 176
-0.989967, 17, 97, 80, 352
-0.989969, 345, 101, 408, 132
-0.990013, 49, 105, 112, 136
-0.990061, 433, 105, 496, 136
-0.990103, 65, 225, 192, 352
-0.99011, 377, 213, 440, 244
-0.990111, 129, 145, 192, 176
-0.990111, 421, 49, 452, 112
-0.99017, 377, 25, 440, 56
-0.990174, 105, 57, 168, 88
-0.990177, 209, 145, 240, 272
-0.990185, 9, 113, 72, 144
-0.990215, 377, 13, 440, 44
-0.990218, 33, 193, 96, 320
-0.99023, 433, 85, 496, 116
-0.990242, 369, 141, 432, 172
-0.990253, 9, 281, 72, 344
-0.99026, 113, 121, 144, 184
-0.990283, 49, 49, 112, 80
-0.990287, 337, 37, 400, 68
-0.990299, 257, 41, 500, 104
-0.990311, 33, 65, 96, 96
-0.990312, 417, 265, 448, 328
-0.990322, 305, 37, 368, 68
-0.990344, 409, 81, 472, 112
-0.990346, 65, 129, 128, 160
-0.990354, 1, 41, 500, 104
-0.990365, 137, 85, 200, 116
-0.990369, 313, 1, 376, 32
-0.990379, 305, 69, 368, 100
-0.99038, 433, 49, 496, 80
-0.990399, 145, 105, 208, 136
-0.990409, 9, 225, 72, 352
-0.990419, 89, 129, 152, 375
-0.990435, 225, 273, 288, 336
-0.990469, 409, 101, 472, 132
-0.990477, 141, 217, 172, 280
-0.990478, 433, 5, 496, 36
-0.990485, 289, 289, 416, 352
-0.990487, 9, 29, 72, 60
-0.990504, 401, 221, 464, 252
-0.990511, 1, 1, 32, 128
-0.990516, 449, 57, 480, 120
-0.990518, 393, 125, 456, 156
-0.990531, 81, 53, 144, 84
-0.990537, 73, 93, 136, 124
-0.990538, 193, 273, 320, 336
-0.990548, 33, 41, 288, 104
-0.990557, 129, 121, 192, 152
-0.990558, 65, 25, 128, 56
-0.990559, 49, 93, 112, 124
-0.990562, 273, 73, 336, 104
-0.990567, 113, 217, 240, 280
-0.990571, 281, 93, 344, 124
-0.990602, 425, 117, 488, 148
-0.990611, 45, 137, 76, 200
-0.990649, 337, 53, 400, 84
-0.990662, 289, 97, 352, 352
-0.990666, 97, 73, 160, 104
-0.990698, 77, 41, 108, 104
-0.990698, 241, 265, 272, 328
-0.99071, 81, 117, 144, 148
-0.990727, 49, 77, 112, 108
-0.990732, 97, 141, 160, 172
-0.990745, 361, 153, 392, 216
-0.990787, 113, 85, 176, 116
-0.990794, 369, 65, 432, 96
-0.990795, 33, 129, 64, 192
-0.990797, 33, 21, 96, 52
-0.990822, 425, 1, 456, 64
-0.990827, 9, 129, 72, 160
-0.990844, 137, 73, 200, 104
-0.990856, 409, 13, 472, 44
-0.990862, 313, 193, 376, 320
-0.990915, 321, 101, 384, 132
-0.990946, 401, 153, 464, 184
-0.991026, 377, 89, 440, 120
-0.991029, 257, 113, 500, 176
-0.991053, 33, 89, 288, 152
-0.991109, 361, 121, 424, 152
-0.991115, 129, 9, 192, 40
-0.991119, 137, 61, 200, 92
-0.991154, 329, 141, 392, 172
-0.991178, 73, 65, 136, 96
-0.991246, 377, 101, 440, 132
-0.99125, 1, 193, 128, 256
-0.991275, 161, 1, 224, 375
-0.991303, 105, 9, 168, 40
-0.991327, 45, 145, 76, 272
-0.991329, 409, 57, 472, 88
-0.991329, 201, 181, 264, 212
-0.99133, 97, 173, 160, 204
-0.991363, 273, 61, 336, 92
-0.991383, 105, 153, 168, 184
-0.9914, 421, 17, 452, 144
-0.991422, 433, 265, 496, 296
-0.991439, 409, 29, 472, 60
-0.991441, 385, 37, 448, 68
-0.991457, 153, 37, 216, 68
-0.991459, 361, 1, 424, 32
-0.991551, 225, 241, 480, 304
-0.991572, 273, 13, 336, 44
-0.991604, 433, 217, 496, 248
-0.991608, 313, 49, 376, 80
-0.991622, 1, 65, 256, 128
-0.99163, 129, 73, 384, 136
-0.991631, 9, 17, 72, 48
-0.991631, 161, 137, 224, 168
-0.99166, 257, 73, 500, 136
-0.991668, 253, 161, 284, 288
-0.99168, 409, 69, 472, 100
-0.991682, 73, 141, 136, 172
-0.991691, 249, 277, 312, 308
-0.991701, 385, 53, 448, 84
-0.991702, 417, 129, 480, 160
-0.991707, 349, 97, 380, 224
-0.991715, 433, 277, 496, 308
-0.991728, 177, 85, 240, 116
-0.991732, 1, 1, 256, 64
-0.991735, 73, 77, 136, 108
-0.991782, 257, 233, 320, 264
-0.991791, 177, 125, 240, 156
-0.991795, 289, 105, 352, 136
-0.991796, 225, 141, 288, 172
-0.99181, 257, 137, 500, 200
-0.991814, 169, 97, 232, 128
-0.991825, 273, 33, 336, 64
-0.991834, 257, 217, 500, 280
-0.991847, 9, 5, 72, 36
-0.991866, 409, 45, 472, 76
-0.991893, 377, 153, 440, 184
-0.991908, 113, 129, 176, 375
-0.991909, 281, 185, 344, 216
-0.991937, 209, 89, 336, 152
-0.991975, 149, 133, 180, 164
-0.992089, 117, 21, 148, 52
-0.992117, 1, 89, 500, 152
-0.992134, 289, 41, 416, 72
-0.992136, 181, 129, 212, 256
-0.992143, 465, 229, 496, 260
-0.992166, 369, 65, 400, 96
-0.992189, 117, 45, 148, 76
-0.992203, 305, 97, 336, 224
-0.992218, 37, 61, 68, 92
-0.992278, 193, 129, 256, 375
-0.992296, 313, 65, 344, 96
-0.992301, 289, 21, 416, 52
-0.992305, 457, 61, 488, 92
-0.992325, 41, 81, 72, 112
-0.992329, 9, 177, 72, 304
-0.99234, 317, 85, 348, 116
-0.992347, 133, 33, 164, 64
-0.992356, 1, 97, 32, 224
-0.992365, 129, 177, 160, 304
-0.992369, 457, 73, 488, 104
-0.992415, 313, 25, 344, 56
-0.992417, 349, 81, 380, 112
-0.992418, 465, 13, 496, 44
-0.992433, 37, 45, 68, 76
-0.992434, 193, 121, 320, 184
-0.992458, 61, 125, 92, 156
-0.992462, 113, 33, 144, 64
-0.992479, 53, 33, 84, 64
-0.992484, 369, 53, 400, 84
-0.992487, 297, 145, 328, 272
-0.992499, 441, 77, 472, 108
-0.992499, 369, 81, 400, 112
-0.992501, 33, 29, 64, 60
-0.992503, 161, 133, 192, 164
-0.992504, 285, 209, 316, 336
-0.992514, 117, 57, 148, 88
-0.992521, 97, 49, 224, 80
-0.992531, 89, 121, 120, 152
-0.992557, 461, 49, 492, 80
-0.992558, 121, 93, 152, 124
-0.992564, 465, 1, 496, 32
-0.992566, 133, 113, 164, 144
-0.992572, 17, 45, 48, 76
-0.99258, 341, 25, 372, 56
-0.992586, 373, 41, 404, 72
-0.992586, 77, 129, 108, 160
-0.992599, 373, 13, 404, 44
-0.992613, 61, 101, 92, 132
-0.992614, 417, 137, 448, 168
-0.99263, 457, 89, 488, 120
-0.992632, 117, 81, 148, 112
-0.992636, 409, 117, 440, 148
-0.99264, 265, 97, 328, 352
-0.992641, 405, 137, 436, 168
-0.992641, 53, 49, 84, 80
-0.992646, 381, 145, 412, 176
-0.992646, 41, 105, 72, 136
-0.992652, 117, 69, 148, 100
-0.992654, 133, 149, 164, 180
-0.992658, 133, 53, 164, 84
-0.992659, 149, 97, 180, 128
-0.992659, 437, 141, 468, 172
-0.992667, 149, 121, 180, 152
-0.992671, 313, 13, 344, 44
-0.992672, 97, 29, 128, 60
-0.992673, 453, 145, 484, 176
-0.992674, 353, 25, 384, 56
-0.992678, 465, 25, 496, 56
-0.992678, 461, 37, 492, 68
-0.992679, 433, 121, 464, 152
-0.992682, 369, 93, 400, 124
-0.992693, 45, 117, 76, 148
-0.992694, 61, 113, 92, 144
-0.9927, 105, 121, 136, 152
-0.992706, 457, 101, 488, 132
-0.992709, 77, 109, 108, 140
-0.992718, 17, 45, 144, 76
-0.99272, 57, 85, 88, 116
-0.992721, 41, 93, 72, 124
-0.992735, 409, 17, 440, 144
-0.992741, 389, 21, 420, 52
-0.992754, 313, 45, 344, 76
-0.992762, 133, 21, 164, 52
-0.992765, 97, 41, 128, 72
-0.992766, 437, 89, 468, 120
-0.992767, 429, 221, 460, 252
-0.99277, 165, 85, 196, 116
-0.992771, 281, 129, 312, 256
-0.992782, 397, 113, 428, 144
-0.992783, 121, 109, 152, 140
-0.992795, 225, 33, 288, 288
-0.992795, 469, 145, 500, 176
-0.992797, 73, 29, 104, 60
-0.992806, 101, 105, 132, 136
-0.992806, 297, 17, 328, 48
-0.99281, 373, 29, 404, 60
-0.992813, 425, 77, 456, 108
-0.992821, 209, 209, 336, 272
-0.992824, 469, 245, 500, 276
-0.992828, 453, 257, 484, 288
-0.992837, 353, 13, 384, 44
-0.992844, 421, 121, 452, 152
-0.992845, 393, 137, 424, 168
-0.992849, 65, 153, 192, 216
-0.992863, 333, 97, 364, 128
-0.992879, 49, 129, 80, 160
-0.992883, 173, 133, 204, 164
-0.992889, 117, 9, 148, 40
-0.992891, 17, 57, 48, 88
-0.992891, 441, 57, 472, 88
-0.992911, 329, 77, 360, 108
-0.992913, 209, 177, 240, 208
-0.992917, 353, 45, 384, 76
-0.992922, 361, 141, 392, 172
-0.992922, 409, 217, 440, 248
-0.992923, 133, 77, 164, 108
-0.992924, 101, 85, 132, 116
-0.992925, 341, 13, 372, 44
-0.992927, 17, 33, 48, 64
-0.992928, 145, 49, 176, 80
-0.99293, 441, 269, 472, 300
-0.992938, 369, 1, 400, 32
-0.992939, 317, 105, 348, 136
-0.99294, 137, 137, 168, 168
-0.992942, 33, 17, 64, 48
-0.992945, 97, 57, 128, 88
-0.992949, 25, 93, 56, 124
-0.99295, 1, 29, 32, 60
-0.992956, 33, 129, 64, 160
-0.992956, 53, 61, 84, 92
-0.992959, 385, 101, 416, 132
-0.992966, 21, 77, 52, 108
-0.992966, 389, 9, 420, 40
-0.992967, 89, 109, 120, 140
-0.992967, 53, 21, 84, 52
-0.992969, 393, 213, 424, 244
-0.992992, 9, 105, 40, 136
-0.992996, 301, 65, 332, 96
-0.993, 297, 29, 328, 60
-0.993005, 329, 25, 360, 56
-0.99301, 289, 53, 416, 84
-0.993014, 29, 117, 60, 148
-0.993017, 297, 53, 328, 84
-0.99302, 161, 121, 192, 152
-0.993027, 165, 105, 196, 136
-0.993033, 389, 57, 420, 88
-0.993038, 449, 241, 480, 272
-0.993038, 133, 93, 164, 124
-0.993042, 429, 101, 460, 132
-0.993042, 297, 41, 328, 72
-0.993043, 185, 209, 248, 336
-0.993077, 221, 193, 252, 320
-0.993083, 241, 257, 368, 320
-0.993116, 49, 29, 176, 60
-0.993146, 193, 185, 448, 248
-0.993155, 289, 73, 416, 104
-0.993169, 437, 113, 452, 176
-0.993283, 167, 105, 182, 168
-0.993373, 33, 113, 288, 176
-0.99341, 475, 225, 490, 288
-0.993448, 17, 57, 144, 88
-0.993472, 427, 113, 442, 176
-0.993576, 289, 1, 416, 32
-0.993611, 145, 105, 160, 168
-0.993616, 323, 65, 338, 128
-0.993633, 451, 113, 466, 176
-0.993634, 69, 145, 100, 272
-0.993645, 449, 1, 480, 128
-0.993647, 97, 145, 352, 208
-0.993673, 65, 125, 192, 156
-0.993706, 241, 129, 304, 375
-0.993716, 347, 65, 362, 128
-0.993748, 233, 225, 264, 352
-0.993779, 81, 1, 112, 128
-0.993811, 129, 241, 256, 304
-0.993893, 161, 97, 416, 160
-0.993901, 329, 65, 344, 128
-0.993916, 113, 145, 144, 272
-0.993942, 485, 225, 500, 288
-0.993948, 1, 129, 500, 192
-0.993949, 337, 21, 464, 52
-0.993952, 353, 141, 480, 172
-0.993967, 443, 113, 458, 176
-0.993969, 17, 81, 144, 112
-0.994021, 353, 85, 480, 116
-0.994106, 463, 137, 478, 200
-0.994108, 57, 145, 88, 272
-0.994112, 97, 37, 224, 68
-0.994121, 289, 97, 416, 128
-0.99416, 261, 65, 292, 192
-0.994181, 137, 17, 152, 80
-0.994189, 175, 105, 190, 168
-0.994203, 469, 225, 484, 288
-0.99425, 129, 137, 256, 168
-0.994288, 289, 85, 416, 116
-0.994314, 421, 113, 436, 176
-0.994326, 139, 145, 154, 208
-0.994328, 1, 257, 128, 320
-0.994337, 65, 209, 320, 272
-0.994356, 477, 121, 492, 184
-0.994383, 355, 73, 370, 136
-0.994443, 1, 169, 128, 232
-0.994445, 57, 33, 72, 96
-0.994447, 97, 93, 224, 124
-0.994472, 97, 61, 224, 92
-0.994495, 469, 137, 484, 200
-0.994512, 49, 97, 176, 128
-0.994525, 445, 137, 460, 200
-0.994535, 481, 49, 496, 112
-0.994536, 225, 65, 256, 192
-0.994542, 17, 69, 144, 100
-0.994597, 257, 265, 500, 328
-0.994642, 353, 113, 480, 144
-0.994657, 1, 217, 128, 280
-0.994677, 317, 65, 332, 128
-0.99469, 405, 129, 420, 192
-0.994699, 337, 57, 464, 88
-0.9947, 341, 65, 356, 128
-0.99471, 81, 17, 208, 48
-0.994724, 369, 97, 496, 128
-0.994732, 457, 137, 472, 200
-0.99475, 435, 73, 450, 136
-0.994776, 439, 137, 454, 200
-0.994815, 369, 217, 496, 248
-0.99482, 479, 81, 494, 144
-0.994822, 241, 161, 272, 288
-0.994825, 415, 113, 430, 176
-0.994827, 321, 241, 384, 368
-0.994829, 21, 129, 52, 256
-0.994856, 225, 145, 256, 272
-0.99486, 29, 33, 44, 96
-0.994865, 451, 137, 466, 200
-0.994874, 97, 73, 224, 104
-0.994891, 365, 193, 396, 320
-0.994893, 337, 9, 464, 40
-0.994896, 353, 33, 480, 64
-0.994897, 413, 129, 444, 375
-0.994901, 483, 137, 498, 200
-0.994905, 1, 33, 128, 64
-0.994905, 65, 113, 192, 144
-0.994934, 483, 25, 498, 88
-0.994974, 145, 265, 272, 328
-0.994984, 1, 125, 128, 156
-0.994996, 367, 17, 382, 80
-0.995005, 463, 225, 478, 288
-0.995005, 337, 73, 464, 104
-0.995023, 369, 125, 496, 156
-0.995027, 389, 97, 420, 352
-0.995036, 33, 137, 160, 168
-0.995077, 161, 105, 176, 168
-0.995085, 365, 41, 380, 104
-0.995109, 265, 1, 328, 256
-0.995113, 35, 65, 50, 128
-0.995116, 451, 49, 466, 112
-0.995123, 1, 185, 500, 248
-0.995126, 335, 73, 350, 136
-0.995148, 1, 209, 500, 272
-0.995152, 369, 229, 496, 260
-0.995159, 193, 41, 320, 104
-0.995181, 147, 129, 162, 192
-0.995191, 17, 109, 144, 140
-0.995223, 433, 137, 448, 200
-0.99523, 363, 73, 378, 136
-0.995243, 205, 97, 236, 224
-0.995255, 137, 57, 152, 120
-0.995259, 395, 105, 410, 168
-0.995259, 111, 113, 126, 176
-0.995272, 425, 97, 456, 352
-0.995291, 467, 249, 482, 312
-0.995296, 241, 85, 368, 116
-0.995297, 65, 225, 192, 288
-0.995329, 33, 177, 288, 240
-0.995332, 1, 305, 128, 368
-0.995335, 309, 9, 324, 72
-0.995339, 165, 129, 180, 192
-0.995369, 77, 105, 92, 168
-0.995409, 369, 45, 496, 76
-0.995442, 225, 65, 352, 96
-0.99545, 387, 105, 402, 168
-0.995451, 355, 1, 370, 64
-0.995454, 175, 129, 190, 192
-0.995472, 61, 105, 76, 168
-0.995473, 401, 129, 432, 375
-0.995483, 485, 81, 500, 144
-0.995483, 39, 25, 54, 88
-0.995485, 103, 89, 118, 152
-0.99552, 257, 289, 500, 352
-0.995521, 391, 73, 406, 136
-0.99554, 115, 89, 130, 152
-0.995548, 33, 281, 160, 344
-0.995549, 153, 193, 184, 320
-0.995562, 393, 9, 408, 72
-0.995583, 113, 241, 240, 368
-0.995584, 97, 1, 224, 32
-0.99559, 485, 113, 500, 176
-0.995597, 447, 73, 462, 136
-0.995622, 129, 105, 256, 136
-0.995638, 319, 33, 334, 96
-0.995658, 373, 241, 404, 368
-0.995675, 323, 89, 338, 152
-0.99568, 115, 65, 130, 128
-0.995695, 117, 1, 148, 256
-0.995696, 93, 105, 108, 168
-0.995706, 415, 137, 430, 200
-0.995719, 457, 113, 472, 176
-0.99573, 17, 17, 144, 48
-0.995739, 137, 113, 152, 176
-0.995752, 443, 217, 458, 280
-0.995758, 437, 97, 468, 352
-0.995786, 161, 273, 416, 336
-0.995803, 141, 193, 172, 320
-0.995824, 53, 89, 68, 152
-0.995824, 427, 137, 442, 200
-0.995835, 305, 141, 432, 172
-0.995839, 147, 17, 162, 80
-0.995879, 477, 9, 492, 72
-0.995908, 49, 1, 176, 32
-0.995913, 63, 81, 78, 144
-0.99592, 1, 93, 128, 124
-0.995926, 343, 89, 358, 152
-0.995944, 469, 113, 484, 176
-0.995945, 87, 97, 102, 160
-0.995947, 333, 97, 348, 160
-0.995981, 401, 105, 416, 168
-0.995989, 441, 73, 456, 136
-0.996007, 429, 73, 444, 136
-0.996018, 119, 17, 134, 80
-0.996019, 475, 145, 490, 208
-0.996022, 361, 1, 376, 64
-0.996022, 69, 105, 84, 168
-0.996024, 155, 97, 170, 160
-0.996031, 317, 89, 332, 152
-0.996032, 349, 89, 364, 152
-0.996037, 369, 241, 496, 272
-0.996043, 13, 225, 44, 352
-0.996046, 353, 153, 480, 184
-0.996065, 65, 241, 320, 304
-0.996067, 39, 89, 54, 152
-0.996077, 101, 161, 132, 288
-0.996101, 133, 145, 148, 208
-0.996115, 177, 65, 192, 128
-0.996124, 165, 193, 196, 320
-0.996131, 421, 137, 436, 200
-0.996131, 337, 313, 464, 375
-0.996135, 265, 1, 328, 375
-0.996158, 353, 253, 480, 284
-0.996173, 99, 113, 114, 176
-0.996178, 353, 265, 480, 296
-0.996182, 155, 129, 170, 192
-0.996193, 125, 57, 140, 120
-0.996201, 325, 177, 356, 304
-0.996201, 105, 113, 120, 176
-0.996203, 413, 209, 428, 272
-0.996246, 109, 33, 124, 96
-0.996267, 177, 77, 304, 108
-0.996269, 399, 129, 414, 192
-0.996277, 127, 81, 142, 144
-0.996278, 117, 113, 132, 176
-0.996285, 29, 57, 44, 120
-0.996294, 41, 1, 72, 256
-0.996301, 181, 97, 196, 160
-0.996306, 435, 217, 450, 280
-0.99631, 373, 57, 388, 120
-0.996312, 131, 33, 146, 96
-0.996318, 407, 105, 422, 168
-0.996319, 441, 273, 456, 336
-0.996325, 113, 149, 240, 180
-0.996326, 383, 9, 398, 72
-0.996333, 129, 121, 384, 184
-0.996339, 447, 265, 462, 328
-0.996371, 393, 33, 408, 96
-0.996373, 145, 33, 272, 64
-0.996382, 317, 9, 332, 72
-0.996388, 141, 81, 156, 144
-0.996391, 355, 97, 370, 160
-0.996393, 225, 53, 352, 84
-0.996394, 1, 145, 256, 208
-0.996404, 37, 1, 52, 64
-0.996407, 177, 297, 304, 360
-0.996423, 309, 161, 340, 288
-0.996442, 305, 205, 432, 236
-0.996445, 193, 161, 224, 288
-0.996449, 309, 65, 324, 128
-0.996458, 365, 97, 380, 160
-0.996466, 185, 17, 200, 80
-0.996478, 177, 41, 192, 104
-0.996486, 129, 21, 256, 52
-0.996492, 453, 73, 468, 136
-0.996497, 59, 57, 74, 120
-0.996501, 477, 249, 492, 312
-0.996504, 429, 217, 444, 280
-0.996504, 455, 1, 470, 64
-0.996507, 241, 33, 304, 160
-0.996513, 405, 209, 420, 272
-0.996516, 55, 9, 70, 72
-0.996517, 11, 97, 26, 160
-0.996526, 165, 33, 196, 288
-0.996545, 305, 109, 432, 140
-0.996612, 241, 1, 304, 375
-0.996621, 73, 241, 136, 368
-0.996639, 153, 65, 184, 320
-0.996666, 241, 17, 368, 48
-0.996668, 353, 277, 480, 308
-0.996671, 1, 241, 500, 304
-0.996685, 133, 1, 164, 256
-0.996692, 49, 185, 176, 216
-0.996696, 469, 65, 500, 320
-0.996699, 145, 93, 272, 124
-0.996728, 389, 1, 420, 256
-0.996773, 285, 33, 316, 160
-0.996787, 173, 133, 188, 164
-0.996822, 209, 145, 336, 176
-0.996878, 1, 153, 500, 216
-0.99688, 49, 249, 176, 312
-0.996894, 143, 141, 158, 172
-0.996899, 81, 177, 112, 304
-0.99691, 265, 145, 296, 272
-0.996912, 369, 1, 400, 256
-0.996933, 257, 161, 500, 224
-0.996946, 225, 37, 352, 68
-0.996957, 177, 125, 304, 156
-0.996967, 81, 137, 208, 168
-0.99697, 1, 265, 500, 328
-0.996991, 161, 209, 416, 272
-0.997003, 217, 129, 280, 375
-0.997048, 177, 1, 208, 256
-0.997053, 289, 281, 416, 312
-0.997056, 353, 33, 384, 288
-0.997069, 273, 221, 400, 252
-0.997073, 377, 97, 408, 352
-0.997095, 413, 33, 444, 288
-0.997096, 177, 193, 208, 320
-0.997111, 453, 1, 484, 256
-0.997114, 33, 197, 160, 228
-0.997117, 49, 305, 176, 368
-0.997127, 337, 293, 464, 324
-0.997139, 33, 241, 96, 368
-0.997152, 225, 233, 352, 264
-0.997167, 449, 97, 480, 352
-0.997176, 105, 1, 136, 256
-0.997178, 177, 181, 304, 212
-0.997185, 483, 37, 498, 68
-0.997188, 277, 81, 308, 208
-0.99719, 337, 65, 368, 320
-0.997235, 479, 229, 494, 260
-0.997244, 209, 285, 336, 316
-0.997244, 145, 61, 272, 92
-0.997257, 323, 65, 338, 96
-0.997272, 217, 1, 280, 375
-0.997275, 21, 1, 52, 256
-0.997309, 53, 1, 84, 256
-0.997337, 473, 229, 488, 260
-0.997339, 257, 141, 384, 172
-0.997346, 57, 45, 72, 76
-0.997358, 129, 289, 256, 352
-0.997376, 353, 177, 384, 304
-0.997388, 177, 193, 304, 224
-0.997398, 317, 1, 348, 256
-0.997406, 145, 45, 272, 76
-0.997422, 137, 97, 168, 352
-0.997429, 167, 133, 182, 164
-0.997433, 113, 117, 240, 148
-0.997441, 113, 177, 240, 208
-0.997454, 135, 37, 150, 68
-0.997462, 65, 153, 192, 184
-0.997463, 321, 217, 448, 248
-0.997472, 225, 245, 352, 276
-0.997476, 137, 141, 152, 172
-0.997476, 1, 5, 128, 36
-0.997478, 317, 65, 332, 96
-0.997489, 81, 273, 208, 336
-0.99749, 363, 77, 378, 108
-0.997498, 305, 121, 432, 152
-0.997499, 161, 9, 288, 40
-0.997508, 179, 133, 194, 164
-0.997523, 105, 97, 136, 352
-0.997524, 257, 181, 384, 212
-0.997526, 301, 209, 332, 336
-0.997529, 425, 117, 440, 148
-0.997538, 165, 129, 196, 375
-0.99758, 393, 21, 408, 52
-0.997586, 289, 249, 416, 280
-0.997592, 435, 81, 450, 112
-0.997597, 301, 1, 332, 256
-0.997603, 481, 97, 496, 128
-0.997603, 63, 113, 78, 144
-0.997629, 483, 49, 498, 80
-0.997633, 157, 129, 172, 160
-0.997636, 73, 117, 88, 148
-0.997642, 343, 25, 358, 56
-0.997647, 485, 233, 500, 264
-0.997648, 129, 189, 256, 220
-0.997649, 1, 1, 32, 256
-0.997659, 431, 137, 446, 168
-0.997668, 405, 137, 420, 168
-0.99767, 57, 97, 88, 352
-0.99767, 411, 137, 426, 168
-0.997673, 193, 1, 256, 375
-0.997681, 421, 137, 436, 168
-0.997686, 479, 77, 494, 108
-0.997693, 289, 233, 416, 264
-0.997695, 433, 1, 464, 256
-0.997702, 151, 133, 166, 164
-0.997708, 451, 141, 466, 172
-0.99771, 57, 33, 72, 64
-0.997714, 113, 117, 128, 148
-0.997724, 329, 65, 344, 96
-0.99773, 441, 141, 456, 172
-0.997732, 483, 145, 498, 176
-0.997734, 469, 145, 484, 176
-0.997741, 161, 225, 288, 256
-0.997745, 241, 5, 368, 36
-0.997751, 193, 157, 320, 188
-0.997755, 457, 145, 472, 176
-0.99776, 257, 193, 384, 224
-0.99776, 305, 153, 432, 184
-0.997769, 449, 93, 464, 124
-0.997771, 353, 25, 368, 56
-0.997772, 241, 97, 368, 128
-0.997774, 135, 21, 150, 52
-0.997781, 401, 33, 432, 288
-0.997781, 359, 25, 374, 56
-0.997786, 441, 117, 456, 148
-0.99779, 61, 125, 76, 156
-0.997792, 83, 121, 98, 152
-0.997796, 119, 21, 134, 52
-0.997814, 89, 129, 104, 160
-0.997821, 145, 113, 160, 144
-0.997825, 27, 33, 42, 64
-0.997828, 365, 25, 380, 56
-0.997835, 319, 85, 334, 116
-0.997842, 197, 33, 228, 160
-0.997861, 109, 37, 124, 68
-0.997861, 419, 117, 434, 148
-0.997872, 77, 129, 92, 160
-0.997874, 107, 109, 122, 140
-0.997878, 319, 49, 334, 80
-0.997879, 393, 145, 408, 176
-0.99788, 467, 229, 482, 260
-0.997884, 463, 145, 478, 176
-0.997884, 393, 9, 408, 40
-0.997889, 1, 193, 32, 320
-0.997889, 389, 109, 404, 140
-0.997889, 469, 253, 484, 284
-0.997894, 431, 125, 446, 156
-0.997904, 345, 81, 360, 112
-0.997904, 365, 45, 380, 76
-0.997907, 31, 57, 46, 88
-0.997907, 443, 221, 458, 252
-0.997918, 55, 113, 70, 144
-0.997919, 35, 93, 50, 124
-0.997925, 309, 17, 324, 48
-0.997932, 65, 213, 192, 244
-0.99794, 59, 65, 74, 96
-0.997942, 449, 81, 464, 112
-0.997944, 63, 97, 78, 128
-0.997945, 49, 173, 176, 204
-0.997946, 477, 145, 492, 176
-0.997954, 357, 81, 372, 112
-0.997961, 115, 93, 130, 124
-0.997966, 137, 53, 152, 84
-0.997969, 273, 269, 400, 300
-0.997974, 99, 121, 114, 152
-0.997987, 329, 113, 360, 240
-0.997991, 77, 29, 92, 60
-0.997991, 317, 29, 332, 60
-0.997991, 85, 109, 100, 140
-0.997992, 399, 141, 414, 172
-0.997994, 121, 109, 136, 140
-0.997996, 337, 77, 352, 108
-0.997998, 145, 153, 160, 184
-0.997999, 49, 37, 64, 68
-0.998, 107, 121, 122, 152
-0.998002, 477, 113, 492, 144
-0.998018, 129, 93, 144, 124
-0.998028, 71, 33, 86, 64
-0.998038, 429, 77, 444, 108
-0.99804, 93, 1, 124, 256
-0.998042, 447, 121, 462, 152
-0.998043, 47, 129, 62, 160
-0.998043, 367, 13, 382, 44
-0.998045, 137, 73, 152, 104
-0.998046, 167, 105, 182, 136
-0.998047, 93, 109, 108, 140
-0.998053, 109, 25, 124, 56
-0.998055, 485, 109, 500, 140
-0.99806, 177, 57, 192, 88
-0.998061, 69, 129, 84, 160
-0.998066, 193, 209, 320, 240
-0.998069, 25, 177, 56, 304
-0.998069, 157, 101, 172, 132
-0.998072, 475, 245, 490, 276
-0.998076, 33, 77, 48, 108
-0.998076, 111, 49, 126, 80
-0.998078, 165, 121, 180, 152
-0.998078, 357, 13, 372, 44
-0.998084, 37, 25, 52, 56
-0.998094, 93, 97, 124, 352
-0.998095, 159, 117, 174, 148
-0.998097, 7, 45, 22, 76
-0.998099, 485, 17, 500, 48
-0.998099, 209, 273, 336, 304
-0.9981, 341, 97, 356, 128
-0.998104, 31, 45, 46, 76
-0.998109, 83, 33, 98, 64
-0.998113, 331, 85, 346, 116
-0.998115, 443, 85, 458, 116
-0.998117, 335, 13, 350, 44
-0.998124, 425, 217, 440, 248
-0.998125, 39, 117, 54, 148
-0.998126, 1, 241, 32, 368
-0.998129, 143, 53, 158, 84
-0.998131, 135, 153, 150, 184
-0.998137, 141, 97, 156, 128
-0.998138, 375, 141, 390, 172
-0.99814, 437, 221, 452, 252
-0.998144, 61, 81, 76, 112
-0.998144, 65, 1, 96, 256
-0.998145, 351, 81, 366, 112
-0.998146, 65, 29, 80, 60
-0.998148, 1, 45, 16, 76
-0.99815, 289, 313, 416, 375
-0.998151, 333, 101, 348, 132
-0.998161, 173, 145, 188, 176
-0.998163, 177, 89, 192, 120
-0.998186, 113, 201, 240, 232
-0.998239, 57, 193, 88, 320
-0.998308, 209, 261, 336, 292
-0.998325, 201, 33, 264, 288
-0.998348, 45, 97, 76, 352
-0.998352, 17, 149, 144, 180
-0.99836, 161, 273, 288, 304
-0.99836, 241, 297, 368, 328
-0.998361, 241, 305, 368, 368
-0.998367, 1, 173, 128, 204
-0.998367, 337, 177, 368, 304
-0.99837, 193, 89, 320, 120
-0.998371, 137, 137, 200, 152
-0.998376, 105, 49, 168, 64
-0.998389, 345, 73, 408, 88
-0.998395, 65, 265, 320, 328
-0.998413, 49, 125, 112, 140
-0.998419, 345, 79, 408, 94
-0.998421, 105, 43, 168, 58
-0.998421, 77, 33, 108, 288
-0.998421, 433, 81, 496, 96
-0.998427, 49, 37, 112, 52
-0.998428, 33, 117, 96, 132
-0.998432, 129, 213, 256, 244
-0.998433, 337, 27, 400, 42
-0.998435, 313, 17, 376, 32
-0.998437, 81, 43, 144, 58
-0.99844, 17, 97, 80, 112
-0.998442, 113, 113, 176, 128
-0.998443, 25, 43, 88, 58
-0.998447, 425, 83, 456, 98
-0.998447, 373, 21, 404, 36
-0.998448, 89, 35, 152, 50
-0.998448, 465, 1, 496, 16
-0.998449, 113, 55, 176, 70
-0.998449, 57, 87, 88, 102
-0.99845, 329, 101, 392, 116
-0.998451, 97, 39, 128, 54
-0.998451, 441, 71, 472, 86
-0.998451, 353, 27, 384, 42
-0.998451, 449, 227, 480, 242
-0.998451, 313, 35, 344, 50
-0.998452, 313, 81, 376, 96
-0.998452, 77, 35, 108, 50
-0.998453, 129, 41, 192, 56
-0.998453, 129, 49, 192, 64
-0.998455, 389, 25, 420, 40
-0.998456, 17, 57, 48, 72
-0.998456, 329, 81, 360, 96
-0.998457, 145, 105, 176, 120
-0.998458, 109, 129, 140, 144
-0.998458, 97, 45, 128, 60
-0.998458, 17, 45, 48, 60
-0.998458, 133, 47, 164, 62
-0.998459, 405, 139, 436, 154
-0.998459, 133, 35, 164, 50
-0.99846, 89, 29, 152, 44
-0.99846, 289, 293, 416, 324
-0.998461, 65, 37, 96, 52
-0.998462, 49, 109, 112, 124
-0.998462, 41, 113, 72, 128
-0.998464, 425, 119, 488, 134
-0.998465, 121, 97, 152, 112
-0.998465, 69, 135, 100, 150
-0.998465, 353, 21, 416, 36
-0.998466, 373, 41, 404, 56
-0.998466, 345, 67, 408, 82
-0.998466, 117, 77, 148, 92
-0.998467, 121, 111, 152, 126
-0.998468, 105, 119, 136, 134
-0.998468, 433, 71, 496, 86
-0.998469, 465, 7, 496, 22
-0.998471, 433, 31, 496, 46
-0.998471, 317, 95, 348, 110
-0.998472, 313, 73, 344, 88
-0.998472, 345, 95, 408, 110
-0.998472, 117, 85, 148, 100
-0.998473, 333, 101, 364, 116
-0.998473, 45, 119, 76, 134
-0.998474, 133, 23, 164, 38
-0.998474, 73, 121, 136, 136
-0.998474, 17, 83, 80, 98
-0.998477, 145, 53, 176, 68
-0.998478, 1, 51, 64, 66
-0.998479, 401, 117, 464, 132
-0.99848, 393, 143, 424, 158
-0.99848, 53, 47, 84, 62
-0.99848, 105, 143, 168, 158
-0.99848, 385, 113, 416, 128
-0.998481, 97, 33, 128, 48
-0.998481, 373, 27, 404, 42
-0.998482, 313, 47, 344, 62
-0.998483, 29, 129, 60, 144
-0.998484, 361, 57, 424, 72
-0.998484, 169, 143, 200, 158
-0.998484, 41, 105, 72, 120
-0.998486, 429, 223, 460, 238
-0.998487, 57, 97, 88, 112
-0.998487, 145, 145, 208, 160
-0.998487, 113, 103, 176, 118
-0.998487, 385, 85, 448, 100
-0.998488, 129, 35, 192, 50
-0.998488, 457, 107, 488, 122
-0.998488, 433, 55, 496, 70
-0.998488, 385, 149, 416, 164
-0.998489, 457, 93, 488, 108
-0.998489, 41, 99, 72, 114
-0.998491, 457, 101, 488, 116
-0.998491, 433, 233, 496, 248
-0.998491, 17, 103, 80, 118
-0.998493, 353, 75, 384, 90
-0.998493, 17, 161, 144, 192
-0.998494, 313, 37, 376, 52
-0.998494, 25, 33, 88, 48
-0.998494, 425, 87, 488, 102
-0.998496, 305, 165, 432, 196
-0.998496, 465, 25, 496, 40
-0.998497, 33, 29, 64, 44
-0.998497, 361, 51, 424, 66
-0.998499, 345, 39, 408, 54
-0.998499, 121, 105, 152, 120
-0.998499, 17, 91, 80, 106
-0.9985, 137, 55, 200, 70
-0.9985, 317, 85, 348, 100
-0.9985, 57, 135, 120, 150
-0.998501, 433, 25, 496, 40
-0.998501, 373, 15, 404, 30
-0.998501, 129, 29, 192, 44
-0.998501, 17, 125, 80, 140
-0.998501, 17, 51, 48, 66
-0.998501, 393, 139, 456, 154
-0.998502, 153, 129, 184, 144
-0.998502, 25, 69, 88, 84
-0.998502, 341, 27, 372, 42
-0.998502, 25, 53, 88, 68
-0.998502, 461, 31, 492, 46
-0.998502, 117, 91, 148, 106
-0.998503, 313, 27, 376, 42
-0.998504, 441, 87, 472, 102
-0.998504, 57, 107, 88, 122
-0.998505, 117, 71, 148, 86
-0.998505, 133, 53, 164, 68
-0.998505, 433, 65, 496, 80
-0.998506, 437, 93, 468, 108
-0.998506, 61, 113, 92, 128
-0.998506, 305, 75, 368, 90
-0.998507, 337, 13, 400, 28
-0.998507, 133, 149, 164, 164
-0.998507, 105, 119, 168, 134
-0.998509, 49, 125, 80, 140
-0.998509, 377, 27, 440, 42
-0.998509, 345, 85, 408, 100
-0.998512, 93, 123, 124, 138
-0.998512, 153, 143, 184, 158
-0.998513, 105, 61, 168, 76
-0.998515, 33, 49, 64, 64
-0.998515, 17, 77, 80, 92
-0.998516, 361, 45, 424, 60
-0.998516, 73, 107, 136, 122
-0.998516, 73, 113, 136, 128
-0.998516, 129, 21, 192, 36
-0.998516, 313, 27, 344, 42
-0.998517, 369, 149, 432, 164
-0.998518, 465, 19, 496, 34
-0.998519, 281, 97, 344, 112
-0.998519, 53, 41, 84, 56
-0.99852, 457, 81, 488, 96
-0.998521, 9, 61, 72, 76
-0.998521, 53, 131, 84, 146
-0.998522, 33, 131, 96, 146
-0.998523, 377, 115, 440, 130
-0.998524, 89, 129, 152, 144
-0.998524, 369, 97, 400, 112
-0.998525, 113, 39, 144, 54
-0.998525, 81, 49, 144, 64
-0.998526, 373, 47, 404, 62
-0.998527, 49, 31, 112, 46
-0.998528, 377, 79, 440, 94
-0.998528, 41, 93, 72, 108
-0.998529, 433, 49, 496, 64
-0.99853, 377, 215, 440, 230
-0.998531, 441, 77, 472, 92
-0.998532, 433, 19, 496, 34
-0.998533, 17, 111, 80, 126
-0.998536, 81, 125, 112, 140
-0.998536, 137, 107, 200, 122
-0.998536, 49, 99, 112, 114
-0.998536, 105, 21, 168, 36
-0.998538, 345, 33, 408, 48
-0.998539, 117, 65, 148, 80
-0.998539, 317, 97, 348, 352
-0.998539, 1, 43, 64, 58
-0.998539, 433, 93, 496, 108
-0.998542, 373, 55, 404, 70
-0.998542, 461, 51, 492, 66
-0.998543, 97, 131, 128, 146
-0.998543, 81, 57, 144, 72
-0.998543, 241, 129, 368, 160
-0.998544, 133, 41, 164, 56
-0.998544, 49, 45, 112, 60
-0.998545, 61, 119, 92, 134
-0.998546, 433, 13, 496, 28
-0.998547, 9, 117, 72, 132
-0.998547, 433, 37, 496, 52
-0.998547, 433, 227, 496, 242
-0.998547, 369, 79, 400, 94
-0.998548, 457, 87, 488, 102
-0.998549, 113, 95, 176, 110
-0.99855, 313, 67, 344, 82
-0.99855, 369, 91, 432, 106
-0.998551, 257, 205, 384, 236
-0.998552, 369, 61, 400, 76
-0.998553, 81, 135, 112, 150
-0.998553, 313, 69, 376, 84
-0.998553, 337, 75, 368, 90
-0.998554, 401, 221, 464, 236
-0.998554, 361, 15, 424, 30
-0.998554, 129, 151, 192, 166
-0.998555, 33, 37, 64, 52
-0.998557, 369, 173, 496, 204
-0.998557, 409, 77, 472, 92
-0.998558, 49, 77, 112, 92
-0.998558, 425, 113, 488, 128
-0.998559, 385, 123, 448, 138
-0.998559, 137, 97, 200, 112
-0.998559, 9, 131, 72, 146
-0.99856, 369, 85, 400, 100
-0.99856, 57, 89, 120, 104
-0.99856, 117, 59, 148, 74
-0.998562, 73, 101, 136, 116
-0.998562, 329, 143, 392, 158
-0.998562, 113, 31, 144, 46
-0.998563, 461, 63, 492, 78
-0.998564, 433, 243, 496, 258
-0.998564, 337, 61, 400, 76
-0.998566, 377, 33, 440, 48
-0.998566, 113, 135, 176, 150
-0.998566, 305, 101, 368, 116
-0.998567, 9, 27, 72, 42
-0.998567, 37, 55, 68, 70
-0.998567, 305, 95, 368, 110
-0.998568, 337, 1, 400, 16
-0.998568, 105, 67, 168, 82
-0.998568, 33, 63, 96, 78
-0.998569, 433, 101, 496, 116
-0.998569, 461, 69, 492, 84
-0.99857, 313, 11, 376, 26
-0.998571, 461, 57, 492, 72
-0.998571, 81, 63, 144, 78
-0.998571, 337, 47, 400, 62
-0.998572, 113, 23, 144, 38
-0.998573, 337, 7, 400, 22
-0.998573, 41, 87, 72, 102
-0.998573, 305, 45, 368, 60
-0.998574, 369, 65, 432, 80
-0.998575, 257, 169, 384, 200
-0.998575, 113, 45, 144, 60
-0.998575, 137, 61, 200, 76
-0.998575, 113, 89, 176, 104
-0.998575, 457, 75, 488, 90
-0.998575, 317, 79, 348, 94
-0.998576, 65, 225, 192, 256
-0.998576, 33, 43, 64, 58
-0.998577, 53, 35, 84, 50
-0.998577, 369, 67, 400, 82
-0.998581, 89, 95, 152, 110
-0.998581, 397, 115, 428, 130
-0.998581, 409, 93, 472, 108
-0.998585, 433, 119, 464, 134
-0.998586, 417, 117, 448, 132
-0.998587, 137, 143, 168, 158
-0.998589, 349, 81, 380, 96
-0.99859, 369, 91, 400, 106
-0.99859, 37, 81, 68, 96
-0.998592, 29, 97, 60, 352
-0.998599, 37, 75, 68, 90
-0.9986, 117, 53, 148, 68
-0.998601, 1, 185, 128, 216
-0.998602, 465, 13, 496, 28
-0.998607, 225, 221, 352, 252
-0.99861, 37, 61, 68, 76
-0.998619, 465, 231, 496, 246
-0.998626, 369, 73, 400, 88
-0.998627, 37, 67, 68, 82
-0.998629, 65, 129, 96, 144
-0.998645, 177, 97, 208, 352
-0.998648, 165, 135, 196, 150
-0.998656, 149, 137, 180, 152
-0.998657, 451, 81, 466, 208
-0.99866, 353, 189, 480, 220
-0.998665, 365, 1, 380, 128
-0.998705, 209, 169, 336, 200
-0.998715, 305, 193, 432, 224
-0.998733, 441, 209, 456, 336
-0.99874, 365, 97, 396, 352
-0.998753, 137, 1, 152, 128
-0.998757, 1, 277, 128, 308
-0.998757, 33, 289, 160, 320
-0.998761, 473, 161, 488, 288
-0.998767, 145, 253, 272, 284
-0.998774, 13, 97, 44, 352
-0.998778, 111, 33, 126, 160
-0.998789, 431, 209, 446, 336
-0.998794, 123, 1, 138, 128
-0.998807, 407, 113, 422, 240
-0.998813, 125, 97, 156, 352
-0.998814, 309, 1, 324, 128
-0.998821, 257, 109, 384, 140
-0.998822, 37, 65, 52, 192
-0.998836, 305, 181, 432, 212
-0.998857, 113, 165, 240, 196
-0.998865, 145, 237, 272, 268
-0.99887, 481, 33, 496, 160
-0.998874, 477, 81, 492, 208
-0.998877, 465, 209, 480, 336
-0.998877, 419, 193, 434, 320
-0.998885, 425, 209, 440, 336
-0.998886, 353, 205, 480, 236
-0.998899, 51, 65, 66, 192
-0.998901, 415, 129, 430, 256
-0.998902, 359, 1, 374, 128
-0.998902, 175, 17, 190, 144
-0.998923, 393, 113, 408, 240
-0.998925, 479, 193, 494, 320
-0.998926, 393, 17, 408, 144
-0.998932, 31, 49, 46, 176
-0.998933, 423, 113, 438, 240
-0.998937, 463, 161, 478, 288
-0.998941, 257, 153, 384, 184
-0.998944, 413, 193, 428, 320
-0.998953, 449, 209, 464, 336
-0.998953, 61, 33, 76, 160
-0.998954, 61, 113, 76, 240
-0.998955, 185, 1, 200, 128
-0.998958, 167, 49, 182, 176
-0.998963, 395, 193, 410, 320
-0.998964, 387, 97, 402, 224
-0.998964, 471, 209, 486, 336
-0.998966, 405, 193, 420, 320
-0.998968, 33, 289, 288, 352
-0.998971, 117, 1, 132, 128
-0.998974, 435, 65, 450, 192
-0.998981, 137, 97, 152, 224
-0.998997, 135, 49, 150, 176
-0.998998, 443, 81, 458, 208
-0.999009, 143, 33, 158, 160
-0.999009, 93, 209, 124, 336
-0.999009, 383, 1, 398, 128
-0.999016, 417, 81, 432, 208
-0.999018, 457, 81, 472, 208
-0.999033, 49, 17, 64, 144
-0.999045, 367, 49, 382, 176
-0.999045, 117, 65, 132, 192
-0.999049, 337, 81, 352, 208
-0.99905, 399, 113, 414, 240
-0.999053, 483, 81, 498, 208
-0.999056, 389, 193, 404, 320
-0.999057, 177, 65, 192, 192
-0.999062, 319, 1, 334, 128
-0.999065, 325, 49, 340, 176
-0.999066, 87, 97, 102, 224
-0.999068, 1, 97, 32, 352
-0.999069, 439, 161, 454, 288
-0.99907, 77, 49, 92, 176
-0.999073, 449, 33, 464, 160
-0.999085, 109, 97, 124, 224
-0.999086, 427, 65, 442, 192
-0.999088, 29, 1, 44, 128
-0.999091, 93, 49, 108, 176
-0.999097, 41, 1, 56, 128
-0.999099, 319, 49, 334, 176
-0.999104, 429, 145, 444, 272
-0.999105, 485, 161, 500, 288
-0.999112, 375, 1, 390, 128
-0.999112, 129, 49, 144, 176
-0.999113, 67, 97, 82, 224
-0.999117, 359, 49, 374, 176
-0.999127, 329, 97, 344, 224
-0.999129, 387, 49, 402, 176
-0.999141, 17, 49, 32, 176
-0.999143, 453, 161, 468, 288
-0.99915, 313, 209, 344, 336
-0.999152, 11, 49, 26, 176
-0.999159, 445, 161, 460, 288
-0.999161, 455, 33, 470, 160
-0.999162, 443, 33, 458, 160
-0.999164, 347, 65, 362, 192
-0.999167, 435, 113, 450, 240
-0.999178, 335, 33, 350, 160
-0.99918, 353, 65, 368, 192
-0.999191, 353, 1, 368, 128
-0.999191, 155, 33, 170, 160
-0.999192, 103, 97, 118, 224
-0.999194, 147, 81, 162, 208
-0.999195, 45, 97, 60, 224
-0.999197, 69, 33, 84, 160
-0.999197, 103, 33, 118, 160
-0.9992, 479, 145, 494, 272
-0.999203, 341, 1, 356, 128
-0.999204, 305, 97, 336, 352
-0.999207, 475, 33, 490, 160
-0.999208, 55, 113, 70, 240
-0.99921, 35, 1, 50, 128
-0.999212, 485, 209, 500, 336
-0.999212, 347, 1, 362, 128
-0.999214, 185, 49, 200, 176
-0.999215, 271, 209, 286, 336
-0.999215, 471, 81, 486, 208
-0.999215, 79, 97, 94, 224
-0.999224, 87, 1, 102, 128
-0.999224, 461, 1, 476, 128
-0.999232, 87, 49, 102, 176
-0.999238, 129, 1, 144, 128
-0.999246, 73, 129, 88, 256
-0.999247, 23, 33, 38, 160
-0.999247, 249, 225, 264, 352
-0.999247, 95, 97, 110, 224
-0.999259, 455, 209, 470, 336
-0.99926, 415, 33, 430, 160
-0.99926, 161, 1, 176, 128
-0.999263, 261, 225, 276, 352
-0.999264, 323, 97, 338, 224
-0.999268, 17, 1, 32, 128
-0.999278, 37, 193, 68, 320
-0.999285, 169, 97, 184, 224
-0.999289, 219, 97, 234, 224
-0.999297, 11, 1, 26, 128
-0.999299, 313, 49, 328, 176
-0.999303, 55, 17, 70, 144
-0.999306, 373, 49, 388, 176
-0.999313, 149, 33, 164, 160
-0.999315, 379, 145, 394, 272
-0.999316, 81, 129, 112, 375
-0.999322, 405, 65, 420, 192
-0.999334, 385, 145, 400, 272
-0.999338, 393, 65, 408, 192
-0.999352, 193, 313, 448, 375
-0.999353, 161, 49, 176, 176
-0.999359, 465, 113, 480, 240
-0.999362, 25, 81, 40, 208
-0.999372, 429, 17, 444, 144
-0.999376, 289, 1, 320, 256
-0.999382, 209, 97, 240, 352
-0.999386, 221, 65, 252, 320
-0.999456, 69, 129, 100, 375
-0.999517, 57, 241, 88, 368
-0.999551, 189, 33, 220, 288
-0.999571, 233, 33, 264, 288
-0.999581, 349, 225, 380, 352
-0.999594, 245, 129, 276, 375
-0.999603, 281, 129, 312, 375
-0.999604, 125, 89, 140, 104
-0.999606, 175, 107, 190, 122
-0.999606, 319, 49, 334, 64
-0.999606, 419, 219, 434, 234
-0.999606, 365, 47, 380, 62
-0.999606, 425, 79, 440, 94
-0.999606, 485, 97, 500, 112
-0.999607, 21, 131, 36, 146
-0.999608, 75, 107, 90, 122
-0.999608, 43, 131, 58, 146
-0.999609, 479, 245, 494, 260
-0.999609, 31, 61, 46, 76
-0.99961, 337, 79, 352, 94
-0.99961, 365, 39, 380, 54
-0.99961, 475, 231, 490, 246
-0.999611, 81, 37, 96, 52
-0.999611, 425, 221, 440, 236
-0.999611, 125, 21, 140, 36
-0.999612, 471, 253, 486, 268
-0.999613, 137, 63, 152, 78
-0.999613, 435, 87, 450, 102
-0.999614, 35, 95, 50, 110
-0.999615, 435, 93, 450, 108
-0.999615, 481, 129, 496, 144
-0.999616, 87, 35, 102, 50
-0.999616, 469, 229, 484, 244
-0.999617, 181, 137, 196, 152
-0.999617, 319, 85, 334, 100
-0.999618, 413, 137, 428, 152
-0.999618, 339, 101, 354, 116
-0.999619, 75, 119, 90, 134
-0.999619, 135, 33, 150, 48
-0.99962, 431, 221, 446, 236
-0.99962, 141, 105, 156, 120
-0.99962, 109, 37, 124, 52
-0.99962, 63, 107, 78, 122
-0.99962, 431, 75, 446, 90
-0.999621, 73, 137, 88, 152
-0.999622, 323, 105, 338, 120
-0.999623, 29, 47, 44, 62
-0.999624, 29, 39, 44, 54
-0.999625, 393, 11, 408, 26
-0.999625, 477, 101, 492, 116
-0.999625, 149, 135, 164, 150
-0.999627, 61, 93, 76, 108
-0.999627, 407, 217, 422, 232
-0.999627, 175, 145, 190, 160
-0.999628, 483, 109, 498, 124
-0.999629, 367, 19, 382, 34
-0.999629, 479, 87, 494, 102
-0.999632, 75, 37, 90, 52
-0.999633, 85, 135, 100, 150
-0.999633, 59, 75, 74, 90
-0.999634, 449, 87, 464, 102
-0.999634, 135, 49, 150, 64
-0.999635, 137, 143, 152, 158
-0.999635, 119, 23, 134, 38
-0.999635, 169, 109, 184, 124
-0.999636, 61, 35, 76, 50
-0.99964, 387, 151, 402, 166
-0.999642, 439, 223, 454, 238
-0.999643, 117, 127, 132, 142
-0.999643, 261, 65, 292, 320
-0.999644, 425, 117, 440, 132
-0.999644, 57, 127, 72, 142
-0.999644, 323, 67, 338, 82
-0.999644, 477, 109, 492, 124
-0.999646, 479, 81, 494, 96
-0.999646, 137, 57, 152, 72
-0.999646, 343, 79, 358, 94
-0.999646, 317, 105, 332, 120
-0.999647, 79, 135, 94, 150
-0.999647, 67, 31, 82, 46
-0.999647, 163, 137, 178, 152
-0.999647, 135, 23, 150, 38
-0.999648, 331, 79, 346, 94
-0.999648, 169, 135, 184, 150
-0.999649, 355, 81, 370, 96
-0.999649, 85, 127, 100, 142
-0.99965, 443, 119, 458, 134
-0.99965, 51, 133, 66, 148
-0.999653, 435, 81, 450, 96
-0.999654, 343, 27, 358, 42
-0.999656, 451, 93, 466, 108
-0.999656, 141, 115, 156, 130
-0.999658, 483, 49, 498, 64
-0.99966, 135, 41, 150, 56
-0.99966, 431, 117, 446, 132
-0.999662, 97, 125, 112, 140
-0.999663, 397, 113, 412, 128
-0.999665, 57, 51, 72, 66
-0.999666, 349, 81, 364, 96
-0.999667, 485, 243, 500, 258
-0.999667, 393, 17, 408, 32
-0.999671, 413, 115, 428, 130
-0.999671, 169, 141, 184, 156
-0.999671, 133, 151, 148, 166
-0.999672, 403, 141, 418, 156
-0.999673, 109, 129, 124, 144
-0.999675, 55, 43, 70, 58
-0.999675, 63, 113, 78, 128
-0.999676, 391, 113, 406, 128
-0.999677, 437, 119, 452, 134
-0.999678, 145, 149, 160, 164
-0.99968, 427, 85, 442, 100
-0.999683, 419, 117, 434, 132
-0.999683, 149, 141, 164, 156
-0.999686, 403, 115, 418, 130
-0.999687, 107, 123, 122, 138
-0.999689, 481, 233, 496, 248
-0.999691, 65, 121, 80, 136
-0.999691, 449, 119, 464, 134
-0.999693, 365, 77, 380, 92
-0.999694, 69, 131, 84, 146
-0.999695, 317, 69, 332, 84
-0.999697, 115, 121, 130, 136
-0.999698, 317, 79, 332, 94
-0.9997, 393, 23, 408, 38
-0.999706, 77, 129, 92, 144
-0.999708, 485, 41, 500, 56
-0.999708, 139, 149, 154, 164
-0.99971, 349, 75, 364, 90
-0.999715, 55, 37, 70, 52
-0.999718, 91, 133, 106, 148
-0.999722, 63, 131, 78, 146
-0.999724, 323, 75, 338, 90
-0.999735, 393, 145, 408, 160
-0.999736, 157, 129, 172, 144
-0.999746, 99, 131, 114, 146
-0.999814, 143, 143, 158, 158
-0.999814, 175, 135, 190, 150
-0.999861, 349, 129, 380, 375
-0.999937, 233, 129, 264, 375
-0.99995, 245, 33, 276, 288
-0.999987, 1, 289, 500, 352
-1.00013, 1, 313, 256, 375
-1.00016, 197, 129, 228, 375
-1.00024, 293, 97, 324, 352
-1.00042, 97, 313, 352, 375
-1.00044, 277, 33, 308, 288
-1.00052, 201, 1, 232, 256
-1.00071, 129, 313, 256, 375
-1.00112, 1, 313, 500, 375
-1.00158, 217, 17, 280, 144
-1.00257, 137, 241, 200, 368
-1.00292, 97, 241, 160, 368
-1.00607, 161, 241, 224, 368
