1949
-0.143789, 1, 1, 500, 375
-0.31154, 225, 1, 480, 375
-0.322823, 1, 33, 500, 288
-0.338924, 1, 129, 500, 375
-0.34178, 97, 1, 352, 375
-0.428204, 1, 1, 256, 375
-0.507183, 33, 97, 288, 352
-0.524333, 193, 1, 448, 256
-0.613286, 129, 97, 384, 352
-0.674952, 257, 97, 500, 352
-0.72051, 97, 1, 352, 256
-0.749606, 1, 1, 256, 256
-0.833916, 289, 1, 416, 375
-0.834187, 241, 1, 368, 256
-0.836305, 177, 1, 304, 375
-0.842154, 369, 97, 496, 352
-0.852277, 33, 65, 160, 320
-0.853274, 97, 97, 224, 352
-0.853659, 353, 1, 480, 375
-0.853989, 1, 33, 500, 160
-0.856171, 241, 1, 368, 375
-0.857337, 177, 65, 304, 320
-0.859744, 1, 1, 128, 375
-0.865646, 129, 1, 256, 375
-0.865793, 289, 1, 416, 256
-0.87119, 1, 129, 500, 256
-0.877413, 1, 81, 500, 208
-0.88423, 1, 209, 500, 336
-0.884849, 305, 97, 432, 352
-0.889391, 65, 1, 192, 375
-0.890477, 225, 129, 352, 375
-0.892286, 369, 1, 496, 256
-0.892312, 1, 145, 256, 272
-0.897402, 193, 33, 448, 160
-0.903409, 33, 81, 288, 208
-0.906596, 33, 193, 288, 320
-0.906728, 129, 113, 384, 240
-0.915864, 257, 161, 500, 288
-0.915888, 257, 209, 500, 336
-0.916409, 161, 193, 416, 320
-0.917381, 129, 1, 256, 256
-0.918046, 49, 145, 176, 272
-0.924234, 193, 177, 320, 304
-0.924506, 113, 145, 240, 272
-0.926037, 169, 225, 232, 352
-0.927094, 81, 1, 208, 256
-0.927332, 145, 161, 208, 288
-0.927653, 161, 241, 416, 368
-0.92799, 161, 65, 288, 192
-0.928046, 257, 97, 500, 224
-0.928274, 185, 161, 248, 288
-0.929531, 369, 81, 496, 208
-0.929688, 33, 81, 160, 208
-0.93001, 49, 145, 112, 272
-0.930059, 97, 33, 352, 160
-0.930066, 289, 33, 416, 160
-0.930216, 353, 209, 480, 336
-0.930836, 145, 113, 208, 240
-0.930964, 129, 225, 256, 352
-0.931274, 225, 33, 352, 160
-0.932493, 1, 33, 256, 160
-0.932543, 121, 161, 184, 288
-0.93281, 65, 193, 192, 320
-0.933939, 81, 81, 208, 208
-0.935771, 273, 225, 400, 352
-0.93764, 97, 161, 160, 288
-0.937727, 433, 97, 496, 224
-0.938184, 121, 81, 184, 208
-0.938919, 353, 129, 480, 256
-0.939275, 273, 161, 400, 288
-0.939315, 41, 65, 104, 192
-0.941037, 73, 193, 136, 320
-0.941205, 353, 33, 416, 160
-0.941469, 33, 241, 288, 368
-0.941732, 305, 33, 368, 160
-0.941945, 1, 129, 128, 256
-0.941953, 393, 65, 456, 192
-0.94224, 201, 49, 264, 176
-0.942542, 185, 209, 248, 272
-0.943442, 177, 225, 304, 352
-0.944121, 193, 209, 256, 336
-0.944695, 257, 17, 320, 144
-0.944759, 153, 241, 216, 304
-0.945257, 225, 81, 352, 208
-0.946136, 161, 65, 224, 192
-0.946416, 361, 209, 424, 336
-0.94675, 65, 81, 128, 208
-0.946803, 145, 209, 208, 336
-0.946815, 265, 65, 328, 192
-0.946886, 329, 185, 392, 248
-0.947081, 233, 209, 296, 336
-0.947155, 49, 193, 112, 320
-0.947177, 225, 161, 288, 288
-0.947256, 17, 193, 144, 320
-0.94738, 433, 129, 496, 192
-0.947722, 289, 81, 416, 208
-0.948452, 1, 1, 64, 128
-0.948515, 193, 177, 256, 240
-0.948666, 145, 153, 208, 216
-0.948685, 353, 249, 416, 312
-0.948954, 145, 177, 208, 240
-0.949519, 73, 145, 136, 272
-0.949714, 337, 225, 400, 288
-0.949742, 129, 209, 192, 272
-0.949808, 169, 113, 232, 240
-0.950017, 225, 225, 352, 352
-0.950419, 217, 97, 280, 224
-0.950811, 89, 81, 152, 208
-0.950833, 161, 113, 288, 240
-0.951615, 49, 161, 112, 224
-0.95183, 233, 17, 296, 144
-0.951891, 121, 97, 184, 160
-0.95195, 209, 129, 336, 256
-0.952178, 25, 145, 88, 272
-0.952231, 433, 209, 496, 336
-0.952822, 393, 193, 456, 320
-0.953025, 153, 201, 216, 264
-0.953032, 25, 193, 88, 320
-0.95326, 97, 161, 160, 224
-0.953446, 169, 177, 232, 240
-0.953592, 409, 129, 472, 256
-0.954219, 201, 233, 264, 296
-0.954516, 321, 273, 384, 336
-0.954875, 385, 73, 448, 136
-0.955512, 233, 161, 296, 224
-0.955666, 177, 233, 240, 296
-0.955901, 113, 209, 176, 336
-0.955932, 417, 257, 480, 320
-0.956365, 281, 193, 344, 320
-0.95669, 337, 33, 464, 160
-0.95689, 73, 169, 136, 232
-0.956961, 225, 241, 288, 304
-0.957001, 185, 273, 248, 336
-0.957018, 329, 161, 392, 288
-0.957023, 257, 113, 320, 240
-0.957237, 329, 49, 392, 176
-0.957271, 57, 201, 120, 264
-0.957482, 249, 81, 312, 144
-0.957922, 361, 217, 424, 280
-0.958035, 177, 17, 304, 144
-0.95806, 41, 81, 104, 144
-0.95808, 121, 153, 184, 216
-0.958539, 65, 73, 128, 136
-0.95861, 25, 169, 88, 232
-0.958622, 201, 65, 264, 128
-0.958637, 1, 129, 64, 256
-0.958671, 345, 49, 408, 112
-0.959276, 17, 81, 80, 208
-0.959317, 313, 41, 376, 104
-0.959376, 129, 121, 192, 184
-0.959965, 241, 65, 304, 192
-0.959979, 377, 145, 440, 272
-0.959994, 209, 201, 272, 264
-0.960003, 417, 161, 480, 224
-0.960061, 17, 33, 144, 160
-0.96027, 89, 209, 152, 272
-0.960507, 289, 33, 352, 96
-0.961198, 105, 185, 168, 248
-0.961224, 361, 97, 424, 224
-0.961255, 337, 225, 400, 352
-0.961345, 377, 185, 440, 248
-0.961397, 297, 81, 360, 208
-0.961432, 417, 105, 480, 168
-0.961707, 249, 33, 312, 96
-0.961722, 177, 153, 240, 216
-0.961798, 25, 17, 88, 144
-0.961798, 249, 1, 312, 256
-0.962063, 33, 193, 96, 256
-0.962103, 161, 129, 224, 192
-0.96225, 49, 137, 112, 200
-0.962255, 185, 305, 248, 368
-0.962305, 433, 145, 496, 272
-0.962462, 185, 65, 248, 320
-0.962576, 25, 105, 88, 168
-0.962898, 1, 185, 64, 248
-0.963025, 289, 129, 352, 256
-0.963025, 377, 273, 440, 336
-0.963059, 225, 273, 288, 336
-0.963231, 297, 193, 360, 256
-0.963327, 329, 249, 392, 312
-0.963376, 433, 97, 496, 352
-0.963574, 73, 145, 136, 208
-0.963715, 273, 81, 336, 144
-0.963878, 161, 129, 224, 375
-0.963967, 233, 193, 296, 256
-0.964049, 409, 241, 472, 368
-0.964772, 57, 241, 120, 368
-0.964802, 153, 105, 216, 168
-0.964889, 305, 209, 368, 336
-0.964971, 97, 137, 160, 200
-0.965015, 225, 57, 288, 120
-0.965018, 49, 241, 176, 368
-0.965255, 49, 97, 112, 352
-0.965541, 201, 153, 264, 216
-0.965695, 433, 233, 496, 296
-0.965739, 9, 1, 72, 256
-0.965847, 273, 265, 336, 328
-0.965877, 353, 193, 416, 256
-0.965923, 193, 113, 256, 240
-0.965926, 129, 233, 256, 296
-0.966295, 25, 145, 88, 208
-0.966367, 217, 193, 248, 320
-0.966483, 393, 209, 456, 272
-0.966697, 1, 25, 64, 88
-0.966937, 1, 161, 64, 224
-0.96696, 257, 177, 320, 304
-0.96696, 121, 249, 184, 312
-0.966998, 225, 97, 288, 352
-0.967297, 313, 65, 376, 128
-0.967491, 393, 97, 456, 160
-0.967523, 33, 161, 160, 224
-0.967593, 81, 161, 208, 224
-0.967743, 417, 185, 480, 248
-0.967829, 9, 49, 72, 112
-0.968082, 177, 73, 240, 136
-0.968112, 49, 209, 176, 272
-0.968268, 97, 89, 160, 152
-0.968309, 337, 113, 400, 240
-0.968513, 65, 33, 192, 160
-0.968564, 113, 65, 176, 320
-0.968611, 17, 73, 80, 136
-0.968708, 133, 161, 164, 288
-0.96871, 281, 17, 344, 144
-0.968833, 185, 161, 216, 288
-0.968886, 297, 1, 360, 256
-0.96892, 177, 217, 208, 280
-0.968933, 197, 225, 228, 352
-0.969066, 225, 81, 288, 144
-0.969094, 177, 209, 208, 336
-0.969133, 249, 57, 312, 120
-0.969189, 353, 89, 416, 152
-0.969274, 137, 129, 200, 375
-0.969299, 1, 241, 128, 368
-0.969311, 165, 129, 196, 256
-0.969313, 141, 169, 172, 232
-0.969346, 49, 105, 112, 168
-0.969473, 45, 73, 76, 136
-0.969576, 305, 249, 432, 312
-0.969636, 189, 169, 220, 232
-0.969699, 281, 57, 344, 120
-0.969758, 181, 193, 212, 256
-0.969854, 205, 209, 236, 272
-0.969903, 393, 233, 456, 296
-0.969909, 369, 113, 496, 176
-0.969917, 393, 65, 456, 320
-0.970028, 353, 265, 480, 328
-0.970037, 369, 89, 496, 152
-0.97015, 145, 281, 208, 344
-0.97042, 369, 225, 400, 288
-0.970455, 365, 249, 396, 312
-0.970542, 273, 1, 336, 256
-0.970581, 353, 281, 416, 344
-0.970621, 233, 137, 296, 200
-0.970715, 225, 33, 288, 96
-0.970785, 129, 193, 256, 256
-0.970805, 177, 225, 304, 288
-0.970836, 225, 33, 352, 96
-0.970969, 177, 249, 304, 312
-0.971003, 289, 241, 352, 304
-0.971124, 409, 137, 472, 200
-0.971182, 165, 145, 196, 208
-0.971187, 17, 81, 144, 144
-0.971337, 465, 97, 496, 224
-0.971507, 221, 185, 252, 248
-0.971534, 465, 137, 496, 200
-0.971542, 425, 49, 488, 176
-0.971562, 73, 65, 136, 320
-0.971582, 1, 137, 64, 200
-0.971628, 65, 177, 96, 304
-0.971699, 305, 49, 432, 112
-0.971823, 145, 161, 176, 288
-0.971943, 153, 65, 216, 128
-0.971953, 369, 49, 432, 112
-0.971992, 205, 161, 236, 288
-0.972045, 241, 265, 368, 328
-0.972052, 145, 305, 208, 368
-0.972295, 365, 33, 396, 160
-0.972319, 369, 241, 496, 304
-0.972327, 297, 89, 360, 152
-0.972443, 25, 97, 88, 352
-0.972689, 165, 233, 196, 296
-0.972756, 249, 233, 312, 296
-0.972765, 353, 169, 416, 232
-0.972934, 193, 201, 224, 264
-0.972945, 225, 241, 256, 368
-0.973034, 229, 177, 260, 304
-0.973074, 193, 177, 320, 240
-0.973096, 177, 97, 208, 224
-0.973164, 33, 185, 160, 248
-0.973184, 61, 193, 92, 256
-0.973201, 369, 217, 496, 280
-0.973215, 145, 81, 176, 208
-0.973321, 217, 209, 248, 272
-0.973387, 465, 161, 496, 224
-0.973408, 289, 193, 416, 256
-0.973462, 145, 145, 272, 208
-0.973513, 225, 1, 288, 256
-0.973585, 41, 57, 104, 120
-0.973601, 217, 249, 248, 312
-0.973694, 233, 105, 296, 168
-0.973814, 65, 113, 192, 176
-0.97387, 89, 241, 152, 304
-0.973914, 129, 185, 160, 248
-0.973928, 257, 153, 320, 216
-0.973944, 249, 265, 312, 328
-0.973957, 449, 97, 480, 224
-0.973959, 161, 81, 288, 144
-0.973972, 49, 241, 112, 304
-0.974089, 145, 209, 176, 272
-0.974127, 129, 169, 256, 232
-0.974161, 349, 241, 380, 304
-0.974219, 257, 121, 320, 184
-0.97422, 229, 249, 260, 312
-0.974248, 81, 241, 144, 368
-0.974423, 313, 113, 376, 176
-0.97443, 273, 241, 336, 368
-0.974437, 377, 17, 440, 144
-0.974577, 417, 81, 480, 144
-0.974585, 185, 289, 216, 352
-0.974709, 145, 273, 272, 336
-0.974727, 41, 33, 72, 160
-0.974838, 385, 257, 416, 320
-0.97485, 341, 273, 372, 336
-0.974937, 313, 217, 376, 280
-0.974966, 89, 193, 120, 320
-0.974989, 153, 145, 184, 208
-0.975017, 369, 153, 496, 216
-0.975062, 245, 97, 276, 224
-0.975079, 225, 89, 352, 152
-0.975104, 1, 177, 64, 304
-0.975114, 65, 233, 192, 296
-0.975122, 389, 89, 420, 152
-0.975182, 177, 105, 208, 168
-0.975194, 53, 129, 84, 256
-0.975238, 121, 161, 152, 288
-0.975281, 93, 145, 124, 208
-0.975306, 353, 145, 416, 208
-0.975339, 349, 193, 380, 256
-0.975381, 149, 249, 180, 312
-0.975383, 213, 241, 244, 368
-0.975385, 337, 185, 464, 248
-0.975401, 257, 217, 384, 280
-0.975404, 321, 297, 384, 360
-0.975465, 377, 121, 440, 184
-0.97548, 177, 97, 240, 160
-0.975573, 149, 97, 180, 160
-0.975614, 121, 161, 152, 224
-0.975679, 257, 153, 384, 216
-0.975822, 65, 137, 192, 200
-0.975865, 189, 241, 220, 304
-0.975887, 273, 257, 304, 320
-0.975968, 453, 121, 484, 184
-0.975979, 393, 49, 424, 176
-0.975984, 209, 129, 272, 192
-0.976009, 385, 217, 416, 280
-0.976028, 225, 49, 256, 176
-0.976102, 1, 105, 128, 168
-0.976118, 73, 169, 104, 232
-0.976154, 133, 209, 164, 272
-0.976161, 381, 193, 412, 256
-0.976173, 469, 265, 500, 328
-0.976256, 385, 153, 448, 216
-0.97646, 253, 17, 284, 144
-0.976482, 165, 177, 196, 240
-0.976492, 49, 177, 80, 304
-0.976504, 257, 241, 384, 304
-0.976537, 221, 273, 252, 336
-0.976544, 177, 1, 240, 375
-0.976567, 73, 273, 136, 336
-0.976582, 337, 97, 400, 352
-0.976586, 413, 65, 444, 192
-0.976603, 429, 81, 460, 208
-0.976648, 289, 161, 352, 224
-0.976689, 141, 145, 172, 208
-0.976839, 225, 153, 256, 216
-0.976887, 425, 209, 488, 272
-0.976903, 433, 281, 496, 344
-0.97691, 49, 177, 80, 240
-0.976942, 193, 273, 320, 336
-0.976961, 157, 201, 188, 264
-0.976964, 177, 201, 304, 264
-0.976992, 1, 137, 128, 200
-0.97702, 301, 49, 332, 176
-0.977029, 33, 217, 96, 280
-0.97708, 413, 73, 444, 136
-0.977138, 369, 185, 400, 248
-0.977241, 353, 217, 384, 280
-0.977241, 65, 33, 128, 160
-0.977266, 201, 41, 264, 104
-0.977288, 225, 1, 288, 375
-0.97732, 469, 113, 500, 176
-0.977325, 445, 209, 476, 336
-0.977382, 445, 161, 476, 224
-0.977404, 201, 169, 232, 232
-0.977459, 77, 145, 108, 272
-0.97747, 65, 65, 96, 192
-0.977472, 29, 25, 60, 88
-0.977476, 385, 241, 448, 368
-0.977515, 345, 113, 408, 176
-0.977581, 329, 161, 392, 224
-0.977592, 337, 185, 368, 248
-0.977593, 165, 121, 196, 184
-0.97765, 81, 89, 208, 152
-0.977656, 109, 161, 140, 288
-0.977682, 273, 185, 336, 248
-0.977768, 313, 137, 376, 200
-0.977775, 121, 273, 184, 336
-0.977834, 241, 137, 272, 200
-0.97789, 301, 81, 332, 144
-0.978006, 321, 41, 352, 104
-0.978097, 253, 73, 284, 136
-0.978161, 297, 265, 360, 328
-0.978231, 237, 33, 268, 160
-0.978234, 433, 113, 464, 176
-0.978352, 241, 57, 368, 120
-0.978355, 89, 65, 120, 192
-0.978362, 321, 73, 448, 136
-0.978391, 229, 217, 260, 280
-0.97845, 113, 33, 240, 160
-0.978468, 73, 193, 104, 256
-0.978469, 273, 209, 304, 336
-0.978475, 233, 273, 264, 336
-0.978488, 357, 225, 388, 352
-0.978511, 177, 153, 208, 216
-0.978574, 9, 1, 40, 128
-0.978658, 73, 121, 136, 184
-0.978688, 165, 209, 196, 336
-0.978696, 445, 161, 476, 288
-0.978736, 65, 129, 96, 256
-0.978769, 365, 281, 396, 344
-0.978789, 197, 65, 228, 128
-0.978814, 33, 1, 96, 256
-0.978819, 1, 97, 64, 352
-0.97886, 21, 17, 52, 144
-0.978887, 281, 233, 312, 296
-0.978906, 121, 81, 152, 208
-0.978968, 69, 73, 100, 136
-0.97897, 457, 265, 488, 328
-0.978992, 201, 233, 232, 296
-0.979019, 429, 89, 460, 152
-0.979054, 461, 161, 492, 288
-0.979108, 97, 257, 224, 320
-0.979184, 189, 65, 220, 192
-0.97919, 397, 65, 428, 128
-0.979212, 89, 169, 120, 232
-0.979245, 349, 41, 380, 104
-0.97927, 233, 177, 264, 240
-0.97931, 321, 1, 384, 256
-0.979398, 377, 33, 408, 160
-0.979434, 9, 1, 72, 375
-0.97947, 177, 49, 208, 176
-0.979526, 349, 33, 380, 160
-0.979555, 157, 81, 188, 208
-0.979562, 197, 265, 228, 328
-0.979604, 201, 97, 264, 160
-0.979616, 369, 33, 432, 288
-0.979657, 425, 241, 456, 368
-0.979675, 337, 25, 400, 88
-0.979796, 149, 121, 180, 184
-0.979816, 53, 49, 84, 176
-0.979849, 369, 225, 400, 352
-0.979872, 245, 145, 276, 272
-0.979877, 245, 169, 276, 232
-0.979885, 77, 137, 108, 200
-0.979896, 29, 185, 60, 248
-0.97991, 101, 169, 132, 232
-0.979916, 185, 129, 248, 192
-0.979936, 77, 193, 108, 320
-0.979956, 149, 209, 180, 336
-0.979958, 89, 201, 120, 264
-0.97997, 305, 33, 336, 96
-0.979973, 73, 217, 104, 280
-0.979997, 161, 33, 224, 288
-0.979997, 385, 49, 416, 112
-0.980026, 137, 33, 200, 160
-0.980053, 61, 145, 92, 208
-0.980084, 257, 209, 320, 272
-0.980131, 145, 105, 272, 168
-0.980137, 49, 265, 112, 328
-0.980177, 81, 185, 208, 248
-0.980181, 361, 161, 392, 224
-0.980276, 133, 113, 164, 240
-0.980356, 321, 217, 448, 280
-0.980403, 281, 97, 344, 352
-0.980415, 289, 273, 416, 336
-0.980417, 397, 129, 428, 256
-0.980459, 241, 177, 368, 240
-0.980487, 209, 65, 240, 128
-0.980542, 449, 241, 480, 304
-0.980562, 109, 113, 140, 240
-0.980571, 85, 73, 116, 136
-0.980616, 9, 209, 72, 272
-0.980631, 77, 65, 108, 192
-0.98069, 257, 65, 288, 192
-0.980697, 285, 177, 316, 304
-0.980724, 201, 1, 264, 375
-0.980783, 213, 49, 244, 176
-0.980791, 41, 81, 72, 208
-0.98083, 209, 273, 240, 336
-0.980881, 437, 265, 468, 328
-0.980901, 57, 81, 88, 144
-0.98093, 241, 81, 272, 144
-0.980965, 181, 313, 212, 375
-0.981023, 229, 49, 260, 112
-0.981114, 165, 257, 196, 320
-0.981135, 281, 81, 312, 144
-0.981204, 129, 209, 160, 336
-0.981207, 49, 201, 80, 264
-0.981241, 337, 41, 368, 104
-0.981286, 337, 249, 368, 312
-0.981401, 193, 57, 320, 120
-0.981416, 217, 145, 248, 272
-0.981466, 265, 33, 296, 96
-0.981519, 177, 17, 240, 144
-0.98168, 97, 113, 128, 240
-0.981696, 277, 33, 308, 96
-0.981722, 305, 113, 432, 176
-0.981727, 369, 65, 496, 128
-0.98173, 33, 265, 160, 328
-0.981745, 209, 1, 272, 128
-0.981753, 37, 97, 68, 160
-0.981769, 373, 49, 404, 112
-0.981773, 129, 137, 160, 200
-0.981827, 313, 97, 376, 352
-0.981835, 321, 161, 448, 224
-0.981877, 161, 297, 288, 360
-0.982019, 293, 33, 324, 96
-0.982024, 165, 81, 196, 144
-0.982029, 241, 41, 272, 104
-0.982129, 117, 137, 148, 200
-0.982131, 201, 65, 232, 192
-0.982134, 289, 185, 320, 248
-0.982198, 221, 73, 252, 136
-0.982199, 337, 33, 368, 160
-0.982242, 289, 33, 320, 160
-0.98227, 353, 137, 384, 200
-0.982415, 193, 153, 320, 216
-0.982459, 401, 265, 432, 328
-0.982467, 273, 81, 400, 144
-0.982483, 277, 33, 308, 160
-0.982486, 41, 129, 72, 256
-0.982502, 437, 137, 468, 200
-0.982513, 209, 121, 336, 184
-0.982522, 369, 1, 432, 375
-0.982531, 37, 49, 68, 112
-0.982533, 329, 209, 360, 272
-0.982573, 13, 17, 44, 80
-0.982585, 353, 161, 416, 288
-0.982696, 269, 81, 300, 144
-0.982722, 121, 89, 152, 152
-0.982735, 153, 1, 216, 375
-0.982746, 241, 289, 368, 352
-0.982765, 249, 1, 312, 375
-0.982772, 429, 129, 460, 256
-0.982786, 57, 225, 88, 352
-0.982805, 329, 273, 360, 336
-0.982809, 253, 33, 284, 96
-0.982868, 121, 209, 152, 272
-0.982871, 257, 113, 288, 240
-0.982881, 177, 241, 208, 304
-0.982923, 405, 113, 436, 176
-0.983155, 265, 17, 296, 144
-0.98318, 397, 233, 428, 296
-0.983184, 353, 273, 384, 336
-0.983191, 457, 209, 488, 336
-0.983196, 105, 145, 136, 208
-0.983226, 33, 57, 160, 120
-0.983263, 17, 177, 48, 240
-0.983287, 33, 73, 64, 136
-0.98336, 381, 193, 412, 320
-0.983446, 321, 137, 448, 200
-0.983475, 413, 129, 444, 256
-0.983539, 329, 1, 392, 128
-0.983684, 105, 33, 168, 160
-0.983692, 97, 65, 224, 128
-0.983819, 33, 241, 96, 368
-0.983877, 325, 33, 356, 160
-0.983935, 425, 1, 488, 256
-0.983939, 301, 113, 332, 240
-0.984003, 313, 33, 344, 160
-0.984061, 1, 241, 128, 304
-0.984121, 321, 1, 384, 375
-0.984223, 81, 281, 208, 344
-0.984242, 333, 209, 364, 336
-0.984354, 237, 225, 268, 352
-0.98437, 205, 113, 236, 240
-0.984402, 101, 65, 132, 192
-0.984403, 297, 1, 360, 375
-0.984616, 425, 193, 456, 320
-0.984694, 349, 113, 380, 240
-0.985062, 345, 1, 408, 375
-0.985075, 33, 1, 96, 375
-0.985088, 1, 209, 128, 272
-0.985117, 337, 289, 464, 352
-0.985139, 229, 129, 260, 256
-0.985171, 273, 1, 336, 375
-0.985351, 257, 97, 320, 352
-0.985354, 101, 209, 132, 336
-0.98554, 113, 209, 144, 336
-0.985702, 121, 1, 184, 375
-0.985755, 37, 177, 68, 304
-0.98578, 273, 25, 400, 88
-0.985816, 257, 121, 384, 184
-0.985819, 285, 241, 316, 368
-0.986022, 137, 33, 200, 288
-0.98611, 469, 241, 500, 368
-0.986221, 29, 113, 60, 240
-0.986241, 145, 57, 272, 120
-0.986266, 381, 81, 412, 208
-0.986292, 361, 129, 424, 375
-0.986429, 313, 129, 344, 256
-0.986501, 277, 129, 308, 256
-0.986595, 341, 161, 372, 288
-0.986651, 405, 209, 436, 336
-0.986672, 33, 201, 288, 264
-0.986801, 261, 209, 292, 336
-0.986915, 385, 129, 416, 256
-0.98704, 1, 153, 256, 216
-0.987162, 433, 1, 496, 375
-0.987205, 189, 113, 220, 240
-0.987439, 297, 193, 328, 320
-0.987756, 73, 241, 104, 368
-0.987788, 89, 1, 152, 375
-0.987872, 133, 65, 164, 192
-0.988, 193, 185, 256, 216
-0.988033, 289, 113, 320, 240
-0.988067, 261, 161, 292, 288
-0.988098, 193, 241, 256, 272
-0.988103, 193, 197, 256, 228
-0.988123, 161, 189, 224, 220
-0.988137, 153, 245, 216, 276
-0.988293, 393, 1, 456, 375
-0.98834, 161, 201, 224, 232
-0.988421, 113, 197, 176, 228
-0.988434, 193, 49, 448, 112
-0.988448, 369, 81, 400, 208
-0.988465, 249, 209, 280, 336
-0.988489, 1, 81, 256, 144
-0.98851, 401, 17, 464, 144
-0.988609, 165, 33, 196, 160
-0.988629, 201, 253, 264, 284
-0.988678, 177, 33, 304, 96
-0.988684, 73, 197, 136, 228
-0.988766, 161, 229, 224, 260
-0.988845, 393, 241, 424, 368
-0.988848, 249, 37, 312, 68
-0.98888, 1, 49, 500, 112
-0.988898, 297, 41, 360, 72
-0.988931, 97, 241, 352, 304
-0.988937, 297, 193, 360, 224
-0.988937, 49, 201, 112, 232
-0.988964, 329, 185, 392, 216
-0.988991, 185, 65, 248, 96
-0.98902, 29, 65, 60, 192
-0.989048, 193, 217, 448, 280
-0.989053, 137, 189, 200, 220
-0.989086, 225, 273, 288, 304
-0.989118, 337, 197, 400, 228
-0.989121, 321, 193, 352, 320
-0.989137, 409, 261, 472, 292
-0.989163, 145, 161, 208, 192
-0.989185, 185, 209, 248, 240
-0.989249, 137, 201, 200, 232
-0.989261, 193, 221, 256, 252
-0.989279, 137, 213, 200, 244
-0.989293, 469, 49, 500, 176
-0.989295, 97, 81, 352, 144
-0.989304, 189, 17, 220, 144
-0.989309, 57, 81, 120, 112
-0.989332, 57, 1, 120, 375
-0.989341, 49, 165, 112, 196
-0.989354, 161, 141, 224, 172
-0.989362, 97, 161, 352, 224
-0.98937, 169, 177, 232, 208
-0.989416, 81, 209, 144, 240
-0.989428, 433, 253, 496, 284
-0.989465, 337, 49, 400, 80
-0.98947, 121, 101, 184, 132
-0.989507, 269, 81, 300, 208
-0.989536, 377, 93, 440, 124
-0.989548, 57, 153, 120, 184
-0.989586, 361, 201, 424, 232
-0.98959, 425, 133, 488, 164
-0.989605, 185, 277, 248, 308
-0.989631, 433, 153, 496, 184
-0.989654, 33, 97, 96, 128
-0.989663, 193, 173, 256, 204
-0.989663, 185, 77, 248, 108
-0.989682, 89, 165, 152, 196
-0.989709, 1, 33, 128, 96
-0.98973, 353, 185, 416, 216
-0.989739, 201, 265, 264, 296
-0.989741, 433, 265, 496, 296
-0.989742, 145, 177, 208, 208
-0.989751, 193, 177, 448, 240
-0.989754, 289, 273, 352, 304
-0.98976, 321, 25, 448, 88
-0.989768, 345, 241, 376, 368
-0.989771, 369, 265, 432, 296
-0.98978, 401, 197, 464, 228
-0.989816, 185, 289, 248, 320
-0.989852, 273, 85, 336, 116
-0.989853, 25, 169, 88, 200
-0.98988, 217, 53, 280, 84
-0.989884, 385, 69, 448, 100
-0.989891, 49, 177, 112, 208
-0.989895, 129, 237, 192, 268
-0.989915, 1, 145, 500, 208
-0.98993, 345, 1, 408, 256
-0.989934, 241, 85, 304, 116
-0.989936, 1, 201, 500, 264
-0.989943, 177, 301, 240, 332
-0.989945, 249, 101, 312, 132
-0.989958, 433, 117, 496, 148
-0.989962, 225, 257, 288, 288
-0.989965, 209, 65, 272, 96
-0.989967, 369, 153, 432, 184
-0.990006, 121, 145, 184, 176
-0.990006, 233, 165, 296, 196
-0.990026, 401, 117, 464, 148
-0.990038, 409, 273, 472, 304
-0.990056, 145, 289, 208, 320
-0.990057, 313, 81, 344, 208
-0.990062, 337, 217, 400, 248
-0.990068, 121, 249, 184, 280
-0.99009, 41, 189, 104, 220
-0.990093, 377, 189, 440, 220
-0.990103, 81, 149, 144, 180
-0.990148, 273, 197, 336, 228
-0.990153, 353, 161, 384, 288
-0.990157, 17, 189, 80, 220
-0.990157, 353, 253, 416, 284
-0.990181, 273, 157, 336, 188
-0.990181, 273, 37, 336, 68
-0.990216, 57, 221, 120, 252
-0.99022, 33, 85, 96, 116
-0.990221, 337, 289, 400, 320
-0.990223, 329, 269, 392, 300
-0.990255, 329, 145, 392, 176
-0.990259, 233, 193, 296, 224
-0.990286, 105, 209, 168, 240
-0.990289, 361, 117, 424, 148
-0.990296, 161, 217, 224, 248
-0.990298, 257, 89, 500, 152
-0.990301, 153, 257, 216, 288
-0.990302, 105, 185, 168, 216
-0.99032, 129, 225, 192, 256
-0.990337, 361, 53, 424, 84
-0.990342, 185, 145, 248, 176
-0.990344, 409, 249, 472, 280
-0.990349, 121, 161, 184, 192
-0.990392, 345, 133, 408, 164
-0.990406, 121, 261, 184, 292
-0.990419, 33, 213, 96, 244
-0.990434, 297, 209, 360, 240
-0.990437, 1, 169, 64, 200
-0.990469, 241, 49, 304, 80
-0.99047, 337, 237, 400, 268
-0.990508, 401, 129, 464, 160
-0.990511, 241, 237, 304, 268
-0.990526, 225, 209, 288, 240
-0.990531, 425, 105, 488, 136
-0.990534, 153, 109, 216, 140
-0.990541, 1, 177, 256, 240
-0.990544, 25, 109, 88, 140
-0.990561, 217, 181, 280, 212
-0.990582, 433, 241, 496, 272
-0.990596, 249, 269, 312, 300
-0.990612, 401, 105, 464, 136
-0.990615, 433, 181, 496, 212
-0.990619, 185, 313, 248, 344
-0.990622, 401, 89, 464, 120
-0.990679, 345, 105, 408, 136
-0.990695, 305, 69, 368, 100
-0.990703, 85, 241, 116, 368
-0.990711, 417, 165, 480, 196
-0.990722, 121, 117, 184, 148
-0.990728, 217, 153, 280, 184
-0.990734, 257, 265, 500, 328
-0.990735, 137, 129, 200, 160
-0.990768, 329, 249, 392, 280
-0.990769, 417, 221, 480, 252
-0.990769, 25, 157, 88, 188
-0.990788, 9, 33, 72, 64
-0.990792, 305, 149, 368, 180
-0.990798, 73, 177, 136, 208
-0.990804, 153, 89, 216, 120
-0.990812, 329, 301, 392, 332
-0.990818, 1, 169, 500, 232
-0.990832, 289, 305, 416, 368
-0.990839, 297, 53, 360, 84
-0.990883, 1, 113, 256, 176
-0.990969, 329, 145, 360, 272
-0.991249, 381, 241, 412, 368
-0.991266, 201, 17, 232, 144
-0.991361, 1, 73, 500, 136
-0.99138, 257, 145, 500, 208
-0.991473, 1, 129, 32, 256
-0.991477, 97, 121, 352, 184
-0.991514, 97, 305, 224, 368
-0.99154, 297, 241, 328, 368
-0.991572, 1, 57, 256, 120
-0.991574, 1, 225, 500, 288
-0.991677, 45, 225, 76, 352
-0.991745, 257, 241, 500, 304
-0.99176, 221, 181, 252, 212
-0.991777, 389, 1, 420, 128
-0.991823, 369, 41, 496, 104
-0.991862, 457, 49, 488, 176
-0.991901, 41, 89, 72, 120
-0.991972, 161, 281, 416, 344
-0.992011, 221, 193, 252, 224
-0.992062, 225, 9, 352, 72
-0.992082, 1, 225, 256, 288
-0.992167, 61, 209, 92, 240
-0.992177, 393, 193, 424, 320
-0.992211, 213, 1, 244, 128
-0.992222, 181, 181, 212, 212
-0.992267, 329, 193, 360, 224
-0.99227, 201, 177, 232, 208
-0.992271, 177, 229, 208, 260
-0.992292, 201, 193, 232, 224
-0.992304, 165, 149, 196, 180
-0.99232, 173, 241, 204, 272
-0.992321, 457, 137, 488, 168
-0.992326, 145, 217, 176, 248
-0.992326, 421, 93, 452, 124
-0.992332, 201, 61, 232, 92
-0.992339, 1, 249, 500, 312
-0.99234, 469, 125, 500, 156
-0.992345, 225, 253, 256, 284
-0.992346, 461, 157, 492, 188
-0.992347, 185, 209, 216, 240
-0.992357, 197, 221, 228, 252
-0.992357, 201, 241, 232, 272
-0.992359, 133, 197, 164, 228
-0.992365, 457, 121, 488, 152
-0.992369, 385, 185, 416, 216
-0.992371, 357, 141, 388, 172
-0.992425, 253, 37, 284, 68
-0.992429, 217, 217, 248, 248
-0.99243, 189, 193, 220, 224
-0.992454, 133, 161, 164, 192
-0.992456, 29, 173, 60, 204
-0.992456, 189, 65, 220, 96
-0.99246, 313, 41, 344, 72
-0.992463, 381, 53, 412, 84
-0.992467, 185, 169, 216, 200
-0.992471, 217, 237, 248, 268
-0.992477, 145, 197, 176, 228
-0.992482, 281, 261, 312, 292
-0.992487, 181, 297, 212, 328
-0.992493, 225, 57, 256, 88
-0.992495, 169, 137, 200, 168
-0.992495, 341, 197, 372, 228
-0.9925, 41, 77, 72, 108
-0.9925, 189, 233, 220, 264
-0.9925, 225, 269, 256, 300
-0.992507, 349, 181, 380, 212
-0.992525, 413, 73, 444, 104
-0.992529, 153, 257, 184, 288
-0.992529, 69, 193, 100, 224
-0.992538, 161, 245, 192, 276
-0.992543, 205, 205, 236, 236
-0.992548, 213, 65, 244, 96
-0.99255, 181, 309, 212, 340
-0.992554, 157, 209, 188, 240
-0.992556, 233, 233, 264, 264
-0.992563, 365, 177, 396, 208
-0.99257, 165, 161, 196, 192
-0.992571, 233, 69, 264, 100
-0.992571, 165, 229, 196, 260
-0.992573, 325, 41, 356, 72
-0.992574, 85, 193, 116, 224
-0.992576, 333, 261, 364, 292
-0.992577, 65, 153, 96, 184
-0.992582, 285, 197, 316, 228
-0.992582, 145, 149, 176, 180
-0.992582, 233, 181, 264, 212
-0.992583, 81, 205, 112, 236
-0.99259, 345, 45, 376, 76
-0.992594, 53, 97, 84, 128
-0.992597, 445, 261, 476, 292
-0.992603, 109, 197, 140, 228
-0.992604, 465, 181, 496, 212
-0.992605, 465, 169, 496, 200
-0.992606, 89, 165, 120, 196
-0.992606, 157, 113, 188, 144
-0.992607, 45, 209, 76, 240
-0.992607, 353, 285, 384, 316
-0.992615, 225, 41, 352, 72
-0.992615, 165, 189, 196, 220
-0.992618, 121, 197, 152, 228
-0.992629, 145, 161, 176, 192
-0.992636, 469, 137, 500, 168
-0.992637, 377, 145, 408, 176
-0.992638, 361, 161, 392, 192
-0.992641, 177, 109, 208, 140
-0.992652, 121, 97, 152, 128
-0.992656, 273, 37, 304, 68
-0.992659, 225, 205, 256, 236
-0.992659, 365, 49, 396, 80
-0.992667, 301, 37, 332, 68
-0.992667, 213, 257, 244, 288
-0.992671, 133, 213, 164, 244
-0.992672, 385, 201, 416, 232
-0.992675, 89, 149, 120, 180
-0.992677, 69, 221, 100, 252
-0.992677, 401, 269, 432, 300
-0.992684, 437, 169, 468, 200
-0.992687, 173, 213, 204, 244
-0.992689, 49, 189, 80, 220
-0.992691, 57, 85, 88, 116
-0.992691, 197, 77, 228, 108
-0.992696, 97, 205, 128, 236
-0.9927, 301, 89, 332, 120
-0.992702, 377, 221, 408, 252
-0.992703, 441, 249, 472, 280
-0.992715, 197, 281, 228, 312
-0.992716, 145, 101, 176, 132
-0.992725, 17, 21, 48, 52
-0.992726, 389, 93, 420, 124
-0.992727, 41, 101, 72, 132
-0.992729, 253, 81, 284, 112
-0.992733, 369, 193, 400, 224
-0.992739, 145, 185, 176, 216
-0.99274, 141, 233, 172, 264
-0.992741, 465, 269, 496, 300
-0.992742, 469, 113, 500, 144
-0.992743, 249, 165, 280, 196
-0.992744, 329, 205, 360, 236
-0.992746, 361, 237, 392, 268
-0.992749, 177, 197, 208, 228
-0.992751, 37, 65, 68, 96
-0.992754, 97, 193, 128, 224
-0.992756, 445, 201, 476, 232
-0.992757, 353, 269, 384, 300
-0.992762, 229, 281, 260, 312
-0.992764, 345, 245, 376, 276
-0.992764, 433, 105, 464, 136
-0.992769, 381, 241, 412, 272
-0.992771, 237, 261, 268, 292
-0.992772, 113, 209, 144, 240
-0.992784, 329, 289, 360, 320
-0.992788, 213, 269, 244, 300
-0.992888, 201, 209, 216, 272
-0.992918, 129, 253, 256, 284
-0.992953, 33, 205, 160, 236
-0.992994, 65, 149, 192, 180
-0.993159, 17, 9, 144, 72
-0.993171, 81, 41, 208, 104
-0.993182, 201, 177, 216, 240
-0.993204, 97, 57, 352, 120
-0.993219, 337, 313, 464, 375
-0.993261, 47, 73, 62, 136
-0.993272, 227, 169, 242, 232
-0.993306, 193, 121, 448, 184
-0.99333, 9, 241, 72, 368
-0.993331, 369, 265, 496, 296
-0.993356, 273, 273, 400, 304
-0.993385, 1, 249, 256, 312
-0.993389, 145, 161, 160, 224
-0.993427, 163, 241, 178, 304
-0.993458, 195, 193, 210, 256
-0.993475, 33, 85, 160, 116
-0.993481, 129, 241, 256, 272
-0.993514, 473, 137, 488, 200
-0.993515, 189, 289, 204, 352
-0.993517, 177, 265, 304, 296
-0.993517, 177, 245, 304, 276
-0.993546, 353, 249, 480, 280
-0.993586, 237, 177, 252, 240
-0.993593, 81, 161, 208, 192
-0.993619, 129, 229, 256, 260
-0.993713, 195, 217, 210, 280
-0.993719, 257, 197, 384, 228
-0.993783, 189, 201, 204, 264
-0.993787, 177, 225, 304, 256
-0.993821, 243, 241, 258, 304
-0.993827, 33, 165, 160, 196
-0.993853, 95, 161, 110, 224
-0.993858, 1, 273, 256, 336
-0.993865, 113, 209, 240, 240
-0.993885, 143, 185, 158, 248
-0.993886, 145, 149, 272, 180
-0.993887, 225, 85, 352, 116
-0.993901, 97, 197, 224, 228
-0.993914, 379, 225, 394, 288
-0.993923, 17, 189, 144, 220
-0.99393, 33, 97, 160, 128
-0.993942, 353, 149, 480, 180
-0.993966, 81, 217, 96, 280
-0.993993, 321, 189, 448, 220
-0.993999, 71, 193, 86, 256
-0.994008, 81, 97, 208, 128
-0.994014, 65, 201, 80, 264
-0.994024, 1, 33, 256, 96
-0.994032, 481, 113, 496, 176
-0.99404, 53, 169, 68, 232
-0.994051, 209, 217, 224, 280
-0.994105, 49, 221, 176, 252
-0.994105, 321, 281, 448, 312
-0.994114, 289, 49, 416, 80
-0.99412, 65, 257, 192, 288
-0.994148, 209, 185, 336, 216
-0.994153, 223, 209, 238, 272
-0.994157, 375, 201, 390, 264
-0.994158, 77, 193, 92, 256
-0.994188, 337, 201, 464, 232
-0.99419, 353, 225, 480, 256
-0.994192, 225, 285, 352, 316
-0.994212, 321, 261, 448, 292
-0.994226, 369, 257, 384, 320
-0.99424, 1, 273, 500, 336
-0.994253, 1, 97, 500, 160
-0.994278, 145, 85, 272, 116
-0.994295, 159, 217, 174, 280
-0.994316, 447, 113, 462, 176
-0.994325, 239, 153, 254, 216
-0.994328, 101, 161, 116, 224
-0.994336, 185, 177, 200, 240
-0.994339, 273, 261, 400, 292
-0.994351, 173, 121, 188, 184
-0.994353, 181, 209, 196, 272
-0.994383, 225, 53, 352, 84
-0.994384, 427, 73, 442, 136
-0.994402, 53, 73, 68, 136
-0.994414, 369, 137, 496, 168
-0.994424, 177, 65, 304, 96
-0.994427, 163, 105, 178, 168
-0.994449, 399, 233, 414, 296
-0.994453, 153, 217, 168, 280
-0.994455, 209, 205, 336, 236
-0.994458, 469, 265, 484, 328
-0.994462, 239, 209, 254, 272
-0.994466, 369, 117, 496, 148
-0.994469, 231, 209, 246, 272
-0.994472, 181, 105, 196, 168
-0.994482, 239, 273, 254, 336
-0.994516, 287, 257, 302, 320
-0.99452, 467, 161, 482, 224
-0.99454, 481, 161, 496, 224
-0.994553, 161, 185, 288, 216
-0.994575, 225, 261, 352, 292
-0.994583, 17, 289, 144, 352
-0.994601, 381, 201, 396, 264
-0.994601, 203, 241, 218, 304
-0.994621, 389, 257, 404, 320
-0.994624, 369, 97, 496, 128
-0.994631, 373, 177, 388, 240
-0.994632, 17, 177, 144, 208
-0.99465, 277, 257, 292, 320
-0.994672, 251, 81, 266, 144
-0.99468, 455, 113, 470, 176
-0.994684, 337, 73, 464, 104
-0.994706, 469, 97, 500, 352
-0.99472, 363, 281, 378, 344
-0.994726, 65, 237, 192, 268
-0.994736, 135, 185, 150, 248
-0.994741, 139, 161, 154, 224
-0.994745, 435, 89, 450, 152
-0.994772, 305, 149, 432, 180
-0.994774, 345, 233, 360, 296
-0.994783, 107, 161, 122, 224
-0.994795, 149, 185, 164, 248
-0.994795, 91, 137, 106, 200
-0.994801, 133, 209, 148, 272
-0.994802, 289, 217, 416, 248
-0.994829, 405, 65, 420, 128
-0.994839, 345, 201, 360, 264
-0.994841, 157, 145, 172, 208
-0.994842, 59, 73, 74, 136
-0.994849, 385, 225, 400, 288
-0.994861, 453, 145, 468, 208
-0.994871, 203, 57, 218, 120
-0.994873, 373, 225, 388, 288
-0.994875, 353, 161, 480, 192
-0.994889, 183, 313, 198, 375
-0.994934, 195, 169, 210, 232
-0.994935, 161, 209, 288, 240
-0.994938, 1, 121, 500, 184
-0.994938, 161, 25, 416, 88
-0.994962, 293, 257, 308, 320
-0.994963, 175, 233, 190, 296
-0.994966, 259, 73, 274, 136
-0.99498, 379, 177, 394, 240
-0.994984, 221, 185, 236, 248
-0.994985, 165, 97, 196, 352
-0.994987, 347, 41, 362, 104
-0.994991, 17, 109, 144, 140
-0.994993, 127, 209, 142, 272
-0.994993, 479, 137, 494, 200
-0.995, 353, 193, 368, 256
-0.995016, 157, 241, 172, 304
-0.995049, 181, 153, 196, 216
-0.995059, 161, 197, 288, 228
-0.99506, 165, 217, 180, 280
-0.99507, 369, 185, 496, 216
-0.995071, 155, 89, 170, 152
-0.995081, 193, 305, 448, 368
-0.995083, 337, 85, 464, 116
-0.995089, 253, 137, 268, 200
-0.995094, 245, 177, 260, 240
-0.995136, 321, 33, 336, 96
-0.995146, 245, 73, 260, 136
-0.995148, 155, 193, 170, 256
-0.995153, 289, 245, 416, 276
-0.995154, 47, 185, 62, 248
-0.995157, 321, 137, 448, 168
-0.995162, 161, 9, 288, 72
-0.995183, 133, 161, 148, 224
-0.995185, 169, 241, 184, 304
-0.995189, 227, 65, 242, 128
-0.995205, 289, 93, 416, 124
-0.995206, 341, 273, 356, 336
-0.995211, 471, 113, 486, 176
-0.995216, 75, 217, 90, 280
-0.995219, 357, 41, 372, 104
-0.995227, 335, 281, 350, 344
-0.995228, 363, 177, 378, 240
-0.99523, 103, 137, 118, 200
-0.995235, 475, 161, 490, 224
-0.99524, 41, 97, 56, 160
-0.995241, 221, 65, 236, 128
-0.995245, 59, 161, 74, 224
-0.99525, 381, 265, 396, 328
-0.99525, 405, 89, 420, 152
-0.995255, 313, 81, 328, 144
-0.995262, 145, 281, 272, 312
-0.995276, 235, 233, 250, 296
-0.995279, 85, 169, 100, 232
-0.995295, 195, 313, 210, 375
-0.995302, 141, 209, 156, 272
-0.995302, 65, 153, 80, 216
-0.995303, 145, 105, 272, 136
-0.995303, 49, 33, 64, 96
-0.99531, 117, 145, 132, 208
-0.995311, 305, 61, 432, 92
-0.995318, 257, 153, 384, 184
-0.995322, 209, 241, 224, 304
-0.995338, 415, 65, 430, 128
-0.995342, 353, 213, 480, 244
-0.995354, 351, 241, 366, 304
-0.995368, 251, 105, 266, 168
-0.995371, 243, 49, 258, 112
-0.995371, 147, 209, 162, 272
-0.995378, 113, 173, 240, 204
-0.995379, 151, 161, 166, 224
-0.995387, 253, 1, 284, 256
-0.995388, 343, 177, 358, 240
-0.995392, 215, 225, 230, 288
-0.995393, 87, 241, 102, 304
-0.995394, 291, 81, 306, 144
-0.995395, 97, 137, 112, 200
-0.995399, 225, 273, 352, 304
-0.995402, 285, 33, 300, 96
-0.995405, 207, 193, 222, 256
-0.995412, 485, 137, 500, 200
-0.995416, 369, 237, 496, 268
-0.995434, 97, 185, 224, 216
-0.995479, 369, 277, 496, 308
-0.99549, 193, 165, 320, 196
-0.995512, 145, 297, 272, 328
-0.995532, 225, 101, 352, 132
-0.99559, 81, 137, 208, 168
-0.995612, 113, 265, 240, 296
-0.995693, 233, 33, 264, 288
-0.995696, 1, 25, 500, 88
-0.995734, 273, 285, 400, 316
-0.995751, 1, 153, 128, 184
-0.995788, 225, 73, 352, 104
-0.995824, 177, 53, 304, 84
-0.995833, 185, 129, 216, 375
-0.995847, 37, 1, 68, 256
-0.995849, 145, 65, 176, 320
-0.995878, 273, 229, 400, 260
-0.995891, 289, 77, 416, 108
-0.995925, 225, 313, 352, 375
-0.995935, 65, 305, 320, 368
-0.995946, 129, 161, 256, 192
-0.995986, 445, 97, 476, 352
-0.995994, 53, 97, 84, 352
-0.996, 205, 33, 236, 288
-0.996014, 65, 277, 192, 308
-0.996036, 9, 1, 40, 256
-0.996049, 305, 105, 432, 136
-0.996099, 273, 185, 400, 216
-0.996104, 1, 137, 128, 168
-0.996131, 425, 1, 488, 128
-0.996134, 457, 97, 488, 352
-0.996143, 321, 297, 448, 328
-0.99619, 409, 33, 440, 288
-0.996195, 301, 1, 332, 256
-0.996198, 369, 17, 496, 80
-0.996252, 369, 173, 496, 204
-0.996256, 65, 65, 96, 320
-0.996277, 225, 297, 352, 328
-0.996312, 273, 37, 400, 68
-0.996316, 241, 113, 368, 144
-0.996343, 225, 237, 352, 268
-0.996345, 269, 1, 300, 256
-0.996396, 321, 1, 352, 256
-0.996444, 145, 137, 272, 168
-0.996452, 221, 65, 252, 320
-0.996469, 81, 65, 112, 320
-0.996502, 305, 121, 432, 152
-0.996512, 241, 249, 368, 280
-0.996539, 241, 169, 368, 200
-0.996541, 321, 177, 448, 208
-0.996545, 81, 85, 208, 116
-0.996545, 225, 217, 352, 248
-0.996581, 161, 309, 288, 340
-0.9966, 65, 109, 192, 140
-0.996609, 289, 1, 320, 256
-0.996637, 93, 65, 124, 320
-0.996656, 241, 129, 272, 375
-0.996658, 1, 257, 128, 288
-0.996715, 117, 65, 148, 320
-0.996743, 129, 65, 160, 320
-0.996767, 193, 173, 208, 204
-0.996804, 235, 181, 250, 212
-0.996806, 225, 181, 240, 212
-0.996808, 193, 33, 224, 288
-0.996812, 273, 297, 400, 328
-0.996815, 191, 193, 206, 224
-0.996826, 1, 73, 128, 104
-0.99683, 199, 185, 214, 216
-0.996843, 113, 73, 240, 104
-0.996844, 369, 301, 496, 332
-0.996853, 25, 1, 56, 256
-0.996863, 105, 97, 136, 352
-0.9969, 237, 197, 252, 228
-0.996918, 201, 197, 216, 228
-0.996923, 241, 269, 256, 300
-0.99694, 49, 89, 64, 120
-0.996964, 225, 197, 240, 228
-0.996991, 333, 1, 364, 256
-0.996992, 61, 97, 76, 128
-0.996995, 65, 121, 192, 152
-0.997019, 209, 129, 240, 375
-0.997038, 159, 245, 174, 276
-0.997042, 165, 245, 180, 276
-0.997045, 157, 209, 172, 240
-0.997073, 1, 225, 128, 256
-0.997076, 243, 257, 258, 288
-0.997082, 1, 245, 128, 276
-0.997089, 33, 9, 288, 72
-0.997121, 149, 217, 164, 248
-0.997123, 1, 269, 128, 300
-0.997133, 55, 89, 70, 120
-0.99716, 195, 209, 210, 240
-0.997171, 341, 193, 356, 224
-0.997188, 201, 173, 216, 204
-0.997193, 1, 121, 128, 152
-0.997207, 369, 289, 496, 320
-0.997226, 275, 269, 290, 300
-0.997227, 83, 205, 98, 236
-0.997227, 145, 117, 272, 148
-0.99723, 187, 181, 202, 212
-0.997239, 223, 73, 238, 104
-0.99724, 147, 197, 162, 228
-0.997246, 153, 257, 168, 288
-0.997252, 433, 97, 464, 352
-0.997256, 189, 317, 204, 348
-0.997257, 211, 65, 226, 96
-0.997259, 163, 257, 178, 288
-0.997261, 43, 85, 58, 116
-0.997264, 483, 165, 498, 196
-0.997266, 483, 117, 498, 148
-0.997293, 225, 141, 352, 172
-0.997305, 117, 197, 132, 228
-0.997308, 189, 213, 204, 244
-0.997313, 41, 97, 72, 352
-0.997315, 243, 245, 258, 276
-0.997317, 191, 225, 206, 256
-0.997327, 223, 213, 238, 244
-0.99733, 253, 97, 284, 352
-0.997346, 231, 61, 246, 92
-0.997366, 475, 269, 490, 300
-0.997381, 91, 193, 106, 224
-0.997387, 441, 249, 456, 280
-0.997393, 185, 193, 200, 224
-0.9974, 61, 85, 76, 116
-0.99742, 189, 289, 204, 320
-0.997426, 195, 293, 210, 324
-0.99743, 369, 33, 400, 288
-0.997438, 187, 305, 202, 336
-0.99744, 65, 205, 80, 236
-0.99744, 397, 97, 428, 352
-0.997441, 237, 213, 252, 244
-0.997446, 469, 117, 484, 148
-0.997452, 221, 61, 236, 92
-0.997453, 447, 113, 462, 144
-0.997455, 281, 261, 296, 292
-0.997456, 171, 141, 186, 172
-0.997457, 205, 221, 220, 252
-0.99746, 181, 33, 212, 288
-0.997466, 401, 185, 416, 216
-0.997467, 333, 193, 348, 224
-0.997467, 199, 229, 214, 260
-0.99747, 157, 197, 172, 228
-0.99747, 239, 165, 254, 196
-0.997471, 113, 309, 240, 340
-0.997486, 439, 101, 454, 132
-0.997489, 477, 161, 492, 192
-0.997489, 201, 209, 216, 240
-0.99749, 159, 149, 174, 180
-0.99749, 337, 49, 464, 80
-0.997491, 333, 41, 348, 72
-0.997491, 55, 77, 70, 108
-0.997504, 25, 173, 40, 204
-0.997504, 105, 165, 120, 196
-0.997511, 211, 221, 226, 252
-0.997512, 111, 197, 126, 228
-0.997517, 255, 37, 270, 68
-0.997524, 395, 189, 410, 220
-0.997527, 471, 137, 486, 168
-0.997528, 231, 201, 246, 232
-0.997528, 81, 289, 208, 320
-0.997531, 453, 157, 468, 188
-0.997532, 181, 213, 196, 244
-0.99754, 207, 189, 222, 220
-0.997548, 141, 161, 156, 192
-0.997549, 371, 165, 386, 196
-0.99755, 277, 129, 308, 375
-0.99755, 243, 185, 258, 216
-0.997551, 427, 89, 442, 120
-0.997552, 385, 129, 416, 375
-0.997558, 241, 53, 256, 84
-0.997562, 181, 109, 196, 140
-0.997566, 185, 225, 200, 256
-0.997567, 233, 257, 248, 288
-0.997569, 365, 137, 380, 168
-0.99757, 43, 97, 58, 128
-0.997573, 177, 37, 304, 68
-0.997574, 203, 65, 218, 96
-0.997583, 457, 133, 472, 164
-0.997585, 139, 197, 154, 228
-0.99759, 141, 213, 156, 244
-0.997599, 265, 37, 280, 68
-0.997601, 225, 29, 352, 60
-0.997602, 161, 321, 288, 352
-0.997604, 231, 233, 246, 264
-0.997609, 241, 281, 256, 312
-0.997611, 69, 193, 84, 224
-0.997613, 347, 193, 362, 224
-0.997618, 481, 133, 496, 164
-0.99762, 451, 125, 466, 156
-0.997623, 179, 229, 194, 260
-0.997624, 323, 41, 338, 72
-0.997626, 205, 241, 220, 272
-0.997628, 123, 197, 138, 228
-0.997633, 377, 49, 392, 80
-0.997636, 253, 153, 268, 184
-0.997637, 167, 117, 182, 148
-0.997645, 91, 165, 106, 196
-0.997646, 295, 37, 310, 68
-0.997657, 77, 213, 92, 244
-0.997657, 49, 1, 80, 256
-0.997657, 275, 37, 290, 68
-0.997658, 55, 209, 70, 240
-0.997658, 49, 101, 64, 132
-0.997659, 193, 305, 208, 336
-0.99766, 97, 165, 112, 196
-0.99766, 103, 149, 118, 180
-0.997661, 389, 1, 420, 256
-0.997665, 127, 209, 142, 240
-0.997672, 233, 245, 248, 276
-0.997672, 485, 177, 500, 208
-0.997674, 97, 193, 112, 224
-0.997676, 289, 277, 304, 308
-0.997685, 295, 261, 310, 292
-0.997691, 449, 257, 464, 288
-0.997692, 129, 61, 256, 92
-0.997704, 427, 77, 442, 108
-0.997713, 147, 161, 162, 192
-0.997714, 301, 193, 316, 224
-0.99772, 155, 97, 170, 128
-0.997724, 181, 313, 196, 344
-0.997725, 449, 245, 464, 276
-0.997731, 363, 117, 378, 148
-0.997733, 231, 213, 246, 244
-0.99774, 395, 53, 410, 84
-0.997742, 181, 177, 196, 208
-0.997746, 193, 153, 320, 184
-0.997747, 33, 53, 160, 84
-0.997758, 349, 33, 380, 288
-0.997758, 321, 309, 448, 340
-0.997819, 197, 129, 228, 375
-0.997843, 421, 33, 452, 288
-0.997945, 305, 129, 336, 375
-0.997978, 29, 97, 60, 352
-0.998041, 33, 41, 160, 72
-0.998043, 273, 1, 400, 64
-0.99805, 1, 297, 500, 360
-0.99815, 353, 61, 480, 92
-0.998174, 265, 129, 296, 375
-0.998184, 17, 289, 144, 320
-0.99819, 257, 25, 500, 88
-0.998205, 5, 129, 36, 375
-0.998206, 33, 29, 160, 60
-0.998233, 321, 37, 448, 68
-0.998342, 153, 201, 216, 216
-0.998355, 289, 97, 320, 352
-0.998359, 17, 13, 144, 44
-0.99836, 349, 129, 380, 375
-0.998378, 353, 291, 416, 306
-0.99838, 321, 295, 384, 310
-0.998385, 337, 271, 400, 286
-0.998385, 445, 1, 476, 256
-0.998389, 361, 269, 424, 284
-0.998392, 353, 217, 416, 232
-0.998393, 193, 243, 256, 258
-0.998394, 161, 195, 224, 210
-0.998396, 209, 309, 336, 340
-0.9984, 337, 229, 400, 244
-0.998403, 185, 197, 248, 212
-0.998407, 353, 259, 416, 274
-0.998407, 345, 207, 408, 222
-0.998408, 433, 261, 496, 276
-0.99841, 193, 205, 256, 220
-0.998411, 345, 239, 408, 254
-0.998414, 457, 1, 488, 256
-0.998415, 177, 185, 240, 200
-0.998415, 169, 231, 232, 246
-0.998418, 153, 251, 216, 266
-0.998421, 233, 207, 296, 222
-0.998424, 361, 279, 424, 294
-0.998424, 337, 147, 400, 162
-0.998429, 57, 205, 120, 220
-0.998432, 353, 249, 416, 264
-0.998433, 201, 185, 264, 200
-0.998434, 425, 131, 488, 146
-0.998434, 153, 187, 216, 202
-0.998441, 249, 39, 312, 54
-0.998442, 369, 313, 496, 344
-0.998444, 337, 51, 400, 66
-0.998445, 201, 237, 264, 252
-0.998446, 433, 161, 496, 176
-0.998446, 369, 153, 432, 168
-0.998447, 169, 179, 232, 194
-0.99845, 297, 43, 360, 58
-0.998451, 193, 191, 256, 206
-0.998452, 345, 199, 408, 214
-0.998452, 185, 83, 248, 98
-0.998453, 201, 259, 264, 274
-0.998453, 177, 211, 240, 226
-0.998455, 329, 303, 392, 318
-0.998456, 329, 283, 392, 298
-0.998459, 161, 149, 224, 164
-0.99846, 329, 221, 392, 236
-0.998462, 393, 265, 456, 280
-0.998465, 329, 289, 392, 304
-0.998466, 225, 277, 288, 292
-0.998466, 345, 297, 408, 312
-0.998466, 393, 197, 456, 212
-0.998467, 153, 207, 216, 222
-0.99847, 353, 185, 416, 200
-0.998471, 205, 177, 220, 304
-0.998472, 169, 237, 232, 252
-0.998472, 233, 237, 296, 252
-0.998472, 369, 297, 432, 312
-0.998472, 161, 245, 224, 260
-0.998473, 361, 227, 424, 242
-0.998473, 329, 261, 392, 276
-0.998474, 313, 149, 376, 164
-0.998478, 193, 253, 256, 268
-0.998479, 137, 179, 200, 194
-0.998479, 137, 163, 200, 178
-0.998481, 209, 75, 272, 90
-0.998482, 289, 277, 352, 292
-0.998482, 289, 193, 352, 208
-0.998483, 185, 69, 248, 84
-0.998485, 209, 63, 272, 78
-0.998488, 33, 101, 96, 116
-0.998489, 25, 107, 88, 122
-0.998491, 49, 165, 112, 180
-0.998491, 193, 179, 256, 194
-0.998492, 193, 231, 256, 246
-0.998493, 161, 143, 224, 158
-0.998493, 201, 271, 264, 286
-0.998493, 313, 275, 376, 290
-0.998494, 377, 71, 440, 86
-0.998495, 369, 237, 432, 252
-0.998497, 33, 199, 96, 214
-0.998497, 233, 199, 296, 214
-0.998497, 153, 257, 216, 272
-0.998499, 425, 137, 488, 152
-0.9985, 433, 255, 496, 270
-0.9985, 121, 255, 184, 270
-0.9985, 321, 197, 384, 212
-0.998503, 321, 211, 384, 226
-0.998503, 137, 215, 200, 230
-0.998505, 177, 219, 240, 234
-0.998505, 281, 199, 344, 214
-0.998506, 145, 169, 208, 184
-0.998506, 105, 99, 168, 114
-0.998508, 377, 287, 440, 302
-0.998508, 137, 195, 200, 210
-0.998508, 73, 167, 136, 182
-0.998512, 329, 251, 392, 266
-0.998512, 257, 271, 320, 286
-0.998512, 1, 183, 64, 198
-0.998512, 433, 271, 496, 286
-0.998513, 177, 293, 240, 308
-0.998514, 57, 199, 120, 214
-0.998514, 41, 173, 104, 188
-0.998514, 25, 95, 88, 110
-0.998515, 353, 285, 416, 300
-0.998515, 57, 83, 120, 98
-0.998516, 153, 293, 216, 308
-0.998516, 233, 51, 296, 66
-0.998516, 329, 73, 392, 88
-0.998517, 33, 209, 96, 224
-0.998517, 417, 155, 480, 170
-0.998518, 289, 155, 352, 170
-0.998518, 169, 309, 232, 324
-0.998518, 209, 213, 272, 228
-0.998519, 57, 229, 120, 244
-0.998519, 369, 201, 432, 216
-0.998519, 321, 205, 384, 220
-0.998519, 137, 111, 200, 126
-0.99852, 433, 167, 496, 182
-0.99852, 353, 281, 384, 296
-0.99852, 469, 137, 500, 152
-0.998521, 69, 199, 100, 214
-0.998521, 105, 165, 168, 180
-0.998521, 145, 161, 160, 288
-0.998521, 385, 79, 448, 94
-0.998522, 225, 261, 288, 276
-0.998522, 201, 193, 232, 208
-0.998522, 53, 105, 84, 120
-0.998522, 345, 231, 376, 246
-0.998523, 233, 283, 296, 298
-0.998523, 29, 177, 60, 192
-0.998523, 145, 227, 208, 242
-0.998523, 157, 251, 188, 266
-0.998523, 277, 287, 308, 302
-0.998524, 233, 213, 296, 228
-0.998524, 185, 63, 248, 78
-0.998524, 125, 99, 156, 114
-0.998524, 185, 77, 248, 92
-0.998524, 201, 187, 232, 202
-0.998524, 285, 161, 316, 176
-0.998524, 337, 203, 368, 218
-0.998525, 229, 77, 260, 92
-0.998525, 197, 83, 228, 98
-0.998525, 305, 155, 336, 170
-0.998525, 231, 177, 246, 304
-0.998525, 225, 59, 256, 74
-0.998525, 305, 41, 336, 56
-0.998526, 469, 125, 500, 140
-0.998526, 337, 303, 368, 318
-0.998526, 381, 55, 412, 70
-0.998526, 393, 259, 456, 274
-0.998527, 121, 209, 184, 224
-0.998528, 201, 181, 232, 196
-0.998528, 153, 221, 216, 236
-0.998529, 181, 319, 212, 334
-0.99853, 145, 217, 176, 232
-0.99853, 257, 161, 320, 176
-0.998531, 193, 77, 224, 92
-0.998531, 233, 171, 296, 186
-0.998531, 185, 303, 248, 318
-0.998532, 373, 297, 404, 312
-0.998532, 353, 77, 416, 92
-0.998533, 381, 185, 412, 200
-0.998533, 377, 215, 440, 230
-0.998534, 133, 165, 164, 180
-0.998534, 265, 165, 296, 180
-0.998534, 49, 223, 112, 238
-0.998535, 201, 243, 232, 258
-0.998535, 421, 93, 452, 108
-0.998537, 445, 263, 476, 278
-0.998537, 353, 201, 384, 216
-0.998537, 169, 143, 200, 158
-0.998538, 225, 249, 256, 264
-0.998539, 189, 209, 220, 224
-0.99854, 41, 81, 72, 96
-0.99854, 469, 271, 500, 286
-0.998541, 333, 265, 364, 280
-0.998542, 469, 97, 484, 224
-0.998542, 65, 225, 96, 240
-0.998543, 185, 225, 216, 240
-0.998544, 245, 163, 276, 178
-0.998545, 205, 199, 236, 214
-0.998545, 229, 273, 260, 288
-0.998546, 253, 39, 284, 54
-0.998546, 89, 203, 120, 218
-0.998546, 169, 153, 200, 168
-0.998546, 445, 127, 476, 142
-0.998546, 229, 213, 260, 228
-0.998547, 405, 153, 436, 168
-0.998548, 177, 247, 208, 262
-0.998548, 393, 151, 424, 166
-0.998548, 157, 227, 188, 242
-0.998551, 341, 243, 372, 258
-0.998552, 281, 281, 312, 296
-0.998552, 209, 81, 240, 96
-0.998552, 209, 237, 240, 252
-0.998553, 405, 71, 436, 86
-0.998553, 213, 215, 244, 230
-0.998553, 357, 219, 388, 234
-0.998555, 357, 229, 388, 244
-0.998556, 349, 195, 380, 210
-0.998556, 341, 283, 372, 298
-0.998556, 181, 191, 212, 206
-0.998557, 361, 299, 392, 314
-0.998557, 281, 261, 312, 276
-0.998558, 481, 97, 496, 224
-0.998559, 341, 211, 372, 226
-0.998562, 189, 179, 220, 194
-0.998566, 345, 251, 376, 266
-0.998567, 377, 209, 408, 224
-0.998567, 385, 227, 416, 242
-0.998567, 381, 277, 412, 292
-0.998567, 217, 71, 248, 86
-0.99857, 385, 201, 416, 216
-0.99857, 461, 119, 492, 134
-0.998571, 177, 217, 208, 232
-0.998576, 457, 125, 488, 140
-0.998577, 397, 195, 428, 210
-0.998578, 385, 217, 416, 232
-0.99858, 225, 193, 256, 208
-0.99858, 41, 87, 72, 102
-0.99858, 345, 221, 376, 236
-0.998583, 349, 301, 380, 316
-0.998585, 165, 159, 196, 174
-0.998585, 145, 209, 176, 224
-0.998586, 185, 203, 216, 218
-0.998587, 365, 279, 396, 294
-0.99859, 317, 297, 348, 312
-0.99859, 381, 237, 412, 252
-0.99859, 389, 257, 420, 272
-0.998591, 225, 199, 256, 214
-0.998591, 229, 237, 260, 252
-0.998592, 397, 275, 428, 290
-0.998595, 69, 205, 100, 220
-0.998597, 369, 199, 400, 214
-0.998598, 221, 243, 252, 258
-0.998598, 369, 219, 400, 234
-0.998599, 357, 145, 388, 160
-0.998602, 361, 239, 392, 254
-0.998606, 193, 67, 224, 82
-0.998606, 197, 223, 228, 238
-0.998606, 365, 259, 396, 274
-0.998607, 365, 249, 396, 264
-0.998608, 457, 131, 488, 146
-0.99861, 381, 267, 412, 282
-0.998611, 373, 229, 404, 244
-0.998612, 189, 197, 220, 212
-0.998614, 213, 63, 244, 78
-0.998615, 349, 271, 380, 286
-0.998615, 377, 247, 408, 262
-0.998616, 333, 273, 364, 288
-0.998616, 349, 261, 380, 276
-0.998617, 457, 137, 488, 152
-0.998618, 181, 231, 212, 246
-0.998618, 69, 177, 84, 304
-0.998619, 149, 257, 180, 272
-0.998628, 393, 265, 424, 280
-0.998628, 377, 257, 408, 272
-0.998628, 457, 97, 472, 224
-0.99863, 365, 269, 396, 284
-0.998631, 469, 131, 500, 146
-0.998633, 225, 183, 256, 198
-0.998635, 135, 161, 150, 288
-0.998635, 213, 209, 228, 336
-0.998639, 197, 161, 212, 288
-0.99864, 345, 293, 376, 308
-0.998641, 373, 289, 404, 304
-0.998641, 357, 291, 388, 306
-0.998644, 469, 157, 500, 172
-0.998646, 389, 287, 420, 302
-0.998646, 181, 81, 196, 208
-0.998665, 77, 177, 92, 304
-0.998673, 41, 93, 72, 108
-0.998674, 185, 185, 216, 200
-0.998675, 45, 99, 76, 114
-0.998684, 221, 205, 252, 220
-0.998687, 329, 295, 360, 310
-0.998703, 151, 161, 166, 288
-0.998704, 57, 145, 72, 272
-0.998706, 169, 1, 200, 256
-0.998712, 63, 145, 78, 272
-0.998715, 225, 161, 240, 288
-0.998723, 391, 33, 406, 160
-0.998724, 475, 97, 490, 224
-0.998755, 219, 193, 234, 320
-0.998764, 125, 161, 140, 288
-0.998771, 189, 145, 204, 272
-0.998785, 463, 97, 478, 224
-0.998793, 359, 33, 374, 160
-0.998794, 187, 225, 202, 352
-0.998799, 159, 81, 174, 208
-0.9988, 175, 225, 190, 352
-0.998807, 63, 193, 78, 320
-0.998811, 333, 97, 364, 352
-0.998819, 159, 193, 174, 320
-0.998821, 353, 33, 368, 160
-0.998821, 33, 313, 160, 375
-0.998824, 45, 33, 60, 160
-0.998826, 285, 209, 300, 336
-0.998827, 169, 145, 184, 272
-0.998828, 205, 225, 220, 352
-0.998831, 293, 209, 308, 336
-0.998839, 321, 129, 352, 375
-0.998841, 251, 65, 266, 192
-0.998861, 261, 97, 276, 224
-0.99887, 35, 17, 50, 144
-0.998881, 103, 113, 118, 240
-0.998884, 437, 81, 452, 208
-0.99889, 187, 49, 202, 176
-0.998897, 181, 177, 196, 304
-0.998899, 225, 49, 240, 176
-0.998902, 255, 17, 270, 144
-0.998903, 365, 33, 380, 160
-0.998906, 239, 193, 254, 320
-0.998908, 17, 97, 48, 352
-0.998916, 245, 177, 260, 304
-0.998917, 107, 161, 122, 288
-0.998918, 189, 97, 204, 224
-0.998922, 157, 129, 172, 256
-0.998926, 407, 49, 422, 176
-0.998927, 305, 33, 320, 160
-0.998928, 97, 193, 112, 320
-0.99893, 137, 81, 152, 208
-0.998933, 103, 65, 118, 192
-0.998936, 451, 113, 466, 240
-0.998937, 279, 209, 294, 336
-0.998938, 399, 49, 414, 176
-0.998939, 171, 97, 186, 224
-0.99894, 195, 209, 210, 336
-0.998942, 117, 129, 132, 256
-0.998943, 69, 129, 84, 256
-0.998953, 245, 49, 260, 176
-0.998955, 443, 161, 458, 288
-0.998956, 143, 81, 158, 208
-0.998962, 55, 49, 70, 176
-0.998967, 55, 193, 70, 320
-0.998968, 87, 193, 102, 320
-0.998968, 45, 81, 60, 208
-0.998969, 225, 209, 240, 336
-0.99897, 77, 65, 92, 192
-0.998977, 93, 65, 108, 192
-0.998977, 311, 65, 326, 192
-0.998983, 239, 33, 254, 160
-0.998984, 237, 145, 252, 272
-0.998989, 231, 49, 246, 176
-0.998992, 17, 1, 32, 128
-0.998998, 165, 81, 180, 208
-0.999, 109, 81, 124, 208
-0.999003, 231, 129, 246, 256
-0.999007, 371, 225, 386, 352
-0.999009, 253, 129, 268, 256
-0.999014, 451, 209, 466, 336
-0.999017, 445, 97, 460, 224
-0.999017, 63, 65, 78, 192
-0.999019, 117, 193, 132, 320
-0.999019, 381, 33, 396, 160
-0.99902, 5, 1, 20, 128
-0.999022, 417, 49, 432, 176
-0.999027, 467, 145, 482, 272
-0.999028, 71, 65, 86, 192
-0.999028, 87, 65, 102, 192
-0.999038, 149, 209, 164, 336
-0.999039, 457, 161, 472, 288
-0.999045, 23, 1, 38, 128
-0.999045, 55, 97, 70, 224
-0.99905, 231, 241, 246, 368
-0.999052, 97, 129, 112, 256
-0.999054, 135, 209, 150, 336
-0.999056, 151, 81, 166, 208
-0.99906, 371, 33, 386, 160
-0.999065, 181, 225, 196, 352
-0.999068, 445, 209, 460, 336
-0.999069, 237, 241, 252, 368
-0.999072, 219, 49, 234, 176
-0.999074, 131, 113, 146, 240
-0.999075, 483, 145, 498, 272
-0.999086, 125, 81, 140, 208
-0.999087, 157, 1, 188, 256
-0.999088, 261, 17, 276, 144
-0.999097, 363, 241, 378, 368
-0.999099, 245, 113, 260, 240
-0.999104, 409, 129, 440, 375
-0.999105, 277, 17, 292, 144
-0.999105, 267, 65, 282, 192
-0.999107, 267, 17, 282, 144
-0.99911, 195, 113, 210, 240
-0.999111, 201, 65, 216, 192
-0.999116, 431, 65, 446, 192
-0.999118, 459, 209, 474, 336
-0.99912, 79, 225, 94, 352
-0.99912, 219, 241, 234, 368
-0.999123, 433, 1, 464, 256
-0.999127, 297, 33, 312, 160
-0.999128, 267, 113, 282, 240
-0.999132, 51, 145, 66, 272
-0.999138, 45, 129, 60, 256
-0.999138, 11, 1, 26, 128
-0.999149, 225, 113, 240, 240
-0.999153, 181, 129, 196, 256
-0.999158, 83, 145, 98, 272
-0.999162, 361, 81, 376, 208
-0.999162, 409, 129, 424, 256
-0.999168, 341, 33, 356, 160
-0.999213, 421, 129, 452, 375
-0.999257, 361, 129, 392, 375
-0.999427, 469, 1, 500, 256
-0.999556, 129, 33, 256, 96
-0.999684, 363, 231, 378, 246
-0.999684, 351, 295, 366, 310
-0.999685, 157, 219, 172, 234
-0.999685, 385, 199, 400, 214
-0.999686, 339, 293, 354, 308
-0.999687, 307, 155, 322, 170
-0.999687, 295, 187, 310, 202
-0.999687, 407, 153, 422, 168
-0.999687, 373, 271, 388, 286
-0.999687, 197, 213, 212, 228
-0.999688, 345, 263, 360, 278
-0.999688, 423, 73, 438, 88
-0.999688, 187, 71, 202, 86
-0.999688, 397, 259, 412, 274
-0.999689, 387, 259, 402, 274
-0.999689, 315, 153, 330, 168
-0.999689, 243, 241, 258, 256
-0.999689, 447, 263, 462, 278
-0.999689, 401, 287, 416, 302
-0.99969, 375, 231, 390, 246
-0.99969, 155, 99, 170, 114
-0.99969, 217, 79, 232, 94
-0.999691, 345, 229, 360, 244
-0.999691, 365, 271, 380, 286
-0.999691, 239, 213, 254, 228
-0.999692, 219, 61, 234, 76
-0.999693, 399, 237, 414, 252
-0.999693, 481, 127, 496, 142
-0.999693, 465, 159, 480, 174
-0.999693, 353, 239, 368, 254
-0.999694, 359, 263, 374, 278
-0.999694, 399, 269, 414, 284
-0.999695, 373, 299, 388, 314
-0.999695, 375, 237, 390, 252
-0.999695, 349, 273, 364, 288
-0.999695, 185, 227, 200, 242
-0.999695, 371, 221, 386, 236
-0.999696, 401, 195, 416, 210
-0.999696, 421, 157, 436, 172
-0.999696, 287, 259, 302, 274
-0.999697, 157, 211, 172, 226
-0.999697, 191, 287, 206, 302
-0.999698, 187, 177, 202, 192
-0.999698, 361, 251, 376, 266
-0.999699, 387, 269, 402, 284
-0.9997, 359, 217, 374, 232
-0.9997, 199, 227, 214, 242
-0.999701, 261, 167, 276, 182
-0.999701, 343, 203, 358, 218
-0.999701, 199, 67, 214, 82
-0.999703, 481, 121, 496, 136
-0.999703, 397, 219, 412, 234
-0.999704, 359, 211, 374, 226
-0.999704, 223, 79, 238, 94
-0.999704, 467, 121, 482, 136
-0.999705, 365, 139, 380, 154
-0.999706, 381, 269, 396, 284
-0.999706, 189, 325, 204, 340
-0.999707, 51, 101, 66, 116
-0.999709, 231, 205, 246, 220
-0.99971, 333, 43, 348, 58
-0.99971, 169, 247, 184, 262
-0.999711, 235, 177, 250, 192
-0.999711, 485, 177, 500, 192
-0.999711, 333, 275, 348, 290
-0.999711, 213, 63, 228, 78
-0.999712, 197, 171, 212, 186
-0.999712, 447, 247, 462, 262
-0.999713, 239, 235, 254, 250
-0.999714, 379, 249, 394, 264
-0.999715, 453, 131, 468, 146
-0.999716, 359, 203, 374, 218
-0.999716, 197, 203, 212, 218
-0.999718, 203, 193, 218, 208
-0.999719, 369, 227, 384, 242
-0.999721, 45, 93, 60, 108
-0.999723, 353, 207, 368, 222
-0.999723, 381, 259, 396, 274
-0.999724, 415, 155, 430, 170
-0.999724, 71, 201, 86, 216
-0.999724, 383, 289, 398, 304
-0.999724, 395, 287, 410, 302
-0.999725, 393, 199, 408, 214
-0.999725, 193, 69, 208, 84
-0.999729, 393, 235, 408, 250
-0.99973, 149, 209, 164, 224
-0.99973, 233, 183, 248, 198
-0.99973, 353, 201, 368, 216
-0.999732, 393, 209, 408, 224
-0.999732, 233, 213, 248, 228
-0.999735, 471, 157, 486, 172
-0.999736, 369, 291, 384, 306
-0.999738, 203, 79, 218, 94
-0.999738, 219, 73, 234, 88
-0.99974, 369, 145, 384, 160
-0.999743, 461, 127, 476, 142
-0.999744, 235, 191, 250, 206
-0.999744, 357, 293, 372, 308
-0.999744, 471, 131, 486, 146
-0.999744, 225, 205, 240, 220
-0.999745, 59, 97, 74, 112
-0.999745, 201, 181, 216, 196
-0.999746, 193, 177, 208, 192
-0.999746, 387, 205, 402, 220
-0.999746, 373, 129, 404, 375
-0.999747, 331, 297, 346, 312
-0.99975, 393, 225, 408, 240
-0.999752, 207, 65, 222, 80
-0.999753, 371, 159, 386, 174
-0.999754, 345, 297, 360, 312
-0.999755, 365, 217, 380, 232
-0.999755, 153, 259, 168, 274
-0.999756, 191, 189, 206, 204
-0.999762, 391, 219, 406, 234
-0.999763, 225, 197, 240, 212
-0.999766, 43, 87, 58, 102
-0.999767, 161, 253, 176, 268
-0.999768, 237, 203, 252, 218
-0.999769, 51, 91, 66, 106
-0.99977, 81, 205, 96, 220
-0.999771, 63, 103, 78, 118
-0.999775, 209, 77, 224, 92
-0.999781, 43, 99, 58, 114
-0.999782, 233, 239, 248, 254
-0.999784, 241, 271, 256, 286
-0.999785, 201, 187, 216, 202
-0.999788, 225, 185, 240, 200
-0.99979, 187, 183, 202, 198
-0.999793, 239, 183, 254, 198
-0.999797, 197, 195, 212, 210
-0.999832, 321, 1, 448, 64
-0.999838, 187, 197, 202, 212
-1.00004, 105, 1, 136, 256
-1.00042, 257, 1, 500, 64
-1.00079, 129, 1, 384, 64
-1.00098, 1, 1, 500, 64
-1.00236, 113, 9, 240, 72
-1.00264, 65, 9, 192, 72
