1872
-0.324161, 33, 1, 288, 333
-0.350736, 1, 65, 500, 320
-0.3577, 1, 1, 500, 333
-0.488144, 33, 1, 288, 256
-0.5506, 225, 1, 480, 333
-0.598105, 129, 65, 384, 320
-0.644366, 129, 1, 384, 333
-0.712391, 225, 33, 480, 288
-0.817883, 145, 65, 272, 320
-0.825347, 65, 65, 192, 320
-0.84233, 81, 1, 208, 333
-0.848492, 193, 65, 320, 320
-0.85761, 161, 1, 288, 333
-0.862746, 1, 113, 500, 240
-0.86655, 33, 1, 160, 333
-0.867835, 17, 65, 144, 320
-0.878363, 225, 1, 352, 333
-0.884756, 241, 65, 368, 320
-0.884963, 65, 97, 320, 224
-0.887805, 1, 161, 500, 288
-0.903421, 33, 49, 288, 176
-0.907387, 65, 177, 320, 304
-0.914267, 289, 1, 416, 256
-0.914404, 1, 65, 500, 192
-0.919354, 193, 129, 448, 256
-0.920956, 65, 49, 128, 176
-0.921185, 1, 209, 500, 333
-0.922622, 305, 1, 432, 333
-0.922914, 65, 161, 192, 288
-0.92533, 369, 1, 496, 333
-0.925696, 1, 1, 500, 128
-0.926415, 353, 1, 480, 256
-0.927807, 177, 193, 304, 320
-0.929658, 49, 65, 176, 192
-0.93133, 145, 97, 272, 224
-0.931895, 249, 113, 312, 240
-0.932024, 33, 1, 288, 128
-0.9328, 193, 193, 256, 320
-0.937406, 241, 113, 368, 240
-0.938611, 65, 129, 128, 256
-0.93966, 121, 161, 184, 288
-0.939712, 73, 1, 136, 128
-0.940078, 89, 97, 152, 224
-0.940321, 161, 209, 224, 333
-0.94073, 193, 177, 448, 304
-0.940983, 225, 145, 288, 272
-0.941346, 225, 81, 480, 208
-0.942339, 113, 161, 240, 288
-0.942842, 65, 177, 128, 304
-0.942898, 33, 97, 96, 224
-0.94388, 17, 113, 144, 240
-0.944295, 161, 145, 288, 272
-0.944575, 65, 113, 192, 240
-0.945189, 57, 65, 120, 128
-0.946297, 241, 193, 304, 320
-0.946528, 225, 81, 288, 208
-0.947302, 97, 1, 160, 128
-0.947536, 193, 201, 256, 264
-0.947591, 49, 17, 176, 144
-0.947739, 129, 97, 192, 224
-0.949268, 1, 49, 128, 176
-0.94947, 193, 81, 320, 208
-0.94999, 89, 177, 152, 304
-0.950279, 241, 161, 368, 288
-0.950734, 113, 209, 240, 333
-0.951159, 121, 161, 184, 224
-0.951449, 169, 209, 232, 272
-0.951977, 33, 145, 96, 272
-0.952402, 233, 209, 296, 272
-0.952866, 225, 89, 288, 152
-0.952877, 249, 121, 312, 184
-0.953183, 145, 161, 208, 288
-0.95347, 129, 49, 384, 176
-0.954309, 17, 161, 144, 288
-0.95456, 1, 1, 128, 128
-0.954793, 97, 33, 224, 160
-0.954802, 161, 97, 224, 224
-0.955005, 57, 177, 120, 240
-0.955091, 41, 1, 104, 128
-0.956361, 201, 81, 264, 208
-0.956375, 225, 33, 480, 160
-0.958138, 177, 33, 240, 160
-0.958275, 209, 177, 272, 240
-0.958355, 217, 209, 280, 333
-0.958424, 241, 49, 368, 176
-0.95871, 249, 65, 312, 192
-0.958789, 273, 129, 336, 256
-0.959077, 73, 1, 136, 64
-0.959234, 217, 33, 280, 160
-0.959515, 233, 185, 296, 248
-0.959773, 81, 193, 144, 256
-0.960009, 41, 49, 104, 176
-0.96174, 177, 209, 304, 272
-0.961796, 73, 145, 136, 208
-0.962482, 265, 209, 328, 333
-0.962635, 33, 113, 96, 176
-0.963195, 41, 209, 104, 333
-0.96361, 169, 185, 232, 248
-0.963673, 249, 145, 312, 208
-0.963919, 113, 49, 176, 176
-0.964301, 257, 217, 320, 280
-0.964326, 177, 33, 304, 160
-0.964502, 9, 161, 72, 288
-0.96461, 17, 209, 144, 333
-0.964683, 73, 1, 136, 256
-0.964921, 129, 65, 192, 320
-0.965203, 161, 65, 224, 320
-0.965205, 201, 65, 264, 320
-0.9653, 33, 65, 160, 128
-0.965466, 249, 97, 312, 160
-0.965684, 273, 49, 336, 176
-0.965754, 145, 217, 208, 280
-0.965754, 137, 209, 200, 333
-0.965787, 289, 193, 416, 320
-0.965872, 113, 65, 176, 128
-0.965908, 153, 49, 216, 176
-0.966023, 241, 65, 304, 320
-0.966085, 253, 81, 284, 208
-0.966181, 425, 193, 488, 320
-0.9662, 321, 145, 448, 272
-0.966268, 17, 17, 80, 144
-0.966694, 33, 137, 96, 200
-0.966722, 57, 209, 120, 272
-0.967213, 369, 129, 496, 256
-0.96749, 65, 169, 192, 232
-0.967756, 269, 97, 300, 224
-0.968072, 69, 129, 100, 256
-0.9682, 273, 113, 336, 176
-0.968209, 89, 49, 152, 176
-0.968314, 137, 193, 200, 256
-0.968407, 33, 185, 96, 248
-0.968532, 289, 97, 416, 224
-0.968578, 161, 73, 224, 136
-0.968827, 73, 177, 104, 304
-0.968889, 161, 185, 288, 248
-0.968896, 177, 249, 240, 312
-0.969083, 369, 177, 496, 304
-0.969207, 69, 49, 100, 176
-0.969328, 97, 169, 160, 232
-0.969398, 409, 129, 472, 256
-0.969482, 369, 17, 496, 144
-0.96972, 377, 193, 440, 320
-0.969788, 169, 145, 232, 272
-0.969801, 65, 209, 192, 333
-0.970198, 97, 65, 160, 320
-0.970324, 401, 193, 464, 320
-0.970339, 33, 161, 96, 224
-0.970357, 265, 185, 328, 248
-0.97048, 253, 129, 284, 256
-0.970714, 81, 1, 112, 128
-0.970732, 153, 241, 216, 304
-0.970943, 241, 209, 368, 333
-0.971078, 289, 241, 352, 304
-0.971121, 433, 145, 496, 208
-0.971307, 337, 65, 464, 192
-0.971338, 193, 225, 256, 288
-0.971412, 101, 1, 132, 128
-0.971441, 193, 89, 320, 152
-0.971494, 137, 81, 200, 144
-0.971691, 9, 113, 72, 240
-0.971692, 33, 33, 96, 288
-0.971808, 241, 129, 368, 192
-0.971934, 105, 193, 168, 256
-0.972001, 257, 201, 288, 264
-0.972053, 289, 209, 352, 333
-0.972158, 69, 177, 100, 240
-0.972213, 281, 217, 344, 280
-0.972319, 401, 81, 464, 208
-0.972423, 265, 241, 328, 304
-0.972695, 17, 81, 80, 144
-0.972709, 81, 193, 208, 256
-0.972724, 273, 105, 304, 168
-0.97273, 57, 121, 120, 184
-0.972995, 417, 177, 480, 240
-0.973061, 113, 169, 240, 232
-0.973068, 345, 161, 408, 288
-0.973093, 321, 193, 384, 320
-0.97314, 137, 97, 168, 224
-0.973215, 201, 145, 264, 272
-0.973342, 65, 65, 96, 128
-0.973416, 185, 73, 248, 136
-0.973607, 69, 1, 100, 128
-0.973823, 17, 153, 144, 216
-0.973891, 93, 65, 124, 128
-0.97406, 257, 129, 288, 192
-0.974064, 57, 97, 88, 224
-0.97408, 385, 193, 448, 256
-0.974127, 197, 209, 228, 272
-0.974175, 273, 217, 304, 280
-0.974176, 225, 177, 352, 240
-0.974421, 81, 193, 112, 256
-0.974479, 257, 89, 288, 152
-0.974532, 289, 49, 416, 176
-0.974624, 265, 65, 328, 320
-0.974639, 69, 201, 100, 264
-0.974746, 49, 89, 176, 152
-0.974779, 65, 233, 128, 296
-0.974779, 417, 257, 480, 320
-0.974943, 237, 177, 268, 240
-0.975036, 97, 1, 160, 64
-0.975051, 201, 97, 264, 160
-0.975188, 273, 209, 304, 333
-0.975287, 197, 193, 228, 320
-0.975347, 61, 113, 92, 176
-0.975354, 181, 209, 212, 333
-0.975362, 81, 1, 112, 64
-0.975366, 73, 89, 136, 152
-0.975381, 97, 193, 128, 256
-0.975435, 369, 113, 432, 240
-0.975558, 105, 89, 168, 152
-0.975677, 117, 97, 148, 224
-0.975683, 433, 65, 496, 192
-0.975694, 161, 273, 224, 333
-0.975778, 81, 129, 112, 256
-0.975793, 129, 153, 160, 216
-0.975911, 149, 97, 180, 224
-0.975957, 81, 65, 144, 128
-0.976025, 181, 217, 212, 280
-0.976166, 213, 193, 244, 256
-0.976368, 33, 1, 96, 64
-0.97639, 345, 57, 408, 120
-0.976411, 97, 217, 160, 280
-0.976473, 105, 265, 168, 328
-0.976605, 85, 177, 116, 304
-0.976763, 65, 25, 128, 88
-0.976772, 97, 25, 160, 88
-0.976784, 177, 105, 240, 168
-0.976822, 329, 257, 392, 320
-0.976859, 225, 153, 352, 216
-0.976954, 73, 1, 136, 333
-0.977017, 241, 17, 304, 144
-0.977086, 33, 273, 96, 333
-0.977201, 9, 65, 72, 192
-0.977294, 137, 57, 200, 120
-0.977331, 217, 153, 280, 216
-0.97745, 193, 233, 320, 296
-0.9775, 353, 241, 416, 304
-0.977515, 129, 145, 160, 272
-0.977551, 385, 33, 448, 160
-0.977592, 177, 241, 208, 304
-0.977637, 253, 193, 284, 320
-0.977637, 353, 209, 416, 333
-0.977639, 33, 217, 96, 280
-0.9777, 9, 153, 72, 216
-0.977719, 65, 145, 192, 208
-0.977904, 113, 217, 240, 280
-0.978025, 393, 145, 456, 208
-0.97808, 153, 169, 184, 232
-0.978109, 1, 177, 128, 240
-0.978112, 225, 1, 352, 128
-0.978115, 425, 201, 488, 264
-0.97819, 129, 1, 384, 128
-0.978261, 101, 177, 132, 304
-0.978266, 257, 105, 384, 168
-0.978286, 233, 65, 264, 192
-0.978302, 169, 161, 232, 224
-0.97831, 9, 273, 72, 333
-0.978311, 81, 41, 208, 104
-0.978318, 417, 121, 480, 184
-0.978346, 265, 49, 296, 176
-0.978406, 161, 177, 192, 304
-0.978544, 385, 169, 448, 232
-0.978563, 97, 49, 128, 176
-0.978599, 241, 145, 272, 272
-0.978646, 225, 65, 288, 128
-0.978853, 81, 257, 144, 320
-0.978893, 321, 1, 448, 128
-0.97895, 25, 33, 88, 96
-0.978967, 81, 169, 112, 232
-0.978995, 433, 129, 496, 256
-0.979067, 329, 201, 392, 264
-0.979085, 217, 121, 280, 184
-0.979095, 297, 145, 360, 272
-0.979121, 1, 209, 64, 333
-0.979255, 213, 193, 244, 320
-0.979374, 85, 49, 116, 176
-0.979449, 161, 161, 288, 224
-0.979484, 149, 161, 180, 288
-0.979538, 97, 65, 224, 128
-0.979627, 361, 65, 424, 192
-0.979645, 385, 217, 448, 280
-0.979659, 93, 1, 124, 64
-0.979682, 281, 89, 344, 152
-0.979697, 25, 57, 88, 120
-0.979815, 201, 273, 264, 333
-0.979836, 277, 129, 308, 192
-0.979869, 237, 89, 268, 152
-0.979879, 321, 97, 384, 224
-0.97988, 97, 241, 224, 304
-0.980024, 257, 153, 288, 216
-0.980076, 293, 241, 324, 304
-0.98011, 273, 241, 400, 304
-0.98012, 97, 1, 160, 333
-0.980121, 225, 1, 288, 333
-0.980149, 353, 185, 416, 248
-0.980217, 249, 273, 312, 333
-0.980395, 69, 153, 100, 216
-0.980463, 225, 201, 256, 264
-0.980492, 281, 113, 312, 240
-0.980538, 1, 129, 64, 192
-0.980588, 321, 57, 384, 120
-0.980664, 109, 185, 140, 248
-0.98076, 77, 25, 108, 88
-0.980807, 233, 233, 296, 296
-0.980848, 385, 49, 448, 112
-0.980859, 273, 217, 400, 280
-0.980931, 41, 89, 104, 152
-0.98104, 57, 185, 88, 248
-0.981075, 57, 49, 88, 176
-0.981139, 17, 257, 144, 320
-0.981145, 225, 209, 352, 272
-0.981188, 113, 17, 144, 144
-0.981342, 1, 177, 64, 240
-0.981352, 305, 145, 432, 208
-0.981358, 113, 177, 144, 304
-0.981392, 217, 33, 248, 160
-0.981403, 321, 145, 384, 272
-0.981431, 33, 209, 160, 272
-0.981437, 49, 89, 80, 152
-0.981591, 193, 1, 256, 333
-0.981619, 277, 241, 308, 304
-0.98162, 337, 161, 400, 224
-0.981735, 9, 241, 72, 304
-0.981741, 305, 81, 368, 144
-0.98175, 353, 233, 480, 296
-0.981811, 141, 161, 172, 224
-0.981899, 245, 201, 276, 264
-0.981913, 177, 193, 208, 256
-0.981953, 201, 185, 232, 248
-0.982041, 105, 73, 136, 136
-0.982063, 353, 217, 416, 280
-0.982152, 57, 161, 88, 288
-0.982242, 265, 1, 328, 128
-0.98225, 169, 81, 200, 208
-0.982349, 293, 209, 324, 272
-0.982412, 145, 73, 176, 136
-0.982412, 313, 161, 376, 224
-0.982424, 289, 265, 352, 328
-0.982454, 61, 209, 92, 333
-0.982538, 161, 201, 192, 264
-0.982538, 165, 225, 196, 288
-0.982647, 41, 1, 104, 333
-0.982678, 17, 129, 144, 192
-0.98273, 97, 265, 224, 328
-0.982731, 129, 249, 192, 312
-0.982811, 225, 193, 256, 320
-0.982845, 409, 41, 472, 104
-0.982913, 273, 137, 336, 200
-0.982934, 41, 249, 104, 312
-0.982981, 93, 25, 124, 88
-0.982985, 197, 249, 228, 312
-0.983007, 145, 57, 272, 120
-0.98307, 17, 9, 144, 72
-0.983078, 257, 73, 384, 136
-0.983112, 145, 257, 272, 320
-0.983117, 425, 225, 488, 288
-0.983172, 289, 193, 416, 256
-0.983269, 353, 97, 416, 160
-0.983284, 305, 185, 368, 248
-0.983301, 277, 193, 308, 256
-0.983317, 97, 89, 224, 152
-0.983441, 377, 241, 440, 304
-0.983607, 121, 177, 152, 240
-0.98362, 65, 17, 192, 80
-0.983626, 105, 97, 136, 224
-0.98363, 313, 105, 376, 168
-0.98367, 113, 209, 176, 333
-0.983677, 337, 33, 400, 96
-0.98368, 369, 73, 432, 136
-0.983763, 129, 1, 192, 333
-0.983775, 297, 97, 360, 224
-0.983838, 261, 177, 292, 240
-0.983841, 269, 145, 300, 272
-0.983845, 321, 1, 384, 128
-0.98393, 321, 265, 448, 328
-0.983946, 1, 41, 128, 104
-0.983982, 305, 113, 432, 176
-0.983986, 77, 57, 108, 120
-0.983992, 353, 137, 480, 200
-0.984058, 169, 1, 232, 333
-0.984063, 105, 17, 136, 80
-0.984069, 297, 49, 360, 112
-0.984144, 85, 217, 116, 280
-0.984206, 337, 49, 400, 176
-0.984213, 1, 89, 128, 152
-0.984227, 385, 273, 448, 333
-0.984281, 265, 65, 328, 128
-0.984299, 49, 161, 80, 224
-0.984543, 81, 137, 112, 200
-0.984548, 313, 225, 376, 288
-0.984559, 361, 17, 424, 144
-0.984681, 369, 257, 496, 320
-0.984682, 53, 65, 84, 128
-0.984857, 285, 49, 316, 176
-0.984902, 249, 33, 280, 160
-0.984955, 197, 49, 228, 176
-0.985098, 133, 73, 164, 136
-0.985112, 241, 193, 272, 320
-0.985213, 1, 105, 64, 168
-0.985235, 177, 161, 208, 288
-0.985247, 157, 33, 188, 160
-0.98525, 217, 65, 248, 128
-0.985255, 209, 97, 240, 224
-0.985269, 225, 257, 352, 320
-0.985326, 145, 97, 272, 160
-0.985388, 129, 33, 160, 160
-0.985414, 189, 73, 220, 136
-0.985425, 145, 169, 208, 232
-0.985451, 417, 89, 480, 152
-0.985469, 405, 193, 436, 320
-0.985498, 289, 113, 320, 176
-0.985559, 157, 81, 188, 144
-0.98557, 153, 105, 216, 168
-0.985577, 33, 233, 160, 296
-0.985652, 273, 161, 336, 224
-0.985667, 137, 1, 200, 128
-0.985682, 345, 1, 408, 256
-0.985715, 145, 137, 272, 200
-0.985729, 377, 25, 440, 88
-0.985776, 361, 161, 424, 224
-0.985787, 261, 225, 292, 288
-0.985837, 305, 137, 368, 200
-0.985847, 285, 161, 316, 288
-0.985866, 17, 273, 48, 333
-0.985888, 305, 169, 432, 232
-0.985889, 305, 89, 432, 152
-0.985905, 369, 201, 496, 264
-0.985912, 185, 49, 216, 176
-0.985955, 121, 217, 184, 280
-0.986038, 393, 121, 456, 184
-0.98606, 117, 65, 148, 128
-0.986065, 373, 241, 404, 304
-0.986076, 353, 121, 416, 184
-0.986101, 225, 33, 288, 96
-0.986217, 193, 49, 256, 112
-0.986379, 389, 209, 420, 333
-0.986383, 209, 65, 336, 128
-0.986407, 1, 201, 64, 264
-0.98645, 273, 265, 400, 328
-0.986501, 229, 17, 260, 144
-0.986591, 65, 225, 96, 288
-0.986597, 337, 41, 464, 104
-0.986602, 249, 177, 280, 240
-0.986631, 257, 49, 384, 112
-0.986638, 41, 65, 72, 128
-0.986688, 65, 1, 96, 64
-0.986722, 205, 81, 236, 144
-0.986723, 445, 129, 476, 192
-0.986757, 197, 97, 228, 224
-0.986759, 225, 89, 256, 152
-0.986768, 353, 265, 416, 328
-0.986852, 345, 113, 408, 240
-0.986874, 65, 41, 96, 104
-0.986977, 221, 81, 252, 208
-0.986997, 9, 1, 72, 256
-0.98711, 145, 49, 176, 176
-0.987159, 377, 153, 408, 216
-0.987169, 97, 169, 128, 232
-0.987188, 345, 257, 376, 320
-0.987204, 329, 137, 392, 200
-0.987214, 293, 89, 324, 152
-0.98726, 169, 65, 200, 128
-0.987331, 313, 65, 376, 320
-0.987376, 209, 233, 240, 296
-0.987431, 461, 161, 492, 288
-0.987442, 353, 177, 480, 240
-0.987467, 37, 153, 68, 216
-0.987468, 185, 105, 216, 168
-0.987558, 457, 241, 488, 304
-0.987633, 45, 145, 76, 272
-0.987648, 45, 17, 76, 144
-0.987689, 65, 185, 320, 248
-0.987689, 245, 145, 276, 208
-0.987766, 225, 273, 288, 333
-0.987795, 273, 1, 400, 128
-0.987804, 45, 97, 76, 224
-0.987807, 53, 209, 84, 272
-0.987825, 385, 97, 448, 160
-0.987825, 137, 273, 200, 333
-0.987855, 305, 145, 336, 208
-0.987864, 193, 201, 256, 232
-0.987873, 93, 129, 124, 256
-0.987888, 249, 1, 312, 333
-0.98798, 193, 113, 320, 176
-0.987988, 173, 33, 204, 160
-0.988006, 109, 249, 140, 312
-0.988006, 417, 273, 448, 333
-0.988072, 57, 273, 120, 333
-0.988127, 405, 145, 436, 272
-0.988133, 305, 225, 336, 288
-0.988206, 73, 1, 136, 32
-0.988207, 65, 65, 128, 96
-0.988305, 45, 185, 76, 248
-0.988332, 433, 65, 496, 128
-0.988415, 249, 65, 280, 128
-0.988433, 437, 129, 468, 256
-0.988434, 369, 73, 496, 136
-0.988458, 357, 241, 388, 304
-0.988458, 173, 265, 204, 328
-0.988481, 121, 173, 184, 204
-0.988533, 125, 97, 156, 160
-0.988561, 397, 145, 428, 208
-0.988585, 65, 97, 320, 160
-0.988615, 297, 33, 360, 160
-0.988656, 65, 121, 192, 184
-0.988671, 97, 257, 128, 320
-0.988751, 421, 209, 452, 333
-0.988754, 225, 93, 288, 124
-0.988763, 57, 189, 120, 220
-0.988792, 145, 25, 272, 88
-0.988822, 421, 137, 452, 200
-0.988844, 277, 81, 308, 144
-0.988845, 433, 193, 464, 320
-0.988845, 229, 65, 260, 128
-0.988905, 353, 97, 480, 160
-0.988935, 197, 105, 228, 168
-0.989013, 49, 209, 80, 333
-0.989018, 393, 257, 424, 320
-0.989029, 145, 97, 176, 160
-0.989109, 17, 241, 48, 304
-0.989133, 333, 265, 364, 328
-0.989202, 381, 177, 412, 240
-0.989204, 33, 273, 64, 333
-0.989226, 321, 65, 448, 128
-0.989243, 25, 121, 56, 184
-0.989251, 225, 197, 288, 228
-0.989281, 301, 177, 332, 304
-0.989305, 405, 113, 436, 176
-0.989305, 157, 265, 188, 328
-0.989307, 449, 193, 480, 320
-0.98932, 257, 133, 320, 164
-0.989334, 97, 217, 128, 280
-0.989339, 425, 129, 456, 256
-0.989355, 169, 213, 232, 244
-0.989356, 173, 105, 204, 168
-0.989357, 409, 145, 440, 208
-0.989357, 1, 265, 32, 328
-0.989388, 73, 13, 136, 44
-0.989402, 177, 233, 240, 264
-0.989407, 57, 201, 120, 232
-0.989418, 105, 85, 168, 116
-0.98943, 169, 197, 232, 228
-0.989481, 257, 233, 320, 264
-0.989533, 417, 89, 448, 152
-0.989593, 353, 209, 384, 333
-0.989626, 121, 161, 184, 192
-0.989642, 181, 97, 212, 224
-0.989659, 289, 33, 352, 288
-0.989659, 413, 193, 444, 256
-0.989664, 365, 177, 396, 240
-0.989678, 57, 213, 120, 244
-0.989684, 53, 137, 84, 200
-0.989687, 193, 213, 256, 244
-0.989704, 241, 221, 304, 252
-0.989713, 329, 177, 360, 304
-0.989724, 317, 273, 348, 333
-0.989783, 41, 177, 104, 208
-0.989786, 457, 217, 488, 280
-0.989791, 393, 65, 456, 320
-0.989805, 185, 265, 216, 328
-0.989819, 233, 209, 296, 240
-0.98982, 385, 161, 416, 288
-0.989845, 33, 153, 288, 216
-0.989893, 209, 185, 272, 216
-0.989896, 409, 233, 440, 296
-0.989928, 293, 97, 324, 224
-0.98993, 273, 169, 304, 232
-0.989942, 453, 97, 484, 160
-0.989956, 349, 161, 380, 224
-0.989962, 97, 185, 160, 216
-0.98998, 57, 81, 120, 112
-0.989982, 65, 209, 320, 272
-0.989997, 369, 33, 432, 288
-0.99001, 249, 117, 312, 148
-0.990048, 209, 105, 240, 168
-0.990061, 245, 121, 276, 184
-0.990061, 465, 273, 496, 333
-0.990067, 169, 185, 232, 216
-0.990105, 441, 273, 472, 333
-0.990121, 53, 33, 84, 96
-0.990131, 241, 157, 304, 188
-0.990138, 65, 173, 128, 204
-0.990143, 425, 169, 456, 232
-0.990143, 345, 145, 376, 272
-0.990145, 433, 225, 464, 288
-0.990147, 145, 205, 208, 236
-0.990153, 425, 1, 488, 128
-0.990198, 369, 177, 400, 304
-0.990205, 85, 249, 116, 312
-0.990219, 309, 113, 340, 240
-0.990221, 33, 149, 96, 180
-0.99023, 241, 177, 304, 208
-0.990232, 113, 97, 144, 160
-0.990252, 353, 97, 384, 160
-0.990258, 1, 73, 256, 136
-0.990274, 249, 145, 312, 176
-0.990311, 1, 193, 32, 320
-0.990317, 273, 121, 336, 152
-0.990323, 281, 245, 344, 276
-0.990349, 65, 93, 128, 124
-0.990413, 25, 105, 88, 136
-0.99043, 193, 25, 320, 88
-0.990444, 41, 133, 104, 164
-0.990445, 97, 9, 160, 40
-0.990459, 153, 225, 216, 256
-0.990468, 33, 117, 96, 148
-0.990473, 289, 25, 416, 88
-0.990489, 129, 161, 384, 224
-0.990496, 33, 161, 96, 192
-0.99052, 145, 1, 272, 64
-0.990529, 281, 233, 344, 264
-0.990559, 273, 221, 336, 252
-0.990579, 273, 1, 336, 333
-0.990597, 285, 209, 316, 333
-0.990602, 185, 85, 248, 116
-0.990609, 257, 245, 320, 276
-0.990621, 217, 221, 280, 252
-0.990625, 205, 145, 236, 272
-0.99065, 153, 237, 216, 268
-0.990695, 73, 253, 136, 284
-0.990723, 105, 57, 168, 88
-0.990731, 97, 197, 160, 228
-0.990814, 129, 185, 192, 216
-0.990867, 249, 285, 312, 316
-0.990867, 129, 93, 192, 124
-0.990884, 161, 89, 224, 120
-0.99091, 17, 77, 80, 108
-0.990918, 233, 233, 296, 264
-0.990921, 289, 109, 352, 140
-0.990929, 241, 25, 368, 88
-0.990934, 49, 17, 112, 48
-0.990945, 209, 173, 272, 204
-0.990983, 105, 69, 168, 100
-0.990999, 265, 189, 328, 220
-0.991006, 409, 277, 472, 308
-0.991018, 1, 273, 64, 304
-0.991027, 81, 25, 144, 56
-0.991062, 193, 97, 256, 128
-0.991065, 57, 53, 120, 84
-0.99109, 97, 273, 160, 304
-0.991091, 57, 229, 120, 260
-0.991104, 89, 169, 152, 200
-0.991104, 393, 213, 456, 244
-0.991109, 73, 149, 136, 180
-0.991115, 249, 105, 312, 136
-0.991171, 9, 257, 72, 288
-0.991199, 393, 201, 456, 232
-0.991213, 33, 213, 96, 244
-0.991214, 41, 69, 104, 100
-0.991223, 305, 237, 368, 268
-0.991247, 81, 209, 144, 240
-0.991253, 17, 177, 80, 208
-0.991264, 273, 93, 336, 124
-0.991266, 17, 89, 80, 120
-0.991269, 33, 201, 96, 232
-0.991326, 1, 105, 500, 168
-0.991348, 145, 273, 208, 304
-0.991365, 257, 209, 320, 240
-0.99137, 33, 189, 96, 220
-0.991375, 41, 269, 104, 300
-0.991387, 433, 293, 496, 324
-0.991397, 325, 97, 356, 224
-0.991403, 425, 129, 488, 160
-0.991404, 129, 217, 192, 248
-0.991408, 161, 257, 224, 288
-0.991416, 417, 173, 480, 204
-0.991445, 129, 81, 192, 112
-0.991465, 353, 185, 416, 216
-0.991468, 345, 253, 408, 284
-0.991474, 417, 213, 480, 244
-0.99148, 25, 33, 56, 160
-0.991484, 25, 225, 88, 256
-0.991485, 1, 161, 64, 192
-0.991488, 161, 105, 224, 136
-0.991495, 9, 65, 40, 192
-0.991576, 113, 261, 176, 292
-0.991582, 229, 145, 260, 272
-0.991583, 297, 149, 360, 180
-0.991599, 193, 301, 256, 332
-0.991606, 417, 1, 480, 333
-0.99163, 177, 245, 240, 276
-0.991643, 97, 101, 160, 132
-0.99165, 297, 189, 360, 220
-0.991652, 425, 197, 488, 228
-0.991661, 105, 285, 168, 316
-0.991671, 57, 161, 120, 192
-0.991673, 401, 189, 464, 220
-0.991677, 377, 281, 440, 312
-0.991681, 273, 149, 336, 180
-0.991686, 417, 265, 480, 296
-0.991687, 81, 225, 144, 256
-0.991694, 233, 81, 296, 112
-0.991708, 105, 21, 168, 52
-0.991717, 33, 129, 288, 192
-0.991717, 17, 57, 80, 88
-0.991721, 169, 285, 232, 316
-0.991727, 9, 241, 72, 272
-0.991732, 377, 81, 408, 208
-0.991733, 289, 297, 352, 328
-0.991741, 225, 121, 480, 184
-0.991746, 377, 233, 440, 264
-0.991747, 81, 81, 144, 112
-0.99177, 337, 241, 400, 272
-0.991771, 81, 53, 144, 84
-0.991771, 129, 289, 192, 320
-0.991774, 121, 201, 184, 232
-0.991781, 29, 161, 60, 288
-0.991784, 33, 1, 96, 32
-0.991785, 209, 289, 272, 320
-0.991786, 273, 161, 336, 192
-0.991786, 361, 265, 424, 296
-0.991801, 393, 173, 456, 204
-0.991809, 329, 149, 392, 180
-0.991836, 57, 1, 88, 128
-0.99189, 81, 5, 112, 36
-0.991922, 129, 241, 384, 304
-0.991971, 313, 177, 344, 304
-0.992085, 161, 205, 288, 236
-0.992128, 69, 197, 100, 228
-0.992139, 93, 5, 124, 36
-0.992144, 449, 113, 480, 240
-0.992146, 337, 17, 464, 80
-0.992236, 69, 209, 100, 240
-0.992251, 65, 173, 192, 204
-0.992256, 81, 193, 112, 224
-0.992262, 225, 161, 480, 224
-0.99232, 301, 33, 332, 160
-0.992331, 73, 177, 104, 208
-0.992332, 1, 177, 500, 240
-0.992356, 277, 113, 308, 144
-0.992359, 17, 161, 48, 288
-0.99236, 81, 209, 112, 240
-0.992379, 97, 57, 352, 120
-0.99238, 213, 197, 244, 228
-0.992385, 201, 201, 232, 232
-0.992392, 285, 233, 316, 264
-0.992425, 265, 133, 296, 164
-0.992473, 101, 193, 132, 224
-0.99249, 93, 69, 124, 100
-0.992501, 261, 205, 292, 236
-0.992508, 129, 157, 160, 188
-0.992519, 61, 121, 92, 152
-0.992525, 277, 221, 308, 252
-0.992527, 465, 97, 496, 224
-0.992541, 109, 81, 140, 112
-0.992572, 321, 1, 384, 333
-0.992593, 65, 197, 192, 228
-0.992595, 85, 17, 116, 48
-0.992612, 17, 1, 80, 333
-0.992613, 177, 233, 208, 264
-0.992616, 117, 185, 148, 216
-0.992629, 385, 1, 448, 333
-0.992638, 149, 169, 180, 200
-0.992652, 129, 169, 160, 200
-0.992657, 241, 1, 368, 64
-0.992658, 257, 81, 500, 144
-0.992667, 237, 89, 268, 120
-0.992668, 249, 169, 280, 200
-0.992672, 181, 213, 212, 244
-0.992674, 61, 181, 92, 212
-0.992687, 257, 153, 288, 184
-0.992689, 197, 221, 228, 252
-0.992692, 157, 181, 188, 212
-0.992692, 177, 245, 208, 276
-0.992702, 53, 105, 84, 136
-0.992711, 105, 13, 136, 44
-0.992743, 209, 89, 240, 120
-0.992766, 285, 253, 316, 284
-0.992779, 93, 81, 124, 112
-0.992788, 297, 245, 328, 276
-0.992789, 249, 121, 280, 152
-0.992791, 217, 101, 248, 132
-0.992792, 65, 65, 96, 96
-0.992795, 161, 193, 288, 224
-0.992795, 237, 185, 268, 216
-0.992797, 89, 181, 120, 212
-0.992803, 197, 233, 228, 264
-0.992809, 273, 1, 304, 128
-0.992814, 229, 205, 260, 236
-0.992825, 65, 185, 192, 216
-0.992842, 1, 137, 500, 200
-0.992843, 45, 69, 76, 100
-0.992849, 81, 61, 112, 92
-0.992853, 49, 177, 80, 208
-0.992858, 269, 233, 300, 264
-0.99286, 73, 165, 104, 196
-0.992861, 161, 185, 416, 248
-0.992863, 45, 89, 76, 120
-0.992876, 69, 17, 100, 48
-0.992878, 57, 205, 88, 236
-0.99288, 25, 209, 56, 333
-0.992881, 105, 1, 136, 32
-0.992892, 253, 193, 284, 224
-0.992897, 101, 25, 132, 56
-0.992903, 257, 225, 288, 256
-0.992906, 81, 141, 112, 172
-0.992914, 125, 89, 156, 120
-0.992917, 177, 97, 304, 128
-0.992919, 137, 85, 168, 116
-0.992926, 189, 253, 220, 284
-0.992927, 253, 141, 284, 172
-0.992927, 77, 221, 108, 252
-0.992936, 61, 161, 92, 192
-0.992954, 149, 89, 180, 120
-0.992957, 265, 101, 296, 132
-0.99296, 105, 269, 136, 300
-0.992961, 277, 133, 308, 164
-0.992967, 105, 93, 136, 124
-0.992969, 289, 129, 320, 160
-0.992974, 65, 5, 96, 36
-0.992974, 181, 97, 212, 128
-0.992992, 49, 161, 176, 192
-0.992995, 257, 181, 288, 212
-0.992997, 297, 113, 328, 144
-0.992999, 65, 149, 96, 180
-0.992999, 169, 85, 200, 116
-0.992999, 129, 181, 160, 212
-0.993006, 457, 197, 488, 228
-0.993006, 165, 225, 196, 256
-0.993007, 49, 189, 80, 220
-0.993012, 205, 181, 236, 212
-0.993015, 173, 257, 204, 288
-0.993022, 269, 245, 300, 276
-0.993025, 357, 161, 388, 288
-0.993029, 257, 89, 288, 120
-0.993032, 197, 93, 228, 124
-0.993036, 401, 217, 432, 248
-0.993039, 169, 201, 200, 232
-0.993039, 253, 285, 284, 316
-0.993042, 65, 53, 96, 84
-0.993044, 101, 205, 132, 236
-0.993051, 93, 93, 124, 124
-0.993053, 217, 145, 248, 272
-0.993056, 197, 301, 228, 332
-0.993057, 273, 197, 304, 228
-0.993065, 157, 101, 188, 132
-0.993066, 369, 241, 400, 272
-0.993069, 81, 129, 112, 160
-0.993073, 65, 137, 96, 168
-0.993074, 105, 57, 136, 88
-0.993075, 289, 101, 320, 132
-0.993075, 353, 245, 384, 276
-0.993077, 417, 1, 480, 256
-0.993085, 293, 217, 324, 248
-0.993089, 61, 221, 92, 252
-0.993091, 129, 101, 160, 132
-0.993092, 137, 289, 168, 320
-0.993098, 177, 273, 208, 304
-0.993098, 81, 153, 112, 184
-0.993099, 157, 273, 188, 304
-0.993104, 305, 233, 336, 264
-0.993106, 389, 217, 420, 248
-0.993108, 445, 197, 476, 228
-0.993109, 433, 197, 464, 228
-0.99311, 365, 181, 396, 212
-0.99311, 165, 237, 196, 268
-0.993112, 353, 185, 384, 216
-0.993115, 333, 149, 364, 180
-0.993117, 385, 257, 416, 288
-0.993121, 45, 269, 76, 300
-0.993123, 241, 201, 272, 232
-0.993126, 113, 69, 144, 100
-0.993127, 405, 121, 436, 152
-0.993128, 209, 233, 240, 264
-0.993132, 321, 169, 352, 200
-0.993132, 141, 157, 172, 188
-0.993138, 385, 201, 416, 232
-0.993141, 169, 189, 200, 220
-0.993146, 101, 177, 132, 208
-0.993146, 141, 101, 172, 132
-0.993146, 373, 257, 404, 288
-0.993147, 181, 189, 212, 220
-0.993148, 333, 121, 364, 152
-0.993181, 465, 49, 496, 176
-0.993222, 33, 89, 160, 120
-0.993224, 271, 209, 286, 272
-0.993232, 97, 57, 112, 120
-0.993279, 409, 65, 440, 192
-0.993322, 33, 65, 160, 96
-0.993384, 177, 217, 304, 248
-0.993391, 361, 1, 424, 333
-0.993421, 225, 241, 480, 304
-0.993425, 277, 105, 292, 168
-0.993436, 129, 137, 384, 200
-0.993482, 453, 49, 484, 176
-0.993487, 389, 97, 420, 224
-0.993538, 73, 177, 88, 240
-0.993551, 29, 113, 60, 240
-0.993569, 193, 1, 224, 128
-0.993583, 5, 113, 36, 240
-0.9936, 257, 209, 500, 272
-0.99363, 13, 17, 44, 144
-0.993632, 1, 1, 32, 128
-0.993641, 1, 249, 256, 312
-0.993662, 313, 49, 344, 176
-0.993771, 381, 17, 412, 144
-0.993821, 113, 185, 240, 216
-0.993959, 277, 209, 292, 272
-0.993967, 33, 77, 160, 108
-0.993968, 437, 81, 468, 208
-0.993997, 17, 185, 144, 216
-0.994013, 289, 113, 304, 176
-0.994034, 283, 105, 298, 168
-0.994093, 161, 181, 288, 212
-0.994097, 113, 201, 240, 232
-0.994124, 1, 217, 500, 280
-0.994226, 91, 185, 106, 248
-0.994286, 365, 1, 396, 128
-0.994298, 83, 201, 98, 264
-0.994306, 225, 137, 352, 168
-0.994333, 167, 177, 182, 240
-0.994345, 289, 233, 304, 296
-0.994365, 133, 193, 164, 320
-0.994386, 255, 153, 270, 216
-0.994396, 113, 213, 240, 244
-0.994405, 95, 1, 110, 64
-0.994417, 271, 89, 286, 152
-0.994483, 17, 173, 144, 204
-0.994556, 209, 193, 336, 224
-0.994563, 193, 1, 320, 64
-0.994564, 75, 121, 90, 184
-0.994576, 161, 209, 416, 272
-0.994588, 295, 233, 310, 296
-0.994589, 33, 1, 288, 64
-0.994609, 203, 201, 218, 264
-0.994666, 365, 65, 396, 192
-0.994681, 253, 193, 268, 256
-0.994707, 289, 1, 416, 64
-0.994717, 241, 169, 368, 200
-0.994734, 261, 1, 292, 128
-0.994798, 261, 201, 276, 264
-0.994826, 49, 101, 176, 132
-0.994837, 275, 129, 290, 192
-0.994854, 149, 209, 180, 333
-0.994866, 109, 73, 124, 136
-0.994888, 283, 225, 298, 288
-0.994903, 261, 89, 276, 152
-0.994906, 113, 173, 240, 204
-0.994925, 107, 25, 122, 88
-0.99493, 121, 185, 136, 248
-0.994963, 461, 209, 492, 333
-0.994964, 261, 129, 276, 192
-0.994972, 81, 25, 96, 88
-0.994976, 267, 121, 282, 184
-0.994982, 353, 49, 384, 176
-0.995006, 67, 65, 82, 128
-0.99501, 13, 209, 44, 333
-0.995012, 161, 97, 416, 160
-0.995019, 1, 149, 128, 180
-0.995027, 193, 229, 320, 260
-0.995028, 209, 205, 336, 236
-0.995028, 177, 245, 304, 276
-0.995029, 185, 249, 200, 312
-0.995037, 273, 121, 400, 152
-0.99504, 221, 193, 236, 256
-0.99505, 85, 57, 100, 120
-0.995056, 131, 161, 146, 224
-0.995061, 425, 81, 456, 208
-0.995067, 175, 185, 190, 248
-0.995069, 65, 209, 192, 240
-0.995076, 103, 65, 118, 128
-0.995091, 345, 97, 376, 224
-0.995102, 103, 193, 118, 256
-0.995105, 33, 25, 288, 88
-0.995136, 225, 57, 480, 120
-0.995182, 153, 65, 184, 320
-0.995208, 129, 89, 256, 120
-0.995216, 225, 153, 352, 184
-0.995227, 65, 273, 320, 333
-0.995228, 97, 77, 224, 108
-0.995239, 257, 185, 500, 248
-0.995247, 179, 225, 194, 288
-0.995283, 257, 265, 500, 328
-0.995311, 87, 17, 102, 80
-0.995341, 225, 181, 352, 212
-0.995358, 77, 153, 92, 216
-0.995363, 193, 109, 320, 140
-0.99538, 97, 193, 112, 256
-0.995384, 231, 201, 246, 264
-0.995395, 229, 65, 260, 320
-0.995416, 247, 177, 262, 240
-0.995418, 65, 33, 96, 288
-0.995483, 17, 113, 48, 240
-0.995487, 67, 105, 82, 168
-0.995491, 225, 125, 352, 156
-0.995492, 81, 61, 208, 92
-0.995513, 49, 149, 176, 180
-0.995523, 115, 9, 130, 72
-0.995555, 341, 193, 372, 320
-0.995562, 181, 65, 212, 320
-0.99557, 155, 169, 170, 232
-0.995573, 289, 245, 416, 276
-0.995584, 149, 161, 164, 224
-0.995588, 297, 1, 360, 333
-0.995595, 85, 177, 100, 240
-0.995609, 393, 33, 424, 160
-0.995685, 215, 193, 230, 256
-0.995688, 129, 65, 160, 320
-0.995691, 109, 193, 124, 256
-0.9957, 57, 73, 72, 136
-0.995701, 117, 65, 148, 320
-0.995724, 161, 169, 176, 232
-0.995731, 141, 65, 172, 320
-0.995735, 469, 1, 500, 128
-0.995739, 209, 65, 240, 320
-0.99574, 69, 201, 84, 264
-0.995766, 61, 97, 76, 160
-0.995782, 199, 249, 214, 312
-0.995791, 115, 185, 130, 248
-0.995791, 191, 225, 206, 288
-0.995819, 161, 169, 288, 200
-0.995824, 79, 1, 94, 64
-0.995827, 227, 97, 242, 160
-0.995829, 365, 113, 396, 240
-0.995832, 1, 65, 500, 128
-0.995841, 241, 89, 256, 152
-0.995843, 101, 17, 116, 80
-0.99586, 257, 193, 384, 224
-0.995864, 77, 1, 108, 256
-0.995888, 275, 233, 290, 296
-0.995892, 249, 65, 280, 320
-0.995914, 277, 185, 292, 248
-0.995927, 145, 229, 272, 260
-0.995928, 1, 161, 128, 192
-0.995935, 81, 225, 208, 256
-0.995938, 191, 257, 206, 320
-0.995943, 93, 33, 124, 288
-0.995957, 1, 125, 128, 156
-0.995959, 49, 1, 176, 32
-0.995963, 255, 113, 270, 176
-0.995981, 1, 273, 500, 333
-0.996003, 257, 233, 384, 264
-0.996017, 267, 185, 282, 248
-0.996021, 207, 177, 222, 240
-0.996034, 273, 221, 400, 252
-0.996053, 257, 109, 384, 140
-0.996054, 75, 25, 90, 88
-0.996072, 257, 89, 384, 120
-0.996074, 81, 89, 208, 120
-0.996077, 255, 89, 270, 152
-0.996095, 97, 245, 224, 276
-0.996101, 295, 257, 310, 320
-0.996104, 129, 257, 256, 288
-0.996112, 83, 145, 98, 208
-0.996112, 247, 89, 262, 152
-0.996132, 325, 49, 356, 176
-0.996135, 289, 137, 304, 200
-0.996139, 369, 217, 496, 248
-0.996151, 161, 33, 416, 96
-0.996155, 147, 73, 162, 136
-0.996156, 65, 161, 80, 224
-0.996159, 145, 157, 272, 188
-0.99617, 281, 129, 296, 192
-0.9962, 81, 49, 208, 80
-0.996207, 117, 65, 132, 128
-0.996227, 269, 65, 300, 320
-0.99623, 71, 225, 86, 288
-0.996231, 185, 225, 200, 288
-0.996234, 237, 201, 252, 264
-0.996239, 157, 57, 172, 120
-0.996244, 79, 49, 94, 112
-0.99625, 101, 217, 116, 280
-0.996258, 75, 201, 90, 264
-0.996263, 33, 261, 160, 292
-0.996267, 93, 33, 108, 96
-0.996267, 1, 217, 128, 248
-0.99628, 197, 65, 228, 320
-0.996298, 197, 217, 212, 280
-0.99631, 143, 153, 158, 216
-0.996314, 1, 33, 500, 96
-0.996316, 225, 217, 352, 248
-0.996319, 105, 65, 136, 320
-0.996324, 235, 89, 250, 152
-0.996325, 1, 49, 256, 112
-0.996343, 295, 113, 310, 176
-0.996345, 169, 65, 200, 320
-0.996363, 1, 113, 128, 144
-0.996366, 295, 209, 310, 272
-0.996371, 81, 121, 96, 184
-0.996387, 97, 101, 224, 132
-0.996393, 161, 265, 416, 328
-0.996393, 1, 137, 128, 168
-0.996438, 1, 1, 128, 32
-0.996438, 11, 257, 26, 320
-0.996451, 261, 177, 276, 240
-0.996456, 265, 225, 280, 288
-0.996473, 79, 177, 94, 240
-0.996477, 369, 265, 496, 296
-0.99648, 173, 225, 188, 288
-0.99649, 369, 153, 496, 184
-0.996491, 289, 181, 416, 212
-0.996492, 353, 253, 480, 284
-0.996501, 109, 1, 124, 64
-0.996516, 49, 21, 176, 52
-0.996523, 137, 153, 152, 216
-0.996526, 61, 185, 76, 248
-0.996528, 97, 169, 112, 232
-0.996528, 289, 161, 416, 192
-0.996529, 89, 209, 104, 272
-0.996538, 177, 285, 304, 316
-0.996548, 177, 301, 304, 332
-0.99656, 97, 293, 224, 324
-0.996572, 97, 273, 224, 304
-0.996581, 231, 65, 246, 128
-0.99659, 301, 257, 316, 320
-0.996602, 301, 217, 316, 280
-0.996618, 273, 205, 400, 236
-0.996628, 405, 17, 436, 144
-0.996632, 185, 81, 200, 144
-0.996633, 53, 65, 84, 320
-0.996637, 353, 197, 480, 228
-0.996638, 87, 121, 102, 184
-0.996651, 37, 209, 68, 333
-0.99666, 165, 97, 180, 160
-0.996664, 289, 273, 416, 304
-0.996674, 17, 285, 144, 316
-0.996679, 193, 65, 208, 128
-0.996683, 1, 249, 500, 312
-0.996688, 479, 265, 494, 328
-0.99669, 241, 249, 368, 280
-0.996698, 73, 57, 88, 120
-0.996701, 177, 85, 304, 116
-0.996706, 369, 237, 496, 268
-0.996712, 337, 137, 464, 168
-0.996721, 185, 105, 200, 168
-0.996721, 139, 57, 154, 120
-0.996727, 157, 97, 172, 160
-0.996727, 191, 105, 206, 168
-0.996753, 289, 149, 416, 180
-0.996755, 91, 161, 106, 224
-0.996763, 141, 89, 156, 152
-0.996776, 1, 13, 128, 44
-0.996795, 261, 153, 276, 216
-0.996797, 347, 49, 362, 112
-0.996801, 289, 209, 304, 272
-0.996803, 95, 217, 110, 280
-0.996803, 455, 257, 470, 320
-0.996813, 17, 201, 144, 232
-0.996814, 163, 73, 178, 136
-0.996823, 337, 165, 464, 196
-0.996826, 209, 201, 224, 264
-0.996845, 135, 89, 150, 152
-0.996855, 221, 73, 236, 136
-0.996861, 203, 73, 218, 136
-0.996873, 439, 161, 454, 224
-0.996877, 49, 137, 176, 168
-0.99688, 245, 65, 260, 128
-0.99689, 127, 73, 142, 136
-0.996905, 319, 145, 334, 208
-0.996909, 67, 41, 82, 104
-0.99692, 33, 301, 160, 332
-0.99694, 95, 1, 110, 32
-0.996951, 273, 261, 400, 292
-0.996976, 433, 33, 464, 160
-0.997002, 225, 293, 352, 324
-0.997046, 83, 197, 98, 228
-0.997073, 369, 85, 496, 116
-0.997117, 337, 297, 464, 328
-0.997117, 337, 49, 464, 80
-0.997127, 93, 189, 108, 220
-0.997134, 305, 233, 432, 264
-0.997154, 337, 17, 368, 144
-0.99716, 177, 273, 304, 304
-0.997166, 321, 125, 448, 156
-0.997182, 145, 1, 176, 128
-0.997185, 289, 285, 416, 316
-0.997206, 111, 85, 126, 116
-0.997228, 161, 61, 288, 92
-0.997263, 273, 133, 400, 164
-0.997272, 75, 181, 90, 212
-0.997272, 119, 189, 134, 220
-0.997275, 1, 249, 128, 280
-0.997294, 369, 185, 496, 216
-0.997314, 97, 161, 224, 192
-0.997317, 169, 181, 184, 212
-0.997332, 291, 233, 306, 264
-0.997337, 1, 53, 128, 84
-0.997342, 321, 209, 448, 240
-0.997354, 287, 117, 302, 148
-0.997358, 297, 241, 312, 272
-0.997369, 33, 273, 160, 304
-0.997396, 193, 257, 320, 288
-0.997425, 337, 277, 464, 308
-0.997435, 241, 281, 368, 312
-0.997466, 81, 261, 208, 292
-0.997486, 115, 17, 130, 48
-0.997494, 241, 77, 368, 108
-0.997497, 305, 193, 432, 224
-0.997515, 71, 205, 86, 236
-0.997524, 321, 221, 448, 252
-0.997554, 33, 229, 160, 260
-0.997574, 75, 121, 90, 152
-0.997582, 369, 109, 496, 140
-0.997586, 267, 133, 282, 164
-0.997603, 83, 1, 98, 32
-0.997608, 279, 217, 294, 248
-0.997609, 305, 109, 432, 140
-0.997611, 129, 169, 144, 200
-0.997621, 163, 173, 178, 204
-0.997626, 107, 25, 122, 56
-0.99764, 203, 205, 218, 236
-0.997644, 285, 225, 300, 256
-0.99765, 259, 149, 274, 180
-0.997664, 289, 65, 320, 320
-0.997667, 273, 41, 400, 72
-0.997676, 107, 5, 122, 36
-0.99768, 151, 165, 166, 196
-0.997702, 125, 181, 140, 212
-0.997727, 275, 133, 290, 164
-0.99773, 273, 209, 288, 240
-0.997734, 229, 97, 244, 128
-0.997736, 49, 249, 176, 280
-0.997738, 83, 209, 98, 240
-0.997754, 69, 113, 84, 144
-0.997759, 369, 125, 496, 156
-0.997761, 191, 237, 206, 268
-0.997765, 107, 73, 122, 104
-0.997766, 295, 121, 310, 152
-0.997769, 255, 169, 270, 200
-0.997776, 177, 141, 304, 172
-0.997777, 221, 193, 236, 224
-0.997781, 59, 97, 74, 128
-0.997782, 145, 109, 272, 140
-0.997791, 233, 205, 248, 236
-0.997794, 281, 241, 296, 272
-0.997795, 257, 25, 500, 88
-0.997801, 33, 33, 160, 64
-0.997801, 321, 97, 448, 128
-0.997821, 81, 21, 96, 52
-0.997833, 161, 125, 288, 156
-0.997834, 117, 81, 132, 112
-0.99784, 111, 193, 126, 224
-0.997844, 281, 113, 296, 144
-0.997859, 97, 61, 112, 92
-0.99786, 265, 205, 280, 236
-0.997864, 209, 65, 336, 96
-0.99788, 97, 13, 224, 44
-0.997882, 181, 241, 196, 272
-0.997887, 249, 173, 264, 204
-0.997893, 87, 65, 102, 96
-0.997897, 305, 61, 432, 92
-0.997916, 87, 181, 102, 212
-0.997918, 65, 209, 80, 240
-0.997921, 145, 41, 272, 72
-0.997926, 303, 249, 318, 280
-0.997937, 145, 73, 272, 104
-0.99794, 49, 125, 176, 156
-0.997941, 287, 249, 302, 280
-0.997941, 73, 193, 88, 224
-0.997952, 179, 229, 194, 260
-0.997953, 273, 297, 400, 328
-0.997953, 101, 193, 116, 224
-0.997956, 275, 233, 290, 264
-0.997958, 289, 133, 304, 164
-0.997959, 201, 221, 216, 252
-0.997961, 239, 89, 254, 120
-0.997963, 215, 197, 230, 228
-0.997985, 209, 37, 336, 68
-0.997987, 307, 233, 322, 264
-0.998002, 227, 197, 242, 228
-0.998006, 91, 201, 106, 232
-0.99801, 151, 85, 166, 116
-0.99802, 273, 97, 288, 128
-0.998025, 223, 101, 238, 132
-0.99803, 49, 113, 176, 144
-0.998033, 117, 5, 132, 36
-0.998034, 157, 169, 172, 200
-0.998036, 77, 161, 92, 192
-0.998042, 225, 269, 352, 300
-0.998044, 133, 157, 148, 188
-0.998058, 173, 197, 188, 228
-0.998061, 63, 109, 78, 140
-0.998064, 77, 61, 92, 92
-0.998071, 95, 213, 110, 244
-0.998075, 67, 65, 82, 96
-0.998077, 89, 9, 104, 40
-0.998078, 269, 225, 284, 256
-0.998089, 1, 1, 16, 32
-0.998089, 189, 225, 204, 256
-0.998092, 75, 13, 90, 44
-0.998096, 69, 165, 84, 196
-0.998097, 85, 129, 100, 160
-0.998102, 259, 201, 274, 232
-0.998111, 139, 157, 154, 188
-0.998111, 137, 85, 152, 116
-0.998123, 145, 161, 160, 192
-0.998127, 209, 197, 224, 228
-0.998128, 247, 89, 262, 120
-0.998132, 265, 189, 280, 220
-0.998133, 207, 185, 222, 216
-0.998133, 187, 253, 202, 284
-0.998152, 59, 73, 74, 104
-0.998168, 1, 1, 500, 64
-0.998171, 161, 9, 416, 72
-0.998171, 65, 177, 80, 208
-0.998171, 195, 249, 210, 280
-0.998172, 143, 97, 158, 128
-0.998175, 99, 17, 114, 48
-0.998185, 209, 97, 224, 128
-0.998188, 165, 101, 180, 132
-0.99819, 173, 85, 188, 116
-0.998194, 461, 197, 476, 228
-0.998194, 233, 273, 248, 304
-0.998195, 267, 93, 282, 124
-0.998204, 293, 257, 308, 288
-0.998205, 271, 197, 286, 228
-0.998211, 157, 81, 172, 112
-0.998211, 105, 93, 120, 124
-0.998215, 279, 197, 294, 228
-0.99822, 269, 121, 284, 152
-0.998232, 195, 105, 210, 136
-0.998237, 253, 189, 268, 220
-0.998246, 129, 89, 144, 120
-0.998247, 243, 77, 258, 108
-0.998253, 149, 289, 164, 320
-0.998254, 65, 221, 80, 252
-0.998258, 301, 109, 316, 140
-0.99826, 65, 193, 80, 224
-0.998263, 109, 269, 124, 300
-0.998267, 221, 89, 236, 120
-0.99827, 407, 213, 422, 244
-0.998271, 201, 249, 216, 280
-0.998272, 103, 205, 118, 236
-0.998277, 59, 85, 74, 116
-0.998282, 283, 137, 298, 168
-0.998284, 93, 49, 108, 80
-0.998285, 231, 85, 246, 116
-0.998288, 253, 157, 268, 188
-0.998289, 199, 93, 214, 124
-0.998316, 85, 145, 100, 176
-0.998321, 449, 197, 464, 228
-0.998323, 111, 97, 126, 128
-0.998324, 175, 185, 190, 216
-0.998369, 73, 11, 136, 26
-0.998398, 61, 185, 92, 200
-0.998399, 105, 275, 136, 290
-0.998399, 233, 95, 296, 110
-0.998399, 81, 143, 112, 158
-0.9984, 97, 211, 128, 226
-0.9984, 293, 115, 324, 130
-0.998401, 369, 171, 400, 186
-0.998402, 73, 59, 104, 74
-0.998404, 25, 187, 56, 202
-0.998404, 45, 75, 76, 90
-0.998404, 253, 135, 284, 150
-0.998404, 441, 207, 472, 222
-0.998405, 253, 183, 284, 198
-0.998405, 69, 7, 100, 22
-0.998405, 257, 191, 288, 206
-0.998406, 169, 271, 200, 286
-0.998408, 213, 205, 244, 220
-0.998408, 117, 193, 148, 208
-0.998408, 129, 169, 160, 184
-0.998408, 381, 163, 412, 178
-0.998409, 81, 149, 112, 164
-0.99841, 69, 223, 100, 238
-0.99841, 193, 209, 256, 224
-0.998411, 177, 99, 208, 114
-0.998411, 57, 69, 88, 84
-0.998411, 121, 173, 184, 188
-0.998411, 249, 129, 280, 144
-0.998411, 197, 201, 228, 216
-0.998413, 233, 93, 264, 108
-0.998413, 197, 219, 228, 234
-0.998413, 273, 127, 304, 142
-0.998413, 65, 153, 96, 168
-0.998413, 73, 1, 136, 16
-0.998414, 257, 93, 288, 108
-0.998416, 181, 105, 212, 120
-0.998418, 113, 75, 144, 90
-0.998418, 349, 265, 380, 280
-0.998419, 57, 209, 88, 224
-0.998419, 101, 205, 132, 220
-0.998419, 233, 189, 264, 204
-0.99842, 113, 1, 144, 16
-0.998422, 285, 221, 316, 236
-0.998423, 185, 225, 216, 240
-0.998423, 73, 17, 136, 32
-0.998423, 197, 235, 228, 250
-0.998423, 113, 11, 144, 26
-0.998425, 297, 123, 328, 138
-0.998426, 157, 103, 188, 118
-0.998426, 265, 239, 296, 254
-0.998427, 173, 257, 204, 272
-0.998427, 57, 203, 120, 218
-0.998429, 269, 245, 300, 260
-0.998429, 269, 201, 300, 216
-0.99843, 265, 215, 296, 230
-0.99843, 213, 107, 244, 122
-0.998432, 253, 205, 284, 220
-0.998432, 65, 133, 96, 148
-0.998433, 249, 177, 280, 192
-0.998434, 45, 103, 76, 118
-0.998434, 181, 217, 212, 232
-0.998435, 141, 97, 172, 112
-0.998435, 197, 213, 228, 228
-0.998435, 285, 133, 316, 148
-0.998436, 113, 25, 144, 40
-0.998437, 277, 95, 308, 110
-0.998438, 65, 163, 96, 178
-0.998439, 277, 117, 308, 132
-0.998439, 129, 157, 160, 172
-0.998441, 57, 69, 120, 84
-0.998445, 45, 81, 76, 96
-0.998445, 1, 1, 32, 16
-0.998447, 197, 249, 228, 264
-0.998447, 157, 185, 188, 200
-0.998447, 65, 193, 128, 208
-0.99845, 149, 177, 180, 192
-0.99845, 293, 255, 324, 270
-0.99845, 105, 189, 136, 204
-0.998452, 253, 161, 284, 176
-0.998454, 281, 105, 312, 120
-0.998455, 261, 147, 292, 162
-0.998457, 97, 79, 128, 94
-0.998459, 201, 101, 232, 116
-0.998459, 169, 251, 200, 266
-0.99846, 57, 117, 88, 132
-0.998461, 193, 203, 256, 218
-0.998462, 69, 65, 100, 80
-0.998463, 113, 81, 144, 96
-0.998464, 69, 13, 100, 28
-0.998465, 281, 239, 312, 254
-0.998465, 121, 179, 184, 194
-0.998466, 217, 101, 248, 116
-0.998467, 181, 231, 212, 246
-0.998467, 49, 109, 80, 124
-0.998468, 225, 201, 288, 216
-0.99847, 69, 19, 100, 34
-0.99847, 269, 221, 300, 236
-0.998475, 81, 219, 112, 234
-0.998477, 113, 87, 144, 102
-0.99848, 57, 179, 88, 194
-0.99848, 185, 257, 216, 272
-0.99848, 249, 137, 312, 152
-0.998483, 129, 175, 160, 190
-0.998483, 69, 217, 100, 232
-0.998486, 161, 211, 224, 226
-0.998486, 61, 125, 92, 140
-0.998487, 277, 227, 308, 242
-0.998488, 169, 199, 232, 214
-0.998488, 249, 123, 312, 138
-0.99849, 253, 171, 284, 186
-0.99849, 73, 173, 104, 188
-0.998491, 57, 87, 120, 102
-0.998493, 145, 171, 176, 186
-0.998495, 65, 187, 128, 202
-0.998496, 225, 207, 288, 222
-0.998498, 177, 235, 240, 250
-0.998498, 45, 97, 76, 112
-0.998498, 217, 195, 280, 210
-0.998499, 57, 213, 120, 228
-0.9985, 133, 163, 164, 178
-0.998501, 57, 93, 120, 108
-0.998502, 45, 87, 76, 102
-0.998502, 277, 233, 308, 248
-0.998504, 81, 205, 112, 220
-0.998504, 193, 217, 256, 232
-0.998505, 121, 167, 184, 182
-0.998506, 121, 187, 152, 202
-0.998506, 257, 155, 288, 170
-0.998507, 89, 195, 152, 210
-0.998508, 241, 177, 304, 192
-0.998508, 57, 219, 120, 234
-0.99851, 257, 247, 320, 262
-0.99851, 245, 93, 276, 108
-0.998511, 181, 245, 212, 260
-0.998511, 73, 23, 136, 38
-0.998512, 249, 153, 312, 168
-0.998513, 161, 217, 224, 232
-0.998515, 185, 237, 216, 252
-0.998516, 89, 187, 152, 202
-0.998517, 25, 109, 88, 124
-0.998517, 125, 181, 156, 196
-0.998517, 169, 191, 232, 206
-0.998518, 209, 199, 240, 214
-0.998518, 85, 65, 116, 80
-0.998522, 97, 17, 160, 32
-0.998524, 201, 207, 232, 222
-0.998525, 129, 185, 192, 200
-0.998525, 353, 1, 384, 256
-0.998527, 241, 225, 304, 240
-0.998527, 97, 93, 160, 108
-0.998528, 241, 165, 304, 180
-0.998529, 93, 85, 124, 100
-0.99853, 105, 77, 168, 92
-0.998531, 65, 75, 128, 90
-0.998533, 25, 101, 88, 116
-0.998534, 265, 135, 296, 150
-0.998534, 161, 205, 224, 220
-0.998534, 153, 223, 216, 238
-0.998534, 257, 1, 500, 64
-0.998534, 33, 121, 96, 136
-0.998535, 105, 93, 136, 108
-0.998535, 225, 101, 288, 116
-0.998536, 161, 257, 224, 272
-0.998536, 101, 23, 132, 38
-0.998537, 73, 183, 104, 198
-0.998537, 301, 1, 332, 256
-0.998537, 241, 159, 304, 174
-0.998538, 241, 131, 304, 146
-0.998539, 101, 195, 132, 210
-0.998539, 271, 81, 286, 208
-0.998541, 233, 217, 296, 232
-0.998543, 241, 171, 304, 186
-0.998543, 25, 189, 88, 204
-0.998544, 25, 115, 88, 130
-0.998544, 169, 241, 232, 256
-0.998544, 177, 223, 240, 238
-0.998544, 285, 245, 316, 260
-0.998546, 289, 127, 352, 142
-0.998547, 185, 251, 216, 266
-0.998547, 185, 103, 248, 118
-0.998548, 17, 87, 80, 102
-0.998552, 33, 135, 96, 150
-0.998553, 281, 247, 344, 262
-0.998553, 97, 11, 160, 26
-0.998555, 105, 85, 168, 100
-0.998556, 249, 145, 312, 160
-0.998558, 33, 175, 96, 190
-0.998559, 97, 5, 160, 20
-0.99856, 265, 229, 328, 244
-0.99856, 265, 221, 328, 236
-0.998562, 201, 183, 264, 198
-0.998562, 249, 235, 312, 250
-0.998563, 153, 229, 216, 244
-0.998563, 57, 227, 120, 242
-0.998564, 49, 17, 112, 32
-0.998565, 57, 99, 120, 114
-0.998565, 129, 103, 192, 118
-0.998566, 249, 289, 312, 304
-0.998566, 81, 199, 112, 214
-0.998567, 33, 153, 96, 168
-0.998567, 273, 241, 336, 256
-0.998567, 41, 1, 72, 256
-0.998567, 69, 211, 100, 226
-0.998568, 97, 63, 160, 78
-0.998568, 113, 191, 176, 206
-0.998568, 281, 133, 344, 148
-0.998569, 265, 99, 328, 114
-0.998569, 81, 171, 144, 186
-0.998571, 77, 113, 92, 240
-0.998572, 73, 177, 136, 192
-0.998572, 17, 77, 80, 92
-0.998574, 73, 49, 88, 176
-0.998575, 217, 223, 280, 238
-0.998575, 265, 105, 328, 120
-0.998575, 255, 81, 270, 208
-0.998575, 193, 249, 256, 264
-0.998576, 49, 181, 112, 196
-0.998576, 33, 167, 96, 182
-0.998576, 289, 115, 352, 130
-0.998576, 41, 129, 104, 144
-0.998576, 209, 189, 272, 204
-0.998577, 193, 197, 256, 212
-0.998578, 81, 211, 112, 226
-0.998579, 25, 71, 88, 86
-0.99858, 65, 81, 128, 96
-0.998582, 177, 97, 240, 112
-0.998583, 153, 251, 216, 266
-0.998584, 85, 19, 116, 34
-0.998585, 265, 255, 328, 270
-0.998586, 97, 203, 160, 218
-0.998589, 161, 105, 224, 120
-0.998589, 137, 191, 200, 206
-0.998589, 97, 69, 160, 84
-0.99859, 83, 1, 98, 128
-0.99859, 41, 143, 104, 158
-0.998591, 249, 117, 312, 132
-0.998592, 57, 63, 120, 78
-0.998593, 177, 229, 240, 244
-0.998593, 121, 161, 184, 176
-0.998593, 281, 235, 344, 250
-0.998594, 137, 209, 200, 224
-0.998596, 121, 261, 184, 276
-0.998597, 249, 187, 312, 202
-0.998598, 265, 201, 328, 216
-0.998598, 289, 143, 352, 158
-0.9986, 169, 185, 232, 200
-0.998601, 81, 221, 144, 236
-0.998601, 265, 93, 328, 108
-0.998602, 283, 97, 298, 224
-0.998603, 289, 121, 352, 136
-0.998603, 69, 203, 100, 218
-0.998604, 81, 209, 144, 224
-0.998604, 89, 1, 104, 128
-0.998604, 41, 161, 104, 176
-0.998604, 273, 209, 336, 224
-0.998604, 385, 229, 448, 244
-0.998605, 393, 217, 456, 232
-0.998607, 101, 17, 132, 32
-0.998607, 249, 241, 312, 256
-0.998607, 153, 235, 216, 250
-0.998607, 261, 81, 276, 208
-0.998607, 33, 205, 96, 220
-0.998608, 425, 201, 488, 216
-0.998608, 25, 181, 88, 196
-0.998608, 25, 195, 88, 210
-0.998609, 69, 193, 100, 208
-0.998609, 249, 211, 312, 226
-0.998613, 93, 1, 124, 16
-0.998619, 67, 49, 82, 176
-0.998621, 73, 161, 88, 288
-0.998644, 85, 193, 116, 208
-0.998652, 107, 17, 122, 144
-0.998658, 71, 113, 86, 240
-0.998662, 93, 7, 124, 22
-0.998663, 81, 5, 112, 20
-0.998697, 135, 97, 150, 224
-0.9987, 81, 13, 112, 28
-0.998704, 141, 97, 156, 224
-0.998719, 261, 129, 276, 256
-0.998734, 29, 1, 60, 256
-0.998734, 147, 97, 162, 224
-0.998752, 83, 129, 98, 256
-0.99876, 273, 129, 288, 256
-0.998763, 277, 193, 292, 320
-0.998766, 87, 177, 102, 304
-0.998786, 201, 193, 216, 320
-0.998793, 277, 81, 292, 208
-0.998801, 155, 97, 170, 224
-0.998825, 255, 145, 270, 272
-0.998836, 171, 177, 186, 304
-0.998839, 95, 1, 110, 128
-0.998841, 101, 17, 116, 144
-0.998851, 65, 97, 80, 224
-0.998863, 313, 65, 344, 320
-0.99887, 83, 49, 98, 176
-0.998873, 161, 97, 176, 224
-0.998882, 267, 129, 282, 256
-0.998899, 271, 193, 286, 320
-0.998903, 113, 17, 128, 144
-0.998909, 77, 1, 92, 128
-0.998927, 365, 1, 396, 256
-0.998932, 123, 97, 138, 224
-0.998938, 101, 177, 116, 304
-0.998946, 137, 145, 152, 272
-0.998954, 17, 1, 48, 256
-0.998957, 179, 193, 194, 320
-0.998959, 161, 161, 176, 288
-0.998961, 285, 209, 300, 333
-0.99898, 283, 49, 298, 176
-0.998982, 115, 177, 130, 304
-0.998987, 233, 193, 248, 320
-0.999, 127, 161, 142, 288
-0.999005, 129, 97, 144, 224
-0.999012, 167, 97, 182, 224
-0.99902, 247, 145, 262, 272
-0.999021, 289, 113, 304, 240
-0.999024, 59, 65, 74, 192
-0.999029, 93, 129, 108, 256
-0.999039, 217, 177, 232, 304
-0.999067, 207, 177, 222, 304
-0.999076, 117, 97, 132, 224
-0.999079, 279, 145, 294, 272
-0.999092, 81, 177, 96, 304
-0.999098, 265, 177, 280, 304
-0.999103, 121, 177, 136, 304
-0.999104, 255, 33, 270, 160
-0.999118, 225, 177, 240, 304
-0.99912, 249, 81, 264, 208
-0.999128, 93, 177, 108, 304
-0.999129, 195, 209, 210, 333
-0.999136, 215, 97, 230, 224
-0.99914, 223, 33, 238, 160
-0.99915, 389, 65, 420, 320
-0.999159, 109, 177, 124, 304
-0.999169, 187, 193, 202, 320
-0.999177, 209, 97, 224, 224
-0.99918, 95, 49, 110, 176
-0.99918, 151, 161, 166, 288
-0.999182, 325, 65, 356, 320
-0.999185, 173, 97, 188, 224
-0.999186, 229, 17, 244, 144
-0.999186, 119, 17, 134, 144
-0.999187, 145, 145, 160, 272
-0.999187, 277, 33, 292, 160
-0.999204, 271, 33, 286, 160
-0.999211, 67, 177, 82, 304
-0.999214, 75, 209, 90, 333
-0.999224, 243, 81, 258, 208
-0.999225, 193, 49, 208, 176
-0.999227, 249, 209, 264, 333
-0.99923, 239, 193, 254, 320
-0.999235, 179, 49, 194, 176
-0.999239, 225, 97, 240, 224
-0.999242, 215, 49, 230, 176
-0.999255, 261, 33, 276, 160
-0.999258, 209, 49, 224, 176
-0.999261, 187, 49, 202, 176
-0.999264, 255, 193, 270, 320
-0.999274, 127, 49, 142, 176
-0.999277, 167, 33, 182, 160
-0.999277, 89, 49, 104, 176
-0.999277, 289, 161, 304, 288
-0.999281, 201, 49, 216, 176
-0.999283, 235, 65, 250, 192
-0.999284, 289, 49, 304, 176
-0.999289, 101, 65, 116, 192
-0.999289, 179, 97, 194, 224
-0.999295, 161, 33, 176, 160
-0.999321, 61, 17, 76, 144
-0.999335, 243, 1, 258, 128
-0.999335, 249, 1, 264, 128
-0.999341, 143, 33, 158, 160
-0.99935, 201, 97, 216, 224
-0.999351, 445, 1, 476, 256
-0.999355, 235, 17, 250, 144
-0.999362, 109, 65, 124, 192
-0.999363, 137, 17, 152, 144
-0.999363, 377, 209, 392, 333
-0.999367, 111, 113, 126, 240
-0.999369, 153, 49, 168, 176
-0.999373, 173, 33, 188, 160
-0.999376, 421, 193, 436, 320
-0.999377, 61, 145, 76, 272
-0.999382, 67, 1, 82, 128
-0.999388, 405, 177, 420, 304
-0.99939, 429, 65, 460, 320
-0.99939, 291, 209, 306, 333
-0.99939, 457, 33, 488, 288
-0.9994, 195, 97, 210, 224
-0.999413, 369, 145, 384, 272
-0.999415, 297, 97, 312, 224
-0.999428, 391, 161, 406, 288
-0.999436, 413, 33, 444, 288
-0.999449, 401, 65, 432, 320
-0.999453, 185, 97, 200, 224
-0.999454, 419, 145, 434, 272
-0.999454, 335, 161, 350, 288
-0.999458, 341, 1, 372, 256
-0.999468, 457, 193, 472, 320
-0.99947, 453, 129, 468, 256
-0.999474, 425, 145, 440, 272
-0.999476, 27, 209, 42, 333
-0.99948, 429, 209, 444, 333
-0.99948, 383, 193, 398, 320
-0.999481, 295, 33, 310, 160
-0.999484, 377, 65, 392, 192
-0.999538, 5, 1, 36, 256
-0.999585, 459, 199, 474, 214
-0.999585, 273, 103, 288, 118
-0.999586, 231, 273, 246, 288
-0.999586, 195, 259, 210, 274
-0.999587, 85, 147, 100, 162
-0.999587, 69, 185, 84, 200
-0.999587, 77, 137, 92, 152
-0.999587, 249, 91, 264, 106
-0.999587, 149, 95, 164, 110
-0.999588, 291, 241, 306, 256
-0.999588, 281, 99, 296, 114
-0.999588, 211, 103, 226, 118
-0.999588, 295, 129, 310, 144
-0.999588, 177, 239, 192, 254
-0.999588, 93, 217, 108, 232
-0.999589, 259, 163, 274, 178
-0.999589, 277, 203, 292, 218
-0.999589, 349, 265, 364, 280
-0.999589, 123, 27, 138, 42
-0.999589, 269, 97, 284, 112
-0.999589, 63, 221, 78, 236
-0.99959, 105, 71, 120, 86
-0.99959, 279, 223, 294, 238
-0.99959, 115, 93, 130, 108
-0.99959, 117, 1, 132, 16
-0.999591, 111, 269, 126, 284
-0.999591, 193, 105, 208, 120
-0.999593, 87, 85, 102, 100
-0.999593, 267, 207, 282, 222
-0.999594, 117, 9, 132, 24
-0.999595, 217, 109, 232, 124
-0.999595, 275, 215, 290, 230
-0.999595, 377, 1, 408, 256
-0.999595, 255, 183, 270, 198
-0.999596, 113, 27, 128, 42
-0.999597, 103, 97, 118, 112
-0.999597, 263, 93, 278, 108
-0.999599, 299, 247, 314, 262
-0.9996, 187, 235, 202, 250
-0.9996, 281, 137, 296, 152
-0.999601, 391, 173, 406, 188
-0.999601, 103, 195, 118, 210
-0.999601, 143, 97, 158, 112
-0.999601, 307, 251, 322, 266
-0.999601, 59, 87, 74, 102
-0.999602, 205, 103, 220, 118
-0.999603, 161, 175, 176, 190
-0.999603, 59, 97, 74, 112
-0.999603, 97, 225, 112, 240
-0.999603, 87, 61, 102, 76
-0.999604, 163, 103, 178, 118
-0.999605, 229, 209, 244, 224
-0.999606, 213, 199, 228, 214
-0.999607, 147, 163, 162, 178
-0.999608, 207, 203, 222, 218
-0.999609, 199, 233, 214, 248
-0.99961, 73, 207, 88, 222
-0.99961, 109, 195, 124, 210
-0.999611, 271, 201, 286, 216
-0.999612, 189, 257, 204, 272
-0.999612, 69, 213, 84, 228
-0.999612, 75, 19, 90, 34
-0.999613, 291, 223, 306, 238
-0.999613, 75, 173, 90, 188
-0.999614, 75, 199, 90, 214
-0.999614, 201, 255, 216, 270
-0.999614, 181, 245, 196, 260
-0.999614, 285, 115, 300, 130
-0.999615, 247, 179, 262, 194
-0.999616, 265, 143, 280, 158
-0.999616, 277, 237, 292, 252
-0.999616, 243, 93, 258, 108
-0.999616, 71, 65, 86, 80
-0.999616, 301, 255, 316, 270
-0.999616, 97, 21, 112, 36
-0.999617, 67, 175, 82, 190
-0.999617, 105, 7, 120, 22
-0.999619, 73, 121, 88, 136
-0.999619, 201, 215, 216, 230
-0.99962, 77, 63, 92, 78
-0.999621, 91, 205, 106, 220
-0.999622, 69, 115, 84, 130
-0.999623, 281, 245, 296, 260
-0.999625, 93, 85, 108, 100
-0.999626, 289, 135, 304, 150
-0.999626, 85, 19, 100, 34
-0.999627, 115, 85, 130, 100
-0.99963, 275, 137, 290, 152
-0.999631, 263, 149, 278, 164
-0.999632, 235, 97, 250, 112
-0.999633, 83, 213, 98, 228
-0.999635, 191, 243, 206, 258
-0.999636, 93, 15, 108, 30
-0.999639, 287, 235, 302, 250
-0.999639, 153, 167, 168, 182
-0.99964, 97, 65, 112, 80
-0.999641, 77, 127, 92, 142
-0.999642, 59, 103, 74, 118
-0.999642, 283, 229, 298, 244
-0.999647, 131, 175, 146, 190
-0.999648, 115, 193, 130, 208
-0.999651, 107, 17, 122, 32
-0.999651, 185, 251, 200, 266
-0.999652, 91, 191, 106, 206
-0.999654, 123, 189, 138, 204
-0.999659, 85, 3, 100, 18
-0.999661, 75, 191, 90, 206
-0.999665, 221, 197, 236, 212
-0.999666, 223, 105, 238, 120
-0.999666, 257, 169, 272, 184
-0.999667, 291, 119, 306, 134
-0.999669, 203, 209, 218, 224
-0.999672, 127, 183, 142, 198
-0.999673, 75, 185, 90, 200
-0.999673, 193, 251, 208, 266
-0.999673, 73, 179, 88, 194
-0.999676, 229, 101, 244, 116
-0.999679, 81, 11, 96, 26
-0.999686, 171, 185, 186, 200
-0.99969, 3, 1, 18, 16
-0.99969, 259, 155, 274, 170
-0.999694, 91, 197, 106, 212
-0.999696, 269, 135, 284, 150
-0.999696, 83, 207, 98, 222
-0.999698, 115, 21, 130, 36
-0.999703, 97, 193, 112, 208
-0.99973, 85, 193, 100, 208
-0.999736, 95, 3, 110, 18
-0.999741, 109, 93, 124, 108
-0.999749, 83, 201, 98, 216
-0.999762, 95, 9, 110, 24
-0.999814, 469, 65, 500, 320
