1991
-0.415058, 1, 225, 374, 480
-0.473068, 1, 129, 374, 384
-0.482075, 129, 225, 374, 480
-0.50933, 97, 1, 352, 500
-0.597421, 1, 1, 374, 500
-0.616488, 97, 129, 352, 384
-0.664912, 1, 257, 256, 500
-0.712271, 1, 33, 374, 288
-0.726562, 1, 97, 256, 352
-0.72988, 1, 1, 256, 500
-0.762287, 97, 33, 352, 288
-0.834425, 145, 65, 272, 320
-0.84883, 177, 1, 304, 500
-0.85609, 129, 1, 256, 500
-0.876181, 129, 225, 256, 480
-0.884861, 1, 225, 374, 352
-0.888964, 177, 161, 304, 416
-0.888995, 1, 321, 374, 448
-0.892134, 129, 225, 374, 352
-0.89298, 1, 369, 374, 496
-0.894871, 49, 257, 176, 500
-0.895533, 97, 97, 224, 352
-0.896931, 241, 257, 368, 500
-0.899547, 193, 65, 320, 320
-0.914281, 81, 1, 208, 500
-0.914488, 1, 369, 256, 496
-0.918887, 1, 273, 374, 400
-0.920714, 1, 129, 374, 256
-0.922306, 129, 273, 374, 400
-0.923666, 225, 1, 352, 500
-0.925416, 97, 369, 352, 496
-0.925674, 49, 97, 176, 352
-0.927678, 97, 97, 352, 224
-0.927952, 129, 97, 256, 224
-0.927994, 1, 321, 256, 448
-0.928267, 49, 369, 176, 496
-0.928804, 1, 369, 128, 496
-0.932974, 1, 257, 128, 500
-0.935149, 9, 353, 72, 480
-0.936064, 1, 177, 374, 304
-0.936716, 185, 65, 248, 192
-0.93722, 33, 353, 96, 480
-0.938833, 33, 145, 288, 272
-0.939513, 137, 97, 200, 224
-0.941286, 129, 145, 256, 272
-0.942592, 113, 369, 240, 496
-0.942793, 241, 129, 368, 384
-0.943652, 313, 289, 374, 416
-0.943905, 97, 1, 224, 256
-0.944992, 33, 1, 160, 500
-0.94515, 97, 321, 352, 448
-0.945798, 145, 257, 208, 384
-0.946184, 161, 209, 288, 336
-0.947074, 1, 97, 256, 224
-0.947994, 241, 33, 368, 288
-0.948142, 49, 321, 176, 448
-0.948356, 177, 257, 304, 500
-0.948718, 137, 337, 200, 464
-0.948942, 169, 401, 232, 464
-0.950197, 129, 257, 256, 384
-0.950824, 121, 105, 184, 168
-0.9512, 161, 97, 224, 224
-0.952089, 217, 425, 280, 488
-0.952274, 193, 129, 256, 256
-0.95228, 209, 193, 272, 320
-0.954009, 25, 369, 88, 432
-0.954191, 145, 241, 208, 304
-0.954322, 1, 273, 256, 400
-0.954968, 57, 353, 120, 480
-0.955038, 273, 353, 336, 480
-0.955067, 113, 321, 240, 448
-0.955121, 1, 369, 64, 432
-0.955227, 33, 401, 96, 464
-0.955292, 113, 113, 176, 240
-0.956071, 273, 241, 336, 368
-0.956835, 193, 81, 256, 144
-0.957276, 49, 377, 112, 440
-0.95751, 145, 273, 208, 336
-0.957789, 1, 81, 374, 208
-0.958683, 41, 425, 104, 488
-0.959135, 249, 401, 312, 464
-0.959407, 209, 209, 336, 336
-0.95986, 225, 369, 352, 496
-0.959915, 129, 145, 374, 272
-0.959982, 129, 49, 256, 176
-0.960273, 217, 201, 280, 264
-0.960392, 153, 145, 216, 272
-0.960782, 1, 393, 64, 456
-0.960794, 1, 345, 64, 408
-0.960965, 169, 369, 232, 496
-0.961192, 49, 1, 176, 256
-0.961894, 201, 65, 264, 320
-0.962381, 9, 417, 72, 480
-0.962585, 81, 97, 208, 224
-0.962728, 177, 81, 304, 208
-0.962803, 153, 209, 216, 336
-0.96337, 209, 65, 272, 192
-0.963385, 25, 345, 88, 408
-0.964441, 233, 193, 296, 320
-0.964553, 97, 369, 160, 496
-0.964718, 1, 321, 128, 448
-0.964775, 137, 417, 200, 480
-0.964836, 137, 377, 200, 440
-0.965344, 49, 273, 176, 400
-0.965562, 257, 433, 320, 496
-0.965961, 177, 369, 304, 496
-0.966182, 313, 305, 374, 368
-0.96645, 161, 105, 224, 168
-0.966723, 49, 369, 176, 432
-0.967184, 33, 193, 288, 320
-0.967391, 49, 353, 112, 416
-0.967728, 265, 241, 328, 304
-0.967839, 193, 121, 256, 184
-0.967852, 113, 409, 240, 472
-0.967924, 81, 145, 208, 272
-0.967957, 65, 49, 320, 176
-0.968008, 9, 305, 72, 432
-0.968086, 297, 281, 360, 344
-0.968125, 217, 369, 280, 496
-0.968227, 241, 257, 368, 384
-0.968712, 225, 401, 288, 464
-0.968773, 177, 225, 240, 352
-0.968849, 57, 401, 120, 464
-0.968874, 97, 393, 160, 456
-0.968909, 177, 257, 240, 320
-0.968989, 145, 97, 272, 160
-0.969189, 1, 377, 128, 440
-0.969234, 177, 65, 240, 320
-0.969267, 169, 233, 232, 296
-0.970296, 281, 369, 344, 432
-0.970704, 289, 289, 352, 416
-0.970763, 77, 361, 108, 424
-0.970836, 161, 409, 288, 472
-0.970894, 145, 257, 208, 500
-0.971349, 193, 433, 320, 496
-0.971379, 129, 161, 192, 288
-0.971816, 13, 337, 44, 464
-0.97199, 37, 377, 68, 440
-0.972018, 97, 321, 160, 448
-0.972022, 97, 129, 160, 192
-0.972022, 153, 153, 216, 216
-0.972042, 1, 1, 256, 256
-0.972186, 241, 321, 368, 448
-0.972218, 73, 385, 104, 448
-0.972709, 49, 393, 176, 456
-0.973139, 9, 377, 40, 440
-0.973202, 25, 353, 56, 416
-0.973237, 177, 217, 304, 280
-0.973638, 281, 257, 344, 500
-0.973728, 37, 337, 68, 464
-0.973792, 273, 393, 304, 456
-0.973963, 13, 353, 44, 416
-0.974108, 137, 321, 200, 384
-0.974127, 121, 97, 152, 160
-0.974192, 81, 225, 208, 352
-0.974192, 73, 353, 104, 480
-0.974248, 217, 145, 280, 272
-0.97448, 113, 433, 240, 496
-0.974584, 169, 425, 232, 488
-0.974586, 301, 257, 332, 384
-0.974737, 261, 409, 292, 472
-0.974924, 157, 97, 188, 224
-0.974951, 1, 161, 128, 416
-0.974978, 1, 401, 128, 464
-0.975159, 41, 353, 72, 416
-0.975199, 305, 265, 336, 328
-0.97522, 65, 433, 192, 496
-0.975241, 49, 345, 176, 408
-0.975261, 97, 105, 224, 168
-0.975325, 217, 65, 248, 192
-0.975414, 197, 393, 228, 456
-0.975443, 217, 65, 248, 128
-0.975456, 177, 161, 304, 288
-0.97546, 241, 393, 368, 456
-0.975477, 249, 369, 312, 496
-0.975494, 153, 241, 184, 368
-0.975498, 157, 241, 188, 304
-0.975613, 49, 305, 112, 432
-0.975932, 89, 97, 152, 224
-0.976031, 129, 257, 256, 320
-0.976046, 13, 401, 44, 464
-0.976091, 153, 97, 216, 352
-0.976096, 325, 289, 356, 352
-0.976116, 137, 97, 168, 224
-0.976148, 313, 273, 344, 400
-0.976339, 1, 353, 32, 480
-0.976769, 97, 353, 160, 416
-0.976777, 113, 385, 240, 448
-0.976794, 37, 417, 68, 480
-0.977042, 137, 105, 168, 168
-0.977045, 129, 49, 192, 176
-0.977061, 121, 97, 152, 224
-0.9771, 193, 241, 320, 304
-0.97713, 273, 393, 336, 456
-0.977148, 73, 409, 104, 472
-0.977397, 137, 353, 200, 416
-0.977407, 1, 425, 128, 488
-0.977423, 113, 97, 176, 352
-0.977438, 217, 65, 280, 128
-0.977467, 297, 241, 360, 368
-0.977564, 53, 361, 84, 424
-0.977642, 201, 145, 264, 208
-0.977669, 49, 353, 80, 480
-0.977672, 57, 385, 88, 448
-0.977699, 21, 377, 52, 440
-0.977878, 121, 257, 184, 384
-0.977982, 325, 289, 356, 416
-0.978028, 137, 297, 200, 360
-0.978065, 73, 369, 136, 432
-0.978177, 129, 129, 192, 192
-0.978215, 69, 433, 100, 496
-0.978279, 173, 97, 204, 224
-0.978418, 193, 393, 256, 456
-0.978608, 233, 97, 296, 224
-0.978672, 145, 145, 272, 208
-0.978709, 305, 257, 368, 500
-0.978712, 1, 353, 32, 416
-0.978915, 313, 433, 374, 496
-0.979025, 257, 225, 320, 480
-0.979235, 225, 129, 288, 192
-0.979308, 281, 425, 344, 488
-0.979373, 205, 81, 236, 208
-0.979375, 81, 417, 144, 480
-0.979405, 193, 385, 320, 448
-0.979555, 185, 97, 216, 224
-0.979599, 25, 337, 56, 464
-0.979613, 233, 49, 296, 176
-0.97968, 1, 353, 128, 416
-0.979701, 145, 121, 272, 184
-0.979786, 61, 353, 92, 480
-0.979841, 233, 225, 296, 288
-0.979906, 121, 153, 184, 216
-0.980077, 225, 65, 288, 320
-0.980093, 57, 425, 88, 488
-0.980249, 193, 417, 256, 480
-0.980284, 129, 225, 256, 288
-0.980298, 337, 305, 368, 432
-0.980306, 25, 409, 56, 472
-0.98034, 177, 409, 208, 472
-0.980488, 253, 433, 284, 496
-0.980557, 153, 265, 184, 328
-0.980565, 145, 217, 208, 280
-0.980656, 249, 241, 312, 368
-0.980745, 313, 369, 374, 496
-0.980785, 145, 73, 272, 136
-0.980904, 129, 281, 256, 344
-0.980925, 237, 193, 268, 320
-0.980931, 121, 257, 184, 320
-0.981032, 237, 201, 268, 264
-0.981349, 193, 217, 256, 280
-0.981387, 65, 361, 96, 424
-0.981412, 193, 321, 320, 448
-0.98148, 221, 121, 252, 184
-0.981516, 241, 433, 368, 496
-0.981611, 257, 369, 288, 496
-0.981615, 197, 369, 228, 496
-0.981625, 145, 305, 176, 432
-0.981825, 297, 313, 328, 376
-0.98188, 317, 433, 348, 496
-0.981909, 81, 105, 144, 168
-0.98191, 241, 289, 368, 352
-0.981943, 221, 129, 252, 256
-0.982015, 1, 409, 32, 472
-0.982028, 285, 241, 316, 304
-0.982184, 105, 289, 168, 352
-0.98226, 145, 313, 176, 376
-0.982277, 217, 161, 280, 416
-0.982422, 129, 209, 192, 336
-0.982455, 273, 265, 336, 328
-0.982484, 145, 81, 208, 144
-0.982696, 113, 361, 240, 424
-0.982712, 233, 97, 296, 160
-0.982878, 193, 57, 256, 120
-0.982898, 201, 1, 264, 500
-0.982965, 129, 177, 256, 240
-0.982988, 289, 241, 320, 368
-0.983151, 85, 385, 116, 448
-0.983274, 193, 73, 320, 136
-0.983344, 185, 241, 216, 304
-0.983387, 149, 289, 180, 352
-0.983501, 309, 321, 340, 448
-0.983516, 289, 313, 352, 376
-0.983537, 177, 145, 240, 208
-0.983577, 25, 433, 56, 496
-0.983588, 249, 409, 280, 472
-0.98359, 49, 321, 176, 384
-0.98366, 225, 81, 352, 208
-0.983672, 229, 65, 260, 192
-0.983751, 105, 321, 168, 384
-0.983786, 33, 81, 160, 208
-0.983906, 117, 129, 148, 192
-0.983912, 9, 433, 40, 496
-0.983932, 81, 249, 208, 312
-0.984369, 153, 129, 216, 192
-0.98453, 209, 33, 336, 160
-0.984535, 233, 377, 296, 440
-0.984563, 85, 369, 116, 496
-0.984694, 273, 225, 304, 352
-0.984717, 1, 1, 128, 256
-0.984765, 113, 337, 240, 400
-0.984776, 149, 113, 180, 176
-0.984837, 169, 273, 200, 336
-0.984925, 133, 129, 164, 192
-0.984947, 129, 305, 256, 368
-0.98495, 285, 369, 316, 432
-0.985184, 297, 257, 360, 320
-0.985259, 177, 177, 240, 304
-0.985273, 213, 417, 244, 480
-0.985377, 233, 137, 264, 200
-0.985386, 181, 225, 212, 352
-0.9854, 225, 129, 352, 256
-0.985464, 193, 17, 256, 144
-0.985488, 137, 145, 168, 272
-0.985527, 201, 369, 264, 432
-0.985574, 205, 81, 236, 144
-0.985602, 121, 81, 184, 144
-0.985622, 197, 233, 228, 296
-0.985645, 273, 241, 304, 304
-0.985681, 161, 49, 224, 176
-0.985744, 273, 193, 336, 320
-0.985754, 289, 337, 352, 400
-0.986021, 241, 369, 368, 432
-0.986027, 173, 97, 204, 160
-0.986151, 225, 265, 352, 328
-0.986157, 65, 137, 192, 200
-0.986354, 193, 129, 320, 192
-0.986407, 297, 345, 328, 408
-0.986543, 113, 225, 176, 288
-0.986553, 301, 289, 332, 352
-0.986583, 249, 209, 280, 272
-0.986707, 177, 1, 240, 500
-0.986717, 249, 193, 280, 320
-0.986763, 233, 113, 264, 240
-0.98684, 185, 385, 216, 448
-0.986848, 265, 433, 296, 496
-0.986863, 337, 305, 368, 368
-0.986899, 225, 193, 256, 320
-0.987033, 49, 281, 176, 344
-0.987055, 85, 409, 116, 472
-0.987084, 161, 145, 192, 272
-0.987099, 49, 113, 176, 176
-0.987137, 185, 225, 248, 480
-0.987139, 313, 377, 374, 440
-0.9872, 169, 233, 200, 296
-0.987247, 285, 345, 316, 408
-0.987312, 161, 377, 224, 440
-0.98736, 157, 193, 188, 320
-0.987362, 145, 337, 176, 400
-0.987417, 261, 225, 292, 352
-0.987421, 265, 329, 328, 392
-0.987428, 125, 385, 156, 448
-0.987501, 233, 97, 264, 160
-0.987518, 277, 369, 308, 496
-0.987554, 201, 145, 232, 272
-0.987741, 89, 361, 120, 424
-0.987786, 129, 1, 192, 256
-0.987795, 145, 1, 208, 500
-0.987843, 181, 145, 212, 272
-0.987867, 241, 145, 304, 272
-0.987925, 193, 177, 256, 240
-0.987926, 133, 153, 164, 216
-0.987946, 313, 289, 344, 352
-0.988032, 193, 353, 256, 480
-0.988083, 85, 433, 116, 496
-0.988087, 1, 17, 374, 144
-0.98816, 229, 57, 260, 120
-0.988181, 97, 225, 352, 288
-0.988195, 145, 377, 176, 440
-0.988203, 169, 257, 200, 384
-0.988212, 129, 265, 374, 328
-0.988366, 49, 329, 112, 392
-0.988431, 161, 153, 192, 216
-0.988443, 141, 409, 172, 472
-0.988492, 129, 201, 256, 264
-0.988511, 1, 381, 64, 412
-0.988527, 261, 225, 292, 288
-0.98855, 105, 209, 168, 336
-0.988557, 281, 321, 312, 448
-0.988588, 217, 433, 280, 464
-0.98864, 113, 109, 176, 140
-0.988654, 257, 193, 320, 256
-0.988698, 145, 265, 208, 296
-0.988715, 1, 257, 64, 500
-0.988733, 1, 405, 64, 436
-0.988739, 141, 353, 172, 480
-0.988786, 41, 409, 104, 440
-0.988821, 177, 413, 240, 444
-0.988824, 41, 365, 104, 396
-0.988857, 41, 397, 104, 428
-0.988877, 41, 421, 104, 452
-0.9889, 145, 281, 208, 312
-0.988908, 193, 225, 224, 352
-0.988949, 49, 381, 112, 412
-0.988972, 225, 201, 256, 264
-0.989015, 153, 193, 216, 256
-0.989057, 9, 437, 72, 468
-0.989109, 185, 105, 216, 168
-0.989118, 169, 81, 232, 144
-0.989139, 297, 161, 360, 416
-0.989159, 181, 265, 212, 328
-0.98916, 209, 105, 336, 168
-0.989162, 17, 393, 80, 424
-0.989167, 49, 257, 112, 500
-0.989196, 193, 93, 256, 124
-0.989242, 41, 437, 104, 468
-0.989251, 297, 469, 360, 500
-0.989308, 177, 193, 304, 256
-0.989338, 217, 445, 280, 476
-0.989357, 169, 273, 232, 400
-0.989362, 41, 449, 104, 480
-0.989452, 9, 369, 72, 400
-0.98946, 65, 105, 320, 168
-0.989532, 209, 225, 240, 288
-0.989553, 9, 357, 72, 388
-0.989555, 217, 421, 280, 452
-0.989562, 97, 257, 160, 500
-0.989572, 97, 273, 160, 400
-0.98958, 121, 121, 184, 152
-0.989589, 17, 457, 80, 488
-0.989592, 309, 313, 340, 376
-0.989647, 297, 353, 328, 480
-0.989671, 109, 105, 140, 168
-0.989674, 25, 381, 88, 412
-0.989756, 317, 225, 348, 352
-0.989788, 241, 345, 368, 408
-0.989799, 17, 425, 80, 456
-0.989807, 297, 401, 360, 464
-0.989827, 33, 385, 288, 448
-0.989836, 217, 213, 280, 244
-0.98986, 113, 417, 176, 480
-0.98987, 257, 413, 320, 444
-0.989951, 49, 469, 112, 500
-0.989973, 153, 1, 216, 256
-0.98998, 145, 249, 208, 280
-0.989983, 161, 105, 224, 136
-0.989987, 201, 417, 232, 480
-0.989989, 241, 193, 368, 256
-0.989998, 209, 457, 272, 488
-0.990003, 249, 129, 312, 384
-0.990032, 29, 329, 60, 392
-0.990097, 137, 421, 200, 452
-0.990113, 109, 97, 140, 224
-0.990133, 329, 369, 360, 496
-0.990167, 305, 313, 368, 344
-0.990231, 141, 241, 172, 304
-0.990258, 157, 217, 188, 280
-0.990259, 177, 361, 304, 424
-0.990261, 213, 209, 244, 336
-0.990295, 257, 385, 288, 448
-0.990341, 249, 425, 312, 456
-0.990395, 201, 241, 264, 304
-0.990435, 233, 41, 296, 104
-0.990459, 209, 469, 272, 500
-0.99046, 97, 397, 160, 428
-0.990463, 237, 409, 268, 472
-0.990541, 265, 401, 328, 432
-0.990552, 297, 301, 360, 332
-0.990565, 129, 433, 192, 464
-0.990574, 201, 145, 264, 176
-0.990577, 169, 401, 232, 432
-0.990618, 241, 241, 368, 304
-0.990638, 141, 257, 172, 384
-0.990657, 273, 129, 336, 384
-0.990664, 233, 153, 296, 216
-0.990664, 129, 465, 192, 496
-0.990691, 257, 457, 320, 488
-0.990725, 137, 401, 200, 432
-0.990732, 9, 469, 72, 500
-0.990741, 169, 425, 232, 456
-0.990753, 129, 453, 192, 484
-0.990766, 97, 81, 224, 144
-0.990784, 289, 289, 352, 320
-0.99079, 65, 217, 192, 280
-0.990804, 169, 269, 232, 300
-0.990807, 137, 109, 200, 140
-0.990807, 233, 1, 296, 500
-0.990814, 193, 397, 256, 428
-0.990815, 185, 369, 216, 496
-0.990845, 169, 469, 232, 500
-0.990868, 201, 81, 264, 112
-0.990893, 65, 409, 128, 440
-0.990896, 305, 457, 368, 488
-0.990923, 317, 265, 348, 328
-0.990931, 65, 397, 128, 428
-0.990933, 65, 369, 128, 400
-0.990958, 201, 133, 264, 164
-0.990984, 1, 385, 374, 448
-0.990987, 129, 369, 160, 496
-0.990987, 313, 325, 374, 356
-0.990998, 153, 157, 216, 188
-0.991048, 65, 425, 128, 456
-0.991065, 193, 105, 256, 136
-0.991075, 33, 129, 160, 256
-0.991084, 209, 409, 272, 440
-0.991121, 257, 353, 320, 416
-0.991128, 241, 437, 304, 468
-0.99117, 257, 249, 320, 280
-0.991214, 133, 281, 164, 344
-0.991237, 257, 469, 320, 500
-0.991262, 97, 409, 352, 472
-0.991277, 169, 457, 232, 488
-0.991291, 137, 341, 200, 372
-0.991293, 281, 389, 344, 420
-0.991295, 153, 237, 216, 268
-0.991299, 225, 409, 256, 472
-0.991304, 89, 385, 152, 416
-0.991323, 97, 369, 160, 400
-0.991332, 297, 305, 328, 432
-0.991367, 137, 329, 200, 360
-0.991374, 185, 153, 216, 216
-0.991391, 89, 117, 152, 148
-0.991404, 285, 321, 316, 384
-0.991414, 137, 357, 200, 388
-0.991429, 273, 265, 336, 296
-0.991438, 241, 401, 304, 432
-0.99149, 1, 361, 256, 424
-0.991512, 221, 97, 252, 160
-0.99152, 137, 145, 200, 176
-0.991524, 129, 289, 374, 352
-0.991551, 225, 65, 288, 96
-0.991554, 129, 97, 192, 128
-0.991584, 169, 441, 232, 472
-0.991588, 33, 353, 96, 384
-0.991597, 89, 133, 152, 164
-0.991612, 185, 253, 248, 284
-0.991619, 65, 457, 128, 488
-0.991621, 173, 153, 204, 216
-0.991638, 145, 309, 208, 340
-0.991668, 145, 293, 208, 324
-0.991683, 1, 241, 374, 304
-0.991698, 273, 1, 336, 500
-0.991727, 233, 233, 296, 264
-0.991727, 273, 289, 336, 352
-0.991753, 265, 305, 328, 432
-0.991758, 97, 409, 160, 440
-0.991762, 137, 385, 200, 416
-0.991763, 177, 237, 240, 268
-0.991764, 73, 445, 136, 476
-0.991774, 313, 1, 374, 500
-0.991785, 81, 161, 208, 224
-0.991792, 309, 337, 340, 400
-0.991799, 257, 217, 320, 280
-0.991802, 241, 433, 272, 496
-0.991815, 281, 277, 344, 308
-0.991845, 9, 329, 40, 392
-0.991868, 225, 137, 288, 168
-0.991869, 113, 257, 176, 288
-0.991872, 105, 293, 168, 324
-0.991877, 329, 377, 360, 440
-0.991895, 185, 157, 248, 188
-0.991898, 113, 269, 176, 300
-0.99193, 89, 105, 152, 136
-0.991934, 137, 369, 200, 400
-0.991939, 281, 457, 344, 488
-0.991946, 105, 325, 168, 356
-0.991949, 161, 105, 192, 168
-0.991963, 245, 145, 276, 272
-0.991972, 121, 257, 184, 500
-0.991999, 313, 281, 374, 312
-0.99202, 201, 121, 264, 152
-0.992076, 81, 49, 208, 176
-0.992104, 105, 337, 168, 368
-0.992146, 265, 441, 328, 472
-0.992163, 125, 105, 156, 136
-0.992173, 121, 133, 184, 164
-0.99219, 105, 349, 168, 380
-0.992197, 225, 109, 288, 140
-0.99223, 281, 377, 344, 408
-0.992241, 1, 345, 64, 376
-0.992244, 125, 145, 156, 272
-0.992277, 33, 89, 160, 152
-0.992279, 285, 393, 316, 456
-0.992283, 25, 429, 56, 460
-0.992318, 37, 377, 68, 408
-0.992323, 113, 157, 176, 188
-0.992326, 193, 401, 224, 432
-0.992329, 69, 453, 100, 484
-0.99234, 113, 281, 176, 312
-0.992341, 77, 393, 108, 424
-0.992343, 345, 377, 374, 440
-0.992358, 289, 401, 352, 432
-0.992359, 169, 281, 232, 344
-0.992362, 313, 445, 374, 476
-0.992365, 69, 421, 100, 452
-0.992367, 105, 313, 168, 344
-0.992372, 149, 81, 180, 144
-0.992374, 225, 77, 288, 108
-0.992382, 29, 405, 60, 436
-0.992383, 69, 433, 100, 464
-0.992383, 33, 393, 64, 424
-0.992386, 49, 385, 176, 416
-0.992388, 89, 457, 152, 488
-0.99239, 169, 93, 232, 124
-0.992407, 257, 413, 288, 444
-0.992407, 145, 105, 272, 136
-0.992412, 17, 385, 48, 416
-0.992423, 153, 401, 184, 464
-0.992426, 213, 377, 244, 440
-0.992432, 221, 73, 252, 104
-0.992434, 273, 401, 304, 432
-0.992439, 193, 69, 256, 100
-0.992447, 9, 357, 40, 388
-0.99245, 193, 425, 256, 456
-0.992454, 21, 357, 52, 388
-0.992454, 21, 373, 52, 404
-0.992461, 153, 277, 184, 308
-0.992465, 73, 409, 104, 440
-0.992477, 313, 269, 374, 300
-0.99248, 233, 457, 296, 488
-0.992487, 5, 377, 36, 408
-0.992489, 253, 433, 284, 464
-0.992494, 225, 97, 288, 128
-0.9925, 1, 389, 32, 420
-0.992504, 73, 365, 104, 396
-0.99251, 121, 117, 152, 148
-0.992525, 33, 441, 64, 472
-0.992539, 89, 429, 152, 460
-0.992546, 313, 457, 344, 488
-0.99255, 13, 401, 44, 432
-0.992551, 309, 285, 340, 316
-0.992554, 313, 385, 374, 416
-0.992555, 41, 361, 72, 392
-0.992557, 25, 453, 56, 484
-0.992558, 49, 397, 80, 428
-0.992558, 281, 413, 344, 444
-0.992564, 137, 109, 168, 140
-0.992568, 37, 417, 68, 448
-0.992573, 65, 385, 96, 416
-0.992573, 325, 301, 356, 332
-0.992574, 13, 445, 44, 476
-0.992587, 65, 469, 96, 500
-0.992588, 97, 145, 160, 176
-0.992589, 281, 341, 344, 372
-0.992591, 17, 417, 48, 448
-0.992598, 133, 81, 164, 144
-0.992614, 305, 469, 336, 500
-0.992634, 49, 425, 80, 456
-0.992643, 257, 445, 288, 476
-0.992643, 1, 361, 374, 424
-0.992649, 249, 469, 280, 500
-0.99265, 17, 469, 48, 500
-0.992651, 241, 209, 272, 240
-0.992666, 57, 373, 88, 404
-0.992676, 49, 413, 80, 444
-0.992683, 225, 133, 256, 164
-0.992689, 269, 413, 300, 444
-0.992697, 301, 273, 332, 304
-0.992698, 53, 445, 84, 476
-0.992702, 1, 449, 32, 480
-0.99271, 165, 269, 196, 300
-0.992715, 29, 465, 60, 496
-0.992717, 1, 413, 32, 444
-0.992717, 53, 361, 84, 392
-0.99272, 9, 433, 40, 464
-0.992721, 325, 465, 356, 496
-0.992721, 5, 469, 36, 500
-0.992725, 169, 105, 200, 136
-0.992729, 153, 249, 184, 280
-0.992731, 53, 385, 84, 416
-0.992743, 53, 457, 84, 488
-0.992746, 65, 397, 96, 428
-0.992749, 341, 369, 372, 496
-0.992754, 77, 381, 108, 412
-0.992787, 97, 433, 352, 496
-0.992796, 125, 129, 156, 160
-0.992798, 149, 113, 180, 144
-0.992803, 129, 329, 160, 392
-0.992835, 121, 1, 184, 500
-0.992838, 285, 249, 316, 280
-0.992841, 177, 413, 208, 444
-0.992863, 61, 409, 92, 440
-0.992879, 177, 269, 208, 300
-0.992881, 1, 401, 32, 432
-0.992885, 153, 265, 184, 296
-0.992898, 253, 457, 284, 488
-0.992899, 41, 453, 72, 484
-0.99291, 217, 85, 248, 116
-0.992916, 37, 429, 68, 460
-0.992918, 265, 433, 296, 464
-0.992921, 185, 253, 216, 284
-0.992928, 205, 461, 236, 492
-0.992936, 321, 289, 352, 320
-0.992939, 149, 313, 180, 344
-0.992939, 49, 469, 80, 500
-0.992954, 85, 437, 116, 468
-0.992957, 113, 137, 144, 168
-0.992958, 281, 389, 312, 420
-0.992967, 133, 49, 164, 176
-0.992972, 237, 137, 268, 168
-0.992977, 153, 289, 184, 320
-0.99298, 33, 397, 160, 428
-0.992983, 245, 421, 276, 452
-0.992983, 297, 325, 328, 356
-0.992985, 113, 417, 240, 448
-0.992987, 297, 261, 328, 292
-0.992993, 261, 401, 292, 432
-0.992996, 89, 401, 120, 432
-0.993006, 85, 413, 116, 444
-0.993017, 145, 341, 176, 372
-0.993017, 145, 329, 176, 360
-0.993021, 205, 89, 236, 120
-0.993022, 233, 117, 264, 148
-0.993044, 237, 61, 268, 92
-0.993047, 329, 241, 360, 368
-0.993048, 273, 245, 304, 276
-0.993049, 1, 329, 128, 392
-0.993049, 161, 421, 288, 452
-0.993068, 297, 241, 328, 304
-0.993077, 81, 457, 112, 488
-0.993079, 133, 293, 164, 324
-0.993083, 149, 137, 180, 200
-0.993085, 173, 433, 204, 496
-0.993087, 201, 417, 232, 448
-0.99309, 293, 337, 324, 368
-0.993092, 193, 257, 320, 384
-0.993098, 289, 349, 320, 380
-0.993102, 89, 81, 152, 144
-0.993104, 89, 389, 120, 420
-0.99311, 125, 401, 156, 432
-0.993113, 141, 385, 172, 416
-0.993119, 149, 301, 180, 332
-0.993121, 245, 445, 276, 476
-0.993123, 145, 417, 176, 448
-0.993126, 341, 317, 372, 348
-0.993128, 201, 245, 232, 276
-0.993132, 1, 465, 128, 496
-0.993133, 213, 405, 244, 436
-0.993133, 21, 345, 52, 376
-0.993135, 85, 425, 116, 456
-0.99314, 113, 401, 240, 432
-0.993147, 329, 313, 360, 344
-0.993147, 169, 281, 200, 312
-0.993149, 13, 457, 44, 488
-0.993149, 97, 345, 352, 408
-0.993154, 77, 469, 108, 500
-0.993159, 229, 205, 260, 236
-0.99316, 137, 125, 168, 156
-0.993165, 261, 233, 292, 264
-0.993176, 225, 61, 256, 92
-0.993178, 137, 261, 168, 292
-0.993185, 241, 433, 272, 464
-0.993185, 169, 57, 232, 120
-0.993186, 249, 221, 280, 252
-0.993188, 85, 369, 116, 400
-0.993193, 217, 425, 248, 456
-0.993195, 185, 105, 216, 136
-0.993196, 113, 469, 240, 500
-0.993202, 1, 345, 32, 376
-0.993204, 49, 369, 176, 400
-0.993224, 153, 425, 184, 488
-0.993269, 241, 313, 368, 376
-0.99327, 97, 57, 224, 120
-0.993274, 165, 409, 196, 472
-0.99329, 209, 169, 336, 232
-0.993361, 197, 145, 228, 208
-0.993366, 217, 17, 248, 144
-0.993371, 97, 385, 128, 448
-0.993399, 305, 233, 368, 296
-0.993409, 1, 337, 256, 400
-0.993422, 273, 369, 304, 432
-0.993425, 129, 321, 160, 448
-0.993425, 65, 129, 320, 192
-0.993465, 49, 305, 80, 432
-0.993513, 53, 337, 84, 400
-0.993544, 21, 289, 52, 416
-0.993545, 65, 465, 192, 496
-0.993599, 49, 413, 176, 444
-0.993624, 1, 321, 64, 384
-0.993629, 1, 305, 32, 432
-0.993648, 1, 413, 128, 444
-0.993657, 113, 457, 240, 488
-0.993671, 285, 193, 316, 320
-0.993674, 185, 73, 216, 136
-0.993723, 1, 385, 128, 416
-0.993731, 277, 385, 292, 448
-0.993737, 241, 217, 368, 280
-0.993774, 125, 105, 140, 168
-0.993859, 161, 433, 288, 464
-0.993862, 329, 417, 360, 480
-0.993891, 193, 449, 320, 480
-0.993929, 217, 425, 232, 488
-0.993934, 129, 313, 374, 376
-0.993938, 1, 453, 128, 484
-0.993945, 265, 177, 296, 304
-0.993965, 169, 209, 200, 336
-0.993966, 43, 353, 58, 416
-0.993992, 25, 225, 88, 480
-0.994003, 25, 361, 40, 424
-0.994037, 91, 361, 106, 424
-0.994074, 97, 353, 128, 480
-0.99413, 241, 321, 304, 448
-0.994144, 81, 49, 144, 176
-0.994167, 269, 401, 284, 464
-0.994179, 1, 409, 256, 472
-0.994185, 1, 433, 256, 496
-0.994193, 25, 321, 88, 384
-0.994195, 113, 445, 240, 476
-0.994205, 305, 433, 336, 496
-0.994234, 97, 201, 352, 264
-0.994241, 309, 361, 340, 424
-0.994244, 241, 65, 272, 128
-0.99425, 33, 385, 48, 448
-0.994269, 305, 209, 336, 336
-0.994291, 145, 93, 272, 124
-0.994291, 229, 177, 260, 240
-0.994325, 49, 357, 176, 388
-0.994328, 203, 385, 218, 448
-0.994332, 273, 209, 304, 272
-0.994337, 233, 177, 296, 240
-0.99437, 235, 105, 250, 168
-0.994373, 193, 409, 320, 440
-0.994374, 1, 265, 374, 328
-0.994385, 145, 161, 176, 224
-0.994406, 257, 417, 272, 480
-0.994417, 65, 377, 80, 440
-0.99442, 65, 73, 320, 136
-0.994451, 49, 449, 176, 480
-0.994483, 157, 353, 188, 480
-0.994512, 311, 265, 326, 328
-0.994514, 209, 369, 240, 496
-0.994518, 97, 109, 224, 140
-0.99456, 229, 65, 244, 128
-0.994566, 133, 113, 148, 176
-0.994567, 33, 353, 48, 416
-0.994588, 169, 129, 200, 192
-0.994606, 1, 437, 128, 468
-0.994608, 317, 369, 348, 496
-0.994624, 83, 361, 98, 424
-0.994636, 49, 437, 176, 468
-0.994638, 1, 369, 128, 400
-0.994646, 113, 429, 240, 460
-0.994657, 89, 385, 104, 448
-0.99467, 97, 153, 352, 216
-0.994679, 155, 273, 170, 336
-0.994705, 177, 409, 192, 472
-0.994712, 161, 461, 288, 492
-0.994717, 209, 49, 336, 112
-0.99473, 281, 217, 344, 280
-0.994783, 105, 161, 168, 288
-0.994793, 13, 353, 28, 416
-0.994821, 89, 417, 104, 480
-0.994837, 319, 281, 334, 344
-0.994857, 49, 353, 64, 416
-0.994913, 23, 401, 38, 464
-0.994934, 129, 257, 256, 288
-0.994945, 7, 369, 22, 432
-0.994945, 73, 345, 136, 408
-0.994946, 193, 245, 320, 276
-0.994957, 19, 361, 34, 424
-0.994961, 41, 393, 56, 456
-0.994982, 129, 157, 256, 188
-0.994984, 69, 337, 100, 400
-0.994991, 65, 425, 192, 456
-0.994995, 345, 241, 374, 368
-0.995002, 225, 65, 256, 320
-0.995013, 59, 417, 74, 480
-0.995042, 121, 49, 152, 176
-0.995054, 113, 177, 176, 240
-0.995055, 83, 417, 98, 480
-0.99507, 53, 377, 68, 440
-0.995072, 283, 385, 298, 448
-0.99508, 267, 425, 282, 488
-0.995124, 177, 229, 304, 260
-0.995143, 173, 49, 204, 176
-0.995143, 1, 217, 374, 280
-0.995152, 77, 361, 92, 424
-0.99516, 59, 353, 74, 416
-0.995162, 325, 281, 340, 344
-0.995171, 129, 281, 256, 312
-0.995178, 1, 337, 374, 400
-0.995181, 1, 353, 16, 416
-0.995191, 245, 369, 276, 496
-0.995204, 33, 409, 48, 472
-0.99521, 173, 369, 204, 496
-0.995221, 231, 129, 246, 192
-0.995223, 241, 469, 368, 500
-0.995227, 155, 249, 170, 312
-0.995231, 129, 241, 256, 272
-0.995236, 241, 401, 368, 432
-0.995236, 275, 409, 290, 472
-0.995248, 129, 377, 374, 440
-0.995251, 149, 145, 180, 272
-0.995258, 193, 397, 320, 428
-0.99528, 1, 409, 374, 472
-0.995283, 23, 433, 38, 496
-0.995286, 225, 421, 352, 452
-0.995288, 303, 257, 318, 320
-0.995297, 69, 401, 84, 464
-0.995298, 113, 389, 240, 420
-0.995318, 65, 193, 192, 256
-0.995333, 129, 241, 160, 368
-0.995357, 139, 121, 154, 184
-0.995399, 193, 321, 320, 384
-0.995409, 83, 385, 98, 448
-0.995412, 125, 353, 156, 416
-0.995416, 59, 377, 74, 440
-0.995417, 17, 401, 32, 464
-0.995422, 33, 1, 288, 128
-0.995444, 1, 425, 128, 456
-0.995444, 211, 409, 226, 472
-0.995448, 5, 393, 20, 456
-0.995465, 13, 377, 28, 440
-0.995482, 1, 241, 256, 304
-0.995505, 49, 345, 176, 376
-0.99551, 71, 361, 86, 424
-0.99553, 145, 129, 272, 160
-0.995538, 297, 369, 328, 432
-0.995557, 241, 433, 368, 464
-0.995599, 241, 129, 256, 192
-0.995603, 129, 409, 160, 472
-0.995618, 197, 209, 228, 272
-0.995668, 241, 49, 272, 176
-0.995672, 173, 241, 188, 304
-0.995679, 149, 313, 164, 376
-0.995689, 97, 1, 160, 500
-0.995691, 263, 401, 278, 464
-0.995698, 205, 65, 236, 320
-0.995704, 297, 249, 312, 312
-0.995714, 323, 433, 338, 496
-0.995716, 273, 345, 304, 408
-0.99572, 177, 217, 304, 248
-0.99575, 291, 241, 306, 304
-0.995777, 141, 193, 172, 320
-0.995784, 51, 401, 66, 464
-0.995787, 45, 417, 60, 480
-0.995799, 129, 145, 256, 176
-0.995805, 189, 49, 220, 176
-0.99582, 331, 289, 346, 352
-0.995837, 129, 269, 256, 300
-0.995843, 145, 117, 272, 148
-0.995856, 181, 265, 196, 328
-0.995919, 3, 417, 18, 480
-0.995949, 75, 425, 90, 488
-0.99602, 197, 385, 212, 448
-0.996037, 177, 265, 304, 328
-0.996061, 97, 121, 224, 152
-0.99607, 15, 425, 30, 488
-0.996076, 241, 201, 256, 264
-0.996096, 97, 153, 160, 216
-0.996138, 39, 417, 54, 480
-0.996138, 127, 129, 142, 192
-0.996142, 205, 89, 220, 152
-0.996157, 73, 305, 104, 432
-0.996162, 23, 337, 38, 400
-0.996176, 75, 385, 90, 448
-0.996194, 193, 89, 320, 120
-0.996199, 187, 249, 202, 312
-0.996201, 191, 401, 206, 464
-0.996206, 247, 201, 262, 264
-0.996209, 251, 425, 266, 488
-0.996229, 307, 313, 322, 376
-0.996253, 233, 369, 264, 496
-0.996263, 137, 385, 152, 448
-0.99627, 241, 305, 368, 336
-0.996272, 301, 321, 316, 384
-0.996276, 209, 257, 336, 288
-0.996293, 179, 97, 194, 160
-0.996297, 139, 97, 154, 160
-0.9963, 145, 49, 176, 176
-0.996328, 1, 313, 256, 376
-0.996352, 281, 241, 296, 304
-0.996365, 149, 241, 164, 304
-0.996368, 145, 369, 160, 432
-0.996372, 235, 57, 250, 120
-0.996374, 269, 233, 284, 296
-0.996375, 81, 265, 208, 296
-0.996377, 309, 257, 340, 500
-0.996378, 9, 425, 24, 488
-0.996387, 69, 425, 84, 488
-0.996403, 241, 445, 368, 476
-0.996407, 257, 209, 272, 272
-0.996408, 299, 345, 314, 408
-0.996446, 131, 89, 146, 152
-0.996459, 145, 205, 272, 236
-0.996471, 161, 241, 176, 304
-0.996497, 181, 233, 196, 296
-0.996499, 47, 377, 62, 440
-0.996505, 29, 433, 44, 496
-0.996513, 51, 433, 66, 496
-0.99652, 1, 433, 374, 496
-0.996521, 145, 409, 160, 472
-0.99655, 237, 97, 268, 352
-0.996558, 193, 65, 224, 320
-0.996558, 317, 433, 332, 496
-0.996559, 345, 305, 360, 368
-0.99659, 121, 201, 184, 264
-0.996626, 167, 105, 182, 168
-0.996629, 161, 97, 192, 352
-0.996647, 215, 81, 230, 144
-0.99666, 175, 265, 190, 328
-0.996684, 95, 385, 110, 448
-0.996689, 339, 297, 354, 360
-0.99669, 177, 65, 208, 320
-0.996697, 49, 105, 176, 136
-0.996697, 225, 285, 352, 316
-0.996723, 1, 357, 128, 388
-0.996725, 263, 217, 278, 280
-0.996731, 113, 377, 240, 408
-0.996738, 129, 293, 256, 324
-0.996748, 151, 105, 166, 168
-0.996754, 203, 225, 218, 288
-0.996761, 43, 361, 58, 392
-0.996761, 113, 321, 240, 352
-0.996761, 241, 457, 368, 488
-0.996767, 185, 401, 200, 464
-0.996777, 297, 257, 328, 500
-0.996795, 351, 313, 366, 376
-0.996799, 1, 273, 256, 336
-0.996802, 97, 177, 352, 240
-0.996812, 223, 417, 238, 480
-0.996815, 113, 361, 240, 392
-0.996828, 113, 341, 240, 372
-0.996843, 285, 225, 316, 480
-0.996845, 149, 289, 164, 352
-0.996847, 273, 225, 304, 480
-0.996861, 7, 345, 22, 408
-0.996862, 359, 329, 374, 392
-0.996863, 221, 369, 252, 496
-0.996869, 145, 49, 272, 112
-0.99687, 241, 57, 256, 120
-0.996886, 209, 225, 224, 288
-0.996891, 129, 309, 256, 340
-0.996896, 11, 401, 26, 464
-0.9969, 147, 337, 162, 400
-0.996915, 313, 297, 328, 360
-0.996937, 275, 241, 290, 304
-0.996947, 319, 305, 334, 368
-0.996955, 133, 65, 164, 320
-0.996974, 33, 329, 48, 392
-0.996985, 167, 241, 182, 304
-0.996987, 209, 117, 336, 148
-0.996989, 223, 73, 238, 136
-0.996998, 133, 137, 148, 200
-0.997012, 129, 229, 256, 260
-0.997015, 197, 105, 212, 168
-0.997016, 177, 141, 304, 172
-0.997022, 65, 277, 192, 308
-0.997029, 311, 337, 326, 400
-0.997029, 65, 293, 192, 324
-0.997032, 119, 105, 134, 168
-0.997033, 203, 393, 218, 424
-0.997046, 287, 361, 302, 424
-0.997072, 235, 201, 250, 264
-0.997077, 65, 149, 192, 180
-0.997078, 185, 321, 216, 448
-0.997104, 267, 409, 282, 440
-0.997148, 251, 469, 266, 500
-0.997155, 13, 357, 28, 388
-0.997162, 49, 333, 176, 364
-0.997166, 257, 433, 272, 464
-0.997166, 161, 49, 192, 176
-0.997169, 225, 273, 352, 304
-0.99717, 193, 73, 320, 104
-0.997183, 277, 397, 292, 428
-0.997204, 145, 73, 272, 104
-0.997241, 1, 289, 374, 352
-0.997249, 41, 381, 56, 412
-0.997263, 41, 405, 56, 436
-0.997267, 233, 137, 248, 168
-0.997281, 127, 105, 142, 136
-0.997287, 181, 269, 196, 300
-0.997293, 123, 117, 138, 148
-0.997299, 241, 389, 368, 420
-0.997307, 145, 193, 272, 224
-0.99731, 97, 93, 224, 124
-0.997312, 241, 229, 368, 260
-0.99732, 91, 385, 106, 416
-0.997323, 313, 345, 374, 408
-0.997323, 93, 373, 108, 404
-0.997339, 97, 133, 224, 164
-0.997341, 11, 377, 26, 408
-0.997367, 231, 65, 246, 96
-0.997369, 43, 393, 58, 424
-0.997374, 1, 137, 374, 200
-0.997375, 1, 273, 128, 400
-0.997386, 83, 441, 98, 472
-0.997386, 27, 453, 42, 484
-0.997389, 321, 453, 336, 484
-0.997393, 149, 257, 180, 500
-0.997405, 331, 297, 346, 328
-0.997405, 85, 429, 100, 460
-0.997412, 261, 445, 276, 476
-0.997416, 89, 397, 104, 428
-0.997418, 35, 429, 50, 460
-0.99742, 323, 289, 338, 320
-0.997421, 255, 457, 270, 488
-0.997423, 71, 365, 86, 396
-0.997437, 31, 385, 46, 416
-0.997444, 87, 409, 102, 440
-0.997444, 35, 409, 50, 440
-0.997453, 37, 393, 52, 424
-0.997454, 29, 441, 44, 472
-0.997455, 27, 401, 42, 432
-0.997462, 185, 33, 248, 96
-0.997469, 261, 417, 276, 448
-0.997476, 129, 217, 256, 248
-0.99749, 241, 65, 304, 128
-0.997491, 49, 1, 112, 500
-0.997495, 313, 273, 328, 304
-0.997512, 137, 105, 152, 136
-0.997521, 35, 441, 50, 472
-0.997531, 81, 457, 96, 488
-0.997535, 129, 169, 256, 200
-0.997539, 23, 357, 38, 388
-0.997541, 15, 401, 30, 432
-0.997557, 13, 413, 28, 444
-0.997565, 321, 257, 352, 500
-0.997566, 1, 153, 256, 216
-0.99757, 153, 281, 168, 312
-0.997579, 49, 393, 64, 424
-0.997586, 257, 469, 272, 500
-0.997588, 15, 389, 30, 420
-0.997589, 9, 437, 24, 468
-0.997592, 65, 305, 192, 336
-0.997606, 41, 417, 56, 448
-0.997617, 23, 469, 38, 500
-0.997619, 81, 397, 96, 428
-0.997622, 239, 137, 254, 168
-0.997626, 241, 217, 368, 248
-0.997628, 75, 445, 90, 476
-0.997636, 329, 461, 344, 492
-0.997638, 305, 193, 368, 320
-0.997645, 83, 469, 98, 500
-0.997652, 65, 253, 192, 284
-0.997653, 177, 417, 192, 448
-0.997654, 225, 205, 352, 236
-0.997662, 267, 433, 282, 464
-0.997668, 55, 405, 70, 436
-0.99767, 17, 469, 32, 500
-0.99767, 89, 1, 152, 256
-0.997682, 25, 389, 40, 420
-0.997703, 143, 109, 158, 140
-0.997709, 313, 457, 328, 488
-0.997712, 209, 129, 336, 160
-0.997716, 21, 433, 36, 464
-0.99772, 9, 425, 24, 456
-0.997721, 255, 445, 270, 476
-0.997723, 69, 385, 84, 416
-0.997729, 67, 445, 82, 476
-0.997731, 19, 377, 34, 408
-0.997738, 49, 321, 176, 352
-0.99774, 33, 361, 48, 392
-0.99774, 23, 421, 38, 452
-0.997743, 81, 409, 96, 440
-0.997748, 67, 457, 82, 488
-0.997758, 245, 137, 260, 168
-0.997759, 305, 465, 320, 496
-0.99776, 189, 225, 220, 480
-0.997768, 57, 457, 72, 488
-0.997768, 177, 153, 304, 184
-0.997768, 9, 389, 24, 420
-0.997773, 73, 457, 88, 488
-0.997775, 3, 437, 18, 468
-0.997776, 335, 469, 350, 500
-0.997781, 133, 129, 148, 160
-0.997787, 153, 305, 168, 336
-0.997794, 91, 421, 106, 452
-0.997804, 77, 433, 92, 464
-0.997805, 319, 277, 334, 308
-0.997808, 241, 377, 368, 408
-0.997812, 79, 421, 94, 452
-0.997817, 3, 405, 18, 436
-0.997817, 217, 449, 232, 480
-0.997819, 43, 441, 58, 472
-0.997821, 193, 101, 320, 132
-0.997821, 333, 257, 364, 500
-0.997823, 213, 421, 228, 452
-0.997829, 193, 385, 320, 416
-0.99783, 249, 129, 280, 384
-0.99783, 61, 305, 92, 432
-0.997832, 41, 429, 56, 460
-0.997836, 1, 193, 374, 256
-0.997841, 235, 125, 250, 156
-0.997841, 1, 217, 256, 280
-0.997849, 9, 1, 72, 500
-0.997849, 55, 393, 70, 424
-0.997857, 59, 437, 74, 468
-0.997859, 237, 61, 252, 92
-0.99786, 15, 445, 30, 476
-0.997861, 63, 361, 78, 392
-0.997871, 77, 365, 92, 396
-0.997874, 29, 417, 44, 448
-0.997877, 307, 265, 322, 296
-0.997878, 87, 365, 102, 396
-0.997879, 27, 373, 42, 404
-0.99788, 283, 397, 298, 428
-0.997883, 275, 413, 290, 444
-0.997884, 1, 193, 256, 256
-0.997889, 65, 397, 80, 428
-0.997891, 5, 449, 20, 480
-0.997893, 49, 437, 64, 468
-0.997897, 211, 457, 226, 488
-0.997905, 271, 397, 286, 428
-0.997912, 3, 357, 18, 388
-0.997914, 49, 417, 64, 448
-0.997918, 83, 381, 98, 412
-0.997918, 293, 249, 308, 280
-0.997923, 49, 121, 176, 152
-0.997924, 127, 129, 142, 160
-0.997924, 21, 401, 36, 432
-0.997931, 33, 453, 48, 484
-0.997938, 49, 361, 64, 392
-0.997944, 121, 65, 152, 320
-0.997947, 59, 425, 74, 456
-0.997948, 49, 405, 64, 436
-0.997949, 29, 429, 44, 460
-0.997954, 33, 373, 48, 404
-0.997956, 93, 409, 108, 440
-0.997956, 73, 409, 88, 440
-0.997957, 9, 401, 24, 432
-0.997959, 89, 441, 104, 472
-0.997967, 65, 425, 80, 456
-0.997969, 155, 249, 170, 280
-0.99797, 15, 425, 30, 456
-0.997977, 5, 377, 20, 408
-0.997978, 157, 269, 172, 300
-0.997988, 75, 397, 90, 428
-0.997996, 149, 161, 180, 416
-0.998012, 65, 233, 192, 264
-0.998063, 33, 133, 160, 164
-0.998065, 193, 297, 320, 360
-0.998098, 345, 257, 374, 500
-0.998102, 137, 161, 168, 416
-0.998122, 81, 161, 208, 192
-0.998133, 241, 317, 368, 348
-0.998187, 225, 161, 256, 416
-0.99819, 261, 225, 292, 480
-0.998196, 161, 321, 224, 448
-0.998207, 105, 49, 136, 176
-0.998218, 129, 181, 256, 212
-0.99823, 301, 161, 332, 416
-0.998244, 1, 113, 374, 176
-0.998267, 161, 225, 192, 480
-0.998273, 225, 141, 352, 172
-0.998298, 145, 65, 176, 320
-0.998352, 261, 321, 292, 448
-0.99839, 85, 321, 116, 448
-0.998394, 9, 377, 72, 392
-0.998405, 33, 369, 96, 384
-0.998405, 145, 277, 208, 292
-0.998406, 1, 389, 64, 404
-0.998408, 169, 419, 232, 434
-0.998417, 41, 405, 104, 420
-0.998418, 41, 393, 104, 408
-0.998419, 297, 483, 360, 498
-0.998419, 217, 437, 280, 452
-0.99842, 9, 365, 72, 380
-0.99842, 145, 269, 208, 284
-0.998429, 1, 401, 64, 416
-0.998432, 33, 381, 96, 396
-0.998439, 49, 443, 112, 458
-0.998441, 17, 415, 80, 430
-0.998444, 201, 17, 232, 144
-0.998448, 113, 109, 176, 124
-0.998453, 193, 101, 256, 116
-0.998453, 297, 477, 360, 492
-0.998455, 169, 413, 232, 428
-0.998458, 113, 115, 176, 130
-0.998458, 25, 453, 56, 468
-0.998459, 177, 225, 208, 480
-0.998459, 65, 397, 96, 412
-0.998461, 25, 425, 88, 440
-0.998462, 149, 285, 180, 300
-0.998462, 329, 309, 360, 324
-0.998463, 1, 423, 64, 438
-0.998463, 69, 469, 100, 484
-0.998463, 217, 431, 280, 446
-0.998463, 237, 193, 268, 448
-0.998463, 5, 389, 36, 404
-0.998463, 21, 415, 52, 430
-0.998464, 1, 353, 32, 368
-0.998465, 41, 417, 104, 432
-0.998465, 5, 485, 36, 500
-0.998466, 217, 87, 248, 102
-0.998466, 317, 473, 348, 488
-0.998467, 61, 365, 92, 380
-0.998467, 33, 437, 96, 452
-0.998468, 9, 459, 40, 474
-0.99847, 21, 479, 52, 494
-0.998471, 57, 385, 120, 400
-0.998471, 1, 383, 64, 398
-0.998471, 305, 283, 336, 298
-0.998472, 9, 473, 40, 488
-0.998472, 73, 445, 104, 460
-0.998473, 1, 395, 64, 410
-0.998475, 149, 293, 180, 308
-0.998475, 249, 473, 280, 488
-0.998475, 25, 441, 56, 456
-0.998479, 1, 447, 64, 462
-0.99848, 205, 465, 236, 480
-0.99848, 13, 451, 44, 466
-0.99848, 325, 479, 356, 494
-0.998485, 49, 469, 112, 484
-0.998486, 57, 385, 88, 400
-0.998486, 1, 411, 32, 426
-0.998487, 33, 463, 96, 478
-0.998487, 25, 453, 88, 468
-0.998488, 33, 417, 64, 432
-0.998488, 1, 437, 64, 452
-0.998488, 5, 377, 36, 392
-0.998489, 21, 459, 52, 474
-0.998489, 41, 359, 72, 374
-0.998489, 1, 313, 374, 376
-0.99849, 17, 485, 48, 500
-0.99849, 145, 283, 208, 298
-0.998491, 225, 423, 288, 438
-0.998491, 37, 449, 68, 464
-0.998493, 61, 431, 92, 446
-0.998494, 149, 115, 180, 130
-0.998494, 45, 399, 76, 414
-0.998495, 117, 121, 148, 136
-0.998495, 217, 445, 280, 460
-0.998495, 201, 95, 264, 110
-0.998496, 69, 463, 100, 478
-0.998496, 41, 437, 72, 452
-0.998496, 137, 421, 200, 436
-0.998496, 49, 451, 112, 466
-0.998497, 17, 433, 48, 448
-0.998498, 25, 399, 88, 414
-0.998498, 53, 463, 84, 478
-0.998499, 49, 431, 112, 446
-0.998501, 253, 439, 284, 454
-0.998503, 305, 481, 336, 496
-0.998504, 61, 407, 92, 422
-0.998504, 209, 467, 272, 482
-0.998505, 153, 253, 184, 268
-0.998505, 77, 391, 108, 406
-0.998505, 9, 459, 72, 474
-0.998507, 173, 107, 204, 122
-0.998507, 21, 355, 52, 370
-0.998508, 221, 75, 252, 90
-0.998508, 5, 431, 36, 446
-0.998509, 257, 415, 320, 430
-0.998509, 313, 295, 344, 310
-0.99851, 169, 471, 232, 486
-0.99851, 9, 465, 72, 480
-0.99851, 33, 387, 96, 402
-0.998511, 73, 437, 104, 452
-0.998511, 25, 427, 56, 442
-0.998512, 65, 425, 96, 440
-0.998512, 17, 383, 48, 398
-0.998514, 249, 479, 280, 494
-0.998515, 137, 113, 168, 128
-0.998515, 321, 303, 352, 318
-0.998516, 1, 407, 64, 422
-0.998516, 9, 473, 72, 488
-0.998517, 161, 109, 224, 124
-0.998518, 117, 127, 148, 142
-0.998518, 297, 471, 360, 486
-0.998518, 145, 251, 208, 266
-0.998518, 49, 425, 80, 440
-0.998519, 61, 451, 92, 466
-0.998519, 57, 399, 120, 414
-0.998519, 49, 393, 80, 408
-0.998519, 5, 445, 36, 460
-0.99852, 9, 371, 72, 386
-0.99852, 57, 373, 120, 388
-0.99852, 225, 139, 256, 154
-0.99852, 217, 451, 280, 466
-0.998521, 193, 411, 224, 426
-0.998522, 169, 407, 232, 422
-0.998523, 49, 457, 112, 472
-0.998523, 37, 423, 68, 438
-0.998524, 9, 425, 40, 440
-0.998524, 137, 411, 200, 426
-0.998524, 9, 367, 40, 382
-0.998526, 45, 413, 76, 428
-0.998526, 157, 277, 188, 292
-0.998527, 209, 473, 272, 488
-0.998527, 57, 437, 88, 452
-0.998527, 313, 455, 344, 470
-0.998528, 145, 263, 208, 278
-0.998529, 237, 211, 268, 226
-0.998529, 169, 273, 200, 288
-0.998529, 201, 461, 264, 476
-0.99853, 305, 317, 368, 332
-0.99853, 81, 375, 112, 390
-0.998531, 37, 371, 68, 386
-0.998531, 45, 405, 76, 420
-0.998533, 17, 357, 80, 372
-0.998533, 61, 415, 92, 430
-0.998534, 305, 471, 336, 486
-0.998534, 21, 473, 52, 488
-0.998534, 309, 289, 340, 304
-0.998534, 161, 485, 224, 500
-0.998535, 113, 123, 176, 138
-0.998535, 217, 221, 280, 236
-0.998535, 1, 405, 32, 420
-0.998536, 305, 465, 368, 480
-0.998537, 49, 379, 80, 394
-0.998538, 257, 433, 288, 448
-0.998538, 1, 395, 32, 410
-0.998539, 9, 479, 72, 494
-0.998539, 21, 421, 52, 436
-0.99854, 69, 375, 100, 390
-0.99854, 169, 463, 232, 478
-0.99854, 13, 409, 44, 424
-0.99854, 193, 107, 256, 122
-0.998541, 209, 417, 272, 432
-0.998541, 33, 375, 96, 390
-0.998542, 57, 411, 120, 426
-0.998542, 73, 385, 104, 400
-0.998542, 265, 485, 328, 500
-0.998544, 73, 403, 104, 418
-0.998544, 201, 89, 264, 104
-0.998544, 21, 361, 52, 376
-0.998545, 69, 485, 100, 500
-0.998546, 157, 271, 188, 286
-0.998546, 197, 399, 228, 414
-0.998547, 297, 295, 360, 310
-0.998548, 89, 395, 152, 410
-0.998548, 33, 477, 96, 492
-0.998549, 77, 421, 108, 436
-0.998549, 33, 363, 96, 378
-0.99855, 297, 305, 360, 320
-0.998551, 53, 371, 84, 386
-0.998551, 277, 399, 308, 414
-0.998552, 305, 311, 368, 326
-0.998553, 25, 431, 88, 446
-0.998553, 249, 425, 312, 440
-0.998555, 145, 289, 208, 304
-0.998555, 209, 479, 272, 494
-0.998558, 37, 393, 68, 408
-0.998558, 201, 137, 264, 152
-0.998558, 97, 405, 160, 420
-0.998559, 97, 389, 160, 404
-0.998559, 33, 399, 64, 414
-0.99856, 225, 485, 288, 500
-0.998561, 233, 417, 296, 432
-0.998562, 161, 353, 224, 416
-0.998562, 29, 435, 60, 450
-0.998562, 201, 485, 264, 500
-0.998562, 65, 479, 96, 494
-0.998563, 217, 215, 280, 230
-0.998563, 1, 431, 64, 446
-0.998564, 129, 467, 192, 482
-0.998564, 1, 419, 32, 434
-0.998564, 221, 81, 252, 96
-0.998566, 333, 485, 364, 500
-0.998566, 137, 427, 200, 442
-0.998566, 25, 447, 88, 462
-0.998567, 129, 475, 192, 490
-0.998567, 289, 289, 352, 304
-0.998567, 13, 395, 44, 410
-0.998568, 129, 461, 192, 476
-0.998569, 269, 413, 300, 428
-0.99857, 25, 447, 56, 462
-0.99857, 265, 409, 328, 424
-0.998571, 129, 437, 192, 452
-0.998572, 49, 425, 112, 440
-0.998572, 33, 405, 64, 420
-0.998572, 177, 425, 240, 440
-0.998572, 57, 379, 120, 394
-0.998572, 5, 383, 36, 398
-0.998572, 129, 481, 192, 496
-0.998573, 169, 479, 232, 494
-0.998573, 201, 151, 264, 166
-0.998574, 97, 379, 160, 394
-0.998574, 145, 405, 208, 420
-0.998575, 265, 399, 328, 414
-0.998575, 313, 325, 374, 340
-0.998576, 241, 433, 304, 448
-0.998577, 257, 477, 320, 492
-0.998577, 129, 453, 192, 468
-0.998578, 313, 455, 374, 470
-0.998579, 1, 361, 32, 376
-0.998579, 73, 369, 104, 384
-0.99858, 177, 273, 304, 304
-0.998581, 65, 391, 96, 406
-0.998581, 73, 415, 104, 430
-0.998581, 33, 483, 96, 498
-0.998581, 129, 443, 192, 458
-0.998581, 73, 431, 104, 446
-0.998582, 1, 485, 64, 500
-0.998582, 37, 387, 68, 402
-0.998584, 217, 79, 280, 94
-0.998585, 77, 397, 108, 412
-0.998586, 193, 405, 224, 420
-0.998586, 17, 389, 48, 404
-0.998587, 17, 377, 48, 392
-0.998588, 1, 453, 64, 468
-0.99859, 145, 257, 208, 272
-0.998591, 313, 461, 344, 476
-0.998595, 137, 113, 200, 128
-0.998595, 193, 399, 256, 414
-0.998595, 273, 407, 304, 422
-0.998599, 249, 247, 312, 262
-0.998599, 225, 457, 288, 472
-0.998599, 89, 129, 152, 144
-0.9986, 69, 457, 100, 472
-0.9986, 41, 365, 72, 380
-0.998603, 145, 161, 208, 176
-0.998604, 137, 155, 200, 170
-0.998606, 153, 245, 216, 260
-0.998606, 21, 367, 52, 382
-0.998607, 77, 409, 108, 424
-0.998608, 37, 381, 68, 396
-0.998609, 257, 423, 288, 438
-0.998609, 13, 401, 44, 416
-0.998611, 33, 411, 64, 426
-0.998611, 213, 161, 244, 416
-0.998614, 313, 257, 328, 384
-0.998621, 249, 485, 280, 500
-0.998623, 257, 417, 288, 432
-0.998643, 125, 107, 156, 122
-0.998656, 37, 337, 52, 464
-0.998678, 249, 33, 312, 288
-0.998699, 17, 257, 48, 500
-0.998727, 89, 353, 104, 480
-0.998736, 225, 337, 352, 368
-0.99879, 5, 353, 20, 480
-0.998791, 27, 353, 42, 480
-0.998803, 37, 289, 68, 416
-0.998806, 1, 49, 256, 112
-0.998808, 37, 257, 68, 500
-0.998813, 1, 341, 128, 372
-0.998819, 223, 65, 238, 192
-0.998841, 13, 337, 28, 464
-0.998844, 127, 97, 142, 224
-0.998861, 307, 257, 322, 384
-0.998863, 137, 97, 152, 224
-0.998874, 81, 369, 96, 496
-0.998875, 301, 241, 316, 368
-0.99888, 151, 97, 166, 224
-0.998884, 201, 225, 232, 480
-0.998885, 349, 305, 364, 432
-0.998889, 43, 337, 58, 464
-0.998891, 153, 241, 168, 368
-0.998892, 143, 97, 158, 224
-0.998895, 157, 1, 188, 256
-0.998899, 207, 81, 222, 208
-0.998909, 231, 113, 246, 240
-0.998916, 285, 129, 316, 384
-0.998917, 181, 97, 196, 224
-0.998923, 95, 369, 110, 496
-0.998924, 61, 369, 76, 496
-0.998928, 321, 161, 352, 416
-0.998931, 359, 321, 374, 448
-0.998936, 233, 49, 248, 176
-0.998936, 51, 337, 66, 464
-0.998944, 161, 97, 176, 224
-0.998954, 325, 273, 340, 400
-0.998958, 187, 97, 202, 224
-0.998964, 175, 97, 190, 224
-0.998989, 319, 273, 334, 400
-0.998992, 195, 97, 210, 224
-0.999002, 169, 97, 184, 224
-0.999009, 217, 65, 232, 192
-0.99901, 337, 289, 352, 416
-0.999012, 265, 129, 296, 384
-0.999019, 201, 81, 216, 208
-0.999021, 241, 241, 368, 272
-0.999041, 21, 337, 36, 464
-0.999046, 67, 353, 82, 480
-0.999073, 293, 241, 308, 368
-0.999075, 225, 1, 288, 128
-0.999086, 209, 189, 336, 220
-0.999102, 149, 289, 164, 416
-0.999125, 65, 221, 192, 252
-0.999132, 207, 369, 222, 496
-0.999146, 225, 349, 352, 380
-0.999147, 343, 289, 358, 416
-0.999147, 137, 257, 168, 500
-0.999147, 73, 353, 88, 480
-0.999154, 159, 241, 174, 368
-0.999155, 265, 369, 280, 496
-0.999161, 97, 81, 224, 112
-0.999168, 251, 193, 266, 320
-0.999175, 271, 369, 286, 496
-0.999198, 331, 289, 346, 416
-0.999201, 239, 129, 254, 256
-0.999202, 283, 225, 298, 352
-0.999207, 183, 225, 198, 352
-0.999208, 239, 193, 254, 320
-0.999218, 121, 97, 136, 224
-0.999218, 149, 161, 164, 288
-0.999227, 145, 337, 160, 464
-0.999228, 1, 257, 32, 500
-0.999232, 113, 61, 240, 92
-0.999234, 259, 209, 274, 336
-0.999234, 225, 129, 240, 256
-0.999235, 65, 197, 192, 228
-0.999245, 57, 257, 88, 500
-0.999253, 271, 225, 286, 352
-0.999264, 225, 61, 352, 92
-0.999268, 69, 257, 100, 500
-0.999275, 239, 49, 254, 176
-0.99928, 195, 369, 210, 496
-0.99929, 245, 193, 260, 320
-0.999293, 277, 225, 292, 352
-0.999294, 277, 369, 292, 496
-0.999317, 173, 241, 188, 368
-0.99933, 73, 1, 136, 500
-0.999333, 201, 369, 216, 496
-0.999334, 65, 209, 192, 240
-0.999338, 125, 225, 156, 480
-0.99934, 265, 209, 280, 336
-0.999349, 319, 225, 334, 352
-0.99936, 183, 145, 198, 272
-0.999367, 141, 145, 156, 272
-0.999376, 159, 193, 174, 320
-0.999376, 233, 161, 248, 288
-0.999379, 207, 145, 222, 272
-0.99938, 309, 209, 324, 336
-0.999383, 197, 145, 212, 272
-0.999383, 313, 305, 328, 432
-0.999391, 327, 369, 342, 496
-0.9994, 257, 369, 272, 496
-0.999401, 191, 145, 206, 272
-0.999408, 189, 225, 204, 352
-0.999412, 139, 353, 154, 480
-0.999413, 59, 321, 74, 448
-0.999417, 213, 145, 228, 272
-0.999434, 1, 169, 374, 232
-0.999438, 283, 337, 298, 464
-0.999439, 65, 173, 192, 204
-0.99944, 167, 241, 182, 368
-0.999444, 219, 129, 234, 256
-0.999444, 177, 145, 192, 272
-0.999446, 295, 305, 310, 432
-0.999459, 33, 93, 160, 124
-0.99946, 213, 209, 228, 336
-0.999461, 177, 369, 192, 496
-0.999465, 249, 225, 280, 480
-0.999474, 209, 177, 336, 208
-0.99948, 303, 305, 318, 432
-0.999483, 127, 49, 142, 176
-0.999487, 31, 305, 46, 432
-0.99949, 331, 241, 346, 368
-0.999493, 135, 145, 150, 272
-0.999498, 199, 225, 214, 352
-0.999499, 163, 145, 178, 272
-0.999504, 183, 353, 198, 480
-0.999506, 245, 145, 260, 272
-0.999508, 213, 369, 228, 496
-0.999511, 355, 273, 370, 400
-0.999518, 249, 33, 280, 288
-0.999522, 297, 193, 312, 320
-0.999525, 205, 225, 220, 352
-0.999535, 133, 49, 148, 176
-0.999538, 177, 193, 192, 320
-0.999551, 333, 161, 364, 416
-0.999554, 273, 177, 288, 304
-0.999559, 89, 97, 152, 352
-0.999562, 7, 305, 22, 432
-0.999567, 189, 369, 204, 496
-0.999571, 333, 369, 348, 496
-0.999572, 65, 185, 192, 216
-0.999575, 257, 161, 272, 288
-0.99958, 225, 193, 240, 320
-0.999581, 237, 1, 268, 256
-0.999583, 291, 193, 306, 320
-0.999586, 179, 273, 194, 400
-0.999586, 325, 225, 340, 352
-0.999589, 155, 145, 170, 272
-0.999589, 227, 17, 242, 144
-0.999591, 319, 321, 334, 448
-0.999591, 251, 145, 266, 272
-0.999592, 343, 241, 358, 368
-0.999595, 17, 289, 32, 416
-0.999605, 337, 241, 352, 368
-0.999607, 219, 353, 234, 480
-0.999608, 265, 161, 280, 288
-0.999608, 219, 193, 234, 320
-0.99961, 83, 321, 98, 448
-0.99961, 349, 241, 364, 368
-0.999611, 171, 193, 186, 320
-0.999615, 279, 177, 294, 304
-0.999617, 169, 145, 184, 272
-0.99962, 209, 165, 336, 196
-0.99962, 167, 353, 182, 480
-0.999628, 311, 353, 326, 480
-0.999631, 289, 321, 304, 448
-0.999652, 75, 385, 90, 400
-0.999653, 7, 389, 22, 404
-0.999654, 31, 395, 46, 410
-0.999654, 65, 407, 80, 422
-0.999655, 41, 417, 56, 432
-0.999655, 1, 383, 16, 398
-0.999655, 5, 411, 20, 426
-0.999655, 59, 437, 74, 452
-0.999656, 59, 383, 74, 398
-0.999657, 255, 451, 270, 466
-0.999657, 265, 423, 280, 438
-0.999657, 217, 455, 232, 470
-0.999657, 215, 461, 230, 476
-0.999658, 309, 465, 324, 480
-0.999658, 237, 61, 252, 76
-0.999659, 43, 393, 58, 408
-0.99966, 89, 403, 104, 418
-0.999661, 21, 389, 36, 404
-0.999662, 45, 387, 60, 402
-0.999662, 9, 443, 24, 458
-0.999662, 339, 483, 354, 498
-0.999663, 61, 425, 76, 440
-0.999663, 11, 411, 26, 426
-0.999663, 263, 479, 278, 494
-0.999663, 151, 115, 166, 130
-0.999664, 51, 399, 66, 414
-0.999664, 257, 473, 272, 488
-0.999664, 79, 429, 94, 444
-0.999665, 51, 393, 66, 408
-0.999665, 141, 109, 156, 124
-0.999666, 87, 375, 102, 390
-0.999666, 77, 391, 92, 406
-0.999667, 45, 405, 60, 420
-0.999667, 15, 401, 30, 416
-0.999667, 305, 481, 320, 496
-0.999668, 65, 413, 80, 428
-0.999668, 39, 423, 54, 438
-0.999668, 83, 467, 98, 482
-0.999669, 37, 447, 52, 462
-0.999669, 81, 419, 96, 434
-0.999669, 85, 385, 100, 400
-0.999672, 207, 485, 222, 500
-0.999672, 207, 475, 222, 490
-0.999673, 319, 285, 334, 300
-0.999673, 21, 395, 36, 410
-0.999674, 91, 369, 106, 384
-0.999674, 45, 377, 60, 392
-0.999675, 55, 405, 70, 420
-0.999675, 81, 479, 96, 494
-0.999675, 43, 411, 58, 426
-0.999675, 75, 369, 90, 384
-0.999676, 307, 471, 322, 486
-0.999676, 19, 383, 34, 398
-0.999677, 17, 377, 32, 392
-0.999677, 87, 435, 102, 450
-0.999677, 13, 419, 28, 434
-0.999677, 125, 109, 140, 124
-0.999678, 87, 421, 102, 436
-0.999678, 131, 105, 146, 120
-0.999678, 85, 447, 100, 462
-0.999679, 63, 369, 78, 384
-0.999681, 81, 473, 96, 488
-0.999681, 181, 417, 196, 432
-0.999684, 121, 123, 136, 138
-0.999685, 19, 361, 34, 376
-0.999686, 155, 253, 170, 268
-0.999686, 49, 371, 64, 386
-0.999687, 79, 485, 94, 500
-0.999687, 51, 377, 66, 392
-0.999687, 17, 407, 32, 422
-0.999687, 49, 365, 64, 380
-0.999687, 3, 405, 18, 420
-0.999688, 83, 459, 98, 474
-0.999689, 37, 399, 52, 414
-0.999689, 33, 427, 48, 442
-0.99969, 9, 383, 24, 398
-0.999692, 329, 297, 344, 312
-0.999692, 181, 273, 196, 288
-0.999693, 31, 433, 46, 448
-0.999693, 35, 415, 50, 430
-0.999693, 209, 465, 224, 480
-0.999694, 233, 67, 248, 82
-0.999695, 23, 373, 38, 388
-0.999695, 9, 399, 24, 414
-0.999696, 31, 375, 46, 390
-0.999696, 27, 401, 42, 416
-0.999697, 25, 459, 40, 474
-0.999697, 125, 129, 140, 144
-0.999698, 1, 417, 16, 432
-0.999699, 81, 369, 96, 384
-0.999699, 253, 483, 268, 498
-0.9997, 65, 395, 80, 410
-0.999704, 69, 373, 84, 388
-0.999704, 29, 387, 44, 402
-0.999706, 67, 385, 82, 400
-0.999706, 19, 485, 34, 500
-0.999708, 261, 433, 276, 448
-0.999708, 251, 477, 266, 492
-0.999708, 45, 399, 60, 414
-0.999709, 3, 363, 18, 378
-0.999709, 323, 291, 338, 306
-0.99971, 13, 359, 28, 374
-0.99971, 259, 421, 274, 436
-0.999711, 259, 485, 274, 500
-0.999712, 91, 387, 106, 402
-0.999713, 35, 409, 50, 424
-0.999714, 69, 379, 84, 394
-0.999714, 89, 409, 104, 424
-0.999715, 27, 445, 42, 460
-0.999716, 37, 393, 52, 408
-0.999717, 23, 367, 38, 382
-0.999717, 321, 455, 336, 470
-0.999718, 89, 397, 104, 412
-0.99972, 273, 407, 288, 422
-0.999721, 33, 367, 48, 382
-0.999721, 25, 361, 40, 376
-0.999721, 11, 371, 26, 386
-0.999722, 23, 471, 38, 486
-0.999724, 93, 375, 108, 390
-0.999728, 33, 421, 48, 436
-0.999729, 43, 365, 58, 380
-0.999736, 13, 365, 28, 380
-0.999738, 41, 371, 56, 386
-0.999738, 39, 381, 54, 396
-0.99974, 33, 65, 160, 128
-0.999745, 239, 137, 254, 152
-0.999747, 257, 443, 272, 458
-0.999751, 39, 387, 54, 402
-0.999759, 105, 49, 168, 176
-0.999763, 277, 397, 292, 412
-0.999763, 177, 365, 304, 396
-0.999783, 267, 417, 282, 432
-0.999816, 203, 397, 218, 412
-0.999823, 193, 325, 320, 356
-0.999911, 241, 365, 368, 396
-0.999919, 225, 153, 352, 184
-0.999976, 109, 97, 140, 352
-1.00001, 345, 161, 374, 416
-1.00005, 17, 145, 144, 176
-1.00014, 109, 1, 140, 256
-1.00015, 177, 337, 304, 368
-1.00017, 33, 33, 160, 160
-1.00025, 97, 257, 128, 500
-1.00028, 197, 321, 228, 448
-1.00038, 193, 313, 320, 344
-1.00045, 177, 353, 304, 384
-1.00045, 233, 257, 296, 500
-1.00046, 33, 161, 160, 192
-1.00049, 213, 257, 244, 500
-1.0005, 85, 257, 116, 500
-1.00051, 17, 137, 144, 200
-1.00066, 193, 49, 320, 80
-1.00069, 229, 17, 260, 144
-1.00074, 261, 33, 292, 288
-1.00077, 1, 161, 32, 416
-1.00077, 1, 105, 128, 136
-1.00078, 17, 281, 144, 312
-1.00078, 33, 225, 160, 352
-1.00079, 145, 49, 272, 80
-1.00079, 1, 117, 128, 148
-1.00082, 49, 161, 80, 416
-1.00082, 249, 121, 312, 184
-1.00084, 301, 65, 332, 320
-1.00086, 21, 161, 52, 416
-1.00086, 193, 25, 320, 88
-1.00088, 209, 321, 240, 448
-1.00089, 169, 321, 200, 448
-1.00104, 33, 161, 64, 416
-1.00117, 109, 257, 140, 500
-1.00118, 33, 257, 160, 320
-1.00119, 1, 25, 256, 88
-1.00119, 1, 89, 374, 152
-1.00124, 81, 97, 112, 352
-1.00125, 225, 257, 256, 500
-1.00126, 97, 33, 128, 288
-1.00132, 69, 97, 100, 352
-1.00133, 113, 25, 240, 88
-1.00137, 249, 297, 312, 360
-1.00139, 97, 33, 352, 96
-1.0014, 33, 65, 64, 320
-1.0014, 329, 1, 360, 256
-1.00141, 345, 33, 374, 288
-1.00143, 17, 65, 48, 320
-1.00143, 45, 65, 76, 320
-1.00144, 57, 65, 88, 320
-1.00145, 97, 129, 128, 384
-1.00146, 273, 33, 304, 288
-1.00149, 241, 137, 368, 200
-1.00151, 73, 257, 136, 500
-1.00152, 313, 1, 344, 256
-1.00152, 5, 65, 36, 320
-1.00155, 77, 1, 108, 256
-1.00175, 129, 9, 374, 72
-1.00177, 285, 33, 316, 288
-1.00183, 1, 1, 256, 64
-1.00186, 241, 249, 304, 312
-1.00189, 113, 1, 240, 128
-1.00197, 1, 305, 128, 368
-1.00209, 241, 1, 272, 128
-1.00212, 233, 353, 296, 416
-1.00213, 1, 281, 128, 344
-1.00213, 17, 257, 80, 384
-1.00221, 273, 145, 336, 272
-1.00225, 65, 25, 192, 88
-1.00225, 1, 33, 128, 96
-1.00231, 205, 257, 236, 384
-1.00232, 73, 129, 136, 192
-1.00237, 5, 257, 36, 384
-1.00242, 49, 1, 176, 64
-1.00243, 1, 113, 128, 176
-1.0026, 241, 81, 368, 144
-1.00274, 129, 1, 256, 64
-1.00275, 1, 225, 128, 288
-1.00277, 1, 9, 128, 72
-1.00284, 73, 305, 136, 432
-1.00285, 209, 1, 336, 64
-1.00285, 1, 185, 128, 248
-1.00287, 97, 305, 128, 432
-1.00287, 161, 321, 224, 384
-1.00291, 33, 161, 160, 224
-1.00305, 201, 241, 264, 368
-1.00306, 97, 265, 160, 328
-1.00314, 185, 273, 216, 400
-1.00329, 1, 17, 374, 80
-1.0033, 129, 57, 192, 120
-1.00334, 1, 57, 374, 120
-1.0039, 257, 169, 320, 232
-1.00399, 241, 25, 368, 88
-1.00417, 81, 321, 144, 384
-1.00419, 273, 273, 304, 400
-1.00426, 113, 145, 144, 272
-1.0043, 249, 321, 280, 448
-1.00432, 241, 329, 304, 392
-1.00433, 257, 129, 288, 256
-1.00458, 297, 65, 360, 320
-1.00465, 85, 273, 116, 400
-1.00465, 237, 321, 268, 448
-1.00475, 1, 161, 64, 416
-1.00478, 49, 257, 80, 384
-1.00519, 277, 145, 308, 272
-1.00536, 157, 289, 188, 416
-1.00553, 297, 161, 328, 288
-1.00553, 201, 265, 264, 328
-1.00597, 209, 257, 272, 500
-1.006, 249, 273, 312, 336
-1.00616, 189, 1, 220, 128
-1.00624, 117, 321, 148, 448
-1.00626, 185, 337, 248, 400
-1.00642, 57, 161, 120, 416
-1.00661, 169, 1, 232, 128
-1.0068, 89, 57, 152, 120
-1.0069, 117, 369, 148, 496
-1.00692, 209, 25, 272, 88
-1.00697, 97, 97, 128, 224
-1.00702, 329, 193, 360, 320
-1.00713, 65, 33, 128, 288
-1.00714, 317, 177, 348, 304
-1.00719, 25, 129, 88, 384
-1.00724, 25, 257, 88, 320
-1.0073, 129, 193, 160, 320
-1.00736, 245, 97, 276, 224
-1.00749, 57, 105, 120, 168
-1.00751, 49, 257, 112, 384
-1.00751, 57, 281, 120, 344
-1.00758, 1, 249, 64, 312
-1.00759, 65, 257, 96, 384
-1.00776, 13, 209, 44, 336
-1.0078, 233, 17, 296, 80
-1.00794, 1, 209, 32, 336
-1.00797, 37, 209, 68, 336
-1.00797, 1, 161, 64, 224
-1.008, 25, 193, 56, 320
-1.00802, 33, 281, 96, 344
-1.00803, 49, 305, 112, 368
-1.00804, 221, 321, 252, 448
-1.00805, 113, 257, 144, 384
-1.00818, 65, 9, 128, 72
-1.00818, 1, 273, 64, 336
-1.00819, 217, 321, 280, 448
-1.0082, 185, 305, 248, 368
-1.00821, 101, 225, 132, 352
-1.00822, 49, 193, 80, 320
-1.00829, 61, 209, 92, 336
-1.00865, 1, 177, 128, 304
-1.00866, 1, 65, 64, 320
-1.0092, 273, 33, 336, 288
-1.00925, 41, 1, 104, 256
-1.00976, 193, 305, 256, 432
-1.0106, 73, 257, 136, 384
-1.01091, 9, 209, 72, 336
-1.01133, 49, 209, 112, 336
-1.0115, 161, 1, 288, 128
-1.01206, 129, 1, 374, 128
-1.01218, 9, 145, 72, 272
-1.01276, 81, 209, 144, 336
-1.01285, 65, 97, 128, 224
-1.01306, 33, 97, 96, 224
-1.0131, 97, 1, 160, 128
-1.01327, 249, 1, 312, 128
-1.01328, 9, 97, 72, 224
-1.01331, 33, 145, 96, 272
-1.01331, 81, 145, 144, 272
-1.01351, 289, 97, 352, 224
-1.01367, 265, 81, 328, 208
-1.01374, 49, 49, 112, 176
-1.01374, 225, 241, 288, 368
-1.01387, 313, 129, 374, 256
-1.01393, 313, 49, 374, 176
-1.01393, 57, 145, 120, 272
-1.01406, 41, 1, 104, 128
-1.01432, 9, 49, 72, 176
-1.01458, 313, 1, 374, 128
-1.01458, 289, 49, 352, 176
-1.01478, 17, 1, 80, 128
-1.01478, 289, 1, 352, 128
-1.01561, 145, 1, 208, 128
-1.01582, 121, 1, 184, 128
-1.01679, 65, 1, 128, 128
