1973
-0.286288, 1, 1, 500, 376
-0.396773, 1, 1, 500, 256
-0.413763, 1, 129, 500, 376
-0.426594, 225, 1, 480, 376
-0.507669, 65, 1, 320, 376
-0.623982, 225, 1, 480, 256
-0.646993, 65, 65, 320, 320
-0.800878, 257, 97, 500, 352
-0.854922, 161, 97, 416, 352
-0.863473, 241, 1, 368, 376
-0.875515, 193, 1, 320, 376
-0.876338, 321, 1, 448, 376
-0.882282, 1, 1, 500, 128
-0.887604, 1, 145, 500, 272
-0.893605, 177, 1, 304, 256
-0.894478, 321, 1, 448, 256
-0.896207, 49, 1, 176, 256
-0.896455, 49, 1, 176, 376
-0.899079, 241, 1, 368, 256
-0.900561, 97, 97, 224, 352
-0.903583, 225, 1, 480, 128
-0.903643, 113, 1, 240, 376
-0.903936, 369, 33, 496, 288
-0.905132, 369, 1, 496, 376
-0.906417, 1, 97, 500, 224
-0.90769, 49, 129, 176, 376
-0.908232, 209, 129, 336, 376
-0.908823, 1, 129, 128, 376
-0.911204, 1, 1, 128, 376
-0.914586, 1, 1, 256, 128
-0.915384, 1, 241, 500, 368
-0.91653, 257, 129, 384, 376
-0.91709, 97, 1, 224, 256
-0.919838, 1, 33, 128, 288
-0.925027, 97, 1, 352, 128
-0.928576, 1, 193, 500, 320
-0.93336, 33, 145, 288, 272
-0.934209, 145, 97, 272, 352
-0.934595, 225, 49, 480, 176
-0.934773, 257, 97, 500, 224
-0.937099, 321, 97, 448, 352
-0.937583, 1, 49, 500, 176
-0.938585, 97, 49, 352, 176
-0.942308, 369, 129, 496, 376
-0.942492, 97, 97, 352, 224
-0.943001, 33, 257, 288, 376
-0.944897, 241, 1, 304, 128
-0.946633, 193, 225, 448, 352
-0.947862, 1, 49, 256, 176
-0.951056, 49, 145, 176, 272
-0.95138, 225, 161, 480, 288
-0.9518, 9, 1, 72, 128
-0.954122, 49, 65, 176, 192
-0.954233, 57, 145, 120, 272
-0.954438, 225, 17, 352, 144
-0.954973, 257, 145, 384, 272
-0.956815, 49, 17, 176, 144
-0.957877, 121, 33, 184, 160
-0.957983, 145, 17, 272, 144
-0.95818, 369, 65, 496, 192
-0.958262, 369, 1, 496, 128
-0.958543, 305, 1, 432, 128
-0.9587, 209, 17, 272, 144
-0.959517, 1, 97, 256, 224
-0.959648, 97, 209, 352, 336
-0.961159, 417, 81, 480, 208
-0.961229, 1, 1, 128, 128
-0.961624, 9, 1, 72, 64
-0.962081, 9, 25, 72, 88
-0.962602, 321, 49, 448, 176
-0.962626, 241, 9, 304, 72
-0.963702, 321, 161, 384, 288
-0.963735, 97, 33, 224, 160
-0.964119, 273, 145, 336, 272
-0.964863, 97, 81, 160, 208
-0.964903, 1, 65, 128, 192
-0.965106, 33, 1, 96, 128
-0.965971, 1, 209, 256, 336
-0.965994, 209, 193, 336, 320
-0.966089, 57, 161, 120, 224
-0.966423, 1, 161, 128, 288
-0.966543, 1, 49, 64, 176
-0.96708, 193, 81, 320, 208
-0.967217, 401, 17, 464, 144
-0.967499, 297, 113, 360, 240
-0.967502, 393, 97, 456, 224
-0.967588, 121, 41, 184, 104
-0.967593, 25, 161, 88, 288
-0.968288, 97, 113, 224, 240
-0.968864, 81, 17, 144, 144
-0.969897, 129, 241, 256, 368
-0.970042, 81, 145, 144, 272
-0.970134, 33, 241, 160, 368
-0.970139, 305, 97, 432, 224
-0.970169, 129, 145, 384, 272
-0.970392, 305, 161, 368, 224
-0.971022, 161, 1, 224, 128
-0.971049, 209, 145, 336, 272
-0.971543, 253, 1, 284, 128
-0.971605, 345, 129, 408, 256
-0.971659, 209, 33, 272, 96
-0.971705, 217, 225, 280, 352
-0.971797, 1, 113, 128, 240
-0.971808, 17, 49, 80, 112
-0.972016, 25, 305, 88, 368
-0.972249, 193, 225, 256, 352
-0.972258, 369, 81, 432, 208
-0.972811, 361, 17, 424, 144
-0.973126, 425, 89, 488, 152
-0.973376, 97, 41, 160, 104
-0.973747, 121, 65, 184, 128
-0.973777, 257, 193, 384, 320
-0.973926, 345, 313, 408, 376
-0.973973, 41, 65, 104, 192
-0.974072, 17, 185, 80, 248
-0.974445, 145, 65, 272, 192
-0.974567, 257, 97, 384, 224
-0.974822, 57, 1, 120, 128
-0.974899, 433, 1, 496, 128
-0.974922, 241, 81, 304, 208
-0.975061, 209, 57, 272, 120
-0.975299, 321, 145, 448, 272
-0.975425, 401, 65, 464, 128
-0.975449, 57, 225, 120, 352
-0.975719, 337, 145, 400, 208
-0.975868, 97, 65, 160, 128
-0.975993, 265, 33, 328, 160
-0.976179, 177, 257, 304, 376
-0.97645, 297, 161, 360, 288
-0.976653, 33, 1, 96, 64
-0.976736, 337, 169, 400, 232
-0.976758, 33, 25, 96, 88
-0.977342, 401, 97, 464, 160
-0.977546, 121, 9, 184, 72
-0.97756, 129, 97, 192, 224
-0.977616, 321, 113, 384, 240
-0.97763, 241, 177, 304, 304
-0.977806, 369, 81, 432, 144
-0.977939, 265, 1, 328, 64
-0.978058, 333, 161, 364, 224
-0.978396, 281, 137, 344, 200
-0.978452, 33, 161, 96, 224
-0.978522, 25, 113, 88, 240
-0.978542, 361, 1, 424, 64
-0.978578, 273, 169, 336, 232
-0.978792, 273, 49, 400, 176
-0.97889, 305, 129, 368, 192
-0.978904, 273, 97, 336, 224
-0.978997, 65, 129, 128, 376
-0.979144, 105, 145, 168, 272
-0.979214, 217, 65, 280, 192
-0.979395, 313, 185, 376, 248
-0.979436, 9, 1, 72, 256
-0.979466, 161, 25, 288, 88
-0.979505, 113, 49, 240, 112
-0.979607, 49, 25, 176, 88
-0.979629, 233, 65, 296, 320
-0.979641, 369, 1, 496, 64
-0.979723, 305, 49, 368, 176
-0.979751, 321, 209, 448, 336
-0.979893, 353, 177, 416, 304
-0.979988, 145, 49, 208, 112
-0.979992, 41, 49, 104, 112
-0.98061, 169, 25, 232, 88
-0.980672, 89, 241, 152, 368
-0.980796, 225, 1, 352, 64
-0.980833, 145, 49, 208, 176
-0.98088, 369, 113, 496, 240
-0.981088, 261, 1, 292, 64
-0.981127, 289, 1, 352, 256
-0.981164, 121, 1, 184, 256
-0.981485, 41, 1, 72, 64
-0.981513, 81, 1, 144, 64
-0.981524, 345, 81, 408, 208
-0.981529, 73, 81, 136, 208
-0.981629, 33, 1, 64, 128
-0.98168, 129, 193, 256, 320
-0.981706, 45, 1, 76, 128
-0.981713, 329, 209, 392, 336
-0.981799, 49, 193, 176, 320
-0.981834, 217, 177, 280, 304
-0.98188, 33, 129, 96, 376
-0.98192, 305, 17, 432, 80
-0.981922, 17, 161, 144, 224
-0.982048, 185, 265, 248, 328
-0.982069, 369, 89, 496, 152
-0.982267, 305, 105, 368, 168
-0.982394, 361, 25, 424, 88
-0.98249, 265, 1, 296, 128
-0.982591, 361, 57, 424, 120
-0.982675, 257, 169, 384, 232
-0.982742, 321, 81, 448, 144
-0.982802, 241, 33, 304, 96
-0.982803, 241, 17, 272, 144
-0.98289, 45, 41, 76, 104
-0.982894, 249, 17, 280, 80
-0.983009, 321, 305, 384, 368
-0.983106, 57, 161, 88, 288
-0.983175, 185, 17, 248, 144
-0.983191, 393, 1, 456, 64
-0.983231, 225, 25, 352, 88
-0.983246, 1, 33, 128, 96
-0.983248, 73, 145, 104, 272
-0.983298, 417, 65, 480, 320
-0.983358, 81, 153, 144, 216
-0.98338, 57, 73, 120, 136
-0.983389, 353, 57, 480, 120
-0.983488, 81, 257, 208, 376
-0.983518, 65, 65, 192, 128
-0.98368, 1, 1, 128, 64
-0.983685, 133, 17, 164, 144
-0.983793, 305, 209, 368, 336
-0.983892, 369, 161, 496, 288
-0.983893, 161, 73, 288, 136
-0.983894, 337, 193, 400, 256
-0.983898, 369, 1, 432, 256
-0.984008, 1, 313, 128, 376
-0.984076, 121, 89, 184, 152
-0.984122, 1, 73, 64, 136
-0.98415, 129, 41, 160, 104
-0.984167, 169, 257, 232, 376
-0.984174, 9, 153, 72, 216
-0.984416, 369, 313, 432, 376
-0.984517, 273, 1, 336, 376
-0.984526, 65, 145, 192, 208
-0.98454, 137, 113, 200, 176
-0.984551, 393, 25, 456, 88
-0.984586, 305, 209, 368, 272
-0.984626, 329, 97, 392, 160
-0.98463, 325, 161, 356, 288
-0.984662, 437, 89, 468, 152
-0.98472, 145, 41, 176, 104
-0.98472, 49, 1, 176, 64
-0.984781, 85, 145, 116, 272
-0.9848, 145, 17, 176, 144
-0.984846, 193, 177, 256, 304
-0.984861, 105, 137, 168, 200
-0.984877, 249, 1, 312, 376
-0.984881, 437, 81, 468, 208
-0.984947, 241, 57, 304, 120
-0.984978, 33, 33, 96, 288
-0.98499, 209, 297, 272, 360
-0.985024, 321, 161, 352, 224
-0.985082, 289, 201, 416, 264
-0.985164, 41, 209, 104, 272
-0.985186, 281, 193, 344, 256
-0.985246, 113, 1, 240, 64
-0.985247, 25, 209, 88, 336
-0.985323, 57, 161, 88, 224
-0.98534, 193, 233, 256, 296
-0.985368, 273, 105, 336, 168
-0.985412, 233, 25, 264, 88
-0.98543, 9, 1, 72, 376
-0.985441, 433, 57, 496, 120
-0.985491, 201, 1, 264, 64
-0.985493, 393, 65, 456, 320
-0.985505, 357, 313, 388, 376
-0.985692, 369, 25, 496, 88
-0.985802, 257, 145, 384, 208
-0.985811, 65, 225, 128, 288
-0.985939, 257, 1, 320, 256
-0.986014, 25, 73, 88, 136
-0.986063, 433, 33, 496, 96
-0.986084, 129, 273, 256, 336
-0.986101, 185, 289, 248, 352
-0.986158, 45, 65, 76, 128
-0.986247, 25, 33, 56, 96
-0.986326, 45, 65, 76, 192
-0.986361, 97, 1, 160, 256
-0.986407, 297, 1, 360, 376
-0.986561, 65, 185, 128, 248
-0.986576, 273, 97, 336, 352
-0.986636, 129, 249, 256, 312
-0.986706, 65, 89, 192, 152
-0.986754, 225, 241, 352, 368
-0.986765, 209, 1, 272, 256
-0.986796, 241, 185, 304, 248
-0.986805, 25, 257, 88, 376
-0.986863, 241, 57, 368, 120
-0.986918, 1, 81, 128, 144
-0.986979, 273, 1, 304, 64
-0.987014, 129, 65, 160, 192
-0.987082, 305, 57, 432, 120
-0.987115, 49, 185, 176, 248
-0.987132, 81, 193, 144, 320
-0.987158, 57, 129, 120, 192
-0.987231, 225, 201, 352, 264
-0.987256, 389, 17, 420, 144
-0.987272, 153, 97, 216, 224
-0.987302, 417, 161, 480, 288
-0.987315, 209, 225, 336, 288
-0.987376, 341, 137, 372, 200
-0.987458, 265, 193, 328, 320
-0.987524, 369, 129, 432, 256
-0.987553, 129, 65, 160, 128
-0.987561, 1, 185, 128, 248
-0.987646, 41, 185, 104, 248
-0.987657, 117, 17, 148, 144
-0.987658, 345, 289, 408, 352
-0.987678, 161, 49, 288, 112
-0.987732, 85, 81, 116, 208
-0.987759, 209, 177, 336, 240
-0.987762, 225, 225, 256, 352
-0.987815, 433, 1, 496, 64
-0.987872, 425, 89, 456, 152
-0.987897, 393, 81, 424, 208
-0.987941, 57, 33, 120, 288
-0.987971, 145, 113, 272, 240
-0.987999, 185, 65, 248, 128
-0.988025, 25, 1, 56, 64
-0.988033, 77, 1, 108, 128
-0.988046, 89, 97, 152, 352
-0.988055, 145, 65, 176, 192
-0.988067, 33, 49, 64, 176
-0.988207, 329, 1, 392, 128
-0.988222, 225, 1, 288, 376
-0.988319, 337, 145, 368, 272
-0.988385, 185, 313, 248, 376
-0.988443, 369, 313, 400, 376
-0.988444, 1, 57, 128, 120
-0.988473, 289, 105, 416, 168
-0.988501, 289, 305, 416, 368
-0.988518, 241, 313, 304, 376
-0.988559, 393, 145, 456, 272
-0.988646, 1, 113, 64, 240
-0.988688, 385, 1, 416, 64
-0.988716, 313, 257, 376, 376
-0.988743, 57, 1, 120, 64
-0.988765, 1, 209, 128, 272
-0.9888, 1, 289, 64, 352
-0.988824, 217, 201, 280, 264
-0.988862, 45, 169, 76, 232
-0.988939, 209, 265, 272, 328
-0.988968, 409, 97, 440, 224
-0.988972, 129, 225, 256, 288
-0.988988, 33, 1, 96, 376
-0.989023, 425, 81, 456, 208
-0.989029, 321, 177, 448, 240
-0.989062, 113, 25, 240, 88
-0.989068, 353, 225, 416, 352
-0.989072, 225, 97, 352, 160
-0.989146, 161, 89, 224, 152
-0.989177, 305, 1, 368, 128
-0.989207, 145, 25, 208, 88
-0.98924, 33, 305, 64, 368
-0.989282, 81, 121, 144, 184
-0.989282, 337, 313, 464, 376
-0.989295, 225, 1, 480, 64
-0.989311, 129, 121, 256, 184
-0.989329, 341, 185, 372, 248
-0.989347, 113, 1, 176, 376
-0.989349, 345, 313, 376, 376
-0.989395, 229, 17, 260, 144
-0.989428, 377, 105, 440, 168
-0.989449, 305, 17, 368, 80
-0.989467, 97, 145, 128, 272
-0.989499, 273, 33, 336, 96
-0.989499, 117, 65, 148, 192
-0.989525, 121, 257, 184, 376
-0.989573, 369, 209, 496, 336
-0.989601, 393, 1, 456, 376
-0.989604, 33, 57, 64, 120
-0.989626, 329, 137, 360, 200
-0.989634, 273, 257, 400, 376
-0.989686, 57, 25, 120, 88
-0.989691, 241, 225, 304, 352
-0.989733, 85, 73, 116, 136
-0.989735, 329, 33, 392, 288
-0.989739, 145, 297, 272, 360
-0.989752, 233, 89, 296, 152
-0.989807, 449, 81, 480, 208
-0.98983, 57, 81, 88, 208
-0.989838, 417, 121, 480, 184
-0.989877, 9, 25, 72, 56
-0.989882, 157, 49, 188, 112
-0.989903, 145, 65, 176, 128
-0.989915, 449, 89, 480, 152
-0.989938, 81, 1, 144, 376
-0.989968, 9, 5, 72, 36
-0.98997, 49, 281, 176, 344
-0.989979, 337, 121, 400, 184
-0.990002, 249, 153, 312, 216
-0.990004, 45, 161, 76, 288
-0.990016, 361, 1, 424, 376
-0.990024, 217, 225, 280, 288
-0.990028, 9, 37, 72, 68
-0.990035, 81, 121, 208, 184
-0.990064, 65, 49, 128, 112
-0.990077, 129, 137, 192, 200
-0.990193, 113, 73, 240, 136
-0.990262, 345, 161, 376, 224
-0.990277, 73, 81, 104, 208
-0.990322, 193, 313, 320, 376
-0.99036, 233, 49, 264, 112
-0.990393, 85, 153, 116, 216
-0.990453, 321, 185, 352, 248
-0.990458, 393, 81, 424, 144
-0.990478, 193, 209, 256, 272
-0.990487, 77, 1, 108, 64
-0.990506, 297, 297, 360, 360
-0.990531, 17, 49, 80, 80
-0.990534, 369, 113, 496, 176
-0.990585, 309, 113, 340, 240
-0.990599, 113, 73, 144, 136
-0.990614, 201, 225, 232, 352
-0.990691, 1, 161, 64, 288
-0.990692, 321, 153, 448, 216
-0.990702, 69, 161, 100, 224
-0.990717, 13, 1, 44, 128
-0.990723, 209, 81, 272, 144
-0.990755, 17, 61, 80, 92
-0.990817, 409, 105, 440, 168
-0.990872, 57, 161, 120, 192
-0.990884, 321, 113, 352, 240
-0.990886, 121, 45, 184, 76
-0.990902, 89, 241, 152, 304
-0.990906, 49, 225, 176, 288
-0.99092, 161, 1, 192, 128
-0.990922, 17, 289, 48, 352
-0.990933, 177, 249, 304, 312
-0.991015, 17, 181, 80, 212
-0.991041, 121, 305, 184, 368
-0.991041, 177, 65, 240, 192
-0.991058, 425, 93, 488, 124
-0.991075, 169, 1, 232, 64
-0.991093, 101, 81, 132, 208
-0.991115, 401, 97, 464, 128
-0.991119, 193, 1, 224, 128
-0.991132, 237, 177, 268, 304
-0.991179, 1, 129, 128, 192
-0.991194, 253, 49, 284, 176
-0.991207, 97, 305, 224, 368
-0.991257, 389, 25, 420, 88
-0.991277, 33, 1, 96, 32
-0.991281, 265, 1, 328, 32
-0.991284, 317, 105, 348, 168
-0.991286, 241, 21, 304, 52
-0.9913, 33, 33, 96, 64
-0.991315, 121, 65, 184, 96
-0.991369, 369, 145, 496, 208
-0.99138, 81, 41, 112, 104
-0.99138, 225, 129, 288, 256
-0.991384, 393, 85, 456, 116
-0.991443, 33, 21, 96, 52
-0.991513, 305, 177, 368, 208
-0.991554, 25, 309, 88, 340
-0.991554, 161, 1, 288, 64
-0.991613, 273, 81, 336, 144
-0.991618, 49, 305, 176, 368
-0.991655, 409, 65, 440, 128
-0.991656, 369, 97, 432, 128
-0.991659, 117, 41, 148, 104
-0.991662, 213, 41, 244, 104
-0.991671, 305, 129, 432, 192
-0.991671, 49, 257, 176, 320
-0.991673, 337, 333, 400, 364
-0.991681, 161, 305, 224, 368
-0.991691, 21, 313, 52, 376
-0.991693, 417, 1, 480, 376
-0.991716, 25, 321, 88, 352
-0.991719, 361, 1, 424, 32
-0.991727, 1, 73, 64, 104
-0.991738, 81, 81, 144, 112
-0.991754, 337, 313, 400, 344
-0.991757, 209, 61, 272, 92
-0.991757, 297, 165, 360, 196
-0.991793, 289, 141, 352, 172
-0.991796, 337, 149, 400, 180
-0.991801, 1, 33, 256, 96
-0.991831, 337, 169, 400, 200
-0.991832, 201, 41, 264, 72
-0.991841, 209, 153, 336, 216
-0.991842, 305, 65, 368, 128
-0.991875, 17, 193, 80, 224
-0.991885, 97, 97, 160, 160
-0.991885, 33, 129, 96, 192
-0.991901, 241, 9, 304, 40
-0.99192, 405, 17, 436, 144
-0.991938, 169, 241, 232, 304
-0.991943, 321, 1, 384, 376
-0.991963, 225, 25, 480, 88
-0.991963, 329, 345, 392, 376
-0.991984, 209, 29, 272, 60
-0.991997, 193, 1, 256, 376
-0.992008, 1, 1, 256, 64
-0.992012, 337, 1, 400, 64
-0.992025, 41, 49, 104, 80
-0.992048, 25, 169, 88, 200
-0.992057, 389, 57, 420, 120
-0.99206, 161, 49, 192, 176
-0.992068, 177, 201, 304, 264
-0.99208, 41, 61, 104, 92
-0.992083, 233, 33, 296, 64
-0.992092, 401, 73, 464, 104
-0.992099, 57, 73, 120, 104
-0.9921, 1, 49, 32, 176
-0.992104, 337, 193, 400, 224
-0.992151, 469, 65, 500, 192
-0.992157, 113, 97, 176, 352
-0.99216, 265, 313, 328, 376
-0.992174, 13, 177, 44, 240
-0.992181, 241, 313, 368, 376
-0.992193, 305, 189, 368, 220
-0.992203, 361, 25, 424, 56
-0.992215, 361, 321, 424, 352
-0.992226, 345, 97, 376, 224
-0.992228, 65, 65, 320, 128
-0.992229, 281, 177, 344, 208
-0.992239, 361, 13, 424, 44
-0.992258, 97, 69, 160, 100
-0.992266, 281, 217, 344, 280
-0.992277, 361, 85, 424, 116
-0.992279, 209, 73, 272, 104
-0.992279, 25, 169, 56, 232
-0.99228, 209, 17, 272, 48
-0.992294, 361, 41, 424, 72
-0.992312, 313, 153, 376, 184
-0.992325, 369, 341, 432, 372
-0.992335, 393, 13, 456, 44
-0.992343, 49, 185, 112, 216
-0.992343, 465, 81, 496, 144
-0.992346, 97, 9, 352, 72
-0.992356, 49, 173, 112, 204
-0.992367, 337, 181, 400, 212
-0.992371, 145, 97, 272, 160
-0.992374, 273, 161, 336, 192
-0.99238, 265, 177, 296, 304
-0.992385, 161, 49, 224, 80
-0.992399, 53, 1, 84, 64
-0.992414, 185, 293, 248, 324
-0.992436, 401, 61, 464, 92
-0.992441, 209, 5, 272, 36
-0.992447, 121, 25, 184, 56
-0.992453, 361, 53, 424, 84
-0.992457, 61, 209, 92, 336
-0.992465, 237, 225, 268, 352
-0.992483, 393, 37, 456, 68
-0.992485, 161, 37, 224, 68
-0.992487, 321, 205, 384, 236
-0.992507, 57, 197, 120, 228
-0.992516, 97, 41, 160, 72
-0.992523, 317, 129, 348, 192
-0.992524, 57, 1, 120, 376
-0.992534, 361, 69, 424, 100
-0.992543, 393, 25, 456, 56
-0.992544, 17, 333, 80, 364
-0.992552, 13, 33, 44, 96
-0.992554, 81, 57, 144, 88
-0.992564, 393, 1, 456, 32
-0.992571, 33, 73, 96, 104
-0.992574, 313, 329, 376, 360
-0.992576, 57, 85, 120, 116
-0.992592, 33, 81, 64, 144
-0.992596, 185, 261, 248, 292
-0.992603, 401, 49, 464, 80
-0.992609, 57, 81, 88, 144
-0.992613, 349, 161, 380, 288
-0.992617, 81, 1, 144, 32
-0.992617, 25, 205, 88, 236
-0.992645, 121, 13, 184, 44
-0.992651, 241, 53, 304, 84
-0.992665, 361, 309, 424, 340
-0.992672, 81, 29, 144, 60
-0.992686, 241, 289, 368, 352
-0.992692, 185, 25, 248, 56
-0.992692, 185, 249, 248, 280
-0.9927, 241, 65, 304, 96
-0.992703, 97, 149, 160, 180
-0.992713, 337, 101, 400, 132
-0.992718, 145, 17, 176, 80
-0.992719, 9, 345, 72, 376
-0.99272, 125, 1, 156, 64
-0.992734, 401, 109, 464, 140
-0.992741, 469, 1, 500, 128
-0.992744, 105, 81, 168, 112
-0.992761, 433, 81, 496, 112
-0.992764, 305, 129, 368, 160
-0.992781, 265, 189, 328, 220
-0.992789, 245, 57, 276, 120
-0.99279, 337, 289, 464, 352
-0.992793, 41, 13, 72, 44
-0.992795, 41, 1, 72, 32
-0.992803, 433, 57, 496, 88
-0.992825, 209, 305, 272, 336
-0.99283, 433, 97, 464, 128
-0.992846, 177, 281, 240, 312
-0.992852, 45, 49, 76, 80
-0.992854, 37, 113, 68, 240
-0.992861, 349, 289, 380, 352
-0.992865, 45, 29, 76, 60
-0.992867, 137, 129, 200, 160
-0.992867, 285, 97, 316, 224
-0.992871, 185, 237, 248, 268
-0.992872, 313, 177, 344, 304
-0.992876, 17, 153, 80, 184
-0.992884, 313, 309, 376, 340
-0.992891, 333, 165, 364, 196
-0.992905, 241, 289, 304, 352
-0.992907, 9, 57, 40, 120
-0.992908, 257, 177, 320, 208
-0.992916, 145, 61, 208, 92
-0.992917, 225, 89, 288, 120
-0.99292, 365, 329, 396, 360
-0.992926, 45, 69, 76, 100
-0.992937, 233, 189, 296, 220
-0.99294, 113, 1, 176, 32
-0.992942, 33, 281, 96, 344
-0.992945, 305, 105, 368, 136
-0.992953, 217, 249, 280, 280
-0.992961, 433, 1, 496, 32
-0.992969, 161, 113, 224, 144
-0.992972, 57, 37, 120, 68
-0.992973, 341, 153, 372, 184
-0.992977, 33, 89, 96, 120
-0.992984, 257, 65, 500, 128
-0.992997, 129, 89, 192, 120
-0.993, 357, 313, 388, 344
-0.993005, 281, 205, 344, 236
-0.993007, 233, 345, 296, 376
-0.993009, 445, 93, 476, 124
-0.99301, 1, 293, 64, 324
-0.993012, 169, 61, 232, 92
-0.993022, 65, 149, 128, 180
-0.993023, 241, 77, 304, 108
-0.993028, 169, 9, 232, 40
-0.993031, 273, 81, 400, 144
-0.99304, 321, 161, 352, 192
-0.993051, 265, 1, 296, 32
-0.993052, 313, 93, 376, 124
-0.993055, 281, 105, 344, 136
-0.993056, 353, 337, 384, 368
-0.993059, 37, 309, 68, 340
-0.993068, 433, 21, 496, 52
-0.99307, 49, 221, 112, 252
-0.993076, 377, 109, 440, 140
-0.99308, 257, 105, 500, 168
-0.993094, 373, 341, 404, 372
-0.993095, 449, 65, 480, 128
-0.993101, 81, 13, 144, 44
-0.993104, 357, 97, 388, 224
-0.993106, 25, 13, 56, 44
-0.993109, 297, 129, 328, 256
-0.993113, 241, 121, 368, 184
-0.993119, 257, 13, 288, 44
-0.993129, 97, 73, 128, 136
-0.993129, 421, 101, 452, 132
-0.993144, 9, 257, 40, 376
-0.993146, 25, 33, 56, 64
-0.993148, 29, 61, 60, 92
-0.99318, 93, 81, 124, 112
-0.993182, 333, 177, 364, 208
-0.993192, 353, 325, 384, 356
-0.993199, 1, 257, 64, 376
-0.9932, 25, 49, 56, 80
-0.99321, 149, 45, 180, 76
-0.993211, 25, 1, 56, 32
-0.993212, 57, 169, 88, 200
-0.993219, 337, 201, 464, 264
-0.993223, 321, 257, 448, 376
-0.993233, 245, 21, 276, 52
-0.993234, 133, 65, 164, 96
-0.993234, 169, 209, 232, 336
-0.993241, 233, 37, 264, 68
-0.993247, 9, 181, 40, 212
-0.993249, 321, 173, 352, 204
-0.99326, 329, 149, 360, 180
-0.993261, 329, 189, 360, 220
-0.993267, 277, 1, 308, 32
-0.99327, 341, 325, 372, 356
-0.99327, 409, 89, 440, 120
-0.99327, 129, 97, 384, 160
-0.99327, 69, 161, 100, 192
-0.993284, 97, 153, 128, 216
-0.993285, 385, 5, 416, 36
-0.993294, 297, 129, 360, 376
-0.9933, 41, 81, 72, 112
-0.993305, 37, 181, 68, 212
-0.993305, 389, 89, 420, 120
-0.993312, 389, 29, 420, 60
-0.993322, 53, 13, 84, 44
-0.993329, 389, 17, 420, 48
-0.993336, 113, 81, 144, 112
-0.993339, 81, 81, 112, 112
-0.993341, 105, 17, 136, 144
-0.993352, 213, 225, 244, 352
-0.993352, 409, 105, 440, 136
-0.993353, 345, 165, 376, 196
-0.993363, 29, 81, 60, 112
-0.993365, 13, 61, 44, 92
-0.993369, 89, 201, 152, 264
-0.993374, 29, 321, 60, 352
-0.993378, 457, 89, 488, 120
-0.993382, 277, 161, 308, 288
-0.993384, 389, 41, 420, 72
-0.993385, 41, 197, 72, 228
-0.993391, 337, 205, 368, 236
-0.993391, 1, 1, 500, 64
-0.993394, 145, 65, 176, 96
-0.9934, 13, 33, 44, 64
-0.993403, 53, 1, 84, 32
-0.993408, 81, 69, 112, 100
-0.993408, 389, 57, 420, 88
-0.993409, 125, 45, 156, 76
-0.993423, 53, 209, 84, 240
-0.993424, 369, 317, 400, 348
-0.993426, 453, 77, 484, 108
-0.993428, 389, 77, 420, 108
-0.99343, 369, 169, 496, 232
-0.993434, 1, 69, 32, 100
-0.993436, 77, 5, 108, 36
-0.993437, 433, 145, 496, 208
-0.993442, 177, 273, 304, 336
-0.993443, 233, 57, 264, 88
-0.993444, 21, 293, 52, 324
-0.993445, 13, 13, 44, 44
-0.993447, 57, 89, 88, 120
-0.993448, 377, 329, 408, 360
-0.993448, 233, 25, 264, 56
-0.993451, 49, 185, 80, 216
-0.993452, 81, 161, 112, 192
-0.993452, 25, 193, 56, 224
-0.993453, 77, 37, 108, 68
-0.993457, 93, 69, 124, 100
-0.993461, 57, 77, 88, 108
-0.993464, 345, 177, 376, 208
-0.993466, 125, 77, 156, 108
-0.99347, 13, 345, 44, 376
-0.993472, 25, 181, 56, 212
-0.993478, 161, 53, 192, 84
-0.993479, 13, 73, 44, 104
-0.993485, 317, 201, 348, 232
-0.993486, 253, 69, 284, 100
-0.993487, 77, 25, 108, 56
-0.993488, 21, 333, 52, 364
-0.993491, 397, 101, 428, 132
-0.993492, 13, 1, 44, 32
-0.993493, 317, 105, 348, 136
-0.993495, 469, 81, 500, 112
-0.993499, 345, 313, 376, 344
-0.993502, 213, 49, 244, 80
-0.993506, 341, 193, 372, 224
-0.993508, 269, 97, 300, 224
-0.993509, 125, 25, 156, 56
-0.99351, 405, 37, 436, 68
-0.993511, 97, 41, 352, 104
-0.993516, 145, 257, 208, 376
-0.993518, 121, 65, 152, 96
-0.993519, 405, 25, 436, 56
-0.993519, 13, 45, 44, 76
-0.993519, 197, 257, 228, 288
-0.993521, 57, 65, 88, 96
-0.993526, 405, 53, 436, 84
-0.99353, 57, 53, 88, 84
-0.993531, 165, 33, 196, 64
-0.993532, 57, 25, 88, 56
-0.993538, 213, 65, 244, 96
-0.99354, 253, 57, 284, 88
-0.993545, 213, 297, 244, 328
-0.993545, 137, 45, 168, 76
-0.993552, 309, 185, 340, 216
-0.993553, 13, 309, 44, 340
-0.993553, 137, 1, 200, 376
-0.993554, 37, 169, 68, 200
-0.993555, 89, 265, 152, 328
-0.993556, 341, 337, 372, 368
-0.993558, 361, 193, 424, 256
-0.993559, 309, 173, 340, 204
-0.993562, 357, 185, 388, 216
-0.993562, 405, 13, 436, 44
-0.993564, 1, 57, 32, 88
-0.993564, 405, 65, 436, 96
-0.993565, 81, 53, 112, 84
-0.993565, 57, 157, 88, 188
-0.993566, 333, 105, 364, 136
-0.993567, 57, 41, 88, 72
-0.993567, 369, 305, 400, 336
-0.993568, 401, 1, 432, 32
-0.993568, 245, 33, 276, 64
-0.993568, 253, 81, 284, 112
-0.993572, 277, 33, 308, 160
-0.993576, 13, 1, 44, 64
-0.993583, 189, 257, 220, 376
-0.993598, 145, 265, 208, 328
-0.993605, 305, 105, 336, 168
-0.993623, 329, 73, 392, 136
-0.993649, 129, 201, 256, 264
-0.99366, 169, 1, 232, 376
-0.993674, 57, 209, 88, 272
-0.993689, 333, 113, 364, 176
-0.993737, 1, 313, 64, 376
-0.993739, 333, 97, 364, 224
-0.99375, 337, 209, 368, 272
-0.993755, 1, 153, 500, 216
-0.993818, 57, 1, 88, 128
-0.993837, 57, 49, 88, 112
-0.993837, 289, 281, 416, 344
-0.993879, 241, 225, 304, 288
-0.993903, 145, 1, 208, 64
-0.993918, 1, 1, 32, 128
-0.993936, 453, 33, 484, 160
-0.993938, 1, 289, 128, 352
-0.993947, 1, 177, 32, 240
-0.993947, 9, 97, 72, 160
-0.993957, 57, 25, 88, 88
-0.993959, 145, 33, 208, 288
-0.993976, 405, 1, 436, 64
-0.993982, 253, 177, 284, 304
-0.994017, 1, 161, 256, 224
-0.994044, 89, 1, 120, 128
-0.99405, 1, 233, 128, 296
-0.994062, 385, 137, 448, 200
-0.994108, 293, 33, 324, 160
-0.994177, 213, 17, 244, 144
-0.994188, 369, 281, 432, 344
-0.994212, 301, 137, 332, 200
-0.99427, 353, 137, 384, 200
-0.994289, 113, 145, 240, 208
-0.994323, 237, 65, 268, 192
-0.994397, 253, 225, 284, 352
-0.99442, 193, 121, 320, 184
-0.994442, 93, 49, 124, 112
-0.994463, 205, 265, 236, 328
-0.994476, 469, 17, 500, 80
-0.994488, 161, 313, 416, 376
-0.994492, 17, 105, 144, 168
-0.994501, 89, 313, 152, 376
-0.994521, 329, 129, 392, 376
-0.994523, 209, 97, 272, 352
-0.994541, 361, 169, 424, 232
-0.994555, 337, 49, 368, 176
-0.99456, 73, 225, 104, 352
-0.994569, 225, 177, 480, 240
-0.994588, 325, 217, 356, 280
-0.994618, 161, 113, 224, 176
-0.994636, 257, 97, 288, 224
-0.994644, 33, 281, 288, 344
-0.994674, 69, 137, 100, 200
-0.994701, 145, 241, 208, 304
-0.994718, 333, 209, 364, 336
-0.994734, 73, 65, 104, 128
-0.99476, 361, 257, 392, 376
-0.994822, 329, 217, 392, 280
-0.994859, 217, 289, 248, 352
-0.994861, 213, 65, 244, 128
-0.994873, 1, 33, 32, 96
-0.994876, 129, 121, 384, 184
-0.994915, 185, 33, 248, 288
-0.994954, 289, 145, 320, 208
-0.994962, 157, 97, 188, 224
-0.994962, 141, 129, 172, 256
-0.994964, 305, 225, 432, 288
-0.994985, 33, 305, 288, 368
-0.995053, 29, 257, 60, 376
-0.995069, 225, 153, 288, 216
-0.995074, 193, 249, 224, 312
-0.99508, 347, 161, 362, 224
-0.995081, 305, 49, 336, 176
-0.995081, 325, 49, 356, 176
-0.995089, 405, 25, 436, 88
-0.995112, 149, 121, 180, 184
-0.995122, 385, 161, 448, 224
-0.99513, 69, 41, 100, 104
-0.995143, 221, 177, 252, 304
-0.995171, 193, 209, 448, 272
-0.995192, 65, 193, 320, 256
-0.995205, 249, 129, 312, 256
-0.99521, 1, 41, 500, 104
-0.99524, 49, 313, 112, 376
-0.995242, 257, 57, 288, 120
-0.995258, 257, 137, 500, 200
-0.995267, 161, 105, 192, 168
-0.995282, 37, 193, 68, 256
-0.995304, 469, 41, 500, 104
-0.995314, 225, 265, 352, 328
-0.995327, 69, 217, 100, 280
-0.995342, 309, 193, 340, 256
-0.995367, 369, 1, 496, 32
-0.995369, 13, 49, 44, 176
-0.995383, 47, 9, 62, 72
-0.995389, 437, 33, 468, 160
-0.995462, 357, 177, 388, 240
-0.995506, 257, 225, 384, 288
-0.995507, 165, 25, 196, 88
-0.995556, 9, 97, 72, 352
-0.995594, 1, 305, 500, 368
-0.995613, 217, 257, 248, 320
-0.995632, 149, 89, 180, 152
-0.995641, 377, 97, 408, 224
-0.995653, 109, 145, 140, 272
-0.995693, 1, 209, 64, 336
-0.99571, 217, 233, 248, 296
-0.995721, 381, 313, 412, 376
-0.995722, 89, 225, 120, 352
-0.995741, 33, 137, 288, 200
-0.99576, 81, 225, 112, 288
-0.995789, 85, 129, 116, 192
-0.995812, 1, 89, 256, 152
-0.995833, 205, 225, 236, 288
-0.995845, 37, 145, 68, 208
-0.995895, 245, 193, 276, 256
-0.995908, 113, 65, 240, 96
-0.995921, 65, 241, 320, 304
-0.995938, 139, 41, 154, 104
-0.995941, 161, 73, 416, 136
-0.995953, 1, 129, 500, 192
-0.99596, 1, 177, 500, 240
-0.995964, 337, 265, 464, 328
-0.995969, 443, 89, 458, 152
-0.995979, 49, 41, 64, 104
-0.995998, 105, 193, 168, 320
-0.996006, 193, 233, 448, 296
-0.996011, 353, 97, 480, 128
-0.996017, 37, 281, 68, 344
-0.99605, 5, 153, 36, 216
-0.996056, 271, 1, 286, 64
-0.996073, 255, 17, 270, 80
-0.996077, 33, 217, 288, 280
-0.996085, 161, 153, 416, 216
-0.996102, 225, 29, 352, 60
-0.996103, 137, 137, 168, 200
-0.99612, 337, 85, 464, 116
-0.996138, 369, 17, 496, 48
-0.996161, 145, 45, 272, 76
-0.996186, 121, 145, 152, 272
-0.99619, 377, 225, 440, 352
-0.996192, 1, 201, 500, 264
-0.996216, 1, 257, 128, 320
-0.996221, 449, 89, 464, 152
-0.996221, 361, 97, 424, 352
-0.996235, 77, 193, 108, 256
-0.996248, 241, 13, 368, 44
-0.996259, 367, 313, 382, 376
-0.996282, 193, 9, 224, 72
-0.996288, 177, 129, 240, 376
-0.9963, 49, 161, 176, 192
-0.996316, 249, 81, 280, 144
-0.996329, 13, 177, 44, 304
-0.996331, 145, 33, 272, 64
-0.99634, 1, 21, 128, 52
-0.996347, 201, 57, 232, 120
-0.996359, 109, 241, 140, 368
-0.996374, 361, 145, 392, 272
-0.996386, 213, 17, 244, 80
-0.996403, 145, 41, 160, 104
-0.99641, 305, 25, 432, 56
-0.996416, 241, 1, 368, 32
-0.996419, 437, 65, 468, 128
-0.996421, 159, 41, 174, 104
-0.996421, 277, 153, 308, 216
-0.996426, 39, 33, 54, 96
-0.996433, 133, 41, 148, 104
-0.99645, 237, 305, 268, 368
-0.99645, 197, 313, 228, 376
-0.996455, 345, 137, 360, 200
-0.99647, 345, 209, 376, 336
-0.996492, 193, 281, 448, 344
-0.996511, 361, 305, 376, 368
-0.996519, 333, 1, 364, 128
-0.996534, 369, 73, 496, 104
-0.996535, 49, 37, 176, 68
-0.996538, 257, 177, 384, 208
-0.9966, 247, 25, 262, 88
-0.996608, 229, 217, 260, 280
-0.996627, 151, 41, 166, 104
-0.99664, 263, 9, 278, 72
-0.996643, 1, 1, 128, 32
-0.996644, 365, 289, 396, 352
-0.996651, 1, 61, 128, 92
-0.996656, 57, 185, 88, 248
-0.996659, 335, 153, 350, 216
-0.996673, 177, 257, 208, 376
-0.996678, 161, 257, 416, 320
-0.996686, 369, 29, 496, 60
-0.996687, 353, 97, 384, 160
-0.996704, 1, 33, 128, 64
-0.996713, 285, 1, 316, 64
-0.996741, 13, 113, 44, 240
-0.996747, 365, 97, 396, 160
-0.996759, 369, 241, 496, 304
-0.996777, 351, 185, 366, 248
-0.996779, 1, 181, 128, 212
-0.996786, 337, 289, 368, 352
-0.996796, 113, 281, 240, 312
-0.9968, 273, 249, 400, 312
-0.996808, 129, 209, 192, 336
-0.996809, 1, 49, 128, 80
-0.996824, 305, 37, 432, 68
-0.996824, 49, 73, 176, 104
-0.996833, 309, 169, 340, 232
-0.996834, 161, 81, 288, 112
-0.99684, 305, 13, 432, 44
-0.996856, 41, 57, 56, 120
-0.996878, 97, 169, 224, 232
-0.996927, 161, 177, 288, 240
-0.996968, 437, 89, 452, 152
-0.996979, 369, 45, 496, 76
-0.996986, 49, 25, 176, 56
-0.996998, 173, 1, 204, 128
-0.996999, 1, 341, 128, 372
-0.997001, 59, 169, 74, 232
-0.997015, 201, 49, 232, 176
-0.997073, 305, 101, 432, 132
-0.997084, 33, 313, 48, 376
-0.997093, 321, 61, 448, 92
-0.997096, 127, 41, 142, 104
-0.997146, 17, 317, 144, 348
-0.997161, 233, 193, 264, 256
-0.997175, 101, 193, 132, 320
-0.997177, 165, 41, 180, 104
-0.997177, 109, 145, 140, 208
-0.997185, 49, 1, 176, 32
-0.997187, 131, 65, 146, 128
-0.99719, 133, 89, 164, 152
-0.99719, 455, 89, 470, 152
-0.997195, 247, 49, 262, 112
-0.997196, 1, 165, 128, 196
-0.997197, 49, 49, 176, 80
-0.997198, 209, 177, 240, 304
-0.997199, 93, 57, 108, 120
-0.997213, 129, 261, 256, 292
-0.997213, 373, 313, 388, 376
-0.997213, 257, 157, 384, 188
-0.997216, 1, 329, 128, 360
-0.997219, 129, 293, 256, 324
-0.997225, 37, 9, 52, 72
-0.99723, 139, 65, 154, 128
-0.99723, 193, 17, 320, 48
-0.997237, 1, 161, 32, 288
-0.997245, 193, 1, 320, 32
-0.997263, 145, 65, 160, 128
-0.997271, 321, 49, 448, 80
-0.997273, 357, 169, 372, 232
-0.997283, 69, 129, 100, 376
-0.997289, 341, 161, 356, 224
-0.997292, 257, 197, 384, 228
-0.997293, 277, 1, 292, 64
-0.997293, 429, 97, 444, 160
-0.997311, 47, 65, 62, 128
-0.997315, 355, 137, 370, 200
-0.997326, 39, 297, 54, 360
-0.997336, 97, 13, 224, 44
-0.997356, 17, 177, 32, 240
-0.997359, 89, 1, 104, 64
-0.997362, 323, 105, 338, 168
-0.997373, 33, 85, 160, 116
-0.997375, 129, 249, 256, 280
-0.997385, 99, 73, 114, 136
-0.997391, 305, 1, 432, 32
-0.9974, 161, 57, 288, 88
-0.997407, 17, 193, 144, 224
-0.997411, 33, 289, 48, 352
-0.997413, 351, 305, 366, 368
-0.997421, 145, 21, 272, 52
-0.997437, 1, 65, 500, 128
-0.997452, 257, 209, 384, 240
-0.997456, 241, 25, 256, 88
-0.997491, 157, 65, 172, 128
-0.997497, 95, 153, 110, 216
-0.997507, 81, 129, 112, 376
-0.997513, 49, 177, 176, 208
-0.997527, 1, 105, 500, 168
-0.997539, 9, 33, 24, 96
-0.997553, 321, 193, 448, 224
-0.997554, 369, 61, 496, 92
-0.997557, 421, 105, 436, 168
-0.997566, 65, 149, 192, 180
-0.997576, 405, 81, 420, 144
-0.997582, 151, 65, 166, 128
-0.997588, 161, 153, 288, 216
-0.997592, 413, 105, 428, 168
-0.997598, 225, 41, 352, 72
-0.997617, 289, 257, 352, 376
-0.997624, 87, 153, 102, 216
-0.997625, 125, 73, 140, 136
-0.99763, 335, 177, 350, 240
-0.997636, 289, 345, 416, 376
-0.99764, 49, 13, 176, 44
-0.99765, 337, 129, 352, 192
-0.997654, 33, 1, 64, 256
-0.997669, 53, 169, 68, 232
-0.997671, 1, 281, 500, 344
-0.997676, 81, 33, 112, 288
-0.997681, 327, 169, 342, 232
-0.997696, 137, 129, 200, 376
-0.9977, 345, 185, 360, 248
-0.997724, 83, 1, 98, 64
-0.997726, 93, 33, 108, 96
-0.997738, 161, 69, 288, 100
-0.997739, 259, 57, 274, 120
-0.997744, 321, 73, 448, 104
-0.997753, 1, 113, 256, 176
-0.997756, 293, 1, 324, 256
-0.997763, 81, 153, 96, 216
-0.997773, 235, 33, 250, 96
-0.997786, 129, 129, 256, 160
-0.99779, 273, 305, 400, 336
-0.997796, 253, 49, 268, 112
-0.997796, 329, 105, 344, 168
-0.997797, 401, 145, 432, 272
-0.99781, 253, 1, 284, 256
-0.99783, 225, 53, 352, 84
-0.997837, 115, 73, 130, 136
-0.997857, 47, 25, 62, 56
-0.997862, 321, 165, 448, 196
-0.997865, 113, 1, 240, 32
-0.997872, 381, 313, 396, 376
-0.997873, 101, 153, 116, 216
-0.997876, 121, 257, 152, 376
-0.997878, 369, 117, 496, 148
-0.99788, 215, 49, 230, 112
-0.99788, 33, 305, 160, 336
-0.997883, 49, 61, 176, 92
-0.997888, 73, 161, 88, 224
-0.997889, 217, 265, 232, 328
-0.997892, 11, 169, 26, 232
-0.997895, 41, 81, 56, 144
-0.9979, 97, 45, 224, 76
-0.997901, 257, 313, 500, 376
-0.997907, 163, 65, 178, 128
-0.997909, 401, 57, 416, 120
-0.997909, 257, 145, 384, 176
-0.997922, 45, 1, 60, 32
-0.997923, 49, 205, 176, 236
-0.997926, 305, 321, 432, 352
-0.997929, 81, 85, 208, 116
-0.997929, 305, 209, 432, 240
-0.99793, 65, 161, 80, 224
-0.997936, 377, 145, 408, 272
-0.99794, 53, 33, 84, 288
-0.997942, 161, 93, 288, 124
-0.997948, 345, 169, 360, 200
-0.99795, 315, 105, 330, 168
-0.997951, 27, 289, 42, 352
-0.997982, 85, 33, 100, 96
-0.997983, 69, 209, 84, 272
-0.997983, 217, 289, 232, 352
-0.997984, 445, 93, 460, 124
-0.997993, 209, 185, 336, 216
-0.997993, 93, 129, 124, 376
-0.998008, 209, 229, 336, 260
-0.998022, 45, 13, 60, 44
-0.998025, 287, 1, 302, 64
-0.998025, 323, 201, 338, 264
-0.998028, 401, 25, 416, 88
-0.998034, 97, 25, 224, 56
-0.998034, 25, 161, 56, 288
-0.998044, 421, 65, 452, 320
-0.998045, 335, 105, 350, 168
-0.998058, 1, 233, 500, 296
-0.998059, 227, 41, 242, 104
-0.99806, 113, 141, 240, 172
-0.998061, 107, 73, 122, 136
-0.998066, 47, 37, 62, 68
-0.998076, 437, 97, 452, 128
-0.998084, 149, 17, 164, 80
-0.998085, 353, 301, 480, 332
-0.998092, 451, 65, 466, 128
-0.998092, 1, 73, 128, 104
-0.998094, 27, 313, 42, 376
-0.998095, 1, 221, 128, 252
-0.998095, 329, 137, 344, 200
-0.998098, 125, 1, 156, 256
-0.998098, 43, 185, 58, 248
-0.998101, 277, 33, 308, 288
-0.998107, 23, 177, 38, 240
-0.998113, 7, 1, 22, 64
-0.998119, 11, 57, 26, 120
-0.998126, 57, 129, 88, 376
-0.998127, 451, 93, 466, 124
-0.998128, 1, 65, 16, 128
-0.998129, 155, 17, 170, 80
-0.998133, 141, 17, 156, 80
-0.998135, 407, 105, 422, 168
-0.998136, 193, 249, 320, 280
-0.99814, 245, 193, 260, 256
-0.998145, 369, 157, 496, 188
-0.998146, 193, 337, 320, 368
-0.998147, 481, 1, 496, 64
-0.998149, 209, 69, 336, 100
-0.998149, 399, 1, 414, 64
-0.998158, 457, 65, 472, 128
-0.998159, 393, 1, 424, 256
-0.99816, 25, 113, 56, 240
-0.998161, 49, 49, 64, 80
-0.998171, 335, 161, 350, 192
-0.998175, 129, 145, 192, 272
-0.998177, 475, 81, 490, 144
-0.99818, 221, 41, 236, 104
-0.998183, 223, 257, 238, 320
-0.998183, 67, 81, 82, 144
-0.998192, 469, 81, 484, 144
-0.998192, 223, 289, 238, 352
-0.998199, 75, 217, 90, 280
-0.998207, 481, 41, 496, 104
-0.99821, 81, 97, 208, 128
-0.998217, 241, 1, 272, 256
-0.998227, 69, 33, 100, 288
-0.998231, 129, 237, 256, 268
-0.998232, 145, 117, 272, 148
-0.998232, 309, 105, 324, 168
-0.998232, 141, 1, 172, 256
-0.998235, 367, 289, 382, 352
-0.998236, 135, 17, 150, 80
-0.998237, 265, 65, 296, 320
-0.998243, 1, 257, 500, 320
-0.998243, 47, 161, 62, 224
-0.998246, 337, 201, 352, 264
-0.998247, 319, 129, 334, 192
-0.998253, 329, 193, 344, 256
-0.998254, 37, 185, 52, 248
-0.998262, 237, 209, 252, 272
-0.998268, 357, 97, 372, 160
-0.998272, 321, 177, 448, 208
-0.998272, 379, 329, 394, 360
-0.998275, 57, 81, 72, 144
-0.998275, 313, 171, 344, 186
-0.998275, 57, 63, 88, 78
-0.998276, 225, 101, 352, 132
-0.998276, 125, 37, 156, 52
-0.998277, 13, 9, 44, 24
-0.998277, 381, 353, 412, 368
-0.998277, 233, 33, 264, 48
-0.998278, 373, 359, 404, 374
-0.998278, 405, 51, 436, 66
-0.998278, 341, 189, 372, 204
-0.998279, 13, 71, 44, 86
-0.998279, 411, 65, 426, 128
-0.998279, 321, 191, 352, 206
-0.998279, 101, 77, 132, 92
-0.99828, 433, 65, 464, 320
-0.99828, 25, 195, 56, 210
-0.998281, 57, 81, 88, 96
-0.998281, 53, 179, 84, 194
-0.998281, 337, 325, 368, 340
-0.998283, 337, 213, 368, 228
-0.998284, 29, 327, 60, 342
-0.998284, 77, 37, 108, 52
-0.998285, 37, 175, 68, 190
-0.998285, 53, 1, 84, 16
-0.998285, 77, 29, 108, 44
-0.998287, 13, 37, 44, 52
-0.998288, 29, 83, 60, 98
-0.998289, 313, 183, 344, 198
-0.998289, 389, 69, 420, 84
-0.998289, 369, 339, 400, 354
-0.99829, 37, 189, 68, 204
-0.998291, 77, 163, 108, 178
-0.998291, 275, 1, 290, 32
-0.998292, 13, 15, 44, 30
-0.998292, 13, 31, 44, 46
-0.998292, 393, 103, 424, 118
-0.998292, 389, 81, 420, 96
-0.998293, 13, 43, 44, 58
-0.998293, 13, 25, 44, 40
-0.998293, 313, 177, 344, 192
-0.998293, 245, 29, 276, 44
-0.998294, 333, 195, 364, 210
-0.998294, 341, 183, 372, 198
-0.998294, 53, 9, 84, 24
-0.998295, 49, 195, 80, 210
-0.998295, 133, 67, 164, 82
-0.998296, 369, 327, 400, 342
-0.998296, 345, 207, 376, 222
-0.998296, 77, 79, 108, 94
-0.998298, 389, 75, 420, 90
-0.998298, 33, 317, 64, 332
-0.998299, 107, 153, 122, 216
-0.998301, 341, 335, 372, 350
-0.998301, 357, 353, 388, 368
-0.998302, 389, 61, 420, 76
-0.998302, 369, 321, 400, 336
-0.998303, 49, 87, 80, 102
-0.998303, 389, 93, 420, 108
-0.998305, 37, 181, 68, 196
-0.998307, 253, 23, 284, 38
-0.998307, 389, 51, 420, 66
-0.998307, 53, 15, 84, 30
-0.998307, 345, 341, 376, 356
-0.998308, 53, 173, 84, 188
-0.998308, 233, 41, 264, 56
-0.998309, 389, 45, 420, 60
-0.998309, 373, 333, 404, 348
-0.998311, 337, 165, 368, 180
-0.998312, 389, 1, 420, 16
-0.998313, 389, 31, 420, 46
-0.998313, 341, 153, 372, 168
-0.998315, 389, 19, 420, 34
-0.998315, 65, 165, 96, 180
-0.998316, 145, 43, 176, 58
-0.998317, 257, 17, 288, 32
-0.998317, 373, 345, 404, 360
-0.998319, 389, 37, 420, 52
-0.99832, 389, 13, 420, 28
-0.99832, 53, 21, 84, 36
-0.998321, 457, 129, 488, 256
-0.998321, 321, 225, 352, 352
-0.998323, 483, 65, 498, 128
-0.998324, 33, 59, 64, 74
-0.998325, 457, 91, 488, 106
-0.998326, 317, 201, 332, 264
-0.998328, 389, 25, 420, 40
-0.998328, 29, 77, 60, 92
-0.998328, 25, 3, 56, 18
-0.998329, 25, 53, 56, 68
-0.99833, 385, 7, 416, 22
-0.998331, 371, 337, 386, 368
-0.998331, 357, 321, 388, 336
-0.998331, 369, 353, 400, 368
-0.998331, 329, 185, 360, 200
-0.998332, 409, 107, 440, 122
-0.998332, 261, 11, 292, 26
-0.998333, 341, 171, 372, 186
-0.998333, 377, 49, 408, 176
-0.998335, 329, 153, 360, 168
-0.998336, 349, 347, 380, 362
-0.998337, 361, 347, 392, 362
-0.998337, 341, 33, 372, 288
-0.998338, 53, 27, 84, 42
-0.998338, 269, 3, 300, 18
-0.998339, 39, 309, 54, 340
-0.99834, 329, 201, 360, 216
-0.998341, 49, 69, 64, 100
-0.998342, 209, 197, 336, 228
-0.998343, 29, 65, 60, 80
-0.998344, 5, 183, 36, 198
-0.998346, 357, 315, 388, 330
-0.998346, 431, 97, 446, 128
-0.99835, 37, 311, 68, 326
-0.99835, 65, 329, 192, 360
-0.99835, 25, 9, 56, 24
-0.99835, 93, 83, 124, 98
-0.99835, 329, 179, 360, 194
-0.998354, 409, 97, 440, 112
-0.998356, 325, 159, 356, 174
-0.998357, 25, 47, 56, 62
-0.998357, 45, 81, 76, 96
-0.998361, 241, 81, 368, 112
-0.998362, 25, 35, 56, 50
-0.998364, 29, 71, 60, 86
-0.998364, 1, 149, 128, 180
-0.998364, 357, 341, 388, 356
-0.998364, 361, 333, 392, 348
-0.998366, 421, 105, 452, 120
-0.998367, 337, 159, 368, 174
-0.998368, 25, 27, 56, 42
-0.998368, 25, 15, 56, 30
-0.99837, 25, 41, 56, 56
-0.99837, 305, 1, 336, 256
-0.998376, 25, 21, 56, 36
-0.998378, 269, 5, 284, 36
-0.998379, 357, 327, 388, 342
-0.99838, 325, 165, 356, 180
-0.99838, 45, 75, 76, 90
-0.998382, 389, 145, 420, 272
-0.998384, 161, 273, 288, 304
-0.998385, 341, 177, 372, 192
-0.998406, 193, 261, 320, 292
-0.998412, 445, 95, 476, 110
-0.998418, 45, 67, 76, 82
-0.99842, 49, 265, 176, 296
-0.998422, 329, 171, 360, 186
-0.998425, 209, 285, 336, 316
-0.998434, 45, 37, 76, 52
-0.998434, 45, 53, 76, 68
-0.998434, 425, 177, 456, 304
-0.998437, 45, 61, 76, 76
-0.998442, 45, 47, 76, 62
-0.998443, 433, 99, 464, 114
-0.998445, 41, 27, 72, 42
-0.998446, 359, 337, 374, 368
-0.998448, 349, 181, 364, 212
-0.99845, 41, 1, 72, 16
-0.998454, 193, 161, 320, 192
-0.998455, 261, 13, 276, 44
-0.998456, 41, 21, 72, 36
-0.998457, 353, 325, 480, 356
-0.998458, 97, 341, 224, 372
-0.998462, 41, 11, 72, 26
-0.998464, 209, 305, 336, 336
-0.998475, 375, 317, 390, 348
-0.998486, 349, 153, 364, 184
-0.998488, 33, 317, 48, 348
-0.998492, 65, 125, 192, 156
-0.998494, 341, 149, 356, 180
-0.998495, 289, 133, 416, 164
-0.998495, 95, 77, 110, 108
-0.998496, 365, 345, 380, 376
-0.998502, 333, 129, 364, 376
-0.998505, 353, 337, 480, 368
-0.998506, 9, 33, 72, 48
-0.998506, 255, 17, 270, 48
-0.998506, 161, 305, 288, 336
-0.99851, 9, 27, 72, 42
-0.998513, 9, 39, 72, 54
-0.998514, 9, 21, 72, 36
-0.998516, 9, 13, 72, 28
-0.99852, 59, 169, 74, 200
-0.99852, 9, 7, 72, 22
-0.99853, 9, 1, 72, 16
-0.998533, 25, 329, 40, 360
-0.998533, 19, 341, 34, 372
-0.998534, 145, 345, 272, 376
-0.998535, 9, 45, 72, 60
-0.998537, 377, 345, 392, 376
-0.998541, 353, 313, 480, 344
-0.99855, 273, 333, 400, 364
-0.998551, 17, 63, 80, 78
-0.998559, 9, 51, 72, 66
-0.998564, 41, 65, 56, 96
-0.998564, 357, 185, 372, 216
-0.998565, 9, 57, 72, 72
-0.998565, 193, 217, 320, 248
-0.998566, 405, 65, 436, 320
-0.998577, 321, 153, 448, 184
-0.998585, 209, 173, 336, 204
-0.998586, 17, 69, 80, 84
-0.998588, 33, 1, 96, 16
-0.998594, 369, 137, 496, 168
-0.998595, 65, 109, 192, 140
-0.998595, 393, 101, 456, 116
-0.998596, 19, 181, 34, 212
-0.998597, 363, 313, 378, 344
-0.9986, 425, 97, 488, 112
-0.998603, 25, 187, 88, 202
-0.998606, 57, 165, 120, 180
-0.998606, 33, 7, 96, 22
-0.998609, 369, 101, 432, 116
-0.99861, 353, 321, 368, 352
-0.99861, 33, 37, 96, 52
-0.998612, 33, 27, 96, 42
-0.998614, 33, 21, 96, 36
-0.998618, 393, 93, 456, 108
-0.998623, 33, 15, 96, 30
-0.998623, 33, 43, 96, 58
-0.998627, 17, 193, 80, 208
-0.998627, 297, 173, 360, 188
-0.998632, 49, 293, 176, 324
-0.998633, 113, 313, 240, 344
-0.998633, 321, 179, 384, 194
-0.998633, 121, 45, 184, 60
-0.998633, 297, 181, 360, 196
-0.998634, 257, 1, 272, 128
-0.998635, 17, 181, 80, 196
-0.998637, 1, 1, 32, 256
-0.998638, 25, 319, 88, 334
-0.998643, 33, 49, 96, 64
-0.998646, 161, 45, 176, 76
-0.998648, 321, 185, 384, 200
-0.998648, 401, 87, 464, 102
-0.998648, 361, 3, 424, 18
-0.998649, 345, 317, 408, 332
-0.998651, 129, 67, 192, 82
-0.998651, 393, 107, 456, 122
-0.998651, 209, 23, 272, 38
-0.998652, 265, 3, 328, 18
-0.998652, 257, 221, 384, 252
-0.998653, 25, 313, 88, 328
-0.998653, 25, 325, 88, 340
-0.998653, 257, 11, 320, 26
-0.998656, 289, 159, 352, 174
-0.998657, 423, 105, 438, 136
-0.998657, 103, 85, 118, 116
-0.998658, 417, 103, 480, 118
-0.998658, 297, 167, 360, 182
-0.998658, 17, 75, 80, 90
-0.998661, 57, 81, 120, 96
-0.998661, 39, 37, 54, 68
-0.998663, 249, 17, 312, 32
-0.998664, 33, 55, 96, 70
-0.998664, 241, 23, 304, 38
-0.998665, 289, 151, 352, 166
-0.998666, 41, 63, 104, 78
-0.998666, 209, 29, 272, 44
-0.998667, 209, 75, 272, 90
-0.998668, 321, 191, 384, 206
-0.998669, 273, 175, 336, 190
-0.99867, 17, 199, 80, 214
-0.998671, 345, 347, 408, 362
-0.998675, 329, 157, 392, 172
-0.998676, 361, 31, 424, 46
-0.998676, 361, 9, 424, 24
-0.998676, 361, 17, 424, 32
-0.998676, 329, 323, 392, 338
-0.998677, 297, 187, 360, 202
-0.998677, 337, 173, 400, 188
-0.998679, 97, 83, 160, 98
-0.998679, 289, 145, 352, 160
-0.998679, 361, 25, 424, 40
-0.99868, 361, 41, 424, 56
-0.99868, 209, 17, 272, 32
-0.99868, 365, 333, 380, 364
-0.99868, 361, 53, 424, 68
-0.998681, 201, 41, 264, 56
-0.998682, 41, 69, 104, 84
-0.998682, 361, 325, 424, 340
-0.998682, 201, 35, 264, 50
-0.998682, 185, 297, 248, 312
-0.998684, 361, 47, 424, 62
-0.998684, 401, 67, 464, 82
-0.998684, 393, 19, 456, 34
-0.998684, 81, 1, 144, 16
-0.998685, 241, 29, 304, 44
-0.998685, 1, 187, 64, 202
-0.998685, 97, 39, 160, 54
-0.998686, 329, 333, 392, 348
-0.998686, 133, 65, 148, 96
-0.998686, 209, 69, 272, 84
-0.998686, 25, 175, 88, 190
-0.998686, 393, 25, 456, 40
-0.998688, 353, 335, 416, 350
-0.998689, 393, 9, 456, 24
-0.99869, 433, 91, 496, 106
-0.998691, 345, 353, 408, 368
-0.998691, 401, 45, 464, 60
-0.998691, 401, 51, 464, 66
-0.998692, 265, 181, 328, 196
-0.998692, 361, 59, 424, 74
-0.998692, 49, 171, 112, 186
-0.998693, 393, 1, 456, 16
-0.998693, 265, 187, 328, 202
-0.998693, 337, 207, 400, 222
-0.998694, 121, 39, 184, 54
-0.998694, 401, 73, 464, 88
-0.998694, 49, 195, 112, 210
-0.998694, 49, 183, 112, 198
-0.998695, 321, 315, 384, 330
-0.998695, 393, 35, 456, 50
-0.998695, 273, 169, 336, 184
-0.998696, 321, 339, 384, 354
-0.998697, 209, 63, 272, 78
-0.998697, 353, 341, 416, 356
-0.998697, 401, 59, 464, 74
-0.998697, 161, 43, 224, 58
-0.998698, 57, 57, 120, 72
-0.998699, 361, 69, 424, 84
-0.998699, 57, 75, 120, 90
-0.998699, 337, 163, 400, 178
-0.9987, 401, 79, 464, 94
-0.9987, 161, 59, 224, 74
-0.998701, 97, 71, 160, 86
-0.998702, 153, 1, 184, 256
-0.998702, 201, 47, 264, 62
-0.998703, 317, 33, 348, 288
-0.998704, 249, 25, 264, 56
-0.998704, 41, 93, 104, 108
-0.998706, 81, 77, 144, 92
-0.998706, 17, 339, 80, 354
-0.998706, 17, 83, 80, 98
-0.998707, 329, 105, 392, 120
-0.998707, 321, 199, 384, 214
-0.998707, 457, 93, 472, 124
-0.998707, 361, 95, 424, 110
-0.998707, 417, 105, 432, 136
-0.998707, 297, 139, 360, 154
-0.998708, 177, 255, 240, 270
-0.998709, 145, 105, 272, 136
-0.998714, 37, 17, 52, 48
-0.99873, 405, 97, 420, 128
-0.998743, 93, 65, 108, 96
-0.998747, 351, 193, 366, 224
-0.998751, 335, 173, 350, 204
-0.99876, 43, 81, 58, 112
-0.998763, 13, 181, 28, 212
-0.998765, 65, 137, 192, 168
-0.99877, 357, 173, 372, 204
-0.99877, 49, 233, 176, 264
-0.998784, 139, 65, 154, 96
-0.998789, 321, 129, 352, 376
-0.998795, 445, 33, 476, 288
-0.998799, 411, 109, 426, 140
-0.998804, 209, 149, 336, 180
-0.998807, 161, 325, 288, 356
-0.998812, 119, 81, 134, 112
-0.998812, 357, 49, 388, 176
-0.998816, 41, 257, 72, 376
-0.998818, 65, 161, 80, 192
-0.998819, 289, 89, 416, 120
-0.998828, 39, 49, 54, 80
-0.998833, 81, 245, 208, 276
-0.998835, 141, 45, 156, 76
-0.998836, 37, 5, 52, 36
-0.998837, 385, 333, 400, 364
-0.998838, 147, 65, 162, 96
-0.998842, 111, 85, 126, 116
-0.998851, 7, 73, 22, 104
-0.998851, 305, 113, 432, 144
-0.998852, 43, 197, 58, 228
-0.998853, 49, 181, 64, 212
-0.998854, 327, 157, 342, 188
-0.998861, 443, 109, 458, 140
-0.998862, 355, 157, 370, 188
-0.998867, 241, 345, 368, 376
-0.998876, 67, 213, 82, 244
-0.998881, 243, 29, 258, 60
-0.998883, 343, 181, 358, 212
-0.998886, 369, 313, 384, 344
-0.998887, 369, 177, 496, 208
-0.998889, 263, 1, 278, 128
-0.99889, 129, 225, 256, 256
-0.998891, 1, 209, 32, 336
-0.998897, 463, 145, 478, 176
-0.9989, 347, 205, 362, 236
-0.998901, 157, 65, 172, 96
-0.998901, 45, 305, 60, 336
-0.998903, 347, 141, 362, 172
-0.998905, 357, 309, 372, 340
-0.998914, 331, 105, 346, 136
-0.998917, 387, 345, 402, 376
-0.998918, 349, 309, 364, 340
-0.998927, 93, 45, 108, 76
-0.998931, 51, 81, 66, 112
-0.998932, 167, 45, 182, 76
-0.998932, 93, 33, 108, 64
-0.998933, 7, 181, 22, 212
-0.998934, 125, 81, 140, 112
-0.998938, 1, 73, 16, 104
-0.99894, 105, 129, 136, 376
-0.998941, 85, 29, 100, 60
-0.998942, 77, 161, 92, 192
-0.998942, 215, 57, 230, 88
-0.998943, 127, 69, 142, 100
-0.998944, 11, 57, 26, 88
-0.998947, 83, 161, 98, 192
-0.998953, 89, 5, 104, 36
-0.998953, 131, 41, 146, 72
-0.998956, 469, 65, 500, 320
-0.998957, 89, 161, 104, 192
-0.998958, 247, 57, 262, 88
-0.998961, 13, 69, 28, 100
-0.998966, 401, 25, 416, 56
-0.998966, 71, 89, 86, 120
-0.998969, 71, 161, 86, 192
-0.998969, 485, 77, 500, 108
-0.998969, 51, 197, 66, 228
-0.998972, 35, 193, 50, 224
-0.998972, 33, 297, 48, 328
-0.998972, 377, 209, 408, 336
-0.998974, 93, 33, 124, 288
-0.998975, 479, 81, 494, 112
-0.998984, 403, 85, 418, 116
-0.998984, 339, 105, 354, 136
-0.998985, 277, 129, 308, 376
-0.998985, 345, 193, 360, 224
-0.998987, 401, 41, 416, 72
-0.998994, 31, 177, 46, 208
-0.998995, 89, 85, 104, 116
-0.999, 281, 1, 296, 32
-0.999, 255, 29, 270, 60
-0.999, 95, 157, 110, 188
-0.999002, 361, 209, 392, 336
-0.999002, 325, 105, 340, 136
-0.999003, 91, 21, 106, 52
-0.999004, 469, 89, 484, 120
-0.999004, 155, 45, 170, 76
-0.999005, 359, 325, 374, 356
-0.99901, 437, 85, 452, 116
-0.999011, 317, 105, 332, 136
-0.999011, 469, 149, 484, 180
-0.999014, 471, 137, 486, 168
-0.999015, 375, 305, 390, 336
-0.999015, 349, 257, 380, 376
-0.999015, 457, 81, 472, 112
-0.999017, 351, 169, 366, 200
-0.999019, 347, 321, 362, 352
-0.999021, 425, 33, 456, 160
-0.999026, 113, 1, 144, 256
-0.999037, 269, 1, 284, 128
-0.999047, 251, 17, 266, 144
-0.999053, 41, 129, 72, 376
-0.999053, 289, 97, 320, 352
-0.999088, 413, 145, 444, 272
-0.999088, 47, 1, 62, 128
-0.999117, 357, 65, 388, 320
-0.99912, 217, 65, 248, 192
-0.999143, 39, 1, 54, 128
-0.999147, 321, 1, 352, 128
-0.99916, 305, 1, 336, 128
-0.999164, 245, 129, 276, 376
-0.999173, 81, 161, 96, 288
-0.999179, 49, 209, 80, 336
-0.999191, 135, 17, 150, 144
-0.999199, 129, 17, 144, 144
-0.999206, 13, 1, 44, 256
-0.999206, 129, 97, 160, 352
-0.99921, 91, 145, 106, 272
-0.999213, 145, 17, 160, 144
-0.999218, 355, 161, 370, 288
-0.999222, 133, 257, 164, 376
-0.999223, 73, 161, 88, 288
-0.999242, 393, 97, 424, 352
-0.999242, 329, 33, 360, 288
-0.999243, 245, 17, 260, 144
-0.999248, 67, 161, 82, 288
-0.999259, 45, 49, 60, 176
-0.99927, 61, 161, 76, 288
-0.999274, 229, 1, 260, 256
-0.999275, 229, 129, 260, 376
-0.999285, 151, 17, 166, 144
-0.999298, 457, 65, 488, 320
-0.999299, 349, 145, 364, 272
-0.999303, 451, 81, 466, 208
-0.999311, 97, 145, 112, 272
-0.999315, 337, 129, 352, 256
-0.999326, 123, 17, 138, 144
-0.999346, 445, 81, 460, 208
-0.999359, 157, 17, 172, 144
-0.99936, 117, 97, 148, 352
-0.999361, 133, 65, 148, 192
-0.999362, 403, 49, 418, 176
-0.999366, 275, 1, 290, 128
-0.999371, 95, 65, 110, 192
-0.999378, 89, 1, 104, 128
-0.999393, 413, 97, 428, 224
-0.9994, 7, 1, 22, 128
-0.999409, 327, 161, 342, 288
-0.999415, 101, 65, 116, 192
-0.999415, 343, 145, 358, 272
-0.999417, 127, 65, 142, 192
-0.999418, 143, 65, 158, 192
-0.999423, 69, 81, 84, 208
-0.999425, 241, 225, 256, 352
-0.999426, 223, 225, 238, 352
-0.999429, 439, 81, 454, 208
-0.999429, 63, 113, 78, 240
-0.999429, 355, 113, 370, 240
-0.999432, 421, 97, 436, 224
-0.999435, 153, 65, 168, 192
-0.999436, 103, 145, 118, 272
-0.999437, 163, 49, 178, 176
-0.999443, 399, 1, 414, 128
-0.999445, 83, 1, 98, 128
-0.999445, 55, 161, 70, 288
-0.999446, 231, 225, 246, 352
-0.999448, 327, 113, 342, 240
-0.999449, 51, 81, 66, 208
-0.999451, 427, 97, 442, 224
-0.999454, 89, 81, 104, 208
-0.999469, 53, 33, 68, 160
-0.99947, 363, 313, 378, 328
-0.999471, 401, 13, 416, 28
-0.999471, 325, 173, 340, 188
-0.999471, 401, 19, 416, 34
-0.999471, 93, 65, 108, 80
-0.999472, 401, 45, 416, 60
-0.999472, 67, 215, 82, 230
-0.999472, 401, 1, 416, 16
-0.999473, 89, 9, 104, 24
-0.999473, 363, 327, 378, 342
-0.999473, 461, 149, 476, 164
-0.999474, 401, 31, 416, 46
-0.999474, 89, 3, 104, 18
-0.999474, 353, 173, 368, 188
-0.999474, 159, 43, 174, 58
-0.999475, 377, 33, 408, 288
-0.999475, 85, 35, 100, 50
-0.999475, 349, 97, 364, 224
-0.999475, 85, 163, 100, 178
-0.999476, 343, 185, 358, 200
-0.999476, 347, 199, 362, 214
-0.999476, 93, 39, 108, 54
-0.999476, 463, 161, 478, 176
-0.999476, 253, 27, 268, 42
-0.999477, 91, 161, 106, 176
-0.999477, 349, 165, 364, 180
-0.999478, 341, 213, 356, 228
-0.999478, 93, 45, 108, 60
-0.999479, 111, 87, 126, 102
-0.999479, 43, 199, 58, 214
-0.999479, 375, 357, 390, 372
-0.999479, 93, 53, 108, 68
-0.99948, 401, 37, 416, 52
-0.99948, 481, 1, 496, 128
-0.99948, 93, 59, 108, 74
-0.999481, 335, 177, 350, 304
-0.999483, 329, 155, 344, 170
-0.999483, 401, 25, 416, 40
-0.999483, 41, 63, 56, 78
-0.999484, 385, 327, 400, 342
-0.999484, 445, 109, 460, 124
-0.999484, 35, 1, 50, 16
-0.999485, 39, 53, 54, 68
-0.999485, 69, 163, 84, 178
-0.999486, 89, 27, 104, 42
-0.999486, 457, 65, 472, 192
-0.999486, 193, 1, 224, 256
-0.999486, 1, 65, 16, 192
-0.999487, 351, 207, 366, 222
-0.999487, 275, 7, 290, 22
-0.999487, 411, 109, 426, 124
-0.999488, 355, 333, 370, 348
-0.999489, 135, 67, 150, 82
-0.999489, 239, 17, 254, 144
-0.999489, 253, 65, 268, 192
-0.999489, 327, 163, 342, 178
-0.999489, 51, 85, 66, 100
-0.99949, 41, 81, 56, 96
-0.99949, 37, 7, 52, 22
-0.99949, 359, 173, 374, 188
-0.99949, 385, 353, 400, 368
-0.99949, 59, 171, 74, 186
-0.999491, 347, 193, 362, 208
-0.999492, 41, 69, 56, 84
-0.999492, 247, 29, 262, 44
-0.999492, 19, 183, 34, 198
-0.999492, 209, 65, 240, 320
-0.999493, 101, 83, 116, 98
-0.999494, 63, 165, 78, 180
-0.999495, 13, 359, 28, 374
-0.999495, 207, 1, 222, 128
-0.999497, 469, 161, 484, 176
-0.999497, 37, 13, 52, 28
-0.999497, 433, 81, 448, 208
-0.999497, 317, 113, 332, 240
-0.999498, 37, 29, 52, 44
-0.999499, 479, 85, 494, 100
-0.9995, 405, 101, 420, 116
-0.9995, 345, 1, 376, 128
-0.9995, 21, 347, 36, 362
-0.999501, 17, 353, 32, 368
-0.999501, 359, 179, 374, 194
-0.999502, 37, 19, 52, 34
-0.999502, 35, 321, 50, 336
-0.999503, 351, 159, 366, 174
-0.999503, 27, 335, 42, 350
-0.999503, 349, 149, 364, 164
-0.999504, 255, 21, 270, 36
-0.999504, 93, 75, 108, 90
-0.999505, 39, 47, 54, 62
-0.999505, 39, 39, 54, 54
-0.999507, 335, 181, 350, 196
-0.999508, 163, 1, 178, 128
-0.999508, 23, 341, 38, 356
-0.999509, 357, 185, 372, 200
-0.999511, 263, 15, 278, 30
-0.999511, 377, 347, 392, 362
-0.999514, 357, 191, 372, 206
-0.999515, 467, 149, 482, 164
-0.999517, 457, 95, 472, 110
-0.999518, 31, 329, 46, 344
-0.999518, 279, 1, 294, 16
-0.999518, 75, 81, 90, 208
-0.999519, 469, 155, 484, 170
-0.99952, 41, 75, 56, 90
-0.99952, 365, 333, 380, 348
-0.999521, 461, 155, 476, 170
-0.999521, 251, 177, 266, 304
-0.999522, 73, 209, 88, 336
-0.999523, 359, 339, 374, 354
-0.999524, 39, 315, 54, 330
-0.999524, 335, 175, 350, 190
-0.999524, 51, 79, 66, 94
-0.999524, 11, 49, 26, 176
-0.999524, 483, 49, 498, 176
-0.999525, 281, 1, 296, 128
-0.999525, 343, 153, 358, 168
-0.999526, 269, 9, 284, 24
-0.999526, 211, 225, 226, 352
-0.999527, 371, 341, 386, 356
-0.999528, 261, 49, 276, 176
-0.999529, 349, 187, 364, 202
-0.999529, 425, 107, 440, 122
-0.99953, 419, 109, 434, 124
-0.99953, 1, 113, 32, 240
-0.99953, 39, 49, 54, 176
-0.999531, 245, 177, 260, 304
-0.999532, 379, 333, 394, 348
-0.999533, 369, 351, 384, 366
-0.999534, 373, 321, 388, 336
-0.999535, 121, 65, 136, 192
-0.999537, 369, 315, 384, 330
-0.99954, 339, 159, 354, 174
-0.999544, 431, 101, 446, 116
-0.999545, 43, 309, 58, 324
-0.999545, 49, 73, 64, 88
-0.999546, 341, 193, 356, 320
-0.999547, 301, 97, 316, 224
-0.999548, 287, 97, 302, 224
-0.999548, 95, 81, 110, 96
-0.999551, 363, 345, 378, 360
-0.999553, 169, 1, 184, 128
-0.999554, 375, 327, 390, 342
-0.999554, 437, 99, 452, 114
-0.999555, 217, 225, 232, 352
-0.999555, 347, 177, 362, 192
-0.999557, 451, 95, 466, 110
-0.999559, 335, 165, 350, 180
-0.999561, 407, 97, 422, 224
-0.999562, 81, 113, 96, 240
-0.999564, 109, 145, 124, 272
-0.999565, 353, 179, 368, 194
-0.999565, 365, 97, 380, 224
-0.999572, 49, 67, 64, 82
-0.999574, 95, 1, 110, 128
-0.999576, 95, 225, 110, 352
-0.999577, 49, 55, 64, 70
-0.999578, 307, 97, 322, 224
-0.999578, 293, 97, 308, 224
-0.999579, 265, 49, 296, 176
-0.99958, 445, 97, 460, 112
-0.999581, 201, 257, 216, 376
-0.999582, 47, 47, 62, 62
-0.999586, 49, 61, 64, 76
-0.999587, 369, 257, 496, 376
-0.999591, 345, 171, 360, 186
-0.999592, 29, 257, 44, 376
-0.999592, 195, 257, 210, 376
-0.999596, 409, 49, 424, 176
-0.999598, 283, 161, 298, 288
-0.999599, 47, 23, 62, 38
-0.999599, 239, 177, 254, 304
-0.9996, 45, 15, 60, 30
-0.9996, 255, 225, 270, 352
-0.999608, 281, 97, 296, 224
-0.999613, 451, 33, 466, 160
-0.999613, 361, 145, 376, 272
-0.999614, 47, 29, 62, 44
-0.999615, 321, 177, 336, 304
-0.999615, 89, 225, 104, 352
-0.999615, 45, 9, 60, 24
-0.999617, 45, 1, 60, 16
-0.999618, 47, 41, 62, 56
-0.999618, 47, 35, 62, 50
-0.999618, 463, 81, 478, 208
-0.999622, 323, 49, 338, 176
-0.999623, 23, 257, 38, 376
-0.999629, 273, 97, 288, 224
-0.999632, 233, 17, 248, 144
-0.999635, 107, 97, 122, 224
-0.999635, 57, 113, 72, 240
-0.999636, 247, 225, 262, 352
-0.999637, 469, 81, 484, 208
-0.999638, 383, 145, 398, 272
-0.999638, 271, 177, 286, 304
-0.999639, 189, 209, 220, 336
-0.999641, 347, 193, 362, 320
-0.999644, 63, 209, 78, 336
-0.999644, 343, 97, 358, 224
-0.999645, 13, 257, 28, 376
-0.999647, 277, 177, 292, 304
-0.999652, 265, 177, 280, 304
-0.999658, 113, 97, 128, 224
-0.999658, 293, 33, 308, 160
-0.999659, 231, 177, 246, 304
-0.999659, 161, 97, 176, 224
-0.999659, 15, 161, 30, 288
-0.999663, 13, 1, 28, 128
-0.999663, 63, 65, 78, 192
-0.999664, 185, 257, 200, 376
-0.999664, 101, 225, 116, 352
-0.999665, 311, 49, 326, 176
-0.99967, 377, 129, 408, 376
-0.999747, 141, 97, 172, 352
-0.999784, 425, 129, 456, 256
-0.999786, 13, 129, 44, 376
-0.99979, 305, 97, 336, 352
-0.999845, 29, 129, 60, 376
-0.99992, 181, 1, 212, 256
-0.999922, 345, 129, 376, 376
-0.99996, 1, 97, 32, 352
-0.999997, 165, 33, 196, 288
-1.00011, 445, 129, 476, 376
-1.00024, 197, 97, 228, 352
-1.00047, 201, 129, 264, 256
-1.00048, 257, 257, 500, 320
-1.00049, 185, 97, 216, 352
-1.00068, 153, 97, 184, 352
-1.0007, 265, 257, 328, 376
-1.00077, 401, 209, 464, 336
-1.00082, 169, 161, 232, 288
-1.00106, 169, 129, 200, 376
-1.00243, 401, 257, 464, 376
-1.00278, 433, 225, 496, 352
-1.00581, 177, 113, 240, 240
