1968
-0.384677, 193, 1, 448, 375
-0.503037, 97, 1, 352, 375
-0.515032, 1, 129, 500, 375
-0.561985, 1, 1, 500, 256
-0.614057, 1, 1, 500, 375
-0.637369, 193, 1, 448, 256
-0.647554, 193, 129, 448, 375
-0.743792, 97, 129, 352, 375
-0.750197, 97, 33, 352, 288
-0.844872, 209, 1, 336, 375
-0.853217, 225, 129, 352, 375
-0.859101, 209, 1, 336, 256
-0.868625, 161, 1, 288, 375
-0.87776, 273, 1, 400, 375
-0.880176, 1, 1, 256, 375
-0.884993, 1, 241, 500, 368
-0.891308, 321, 1, 448, 375
-0.892295, 273, 97, 400, 352
-0.893099, 369, 1, 496, 375
-0.898809, 1, 193, 500, 320
-0.899225, 257, 1, 384, 256
-0.904677, 161, 33, 288, 288
-0.906654, 193, 193, 448, 320
-0.915189, 353, 65, 480, 320
-0.916084, 177, 129, 304, 375
-0.920116, 305, 1, 432, 256
-0.922192, 193, 241, 448, 368
-0.924059, 129, 129, 256, 375
-0.924662, 161, 33, 416, 160
-0.925904, 225, 177, 352, 304
-0.93046, 193, 33, 320, 160
-0.931598, 217, 17, 280, 144
-0.93568, 193, 145, 448, 272
-0.936635, 1, 97, 500, 224
-0.937481, 289, 177, 416, 304
-0.93777, 97, 241, 352, 368
-0.939431, 1, 145, 500, 272
-0.939483, 1, 33, 500, 160
-0.94136, 65, 129, 192, 375
-0.94301, 289, 225, 416, 352
-0.943894, 313, 161, 376, 288
-0.944914, 209, 241, 336, 368
-0.945758, 241, 177, 304, 304
-0.9467, 193, 97, 448, 224
-0.9467, 225, 25, 288, 88
-0.947827, 113, 1, 240, 375
-0.948003, 97, 193, 352, 320
-0.949358, 241, 17, 304, 144
-0.949909, 97, 129, 352, 256
-0.949972, 257, 129, 384, 256
-0.950377, 337, 209, 400, 336
-0.951051, 265, 33, 328, 160
-0.952831, 217, 225, 280, 352
-0.953013, 241, 113, 304, 240
-0.953265, 161, 113, 288, 240
-0.953596, 225, 81, 352, 208
-0.953632, 257, 1, 500, 128
-0.953735, 161, 241, 288, 368
-0.953841, 265, 177, 328, 304
-0.953855, 201, 65, 264, 192
-0.954021, 241, 33, 368, 160
-0.954849, 321, 129, 448, 256
-0.956314, 297, 225, 360, 352
-0.956771, 97, 81, 352, 208
-0.956776, 265, 113, 328, 240
-0.957114, 289, 177, 352, 304
-0.957445, 241, 65, 304, 192
-0.958168, 201, 113, 264, 240
-0.958554, 313, 177, 376, 240
-0.958777, 241, 185, 304, 248
-0.96077, 193, 65, 256, 128
-0.960941, 337, 225, 400, 288
-0.961256, 265, 41, 328, 104
-0.961713, 217, 81, 280, 144
-0.96195, 337, 161, 400, 288
-0.962404, 257, 49, 500, 176
-0.962799, 145, 49, 272, 176
-0.963016, 241, 113, 304, 176
-0.963366, 209, 129, 336, 256
-0.963428, 1, 129, 256, 375
-0.963954, 17, 129, 144, 375
-0.964492, 297, 113, 360, 240
-0.964655, 1, 1, 128, 375
-0.964795, 337, 177, 464, 304
-0.965094, 193, 225, 256, 352
-0.965566, 241, 89, 304, 152
-0.966161, 65, 33, 320, 160
-0.966818, 225, 265, 288, 328
-0.966991, 361, 145, 424, 272
-0.967398, 217, 1, 280, 256
-0.967511, 65, 1, 192, 375
-0.967535, 321, 17, 448, 144
-0.967652, 329, 201, 392, 264
-0.967777, 241, 1, 304, 256
-0.967936, 305, 65, 432, 192
-0.967951, 217, 49, 280, 112
-0.968596, 193, 17, 256, 144
-0.968834, 313, 241, 376, 304
-0.968979, 217, 105, 280, 168
-0.96969, 209, 33, 336, 96
-0.969982, 265, 1, 328, 256
-0.970012, 265, 241, 328, 368
-0.970012, 337, 225, 464, 352
-0.970085, 241, 57, 304, 120
-0.970312, 161, 193, 288, 320
-0.970515, 233, 129, 296, 375
-0.970549, 265, 105, 328, 168
-0.970627, 353, 201, 416, 264
-0.970735, 249, 153, 312, 216
-0.970947, 225, 209, 352, 272
-0.971763, 1, 241, 256, 368
-0.971848, 257, 177, 384, 240
-0.972375, 57, 305, 120, 368
-0.972622, 33, 313, 96, 375
-0.972813, 225, 209, 288, 272
-0.97323, 281, 177, 344, 240
-0.973259, 361, 225, 424, 352
-0.973301, 249, 17, 280, 144
-0.973366, 213, 49, 244, 176
-0.973434, 225, 233, 288, 296
-0.973437, 257, 273, 320, 336
-0.973711, 305, 1, 368, 128
-0.973732, 81, 241, 208, 368
-0.973792, 313, 153, 376, 216
-0.973805, 305, 225, 432, 288
-0.973872, 241, 241, 304, 368
-0.973889, 89, 289, 152, 352
-0.974198, 353, 153, 416, 216
-0.974305, 229, 17, 260, 144
-0.974595, 329, 33, 392, 160
-0.974647, 305, 217, 368, 280
-0.975139, 233, 209, 264, 336
-0.975242, 265, 65, 328, 128
-0.975727, 345, 209, 376, 272
-0.97573, 193, 41, 256, 104
-0.975761, 253, 145, 284, 272
-0.9759, 341, 161, 372, 288
-0.976012, 369, 49, 496, 176
-0.976037, 193, 89, 256, 152
-0.976376, 289, 249, 416, 312
-0.976382, 225, 233, 352, 296
-0.976424, 145, 289, 208, 352
-0.976473, 177, 65, 240, 192
-0.976603, 193, 113, 256, 176
-0.976634, 177, 73, 304, 136
-0.976653, 297, 65, 360, 192
-0.976819, 321, 113, 384, 240
-0.976893, 229, 25, 260, 88
-0.977008, 201, 257, 264, 320
-0.977203, 225, 137, 288, 200
-0.97722, 361, 97, 424, 224
-0.977266, 97, 1, 224, 256
-0.977725, 289, 241, 352, 304
-0.977811, 353, 177, 416, 240
-0.977864, 253, 161, 284, 224
-0.977906, 193, 33, 256, 288
-0.97796, 305, 1, 368, 64
-0.978049, 225, 65, 352, 128
-0.978081, 169, 289, 232, 352
-0.978149, 225, 113, 352, 176
-0.97827, 369, 1, 432, 128
-0.978279, 305, 25, 368, 88
-0.97834, 325, 161, 356, 288
-0.978368, 33, 241, 160, 368
-0.978481, 113, 289, 176, 352
-0.978658, 265, 17, 328, 80
-0.978659, 265, 129, 328, 375
-0.978673, 269, 57, 300, 120
-0.978673, 253, 121, 284, 184
-0.978702, 269, 113, 300, 240
-0.979009, 385, 225, 448, 352
-0.979062, 249, 81, 280, 144
-0.979249, 257, 97, 288, 224
-0.979313, 245, 25, 276, 88
-0.979317, 217, 33, 248, 96
-0.979375, 153, 241, 216, 368
-0.979397, 193, 265, 320, 328
-0.979621, 233, 225, 264, 288
-0.979633, 209, 1, 272, 375
-0.979688, 289, 65, 352, 320
-0.979766, 353, 161, 384, 288
-0.979788, 257, 305, 320, 368
-0.97987, 81, 289, 208, 352
-0.979964, 401, 249, 464, 312
-0.980016, 269, 33, 300, 160
-0.980125, 177, 97, 304, 160
-0.980247, 305, 177, 336, 304
-0.980503, 257, 185, 288, 248
-0.98057, 193, 225, 256, 288
-0.980857, 265, 129, 328, 192
-0.981006, 297, 297, 360, 360
-0.981198, 225, 161, 288, 224
-0.981205, 269, 105, 300, 168
-0.981207, 305, 185, 432, 248
-0.981304, 369, 97, 496, 224
-0.981317, 289, 273, 352, 336
-0.981447, 385, 177, 448, 304
-0.981447, 233, 113, 264, 240
-0.981451, 81, 241, 144, 368
-0.981471, 369, 1, 496, 128
-0.981509, 297, 73, 360, 136
-0.98152, 225, 145, 352, 208
-0.981526, 41, 241, 104, 368
-0.981559, 233, 1, 296, 375
-0.981562, 349, 177, 380, 240
-0.981614, 329, 225, 360, 288
-0.981678, 121, 241, 184, 368
-0.981771, 145, 1, 272, 128
-0.981842, 357, 201, 388, 264
-0.981874, 289, 153, 352, 216
-0.981881, 269, 177, 300, 304
-0.981913, 225, 89, 352, 152
-0.981945, 257, 25, 288, 88
-0.981988, 289, 105, 352, 168
-0.982057, 213, 65, 244, 128
-0.982194, 225, 65, 256, 128
-0.982527, 369, 249, 432, 312
-0.98262, 385, 281, 448, 344
-0.982697, 193, 281, 256, 344
-0.982824, 245, 193, 276, 320
-0.982991, 209, 177, 272, 304
-0.983026, 341, 209, 372, 336
-0.983029, 325, 225, 356, 352
-0.983035, 201, 49, 232, 176
-0.983073, 177, 121, 304, 184
-0.983103, 269, 145, 300, 208
-0.983151, 281, 217, 344, 280
-0.983305, 257, 41, 384, 104
-0.983405, 169, 97, 232, 160
-0.983541, 401, 305, 464, 368
-0.983576, 221, 225, 252, 352
-0.983642, 321, 33, 384, 288
-0.983837, 305, 153, 432, 216
-0.983889, 409, 33, 472, 160
-0.983911, 161, 49, 288, 112
-0.984001, 337, 129, 400, 375
-0.984005, 337, 25, 400, 88
-0.984031, 337, 177, 368, 240
-0.98405, 285, 177, 316, 304
-0.98405, 269, 33, 300, 96
-0.984112, 353, 129, 416, 192
-0.984313, 297, 129, 360, 192
-0.984357, 257, 17, 384, 80
-0.984378, 213, 89, 244, 152
-0.984457, 229, 105, 260, 168
-0.984536, 161, 265, 224, 328
-0.984614, 273, 1, 336, 375
-0.984644, 321, 97, 384, 160
-0.984701, 33, 305, 160, 368
-0.984776, 113, 97, 240, 224
-0.984842, 241, 145, 272, 208
-0.984846, 129, 289, 256, 352
-0.984884, 85, 297, 116, 360
-0.985019, 209, 185, 336, 248
-0.985035, 305, 57, 432, 120
-0.985197, 321, 297, 448, 360
-0.985348, 69, 305, 100, 368
-0.985429, 225, 65, 256, 192
-0.98543, 409, 273, 472, 336
-0.985434, 273, 113, 400, 176
-0.985481, 361, 97, 424, 352
-0.985615, 257, 249, 320, 312
-0.985622, 145, 225, 272, 288
-0.985634, 417, 241, 480, 368
-0.985655, 245, 193, 276, 256
-0.985746, 209, 129, 272, 375
-0.985804, 393, 97, 456, 224
-0.985939, 313, 129, 376, 375
-0.985947, 49, 313, 80, 375
-0.98595, 325, 185, 356, 248
-0.985995, 365, 161, 396, 288
-0.986011, 353, 177, 480, 240
-0.986021, 369, 49, 432, 176
-0.986236, 361, 225, 424, 288
-0.986308, 305, 49, 368, 112
-0.986347, 269, 185, 300, 248
-0.986382, 337, 65, 400, 128
-0.986485, 201, 65, 232, 128
-0.98656, 297, 185, 328, 248
-0.986565, 393, 145, 456, 208
-0.986624, 261, 273, 292, 336
-0.986642, 1, 193, 256, 320
-0.986707, 253, 57, 284, 120
-0.986725, 1, 81, 256, 208
-0.986772, 369, 105, 432, 168
-0.986789, 293, 113, 324, 240
-0.986923, 109, 289, 140, 352
-0.98698, 269, 81, 300, 144
-0.987016, 253, 241, 284, 368
-0.987057, 321, 313, 384, 375
-0.987111, 241, 257, 368, 320
-0.987117, 297, 1, 360, 375
-0.987132, 309, 249, 340, 312
-0.987139, 145, 265, 272, 328
-0.987176, 305, 81, 432, 144
-0.987186, 369, 65, 432, 128
-0.987272, 385, 225, 448, 288
-0.987422, 233, 201, 264, 264
-0.987511, 233, 297, 296, 360
-0.987511, 321, 105, 448, 168
-0.987659, 241, 281, 368, 344
-0.987747, 321, 1, 384, 375
-0.987864, 209, 273, 240, 336
-0.987935, 321, 113, 352, 240
-0.987972, 161, 25, 288, 88
-0.988025, 297, 49, 328, 112
-0.988027, 369, 289, 496, 352
-0.988128, 289, 153, 320, 216
-0.988201, 173, 289, 204, 352
-0.988246, 425, 313, 488, 375
-0.988484, 281, 33, 312, 160
-0.988508, 321, 273, 448, 336
-0.988587, 97, 289, 128, 352
-0.988739, 185, 129, 248, 375
-0.988753, 9, 297, 72, 360
-0.988768, 357, 209, 388, 336
-0.988792, 97, 265, 224, 328
-0.988801, 341, 137, 372, 200
-0.988806, 137, 265, 200, 328
-0.988848, 229, 249, 260, 312
-0.988849, 409, 41, 472, 104
-0.988855, 321, 33, 448, 96
-0.988855, 309, 177, 340, 240
-0.988934, 401, 1, 464, 375
-0.988961, 305, 241, 336, 368
-0.988976, 381, 193, 412, 320
-0.989067, 241, 65, 272, 192
-0.98907, 161, 289, 192, 352
-0.989072, 161, 169, 288, 232
-0.989078, 205, 41, 236, 104
-0.989122, 225, 29, 288, 60
-0.989137, 17, 1, 144, 256
-0.989138, 241, 121, 272, 184
-0.989155, 177, 305, 304, 368
-0.9892, 341, 233, 372, 296
-0.989215, 305, 129, 336, 256
-0.989226, 129, 113, 256, 176
-0.989238, 113, 193, 240, 320
-0.989243, 237, 49, 268, 112
-0.989281, 193, 289, 224, 352
-0.989286, 185, 1, 248, 375
-0.989307, 285, 185, 316, 248
-0.989318, 141, 289, 172, 352
-0.989379, 193, 193, 448, 256
-0.989438, 193, 217, 448, 280
-0.989454, 265, 241, 296, 368
-0.989553, 341, 1, 372, 128
-0.989597, 277, 241, 308, 368
-0.98965, 361, 273, 424, 336
-0.989703, 97, 265, 160, 328
-0.989734, 273, 313, 400, 375
-0.989742, 433, 273, 496, 336
-0.989793, 321, 249, 352, 312
-0.989829, 321, 121, 384, 184
-0.989837, 281, 113, 312, 240
-0.989868, 321, 181, 384, 212
-0.989879, 317, 209, 348, 272
-0.989879, 217, 233, 248, 296
-0.989908, 249, 265, 280, 328
-0.989928, 361, 297, 424, 360
-0.989998, 337, 113, 368, 240
-0.990008, 281, 41, 312, 104
-0.990049, 217, 109, 280, 140
-0.990056, 337, 249, 464, 312
-0.990078, 361, 1, 424, 256
-0.990098, 241, 189, 304, 220
-0.990147, 357, 225, 388, 288
-0.990187, 353, 201, 480, 264
-0.9902, 249, 145, 312, 176
-0.990219, 209, 305, 272, 368
-0.990258, 225, 305, 352, 368
-0.990278, 385, 169, 448, 232
-0.990279, 193, 73, 256, 104
-0.990299, 369, 33, 432, 96
-0.990323, 241, 129, 304, 160
-0.990323, 121, 289, 152, 352
-0.99033, 393, 241, 424, 368
-0.990331, 321, 241, 384, 272
-0.990336, 57, 281, 120, 344
-0.990359, 217, 53, 280, 84
-0.99036, 277, 281, 308, 344
-0.99038, 237, 73, 268, 136
-0.990392, 337, 273, 400, 336
-0.990449, 317, 73, 348, 136
-0.99046, 217, 81, 280, 112
-0.990466, 369, 193, 400, 256
-0.990483, 409, 1, 472, 256
-0.990496, 265, 113, 328, 144
-0.990538, 409, 241, 440, 368
-0.990542, 305, 153, 336, 216
-0.990556, 377, 9, 440, 72
-0.990592, 377, 1, 440, 375
-0.990598, 233, 97, 296, 128
-0.990602, 293, 273, 324, 336
-0.990664, 325, 145, 356, 208
-0.990667, 265, 57, 328, 88
-0.990668, 265, 45, 328, 76
-0.990671, 385, 129, 448, 375
-0.990695, 217, 1, 248, 128
-0.990711, 257, 193, 288, 320
-0.990777, 293, 241, 324, 368
-0.99078, 241, 117, 304, 148
-0.990785, 345, 249, 408, 312
-0.990791, 305, 225, 368, 256
-0.990813, 209, 9, 336, 72
-0.990904, 217, 41, 280, 72
-0.99091, 337, 221, 400, 252
-0.990933, 193, 97, 256, 128
-0.990935, 241, 65, 304, 96
-0.99097, 193, 105, 224, 168
-0.990993, 97, 293, 160, 324
-0.990997, 369, 65, 496, 128
-0.990999, 369, 209, 400, 336
-0.991001, 225, 141, 288, 172
-0.991001, 1, 297, 500, 360
-0.991006, 217, 65, 280, 96
-0.991052, 293, 25, 324, 88
-0.991074, 257, 93, 320, 124
-0.991093, 249, 161, 312, 192
-0.991102, 317, 105, 348, 168
-0.991104, 369, 225, 400, 288
-0.991107, 201, 121, 264, 152
-0.99115, 297, 105, 328, 168
-0.991166, 353, 225, 480, 288
-0.991201, 321, 209, 384, 240
-0.991221, 293, 33, 324, 160
-0.991232, 161, 145, 288, 208
-0.991235, 17, 241, 80, 368
-0.991239, 193, 185, 256, 248
-0.991251, 257, 77, 320, 108
-0.991255, 305, 97, 368, 128
-0.991266, 289, 189, 352, 220
-0.991275, 193, 241, 448, 304
-0.991277, 249, 33, 312, 64
-0.99131, 241, 201, 304, 232
-0.991313, 425, 249, 488, 312
-0.991313, 297, 249, 360, 280
-0.99132, 225, 225, 288, 256
-0.991324, 301, 305, 332, 368
-0.99133, 265, 133, 328, 164
-0.991365, 225, 265, 288, 296
-0.991398, 33, 297, 288, 360
-0.991402, 321, 129, 448, 192
-0.991407, 193, 85, 256, 116
-0.991415, 73, 301, 136, 332
-0.991445, 353, 201, 416, 232
-0.991448, 273, 177, 336, 208
-0.991453, 25, 333, 88, 364
-0.991458, 289, 237, 352, 268
-0.991495, 41, 321, 104, 352
-0.991502, 353, 153, 384, 216
-0.991512, 209, 97, 240, 224
-0.991521, 137, 293, 200, 324
-0.991526, 145, 193, 272, 256
-0.991537, 369, 313, 496, 375
-0.99154, 321, 9, 448, 72
-0.991546, 353, 165, 416, 196
-0.991552, 225, 237, 288, 268
-0.991555, 113, 89, 240, 152
-0.991557, 289, 125, 352, 156
-0.991576, 193, 249, 256, 280
-0.99159, 1, 265, 128, 328
-0.9916, 161, 297, 224, 328
-0.991608, 281, 101, 344, 132
-0.991617, 345, 241, 408, 272
-0.991633, 313, 169, 376, 200
-0.991634, 193, 61, 256, 92
-0.991671, 369, 121, 496, 184
-0.991705, 49, 309, 112, 340
-0.991711, 385, 257, 448, 288
-0.991711, 345, 1, 408, 375
-0.991721, 33, 281, 96, 344
-0.991749, 205, 121, 236, 184
-0.991786, 265, 21, 328, 52
-0.9918, 17, 345, 80, 375
-0.991803, 197, 225, 228, 352
-0.991807, 189, 81, 220, 144
-0.991839, 353, 189, 416, 220
-0.991844, 265, 193, 328, 224
-0.991859, 233, 213, 296, 244
-0.991892, 281, 73, 312, 136
-0.991919, 305, 25, 368, 56
-0.991937, 369, 41, 496, 104
-0.991945, 249, 305, 312, 336
-0.991952, 361, 113, 392, 240
-0.991957, 249, 177, 312, 208
-0.991966, 177, 109, 240, 140
-0.991976, 297, 213, 360, 244
-0.991988, 289, 113, 352, 144
-0.992025, 193, 33, 448, 96
-0.992032, 289, 161, 352, 192
-0.992042, 297, 37, 360, 68
-0.992046, 297, 137, 360, 168
-0.992052, 217, 185, 280, 248
-0.992064, 177, 17, 240, 80
-0.992085, 225, 1, 288, 64
-0.992094, 289, 309, 352, 340
-0.992098, 361, 177, 424, 208
-0.992108, 273, 149, 336, 180
-0.992129, 321, 193, 384, 224
-0.99214, 385, 249, 416, 312
-0.992186, 413, 257, 444, 320
-0.992228, 393, 177, 424, 304
-0.99223, 309, 49, 340, 176
-0.992233, 185, 237, 248, 268
-0.992249, 177, 49, 240, 80
-0.992252, 297, 9, 360, 40
-0.992259, 353, 153, 480, 216
-0.992287, 37, 313, 68, 375
-0.992319, 329, 117, 392, 148
-0.992328, 177, 285, 240, 316
-0.992365, 161, 265, 416, 328
-0.992369, 281, 73, 344, 104
-0.992406, 241, 53, 304, 84
-0.992424, 305, 85, 368, 116
-0.992432, 329, 81, 360, 144
-0.992446, 201, 17, 264, 80
-0.992456, 33, 193, 160, 320
-0.992458, 361, 269, 424, 300
-0.99246, 321, 153, 384, 184
-0.992466, 265, 317, 328, 348
-0.992469, 225, 153, 288, 184
-0.99247, 169, 241, 200, 368
-0.992481, 401, 269, 464, 300
-0.992489, 297, 261, 360, 292
-0.99251, 385, 245, 448, 276
-0.99251, 253, 129, 284, 160
-0.992516, 329, 1, 392, 64
-0.992525, 305, 57, 368, 88
-0.992536, 201, 205, 264, 236
-0.992538, 257, 261, 320, 292
-0.992544, 281, 85, 344, 116
-0.99255, 177, 121, 240, 152
-0.992551, 181, 241, 212, 368
-0.992551, 433, 313, 496, 344
-0.992564, 265, 285, 328, 316
-0.992567, 361, 225, 424, 256
-0.992573, 81, 241, 112, 368
-0.992575, 385, 293, 448, 324
-0.992611, 313, 309, 376, 340
-0.992616, 409, 257, 472, 288
-0.992625, 289, 325, 352, 356
-0.992639, 325, 237, 356, 268
-0.992645, 409, 309, 472, 340
-0.992649, 201, 261, 264, 292
-0.992655, 153, 281, 216, 312
-0.99269, 201, 225, 264, 256
-0.992694, 361, 253, 424, 284
-0.992699, 369, 169, 400, 232
-0.992707, 329, 97, 392, 128
-0.99271, 329, 129, 392, 160
-0.992715, 201, 133, 264, 164
-0.992728, 169, 61, 232, 92
-0.992729, 225, 33, 256, 64
-0.992734, 253, 145, 284, 176
-0.992736, 337, 33, 400, 64
-0.992744, 329, 141, 392, 172
-0.99275, 9, 309, 72, 340
-0.992759, 225, 173, 288, 204
-0.992774, 253, 189, 284, 220
-0.992784, 249, 77, 280, 108
-0.992784, 345, 217, 376, 248
-0.992791, 217, 49, 248, 80
-0.992799, 61, 313, 92, 344
-0.9928, 269, 113, 300, 144
-0.992801, 425, 249, 456, 312
-0.992808, 325, 249, 356, 280
-0.992813, 305, 73, 368, 104
-0.992814, 273, 273, 336, 304
-0.992816, 225, 253, 288, 284
-0.992817, 329, 21, 392, 52
-0.99282, 49, 321, 80, 352
-0.992821, 369, 113, 432, 144
-0.992831, 1, 333, 64, 364
-0.992834, 213, 61, 244, 92
-0.992838, 321, 253, 384, 284
-0.992838, 369, 65, 432, 96
-0.992842, 345, 177, 376, 208
-0.992847, 37, 329, 68, 360
-0.992849, 337, 45, 400, 76
-0.992855, 289, 297, 352, 328
-0.992857, 393, 161, 456, 192
-0.992859, 385, 281, 448, 312
-0.992859, 265, 61, 296, 92
-0.992859, 369, 93, 432, 124
-0.992875, 25, 337, 56, 368
-0.992883, 233, 225, 264, 256
-0.992884, 329, 69, 392, 100
-0.992889, 241, 29, 272, 60
-0.992892, 357, 205, 388, 236
-0.992893, 185, 297, 248, 328
-0.992893, 77, 305, 108, 336
-0.992901, 253, 93, 284, 124
-0.992902, 249, 117, 280, 148
-0.992909, 321, 321, 384, 352
-0.992915, 337, 229, 368, 260
-0.992922, 325, 181, 356, 212
-0.992927, 269, 149, 300, 180
-0.992927, 193, 37, 256, 68
-0.992948, 201, 137, 264, 200
-0.992959, 237, 261, 268, 292
-0.992998, 97, 297, 128, 328
-0.993012, 257, 161, 288, 192
-0.993013, 221, 73, 252, 104
-0.993021, 97, 49, 224, 176
-0.993027, 269, 137, 300, 168
-0.993027, 101, 241, 132, 368
-0.993033, 233, 121, 264, 152
-0.993038, 161, 73, 224, 136
-0.993039, 209, 73, 240, 104
-0.993042, 273, 97, 304, 128
-0.993043, 325, 129, 356, 160
-0.993052, 109, 293, 140, 324
-0.993054, 221, 117, 252, 148
-0.993056, 385, 245, 416, 276
-0.993061, 425, 1, 488, 375
-0.993062, 237, 77, 268, 108
-0.993066, 393, 121, 456, 184
-0.993071, 217, 249, 248, 280
-0.993073, 13, 345, 44, 375
-0.993074, 265, 33, 296, 64
-0.993121, 213, 105, 244, 136
-0.993123, 313, 245, 344, 276
-0.993124, 241, 213, 272, 244
-0.993125, 249, 201, 280, 232
-0.99313, 277, 41, 308, 72
-0.993132, 309, 189, 340, 220
-0.993135, 197, 113, 228, 144
-0.99315, 253, 29, 284, 60
-0.99315, 253, 105, 284, 136
-0.993155, 337, 245, 368, 276
-0.993155, 121, 293, 152, 324
-0.993156, 313, 257, 344, 288
-0.993166, 269, 125, 300, 156
-0.993167, 293, 49, 324, 80
-0.993174, 349, 189, 380, 220
-0.993178, 209, 121, 240, 152
-0.993178, 313, 125, 344, 156
-0.993179, 277, 193, 308, 224
-0.99318, 233, 237, 264, 268
-0.993182, 289, 193, 320, 224
-0.993194, 297, 109, 328, 140
-0.993199, 397, 253, 428, 284
-0.9932, 313, 77, 344, 108
-0.993205, 237, 141, 268, 172
-0.993205, 309, 177, 340, 208
-0.993206, 253, 65, 284, 96
-0.993216, 269, 85, 300, 116
-0.993218, 333, 141, 364, 172
-0.993219, 233, 109, 264, 140
-0.99322, 261, 173, 292, 204
-0.993225, 225, 85, 256, 116
-0.993226, 277, 305, 308, 368
-0.993229, 161, 293, 192, 324
-0.993235, 157, 241, 188, 368
-0.993235, 177, 297, 208, 328
-0.993235, 269, 73, 300, 104
-0.993238, 313, 93, 344, 124
-0.99324, 369, 193, 400, 224
-0.993243, 241, 89, 272, 120
-0.993264, 289, 181, 320, 212
-0.993265, 193, 293, 224, 324
-0.993268, 145, 293, 176, 324
-0.993273, 229, 61, 260, 92
-0.993274, 381, 233, 412, 264
-0.993275, 301, 97, 332, 128
-0.993277, 321, 169, 352, 200
-0.993278, 345, 165, 376, 196
-0.993288, 373, 217, 404, 248
-0.99329, 313, 113, 344, 144
-0.993298, 249, 53, 280, 84
-0.993298, 133, 293, 164, 324
-0.993299, 249, 173, 280, 204
-0.99331, 265, 189, 296, 220
-0.993313, 249, 269, 280, 300
-0.993317, 205, 49, 236, 80
-0.99332, 345, 149, 376, 180
-0.993324, 277, 305, 308, 336
-0.993326, 209, 33, 336, 64
-0.993327, 361, 229, 392, 260
-0.993327, 349, 237, 380, 268
-0.993338, 297, 61, 328, 92
-0.993346, 245, 157, 276, 188
-0.993347, 205, 93, 236, 124
-0.993352, 357, 157, 388, 188
-0.993357, 197, 77, 228, 108
-0.99336, 213, 237, 244, 268
-0.993372, 309, 233, 340, 264
-0.993373, 329, 209, 360, 240
-0.993386, 229, 97, 260, 128
-0.993389, 201, 61, 232, 92
-0.993394, 305, 313, 336, 344
-0.993398, 333, 169, 364, 200
-0.993407, 213, 37, 244, 68
-0.993408, 225, 261, 256, 292
-0.993411, 269, 161, 300, 192
-0.993422, 277, 181, 308, 212
-0.993425, 321, 141, 352, 172
-0.993427, 209, 241, 240, 368
-0.993429, 397, 241, 428, 272
-0.993431, 333, 157, 364, 188
-0.993432, 293, 29, 324, 60
-0.993438, 409, 249, 440, 280
-0.99344, 205, 289, 236, 320
-0.993445, 225, 169, 480, 232
-0.993447, 261, 45, 292, 76
-0.993447, 297, 149, 328, 180
-0.993455, 369, 89, 496, 152
-0.993458, 413, 269, 444, 300
-0.993458, 261, 277, 292, 308
-0.993459, 421, 257, 452, 288
-0.993459, 381, 241, 412, 368
-0.993462, 285, 105, 316, 136
-0.993465, 365, 169, 396, 200
-0.993466, 181, 285, 212, 316
-0.993468, 341, 201, 372, 232
-0.993483, 189, 265, 220, 328
-0.993493, 393, 1, 424, 128
-0.993519, 337, 49, 368, 176
-0.993523, 377, 201, 440, 264
-0.993651, 113, 25, 240, 88
-0.993665, 285, 97, 316, 160
-0.993677, 193, 121, 448, 184
-0.993696, 365, 145, 396, 208
-0.993758, 45, 241, 76, 368
-0.993779, 257, 289, 500, 352
-0.993779, 341, 9, 372, 72
-0.993852, 193, 89, 448, 152
-0.993858, 265, 297, 296, 360
-0.993869, 225, 217, 352, 248
-0.993888, 169, 49, 232, 112
-0.993896, 97, 113, 352, 176
-0.993904, 289, 305, 320, 368
-0.993908, 57, 241, 88, 368
-0.993913, 225, 193, 352, 224
-0.993914, 321, 33, 352, 160
-0.993956, 1, 257, 500, 320
-0.993984, 349, 113, 380, 240
-0.994034, 409, 193, 472, 320
-0.994053, 305, 217, 336, 280
-0.994086, 113, 225, 144, 352
-0.994121, 169, 17, 232, 144
-0.994123, 429, 225, 460, 352
-0.994131, 297, 81, 328, 144
-0.994131, 369, 9, 496, 72
-0.994182, 193, 65, 448, 128
-0.994189, 225, 241, 352, 272
-0.994189, 381, 209, 412, 272
-0.994258, 333, 105, 364, 168
-0.994261, 197, 97, 228, 224
-0.994296, 227, 33, 242, 96
-0.9943, 97, 41, 352, 104
-0.994315, 401, 81, 464, 144
-0.994351, 173, 265, 204, 328
-0.994377, 105, 193, 168, 320
-0.994395, 265, 161, 280, 224
-0.994414, 137, 241, 168, 368
-0.994449, 401, 97, 432, 224
-0.994488, 313, 297, 344, 360
-0.994531, 185, 161, 248, 288
-0.994536, 49, 289, 80, 352
-0.994538, 401, 153, 432, 216
-0.994571, 229, 129, 260, 192
-0.994576, 113, 65, 240, 128
-0.994584, 239, 217, 254, 280
-0.994607, 161, 129, 224, 375
-0.994668, 401, 249, 432, 312
-0.994674, 61, 281, 92, 344
-0.994718, 217, 113, 248, 176
-0.994722, 221, 273, 252, 336
-0.994736, 273, 185, 400, 216
-0.994753, 233, 25, 248, 88
-0.99477, 161, 265, 192, 328
-0.994772, 65, 209, 320, 272
-0.994782, 413, 49, 444, 176
-0.994817, 257, 161, 272, 224
-0.994862, 193, 45, 320, 76
-0.994907, 177, 113, 240, 240
-0.994935, 405, 281, 436, 344
-0.994956, 49, 257, 176, 320
-0.994963, 219, 41, 234, 104
-0.994966, 209, 57, 336, 88
-0.994972, 225, 229, 352, 260
-0.994998, 25, 305, 56, 368
-0.995008, 81, 293, 208, 324
-0.995012, 305, 237, 432, 268
-0.995027, 363, 201, 378, 264
-0.995029, 425, 289, 456, 352
-0.99503, 177, 89, 304, 120
-0.995041, 177, 105, 304, 136
-0.995046, 69, 225, 100, 352
-0.995053, 193, 145, 448, 208
-0.995058, 325, 41, 356, 104
-0.995065, 265, 81, 280, 144
-0.9951, 349, 217, 364, 280
-0.995147, 125, 241, 156, 368
-0.995157, 405, 193, 436, 320
-0.99517, 225, 129, 352, 160
-0.995186, 81, 273, 112, 336
-0.995208, 361, 177, 376, 240
-0.995218, 65, 233, 320, 296
-0.995227, 343, 225, 358, 288
-0.995255, 233, 161, 264, 288
-0.995266, 89, 129, 152, 375
-0.995291, 177, 73, 304, 104
-0.995298, 409, 225, 472, 288
-0.995329, 89, 129, 152, 256
-0.995339, 97, 81, 352, 144
-0.995354, 425, 145, 488, 208
-0.995366, 249, 1, 280, 256
-0.995375, 243, 25, 258, 88
-0.995378, 225, 253, 352, 284
-0.995393, 249, 25, 264, 88
-0.995447, 337, 41, 368, 104
-0.995461, 225, 9, 480, 72
-0.995468, 333, 313, 364, 375
-0.995471, 273, 57, 288, 120
-0.995509, 1, 201, 500, 264
-0.995528, 271, 161, 286, 224
-0.99557, 129, 129, 192, 375
-0.995641, 65, 273, 320, 336
-0.995665, 225, 141, 352, 172
-0.995666, 313, 273, 376, 336
-0.995673, 305, 217, 432, 248
-0.995683, 1, 225, 500, 288
-0.99571, 225, 77, 352, 108
-0.995712, 355, 177, 370, 240
-0.995719, 357, 209, 372, 272
-0.995747, 209, 273, 336, 304
-0.995763, 263, 25, 278, 88
-0.995771, 385, 33, 448, 288
-0.99579, 251, 193, 266, 256
-0.995802, 393, 281, 424, 344
-0.995815, 275, 97, 290, 160
-0.995874, 281, 17, 312, 80
-0.995877, 225, 117, 352, 148
-0.99588, 353, 49, 384, 176
-0.995896, 97, 161, 352, 224
-0.995911, 265, 121, 280, 184
-0.99595, 281, 257, 312, 320
-0.995965, 129, 297, 384, 360
-0.996017, 329, 233, 344, 296
-0.996027, 161, 1, 224, 375
-0.996032, 289, 249, 416, 280
-0.996042, 227, 57, 242, 120
-0.996053, 461, 305, 492, 368
-0.99607, 251, 145, 266, 208
-0.996079, 237, 1, 268, 64
-0.996112, 273, 273, 288, 336
-0.996117, 337, 233, 352, 296
-0.996124, 129, 1, 256, 64
-0.996158, 225, 173, 352, 204
-0.996159, 257, 265, 500, 328
-0.996168, 257, 53, 384, 84
-0.996177, 205, 297, 236, 360
-0.996198, 255, 25, 270, 88
-0.996207, 225, 205, 352, 236
-0.996222, 241, 97, 368, 128
-0.996275, 373, 113, 404, 240
-0.99629, 213, 209, 244, 272
-0.996294, 233, 225, 248, 288
-0.996321, 311, 185, 326, 248
-0.996334, 343, 177, 358, 240
-0.996334, 269, 25, 284, 88
-0.996358, 273, 185, 288, 248
-0.996361, 75, 305, 90, 368
-0.996363, 177, 129, 304, 160
-0.996381, 257, 313, 500, 375
-0.99639, 93, 265, 124, 328
-0.996404, 177, 117, 304, 148
-0.99641, 93, 297, 108, 360
-0.996411, 345, 89, 408, 152
-0.996426, 249, 305, 280, 368
-0.996439, 433, 169, 496, 232
-0.996442, 129, 265, 160, 328
-0.996465, 313, 17, 344, 80
-0.996465, 63, 313, 78, 375
-0.996472, 273, 1, 304, 256
-0.996486, 299, 169, 314, 232
-0.996515, 389, 129, 420, 256
-0.996523, 233, 65, 248, 128
-0.996524, 17, 137, 144, 200
-0.996526, 369, 193, 384, 256
-0.996573, 257, 153, 384, 184
-0.996581, 65, 185, 320, 248
-0.996584, 225, 1, 256, 256
-0.996589, 87, 297, 102, 360
-0.996602, 337, 177, 352, 240
-0.996611, 265, 185, 280, 248
-0.996616, 13, 313, 44, 375
-0.996617, 321, 177, 448, 208
-0.996618, 305, 205, 432, 236
-0.996624, 257, 97, 288, 352
-0.996636, 257, 25, 384, 56
-0.996653, 1, 345, 128, 375
-0.996655, 327, 161, 342, 224
-0.996666, 281, 121, 312, 184
-0.996682, 433, 49, 496, 176
-0.996698, 33, 241, 64, 368
-0.996702, 275, 25, 290, 88
-0.99671, 257, 225, 320, 288
-0.996712, 433, 161, 496, 288
-0.996716, 233, 249, 248, 312
-0.996719, 257, 185, 272, 248
-0.99673, 17, 129, 144, 256
-0.996731, 237, 1, 268, 256
-0.996734, 205, 81, 220, 144
-0.996737, 245, 201, 260, 264
-0.996741, 57, 257, 120, 320
-0.996741, 111, 289, 126, 352
-0.996749, 149, 265, 180, 328
-0.99676, 241, 89, 256, 152
-0.99677, 305, 185, 320, 248
-0.996788, 65, 137, 320, 200
-0.996794, 257, 37, 384, 68
-0.996796, 65, 129, 128, 375
-0.996802, 355, 153, 370, 216
-0.996816, 287, 185, 302, 248
-0.996825, 445, 281, 476, 344
-0.996845, 81, 305, 96, 368
-0.996846, 227, 233, 242, 296
-0.99686, 241, 129, 272, 375
-0.996862, 305, 273, 336, 336
-0.996868, 211, 89, 226, 152
-0.996872, 273, 121, 288, 184
-0.996873, 287, 33, 302, 96
-0.996873, 227, 89, 242, 152
-0.996878, 409, 169, 472, 232
-0.996879, 129, 293, 256, 324
-0.996885, 99, 297, 114, 360
-0.996887, 335, 145, 350, 208
-0.996889, 33, 321, 160, 352
-0.996891, 259, 129, 274, 192
-0.996904, 57, 313, 72, 375
-0.99691, 331, 185, 346, 248
-0.996914, 305, 153, 320, 216
-0.996921, 81, 129, 208, 192
-0.996933, 321, 177, 336, 240
-0.996935, 349, 177, 364, 240
-0.996935, 293, 169, 308, 232
-0.996941, 345, 137, 360, 200
-0.996945, 267, 57, 282, 120
-0.996949, 17, 161, 144, 224
-0.996953, 337, 189, 464, 220
-0.996956, 69, 305, 84, 368
-0.996973, 251, 169, 266, 232
-0.996977, 207, 289, 222, 352
-0.996987, 49, 305, 176, 336
-0.996987, 209, 113, 224, 176
-0.996991, 221, 113, 252, 240
-0.997015, 161, 57, 288, 88
-0.997025, 309, 1, 340, 128
-0.997026, 397, 177, 428, 240
-0.997045, 445, 241, 476, 368
-0.997045, 17, 333, 144, 364
-0.997045, 151, 289, 166, 352
-0.997046, 261, 1, 292, 256
-0.99705, 323, 249, 338, 312
-0.997051, 365, 153, 380, 216
-0.997056, 161, 257, 288, 288
-0.997061, 51, 313, 66, 375
-0.997064, 323, 89, 338, 152
-0.997079, 289, 105, 416, 136
-0.997081, 301, 305, 316, 368
-0.997094, 117, 289, 132, 352
-0.997098, 337, 305, 464, 336
-0.997099, 273, 117, 400, 148
-0.997108, 273, 141, 400, 172
-0.997108, 185, 289, 200, 352
-0.99711, 105, 289, 120, 352
-0.997122, 221, 65, 236, 128
-0.997122, 381, 209, 396, 272
-0.997133, 247, 89, 262, 152
-0.99714, 273, 173, 400, 204
-0.997145, 177, 289, 192, 352
-0.997145, 157, 289, 172, 352
-0.997158, 317, 153, 332, 216
-0.997158, 193, 285, 320, 316
-0.997166, 145, 289, 160, 352
-0.997181, 305, 65, 432, 96
-0.997185, 259, 57, 274, 120
-0.997187, 267, 273, 282, 336
-0.997187, 167, 289, 182, 352
-0.997188, 239, 49, 254, 112
-0.997189, 279, 185, 294, 248
-0.997195, 281, 161, 296, 224
-0.997197, 199, 297, 214, 360
-0.997198, 191, 289, 206, 352
-0.9972, 129, 117, 256, 148
-0.997201, 245, 49, 260, 112
-0.997203, 305, 153, 432, 184
-0.997204, 129, 45, 256, 76
-0.997204, 145, 233, 272, 264
-0.997222, 333, 113, 348, 176
-0.997232, 337, 209, 352, 272
-0.997237, 381, 177, 412, 240
-0.997239, 133, 289, 148, 352
-0.997242, 321, 117, 448, 148
-0.997245, 281, 33, 296, 96
-0.997251, 219, 97, 234, 160
-0.997252, 123, 289, 138, 352
-0.997258, 139, 289, 154, 352
-0.997262, 199, 73, 214, 136
-0.997266, 257, 65, 384, 96
-0.997268, 235, 89, 250, 152
-0.997279, 293, 1, 324, 64
-0.997342, 241, 113, 256, 176
-0.997349, 251, 121, 266, 184
-0.997355, 215, 281, 230, 344
-0.997371, 311, 161, 326, 224
-0.997383, 315, 113, 330, 176
-0.997389, 345, 1, 360, 64
-0.9974, 331, 209, 346, 272
-0.997401, 269, 129, 300, 375
-0.997407, 45, 313, 60, 375
-0.997417, 65, 129, 192, 256
-0.997425, 299, 193, 314, 256
-0.997445, 305, 317, 432, 348
-0.997457, 339, 113, 354, 176
-0.997458, 225, 305, 352, 336
-0.997473, 329, 241, 344, 272
-0.997475, 223, 273, 238, 336
-0.99748, 177, 141, 304, 172
-0.997503, 321, 93, 448, 124
-0.99753, 161, 33, 288, 64
-0.997532, 273, 81, 400, 112
-0.99755, 261, 169, 276, 200
-0.997551, 257, 265, 384, 296
-0.997552, 359, 233, 374, 296
-0.997579, 145, 245, 272, 276
-0.997581, 299, 145, 314, 208
-0.997585, 397, 241, 412, 304
-0.997587, 335, 89, 350, 152
-0.997591, 253, 97, 268, 160
-0.997604, 287, 153, 302, 216
-0.997605, 337, 293, 464, 324
-0.997605, 279, 57, 294, 120
-0.997608, 305, 261, 432, 292
-0.997622, 313, 57, 328, 120
-0.997628, 161, 201, 288, 232
-0.997642, 327, 121, 342, 184
-0.997645, 405, 145, 420, 208
-0.997647, 215, 121, 230, 184
-0.997651, 423, 257, 438, 320
-0.997654, 337, 233, 352, 264
-0.99766, 417, 193, 480, 256
-0.997662, 321, 77, 448, 108
-0.99767, 337, 165, 464, 196
-0.997685, 113, 1, 176, 375
-0.997703, 235, 229, 250, 260
-0.997735, 145, 221, 272, 252
-0.997738, 321, 133, 448, 164
-0.99774, 33, 337, 48, 368
-0.997754, 43, 329, 58, 360
-0.997762, 251, 193, 266, 224
-0.997772, 221, 45, 236, 76
-0.997787, 289, 13, 416, 44
-0.997788, 55, 321, 70, 352
-0.997792, 49, 325, 64, 356
-0.997795, 27, 345, 42, 375
-0.997797, 305, 49, 432, 80
-0.997804, 353, 201, 480, 232
-0.99781, 465, 225, 496, 352
-0.997816, 209, 21, 336, 52
-0.997826, 309, 33, 340, 288
-0.997842, 217, 65, 232, 96
-0.997852, 161, 269, 288, 300
-0.997855, 1, 177, 500, 240
-0.997886, 343, 229, 358, 260
-0.997891, 1, 305, 128, 336
-0.997893, 209, 33, 240, 288
-0.997895, 275, 101, 290, 132
-0.997898, 227, 37, 242, 68
-0.997903, 369, 73, 496, 104
-0.997917, 257, 189, 272, 220
-0.997918, 193, 161, 320, 192
-0.997929, 273, 305, 400, 336
-0.997935, 161, 189, 288, 220
-0.997939, 61, 317, 76, 348
-0.997939, 337, 277, 464, 308
-0.997966, 67, 313, 82, 344
-0.997967, 393, 241, 408, 272
-0.997968, 263, 181, 278, 212
-0.997969, 265, 89, 280, 120
-0.997969, 361, 177, 376, 208
-0.998004, 273, 129, 400, 160
-0.998015, 417, 1, 448, 128
-0.998038, 257, 277, 384, 308
-0.998046, 33, 17, 288, 80
-0.99806, 73, 309, 88, 340
-0.998075, 263, 145, 278, 176
-0.998078, 267, 169, 282, 200
-0.998083, 229, 97, 260, 352
-0.998098, 331, 173, 346, 204
-0.9981, 97, 281, 224, 312
-0.998108, 297, 33, 328, 288
-0.998111, 201, 161, 264, 224
-0.998119, 241, 221, 256, 252
-0.998123, 353, 317, 480, 348
-0.998128, 85, 305, 100, 336
-0.998129, 285, 65, 316, 320
-0.998136, 265, 121, 280, 152
-0.998144, 129, 69, 256, 100
-0.998156, 335, 133, 350, 164
-0.998171, 177, 305, 304, 336
-0.998176, 273, 113, 288, 144
-0.998197, 79, 309, 94, 340
-0.998212, 273, 133, 288, 164
-0.998212, 93, 301, 108, 332
-0.998215, 103, 297, 118, 328
-0.998221, 233, 29, 248, 60
-0.998227, 401, 245, 416, 276
-0.998228, 353, 61, 480, 92
-0.998238, 289, 1, 416, 32
-0.998251, 247, 209, 262, 240
-0.998251, 321, 129, 352, 375
-0.998251, 229, 245, 244, 276
-0.998257, 369, 249, 496, 280
-0.99826, 345, 129, 376, 375
-0.998261, 241, 325, 368, 356
-0.998267, 333, 121, 348, 152
-0.99827, 229, 65, 244, 96
-0.99828, 113, 113, 176, 240
-0.998288, 339, 121, 354, 152
-0.998291, 321, 329, 448, 360
-0.998293, 327, 185, 342, 216
-0.998296, 261, 157, 276, 188
-0.998297, 265, 109, 280, 140
-0.998314, 237, 257, 252, 288
-0.998315, 341, 177, 356, 208
-0.998316, 401, 247, 432, 262
-0.998316, 253, 99, 284, 114
-0.998318, 273, 55, 304, 70
-0.998318, 281, 107, 312, 122
-0.998319, 253, 275, 284, 290
-0.998319, 253, 171, 284, 186
-0.998319, 9, 351, 40, 366
-0.998319, 367, 205, 382, 236
-0.99832, 349, 243, 380, 258
-0.99832, 313, 183, 344, 198
-0.998321, 1, 359, 32, 374
-0.998321, 329, 127, 360, 142
-0.998321, 245, 211, 276, 226
-0.998322, 205, 81, 236, 96
-0.998323, 157, 295, 188, 310
-0.998323, 353, 221, 368, 252
-0.998325, 353, 157, 384, 172
-0.998325, 293, 51, 324, 66
-0.998325, 241, 119, 272, 134
-0.998325, 253, 111, 284, 126
-0.998326, 185, 299, 216, 314
-0.998327, 241, 163, 272, 178
-0.998327, 325, 239, 356, 254
-0.998329, 21, 345, 36, 375
-0.998329, 269, 93, 300, 108
-0.998329, 237, 261, 268, 276
-0.998329, 253, 65, 284, 80
-0.99833, 337, 137, 368, 152
-0.998331, 359, 213, 374, 244
-0.998332, 297, 193, 328, 208
-0.998332, 365, 203, 396, 218
-0.998332, 233, 245, 264, 260
-0.998333, 317, 119, 348, 134
-0.998333, 213, 249, 244, 264
-0.998334, 317, 79, 348, 94
-0.998334, 253, 105, 284, 120
-0.998334, 301, 113, 332, 128
-0.998334, 215, 53, 230, 84
-0.998339, 355, 177, 370, 208
-0.998339, 213, 241, 244, 256
-0.99834, 381, 239, 412, 254
-0.99834, 169, 297, 200, 312
-0.99834, 249, 203, 280, 218
-0.998341, 253, 53, 284, 68
-0.998343, 201, 117, 232, 132
-0.998343, 313, 93, 344, 108
-0.998344, 337, 149, 368, 164
-0.998344, 217, 61, 248, 76
-0.998346, 245, 73, 276, 88
-0.998347, 25, 337, 56, 352
-0.998348, 309, 191, 340, 206
-0.998348, 269, 193, 300, 208
-0.998349, 349, 185, 380, 200
-0.998349, 169, 33, 232, 288
-0.99835, 245, 217, 276, 232
-0.998351, 321, 257, 352, 272
-0.998352, 325, 139, 356, 154
-0.998352, 209, 117, 224, 148
-0.998352, 355, 157, 370, 188
-0.998352, 273, 99, 304, 114
-0.998353, 361, 211, 392, 226
-0.998353, 217, 255, 248, 270
-0.998353, 309, 101, 324, 132
-0.998353, 37, 329, 68, 344
-0.998354, 269, 137, 300, 152
-0.998355, 269, 155, 300, 170
-0.998355, 237, 87, 268, 102
-0.998356, 301, 95, 332, 110
-0.998356, 73, 137, 136, 200
-0.998357, 233, 235, 264, 250
-0.998358, 225, 85, 256, 100
-0.998359, 393, 253, 424, 268
-0.998359, 225, 119, 256, 134
-0.998359, 261, 77, 276, 108
-0.99836, 265, 69, 296, 84
-0.998361, 273, 293, 400, 324
-0.998361, 321, 133, 352, 148
-0.998362, 113, 101, 240, 132
-0.998362, 253, 117, 284, 132
-0.998364, 209, 111, 240, 126
-0.998364, 255, 177, 270, 208
-0.998366, 273, 61, 304, 76
-0.998369, 327, 129, 342, 160
-0.99837, 221, 47, 252, 62
-0.99837, 249, 197, 280, 212
-0.99837, 249, 85, 280, 100
-0.99837, 349, 219, 380, 234
-0.998371, 237, 223, 268, 238
-0.998372, 261, 33, 292, 48
-0.998372, 261, 185, 292, 200
-0.998373, 269, 107, 300, 122
-0.998373, 189, 115, 220, 130
-0.998374, 233, 229, 264, 244
-0.998375, 265, 75, 296, 90
-0.998378, 357, 129, 388, 375
-0.998379, 121, 295, 152, 310
-0.99838, 313, 125, 344, 140
-0.998382, 269, 119, 300, 134
-0.998382, 225, 41, 256, 56
-0.998383, 249, 31, 280, 46
-0.998384, 341, 249, 372, 264
-0.998384, 269, 87, 300, 102
-0.998384, 257, 29, 272, 60
-0.998385, 201, 105, 232, 120
-0.998385, 109, 297, 124, 328
-0.998386, 269, 143, 300, 158
-0.998387, 225, 77, 256, 92
-0.998388, 269, 129, 300, 144
-0.998388, 325, 185, 356, 200
-0.998389, 309, 251, 340, 266
-0.99839, 385, 245, 416, 260
-0.998392, 321, 177, 336, 208
-0.998393, 69, 309, 100, 324
-0.998393, 213, 123, 244, 138
-0.998395, 273, 145, 288, 176
-0.998395, 261, 165, 292, 180
-0.998398, 233, 267, 264, 282
-0.9984, 209, 73, 240, 88
-0.9984, 345, 225, 376, 240
-0.998402, 319, 189, 334, 220
-0.998402, 217, 53, 248, 68
-0.998402, 237, 29, 268, 44
-0.998403, 253, 123, 284, 138
-0.998404, 341, 231, 372, 246
-0.998404, 321, 29, 448, 60
-0.998404, 253, 93, 284, 108
-0.998408, 233, 125, 264, 140
-0.998409, 221, 117, 236, 148
-0.998412, 271, 189, 286, 220
-0.998413, 269, 113, 300, 128
-0.998415, 229, 35, 260, 50
-0.998415, 109, 295, 140, 310
-0.998419, 269, 149, 300, 164
-0.998423, 13, 357, 44, 372
-0.998423, 343, 245, 358, 276
-0.998424, 213, 117, 244, 132
-0.998425, 325, 251, 356, 266
-0.998426, 333, 253, 348, 284
-0.998427, 117, 293, 132, 324
-0.998428, 275, 53, 290, 84
-0.998429, 321, 341, 448, 372
-0.998429, 315, 113, 330, 144
-0.99843, 123, 293, 138, 324
-0.998431, 333, 185, 348, 216
-0.998433, 21, 349, 52, 364
-0.998435, 249, 79, 280, 94
-0.998435, 323, 245, 338, 276
-0.998436, 217, 67, 248, 82
-0.998439, 57, 321, 88, 336
-0.998439, 249, 131, 280, 146
-0.998443, 291, 193, 306, 224
-0.998443, 337, 237, 368, 252
-0.998443, 225, 31, 288, 46
-0.998446, 29, 343, 60, 358
-0.998446, 251, 145, 266, 176
-0.998447, 241, 29, 256, 60
-0.998448, 37, 335, 68, 350
-0.998448, 223, 69, 238, 100
-0.99845, 49, 327, 80, 342
-0.998451, 97, 299, 128, 314
-0.998455, 285, 193, 300, 224
-0.998456, 65, 315, 96, 330
-0.998458, 257, 159, 288, 174
-0.998467, 321, 245, 352, 260
-0.998469, 345, 179, 376, 194
-0.998469, 257, 153, 288, 168
-0.99847, 321, 1, 352, 256
-0.998477, 347, 169, 362, 200
-0.998479, 81, 305, 112, 320
-0.99848, 265, 29, 280, 60
-0.998484, 257, 191, 288, 206
-0.998487, 145, 153, 272, 184
-0.998492, 297, 193, 312, 224
-0.998496, 211, 73, 226, 104
-0.998498, 389, 229, 404, 260
-0.998499, 267, 157, 282, 188
-0.998501, 353, 233, 480, 264
-0.998502, 235, 73, 250, 104
-0.998502, 341, 133, 356, 164
-0.998502, 309, 129, 340, 375
-0.998504, 253, 145, 284, 160
-0.998508, 241, 193, 304, 208
-0.998509, 253, 137, 284, 152
-0.998513, 249, 147, 312, 162
-0.998522, 405, 257, 420, 288
-0.99853, 399, 233, 414, 264
-0.998532, 337, 33, 368, 288
-0.998533, 225, 129, 288, 144
-0.998533, 247, 25, 262, 56
-0.998534, 271, 89, 286, 120
-0.998535, 321, 187, 384, 202
-0.998535, 1, 121, 500, 184
-0.998536, 311, 193, 326, 224
-0.998538, 301, 181, 316, 212
-0.99854, 227, 113, 242, 144
-0.99854, 367, 185, 382, 216
-0.99854, 321, 181, 384, 196
-0.998541, 349, 245, 364, 276
-0.998543, 209, 289, 224, 320
-0.998547, 305, 193, 320, 224
-0.998547, 269, 65, 284, 96
-0.99855, 1, 289, 128, 320
-0.998553, 315, 177, 330, 208
-0.998554, 193, 75, 256, 90
-0.998555, 225, 85, 288, 100
-0.998555, 249, 153, 312, 168
-0.998555, 241, 135, 304, 150
-0.998556, 325, 257, 340, 288
-0.998557, 265, 133, 280, 164
-0.998558, 201, 119, 264, 134
-0.998559, 217, 129, 248, 375
-0.998565, 105, 295, 168, 310
-0.998567, 239, 117, 254, 148
-0.998567, 425, 113, 488, 240
-0.998567, 365, 165, 380, 196
-0.998567, 201, 111, 264, 126
-0.998567, 193, 105, 256, 120
-0.998568, 257, 121, 320, 136
-0.998569, 137, 293, 152, 324
-0.99857, 217, 69, 280, 84
-0.998571, 241, 141, 304, 156
-0.998572, 353, 49, 480, 80
-0.998572, 205, 105, 220, 136
-0.998573, 217, 79, 280, 94
-0.998573, 129, 293, 144, 324
-0.998574, 209, 53, 272, 68
-0.998578, 217, 39, 280, 54
-0.998581, 273, 177, 288, 208
-0.998582, 279, 193, 294, 224
-0.998583, 313, 247, 376, 262
-0.998583, 265, 89, 328, 104
-0.998585, 225, 123, 288, 138
-0.998586, 395, 253, 410, 284
-0.998587, 191, 297, 206, 328
-0.998587, 257, 113, 320, 128
-0.998588, 265, 95, 328, 110
-0.998588, 147, 293, 162, 324
-0.998589, 209, 45, 272, 60
-0.99859, 337, 229, 400, 244
-0.99859, 193, 97, 256, 112
-0.99859, 321, 239, 384, 254
-0.998591, 233, 91, 296, 106
-0.998592, 265, 127, 328, 142
-0.998594, 345, 219, 408, 234
-0.998594, 265, 141, 328, 156
-0.998597, 217, 271, 280, 286
-0.9986, 289, 245, 352, 260
-0.998601, 223, 57, 238, 88
-0.998601, 257, 107, 320, 122
-0.998602, 309, 177, 324, 208
-0.998602, 265, 61, 328, 76
-0.998603, 369, 261, 496, 292
-0.998604, 257, 79, 320, 94
-0.998604, 233, 105, 296, 120
-0.998607, 233, 99, 296, 114
-0.998611, 225, 147, 288, 162
-0.998612, 249, 187, 312, 202
-0.998612, 249, 163, 312, 178
-0.998613, 225, 113, 288, 128
-0.998613, 215, 109, 230, 140
-0.998614, 193, 89, 256, 104
-0.998614, 297, 239, 360, 254
-0.998615, 209, 63, 272, 78
-0.998617, 241, 201, 304, 216
-0.998618, 257, 35, 320, 50
-0.998619, 297, 189, 360, 204
-0.998621, 201, 125, 264, 140
-0.998622, 297, 105, 360, 120
-0.998622, 157, 293, 172, 324
-0.998622, 265, 195, 328, 210
-0.998622, 1, 33, 500, 96
-0.998624, 81, 303, 144, 318
-0.998625, 257, 71, 320, 86
-0.998626, 313, 211, 376, 226
-0.998626, 289, 99, 352, 114
-0.998628, 225, 227, 288, 242
-0.998628, 183, 297, 198, 328
-0.998631, 401, 1, 464, 64
-0.998632, 265, 53, 328, 68
-0.998633, 345, 213, 408, 228
-0.998634, 265, 133, 328, 148
-0.998634, 65, 311, 128, 326
-0.998634, 177, 115, 240, 130
-0.998634, 313, 253, 376, 268
-0.998635, 277, 33, 292, 64
-0.998635, 175, 293, 190, 324
-0.998637, 249, 45, 312, 60
-0.998637, 345, 243, 408, 258
-0.998638, 41, 329, 104, 344
-0.998639, 265, 27, 328, 42
-0.998639, 17, 349, 80, 364
-0.998639, 233, 219, 296, 234
-0.99864, 25, 343, 88, 358
-0.99864, 253, 125, 268, 156
-0.998641, 33, 335, 96, 350
-0.998641, 137, 295, 200, 310
-0.998641, 57, 317, 120, 332
-0.998642, 353, 205, 416, 220
-0.998644, 9, 355, 72, 370
-0.998644, 1, 361, 64, 375
-0.998645, 185, 251, 248, 266
-0.998645, 233, 63, 296, 78
-0.998646, 49, 323, 112, 338
-0.998646, 273, 183, 336, 198
-0.998647, 383, 213, 398, 244
-0.998647, 233, 117, 248, 148
-0.998649, 353, 199, 416, 214
-0.998649, 161, 297, 224, 312
-0.99865, 327, 117, 342, 148
-0.998651, 217, 277, 280, 292
-0.998652, 305, 229, 368, 244
-0.998653, 193, 257, 256, 272
-0.998653, 313, 175, 376, 190
-0.998653, 361, 193, 424, 208
-0.998653, 199, 85, 214, 116
-0.998654, 217, 135, 280, 150
-0.998654, 313, 223, 376, 238
-0.998654, 289, 251, 352, 266
-0.998655, 353, 237, 416, 252
-0.998656, 209, 141, 272, 156
-0.998656, 353, 181, 416, 196
-0.998656, 289, 317, 352, 332
-0.998657, 297, 27, 360, 42
-0.998659, 337, 249, 400, 264
-0.99866, 281, 113, 344, 128
-0.99866, 225, 251, 288, 266
-0.998661, 369, 85, 496, 116
-0.998661, 297, 41, 360, 56
-0.998662, 249, 171, 312, 186
-0.998664, 353, 173, 416, 188
-0.998664, 305, 33, 368, 48
-0.998664, 369, 133, 496, 164
-0.998666, 315, 101, 330, 132
-0.998666, 285, 41, 300, 72
-0.998666, 233, 209, 296, 224
-0.998667, 257, 101, 320, 116
-0.998667, 225, 159, 288, 174
-0.998667, 201, 213, 264, 228
-0.998669, 215, 125, 230, 156
-0.99867, 257, 273, 320, 288
-0.99867, 281, 309, 344, 324
-0.99867, 321, 205, 384, 220
-0.998671, 289, 137, 352, 152
-0.998671, 361, 187, 424, 202
-0.998672, 385, 259, 448, 274
-0.998672, 225, 235, 288, 250
-0.998672, 225, 153, 288, 168
-0.998674, 241, 309, 304, 324
-0.998674, 305, 93, 368, 108
-0.998675, 225, 245, 288, 260
-0.998676, 297, 125, 360, 140
-0.998676, 163, 293, 178, 324
-0.998676, 297, 19, 360, 34
-0.998677, 201, 297, 216, 328
-0.998677, 129, 21, 256, 52
-0.998677, 353, 105, 480, 136
-0.998679, 185, 245, 248, 260
-0.998681, 177, 49, 240, 64
-0.998681, 289, 177, 352, 192
-0.998681, 201, 263, 264, 278
-0.998682, 249, 317, 312, 332
-0.998682, 193, 69, 256, 84
-0.998684, 321, 199, 384, 214
-0.998684, 329, 139, 392, 154
-0.998685, 209, 195, 272, 210
-0.998685, 281, 35, 344, 50
-0.998689, 255, 165, 270, 196
-0.998706, 369, 345, 496, 375
-0.998713, 389, 129, 420, 375
-0.998718, 231, 17, 246, 144
-0.998726, 297, 129, 328, 375
-0.998728, 221, 33, 236, 160
-0.99874, 369, 329, 496, 360
-0.998747, 237, 209, 252, 336
-0.998755, 333, 129, 364, 375
-0.998774, 1, 257, 64, 320
-0.998781, 215, 49, 230, 176
-0.998793, 193, 317, 320, 348
-0.998805, 373, 97, 404, 352
-0.998827, 97, 85, 224, 116
-0.998828, 129, 305, 256, 336
-0.998849, 241, 17, 256, 144
-0.998852, 355, 161, 370, 288
-0.998862, 251, 129, 266, 256
-0.998864, 161, 173, 288, 204
-0.998865, 251, 177, 266, 304
-0.998865, 369, 13, 496, 44
-0.998895, 331, 177, 346, 304
-0.998896, 137, 1, 200, 375
-0.9989, 369, 149, 496, 180
-0.998912, 369, 177, 496, 208
-0.998913, 273, 337, 400, 368
-0.998923, 145, 281, 272, 312
-0.998928, 265, 113, 280, 240
-0.998929, 273, 97, 288, 224
-0.998936, 243, 209, 258, 336
-0.998948, 1, 153, 500, 216
-0.99895, 241, 9, 368, 40
-0.998954, 363, 161, 378, 288
-0.998956, 65, 153, 192, 216
-0.99898, 369, 117, 496, 148
-0.998982, 113, 57, 240, 88
-0.998986, 257, 145, 272, 272
-0.99899, 339, 161, 354, 288
-0.998996, 1, 89, 256, 152
-0.999, 247, 17, 262, 144
-0.999016, 273, 17, 288, 144
-0.999024, 185, 65, 216, 192
-0.999026, 129, 129, 256, 160
-0.99904, 349, 161, 364, 288
-0.999041, 277, 177, 292, 304
-0.999061, 265, 17, 280, 144
-0.999067, 259, 17, 274, 144
-0.99908, 319, 177, 334, 304
-0.999088, 271, 177, 286, 304
-0.999098, 217, 161, 248, 288
-0.999131, 353, 213, 480, 244
-0.999139, 201, 129, 232, 375
-0.999142, 33, 233, 96, 296
-0.999158, 401, 97, 432, 352
-0.999164, 1, 41, 256, 104
-0.999164, 231, 225, 246, 352
-0.99917, 49, 281, 176, 312
-0.999173, 331, 129, 346, 256
-0.999174, 279, 17, 294, 144
-0.999185, 283, 177, 298, 304
-0.999186, 307, 177, 322, 304
-0.999186, 325, 177, 340, 304
-0.999191, 253, 17, 268, 144
-0.999194, 263, 65, 278, 192
-0.999195, 263, 161, 278, 288
-0.999215, 299, 177, 314, 304
-0.999216, 209, 49, 224, 176
-0.999218, 245, 113, 260, 240
-0.999223, 283, 113, 298, 240
-0.999224, 413, 1, 444, 256
-0.999249, 359, 209, 374, 336
-0.999258, 291, 177, 306, 304
-0.99926, 313, 177, 328, 304
-0.999261, 353, 33, 384, 288
-0.999262, 307, 113, 322, 240
-0.999268, 369, 145, 384, 272
-0.999282, 285, 17, 300, 144
-0.999284, 319, 129, 334, 256
-0.999286, 113, 33, 240, 64
-0.999288, 337, 225, 352, 352
-0.999288, 337, 113, 352, 240
-0.999295, 369, 25, 496, 56
-0.999299, 81, 193, 208, 256
-0.999301, 271, 241, 286, 368
-0.999325, 433, 1, 496, 256
-0.999335, 89, 1, 152, 375
-0.999336, 189, 129, 220, 375
-0.999339, 229, 65, 244, 192
-0.999339, 343, 209, 358, 336
-0.999346, 369, 37, 496, 68
-0.999348, 347, 113, 362, 240
-0.999355, 373, 1, 404, 256
-0.999357, 265, 241, 280, 368
-0.999358, 249, 65, 264, 192
-0.999361, 297, 129, 312, 256
-0.999362, 277, 241, 292, 368
-0.999375, 325, 129, 340, 256
-0.999378, 289, 113, 304, 240
-0.999383, 397, 225, 412, 352
-0.999385, 257, 97, 272, 224
-0.999387, 101, 129, 132, 375
-0.999402, 239, 161, 254, 288
-0.999404, 17, 225, 144, 288
-0.999404, 257, 193, 272, 320
-0.999407, 259, 241, 274, 368
-0.99941, 249, 241, 264, 368
-0.999414, 341, 49, 356, 176
-0.999421, 313, 113, 328, 240
-0.999422, 395, 177, 410, 304
-0.999423, 197, 33, 228, 288
-0.999425, 353, 209, 368, 336
-0.999427, 387, 209, 402, 336
-0.999446, 243, 65, 258, 192
-0.999447, 219, 241, 234, 368
-0.999461, 323, 241, 338, 368
-0.999461, 203, 65, 218, 192
-0.999467, 369, 193, 384, 320
-0.999469, 405, 241, 420, 368
-0.999469, 353, 113, 368, 240
-0.999478, 379, 209, 394, 336
-0.999479, 237, 65, 252, 192
-0.999485, 413, 97, 444, 224
-0.999485, 345, 1, 360, 128
-0.999487, 329, 81, 344, 208
-0.999498, 223, 81, 238, 208
-0.999504, 129, 9, 384, 72
-0.999505, 129, 193, 192, 320
-0.999506, 215, 97, 230, 224
-0.999507, 225, 241, 240, 368
-0.999508, 305, 241, 320, 368
-0.999513, 245, 161, 260, 288
-0.999523, 267, 55, 282, 70
-0.999523, 263, 139, 278, 154
-0.999523, 405, 193, 420, 320
-0.999524, 233, 87, 248, 102
-0.999524, 273, 133, 288, 148
-0.999525, 267, 73, 282, 88
-0.999525, 305, 195, 320, 210
-0.999525, 265, 99, 280, 114
-0.999526, 315, 125, 330, 140
-0.999526, 227, 249, 242, 264
-0.999526, 319, 77, 334, 92
-0.999526, 387, 237, 402, 252
-0.999526, 393, 231, 408, 246
-0.999527, 313, 117, 328, 132
-0.999527, 389, 215, 404, 230
-0.999528, 365, 173, 380, 188
-0.999529, 219, 75, 234, 90
-0.999529, 265, 87, 280, 102
-0.999529, 273, 121, 288, 136
-0.999529, 291, 195, 306, 210
-0.99953, 397, 253, 412, 268
-0.99953, 229, 67, 244, 82
-0.99953, 337, 183, 352, 198
-0.99953, 273, 151, 288, 166
-0.99953, 263, 277, 278, 292
-0.999532, 279, 195, 294, 210
-0.999532, 63, 315, 78, 330
-0.999532, 225, 73, 240, 88
-0.999533, 259, 81, 274, 96
-0.999533, 65, 321, 80, 336
-0.999533, 349, 149, 364, 164
-0.999534, 265, 31, 280, 46
-0.999534, 363, 113, 378, 240
-0.999536, 319, 253, 334, 268
-0.999536, 211, 123, 226, 138
-0.999536, 233, 241, 248, 256
-0.999536, 299, 241, 314, 368
-0.999537, 259, 73, 274, 88
-0.999537, 201, 241, 216, 368
-0.999538, 285, 195, 300, 210
-0.999538, 331, 225, 346, 352
-0.99954, 81, 193, 144, 320
-0.99954, 351, 245, 366, 260
-0.99954, 109, 241, 124, 368
-0.999541, 363, 187, 378, 202
-0.999541, 345, 175, 360, 190
-0.999541, 273, 165, 288, 180
-0.999543, 401, 129, 416, 256
-0.999545, 283, 65, 298, 192
-0.999545, 259, 31, 274, 46
-0.999545, 403, 255, 418, 270
-0.999545, 353, 221, 368, 236
-0.999545, 273, 139, 288, 154
-0.999547, 253, 135, 268, 150
-0.999547, 9, 361, 24, 375
-0.999547, 275, 59, 290, 74
-0.999549, 217, 119, 232, 134
-0.999549, 283, 241, 298, 368
-0.99955, 259, 165, 274, 180
-0.99955, 263, 145, 278, 160
-0.999551, 333, 121, 348, 136
-0.999551, 407, 97, 422, 224
-0.999551, 393, 241, 408, 256
-0.999551, 265, 129, 280, 144
-0.999552, 325, 259, 340, 274
-0.999552, 191, 241, 206, 368
-0.999552, 121, 295, 136, 310
-0.999552, 235, 235, 250, 250
-0.999552, 245, 29, 260, 44
-0.999552, 251, 203, 266, 218
-0.999552, 339, 237, 354, 252
-0.999553, 237, 31, 252, 46
-0.999554, 265, 111, 280, 126
-0.999554, 177, 241, 192, 368
-0.999554, 249, 211, 264, 226
-0.999555, 315, 93, 330, 108
-0.999556, 65, 145, 192, 176
-0.999557, 271, 191, 286, 206
-0.999557, 273, 127, 288, 142
-0.999558, 341, 231, 356, 246
-0.999559, 291, 33, 306, 160
-0.99956, 421, 241, 436, 368
-0.999564, 239, 261, 254, 276
-0.999567, 237, 227, 252, 242
-0.999569, 115, 297, 130, 312
-0.99957, 275, 97, 290, 112
-0.99957, 357, 173, 372, 188
-0.999571, 347, 225, 362, 240
-0.999572, 171, 241, 186, 368
-0.999572, 321, 191, 336, 206
-0.999573, 207, 241, 222, 368
-0.999573, 221, 125, 236, 140
-0.999573, 309, 49, 324, 176
-0.999575, 267, 167, 282, 182
-0.999575, 213, 113, 228, 128
-0.999576, 343, 181, 358, 196
-0.999576, 411, 241, 426, 368
-0.999577, 331, 179, 346, 194
-0.999577, 273, 145, 288, 160
-0.999577, 231, 255, 246, 270
-0.999577, 247, 217, 262, 232
-0.999577, 325, 185, 340, 200
-0.999579, 383, 215, 398, 230
-0.99958, 103, 241, 118, 368
-0.999581, 231, 33, 246, 48
-0.999581, 341, 139, 356, 154
-0.999584, 219, 53, 234, 68
-0.999585, 331, 137, 346, 152
-0.999586, 289, 241, 304, 368
-0.999586, 71, 241, 86, 368
-0.999586, 109, 297, 124, 312
-0.999586, 273, 115, 288, 130
-0.999586, 185, 241, 200, 368
-0.999587, 401, 243, 416, 258
-0.999588, 335, 253, 350, 268
-0.999588, 311, 193, 326, 208
-0.999588, 203, 115, 218, 130
-0.999589, 115, 241, 130, 368
-0.99959, 413, 65, 428, 192
-0.999591, 95, 241, 110, 368
-0.999592, 331, 243, 346, 258
-0.999592, 223, 45, 238, 60
-0.999593, 85, 241, 100, 368
-0.999594, 317, 241, 332, 368
-0.999594, 265, 123, 280, 138
-0.999595, 161, 241, 176, 368
-0.999596, 275, 103, 290, 118
-0.9996, 213, 241, 228, 368
-0.999601, 229, 39, 244, 54
-0.999602, 1, 113, 128, 176
-0.999602, 331, 187, 346, 202
-0.999603, 357, 179, 372, 194
-0.999605, 345, 247, 360, 262
-0.999607, 331, 131, 346, 146
-0.999607, 273, 109, 288, 124
-0.999607, 339, 133, 354, 148
-0.999608, 311, 241, 326, 368
-0.999608, 267, 93, 282, 108
-0.999608, 213, 73, 228, 88
-0.999613, 31, 341, 46, 356
-0.999613, 241, 221, 256, 236
-0.999614, 15, 357, 30, 372
-0.999615, 21, 353, 36, 368
-0.999617, 149, 241, 164, 368
-0.999618, 381, 161, 396, 288
-0.999618, 425, 1, 456, 256
-0.99962, 263, 159, 278, 174
-0.999621, 209, 97, 224, 224
-0.999622, 403, 249, 418, 264
-0.999622, 121, 241, 136, 368
-0.999626, 103, 299, 118, 314
-0.999627, 95, 303, 110, 318
-0.999627, 253, 193, 268, 208
-0.999627, 77, 241, 92, 368
-0.999629, 393, 247, 408, 262
-0.999631, 83, 307, 98, 322
-0.999632, 127, 241, 142, 368
-0.999633, 137, 241, 152, 368
-0.999634, 155, 241, 170, 368
-0.999634, 259, 173, 274, 188
-0.999636, 327, 249, 342, 264
-0.999636, 49, 241, 64, 368
-0.999637, 337, 127, 352, 142
-0.999639, 297, 33, 312, 160
-0.99964, 143, 241, 158, 368
-0.999642, 337, 1, 352, 128
-0.999644, 27, 347, 42, 362
-0.999646, 335, 65, 350, 192
-0.999646, 427, 241, 442, 368
-0.999646, 63, 241, 78, 368
-0.999646, 351, 1, 366, 128
-0.999647, 263, 187, 278, 202
-0.999653, 219, 67, 234, 82
-0.999657, 57, 241, 72, 368
-0.999657, 37, 339, 52, 354
-0.999658, 89, 305, 104, 320
-0.999658, 77, 311, 92, 326
-0.999668, 239, 113, 254, 240
-0.999668, 69, 315, 84, 330
-0.999674, 51, 327, 66, 342
-0.999676, 43, 333, 58, 348
-0.999681, 59, 321, 74, 336
-0.999692, 381, 1, 412, 128
-0.999692, 445, 177, 476, 304
-0.999694, 113, 153, 240, 216
-0.999714, 441, 1, 472, 256
-0.999717, 169, 121, 232, 184
-0.999756, 1, 113, 256, 176
-0.999759, 369, 1, 496, 32
-0.999762, 405, 145, 436, 272
-0.999766, 1, 81, 500, 144
-0.999781, 161, 129, 192, 375
-0.999785, 113, 269, 240, 300
-0.999786, 65, 225, 192, 288
-0.999788, 1, 57, 500, 120
-0.999789, 17, 149, 144, 180
-0.999816, 193, 1, 224, 128
-0.99984, 121, 129, 152, 375
-0.99984, 33, 161, 160, 192
-0.999868, 1, 261, 128, 292
-0.999878, 149, 129, 180, 375
-0.999881, 49, 145, 112, 208
-0.999927, 73, 169, 136, 232
-0.999941, 453, 33, 484, 288
-0.999945, 389, 1, 420, 256
-0.999952, 97, 157, 224, 188
-0.999981, 1, 65, 256, 128
-0.999992, 77, 129, 108, 375
-0.999994, 457, 177, 488, 304
-1.00001, 173, 129, 204, 375
-1.00004, 97, 1, 224, 128
-1.00006, 425, 121, 488, 184
-1.00008, 425, 65, 488, 128
-1.00009, 89, 129, 120, 375
-1.0001, 137, 129, 168, 375
-1.0001, 49, 1, 112, 375
-1.00013, 113, 129, 176, 192
-1.00014, 205, 1, 236, 128
-1.00017, 33, 201, 160, 264
-1.00024, 49, 89, 176, 152
-1.00026, 65, 129, 128, 256
-1.00029, 61, 129, 92, 375
-1.00029, 381, 49, 412, 176
-1.0003, 433, 225, 496, 288
-1.00032, 129, 313, 256, 375
-1.00041, 433, 177, 464, 304
-1.00043, 465, 65, 496, 320
-1.00046, 401, 1, 432, 256
-1.00048, 413, 97, 444, 352
-1.00059, 1, 145, 256, 272
-1.00061, 169, 241, 232, 304
-1.00063, 185, 33, 216, 288
-1.00069, 453, 129, 484, 375
-1.00069, 433, 129, 464, 375
-1.00073, 421, 177, 452, 304
-1.00073, 97, 153, 160, 216
-1.00077, 353, 1, 416, 64
-1.00087, 33, 129, 64, 375
-1.00093, 49, 129, 80, 375
-1.00093, 401, 49, 432, 176
-1.00096, 57, 217, 120, 280
-1.00106, 361, 1, 392, 128
-1.0011, 425, 17, 488, 80
-1.00121, 457, 65, 488, 192
-1.00127, 125, 193, 156, 320
-1.0013, 21, 241, 52, 368
-1.0013, 409, 97, 472, 352
-1.00132, 161, 193, 224, 320
-1.00133, 113, 33, 144, 288
-1.00133, 173, 1, 204, 256
-1.00134, 101, 129, 132, 256
-1.00141, 1, 1, 500, 64
-1.00143, 89, 33, 120, 288
-1.00144, 1, 161, 256, 224
-1.00146, 453, 129, 484, 256
-1.00148, 445, 17, 476, 144
-1.00154, 469, 65, 500, 192
-1.00157, 125, 1, 156, 256
-1.0016, 161, 1, 192, 256
-1.0016, 77, 33, 108, 288
-1.0016, 137, 193, 168, 320
-1.00161, 17, 129, 48, 375
-1.00162, 153, 193, 184, 320
-1.00163, 469, 161, 500, 288
-1.00164, 141, 1, 172, 256
-1.00166, 57, 33, 88, 288
-1.00166, 65, 65, 192, 128
-1.00167, 101, 1, 132, 256
-1.00168, 41, 33, 72, 288
-1.00169, 17, 33, 48, 288
-1.00175, 153, 97, 216, 224
-1.00176, 369, 49, 400, 176
-1.00178, 29, 1, 60, 256
-1.00178, 5, 129, 36, 375
-1.0018, 117, 113, 148, 240
-1.00184, 5, 1, 36, 256
-1.0019, 1, 89, 128, 152
-1.00195, 437, 129, 468, 256
-1.002, 433, 17, 464, 144
-1.00216, 165, 193, 196, 320
-1.00226, 1, 65, 128, 128
-1.00228, 433, 129, 496, 375
-1.00234, 405, 1, 436, 128
-1.00234, 469, 1, 500, 128
-1.00238, 1, 1, 64, 375
-1.00246, 89, 193, 120, 320
-1.00258, 1, 41, 128, 104
-1.00268, 65, 17, 192, 80
-1.00269, 181, 193, 212, 320
-1.00273, 81, 313, 208, 375
-1.00277, 49, 41, 176, 104
-1.00291, 17, 17, 144, 80
-1.00296, 1, 81, 128, 208
-1.00299, 101, 193, 132, 320
-1.00302, 433, 1, 496, 128
-1.00302, 89, 129, 120, 256
-1.00331, 57, 193, 120, 320
-1.00334, 77, 129, 108, 256
-1.0035, 457, 17, 488, 144
-1.00354, 113, 145, 240, 272
-1.00355, 425, 113, 456, 240
-1.00357, 17, 129, 80, 375
-1.00373, 25, 1, 88, 375
-1.00376, 9, 241, 40, 368
-1.00384, 41, 129, 104, 375
-1.00389, 97, 81, 128, 208
-1.00427, 49, 65, 176, 192
-1.00431, 445, 65, 476, 192
-1.00447, 465, 113, 496, 240
-1.00461, 73, 81, 136, 208
-1.00486, 429, 65, 460, 192
-1.00492, 173, 49, 204, 176
-1.00503, 85, 81, 116, 208
-1.00543, 129, 113, 160, 240
-1.00552, 145, 33, 208, 160
-1.00567, 65, 145, 96, 272
-1.0057, 145, 1, 208, 256
-1.0059, 165, 97, 196, 224
-1.00599, 29, 161, 60, 288
-1.00601, 141, 113, 172, 240
-1.00662, 121, 65, 184, 192
-1.00728, 105, 33, 168, 288
-1.00759, 41, 129, 104, 256
-1.00802, 145, 145, 208, 272
-1.00855, 65, 1, 128, 256
-1.00877, 33, 81, 96, 208
-1.00878, 49, 17, 176, 144
-1.00898, 33, 33, 96, 288
-1.00899, 97, 65, 160, 192
-1.00966, 1, 33, 128, 160
-1.01029, 1, 1, 64, 256
-1.0105, 33, 193, 96, 320
-1.01104, 9, 177, 72, 304
-1.01143, 1, 97, 64, 224
-1.01301, 65, 33, 128, 160
-1.01361, 25, 33, 88, 160
-1.01377, 97, 17, 160, 144
-1.01432, 1, 49, 64, 176
-1.01487, 121, 17, 184, 144
-1.0152, 1, 1, 64, 128
-1.02562, 1, 33, 256, 288
