1969
-0.388264, 1, 129, 500, 374
-0.405446, 1, 1, 500, 374
-0.411188, 1, 1, 500, 256
-0.416771, 225, 1, 480, 374
-0.418081, 129, 1, 384, 374
-0.424532, 33, 1, 288, 374
-0.517304, 65, 97, 320, 352
-0.577177, 257, 1, 500, 256
-0.578505, 193, 129, 448, 374
-0.622301, 129, 1, 384, 256
-0.640236, 1, 1, 256, 256
-0.839037, 113, 1, 240, 374
-0.841129, 225, 1, 352, 374
-0.843255, 1, 145, 500, 272
-0.848969, 161, 97, 288, 352
-0.851849, 113, 97, 240, 352
-0.852365, 321, 1, 448, 374
-0.855281, 369, 1, 496, 256
-0.856031, 225, 129, 352, 374
-0.86068, 353, 97, 480, 352
-0.861457, 257, 33, 384, 288
-0.862013, 177, 1, 304, 256
-0.864624, 321, 1, 448, 256
-0.865671, 161, 1, 288, 374
-0.870882, 65, 1, 192, 374
-0.872537, 273, 1, 400, 374
-0.873122, 369, 1, 496, 374
-0.874558, 113, 1, 240, 256
-0.880371, 65, 1, 192, 256
-0.880458, 1, 193, 500, 320
-0.882198, 289, 129, 416, 374
-0.891077, 65, 129, 192, 374
-0.893402, 1, 241, 500, 368
-0.894629, 97, 145, 352, 272
-0.897668, 1, 81, 500, 208
-0.900143, 1, 1, 128, 374
-0.903344, 1, 17, 500, 144
-0.903967, 225, 113, 480, 240
-0.90822, 97, 97, 352, 224
-0.909481, 1, 129, 128, 374
-0.917911, 193, 65, 448, 192
-0.92107, 177, 145, 304, 272
-0.922635, 1, 1, 128, 256
-0.925652, 33, 193, 288, 320
-0.925851, 369, 81, 496, 208
-0.925977, 97, 241, 352, 368
-0.926892, 113, 129, 240, 256
-0.927629, 113, 209, 240, 336
-0.929378, 161, 161, 224, 288
-0.929658, 1, 129, 256, 256
-0.929674, 225, 129, 288, 256
-0.933402, 417, 97, 480, 224
-0.934269, 129, 177, 192, 304
-0.935104, 257, 161, 500, 288
-0.935349, 257, 113, 384, 240
-0.935933, 121, 129, 184, 256
-0.937629, 257, 1, 500, 128
-0.937767, 65, 49, 320, 176
-0.93788, 193, 193, 320, 320
-0.938788, 161, 113, 224, 240
-0.939255, 201, 145, 264, 272
-0.939813, 193, 65, 320, 192
-0.940565, 353, 97, 416, 224
-0.940717, 121, 241, 184, 368
-0.940988, 185, 193, 248, 320
-0.942168, 113, 81, 240, 208
-0.943157, 433, 49, 496, 176
-0.943294, 161, 177, 224, 240
-0.943657, 321, 97, 448, 224
-0.944142, 201, 81, 264, 208
-0.944361, 273, 113, 336, 240
-0.944662, 1, 1, 256, 128
-0.944797, 273, 129, 336, 192
-0.945082, 225, 225, 480, 352
-0.945723, 1, 241, 256, 368
-0.945744, 81, 129, 144, 256
-0.945977, 369, 129, 496, 256
-0.94618, 329, 97, 392, 224
-0.946479, 97, 33, 224, 160
-0.946628, 81, 225, 144, 352
-0.946838, 113, 1, 176, 128
-0.946906, 161, 1, 416, 128
-0.946915, 89, 81, 152, 208
-0.947301, 129, 193, 384, 320
-0.94779, 393, 81, 456, 208
-0.948051, 65, 129, 192, 256
-0.948304, 417, 81, 480, 144
-0.948385, 329, 129, 392, 192
-0.948942, 241, 49, 368, 176
-0.949256, 257, 161, 384, 288
-0.949972, 65, 241, 192, 368
-0.950459, 249, 113, 312, 240
-0.950568, 345, 105, 408, 168
-0.950803, 233, 145, 296, 208
-0.950872, 249, 65, 312, 192
-0.950895, 305, 113, 368, 240
-0.951051, 161, 209, 224, 336
-0.951172, 105, 193, 168, 320
-0.951394, 385, 1, 448, 128
-0.951577, 425, 113, 488, 176
-0.95202, 369, 1, 496, 128
-0.952109, 65, 193, 192, 320
-0.952266, 353, 129, 416, 192
-0.952266, 137, 169, 200, 232
-0.952402, 305, 129, 368, 192
-0.952521, 89, 33, 152, 160
-0.953505, 321, 1, 448, 128
-0.953641, 225, 177, 288, 304
-0.95371, 137, 17, 200, 144
-0.954301, 225, 65, 288, 192
-0.954373, 185, 241, 248, 368
-0.954828, 321, 145, 448, 272
-0.955192, 377, 105, 440, 168
-0.955283, 185, 169, 248, 232
-0.955521, 305, 65, 368, 192
-0.956869, 137, 81, 200, 208
-0.956906, 385, 129, 448, 256
-0.957063, 49, 33, 176, 160
-0.957322, 433, 1, 496, 128
-0.957436, 233, 225, 296, 352
-0.957676, 233, 121, 296, 184
-0.957879, 153, 129, 216, 192
-0.958032, 169, 201, 232, 264
-0.958247, 401, 121, 464, 184
-0.958777, 257, 161, 320, 288
-0.958827, 161, 241, 288, 368
-0.959172, 281, 49, 344, 176
-0.959255, 121, 145, 184, 208
-0.95946, 121, 289, 184, 352
-0.959981, 81, 177, 144, 304
-0.960446, 81, 297, 144, 360
-0.960535, 209, 121, 272, 184
-0.960686, 209, 161, 272, 224
-0.960853, 169, 1, 232, 128
-0.96115, 113, 105, 176, 168
-0.96134, 377, 145, 440, 208
-0.961435, 121, 249, 184, 312
-0.961909, 281, 153, 344, 216
-0.961949, 113, 41, 176, 104
-0.96214, 289, 49, 416, 176
-0.962258, 113, 81, 176, 208
-0.962312, 161, 153, 224, 216
-0.962388, 81, 129, 144, 192
-0.962588, 225, 241, 352, 368
-0.962589, 161, 65, 224, 192
-0.962699, 425, 57, 488, 120
-0.963383, 1, 209, 128, 336
-0.963392, 121, 193, 184, 256
-0.963509, 129, 65, 192, 128
-0.963617, 401, 57, 464, 120
-0.963711, 145, 17, 272, 144
-0.96384, 305, 137, 432, 200
-0.963856, 417, 241, 480, 304
-0.963884, 361, 145, 424, 272
-0.964005, 385, 257, 448, 320
-0.964326, 97, 273, 160, 336
-0.964542, 113, 169, 176, 232
-0.965047, 393, 1, 456, 64
-0.965139, 329, 33, 392, 160
-0.96541, 177, 129, 240, 192
-0.965438, 433, 33, 496, 96
-0.965577, 297, 105, 360, 168
-0.965769, 417, 1, 480, 64
-0.965891, 225, 97, 288, 352
-0.965899, 169, 129, 232, 374
-0.96599, 105, 65, 168, 128
-0.966051, 417, 265, 480, 328
-0.966642, 165, 169, 196, 232
-0.966716, 361, 17, 424, 144
-0.966908, 273, 1, 400, 128
-0.96696, 257, 153, 320, 216
-0.967175, 433, 1, 496, 256
-0.967258, 369, 105, 496, 168
-0.967299, 177, 153, 304, 216
-0.967614, 185, 169, 216, 232
-0.967626, 445, 81, 476, 144
-0.967986, 97, 1, 160, 64
-0.968078, 109, 241, 140, 368
-0.968251, 137, 1, 200, 256
-0.968274, 81, 177, 144, 240
-0.968298, 385, 81, 448, 144
-0.968323, 153, 105, 216, 168
-0.968521, 89, 153, 152, 216
-0.968691, 409, 1, 472, 128
-0.968725, 217, 217, 280, 280
-0.968728, 81, 233, 144, 296
-0.96875, 193, 97, 256, 160
-0.968856, 153, 257, 216, 320
-0.969016, 369, 129, 496, 192
-0.969047, 121, 97, 184, 352
-0.969069, 1, 81, 128, 208
-0.969078, 65, 81, 192, 208
-0.969198, 113, 185, 240, 248
-0.969303, 81, 105, 144, 168
-0.969315, 465, 105, 496, 168
-0.969317, 237, 121, 268, 184
-0.969333, 321, 105, 384, 168
-0.969401, 257, 137, 384, 200
-0.969496, 105, 313, 168, 374
-0.969562, 469, 97, 500, 224
-0.969731, 193, 129, 256, 374
-0.969906, 145, 201, 208, 264
-0.969989, 193, 193, 256, 256
-0.970074, 401, 145, 464, 208
-0.970092, 193, 241, 256, 304
-0.970108, 161, 193, 288, 256
-0.970171, 405, 121, 436, 184
-0.970198, 57, 225, 120, 352
-0.970331, 369, 193, 496, 320
-0.970345, 353, 9, 416, 72
-0.970366, 377, 129, 440, 374
-0.97041, 153, 25, 216, 88
-0.970417, 313, 161, 376, 288
-0.970422, 337, 1, 400, 256
-0.970513, 169, 65, 232, 128
-0.970516, 201, 169, 232, 232
-0.970523, 369, 241, 496, 368
-0.970704, 321, 113, 448, 176
-0.970715, 165, 161, 196, 288
-0.970821, 169, 225, 232, 288
-0.970845, 249, 129, 312, 374
-0.97106, 305, 153, 368, 216
-0.971068, 457, 81, 488, 208
-0.971116, 385, 281, 448, 344
-0.971193, 213, 193, 244, 320
-0.971198, 177, 161, 208, 288
-0.971224, 385, 137, 416, 200
-0.971268, 265, 105, 328, 168
-0.971335, 337, 153, 400, 216
-0.971377, 401, 265, 432, 328
-0.971516, 1, 1, 128, 128
-0.971533, 265, 153, 296, 216
-0.971619, 145, 129, 272, 192
-0.97168, 9, 145, 72, 272
-0.971869, 409, 65, 472, 320
-0.971906, 297, 1, 360, 128
-0.971918, 217, 185, 280, 248
-0.972045, 357, 97, 388, 224
-0.972127, 9, 241, 72, 368
-0.972127, 89, 1, 152, 256
-0.972142, 273, 33, 336, 288
-0.972349, 417, 209, 480, 336
-0.972399, 225, 113, 352, 176
-0.972557, 1, 129, 128, 256
-0.972587, 333, 129, 364, 192
-0.972647, 185, 113, 216, 240
-0.972713, 361, 1, 424, 256
-0.972776, 321, 33, 384, 96
-0.972778, 233, 97, 296, 160
-0.972788, 73, 257, 136, 320
-0.972915, 113, 257, 240, 320
-0.972995, 361, 129, 392, 192
-0.973005, 233, 241, 296, 304
-0.973044, 113, 209, 240, 272
-0.973059, 377, 81, 408, 208
-0.973133, 257, 161, 384, 224
-0.973196, 313, 1, 376, 256
-0.973259, 381, 105, 412, 168
-0.973262, 469, 57, 500, 120
-0.973264, 9, 193, 72, 320
-0.973313, 81, 81, 144, 144
-0.973329, 109, 273, 140, 336
-0.973335, 257, 129, 288, 256
-0.973353, 153, 313, 216, 374
-0.97336, 469, 81, 500, 144
-0.973408, 369, 241, 432, 368
-0.973474, 305, 193, 432, 320
-0.973567, 209, 225, 272, 352
-0.973603, 361, 81, 424, 144
-0.973607, 125, 193, 156, 320
-0.973697, 193, 33, 256, 160
-0.97392, 305, 241, 432, 368
-0.973942, 113, 1, 176, 256
-0.973943, 469, 129, 500, 192
-0.973944, 385, 33, 448, 288
-0.974044, 457, 73, 488, 136
-0.974067, 401, 33, 464, 96
-0.974068, 193, 161, 224, 288
-0.974089, 433, 145, 496, 272
-0.97426, 345, 97, 408, 352
-0.97452, 201, 33, 264, 288
-0.974584, 433, 145, 496, 208
-0.974592, 433, 49, 464, 176
-0.974613, 229, 145, 260, 272
-0.974673, 97, 201, 160, 264
-0.974717, 57, 161, 120, 288
-0.974737, 113, 161, 240, 224
-0.974833, 369, 81, 496, 144
-0.974859, 309, 129, 340, 192
-0.974921, 153, 161, 184, 288
-0.974932, 129, 129, 160, 256
-0.974985, 109, 193, 140, 320
-0.975005, 337, 249, 400, 312
-0.975193, 193, 265, 256, 328
-0.975201, 97, 129, 224, 192
-0.975286, 305, 129, 368, 374
-0.9753, 57, 113, 120, 240
-0.975304, 369, 33, 432, 96
-0.97535, 125, 65, 156, 128
-0.975466, 129, 81, 160, 208
-0.975668, 113, 249, 144, 312
-0.975734, 361, 257, 424, 320
-0.97576, 457, 1, 488, 128
-0.975828, 249, 33, 312, 288
-0.976043, 9, 297, 72, 360
-0.976121, 337, 113, 368, 240
-0.976141, 385, 233, 448, 296
-0.976169, 213, 145, 244, 272
-0.976204, 213, 169, 244, 232
-0.976216, 193, 217, 256, 280
-0.976361, 145, 113, 176, 240
-0.976473, 121, 217, 184, 280
-0.976484, 429, 97, 460, 224
-0.97657, 49, 273, 176, 336
-0.976597, 193, 193, 224, 256
-0.976673, 225, 153, 256, 216
-0.976688, 417, 105, 448, 168
-0.976726, 245, 129, 276, 256
-0.976791, 441, 1, 472, 128
-0.97685, 249, 193, 312, 256
-0.976877, 97, 41, 224, 104
-0.976981, 321, 145, 352, 208
-0.976987, 433, 113, 464, 176
-0.977007, 453, 105, 484, 168
-0.977029, 233, 65, 296, 128
-0.977035, 169, 1, 232, 256
-0.977064, 433, 73, 464, 136
-0.977092, 169, 193, 200, 256
-0.977101, 417, 81, 448, 208
-0.977152, 129, 313, 192, 374
-0.97718, 257, 313, 320, 374
-0.977207, 145, 105, 272, 168
-0.977279, 273, 113, 400, 176
-0.977291, 369, 105, 400, 168
-0.977392, 165, 145, 196, 208
-0.977422, 161, 217, 288, 280
-0.97754, 201, 305, 264, 368
-0.977573, 409, 65, 440, 128
-0.977607, 397, 81, 428, 208
-0.977647, 9, 97, 72, 224
-0.977686, 321, 121, 352, 184
-0.977785, 445, 65, 476, 192
-0.977798, 397, 81, 428, 144
-0.977891, 321, 33, 448, 96
-0.977904, 369, 241, 496, 304
-0.977917, 129, 241, 160, 368
-0.977922, 89, 25, 152, 88
-0.977956, 153, 169, 184, 232
-0.97797, 117, 129, 148, 256
-0.97797, 93, 209, 124, 336
-0.977979, 325, 113, 356, 240
-0.978004, 337, 161, 400, 288
-0.978004, 433, 97, 496, 352
-0.978027, 469, 49, 500, 176
-0.978043, 57, 297, 120, 360
-0.978231, 253, 137, 284, 200
-0.978337, 93, 257, 124, 320
-0.978491, 157, 113, 188, 240
-0.978589, 145, 129, 208, 374
-0.978592, 209, 193, 240, 256
-0.978606, 137, 193, 168, 320
-0.978658, 189, 209, 220, 336
-0.978673, 113, 1, 144, 128
-0.978719, 81, 129, 144, 374
-0.978725, 281, 113, 312, 240
-0.978769, 373, 137, 404, 200
-0.978858, 281, 129, 312, 192
-0.978925, 353, 105, 384, 168
-0.978978, 9, 201, 72, 264
-0.979003, 129, 257, 160, 320
-0.979062, 65, 313, 192, 374
-0.979107, 241, 289, 304, 352
-0.979109, 281, 161, 344, 288
-0.979153, 313, 1, 376, 64
-0.979226, 245, 65, 276, 192
-0.97924, 405, 145, 436, 208
-0.979283, 321, 89, 448, 152
-0.979308, 145, 1, 176, 128
-0.979312, 269, 129, 300, 256
-0.979327, 97, 73, 224, 136
-0.979434, 125, 33, 156, 160
-0.979483, 409, 145, 472, 272
-0.979492, 321, 161, 448, 224
-0.979595, 97, 17, 224, 80
-0.979616, 381, 129, 412, 256
-0.979682, 9, 265, 72, 328
-0.979765, 109, 105, 140, 168
-0.979804, 369, 153, 496, 216
-0.979813, 345, 129, 376, 192
-0.979859, 321, 257, 448, 320
-0.979865, 229, 97, 260, 224
-0.979962, 161, 1, 224, 374
-0.979973, 161, 241, 192, 368
-0.979982, 345, 33, 408, 96
-0.980019, 393, 241, 456, 368
-0.98003, 173, 209, 204, 336
-0.980054, 337, 241, 400, 368
-0.980083, 417, 273, 448, 336
-0.980115, 193, 137, 224, 200
-0.980146, 113, 233, 240, 296
-0.980197, 65, 193, 192, 256
-0.980224, 197, 113, 228, 240
-0.980275, 181, 193, 212, 256
-0.980317, 353, 57, 480, 120
-0.980338, 361, 281, 424, 344
-0.980401, 65, 249, 192, 312
-0.980421, 185, 33, 248, 96
-0.98043, 169, 113, 200, 240
-0.980442, 425, 217, 488, 280
-0.980464, 145, 233, 208, 296
-0.980542, 9, 225, 72, 288
-0.980558, 177, 145, 208, 208
-0.980567, 217, 129, 248, 192
-0.980582, 265, 177, 296, 304
-0.980693, 137, 49, 168, 112
-0.980751, 193, 17, 320, 144
-0.980796, 137, 1, 200, 374
-0.98087, 233, 265, 296, 328
-0.98088, 257, 209, 320, 336
-0.980904, 421, 81, 452, 144
-0.980968, 193, 65, 256, 128
-0.981009, 265, 49, 328, 112
-0.981074, 9, 177, 72, 240
-0.981093, 457, 129, 488, 192
-0.981126, 81, 241, 112, 368
-0.981162, 237, 153, 268, 216
-0.981213, 153, 129, 184, 192
-0.981234, 165, 249, 196, 312
-0.981236, 181, 313, 212, 374
-0.981257, 225, 1, 288, 374
-0.981263, 273, 177, 336, 240
-0.981292, 73, 201, 136, 264
-0.9813, 445, 57, 476, 120
-0.981421, 9, 1, 72, 128
-0.981448, 369, 169, 432, 232
-0.98146, 257, 217, 320, 280
-0.981516, 9, 145, 72, 208
-0.981526, 97, 105, 224, 168
-0.981534, 257, 1, 320, 374
-0.981536, 81, 57, 144, 120
-0.981562, 157, 193, 188, 256
-0.981578, 117, 41, 148, 104
-0.981619, 281, 241, 344, 368
-0.981626, 1, 313, 32, 374
-0.981634, 369, 281, 496, 344
-0.981638, 433, 233, 464, 296
-0.981656, 161, 73, 288, 136
-0.98166, 153, 289, 216, 352
-0.981717, 113, 1, 144, 64
-0.981717, 273, 129, 336, 374
-0.981802, 457, 129, 488, 256
-0.981891, 93, 129, 124, 256
-0.982063, 385, 81, 416, 144
-0.982065, 413, 129, 444, 256
-0.982068, 369, 57, 432, 120
-0.982134, 137, 97, 168, 160
-0.982191, 113, 225, 144, 288
-0.982315, 201, 209, 232, 336
-0.982356, 177, 241, 304, 304
-0.982402, 109, 297, 140, 360
-0.982442, 213, 97, 244, 224
-0.982452, 261, 113, 292, 176
-0.982475, 145, 281, 272, 344
-0.982504, 261, 81, 292, 208
-0.982552, 9, 1, 72, 64
-0.982622, 237, 97, 268, 160
-0.982644, 109, 81, 140, 208
-0.98269, 65, 217, 192, 280
-0.98271, 265, 193, 296, 256
-0.982763, 341, 65, 372, 192
-0.98279, 393, 305, 456, 368
-0.982798, 81, 1, 144, 374
-0.982804, 113, 313, 240, 374
-0.982888, 177, 305, 304, 368
-0.982919, 113, 65, 144, 128
-0.982923, 57, 233, 120, 296
-0.983054, 381, 17, 412, 144
-0.983088, 149, 209, 180, 336
-0.983093, 417, 129, 448, 192
-0.983095, 281, 1, 344, 374
-0.98311, 129, 185, 160, 248
-0.983125, 337, 9, 464, 72
-0.983156, 121, 9, 184, 72
-0.983246, 185, 1, 248, 374
-0.983252, 329, 73, 392, 136
-0.983256, 49, 65, 176, 128
-0.983291, 209, 185, 336, 248
-0.983292, 433, 1, 496, 374
-0.983347, 441, 113, 472, 240
-0.98335, 129, 153, 160, 216
-0.983364, 145, 41, 272, 104
-0.983417, 49, 17, 176, 80
-0.983434, 65, 161, 192, 224
-0.983451, 297, 249, 360, 312
-0.983471, 413, 1, 444, 128
-0.983501, 93, 233, 124, 296
-0.983639, 429, 1, 460, 128
-0.983643, 385, 161, 416, 224
-0.983654, 105, 145, 136, 272
-0.983654, 457, 25, 488, 88
-0.983732, 397, 129, 428, 256
-0.983786, 313, 97, 344, 224
-0.98385, 273, 1, 336, 128
-0.983883, 129, 281, 160, 344
-0.983984, 121, 105, 152, 168
-0.983988, 165, 313, 196, 374
-0.983996, 141, 161, 172, 224
-0.984003, 417, 241, 448, 304
-0.984054, 337, 177, 400, 240
-0.984073, 397, 57, 428, 120
-0.984076, 257, 193, 384, 256
-0.984119, 345, 161, 376, 288
-0.984163, 337, 153, 368, 216
-0.984274, 421, 57, 452, 120
-0.984326, 345, 1, 408, 374
-0.984327, 149, 49, 180, 176
-0.984345, 349, 1, 380, 64
-0.984355, 221, 193, 252, 256
-0.984401, 233, 193, 264, 320
-0.984498, 357, 153, 388, 216
-0.984513, 469, 1, 500, 128
-0.984563, 9, 49, 72, 176
-0.984683, 205, 145, 236, 208
-0.984708, 185, 257, 216, 320
-0.98486, 305, 105, 336, 168
-0.984876, 433, 169, 496, 232
-0.984903, 397, 241, 428, 368
-0.984929, 245, 177, 276, 240
-0.984932, 353, 305, 416, 368
-0.98495, 217, 249, 248, 312
-0.984958, 1, 257, 128, 320
-0.984961, 257, 49, 384, 112
-0.984972, 225, 17, 288, 144
-0.985042, 361, 193, 424, 320
-0.985091, 149, 81, 180, 144
-0.985121, 177, 121, 208, 184
-0.985131, 249, 113, 280, 176
-0.985151, 57, 129, 120, 192
-0.98518, 93, 281, 124, 344
-0.985188, 113, 169, 144, 232
-0.985223, 201, 65, 232, 192
-0.985262, 1, 1, 32, 128
-0.985269, 289, 49, 352, 112
-0.985312, 293, 121, 324, 184
-0.985316, 1, 233, 128, 296
-0.985336, 285, 49, 316, 176
-0.985368, 105, 145, 136, 208
-0.985398, 469, 145, 500, 272
-0.985463, 225, 1, 288, 256
-0.985476, 65, 153, 128, 216
-0.985494, 165, 121, 196, 184
-0.985503, 469, 225, 500, 352
-0.985532, 313, 177, 376, 240
-0.985538, 97, 281, 224, 344
-0.985546, 217, 217, 248, 280
-0.98555, 9, 25, 72, 88
-0.985555, 253, 177, 284, 304
-0.985585, 293, 113, 324, 240
-0.98566, 393, 105, 424, 168
-0.985718, 81, 305, 112, 368
-0.98572, 369, 81, 400, 144
-0.985728, 93, 209, 124, 272
-0.985745, 81, 265, 112, 328
-0.985919, 469, 257, 500, 320
-0.985943, 185, 1, 216, 128
-0.985951, 273, 49, 304, 176
-0.986005, 1, 33, 128, 96
-0.986027, 125, 1, 156, 64
-0.986029, 369, 129, 400, 256
-0.986044, 325, 1, 356, 128
-0.986082, 113, 1, 176, 374
-0.986097, 141, 25, 172, 88
-0.986113, 217, 241, 248, 368
-0.986141, 177, 65, 208, 192
-0.986165, 313, 1, 376, 374
-0.986195, 305, 49, 336, 176
-0.986211, 449, 241, 480, 304
-0.98623, 425, 17, 456, 80
-0.986238, 369, 177, 496, 240
-0.986266, 289, 153, 320, 216
-0.986289, 357, 1, 388, 128
-0.986338, 397, 1, 428, 128
-0.986353, 1, 305, 128, 368
-0.986371, 209, 57, 336, 120
-0.986396, 81, 193, 112, 320
-0.986406, 325, 97, 356, 160
-0.986445, 305, 65, 432, 128
-0.986511, 341, 105, 372, 168
-0.986539, 253, 201, 284, 264
-0.986573, 141, 137, 172, 200
-0.986642, 469, 1, 500, 64
-0.986712, 241, 217, 368, 280
-0.986721, 369, 33, 496, 96
-0.986771, 429, 265, 460, 328
-0.98678, 405, 289, 436, 352
-0.986783, 117, 129, 148, 192
-0.986833, 457, 49, 488, 112
-0.986838, 345, 33, 376, 96
-0.986843, 341, 1, 372, 128
-0.986874, 225, 281, 352, 344
-0.986883, 437, 17, 468, 80
-0.986883, 445, 137, 476, 200
-0.986925, 433, 49, 464, 112
-0.987005, 461, 153, 492, 216
-0.98701, 141, 185, 172, 248
-0.987062, 33, 105, 160, 168
-0.987063, 149, 249, 180, 312
-0.987066, 313, 241, 376, 368
-0.987068, 225, 241, 352, 304
-0.987167, 273, 89, 400, 152
-0.987185, 257, 225, 288, 352
-0.987212, 329, 49, 360, 176
-0.987223, 81, 145, 112, 272
-0.987242, 221, 49, 252, 176
-0.987246, 1, 225, 32, 352
-0.98731, 1, 9, 128, 72
-0.987497, 245, 225, 276, 352
-0.987569, 321, 217, 448, 280
-0.987582, 161, 129, 416, 192
-0.98761, 65, 17, 128, 144
-0.987654, 353, 49, 384, 176
-0.987663, 369, 217, 496, 280
-0.987674, 369, 1, 432, 374
-0.987733, 169, 193, 232, 224
-0.987979, 233, 153, 296, 184
-0.988014, 369, 33, 400, 160
-0.988085, 209, 89, 336, 152
-0.988106, 425, 93, 488, 124
-0.988169, 317, 49, 348, 176
-0.988223, 289, 9, 416, 72
-0.988267, 1, 193, 128, 256
-0.988276, 49, 41, 176, 104
-0.988332, 1, 169, 128, 232
-0.988345, 157, 1, 188, 128
-0.988356, 225, 305, 352, 368
-0.988358, 309, 1, 340, 128
-0.988364, 197, 17, 228, 144
-0.988401, 361, 157, 424, 188
-0.988425, 457, 177, 488, 304
-0.988503, 337, 133, 400, 164
-0.988515, 1, 281, 128, 344
-0.988544, 417, 117, 480, 148
-0.988581, 321, 185, 448, 248
-0.988601, 57, 129, 120, 374
-0.988692, 17, 17, 48, 144
-0.988702, 401, 1, 464, 374
-0.988717, 1, 129, 128, 192
-0.988725, 385, 105, 448, 136
-0.988764, 173, 17, 204, 144
-0.988773, 377, 121, 440, 152
-0.988774, 257, 129, 500, 192
-0.988798, 433, 69, 496, 100
-0.988869, 409, 241, 440, 368
-0.988996, 297, 137, 360, 168
-0.989002, 1, 57, 128, 120
-0.989126, 313, 145, 344, 272
-0.989127, 385, 145, 448, 176
-0.989157, 417, 105, 480, 136
-0.989196, 169, 205, 232, 236
-0.989212, 273, 145, 336, 176
-0.989218, 409, 77, 472, 108
-0.989291, 433, 81, 496, 112
-0.989338, 385, 133, 448, 164
-0.989361, 89, 1, 152, 32
-0.989363, 17, 209, 48, 336
-0.989364, 385, 193, 448, 320
-0.989388, 305, 149, 368, 180
-0.989423, 401, 157, 464, 188
-0.989427, 385, 241, 416, 368
-0.989453, 233, 49, 264, 176
-0.989479, 121, 157, 184, 188
-0.989489, 273, 249, 400, 312
-0.989521, 161, 177, 224, 208
-0.989578, 97, 153, 352, 216
-0.989592, 361, 109, 424, 140
-0.989607, 153, 325, 216, 356
-0.989618, 385, 273, 448, 304
-0.98965, 129, 197, 192, 228
-0.98967, 153, 133, 216, 164
-0.989679, 1, 129, 32, 256
-0.989695, 313, 125, 376, 156
-0.989722, 345, 145, 408, 176
-0.989724, 345, 121, 408, 152
-0.989746, 1, 81, 128, 144
-0.989783, 289, 125, 352, 156
-0.98979, 49, 137, 176, 200
-0.989837, 81, 309, 144, 340
-0.989874, 321, 281, 448, 344
-0.989887, 385, 261, 448, 292
-0.989887, 281, 157, 344, 188
-0.989926, 137, 173, 200, 204
-0.989946, 81, 121, 144, 152
-0.98997, 249, 137, 312, 168
-0.989979, 201, 157, 264, 188
-0.990029, 377, 93, 440, 124
-0.990046, 433, 57, 496, 88
-0.990067, 101, 17, 132, 144
-0.990081, 233, 125, 296, 156
-0.990083, 33, 193, 96, 320
-0.990104, 13, 145, 44, 272
-0.990111, 249, 17, 312, 144
-0.990129, 337, 157, 400, 188
-0.99014, 281, 161, 312, 288
-0.990144, 113, 41, 176, 72
-0.990148, 97, 81, 128, 208
-0.990165, 113, 105, 176, 136
-0.990174, 65, 65, 128, 192
-0.990275, 121, 137, 184, 168
-0.990285, 369, 305, 496, 368
-0.990314, 97, 297, 160, 328
-0.990331, 121, 289, 184, 320
-0.990338, 81, 149, 144, 180
-0.990339, 385, 77, 448, 108
-0.99034, 105, 17, 168, 48
-0.990373, 137, 185, 200, 216
-0.990407, 193, 133, 256, 164
-0.990418, 417, 141, 480, 172
-0.990452, 1, 177, 32, 304
-0.990458, 89, 321, 152, 352
-0.990479, 97, 205, 160, 236
-0.990493, 337, 109, 400, 140
-0.990508, 185, 173, 248, 204
-0.990516, 273, 313, 400, 374
-0.990533, 161, 165, 224, 196
-0.990533, 9, 65, 72, 320
-0.990535, 401, 89, 464, 120
-0.99054, 357, 161, 388, 288
-0.990545, 161, 149, 224, 180
-0.990563, 129, 53, 192, 84
-0.990566, 337, 37, 400, 68
-0.990572, 241, 165, 304, 196
-0.990574, 121, 317, 184, 348
-0.99058, 121, 209, 184, 240
-0.99059, 189, 65, 220, 192
-0.990598, 193, 121, 256, 152
-0.9906, 13, 97, 44, 224
-0.990609, 105, 57, 168, 88
-0.990635, 433, 157, 496, 188
-0.990637, 97, 281, 160, 312
-0.990664, 425, 129, 488, 160
-0.990668, 81, 109, 144, 140
-0.990679, 81, 217, 144, 248
-0.990684, 97, 177, 352, 240
-0.99069, 225, 141, 288, 172
-0.990697, 409, 17, 472, 48
-0.990766, 305, 113, 368, 144
-0.990786, 137, 25, 200, 56
-0.990797, 337, 169, 400, 200
-0.990805, 161, 17, 288, 80
-0.99081, 89, 337, 152, 368
-0.990812, 81, 269, 144, 300
-0.99083, 121, 125, 184, 156
-0.990835, 169, 73, 232, 104
-0.990874, 185, 257, 248, 288
-0.990878, 113, 173, 176, 204
-0.990879, 81, 137, 144, 168
-0.990882, 105, 29, 168, 60
-0.990891, 393, 61, 456, 92
-0.990907, 209, 189, 272, 220
-0.990914, 225, 245, 288, 276
-0.990921, 113, 185, 176, 216
-0.990922, 129, 73, 192, 104
-0.990934, 217, 225, 280, 256
-0.990939, 129, 249, 192, 280
-0.990943, 265, 125, 328, 156
-0.990972, 65, 177, 96, 304
-0.990978, 417, 1, 480, 32
-0.990983, 193, 153, 448, 216
-0.990983, 169, 245, 232, 276
-0.990988, 409, 277, 472, 308
-0.990991, 417, 241, 480, 272
-0.991002, 153, 121, 216, 152
-0.991008, 193, 145, 256, 176
-0.991028, 81, 241, 144, 272
-0.991035, 9, 1, 72, 374
-0.991053, 337, 97, 400, 128
-0.991056, 313, 161, 376, 192
-0.991078, 65, 129, 320, 192
-0.991109, 305, 49, 368, 80
-0.991115, 161, 261, 224, 292
-0.991129, 417, 261, 480, 292
-0.991147, 121, 329, 184, 360
-0.991163, 165, 65, 196, 192
-0.991166, 241, 9, 368, 72
-0.991178, 249, 113, 312, 144
-0.991189, 225, 201, 288, 232
-0.99119, 241, 177, 304, 208
-0.991201, 81, 97, 144, 128
-0.991226, 369, 169, 432, 200
-0.991229, 81, 25, 144, 56
-0.991235, 105, 261, 168, 292
-0.991242, 89, 45, 152, 76
-0.991272, 1, 161, 500, 224
-0.991306, 209, 257, 272, 288
-0.991309, 345, 261, 408, 292
-0.991334, 225, 105, 480, 168
-0.991339, 329, 161, 360, 288
-0.991352, 213, 1, 244, 128
-0.991357, 97, 161, 160, 192
-0.991371, 201, 201, 264, 232
-0.991382, 361, 133, 424, 164
-0.991387, 265, 329, 328, 360
-0.991395, 425, 29, 488, 60
-0.991414, 137, 41, 200, 72
-0.991423, 129, 341, 192, 372
-0.991428, 121, 277, 184, 308
-0.991442, 153, 337, 216, 368
-0.991443, 233, 293, 296, 324
-0.991454, 161, 29, 224, 60
-0.991464, 65, 257, 320, 320
-0.991465, 57, 301, 120, 332
-0.991471, 121, 305, 184, 336
-0.991476, 1, 161, 256, 224
-0.99148, 353, 25, 416, 56
-0.991538, 1, 81, 32, 208
-0.991792, 469, 97, 500, 128
-0.991848, 225, 65, 480, 128
-0.991972, 397, 133, 428, 164
-0.991977, 409, 121, 440, 152
-0.991978, 321, 305, 448, 368
-0.991989, 445, 161, 476, 288
-0.992014, 425, 105, 456, 136
-0.992058, 1, 257, 500, 320
-0.992083, 389, 145, 420, 176
-0.992085, 401, 273, 432, 304
-0.992151, 469, 85, 500, 116
-0.992178, 381, 117, 412, 148
-0.992217, 457, 101, 488, 132
-0.992236, 65, 105, 320, 168
-0.992239, 413, 109, 444, 140
-0.992251, 353, 121, 384, 152
-0.992272, 177, 193, 208, 224
-0.992279, 457, 85, 488, 116
-0.99229, 193, 193, 224, 224
-0.992298, 469, 69, 500, 100
-0.992312, 325, 145, 356, 176
-0.99232, 325, 125, 356, 156
-0.99236, 469, 141, 500, 172
-0.99238, 165, 173, 196, 204
-0.992386, 237, 121, 268, 152
-0.992401, 445, 101, 476, 132
-0.992402, 213, 197, 244, 228
-0.992436, 469, 109, 500, 140
-0.992439, 341, 125, 372, 156
-0.992442, 337, 145, 368, 176
-0.992463, 369, 125, 400, 156
-0.992466, 329, 157, 360, 188
-0.992467, 429, 209, 460, 336
-0.992469, 257, 149, 288, 180
-0.992471, 161, 193, 192, 224
-0.992489, 453, 225, 484, 352
-0.992523, 453, 57, 484, 88
-0.992526, 1, 321, 32, 352
-0.992527, 397, 109, 428, 140
-0.992535, 181, 321, 212, 352
-0.992539, 393, 157, 424, 188
-0.992554, 277, 137, 308, 168
-0.992555, 1, 185, 500, 248
-0.992555, 105, 281, 136, 312
-0.992561, 405, 153, 436, 184
-0.992566, 437, 65, 468, 96
-0.992589, 457, 69, 488, 100
-0.992591, 445, 77, 476, 108
-0.992592, 361, 165, 392, 196
-0.992599, 377, 153, 408, 184
-0.9926, 365, 101, 396, 132
-0.992603, 269, 157, 300, 188
-0.992613, 341, 165, 372, 196
-0.992614, 369, 137, 400, 168
-0.992619, 181, 181, 212, 212
-0.992627, 109, 1, 140, 32
-0.992629, 109, 113, 140, 144
-0.99263, 165, 325, 196, 356
-0.99263, 117, 41, 148, 72
-0.992633, 465, 129, 496, 160
-0.992639, 457, 113, 488, 144
-0.992647, 109, 261, 140, 292
-0.992649, 441, 89, 472, 120
-0.99265, 393, 121, 424, 152
-0.99265, 289, 125, 416, 156
-0.992655, 305, 129, 336, 160
-0.992662, 93, 1, 124, 32
-0.992668, 289, 241, 320, 368
-0.992669, 205, 173, 236, 204
-0.992682, 237, 145, 268, 176
-0.99269, 457, 25, 488, 56
-0.992691, 121, 9, 152, 40
-0.992691, 433, 117, 464, 148
-0.992696, 133, 153, 164, 184
-0.992717, 229, 157, 260, 188
-0.992718, 97, 269, 128, 300
-0.992731, 121, 53, 152, 84
-0.992732, 433, 77, 464, 108
-0.992737, 1, 225, 500, 288
-0.992751, 257, 157, 384, 188
-0.99276, 417, 261, 448, 292
-0.992763, 89, 217, 120, 248
-0.992765, 117, 185, 148, 216
-0.992767, 189, 137, 220, 168
-0.992769, 369, 113, 400, 144
-0.99277, 33, 201, 288, 264
-0.992772, 149, 189, 180, 220
-0.992773, 1, 25, 32, 56
-0.99278, 169, 257, 200, 288
-0.992783, 377, 165, 408, 196
-0.992783, 377, 97, 408, 128
-0.992789, 125, 109, 156, 140
-0.992791, 141, 17, 172, 48
-0.992802, 401, 261, 432, 292
-0.992808, 309, 113, 340, 144
-0.992813, 137, 37, 168, 68
-0.992814, 129, 205, 160, 236
-0.992815, 113, 297, 144, 328
-0.992816, 213, 257, 244, 288
-0.992817, 273, 289, 400, 352
-0.99282, 261, 137, 292, 168
-0.992831, 313, 141, 344, 172
-0.992831, 393, 85, 424, 116
-0.992831, 105, 201, 136, 232
-0.992833, 353, 109, 384, 140
-0.992841, 381, 133, 412, 164
-0.992841, 1, 13, 32, 44
-0.992841, 113, 249, 144, 280
-0.992852, 433, 241, 464, 272
-0.992853, 305, 141, 432, 172
-0.992853, 421, 121, 452, 152
-0.992855, 153, 161, 184, 192
-0.992859, 421, 69, 452, 100
-0.99286, 469, 157, 500, 188
-0.992861, 241, 157, 272, 188
-0.992861, 333, 113, 364, 144
-0.992865, 181, 337, 212, 368
-0.992869, 241, 133, 272, 164
-0.992875, 197, 205, 228, 236
-0.992878, 461, 1, 492, 32
-0.992878, 165, 129, 196, 160
-0.99288, 345, 33, 376, 64
-0.992894, 281, 149, 312, 180
-0.992895, 405, 165, 436, 196
-0.992899, 117, 285, 148, 316
-0.992899, 401, 285, 432, 316
-0.992903, 469, 57, 500, 88
-0.992906, 193, 173, 224, 204
-0.992906, 213, 185, 244, 216
-0.992906, 93, 297, 124, 328
-0.992918, 417, 153, 448, 184
-0.992919, 417, 277, 448, 308
-0.992921, 405, 297, 436, 328
-0.992924, 429, 273, 460, 304
-0.992924, 429, 89, 460, 120
-0.992924, 85, 261, 116, 292
-0.992927, 353, 133, 384, 164
-0.992927, 129, 25, 160, 56
-0.992931, 409, 69, 440, 100
-0.992932, 113, 21, 144, 52
-0.992937, 1, 309, 32, 340
-0.992938, 429, 53, 460, 84
-0.99294, 293, 121, 324, 152
-0.992943, 445, 13, 476, 44
-0.992943, 213, 153, 244, 184
-0.992969, 477, 97, 492, 160
-0.993001, 113, 193, 240, 224
-0.993028, 321, 157, 448, 188
-0.993091, 181, 169, 196, 232
-0.993131, 225, 257, 480, 320
-0.99315, 65, 65, 320, 128
-0.993234, 369, 121, 496, 152
-0.993265, 405, 129, 420, 192
-0.993292, 177, 153, 304, 184
-0.993296, 369, 109, 496, 140
-0.993357, 161, 193, 288, 224
-0.993363, 65, 241, 96, 368
-0.993375, 483, 113, 498, 176
-0.99339, 65, 41, 320, 104
-0.993453, 193, 233, 448, 296
-0.993481, 97, 233, 352, 296
-0.993495, 347, 129, 362, 192
-0.993512, 171, 169, 186, 232
-0.993521, 97, 313, 352, 374
-0.993671, 449, 81, 464, 144
-0.993733, 113, 141, 240, 172
-0.993743, 321, 129, 336, 192
-0.993746, 203, 169, 218, 232
-0.993747, 33, 281, 288, 344
-0.993753, 1, 17, 256, 80
-0.993763, 187, 177, 202, 240
-0.993763, 161, 25, 416, 88
-0.993772, 369, 145, 496, 176
-0.99381, 369, 93, 496, 124
-0.993819, 421, 113, 436, 176
-0.993825, 415, 129, 430, 192
-0.993857, 457, 81, 472, 144
-0.99389, 1, 137, 500, 200
-0.993893, 161, 205, 288, 236
-0.993899, 257, 145, 384, 176
-0.993913, 65, 33, 128, 288
-0.993936, 193, 169, 208, 232
-0.99394, 381, 129, 396, 192
-0.993942, 261, 33, 292, 160
-0.993949, 483, 137, 498, 200
-0.994019, 113, 205, 240, 236
-0.994073, 399, 137, 414, 200
-0.994079, 241, 121, 256, 184
-0.994082, 337, 129, 352, 192
-0.994083, 327, 129, 342, 192
-0.994094, 233, 241, 264, 368
-0.994102, 97, 257, 224, 288
-0.994104, 485, 73, 500, 136
-0.994129, 369, 81, 496, 112
-0.994164, 193, 177, 448, 240
-0.994215, 193, 165, 320, 196
-0.994218, 257, 41, 500, 104
-0.994281, 209, 33, 336, 96
-0.994365, 353, 129, 368, 192
-0.994375, 193, 141, 320, 172
-0.994378, 459, 57, 474, 120
-0.994452, 11, 305, 26, 368
-0.994454, 393, 137, 408, 200
-0.994484, 277, 153, 292, 216
-0.994488, 215, 169, 230, 232
-0.99451, 113, 181, 240, 212
-0.994513, 471, 113, 486, 176
-0.99456, 241, 125, 368, 156
-0.994562, 385, 105, 400, 168
-0.994589, 391, 105, 406, 168
-0.994613, 443, 81, 458, 144
-0.994642, 321, 109, 448, 140
-0.994655, 257, 121, 272, 184
-0.994703, 449, 57, 464, 120
-0.994704, 387, 137, 402, 200
-0.994708, 369, 157, 496, 188
-0.994718, 465, 97, 480, 160
-0.994723, 1, 281, 500, 344
-0.994755, 113, 153, 240, 184
-0.994755, 113, 125, 240, 156
-0.994771, 477, 129, 492, 192
-0.994791, 135, 65, 150, 128
-0.994791, 413, 265, 428, 328
-0.99481, 129, 209, 384, 272
-0.994852, 375, 129, 390, 192
-0.994857, 321, 169, 448, 200
-0.994862, 239, 145, 254, 208
-0.994938, 377, 105, 392, 168
-0.994943, 321, 261, 448, 292
-0.994951, 113, 321, 240, 352
-0.994968, 171, 137, 186, 200
-0.994979, 113, 33, 240, 64
-0.994988, 403, 257, 418, 320
-0.99499, 247, 121, 262, 184
-0.994993, 353, 25, 480, 56
-0.995001, 255, 145, 270, 208
-0.995009, 257, 169, 384, 200
-0.99503, 107, 265, 122, 328
-0.995031, 193, 181, 320, 212
-0.995034, 115, 241, 130, 304
-0.995045, 473, 65, 488, 128
-0.995059, 281, 129, 296, 192
-0.995076, 225, 113, 352, 144
-0.995084, 117, 273, 132, 336
-0.995094, 425, 89, 440, 152
-0.9951, 353, 13, 480, 44
-0.995104, 315, 137, 330, 200
-0.995104, 409, 105, 424, 168
-0.99511, 97, 57, 224, 88
-0.995127, 361, 113, 376, 176
-0.995142, 447, 105, 462, 168
-0.995143, 369, 133, 496, 164
-0.99517, 41, 65, 104, 192
-0.995171, 209, 161, 224, 224
-0.995179, 337, 105, 352, 168
-0.99518, 181, 193, 196, 256
-0.995192, 369, 261, 496, 292
-0.995212, 65, 17, 192, 48
-0.995226, 415, 105, 430, 168
-0.995289, 367, 105, 382, 168
-0.995299, 223, 193, 238, 256
-0.995332, 165, 169, 180, 232
-0.995345, 431, 105, 446, 168
-0.995367, 399, 161, 414, 224
-0.995393, 195, 193, 210, 256
-0.995398, 457, 113, 472, 176
-0.995408, 49, 257, 176, 288
-0.995408, 179, 145, 194, 208
-0.995423, 209, 193, 224, 256
-0.995425, 369, 245, 496, 276
-0.995426, 125, 65, 140, 128
-0.995436, 33, 241, 96, 368
-0.995445, 161, 325, 288, 356
-0.99545, 411, 153, 426, 216
-0.995457, 351, 153, 366, 216
-0.995479, 385, 129, 416, 374
-0.99548, 65, 333, 192, 364
-0.995484, 161, 221, 288, 252
-0.995492, 419, 257, 434, 320
-0.995496, 123, 241, 138, 304
-0.9955, 145, 65, 272, 96
-0.995502, 177, 121, 304, 152
-0.995505, 233, 97, 264, 352
-0.995509, 269, 193, 284, 256
-0.995517, 113, 333, 240, 364
-0.995519, 57, 1, 120, 374
-0.995531, 121, 105, 136, 168
-0.995534, 1, 233, 256, 296
-0.995541, 263, 129, 278, 192
-0.995548, 369, 69, 496, 100
-0.995559, 337, 281, 464, 312
-0.995564, 415, 81, 430, 144
-0.99558, 201, 129, 216, 192
-0.995584, 437, 89, 452, 152
-0.995586, 137, 153, 152, 216
-0.995602, 49, 277, 176, 308
-0.995614, 271, 153, 286, 216
-0.995621, 97, 73, 224, 104
-0.995622, 421, 65, 436, 128
-0.99563, 165, 249, 180, 312
-0.995643, 407, 65, 422, 128
-0.995654, 175, 193, 190, 256
-0.995674, 161, 105, 288, 136
-0.995674, 131, 113, 146, 176
-0.995674, 131, 153, 146, 216
-0.995694, 233, 129, 248, 192
-0.995703, 145, 257, 272, 288
-0.995731, 1, 89, 500, 152
-0.995758, 225, 281, 480, 344
-0.99577, 49, 301, 176, 332
-0.995777, 221, 129, 252, 374
-0.995795, 425, 137, 440, 200
-0.995796, 105, 305, 120, 368
-0.995805, 113, 45, 240, 76
-0.995805, 49, 289, 176, 320
-0.995811, 125, 209, 140, 272
-0.995815, 141, 49, 156, 112
-0.99582, 113, 225, 240, 256
-0.995838, 321, 37, 448, 68
-0.995842, 145, 169, 272, 200
-0.995844, 207, 137, 222, 200
-0.995852, 285, 161, 300, 224
-0.995858, 467, 1, 482, 64
-0.99586, 203, 193, 218, 256
-0.995866, 257, 209, 500, 272
-0.995884, 159, 161, 174, 224
-0.995888, 363, 1, 378, 64
-0.995889, 337, 1, 464, 32
-0.9959, 257, 17, 500, 80
-0.995905, 117, 65, 132, 128
-0.995917, 465, 1, 496, 256
-0.995919, 189, 313, 204, 374
-0.995923, 423, 281, 438, 344
-0.995923, 129, 249, 144, 312
-0.995925, 397, 129, 428, 374
-0.995928, 443, 57, 458, 120
-0.99594, 179, 313, 194, 374
-0.995964, 233, 153, 248, 216
-0.995977, 455, 33, 470, 96
-0.995979, 113, 245, 240, 276
-0.995979, 471, 89, 486, 152
-0.99598, 173, 129, 204, 374
-0.995988, 305, 113, 320, 176
-0.995992, 399, 113, 414, 176
-0.996029, 287, 129, 302, 192
-0.996037, 331, 105, 346, 168
-0.996066, 475, 1, 490, 64
-0.996069, 347, 105, 362, 168
-0.996072, 397, 81, 412, 144
-0.996072, 257, 313, 500, 374
-0.996073, 273, 113, 400, 144
-0.996075, 65, 197, 192, 228
-0.996075, 405, 161, 420, 224
-0.996076, 341, 1, 372, 256
-0.996083, 115, 217, 130, 280
-0.9961, 87, 257, 102, 320
-0.996112, 161, 1, 416, 64
-0.996118, 159, 129, 174, 192
-0.996128, 1, 49, 500, 112
-0.996133, 113, 345, 240, 374
-0.996146, 197, 97, 228, 352
-0.996151, 431, 73, 446, 136
-0.996152, 483, 25, 498, 88
-0.996162, 299, 121, 314, 184
-0.996174, 65, 313, 192, 344
-0.996179, 33, 1, 160, 32
-0.996185, 171, 249, 186, 312
-0.996208, 153, 257, 168, 320
-0.996215, 481, 49, 496, 112
-0.996215, 33, 145, 96, 272
-0.996218, 241, 97, 256, 160
-0.996224, 319, 105, 334, 168
-0.996225, 373, 1, 404, 256
-0.996229, 131, 41, 146, 104
-0.996238, 177, 341, 304, 372
-0.996239, 167, 113, 182, 176
-0.99624, 369, 169, 496, 200
-0.996241, 11, 1, 26, 64
-0.996246, 115, 113, 130, 176
-0.996288, 129, 289, 384, 352
-0.996289, 113, 281, 240, 312
-0.996314, 161, 93, 288, 124
-0.996327, 161, 241, 288, 272
-0.996343, 321, 97, 448, 128
-0.996343, 305, 49, 432, 80
-0.996388, 337, 225, 464, 256
-0.996391, 473, 105, 488, 136
-0.996406, 1, 313, 256, 374
-0.996414, 65, 153, 192, 184
-0.996429, 125, 1, 156, 256
-0.99644, 245, 129, 276, 374
-0.996441, 197, 1, 228, 256
-0.996459, 385, 1, 416, 256
-0.996464, 153, 1, 184, 256
-0.99647, 81, 113, 208, 144
-0.99649, 469, 97, 500, 352
-0.996508, 145, 297, 272, 328
-0.996522, 65, 45, 192, 76
-0.996524, 113, 17, 240, 48
-0.996563, 453, 33, 484, 288
-0.996568, 337, 181, 464, 212
-0.996588, 321, 69, 448, 100
-0.996598, 483, 141, 498, 172
-0.996606, 97, 165, 224, 196
-0.996608, 97, 85, 224, 116
-0.996613, 1, 253, 128, 284
-0.996631, 65, 129, 192, 160
-0.99665, 353, 57, 480, 88
-0.996658, 1, 305, 500, 368
-0.996661, 479, 101, 494, 132
-0.996662, 141, 1, 172, 256
-0.99669, 65, 29, 192, 60
-0.996695, 49, 245, 176, 276
-0.996701, 409, 129, 440, 374
-0.99672, 225, 333, 352, 364
-0.996722, 1, 269, 128, 300
-0.99675, 181, 1, 212, 256
-0.996752, 1, 17, 128, 48
-0.996767, 225, 209, 352, 240
-0.996767, 185, 129, 216, 374
-0.996772, 257, 129, 288, 374
-0.996793, 225, 289, 352, 320
-0.996794, 479, 89, 494, 120
-0.996798, 113, 309, 240, 340
-0.996799, 65, 345, 192, 374
-0.996801, 113, 269, 240, 300
-0.996801, 273, 101, 400, 132
-0.996814, 193, 253, 320, 284
-0.996824, 257, 57, 384, 88
-0.996831, 419, 277, 434, 308
-0.996833, 397, 1, 428, 256
-0.996842, 209, 65, 240, 320
-0.996846, 113, 97, 240, 128
-0.996852, 145, 77, 272, 108
-0.996854, 409, 121, 424, 152
-0.99686, 269, 33, 300, 288
-0.996866, 65, 185, 192, 216
-0.996869, 257, 193, 384, 224
-0.996875, 469, 89, 484, 120
-0.996891, 257, 221, 384, 252
-0.996909, 177, 313, 304, 344
-0.996911, 391, 145, 406, 176
-0.996932, 289, 1, 416, 32
-0.996935, 427, 109, 442, 140
-0.996944, 345, 129, 360, 160
-0.996954, 375, 121, 390, 152
-0.996961, 193, 69, 320, 100
-0.996966, 281, 33, 312, 288
-0.996993, 405, 133, 420, 164
-0.997, 125, 97, 156, 352
-0.997004, 369, 37, 496, 68
-0.997024, 337, 145, 352, 176
-0.997029, 65, 213, 192, 244
-0.997036, 1, 221, 128, 252
-0.997041, 153, 97, 184, 352
-0.997041, 417, 33, 448, 288
-0.997048, 169, 1, 200, 256
-0.997053, 257, 253, 384, 284
-0.997065, 81, 5, 208, 36
-0.997078, 435, 105, 450, 136
-0.997087, 209, 241, 336, 272
-0.997095, 141, 97, 172, 352
-0.997099, 369, 297, 496, 328
-0.9971, 361, 65, 392, 320
-0.997101, 1, 241, 128, 272
-0.997107, 1, 113, 500, 176
-0.997108, 109, 129, 140, 374
-0.997115, 161, 53, 288, 84
-0.997119, 253, 33, 284, 288
-0.99713, 415, 153, 430, 184
-0.99716, 485, 97, 500, 128
-0.997165, 65, 141, 192, 172
-0.997176, 11, 317, 26, 348
-0.997177, 365, 117, 380, 148
-0.997184, 349, 145, 364, 176
-0.997185, 329, 97, 360, 352
-0.997203, 1, 345, 128, 374
-0.997204, 1, 45, 128, 76
-0.997205, 351, 125, 366, 156
-0.997211, 399, 145, 414, 176
-0.997228, 257, 181, 384, 212
-0.997232, 479, 129, 494, 160
-0.997233, 447, 97, 462, 128
-0.997248, 1, 333, 128, 364
-0.997257, 1, 285, 128, 316
-0.997259, 325, 1, 356, 256
-0.997261, 1, 33, 128, 64
-0.997262, 339, 133, 354, 164
-0.997284, 329, 129, 344, 160
-0.99729, 1, 297, 128, 328
-0.997298, 205, 193, 220, 224
-0.997318, 397, 157, 412, 188
-0.997328, 485, 85, 500, 116
-0.997332, 481, 69, 496, 100
-0.997335, 447, 61, 462, 92
-0.99734, 405, 157, 420, 188
-0.99734, 473, 77, 488, 108
-0.997353, 305, 13, 432, 44
-0.99736, 209, 197, 336, 228
-0.997369, 181, 193, 196, 224
-0.997369, 1, 317, 128, 348
-0.997374, 65, 225, 192, 256
-0.997387, 257, 45, 384, 76
-0.997388, 189, 193, 204, 224
-0.9974, 89, 129, 120, 374
-0.997414, 381, 121, 396, 152
-0.99742, 413, 273, 428, 304
-0.997423, 321, 241, 448, 272
-0.997426, 197, 193, 212, 224
-0.997436, 415, 125, 430, 156
-0.997441, 389, 117, 404, 148
-0.997448, 49, 173, 176, 204
-0.997449, 437, 1, 468, 256
-0.997449, 239, 153, 254, 184
-0.997458, 415, 113, 430, 144
-0.997459, 423, 121, 438, 152
-0.997466, 279, 157, 294, 188
-0.997483, 131, 41, 146, 72
-0.997487, 381, 133, 396, 164
-0.997497, 301, 33, 332, 288
-0.997508, 461, 97, 476, 128
-0.997522, 413, 285, 428, 316
-0.997526, 441, 109, 456, 140
-0.997527, 465, 109, 480, 140
-0.99755, 359, 117, 374, 148
-0.997552, 371, 105, 386, 136
-0.997567, 345, 97, 376, 352
-0.99757, 391, 157, 406, 188
-0.99757, 407, 273, 422, 304
-0.99757, 473, 61, 488, 92
-0.997573, 449, 77, 464, 108
-0.997579, 199, 133, 214, 164
-0.997583, 323, 145, 338, 176
-0.997584, 113, 261, 128, 292
-0.997586, 105, 313, 120, 344
-0.997586, 373, 97, 404, 352
-0.997594, 483, 113, 498, 144
-0.997596, 241, 121, 256, 152
-0.997599, 395, 133, 410, 164
-0.997599, 331, 149, 346, 180
-0.997609, 405, 145, 420, 176
-0.997622, 117, 277, 132, 308
-0.997629, 309, 129, 324, 160
-0.997629, 125, 41, 140, 72
-0.997631, 139, 13, 154, 44
-0.997633, 107, 289, 122, 320
-0.997635, 171, 257, 186, 288
-0.99764, 123, 1, 138, 32
-0.997645, 323, 125, 338, 156
-0.997657, 299, 125, 314, 156
-0.997675, 461, 69, 476, 100
-0.997676, 455, 89, 470, 120
-0.997678, 399, 269, 414, 300
-0.997686, 469, 1, 484, 32
-0.997691, 409, 109, 424, 140
-0.997692, 461, 85, 476, 116
-0.997736, 119, 109, 134, 140
-0.99774, 401, 121, 416, 152
-0.997741, 125, 113, 140, 144
-0.997741, 1, 9, 500, 72
-0.997744, 353, 169, 368, 200
-0.997755, 421, 153, 436, 184
-0.997758, 133, 153, 148, 184
-0.997759, 109, 277, 124, 308
-0.997769, 341, 157, 356, 188
-0.997776, 141, 29, 156, 60
-0.997776, 381, 153, 396, 184
-0.997778, 475, 117, 490, 148
-0.997779, 283, 137, 298, 168
-0.99778, 481, 57, 496, 88
-0.997781, 273, 141, 288, 172
-0.997782, 169, 173, 184, 204
-0.997786, 403, 285, 418, 316
-0.997788, 137, 41, 152, 72
-0.99779, 467, 77, 482, 108
-0.997791, 435, 69, 450, 100
-0.997792, 249, 117, 264, 148
-0.997797, 391, 101, 406, 132
-0.997812, 247, 145, 262, 176
-0.997813, 191, 181, 206, 212
-0.997813, 135, 53, 150, 84
-0.997815, 255, 121, 270, 152
-0.997819, 183, 181, 198, 212
-0.99782, 337, 121, 352, 152
-0.99782, 441, 61, 456, 92
-0.997826, 451, 109, 466, 140
-0.997829, 179, 73, 194, 104
-0.997836, 411, 165, 426, 196
-0.99784, 403, 77, 418, 108
-0.997843, 459, 13, 474, 44
-0.997857, 345, 37, 360, 68
-0.997864, 457, 129, 488, 374
-0.997873, 465, 13, 480, 44
-0.997876, 471, 25, 486, 56
-0.997878, 401, 169, 416, 200
-0.997885, 263, 149, 278, 180
-0.997893, 473, 49, 488, 80
-0.997898, 365, 161, 380, 192
-0.997901, 417, 261, 432, 292
-0.99791, 305, 117, 320, 148
-0.997911, 421, 109, 436, 140
-0.997916, 207, 165, 222, 196
-0.997917, 135, 253, 150, 284
-0.997923, 119, 45, 134, 76
-0.997926, 365, 105, 380, 136
-0.997927, 387, 89, 402, 120
-0.997936, 479, 157, 494, 188
-0.997937, 409, 261, 424, 292
-0.997938, 355, 137, 370, 168
-0.99794, 421, 129, 452, 374
-0.997951, 313, 65, 344, 320
-0.997958, 105, 1, 136, 256
-0.998032, 221, 33, 252, 288
-0.998126, 281, 129, 312, 374
-0.998256, 437, 97, 468, 352
-0.998263, 93, 1, 124, 256
-0.998325, 17, 1, 48, 256
-0.998332, 269, 129, 300, 374
-0.998385, 169, 195, 232, 210
-0.998387, 233, 155, 296, 170
-0.998388, 417, 109, 480, 124
-0.998402, 369, 155, 432, 170
-0.998402, 385, 119, 448, 134
-0.99842, 169, 203, 232, 218
-0.998426, 345, 143, 408, 158
-0.998431, 433, 71, 496, 86
-0.998432, 273, 149, 336, 164
-0.998435, 333, 117, 364, 132
-0.998436, 153, 163, 184, 178
-0.998436, 113, 61, 144, 76
-0.998437, 437, 121, 468, 136
-0.998437, 109, 113, 140, 128
-0.998437, 437, 93, 468, 108
-0.998438, 413, 131, 444, 146
-0.998438, 433, 101, 496, 116
-0.998438, 285, 127, 316, 142
-0.998439, 93, 253, 124, 268
-0.99844, 425, 155, 456, 170
-0.998441, 305, 139, 368, 154
-0.998442, 457, 153, 488, 168
-0.998443, 121, 11, 152, 26
-0.998444, 465, 159, 496, 174
-0.998444, 365, 107, 396, 122
-0.998444, 389, 171, 420, 186
-0.998445, 305, 157, 336, 172
-0.998445, 377, 149, 440, 164
-0.998446, 393, 111, 456, 126
-0.998446, 417, 121, 480, 136
-0.998446, 437, 101, 468, 116
-0.998447, 417, 267, 448, 282
-0.998447, 133, 153, 164, 168
-0.998447, 373, 119, 404, 134
-0.998447, 321, 133, 384, 148
-0.998448, 345, 175, 376, 190
-0.998448, 1, 327, 32, 342
-0.998449, 377, 133, 440, 148
-0.998449, 321, 145, 352, 160
-0.998449, 217, 259, 248, 274
-0.998449, 1, 21, 32, 36
-0.99845, 393, 157, 424, 172
-0.99845, 261, 141, 292, 156
-0.99845, 261, 147, 292, 162
-0.998451, 241, 143, 272, 158
-0.998451, 125, 51, 156, 66
-0.998452, 385, 109, 416, 124
-0.998452, 469, 167, 500, 182
-0.998453, 373, 131, 404, 146
-0.998454, 425, 95, 488, 110
-0.998455, 185, 135, 216, 150
-0.998455, 345, 157, 408, 172
-0.998456, 93, 259, 124, 274
-0.998458, 429, 275, 460, 290
-0.998458, 441, 71, 472, 86
-0.998459, 361, 125, 424, 140
-0.998461, 457, 33, 488, 48
-0.998461, 341, 151, 372, 166
-0.998462, 237, 149, 268, 164
-0.998462, 405, 75, 436, 90
-0.998463, 337, 125, 400, 140
-0.998464, 105, 275, 136, 290
-0.998466, 483, 97, 498, 224
-0.998467, 401, 289, 432, 304
-0.998468, 433, 63, 464, 78
-0.998469, 377, 169, 408, 184
-0.998469, 105, 287, 136, 302
-0.998469, 321, 133, 352, 148
-0.998469, 281, 153, 312, 168
-0.998469, 105, 21, 168, 36
-0.99847, 153, 133, 216, 148
-0.99847, 129, 203, 160, 218
-0.998471, 453, 67, 484, 82
-0.998473, 465, 137, 496, 152
-0.998473, 337, 135, 368, 150
-0.998474, 417, 115, 480, 130
-0.998474, 425, 77, 488, 92
-0.998475, 241, 1, 272, 256
-0.998475, 113, 21, 144, 36
-0.998476, 401, 153, 464, 168
-0.998477, 361, 173, 392, 188
-0.998477, 313, 151, 376, 166
-0.998479, 305, 131, 336, 146
-0.998479, 153, 323, 216, 338
-0.998479, 213, 195, 244, 210
-0.998479, 109, 1, 140, 16
-0.99848, 389, 163, 420, 178
-0.99848, 241, 163, 304, 178
-0.998481, 201, 173, 232, 188
-0.998482, 129, 199, 192, 214
-0.998482, 405, 169, 436, 184
-0.998482, 469, 71, 500, 86
-0.998482, 469, 147, 500, 162
-0.998483, 133, 163, 164, 178
-0.998483, 405, 141, 436, 156
-0.998483, 273, 137, 336, 152
-0.998486, 161, 171, 224, 186
-0.998486, 189, 145, 220, 160
-0.998486, 425, 73, 456, 88
-0.998488, 405, 147, 436, 162
-0.998488, 1, 321, 32, 336
-0.998489, 393, 125, 456, 140
-0.998491, 401, 77, 464, 92
-0.998491, 165, 323, 196, 338
-0.998491, 237, 129, 268, 144
-0.998492, 353, 115, 416, 130
-0.998492, 469, 87, 500, 102
-0.998495, 181, 321, 212, 336
-0.998495, 121, 163, 184, 178
-0.998497, 353, 165, 416, 180
-0.998497, 233, 149, 296, 164
-0.998498, 437, 107, 468, 122
-0.9985, 273, 155, 336, 170
-0.9985, 389, 131, 420, 146
-0.9985, 385, 277, 448, 292
-0.998504, 433, 89, 496, 104
-0.998504, 113, 253, 144, 268
-0.998504, 277, 135, 308, 150
-0.998504, 161, 195, 192, 210
-0.998505, 313, 127, 376, 142
-0.998506, 233, 133, 296, 148
-0.998507, 105, 31, 168, 46
-0.998507, 449, 119, 480, 134
-0.998509, 369, 139, 400, 154
-0.998509, 289, 131, 352, 146
-0.998509, 357, 157, 388, 172
-0.99851, 233, 161, 264, 176
-0.99851, 389, 145, 420, 160
-0.99851, 361, 109, 424, 124
-0.998511, 361, 133, 392, 148
-0.998512, 333, 141, 364, 156
-0.998512, 105, 281, 136, 296
-0.998514, 401, 135, 432, 150
-0.998514, 345, 149, 408, 164
-0.998519, 313, 159, 376, 174
-0.99852, 105, 49, 168, 64
-0.99852, 385, 151, 416, 166
-0.99852, 121, 207, 184, 222
-0.998521, 453, 89, 484, 104
-0.998521, 369, 113, 400, 128
-0.998523, 385, 105, 448, 120
-0.998523, 89, 301, 152, 316
-0.998524, 425, 105, 456, 120
-0.998524, 121, 169, 184, 184
-0.998525, 457, 73, 488, 88
-0.998525, 193, 137, 256, 152
-0.998526, 165, 173, 196, 188
-0.998527, 193, 127, 256, 142
-0.998527, 457, 111, 488, 126
-0.998527, 237, 123, 268, 138
-0.998527, 353, 171, 416, 186
-0.998528, 453, 105, 484, 120
-0.998529, 325, 125, 356, 140
-0.998529, 341, 157, 372, 172
-0.99853, 121, 323, 184, 338
-0.998531, 433, 157, 496, 172
-0.998532, 441, 77, 472, 92
-0.998532, 385, 143, 448, 158
-0.998533, 213, 201, 244, 216
-0.998534, 89, 313, 152, 328
-0.998534, 153, 139, 216, 154
-0.998534, 249, 139, 312, 154
-0.998534, 209, 155, 272, 170
-0.998534, 313, 145, 376, 160
-0.998535, 281, 161, 344, 176
-0.998536, 89, 3, 152, 18
-0.998537, 401, 159, 464, 174
-0.998538, 357, 117, 388, 132
-0.998541, 89, 319, 152, 334
-0.998541, 105, 307, 168, 322
-0.998543, 241, 155, 272, 170
-0.998544, 337, 39, 400, 54
-0.998544, 377, 169, 440, 184
-0.998544, 417, 143, 480, 158
-0.998545, 425, 117, 456, 132
-0.998545, 417, 83, 480, 98
-0.998545, 105, 57, 168, 72
-0.998546, 433, 65, 496, 80
-0.998546, 357, 163, 388, 178
-0.998547, 393, 3, 456, 18
-0.998548, 353, 137, 416, 152
-0.998548, 425, 127, 488, 142
-0.99855, 153, 127, 216, 142
-0.998551, 401, 69, 464, 84
-0.998551, 417, 275, 480, 290
-0.998553, 193, 147, 256, 162
-0.998554, 89, 13, 152, 28
-0.998554, 105, 43, 168, 58
-0.998554, 433, 151, 496, 166
-0.998555, 81, 307, 144, 322
-0.998555, 425, 29, 488, 44
-0.998555, 321, 119, 384, 134
-0.998556, 121, 287, 184, 302
-0.998556, 81, 119, 144, 134
-0.998557, 369, 125, 400, 140
-0.998557, 385, 283, 448, 298
-0.998558, 153, 329, 216, 344
-0.998559, 121, 153, 184, 168
-0.99856, 329, 157, 360, 172
-0.998561, 81, 139, 144, 154
-0.998561, 405, 155, 436, 170
-0.998561, 121, 143, 184, 158
-0.998562, 129, 49, 192, 64
-0.998562, 329, 165, 392, 180
-0.998562, 81, 145, 144, 160
-0.998563, 389, 139, 420, 154
-0.998564, 413, 109, 444, 124
-0.998566, 193, 195, 224, 210
-0.998566, 233, 127, 296, 142
-0.998567, 469, 77, 500, 92
-0.998568, 433, 5, 496, 20
-0.998568, 201, 197, 264, 212
-0.998568, 433, 55, 496, 70
-0.998569, 161, 177, 224, 192
-0.998571, 97, 153, 160, 168
-0.998571, 81, 113, 144, 128
-0.998572, 369, 261, 432, 276
-0.998572, 273, 143, 336, 158
-0.998573, 465, 117, 496, 132
-0.998573, 121, 129, 184, 144
-0.998573, 121, 137, 184, 152
-0.998573, 401, 165, 464, 180
-0.998574, 233, 121, 296, 136
-0.998574, 161, 201, 192, 216
-0.998575, 329, 45, 392, 60
-0.998575, 353, 131, 416, 146
-0.998576, 393, 117, 424, 132
-0.998576, 377, 99, 440, 114
-0.998576, 201, 169, 264, 184
-0.998577, 385, 271, 448, 286
-0.998577, 129, 193, 192, 208
-0.998578, 329, 151, 360, 166
-0.998578, 385, 83, 448, 98
-0.998578, 145, 205, 208, 220
-0.998578, 81, 325, 144, 340
-0.998578, 105, 109, 168, 124
-0.998578, 341, 169, 372, 184
-0.998578, 433, 11, 496, 26
-0.998579, 401, 273, 432, 288
-0.998579, 425, 35, 488, 50
-0.998579, 209, 121, 272, 136
-0.998579, 313, 171, 376, 186
-0.99858, 409, 19, 472, 34
-0.99858, 105, 37, 168, 52
-0.99858, 81, 133, 144, 148
-0.99858, 469, 99, 500, 114
-0.998581, 257, 153, 288, 168
-0.998582, 445, 113, 476, 128
-0.998582, 385, 29, 448, 44
-0.998582, 453, 97, 484, 112
-0.998584, 409, 63, 472, 78
-0.998584, 409, 125, 440, 140
-0.998584, 97, 295, 160, 310
-0.998588, 349, 129, 380, 144
-0.998591, 177, 193, 208, 208
-0.998597, 469, 111, 500, 126
-0.998598, 377, 157, 408, 172
-0.998618, 351, 113, 366, 240
-0.998628, 425, 111, 456, 126
-0.998641, 469, 105, 500, 120
-0.998655, 413, 119, 444, 134
-0.998657, 177, 161, 192, 288
-0.998659, 465, 93, 496, 108
-0.998666, 1, 129, 32, 374
-0.99867, 353, 123, 384, 138
-0.99868, 17, 129, 48, 374
-0.998697, 271, 129, 286, 256
-0.998703, 201, 161, 216, 288
-0.998716, 183, 161, 198, 288
-0.998716, 293, 129, 324, 374
-0.998732, 207, 145, 222, 272
-0.998753, 235, 145, 250, 272
-0.998753, 107, 241, 122, 368
-0.99876, 259, 129, 274, 256
-0.998763, 129, 193, 144, 320
-0.998789, 1, 1, 32, 256
-0.998804, 197, 113, 212, 240
-0.998812, 475, 81, 490, 208
-0.998818, 113, 177, 128, 304
-0.998833, 123, 193, 138, 320
-0.998837, 279, 129, 294, 256
-0.99884, 215, 161, 230, 288
-0.998848, 391, 81, 406, 208
-0.998854, 485, 49, 500, 176
-0.998861, 181, 241, 196, 368
-0.998863, 265, 129, 280, 256
-0.998867, 381, 97, 396, 224
-0.998871, 129, 129, 144, 256
-0.998872, 171, 161, 186, 288
-0.998873, 189, 161, 204, 288
-0.998878, 139, 113, 154, 240
-0.998887, 375, 97, 390, 224
-0.998888, 225, 177, 240, 304
-0.998888, 163, 161, 178, 288
-0.998893, 401, 97, 416, 224
-0.998893, 133, 17, 148, 144
-0.998903, 469, 81, 484, 208
-0.99891, 459, 1, 474, 128
-0.998921, 173, 241, 188, 368
-0.998924, 139, 17, 154, 144
-0.998925, 411, 113, 426, 240
-0.998929, 419, 81, 434, 208
-0.998937, 137, 65, 152, 192
-0.998938, 195, 161, 210, 288
-0.998939, 475, 33, 490, 160
-0.998947, 145, 193, 160, 320
-0.998952, 117, 225, 132, 352
-0.998957, 459, 81, 474, 208
-0.998962, 245, 65, 260, 192
-0.998964, 151, 161, 166, 288
-0.998972, 341, 97, 356, 224
-0.998979, 155, 1, 170, 128
-0.998981, 285, 113, 300, 240
-0.998987, 145, 17, 160, 144
-0.998987, 223, 113, 238, 240
-0.998993, 233, 65, 248, 192
-0.998996, 241, 113, 256, 240
-0.998997, 439, 49, 454, 176
-0.998999, 189, 209, 204, 336
-0.999009, 469, 1, 484, 128
-0.999018, 133, 241, 148, 368
-0.999021, 171, 113, 186, 240
-0.999022, 143, 65, 158, 192
-0.999023, 145, 129, 160, 256
-0.999025, 475, 129, 490, 256
-0.999027, 179, 113, 194, 240
-0.999036, 157, 113, 172, 240
-0.999038, 333, 97, 348, 224
-0.999046, 433, 1, 448, 128
-0.999047, 129, 65, 144, 192
-0.999048, 135, 193, 150, 320
-0.999052, 209, 193, 224, 320
-0.999063, 197, 209, 212, 336
-0.999065, 443, 1, 458, 128
-0.999065, 149, 81, 164, 208
-0.99907, 139, 241, 154, 368
-0.999077, 125, 1, 140, 128
-0.999079, 429, 81, 444, 208
-0.999084, 267, 177, 282, 304
-0.999096, 447, 97, 462, 224
-0.999096, 321, 1, 336, 128
-0.999097, 123, 241, 138, 368
-0.999104, 73, 129, 104, 374
-0.999105, 153, 209, 168, 336
-0.99911, 395, 129, 410, 256
-0.999113, 383, 33, 398, 160
-0.999119, 449, 49, 464, 176
-0.999119, 123, 97, 138, 224
-0.999122, 409, 241, 424, 368
-0.999133, 211, 81, 226, 208
-0.999134, 365, 113, 380, 240
-0.999135, 453, 1, 468, 128
-0.999135, 469, 129, 484, 256
-0.999138, 259, 65, 274, 192
-0.999141, 11, 145, 26, 272
-0.999141, 231, 193, 246, 320
-0.999143, 239, 65, 254, 192
-0.999147, 269, 81, 284, 208
-0.999151, 279, 177, 294, 304
-0.999152, 309, 81, 324, 208
-0.999153, 425, 1, 440, 128
-0.999153, 185, 113, 200, 240
-0.999157, 253, 129, 268, 256
-0.999171, 217, 113, 232, 240
-0.999171, 453, 97, 468, 224
-0.999174, 123, 145, 138, 272
-0.999175, 359, 97, 374, 224
-0.999179, 33, 1, 96, 374
-0.999186, 375, 49, 390, 176
-0.999188, 117, 1, 132, 128
-0.999188, 351, 65, 366, 192
-0.999188, 253, 65, 268, 192
-0.999189, 481, 1, 496, 128
-0.999191, 95, 129, 110, 256
-0.999195, 303, 97, 318, 224
-0.999199, 87, 209, 102, 336
-0.999208, 299, 49, 314, 176
-0.999209, 481, 161, 496, 288
-0.999209, 163, 241, 178, 368
-0.999215, 157, 161, 172, 288
-0.99922, 191, 113, 206, 240
-0.999221, 389, 129, 404, 256
-0.999221, 203, 81, 218, 208
-0.999223, 341, 49, 356, 176
-0.999224, 163, 113, 178, 240
-0.999224, 145, 241, 160, 368
-0.999225, 391, 1, 406, 128
-0.999226, 295, 113, 310, 240
-0.999232, 405, 161, 420, 288
-0.999235, 399, 241, 414, 368
-0.999236, 203, 209, 218, 336
-0.999236, 343, 1, 358, 128
-0.99924, 83, 161, 98, 288
-0.999242, 115, 129, 130, 256
-0.999243, 337, 145, 352, 272
-0.999247, 345, 145, 360, 272
-0.999251, 11, 225, 26, 352
-0.999418, 81, 33, 112, 288
-0.999627, 333, 145, 348, 160
-0.999627, 423, 291, 438, 306
-0.999628, 107, 283, 122, 298
-0.999628, 419, 283, 434, 298
-0.999628, 409, 113, 424, 128
-0.999629, 169, 173, 184, 188
-0.999629, 461, 85, 476, 100
-0.999631, 135, 67, 150, 82
-0.999631, 117, 279, 132, 294
-0.999631, 485, 109, 500, 124
-0.999635, 357, 131, 372, 146
-0.999636, 337, 129, 352, 144
-0.999637, 419, 277, 434, 292
-0.999637, 61, 129, 92, 374
-0.999638, 479, 87, 494, 102
-0.999638, 277, 157, 292, 172
-0.999638, 123, 1, 138, 16
-0.999639, 425, 111, 440, 126
-0.999639, 331, 139, 346, 154
-0.99964, 299, 139, 314, 154
-0.99964, 435, 79, 450, 94
-0.999641, 107, 297, 122, 312
-0.999641, 125, 151, 140, 166
-0.999642, 455, 93, 470, 108
-0.999642, 331, 155, 346, 170
-0.999642, 245, 155, 260, 170
-0.999642, 451, 117, 466, 132
-0.999643, 447, 105, 462, 120
-0.999643, 465, 23, 480, 38
-0.999644, 251, 121, 266, 136
-0.999644, 419, 125, 434, 140
-0.999644, 349, 167, 364, 182
-0.999644, 199, 137, 214, 152
-0.999645, 483, 115, 498, 130
-0.999645, 391, 163, 406, 178
-0.999645, 395, 147, 410, 162
-0.999645, 301, 129, 316, 144
-0.999646, 11, 315, 26, 330
-0.999647, 241, 121, 256, 136
-0.999648, 113, 263, 128, 278
-0.999648, 239, 159, 254, 174
-0.999649, 209, 171, 224, 186
-0.999651, 485, 89, 500, 104
-0.999651, 347, 143, 362, 158
-0.999651, 407, 177, 422, 192
-0.999653, 285, 137, 300, 152
-0.999654, 473, 67, 488, 82
-0.999655, 395, 155, 410, 170
-0.999655, 109, 275, 124, 290
-0.999655, 421, 155, 436, 170
-0.999655, 401, 177, 416, 192
-0.999656, 483, 79, 498, 94
-0.999657, 323, 133, 338, 148
-0.999659, 395, 115, 410, 130
-0.99966, 105, 315, 120, 330
-0.999661, 351, 159, 366, 174
-0.999661, 413, 289, 428, 304
-0.999661, 281, 163, 296, 178
-0.999662, 437, 103, 452, 118
-0.999662, 105, 321, 120, 336
-0.999664, 361, 157, 376, 172
-0.999664, 389, 119, 404, 134
-0.999666, 379, 123, 394, 138
-0.999667, 401, 171, 416, 186
-0.999667, 477, 73, 492, 88
-0.999668, 345, 157, 360, 172
-0.999668, 403, 163, 418, 178
-0.99967, 447, 67, 462, 82
-0.99967, 389, 147, 404, 162
-0.99967, 467, 89, 482, 104
-0.999671, 339, 143, 354, 158
-0.999671, 481, 149, 496, 164
-0.999671, 473, 79, 488, 94
-0.999672, 365, 115, 380, 130
-0.999673, 465, 69, 480, 84
-0.999674, 357, 139, 372, 154
-0.999674, 383, 139, 398, 154
-0.999676, 431, 105, 446, 120
-0.999676, 473, 111, 488, 126
-0.999678, 403, 117, 418, 132
-0.999679, 329, 127, 344, 142
-0.999679, 413, 163, 428, 178
-0.999679, 401, 131, 416, 146
-0.999682, 263, 151, 278, 166
-0.999682, 115, 21, 130, 36
-0.999682, 481, 137, 496, 152
-0.999683, 477, 123, 492, 138
-0.999684, 375, 129, 390, 144
-0.999687, 419, 113, 434, 128
-0.999688, 363, 127, 378, 142
-0.999688, 431, 111, 446, 126
-0.999689, 389, 153, 404, 168
-0.999689, 457, 71, 472, 86
-0.99969, 239, 127, 254, 142
-0.999691, 379, 157, 394, 172
-0.999692, 351, 125, 366, 140
-0.999696, 179, 193, 194, 208
-0.999697, 345, 137, 360, 152
-0.999699, 483, 73, 498, 88
-0.9997, 439, 115, 454, 130
-0.999702, 371, 157, 386, 172
-0.999703, 461, 91, 476, 106
-0.999703, 357, 121, 372, 136
-0.999704, 473, 89, 488, 104
-0.999704, 309, 133, 324, 148
-0.999706, 207, 195, 222, 210
-0.999706, 469, 105, 484, 120
-0.999707, 447, 111, 462, 126
-0.999707, 339, 149, 354, 164
-0.999709, 413, 119, 428, 134
-0.999711, 405, 139, 420, 154
-0.999713, 415, 157, 430, 172
-0.999715, 409, 133, 424, 148
-0.999717, 367, 121, 382, 136
-0.999717, 485, 97, 500, 112
-0.999718, 409, 127, 424, 142
-0.999724, 355, 167, 370, 182
-0.999724, 347, 151, 362, 166
-0.999726, 477, 131, 492, 146
-0.999731, 395, 139, 410, 154
-0.999735, 407, 169, 422, 184
-0.999735, 461, 77, 476, 92
-0.999735, 427, 119, 442, 134
-0.999737, 349, 131, 364, 146
-0.999741, 469, 95, 484, 110
-0.999765, 419, 149, 434, 164
-0.999766, 481, 103, 496, 118
-0.999777, 437, 109, 452, 124
-0.999795, 481, 143, 496, 158
-0.999796, 479, 95, 494, 110
-0.999808, 475, 105, 490, 120
-1.00045, 33, 129, 96, 374
-1.00049, 69, 33, 100, 288
-1.00067, 33, 65, 64, 320
-1.0009, 45, 97, 76, 352
-1.00119, 49, 1, 80, 256
-1.00214, 33, 33, 96, 288
-1.00559, 41, 17, 104, 144
