1884
-0.331682, 1, 65, 500, 320
-0.455419, 1, 1, 500, 333
-0.553887, 1, 1, 256, 333
-0.588656, 97, 1, 352, 333
-0.609527, 193, 1, 448, 333
-0.642813, 225, 65, 480, 320
-0.65279, 129, 65, 384, 320
-0.698923, 33, 65, 288, 320
-0.867853, 129, 65, 256, 320
-0.870829, 1, 177, 500, 304
-0.879325, 1, 129, 500, 256
-0.883927, 225, 65, 352, 320
-0.886084, 65, 65, 192, 320
-0.889874, 129, 1, 256, 333
-0.893212, 289, 65, 416, 320
-0.894537, 209, 1, 336, 333
-0.895853, 49, 1, 176, 333
-0.896931, 177, 65, 304, 320
-0.899211, 1, 81, 500, 208
-0.901522, 273, 1, 400, 333
-0.901846, 33, 177, 288, 304
-0.912677, 1, 1, 128, 333
-0.91458, 337, 65, 464, 320
-0.917611, 321, 1, 448, 333
-0.920761, 225, 129, 480, 256
-0.921708, 17, 65, 144, 320
-0.925133, 129, 161, 256, 288
-0.925416, 129, 145, 384, 272
-0.928211, 33, 129, 288, 256
-0.929662, 369, 1, 496, 333
-0.929979, 161, 161, 224, 288
-0.933194, 161, 193, 416, 320
-0.934987, 33, 81, 288, 208
-0.939517, 65, 177, 192, 304
-0.939912, 129, 97, 384, 224
-0.939952, 185, 177, 248, 304
-0.94043, 137, 161, 200, 288
-0.941602, 129, 113, 256, 240
-0.943674, 65, 129, 192, 256
-0.944722, 1, 33, 500, 160
-0.945356, 177, 177, 304, 304
-0.947913, 145, 169, 208, 232
-0.949376, 209, 177, 272, 304
-0.949605, 145, 113, 208, 240
-0.950671, 185, 129, 248, 256
-0.952051, 225, 81, 480, 208
-0.952407, 193, 177, 256, 240
-0.954042, 81, 81, 208, 208
-0.95469, 377, 161, 440, 288
-0.954863, 121, 113, 184, 240
-0.955632, 193, 129, 320, 256
-0.955754, 161, 193, 224, 256
-0.955839, 257, 177, 500, 304
-0.956179, 113, 177, 176, 304
-0.956772, 113, 209, 240, 333
-0.957244, 289, 97, 416, 224
-0.958832, 377, 169, 440, 232
-0.959066, 145, 209, 208, 333
-0.962394, 185, 201, 248, 264
-0.962596, 65, 177, 128, 304
-0.962667, 369, 97, 496, 224
-0.96301, 9, 105, 72, 168
-0.963657, 401, 97, 464, 224
-0.963818, 81, 129, 144, 256
-0.963844, 377, 97, 440, 224
-0.964054, 121, 169, 184, 232
-0.964291, 337, 161, 464, 288
-0.964301, 233, 161, 296, 288
-0.964432, 345, 97, 408, 224
-0.964583, 89, 81, 152, 208
-0.965274, 177, 81, 304, 208
-0.965479, 361, 201, 424, 264
-0.9656, 129, 169, 256, 232
-0.965615, 209, 129, 272, 256
-0.965979, 169, 81, 232, 208
-0.96598, 1, 97, 128, 224
-0.966165, 137, 193, 200, 256
-0.966242, 41, 81, 104, 208
-0.966339, 49, 113, 112, 176
-0.966526, 129, 49, 384, 176
-0.966689, 177, 225, 240, 288
-0.967293, 241, 97, 368, 224
-0.967706, 137, 217, 200, 280
-0.968182, 225, 177, 352, 304
-0.968703, 289, 177, 416, 304
-0.969538, 173, 129, 204, 256
-0.970673, 161, 161, 192, 288
-0.970809, 65, 177, 128, 240
-0.970835, 17, 97, 80, 224
-0.970971, 169, 177, 200, 240
-0.971004, 217, 193, 248, 256
-0.971626, 385, 193, 448, 256
-0.971689, 213, 177, 244, 304
-0.971836, 353, 161, 416, 288
-0.972263, 57, 129, 120, 256
-0.972456, 169, 169, 232, 232
-0.972549, 113, 193, 176, 256
-0.97303, 289, 105, 352, 168
-0.973396, 129, 193, 256, 256
-0.973492, 41, 89, 104, 152
-0.973499, 377, 145, 440, 208
-0.973719, 401, 169, 464, 232
-0.973929, 17, 177, 144, 304
-0.97404, 209, 217, 272, 280
-0.974148, 281, 97, 344, 224
-0.974213, 425, 97, 488, 224
-0.974299, 401, 145, 464, 272
-0.974471, 397, 185, 428, 248
-0.97467, 353, 177, 416, 240
-0.974894, 113, 65, 176, 192
-0.974905, 145, 65, 208, 320
-0.974999, 149, 113, 180, 240
-0.975001, 377, 97, 440, 160
-0.975032, 369, 209, 432, 333
-0.975159, 137, 137, 200, 200
-0.975258, 65, 89, 128, 152
-0.975378, 161, 145, 224, 208
-0.975426, 241, 113, 304, 240
-0.975447, 345, 105, 408, 168
-0.975477, 401, 129, 464, 192
-0.975549, 193, 161, 224, 288
-0.975633, 25, 129, 88, 192
-0.975893, 89, 177, 152, 304
-0.975893, 1, 129, 64, 192
-0.9759, 153, 169, 184, 232
-0.976051, 65, 201, 192, 264
-0.976114, 65, 65, 128, 192
-0.976154, 321, 97, 384, 224
-0.976308, 129, 65, 256, 192
-0.976322, 193, 97, 256, 160
-0.97635, 65, 145, 192, 208
-0.976621, 213, 169, 244, 232
-0.976681, 149, 193, 180, 320
-0.976711, 185, 65, 248, 320
-0.976733, 225, 185, 288, 248
-0.976795, 193, 81, 256, 208
-0.977026, 1, 113, 128, 176
-0.977086, 137, 97, 200, 160
-0.977129, 89, 105, 152, 168
-0.977159, 369, 49, 496, 176
-0.977376, 81, 201, 144, 264
-0.97751, 417, 105, 480, 168
-0.977616, 225, 177, 256, 304
-0.977619, 137, 65, 200, 192
-0.97771, 89, 65, 152, 320
-0.977919, 157, 201, 188, 264
-0.977973, 161, 217, 288, 280
-0.97803, 189, 185, 220, 248
-0.978064, 229, 185, 260, 248
-0.978193, 209, 217, 240, 280
-0.978196, 361, 225, 424, 288
-0.97831, 49, 137, 112, 200
-0.978365, 313, 97, 376, 160
-0.978446, 113, 217, 176, 280
-0.978449, 57, 225, 120, 288
-0.978497, 345, 65, 408, 320
-0.97865, 161, 97, 224, 160
-0.978705, 337, 209, 464, 333
-0.978799, 401, 145, 432, 272
-0.978921, 353, 137, 416, 200
-0.978922, 209, 193, 336, 256
-0.979239, 201, 185, 232, 248
-0.979244, 1, 33, 256, 160
-0.979327, 405, 161, 436, 224
-0.979566, 289, 49, 416, 176
-0.979741, 41, 177, 104, 304
-0.97976, 385, 217, 448, 280
-0.979782, 397, 209, 428, 272
-0.979845, 177, 177, 208, 304
-0.979907, 137, 177, 168, 304
-0.979988, 405, 97, 436, 224
-0.980025, 169, 121, 232, 184
-0.980263, 81, 145, 144, 208
-0.980292, 265, 105, 328, 168
-0.980336, 201, 153, 264, 216
-0.98036, 49, 177, 176, 240
-0.980381, 345, 209, 408, 333
-0.980634, 1, 49, 128, 176
-0.980675, 385, 65, 448, 320
-0.980761, 273, 65, 336, 320
-0.981145, 337, 217, 400, 280
-0.98117, 321, 121, 384, 184
-0.981179, 221, 217, 252, 280
-0.981237, 113, 225, 240, 288
-0.98127, 121, 65, 184, 320
-0.981342, 145, 145, 272, 208
-0.981374, 393, 161, 424, 224
-0.981566, 385, 249, 448, 312
-0.981606, 33, 105, 64, 168
-0.98175, 409, 193, 440, 256
-0.98176, 241, 105, 304, 168
-0.981922, 385, 177, 416, 304
-0.981978, 189, 209, 220, 272
-0.982133, 289, 217, 416, 280
-0.982301, 233, 209, 296, 333
-0.982301, 257, 97, 384, 160
-0.982365, 165, 81, 196, 208
-0.982496, 305, 193, 368, 320
-0.982512, 145, 241, 208, 304
-0.98253, 177, 105, 304, 168
-0.982569, 81, 97, 208, 160
-0.982734, 381, 177, 412, 240
-0.982811, 181, 161, 212, 224
-0.982904, 185, 81, 216, 208
-0.982945, 393, 97, 424, 224
-0.982965, 21, 105, 52, 168
-0.98304, 329, 161, 392, 288
-0.983076, 141, 193, 172, 256
-0.983179, 237, 177, 268, 304
-0.983229, 193, 257, 256, 320
-0.983335, 305, 193, 432, 256
-0.983481, 113, 137, 176, 200
-0.983637, 33, 209, 96, 272
-0.983722, 353, 193, 480, 256
-0.983804, 77, 113, 108, 176
-0.983805, 397, 193, 428, 320
-0.984021, 209, 217, 336, 280
-0.984036, 377, 49, 440, 176
-0.984168, 161, 137, 192, 200
-0.984205, 57, 201, 120, 264
-0.984286, 369, 169, 496, 232
-0.984419, 233, 217, 296, 280
-0.98444, 169, 217, 200, 280
-0.98449, 177, 169, 304, 232
-0.984494, 69, 113, 100, 240
-0.984521, 57, 105, 88, 168
-0.984522, 137, 129, 168, 256
-0.984623, 217, 97, 280, 160
-0.984633, 381, 129, 412, 256
-0.984681, 321, 97, 448, 160
-0.984701, 297, 209, 360, 272
-0.984708, 45, 105, 76, 168
-0.984759, 265, 177, 328, 304
-0.984766, 241, 65, 304, 320
-0.984835, 97, 169, 160, 232
-0.984855, 81, 233, 144, 296
-0.984866, 217, 129, 248, 256
-0.984979, 353, 97, 384, 160
-0.985074, 369, 97, 496, 160
-0.985153, 89, 129, 120, 256
-0.98516, 337, 129, 464, 192
-0.985176, 205, 129, 236, 256
-0.985297, 433, 129, 496, 192
-0.985386, 225, 145, 288, 208
-0.98542, 1, 89, 128, 152
-0.985556, 397, 137, 428, 200
-0.985602, 81, 33, 208, 160
-0.985643, 121, 241, 184, 304
-0.985648, 145, 217, 176, 280
-0.985691, 73, 161, 104, 288
-0.985726, 361, 113, 392, 240
-0.985756, 305, 65, 368, 320
-0.985829, 193, 145, 320, 208
-0.985886, 233, 209, 264, 272
-0.985889, 33, 233, 160, 296
-0.985895, 337, 49, 400, 176
-0.986103, 1, 129, 32, 192
-0.986151, 385, 201, 416, 264
-0.986154, 81, 137, 112, 200
-0.986255, 89, 81, 152, 144
-0.986308, 101, 97, 132, 224
-0.98636, 113, 81, 144, 208
-0.986431, 69, 169, 100, 232
-0.986432, 401, 193, 464, 320
-0.98647, 141, 169, 172, 232
-0.986491, 321, 169, 448, 232
-0.986637, 137, 81, 168, 208
-0.9867, 113, 81, 176, 144
-0.986749, 161, 209, 192, 333
-0.986755, 129, 113, 256, 176
-0.986819, 341, 105, 372, 168
-0.986835, 305, 145, 368, 272
-0.986856, 9, 49, 72, 176
-0.986926, 33, 185, 96, 248
-0.986943, 125, 97, 156, 224
-0.986952, 9, 81, 72, 144
-0.987019, 169, 73, 232, 136
-0.987037, 1, 209, 128, 272
-0.98706, 1, 137, 128, 200
-0.987095, 377, 121, 440, 184
-0.987203, 13, 129, 44, 192
-0.987221, 385, 73, 448, 136
-0.987227, 297, 49, 360, 176
-0.987301, 197, 161, 228, 224
-0.987418, 413, 177, 444, 304
-0.987431, 81, 121, 208, 184
-0.987437, 89, 65, 120, 192
-0.987546, 85, 177, 116, 304
-0.987575, 417, 161, 448, 224
-0.987595, 229, 129, 260, 256
-0.987619, 125, 145, 156, 272
-0.987639, 241, 185, 272, 248
-0.98765, 297, 129, 360, 192
-0.987728, 209, 65, 272, 320
-0.987851, 185, 1, 248, 333
-0.987892, 417, 97, 448, 224
-0.987896, 161, 241, 288, 304
-0.987919, 69, 89, 100, 152
-0.988023, 193, 33, 320, 160
-0.988041, 293, 105, 324, 168
-0.988092, 129, 81, 256, 144
-0.988114, 265, 129, 328, 192
-0.988121, 337, 217, 464, 280
-0.988206, 37, 129, 68, 192
-0.988211, 65, 65, 128, 320
-0.988236, 273, 121, 400, 184
-0.988271, 201, 209, 232, 333
-0.988289, 185, 189, 248, 220
-0.988337, 349, 81, 380, 208
-0.988374, 145, 173, 208, 204
-0.988379, 33, 65, 96, 320
-0.988427, 385, 97, 416, 160
-0.988435, 25, 153, 88, 216
-0.988478, 361, 249, 424, 312
-0.988528, 149, 137, 180, 200
-0.988556, 305, 105, 336, 168
-0.988557, 145, 1, 208, 333
-0.988601, 9, 105, 40, 168
-0.988674, 333, 97, 364, 224
-0.988717, 225, 169, 352, 232
-0.988772, 381, 81, 412, 208
-0.988781, 329, 193, 392, 256
-0.988824, 329, 97, 360, 160
-0.988864, 113, 105, 176, 168
-0.989008, 353, 257, 480, 320
-0.98908, 69, 225, 100, 288
-0.989113, 157, 225, 188, 288
-0.989118, 193, 121, 256, 184
-0.989128, 365, 105, 396, 168
-0.98915, 177, 221, 240, 252
-0.989152, 361, 73, 424, 136
-0.989212, 373, 201, 404, 264
-0.989213, 53, 81, 84, 208
-0.989221, 161, 193, 224, 224
-0.989225, 25, 129, 56, 192
-0.989278, 409, 193, 472, 256
-0.98931, 65, 129, 96, 192
-0.989315, 185, 205, 248, 236
-0.989354, 161, 209, 224, 240
-0.989416, 65, 193, 320, 256
-0.989508, 9, 113, 72, 144
-0.989513, 97, 1, 160, 333
-0.989522, 81, 249, 208, 312
-0.98956, 57, 1, 120, 333
-0.989569, 121, 1, 184, 333
-0.989612, 193, 177, 256, 208
-0.989626, 73, 193, 104, 256
-0.989653, 273, 217, 336, 280
-0.989658, 257, 33, 500, 160
-0.989675, 225, 161, 256, 224
-0.989714, 33, 113, 96, 144
-0.989745, 289, 97, 320, 224
-0.989762, 89, 209, 120, 272
-0.989825, 153, 161, 216, 192
-0.989836, 197, 81, 228, 208
-0.989862, 241, 129, 272, 256
-0.989876, 233, 1, 296, 333
-0.98991, 17, 125, 80, 156
-0.98999, 169, 173, 232, 204
-0.990012, 113, 129, 144, 256
-0.990019, 409, 65, 472, 320
-0.990066, 93, 145, 124, 208
-0.990077, 197, 233, 228, 296
-0.990088, 201, 217, 264, 248
-0.990093, 105, 177, 136, 304
-0.990145, 209, 97, 240, 160
-0.990148, 401, 49, 464, 176
-0.990169, 361, 205, 424, 236
-0.99018, 317, 105, 348, 168
-0.990213, 377, 169, 440, 200
-0.990216, 377, 181, 440, 212
-0.990262, 385, 205, 448, 236
-0.990262, 121, 181, 184, 212
-0.990321, 69, 65, 100, 192
-0.990358, 397, 97, 428, 160
-0.990365, 397, 233, 428, 296
-0.990382, 385, 137, 416, 200
-0.990444, 429, 97, 460, 224
-0.990445, 33, 169, 288, 232
-0.990448, 121, 201, 184, 232
-0.990448, 189, 209, 220, 333
-0.99047, 361, 129, 392, 192
-0.990528, 137, 221, 200, 252
-0.990571, 193, 81, 320, 144
-0.990586, 49, 125, 112, 156
-0.990628, 437, 105, 468, 168
-0.990686, 197, 97, 228, 160
-0.99071, 97, 97, 128, 160
-0.990734, 265, 1, 328, 333
-0.990745, 81, 161, 112, 224
-0.990751, 1, 209, 500, 272
-0.990774, 305, 217, 368, 248
-0.990784, 289, 145, 416, 208
-0.990817, 9, 101, 72, 132
-0.990873, 361, 217, 424, 248
-0.990905, 25, 65, 56, 192
-0.990907, 353, 1, 416, 333
-0.990922, 465, 105, 496, 168
-0.990936, 385, 193, 448, 224
-0.99094, 301, 97, 332, 224
-0.990958, 121, 169, 184, 200
-0.991101, 1, 185, 128, 248
-0.991179, 201, 229, 264, 260
-0.991192, 289, 109, 352, 140
-0.991194, 209, 189, 272, 220
-0.991229, 41, 65, 104, 128
-0.991233, 169, 257, 232, 320
-0.991259, 49, 137, 112, 168
-0.991262, 305, 241, 432, 304
-0.991275, 241, 65, 304, 192
-0.991286, 177, 233, 240, 264
-0.991305, 53, 129, 84, 192
-0.991312, 33, 101, 96, 132
-0.991317, 409, 217, 440, 280
-0.991331, 177, 161, 240, 192
-0.991367, 209, 1, 272, 333
-0.991384, 145, 241, 208, 272
-0.991389, 425, 49, 488, 176
-0.991391, 465, 97, 496, 224
-0.991411, 281, 105, 312, 168
-0.991417, 273, 129, 304, 192
-0.99143, 321, 121, 384, 152
-0.991454, 369, 177, 400, 240
-0.991473, 57, 105, 120, 136
-0.99148, 41, 81, 72, 208
-0.991485, 409, 137, 440, 200
-0.991492, 101, 209, 132, 272
-0.991498, 217, 201, 280, 232
-0.991542, 257, 81, 320, 144
-0.991545, 113, 201, 144, 264
-0.991547, 165, 97, 196, 160
-0.991551, 105, 217, 168, 248
-0.991564, 225, 217, 288, 248
-0.991593, 129, 185, 160, 248
-0.991632, 17, 1, 80, 333
-0.991634, 289, 1, 352, 333
-0.991648, 173, 129, 204, 192
-0.99165, 17, 145, 80, 272
-0.991707, 273, 129, 304, 256
-0.991729, 65, 181, 128, 212
-0.991736, 401, 133, 464, 164
-0.991738, 377, 1, 440, 333
-0.991752, 241, 49, 368, 176
-0.991785, 81, 221, 144, 252
-0.991787, 385, 157, 448, 188
-0.991794, 265, 97, 296, 160
-0.991794, 345, 125, 408, 156
-0.991807, 17, 137, 80, 168
-0.991822, 329, 217, 392, 248
-0.991835, 445, 97, 476, 224
-0.991864, 345, 105, 408, 136
-0.991914, 113, 229, 176, 260
-0.99195, 81, 141, 144, 172
-0.991976, 5, 81, 36, 208
-0.991979, 153, 105, 216, 136
-0.992005, 273, 133, 336, 164
-0.992021, 145, 73, 208, 136
-0.992027, 37, 81, 68, 144
-0.992035, 449, 105, 480, 168
-0.992041, 417, 153, 480, 184
-0.992069, 345, 189, 408, 220
-0.992071, 385, 253, 448, 284
-0.992081, 217, 217, 248, 248
-0.992082, 281, 225, 344, 256
-0.992085, 65, 209, 128, 240
-0.992085, 401, 173, 464, 204
-0.992093, 273, 49, 336, 176
-0.992099, 57, 93, 120, 124
-0.992107, 61, 177, 92, 304
-0.992107, 1, 161, 128, 224
-0.992111, 357, 217, 388, 280
-0.992117, 265, 105, 328, 136
-0.992126, 85, 233, 116, 296
-0.992142, 225, 177, 288, 208
-0.992155, 185, 97, 216, 160
-0.992171, 73, 157, 136, 188
-0.992174, 201, 105, 264, 136
-0.992176, 361, 137, 424, 168
-0.992181, 49, 73, 176, 136
-0.992186, 321, 101, 384, 132
-0.992197, 225, 121, 352, 184
-0.9922, 121, 241, 184, 272
-0.992203, 289, 81, 352, 144
-0.992219, 41, 217, 104, 248
-0.992245, 41, 149, 104, 180
-0.992271, 217, 81, 280, 208
-0.992272, 329, 1, 392, 333
-0.992281, 425, 161, 488, 224
-0.992282, 153, 169, 184, 200
-0.992301, 213, 189, 244, 220
-0.992313, 137, 141, 200, 172
-0.992314, 105, 97, 168, 128
-0.992319, 1, 169, 500, 232
-0.99232, 177, 117, 240, 148
-0.992321, 81, 113, 144, 144
-0.992334, 65, 197, 128, 228
-0.992339, 337, 81, 400, 144
-0.992357, 213, 205, 244, 236
-0.992395, 21, 113, 52, 144
-0.992403, 65, 169, 128, 200
-0.992411, 249, 129, 312, 160
-0.992421, 89, 129, 152, 160
-0.992433, 165, 161, 196, 192
-0.992434, 33, 113, 64, 144
-0.992446, 97, 201, 160, 232
-0.992449, 241, 101, 304, 132
-0.992451, 409, 249, 440, 312
-0.992457, 153, 181, 184, 212
-0.992477, 33, 85, 96, 116
-0.992482, 173, 241, 204, 304
-0.992484, 397, 189, 428, 220
-0.992489, 117, 193, 148, 320
-0.992491, 345, 165, 408, 196
-0.992504, 257, 217, 320, 248
-0.992512, 229, 221, 260, 252
-0.992528, 241, 145, 368, 208
-0.992537, 129, 173, 256, 204
-0.992538, 181, 165, 212, 196
-0.992542, 397, 201, 428, 232
-0.992546, 81, 93, 144, 124
-0.992546, 137, 117, 200, 148
-0.992547, 189, 217, 220, 248
-0.992554, 9, 113, 40, 144
-0.992557, 385, 101, 448, 132
-0.992574, 45, 113, 76, 144
-0.992582, 189, 205, 220, 236
-0.992585, 361, 149, 424, 180
-0.992593, 161, 129, 224, 160
-0.992594, 225, 217, 480, 280
-0.992595, 353, 177, 416, 208
-0.992596, 305, 137, 368, 168
-0.992598, 297, 125, 360, 156
-0.992602, 57, 229, 120, 260
-0.992604, 81, 245, 144, 276
-0.992613, 317, 97, 348, 224
-0.992613, 297, 97, 360, 128
-0.99262, 205, 217, 236, 248
-0.992623, 201, 257, 264, 288
-0.992627, 9, 89, 72, 120
-0.99263, 225, 241, 288, 304
-0.992643, 157, 197, 188, 228
-0.99265, 273, 121, 336, 152
-0.992658, 369, 121, 432, 152
-0.992662, 97, 257, 160, 320
-0.992671, 25, 205, 88, 236
-0.992682, 177, 101, 240, 132
-0.992684, 129, 157, 192, 188
-0.992691, 165, 177, 196, 208
-0.992696, 209, 241, 272, 272
-0.992698, 57, 113, 88, 144
-0.992699, 265, 93, 328, 124
-0.992702, 345, 229, 408, 260
-0.992703, 385, 225, 448, 256
-0.992709, 193, 193, 224, 224
-0.992714, 41, 125, 72, 156
-0.99273, 197, 181, 228, 212
-0.992739, 33, 97, 288, 160
-0.992741, 433, 133, 496, 164
-0.992741, 253, 161, 284, 288
-0.992745, 5, 125, 36, 156
-0.992745, 385, 177, 416, 208
-0.992754, 373, 177, 404, 304
-0.992757, 229, 197, 260, 228
-0.992761, 417, 121, 480, 152
-0.992763, 409, 97, 440, 160
-0.992768, 337, 201, 400, 232
-0.992768, 129, 101, 192, 132
-0.992774, 25, 125, 56, 156
-0.992775, 433, 105, 496, 136
-0.992791, 65, 217, 320, 280
-0.992792, 33, 161, 96, 192
-0.992808, 409, 209, 440, 240
-0.99281, 229, 209, 260, 240
-0.992819, 397, 177, 428, 208
-0.992825, 361, 93, 424, 124
-0.992829, 97, 169, 160, 200
-0.992835, 69, 113, 100, 144
-0.99284, 169, 193, 200, 224
-0.992848, 225, 229, 288, 260
-0.992848, 201, 165, 264, 196
-0.992851, 81, 257, 144, 288
-0.992858, 49, 81, 80, 144
-0.992858, 53, 125, 84, 156
-0.99286, 305, 229, 368, 260
-0.992868, 389, 217, 420, 248
-0.992868, 385, 205, 416, 236
-0.99287, 169, 245, 232, 276
-0.992875, 141, 185, 172, 216
-0.992877, 145, 197, 176, 228
-0.992879, 129, 85, 192, 116
-0.992883, 141, 173, 172, 204
-0.992905, 217, 229, 248, 260
-0.992912, 177, 177, 208, 208
-0.992914, 65, 125, 96, 156
-0.992923, 385, 145, 448, 176
-0.992932, 341, 209, 372, 272
-0.992937, 405, 165, 436, 196
-0.99295, 385, 89, 448, 120
-0.992951, 213, 173, 244, 204
-0.992952, 57, 241, 120, 272
-0.99296, 229, 177, 260, 208
-0.992961, 345, 241, 408, 272
-0.992965, 409, 193, 472, 224
-0.99299, 349, 121, 380, 152
-0.992992, 409, 189, 440, 220
-0.992993, 297, 205, 360, 236
-0.992995, 185, 137, 216, 200
-0.993007, 81, 233, 144, 264
-0.993007, 153, 85, 216, 116
-0.993008, 153, 221, 184, 252
-0.993008, 105, 157, 168, 188
-0.993009, 105, 85, 168, 116
-0.993012, 81, 141, 112, 172
-0.993014, 169, 225, 200, 256
-0.993023, 105, 109, 168, 140
-0.993024, 153, 65, 184, 192
-0.993029, 33, 101, 64, 132
-0.993037, 385, 189, 416, 220
-0.993038, 53, 101, 84, 132
-0.993039, 361, 253, 424, 284
-0.993051, 357, 109, 388, 140
-0.993056, 393, 165, 424, 196
-0.993056, 241, 117, 304, 148
-0.993059, 157, 209, 188, 240
-0.993063, 313, 217, 344, 248
-0.993064, 177, 89, 240, 120
-0.993065, 213, 145, 244, 208
-0.993066, 169, 237, 200, 268
-0.993073, 1, 97, 500, 160
-0.993086, 409, 177, 440, 208
-0.993088, 329, 153, 392, 216
-0.993113, 205, 229, 236, 260
-0.993128, 373, 201, 404, 232
-0.993129, 333, 101, 364, 132
-0.993135, 329, 217, 360, 248
-0.993136, 81, 161, 112, 192
-0.99314, 285, 133, 316, 164
-0.993151, 285, 121, 316, 152
-0.993151, 97, 141, 128, 172
-0.993162, 341, 129, 372, 192
-0.993167, 77, 125, 108, 156
-0.993171, 65, 97, 96, 128
-0.993173, 141, 229, 172, 260
-0.993181, 345, 105, 376, 136
-0.993195, 33, 33, 96, 160
-0.993196, 21, 101, 52, 132
-0.99321, 145, 209, 176, 240
-0.993211, 225, 265, 352, 328
-0.993217, 101, 121, 132, 184
-0.993231, 241, 217, 272, 248
-0.993232, 185, 125, 216, 156
-0.993233, 9, 65, 72, 320
-0.993236, 9, 101, 40, 132
-0.993236, 227, 185, 242, 248
-0.993241, 201, 205, 232, 236
-0.99325, 353, 217, 384, 248
-0.993255, 69, 141, 100, 172
-0.993267, 349, 145, 380, 272
-0.993267, 229, 237, 260, 268
-0.993267, 109, 97, 140, 128
-0.99327, 57, 217, 88, 280
-0.993271, 157, 241, 188, 272
-0.993273, 273, 137, 304, 168
-0.993273, 89, 121, 120, 152
-0.993275, 169, 133, 200, 164
-0.993275, 169, 205, 200, 236
-0.993277, 157, 141, 188, 172
-0.993278, 297, 137, 328, 168
-0.99328, 181, 189, 212, 220
-0.99328, 341, 217, 372, 248
-0.993283, 201, 169, 232, 200
-0.99329, 41, 137, 72, 168
-0.993296, 337, 117, 368, 148
-0.993296, 397, 149, 428, 180
-0.993301, 309, 209, 340, 272
-0.993308, 65, 181, 96, 212
-0.993311, 121, 97, 152, 128
-0.993314, 169, 149, 200, 180
-0.993325, 241, 205, 272, 236
-0.993326, 65, 213, 96, 244
-0.993326, 297, 105, 328, 136
-0.993341, 53, 137, 84, 168
-0.993342, 93, 153, 124, 184
-0.993345, 429, 153, 460, 184
-0.993347, 77, 97, 108, 128
-0.993348, 385, 101, 416, 132
-0.993351, 321, 105, 352, 136
-0.993354, 301, 221, 332, 252
-0.993356, 241, 189, 272, 220
-0.993358, 189, 153, 220, 184
-0.993359, 61, 157, 92, 188
-0.993362, 197, 105, 228, 136
-0.993363, 361, 129, 392, 160
-0.993365, 405, 253, 436, 284
-0.993365, 397, 73, 428, 136
-0.993366, 89, 101, 120, 132
-0.993367, 129, 181, 160, 212
-0.99337, 381, 165, 412, 196
-0.99337, 373, 213, 404, 244
-0.993374, 21, 137, 52, 168
-0.993375, 221, 97, 252, 160
-0.993376, 341, 141, 372, 172
-0.993378, 409, 153, 440, 184
-0.993383, 401, 221, 432, 252
-0.993389, 133, 197, 164, 228
-0.993391, 145, 97, 176, 128
-0.993391, 65, 225, 96, 256
-0.993394, 309, 109, 340, 140
-0.993395, 69, 169, 100, 200
-0.993395, 397, 105, 428, 136
-0.993397, 1, 137, 32, 168
-0.9934, 153, 117, 184, 148
-0.993408, 145, 241, 176, 272
-0.993411, 185, 229, 216, 260
-0.993414, 161, 185, 416, 248
-0.993466, 141, 81, 172, 144
-0.993551, 409, 241, 472, 304
-0.993603, 425, 97, 456, 160
-0.993616, 209, 81, 240, 208
-0.993659, 285, 129, 316, 192
-0.993701, 297, 233, 360, 296
-0.993711, 219, 193, 234, 256
-0.993712, 209, 73, 272, 136
-0.993716, 249, 257, 312, 320
-0.993744, 129, 189, 256, 220
-0.993764, 161, 201, 176, 264
-0.993842, 425, 145, 456, 272
-0.993857, 403, 177, 418, 240
-0.993899, 217, 241, 248, 304
-0.993907, 85, 89, 116, 152
-0.993951, 233, 233, 264, 296
-0.993968, 233, 193, 248, 256
-0.994054, 21, 81, 52, 144
-0.994069, 273, 169, 400, 232
-0.994071, 53, 185, 84, 248
-0.994076, 329, 209, 360, 272
-0.994083, 129, 105, 384, 168
-0.994092, 65, 65, 128, 128
-0.994093, 225, 105, 480, 168
-0.994108, 213, 185, 228, 248
-0.994128, 361, 209, 392, 333
-0.994168, 209, 241, 336, 304
-0.994212, 145, 221, 272, 252
-0.994212, 253, 105, 284, 168
-0.994225, 401, 1, 464, 333
-0.994236, 177, 265, 304, 328
-0.994239, 425, 137, 456, 200
-0.994244, 305, 73, 432, 136
-0.994297, 193, 145, 448, 208
-0.994322, 241, 73, 368, 136
-0.994333, 1, 129, 500, 192
-0.994355, 237, 161, 268, 224
-0.994355, 397, 185, 412, 248
-0.994365, 409, 185, 424, 248
-0.99438, 233, 97, 264, 160
-0.994399, 385, 73, 416, 136
-0.994424, 33, 257, 160, 320
-0.994433, 85, 185, 116, 248
-0.994434, 163, 169, 178, 232
-0.994447, 221, 217, 236, 280
-0.994481, 1, 113, 128, 144
-0.994614, 369, 225, 400, 288
-0.994631, 449, 129, 480, 192
-0.994673, 309, 193, 340, 320
-0.994687, 97, 177, 128, 240
-0.994732, 117, 97, 148, 160
-0.994736, 97, 129, 352, 192
-0.994741, 401, 49, 432, 176
-0.994752, 337, 193, 368, 320
-0.994753, 125, 49, 156, 176
-0.994762, 233, 169, 248, 232
-0.994763, 137, 105, 168, 168
-0.994768, 185, 233, 216, 296
-0.994772, 145, 241, 176, 304
-0.994796, 101, 49, 132, 176
-0.994845, 129, 265, 256, 328
-0.994854, 265, 81, 296, 208
-0.994897, 199, 185, 214, 248
-0.994897, 425, 145, 488, 272
-0.994906, 305, 217, 432, 248
-0.994922, 219, 169, 234, 232
-0.99496, 145, 161, 272, 192
-0.994961, 57, 249, 120, 312
-0.994962, 33, 241, 288, 304
-0.994965, 225, 265, 288, 328
-0.994969, 97, 241, 128, 304
-0.994981, 1, 65, 128, 128
-0.994997, 65, 121, 192, 152
-0.995018, 207, 177, 222, 240
-0.995026, 153, 113, 184, 176
-0.995049, 415, 185, 430, 248
-0.995058, 121, 265, 184, 328
-0.995062, 437, 129, 468, 192
-0.995066, 249, 177, 312, 240
-0.99511, 113, 201, 240, 232
-0.995148, 81, 177, 208, 208
-0.995156, 257, 193, 384, 256
-0.995174, 273, 273, 400, 333
-0.995182, 293, 193, 324, 320
-0.995201, 129, 17, 256, 144
-0.995202, 365, 65, 396, 192
-0.995212, 1, 233, 500, 296
-0.995243, 407, 209, 422, 272
-0.995248, 321, 193, 352, 320
-0.995275, 207, 217, 222, 280
-0.995351, 433, 65, 496, 320
-0.995361, 397, 257, 428, 320
-0.995391, 133, 137, 164, 200
-0.995393, 227, 209, 242, 272
-0.995414, 277, 81, 308, 208
-0.995425, 209, 217, 336, 248
-0.995429, 193, 193, 208, 256
-0.995431, 233, 225, 248, 288
-0.995436, 413, 209, 428, 272
-0.995462, 217, 121, 280, 184
-0.995463, 173, 153, 188, 216
-0.995468, 153, 185, 168, 248
-0.995481, 461, 129, 492, 192
-0.995485, 397, 161, 412, 224
-0.995501, 197, 121, 228, 184
-0.99551, 37, 105, 52, 168
-0.99551, 161, 233, 288, 264
-0.99552, 65, 221, 192, 252
-0.995553, 133, 217, 164, 280
-0.995557, 1, 125, 128, 156
-0.995562, 49, 105, 64, 168
-0.995589, 177, 185, 304, 216
-0.995595, 43, 105, 58, 168
-0.995614, 1, 145, 256, 208
-0.995656, 53, 129, 84, 256
-0.995673, 403, 145, 418, 208
-0.995698, 185, 161, 200, 224
-0.995718, 409, 161, 424, 224
-0.995719, 49, 101, 176, 132
-0.995733, 65, 157, 192, 188
-0.995769, 169, 177, 184, 240
-0.995796, 353, 73, 480, 136
-0.99582, 1, 101, 128, 132
-0.995822, 63, 105, 78, 168
-0.995851, 55, 89, 70, 152
-0.995866, 31, 97, 46, 160
-0.995889, 397, 209, 412, 272
-0.995906, 155, 209, 170, 272
-0.995927, 289, 49, 320, 176
-0.995936, 167, 201, 182, 264
-0.995947, 215, 225, 230, 288
-0.995949, 177, 177, 192, 240
-0.995953, 419, 161, 434, 224
-0.995966, 297, 185, 360, 248
-0.995988, 257, 105, 384, 136
-0.995989, 161, 33, 224, 160
-0.996027, 225, 161, 240, 224
-0.996029, 97, 109, 224, 140
-0.996038, 329, 49, 360, 176
-0.996049, 213, 161, 228, 224
-0.996067, 193, 205, 320, 236
-0.99608, 185, 217, 200, 280
-0.996088, 113, 233, 240, 264
-0.996096, 157, 161, 172, 224
-0.996102, 1, 121, 256, 184
-0.996119, 53, 33, 84, 160
-0.996132, 71, 89, 86, 152
-0.996136, 33, 233, 96, 296
-0.99614, 257, 177, 500, 240
-0.996162, 239, 201, 254, 264
-0.996187, 15, 121, 30, 184
-0.996203, 177, 105, 304, 136
-0.996213, 355, 97, 370, 160
-0.996214, 353, 205, 480, 236
-0.996219, 305, 201, 432, 232
-0.996238, 7, 121, 22, 184
-0.99627, 191, 161, 206, 224
-0.996272, 337, 241, 400, 304
-0.996277, 243, 177, 258, 240
-0.996304, 179, 153, 194, 216
-0.99631, 257, 241, 384, 304
-0.996311, 129, 97, 256, 128
-0.996341, 89, 33, 152, 160
-0.996347, 33, 201, 160, 232
-0.996355, 167, 137, 182, 200
-0.996413, 53, 129, 68, 192
-0.996413, 65, 233, 192, 264
-0.996432, 177, 173, 304, 204
-0.996439, 1, 137, 128, 168
-0.996466, 65, 145, 192, 176
-0.996471, 83, 89, 98, 152
-0.996482, 273, 193, 336, 256
-0.996573, 391, 161, 406, 224
-0.996588, 171, 225, 186, 288
-0.996588, 179, 225, 194, 288
-0.996617, 27, 121, 42, 184
-0.996624, 369, 189, 496, 220
-0.99663, 385, 177, 400, 240
-0.996633, 349, 193, 380, 320
-0.996652, 225, 241, 480, 304
-0.996656, 233, 201, 248, 232
-0.996658, 391, 185, 406, 248
-0.996681, 87, 129, 102, 192
-0.996705, 253, 113, 284, 240
-0.996724, 69, 185, 84, 248
-0.996725, 321, 101, 448, 132
-0.996731, 225, 217, 240, 248
-0.99675, 181, 65, 212, 320
-0.996757, 397, 137, 412, 200
-0.996768, 39, 129, 54, 192
-0.99677, 49, 189, 176, 220
-0.996778, 29, 113, 60, 240
-0.996789, 409, 233, 424, 296
-0.996793, 225, 229, 352, 260
-0.996823, 313, 49, 344, 176
-0.996848, 343, 97, 358, 160
-0.996864, 97, 145, 112, 208
-0.996879, 361, 121, 376, 184
-0.996886, 257, 141, 384, 172
-0.996886, 65, 129, 80, 192
-0.996894, 351, 121, 366, 184
-0.996897, 321, 149, 448, 180
-0.996908, 17, 113, 48, 240
-0.996912, 333, 145, 364, 272
-0.996917, 257, 217, 384, 248
-0.996918, 21, 129, 36, 192
-0.996919, 157, 65, 188, 320
-0.996924, 371, 105, 386, 168
-0.996927, 1, 121, 16, 184
-0.996933, 349, 97, 364, 160
-0.996941, 183, 193, 198, 256
-0.996947, 145, 65, 176, 320
-0.996952, 161, 225, 176, 288
-0.996954, 419, 209, 434, 272
-0.996967, 219, 225, 234, 256
-0.996973, 227, 233, 242, 296
-0.996975, 227, 189, 242, 220
-0.996983, 265, 193, 296, 320
-0.996998, 73, 209, 104, 333
-0.997, 95, 105, 110, 168
-0.997008, 361, 161, 392, 288
-0.997016, 217, 189, 232, 220
-0.997018, 145, 265, 208, 328
-0.997028, 79, 169, 94, 232
-0.997037, 403, 105, 418, 168
-0.997043, 289, 117, 416, 148
-0.997045, 7, 89, 22, 152
-0.997048, 147, 177, 162, 240
-0.997049, 297, 105, 312, 168
-0.997066, 409, 217, 472, 280
-0.997093, 77, 105, 92, 168
-0.997096, 157, 169, 172, 200
-0.997105, 161, 197, 176, 228
-0.997106, 225, 201, 240, 232
-0.997108, 391, 209, 406, 272
-0.997114, 385, 65, 416, 320
-0.997116, 175, 129, 190, 192
-0.997119, 397, 65, 428, 320
-0.99712, 457, 105, 472, 168
-0.997122, 309, 145, 340, 272
-0.997124, 285, 145, 316, 272
-0.997143, 337, 161, 464, 192
-0.997146, 369, 177, 496, 208
-0.997147, 411, 137, 426, 200
-0.997158, 209, 209, 224, 240
-0.997168, 177, 121, 304, 152
-0.997168, 233, 73, 296, 136
-0.997174, 157, 137, 172, 200
-0.997181, 395, 185, 410, 216
-0.997186, 75, 129, 90, 192
-0.997198, 201, 209, 216, 272
-0.997204, 215, 213, 230, 244
-0.997209, 33, 73, 288, 136
-0.997222, 47, 113, 62, 144
-0.997237, 397, 97, 412, 160
-0.997237, 209, 65, 240, 320
-0.99724, 409, 197, 424, 228
-0.997242, 307, 105, 322, 168
-0.997243, 391, 137, 406, 200
-0.997245, 193, 65, 224, 320
-0.997246, 403, 205, 418, 236
-0.997278, 101, 209, 116, 272
-0.997279, 17, 97, 32, 160
-0.997281, 49, 133, 176, 164
-0.997283, 305, 189, 432, 220
-0.997283, 191, 217, 206, 280
-0.997298, 209, 197, 224, 228
-0.997301, 281, 193, 312, 320
-0.997301, 425, 1, 488, 333
-0.997306, 397, 73, 412, 136
-0.997308, 41, 81, 56, 144
-0.997314, 289, 113, 304, 176
-0.997322, 45, 129, 60, 192
-0.997328, 209, 133, 336, 164
-0.997338, 415, 241, 430, 304
-0.997346, 355, 153, 370, 216
-0.997346, 177, 161, 192, 192
-0.997351, 91, 209, 106, 272
-0.997356, 15, 117, 30, 148
-0.997372, 181, 129, 196, 192
-0.997378, 289, 129, 416, 160
-0.997378, 369, 217, 384, 280
-0.997379, 443, 105, 458, 168
-0.997379, 353, 217, 480, 248
-0.997381, 81, 273, 208, 333
-0.997385, 377, 105, 392, 168
-0.997388, 233, 221, 248, 252
-0.997391, 169, 65, 200, 320
-0.997392, 17, 225, 144, 256
-0.997392, 337, 97, 352, 160
-0.997403, 317, 105, 332, 168
-0.997404, 225, 265, 480, 328
-0.997413, 25, 89, 40, 152
-0.997427, 157, 185, 172, 216
-0.997437, 403, 73, 418, 136
-0.997457, 111, 209, 126, 272
-0.997459, 71, 209, 86, 272
-0.997467, 59, 129, 74, 192
-0.997473, 199, 185, 214, 216
-0.997475, 221, 81, 252, 208
-0.997478, 407, 181, 422, 212
-0.997479, 1, 89, 16, 152
-0.997481, 97, 245, 224, 276
-0.997484, 195, 97, 210, 160
-0.997495, 25, 113, 40, 144
-0.997501, 3, 113, 18, 144
-0.997502, 113, 121, 240, 152
-0.997512, 211, 97, 226, 160
-0.997515, 161, 209, 176, 240
-0.997521, 161, 81, 416, 144
-0.997521, 451, 105, 466, 168
-0.997522, 57, 113, 72, 144
-0.997526, 383, 97, 398, 160
-0.997531, 397, 209, 412, 240
-0.997532, 65, 81, 80, 144
-0.997535, 37, 105, 52, 136
-0.997539, 469, 105, 484, 168
-0.997542, 147, 177, 162, 208
-0.997543, 173, 201, 188, 264
-0.997548, 163, 181, 178, 212
-0.997548, 219, 145, 234, 208
-0.997553, 199, 161, 214, 224
-0.997556, 207, 221, 222, 252
-0.997556, 1, 73, 500, 136
-0.997558, 9, 125, 24, 156
-0.997559, 9, 113, 24, 144
-0.997559, 31, 117, 46, 148
-0.997565, 257, 93, 384, 124
-0.997581, 409, 209, 424, 240
-0.997593, 77, 193, 92, 256
-0.997595, 61, 125, 76, 156
-0.997601, 33, 129, 48, 192
-0.997603, 301, 49, 332, 176
-0.997617, 89, 105, 104, 168
-0.997621, 33, 177, 160, 208
-0.997622, 167, 165, 182, 196
-0.997647, 413, 49, 444, 176
-0.997653, 337, 137, 464, 168
-0.997661, 113, 137, 240, 168
-0.997664, 39, 125, 54, 156
-0.997679, 433, 81, 496, 144
-0.997681, 155, 197, 170, 228
-0.997683, 31, 105, 46, 136
-0.997691, 397, 197, 412, 228
-0.997696, 1, 149, 128, 180
-0.997698, 187, 165, 202, 196
-0.997717, 113, 57, 240, 120
-0.997718, 285, 65, 316, 320
-0.99772, 159, 221, 174, 252
-0.997721, 55, 125, 70, 156
-0.997728, 215, 201, 230, 232
-0.997731, 361, 65, 392, 320
-0.997748, 273, 65, 304, 320
-0.997754, 321, 229, 448, 260
-0.997768, 233, 189, 248, 220
-0.997776, 67, 113, 82, 144
-0.99778, 177, 257, 304, 288
-0.997796, 15, 105, 30, 136
-0.997819, 401, 177, 416, 208
-0.997835, 177, 149, 304, 180
-0.997844, 3, 125, 18, 156
-0.997855, 417, 193, 432, 224
-0.997859, 433, 49, 464, 176
-0.997863, 49, 125, 64, 156
-0.997868, 65, 257, 192, 288
-0.997879, 129, 249, 384, 312
-0.997898, 391, 205, 406, 236
-0.997902, 369, 101, 496, 132
-0.997909, 209, 93, 336, 124
-0.997912, 21, 125, 36, 156
-0.997917, 167, 197, 182, 228
-0.997918, 321, 253, 448, 284
-0.997922, 337, 113, 464, 144
-0.997928, 121, 65, 152, 320
-0.997929, 415, 209, 430, 240
-0.997952, 193, 193, 208, 224
-0.997968, 273, 229, 400, 260
-0.997978, 169, 185, 184, 216
-0.997979, 67, 125, 82, 156
-0.997983, 133, 33, 164, 288
-0.997994, 211, 185, 226, 216
-0.998004, 109, 65, 140, 320
-0.998006, 49, 245, 176, 276
-0.99801, 73, 65, 104, 320
-0.998011, 369, 149, 496, 180
-0.998012, 73, 113, 88, 144
-0.998017, 49, 177, 80, 304
-0.998019, 179, 173, 194, 204
-0.998022, 223, 173, 238, 204
-0.998044, 113, 261, 240, 292
-0.998047, 75, 125, 90, 156
-0.998048, 155, 209, 170, 240
-0.998049, 239, 217, 254, 248
-0.998053, 161, 133, 288, 164
-0.998058, 205, 177, 220, 208
-0.998062, 203, 197, 218, 228
-0.998076, 213, 225, 228, 256
-0.99808, 393, 165, 408, 196
-0.998084, 373, 65, 404, 320
-0.998085, 85, 113, 100, 144
-0.998109, 79, 113, 94, 144
-0.998111, 221, 65, 252, 320
-0.99812, 17, 89, 144, 120
-0.998121, 193, 161, 208, 192
-0.998129, 409, 81, 472, 144
-0.998136, 403, 193, 418, 224
-0.998136, 97, 141, 112, 172
-0.998157, 113, 85, 240, 116
-0.998159, 369, 253, 496, 284
-0.998164, 179, 225, 194, 256
-0.998189, 87, 133, 102, 164
-0.998191, 213, 173, 228, 204
-0.998205, 87, 161, 102, 192
-0.998206, 359, 109, 374, 140
-0.998212, 153, 221, 168, 252
-0.998214, 309, 65, 340, 320
-0.998219, 1, 257, 500, 320
-0.998232, 137, 33, 168, 160
-0.998233, 355, 149, 370, 180
-0.998235, 225, 233, 240, 264
-0.998237, 151, 165, 166, 196
-0.998238, 409, 65, 440, 320
-0.998244, 1, 161, 128, 192
-0.998246, 387, 169, 402, 200
-0.99825, 407, 221, 422, 252
-0.998256, 17, 213, 144, 244
-0.998263, 53, 101, 68, 132
-0.998265, 213, 237, 228, 268
-0.998266, 341, 65, 372, 320
-0.998276, 233, 173, 248, 204
-0.998283, 173, 173, 188, 204
-0.998284, 225, 185, 352, 216
-0.998298, 61, 101, 76, 132
-0.9983, 403, 165, 418, 196
-0.998302, 417, 181, 432, 212
-0.998303, 193, 161, 320, 192
-0.998312, 321, 65, 352, 320
-0.998317, 369, 125, 496, 156
-0.998319, 257, 81, 500, 144
-0.998321, 461, 49, 492, 176
-0.998333, 357, 121, 372, 152
-0.998335, 319, 221, 334, 252
-0.998345, 167, 229, 182, 260
-0.998347, 5, 141, 36, 156
-0.998347, 69, 229, 100, 244
-0.998349, 349, 123, 380, 138
-0.99835, 417, 205, 448, 220
-0.99835, 393, 165, 424, 180
-0.998351, 469, 155, 500, 170
-0.998351, 181, 197, 212, 212
-0.998352, 173, 171, 204, 186
-0.998353, 325, 221, 356, 236
-0.998353, 349, 105, 364, 136
-0.998354, 165, 229, 196, 244
-0.998356, 69, 221, 100, 236
-0.998356, 401, 219, 432, 234
-0.998356, 9, 103, 40, 118
-0.998357, 9, 101, 24, 132
-0.998358, 45, 101, 76, 116
-0.998358, 273, 139, 304, 154
-0.998359, 177, 183, 208, 198
-0.998362, 145, 211, 176, 226
-0.998362, 77, 139, 108, 154
-0.998362, 209, 173, 240, 188
-0.998362, 97, 65, 128, 320
-0.998362, 405, 155, 436, 170
-0.998363, 377, 201, 408, 216
-0.998363, 93, 115, 124, 130
-0.998364, 241, 235, 272, 250
-0.998368, 381, 179, 412, 194
-0.998368, 65, 131, 96, 146
-0.998371, 353, 129, 384, 144
-0.998371, 205, 235, 236, 250
-0.998372, 309, 111, 340, 126
-0.998373, 53, 137, 84, 152
-0.998373, 233, 189, 264, 204
-0.998376, 169, 201, 200, 216
-0.998376, 417, 197, 448, 212
-0.998377, 15, 129, 30, 160
-0.998378, 337, 119, 368, 134
-0.998378, 425, 157, 456, 172
-0.998381, 229, 183, 260, 198
-0.998383, 149, 169, 180, 184
-0.998384, 413, 169, 428, 200
-0.998385, 1, 101, 16, 132
-0.998385, 311, 217, 326, 248
-0.998386, 387, 185, 402, 216
-0.998386, 73, 113, 104, 128
-0.998386, 121, 57, 184, 120
-0.998387, 69, 125, 100, 140
-0.998388, 97, 153, 112, 184
-0.998389, 253, 231, 284, 246
-0.998391, 1, 245, 128, 276
-0.998392, 201, 181, 232, 196
-0.998394, 385, 191, 416, 206
-0.998395, 285, 135, 316, 150
-0.998396, 189, 165, 220, 180
-0.998396, 173, 189, 204, 204
-0.998396, 157, 207, 188, 222
-0.998396, 405, 255, 436, 270
-0.9984, 17, 135, 48, 150
-0.9984, 357, 221, 388, 236
-0.998403, 293, 141, 324, 156
-0.998403, 137, 177, 168, 192
-0.998403, 185, 221, 200, 252
-0.998404, 325, 221, 340, 252
-0.998406, 145, 205, 176, 220
-0.998406, 405, 175, 436, 190
-0.998408, 233, 223, 264, 238
-0.998408, 129, 233, 160, 248
-0.99841, 157, 235, 188, 250
-0.998411, 201, 229, 232, 244
-0.998411, 193, 205, 208, 236
-0.998413, 233, 201, 264, 216
-0.998414, 57, 113, 88, 128
-0.998415, 91, 145, 106, 176
-0.998417, 405, 183, 436, 198
-0.998417, 53, 131, 84, 146
-0.998418, 161, 171, 192, 186
-0.99842, 165, 195, 196, 210
-0.99842, 173, 229, 188, 260
-0.998421, 69, 119, 100, 134
-0.998425, 185, 193, 200, 224
-0.998425, 43, 101, 58, 132
-0.998427, 145, 199, 176, 214
-0.99843, 239, 201, 254, 232
-0.998431, 53, 107, 84, 122
-0.998432, 41, 137, 72, 152
-0.998432, 377, 215, 408, 230
-0.998433, 335, 217, 350, 248
-0.998433, 81, 125, 96, 156
-0.998435, 169, 235, 200, 250
-0.998437, 161, 179, 192, 194
-0.998437, 185, 209, 248, 224
-0.998437, 1, 109, 32, 124
-0.998438, 33, 103, 64, 118
-0.998439, 21, 103, 52, 118
-0.998439, 289, 241, 416, 272
-0.99844, 141, 233, 172, 248
-0.998441, 181, 177, 212, 192
-0.998441, 309, 223, 340, 238
-0.998441, 185, 191, 248, 206
-0.998442, 197, 187, 228, 202
-0.998444, 289, 165, 416, 196
-0.998447, 185, 171, 216, 186
-0.998447, 161, 207, 224, 222
-0.998447, 221, 201, 252, 216
-0.998448, 9, 119, 40, 134
-0.998448, 369, 133, 400, 148
-0.99845, 189, 225, 220, 240
-0.998452, 353, 139, 384, 154
-0.998452, 161, 193, 224, 208
-0.998454, 201, 213, 216, 244
-0.998455, 45, 113, 76, 128
-0.998456, 57, 125, 88, 140
-0.99846, 145, 181, 208, 196
-0.99846, 287, 129, 302, 160
-0.998461, 91, 113, 106, 144
-0.998462, 153, 191, 184, 206
-0.998463, 137, 175, 200, 190
-0.998464, 445, 49, 476, 176
-0.998464, 409, 211, 440, 226
-0.998465, 145, 245, 272, 276
-0.998467, 351, 117, 366, 148
-0.998467, 363, 125, 378, 156
-0.998467, 177, 229, 240, 244
-0.998467, 141, 183, 172, 198
-0.998471, 33, 257, 96, 320
-0.998471, 5, 135, 36, 150
-0.998471, 221, 235, 252, 250
-0.998472, 233, 233, 248, 264
-0.998474, 185, 203, 248, 218
-0.998474, 201, 227, 264, 242
-0.998475, 389, 199, 420, 214
-0.998475, 41, 137, 56, 168
-0.998476, 391, 217, 406, 248
-0.998478, 389, 219, 420, 234
-0.998479, 205, 195, 236, 210
-0.998479, 21, 115, 52, 130
-0.99848, 157, 201, 188, 216
-0.998481, 153, 169, 216, 184
-0.998481, 241, 181, 256, 212
-0.998484, 405, 201, 436, 216
-0.998487, 209, 223, 240, 238
-0.998487, 83, 97, 98, 128
-0.998488, 33, 125, 64, 140
-0.998488, 49, 121, 112, 136
-0.998489, 17, 125, 80, 140
-0.998492, 237, 229, 268, 244
-0.998493, 29, 135, 60, 150
-0.998497, 145, 201, 208, 216
-0.998497, 71, 93, 86, 124
-0.998498, 405, 191, 436, 206
-0.998498, 201, 233, 264, 248
-0.998498, 145, 213, 208, 228
-0.998499, 189, 219, 220, 234
-0.998499, 393, 213, 424, 228
-0.998502, 9, 129, 40, 144
-0.998502, 229, 213, 260, 228
-0.998503, 185, 197, 248, 212
-0.998505, 225, 207, 256, 222
-0.998507, 153, 187, 216, 202
-0.998508, 183, 153, 198, 184
-0.998508, 33, 131, 96, 146
-0.998508, 193, 219, 256, 234
-0.998508, 161, 219, 224, 234
-0.998509, 393, 181, 424, 196
-0.99851, 377, 185, 440, 200
-0.998511, 9, 119, 72, 134
-0.998512, 189, 209, 220, 224
-0.998515, 361, 217, 424, 232
-0.998515, 165, 165, 196, 180
-0.998517, 183, 237, 198, 268
-0.998517, 157, 185, 188, 200
-0.998522, 21, 109, 52, 124
-0.998523, 345, 217, 360, 248
-0.998523, 371, 109, 386, 140
-0.998524, 169, 175, 232, 190
-0.998524, 137, 235, 200, 250
-0.998527, 9, 107, 72, 122
-0.998527, 33, 119, 64, 134
-0.998528, 33, 109, 64, 124
-0.998529, 385, 201, 400, 232
-0.998531, 53, 119, 84, 134
-0.998533, 193, 193, 224, 208
-0.998535, 45, 125, 76, 140
-0.998537, 29, 93, 44, 124
-0.998538, 189, 203, 220, 218
-0.998539, 377, 273, 440, 333
-0.998539, 225, 229, 256, 244
-0.998539, 9, 113, 72, 128
-0.998542, 9, 131, 72, 146
-0.998542, 21, 123, 52, 138
-0.998543, 177, 235, 240, 250
-0.998546, 17, 137, 80, 152
-0.998547, 161, 163, 224, 178
-0.998548, 169, 181, 232, 196
-0.998549, 193, 185, 256, 200
-0.998549, 213, 207, 244, 222
-0.99855, 177, 161, 208, 176
-0.998551, 149, 175, 180, 190
-0.998552, 33, 113, 96, 128
-0.998553, 21, 129, 52, 144
-0.998555, 385, 179, 448, 194
-0.998557, 297, 221, 360, 236
-0.998558, 205, 201, 236, 216
-0.998559, 361, 135, 424, 150
-0.998561, 221, 195, 252, 210
-0.998562, 121, 185, 184, 200
-0.998562, 393, 205, 424, 220
-0.998563, 377, 169, 440, 184
-0.998564, 41, 131, 72, 146
-0.998564, 385, 207, 448, 222
-0.998564, 121, 203, 184, 218
-0.998569, 121, 213, 184, 228
-0.998573, 209, 191, 272, 206
-0.998574, 225, 231, 288, 246
-0.998575, 193, 179, 256, 194
-0.998584, 321, 221, 384, 236
-0.998585, 113, 175, 176, 190
-0.998588, 33, 107, 96, 122
-0.998589, 57, 131, 120, 146
-0.998589, 213, 189, 244, 204
-0.99859, 81, 227, 144, 242
-0.99859, 209, 215, 240, 230
-0.998594, 177, 169, 240, 184
-0.998594, 137, 229, 200, 244
-0.998594, 297, 65, 328, 320
-0.998594, 225, 177, 240, 304
-0.998598, 49, 137, 112, 152
-0.998601, 377, 191, 440, 206
-0.998602, 209, 207, 272, 222
-0.998604, 221, 219, 252, 234
-0.998605, 361, 211, 424, 226
-0.998606, 213, 229, 244, 244
-0.998606, 377, 197, 440, 212
-0.998607, 113, 235, 176, 250
-0.998609, 289, 111, 352, 126
-0.99861, 121, 197, 184, 212
-0.998612, 361, 179, 424, 194
-0.998613, 361, 223, 424, 238
-0.998614, 17, 101, 80, 116
-0.998614, 297, 117, 360, 132
-0.998615, 225, 213, 288, 228
-0.998617, 409, 161, 472, 176
-0.998618, 257, 227, 320, 242
-0.99862, 137, 221, 200, 236
-0.998622, 57, 109, 120, 124
-0.998626, 273, 141, 336, 156
-0.998626, 65, 221, 128, 236
-0.998628, 129, 169, 192, 184
-0.998629, 209, 201, 272, 216
-0.998629, 85, 65, 116, 320
-0.998632, 121, 191, 184, 206
-0.998639, 265, 135, 328, 150
-0.998641, 337, 139, 400, 154
-0.998641, 385, 255, 448, 270
-0.998642, 217, 221, 280, 236
-0.998642, 137, 241, 200, 256
-0.998644, 425, 135, 488, 150
-0.998646, 97, 181, 160, 196
-0.998648, 385, 213, 448, 228
-0.998651, 201, 173, 264, 188
-0.998651, 113, 225, 176, 240
-0.998651, 313, 133, 376, 148
-0.998652, 361, 205, 424, 220
-0.998652, 265, 107, 328, 122
-0.998653, 41, 99, 104, 114
-0.998654, 321, 127, 384, 142
-0.998654, 89, 235, 152, 250
-0.998654, 249, 65, 280, 320
-0.998655, 361, 129, 424, 144
-0.998655, 377, 163, 440, 178
-0.998655, 433, 155, 496, 170
-0.998658, 105, 219, 168, 234
-0.998658, 321, 107, 384, 122
-0.998659, 361, 229, 424, 244
-0.99866, 171, 161, 186, 288
-0.99866, 385, 135, 448, 150
-0.998661, 337, 229, 400, 244
-0.998662, 321, 121, 384, 136
-0.998662, 137, 163, 200, 178
-0.998663, 217, 185, 280, 200
-0.998663, 161, 101, 224, 116
-0.998664, 305, 231, 368, 246
-0.998666, 89, 175, 152, 190
-0.998667, 409, 155, 472, 170
-0.998669, 121, 103, 184, 118
-0.99867, 41, 157, 104, 172
-0.998671, 353, 199, 416, 214
-0.998671, 337, 241, 464, 272
-0.998674, 121, 97, 184, 112
-0.998675, 57, 115, 120, 130
-0.998676, 209, 111, 272, 126
-0.998676, 169, 137, 232, 152
-0.998677, 345, 113, 408, 128
-0.998677, 401, 187, 464, 202
-0.998678, 185, 163, 248, 178
-0.998678, 361, 257, 424, 272
-0.998678, 41, 225, 104, 240
-0.998678, 201, 239, 264, 254
-0.998679, 121, 17, 184, 144
-0.998681, 377, 103, 440, 118
-0.998682, 193, 143, 256, 158
-0.998683, 193, 257, 256, 272
-0.998683, 233, 107, 296, 122
-0.998683, 57, 185, 120, 200
-0.998683, 401, 201, 464, 216
-0.998684, 337, 215, 400, 230
-0.998685, 321, 177, 448, 208
-0.998686, 57, 177, 120, 192
-0.998686, 297, 139, 360, 154
-0.998688, 65, 259, 128, 274
-0.998689, 337, 133, 400, 148
-0.998689, 81, 115, 144, 130
-0.998697, 241, 117, 368, 148
-0.998709, 217, 177, 232, 304
-0.998724, 349, 33, 380, 160
-0.998726, 163, 145, 178, 272
-0.998739, 385, 33, 416, 160
-0.998743, 231, 177, 246, 304
-0.998747, 177, 145, 192, 272
-0.998749, 225, 173, 352, 204
-0.99877, 17, 257, 144, 288
-0.998783, 157, 145, 172, 272
-0.998796, 161, 281, 288, 312
-0.998799, 253, 209, 284, 333
-0.99882, 159, 193, 174, 320
-0.998825, 191, 177, 206, 304
-0.998825, 65, 85, 192, 116
-0.998847, 313, 73, 376, 136
-0.998847, 261, 65, 292, 320
-0.998863, 369, 265, 496, 296
-0.998878, 165, 193, 180, 320
-0.998896, 185, 129, 200, 256
-0.998905, 209, 177, 224, 304
-0.998916, 1, 189, 128, 220
-0.99892, 193, 57, 320, 120
-0.998923, 409, 177, 424, 304
-0.998931, 237, 65, 268, 320
-0.998935, 273, 253, 400, 284
-0.998936, 113, 149, 240, 180
-0.998938, 403, 129, 418, 256
-0.998939, 151, 145, 166, 272
-0.998947, 425, 193, 456, 320
-0.998955, 53, 65, 84, 320
-0.99896, 415, 145, 430, 272
-0.998964, 197, 161, 212, 288
-0.998971, 249, 153, 312, 216
-0.998978, 337, 89, 464, 120
-0.998987, 241, 205, 368, 236
-0.99899, 1, 265, 256, 328
-0.99899, 397, 161, 412, 288
-0.998993, 153, 193, 168, 320
-0.999004, 167, 97, 182, 224
-0.999014, 369, 229, 496, 260
-0.999017, 209, 241, 336, 272
-0.999034, 225, 257, 352, 288
-0.999066, 177, 97, 192, 224
-0.999078, 185, 209, 200, 333
-0.999081, 239, 161, 254, 288
-0.999099, 159, 97, 174, 224
-0.999113, 321, 145, 352, 272
-0.999114, 161, 293, 288, 324
-0.999117, 225, 273, 352, 304
-0.999122, 145, 177, 160, 304
-0.999159, 389, 161, 404, 288
-0.999172, 393, 113, 408, 240
-0.999173, 415, 193, 430, 320
-0.999178, 219, 129, 234, 256
-0.999187, 95, 97, 110, 224
-0.999188, 421, 33, 452, 288
-0.999191, 191, 129, 206, 256
-0.999198, 273, 153, 400, 184
-0.999204, 417, 97, 432, 224
-0.999206, 209, 129, 224, 256
-0.999207, 403, 177, 418, 304
-0.999213, 233, 129, 248, 256
-0.999219, 409, 113, 424, 240
-0.999227, 203, 129, 218, 256
-0.999232, 33, 277, 160, 308
-0.999241, 97, 273, 352, 333
-0.999248, 421, 177, 436, 304
-0.999251, 403, 81, 418, 208
-0.999264, 121, 97, 136, 224
-0.999266, 97, 277, 224, 308
-0.999271, 151, 97, 166, 224
-0.999279, 387, 97, 402, 224
-0.999279, 135, 81, 150, 208
-0.999283, 89, 97, 104, 224
-0.999288, 191, 81, 206, 208
-0.999299, 135, 129, 150, 256
-0.999312, 225, 129, 240, 256
-0.999322, 351, 81, 366, 208
-0.999325, 197, 113, 212, 240
-0.99933, 179, 209, 194, 333
-0.999336, 145, 129, 160, 256
-0.999336, 423, 97, 438, 224
-0.999343, 245, 177, 260, 304
-0.999344, 127, 113, 142, 240
-0.999345, 281, 257, 344, 320
-0.999346, 93, 145, 108, 272
-0.99935, 83, 97, 98, 224
-0.999358, 115, 97, 130, 224
-0.999362, 183, 81, 198, 208
-0.999362, 105, 97, 120, 224
-0.999369, 77, 177, 92, 304
-0.99937, 363, 97, 378, 224
-0.999373, 203, 81, 218, 208
-0.999377, 171, 209, 186, 333
-0.999383, 29, 81, 44, 208
-0.999386, 85, 161, 100, 288
-0.999386, 129, 65, 144, 192
-0.999387, 355, 145, 370, 272
-0.99939, 139, 177, 154, 304
-0.999396, 429, 97, 444, 224
-0.999397, 357, 81, 372, 208
-0.999402, 397, 65, 412, 192
-0.99941, 69, 177, 84, 304
-0.999411, 381, 97, 396, 224
-0.999412, 297, 97, 312, 224
-0.999416, 143, 81, 158, 208
-0.999417, 41, 33, 72, 160
-0.999433, 41, 81, 56, 208
-0.999434, 373, 97, 388, 224
-0.99944, 103, 145, 118, 272
-0.999443, 21, 65, 52, 320
-0.999444, 273, 301, 400, 332
-0.999445, 203, 177, 218, 304
-0.999447, 383, 177, 398, 304
-0.999451, 19, 97, 34, 224
-0.999453, 125, 177, 140, 304
-0.999453, 397, 209, 412, 333
-0.999453, 479, 97, 494, 224
-0.999455, 469, 33, 500, 288
-0.999459, 75, 97, 90, 224
-0.999461, 237, 209, 252, 333
-0.999462, 285, 113, 300, 240
-0.999474, 289, 265, 416, 296
-0.999474, 51, 65, 66, 192
-0.999476, 161, 269, 288, 300
-0.999478, 213, 81, 228, 208
-0.999479, 473, 97, 488, 224
-0.999483, 435, 97, 450, 224
-0.999486, 345, 97, 360, 224
-0.999488, 111, 177, 126, 304
-0.999494, 485, 97, 500, 224
-0.999495, 311, 97, 326, 224
-0.999502, 41, 129, 72, 256
-0.999507, 239, 97, 254, 224
-0.999507, 467, 97, 482, 224
-0.999515, 291, 97, 306, 224
-0.999515, 455, 97, 470, 224
-0.999516, 119, 145, 134, 272
-0.999518, 3, 97, 18, 224
-0.999523, 333, 97, 348, 224
-0.999528, 305, 97, 320, 224
-0.999529, 441, 97, 456, 224
-0.999532, 377, 193, 392, 320
-0.999535, 461, 97, 476, 224
-0.99954, 131, 177, 146, 304
-0.999543, 245, 129, 260, 256
-0.99955, 317, 97, 332, 224
-0.999552, 449, 97, 464, 224
-0.999557, 113, 33, 144, 160
-0.999558, 327, 81, 342, 208
-0.999567, 433, 65, 464, 320
-0.999568, 57, 65, 72, 192
-0.999569, 265, 161, 280, 288
-0.999574, 67, 97, 82, 224
-0.999576, 343, 193, 358, 320
-0.999583, 255, 129, 270, 256
-0.99959, 1, 33, 32, 160
-0.999592, 339, 97, 354, 224
-0.999595, 161, 85, 288, 116
-0.999595, 445, 65, 476, 320
-0.999597, 159, 235, 174, 250
-0.999598, 155, 193, 170, 208
-0.999599, 39, 101, 54, 116
-0.9996, 191, 195, 206, 210
-0.999601, 57, 113, 72, 128
-0.999602, 333, 193, 348, 320
-0.999603, 355, 149, 370, 164
-0.999604, 3, 109, 18, 124
-0.999604, 221, 235, 236, 250
-0.999605, 243, 233, 258, 248
-0.999606, 147, 183, 162, 198
-0.999606, 79, 119, 94, 134
-0.999606, 201, 187, 216, 202
-0.999608, 67, 131, 82, 146
-0.999608, 311, 223, 326, 238
-0.999608, 165, 193, 180, 208
-0.999609, 65, 137, 80, 152
-0.999609, 285, 65, 300, 192
-0.99961, 71, 119, 86, 134
-0.999612, 169, 165, 184, 180
-0.999612, 417, 191, 432, 206
-0.999612, 349, 145, 364, 272
-0.999613, 71, 125, 86, 140
-0.999613, 417, 203, 432, 218
-0.999613, 25, 109, 40, 124
-0.999613, 19, 137, 34, 152
-0.999614, 363, 137, 378, 152
-0.999615, 13, 97, 28, 224
-0.999616, 407, 181, 422, 196
-0.999617, 47, 113, 62, 240
-0.999617, 157, 199, 172, 214
-0.999618, 409, 257, 424, 272
-0.999618, 15, 109, 30, 124
-0.999619, 227, 235, 242, 250
-0.99962, 171, 175, 186, 190
-0.99962, 105, 193, 120, 320
-0.999621, 155, 213, 170, 228
-0.999621, 165, 179, 180, 194
-0.999622, 363, 131, 378, 146
-0.999622, 197, 163, 212, 178
-0.999623, 197, 195, 212, 210
-0.999623, 205, 211, 220, 226
-0.999623, 131, 233, 146, 248
-0.999623, 49, 113, 64, 128
-0.999623, 33, 103, 48, 118
-0.999623, 113, 289, 240, 320
-0.999624, 273, 153, 336, 216
-0.999625, 181, 235, 196, 250
-0.999626, 297, 145, 328, 272
-0.999627, 217, 209, 232, 224
-0.999627, 209, 229, 224, 244
-0.999627, 171, 181, 186, 196
-0.999628, 387, 205, 402, 220
-0.999628, 7, 135, 22, 150
-0.999628, 237, 219, 252, 234
-0.999629, 61, 131, 76, 146
-0.999629, 155, 205, 170, 220
-0.99963, 85, 119, 100, 134
-0.999632, 171, 49, 186, 176
-0.999632, 55, 137, 70, 152
-0.999633, 63, 177, 78, 304
-0.999634, 1, 119, 16, 134
-0.999635, 155, 185, 170, 200
-0.999635, 223, 223, 238, 238
-0.999636, 309, 193, 324, 320
-0.999637, 427, 145, 442, 272
-0.999638, 25, 115, 40, 130
-0.999638, 117, 193, 132, 320
-0.999639, 179, 163, 194, 178
-0.999639, 35, 97, 50, 224
-0.99964, 49, 135, 64, 150
-0.999643, 225, 285, 352, 316
-0.999643, 259, 177, 274, 304
-0.999643, 233, 229, 248, 244
-0.999645, 9, 119, 24, 134
-0.999645, 183, 173, 198, 188
-0.999645, 43, 107, 58, 122
-0.999646, 153, 175, 168, 190
-0.999647, 185, 161, 200, 176
-0.999649, 395, 207, 410, 222
-0.999652, 65, 125, 80, 140
-0.999653, 15, 119, 30, 134
-0.999653, 161, 185, 176, 200
-0.999653, 191, 161, 206, 176
-0.999656, 161, 169, 176, 184
-0.999656, 189, 169, 204, 184
-0.999657, 399, 191, 414, 206
-0.999657, 413, 209, 428, 224
-0.999658, 37, 119, 52, 134
-0.999659, 43, 119, 58, 134
-0.999659, 213, 189, 228, 204
-0.999659, 399, 199, 414, 214
-0.99966, 403, 219, 418, 234
-0.99966, 31, 119, 46, 134
-0.999662, 33, 129, 48, 144
-0.999665, 215, 195, 230, 210
-0.999665, 395, 213, 410, 228
-0.999666, 23, 129, 38, 144
-0.999667, 37, 65, 68, 320
-0.999669, 31, 135, 46, 150
-0.999669, 55, 131, 70, 146
-0.999672, 43, 113, 58, 128
-0.999672, 3, 125, 18, 140
-0.999676, 161, 211, 176, 226
-0.999676, 401, 213, 416, 228
-0.999676, 219, 217, 234, 232
-0.999678, 395, 181, 410, 196
-0.999679, 209, 201, 224, 216
-0.99968, 65, 119, 80, 134
-0.999682, 223, 195, 238, 210
-0.999682, 15, 131, 30, 146
-0.999687, 15, 125, 30, 140
-0.999687, 219, 201, 234, 216
-0.999689, 31, 109, 46, 124
-0.999689, 41, 135, 56, 150
-0.99969, 39, 129, 54, 144
-0.999691, 393, 187, 408, 202
-0.999692, 37, 109, 52, 124
-0.999693, 55, 119, 70, 134
-0.999694, 49, 123, 64, 138
-0.999696, 161, 205, 176, 220
-0.999697, 407, 213, 422, 228
-0.999697, 227, 203, 242, 218
-0.999698, 225, 189, 240, 204
-0.999699, 207, 223, 222, 238
-0.999699, 457, 33, 488, 288
-0.999702, 163, 199, 178, 214
-0.999705, 227, 211, 242, 226
-0.999708, 59, 125, 74, 140
-0.999709, 9, 129, 24, 144
-0.99971, 405, 187, 420, 202
-0.99971, 229, 195, 244, 210
-0.999714, 45, 129, 60, 144
-0.999716, 147, 177, 162, 192
-0.99972, 209, 217, 224, 232
-0.999722, 161, 1, 416, 128
-0.999724, 223, 229, 238, 244
-0.999724, 409, 195, 424, 210
-0.999732, 233, 211, 248, 226
-0.999737, 401, 179, 416, 194
-0.999745, 225, 217, 240, 232
-0.99975, 215, 223, 230, 238
-0.999751, 225, 301, 352, 332
-0.999755, 405, 207, 420, 222
-0.99976, 409, 201, 424, 216
-0.999761, 231, 217, 246, 232
-0.999771, 209, 195, 224, 210
-0.999778, 1, 65, 32, 320
-0.999779, 219, 189, 234, 204
-0.999785, 233, 203, 248, 218
-0.999792, 229, 223, 244, 238
-0.999799, 217, 229, 232, 244
-0.999802, 273, 177, 400, 208
-0.999834, 409, 265, 472, 328
-0.999873, 65, 49, 192, 112
-0.999916, 369, 277, 496, 308
-0.999928, 353, 289, 480, 320
-0.999942, 289, 277, 416, 308
-0.999955, 17, 77, 144, 108
-1.00001, 337, 273, 400, 333
-1.00002, 209, 81, 336, 112
-1.00003, 237, 81, 268, 208
-1.00007, 337, 301, 464, 332
-1.0001, 161, 57, 416, 120
-1.00011, 273, 289, 400, 320
-1.00016, 113, 301, 240, 332
-1.00016, 81, 73, 208, 104
-1.00017, 165, 33, 196, 160
-1.00025, 97, 57, 160, 120
-1.0003, 273, 81, 400, 112
-1.00037, 65, 289, 192, 320
-1.00044, 129, 73, 256, 104
-1.00044, 57, 17, 120, 144
-1.00048, 49, 301, 176, 332
-1.00051, 129, 1, 256, 32
-1.00055, 433, 241, 496, 304
-1.0006, 369, 1, 496, 32
-1.00063, 321, 73, 448, 104
-1.00069, 273, 1, 400, 32
-1.00069, 369, 69, 496, 100
-1.0007, 81, 5, 208, 36
-1.00074, 305, 61, 432, 92
-1.00076, 225, 1, 352, 32
-1.00077, 65, 1, 192, 64
-1.00077, 185, 33, 216, 160
-1.00079, 321, 1, 448, 32
-1.0008, 9, 241, 72, 304
-1.00083, 17, 57, 80, 120
-1.00094, 1, 153, 64, 216
-1.00095, 257, 57, 500, 120
-1.00111, 97, 1, 352, 64
-1.00111, 177, 1, 304, 64
-1.00123, 225, 1, 352, 64
-1.00127, 1, 49, 500, 112
-1.00135, 129, 1, 256, 64
-1.00138, 197, 33, 228, 160
-1.00147, 65, 49, 320, 112
-1.00153, 257, 1, 500, 64
-1.00155, 1, 41, 128, 104
-1.00155, 253, 65, 284, 192
-1.00163, 1, 1, 256, 64
-1.00165, 9, 185, 72, 248
-1.00167, 273, 1, 400, 64
-1.00167, 57, 273, 120, 333
-1.00169, 257, 25, 500, 88
-1.00176, 33, 25, 288, 88
-1.00177, 153, 17, 184, 144
-1.00178, 1, 1, 128, 64
-1.00184, 17, 193, 80, 320
-1.00193, 185, 33, 248, 160
-1.00196, 161, 33, 416, 96
-1.00199, 1, 217, 64, 280
-1.00207, 337, 1, 464, 64
-1.00213, 369, 25, 496, 88
-1.00221, 465, 145, 496, 272
-1.00229, 313, 257, 376, 320
-1.00231, 269, 33, 300, 160
-1.00236, 401, 49, 464, 112
-1.00236, 73, 17, 104, 144
-1.00247, 305, 33, 432, 96
-1.00252, 81, 25, 208, 88
-1.00257, 1, 1, 500, 64
-1.00276, 257, 25, 384, 88
-1.00278, 129, 33, 256, 96
-1.00281, 1, 25, 500, 88
-1.00294, 209, 33, 272, 160
-1.00298, 5, 129, 36, 256
-1.00305, 209, 25, 336, 88
-1.00306, 89, 17, 120, 144
-1.00317, 445, 145, 476, 272
-1.00334, 13, 33, 44, 160
-1.00356, 213, 33, 244, 160
-1.0039, 257, 49, 384, 112
-1.00397, 353, 49, 480, 112
-1.00405, 289, 1, 416, 128
-1.00408, 365, 17, 396, 144
-1.00439, 29, 17, 60, 144
-1.00462, 21, 161, 52, 288
-1.00469, 101, 1, 132, 128
-1.00488, 405, 1, 436, 128
-1.005, 425, 193, 488, 320
-1.00523, 33, 1, 160, 128
-1.00531, 125, 1, 156, 128
-1.00654, 249, 17, 312, 144
-1.00755, 241, 1, 368, 128
-1.0081, 393, 1, 456, 128
-1.00888, 369, 1, 496, 128
-1.009, 345, 1, 408, 128
-1.00974, 9, 1, 72, 128
-1.01092, 281, 1, 344, 128
-1.01137, 321, 1, 384, 128
-1.01303, 369, 1, 432, 128
-1.01378, 433, 1, 496, 128
