1990
-0.293413, 1, 129, 375, 384
-0.293752, 1, 1, 375, 500
-0.43481, 65, 1, 320, 500
-0.477208, 1, 33, 375, 288
-0.51189, 1, 225, 375, 480
-0.526847, 65, 97, 320, 352
-0.686369, 1, 1, 256, 256
-0.714856, 97, 193, 352, 448
-0.822176, 129, 1, 375, 256
-0.829317, 1, 193, 256, 448
-0.845532, 129, 97, 256, 352
-0.857708, 1, 161, 375, 288
-0.861089, 145, 1, 272, 500
-0.86652, 17, 161, 144, 416
-0.876822, 97, 1, 224, 500
-0.878048, 33, 1, 160, 500
-0.882299, 81, 97, 208, 352
-0.882948, 113, 1, 240, 256
-0.885482, 225, 1, 352, 500
-0.887156, 193, 193, 320, 448
-0.893164, 1, 209, 375, 336
-0.896971, 241, 97, 368, 352
-0.898091, 65, 1, 192, 256
-0.899203, 241, 225, 368, 480
-0.901902, 209, 1, 336, 256
-0.90236, 1, 113, 375, 240
-0.903424, 17, 65, 144, 320
-0.904481, 97, 113, 352, 240
-0.906596, 65, 161, 320, 288
-0.907566, 177, 97, 304, 352
-0.908365, 161, 1, 288, 256
-0.921964, 65, 193, 192, 448
-0.922213, 1, 257, 375, 384
-0.928299, 1, 49, 375, 176
-0.93071, 73, 161, 136, 288
-0.930723, 129, 113, 256, 240
-0.934558, 1, 97, 256, 224
-0.935241, 17, 177, 144, 304
-0.936122, 33, 193, 96, 320
-0.939399, 185, 97, 248, 224
-0.940657, 97, 209, 352, 336
-0.940892, 145, 97, 208, 224
-0.941984, 313, 241, 375, 368
-0.944051, 241, 225, 368, 352
-0.945266, 65, 1, 320, 128
-0.947274, 209, 273, 336, 400
-0.94777, 129, 257, 375, 384
-0.947854, 193, 81, 320, 208
-0.948763, 1, 1, 375, 128
-0.949566, 1, 209, 256, 336
-0.949627, 65, 161, 192, 288
-0.949945, 249, 273, 312, 400
-0.949959, 289, 273, 352, 400
-0.950489, 9, 193, 72, 320
-0.951312, 113, 113, 176, 240
-0.951711, 33, 49, 288, 176
-0.951916, 17, 257, 144, 500
-0.952019, 105, 177, 168, 304
-0.952148, 153, 105, 216, 168
-0.952315, 129, 65, 375, 192
-0.952556, 265, 209, 328, 336
-0.953209, 33, 193, 96, 256
-0.954083, 185, 105, 248, 168
-0.954192, 49, 97, 176, 224
-0.954256, 73, 161, 136, 224
-0.954364, 217, 177, 280, 304
-0.954407, 1, 305, 375, 432
-0.955313, 161, 193, 288, 320
-0.956361, 225, 81, 288, 208
-0.958409, 145, 193, 272, 448
-0.958504, 129, 49, 256, 176
-0.958635, 249, 281, 312, 344
-0.958785, 1, 241, 128, 368
-0.959414, 113, 169, 176, 232
-0.959778, 305, 257, 368, 320
-0.95996, 313, 369, 375, 496
-0.962398, 241, 177, 368, 304
-0.96279, 41, 145, 104, 272
-0.963352, 9, 209, 72, 272
-0.963373, 281, 305, 344, 368
-0.964038, 273, 265, 336, 328
-0.96431, 137, 145, 200, 272
-0.965154, 81, 49, 208, 176
-0.965629, 209, 105, 240, 168
-0.966123, 129, 113, 256, 176
-0.966573, 145, 49, 208, 176
-0.966683, 233, 225, 296, 352
-0.966825, 89, 193, 152, 256
-0.966899, 193, 145, 256, 208
-0.967086, 17, 241, 80, 368
-0.967401, 193, 145, 256, 272
-0.96755, 313, 393, 375, 456
-0.967965, 65, 185, 128, 248
-0.96822, 1, 129, 128, 256
-0.968428, 17, 49, 144, 176
-0.96876, 169, 129, 232, 192
-0.968772, 113, 137, 176, 200
-0.969, 305, 281, 368, 344
-0.969234, 41, 177, 72, 304
-0.969452, 81, 209, 144, 336
-0.969691, 345, 393, 375, 456
-0.969735, 209, 129, 336, 256
-0.969846, 129, 161, 160, 224
-0.969925, 37, 201, 68, 264
-0.970061, 49, 1, 176, 128
-0.970068, 129, 305, 375, 432
-0.970157, 217, 129, 280, 192
-0.97023, 145, 97, 208, 352
-0.970313, 57, 225, 120, 352
-0.970485, 69, 177, 100, 304
-0.970645, 161, 1, 288, 128
-0.970673, 225, 321, 352, 448
-0.970698, 49, 169, 176, 232
-0.970736, 1, 257, 256, 384
-0.970905, 89, 161, 120, 288
-0.970961, 117, 169, 148, 232
-0.971012, 265, 241, 328, 304
-0.971079, 209, 97, 240, 224
-0.971197, 33, 329, 96, 392
-0.971285, 57, 209, 120, 272
-0.971308, 129, 145, 256, 208
-0.971502, 25, 49, 88, 176
-0.971605, 109, 161, 140, 288
-0.971663, 137, 169, 200, 232
-0.971966, 217, 177, 280, 240
-0.972006, 273, 321, 336, 448
-0.972135, 305, 233, 368, 296
-0.972158, 21, 209, 52, 336
-0.972335, 241, 241, 368, 304
-0.972403, 105, 1, 168, 128
-0.972791, 17, 241, 80, 304
-0.972872, 193, 49, 256, 176
-0.97298, 113, 193, 176, 256
-0.97307, 289, 225, 352, 352
-0.973263, 145, 129, 208, 192
-0.97347, 345, 225, 375, 288
-0.973552, 209, 105, 272, 168
-0.973641, 33, 217, 96, 280
-0.973656, 9, 185, 72, 248
-0.973672, 265, 281, 296, 344
-0.973675, 217, 161, 280, 416
-0.973767, 65, 97, 128, 224
-0.97388, 193, 97, 256, 352
-0.974074, 65, 129, 128, 384
-0.974161, 233, 257, 296, 320
-0.974301, 313, 225, 375, 480
-0.974473, 309, 273, 340, 400
-0.974654, 345, 225, 375, 352
-0.974663, 105, 65, 168, 192
-0.9747, 257, 321, 320, 384
-0.97478, 289, 257, 320, 384
-0.974991, 69, 185, 100, 248
-0.974993, 93, 161, 124, 224
-0.975121, 89, 129, 152, 384
-0.975233, 217, 201, 280, 264
-0.97543, 329, 241, 360, 368
-0.975445, 225, 129, 288, 256
-0.975445, 81, 209, 208, 336
-0.975522, 313, 289, 375, 416
-0.975643, 225, 33, 288, 160
-0.975652, 245, 193, 276, 320
-0.975709, 41, 129, 104, 384
-0.975937, 81, 1, 144, 128
-0.976229, 269, 273, 300, 400
-0.976301, 113, 161, 240, 288
-0.976419, 1, 209, 128, 272
-0.976488, 53, 193, 84, 320
-0.976516, 153, 97, 184, 224
-0.97674, 293, 313, 324, 376
-0.977054, 9, 209, 40, 336
-0.97711, 41, 249, 104, 312
-0.977156, 17, 217, 48, 280
-0.977162, 305, 417, 368, 480
-0.977192, 41, 97, 104, 224
-0.977248, 241, 265, 368, 328
-0.977417, 161, 257, 288, 384
-0.977435, 233, 105, 296, 168
-0.977438, 49, 201, 80, 264
-0.97747, 253, 273, 284, 336
-0.977498, 17, 145, 80, 272
-0.977627, 217, 137, 248, 200
-0.977768, 153, 105, 184, 168
-0.977811, 345, 249, 375, 312
-0.977832, 113, 1, 176, 256
-0.977858, 257, 217, 320, 280
-0.977936, 129, 105, 192, 168
-0.978015, 229, 97, 260, 224
-0.978186, 81, 169, 112, 232
-0.978428, 225, 17, 352, 144
-0.978468, 325, 265, 356, 328
-0.978603, 89, 113, 152, 240
-0.978641, 17, 97, 80, 352
-0.978714, 333, 241, 364, 304
-0.978779, 265, 225, 296, 352
-0.979049, 1, 289, 64, 416
-0.979135, 49, 193, 176, 256
-0.979305, 81, 49, 144, 176
-0.979413, 289, 257, 352, 500
-0.979485, 289, 281, 320, 344
-0.979675, 1, 353, 375, 480
-0.979733, 97, 1, 224, 128
-0.979786, 313, 193, 375, 320
-0.979831, 241, 217, 368, 280
-0.979881, 193, 169, 256, 232
-0.979923, 197, 105, 228, 168
-0.980071, 225, 233, 288, 296
-0.980128, 209, 137, 336, 200
-0.980286, 121, 97, 184, 352
-0.980316, 81, 217, 144, 280
-0.980317, 185, 113, 216, 176
-0.980416, 281, 329, 344, 392
-0.98047, 265, 257, 296, 320
-0.980494, 121, 161, 152, 288
-0.980579, 225, 1, 288, 256
-0.980632, 277, 297, 308, 360
-0.980799, 313, 321, 375, 384
-0.980928, 313, 273, 344, 336
-0.981044, 253, 257, 284, 384
-0.98106, 41, 177, 72, 240
-0.981161, 169, 97, 232, 352
-0.981266, 169, 1, 232, 256
-0.981283, 129, 169, 256, 232
-0.981291, 225, 145, 256, 272
-0.981354, 209, 289, 336, 352
-0.9814, 129, 113, 160, 240
-0.981477, 257, 145, 320, 272
-0.981482, 169, 49, 232, 176
-0.981552, 105, 169, 136, 232
-0.981795, 1, 233, 128, 296
-0.981894, 121, 193, 152, 256
-0.981915, 49, 129, 80, 256
-0.98197, 65, 97, 192, 160
-0.982049, 1, 49, 64, 176
-0.982086, 341, 417, 372, 480
-0.982094, 1, 305, 64, 368
-0.982222, 137, 1, 200, 256
-0.982249, 17, 193, 80, 448
-0.982264, 297, 305, 328, 432
-0.982438, 205, 129, 236, 192
-0.982506, 305, 401, 336, 464
-0.982522, 65, 121, 192, 184
-0.982523, 225, 65, 288, 128
-0.982529, 345, 273, 375, 336
-0.982583, 177, 265, 304, 328
-0.982606, 153, 1, 216, 500
-0.982653, 209, 97, 336, 160
-0.982658, 73, 209, 104, 272
-0.982724, 65, 145, 192, 208
-0.982849, 177, 209, 304, 272
-0.982851, 1, 225, 32, 288
-0.982867, 133, 129, 164, 192
-0.982922, 177, 97, 208, 224
-0.982984, 145, 1, 208, 64
-0.983018, 133, 161, 164, 288
-0.983065, 189, 97, 220, 224
-0.983066, 133, 185, 164, 248
-0.983097, 41, 169, 104, 232
-0.983235, 49, 257, 176, 384
-0.983294, 129, 89, 256, 152
-0.983547, 241, 185, 272, 248
-0.983607, 61, 225, 92, 288
-0.983672, 173, 105, 204, 168
-0.983742, 57, 33, 120, 288
-0.983793, 225, 273, 288, 400
-0.983841, 169, 81, 232, 144
-0.983852, 101, 201, 132, 264
-0.98393, 1, 185, 128, 248
-0.983963, 325, 385, 356, 448
-0.984038, 105, 97, 168, 160
-0.984117, 141, 161, 172, 224
-0.98417, 25, 193, 56, 256
-0.984173, 241, 193, 368, 256
-0.984246, 301, 289, 332, 352
-0.984293, 241, 193, 304, 448
-0.984508, 297, 257, 328, 320
-0.984603, 249, 249, 280, 312
-0.984647, 213, 145, 244, 272
-0.984753, 45, 321, 76, 384
-0.984768, 33, 241, 64, 368
-0.98496, 329, 417, 360, 480
-0.984969, 1, 369, 256, 496
-0.985153, 89, 209, 120, 336
-0.985238, 29, 161, 60, 288
-0.985307, 49, 217, 176, 280
-0.985328, 265, 257, 328, 500
-0.985358, 249, 169, 312, 232
-0.985409, 241, 433, 368, 496
-0.985485, 225, 161, 352, 224
-0.985557, 265, 161, 328, 416
-0.985572, 145, 161, 176, 288
-0.985591, 277, 321, 308, 384
-0.985616, 241, 1, 304, 500
-0.985673, 49, 233, 80, 296
-0.985689, 61, 129, 92, 256
-0.985708, 345, 297, 375, 360
-0.985766, 41, 225, 104, 480
-0.985832, 317, 225, 348, 352
-0.985879, 33, 321, 96, 448
-0.985917, 309, 249, 340, 312
-0.98592, 341, 273, 372, 400
-0.98595, 53, 177, 84, 240
-0.985955, 9, 281, 72, 344
-0.986049, 49, 1, 112, 500
-0.986064, 177, 241, 304, 304
-0.986091, 129, 1, 192, 500
-0.986203, 9, 329, 72, 392
-0.986299, 113, 193, 176, 448
-0.986389, 193, 1, 256, 256
-0.986399, 25, 1, 88, 500
-0.986495, 141, 113, 172, 240
-0.98657, 101, 113, 132, 240
-0.986574, 205, 153, 236, 216
-0.986582, 285, 305, 316, 432
-0.986592, 241, 409, 368, 472
-0.986594, 285, 257, 316, 320
-0.986646, 209, 321, 336, 384
-0.986669, 41, 145, 104, 208
-0.986704, 25, 305, 88, 368
-0.986797, 225, 169, 256, 232
-0.986846, 65, 305, 128, 368
-0.986943, 177, 185, 304, 248
-0.986956, 177, 1, 240, 500
-0.987015, 229, 121, 260, 184
-0.987118, 89, 225, 120, 288
-0.987123, 89, 137, 152, 200
-0.987125, 65, 89, 128, 152
-0.987125, 233, 97, 264, 160
-0.987231, 133, 105, 164, 168
-0.98726, 169, 153, 232, 216
-0.987274, 73, 113, 104, 240
-0.9873, 229, 49, 260, 176
-0.987579, 113, 65, 176, 128
-0.987592, 281, 209, 312, 336
-0.987671, 233, 25, 296, 88
-0.987671, 289, 393, 352, 456
-0.987684, 129, 193, 192, 320
-0.987771, 249, 97, 312, 224
-0.987789, 49, 49, 112, 176
-0.987838, 1, 1, 64, 500
-0.987839, 1, 105, 64, 168
-0.987862, 29, 257, 60, 320
-0.987869, 29, 225, 60, 288
-0.98789, 57, 1, 120, 128
-0.987925, 241, 193, 304, 256
-0.988014, 225, 281, 288, 344
-0.988029, 1, 257, 128, 320
-0.988051, 81, 173, 144, 204
-0.988082, 309, 321, 340, 448
-0.988147, 305, 209, 368, 272
-0.988166, 73, 1, 136, 500
-0.988197, 329, 193, 360, 320
-0.988202, 273, 369, 336, 496
-0.988285, 241, 81, 368, 208
-0.988325, 117, 145, 148, 208
-0.988357, 97, 1, 160, 500
-0.988369, 313, 433, 344, 496
-0.9884, 309, 313, 340, 376
-0.988415, 137, 1, 200, 128
-0.988429, 17, 329, 144, 392
-0.988435, 137, 49, 168, 176
-0.98849, 193, 81, 256, 144
-0.988523, 217, 1, 280, 500
-0.988529, 249, 1, 312, 128
-0.98859, 33, 205, 96, 236
-0.988602, 89, 1, 120, 128
-0.988617, 265, 233, 296, 296
-0.988638, 33, 161, 288, 224
-0.988748, 21, 273, 52, 400
-0.988779, 89, 33, 152, 288
-0.988795, 169, 145, 232, 272
-0.98881, 145, 109, 208, 140
-0.988881, 1, 1, 128, 128
-0.988897, 73, 225, 104, 352
-0.988923, 97, 193, 224, 256
-0.988939, 233, 305, 296, 368
-0.988961, 245, 1, 276, 128
-0.988996, 301, 225, 332, 352
-0.989032, 25, 57, 88, 120
-0.989035, 65, 241, 128, 304
-0.989051, 185, 117, 248, 148
-0.989058, 145, 25, 272, 88
-0.989084, 241, 297, 272, 360
-0.989089, 165, 33, 196, 160
-0.989114, 17, 241, 48, 304
-0.989118, 273, 353, 336, 416
-0.989128, 37, 281, 68, 344
-0.989146, 41, 273, 104, 336
-0.989184, 33, 193, 96, 224
-0.989199, 321, 233, 352, 296
-0.989205, 73, 1, 136, 64
-0.989206, 297, 129, 360, 384
-0.989242, 193, 9, 256, 72
-0.989276, 65, 189, 128, 220
-0.989359, 121, 169, 184, 200
-0.989362, 225, 369, 352, 496
-0.989365, 305, 273, 368, 304
-0.989411, 89, 201, 120, 264
-0.989442, 1, 289, 128, 416
-0.989452, 17, 57, 144, 120
-0.989461, 61, 241, 92, 368
-0.989463, 101, 1, 132, 128
-0.989499, 57, 329, 120, 392
-0.98952, 81, 65, 144, 128
-0.989546, 273, 289, 336, 320
-0.98961, 49, 241, 80, 368
-0.98967, 249, 49, 312, 176
-0.989675, 161, 1, 288, 64
-0.989688, 129, 1, 160, 128
-0.989718, 313, 285, 375, 316
-0.98972, 105, 185, 168, 216
-0.989727, 105, 9, 168, 72
-0.989804, 265, 269, 328, 300
-0.989834, 249, 217, 280, 280
-0.989859, 273, 309, 336, 340
-0.989863, 105, 217, 168, 280
-0.989911, 193, 73, 320, 136
-0.989926, 265, 1, 328, 500
-0.98994, 193, 129, 256, 160
-0.989961, 241, 301, 304, 332
-0.989982, 113, 113, 144, 240
-0.99004, 105, 197, 168, 228
-0.990081, 165, 97, 196, 224
-0.990097, 113, 157, 176, 188
-0.990097, 249, 33, 312, 288
-0.990119, 265, 209, 296, 272
-0.990122, 281, 321, 344, 352
-0.990141, 81, 1, 208, 64
-0.990151, 17, 217, 80, 248
-0.990158, 97, 137, 352, 200
-0.990191, 1, 185, 375, 248
-0.990241, 145, 41, 208, 104
-0.990352, 193, 137, 224, 200
-0.990371, 65, 185, 320, 248
-0.990405, 313, 461, 375, 492
-0.990495, 145, 137, 176, 200
-0.99051, 33, 1, 96, 256
-0.990515, 289, 1, 352, 500
-0.990518, 153, 33, 184, 160
-0.990539, 193, 105, 256, 136
-0.990604, 241, 285, 304, 316
-0.99064, 345, 177, 375, 304
-0.990649, 233, 1, 296, 64
-0.990664, 313, 369, 375, 432
-0.990716, 129, 181, 192, 212
-0.99072, 181, 49, 212, 176
-0.99075, 57, 273, 120, 400
-0.99077, 313, 421, 375, 452
-0.990773, 9, 97, 72, 224
-0.990791, 265, 73, 328, 136
-0.990794, 57, 201, 120, 232
-0.990804, 217, 153, 280, 184
-0.990811, 97, 113, 352, 176
-0.990843, 41, 241, 104, 272
-0.990859, 81, 201, 144, 232
-0.990866, 145, 161, 208, 192
-0.99087, 177, 157, 240, 188
-0.9909, 145, 125, 208, 156
-0.990921, 225, 17, 352, 80
-0.990927, 1, 1, 64, 128
-0.990931, 17, 161, 48, 288
-0.990942, 17, 241, 80, 272
-0.990957, 145, 81, 208, 144
-0.990958, 33, 333, 96, 364
-0.990969, 305, 261, 368, 292
-0.990976, 113, 1, 144, 128
-0.990984, 57, 321, 88, 384
-0.990988, 17, 97, 144, 160
-0.991002, 169, 145, 232, 176
-0.991045, 257, 257, 320, 288
-0.991083, 1, 161, 128, 224
-0.99111, 113, 113, 176, 144
-0.9912, 225, 209, 288, 240
-0.991201, 249, 49, 280, 176
-0.991205, 161, 1, 224, 128
-0.991234, 313, 249, 375, 280
-0.991236, 249, 313, 312, 344
-0.991241, 209, 141, 272, 172
-0.991244, 297, 301, 360, 332
-0.991251, 89, 113, 120, 240
-0.991268, 225, 105, 288, 136
-0.9913, 81, 213, 144, 244
-0.991305, 49, 249, 176, 312
-0.991327, 49, 229, 112, 260
-0.991368, 41, 253, 104, 284
-0.991395, 97, 217, 224, 280
-0.991398, 25, 113, 88, 176
-0.991398, 233, 273, 296, 304
-0.991414, 9, 193, 72, 224
-0.991442, 5, 201, 36, 264
-0.991491, 1, 161, 375, 224
-0.991505, 1, 229, 64, 260
-0.991551, 57, 217, 120, 248
-0.991572, 129, 193, 192, 224
-0.991576, 101, 209, 132, 336
-0.991595, 305, 405, 368, 436
-0.991597, 5, 257, 36, 320
-0.991614, 257, 221, 320, 252
-0.991629, 313, 317, 375, 348
-0.991679, 1, 217, 375, 280
-0.991685, 225, 245, 288, 276
-0.991686, 137, 149, 200, 180
-0.991691, 25, 281, 56, 344
-0.991692, 45, 305, 76, 432
-0.991698, 217, 197, 280, 228
-0.991732, 145, 137, 208, 168
-0.991744, 33, 345, 96, 376
-0.99176, 153, 273, 216, 400
-0.991764, 257, 325, 320, 356
-0.991773, 41, 181, 104, 212
-0.99179, 65, 65, 192, 128
-0.991822, 209, 49, 240, 176
-0.991834, 1, 289, 64, 320
-0.991835, 89, 161, 152, 192
-0.991837, 289, 465, 352, 496
-0.991852, 281, 425, 344, 488
-0.99188, 201, 169, 264, 200
-0.991907, 49, 305, 176, 368
-0.991907, 169, 129, 232, 160
-0.991913, 225, 221, 288, 252
-0.991944, 225, 121, 288, 152
-0.991944, 289, 177, 352, 304
-0.991947, 17, 253, 80, 284
-0.991996, 65, 161, 96, 224
-0.992038, 313, 393, 375, 424
-0.992043, 185, 89, 216, 152
-0.992068, 81, 97, 144, 128
-0.99207, 333, 217, 364, 280
-0.992076, 225, 257, 288, 288
-0.992103, 265, 241, 328, 272
-0.992106, 129, 185, 160, 216
-0.99211, 281, 217, 344, 280
-0.992114, 113, 137, 176, 168
-0.992125, 289, 337, 352, 368
-0.992127, 201, 181, 264, 212
-0.992128, 217, 153, 280, 216
-0.99214, 153, 161, 184, 224
-0.992154, 105, 213, 168, 244
-0.992165, 9, 205, 72, 236
-0.992173, 265, 177, 296, 304
-0.99219, 13, 281, 44, 344
-0.992206, 145, 1, 208, 32
-0.992212, 313, 433, 375, 464
-0.992226, 1, 469, 64, 500
-0.992229, 225, 233, 288, 264
-0.992248, 113, 125, 176, 156
-0.992249, 9, 265, 72, 296
-0.992256, 1, 341, 64, 372
-0.992257, 281, 257, 344, 288
-0.992262, 133, 169, 164, 200
-0.992275, 321, 289, 352, 416
-0.992277, 241, 145, 304, 208
-0.992299, 1, 161, 32, 288
-0.992348, 105, 101, 168, 132
-0.992351, 129, 113, 256, 144
-0.992354, 65, 241, 128, 272
-0.992354, 1, 113, 64, 144
-0.992356, 77, 249, 108, 312
-0.992365, 37, 209, 68, 240
-0.992373, 213, 113, 244, 144
-0.992385, 121, 169, 152, 200
-0.992385, 69, 193, 100, 224
-0.992395, 229, 145, 260, 208
-0.992399, 217, 301, 280, 332
-0.992413, 113, 197, 144, 228
-0.992423, 49, 57, 112, 120
-0.99243, 169, 97, 232, 128
-0.992431, 221, 97, 252, 160
-0.992437, 1, 321, 256, 448
-0.992471, 313, 1, 375, 500
-0.992478, 329, 249, 360, 280
-0.992478, 345, 277, 375, 308
-0.992481, 37, 197, 68, 228
-0.992497, 261, 285, 292, 316
-0.992511, 93, 169, 124, 200
-0.992523, 325, 269, 356, 300
-0.992524, 25, 57, 88, 88
-0.992534, 41, 269, 104, 300
-0.99256, 341, 261, 372, 292
-0.992568, 289, 353, 352, 384
-0.992571, 345, 233, 375, 264
-0.992575, 257, 201, 320, 232
-0.99258, 293, 317, 324, 348
-0.992591, 281, 425, 344, 456
-0.992595, 341, 249, 372, 280
-0.992596, 9, 305, 72, 336
-0.992605, 25, 229, 88, 260
-0.992643, 241, 173, 304, 204
-0.992649, 41, 169, 104, 200
-0.992656, 109, 173, 140, 204
-0.992657, 81, 229, 144, 260
-0.99266, 201, 109, 232, 140
-0.99266, 169, 209, 232, 336
-0.99266, 333, 461, 364, 492
-0.992663, 313, 237, 375, 268
-0.992668, 57, 205, 88, 236
-0.99268, 25, 117, 88, 148
-0.992686, 73, 217, 104, 248
-0.992689, 333, 289, 364, 352
-0.992692, 49, 193, 80, 224
-0.992698, 65, 261, 128, 292
-0.992716, 205, 133, 236, 164
-0.992722, 189, 117, 220, 148
-0.992735, 277, 313, 308, 344
-0.992747, 105, 225, 168, 352
-0.992747, 49, 305, 176, 432
-0.992751, 321, 461, 352, 492
-0.992759, 201, 441, 264, 472
-0.992761, 17, 1, 144, 64
-0.992764, 265, 265, 296, 296
-0.99277, 217, 149, 248, 180
-0.992773, 21, 221, 52, 252
-0.992778, 1, 321, 64, 352
-0.992787, 129, 249, 375, 312
-0.992792, 313, 449, 375, 480
-0.992809, 345, 409, 375, 440
-0.992811, 285, 285, 316, 316
-0.992811, 305, 225, 368, 256
-0.992815, 97, 205, 128, 236
-0.992819, 9, 277, 72, 308
-0.992837, 1, 433, 64, 496
-0.992858, 241, 353, 368, 416
-0.992858, 313, 329, 375, 360
-0.992858, 297, 301, 328, 332
-0.992868, 129, 97, 192, 128
-0.99287, 205, 157, 236, 188
-0.992873, 177, 109, 208, 140
-0.992883, 153, 105, 184, 136
-0.992885, 301, 273, 332, 304
-0.992886, 209, 93, 272, 124
-0.992886, 333, 237, 364, 268
-0.992888, 341, 289, 372, 320
-0.992891, 121, 209, 152, 336
-0.992897, 145, 169, 176, 200
-0.992898, 313, 281, 344, 312
-0.992898, 313, 345, 375, 376
-0.9929, 345, 421, 375, 452
-0.992905, 281, 453, 344, 484
-0.992909, 9, 229, 40, 260
-0.992911, 49, 181, 176, 212
-0.992925, 65, 337, 128, 368
-0.992926, 249, 189, 312, 220
-0.992929, 81, 181, 112, 212
-0.992934, 73, 205, 104, 236
-0.992942, 273, 409, 336, 440
-0.992955, 41, 185, 56, 248
-0.992961, 233, 69, 296, 100
-0.992966, 145, 13, 208, 44
-0.992969, 125, 197, 156, 228
-0.992971, 241, 349, 304, 380
-0.992971, 49, 329, 80, 360
-0.992972, 113, 185, 144, 216
-0.992972, 285, 297, 316, 328
-0.992987, 265, 337, 328, 368
-0.992987, 249, 321, 312, 448
-0.992987, 133, 157, 164, 188
-0.992987, 253, 273, 284, 304
-0.992989, 89, 217, 120, 248
-0.993, 229, 101, 260, 132
-0.993002, 41, 237, 72, 268
-0.993016, 325, 281, 356, 312
-0.993022, 317, 409, 348, 472
-0.993023, 201, 145, 232, 176
-0.993028, 217, 169, 248, 200
-0.993036, 25, 197, 56, 228
-0.993044, 29, 241, 60, 272
-0.993045, 133, 161, 148, 224
-0.993046, 217, 125, 248, 156
-0.99305, 269, 301, 300, 332
-0.993053, 289, 333, 320, 364
-0.993056, 1, 281, 128, 344
-0.993058, 177, 161, 304, 224
-0.993073, 277, 325, 308, 356
-0.993077, 69, 181, 100, 212
-0.993079, 61, 225, 92, 256
-0.993079, 17, 353, 80, 416
-0.993085, 153, 173, 216, 204
-0.993087, 81, 9, 144, 40
-0.993089, 309, 429, 340, 460
-0.99309, 185, 29, 248, 60
-0.993095, 17, 137, 144, 200
-0.993097, 165, 105, 196, 136
-0.993099, 105, 9, 168, 40
-0.993105, 25, 209, 56, 240
-0.993107, 145, 49, 208, 80
-0.993109, 193, 41, 256, 72
-0.993117, 309, 405, 340, 436
-0.993119, 281, 273, 312, 304
-0.993127, 237, 301, 268, 332
-0.993129, 133, 117, 164, 148
-0.993133, 49, 253, 80, 284
-0.993134, 313, 257, 344, 288
-0.993138, 233, 29, 296, 60
-0.993152, 313, 305, 344, 336
-0.993153, 233, 185, 264, 216
-0.993155, 345, 301, 375, 332
-0.993167, 217, 137, 248, 168
-0.993168, 145, 157, 176, 188
-0.993174, 29, 277, 60, 308
-0.99318, 45, 181, 76, 212
-0.993181, 313, 269, 344, 300
-0.993182, 81, 193, 112, 224
-0.993182, 265, 253, 296, 284
-0.993186, 249, 209, 280, 240
-0.993188, 345, 397, 375, 428
-0.99319, 37, 337, 68, 368
-0.993191, 305, 317, 336, 348
-0.993193, 25, 465, 56, 496
-0.993194, 209, 269, 272, 300
-0.993195, 321, 425, 352, 456
-0.993197, 193, 17, 256, 48
-0.993202, 141, 189, 172, 220
-0.993207, 33, 289, 64, 320
-0.993208, 265, 241, 296, 272
-0.993222, 333, 417, 364, 448
-0.993223, 249, 237, 280, 268
-0.993224, 265, 313, 296, 344
-0.993224, 345, 457, 375, 488
-0.993226, 253, 253, 284, 284
-0.993227, 189, 129, 220, 160
-0.993227, 229, 133, 260, 164
-0.993233, 129, 125, 256, 156
-0.993235, 265, 221, 296, 252
-0.993236, 297, 285, 328, 316
-0.99324, 109, 209, 140, 240
-0.993244, 105, 145, 136, 208
-0.993246, 13, 293, 44, 324
-0.993248, 113, 157, 144, 188
-0.993252, 17, 249, 48, 280
-0.993256, 57, 237, 88, 268
-0.993256, 229, 445, 260, 476
-0.993257, 85, 205, 116, 236
-0.993258, 241, 197, 272, 228
-0.99326, 265, 193, 328, 256
-0.993262, 317, 293, 348, 324
-0.993264, 249, 285, 280, 316
-0.993267, 273, 285, 304, 316
-0.993271, 333, 405, 364, 436
-0.993279, 97, 217, 352, 280
-0.993301, 249, 305, 280, 336
-0.993308, 309, 469, 340, 500
-0.993323, 133, 137, 164, 168
-0.993325, 321, 397, 352, 428
-0.993328, 249, 221, 280, 252
-0.993334, 33, 221, 64, 252
-0.993334, 189, 97, 220, 128
-0.993334, 241, 113, 272, 240
-0.993342, 69, 265, 100, 296
-0.993346, 301, 329, 332, 360
-0.993346, 241, 17, 272, 80
-0.993351, 193, 33, 256, 96
-0.993352, 153, 145, 184, 176
-0.993354, 89, 229, 120, 260
-0.993358, 13, 461, 44, 492
-0.993361, 337, 313, 368, 344
-0.993363, 21, 305, 52, 368
-0.993365, 345, 433, 375, 464
-0.993366, 49, 221, 80, 252
-0.993372, 345, 369, 375, 432
-0.993465, 79, 185, 94, 248
-0.993467, 253, 97, 284, 224
-0.993476, 53, 49, 84, 176
-0.993526, 129, 157, 256, 188
-0.993537, 241, 265, 368, 296
-0.993551, 161, 201, 224, 264
-0.993564, 253, 65, 284, 128
-0.993608, 345, 337, 375, 464
-0.993668, 1, 105, 256, 168
-0.993729, 53, 257, 84, 320
-0.993735, 33, 49, 64, 176
-0.993775, 49, 25, 176, 88
-0.993801, 211, 105, 226, 168
-0.993864, 49, 297, 80, 360
-0.993874, 121, 169, 136, 232
-0.993889, 197, 49, 228, 176
-0.993941, 347, 233, 362, 296
-0.993948, 221, 105, 236, 168
-0.993966, 241, 253, 368, 284
-0.994003, 241, 377, 368, 440
-0.994023, 129, 137, 256, 168
-0.994038, 1, 113, 375, 176
-0.994038, 129, 169, 256, 200
-0.99405, 161, 297, 288, 360
-0.994061, 33, 329, 64, 392
-0.994081, 277, 281, 292, 344
-0.994088, 333, 313, 364, 376
-0.9941, 197, 81, 228, 144
-0.994118, 33, 209, 160, 240
-0.994193, 241, 73, 368, 136
-0.994198, 269, 65, 300, 128
-0.994218, 127, 161, 142, 224
-0.994245, 315, 393, 330, 456
-0.99425, 139, 161, 154, 224
-0.99425, 61, 201, 76, 264
-0.994253, 33, 197, 160, 228
-0.994261, 229, 137, 244, 200
-0.994278, 17, 49, 48, 176
-0.994294, 109, 1, 140, 64
-0.994323, 205, 105, 220, 168
-0.994356, 89, 169, 104, 232
-0.994365, 25, 81, 88, 144
-0.994365, 185, 225, 248, 288
-0.994385, 361, 225, 375, 288
-0.994397, 41, 257, 72, 320
-0.994411, 33, 209, 48, 272
-0.994467, 81, 225, 144, 480
-0.994486, 1, 209, 256, 272
-0.99449, 65, 257, 96, 320
-0.994514, 49, 201, 64, 264
-0.994517, 321, 313, 352, 376
-0.994554, 69, 321, 100, 384
-0.994569, 293, 337, 324, 400
-0.994576, 55, 201, 70, 264
-0.994585, 145, 321, 208, 448
-0.994666, 269, 257, 284, 320
-0.994688, 129, 49, 256, 112
-0.99472, 17, 161, 80, 224
-0.994727, 345, 321, 375, 384
-0.994732, 233, 265, 264, 328
-0.99478, 321, 353, 352, 480
-0.994785, 241, 237, 368, 268
-0.994785, 319, 273, 334, 336
-0.994792, 241, 225, 368, 256
-0.994806, 109, 161, 124, 224
-0.994817, 287, 297, 302, 360
-0.994825, 81, 169, 208, 200
-0.99483, 173, 9, 204, 72
-0.994859, 115, 169, 130, 232
-0.994869, 1, 73, 64, 136
-0.994884, 21, 225, 36, 288
-0.994887, 227, 105, 242, 168
-0.994918, 249, 345, 312, 408
-0.994921, 265, 185, 296, 248
-0.994927, 65, 129, 128, 192
-0.994928, 299, 313, 314, 376
-0.994942, 69, 185, 84, 248
-0.994953, 209, 225, 272, 352
-0.994997, 357, 249, 372, 312
-0.994999, 27, 217, 42, 280
-0.995, 1, 137, 375, 200
-0.995013, 129, 241, 256, 304
-0.995036, 257, 1, 320, 64
-0.995045, 145, 185, 176, 248
-0.995074, 1, 281, 32, 344
-0.995098, 13, 1, 44, 128
-0.995112, 129, 305, 375, 368
-0.995125, 147, 161, 162, 224
-0.995133, 223, 145, 238, 208
-0.995179, 155, 105, 170, 168
-0.995186, 313, 273, 328, 336
-0.995209, 129, 89, 375, 152
-0.995212, 197, 121, 212, 184
-0.995216, 345, 201, 375, 264
-0.995222, 301, 433, 332, 496
-0.99528, 241, 309, 368, 340
-0.995292, 345, 393, 360, 456
-0.99531, 41, 209, 56, 272
-0.995335, 1, 245, 128, 276
-0.995354, 361, 281, 375, 344
-0.995368, 133, 81, 164, 144
-0.995372, 191, 113, 206, 176
-0.995394, 225, 285, 352, 316
-0.995395, 11, 225, 26, 288
-0.995396, 263, 273, 278, 336
-0.995416, 257, 1, 288, 128
-0.99543, 153, 161, 168, 224
-0.995445, 233, 73, 264, 136
-0.995451, 77, 1, 108, 128
-0.995465, 269, 281, 284, 344
-0.995476, 129, 273, 375, 336
-0.995481, 1, 129, 256, 192
-0.995502, 103, 161, 118, 224
-0.995504, 5, 257, 36, 384
-0.995531, 37, 113, 68, 240
-0.995532, 225, 41, 352, 104
-0.995542, 241, 273, 272, 400
-0.995549, 81, 1, 112, 64
-0.995561, 261, 209, 276, 272
-0.995576, 1, 337, 64, 464
-0.995583, 353, 401, 368, 464
-0.995612, 51, 241, 66, 304
-0.995612, 333, 241, 348, 304
-0.995653, 185, 105, 200, 168
-0.995655, 37, 49, 68, 112
-0.995665, 309, 401, 324, 464
-0.995681, 361, 393, 375, 456
-0.995693, 359, 433, 374, 496
-0.995734, 253, 1, 284, 64
-0.995746, 165, 81, 196, 144
-0.995749, 307, 273, 322, 336
-0.995764, 253, 145, 284, 272
-0.995773, 97, 25, 224, 88
-0.995817, 17, 433, 144, 496
-0.995832, 1, 221, 128, 252
-0.995842, 345, 417, 360, 480
-0.995856, 137, 193, 200, 448
-0.995859, 9, 305, 40, 432
-0.995861, 147, 137, 162, 200
-0.995863, 339, 249, 354, 312
-0.995868, 129, 161, 375, 224
-0.995877, 97, 161, 112, 224
-0.995892, 129, 329, 375, 392
-0.995895, 313, 297, 328, 360
-0.995903, 355, 273, 370, 336
-0.995903, 317, 425, 332, 488
-0.995985, 1, 241, 375, 304
-0.995992, 325, 273, 340, 336
-0.996, 265, 401, 328, 464
-0.99602, 287, 321, 302, 384
-0.996021, 293, 281, 308, 344
-0.996025, 129, 217, 192, 280
-0.996053, 81, 49, 112, 176
-0.996068, 211, 129, 226, 192
-0.99607, 145, 185, 160, 248
-0.996076, 65, 101, 192, 132
-0.996084, 63, 225, 78, 288
-0.996087, 81, 197, 208, 228
-0.996087, 117, 49, 148, 176
-0.996094, 313, 97, 375, 224
-0.996117, 311, 425, 326, 488
-0.996133, 153, 233, 216, 296
-0.996138, 127, 193, 142, 256
-0.996153, 209, 297, 336, 328
-0.996163, 353, 225, 368, 288
-0.996164, 321, 393, 336, 456
-0.996192, 85, 201, 100, 264
-0.996194, 213, 97, 244, 352
-0.99622, 1, 65, 32, 192
-0.996232, 193, 137, 320, 168
-0.996233, 193, 149, 320, 180
-0.996253, 113, 193, 128, 256
-0.996264, 217, 129, 232, 192
-0.996273, 177, 49, 304, 112
-0.996273, 193, 433, 320, 496
-0.996275, 89, 241, 152, 304
-0.996277, 1, 297, 375, 360
-0.996281, 321, 361, 352, 424
-0.996283, 177, 217, 304, 248
-0.996283, 97, 209, 112, 272
-0.996287, 69, 105, 100, 168
-0.996297, 33, 305, 64, 368
-0.9963, 65, 125, 192, 156
-0.996323, 263, 249, 278, 312
-0.996338, 71, 209, 86, 272
-0.996339, 257, 273, 272, 336
-0.996359, 61, 321, 76, 384
-0.996382, 293, 305, 308, 368
-0.996392, 305, 305, 320, 368
-0.996398, 349, 281, 364, 344
-0.9964, 169, 17, 232, 80
-0.996408, 49, 225, 176, 256
-0.996432, 81, 273, 112, 400
-0.996433, 201, 249, 264, 312
-0.996433, 65, 33, 320, 96
-0.996433, 89, 137, 120, 200
-0.996439, 1, 369, 128, 496
-0.996459, 49, 345, 80, 408
-0.996463, 177, 321, 304, 448
-0.996464, 1, 225, 16, 288
-0.996465, 97, 57, 352, 120
-0.996482, 43, 329, 58, 392
-0.996492, 309, 257, 340, 500
-0.996509, 65, 157, 192, 188
-0.996514, 13, 73, 44, 136
-0.996527, 153, 81, 184, 144
-0.996533, 209, 121, 336, 152
-0.996554, 329, 225, 360, 480
-0.996557, 161, 205, 288, 236
-0.996558, 233, 169, 248, 232
-0.996567, 177, 269, 304, 300
-0.996574, 109, 57, 140, 120
-0.996577, 239, 177, 254, 240
-0.996579, 25, 161, 56, 416
-0.996583, 269, 65, 300, 192
-0.996632, 253, 193, 268, 256
-0.996638, 49, 113, 176, 144
-0.996642, 129, 101, 256, 132
-0.99665, 49, 1, 112, 64
-0.996661, 349, 257, 364, 320
-0.996664, 145, 185, 272, 216
-0.996665, 137, 193, 200, 256
-0.996698, 57, 249, 72, 312
-0.996708, 51, 177, 66, 240
-0.996713, 17, 341, 144, 372
-0.996726, 235, 97, 250, 160
-0.996728, 179, 105, 194, 168
-0.996729, 247, 185, 262, 248
-0.996732, 133, 17, 164, 80
-0.996734, 345, 225, 375, 480
-0.996737, 339, 393, 354, 456
-0.99674, 193, 1, 256, 128
-0.996751, 103, 201, 118, 264
-0.996756, 55, 321, 70, 384
-0.99676, 177, 281, 304, 312
-0.996764, 287, 273, 302, 336
-0.996767, 119, 193, 134, 256
-0.996768, 93, 65, 124, 128
-0.996782, 29, 273, 44, 336
-0.996784, 69, 161, 100, 416
-0.996786, 141, 1, 172, 128
-0.996787, 247, 289, 262, 352
-0.996792, 41, 197, 56, 228
-0.996793, 97, 129, 128, 384
-0.996801, 45, 97, 76, 352
-0.996803, 137, 185, 152, 248
-0.996807, 1, 49, 64, 112
-0.996838, 81, 209, 208, 240
-0.996866, 49, 193, 80, 448
-0.996878, 317, 177, 348, 304
-0.996886, 323, 241, 338, 304
-0.996887, 275, 249, 290, 312
-0.996905, 177, 241, 304, 272
-0.996905, 35, 185, 50, 248
-0.996906, 37, 193, 68, 448
-0.996914, 81, 161, 112, 416
-0.996916, 209, 105, 336, 136
-0.996933, 65, 329, 192, 392
-0.996936, 129, 189, 144, 220
-0.996946, 201, 281, 264, 344
-0.996958, 297, 353, 328, 480
-0.997007, 89, 225, 104, 288
-0.99701, 57, 225, 72, 288
-0.99701, 253, 297, 268, 360
-0.997019, 281, 305, 296, 368
-0.997022, 65, 141, 192, 172
-0.997029, 69, 161, 84, 224
-0.997034, 305, 345, 368, 408
-0.997035, 135, 137, 150, 200
-0.997036, 315, 429, 330, 460
-0.997042, 359, 305, 374, 368
-0.997055, 197, 89, 212, 152
-0.997056, 225, 449, 352, 480
-0.997057, 225, 177, 352, 208
-0.997057, 257, 97, 320, 160
-0.997077, 357, 277, 372, 308
-0.997079, 177, 229, 304, 260
-0.997083, 1, 81, 256, 144
-0.997087, 315, 249, 330, 312
-0.997088, 79, 193, 94, 224
-0.997096, 43, 233, 58, 296
-0.997105, 225, 329, 352, 360
-0.997107, 71, 193, 86, 224
-0.997114, 1, 305, 128, 368
-0.997119, 137, 169, 152, 200
-0.997126, 299, 273, 314, 336
-0.997128, 205, 129, 220, 192
-0.997131, 353, 377, 368, 440
-0.997143, 75, 161, 90, 224
-0.997145, 127, 169, 142, 200
-0.997158, 225, 197, 352, 228
-0.997163, 1, 233, 256, 296
-0.99718, 49, 321, 64, 384
-0.997181, 297, 257, 328, 500
-0.997198, 1, 1, 256, 64
-0.997198, 13, 193, 44, 448
-0.997204, 21, 249, 36, 312
-0.997204, 121, 97, 152, 352
-0.997207, 129, 265, 256, 328
-0.997212, 273, 321, 304, 448
-0.997214, 245, 161, 276, 416
-0.997215, 331, 265, 346, 328
-0.997218, 133, 129, 164, 384
-0.997219, 33, 169, 160, 200
-0.997223, 233, 161, 264, 416
-0.997224, 147, 113, 162, 176
-0.997225, 213, 209, 244, 336
-0.997231, 319, 305, 334, 368
-0.997248, 219, 153, 234, 184
-0.997263, 293, 329, 308, 392
-0.997271, 15, 249, 30, 312
-0.997272, 133, 1, 164, 256
-0.997275, 235, 137, 250, 200
-0.99728, 97, 181, 224, 212
-0.997281, 149, 97, 180, 352
-0.997286, 143, 177, 158, 208
-0.997288, 265, 257, 296, 500
-0.997293, 353, 433, 368, 496
-0.997298, 1, 321, 256, 384
-0.99731, 339, 225, 354, 288
-0.997311, 209, 165, 336, 196
-0.997321, 271, 209, 286, 272
-0.997335, 241, 465, 368, 496
-0.997361, 269, 233, 284, 296
-0.997361, 37, 241, 52, 304
-0.997363, 201, 145, 232, 272
-0.997367, 201, 97, 232, 352
-0.997369, 1, 257, 128, 288
-0.997381, 267, 265, 282, 296
-0.997382, 241, 213, 368, 244
-0.997383, 135, 181, 150, 212
-0.997383, 355, 265, 370, 296
-0.997389, 273, 137, 336, 200
-0.99739, 229, 65, 260, 320
-0.997402, 41, 209, 56, 240
-0.997404, 181, 97, 212, 352
-0.997416, 347, 249, 362, 280
-0.997431, 281, 113, 344, 240
-0.997439, 277, 285, 292, 316
-0.997454, 361, 261, 375, 292
-0.997455, 65, 197, 80, 228
-0.997468, 69, 65, 100, 320
-0.997468, 121, 177, 136, 208
-0.997476, 357, 289, 372, 320
-0.997483, 193, 257, 320, 288
-0.997483, 97, 257, 224, 384
-0.997489, 145, 425, 272, 488
-0.99749, 33, 433, 96, 496
-0.99749, 201, 117, 216, 148
-0.997503, 93, 213, 108, 244
-0.997503, 33, 33, 96, 96
-0.997512, 349, 261, 364, 292
-0.997521, 135, 193, 150, 224
-0.997532, 99, 213, 114, 244
-0.997533, 119, 193, 134, 224
-0.997543, 281, 49, 344, 112
-0.99755, 1, 265, 256, 328
-0.997551, 1, 193, 32, 448
-0.997554, 109, 169, 124, 200
-0.997573, 309, 369, 340, 496
-0.997577, 161, 33, 192, 288
-0.997577, 31, 221, 46, 252
-0.997578, 109, 65, 140, 320
-0.997582, 293, 313, 308, 344
-0.997594, 1, 233, 128, 264
-0.9976, 349, 233, 364, 264
-0.997609, 41, 185, 56, 216
-0.997611, 1, 25, 64, 88
-0.99762, 33, 329, 160, 360
-0.997621, 227, 117, 242, 148
-0.997636, 207, 113, 222, 144
-0.997637, 145, 45, 272, 76
-0.997641, 149, 173, 164, 204
-0.997651, 17, 353, 144, 416
-0.997651, 155, 109, 170, 140
-0.997654, 193, 201, 256, 264
-0.99766, 121, 41, 184, 104
-0.997665, 309, 433, 324, 464
-0.997673, 361, 237, 375, 268
-0.997678, 177, 1, 208, 256
-0.997696, 109, 161, 140, 416
-0.997699, 333, 253, 348, 284
-0.997723, 215, 109, 230, 140
-0.997723, 329, 273, 344, 304
-0.997728, 359, 249, 374, 280
-0.997732, 57, 65, 88, 320
-0.997734, 193, 117, 208, 148
-0.997738, 49, 193, 64, 224
-0.997743, 233, 225, 264, 352
-0.997751, 225, 145, 240, 176
-0.997762, 351, 281, 366, 312
-0.997769, 89, 177, 104, 208
-0.997769, 103, 201, 118, 232
-0.997773, 185, 109, 200, 140
-0.997773, 149, 1, 180, 256
-0.997779, 25, 65, 56, 320
-0.99778, 303, 321, 318, 352
-0.997788, 333, 461, 348, 492
-0.997807, 1, 185, 128, 216
-0.997824, 281, 309, 296, 340
-0.997827, 249, 297, 264, 328
-0.997853, 129, 369, 375, 496
-0.997856, 339, 253, 354, 284
-0.997859, 105, 213, 120, 244
-0.997877, 49, 209, 64, 240
-0.997901, 145, 189, 160, 220
-0.997919, 33, 289, 64, 416
-0.997926, 319, 281, 334, 312
-0.997926, 161, 9, 288, 40
-0.997931, 355, 233, 370, 264
-0.997941, 347, 461, 362, 492
-0.997945, 51, 241, 66, 272
-0.997953, 1, 17, 32, 144
-0.997955, 325, 465, 340, 496
-0.997959, 97, 1, 352, 64
-0.997961, 147, 161, 162, 192
-0.997964, 155, 169, 170, 200
-0.99797, 65, 49, 96, 176
-0.997978, 339, 461, 354, 492
-0.997979, 339, 265, 354, 296
-0.997982, 241, 437, 368, 468
-0.997983, 315, 413, 330, 444
-0.997984, 17, 101, 144, 132
-0.997987, 73, 205, 88, 236
-0.997993, 287, 313, 302, 344
-0.997993, 87, 213, 102, 244
-0.997995, 111, 201, 126, 232
-0.998001, 289, 301, 304, 332
-0.998001, 57, 205, 72, 236
-0.998003, 241, 1, 272, 256
-0.998003, 299, 309, 314, 340
-0.998009, 1, 273, 375, 336
-0.998023, 177, 1, 208, 128
-0.998023, 61, 233, 76, 264
-0.998027, 81, 65, 112, 320
-0.998034, 169, 145, 200, 272
-0.998046, 193, 313, 320, 344
-0.998051, 315, 401, 330, 432
-0.998051, 223, 165, 238, 196
-0.998059, 19, 229, 34, 260
-0.998061, 43, 337, 58, 368
-0.998073, 287, 285, 302, 316
-0.998081, 101, 169, 116, 200
-0.998088, 345, 277, 360, 308
-0.998092, 221, 109, 236, 140
-0.998093, 95, 225, 110, 256
-0.998096, 129, 241, 192, 368
-0.998104, 25, 97, 56, 224
-0.998106, 17, 65, 144, 96
-0.998108, 95, 169, 110, 200
-0.99811, 13, 97, 44, 352
-0.998123, 41, 237, 56, 268
-0.998135, 313, 273, 328, 304
-0.998141, 261, 281, 276, 312
-0.998146, 153, 273, 216, 336
-0.99815, 269, 285, 284, 316
-0.998156, 79, 205, 94, 236
-0.99816, 1, 33, 128, 96
-0.998162, 211, 145, 226, 176
-0.998174, 339, 237, 354, 268
-0.998174, 65, 209, 80, 240
-0.998175, 323, 269, 338, 300
-0.998181, 255, 301, 270, 332
-0.998187, 161, 25, 288, 56
-0.998192, 285, 193, 316, 448
-0.998193, 309, 301, 324, 332
-0.998195, 201, 209, 232, 336
-0.998195, 309, 321, 324, 352
-0.998204, 81, 13, 208, 44
-0.998205, 263, 253, 278, 284
-0.998206, 83, 181, 98, 212
-0.998208, 1, 97, 32, 352
-0.998213, 243, 301, 258, 332
-0.998214, 239, 181, 254, 212
-0.998229, 361, 433, 375, 464
-0.998235, 1, 293, 128, 324
-0.998237, 247, 189, 262, 220
-0.998243, 321, 429, 336, 460
-0.998248, 253, 305, 284, 432
-0.998249, 319, 465, 334, 496
-0.998252, 207, 129, 222, 160
-0.998258, 35, 209, 50, 240
-0.998259, 201, 57, 264, 120
-0.998268, 315, 441, 330, 472
-0.998268, 313, 161, 344, 416
-0.998269, 255, 201, 270, 232
-0.99827, 213, 157, 228, 188
-0.998272, 297, 325, 312, 356
-0.998285, 113, 241, 176, 304
-0.998287, 241, 409, 368, 440
-0.998289, 129, 201, 144, 232
-0.998295, 193, 369, 320, 432
-0.998297, 25, 225, 40, 256
-0.998304, 49, 237, 176, 268
-0.998317, 115, 169, 130, 200
-0.998317, 89, 201, 104, 232
-0.998318, 97, 201, 112, 232
-0.998321, 1, 321, 375, 384
-0.998329, 177, 453, 304, 484
-0.998329, 287, 325, 302, 356
-0.998343, 233, 177, 248, 208
-0.998354, 69, 221, 84, 252
-0.998354, 261, 217, 276, 248
-0.998356, 29, 293, 44, 324
-0.998359, 353, 409, 368, 440
-0.998361, 339, 281, 354, 312
-0.998363, 241, 89, 368, 120
-0.998364, 281, 321, 296, 352
-0.998367, 151, 189, 166, 220
-0.998369, 265, 319, 296, 334
-0.998369, 81, 177, 144, 192
-0.998369, 57, 219, 88, 234
-0.99837, 297, 283, 328, 298
-0.998373, 309, 297, 340, 312
-0.998375, 271, 253, 286, 284
-0.998376, 329, 291, 360, 306
-0.998377, 341, 399, 372, 414
-0.998377, 93, 209, 124, 224
-0.998377, 249, 221, 280, 236
-0.998378, 301, 331, 332, 346
-0.998378, 245, 279, 276, 294
-0.998378, 25, 211, 56, 226
-0.998379, 17, 225, 48, 240
-0.998379, 309, 289, 340, 304
-0.99838, 333, 407, 364, 422
-0.998382, 125, 199, 156, 214
-0.998383, 293, 337, 324, 352
-0.998383, 69, 189, 100, 204
-0.998386, 17, 287, 48, 302
-0.998386, 321, 265, 352, 280
-0.998387, 329, 429, 360, 444
-0.998387, 201, 161, 232, 176
-0.998391, 225, 345, 352, 376
-0.998393, 197, 105, 212, 136
-0.998393, 297, 307, 328, 322
-0.998393, 117, 169, 148, 184
-0.998393, 185, 115, 248, 130
-0.998394, 245, 453, 260, 484
-0.998394, 105, 209, 136, 224
-0.998394, 149, 169, 180, 184
-0.998394, 51, 253, 66, 284
-0.998395, 75, 181, 90, 212
-0.998396, 345, 303, 375, 318
-0.998396, 217, 123, 248, 138
-0.998398, 209, 141, 240, 156
-0.998398, 13, 225, 28, 256
-0.998399, 141, 181, 172, 196
-0.998399, 321, 403, 352, 418
-0.9984, 189, 107, 220, 122
-0.998401, 249, 261, 280, 276
-0.998401, 225, 107, 256, 122
-0.998402, 197, 129, 228, 144
-0.998402, 49, 225, 80, 240
-0.998404, 309, 283, 340, 298
-0.998404, 25, 205, 56, 220
-0.998405, 345, 411, 375, 426
-0.998405, 265, 255, 296, 270
-0.998405, 285, 285, 316, 300
-0.998406, 181, 119, 212, 134
-0.998406, 33, 269, 160, 300
-0.998407, 49, 239, 80, 254
-0.998408, 297, 295, 328, 310
-0.998411, 217, 157, 248, 172
-0.998411, 101, 65, 132, 192
-0.998412, 325, 249, 356, 264
-0.998412, 25, 199, 56, 214
-0.998413, 261, 269, 292, 284
-0.998414, 301, 277, 332, 292
-0.998414, 329, 423, 360, 438
-0.998415, 61, 227, 92, 242
-0.998415, 285, 307, 316, 322
-0.998417, 181, 113, 212, 128
-0.99842, 333, 243, 364, 258
-0.99842, 89, 203, 120, 218
-0.99842, 345, 417, 375, 432
-0.998421, 145, 111, 208, 126
-0.998421, 345, 243, 375, 258
-0.998422, 5, 229, 36, 244
-0.998422, 65, 209, 96, 224
-0.998423, 133, 115, 164, 130
-0.998424, 209, 167, 240, 182
-0.998425, 237, 299, 268, 314
-0.998429, 301, 321, 332, 336
-0.998432, 325, 465, 356, 480
-0.998434, 209, 135, 240, 150
-0.998434, 229, 451, 260, 466
-0.998435, 269, 313, 300, 328
-0.998435, 273, 329, 304, 344
-0.998436, 25, 203, 88, 218
-0.998437, 129, 205, 160, 220
-0.998437, 77, 207, 108, 222
-0.998441, 101, 203, 132, 218
-0.998442, 217, 129, 248, 144
-0.998443, 285, 299, 316, 314
-0.998443, 97, 171, 160, 186
-0.998444, 313, 271, 344, 286
-0.998444, 53, 331, 84, 346
-0.998445, 193, 117, 224, 132
-0.998446, 93, 215, 124, 230
-0.998448, 81, 221, 112, 236
-0.998453, 153, 109, 184, 124
-0.998453, 165, 109, 196, 124
-0.998455, 97, 1, 224, 32
-0.998455, 37, 195, 68, 210
-0.998457, 313, 427, 344, 442
-0.998458, 337, 129, 368, 384
-0.998459, 69, 221, 100, 236
-0.99846, 277, 323, 308, 338
-0.998461, 265, 377, 328, 440
-0.998462, 137, 165, 168, 180
-0.998462, 193, 133, 256, 148
-0.998464, 341, 273, 372, 288
-0.998465, 33, 243, 64, 258
-0.998467, 73, 41, 136, 104
-0.99847, 341, 291, 372, 306
-0.998471, 281, 291, 312, 306
-0.998474, 33, 197, 96, 212
-0.998474, 345, 429, 375, 444
-0.998475, 273, 305, 336, 320
-0.998475, 273, 315, 336, 330
-0.998479, 329, 255, 360, 270
-0.99848, 25, 221, 88, 236
-0.99848, 53, 209, 84, 224
-0.998481, 273, 295, 336, 310
-0.998481, 289, 331, 320, 346
-0.998481, 49, 193, 80, 208
-0.998482, 305, 405, 336, 420
-0.998482, 121, 171, 184, 186
-0.998484, 117, 185, 148, 200
-0.998484, 329, 281, 360, 296
-0.998486, 313, 467, 344, 482
-0.998487, 313, 283, 375, 298
-0.998488, 281, 315, 312, 330
-0.99849, 297, 313, 328, 328
-0.99849, 177, 325, 304, 356
-0.998491, 129, 193, 160, 208
-0.998495, 345, 237, 375, 252
-0.998495, 49, 199, 80, 214
-0.998497, 305, 277, 368, 292
-0.998498, 345, 423, 375, 438
-0.998499, 313, 405, 375, 420
-0.9985, 273, 289, 336, 304
-0.998501, 65, 195, 128, 210
-0.998502, 33, 191, 96, 206
-0.998506, 265, 287, 296, 302
-0.998506, 41, 209, 104, 224
-0.998509, 113, 199, 144, 214
-0.998509, 121, 181, 184, 196
-0.998513, 29, 221, 60, 236
-0.998513, 141, 175, 172, 190
-0.998513, 193, 127, 256, 142
-0.998514, 313, 89, 375, 152
-0.998515, 241, 305, 304, 320
-0.998516, 109, 175, 140, 190
-0.998517, 17, 353, 144, 384
-0.998517, 345, 285, 375, 300
-0.998518, 193, 121, 256, 136
-0.99852, 345, 267, 375, 282
-0.998522, 341, 259, 372, 274
-0.998523, 305, 269, 368, 284
-0.998523, 129, 179, 160, 194
-0.998523, 117, 205, 148, 220
-0.998525, 89, 177, 120, 192
-0.998526, 273, 283, 336, 298
-0.998527, 345, 279, 375, 294
-0.998528, 345, 405, 375, 420
-0.998529, 177, 73, 304, 104
-0.998529, 257, 277, 320, 292
-0.998529, 81, 215, 112, 230
-0.998529, 289, 321, 320, 336
-0.99853, 81, 185, 144, 200
-0.99853, 33, 215, 96, 230
-0.998532, 105, 199, 168, 214
-0.998534, 305, 289, 368, 304
-0.998537, 89, 205, 152, 220
-0.998537, 241, 5, 368, 36
-0.998539, 65, 205, 128, 220
-0.998539, 105, 189, 168, 204
-0.998543, 69, 195, 100, 210
-0.998545, 169, 193, 200, 320
-0.998545, 61, 203, 92, 218
-0.998547, 37, 215, 68, 230
-0.998551, 329, 275, 360, 290
-0.998551, 337, 249, 368, 264
-0.998552, 95, 161, 110, 288
-0.998553, 333, 265, 364, 280
-0.998554, 113, 165, 176, 180
-0.998555, 145, 117, 208, 132
-0.998555, 249, 313, 312, 328
-0.998557, 273, 321, 336, 336
-0.998558, 305, 427, 368, 442
-0.99856, 189, 145, 220, 272
-0.998561, 313, 463, 375, 478
-0.998562, 257, 267, 320, 282
-0.998565, 17, 227, 80, 242
-0.998567, 233, 285, 296, 300
-0.998567, 193, 139, 256, 154
-0.998568, 33, 335, 96, 350
-0.998571, 1, 49, 375, 112
-0.998573, 225, 21, 352, 52
-0.998574, 177, 163, 240, 178
-0.998574, 37, 207, 68, 222
-0.998578, 305, 295, 368, 310
-0.998578, 241, 297, 304, 312
-0.998583, 313, 251, 375, 266
-0.998583, 25, 1, 88, 128
-0.998584, 73, 171, 136, 186
-0.998586, 133, 187, 164, 202
-0.998587, 217, 109, 280, 124
-0.998592, 153, 137, 216, 152
-0.998594, 37, 201, 68, 216
-0.998596, 185, 109, 248, 124
-0.998596, 41, 243, 104, 258
-0.998599, 297, 309, 360, 324
-0.998599, 257, 97, 288, 352
-0.998601, 129, 171, 160, 186
-0.998603, 225, 263, 288, 278
-0.998604, 113, 113, 176, 128
-0.998606, 217, 155, 280, 170
-0.998606, 301, 161, 332, 416
-0.998607, 17, 245, 80, 260
-0.99861, 153, 129, 216, 144
-0.99861, 313, 301, 375, 316
-0.99861, 225, 219, 288, 234
-0.99861, 313, 315, 375, 330
-0.998612, 97, 211, 160, 226
-0.998613, 313, 477, 375, 492
-0.998614, 269, 161, 300, 416
-0.998616, 145, 155, 208, 170
-0.998616, 257, 257, 320, 272
-0.998617, 313, 433, 375, 448
-0.998617, 281, 327, 344, 342
-0.998619, 65, 219, 128, 234
-0.998622, 65, 211, 128, 226
-0.998622, 177, 149, 240, 164
-0.998623, 305, 263, 368, 278
-0.998623, 41, 255, 104, 270
-0.998624, 145, 123, 208, 138
-0.998626, 1, 207, 64, 222
-0.998627, 153, 161, 216, 176
-0.998627, 273, 17, 336, 144
-0.998628, 33, 341, 96, 356
-0.998628, 41, 185, 104, 200
-0.998628, 1, 221, 64, 236
-0.99863, 105, 119, 168, 134
-0.99863, 223, 97, 238, 224
-0.998632, 97, 171, 128, 186
-0.998633, 225, 131, 288, 146
-0.998634, 129, 57, 256, 88
-0.998634, 177, 157, 240, 172
-0.998635, 153, 143, 216, 158
-0.998635, 49, 253, 176, 284
-0.998635, 145, 167, 208, 182
-0.998636, 209, 113, 240, 128
-0.998638, 57, 233, 120, 248
-0.998639, 281, 267, 344, 282
-0.998639, 249, 321, 312, 336
-0.998639, 273, 335, 336, 350
-0.998639, 41, 227, 104, 242
-0.998643, 225, 245, 288, 260
-0.998643, 209, 197, 272, 212
-0.998644, 217, 209, 280, 224
-0.998644, 25, 347, 88, 362
-0.998645, 129, 195, 192, 210
-0.998645, 289, 469, 352, 484
-0.998647, 281, 277, 344, 292
-0.998648, 225, 141, 288, 156
-0.998648, 9, 309, 72, 324
-0.99865, 1, 297, 64, 312
-0.99865, 225, 253, 288, 268
-0.99865, 305, 257, 368, 272
-0.998652, 257, 327, 320, 342
-0.998653, 9, 251, 72, 266
-0.998653, 113, 153, 176, 168
-0.998653, 217, 279, 280, 294
-0.998654, 225, 121, 288, 136
-0.998654, 289, 361, 352, 376
-0.998655, 201, 185, 264, 200
-0.998656, 313, 243, 375, 258
-0.998657, 257, 235, 320, 250
-0.998658, 193, 177, 256, 192
-0.998658, 103, 161, 118, 288
-0.998659, 241, 291, 304, 306
-0.998659, 225, 239, 288, 254
-0.998659, 225, 229, 288, 244
-0.998661, 257, 225, 320, 240
-0.998661, 185, 171, 248, 186
-0.998662, 161, 105, 224, 120
-0.998662, 217, 147, 280, 162
-0.998663, 313, 325, 375, 340
-0.998663, 217, 203, 280, 218
-0.998664, 113, 147, 176, 162
-0.998664, 281, 261, 344, 276
-0.998665, 9, 477, 72, 492
-0.998665, 119, 161, 134, 288
-0.998666, 217, 161, 280, 176
-0.998666, 41, 261, 104, 276
-0.998667, 113, 105, 176, 120
-0.998667, 217, 303, 280, 318
-0.998669, 289, 347, 352, 362
-0.998669, 209, 191, 272, 206
-0.998671, 145, 149, 208, 164
-0.998671, 325, 129, 356, 384
-0.998671, 69, 177, 84, 304
-0.998687, 33, 1, 160, 32
-0.998693, 347, 241, 362, 368
-0.998701, 75, 177, 90, 304
-0.998704, 85, 161, 100, 288
-0.998709, 121, 193, 152, 448
-0.998712, 1, 113, 128, 144
-0.998716, 109, 161, 124, 288
-0.998727, 33, 337, 64, 464
-0.998733, 305, 185, 368, 248
-0.998739, 41, 177, 56, 304
-0.998746, 193, 93, 320, 124
-0.99877, 23, 209, 38, 336
-0.998783, 209, 33, 336, 64
-0.998786, 265, 225, 280, 352
-0.998797, 361, 225, 375, 352
-0.998803, 13, 209, 28, 336
-0.998803, 57, 193, 72, 320
-0.998806, 129, 433, 375, 496
-0.998808, 97, 221, 224, 252
-0.998815, 231, 97, 246, 224
-0.99882, 1, 57, 256, 120
-0.998829, 63, 177, 78, 304
-0.998847, 193, 345, 320, 408
-0.998852, 303, 289, 318, 416
-0.998867, 1, 433, 256, 496
-0.998868, 29, 209, 44, 336
-0.998868, 205, 1, 236, 256
-0.998872, 1, 445, 128, 476
-0.998874, 129, 337, 256, 464
-0.998882, 311, 257, 326, 384
-0.998883, 51, 193, 66, 320
-0.998884, 277, 273, 292, 400
-0.998886, 1, 281, 128, 312
-0.998894, 35, 193, 50, 320
-0.998897, 259, 209, 274, 336
-0.998907, 293, 273, 308, 400
-0.998915, 241, 397, 368, 428
-0.998916, 193, 1, 224, 256
-0.998919, 49, 49, 176, 80
-0.998919, 271, 273, 286, 400
-0.998921, 121, 1, 152, 256
-0.998922, 129, 261, 256, 292
-0.998923, 253, 1, 284, 256
-0.998925, 323, 273, 338, 400
-0.998929, 341, 241, 356, 368
-0.998932, 317, 273, 332, 400
-0.998933, 217, 97, 232, 224
-0.998936, 155, 97, 170, 224
-0.998936, 145, 441, 272, 472
-0.998983, 209, 45, 336, 76
-0.998997, 125, 161, 140, 288
-0.999001, 7, 209, 22, 336
-0.999014, 353, 225, 368, 352
-0.999018, 329, 241, 344, 368
-0.99902, 207, 97, 222, 224
-0.999026, 17, 461, 144, 492
-0.999026, 133, 209, 164, 336
-0.999027, 121, 337, 184, 400
-0.999037, 1, 433, 375, 496
-0.999037, 45, 1, 76, 256
-0.999038, 147, 161, 162, 288
-0.999058, 271, 209, 286, 336
-0.999062, 355, 273, 370, 400
-0.999063, 311, 337, 326, 464
-0.999064, 1, 209, 16, 336
-0.999083, 93, 1, 124, 256
-0.999088, 287, 305, 302, 432
-0.999089, 201, 97, 216, 224
-0.9991, 303, 337, 318, 464
-0.999103, 227, 145, 242, 272
-0.999106, 161, 301, 288, 332
-0.999113, 185, 97, 200, 224
-0.999116, 1, 305, 128, 336
-0.999122, 1, 53, 128, 84
-0.999123, 97, 89, 224, 120
-0.999136, 93, 209, 108, 336
-0.999156, 191, 113, 206, 240
-0.999166, 333, 369, 364, 496
-0.999172, 253, 193, 268, 320
-0.999176, 237, 97, 252, 224
-0.99918, 145, 113, 160, 240
-0.99919, 261, 273, 276, 400
-0.999191, 169, 193, 232, 448
-0.999195, 113, 321, 240, 384
-0.999205, 241, 77, 368, 108
-0.999214, 1, 89, 375, 152
-0.999215, 57, 145, 72, 272
-0.999218, 115, 113, 130, 240
-0.999224, 237, 161, 252, 288
-0.999231, 97, 33, 160, 96
-0.999241, 305, 241, 320, 368
-0.999241, 179, 97, 194, 224
-0.999247, 287, 241, 302, 368
-0.99925, 131, 161, 146, 288
-0.999256, 141, 161, 156, 288
-0.999264, 209, 425, 336, 456
-0.999265, 73, 129, 88, 256
-0.999272, 49, 129, 64, 256
-0.99928, 335, 241, 350, 368
-0.999281, 139, 113, 154, 240
-0.999283, 81, 61, 208, 92
-0.999285, 145, 89, 272, 120
-0.999285, 247, 177, 262, 304
-0.999287, 41, 257, 56, 384
-0.999298, 113, 237, 240, 268
-0.999309, 65, 129, 80, 256
-0.999313, 277, 225, 292, 352
-0.999316, 235, 49, 250, 176
-0.999319, 297, 321, 312, 448
-0.999323, 87, 209, 102, 336
-0.999324, 323, 225, 338, 352
-0.999333, 125, 113, 140, 240
-0.999338, 65, 225, 80, 352
-0.999343, 93, 113, 108, 240
-0.999352, 177, 61, 304, 92
-0.999362, 97, 25, 224, 56
-0.999365, 79, 97, 94, 224
-0.99937, 109, 113, 124, 240
-0.99937, 91, 1, 106, 128
-0.999374, 101, 113, 116, 240
-0.999375, 169, 97, 184, 224
-0.999384, 99, 209, 114, 336
-0.999384, 103, 1, 118, 128
-0.999389, 19, 257, 34, 384
-0.999393, 97, 1, 112, 128
-0.999395, 115, 1, 130, 128
-0.999399, 361, 177, 375, 304
-0.9994, 179, 33, 194, 160
-0.999403, 243, 17, 258, 144
-0.999404, 147, 49, 162, 176
-0.999413, 257, 1, 272, 128
-0.999415, 245, 97, 260, 224
-0.999421, 249, 17, 264, 144
-0.999422, 299, 241, 314, 368
-0.999425, 121, 337, 184, 464
-0.999425, 109, 1, 124, 128
-0.999428, 353, 177, 368, 304
-0.999428, 253, 257, 284, 500
-0.999436, 143, 1, 158, 128
-0.999439, 133, 1, 148, 128
-0.999441, 161, 97, 176, 224
-0.999445, 43, 113, 58, 240
-0.999446, 125, 1, 140, 128
-0.999449, 189, 49, 204, 176
-0.999449, 223, 49, 238, 176
-0.999449, 335, 193, 350, 320
-0.999451, 155, 33, 170, 160
-0.999455, 195, 65, 210, 192
-0.999459, 165, 33, 180, 160
-0.999461, 221, 145, 236, 272
-0.999464, 341, 193, 356, 320
-0.999474, 217, 193, 248, 448
-0.999474, 17, 157, 144, 188
-0.999478, 49, 241, 64, 368
-0.99948, 23, 161, 38, 288
-0.999481, 347, 289, 362, 416
-0.999486, 323, 353, 338, 480
-0.999486, 57, 337, 120, 464
-0.999488, 33, 273, 48, 400
-0.999491, 15, 161, 30, 288
-0.999495, 177, 341, 304, 372
-0.9995, 57, 305, 88, 432
-0.999505, 29, 161, 44, 288
-0.999506, 113, 345, 240, 376
-0.999508, 317, 225, 332, 352
-0.999509, 173, 33, 188, 160
-0.999519, 261, 145, 276, 272
-0.99952, 249, 273, 264, 400
-0.99952, 153, 145, 168, 272
-0.999521, 305, 177, 336, 304
-0.999522, 81, 209, 96, 336
-0.999524, 225, 57, 352, 88
-0.999525, 87, 97, 102, 224
-0.999527, 131, 113, 146, 240
-0.999528, 361, 289, 375, 416
-0.999532, 17, 89, 144, 120
-0.999539, 105, 209, 120, 336
-0.999542, 293, 225, 308, 352
-0.999542, 7, 161, 22, 288
-0.999544, 1, 161, 16, 288
-0.999546, 27, 257, 42, 384
-0.999557, 59, 305, 74, 432
-0.999569, 1, 1, 64, 256
-0.999595, 17, 133, 144, 164
-0.999598, 225, 441, 240, 456
-0.9996, 229, 147, 244, 162
-0.9996, 19, 229, 34, 244
-0.999601, 123, 187, 138, 202
-0.999601, 295, 327, 310, 342
-0.999601, 97, 45, 224, 76
-0.999601, 353, 255, 368, 270
-0.999601, 81, 197, 96, 212
-0.999602, 81, 281, 208, 344
-0.999602, 169, 41, 232, 104
-0.999603, 81, 205, 96, 220
-0.999604, 347, 289, 362, 304
-0.999605, 135, 193, 150, 208
-0.999605, 83, 219, 98, 234
-0.999605, 355, 265, 370, 280
-0.999608, 305, 317, 320, 332
-0.999608, 329, 257, 344, 272
-0.999609, 265, 277, 280, 292
-0.999609, 311, 407, 326, 422
-0.999609, 351, 277, 366, 292
-0.999609, 129, 353, 375, 416
-0.99961, 309, 307, 324, 322
-0.99961, 361, 297, 375, 312
-0.999611, 263, 261, 278, 276
-0.999612, 73, 219, 88, 234
-0.999613, 41, 187, 56, 202
-0.999613, 337, 275, 352, 290
-0.999613, 301, 329, 316, 344
-0.999613, 287, 297, 302, 312
-0.999614, 315, 423, 330, 438
-0.999614, 361, 405, 375, 420
-0.999614, 77, 213, 92, 228
-0.999615, 283, 323, 298, 338
-0.999615, 213, 161, 228, 176
-0.999615, 327, 465, 342, 480
-0.999619, 339, 245, 354, 260
-0.999621, 145, 193, 176, 448
-0.999621, 353, 405, 368, 420
-0.999621, 47, 215, 62, 230
-0.999622, 341, 251, 356, 266
-0.999622, 221, 113, 236, 128
-0.999622, 347, 243, 362, 258
-0.999622, 89, 217, 104, 232
-0.999623, 69, 205, 84, 220
-0.999624, 353, 423, 368, 438
-0.999624, 317, 281, 332, 296
-0.999624, 281, 313, 296, 328
-0.999624, 45, 241, 60, 256
-0.999625, 49, 203, 64, 218
-0.999626, 243, 303, 258, 318
-0.999627, 55, 241, 70, 256
-0.999628, 359, 453, 374, 468
-0.999628, 147, 183, 162, 198
-0.999629, 185, 113, 200, 128
-0.999631, 91, 177, 106, 192
-0.999632, 51, 249, 66, 264
-0.999632, 219, 225, 234, 240
-0.999633, 339, 267, 354, 282
-0.999633, 55, 209, 70, 224
-0.999634, 203, 117, 218, 132
-0.999636, 359, 283, 374, 298
-0.999642, 343, 257, 358, 272
-0.999642, 299, 313, 314, 328
-0.999643, 221, 167, 236, 182
-0.999643, 329, 277, 344, 292
-0.999644, 61, 203, 76, 218
-0.999644, 305, 323, 320, 338
-0.999645, 155, 111, 170, 126
-0.999646, 127, 173, 142, 188
-0.999646, 105, 203, 120, 218
-0.999647, 219, 159, 234, 174
-0.999649, 333, 267, 348, 282
-0.999649, 129, 289, 256, 320
-0.999649, 225, 357, 352, 388
-0.999653, 195, 125, 210, 140
-0.999653, 129, 187, 144, 202
-0.999654, 359, 251, 374, 266
-0.999655, 269, 267, 284, 282
-0.999655, 147, 169, 162, 184
-0.999657, 361, 269, 375, 284
-0.999657, 343, 273, 358, 288
-0.999657, 289, 307, 304, 322
-0.999659, 213, 111, 228, 126
-0.99966, 69, 257, 100, 500
-0.99966, 79, 191, 94, 206
-0.999661, 347, 283, 362, 298
-0.999661, 319, 435, 334, 450
-0.999663, 349, 249, 364, 264
-0.999663, 33, 221, 48, 236
-0.999663, 129, 273, 256, 304
-0.999663, 193, 119, 208, 134
-0.999664, 287, 291, 302, 306
-0.999664, 353, 271, 368, 286
-0.999665, 101, 219, 116, 234
-0.999666, 69, 193, 84, 208
-0.999667, 105, 211, 120, 226
-0.999667, 135, 187, 150, 202
-0.999668, 139, 181, 154, 196
-0.999668, 293, 315, 308, 330
-0.999671, 49, 209, 64, 224
-0.999672, 335, 259, 350, 274
-0.999672, 115, 203, 130, 218
-0.999672, 177, 257, 240, 384
-0.999673, 153, 175, 168, 190
-0.999676, 331, 251, 346, 266
-0.999676, 121, 177, 136, 192
-0.999677, 349, 265, 364, 280
-0.999677, 321, 467, 336, 482
-0.999677, 33, 345, 288, 408
-0.999677, 95, 213, 110, 228
-0.999678, 345, 407, 360, 422
-0.999685, 129, 195, 144, 210
-0.999688, 133, 205, 148, 220
-0.999688, 135, 171, 150, 186
-0.999689, 251, 299, 266, 314
-0.999689, 357, 289, 372, 304
-0.99969, 97, 171, 112, 186
-0.999691, 277, 287, 292, 302
-0.999691, 317, 405, 332, 420
-0.999697, 293, 321, 308, 336
-0.999697, 359, 259, 374, 274
-0.999705, 217, 1, 248, 256
-0.999706, 111, 171, 126, 186
-0.999707, 41, 215, 56, 230
-0.999707, 287, 315, 302, 330
-0.999707, 307, 431, 322, 446
-0.999707, 181, 193, 212, 320
-0.999713, 145, 177, 160, 192
-0.999713, 209, 305, 272, 368
-0.999715, 1, 1, 375, 64
-0.999716, 75, 203, 90, 218
-0.999722, 315, 443, 330, 458
-0.999734, 311, 437, 326, 452
-0.999734, 65, 341, 192, 372
-0.999735, 131, 181, 146, 196
-0.999736, 123, 199, 138, 214
-0.999737, 33, 297, 288, 360
-0.999742, 75, 197, 90, 212
-0.999742, 49, 317, 176, 348
-0.999745, 141, 187, 156, 202
-0.999751, 41, 203, 56, 218
-0.999752, 41, 209, 56, 224
-0.999754, 41, 193, 56, 208
-0.999754, 193, 409, 320, 472
-0.999754, 353, 283, 368, 298
-0.999758, 161, 321, 288, 384
-0.999761, 357, 277, 372, 292
-0.99977, 69, 199, 84, 214
-0.999772, 333, 321, 364, 448
-0.999772, 105, 169, 120, 184
-0.999791, 229, 289, 260, 416
-0.999808, 157, 273, 188, 400
-0.999809, 93, 225, 124, 480
-0.999811, 169, 129, 200, 384
-0.999825, 285, 353, 316, 480
-0.999826, 315, 429, 330, 444
-0.999846, 241, 145, 368, 176
-0.999849, 281, 1, 344, 256
-0.999896, 81, 329, 208, 360
-0.999896, 113, 249, 240, 280
-0.999938, 65, 353, 192, 384
-0.999942, 33, 13, 160, 44
-0.999951, 177, 353, 304, 384
-0.999952, 133, 225, 164, 480
-0.999956, 49, 37, 176, 68
-0.99997, 81, 285, 208, 316
-0.999973, 81, 265, 208, 296
-1, 1, 317, 128, 348
-1.00001, 269, 65, 300, 320
-1.00001, 193, 437, 320, 468
-1.00002, 201, 193, 232, 448
-1.00004, 129, 453, 256, 484
-1.00004, 93, 257, 124, 384
-1.00005, 169, 225, 200, 480
-1.00009, 241, 133, 368, 164
-1.0001, 81, 257, 144, 384
-1.00013, 265, 129, 296, 256
-1.00013, 129, 333, 256, 364
-1.00016, 1, 385, 128, 448
-1.00017, 241, 385, 368, 416
-1.0002, 241, 369, 368, 400
-1.00021, 65, 469, 192, 500
-1.00023, 1, 77, 128, 108
-1.00023, 1, 385, 375, 448
-1.00032, 193, 193, 256, 448
-1.00032, 1, 25, 375, 88
-1.00032, 1, 409, 128, 472
-1.00035, 281, 97, 312, 352
-1.00036, 129, 345, 256, 408
-1.00042, 225, 369, 288, 496
-1.00044, 181, 193, 212, 448
-1.00044, 81, 257, 112, 500
-1.00047, 157, 145, 188, 272
-1.00047, 25, 257, 56, 500
-1.00048, 81, 353, 208, 416
-1.00053, 201, 289, 264, 416
-1.00053, 269, 17, 300, 144
-1.00054, 157, 193, 188, 448
-1.00064, 313, 65, 344, 320
-1.00066, 145, 401, 272, 464
-1.00067, 229, 257, 260, 500
-1.00072, 105, 257, 136, 500
-1.00073, 1, 1, 32, 256
-1.00075, 285, 1, 316, 256
-1.00075, 49, 377, 176, 440
-1.00077, 13, 1, 44, 256
-1.00081, 21, 321, 52, 448
-1.00083, 301, 1, 332, 256
-1.00087, 325, 1, 356, 256
-1.00087, 69, 305, 100, 432
-1.0009, 241, 257, 272, 500
-1.00097, 129, 409, 375, 472
-1.00098, 345, 1, 375, 256
-1.00103, 273, 65, 336, 192
-1.00137, 153, 225, 184, 352
-1.00139, 173, 241, 204, 368
-1.0014, 33, 369, 288, 432
-1.00143, 297, 129, 328, 256
-1.00165, 313, 49, 375, 176
-1.00168, 217, 257, 280, 500
-1.00172, 33, 393, 288, 456
-1.00174, 129, 385, 375, 448
-1.00178, 37, 1, 68, 128
-1.00181, 285, 129, 316, 256
-1.00186, 97, 417, 224, 480
-1.00196, 1, 345, 375, 408
-1.00205, 49, 401, 176, 464
-1.00219, 97, 393, 224, 456
-1.00254, 145, 369, 272, 432
-1.00295, 105, 273, 168, 400
-1.00323, 313, 1, 375, 256
-1.0033, 313, 145, 375, 272
-1.00339, 1, 409, 375, 472
-1.00396, 185, 369, 248, 496
-1.00526, 25, 369, 88, 496
-1.00571, 177, 369, 304, 496
-1.00616, 313, 1, 375, 128
-1.00682, 81, 353, 208, 480
-1.00884, 81, 305, 144, 432
-1.00909, 249, 369, 312, 496
-1.00922, 177, 305, 240, 432
-1.01072, 225, 321, 288, 448
-1.01142, 161, 369, 224, 496
-1.01315, 97, 353, 160, 480
