1957
-0.337872, 1, 1, 355, 256
-0.382038, 1, 1, 355, 500
-0.389135, 65, 1, 320, 500
-0.414491, 1, 97, 355, 352
-0.426209, 1, 257, 355, 500
-0.466222, 97, 1, 352, 256
-0.58206, 1, 1, 256, 256
-0.603005, 1, 97, 256, 352
-0.614422, 97, 129, 352, 384
-0.687714, 97, 257, 352, 500
-0.69721, 1, 257, 256, 500
-0.845678, 145, 1, 272, 256
-0.845894, 145, 1, 272, 500
-0.846723, 225, 1, 352, 256
-0.854177, 81, 1, 208, 500
-0.856362, 33, 1, 160, 256
-0.857792, 193, 1, 320, 500
-0.858488, 1, 1, 355, 128
-0.860173, 81, 1, 208, 256
-0.861038, 17, 1, 144, 500
-0.869622, 113, 97, 240, 352
-0.871474, 17, 97, 144, 352
-0.873936, 209, 129, 336, 384
-0.880839, 129, 257, 256, 500
-0.884708, 49, 193, 176, 448
-0.886009, 177, 257, 304, 500
-0.886331, 65, 97, 192, 352
-0.891601, 97, 1, 352, 128
-0.894999, 1, 113, 256, 240
-0.899042, 97, 65, 352, 192
-0.900263, 1, 113, 355, 240
-0.900383, 1, 257, 355, 384
-0.901319, 1, 305, 355, 432
-0.902815, 161, 97, 288, 352
-0.903043, 1, 49, 355, 176
-0.907804, 225, 257, 352, 500
-0.913029, 1, 1, 256, 128
-0.91447, 1, 257, 128, 500
-0.915645, 1, 353, 355, 480
-0.916199, 1, 161, 355, 288
-0.917142, 193, 1, 256, 128
-0.91992, 225, 1, 352, 128
-0.921781, 161, 49, 288, 176
-0.921945, 145, 1, 272, 128
-0.9243, 65, 1, 192, 128
-0.924745, 1, 65, 256, 192
-0.928499, 97, 145, 352, 272
-0.930504, 153, 1, 216, 128
-0.931699, 209, 65, 336, 192
-0.931881, 81, 113, 144, 240
-0.933134, 81, 65, 208, 192
-0.933332, 17, 1, 80, 128
-0.93511, 33, 273, 288, 400
-0.93642, 225, 65, 288, 192
-0.936471, 193, 113, 256, 240
-0.937701, 265, 1, 328, 128
-0.939551, 137, 65, 200, 192
-0.940282, 33, 129, 160, 256
-0.940951, 1, 369, 256, 496
-0.941818, 57, 1, 120, 128
-0.941851, 249, 129, 312, 256
-0.942366, 113, 1, 176, 128
-0.943162, 129, 97, 256, 224
-0.94437, 209, 273, 336, 400
-0.94476, 97, 193, 352, 320
-0.945183, 153, 1, 216, 64
-0.94522, 209, 113, 336, 240
-0.945367, 97, 337, 352, 464
-0.945493, 1, 209, 355, 336
-0.94567, 1, 321, 128, 448
-0.945764, 25, 1, 88, 64
-0.94582, 81, 113, 208, 240
-0.946218, 201, 49, 264, 176
-0.946308, 1, 17, 128, 144
-0.946414, 33, 369, 160, 496
-0.946691, 177, 273, 240, 400
-0.946832, 1, 161, 256, 288
-0.946915, 121, 113, 184, 240
-0.947072, 169, 65, 232, 192
-0.949076, 161, 273, 288, 400
-0.949705, 65, 369, 128, 496
-0.949817, 1, 1, 64, 64
-0.950645, 233, 1, 296, 128
-0.951588, 193, 41, 256, 104
-0.95169, 49, 145, 112, 272
-0.951746, 153, 25, 216, 88
-0.952208, 89, 161, 152, 288
-0.952313, 41, 369, 104, 496
-0.952319, 89, 1, 152, 64
-0.952461, 97, 113, 160, 176
-0.952691, 17, 321, 80, 448
-0.952721, 57, 65, 120, 192
-0.953237, 1, 225, 256, 352
-0.953458, 161, 161, 224, 288
-0.953788, 81, 65, 144, 192
-0.954058, 113, 49, 176, 176
-0.954655, 249, 257, 312, 384
-0.954791, 49, 17, 112, 80
-0.954915, 1, 65, 128, 192
-0.954924, 193, 17, 256, 80
-0.95541, 97, 273, 224, 400
-0.956029, 81, 1, 144, 128
-0.956339, 161, 113, 224, 240
-0.956396, 201, 241, 264, 368
-0.956662, 41, 409, 104, 472
-0.95728, 153, 81, 216, 144
-0.957425, 153, 105, 216, 168
-0.957554, 81, 225, 208, 352
-0.957632, 113, 17, 176, 80
-0.957781, 41, 193, 104, 320
-0.957787, 153, 57, 216, 120
-0.957825, 25, 25, 88, 88
-0.957939, 1, 25, 64, 88
-0.957979, 193, 65, 256, 128
-0.958189, 217, 41, 280, 104
-0.958478, 1, 321, 256, 448
-0.958537, 41, 305, 104, 432
-0.95857, 249, 257, 312, 320
-0.958675, 193, 121, 256, 184
-0.95881, 129, 113, 192, 176
-0.959003, 33, 225, 160, 352
-0.959082, 81, 49, 144, 112
-0.959247, 145, 225, 272, 352
-0.959283, 9, 161, 72, 288
-0.959335, 289, 193, 352, 320
-0.959392, 1, 177, 64, 240
-0.959559, 281, 1, 344, 64
-0.959962, 209, 305, 272, 432
-0.960096, 113, 89, 176, 152
-0.960149, 65, 409, 128, 472
-0.960674, 97, 369, 160, 496
-0.961046, 225, 113, 288, 176
-0.961259, 281, 321, 344, 448
-0.961708, 257, 1, 320, 64
-0.961863, 249, 81, 312, 208
-0.961915, 201, 153, 264, 216
-0.96206, 41, 169, 104, 232
-0.962104, 289, 1, 352, 128
-0.962162, 89, 25, 152, 88
-0.962316, 233, 305, 296, 432
-0.962389, 257, 1, 320, 256
-0.962391, 273, 97, 336, 224
-0.962446, 233, 1, 296, 64
-0.962724, 73, 153, 136, 216
-0.963095, 225, 113, 288, 240
-0.963218, 201, 1, 264, 256
-0.963291, 201, 161, 264, 288
-0.963324, 225, 321, 352, 448
-0.963417, 33, 49, 96, 176
-0.963437, 1, 177, 128, 304
-0.963577, 241, 137, 304, 200
-0.963677, 177, 89, 240, 152
-0.964075, 89, 209, 152, 336
-0.96411, 137, 225, 200, 352
-0.964127, 161, 433, 224, 496
-0.964363, 81, 433, 144, 496
-0.964366, 177, 321, 304, 448
-0.964484, 217, 65, 280, 128
-0.964522, 41, 193, 104, 256
-0.964651, 25, 305, 88, 368
-0.964845, 25, 113, 88, 240
-0.96506, 209, 161, 336, 288
-0.965112, 193, 225, 320, 352
-0.965271, 9, 1, 40, 64
-0.965411, 233, 321, 296, 384
-0.965609, 65, 385, 128, 448
-0.965663, 273, 257, 336, 384
-0.965888, 17, 273, 144, 400
-0.965905, 41, 377, 104, 440
-0.96596, 65, 193, 128, 320
-0.965968, 289, 201, 352, 264
-0.965986, 57, 89, 120, 152
-0.96616, 1, 17, 128, 80
-0.966313, 89, 1, 152, 256
-0.966521, 225, 1, 256, 128
-0.967052, 97, 177, 224, 304
-0.967086, 121, 41, 184, 104
-0.96735, 137, 425, 200, 488
-0.967368, 49, 321, 112, 384
-0.96742, 49, 177, 176, 304
-0.967456, 205, 1, 236, 128
-0.967749, 257, 321, 320, 448
-0.967984, 121, 1, 184, 256
-0.968066, 201, 65, 232, 192
-0.968162, 265, 193, 328, 320
-0.968458, 1, 25, 32, 88
-0.96874, 209, 273, 272, 336
-0.968752, 145, 369, 208, 496
-0.968778, 65, 321, 128, 448
-0.96882, 81, 97, 144, 352
-0.968836, 89, 249, 152, 312
-0.969181, 81, 25, 208, 88
-0.96921, 29, 1, 60, 64
-0.969245, 265, 113, 328, 176
-0.96927, 113, 137, 176, 200
-0.969301, 117, 113, 148, 176
-0.96931, 17, 425, 80, 488
-0.969335, 233, 89, 296, 152
-0.969365, 185, 1, 216, 64
-0.969384, 209, 297, 272, 360
-0.969403, 9, 369, 72, 496
-0.969689, 89, 73, 152, 136
-0.969853, 41, 1, 104, 256
-0.969898, 1, 1, 32, 128
-0.969928, 41, 433, 104, 496
-0.969984, 265, 137, 328, 200
-0.969989, 161, 33, 224, 288
-0.970017, 185, 289, 248, 352
-0.970092, 65, 353, 128, 416
-0.970153, 73, 113, 136, 176
-0.970171, 161, 65, 288, 128
-0.970188, 81, 177, 144, 240
-0.97021, 113, 113, 240, 176
-0.970228, 201, 241, 264, 304
-0.970252, 97, 121, 128, 184
-0.970342, 281, 345, 344, 408
-0.970356, 225, 1, 352, 64
-0.970604, 209, 89, 272, 152
-0.970617, 1, 153, 64, 216
-0.970642, 121, 369, 184, 496
-0.970785, 9, 329, 72, 392
-0.970797, 189, 17, 220, 144
-0.970823, 113, 1, 240, 64
-0.970831, 57, 41, 120, 104
-0.97085, 189, 65, 220, 192
-0.970851, 225, 257, 288, 384
-0.970982, 209, 161, 272, 416
-0.970988, 193, 321, 256, 384
-0.970996, 289, 145, 352, 272
-0.971015, 281, 1, 344, 256
-0.971217, 241, 33, 304, 96
-0.971285, 145, 25, 272, 88
-0.971295, 273, 265, 336, 328
-0.971353, 133, 113, 164, 176
-0.971424, 81, 369, 208, 496
-0.971493, 65, 1, 192, 64
-0.971617, 201, 65, 232, 128
-0.97162, 113, 257, 176, 320
-0.971684, 109, 113, 140, 240
-0.971731, 265, 185, 328, 248
-0.971875, 81, 73, 208, 136
-0.971928, 105, 393, 168, 456
-0.972004, 113, 161, 176, 288
-0.972009, 117, 1, 148, 64
-0.972103, 49, 1, 80, 64
-0.972196, 129, 321, 256, 448
-0.972249, 65, 257, 128, 384
-0.972252, 225, 25, 352, 88
-0.972273, 73, 1, 104, 128
-0.972323, 233, 1, 296, 256
-0.972392, 169, 129, 232, 192
-0.972435, 113, 209, 176, 336
-0.972463, 257, 337, 320, 400
-0.972546, 61, 1, 92, 128
-0.972564, 65, 1, 128, 256
-0.972745, 177, 265, 240, 328
-0.972802, 105, 257, 168, 384
-0.972895, 49, 217, 112, 280
-0.973009, 169, 209, 232, 336
-0.973096, 169, 17, 200, 144
-0.973117, 105, 97, 168, 352
-0.973224, 41, 121, 104, 184
-0.973227, 169, 193, 232, 448
-0.973278, 81, 49, 208, 112
-0.973331, 133, 1, 164, 128
-0.973404, 65, 121, 192, 184
-0.973479, 49, 1, 80, 128
-0.97352, 189, 25, 220, 88
-0.973528, 129, 65, 192, 128
-0.973839, 69, 57, 100, 120
-0.97386, 41, 145, 104, 208
-0.973908, 109, 65, 140, 192
-0.973984, 153, 97, 184, 160
-0.973987, 57, 257, 120, 320
-0.974034, 101, 1, 132, 64
-0.974198, 249, 129, 312, 384
-0.974687, 161, 105, 288, 168
-0.974732, 225, 73, 352, 136
-0.974763, 17, 401, 80, 464
-0.974921, 85, 65, 116, 192
-0.974975, 225, 137, 352, 200
-0.974977, 69, 369, 100, 496
-0.975019, 241, 1, 272, 128
-0.975025, 161, 1, 288, 64
-0.975052, 209, 257, 240, 384
-0.975066, 105, 425, 168, 488
-0.975114, 185, 433, 248, 496
-0.975122, 17, 49, 80, 112
-0.975136, 305, 193, 336, 256
-0.975144, 73, 201, 136, 264
-0.975219, 225, 49, 352, 112
-0.975256, 157, 1, 188, 64
-0.975283, 197, 121, 228, 184
-0.97534, 185, 321, 248, 448
-0.975382, 1, 425, 128, 488
-0.975463, 81, 17, 112, 80
-0.975534, 157, 65, 188, 192
-0.975552, 137, 305, 200, 432
-0.975567, 245, 57, 276, 120
-0.975601, 57, 97, 120, 352
-0.975669, 57, 65, 120, 128
-0.975711, 225, 257, 352, 320
-0.975712, 241, 297, 304, 360
-0.975768, 61, 1, 92, 64
-0.975834, 269, 1, 300, 128
-0.975886, 93, 41, 124, 104
-0.975906, 185, 89, 216, 152
-0.975949, 125, 97, 156, 224
-0.975989, 289, 121, 352, 184
-0.976055, 49, 321, 176, 448
-0.976197, 77, 385, 108, 448
-0.976252, 177, 369, 240, 496
-0.976259, 33, 1, 64, 128
-0.976329, 49, 401, 176, 464
-0.976345, 225, 177, 288, 304
-0.976431, 29, 25, 60, 88
-0.976432, 161, 145, 288, 272
-0.976439, 133, 89, 164, 152
-0.976451, 241, 177, 304, 240
-0.976529, 273, 225, 336, 480
-0.976561, 217, 129, 248, 192
-0.976602, 89, 369, 152, 432
-0.976607, 169, 161, 232, 224
-0.976612, 41, 353, 104, 416
-0.976678, 201, 17, 232, 80
-0.976714, 33, 145, 160, 208
-0.976723, 153, 273, 216, 336
-0.976773, 169, 425, 200, 488
-0.9768, 225, 73, 256, 136
-0.976807, 1, 305, 64, 368
-0.976814, 117, 57, 148, 120
-0.976835, 137, 49, 168, 176
-0.976989, 105, 305, 168, 432
-0.977013, 77, 145, 108, 208
-0.977013, 65, 401, 96, 464
-0.977018, 17, 201, 80, 264
-0.977054, 241, 113, 272, 240
-0.977054, 17, 1, 80, 256
-0.977061, 201, 177, 264, 240
-0.977119, 113, 201, 176, 264
-0.97712, 229, 153, 260, 216
-0.977141, 281, 49, 344, 176
-0.977151, 177, 305, 304, 368
-0.97719, 213, 81, 244, 208
-0.977266, 1, 41, 128, 104
-0.977321, 113, 153, 240, 216
-0.977392, 101, 97, 132, 160
-0.977408, 209, 369, 336, 496
-0.977472, 41, 257, 104, 384
-0.977582, 13, 177, 44, 240
-0.97777, 145, 1, 176, 128
-0.977775, 113, 169, 176, 232
-0.977786, 265, 217, 328, 280
-0.977795, 209, 161, 240, 224
-0.977836, 189, 65, 220, 128
-0.977879, 241, 49, 272, 176
-0.977888, 285, 129, 316, 256
-0.977927, 201, 97, 232, 160
-0.977975, 169, 1, 200, 64
-0.97799, 273, 129, 336, 384
-0.978004, 49, 377, 176, 440
-0.978006, 41, 193, 104, 448
-0.978023, 205, 241, 236, 304
-0.978037, 65, 65, 96, 192
-0.978047, 261, 49, 292, 176
-0.97819, 89, 113, 120, 240
-0.97825, 89, 273, 152, 336
-0.978272, 249, 65, 312, 128
-0.978291, 133, 9, 164, 72
-0.9783, 217, 217, 280, 280
-0.978322, 81, 225, 144, 288
-0.978353, 157, 1, 188, 128
-0.978361, 289, 177, 352, 240
-0.978362, 241, 113, 272, 176
-0.978365, 49, 25, 80, 88
-0.97843, 201, 41, 232, 104
-0.978437, 113, 137, 144, 200
-0.978439, 245, 273, 276, 400
-0.978467, 65, 97, 192, 160
-0.978473, 201, 129, 232, 256
-0.978547, 77, 129, 108, 256
-0.978603, 273, 89, 336, 152
-0.978609, 93, 225, 124, 352
-0.978652, 69, 33, 100, 96
-0.978712, 301, 193, 332, 320
-0.978719, 169, 57, 200, 120
-0.978763, 1, 185, 128, 248
-0.978785, 269, 1, 300, 64
-0.978934, 177, 113, 208, 176
-0.978943, 225, 97, 352, 160
-0.979016, 309, 1, 340, 128
-0.979142, 225, 49, 256, 176
-0.979184, 113, 265, 240, 328
-0.97919, 49, 297, 112, 360
-0.979205, 89, 401, 120, 464
-0.979229, 13, 25, 44, 88
-0.979293, 161, 305, 224, 368
-0.979301, 161, 281, 288, 344
-0.979322, 113, 433, 240, 496
-0.979342, 173, 65, 204, 192
-0.979461, 225, 49, 256, 112
-0.979481, 81, 193, 144, 448
-0.979492, 9, 49, 72, 176
-0.979538, 225, 289, 352, 352
-0.979571, 129, 225, 192, 288
-0.979571, 121, 281, 184, 344
-0.979574, 137, 137, 200, 200
-0.979596, 57, 353, 88, 480
-0.979623, 17, 273, 80, 400
-0.979675, 161, 153, 288, 216
-0.979751, 225, 337, 352, 400
-0.9798, 49, 425, 176, 488
-0.979807, 137, 97, 200, 352
-0.97981, 17, 1, 48, 128
-0.979853, 125, 137, 156, 200
-0.979885, 193, 273, 224, 400
-0.979918, 185, 433, 216, 496
-0.979942, 113, 297, 240, 360
-0.979951, 177, 249, 304, 312
-0.979954, 257, 257, 288, 384
-0.979954, 109, 25, 140, 88
-0.979972, 121, 33, 152, 160
-0.979987, 1, 177, 32, 240
-0.979989, 85, 321, 116, 448
-0.980052, 157, 209, 188, 336
-0.980146, 177, 225, 240, 288
-0.980171, 177, 1, 240, 500
-0.980314, 65, 129, 96, 256
-0.980328, 25, 281, 88, 344
-0.980347, 101, 1, 132, 128
-0.980371, 117, 81, 148, 144
-0.980382, 57, 361, 88, 424
-0.980435, 257, 321, 288, 384
-0.980447, 9, 161, 72, 416
-0.980472, 85, 1, 116, 128
-0.980493, 177, 129, 304, 192
-0.980499, 161, 121, 192, 184
-0.980542, 33, 169, 64, 232
-0.980575, 9, 377, 72, 440
-0.980743, 201, 289, 232, 352
-0.980804, 209, 433, 272, 496
-0.980817, 1, 369, 128, 432
-0.98085, 145, 73, 176, 136
-0.980917, 305, 113, 336, 240
-0.980982, 145, 121, 176, 184
-0.981029, 245, 17, 276, 80
-0.981064, 229, 1, 260, 64
-0.981092, 77, 177, 108, 304
-0.98116, 89, 321, 152, 384
-0.981174, 17, 113, 144, 176
-0.98129, 81, 41, 112, 104
-0.98133, 245, 313, 276, 376
-0.981345, 137, 401, 200, 464
-0.98136, 1, 337, 128, 400
-0.981389, 1, 401, 128, 464
-0.981466, 113, 177, 144, 304
-0.981471, 257, 249, 288, 312
-0.981473, 25, 161, 56, 288
-0.981477, 113, 241, 240, 304
-0.981503, 265, 161, 328, 224
-0.981533, 185, 137, 216, 200
-0.981545, 173, 137, 204, 200
-0.981629, 173, 129, 204, 256
-0.981717, 37, 409, 68, 472
-0.98173, 249, 257, 312, 500
-0.981784, 293, 185, 324, 248
-0.981804, 141, 49, 172, 112
-0.981819, 225, 113, 256, 240
-0.981893, 85, 121, 116, 184
-0.981924, 281, 25, 344, 88
-0.982001, 281, 49, 344, 112
-0.982016, 205, 305, 236, 432
-0.982028, 197, 153, 228, 216
-0.982073, 225, 161, 256, 288
-0.982117, 105, 161, 136, 224
-0.982134, 121, 25, 152, 88
-0.982135, 165, 81, 196, 144
-0.982146, 105, 225, 168, 288
-0.982167, 69, 121, 100, 184
-0.982235, 265, 369, 328, 496
-0.982275, 189, 113, 220, 240
-0.98234, 217, 1, 280, 500
-0.98236, 257, 113, 288, 176
-0.982377, 49, 169, 176, 232
-0.982395, 89, 425, 120, 488
-0.982419, 145, 369, 272, 496
-0.982437, 193, 345, 256, 408
-0.982486, 77, 201, 108, 264
-0.982497, 261, 49, 292, 112
-0.982501, 221, 257, 252, 384
-0.982521, 269, 329, 300, 392
-0.982557, 177, 401, 240, 464
-0.982565, 213, 129, 244, 256
-0.982581, 53, 417, 84, 480
-0.982606, 229, 129, 260, 192
-0.982631, 281, 321, 344, 384
-0.982651, 197, 433, 228, 496
-0.982674, 169, 25, 200, 88
-0.982679, 257, 1, 320, 500
-0.982701, 177, 329, 304, 392
-0.982717, 225, 305, 256, 432
-0.982734, 105, 385, 136, 448
-0.982778, 97, 49, 128, 176
-0.98282, 69, 81, 100, 144
-0.982861, 213, 297, 244, 360
-0.982891, 9, 353, 72, 416
-0.9829, 209, 185, 336, 248
-0.982966, 169, 201, 232, 264
-0.98299, 257, 137, 288, 200
-0.983024, 97, 161, 128, 288
-0.983045, 153, 25, 184, 88
-0.983055, 81, 81, 112, 144
-0.983132, 257, 321, 288, 448
-0.983179, 113, 225, 144, 352
-0.983198, 281, 1, 312, 128
-0.983219, 257, 1, 288, 128
-0.983224, 85, 369, 116, 496
-0.983267, 117, 369, 148, 432
-0.983274, 273, 297, 336, 360
-0.983348, 289, 1, 352, 500
-0.98339, 169, 329, 232, 392
-0.983397, 225, 105, 256, 168
-0.983406, 153, 209, 184, 272
-0.983447, 145, 1, 176, 64
-0.983451, 201, 265, 232, 328
-0.983477, 137, 97, 168, 224
-0.983491, 69, 321, 100, 448
-0.983553, 217, 257, 280, 500
-0.983605, 33, 305, 64, 368
-0.983617, 129, 377, 192, 440
-0.983682, 297, 121, 328, 184
-0.983694, 97, 409, 224, 472
-0.98374, 1, 113, 64, 240
-0.983816, 313, 1, 344, 64
-0.983858, 125, 145, 156, 272
-0.98386, 141, 225, 172, 352
-0.983865, 5, 161, 36, 288
-0.983878, 105, 241, 136, 304
-0.983893, 129, 257, 192, 500
-0.983939, 165, 193, 196, 256
-0.98395, 313, 65, 344, 192
-0.984017, 65, 161, 96, 224
-0.984091, 53, 305, 84, 368
-0.984127, 17, 225, 80, 352
-0.984137, 101, 353, 132, 416
-0.984152, 197, 225, 228, 352
-0.984197, 57, 305, 88, 432
-0.98424, 81, 361, 112, 424
-0.984253, 289, 193, 320, 320
-0.984262, 17, 209, 144, 272
-0.98428, 77, 409, 108, 472
-0.984289, 9, 1, 72, 500
-0.984326, 49, 1, 112, 500
-0.984345, 281, 145, 312, 208
-0.984365, 105, 73, 136, 136
-0.984399, 281, 1, 312, 64
-0.984406, 225, 313, 352, 376
-0.984407, 293, 1, 324, 128
-0.984417, 65, 233, 192, 296
-0.984433, 193, 257, 256, 500
-0.984445, 49, 49, 80, 176
-0.98453, 33, 65, 160, 128
-0.984531, 53, 177, 84, 240
-0.984561, 33, 265, 160, 328
-0.984574, 49, 49, 80, 112
-0.984632, 237, 89, 268, 152
-0.984668, 89, 185, 120, 248
-0.98467, 105, 209, 136, 272
-0.984671, 225, 161, 352, 224
-0.984673, 289, 369, 352, 496
-0.984687, 89, 233, 120, 296
-0.98471, 241, 177, 272, 240
-0.984723, 213, 89, 244, 152
-0.984761, 153, 49, 184, 112
-0.984771, 13, 153, 44, 216
-0.984867, 289, 257, 320, 384
-0.984974, 65, 201, 192, 264
-0.985045, 105, 353, 136, 480
-0.985058, 209, 433, 336, 496
-0.985096, 253, 289, 284, 352
-0.985128, 273, 129, 304, 256
-0.985136, 269, 257, 300, 384
-0.985139, 89, 1, 152, 500
-0.985157, 325, 33, 355, 160
-0.985186, 121, 1, 184, 500
-0.985208, 41, 369, 72, 496
-0.985229, 77, 337, 108, 400
-0.985298, 261, 97, 292, 224
-0.985324, 213, 33, 244, 96
-0.985345, 157, 417, 188, 480
-0.985364, 281, 337, 312, 400
-0.985397, 293, 161, 324, 224
-0.985402, 229, 321, 260, 384
-0.985407, 1, 313, 128, 376
-0.985418, 17, 257, 80, 500
-0.985565, 65, 289, 192, 352
-0.985772, 41, 273, 72, 400
-0.98579, 93, 273, 124, 400
-0.985819, 125, 241, 156, 368
-0.985834, 153, 1, 216, 500
-0.98586, 161, 433, 288, 496
-0.985939, 225, 361, 352, 424
-0.986146, 17, 233, 144, 296
-0.986516, 105, 257, 168, 500
-0.986573, 125, 369, 156, 496
-0.986676, 273, 305, 304, 432
-0.986738, 305, 273, 336, 400
-0.986765, 233, 369, 296, 496
-0.986859, 153, 369, 184, 496
-0.987135, 153, 113, 184, 240
-0.987176, 97, 385, 224, 448
-0.987261, 209, 209, 240, 336
-0.987277, 17, 89, 144, 152
-0.987288, 161, 177, 288, 240
-0.987505, 161, 321, 224, 448
-0.987544, 33, 97, 96, 352
-0.987628, 225, 209, 352, 272
-0.987696, 137, 177, 200, 304
-0.987754, 325, 353, 355, 480
-0.987891, 1, 1, 256, 64
-0.987979, 41, 321, 72, 448
-0.987988, 245, 321, 276, 448
-0.988119, 157, 257, 188, 384
-0.988129, 129, 321, 256, 384
-0.988168, 317, 305, 348, 432
-0.988422, 169, 273, 200, 400
-0.988522, 49, 353, 176, 416
-0.988524, 97, 353, 224, 416
-0.988561, 177, 225, 304, 288
-0.988574, 17, 321, 48, 448
-0.988649, 1, 29, 64, 60
-0.988691, 25, 5, 88, 36
-0.988702, 209, 369, 272, 496
-0.988717, 89, 5, 152, 36
-0.988785, 1, 13, 64, 44
-0.988787, 105, 121, 168, 152
-0.988789, 173, 369, 204, 496
-0.988816, 33, 29, 96, 60
-0.9889, 113, 177, 240, 240
-0.988914, 237, 161, 268, 288
-0.98897, 153, 65, 216, 96
-0.989014, 97, 1, 352, 64
-0.989025, 81, 321, 208, 384
-0.989062, 193, 21, 256, 52
-0.98908, 193, 65, 256, 96
-0.989136, 285, 321, 316, 448
-0.989147, 249, 265, 312, 296
-0.989151, 113, 25, 176, 56
-0.989166, 1, 185, 64, 216
-0.989181, 41, 17, 104, 48
-0.989201, 153, 17, 216, 48
-0.989246, 153, 33, 216, 64
-0.989287, 313, 193, 344, 320
-0.989304, 185, 369, 216, 496
-0.989307, 73, 257, 104, 384
-0.989318, 1, 1, 64, 32
-0.989325, 89, 29, 152, 60
-0.989329, 289, 205, 352, 236
-0.989342, 153, 53, 216, 84
-0.989369, 113, 5, 176, 36
-0.989388, 225, 233, 352, 296
-0.989389, 177, 353, 304, 416
-0.989433, 65, 29, 128, 60
-0.989459, 185, 465, 248, 496
-0.989474, 57, 429, 120, 460
-0.989504, 181, 273, 212, 400
-0.989523, 17, 289, 144, 352
-0.989538, 145, 437, 208, 468
-0.989545, 97, 97, 352, 160
-0.989626, 193, 1, 256, 32
-0.989638, 193, 53, 256, 84
-0.989645, 177, 409, 304, 472
-0.989649, 137, 1, 200, 32
-0.989652, 153, 77, 216, 108
-0.989683, 305, 321, 336, 448
-0.989687, 29, 305, 60, 432
-0.989699, 81, 133, 144, 164
-0.9897, 73, 17, 136, 48
-0.989702, 53, 113, 84, 240
-0.989713, 137, 273, 168, 400
-0.989716, 273, 353, 336, 384
-0.989733, 97, 121, 352, 184
-0.989802, 281, 17, 344, 48
-0.989807, 137, 109, 200, 140
-0.989807, 273, 193, 336, 224
-0.98982, 57, 49, 120, 80
-0.989824, 41, 197, 104, 228
-0.989829, 265, 137, 328, 168
-0.989857, 209, 81, 272, 112
-0.989869, 169, 453, 232, 484
-0.989884, 233, 329, 296, 360
-0.98989, 49, 5, 112, 36
-0.989975, 193, 177, 224, 304
-0.989992, 217, 45, 280, 76
-0.990014, 233, 141, 296, 172
-0.990015, 257, 341, 320, 372
-0.990049, 193, 41, 256, 72
-0.990119, 193, 109, 256, 140
-0.990122, 97, 73, 352, 136
-0.990132, 41, 181, 104, 212
-0.990153, 241, 17, 304, 48
-0.990166, 217, 69, 280, 100
-0.990228, 33, 25, 288, 88
-0.990261, 57, 409, 120, 440
-0.990298, 13, 113, 44, 240
-0.990298, 45, 161, 76, 288
-0.9903, 81, 165, 144, 196
-0.990321, 137, 97, 200, 128
-0.990327, 201, 157, 264, 188
-0.990341, 233, 57, 296, 88
-0.990355, 169, 285, 232, 316
-0.990363, 33, 421, 96, 452
-0.990364, 89, 253, 152, 284
-0.990385, 57, 217, 120, 248
-0.990387, 209, 121, 272, 152
-0.990396, 81, 185, 144, 216
-0.990409, 61, 177, 92, 304
-0.99041, 97, 93, 160, 124
-0.990419, 89, 273, 152, 304
-0.99043, 145, 125, 208, 156
-0.99044, 17, 329, 80, 360
-0.990442, 277, 65, 308, 192
-0.990453, 17, 341, 80, 372
-0.990457, 25, 49, 88, 80
-0.990463, 1, 197, 64, 228
-0.990464, 9, 421, 72, 452
-0.990469, 209, 181, 272, 212
-0.990485, 233, 81, 296, 112
-0.990486, 273, 149, 336, 180
-0.99049, 233, 93, 296, 124
-0.990495, 253, 145, 284, 272
-0.990504, 217, 29, 280, 60
-0.990507, 1, 137, 256, 200
-0.990533, 201, 169, 264, 200
-0.990564, 105, 137, 168, 168
-0.990565, 293, 81, 324, 208
-0.990593, 257, 125, 320, 156
-0.990625, 177, 81, 240, 112
-0.990632, 289, 373, 352, 404
-0.990668, 193, 325, 256, 356
-0.990676, 193, 97, 256, 128
-0.990676, 81, 409, 144, 440
-0.990691, 249, 189, 312, 220
-0.990698, 81, 149, 144, 180
-0.990699, 49, 337, 112, 368
-0.990708, 269, 209, 300, 336
-0.990715, 177, 121, 240, 152
-0.990725, 161, 101, 224, 132
-0.990742, 113, 53, 176, 84
-0.990752, 89, 49, 152, 80
-0.990753, 233, 105, 296, 136
-0.99076, 41, 169, 104, 200
-0.990761, 1, 173, 64, 204
-0.990769, 273, 273, 336, 304
-0.990789, 81, 445, 144, 476
-0.990792, 209, 277, 272, 308
-0.990798, 89, 105, 152, 136
-0.990799, 121, 81, 184, 112
-0.990807, 113, 109, 176, 140
-0.990814, 209, 313, 272, 344
-0.990819, 185, 137, 248, 168
-0.990832, 17, 409, 80, 440
-0.990837, 209, 293, 272, 324
-0.990842, 161, 1, 224, 32
-0.990864, 233, 317, 296, 348
-0.990874, 129, 137, 192, 168
-0.990874, 73, 365, 136, 396
-0.990879, 1, 1, 355, 64
-0.990896, 17, 433, 80, 464
-0.990899, 49, 397, 112, 428
-0.990901, 185, 97, 248, 352
-0.990914, 41, 385, 104, 416
-0.990917, 169, 157, 232, 188
-0.990918, 317, 129, 348, 256
-0.990921, 81, 201, 144, 232
-0.990922, 145, 425, 208, 456
-0.990945, 249, 253, 312, 284
-0.990988, 169, 441, 232, 472
-0.991, 65, 105, 128, 136
-0.991008, 257, 369, 320, 400
-0.991013, 217, 9, 280, 40
-0.99103, 113, 217, 240, 280
-0.991047, 273, 329, 336, 360
-0.991051, 169, 313, 232, 344
-0.991059, 129, 65, 192, 96
-0.991067, 281, 5, 344, 36
-0.991081, 177, 265, 240, 296
-0.99109, 49, 325, 112, 356
-0.991092, 145, 453, 208, 484
-0.991115, 265, 113, 328, 144
-0.991116, 81, 421, 144, 452
-0.991123, 57, 117, 120, 148
-0.991134, 81, 121, 144, 152
-0.991146, 233, 117, 296, 148
-0.991149, 81, 377, 144, 408
-0.991153, 273, 97, 336, 128
-0.991531, 97, 49, 352, 112
-0.991765, 1, 113, 256, 176
-0.991794, 125, 289, 156, 416
-0.991822, 41, 225, 72, 352
-0.991839, 169, 193, 200, 320
-0.991903, 1, 33, 32, 64
-0.991928, 5, 21, 36, 52
-0.991972, 1, 417, 256, 480
-0.99203, 129, 117, 160, 148
-0.992127, 109, 273, 140, 400
-0.992163, 17, 5, 48, 36
-0.992216, 17, 29, 48, 60
-0.992228, 105, 129, 136, 160
-0.992243, 5, 1, 36, 32
-0.992261, 1, 29, 128, 60
-0.99228, 185, 449, 216, 480
-0.992294, 29, 17, 60, 48
-0.992311, 69, 9, 100, 40
-0.992319, 29, 1, 60, 32
-0.992321, 121, 5, 152, 36
-0.992352, 49, 5, 80, 36
-0.992355, 209, 161, 240, 192
-0.992365, 61, 21, 92, 52
-0.992393, 301, 189, 332, 220
-0.992411, 125, 193, 156, 320
-0.992415, 117, 125, 148, 156
-0.992417, 101, 1, 132, 32
-0.992417, 5, 189, 36, 220
-0.992431, 1, 113, 32, 240
-0.992431, 17, 17, 48, 48
-0.992436, 49, 29, 80, 60
-0.992442, 1, 89, 256, 152
-0.992445, 1, 49, 256, 112
-0.992447, 201, 81, 232, 112
-0.992456, 177, 145, 208, 176
-0.992466, 89, 409, 120, 440
-0.992477, 85, 33, 116, 64
-0.992478, 77, 397, 108, 428
-0.992479, 109, 257, 140, 288
-0.992479, 69, 417, 100, 448
-0.99248, 161, 429, 192, 460
-0.992481, 185, 29, 216, 60
-0.992491, 201, 21, 232, 52
-0.992502, 189, 105, 220, 136
-0.992508, 197, 457, 228, 488
-0.992509, 261, 257, 292, 288
-0.99251, 277, 341, 308, 372
-0.99251, 257, 329, 288, 360
-0.992515, 189, 65, 220, 96
-0.992521, 177, 437, 208, 468
-0.992532, 201, 61, 232, 92
-0.992533, 145, 1, 176, 32
-0.992546, 313, 201, 344, 232
-0.992548, 197, 157, 228, 188
-0.992563, 245, 325, 276, 356
-0.992563, 101, 29, 132, 60
-0.992564, 273, 145, 304, 176
-0.992564, 89, 421, 120, 452
-0.992568, 93, 249, 124, 280
-0.992571, 23, 1, 38, 64
-0.992572, 129, 137, 160, 168
-0.992584, 237, 225, 268, 352
-0.992588, 185, 53, 216, 84
-0.9926, 249, 29, 280, 60
-0.992601, 289, 349, 320, 380
-0.992605, 93, 137, 124, 168
-0.992609, 261, 141, 292, 172
-0.992613, 189, 1, 220, 32
-0.992621, 193, 321, 224, 448
-0.992622, 225, 393, 352, 456
-0.992631, 101, 237, 132, 268
-0.992632, 149, 121, 180, 152
-0.992633, 81, 9, 112, 40
-0.992634, 77, 145, 108, 176
-0.992637, 161, 377, 288, 440
-0.992637, 181, 81, 212, 112
-0.992637, 205, 253, 236, 284
-0.992637, 189, 93, 220, 124
-0.99264, 217, 65, 248, 96
-0.992643, 137, 25, 168, 56
-0.992643, 169, 65, 200, 96
-0.992653, 77, 45, 108, 76
-0.992656, 97, 49, 128, 80
-0.992658, 185, 41, 216, 72
-0.992664, 189, 17, 220, 48
-0.99267, 137, 13, 168, 44
-0.992671, 1, 33, 355, 96
-0.992672, 289, 149, 320, 180
-0.992672, 169, 85, 200, 116
-0.992677, 37, 33, 68, 64
-0.992677, 229, 21, 260, 52
-0.992678, 241, 121, 272, 152
-0.992678, 241, 69, 272, 100
-0.992682, 209, 469, 240, 500
-0.992682, 17, 177, 48, 208
-0.992684, 21, 41, 52, 72
-0.992691, 209, 1, 240, 32
-0.992697, 69, 65, 100, 96
-0.992699, 205, 233, 236, 264
-0.9927, 69, 81, 100, 112
-0.992701, 225, 121, 256, 152
-0.992704, 201, 109, 232, 140
-0.992707, 193, 293, 224, 324
-0.99271, 93, 265, 124, 296
-0.992713, 185, 161, 216, 192
-0.992713, 85, 205, 116, 236
-0.992716, 85, 189, 116, 220
-0.992721, 201, 281, 232, 312
-0.992724, 265, 341, 296, 372
-0.992727, 201, 97, 232, 128
-0.992732, 225, 53, 256, 84
-0.992737, 221, 165, 252, 196
-0.992744, 113, 149, 144, 180
-0.992747, 113, 29, 144, 60
-0.992752, 81, 29, 208, 60
-0.992754, 265, 17, 296, 48
-0.992756, 89, 21, 120, 52
-0.992757, 73, 29, 104, 60
-0.992757, 105, 117, 136, 148
-0.992758, 49, 17, 80, 48
-0.99277, 145, 65, 272, 96
-0.99277, 149, 105, 180, 136
-0.992773, 225, 77, 256, 108
-0.992774, 301, 201, 332, 232
-0.992775, 101, 13, 132, 44
-0.992785, 205, 265, 236, 296
-0.992785, 201, 33, 232, 64
-0.992791, 185, 117, 216, 148
-0.992791, 157, 217, 188, 248
-0.992797, 221, 153, 252, 184
-0.992799, 73, 205, 104, 236
-0.992806, 245, 105, 276, 136
-0.992814, 317, 13, 348, 44
-0.992816, 201, 45, 232, 76
-0.992821, 277, 353, 308, 384
-0.992826, 97, 225, 128, 256
-0.992827, 121, 17, 152, 48
-0.99283, 213, 313, 244, 344
-0.992831, 117, 137, 148, 168
-0.992831, 241, 57, 272, 88
-0.992833, 225, 325, 256, 356
-0.992839, 65, 49, 96, 80
-0.992839, 245, 313, 276, 344
-0.992848, 269, 321, 300, 352
-0.992849, 1, 45, 32, 76
-0.992851, 117, 53, 148, 84
-0.992852, 201, 325, 232, 356
-0.992858, 77, 385, 108, 416
-0.992867, 305, 353, 336, 384
-0.992867, 301, 217, 332, 248
-0.992936, 97, 265, 352, 328
-0.992942, 1, 161, 256, 224
-0.992975, 225, 17, 352, 48
-0.993046, 1, 113, 355, 176
-0.993366, 29, 1, 44, 64
-0.993386, 33, 313, 288, 376
-0.993434, 103, 121, 118, 184
-0.993495, 33, 289, 288, 352
-0.993532, 119, 121, 134, 184
-0.993572, 113, 1, 240, 32
-0.993587, 97, 185, 352, 248
-0.993587, 113, 17, 240, 48
-0.99363, 113, 117, 240, 148
-0.993637, 91, 33, 106, 96
-0.993662, 15, 1, 30, 64
-0.993663, 71, 81, 86, 144
-0.993703, 97, 153, 352, 216
-0.993726, 1, 89, 355, 152
-0.993727, 81, 69, 208, 100
-0.993751, 73, 57, 88, 120
-0.993781, 79, 377, 94, 440
-0.993796, 135, 113, 150, 176
-0.9938, 81, 49, 208, 80
-0.993807, 225, 73, 352, 104
-0.993811, 1, 425, 128, 456
-0.993842, 65, 1, 192, 32
-0.993882, 39, 1, 54, 64
-0.993901, 81, 81, 208, 112
-0.993917, 307, 185, 322, 248
-0.993961, 1, 13, 128, 44
-0.993988, 129, 53, 256, 84
-0.993995, 127, 1, 142, 64
-0.994002, 1, 313, 355, 376
-0.994025, 161, 77, 288, 108
-0.994048, 217, 225, 232, 288
-0.994052, 1, 1, 128, 32
-0.994056, 67, 17, 82, 80
-0.994064, 145, 41, 272, 72
-0.99408, 193, 61, 320, 92
-0.9941, 47, 1, 62, 64
-0.99414, 1, 185, 256, 248
-0.994145, 209, 137, 336, 168
-0.994198, 61, 1, 76, 64
-0.994205, 113, 121, 128, 184
-0.994211, 1, 189, 128, 220
-0.994227, 193, 1, 208, 64
-0.99426, 25, 25, 40, 88
-0.994264, 137, 1, 152, 64
-0.994307, 175, 113, 190, 176
-0.994317, 107, 97, 122, 160
-0.994322, 155, 97, 170, 160
-0.99433, 49, 13, 176, 44
-0.994338, 79, 49, 94, 112
-0.994343, 165, 113, 180, 176
-0.994343, 223, 129, 238, 192
-0.994355, 1, 265, 256, 328
-0.994385, 79, 73, 94, 136
-0.994397, 55, 1, 70, 64
-0.994401, 161, 21, 288, 52
-0.994418, 1, 41, 128, 72
-0.994436, 209, 289, 224, 352
-0.994448, 113, 105, 240, 136
-0.994492, 129, 121, 144, 184
-0.994512, 5, 17, 20, 80
-0.994513, 117, 1, 132, 64
-0.99452, 225, 49, 352, 80
-0.99452, 1, 385, 256, 448
-0.994536, 165, 201, 180, 264
-0.994557, 209, 109, 336, 140
-0.994564, 73, 9, 88, 72
-0.994566, 199, 121, 214, 184
-0.994578, 111, 1, 126, 64
-0.994605, 161, 93, 288, 124
-0.994611, 113, 25, 128, 88
-0.99462, 57, 25, 72, 88
-0.994643, 31, 25, 46, 88
-0.994653, 127, 97, 142, 160
-0.994657, 97, 17, 112, 80
-0.99468, 83, 153, 98, 216
-0.994692, 161, 81, 176, 144
-0.994709, 93, 137, 108, 200
-0.99472, 193, 157, 320, 188
-0.994744, 209, 125, 336, 156
-0.99475, 97, 129, 224, 160
-0.99476, 125, 145, 140, 208
-0.994765, 225, 273, 352, 304
-0.994777, 49, 121, 176, 152
-0.99478, 215, 153, 230, 216
-0.994797, 189, 425, 204, 488
-0.994799, 213, 249, 228, 312
-0.994822, 97, 209, 352, 272
-0.994827, 49, 425, 176, 456
-0.99483, 175, 137, 190, 200
-0.994832, 145, 469, 272, 500
-0.994845, 205, 57, 220, 120
-0.994865, 225, 29, 352, 60
-0.994884, 47, 25, 62, 88
-0.994885, 85, 17, 100, 80
-0.994911, 79, 121, 94, 184
-0.994923, 313, 193, 328, 256
-0.994931, 107, 409, 122, 472
-0.994937, 235, 137, 250, 200
-0.994958, 97, 401, 112, 464
-0.994972, 141, 113, 156, 176
-0.994991, 181, 1, 196, 64
-0.994996, 7, 185, 22, 248
-0.995015, 203, 25, 218, 88
-0.995018, 103, 1, 118, 64
-0.995063, 1, 193, 16, 256
-0.995084, 49, 133, 176, 164
-0.995097, 65, 101, 192, 132
-0.995109, 101, 41, 116, 104
-0.995115, 1, 437, 128, 468
-0.995149, 119, 169, 134, 232
-0.995165, 97, 353, 352, 416
-0.995167, 11, 25, 26, 88
-0.995168, 183, 425, 198, 488
-0.99517, 217, 281, 232, 344
-0.995176, 1, 57, 355, 120
-0.995197, 1, 401, 355, 464
-0.995202, 199, 145, 214, 208
-0.995221, 145, 293, 272, 324
-0.995229, 273, 1, 288, 64
-0.99523, 137, 81, 152, 144
-0.995244, 13, 177, 28, 240
-0.995252, 225, 193, 352, 224
-0.995261, 89, 177, 104, 240
-0.99527, 161, 313, 288, 344
-0.995275, 119, 97, 134, 160
-0.995278, 113, 165, 240, 196
-0.995284, 225, 5, 352, 36
-0.995302, 203, 81, 218, 144
-0.99532, 113, 457, 240, 488
-0.995328, 77, 161, 92, 224
-0.995331, 161, 105, 288, 136
-0.995335, 121, 1, 152, 256
-0.995348, 33, 201, 160, 232
-0.995357, 209, 261, 336, 292
-0.995357, 1, 57, 128, 88
-0.995367, 319, 193, 334, 256
-0.99537, 109, 73, 124, 136
-0.995372, 223, 49, 238, 112
-0.995381, 91, 57, 106, 120
-0.995382, 201, 1, 232, 256
-0.995392, 19, 169, 34, 232
-0.995393, 177, 417, 192, 480
-0.995396, 157, 17, 172, 80
-0.995404, 161, 269, 288, 300
-0.995404, 195, 433, 210, 496
-0.99541, 59, 425, 74, 488
-0.995423, 181, 81, 196, 144
-0.995431, 121, 25, 136, 88
-0.995435, 161, 201, 288, 264
-0.995442, 1, 169, 16, 232
-0.995452, 161, 121, 288, 152
-0.995453, 325, 1, 340, 64
-0.995453, 49, 149, 176, 180
-0.995483, 73, 401, 88, 464
-0.995488, 65, 241, 320, 304
-0.99549, 83, 177, 98, 240
-0.995491, 73, 185, 88, 248
-0.995512, 175, 1, 190, 64
-0.995514, 1, 345, 355, 408
-0.995516, 83, 97, 98, 160
-0.995519, 229, 153, 244, 216
-0.995529, 37, 33, 52, 96
-0.995542, 251, 313, 266, 376
-0.995546, 207, 121, 222, 184
-0.995552, 161, 281, 288, 312
-0.995574, 317, 121, 332, 184
-0.995594, 63, 57, 78, 120
-0.995605, 125, 169, 140, 232
-0.995606, 123, 57, 138, 120
-0.995609, 129, 73, 144, 136
-0.995612, 265, 1, 296, 256
-0.995613, 177, 9, 304, 40
-0.99562, 211, 81, 226, 144
-0.995621, 33, 449, 160, 480
-0.995637, 177, 325, 304, 356
-0.995638, 65, 413, 192, 444
-0.995647, 185, 121, 200, 184
-0.995665, 129, 49, 144, 112
-0.995674, 19, 25, 34, 88
-0.995675, 259, 313, 274, 376
-0.995684, 163, 1, 178, 64
-0.995687, 79, 1, 94, 64
-0.995688, 213, 313, 228, 376
-0.995689, 77, 97, 92, 160
-0.995694, 193, 57, 208, 120
-0.995699, 205, 153, 220, 216
-0.9957, 85, 57, 100, 120
-0.995702, 129, 25, 144, 88
-0.995719, 25, 161, 40, 224
-0.995726, 97, 277, 224, 308
-0.995731, 109, 1, 140, 256
-0.99574, 1, 425, 355, 488
-0.995748, 265, 321, 280, 384
-0.995771, 149, 113, 164, 176
-0.995783, 1, 137, 355, 200
-0.995787, 81, 401, 96, 464
-0.99579, 1, 289, 355, 352
-0.995792, 65, 461, 192, 492
-0.995795, 97, 253, 224, 284
-0.995801, 247, 169, 262, 232
-0.995822, 171, 81, 186, 144
-0.995834, 275, 329, 290, 392
-0.995841, 193, 341, 320, 372
-0.995871, 225, 97, 352, 128
-0.995876, 169, 1, 184, 64
-0.995878, 225, 1, 256, 256
-0.995881, 107, 233, 122, 296
-0.995883, 117, 57, 132, 120
-0.995895, 99, 225, 114, 288
-0.995896, 297, 185, 312, 248
-0.995901, 187, 1, 202, 64
-0.995944, 225, 85, 352, 116
-0.995948, 81, 265, 208, 296
-0.995948, 89, 97, 120, 352
-0.995958, 113, 141, 240, 172
-0.995992, 97, 417, 352, 480
-0.996003, 49, 381, 176, 412
-0.996004, 161, 137, 288, 168
-0.996014, 1, 413, 128, 444
-0.996018, 161, 257, 288, 288
-0.996019, 225, 313, 352, 344
-0.996032, 33, 257, 160, 288
-0.996062, 1, 165, 128, 196
-0.996069, 1, 193, 355, 256
-0.996108, 81, 1, 112, 256
-0.996109, 161, 173, 288, 204
-0.99613, 277, 1, 308, 256
-0.996141, 113, 445, 240, 476
-0.996141, 49, 437, 176, 468
-0.996142, 297, 1, 328, 256
-0.996166, 1, 469, 128, 500
-0.996179, 101, 97, 132, 352
-0.996181, 33, 241, 160, 272
-0.99619, 81, 237, 208, 268
-0.996217, 33, 177, 160, 208
-0.99627, 49, 397, 176, 428
-0.996271, 225, 353, 352, 384
-0.996299, 137, 97, 168, 352
-0.996308, 213, 1, 244, 256
-0.996321, 1, 209, 256, 272
-0.996334, 1, 329, 128, 360
-0.996344, 113, 305, 240, 336
-0.996366, 285, 129, 316, 384
-0.996373, 117, 97, 148, 352
-0.996398, 145, 1, 176, 256
-0.996423, 225, 325, 352, 356
-0.996426, 17, 229, 144, 260
-0.996501, 97, 393, 352, 456
-0.996506, 5, 25, 20, 56
-0.99656, 81, 197, 208, 228
-0.996574, 181, 1, 212, 256
-0.996584, 97, 289, 224, 320
-0.99659, 113, 153, 240, 184
-0.996597, 305, 225, 336, 480
-0.996602, 205, 225, 236, 480
-0.996616, 69, 1, 100, 256
-0.996619, 217, 233, 232, 264
-0.996628, 177, 185, 304, 216
-0.996629, 1, 373, 128, 404
-0.996634, 201, 97, 232, 352
-0.996643, 53, 1, 84, 256
-0.996657, 301, 97, 332, 352
-0.996666, 157, 1, 188, 256
-0.996673, 21, 21, 36, 52
-0.996684, 77, 129, 108, 384
-0.996772, 1, 117, 128, 148
-0.996775, 225, 301, 352, 332
-0.996779, 49, 369, 176, 400
-0.996787, 1, 341, 128, 372
-0.996802, 81, 185, 208, 216
-0.996823, 209, 285, 336, 316
-0.996836, 261, 129, 292, 384
-0.996862, 193, 469, 320, 500
-0.996881, 1, 1, 32, 256
-0.996885, 1, 369, 355, 432
-0.996886, 17, 277, 144, 308
-0.996898, 97, 1, 128, 256
-0.996898, 31, 1, 46, 32
-0.99691, 49, 161, 176, 192
-0.996912, 225, 365, 352, 396
-0.996925, 21, 5, 36, 36
-0.996932, 177, 457, 304, 488
-0.996956, 121, 125, 136, 156
-0.996956, 217, 129, 248, 384
-0.996965, 113, 93, 240, 124
-0.996974, 17, 181, 32, 212
-0.996983, 17, 1, 48, 256
-0.99701, 17, 217, 144, 248
-0.997024, 15, 33, 30, 64
-0.997025, 193, 257, 224, 500
-0.997025, 161, 97, 192, 352
-0.997026, 1, 401, 128, 432
-0.997029, 169, 1, 200, 256
-0.997033, 99, 29, 114, 60
-0.997033, 101, 133, 116, 164
-0.997042, 225, 181, 352, 212
-0.997059, 31, 13, 46, 44
-0.997067, 145, 341, 272, 372
-0.997071, 29, 1, 60, 256
-0.997111, 311, 189, 326, 220
-0.997122, 41, 1, 56, 32
-0.997127, 149, 97, 180, 352
-0.997131, 41, 13, 56, 44
-0.997135, 33, 69, 160, 100
-0.997157, 1, 353, 128, 384
-0.997169, 1, 385, 128, 416
-0.99717, 93, 225, 124, 480
-0.997182, 1, 161, 355, 224
-0.997227, 237, 1, 268, 256
-0.997236, 7, 189, 22, 220
-0.997236, 209, 169, 336, 200
-0.997239, 97, 429, 224, 460
-0.997259, 23, 177, 38, 208
-0.997259, 309, 1, 340, 256
-0.997279, 63, 17, 78, 48
-0.99728, 33, 29, 48, 60
-0.997286, 305, 201, 320, 232
-0.997297, 67, 5, 82, 36
-0.997304, 77, 73, 92, 104
-0.997314, 3, 13, 18, 44
-0.997318, 139, 117, 154, 148
-0.997332, 13, 1, 28, 32
-0.997342, 1, 137, 128, 168
-0.997342, 113, 325, 240, 356
-0.997355, 161, 445, 288, 476
-0.997358, 177, 425, 192, 456
-0.997368, 215, 249, 230, 280
-0.997375, 49, 289, 176, 320
-0.997375, 109, 89, 124, 120
-0.997389, 81, 225, 208, 256
-0.997399, 11, 17, 26, 48
-0.997405, 127, 121, 142, 152
-0.997405, 103, 121, 118, 152
-0.99741, 65, 309, 192, 340
-0.997412, 161, 245, 288, 276
-0.99742, 85, 29, 100, 60
-0.99742, 137, 5, 152, 36
-0.997434, 105, 37, 120, 68
-0.997435, 111, 133, 126, 164
-0.997435, 113, 225, 144, 480
-0.99744, 83, 153, 98, 184
-0.997441, 87, 213, 102, 244
-0.997446, 221, 465, 236, 496
-0.997447, 257, 225, 288, 480
-0.997454, 91, 17, 106, 48
-0.997466, 209, 297, 224, 328
-0.997467, 1, 197, 16, 228
-0.997467, 305, 145, 320, 176
-0.997473, 29, 169, 44, 200
-0.997482, 209, 453, 224, 484
-0.997486, 119, 245, 134, 276
-0.997488, 269, 225, 300, 480
-0.997495, 27, 33, 42, 64
-0.997504, 195, 441, 210, 472
-0.997504, 205, 157, 220, 188
-0.997505, 151, 121, 166, 152
-0.997507, 71, 29, 86, 60
-0.99751, 223, 161, 238, 192
-0.997532, 317, 197, 332, 228
-0.997532, 301, 349, 316, 380
-0.997534, 189, 161, 220, 416
-0.99754, 7, 1, 22, 32
-0.997541, 81, 385, 96, 416
-0.997543, 107, 429, 122, 460
-0.997547, 203, 449, 218, 480
-0.997549, 213, 261, 228, 292
-0.997551, 109, 25, 124, 56
-0.997553, 23, 45, 38, 76
-0.997558, 109, 117, 124, 148
-0.99756, 133, 117, 148, 148
-0.99756, 187, 437, 202, 468
-0.99756, 291, 345, 306, 376
-0.997562, 107, 265, 122, 296
-0.997564, 127, 181, 142, 212
-0.997566, 227, 469, 242, 500
-0.997567, 71, 85, 86, 116
-0.997567, 79, 49, 94, 80
-0.997573, 147, 1, 162, 32
-0.997578, 89, 149, 104, 180
-0.99758, 71, 61, 86, 92
-0.99758, 153, 193, 184, 448
-0.997594, 41, 25, 56, 56
-0.997598, 209, 1, 224, 32
-0.997601, 121, 5, 136, 36
-0.997604, 91, 33, 106, 64
-0.997604, 69, 17, 84, 48
-0.997605, 97, 417, 112, 448
-0.997612, 81, 405, 96, 436
-0.997626, 211, 277, 226, 308
-0.997628, 75, 17, 90, 48
-0.99763, 207, 21, 222, 52
-0.997631, 85, 13, 100, 44
-0.997631, 321, 1, 352, 256
-0.997646, 99, 1, 114, 32
-0.99765, 157, 101, 172, 132
-0.997651, 103, 229, 118, 260
-0.997657, 131, 137, 146, 168
-0.997668, 181, 85, 196, 116
-0.99767, 73, 413, 88, 444
-0.997671, 113, 245, 128, 276
-0.997672, 273, 129, 304, 384
-0.997674, 79, 93, 94, 124
-0.997675, 67, 49, 82, 80
-0.997693, 157, 121, 172, 152
-0.997695, 263, 329, 278, 360
-0.997703, 281, 257, 312, 500
-0.997713, 209, 313, 224, 344
-0.997714, 61, 97, 92, 352
-0.997715, 109, 233, 124, 264
-0.997715, 215, 161, 230, 192
-0.997718, 51, 1, 66, 32
-0.997718, 255, 325, 270, 356
-0.997723, 181, 437, 196, 468
-0.997727, 107, 417, 122, 448
-0.997729, 77, 109, 92, 140
-0.997729, 167, 209, 182, 240
-0.997732, 169, 89, 184, 120
-0.997732, 177, 353, 304, 384
-0.997732, 181, 105, 196, 136
-0.997738, 279, 341, 294, 372
-0.997738, 83, 201, 98, 232
-0.997747, 1, 257, 355, 320
-0.997748, 83, 165, 98, 196
-0.99775, 215, 457, 230, 488
-0.99775, 123, 257, 138, 288
-0.997751, 135, 25, 150, 56
-0.997751, 101, 273, 116, 304
-0.997764, 325, 13, 340, 44
-0.997769, 315, 141, 330, 172
-0.997772, 71, 373, 86, 404
-0.997777, 117, 29, 132, 60
-0.997786, 97, 385, 224, 416
-0.997786, 79, 29, 94, 60
-0.99779, 1, 317, 128, 348
-0.997793, 265, 137, 280, 168
-0.997793, 95, 265, 110, 296
-0.997796, 215, 1, 230, 32
-0.9978, 33, 161, 64, 416
-0.997802, 133, 1, 164, 256
-0.997805, 1, 89, 128, 120
-0.997805, 269, 333, 284, 364
-0.997808, 101, 253, 116, 284
-0.997811, 307, 349, 322, 380
-0.997814, 283, 145, 298, 176
-0.997818, 107, 249, 122, 280
-0.997821, 203, 61, 218, 92
-0.997822, 225, 221, 352, 252
-0.997828, 89, 409, 104, 440
-0.997829, 101, 49, 116, 80
-0.997833, 203, 73, 218, 104
-0.997834, 65, 29, 80, 60
-0.997836, 131, 5, 146, 36
-0.997851, 81, 225, 112, 480
-0.997852, 249, 33, 280, 288
-0.997854, 125, 193, 156, 448
-0.997858, 225, 205, 352, 236
-0.997859, 225, 381, 352, 412
-0.997864, 49, 349, 176, 380
-0.997897, 65, 321, 192, 352
-0.997954, 113, 417, 240, 448
-0.997974, 1, 337, 256, 400
-0.997975, 97, 365, 224, 396
-0.998013, 1, 153, 128, 184
-0.998047, 41, 1, 72, 256
-0.998098, 21, 161, 52, 416
-0.998102, 45, 161, 76, 416
-0.998237, 313, 97, 344, 352
-0.998255, 293, 225, 324, 480
-0.998271, 245, 257, 276, 500
-0.998273, 221, 225, 252, 480
-0.998316, 9, 129, 40, 384
-0.998374, 177, 97, 208, 352
-0.998375, 317, 257, 348, 500
-0.998389, 1, 361, 256, 424
-0.998393, 57, 257, 88, 500
-0.998398, 37, 257, 68, 500
-0.998417, 165, 193, 196, 448
-0.99843, 265, 149, 328, 164
-0.998434, 41, 7, 104, 22
-0.998441, 9, 31, 72, 46
-0.998443, 193, 19, 256, 34
-0.99845, 25, 1, 88, 16
-0.998452, 153, 71, 216, 86
-0.998452, 289, 207, 352, 222
-0.998452, 153, 39, 216, 54
-0.998453, 137, 117, 200, 132
-0.998454, 9, 39, 72, 54
-0.998454, 153, 21, 216, 36
-0.998455, 217, 333, 280, 348
-0.998457, 105, 127, 168, 142
-0.998459, 249, 267, 312, 282
-0.99846, 25, 23, 88, 38
-0.998462, 105, 121, 168, 136
-0.998464, 193, 73, 256, 88
-0.998464, 89, 31, 152, 46
-0.998464, 1, 189, 64, 204
-0.998465, 153, 61, 216, 76
-0.998466, 49, 33, 112, 48
-0.998469, 153, 15, 216, 30
-0.998471, 17, 9, 80, 24
-0.998475, 193, 65, 256, 80
-0.998477, 113, 29, 176, 44
-0.998479, 65, 1, 128, 16
-0.99848, 153, 29, 216, 44
-0.998489, 157, 1, 188, 16
-0.998489, 233, 485, 264, 500
-0.998489, 73, 149, 104, 164
-0.998489, 153, 79, 216, 94
-0.99849, 189, 57, 220, 72
-0.99849, 37, 19, 68, 34
-0.998491, 141, 17, 172, 32
-0.998491, 89, 7, 152, 22
-0.998491, 189, 21, 220, 36
-0.998491, 301, 203, 332, 218
-0.998491, 185, 157, 248, 172
-0.998492, 85, 25, 116, 40
-0.998493, 13, 187, 44, 202
-0.998494, 189, 69, 220, 84
-0.998494, 177, 159, 208, 174
-0.998494, 41, 197, 104, 212
-0.998495, 241, 137, 272, 152
-0.998495, 93, 265, 124, 280
-0.998496, 73, 31, 104, 46
-0.998497, 253, 329, 284, 344
-0.998497, 189, 99, 220, 114
-0.998498, 209, 133, 272, 148
-0.998498, 225, 73, 256, 88
-0.998498, 253, 189, 284, 204
-0.998498, 201, 21, 232, 36
-0.998498, 89, 141, 152, 156
-0.998499, 25, 51, 88, 66
-0.9985, 21, 43, 52, 58
-0.998501, 241, 325, 272, 340
-0.998501, 89, 9, 120, 24
-0.998502, 185, 43, 216, 58
-0.998502, 261, 265, 292, 280
-0.998502, 185, 15, 216, 30
-0.998502, 89, 421, 120, 436
-0.998502, 57, 51, 120, 66
-0.998503, 145, 125, 208, 140
-0.998503, 137, 3, 200, 18
-0.998503, 185, 29, 216, 44
-0.998503, 265, 349, 296, 364
-0.998504, 201, 75, 232, 90
-0.998504, 197, 111, 228, 126
-0.998505, 265, 191, 296, 206
-0.998505, 145, 3, 176, 18
-0.998505, 49, 23, 80, 38
-0.998506, 61, 23, 92, 38
-0.998506, 89, 53, 120, 68
-0.998506, 217, 185, 280, 200
-0.998507, 249, 29, 280, 44
-0.998507, 189, 295, 220, 310
-0.998507, 77, 53, 108, 68
-0.998507, 233, 331, 264, 346
-0.998507, 197, 93, 228, 108
-0.998508, 193, 483, 256, 498
-0.998508, 97, 27, 128, 42
-0.998508, 133, 129, 164, 144
-0.998509, 237, 183, 268, 198
-0.998509, 241, 73, 272, 88
-0.998509, 129, 141, 160, 156
-0.998511, 41, 427, 104, 442
-0.998511, 101, 241, 132, 256
-0.998511, 125, 7, 156, 22
-0.998511, 169, 85, 232, 100
-0.998512, 177, 461, 240, 476
-0.998512, 1, 1, 64, 16
-0.998513, 1, 17, 64, 32
-0.998513, 153, 443, 216, 458
-0.998513, 257, 11, 320, 26
-0.998513, 93, 209, 124, 224
-0.998514, 273, 343, 304, 358
-0.998514, 121, 87, 184, 102
-0.998514, 89, 133, 152, 148
-0.998514, 209, 83, 272, 98
-0.998515, 141, 289, 172, 304
-0.998515, 185, 473, 248, 488
-0.998515, 17, 25, 48, 40
-0.998516, 177, 123, 240, 138
-0.998516, 193, 59, 256, 74
-0.998516, 157, 295, 188, 310
-0.998516, 77, 413, 108, 428
-0.998517, 105, 267, 136, 282
-0.998517, 105, 249, 136, 264
-0.998517, 205, 65, 236, 80
-0.998518, 209, 165, 240, 180
-0.998518, 181, 81, 212, 96
-0.998518, 249, 193, 312, 208
-0.998519, 281, 193, 312, 208
-0.998519, 293, 209, 324, 224
-0.998519, 265, 143, 328, 158
-0.998519, 241, 345, 304, 360
-0.998519, 9, 183, 72, 198
-0.99852, 65, 27, 128, 42
-0.998521, 1, 189, 32, 204
-0.998521, 201, 127, 232, 142
-0.998521, 185, 109, 216, 124
-0.998522, 89, 13, 152, 28
-0.998522, 17, 423, 80, 438
-0.998523, 169, 293, 232, 308
-0.998523, 153, 55, 216, 70
-0.998523, 185, 63, 216, 78
-0.998524, 145, 139, 176, 154
-0.998524, 197, 87, 228, 102
-0.998525, 89, 49, 152, 64
-0.998525, 225, 183, 256, 198
-0.998525, 257, 353, 320, 368
-0.998525, 177, 467, 240, 482
-0.998525, 165, 119, 196, 134
-0.998526, 193, 157, 224, 172
-0.998527, 225, 169, 256, 184
-0.998527, 149, 117, 180, 132
-0.998527, 241, 155, 304, 170
-0.998527, 121, 141, 184, 156
-0.998528, 129, 15, 192, 30
-0.998528, 217, 47, 280, 62
-0.998529, 1, 203, 64, 218
-0.998529, 37, 31, 68, 46
-0.998529, 201, 39, 264, 54
-0.998529, 233, 19, 296, 34
-0.99853, 113, 23, 176, 38
-0.998531, 217, 77, 280, 92
-0.998532, 193, 29, 256, 44
-0.998532, 137, 25, 168, 40
-0.998533, 161, 455, 224, 470
-0.998533, 153, 45, 216, 60
-0.998534, 273, 347, 336, 362
-0.998534, 193, 47, 256, 62
-0.998535, 29, 11, 60, 26
-0.998535, 41, 185, 104, 200
-0.998535, 113, 7, 176, 22
-0.998536, 217, 53, 280, 68
-0.998536, 217, 91, 280, 106
-0.998537, 233, 13, 296, 28
-0.998537, 301, 275, 332, 290
-0.998537, 193, 13, 256, 28
-0.998537, 17, 431, 80, 446
-0.998537, 209, 127, 272, 142
-0.998537, 85, 1, 116, 16
-0.998537, 49, 41, 112, 56
-0.998538, 277, 149, 308, 164
-0.998539, 57, 21, 120, 36
-0.998539, 49, 29, 80, 44
-0.998539, 49, 433, 112, 448
-0.998539, 297, 355, 328, 370
-0.99854, 185, 137, 248, 152
-0.99854, 153, 123, 184, 138
-0.99854, 281, 19, 344, 34
-0.99854, 145, 435, 208, 450
-0.998541, 193, 115, 256, 130
-0.998541, 233, 25, 296, 40
-0.998541, 185, 165, 216, 180
-0.998541, 273, 197, 336, 212
-0.998542, 185, 35, 216, 50
-0.998543, 37, 25, 68, 40
-0.998544, 105, 95, 168, 110
-0.998544, 169, 87, 200, 102
-0.998544, 265, 137, 328, 152
-0.998544, 233, 63, 296, 78
-0.998544, 1, 25, 64, 40
-0.998544, 281, 9, 344, 24
-0.998544, 209, 327, 272, 342
-0.998545, 241, 337, 304, 352
-0.998546, 177, 35, 240, 50
-0.998547, 161, 91, 224, 106
-0.998548, 233, 141, 296, 156
-0.998548, 41, 13, 104, 28
-0.998548, 129, 135, 160, 150
-0.998549, 21, 37, 52, 52
-0.998549, 117, 137, 148, 152
-0.99855, 89, 263, 152, 278
-0.99855, 81, 159, 112, 174
-0.99855, 233, 69, 296, 84
-0.998551, 177, 41, 240, 56
-0.998551, 113, 135, 176, 150
-0.998553, 61, 29, 92, 44
-0.998553, 57, 223, 120, 238
-0.998553, 177, 283, 240, 298
-0.998553, 185, 119, 216, 134
-0.998553, 249, 261, 312, 276
-0.998554, 97, 143, 128, 158
-0.998554, 145, 143, 208, 158
-0.998555, 17, 343, 80, 358
-0.998555, 301, 191, 332, 206
-0.998556, 129, 289, 192, 304
-0.998556, 209, 177, 240, 192
-0.998556, 209, 171, 272, 186
-0.998556, 109, 257, 140, 272
-0.998556, 97, 269, 160, 284
-0.998556, 89, 25, 152, 40
-0.998557, 81, 175, 144, 190
-0.998557, 1, 1, 32, 16
-0.998558, 241, 331, 304, 346
-0.998558, 169, 303, 232, 318
-0.998558, 169, 165, 232, 180
-0.998558, 1, 195, 64, 210
-0.998559, 153, 109, 216, 124
-0.998559, 293, 153, 324, 168
-0.99856, 73, 13, 104, 28
-0.998561, 41, 191, 104, 206
-0.998561, 9, 45, 72, 60
-0.998562, 17, 19, 48, 34
-0.998562, 265, 359, 328, 374
-0.998562, 83, 129, 98, 256
-0.998562, 65, 59, 128, 74
-0.998562, 193, 53, 256, 68
-0.998564, 5, 11, 36, 26
-0.998564, 17, 31, 48, 46
-0.998565, 5, 195, 36, 210
-0.998567, 109, 127, 140, 142
-0.998568, 113, 5, 144, 20
-0.99857, 261, 259, 292, 274
-0.99857, 205, 265, 236, 280
-0.998572, 217, 133, 248, 148
-0.998572, 69, 421, 100, 436
-0.998573, 1, 17, 32, 32
-0.998573, 41, 1, 72, 16
-0.998576, 215, 1, 230, 128
-0.998577, 17, 181, 48, 196
-0.998577, 265, 145, 296, 160
-0.998582, 105, 133, 136, 148
-0.998582, 109, 65, 124, 192
-0.998583, 173, 153, 204, 168
-0.998587, 49, 7, 80, 22
-0.998591, 71, 1, 86, 128
-0.998592, 141, 225, 172, 480
-0.998593, 205, 1, 220, 128
-0.998594, 173, 143, 204, 158
-0.998594, 101, 1, 132, 16
-0.998599, 253, 343, 284, 358
-0.998604, 135, 97, 150, 224
-0.998608, 237, 1, 252, 128
-0.998609, 201, 171, 232, 186
-0.998609, 301, 197, 332, 212
-0.998613, 1, 39, 32, 54
-0.998613, 17, 5, 48, 20
-0.998614, 265, 337, 296, 352
-0.998615, 85, 31, 116, 46
-0.998632, 69, 225, 100, 480
-0.998634, 29, 3, 60, 18
-0.998639, 75, 81, 90, 208
-0.998648, 5, 25, 36, 40
-0.998649, 77, 17, 92, 144
-0.998652, 119, 113, 134, 240
-0.998653, 129, 121, 160, 136
-0.998656, 17, 13, 48, 28
-0.998656, 313, 205, 344, 220
-0.998661, 225, 1, 240, 128
-0.998678, 125, 113, 140, 240
-0.998679, 213, 225, 228, 352
-0.998688, 1, 31, 32, 46
-0.99869, 83, 81, 98, 208
-0.998707, 103, 113, 118, 240
-0.998711, 3, 1, 18, 128
-0.998728, 89, 145, 104, 272
-0.998737, 209, 81, 224, 208
-0.99875, 1, 233, 355, 296
-0.998756, 237, 161, 268, 416
-0.998765, 65, 1, 80, 128
-0.998788, 113, 113, 128, 240
-0.998791, 147, 1, 162, 128
-0.998792, 117, 33, 132, 160
-0.998802, 135, 33, 150, 160
-0.998805, 21, 257, 52, 500
-0.998811, 103, 1, 118, 128
-0.998818, 307, 129, 322, 256
-0.998823, 215, 81, 230, 208
-0.998824, 271, 1, 286, 128
-0.998854, 129, 33, 144, 160
-0.998857, 231, 1, 246, 128
-0.998862, 183, 1, 198, 128
-0.998881, 93, 1, 108, 128
-0.998889, 239, 113, 254, 240
-0.998896, 109, 17, 124, 144
-0.998899, 69, 65, 84, 192
-0.9989, 97, 113, 112, 240
-0.998903, 307, 177, 322, 304
-0.998928, 325, 1, 340, 128
-0.998932, 125, 177, 140, 304
-0.998935, 11, 1, 26, 128
-0.998939, 193, 1, 208, 128
-0.998943, 73, 369, 88, 496
-0.998952, 201, 65, 216, 192
-0.998953, 157, 17, 172, 144
-0.998955, 217, 289, 232, 416
-0.998958, 89, 65, 104, 192
-0.998962, 59, 1, 74, 128
-0.998977, 319, 1, 334, 128
-0.998985, 211, 129, 226, 256
-0.998992, 87, 337, 102, 464
-0.999, 205, 257, 220, 384
-0.999004, 177, 257, 208, 500
-0.999008, 163, 49, 178, 176
-0.999009, 123, 49, 138, 176
-0.999011, 77, 129, 92, 256
-0.999012, 221, 65, 236, 192
-0.999016, 103, 49, 118, 176
-0.99902, 83, 17, 98, 144
-0.999021, 141, 49, 156, 176
-0.999021, 237, 49, 252, 176
-0.999032, 179, 49, 194, 176
-0.99904, 281, 1, 296, 128
-0.999043, 101, 193, 116, 320
-0.999044, 37, 1, 52, 128
-0.999045, 265, 1, 280, 128
-0.999046, 297, 129, 312, 256
-0.999048, 255, 273, 270, 400
-0.99905, 29, 161, 44, 288
-0.999051, 199, 113, 214, 240
-0.999052, 261, 241, 276, 368
-0.999054, 223, 241, 238, 368
-0.999056, 151, 65, 166, 192
-0.999066, 265, 65, 280, 192
-0.999067, 133, 241, 148, 368
-0.999068, 195, 65, 210, 192
-0.999074, 109, 161, 124, 288
-0.999075, 43, 1, 58, 128
-0.999076, 313, 129, 328, 256
-0.999085, 167, 193, 182, 320
-0.999086, 81, 369, 96, 496
-0.999096, 27, 1, 42, 128
-0.9991, 81, 321, 96, 448
-0.999104, 233, 257, 264, 500
-0.999108, 173, 1, 188, 128
-0.999109, 231, 113, 246, 240
-0.999113, 119, 193, 134, 320
-0.999114, 169, 65, 184, 192
-0.999119, 131, 145, 146, 272
-0.999119, 89, 193, 104, 320
-0.999123, 227, 49, 242, 176
-0.999127, 51, 1, 66, 128
-0.999127, 141, 97, 156, 224
-0.999131, 17, 1, 32, 128
-0.999142, 95, 49, 110, 176
-0.999148, 181, 97, 196, 224
-0.999152, 331, 1, 346, 128
-0.999153, 243, 1, 258, 128
-0.999158, 313, 193, 328, 320
-0.999163, 161, 209, 176, 336
-0.999163, 239, 305, 254, 432
-0.999165, 301, 193, 316, 320
-0.99917, 321, 321, 336, 448
-0.999173, 287, 1, 302, 128
-0.999176, 319, 273, 334, 400
-0.999181, 59, 353, 74, 480
-0.999184, 287, 321, 302, 448
-0.999185, 107, 225, 122, 352
-0.999185, 239, 161, 254, 288
-0.999187, 123, 1, 138, 128
-0.999189, 93, 289, 108, 416
-0.999193, 167, 1, 182, 128
-0.999195, 95, 225, 110, 352
-0.999197, 205, 145, 220, 272
-0.9992, 93, 337, 108, 464
-0.999201, 127, 225, 142, 352
-0.999206, 325, 49, 340, 176
-0.999206, 199, 1, 214, 128
-0.999211, 23, 145, 38, 272
-0.999213, 121, 353, 136, 480
-0.999213, 283, 241, 298, 368
-0.999215, 65, 353, 80, 480
-0.999217, 141, 1, 156, 128
-0.999217, 77, 177, 92, 304
-0.999218, 115, 353, 130, 480
-0.999221, 11, 161, 26, 288
-0.999226, 259, 65, 274, 192
-0.999227, 157, 65, 172, 192
-0.999233, 197, 273, 212, 400
-0.999233, 17, 161, 32, 288
-0.999234, 309, 1, 324, 128
-0.999235, 209, 305, 224, 432
-0.99924, 327, 289, 342, 416
-0.999245, 51, 273, 66, 400
-0.999545, 249, 129, 280, 384
-0.999669, 207, 155, 222, 170
-0.99967, 205, 453, 220, 468
-0.99967, 69, 31, 84, 46
-0.99967, 301, 349, 316, 364
-0.999671, 215, 159, 230, 174
-0.999671, 207, 169, 222, 184
-0.999671, 75, 29, 90, 44
-0.999671, 77, 73, 92, 88
-0.999671, 203, 163, 218, 178
-0.999672, 25, 49, 40, 64
-0.999672, 115, 91, 130, 106
-0.999672, 199, 447, 214, 462
-0.999672, 209, 309, 224, 324
-0.999672, 271, 11, 286, 26
-0.999674, 161, 141, 176, 156
-0.999674, 213, 279, 228, 294
-0.999674, 103, 51, 118, 66
-0.999674, 75, 87, 90, 102
-0.999675, 177, 119, 192, 134
-0.999675, 53, 1, 68, 16
-0.999675, 41, 23, 56, 38
-0.999677, 109, 249, 124, 264
-0.999677, 273, 153, 288, 168
-0.999677, 327, 11, 342, 26
-0.999678, 99, 263, 114, 278
-0.999678, 193, 155, 208, 170
-0.999679, 31, 21, 46, 36
-0.999679, 275, 259, 290, 274
-0.999679, 127, 131, 142, 146
-0.99968, 265, 143, 280, 158
-0.99968, 13, 11, 28, 26
-0.99968, 317, 277, 332, 292
-0.999681, 187, 437, 202, 452
-0.999681, 87, 159, 102, 174
-0.999681, 261, 343, 276, 358
-0.999682, 305, 155, 320, 170
-0.999682, 125, 173, 140, 188
-0.999683, 83, 219, 98, 234
-0.999683, 69, 17, 84, 32
-0.999684, 1, 39, 16, 54
-0.999684, 107, 269, 122, 284
-0.999684, 89, 213, 104, 228
-0.999685, 211, 291, 226, 306
-0.999686, 133, 119, 148, 134
-0.999687, 207, 129, 222, 144
-0.999688, 179, 87, 194, 102
-0.999688, 137, 7, 152, 22
-0.999688, 1, 195, 16, 210
-0.999689, 41, 13, 56, 28
-0.999689, 83, 169, 98, 184
-0.99969, 83, 213, 98, 228
-0.99969, 257, 329, 272, 344
-0.999691, 21, 21, 36, 36
-0.999691, 107, 435, 122, 450
-0.999692, 107, 127, 122, 142
-0.999692, 99, 239, 114, 254
-0.999692, 223, 177, 238, 192
-0.999692, 85, 33, 100, 48
-0.999692, 109, 97, 124, 112
-0.999692, 145, 289, 160, 304
-0.999694, 195, 163, 210, 178
-0.999696, 153, 291, 168, 306
-0.999697, 307, 213, 322, 228
-0.999697, 107, 235, 122, 250
-0.999698, 235, 329, 250, 344
-0.999698, 19, 37, 34, 52
-0.999698, 133, 137, 148, 152
-0.999699, 215, 257, 230, 272
-0.999701, 209, 163, 224, 178
-0.999702, 305, 201, 320, 216
-0.999702, 239, 179, 254, 194
-0.999702, 79, 389, 94, 404
-0.999703, 169, 89, 184, 104
-0.999703, 229, 179, 244, 194
-0.999704, 255, 187, 270, 202
-0.999704, 75, 417, 90, 432
-0.999705, 105, 31, 120, 46
-0.999706, 1, 205, 16, 220
-0.999708, 125, 179, 140, 194
-0.999709, 69, 55, 84, 70
-0.999709, 221, 133, 236, 148
-0.999711, 33, 31, 48, 46
-0.999712, 97, 1, 112, 16
-0.999713, 25, 177, 40, 192
-0.999713, 245, 181, 260, 196
-0.999713, 27, 41, 42, 56
-0.999713, 3, 17, 18, 32
-0.999713, 175, 425, 190, 440
-0.999714, 205, 19, 220, 34
-0.999715, 47, 1, 62, 16
-0.999717, 217, 241, 232, 256
-0.99972, 17, 43, 32, 58
-0.999721, 267, 333, 282, 348
-0.999721, 217, 247, 232, 262
-0.999721, 121, 127, 136, 142
-0.999722, 167, 147, 182, 162
-0.999725, 319, 203, 334, 218
-0.999725, 267, 257, 282, 272
-0.999726, 305, 355, 320, 370
-0.999728, 63, 29, 78, 44
-0.999729, 281, 343, 296, 358
-0.999732, 85, 15, 100, 30
-0.999736, 273, 337, 288, 352
-0.999736, 175, 153, 190, 168
-0.999736, 311, 189, 326, 204
-0.999737, 215, 169, 230, 184
-0.999737, 99, 29, 114, 44
-0.999738, 127, 137, 142, 152
-0.999739, 39, 5, 54, 20
-0.999739, 9, 193, 24, 208
-0.99974, 7, 199, 22, 214
-0.999744, 295, 349, 310, 364
-0.999751, 101, 135, 116, 150
-0.999756, 181, 157, 196, 172
-0.99976, 151, 135, 166, 150
-0.999764, 307, 207, 322, 222
-0.999764, 209, 303, 224, 318
-0.999764, 19, 31, 34, 46
-0.999766, 287, 345, 302, 360
-0.999769, 13, 21, 28, 36
-0.999771, 5, 31, 20, 46
-0.999772, 109, 137, 124, 152
-0.999778, 29, 13, 44, 28
-0.999779, 31, 5, 46, 20
-0.99978, 21, 15, 36, 30
-0.999785, 25, 5, 40, 20
-0.999791, 15, 189, 30, 204
-0.999809, 187, 157, 202, 172
-0.999813, 219, 233, 234, 248
-0.999823, 19, 183, 34, 198
-1.00001, 1, 225, 32, 480
-1.00027, 325, 97, 355, 352
