1950
-0.396923, 1, 1, 500, 375
-0.400319, 1, 129, 500, 375
-0.479501, 1, 1, 500, 256
-0.501796, 97, 1, 352, 375
-0.56934, 257, 1, 500, 375
-0.597608, 65, 65, 320, 320
-0.622288, 1, 1, 256, 375
-0.683054, 225, 97, 480, 352
-0.728948, 225, 1, 480, 256
-0.853464, 193, 97, 320, 352
-0.862961, 369, 65, 496, 320
-0.864224, 81, 1, 208, 375
-0.867341, 305, 97, 432, 352
-0.869494, 369, 1, 496, 375
-0.874363, 33, 129, 160, 375
-0.875925, 113, 33, 240, 288
-0.882294, 1, 193, 500, 320
-0.884893, 129, 1, 256, 375
-0.889382, 321, 1, 448, 375
-0.890506, 193, 1, 320, 375
-0.891876, 129, 129, 256, 375
-0.892304, 241, 129, 368, 375
-0.896812, 1, 113, 500, 240
-0.899679, 305, 1, 432, 256
-0.90369, 241, 1, 368, 375
-0.904668, 65, 1, 192, 256
-0.905196, 1, 1, 128, 375
-0.908844, 1, 65, 500, 192
-0.912908, 1, 1, 128, 256
-0.914102, 1, 241, 500, 368
-0.915226, 65, 81, 320, 208
-0.91615, 257, 33, 384, 288
-0.920711, 81, 129, 208, 375
-0.924214, 161, 1, 288, 256
-0.928693, 1, 17, 500, 144
-0.929342, 257, 129, 500, 256
-0.929457, 217, 81, 280, 208
-0.930323, 97, 129, 352, 256
-0.932106, 257, 177, 500, 304
-0.936371, 209, 1, 336, 256
-0.937253, 193, 129, 320, 256
-0.937699, 193, 81, 448, 208
-0.937715, 257, 145, 320, 272
-0.938067, 353, 145, 480, 272
-0.938794, 273, 161, 400, 288
-0.941267, 257, 33, 500, 160
-0.941591, 369, 1, 496, 128
-0.941744, 409, 65, 472, 192
-0.942119, 409, 17, 472, 144
-0.94221, 401, 145, 464, 272
-0.942863, 369, 129, 432, 256
-0.944047, 225, 177, 352, 304
-0.944711, 65, 177, 320, 304
-0.944797, 161, 177, 416, 304
-0.945064, 1, 33, 256, 160
-0.946336, 145, 209, 272, 336
-0.946695, 369, 97, 496, 224
-0.947025, 217, 145, 280, 272
-0.947359, 177, 81, 304, 208
-0.947708, 329, 161, 392, 288
-0.948117, 433, 81, 496, 208
-0.948515, 33, 161, 160, 288
-0.94904, 217, 193, 280, 320
-0.949221, 241, 209, 304, 272
-0.949493, 185, 225, 248, 352
-0.950067, 337, 153, 400, 216
-0.950125, 361, 193, 424, 320
-0.950669, 177, 177, 240, 304
-0.950764, 281, 145, 344, 272
-0.952271, 129, 161, 256, 288
-0.952946, 1, 129, 256, 256
-0.954213, 369, 49, 496, 176
-0.954665, 433, 1, 496, 128
-0.95468, 393, 113, 456, 176
-0.954907, 305, 177, 368, 304
-0.954913, 225, 225, 480, 352
-0.954924, 145, 161, 208, 288
-0.954999, 193, 225, 320, 352
-0.95506, 33, 113, 160, 240
-0.9551, 353, 193, 480, 320
-0.955286, 217, 89, 280, 152
-0.955826, 145, 209, 208, 336
-0.956, 217, 209, 280, 272
-0.956022, 113, 97, 240, 224
-0.956248, 425, 193, 488, 320
-0.956531, 241, 193, 304, 320
-0.956714, 321, 97, 448, 224
-0.956915, 97, 225, 352, 352
-0.957018, 217, 113, 280, 176
-0.957137, 385, 137, 448, 200
-0.957156, 193, 129, 256, 256
-0.95728, 97, 33, 352, 160
-0.957378, 241, 113, 368, 240
-0.957592, 257, 97, 320, 224
-0.957624, 113, 49, 240, 176
-0.958224, 33, 241, 160, 368
-0.959081, 97, 209, 224, 336
-0.959519, 377, 81, 440, 208
-0.959657, 1, 113, 64, 240
-0.960048, 41, 145, 104, 272
-0.960214, 257, 145, 320, 208
-0.960305, 177, 65, 240, 192
-0.960357, 425, 129, 488, 256
-0.960464, 353, 193, 416, 256
-0.960681, 409, 145, 472, 208
-0.96086, 401, 89, 464, 152
-0.961129, 41, 81, 104, 208
-0.961443, 321, 185, 384, 248
-0.961602, 177, 193, 240, 256
-0.961616, 401, 193, 464, 320
-0.961855, 1, 241, 256, 368
-0.962106, 281, 193, 344, 256
-0.962295, 417, 121, 480, 184
-0.96256, 297, 161, 360, 224
-0.962891, 193, 225, 256, 288
-0.962944, 289, 225, 352, 288
-0.963049, 377, 177, 440, 240
-0.963244, 81, 161, 208, 288
-0.963549, 201, 185, 264, 248
-0.963557, 321, 225, 384, 352
-0.963629, 337, 113, 400, 240
-0.963718, 129, 17, 192, 144
-0.963769, 321, 209, 384, 272
-0.964068, 305, 113, 368, 240
-0.964572, 41, 33, 104, 160
-0.964576, 121, 241, 184, 368
-0.964595, 401, 65, 464, 128
-0.965176, 1, 241, 64, 368
-0.965593, 281, 193, 344, 320
-0.965764, 105, 177, 168, 304
-0.965822, 345, 217, 408, 280
-0.966679, 241, 233, 304, 296
-0.966732, 265, 225, 328, 288
-0.967015, 153, 193, 216, 256
-0.967331, 81, 97, 144, 224
-0.967439, 233, 153, 296, 216
-0.967603, 1, 65, 128, 192
-0.967609, 209, 241, 272, 368
-0.967708, 145, 217, 208, 280
-0.967848, 361, 193, 392, 256
-0.96788, 241, 225, 368, 352
-0.967996, 321, 233, 384, 296
-0.968044, 217, 65, 280, 320
-0.968147, 273, 169, 336, 232
-0.968293, 121, 249, 184, 312
-0.968414, 17, 65, 80, 192
-0.968664, 145, 265, 208, 328
-0.968768, 345, 241, 408, 368
-0.969322, 369, 113, 432, 176
-0.969443, 425, 65, 488, 128
-0.969477, 41, 145, 104, 208
-0.969662, 49, 1, 176, 128
-0.970119, 361, 137, 424, 200
-0.970378, 121, 129, 184, 256
-0.970611, 289, 137, 352, 200
-0.970676, 257, 65, 384, 192
-0.970717, 177, 97, 240, 160
-0.970723, 17, 137, 80, 200
-0.970738, 105, 225, 168, 288
-0.970828, 217, 233, 280, 296
-0.97096, 401, 33, 464, 96
-0.97104, 281, 129, 344, 375
-0.971096, 81, 161, 144, 288
-0.971217, 425, 209, 488, 272
-0.971292, 177, 73, 240, 136
-0.971427, 433, 65, 496, 320
-0.971448, 129, 1, 192, 256
-0.971484, 401, 1, 464, 256
-0.971644, 361, 129, 424, 375
-0.971721, 233, 185, 296, 248
-0.971816, 353, 241, 480, 368
-0.971889, 385, 129, 416, 256
-0.971983, 361, 161, 392, 288
-0.972435, 1, 161, 64, 288
-0.97247, 121, 153, 184, 216
-0.972683, 169, 233, 232, 296
-0.972782, 133, 233, 164, 296
-0.972822, 137, 25, 200, 88
-0.972848, 385, 17, 448, 144
-0.972963, 97, 201, 160, 264
-0.973063, 97, 241, 160, 368
-0.973081, 129, 177, 192, 240
-0.97324, 361, 257, 424, 320
-0.973252, 9, 217, 72, 280
-0.973283, 425, 1, 488, 64
-0.973331, 257, 121, 320, 184
-0.973562, 273, 193, 400, 256
-0.9736, 321, 129, 384, 375
-0.973629, 381, 177, 412, 240
-0.97365, 385, 97, 448, 352
-0.973656, 81, 129, 144, 192
-0.973666, 185, 257, 248, 320
-0.973767, 145, 113, 208, 240
-0.973923, 81, 169, 144, 232
-0.973939, 305, 209, 432, 336
-0.973984, 401, 1, 464, 64
-0.97407, 145, 241, 208, 304
-0.974113, 433, 145, 496, 208
-0.974163, 417, 177, 480, 240
-0.974185, 321, 49, 448, 176
-0.974323, 289, 129, 320, 256
-0.974433, 237, 201, 268, 264
-0.974465, 373, 201, 404, 264
-0.974477, 321, 145, 448, 208
-0.974504, 17, 169, 80, 232
-0.974516, 105, 177, 168, 240
-0.974519, 401, 225, 464, 288
-0.974634, 225, 201, 256, 264
-0.974643, 237, 225, 268, 288
-0.974672, 361, 217, 392, 280
-0.974678, 225, 81, 256, 208
-0.974934, 233, 241, 296, 368
-0.974998, 41, 97, 104, 160
-0.975225, 145, 217, 272, 280
-0.975274, 113, 81, 176, 208
-0.975319, 289, 145, 320, 208
-0.97553, 49, 169, 112, 232
-0.975758, 425, 41, 488, 104
-0.975785, 269, 145, 300, 272
-0.975808, 433, 241, 496, 304
-0.975848, 245, 81, 276, 208
-0.975861, 145, 57, 208, 120
-0.975976, 349, 145, 380, 272
-0.976063, 241, 97, 304, 352
-0.976133, 9, 89, 72, 152
-0.97631, 205, 185, 236, 248
-0.976506, 425, 97, 488, 160
-0.976519, 193, 201, 320, 264
-0.976524, 193, 97, 256, 352
-0.976537, 253, 209, 284, 272
-0.976607, 401, 161, 432, 224
-0.976611, 105, 1, 168, 128
-0.976618, 413, 129, 444, 256
-0.97673, 145, 129, 208, 375
-0.976776, 437, 1, 468, 128
-0.976779, 353, 65, 416, 192
-0.97679, 225, 81, 256, 144
-0.976804, 121, 201, 184, 264
-0.976822, 129, 1, 256, 128
-0.976876, 373, 177, 404, 304
-0.9769, 193, 145, 320, 208
-0.976933, 25, 225, 88, 352
-0.976961, 469, 65, 500, 192
-0.977001, 201, 161, 264, 224
-0.97702, 133, 225, 164, 352
-0.977033, 393, 241, 456, 368
-0.977079, 441, 65, 472, 192
-0.977129, 241, 153, 368, 216
-0.977133, 397, 121, 428, 184
-0.977175, 349, 225, 380, 288
-0.977207, 145, 289, 208, 352
-0.977234, 225, 193, 256, 320
-0.977262, 425, 137, 456, 200
-0.977291, 237, 145, 268, 272
-0.977329, 273, 241, 336, 368
-0.977344, 369, 217, 432, 280
-0.977427, 429, 129, 460, 256
-0.977439, 321, 1, 448, 128
-0.977498, 153, 169, 216, 232
-0.977541, 385, 273, 448, 336
-0.977552, 145, 217, 176, 280
-0.977553, 401, 113, 432, 240
-0.977586, 153, 49, 216, 176
-0.97772, 41, 25, 104, 88
-0.977768, 49, 209, 112, 336
-0.977846, 373, 129, 404, 256
-0.977932, 89, 97, 152, 352
-0.978043, 465, 161, 496, 288
-0.978058, 257, 145, 288, 272
-0.978078, 97, 1, 160, 64
-0.978078, 269, 193, 300, 256
-0.978134, 369, 241, 432, 368
-0.978187, 369, 113, 496, 176
-0.978195, 17, 17, 80, 144
-0.978245, 369, 137, 496, 200
-0.978393, 189, 201, 220, 264
-0.978426, 177, 153, 240, 216
-0.978506, 305, 169, 336, 232
-0.978738, 449, 217, 480, 280
-0.978749, 401, 201, 464, 264
-0.978776, 121, 129, 184, 192
-0.978789, 413, 177, 444, 304
-0.978817, 121, 289, 184, 352
-0.978853, 393, 177, 424, 304
-0.978903, 297, 193, 328, 256
-0.978992, 353, 209, 480, 272
-0.979021, 221, 225, 252, 288
-0.979033, 177, 177, 304, 240
-0.979044, 369, 73, 496, 136
-0.979057, 257, 97, 320, 160
-0.979089, 217, 257, 280, 320
-0.979108, 177, 89, 304, 152
-0.979119, 225, 225, 352, 288
-0.979231, 305, 161, 336, 288
-0.979445, 237, 209, 268, 336
-0.97945, 45, 113, 76, 240
-0.9795, 1, 257, 64, 320
-0.979523, 245, 89, 276, 152
-0.979543, 1, 193, 64, 256
-0.979652, 41, 49, 104, 112
-0.979698, 41, 73, 104, 136
-0.979761, 357, 153, 388, 216
-0.979808, 97, 241, 224, 304
-0.97989, 453, 161, 484, 288
-0.979899, 273, 265, 336, 328
-0.979984, 409, 97, 472, 352
-0.980027, 129, 193, 256, 256
-0.980048, 377, 153, 408, 216
-0.980055, 113, 97, 176, 352
-0.980078, 385, 249, 448, 312
-0.98022, 321, 265, 384, 328
-0.980259, 325, 177, 356, 304
-0.980307, 81, 225, 144, 288
-0.980378, 425, 113, 456, 176
-0.980452, 49, 233, 176, 296
-0.980541, 145, 225, 176, 352
-0.980628, 17, 65, 80, 128
-0.980668, 225, 265, 352, 328
-0.980678, 81, 105, 144, 168
-0.980722, 161, 121, 288, 184
-0.980724, 57, 217, 120, 280
-0.980761, 97, 257, 160, 320
-0.980791, 429, 65, 460, 192
-0.980791, 205, 145, 236, 272
-0.980817, 409, 129, 440, 192
-0.980863, 265, 145, 296, 208
-0.980871, 349, 193, 380, 256
-0.980886, 321, 177, 448, 240
-0.980926, 349, 193, 380, 320
-0.980957, 169, 129, 232, 256
-0.981089, 49, 297, 112, 360
-0.981111, 17, 169, 144, 232
-0.981148, 461, 73, 492, 136
-0.981163, 185, 121, 248, 184
-0.981185, 185, 289, 248, 352
-0.981219, 369, 233, 496, 296
-0.981229, 453, 153, 484, 216
-0.98128, 289, 169, 320, 232
-0.981306, 209, 281, 272, 344
-0.98132, 45, 137, 76, 200
-0.981334, 225, 145, 256, 272
-0.981365, 133, 257, 164, 320
-0.981435, 289, 217, 320, 280
-0.981531, 1, 297, 64, 360
-0.981546, 257, 193, 288, 320
-0.98165, 257, 49, 320, 176
-0.981653, 269, 209, 300, 336
-0.981709, 393, 1, 456, 375
-0.98172, 217, 33, 280, 160
-0.981736, 417, 73, 448, 136
-0.981751, 225, 177, 352, 240
-0.981779, 145, 241, 176, 304
-0.981904, 393, 193, 424, 256
-0.981909, 201, 217, 232, 280
-0.982022, 277, 217, 308, 280
-0.982039, 129, 65, 256, 128
-0.982047, 161, 249, 288, 312
-0.982057, 33, 273, 160, 336
-0.982116, 25, 297, 88, 360
-0.982142, 41, 121, 104, 184
-0.982193, 453, 65, 484, 192
-0.982241, 281, 193, 312, 256
-0.982246, 17, 137, 144, 200
-0.982288, 17, 113, 80, 176
-0.982298, 117, 113, 148, 240
-0.982301, 441, 113, 472, 176
-0.982342, 381, 129, 412, 192
-0.982357, 433, 241, 496, 368
-0.982421, 433, 57, 464, 120
-0.982421, 317, 177, 348, 240
-0.982455, 253, 153, 284, 216
-0.982458, 293, 177, 324, 304
-0.982459, 409, 265, 472, 328
-0.982471, 413, 153, 444, 216
-0.982505, 449, 1, 480, 128
-0.982516, 33, 201, 160, 264
-0.982565, 1, 89, 128, 152
-0.982578, 281, 97, 344, 224
-0.982586, 369, 177, 496, 240
-0.982629, 425, 217, 456, 280
-0.982644, 225, 313, 288, 375
-0.982699, 265, 217, 296, 280
-0.982708, 413, 185, 444, 248
-0.98273, 433, 209, 464, 336
-0.982742, 281, 177, 312, 304
-0.982787, 337, 145, 368, 272
-0.982859, 461, 185, 492, 248
-0.982907, 413, 241, 444, 304
-0.982972, 113, 265, 240, 328
-0.983024, 1, 17, 128, 144
-0.983041, 213, 209, 244, 336
-0.983062, 121, 145, 152, 208
-0.983064, 337, 129, 400, 192
-0.983103, 417, 65, 448, 192
-0.983148, 273, 217, 400, 280
-0.983163, 49, 193, 112, 256
-0.983171, 201, 65, 264, 128
-0.983198, 433, 273, 496, 336
-0.983232, 333, 161, 364, 224
-0.983246, 17, 65, 80, 320
-0.983246, 417, 49, 448, 112
-0.98329, 245, 113, 276, 176
-0.983327, 265, 97, 296, 224
-0.983369, 345, 153, 376, 216
-0.9834, 433, 89, 464, 152
-0.98346, 277, 153, 308, 216
-0.98346, 105, 161, 136, 288
-0.983544, 137, 17, 168, 144
-0.98355, 405, 65, 436, 192
-0.983565, 305, 33, 368, 288
-0.983655, 129, 105, 192, 168
-0.983695, 297, 249, 360, 312
-0.983696, 109, 169, 140, 232
-0.983742, 145, 161, 176, 288
-0.983783, 177, 193, 208, 256
-0.983821, 49, 129, 112, 375
-0.983892, 65, 81, 96, 208
-0.983904, 65, 49, 192, 176
-0.983991, 377, 65, 440, 128
-0.984053, 353, 257, 480, 320
-0.984087, 377, 1, 440, 256
-0.984166, 133, 209, 164, 272
-0.984183, 425, 1, 456, 128
-0.984189, 433, 1, 464, 64
-0.984237, 177, 313, 240, 375
-0.984301, 45, 169, 76, 232
-0.984379, 445, 113, 476, 240
-0.984413, 49, 9, 176, 72
-0.984422, 257, 113, 384, 176
-0.984438, 33, 209, 64, 272
-0.984445, 313, 129, 376, 192
-0.984448, 225, 169, 256, 232
-0.984521, 369, 49, 496, 112
-0.984528, 81, 193, 208, 256
-0.984537, 133, 97, 164, 224
-0.984549, 177, 1, 240, 128
-0.98458, 445, 209, 476, 336
-0.984582, 97, 153, 224, 216
-0.984627, 137, 1, 200, 375
-0.984678, 301, 145, 332, 208
-0.984692, 177, 17, 304, 144
-0.984738, 177, 281, 304, 344
-0.984746, 1, 65, 32, 192
-0.984825, 453, 113, 484, 176
-0.984879, 233, 281, 296, 344
-0.984892, 461, 1, 492, 128
-0.984898, 129, 81, 192, 144
-0.984899, 117, 161, 148, 288
-0.98491, 405, 97, 436, 160
-0.984932, 257, 185, 288, 248
-0.98501, 453, 241, 484, 304
-0.985022, 41, 33, 104, 288
-0.985184, 1, 209, 32, 272
-0.985191, 377, 89, 440, 152
-0.985198, 97, 297, 224, 360
-0.985226, 41, 1, 104, 64
-0.985231, 305, 257, 432, 320
-0.985232, 169, 129, 232, 375
-0.985301, 37, 209, 68, 336
-0.985325, 21, 137, 52, 200
-0.985343, 49, 161, 80, 288
-0.985418, 97, 217, 224, 280
-0.985423, 377, 33, 440, 96
-0.985437, 361, 209, 392, 336
-0.985451, 361, 113, 392, 240
-0.985533, 393, 225, 424, 352
-0.985538, 161, 33, 224, 288
-0.985581, 1, 241, 128, 304
-0.985594, 373, 225, 404, 288
-0.985686, 297, 305, 360, 368
-0.985698, 5, 113, 36, 240
-0.985708, 33, 217, 96, 280
-0.985711, 169, 217, 200, 280
-0.985718, 461, 209, 492, 272
-0.985762, 469, 113, 500, 176
-0.985876, 449, 73, 480, 136
-0.985907, 113, 129, 240, 192
-0.985951, 81, 97, 208, 160
-0.985958, 157, 225, 188, 352
-0.985969, 197, 225, 228, 352
-0.98598, 9, 241, 40, 368
-0.986013, 305, 113, 432, 176
-0.986054, 33, 113, 160, 176
-0.986116, 97, 281, 160, 344
-0.986135, 165, 185, 196, 248
-0.986177, 465, 225, 496, 352
-0.986197, 413, 209, 444, 272
-0.986243, 73, 297, 136, 360
-0.986261, 413, 1, 444, 64
-0.986269, 121, 233, 152, 296
-0.986311, 101, 97, 132, 224
-0.986336, 117, 121, 148, 184
-0.986405, 213, 81, 244, 144
-0.986425, 41, 241, 104, 304
-0.986518, 17, 1, 80, 64
-0.986531, 153, 265, 184, 328
-0.986533, 441, 161, 472, 288
-0.986546, 81, 33, 208, 96
-0.986548, 181, 225, 212, 288
-0.986556, 313, 217, 344, 280
-0.986638, 281, 33, 344, 288
-0.986657, 153, 89, 216, 152
-0.986668, 405, 225, 436, 352
-0.986697, 441, 153, 472, 216
-0.986721, 133, 161, 164, 288
-0.986794, 33, 137, 64, 200
-0.986831, 81, 49, 144, 176
-0.98684, 401, 265, 432, 328
-0.986843, 185, 177, 216, 304
-0.986856, 237, 177, 268, 240
-0.98686, 301, 217, 332, 280
-0.986893, 21, 209, 52, 272
-0.98692, 153, 193, 184, 256
-0.98703, 133, 177, 164, 240
-0.98709, 105, 1, 168, 256
-0.987185, 33, 161, 64, 288
-0.987218, 153, 1, 216, 128
-0.987228, 369, 25, 496, 88
-0.987259, 353, 249, 384, 312
-0.987293, 345, 33, 408, 288
-0.987347, 5, 129, 36, 192
-0.987368, 129, 9, 160, 72
-0.987383, 9, 273, 40, 336
-0.987396, 125, 1, 156, 128
-0.987438, 49, 241, 80, 368
-0.987473, 465, 233, 496, 296
-0.987496, 325, 209, 356, 272
-0.987515, 433, 185, 464, 248
-0.987519, 145, 129, 208, 192
-0.987535, 469, 145, 500, 208
-0.987545, 417, 1, 480, 375
-0.987547, 249, 73, 312, 136
-0.987548, 65, 145, 96, 208
-0.987573, 209, 113, 336, 176
-0.987599, 337, 185, 368, 248
-0.987637, 393, 217, 424, 280
-0.987639, 125, 97, 156, 160
-0.987658, 85, 217, 116, 280
-0.987688, 49, 1, 112, 375
-0.987778, 45, 217, 76, 280
-0.987786, 33, 297, 160, 360
-0.987803, 333, 225, 364, 352
-0.987838, 433, 25, 464, 88
-0.987855, 225, 289, 352, 352
-0.98788, 241, 89, 368, 152
-0.987882, 249, 233, 280, 296
-0.987888, 237, 249, 268, 312
-0.987934, 45, 113, 76, 176
-0.987939, 405, 1, 436, 128
-0.987944, 165, 33, 196, 160
-0.98796, 265, 121, 296, 184
-0.987975, 437, 217, 468, 280
-0.987983, 185, 1, 248, 256
-0.987984, 205, 97, 236, 224
-0.988017, 433, 257, 464, 320
-0.98805, 465, 273, 496, 336
-0.988136, 217, 1, 280, 375
-0.988188, 33, 169, 64, 232
-0.988199, 65, 105, 96, 168
-0.988233, 73, 209, 136, 336
-0.988287, 85, 177, 116, 304
-0.988319, 193, 313, 320, 375
-0.98835, 1, 65, 128, 128
-0.988355, 341, 249, 372, 312
-0.988358, 205, 161, 236, 224
-0.988406, 113, 1, 176, 375
-0.988425, 1, 73, 32, 136
-0.988426, 161, 1, 224, 375
-0.98843, 129, 41, 256, 104
-0.988537, 37, 257, 68, 320
-0.98854, 225, 145, 256, 208
-0.988589, 133, 289, 164, 352
-0.98861, 85, 113, 116, 240
-0.988615, 389, 153, 420, 216
-0.988616, 393, 241, 424, 304
-0.988626, 201, 81, 232, 144
-0.988632, 177, 65, 304, 128
-0.988649, 225, 17, 352, 144
-0.988671, 29, 233, 60, 296
-0.988687, 129, 97, 256, 160
-0.988695, 465, 113, 496, 240
-0.988909, 369, 1, 496, 64
-0.988921, 257, 1, 320, 256
-0.988996, 305, 81, 432, 144
-0.98902, 277, 97, 308, 224
-0.989044, 217, 221, 280, 252
-0.989067, 317, 129, 348, 256
-0.989078, 241, 213, 304, 244
-0.989115, 329, 225, 392, 256
-0.989122, 193, 201, 256, 232
-0.989148, 361, 217, 424, 248
-0.989185, 329, 65, 392, 192
-0.989199, 265, 157, 328, 188
-0.98926, 393, 145, 456, 176
-0.989326, 353, 201, 416, 232
-0.989373, 421, 225, 452, 352
-0.9894, 401, 109, 464, 140
-0.98943, 321, 1, 448, 64
-0.98943, 145, 305, 272, 368
-0.989432, 241, 1, 304, 375
-0.989449, 153, 217, 216, 248
-0.989465, 281, 217, 344, 248
-0.989469, 297, 241, 360, 368
-0.989497, 305, 165, 368, 196
-0.989497, 169, 233, 232, 264
-0.989498, 393, 121, 456, 152
-0.989524, 341, 97, 372, 224
-0.989534, 257, 313, 384, 375
-0.989535, 337, 1, 400, 375
-0.989599, 305, 229, 368, 260
-0.989616, 49, 57, 176, 120
-0.98964, 337, 153, 400, 184
-0.989662, 265, 229, 328, 260
-0.989682, 329, 201, 392, 232
-0.989682, 217, 93, 280, 124
-0.989773, 217, 117, 280, 148
-0.989788, 373, 225, 404, 352
-0.989822, 401, 97, 464, 128
-0.989852, 121, 241, 152, 368
-0.989854, 305, 213, 368, 244
-0.989911, 201, 237, 264, 268
-0.989962, 241, 157, 304, 188
-0.989977, 369, 1, 432, 375
-0.989982, 65, 129, 96, 256
-0.990005, 281, 169, 344, 200
-0.990007, 241, 225, 304, 256
-0.990008, 345, 189, 408, 220
-0.990015, 305, 65, 368, 192
-0.990034, 417, 157, 480, 188
-0.990053, 313, 209, 344, 336
-0.99007, 145, 245, 208, 276
-0.990072, 217, 105, 280, 136
-0.990074, 45, 65, 76, 192
-0.990077, 193, 213, 256, 244
-0.990108, 313, 189, 376, 220
-0.990137, 305, 113, 336, 240
-0.990138, 225, 241, 256, 368
-0.990138, 193, 1, 256, 375
-0.990211, 121, 257, 184, 288
-0.990261, 81, 157, 144, 188
-0.990269, 53, 1, 84, 128
-0.990283, 149, 33, 180, 160
-0.990288, 425, 105, 488, 136
-0.990298, 33, 113, 64, 240
-0.990324, 369, 145, 432, 176
-0.990343, 385, 165, 448, 196
-0.990355, 329, 237, 392, 268
-0.990373, 273, 201, 336, 232
-0.990382, 265, 141, 328, 172
-0.990385, 425, 221, 488, 252
-0.990387, 401, 61, 464, 92
-0.990418, 305, 177, 368, 208
-0.990431, 145, 81, 176, 208
-0.990471, 9, 209, 72, 240
-0.990488, 217, 193, 280, 224
-0.99049, 273, 189, 336, 220
-0.990492, 129, 1, 256, 64
-0.9905, 401, 81, 464, 112
-0.990512, 361, 229, 424, 260
-0.990514, 217, 209, 280, 240
-0.99052, 385, 133, 448, 164
-0.99052, 417, 121, 480, 152
-0.99053, 425, 81, 488, 112
-0.99054, 17, 113, 48, 240
-0.990543, 153, 189, 216, 220
-0.990548, 217, 133, 280, 164
-0.990567, 145, 257, 208, 288
-0.99057, 93, 225, 124, 352
-0.990579, 369, 181, 432, 212
-0.990582, 257, 185, 500, 248
-0.990615, 217, 161, 280, 192
-0.990635, 97, 169, 160, 200
-0.990654, 193, 225, 256, 256
-0.990672, 65, 325, 128, 356
-0.990681, 417, 145, 480, 176
-0.990683, 169, 177, 200, 304
-0.990706, 1, 193, 32, 320
-0.990713, 121, 245, 184, 276
-0.990717, 385, 205, 448, 236
-0.990729, 241, 237, 304, 268
-0.990734, 17, 1, 80, 375
-0.990764, 97, 181, 160, 212
-0.990766, 393, 65, 424, 192
-0.990776, 41, 213, 104, 244
-0.990786, 305, 57, 432, 120
-0.990796, 121, 185, 184, 216
-0.990818, 145, 301, 208, 332
-0.990823, 17, 85, 80, 116
-0.990841, 425, 57, 488, 88
-0.990853, 97, 241, 160, 272
-0.990874, 257, 169, 320, 200
-0.990879, 433, 69, 496, 100
-0.990881, 145, 153, 272, 216
-0.990882, 425, 209, 488, 240
-0.990905, 321, 233, 448, 296
-0.99091, 305, 201, 368, 232
-0.990916, 25, 209, 56, 336
-0.990938, 305, 149, 368, 180
-0.990941, 217, 181, 280, 212
-0.990962, 241, 201, 304, 232
-0.99099, 377, 193, 440, 224
-0.991001, 285, 225, 316, 352
-0.991021, 129, 229, 192, 260
-0.991021, 181, 49, 212, 176
-0.991025, 409, 1, 472, 32
-0.991046, 289, 81, 320, 208
-0.991053, 289, 281, 416, 344
-0.991058, 241, 145, 304, 176
-0.99106, 401, 229, 464, 260
-0.991088, 137, 29, 200, 60
-0.991096, 361, 257, 424, 288
-0.991098, 401, 41, 464, 72
-0.991108, 345, 177, 408, 208
-0.991115, 337, 213, 400, 244
-0.991119, 385, 217, 448, 248
-0.991123, 129, 153, 384, 216
-0.991127, 57, 161, 120, 192
-0.991138, 153, 205, 216, 236
-0.991186, 409, 169, 472, 200
-0.991188, 361, 161, 424, 192
-0.99119, 1, 265, 64, 296
-0.9912, 185, 257, 248, 288
-0.991225, 337, 165, 400, 196
-0.991248, 41, 97, 104, 128
-0.991256, 361, 129, 424, 160
-0.991266, 233, 281, 296, 312
-0.991271, 225, 33, 256, 160
-0.991273, 89, 321, 152, 352
-0.99128, 417, 133, 480, 164
-0.991291, 145, 289, 208, 320
-0.991294, 193, 189, 256, 220
-0.991306, 193, 85, 256, 116
-0.991342, 97, 253, 160, 284
-0.991356, 65, 105, 320, 168
-0.991367, 401, 17, 464, 48
-0.991371, 193, 177, 256, 208
-0.991374, 361, 241, 424, 272
-0.991375, 433, 233, 496, 264
-0.991378, 17, 221, 80, 252
-0.991404, 329, 253, 392, 284
-0.991413, 17, 73, 80, 104
-0.991418, 241, 65, 368, 128
-0.991426, 217, 149, 280, 180
-0.991432, 145, 273, 208, 304
-0.991438, 361, 269, 424, 300
-0.991441, 1, 245, 64, 276
-0.991462, 1, 169, 64, 200
-0.991464, 105, 217, 168, 248
-0.991524, 305, 25, 432, 88
-0.991534, 137, 53, 200, 84
-0.991549, 65, 341, 128, 372
-0.991568, 65, 177, 128, 208
-0.991568, 289, 245, 352, 276
-0.991587, 393, 181, 456, 212
-0.991588, 433, 1, 496, 32
-0.991613, 41, 25, 104, 56
-0.991622, 337, 281, 464, 344
-0.99164, 185, 273, 248, 304
-0.99164, 209, 249, 272, 280
-0.991651, 193, 105, 256, 136
-0.991666, 121, 169, 184, 200
-0.991674, 361, 113, 424, 144
-0.991992, 65, 129, 320, 192
-0.992143, 361, 197, 392, 228
-0.992181, 289, 1, 352, 375
-0.992296, 225, 153, 480, 216
-0.992312, 65, 177, 320, 240
-0.992345, 65, 201, 320, 264
-0.99235, 441, 105, 472, 136
-0.992363, 293, 161, 324, 192
-0.9924, 161, 217, 416, 280
-0.992406, 257, 217, 500, 280
-0.992423, 269, 153, 300, 184
-0.992444, 353, 221, 384, 252
-0.992446, 289, 221, 320, 252
-0.992452, 305, 313, 432, 375
-0.992455, 289, 149, 320, 180
-0.99247, 237, 233, 268, 264
-0.992471, 197, 229, 228, 260
-0.992474, 237, 221, 268, 252
-0.99248, 245, 101, 276, 132
-0.992491, 421, 149, 452, 180
-0.992497, 361, 209, 392, 240
-0.992498, 229, 201, 260, 232
-0.992522, 277, 217, 308, 248
-0.992539, 125, 249, 156, 280
-0.992545, 225, 225, 256, 256
-0.992573, 145, 253, 176, 284
-0.992578, 213, 221, 244, 252
-0.992591, 293, 177, 324, 208
-0.992605, 257, 217, 288, 248
-0.992615, 353, 153, 384, 184
-0.99262, 373, 213, 404, 244
-0.992627, 225, 237, 256, 268
-0.992631, 437, 81, 468, 112
-0.992637, 245, 89, 276, 120
-0.992641, 341, 225, 372, 256
-0.992645, 405, 133, 436, 164
-0.992652, 285, 205, 316, 236
-0.992654, 273, 205, 304, 236
-0.992663, 461, 69, 492, 100
-0.992668, 369, 225, 400, 256
-0.992681, 133, 261, 164, 292
-0.992684, 373, 201, 404, 232
-0.992685, 181, 217, 212, 248
-0.992685, 305, 213, 336, 244
-0.992705, 353, 233, 384, 264
-0.992706, 225, 89, 256, 120
-0.992719, 205, 197, 236, 228
-0.992727, 225, 181, 256, 212
-0.992735, 277, 229, 308, 260
-0.992743, 409, 169, 440, 200
-0.992745, 245, 209, 276, 240
-0.992746, 397, 165, 428, 196
-0.992756, 433, 61, 464, 92
-0.992764, 117, 161, 148, 192
-0.992768, 449, 217, 480, 248
-0.99277, 309, 169, 340, 200
-0.992784, 393, 141, 424, 172
-0.992786, 381, 181, 412, 212
-0.992787, 229, 161, 260, 192
-0.99279, 109, 173, 140, 204
-0.992793, 33, 209, 64, 240
-0.992795, 293, 189, 324, 220
-0.992796, 125, 237, 156, 268
-0.992798, 417, 89, 448, 120
-0.992799, 93, 321, 124, 352
-0.992807, 181, 189, 212, 220
-0.992814, 145, 237, 176, 268
-0.992826, 393, 181, 424, 212
-0.992827, 257, 229, 288, 260
-0.992828, 413, 209, 444, 240
-0.992835, 89, 205, 120, 236
-0.992836, 433, 1, 464, 32
-0.992838, 129, 181, 160, 212
-0.992846, 341, 185, 372, 216
-0.992846, 377, 149, 408, 180
-0.992847, 161, 241, 192, 272
-0.992852, 341, 197, 372, 228
-0.992852, 313, 197, 344, 228
-0.992854, 393, 217, 424, 248
-0.992861, 393, 201, 424, 232
-0.992861, 213, 241, 244, 272
-0.992868, 181, 233, 212, 264
-0.992869, 5, 265, 36, 296
-0.99287, 429, 101, 460, 132
-0.992874, 141, 225, 172, 256
-0.992882, 261, 205, 292, 236
-0.992882, 417, 69, 448, 100
-0.992882, 385, 125, 416, 156
-0.992887, 449, 69, 480, 100
-0.992906, 225, 213, 256, 244
-0.992914, 461, 209, 492, 240
-0.992919, 281, 185, 312, 216
-0.992923, 449, 157, 480, 188
-0.992925, 301, 149, 332, 180
-0.992929, 325, 221, 356, 252
-0.992932, 433, 157, 464, 188
-0.992934, 329, 189, 360, 220
-0.992939, 281, 169, 312, 200
-0.992941, 217, 157, 248, 188
-0.992943, 313, 185, 344, 216
-0.992947, 45, 209, 76, 240
-0.992949, 249, 197, 280, 228
-0.99295, 341, 253, 372, 284
-0.992951, 461, 225, 492, 256
-0.992951, 433, 225, 464, 256
-0.992954, 241, 157, 272, 188
-0.992957, 441, 121, 472, 152
-0.992958, 201, 241, 232, 272
-0.992958, 217, 169, 248, 200
-0.992959, 177, 201, 208, 232
-0.99296, 353, 245, 384, 276
-0.99296, 233, 101, 264, 132
-0.99296, 73, 329, 104, 360
-0.99296, 377, 161, 408, 192
-0.992962, 417, 137, 448, 168
-0.992965, 169, 225, 200, 256
-0.992965, 109, 185, 140, 216
-0.992965, 397, 121, 428, 152
-0.992966, 245, 245, 276, 276
-0.992969, 265, 193, 296, 224
-0.992974, 85, 177, 116, 208
-0.992974, 245, 113, 276, 144
-0.992978, 257, 149, 288, 180
-0.992984, 413, 221, 444, 252
-0.992985, 133, 281, 164, 312
-0.992987, 349, 209, 380, 240
-0.992989, 453, 109, 484, 140
-0.992995, 297, 201, 328, 232
-0.992998, 333, 165, 364, 196
-0.993006, 1, 77, 32, 108
-0.993008, 145, 301, 176, 332
-0.993016, 409, 153, 440, 184
-0.993026, 465, 181, 496, 212
-0.993029, 445, 229, 476, 260
-0.99303, 393, 269, 424, 300
-0.993033, 125, 149, 156, 180
-0.993035, 457, 89, 488, 120
-0.99304, 5, 249, 36, 280
-0.993085, 225, 113, 480, 176
-0.993104, 185, 129, 216, 256
-0.993115, 1, 201, 500, 264
-0.993123, 81, 1, 144, 375
-0.993129, 225, 89, 480, 152
-0.993201, 97, 73, 352, 136
-0.993215, 17, 65, 48, 192
-0.993234, 1, 233, 256, 296
-0.993267, 105, 209, 136, 336
-0.993279, 375, 193, 390, 256
-0.993343, 125, 49, 156, 176
-0.993347, 81, 1, 144, 256
-0.993358, 337, 149, 464, 180
-0.993363, 301, 145, 316, 208
-0.993396, 313, 1, 376, 375
-0.993426, 373, 81, 404, 208
-0.993512, 69, 241, 100, 368
-0.99357, 193, 213, 320, 244
-0.993672, 65, 33, 96, 160
-0.993708, 161, 177, 416, 240
-0.993773, 257, 241, 288, 368
-0.993786, 13, 177, 44, 304
-0.993823, 1, 41, 128, 104
-0.993926, 201, 49, 232, 176
-0.994053, 273, 193, 400, 224
-0.994063, 177, 201, 304, 232
-0.994096, 237, 33, 268, 160
-0.994121, 1, 225, 500, 288
-0.994185, 213, 49, 244, 176
-0.994203, 1, 153, 500, 216
-0.994275, 265, 1, 328, 375
-0.994326, 361, 1, 424, 128
-0.994389, 147, 225, 162, 288
-0.994402, 227, 81, 242, 144
-0.994415, 363, 209, 378, 272
-0.994416, 369, 193, 384, 256
-0.994425, 1, 257, 500, 320
-0.994439, 203, 193, 218, 256
-0.99445, 1, 9, 128, 72
-0.994462, 161, 225, 288, 256
-0.994519, 1, 177, 500, 240
-0.994578, 399, 153, 414, 216
-0.994606, 239, 225, 254, 288
-0.994632, 249, 217, 264, 280
-0.99467, 255, 201, 270, 264
-0.994686, 97, 185, 224, 216
-0.994694, 273, 205, 400, 236
-0.994712, 257, 249, 500, 312
-0.994725, 257, 65, 500, 128
-0.994762, 165, 129, 196, 256
-0.994776, 161, 237, 288, 268
-0.994795, 273, 165, 400, 196
-0.994813, 257, 89, 272, 152
-0.994815, 193, 169, 320, 200
-0.99483, 293, 217, 308, 280
-0.994887, 1, 153, 256, 216
-0.994891, 385, 185, 400, 248
-0.994911, 147, 249, 162, 312
-0.99492, 169, 225, 200, 352
-0.994926, 427, 137, 442, 200
-0.994949, 207, 225, 222, 288
-0.994961, 261, 209, 276, 272
-0.994965, 421, 145, 436, 208
-0.994993, 157, 177, 188, 304
-0.995026, 177, 105, 304, 136
-0.99503, 485, 153, 500, 216
-0.995053, 371, 217, 386, 280
-0.995054, 1, 209, 128, 240
-0.995054, 265, 49, 296, 176
-0.995088, 65, 257, 320, 320
-0.995094, 289, 193, 304, 256
-0.995125, 355, 225, 370, 288
-0.995135, 291, 169, 306, 232
-0.995142, 389, 153, 404, 216
-0.995152, 225, 181, 352, 212
-0.995153, 353, 221, 480, 252
-0.995155, 281, 193, 296, 256
-0.995169, 353, 105, 480, 136
-0.99517, 277, 145, 292, 208
-0.995184, 321, 161, 448, 192
-0.995226, 49, 241, 176, 272
-0.995241, 345, 241, 376, 368
-0.99525, 97, 313, 352, 375
-0.995261, 1, 81, 500, 144
-0.995264, 463, 65, 478, 128
-0.995265, 229, 201, 244, 264
-0.995294, 255, 225, 270, 288
-0.995297, 441, 225, 456, 288
-0.9953, 197, 193, 212, 256
-0.995301, 369, 117, 496, 148
-0.995308, 363, 185, 378, 248
-0.99531, 435, 113, 450, 176
-0.995327, 263, 153, 278, 216
-0.99534, 393, 177, 408, 240
-0.995348, 193, 157, 320, 188
-0.995349, 317, 185, 332, 248
-0.995382, 133, 105, 148, 168
-0.995392, 241, 225, 368, 256
-0.995417, 377, 217, 392, 280
-0.995417, 137, 233, 152, 296
-0.995453, 307, 193, 322, 256
-0.995455, 399, 121, 414, 184
-0.995461, 177, 41, 304, 104
-0.995466, 225, 65, 256, 320
-0.995467, 311, 169, 326, 232
-0.995486, 81, 197, 208, 228
-0.995488, 97, 257, 224, 288
-0.995495, 227, 105, 242, 168
-0.995503, 297, 169, 312, 232
-0.995508, 355, 153, 370, 216
-0.995508, 1, 57, 256, 120
-0.995522, 177, 117, 304, 148
-0.995523, 257, 149, 384, 180
-0.99553, 113, 217, 240, 248
-0.995549, 177, 93, 304, 124
-0.99557, 1, 169, 128, 200
-0.995571, 289, 177, 416, 208
-0.995572, 85, 65, 116, 192
-0.995575, 337, 137, 464, 168
-0.995588, 269, 185, 284, 248
-0.995589, 327, 177, 342, 240
-0.995608, 239, 81, 254, 144
-0.995612, 113, 229, 240, 260
-0.995621, 353, 313, 480, 375
-0.995622, 219, 201, 234, 264
-0.995628, 177, 185, 304, 216
-0.995667, 361, 65, 392, 192
-0.995674, 405, 161, 420, 224
-0.995677, 375, 153, 390, 216
-0.995682, 465, 153, 480, 216
-0.99569, 239, 201, 254, 264
-0.9957, 369, 233, 496, 264
-0.995723, 405, 137, 420, 200
-0.995726, 365, 153, 380, 216
-0.995736, 465, 201, 480, 264
-0.995742, 305, 169, 320, 232
-0.995745, 177, 133, 304, 164
-0.995753, 191, 185, 206, 248
-0.995754, 33, 257, 160, 288
-0.995755, 1, 129, 500, 192
-0.995764, 225, 261, 352, 292
-0.995779, 369, 209, 496, 240
-0.995789, 245, 193, 260, 256
-0.995822, 363, 233, 378, 296
-0.995829, 283, 145, 298, 208
-0.995832, 193, 145, 320, 176
-0.995838, 177, 253, 304, 284
-0.995844, 449, 217, 464, 280
-0.99585, 213, 233, 228, 296
-0.995851, 413, 137, 428, 200
-0.995854, 437, 1, 452, 64
-0.995863, 301, 241, 332, 368
-0.995874, 225, 197, 352, 228
-0.995876, 405, 113, 420, 176
-0.995876, 453, 89, 468, 152
-0.99589, 239, 257, 254, 320
-0.995918, 209, 193, 224, 256
-0.995921, 251, 161, 266, 224
-0.99593, 113, 241, 240, 272
-0.99593, 49, 209, 176, 240
-0.995937, 139, 9, 154, 72
-0.995955, 219, 161, 234, 224
-0.995958, 89, 289, 104, 352
-0.995974, 425, 33, 440, 96
-0.995981, 445, 113, 460, 176
-0.995991, 307, 145, 322, 208
-0.995993, 401, 185, 416, 248
-0.996001, 383, 153, 398, 216
-0.996015, 65, 1, 128, 128
-0.996025, 369, 57, 496, 88
-0.996035, 357, 193, 372, 256
-0.996045, 465, 273, 480, 336
-0.996046, 229, 225, 244, 288
-0.996066, 237, 65, 268, 320
-0.996073, 209, 273, 336, 304
-0.996074, 299, 193, 314, 256
-0.996075, 129, 197, 256, 228
-0.99608, 225, 273, 480, 336
-0.996083, 457, 153, 472, 216
-0.996083, 369, 265, 496, 296
-0.996086, 1, 57, 500, 120
-0.996094, 269, 217, 284, 280
-0.996097, 433, 73, 448, 136
-0.996104, 413, 161, 428, 224
-0.996106, 305, 65, 336, 192
-0.996107, 155, 217, 170, 280
-0.996107, 221, 225, 236, 288
-0.996107, 299, 225, 314, 288
-0.996108, 57, 73, 72, 136
-0.996109, 439, 137, 454, 200
-0.996118, 285, 225, 300, 288
-0.99612, 369, 253, 496, 284
-0.996123, 271, 145, 286, 208
-0.996128, 289, 129, 320, 375
-0.99613, 201, 233, 216, 296
-0.996135, 261, 185, 276, 248
-0.996136, 65, 165, 192, 196
-0.996136, 289, 217, 416, 248
-0.996137, 185, 225, 216, 352
-0.996143, 423, 177, 438, 240
-0.996143, 457, 209, 472, 272
-0.996143, 455, 233, 470, 296
-0.996146, 277, 225, 292, 288
-0.996149, 57, 97, 72, 160
-0.996169, 455, 113, 470, 176
-0.996179, 353, 73, 480, 104
-0.996201, 485, 113, 500, 176
-0.996202, 5, 209, 20, 272
-0.996221, 239, 161, 254, 224
-0.996227, 433, 153, 448, 216
-0.996229, 49, 221, 176, 252
-0.996233, 295, 145, 310, 208
-0.996268, 415, 201, 430, 264
-0.996275, 209, 237, 336, 268
-0.99628, 137, 153, 152, 216
-0.996296, 245, 81, 260, 144
-0.9963, 383, 209, 398, 272
-0.996301, 429, 217, 444, 280
-0.996302, 1, 149, 128, 180
-0.996321, 129, 77, 256, 108
-0.996322, 1, 289, 500, 352
-0.996326, 185, 209, 200, 272
-0.99633, 141, 257, 156, 320
-0.996332, 1, 221, 128, 252
-0.996334, 251, 89, 266, 152
-0.996336, 11, 209, 26, 272
-0.99634, 113, 301, 240, 332
-0.996344, 483, 57, 498, 120
-0.996347, 49, 209, 64, 272
-0.996348, 447, 153, 462, 216
-0.996359, 337, 181, 464, 212
-0.996362, 125, 129, 140, 192
-0.996363, 305, 249, 432, 280
-0.996368, 409, 73, 424, 136
-0.996376, 1, 105, 500, 168
-0.996381, 147, 273, 162, 336
-0.996384, 347, 161, 362, 224
-0.996399, 1, 245, 128, 276
-0.996402, 99, 217, 114, 280
-0.996419, 393, 129, 408, 192
-0.996424, 49, 17, 176, 48
-0.996424, 411, 113, 426, 176
-0.996425, 407, 233, 422, 296
-0.996427, 407, 201, 422, 264
-0.996437, 457, 185, 472, 248
-0.996442, 465, 249, 480, 312
-0.996545, 353, 193, 480, 224
-0.996547, 113, 93, 240, 124
-0.996556, 225, 305, 480, 368
-0.996578, 145, 173, 272, 204
-0.996601, 49, 305, 176, 336
-0.996626, 257, 273, 384, 304
-0.996643, 369, 161, 496, 192
-0.996647, 369, 89, 496, 120
-0.996663, 249, 65, 280, 320
-0.996668, 145, 285, 272, 316
-0.996673, 1, 9, 256, 72
-0.996687, 33, 333, 160, 364
-0.996763, 113, 313, 240, 344
-0.996787, 225, 249, 352, 280
-0.996798, 17, 189, 144, 220
-0.996819, 33, 269, 160, 300
-0.996822, 129, 97, 160, 352
-0.996829, 393, 129, 424, 375
-0.996831, 1, 17, 32, 144
-0.996833, 129, 25, 384, 88
-0.996838, 145, 269, 272, 300
-0.996838, 81, 45, 208, 76
-0.996862, 33, 137, 160, 168
-0.996868, 365, 221, 380, 252
-0.996879, 49, 177, 176, 208
-0.99688, 287, 217, 302, 248
-0.996897, 433, 1, 464, 256
-0.996911, 405, 97, 436, 352
-0.996917, 205, 97, 236, 352
-0.996918, 1, 313, 256, 375
-0.996927, 305, 113, 432, 144
-0.996973, 321, 205, 448, 236
-0.996981, 241, 105, 368, 136
-0.996984, 353, 1, 480, 32
-0.997002, 405, 1, 436, 256
-0.997002, 257, 137, 384, 168
-0.997005, 365, 129, 396, 375
-0.997006, 65, 289, 320, 352
-0.997025, 363, 197, 378, 228
-0.997029, 433, 97, 464, 352
-0.99703, 305, 261, 432, 292
-0.997035, 81, 337, 208, 368
-0.997046, 1, 109, 128, 140
-0.997047, 1, 93, 128, 124
-0.99707, 33, 293, 160, 324
-0.997079, 1, 97, 32, 352
-0.997079, 371, 201, 386, 232
-0.99708, 449, 65, 480, 320
-0.997085, 113, 149, 240, 180
-0.997091, 97, 1, 352, 64
-0.997093, 81, 33, 208, 64
-0.997095, 357, 221, 372, 252
-0.997119, 1, 233, 128, 264
-0.997127, 461, 33, 492, 288
-0.997145, 97, 281, 224, 312
-0.997154, 363, 209, 378, 240
-0.997159, 113, 105, 240, 136
-0.997186, 349, 97, 380, 352
-0.997209, 97, 269, 224, 300
-0.997219, 377, 201, 392, 232
-0.997225, 137, 1, 168, 256
-0.997237, 113, 137, 240, 168
-0.997253, 177, 81, 304, 112
-0.99726, 291, 169, 306, 200
-0.997282, 301, 149, 316, 180
-0.997296, 209, 285, 336, 316
-0.997321, 427, 145, 442, 176
-0.997324, 269, 129, 300, 375
-0.997327, 129, 49, 384, 112
-0.997337, 129, 161, 256, 192
-0.997353, 403, 117, 418, 148
-0.997359, 147, 249, 162, 280
-0.99736, 1, 121, 128, 152
-0.997362, 203, 225, 218, 256
-0.997364, 1, 81, 256, 144
-0.997373, 279, 221, 294, 252
-0.99738, 459, 213, 474, 244
-0.997382, 337, 97, 368, 352
-0.997397, 33, 281, 160, 312
-0.997408, 41, 1, 72, 128
-0.997431, 375, 213, 390, 244
-0.997432, 241, 93, 368, 124
-0.997452, 129, 29, 256, 60
-0.997452, 49, 1, 176, 32
-0.997454, 405, 201, 420, 232
-0.997459, 147, 261, 162, 292
-0.997475, 463, 69, 478, 100
-0.99749, 109, 129, 140, 375
-0.997538, 369, 13, 496, 44
-0.997541, 177, 297, 304, 328
-0.997542, 309, 177, 324, 208
-0.997543, 293, 217, 308, 248
-0.997543, 461, 129, 492, 375
-0.997557, 241, 121, 368, 152
-0.997558, 383, 205, 398, 236
-0.997591, 301, 161, 316, 192
-0.997592, 399, 201, 414, 232
-0.997594, 1, 33, 256, 96
-0.997601, 417, 33, 448, 288
-0.997603, 381, 129, 412, 375
-0.997608, 451, 101, 466, 132
-0.99761, 301, 129, 332, 375
-0.997613, 65, 149, 192, 180
-0.997628, 289, 229, 304, 260
-0.997628, 257, 41, 500, 104
-0.997629, 33, 321, 160, 352
-0.997636, 65, 125, 192, 156
-0.997637, 1, 1, 500, 64
-0.997642, 273, 149, 288, 180
-0.997645, 257, 209, 272, 240
-0.997668, 253, 225, 268, 256
-0.997677, 257, 89, 272, 120
-0.99768, 287, 205, 302, 236
-0.997687, 447, 225, 462, 256
-0.997688, 389, 201, 404, 232
-0.997691, 177, 337, 304, 368
-0.997693, 391, 217, 406, 248
-0.997698, 441, 101, 456, 132
-0.997703, 229, 221, 244, 252
-0.997708, 239, 237, 254, 268
-0.997709, 363, 233, 378, 264
-0.997724, 331, 189, 346, 220
-0.997729, 163, 241, 178, 272
-0.997737, 299, 217, 314, 248
-0.997742, 399, 165, 414, 196
-0.997748, 291, 149, 306, 180
-0.997757, 317, 129, 348, 375
-0.997759, 355, 153, 370, 184
-0.997761, 89, 325, 104, 356
-0.997763, 161, 241, 416, 304
-0.997772, 317, 201, 332, 232
-0.997774, 305, 273, 432, 304
-0.997776, 47, 209, 62, 240
-0.997776, 399, 137, 414, 168
-0.99778, 169, 237, 184, 268
-0.997781, 317, 217, 332, 248
-0.99779, 257, 337, 384, 368
-0.997793, 459, 225, 474, 256
-0.997794, 49, 129, 80, 375
-0.997796, 33, 345, 160, 375
-0.997799, 229, 209, 244, 240
-0.997803, 267, 149, 282, 180
-0.997805, 297, 177, 312, 208
-0.997805, 369, 25, 496, 56
-0.997808, 97, 325, 224, 356
-0.997809, 249, 101, 264, 132
-0.997811, 281, 205, 296, 236
-0.997825, 267, 217, 282, 248
-0.997826, 257, 17, 500, 80
-0.997846, 433, 153, 448, 184
-0.997858, 433, 97, 448, 128
-0.99786, 157, 253, 172, 284
-0.997866, 395, 181, 410, 212
-0.997869, 227, 121, 242, 152
-0.997871, 465, 221, 480, 252
-0.997872, 209, 229, 224, 260
-0.997873, 257, 237, 384, 268
-0.997875, 403, 185, 418, 216
-0.997877, 193, 193, 208, 224
-0.997877, 211, 241, 226, 272
-0.997883, 195, 221, 210, 252
-0.997886, 283, 153, 298, 184
-0.997887, 327, 213, 342, 244
-0.997888, 435, 121, 450, 152
-0.997888, 131, 149, 146, 180
-0.997889, 261, 221, 276, 252
-0.997894, 421, 153, 436, 184
-0.997894, 219, 241, 234, 272
-0.997903, 263, 161, 278, 192
-0.997903, 253, 237, 268, 268
-0.997906, 427, 1, 442, 32
-0.997907, 145, 221, 160, 252
-0.99791, 129, 125, 256, 156
-0.997917, 453, 221, 468, 252
-0.997918, 119, 161, 134, 192
-0.997921, 307, 189, 322, 220
-0.997923, 125, 1, 156, 256
-0.997931, 153, 241, 168, 272
-0.997936, 287, 185, 302, 216
-0.997938, 229, 233, 244, 264
-0.997939, 227, 81, 242, 112
-0.997944, 303, 137, 318, 168
-0.997944, 59, 209, 74, 240
-0.997948, 239, 89, 254, 120
-0.997959, 227, 105, 242, 136
-0.997967, 357, 209, 372, 240
-0.997967, 401, 265, 416, 296
-0.997972, 203, 197, 218, 228
-0.997973, 247, 221, 262, 252
-0.997982, 293, 205, 308, 236
-0.997983, 321, 13, 448, 44
-0.997983, 461, 97, 476, 128
-0.997985, 289, 285, 416, 316
-0.997985, 109, 325, 124, 356
-0.997991, 303, 177, 318, 208
-0.997996, 409, 129, 424, 160
-0.998, 139, 241, 154, 272
-0.998004, 419, 165, 434, 196
-0.998006, 149, 1, 180, 256
-0.998008, 433, 141, 448, 172
-0.998008, 195, 237, 210, 268
-0.998008, 103, 177, 118, 208
-0.998013, 103, 225, 118, 256
-0.998016, 393, 165, 408, 196
-0.998019, 129, 53, 256, 84
-0.998025, 401, 213, 416, 244
-0.998029, 237, 161, 252, 192
-0.998029, 425, 165, 440, 196
-0.998031, 337, 189, 352, 220
-0.998035, 409, 113, 424, 144
-0.998035, 249, 89, 264, 120
-0.998037, 81, 61, 208, 92
-0.99804, 453, 233, 468, 264
-0.99804, 161, 309, 288, 340
-0.998041, 369, 277, 496, 308
-0.998045, 85, 97, 116, 352
-0.998045, 129, 165, 144, 196
-0.998045, 347, 225, 362, 256
-0.998046, 65, 113, 192, 144
-0.998047, 365, 153, 380, 184
-0.998059, 1, 77, 128, 108
-0.99806, 57, 97, 72, 128
-0.998061, 355, 233, 370, 264
-0.998065, 387, 153, 402, 184
-0.998066, 129, 9, 256, 40
-0.998069, 371, 225, 386, 256
-0.99807, 117, 173, 132, 204
-0.998074, 311, 201, 326, 232
-0.998076, 189, 217, 204, 248
-0.998076, 305, 213, 320, 244
-0.998077, 217, 253, 232, 284
-0.998078, 441, 113, 456, 144
-0.998079, 179, 213, 194, 244
-0.998079, 127, 185, 142, 216
-0.99808, 239, 257, 254, 288
-0.998081, 15, 77, 30, 108
-0.998087, 165, 1, 196, 256
-0.998127, 369, 45, 496, 76
-0.998147, 129, 341, 256, 372
-0.998177, 305, 73, 432, 104
-0.998238, 193, 65, 224, 320
-0.998244, 97, 129, 128, 375
-0.998248, 153, 129, 184, 375
-0.998253, 417, 129, 448, 375
-0.998258, 49, 73, 176, 104
-0.998267, 225, 297, 352, 328
-0.99827, 305, 33, 336, 288
-0.998273, 49, 89, 176, 120
-0.998343, 1, 25, 500, 88
-0.998436, 153, 241, 184, 256
-0.998436, 465, 213, 496, 228
-0.998436, 233, 103, 264, 118
-0.998437, 449, 159, 480, 174
-0.998437, 181, 221, 212, 236
-0.998438, 1, 81, 32, 96
-0.998438, 181, 207, 212, 222
-0.998439, 265, 225, 328, 240
-0.998439, 137, 221, 168, 236
-0.99844, 453, 215, 484, 230
-0.99844, 293, 231, 324, 246
-0.99844, 381, 181, 412, 196
-0.998441, 265, 201, 296, 216
-0.998441, 385, 129, 416, 144
-0.998441, 409, 131, 440, 146
-0.998441, 125, 249, 156, 264
-0.998441, 373, 247, 404, 262
-0.998441, 297, 179, 360, 194
-0.998441, 277, 185, 308, 200
-0.998442, 293, 189, 324, 204
-0.998444, 401, 173, 432, 188
-0.998444, 89, 339, 120, 354
-0.998444, 433, 81, 464, 96
-0.998445, 125, 181, 156, 196
-0.998446, 377, 155, 408, 170
-0.998446, 249, 233, 280, 248
-0.998446, 305, 229, 368, 244
-0.998447, 73, 333, 104, 348
-0.998447, 365, 223, 396, 238
-0.998447, 5, 211, 36, 226
-0.998448, 233, 217, 264, 232
-0.998448, 437, 227, 468, 242
-0.998448, 225, 161, 256, 176
-0.99845, 293, 177, 324, 192
-0.998451, 225, 167, 256, 182
-0.998451, 165, 211, 196, 226
-0.998451, 341, 193, 372, 208
-0.998451, 417, 97, 448, 112
-0.998452, 325, 169, 356, 184
-0.998453, 421, 155, 452, 170
-0.998455, 433, 75, 464, 90
-0.998455, 437, 123, 468, 138
-0.998456, 213, 241, 244, 256
-0.998457, 413, 169, 444, 184
-0.998458, 241, 155, 304, 170
-0.998458, 205, 229, 236, 244
-0.998459, 85, 333, 116, 348
-0.998459, 297, 217, 328, 232
-0.99846, 229, 229, 260, 244
-0.998461, 425, 9, 456, 24
-0.998461, 137, 183, 168, 198
-0.998461, 385, 33, 416, 288
-0.998461, 9, 211, 72, 226
-0.998462, 237, 157, 268, 172
-0.998462, 401, 191, 432, 206
-0.998462, 133, 263, 164, 278
-0.998462, 109, 189, 140, 204
-0.998464, 225, 191, 256, 206
-0.998464, 225, 181, 256, 196
-0.998465, 277, 161, 308, 176
-0.998466, 465, 223, 496, 238
-0.998467, 185, 193, 216, 208
-0.998469, 237, 235, 268, 250
-0.99847, 345, 199, 376, 214
-0.998471, 241, 233, 304, 248
-0.998471, 1, 313, 500, 375
-0.998473, 217, 225, 248, 240
-0.998474, 393, 181, 424, 196
-0.998474, 337, 177, 400, 192
-0.998475, 449, 71, 480, 86
-0.998475, 241, 225, 304, 240
-0.998475, 245, 99, 276, 114
-0.998476, 293, 183, 324, 198
-0.998476, 309, 169, 340, 184
-0.998476, 393, 207, 424, 222
-0.998477, 397, 165, 428, 180
-0.998477, 313, 225, 344, 240
-0.998478, 361, 217, 392, 232
-0.998478, 381, 213, 412, 228
-0.998478, 313, 215, 344, 230
-0.99848, 441, 105, 472, 120
-0.99848, 417, 87, 448, 102
-0.99848, 225, 211, 256, 226
-0.998481, 441, 111, 472, 126
-0.998482, 373, 229, 404, 244
-0.998482, 253, 225, 284, 240
-0.998483, 421, 221, 452, 236
-0.998483, 125, 255, 156, 270
-0.998484, 313, 183, 344, 198
-0.998484, 237, 243, 268, 258
-0.998485, 337, 199, 400, 214
-0.998485, 393, 121, 456, 136
-0.998485, 177, 213, 208, 228
-0.998486, 441, 1, 472, 16
-0.998487, 361, 231, 392, 246
-0.998488, 401, 143, 432, 158
-0.998488, 361, 211, 392, 226
-0.998488, 269, 153, 300, 168
-0.99849, 225, 199, 256, 214
-0.99849, 265, 233, 328, 248
-0.99849, 393, 201, 424, 216
-0.998491, 457, 229, 488, 244
-0.998491, 217, 213, 280, 228
-0.998493, 21, 211, 52, 226
-0.998494, 205, 235, 236, 250
-0.998495, 373, 207, 404, 222
-0.998495, 217, 235, 280, 250
-0.998495, 249, 213, 280, 228
-0.998496, 269, 229, 300, 244
-0.998496, 353, 237, 384, 252
-0.998498, 297, 169, 360, 184
-0.998498, 409, 105, 472, 120
-0.9985, 393, 115, 456, 130
-0.9985, 233, 223, 264, 238
-0.998501, 193, 195, 256, 210
-0.998501, 449, 223, 480, 238
-0.998501, 373, 201, 404, 216
-0.998503, 305, 219, 368, 234
-0.998503, 133, 243, 164, 258
-0.998504, 401, 217, 432, 232
-0.998506, 193, 209, 256, 224
-0.998507, 241, 213, 304, 228
-0.998507, 229, 205, 260, 220
-0.998511, 245, 111, 276, 126
-0.998511, 333, 185, 364, 200
-0.998511, 205, 199, 236, 214
-0.998512, 265, 221, 296, 236
-0.998512, 265, 153, 328, 168
-0.998512, 217, 117, 280, 132
-0.998513, 65, 33, 96, 288
-0.998513, 277, 217, 308, 232
-0.998514, 153, 213, 216, 228
-0.998516, 265, 219, 328, 234
-0.998517, 385, 135, 416, 150
-0.998518, 289, 151, 320, 166
-0.998519, 153, 195, 216, 210
-0.99852, 461, 71, 492, 86
-0.99852, 409, 81, 472, 96
-0.998521, 361, 223, 424, 238
-0.998522, 417, 159, 480, 174
-0.998523, 409, 75, 472, 90
-0.998524, 217, 231, 248, 246
-0.998524, 289, 165, 320, 180
-0.998524, 405, 137, 436, 152
-0.998525, 337, 161, 400, 176
-0.998525, 361, 201, 424, 216
-0.998527, 265, 145, 328, 160
-0.998528, 385, 165, 448, 180
-0.998528, 217, 227, 280, 242
-0.998529, 49, 217, 112, 232
-0.998529, 137, 237, 168, 252
-0.99853, 177, 215, 240, 230
-0.99853, 329, 231, 392, 246
-0.99853, 305, 199, 368, 214
-0.998531, 297, 187, 360, 202
-0.998532, 145, 255, 176, 270
-0.998532, 425, 217, 488, 232
-0.998532, 193, 233, 256, 248
-0.998532, 385, 171, 448, 186
-0.998532, 217, 123, 280, 138
-0.998532, 393, 137, 456, 152
-0.998534, 393, 143, 456, 158
-0.998536, 265, 159, 328, 174
-0.998536, 281, 229, 312, 244
-0.998537, 401, 99, 464, 114
-0.998538, 289, 157, 320, 172
-0.998539, 217, 219, 280, 234
-0.99854, 217, 99, 280, 114
-0.998543, 385, 127, 448, 142
-0.998543, 393, 155, 456, 170
-0.998544, 329, 223, 392, 238
-0.998545, 217, 111, 280, 126
-0.998545, 337, 155, 400, 170
-0.998546, 353, 215, 416, 230
-0.998546, 401, 53, 464, 68
-0.998548, 329, 209, 392, 224
-0.998548, 41, 211, 72, 226
-0.998549, 297, 155, 360, 170
-0.99855, 177, 201, 240, 216
-0.99855, 65, 339, 128, 354
-0.99855, 169, 233, 232, 248
-0.99855, 209, 91, 272, 106
-0.99855, 313, 177, 344, 192
-0.998551, 409, 3, 472, 18
-0.998555, 369, 179, 432, 194
-0.998555, 425, 223, 488, 238
-0.998556, 353, 223, 384, 238
-0.998556, 201, 241, 264, 256
-0.998557, 217, 135, 280, 150
-0.998557, 121, 243, 184, 258
-0.998557, 193, 189, 256, 204
-0.998557, 217, 105, 280, 120
-0.998557, 37, 129, 68, 375
-0.998559, 337, 193, 400, 208
-0.998559, 409, 89, 472, 104
-0.998559, 425, 111, 488, 126
-0.998559, 385, 149, 448, 164
-0.99856, 397, 127, 428, 142
-0.998561, 281, 205, 344, 220
-0.998561, 185, 227, 248, 242
-0.998562, 265, 207, 296, 222
-0.998562, 305, 241, 368, 256
-0.998562, 361, 229, 424, 244
-0.998562, 369, 155, 432, 170
-0.998563, 241, 219, 304, 234
-0.998564, 329, 183, 392, 198
-0.998565, 401, 69, 464, 84
-0.998565, 381, 195, 412, 210
-0.998566, 217, 205, 280, 220
-0.998567, 257, 207, 320, 222
-0.998568, 353, 155, 384, 170
-0.998569, 305, 235, 368, 250
-0.998569, 225, 237, 256, 252
-0.998569, 277, 223, 308, 238
-0.998571, 425, 231, 488, 246
-0.998572, 417, 61, 480, 76
-0.998572, 245, 105, 276, 120
-0.998573, 17, 85, 80, 100
-0.998575, 137, 255, 200, 270
-0.998575, 97, 185, 160, 200
-0.998576, 297, 225, 328, 240
-0.998576, 65, 333, 128, 348
-0.998577, 41, 169, 104, 184
-0.998578, 217, 141, 280, 156
-0.998578, 417, 165, 480, 180
-0.998578, 353, 209, 416, 224
-0.998578, 113, 255, 176, 270
-0.998581, 129, 185, 192, 200
-0.998582, 349, 231, 380, 246
-0.998582, 361, 195, 424, 210
-0.998583, 361, 135, 424, 150
-0.998583, 433, 103, 496, 118
-0.998586, 33, 211, 96, 226
-0.998586, 225, 149, 288, 164
-0.998586, 145, 219, 208, 234
-0.998586, 177, 221, 240, 236
-0.998586, 169, 239, 232, 254
-0.998587, 41, 97, 104, 112
-0.998588, 217, 157, 280, 172
-0.998589, 273, 173, 336, 188
-0.998589, 217, 199, 280, 214
-0.998589, 425, 211, 488, 226
-0.998589, 329, 237, 392, 252
-0.99859, 433, 75, 496, 90
-0.99859, 385, 85, 448, 100
-0.99859, 153, 225, 216, 240
-0.998592, 1, 169, 64, 184
-0.998593, 217, 129, 280, 144
-0.998593, 265, 213, 328, 228
-0.998594, 333, 179, 364, 194
-0.998595, 121, 201, 184, 216
-0.998595, 137, 45, 200, 60
-0.998595, 401, 9, 464, 24
-0.998596, 409, 171, 472, 186
-0.998596, 401, 221, 464, 236
-0.998596, 337, 171, 400, 186
-0.998596, 417, 123, 480, 138
-0.998596, 185, 255, 248, 270
-0.998597, 145, 261, 208, 276
-0.998598, 417, 129, 480, 144
-0.998598, 105, 221, 168, 236
-0.998599, 297, 161, 360, 176
-0.998599, 17, 91, 80, 106
-0.998635, 361, 201, 392, 216
-0.998668, 375, 145, 390, 272
-0.998701, 357, 145, 372, 272
-0.998708, 301, 129, 316, 256
-0.99871, 367, 161, 382, 288
-0.998731, 181, 65, 212, 320
-0.998757, 265, 33, 296, 288
-0.998762, 227, 65, 242, 192
-0.998783, 257, 81, 272, 208
-0.99879, 113, 33, 144, 288
-0.998801, 365, 33, 396, 288
-0.998802, 141, 1, 156, 128
-0.998802, 13, 97, 44, 352
-0.998811, 291, 145, 306, 272
-0.998816, 455, 1, 470, 128
-0.998823, 277, 129, 292, 256
-0.998849, 261, 145, 276, 272
-0.998852, 385, 129, 400, 256
-0.998854, 285, 145, 300, 272
-0.998864, 365, 113, 380, 240
-0.998877, 239, 177, 254, 304
-0.998877, 401, 177, 416, 304
-0.998878, 239, 81, 254, 208
-0.998894, 407, 145, 422, 272
-0.998895, 399, 129, 414, 256
-0.998911, 425, 145, 440, 272
-0.998918, 463, 49, 478, 176
-0.998934, 441, 1, 456, 128
-0.998939, 45, 33, 76, 288
-0.998942, 433, 97, 448, 224
-0.998953, 465, 145, 480, 272
-0.998953, 267, 145, 282, 272
-0.998969, 229, 113, 244, 240
-0.998972, 313, 177, 328, 304
-0.998981, 203, 209, 218, 336
-0.998982, 147, 225, 162, 352
-0.99899, 351, 145, 366, 272
-0.998995, 455, 209, 470, 336
-0.998999, 357, 193, 372, 320
-0.999002, 407, 193, 422, 320
-0.999003, 57, 113, 72, 240
-0.999005, 239, 225, 254, 352
-0.999006, 229, 193, 244, 320
-0.999007, 247, 97, 262, 224
-0.99901, 475, 177, 490, 304
-0.999013, 451, 161, 466, 288
-0.999014, 441, 177, 456, 304
-0.999021, 485, 81, 500, 208
-0.999024, 57, 49, 72, 176
-0.999038, 251, 145, 266, 272
-0.999038, 273, 177, 288, 304
-0.999053, 409, 97, 424, 224
-0.999058, 307, 145, 322, 272
-0.999062, 147, 161, 162, 288
-0.999067, 485, 145, 500, 272
-0.999068, 133, 97, 148, 224
-0.999072, 375, 193, 390, 320
-0.999073, 239, 129, 254, 256
-0.999092, 211, 225, 226, 352
-0.999108, 417, 161, 432, 288
-0.999112, 435, 209, 450, 336
-0.999117, 49, 129, 64, 256
-0.999122, 125, 113, 140, 240
-0.999124, 461, 1, 476, 128
-0.999129, 415, 97, 430, 224
-0.99913, 155, 241, 170, 368
-0.99913, 281, 193, 296, 320
-0.999131, 441, 65, 456, 192
-0.999132, 435, 1, 450, 128
-0.999132, 219, 129, 234, 256
-0.999132, 459, 145, 474, 272
-0.999134, 435, 49, 450, 176
-0.999138, 25, 129, 56, 375
-0.999139, 265, 97, 280, 224
-0.99914, 249, 209, 264, 336
-0.999141, 139, 225, 154, 352
-0.999142, 393, 129, 408, 256
-0.999143, 455, 65, 470, 192
-0.999146, 17, 113, 32, 240
-0.999149, 441, 129, 456, 256
-0.999153, 57, 1, 72, 128
-0.999166, 299, 193, 314, 320
-0.999169, 463, 97, 478, 224
-0.999169, 465, 225, 480, 352
-0.999174, 51, 209, 66, 336
-0.999178, 45, 193, 60, 320
-0.999178, 429, 193, 444, 320
-0.999184, 319, 177, 334, 304
-0.999184, 409, 49, 424, 176
-0.999184, 245, 161, 260, 288
-0.999186, 261, 193, 276, 320
-0.999189, 17, 225, 32, 352
-0.999192, 381, 177, 396, 304
-0.999194, 289, 33, 320, 288
-0.999197, 141, 129, 172, 375
-0.999201, 325, 177, 340, 304
-0.999202, 117, 161, 132, 288
-0.999208, 289, 193, 304, 320
-0.999213, 217, 225, 232, 352
-0.999223, 345, 193, 360, 320
-0.999225, 55, 161, 70, 288
-0.999225, 431, 145, 446, 272
-0.999228, 139, 161, 154, 288
-0.999232, 335, 193, 350, 320
-0.999234, 205, 1, 236, 256
-0.999241, 363, 209, 378, 336
-0.999243, 133, 161, 148, 288
-0.999246, 413, 209, 428, 336
-0.999246, 85, 1, 116, 256
-0.99925, 447, 209, 462, 336
-0.999255, 9, 65, 24, 192
-0.999259, 325, 33, 356, 288
-0.999259, 117, 97, 132, 224
-0.999266, 395, 193, 410, 320
-0.999268, 427, 97, 442, 224
-0.999268, 387, 209, 402, 336
-0.999269, 409, 1, 424, 128
-0.999281, 1, 1, 32, 256
-0.999281, 479, 225, 494, 352
-0.999281, 421, 81, 436, 208
-0.999284, 223, 225, 238, 352
-0.999286, 403, 81, 418, 208
-0.999286, 127, 161, 142, 288
-0.999289, 473, 65, 488, 192
-0.999289, 213, 161, 228, 288
-0.99929, 107, 161, 122, 288
-0.999295, 417, 1, 432, 128
-0.999295, 305, 193, 320, 320
-0.999298, 447, 65, 462, 192
-0.999308, 15, 65, 30, 192
-0.999312, 139, 97, 154, 224
-0.999315, 169, 129, 200, 375
-0.999316, 87, 81, 102, 208
-0.999316, 197, 177, 212, 304
-0.999318, 357, 97, 372, 224
-0.99932, 207, 161, 222, 288
-0.999325, 219, 81, 234, 208
-0.999328, 97, 161, 112, 288
-0.999334, 339, 145, 354, 272
-0.999338, 427, 33, 442, 160
-0.999349, 403, 241, 418, 368
-0.99935, 345, 145, 360, 272
-0.99935, 447, 113, 462, 240
-0.999352, 283, 97, 298, 224
-0.999356, 11, 225, 26, 352
-0.9994, 69, 129, 100, 375
-0.999413, 277, 33, 308, 288
-0.999505, 101, 1, 132, 256
-0.999539, 337, 1, 368, 256
-0.999618, 87, 213, 102, 228
-0.999618, 89, 339, 104, 354
-0.999618, 287, 191, 302, 206
-0.999618, 425, 153, 440, 168
-0.999619, 383, 213, 398, 228
-0.999619, 427, 51, 442, 66
-0.999619, 441, 123, 456, 138
-0.999619, 297, 183, 312, 198
-0.999619, 207, 229, 222, 244
-0.999619, 307, 183, 322, 198
-0.999619, 229, 159, 244, 174
-0.999619, 403, 119, 418, 134
-0.99962, 229, 237, 244, 252
-0.99962, 281, 207, 296, 222
-0.99962, 401, 215, 416, 230
-0.999621, 401, 193, 416, 208
-0.999622, 269, 145, 284, 160
-0.999622, 315, 225, 330, 240
-0.999623, 229, 173, 244, 188
-0.999623, 141, 239, 156, 254
-0.999624, 229, 107, 244, 122
-0.999624, 203, 193, 218, 208
-0.999624, 309, 205, 324, 220
-0.999625, 277, 151, 292, 166
-0.999625, 389, 207, 404, 222
-0.999626, 239, 261, 254, 276
-0.999626, 311, 173, 326, 188
-0.999627, 445, 9, 460, 24
-0.999629, 227, 135, 242, 150
-0.999629, 147, 255, 162, 270
-0.99963, 155, 255, 170, 270
-0.99963, 389, 173, 404, 188
-0.999631, 449, 1, 464, 16
-0.999631, 263, 165, 278, 180
-0.999631, 229, 117, 244, 132
-0.999631, 229, 123, 244, 138
-0.999631, 461, 1, 476, 16
-0.999631, 127, 185, 142, 200
-0.999632, 459, 229, 474, 244
-0.999632, 409, 117, 424, 132
-0.999632, 455, 223, 470, 238
-0.999632, 317, 203, 332, 218
-0.999633, 353, 199, 368, 214
-0.999633, 227, 81, 242, 96
-0.999633, 319, 169, 334, 184
-0.999634, 317, 219, 332, 234
-0.999634, 287, 207, 302, 222
-0.999634, 229, 221, 244, 236
-0.999635, 295, 163, 310, 178
-0.999635, 269, 221, 284, 236
-0.999636, 485, 223, 500, 238
-0.999636, 229, 227, 244, 242
-0.999637, 395, 181, 410, 196
-0.999638, 367, 227, 382, 242
-0.999638, 255, 229, 270, 244
-0.999638, 103, 243, 118, 258
-0.999639, 355, 153, 370, 168
-0.999639, 191, 215, 206, 230
-0.999639, 215, 241, 230, 256
-0.999639, 147, 263, 162, 278
-0.99964, 291, 233, 306, 248
-0.999641, 347, 185, 362, 200
-0.999641, 465, 223, 480, 238
-0.999641, 415, 169, 430, 184
-0.999643, 421, 159, 436, 174
-0.999644, 201, 229, 216, 244
-0.999644, 15, 81, 30, 96
-0.999644, 297, 213, 312, 228
-0.999644, 393, 215, 408, 230
-0.999645, 373, 213, 388, 228
-0.999645, 325, 169, 340, 184
-0.999647, 337, 195, 352, 210
-0.999647, 397, 135, 412, 150
-0.999652, 35, 211, 50, 226
-0.999652, 239, 179, 254, 194
-0.999653, 49, 255, 64, 270
-0.999654, 275, 231, 290, 246
-0.999654, 151, 219, 166, 234
-0.999655, 301, 165, 316, 180
-0.999656, 87, 327, 102, 342
-0.999656, 279, 223, 294, 238
-0.999657, 321, 177, 336, 192
-0.999657, 219, 231, 234, 246
-0.999657, 363, 215, 378, 230
-0.999657, 385, 193, 400, 208
-0.999657, 197, 191, 212, 206
-0.999658, 467, 213, 482, 228
-0.999659, 459, 287, 474, 302
-0.99966, 89, 333, 104, 348
-0.999661, 331, 183, 346, 198
-0.999661, 49, 211, 64, 226
-0.999663, 59, 211, 74, 226
-0.999663, 291, 157, 306, 172
-0.999663, 427, 147, 442, 162
-0.999664, 463, 69, 478, 84
-0.999665, 239, 237, 254, 252
-0.999665, 447, 229, 462, 244
-0.999667, 397, 199, 412, 214
-0.999667, 409, 137, 424, 152
-0.999668, 395, 209, 410, 224
-0.999671, 367, 233, 382, 248
-0.999671, 249, 103, 264, 118
-0.999671, 459, 215, 474, 230
-0.999672, 431, 153, 446, 168
-0.999672, 391, 201, 406, 216
-0.999676, 181, 211, 196, 226
-0.999676, 357, 233, 372, 248
-0.99968, 301, 151, 316, 166
-0.999686, 439, 9, 454, 24
-0.999691, 401, 205, 416, 220
-0.999691, 425, 165, 440, 180
-0.999696, 403, 137, 418, 152
-0.999698, 367, 209, 382, 224
-0.9997, 207, 235, 222, 250
-0.999702, 285, 155, 300, 170
-0.999706, 287, 215, 302, 230
-0.999707, 407, 201, 422, 216
-0.999707, 339, 183, 354, 198
-0.999709, 135, 241, 150, 256
-0.999713, 291, 185, 306, 200
-0.999714, 281, 229, 296, 244
-0.999715, 177, 17, 304, 80
-0.999715, 357, 227, 372, 242
-0.999726, 345, 179, 360, 194
-0.999732, 289, 223, 304, 238
-0.999734, 403, 125, 418, 140
-0.999736, 377, 201, 392, 216
-0.999736, 363, 199, 378, 214
-0.999756, 331, 177, 346, 192
-0.999759, 363, 221, 378, 236
-0.999771, 339, 177, 354, 192
-0.999911, 225, 41, 352, 104
-1.00001, 349, 1, 380, 256
-1.00022, 33, 33, 64, 288
-1.00035, 273, 1, 400, 64
-1.00044, 13, 1, 44, 256
-1.00074, 241, 1, 304, 128
-1.00078, 225, 1, 352, 64
-1.00143, 281, 1, 344, 128
-1.00166, 281, 49, 344, 176
-1.00178, 273, 1, 400, 128
-1.00334, 305, 1, 368, 128
-1.00536, 337, 1, 400, 128
