1990
-0.373254, 1, 1, 500, 400
-0.434718, 1, 1, 500, 256
-0.488528, 129, 1, 384, 400
-0.490786, 1, 97, 500, 352
-0.551737, 225, 1, 480, 400
-0.560522, 129, 1, 384, 256
-0.653175, 33, 1, 288, 400
-0.698539, 225, 1, 480, 256
-0.731045, 161, 97, 416, 352
-0.746257, 1, 97, 256, 352
-0.773736, 33, 1, 288, 256
-0.851215, 225, 1, 352, 400
-0.858272, 225, 1, 352, 256
-0.884536, 81, 97, 208, 352
-0.888801, 17, 65, 144, 320
-0.891046, 177, 33, 304, 288
-0.891308, 177, 1, 304, 400
-0.892377, 273, 1, 400, 400
-0.89525, 81, 1, 208, 400
-0.895863, 225, 97, 352, 352
-0.898666, 1, 1, 128, 400
-0.903847, 273, 1, 400, 256
-0.905343, 65, 1, 192, 256
-0.906823, 1, 49, 500, 176
-0.909551, 1, 1, 500, 128
-0.912842, 145, 129, 272, 384
-0.918008, 257, 1, 320, 128
-0.918159, 65, 1, 320, 128
-0.919519, 257, 129, 500, 384
-0.919523, 129, 81, 384, 208
-0.920007, 225, 33, 480, 160
-0.920855, 1, 97, 500, 224
-0.9221, 241, 1, 368, 128
-0.924663, 129, 1, 256, 400
-0.925354, 1, 225, 500, 352
-0.928054, 337, 1, 464, 400
-0.930005, 273, 97, 400, 352
-0.933993, 129, 33, 256, 288
-0.934847, 241, 49, 368, 176
-0.935333, 281, 17, 344, 144
-0.9359, 1, 145, 500, 272
-0.943854, 193, 33, 320, 160
-0.9445, 33, 113, 288, 240
-0.944853, 241, 49, 304, 176
-0.947286, 265, 65, 328, 192
-0.947443, 249, 57, 312, 120
-0.948038, 321, 33, 448, 288
-0.949869, 193, 81, 320, 208
-0.951312, 217, 49, 280, 176
-0.951619, 1, 273, 500, 400
-0.952256, 265, 1, 328, 64
-0.95278, 225, 81, 480, 208
-0.954539, 17, 97, 144, 224
-0.955891, 161, 129, 416, 256
-0.956062, 65, 129, 192, 256
-0.956244, 105, 129, 168, 256
-0.956575, 289, 33, 352, 96
-0.956583, 369, 1, 496, 256
-0.956766, 249, 33, 312, 96
-0.956795, 1, 161, 256, 288
-0.956941, 1, 33, 128, 160
-0.957074, 193, 257, 448, 384
-0.957433, 33, 65, 288, 192
-0.958003, 305, 33, 368, 160
-0.959461, 73, 113, 136, 240
-0.959768, 129, 209, 384, 336
-0.959852, 289, 33, 416, 160
-0.96024, 177, 97, 240, 224
-0.961555, 129, 113, 256, 240
-0.961894, 265, 97, 328, 160
-0.961903, 145, 145, 208, 272
-0.961964, 353, 129, 480, 384
-0.962444, 225, 57, 288, 120
-0.962578, 65, 81, 192, 208
-0.963287, 241, 1, 304, 64
-0.964087, 233, 1, 296, 128
-0.964436, 113, 177, 176, 304
-0.964738, 241, 97, 368, 224
-0.965428, 313, 241, 376, 368
-0.965494, 257, 225, 384, 352
-0.966558, 233, 81, 296, 144
-0.967253, 241, 33, 368, 96
-0.9676, 297, 73, 360, 136
-0.968036, 153, 153, 216, 216
-0.968066, 65, 65, 128, 192
-0.968076, 273, 65, 336, 128
-0.968292, 281, 225, 344, 352
-0.968474, 257, 1, 288, 128
-0.969312, 81, 161, 144, 288
-0.969394, 257, 1, 320, 256
-0.969795, 177, 105, 240, 168
-0.969807, 257, 57, 288, 120
-0.969814, 153, 105, 216, 168
-0.970209, 17, 145, 144, 272
-0.970219, 289, 1, 320, 128
-0.97023, 273, 273, 400, 400
-0.970282, 289, 81, 352, 208
-0.970355, 153, 97, 216, 224
-0.970374, 121, 129, 184, 192
-0.97041, 269, 1, 300, 128
-0.970713, 121, 177, 184, 240
-0.970906, 65, 177, 192, 304
-0.97092, 281, 1, 344, 256
-0.970977, 241, 57, 368, 120
-0.971014, 49, 1, 176, 128
-0.971184, 225, 33, 288, 96
-0.971383, 169, 145, 232, 272
-0.971662, 97, 257, 352, 384
-0.971766, 81, 1, 144, 128
-0.972332, 177, 129, 304, 256
-0.972484, 49, 1, 112, 128
-0.972556, 253, 49, 284, 176
-0.972914, 225, 273, 352, 400
-0.972955, 1, 257, 256, 384
-0.973583, 81, 9, 144, 72
-0.973798, 129, 177, 256, 304
-0.973818, 269, 57, 300, 120
-0.97382, 113, 153, 176, 216
-0.973972, 145, 49, 272, 176
-0.974019, 89, 113, 152, 176
-0.974243, 209, 89, 336, 152
-0.974251, 65, 113, 128, 176
-0.974293, 309, 17, 340, 144
-0.974303, 225, 1, 288, 256
-0.974351, 105, 81, 168, 208
-0.974395, 201, 97, 264, 224
-0.974779, 241, 9, 368, 72
-0.974846, 269, 49, 300, 176
-0.975069, 201, 1, 264, 128
-0.975185, 253, 33, 284, 96
-0.975475, 273, 273, 336, 400
-0.975771, 193, 161, 256, 288
-0.975785, 289, 81, 416, 208
-0.975967, 161, 193, 224, 320
-0.976148, 305, 225, 432, 352
-0.976415, 17, 17, 80, 144
-0.976492, 313, 241, 376, 304
-0.976748, 297, 1, 360, 64
-0.976749, 193, 65, 320, 128
-0.976868, 225, 97, 288, 224
-0.976872, 225, 209, 480, 336
-0.976882, 81, 209, 144, 336
-0.977039, 49, 33, 112, 96
-0.977132, 177, 137, 240, 200
-0.977138, 285, 57, 316, 120
-0.97746, 145, 1, 272, 128
-0.977564, 33, 209, 288, 336
-0.97795, 245, 57, 276, 120
-0.978009, 97, 89, 160, 152
-0.978047, 57, 89, 120, 152
-0.978078, 49, 1, 112, 64
-0.978284, 113, 97, 176, 352
-0.978377, 301, 17, 332, 80
-0.978418, 57, 57, 120, 120
-0.978494, 177, 273, 304, 400
-0.978749, 289, 97, 352, 160
-0.978764, 153, 177, 216, 240
-0.978829, 217, 129, 280, 192
-0.979069, 153, 65, 216, 320
-0.97907, 153, 201, 216, 264
-0.979142, 65, 137, 128, 200
-0.979178, 145, 129, 208, 192
-0.97933, 297, 49, 328, 176
-0.979417, 253, 81, 284, 144
-0.979522, 209, 225, 336, 352
-0.979613, 129, 81, 192, 208
-0.979692, 73, 201, 136, 264
-0.979727, 281, 49, 312, 176
-0.979781, 81, 49, 144, 112
-0.979914, 65, 129, 192, 192
-0.980059, 25, 65, 88, 192
-0.98016, 257, 129, 500, 256
-0.980225, 145, 105, 272, 168
-0.980663, 337, 257, 400, 384
-0.980672, 17, 113, 144, 176
-0.980784, 337, 17, 464, 144
-0.981002, 297, 89, 328, 152
-0.981018, 241, 49, 272, 176
-0.981027, 81, 97, 208, 160
-0.981173, 129, 257, 256, 384
-0.981424, 209, 113, 240, 240
-0.981427, 129, 201, 192, 264
-0.981495, 129, 161, 256, 224
-0.981524, 129, 105, 192, 168
-0.981549, 201, 49, 264, 112
-0.981617, 73, 177, 136, 240
-0.98176, 201, 17, 264, 80
-0.981794, 305, 1, 368, 256
-0.981825, 193, 177, 320, 304
-0.981866, 253, 1, 284, 64
-0.981893, 273, 1, 304, 64
-0.981944, 33, 129, 96, 256
-0.98196, 161, 49, 224, 176
-0.98196, 233, 209, 296, 336
-0.981973, 313, 41, 376, 104
-0.981998, 273, 241, 336, 304
-0.982041, 89, 137, 152, 200
-0.982059, 97, 1, 160, 256
-0.982094, 257, 81, 384, 144
-0.982126, 141, 129, 172, 192
-0.98217, 137, 193, 200, 320
-0.98226, 193, 41, 320, 104
-0.982295, 9, 1, 72, 64
-0.982462, 105, 201, 168, 264
-0.982588, 97, 185, 224, 248
-0.982622, 313, 81, 376, 208
-0.982648, 81, 273, 208, 400
-0.98268, 197, 81, 228, 208
-0.982792, 289, 57, 416, 120
-0.982818, 129, 137, 256, 200
-0.982879, 73, 65, 136, 320
-0.982941, 1, 65, 128, 128
-0.982948, 289, 17, 320, 80
-0.982998, 321, 273, 448, 400
-0.983071, 245, 1, 276, 128
-0.983262, 281, 273, 344, 336
-0.983401, 17, 193, 144, 320
-0.983413, 321, 33, 352, 160
-0.983426, 177, 1, 304, 64
-0.983463, 209, 81, 272, 144
-0.98353, 1, 89, 128, 152
-0.983553, 313, 193, 376, 320
-0.983562, 313, 217, 376, 280
-0.983658, 17, 25, 80, 88
-0.983658, 193, 169, 256, 232
-0.983679, 249, 1, 312, 400
-0.983841, 17, 57, 80, 120
-0.983879, 97, 113, 128, 240
-0.983978, 153, 129, 184, 192
-0.984045, 49, 153, 176, 216
-0.984063, 325, 225, 356, 352
-0.984341, 285, 97, 316, 160
-0.984367, 269, 33, 300, 96
-0.984372, 241, 105, 304, 168
-0.984394, 201, 105, 264, 168
-0.984444, 1, 41, 128, 104
-0.984462, 273, 217, 336, 280
-0.984485, 1, 1, 128, 64
-0.984497, 209, 129, 336, 192
-0.984546, 249, 97, 312, 352
-0.98456, 313, 33, 344, 96
-0.984602, 269, 97, 300, 160
-0.984651, 25, 81, 88, 144
-0.984652, 97, 209, 224, 272
-0.984685, 109, 113, 140, 240
-0.984741, 33, 257, 160, 384
-0.984804, 97, 33, 224, 160
-0.984833, 273, 1, 336, 400
-0.984852, 113, 161, 144, 288
-0.984904, 289, 321, 352, 384
-0.984932, 313, 329, 376, 392
-0.984993, 153, 105, 184, 168
-0.985084, 257, 105, 384, 168
-0.98511, 273, 97, 336, 352
-0.9852, 297, 65, 328, 128
-0.985209, 289, 1, 416, 64
-0.985222, 193, 201, 256, 264
-0.985351, 333, 273, 364, 400
-0.985426, 165, 105, 196, 168
-0.985433, 281, 297, 344, 360
-0.985447, 329, 33, 392, 160
-0.985472, 317, 233, 348, 296
-0.985633, 97, 177, 160, 240
-0.985704, 241, 145, 304, 272
-0.985734, 241, 257, 304, 384
-0.985943, 193, 233, 256, 296
-0.985979, 289, 129, 416, 256
-0.985983, 321, 265, 384, 328
-0.986037, 241, 33, 272, 96
-0.986124, 297, 1, 360, 400
-0.986127, 309, 65, 340, 192
-0.986162, 49, 73, 176, 136
-0.986232, 157, 169, 188, 232
-0.986429, 241, 297, 368, 360
-0.986486, 101, 65, 132, 192
-0.98657, 273, 177, 336, 304
-0.986588, 113, 225, 176, 352
-0.986593, 309, 105, 340, 168
-0.986645, 309, 73, 340, 136
-0.986679, 217, 273, 280, 400
-0.986793, 305, 177, 432, 304
-0.986892, 17, 177, 144, 240
-0.9869, 273, 249, 400, 312
-0.986911, 241, 313, 304, 376
-0.986957, 145, 185, 272, 248
-0.987209, 193, 313, 320, 376
-0.98729, 185, 81, 248, 144
-0.9873, 257, 177, 384, 304
-0.987344, 49, 1, 112, 256
-0.987345, 145, 177, 176, 240
-0.987415, 297, 41, 328, 104
-0.987418, 25, 105, 88, 168
-0.987517, 221, 121, 252, 184
-0.987538, 113, 201, 144, 264
-0.98758, 57, 177, 120, 304
-0.98758, 193, 241, 256, 368
-0.987589, 321, 257, 352, 320
-0.987592, 105, 121, 136, 184
-0.987645, 265, 113, 328, 240
-0.987645, 217, 145, 280, 272
-0.987683, 225, 97, 288, 352
-0.987716, 165, 129, 196, 192
-0.987805, 141, 105, 172, 168
-0.987858, 177, 65, 240, 320
-0.987877, 177, 129, 208, 256
-0.98795, 33, 129, 96, 192
-0.988018, 321, 89, 384, 152
-0.988023, 193, 49, 256, 176
-0.988042, 337, 49, 400, 112
-0.988071, 105, 225, 168, 288
-0.988142, 225, 1, 288, 400
-0.988152, 145, 41, 272, 104
-0.98824, 233, 65, 264, 128
-0.988278, 169, 337, 232, 400
-0.988358, 221, 113, 252, 240
-0.988363, 249, 61, 312, 92
-0.988382, 105, 1, 168, 64
-0.988395, 241, 225, 368, 288
-0.988499, 49, 1, 176, 64
-0.988541, 157, 193, 188, 256
-0.988561, 289, 33, 416, 96
-0.988586, 329, 289, 392, 352
-0.988638, 17, 201, 144, 264
-0.988654, 153, 73, 216, 136
-0.98867, 81, 225, 144, 288
-0.988696, 49, 49, 176, 112
-0.988766, 145, 65, 272, 128
-0.98881, 101, 97, 132, 160
-0.988829, 49, 25, 176, 88
-0.988856, 129, 1, 192, 128
-0.988886, 89, 257, 152, 384
-0.988964, 33, 161, 96, 224
-0.988965, 25, 1, 88, 256
-0.988985, 269, 97, 300, 224
-0.989078, 369, 273, 496, 400
-0.989104, 81, 1, 144, 400
-0.989106, 209, 321, 272, 384
-0.989166, 289, 305, 416, 368
-0.989175, 129, 129, 160, 192
-0.98922, 257, 1, 320, 32
-0.989222, 97, 73, 224, 136
-0.989247, 141, 153, 172, 216
-0.989302, 305, 97, 368, 352
-0.989328, 157, 145, 188, 272
-0.989413, 321, 73, 352, 136
-0.989492, 273, 121, 336, 184
-0.989496, 265, 13, 328, 44
-0.989583, 273, 273, 400, 336
-0.989587, 97, 57, 128, 120
-0.9896, 209, 49, 240, 176
-0.989608, 229, 17, 260, 144
-0.989695, 177, 105, 208, 168
-0.989749, 145, 337, 208, 400
-0.989756, 49, 1, 112, 400
-0.989795, 41, 185, 104, 248
-0.989797, 257, 77, 320, 108
-0.989814, 145, 209, 272, 272
-0.989822, 105, 9, 136, 72
-0.989832, 169, 153, 200, 216
-0.989903, 105, 33, 168, 160
-0.98991, 169, 233, 232, 296
-0.990018, 153, 1, 216, 400
-0.990019, 225, 85, 288, 116
-0.990024, 217, 241, 280, 304
-0.990036, 297, 97, 328, 224
-0.990058, 289, 217, 416, 280
-0.990084, 193, 193, 320, 256
-0.990113, 209, 169, 336, 232
-0.990129, 265, 25, 328, 56
-0.990164, 241, 321, 368, 384
-0.990166, 313, 113, 376, 176
-0.990213, 97, 329, 160, 392
-0.990223, 369, 209, 432, 336
-0.990249, 185, 125, 248, 156
-0.990285, 225, 249, 352, 312
-0.990325, 221, 97, 252, 160
-0.990363, 105, 133, 168, 164
-0.990367, 93, 193, 124, 320
-0.990377, 85, 113, 116, 240
-0.99044, 201, 1, 264, 400
-0.990446, 145, 329, 272, 392
-0.990456, 85, 97, 116, 160
-0.990498, 321, 81, 352, 208
-0.990555, 109, 161, 140, 224
-0.990559, 249, 289, 312, 352
-0.990579, 289, 329, 416, 392
-0.99058, 209, 137, 240, 200
-0.990593, 241, 49, 304, 80
-0.990614, 153, 137, 216, 168
-0.990632, 129, 145, 192, 176
-0.990669, 201, 33, 264, 288
-0.990673, 153, 125, 216, 156
-0.990699, 265, 41, 328, 72
-0.990699, 177, 113, 240, 144
-0.990715, 309, 241, 340, 368
-0.990727, 65, 133, 128, 164
-0.990736, 177, 141, 240, 172
-0.990763, 265, 97, 328, 128
-0.99077, 201, 137, 264, 168
-0.990786, 177, 273, 304, 336
-0.990792, 209, 73, 272, 104
-0.990821, 113, 1, 176, 400
-0.990828, 225, 37, 288, 68
-0.990838, 289, 29, 352, 60
-0.99089, 305, 81, 432, 144
-0.990927, 105, 49, 168, 112
-0.99094, 229, 65, 260, 192
-0.990957, 129, 105, 160, 168
-0.990963, 321, 9, 384, 72
-0.991002, 65, 121, 128, 152
-0.991025, 113, 49, 144, 112
-0.99103, 297, 41, 360, 72
-0.991046, 297, 65, 360, 96
-0.99105, 1, 137, 128, 200
-0.991096, 297, 89, 360, 120
-0.991105, 153, 113, 216, 144
-0.991147, 121, 113, 152, 240
-0.99115, 121, 197, 184, 228
-0.991192, 121, 73, 184, 136
-0.991255, 193, 65, 448, 128
-0.991256, 81, 9, 144, 40
-0.991288, 297, 53, 360, 84
-0.991291, 341, 241, 372, 304
-0.99132, 185, 81, 216, 208
-0.991341, 153, 169, 216, 200
-0.991355, 321, 273, 352, 400
-0.991379, 157, 97, 188, 224
-0.991384, 65, 257, 128, 384
-0.991397, 189, 129, 220, 256
-0.991407, 97, 121, 160, 152
-0.991409, 321, 281, 448, 344
-0.991415, 289, 77, 352, 108
-0.991434, 81, 249, 144, 312
-0.99145, 193, 97, 256, 128
-0.991465, 341, 225, 372, 352
-0.99149, 49, 9, 112, 40
-0.991492, 241, 13, 304, 44
-0.991504, 281, 97, 312, 224
-0.991504, 209, 125, 272, 156
-0.991518, 49, 321, 176, 384
-0.991558, 241, 97, 304, 128
-0.99156, 353, 225, 480, 352
-0.991571, 241, 25, 304, 56
-0.991574, 105, 145, 168, 176
-0.991632, 169, 101, 232, 132
-0.99165, 33, 177, 96, 304
-0.991682, 73, 145, 136, 176
-0.991683, 113, 185, 176, 216
-0.991696, 225, 33, 480, 96
-0.991697, 105, 109, 168, 140
-0.991697, 145, 197, 208, 228
-0.99171, 225, 1, 288, 32
-0.991742, 65, 1, 320, 64
-0.991743, 281, 1, 344, 32
-0.991752, 169, 157, 232, 188
-0.991753, 81, 53, 144, 84
-0.991773, 313, 245, 376, 276
-0.991774, 345, 209, 408, 272
-0.991776, 49, 25, 112, 56
-0.991778, 81, 225, 208, 352
-0.991816, 345, 193, 408, 320
-0.99182, 49, 45, 112, 76
-0.991822, 57, 73, 120, 104
-0.991823, 229, 33, 260, 96
-0.991827, 41, 209, 104, 272
-0.991832, 221, 145, 252, 208
-0.991832, 137, 101, 200, 132
-0.991833, 185, 257, 248, 320
-0.991836, 49, 97, 112, 352
-0.991846, 137, 209, 200, 240
-0.991846, 113, 209, 176, 240
-0.991872, 169, 257, 232, 384
-0.991883, 225, 61, 288, 92
-0.991883, 201, 25, 264, 56
-0.991905, 225, 273, 352, 336
-0.991908, 217, 49, 280, 80
-0.991915, 193, 33, 224, 160
-0.991918, 65, 109, 128, 140
-0.991923, 125, 185, 156, 248
-0.991976, 57, 89, 120, 120
-0.991982, 129, 169, 192, 200
-0.992007, 73, 201, 136, 232
-0.992015, 49, 57, 112, 88
-0.992023, 161, 209, 224, 240
-0.992029, 129, 125, 192, 156
-0.992055, 145, 161, 176, 288
-0.992055, 201, 61, 264, 92
-0.99207, 345, 337, 408, 400
-0.992075, 313, 345, 376, 376
-0.992094, 89, 65, 152, 96
-0.992113, 105, 221, 168, 252
-0.992136, 81, 21, 144, 52
-0.992138, 177, 129, 208, 192
-0.992145, 9, 21, 72, 52
-0.99217, 105, 173, 168, 204
-0.992173, 305, 289, 368, 352
-0.992181, 253, 61, 284, 92
-0.99219, 289, 17, 352, 48
-0.992196, 121, 1, 184, 256
-0.992218, 73, 213, 136, 244
-0.992219, 49, 241, 112, 304
-0.992227, 325, 33, 356, 96
-0.99223, 333, 49, 364, 176
-0.992234, 89, 77, 152, 108
-0.992239, 225, 137, 288, 168
-0.992241, 97, 1, 128, 128
-0.992252, 273, 253, 336, 284
-0.992258, 281, 109, 344, 140
-0.992263, 233, 73, 296, 104
-0.99228, 33, 129, 288, 192
-0.992291, 193, 225, 320, 288
-0.992302, 273, 265, 336, 296
-0.992306, 153, 185, 216, 216
-0.99232, 113, 297, 240, 360
-0.992327, 241, 129, 304, 192
-0.992335, 129, 89, 384, 152
-0.99234, 177, 1, 240, 400
-0.992342, 129, 113, 192, 144
-0.992344, 65, 157, 128, 188
-0.992353, 97, 197, 160, 228
-0.992356, 81, 65, 112, 192
-0.992369, 313, 257, 376, 288
-0.992394, 201, 113, 264, 144
-0.992398, 9, 9, 72, 40
-0.992398, 225, 153, 288, 216
-0.992424, 281, 277, 344, 308
-0.992428, 105, 5, 168, 36
-0.99243, 33, 225, 160, 288
-0.992433, 253, 41, 284, 72
-0.992437, 17, 69, 80, 100
-0.992449, 217, 97, 280, 128
-0.992455, 245, 77, 276, 108
-0.99246, 169, 197, 232, 228
-0.992476, 209, 105, 240, 168
-0.992483, 233, 125, 296, 156
-0.992486, 81, 37, 144, 68
-0.992491, 185, 313, 248, 376
-0.992492, 289, 333, 352, 364
-0.992493, 65, 33, 320, 96
-0.99251, 173, 81, 204, 208
-0.992511, 237, 105, 268, 168
-0.992515, 321, 281, 384, 312
-0.992526, 321, 313, 352, 376
-0.992528, 297, 193, 360, 256
-0.992528, 17, 57, 80, 88
-0.992528, 273, 237, 336, 268
-0.992533, 65, 173, 128, 204
-0.992542, 101, 185, 132, 248
-0.992549, 329, 357, 392, 388
-0.992563, 201, 85, 264, 116
-0.992578, 185, 177, 248, 208
-0.992583, 281, 297, 344, 328
-0.992586, 197, 113, 228, 176
-0.992613, 169, 177, 200, 304
-0.992614, 17, 45, 80, 76
-0.992647, 305, 1, 368, 32
-0.992667, 269, 49, 300, 80
-0.992677, 361, 233, 424, 296
-0.992677, 97, 241, 224, 304
-0.99268, 217, 13, 280, 44
-0.992682, 17, 33, 80, 64
-0.992694, 73, 189, 136, 220
-0.992694, 289, 321, 352, 352
-0.992695, 301, 21, 332, 52
-0.992705, 17, 81, 80, 112
-0.992706, 205, 161, 236, 224
-0.992711, 305, 117, 368, 148
-0.992722, 133, 129, 164, 256
-0.992724, 263, 57, 278, 120
-0.992728, 297, 97, 328, 128
-0.992738, 269, 1, 300, 32
-0.992741, 209, 125, 240, 156
-0.992744, 193, 161, 256, 192
-0.992746, 197, 125, 228, 156
-0.992754, 97, 89, 160, 120
-0.992756, 273, 53, 336, 84
-0.992759, 33, 281, 160, 344
-0.992764, 105, 161, 168, 192
-0.992764, 297, 221, 360, 252
-0.992765, 193, 205, 256, 236
-0.992767, 249, 89, 280, 120
-0.992775, 313, 29, 376, 60
-0.992783, 265, 129, 328, 160
-0.992794, 25, 109, 88, 140
-0.992801, 313, 101, 376, 132
-0.992802, 337, 61, 400, 92
-0.992803, 241, 65, 272, 96
-0.992808, 257, 97, 288, 224
-0.992813, 257, 185, 320, 248
-0.992818, 197, 105, 228, 136
-0.992822, 321, 369, 384, 400
-0.992823, 169, 29, 232, 60
-0.992825, 33, 141, 96, 172
-0.992833, 25, 97, 88, 128
-0.992834, 157, 169, 188, 200
-0.992836, 313, 17, 376, 48
-0.992846, 313, 269, 376, 300
-0.992868, 313, 77, 376, 108
-0.992869, 201, 129, 264, 384
-0.99288, 25, 1, 88, 400
-0.992896, 193, 137, 224, 168
-0.9929, 201, 193, 264, 224
-0.992903, 297, 129, 360, 256
-0.992939, 337, 25, 464, 88
-0.99294, 293, 9, 324, 40
-0.992948, 125, 141, 156, 172
-0.992973, 161, 137, 192, 168
-0.992977, 149, 137, 180, 168
-0.992983, 265, 81, 296, 112
-0.992986, 285, 81, 316, 112
-0.992988, 105, 129, 136, 160
-0.992996, 185, 125, 216, 156
-0.992997, 177, 137, 208, 168
-0.993001, 109, 141, 140, 172
-0.993003, 253, 25, 284, 56
-0.993005, 209, 105, 240, 136
-0.99301, 297, 81, 328, 112
-0.993017, 113, 201, 144, 232
-0.993032, 137, 133, 168, 164
-0.993064, 241, 49, 272, 80
-0.993078, 221, 133, 252, 164
-0.993082, 273, 13, 304, 44
-0.993082, 173, 125, 204, 156
-0.99309, 141, 173, 172, 204
-0.993105, 249, 1, 280, 32
-0.99311, 205, 137, 236, 168
-0.993112, 257, 57, 272, 120
-0.993114, 89, 121, 120, 184
-0.993125, 309, 33, 340, 64
-0.993128, 305, 1, 336, 32
-0.993137, 241, 209, 304, 272
-0.993139, 317, 93, 348, 124
-0.993144, 89, 273, 152, 336
-0.993146, 309, 109, 340, 140
-0.993152, 157, 197, 188, 228
-0.993158, 321, 97, 352, 160
-0.993164, 285, 97, 316, 128
-0.993164, 97, 141, 128, 172
-0.993169, 285, 41, 316, 72
-0.99317, 173, 109, 204, 140
-0.993172, 321, 337, 352, 400
-0.993173, 221, 97, 252, 128
-0.993181, 285, 61, 316, 92
-0.993185, 145, 149, 176, 180
-0.993185, 261, 93, 292, 124
-0.993196, 321, 261, 352, 292
-0.993201, 185, 109, 216, 140
-0.993203, 321, 37, 352, 68
-0.993207, 265, 61, 296, 92
-0.993215, 273, 29, 304, 60
-0.993221, 161, 125, 192, 156
-0.993232, 325, 273, 356, 304
-0.993232, 149, 125, 180, 156
-0.993248, 317, 245, 348, 276
-0.993249, 205, 93, 236, 124
-0.993258, 241, 37, 272, 68
-0.993258, 113, 213, 144, 244
-0.993262, 109, 153, 140, 184
-0.993264, 93, 61, 124, 92
-0.993266, 105, 117, 136, 148
-0.993267, 149, 185, 180, 216
-0.993272, 125, 129, 156, 160
-0.993282, 157, 149, 188, 180
-0.993283, 137, 201, 168, 232
-0.993285, 241, 69, 368, 100
-0.993299, 153, 109, 184, 140
-0.993301, 105, 9, 136, 40
-0.993302, 253, 13, 284, 44
-0.993303, 217, 145, 248, 176
-0.993316, 153, 209, 184, 240
-0.993317, 161, 1, 416, 64
-0.993324, 321, 257, 448, 320
-0.993326, 101, 105, 132, 136
-0.993326, 109, 57, 140, 88
-0.993331, 93, 73, 124, 104
-0.993333, 337, 353, 368, 384
-0.993334, 221, 121, 252, 152
-0.993335, 233, 77, 264, 108
-0.993338, 233, 133, 264, 164
-0.993344, 105, 185, 136, 216
-0.993345, 169, 149, 200, 180
-0.993349, 209, 161, 240, 192
-0.993354, 297, 69, 328, 100
-0.993363, 273, 93, 304, 124
-0.993371, 169, 205, 200, 236
-0.993383, 289, 21, 320, 52
-0.993392, 333, 337, 364, 368
-0.993394, 217, 85, 248, 116
-0.993394, 173, 209, 204, 272
-0.993394, 297, 45, 328, 76
-0.993399, 221, 109, 252, 140
-0.993403, 313, 305, 344, 336
-0.993403, 97, 337, 224, 400
-0.993418, 117, 9, 148, 40
-0.993419, 85, 105, 116, 136
-0.99342, 101, 85, 132, 116
-0.99342, 141, 109, 172, 140
-0.993424, 113, 225, 144, 256
-0.993427, 89, 9, 120, 40
-0.993432, 97, 213, 128, 244
-0.993433, 125, 209, 156, 240
-0.993442, 113, 45, 144, 76
-0.993442, 177, 249, 304, 312
-0.993444, 333, 245, 364, 276
-0.993448, 309, 77, 340, 108
-0.99345, 117, 113, 148, 176
-0.99345, 129, 113, 160, 144
-0.993451, 321, 353, 352, 384
-0.993451, 353, 357, 384, 388
-0.993451, 325, 285, 356, 316
-0.993454, 85, 129, 116, 160
-0.993455, 93, 49, 124, 80
-0.993456, 193, 93, 224, 124
-0.99346, 313, 121, 344, 152
-0.993472, 173, 193, 204, 224
-0.993474, 197, 157, 228, 188
-0.99348, 245, 129, 276, 160
-0.993482, 281, 1, 312, 32
-0.99349, 221, 165, 252, 196
-0.993492, 233, 121, 264, 152
-0.993493, 301, 57, 332, 88
-0.993495, 181, 149, 212, 180
-0.993502, 209, 281, 272, 344
-0.993513, 229, 57, 260, 88
-0.993513, 341, 369, 372, 400
-0.993514, 321, 77, 352, 108
-0.993517, 321, 341, 352, 372
-0.993518, 321, 25, 352, 56
-0.993519, 313, 321, 344, 352
-0.993521, 317, 65, 348, 96
-0.993522, 105, 21, 136, 52
-0.993526, 117, 113, 148, 144
-0.993526, 329, 313, 360, 344
-0.993528, 341, 61, 372, 92
-0.9936, 337, 49, 464, 112
-0.993606, 33, 105, 288, 168
-0.993617, 313, 1, 344, 64
-0.993623, 217, 201, 280, 264
-0.993624, 309, 297, 340, 360
-0.99363, 305, 113, 432, 176
-0.99366, 65, 65, 320, 128
-0.993677, 333, 329, 364, 392
-0.993713, 329, 281, 360, 344
-0.993771, 269, 57, 284, 120
-0.993827, 337, 241, 400, 304
-0.993855, 241, 257, 304, 320
-0.993868, 33, 257, 160, 320
-0.993874, 257, 33, 272, 96
-0.993892, 241, 81, 368, 112
-0.993899, 185, 193, 216, 256
-0.993926, 233, 1, 264, 64
-0.993931, 97, 1, 224, 64
-0.993953, 137, 273, 200, 400
-0.994027, 241, 29, 368, 60
-0.994055, 337, 57, 368, 120
-0.994057, 241, 57, 368, 88
-0.994084, 1, 41, 500, 104
-0.994098, 181, 193, 212, 320
-0.994117, 129, 153, 160, 216
-0.99413, 89, 305, 152, 368
-0.994137, 129, 137, 384, 200
-0.994146, 337, 225, 464, 288
-0.994155, 49, 265, 112, 328
-0.994165, 309, 113, 340, 240
-0.994176, 57, 297, 120, 360
-0.994234, 241, 45, 368, 76
-0.994234, 289, 193, 416, 256
-0.994235, 209, 81, 240, 144
-0.99429, 233, 177, 296, 240
-0.994323, 1, 169, 256, 232
-0.994333, 237, 225, 268, 352
-0.994342, 369, 313, 496, 376
-0.994347, 309, 273, 340, 336
-0.994363, 117, 65, 148, 192
-0.994363, 97, 185, 352, 248
-0.994366, 329, 1, 392, 256
-0.994376, 89, 9, 120, 72
-0.994419, 385, 1, 448, 128
-0.994489, 321, 1, 384, 400
-0.994505, 333, 217, 364, 280
-0.994568, 145, 113, 176, 240
-0.994596, 289, 145, 416, 208
-0.994612, 301, 249, 332, 312
-0.994663, 241, 17, 368, 48
-0.994675, 193, 193, 224, 320
-0.994711, 265, 17, 280, 80
-0.994714, 241, 1, 368, 32
-0.994766, 1, 73, 500, 136
-0.994785, 287, 57, 302, 120
-0.994831, 217, 177, 248, 304
-0.994837, 337, 313, 400, 376
-0.994847, 185, 281, 248, 344
-0.994865, 113, 25, 176, 88
-0.994867, 193, 85, 320, 116
-0.994893, 377, 257, 440, 384
-0.994896, 369, 337, 496, 400
-0.994918, 129, 161, 384, 224
-0.99493, 193, 113, 448, 176
-0.994938, 173, 185, 204, 248
-0.99502, 97, 145, 224, 176
-0.995048, 129, 133, 256, 164
-0.995052, 97, 265, 224, 328
-0.995112, 249, 121, 280, 184
-0.995128, 279, 57, 294, 120
-0.99514, 225, 97, 352, 128
-0.995146, 93, 33, 124, 96
-0.995159, 251, 57, 266, 120
-0.995163, 233, 129, 264, 192
-0.995174, 369, 289, 496, 352
-0.995182, 301, 225, 332, 288
-0.9952, 1, 1, 500, 64
-0.995213, 225, 193, 256, 256
-0.995222, 113, 225, 144, 288
-0.995255, 369, 65, 496, 192
-0.995261, 241, 193, 368, 256
-0.995279, 193, 337, 320, 400
-0.995286, 129, 225, 192, 288
-0.995327, 129, 121, 256, 152
-0.995334, 193, 297, 448, 360
-0.995344, 217, 105, 232, 168
-0.995347, 241, 233, 304, 296
-0.99535, 261, 81, 276, 144
-0.995354, 197, 137, 228, 200
-0.995354, 265, 153, 328, 216
-0.995379, 393, 1, 456, 64
-0.995384, 81, 17, 112, 144
-0.9954, 189, 33, 220, 96
-0.995421, 45, 33, 76, 160
-0.995421, 293, 57, 308, 120
-0.995466, 233, 177, 264, 304
-0.995468, 369, 257, 432, 320
-0.995478, 237, 129, 268, 256
-0.995515, 113, 249, 176, 312
-0.995537, 299, 57, 314, 120
-0.995565, 113, 89, 144, 152
-0.995609, 227, 121, 242, 184
-0.995653, 225, 225, 256, 352
-0.995676, 57, 329, 120, 392
-0.99568, 109, 209, 140, 336
-0.995681, 1, 193, 256, 256
-0.99569, 301, 193, 332, 320
-0.995718, 97, 209, 352, 272
-0.99575, 353, 257, 384, 384
-0.995774, 173, 129, 188, 192
-0.995791, 109, 1, 140, 128
-0.995821, 305, 17, 320, 80
-0.995825, 193, 61, 320, 92
-0.995858, 177, 1, 240, 64
-0.99587, 159, 129, 174, 192
-0.995872, 41, 225, 104, 352
-0.995876, 311, 25, 326, 88
-0.995879, 81, 125, 208, 156
-0.995898, 113, 273, 176, 400
-0.995899, 251, 33, 266, 96
-0.9959, 309, 81, 324, 144
-0.995922, 265, 337, 328, 400
-0.995929, 161, 265, 224, 328
-0.995932, 249, 257, 280, 384
-0.995951, 161, 313, 224, 376
-0.995966, 369, 265, 496, 328
-0.995968, 97, 273, 352, 336
-0.995972, 205, 209, 236, 272
-0.995984, 1, 97, 500, 160
-0.99599, 233, 241, 264, 304
-0.995998, 157, 209, 188, 336
-0.996005, 217, 169, 248, 232
-0.996015, 267, 81, 282, 144
-0.996018, 225, 249, 480, 312
-0.996021, 161, 73, 288, 104
-0.996022, 193, 137, 320, 168
-0.996049, 133, 81, 164, 208
-0.996053, 161, 321, 416, 384
-0.996065, 167, 129, 182, 192
-0.996091, 117, 9, 148, 72
-0.996095, 97, 193, 224, 224
-0.99611, 265, 273, 296, 336
-0.996126, 257, 9, 500, 72
-0.99613, 257, 1, 288, 256
-0.996152, 225, 273, 256, 400
-0.996158, 301, 97, 316, 160
-0.99616, 255, 81, 270, 144
-0.996163, 129, 173, 256, 204
-0.996171, 159, 169, 174, 232
-0.996172, 1, 85, 128, 116
-0.996176, 273, 25, 288, 88
-0.996186, 149, 129, 164, 192
-0.996229, 49, 141, 176, 172
-0.996229, 377, 281, 440, 344
-0.996233, 17, 105, 144, 136
-0.996253, 385, 1, 448, 400
-0.996257, 143, 113, 158, 176
-0.996264, 273, 81, 288, 144
-0.996279, 65, 105, 192, 136
-0.99628, 93, 161, 124, 224
-0.996286, 101, 97, 116, 160
-0.996297, 65, 181, 192, 212
-0.996314, 49, 81, 80, 208
-0.996315, 295, 97, 310, 160
-0.996317, 111, 193, 126, 256
-0.996325, 297, 137, 360, 200
-0.996326, 305, 1, 336, 256
-0.996328, 165, 73, 196, 136
-0.996337, 285, 97, 300, 160
-0.996346, 197, 273, 228, 400
-0.996348, 137, 129, 152, 192
-0.996356, 209, 97, 224, 160
-0.996371, 269, 273, 300, 400
-0.996377, 315, 81, 330, 144
-0.996378, 217, 17, 248, 80
-0.996405, 1, 305, 128, 368
-0.996419, 333, 81, 364, 144
-0.996421, 205, 161, 236, 288
-0.996436, 201, 233, 232, 296
-0.996448, 129, 161, 256, 192
-0.996456, 17, 121, 144, 152
-0.99646, 189, 89, 220, 152
-0.996477, 145, 145, 272, 176
-0.996482, 121, 313, 184, 376
-0.996483, 97, 217, 224, 248
-0.996483, 369, 1, 496, 64
-0.99649, 319, 25, 334, 88
-0.996494, 305, 57, 320, 120
-0.996502, 141, 201, 172, 264
-0.996514, 279, 89, 294, 152
-0.996534, 193, 13, 320, 44
-0.996541, 183, 113, 198, 176
-0.996566, 257, 89, 500, 152
-0.996566, 25, 97, 88, 352
-0.996572, 97, 25, 224, 88
-0.996576, 107, 129, 122, 192
-0.996579, 1, 5, 128, 36
-0.996589, 325, 9, 356, 72
-0.996597, 169, 41, 232, 104
-0.996657, 297, 33, 312, 96
-0.996668, 177, 97, 304, 128
-0.99667, 297, 113, 328, 176
-0.996672, 165, 105, 180, 168
-0.996674, 165, 161, 180, 224
-0.996678, 1, 17, 128, 48
-0.99668, 205, 185, 236, 248
-0.996709, 193, 49, 320, 80
-0.996713, 329, 129, 392, 384
-0.996716, 215, 81, 230, 144
-0.99673, 409, 1, 472, 400
-0.996745, 203, 97, 218, 160
-0.996749, 225, 273, 480, 336
-0.996762, 153, 105, 168, 168
-0.996763, 193, 37, 320, 68
-0.996764, 317, 105, 332, 168
-0.996768, 177, 121, 304, 152
-0.996773, 285, 225, 316, 352
-0.996782, 113, 281, 176, 344
-0.996796, 113, 1, 128, 64
-0.996798, 109, 1, 140, 256
-0.996799, 49, 153, 176, 184
-0.996812, 1, 29, 128, 60
-0.996818, 323, 105, 338, 168
-0.996822, 1, 41, 128, 72
-0.996826, 289, 1, 320, 256
-0.996827, 257, 169, 384, 232
-0.996832, 223, 97, 238, 160
-0.996838, 299, 1, 314, 64
-0.996841, 117, 185, 132, 248
-0.996852, 201, 57, 232, 120
-0.996865, 181, 1, 212, 128
-0.996867, 131, 113, 146, 176
-0.99687, 345, 1, 408, 400
-0.996872, 245, 57, 260, 120
-0.996873, 277, 289, 308, 352
-0.996884, 341, 1, 372, 128
-0.996885, 177, 1, 304, 32
-0.996885, 73, 25, 104, 88
-0.996886, 113, 109, 240, 140
-0.996892, 95, 97, 110, 160
-0.996892, 321, 121, 352, 184
-0.996902, 311, 57, 326, 120
-0.996931, 221, 137, 236, 200
-0.996934, 105, 177, 120, 240
-0.996934, 97, 241, 128, 368
-0.996935, 253, 65, 268, 96
-0.996939, 101, 121, 116, 184
-0.996944, 289, 17, 304, 80
-0.996946, 195, 9, 210, 72
-0.99697, 1, 73, 128, 104
-0.996976, 253, 77, 268, 108
-0.996989, 193, 25, 320, 56
-0.997018, 89, 185, 120, 248
-0.997018, 49, 93, 176, 124
-0.997019, 369, 113, 496, 240
-0.99702, 259, 61, 274, 92
-0.99703, 181, 161, 212, 224
-0.997034, 193, 169, 224, 232
-0.99706, 269, 1, 300, 256
-0.997069, 289, 69, 416, 100
-0.997077, 167, 193, 182, 256
-0.997094, 1, 1, 64, 400
-0.997115, 177, 105, 192, 168
-0.997143, 1, 61, 128, 92
-0.997144, 353, 97, 480, 160
-0.997157, 171, 153, 186, 216
-0.997161, 77, 57, 108, 120
-0.99718, 193, 105, 208, 168
-0.997187, 109, 105, 124, 168
-0.997194, 289, 1, 416, 32
-0.997196, 101, 209, 132, 272
-0.997197, 289, 81, 416, 112
-0.997198, 119, 9, 134, 72
-0.997201, 193, 225, 448, 288
-0.997209, 425, 1, 488, 128
-0.997211, 181, 1, 212, 64
-0.997216, 313, 1, 328, 64
-0.997223, 17, 181, 144, 212
-0.99723, 261, 121, 292, 184
-0.997252, 125, 81, 156, 144
-0.997264, 153, 169, 168, 232
-0.997267, 237, 273, 268, 400
-0.997269, 229, 97, 244, 160
-0.997271, 317, 1, 348, 256
-0.997273, 173, 337, 204, 400
-0.997279, 171, 105, 186, 168
-0.997284, 233, 121, 248, 184
-0.997305, 103, 73, 118, 136
-0.997308, 289, 57, 416, 88
-0.997309, 69, 1, 100, 128
-0.99731, 1, 217, 256, 280
-0.997323, 1, 225, 500, 288
-0.997333, 1, 257, 500, 320
-0.997338, 65, 205, 192, 236
-0.997342, 1, 337, 128, 400
-0.997343, 177, 81, 208, 144
-0.997344, 211, 121, 226, 184
-0.997347, 201, 1, 232, 64
-0.997364, 49, 169, 176, 200
-0.997365, 135, 185, 150, 248
-0.997368, 325, 313, 340, 376
-0.997369, 245, 1, 276, 256
-0.997375, 145, 197, 272, 228
-0.99738, 125, 177, 156, 304
-0.997382, 241, 301, 368, 332
-0.997383, 145, 209, 176, 336
-0.997384, 113, 49, 128, 112
-0.997391, 199, 33, 214, 96
-0.997397, 185, 337, 216, 400
-0.997398, 289, 93, 416, 124
-0.997408, 365, 273, 396, 400
-0.997434, 235, 97, 250, 160
-0.997435, 123, 185, 138, 248
-0.997436, 317, 209, 348, 272
-0.99745, 323, 233, 338, 296
-0.997451, 179, 137, 194, 200
-0.997457, 209, 109, 336, 140
-0.997461, 17, 205, 144, 236
-0.997465, 145, 209, 272, 240
-0.99747, 49, 5, 176, 36
-0.997472, 145, 185, 160, 248
-0.997476, 229, 17, 244, 80
-0.997484, 341, 273, 356, 336
-0.997497, 247, 69, 262, 100
-0.997506, 275, 1, 290, 64
-0.997513, 321, 81, 336, 144
-0.997516, 225, 125, 352, 156
-0.997524, 353, 129, 416, 384
-0.997526, 215, 121, 230, 152
-0.997534, 283, 1, 298, 64
-0.997537, 111, 161, 126, 224
-0.997541, 257, 265, 384, 296
-0.99755, 265, 61, 280, 92
-0.997554, 129, 249, 384, 312
-0.997557, 273, 49, 288, 80
-0.997561, 33, 337, 288, 400
-0.997567, 269, 313, 300, 376
-0.997578, 119, 121, 134, 184
-0.99758, 145, 61, 272, 92
-0.997585, 319, 273, 334, 336
-0.997585, 305, 29, 432, 60
-0.997593, 259, 81, 274, 112
-0.997594, 1, 133, 128, 164
-0.997595, 193, 321, 320, 352
-0.997599, 97, 49, 224, 112
-0.997599, 265, 45, 280, 76
-0.997611, 257, 49, 272, 80
-0.997614, 207, 125, 222, 156
-0.997629, 93, 73, 108, 136
-0.997633, 193, 185, 448, 248
-0.997634, 33, 217, 160, 248
-0.997642, 329, 337, 344, 400
-0.997645, 125, 129, 140, 192
-0.997647, 241, 313, 368, 344
-0.997654, 141, 65, 172, 320
-0.997654, 139, 153, 154, 216
-0.997656, 373, 337, 404, 400
-0.997658, 161, 193, 176, 256
-0.997671, 333, 305, 364, 368
-0.997672, 89, 65, 120, 320
-0.99768, 161, 185, 288, 216
-0.997689, 345, 57, 360, 120
-0.997689, 159, 105, 174, 168
-0.99769, 101, 145, 116, 208
-0.997691, 173, 201, 188, 264
-0.9977, 369, 161, 496, 224
-0.997709, 257, 245, 384, 276
-0.997709, 343, 241, 358, 304
-0.997733, 313, 241, 328, 304
-0.997735, 157, 65, 188, 320
-0.997743, 49, 77, 176, 108
-0.997748, 333, 81, 348, 144
-0.997752, 289, 301, 416, 332
-0.997752, 205, 329, 236, 392
-0.997756, 49, 57, 176, 88
-0.997757, 1, 129, 64, 256
-0.997758, 239, 121, 254, 184
-0.99776, 225, 233, 352, 264
-0.997764, 129, 65, 160, 320
-0.99777, 97, 297, 352, 360
-0.997781, 193, 125, 208, 156
-0.997809, 183, 89, 198, 152
-0.997809, 191, 129, 206, 192
-0.997818, 333, 41, 348, 104
-0.997827, 335, 257, 350, 320
-0.997831, 331, 233, 346, 296
-0.997834, 117, 137, 148, 200
-0.997838, 145, 49, 272, 80
-0.997841, 289, 13, 416, 44
-0.99785, 281, 33, 296, 96
-0.997852, 209, 105, 224, 136
-0.997857, 221, 133, 236, 164
-0.997857, 129, 93, 256, 124
-0.99786, 147, 153, 162, 216
-0.997862, 213, 249, 244, 312
-0.997864, 217, 101, 232, 132
-0.997865, 325, 177, 356, 304
-0.997872, 289, 113, 416, 144
-0.997876, 129, 185, 144, 248
-0.997876, 195, 193, 210, 256
-0.997878, 177, 273, 304, 304
-0.99788, 245, 33, 260, 96
-0.997884, 49, 17, 176, 48
-0.997887, 325, 25, 340, 88
-0.997889, 233, 145, 248, 208
-0.997891, 257, 145, 288, 272
-0.997895, 201, 33, 232, 96
-0.997901, 353, 209, 384, 336
-0.997904, 191, 137, 206, 168
-0.997907, 201, 305, 232, 368
-0.997911, 179, 209, 194, 272
-0.997914, 289, 329, 416, 360
-0.997921, 205, 121, 220, 184
-0.997923, 289, 313, 416, 344
-0.997935, 161, 1, 224, 128
-0.997935, 161, 109, 288, 140
-0.99794, 227, 145, 242, 208
-0.997943, 117, 209, 132, 272
-0.997955, 353, 257, 384, 320
-0.997961, 215, 145, 230, 208
-0.997961, 109, 133, 124, 164
-0.997962, 253, 37, 268, 68
-0.997977, 199, 133, 214, 164
-0.99798, 257, 97, 288, 352
-0.997982, 187, 109, 202, 140
-0.997983, 265, 21, 280, 52
-0.997988, 321, 1, 336, 64
-0.997989, 225, 221, 352, 252
-0.997992, 313, 97, 344, 352
-0.997993, 117, 9, 132, 40
-0.997993, 115, 81, 130, 144
-0.997994, 343, 217, 358, 280
-0.997999, 161, 137, 176, 168
-0.998003, 273, 225, 400, 256
-0.998004, 185, 129, 200, 160
-0.998015, 273, 277, 400, 308
-0.998015, 337, 201, 464, 264
-0.99802, 119, 161, 134, 224
-0.998021, 253, 1, 268, 64
-0.998026, 175, 109, 190, 140
-0.998031, 227, 121, 242, 152
-0.998034, 313, 193, 344, 320
-0.998038, 205, 73, 220, 136
-0.99804, 207, 33, 222, 96
-0.998042, 151, 201, 166, 264
-0.998046, 215, 133, 230, 164
-0.998046, 289, 289, 416, 320
-0.998048, 127, 89, 142, 152
-0.998051, 197, 105, 212, 136
-0.998056, 209, 253, 336, 284
-0.998058, 313, 29, 328, 60
-0.998064, 163, 109, 178, 140
-0.998079, 1, 177, 500, 240
-0.998087, 305, 17, 320, 48
-0.998089, 271, 81, 286, 112
-0.998096, 265, 33, 280, 64
-0.998097, 49, 45, 176, 76
-0.998107, 1, 249, 256, 312
-0.998107, 209, 137, 224, 168
-0.998107, 225, 281, 352, 312
-0.998115, 49, 193, 176, 224
-0.998128, 223, 105, 238, 136
-0.998131, 279, 49, 294, 80
-0.998136, 111, 197, 126, 228
-0.998165, 153, 137, 168, 168
-0.99817, 49, 33, 176, 64
-0.998173, 265, 9, 280, 40
-0.998176, 321, 113, 336, 144
-0.998182, 115, 141, 130, 172
-0.998199, 353, 73, 480, 136
-0.998205, 193, 161, 320, 192
-0.998213, 167, 137, 182, 168
-0.998213, 165, 201, 180, 232
-0.998216, 109, 121, 124, 152
-0.998219, 125, 141, 140, 172
-0.998228, 229, 133, 244, 164
-0.998234, 135, 133, 150, 164
-0.998235, 265, 85, 280, 116
-0.998237, 99, 121, 114, 152
-0.998238, 145, 141, 160, 172
-0.998238, 145, 129, 160, 160
-0.998246, 321, 41, 448, 72
-0.998248, 109, 185, 124, 216
-0.998251, 305, 245, 432, 276
-0.998253, 1, 297, 256, 360
-0.998255, 175, 137, 190, 168
-0.998259, 275, 37, 290, 68
-0.998265, 201, 117, 216, 148
-0.998265, 103, 141, 118, 172
-0.998266, 161, 169, 176, 200
-0.998271, 159, 189, 174, 220
-0.998275, 151, 109, 166, 140
-0.998275, 305, 77, 320, 108
-0.998279, 155, 121, 170, 152
-0.99829, 33, 285, 160, 316
-0.99829, 315, 105, 330, 136
-0.998296, 307, 93, 322, 124
-0.998298, 139, 109, 154, 140
-0.998304, 221, 117, 252, 132
-0.998306, 105, 193, 136, 208
-0.998306, 253, 29, 284, 44
-0.998306, 285, 1, 316, 16
-0.998306, 137, 151, 168, 166
-0.998306, 325, 361, 356, 376
-0.998307, 113, 223, 144, 238
-0.998307, 141, 129, 172, 144
-0.998308, 221, 111, 252, 126
-0.998309, 97, 111, 128, 126
-0.998309, 93, 63, 124, 78
-0.998309, 333, 341, 364, 356
-0.998309, 245, 133, 276, 148
-0.998309, 325, 291, 356, 306
-0.998309, 97, 57, 128, 72
-0.998309, 105, 119, 136, 134
-0.998309, 203, 97, 218, 128
-0.99831, 241, 63, 272, 78
-0.998311, 349, 357, 380, 372
-0.998311, 113, 205, 144, 220
-0.998311, 297, 85, 328, 100
-0.998312, 109, 153, 140, 168
-0.998312, 325, 277, 356, 292
-0.998313, 197, 31, 228, 46
-0.998313, 313, 105, 344, 120
-0.998313, 305, 91, 336, 106
-0.998314, 265, 1, 280, 128
-0.998314, 1, 145, 128, 176
-0.998316, 229, 89, 260, 104
-0.998316, 165, 149, 196, 164
-0.998316, 299, 65, 314, 96
-0.998319, 333, 351, 364, 366
-0.99832, 131, 121, 146, 152
-0.998321, 149, 195, 180, 210
-0.998321, 113, 211, 144, 226
-0.998322, 337, 357, 368, 372
-0.998322, 145, 137, 176, 152
-0.998323, 161, 115, 192, 130
-0.998324, 301, 105, 332, 120
-0.998324, 161, 107, 192, 122
-0.998324, 137, 177, 168, 192
-0.998324, 105, 135, 136, 150
-0.998325, 173, 117, 204, 132
-0.998325, 249, 13, 280, 28
-0.998325, 317, 247, 348, 262
-0.998327, 273, 23, 304, 38
-0.998327, 325, 285, 356, 300
-0.998327, 97, 85, 128, 100
-0.998328, 237, 141, 268, 156
-0.998328, 321, 271, 352, 286
-0.99833, 177, 125, 208, 140
-0.99833, 229, 131, 260, 146
-0.998333, 105, 11, 136, 26
-0.998333, 189, 103, 220, 118
-0.998334, 289, 341, 416, 372
-0.998334, 309, 113, 340, 128
-0.998334, 273, 41, 304, 56
-0.998334, 321, 33, 336, 64
-0.998335, 289, 7, 320, 22
-0.998335, 129, 215, 160, 230
-0.998337, 177, 147, 208, 162
-0.998337, 301, 1, 332, 16
-0.998338, 249, 7, 280, 22
-0.998338, 141, 185, 172, 200
-0.998339, 317, 255, 348, 270
-0.998339, 113, 317, 240, 348
-0.998342, 117, 217, 148, 232
-0.998342, 153, 201, 184, 216
-0.998343, 281, 61, 312, 76
-0.998344, 101, 141, 132, 156
-0.998345, 265, 83, 296, 98
-0.998346, 305, 35, 336, 50
-0.998346, 301, 7, 332, 22
-0.998346, 321, 265, 352, 280
-0.998347, 221, 101, 252, 116
-0.998348, 309, 97, 340, 112
-0.998349, 1, 165, 128, 196
-0.99835, 109, 57, 140, 72
-0.998353, 253, 35, 284, 50
-0.998353, 245, 57, 276, 72
-0.998353, 197, 145, 228, 160
-0.998354, 197, 123, 228, 138
-0.998355, 97, 127, 128, 142
-0.998355, 241, 39, 272, 54
-0.998357, 253, 23, 284, 38
-0.998359, 269, 47, 300, 62
-0.998363, 321, 39, 352, 54
-0.998363, 161, 135, 192, 150
-0.998364, 141, 213, 172, 228
-0.998365, 167, 121, 182, 152
-0.998366, 209, 97, 240, 112
-0.998367, 251, 53, 266, 84
-0.998368, 193, 205, 320, 236
-0.99837, 293, 93, 324, 108
-0.99837, 57, 129, 88, 256
-0.998371, 291, 85, 306, 116
-0.998373, 229, 95, 260, 110
-0.998373, 353, 121, 480, 184
-0.998374, 201, 103, 232, 118
-0.998374, 217, 143, 248, 158
-0.998375, 269, 17, 300, 32
-0.998378, 293, 79, 324, 94
-0.998379, 173, 107, 204, 122
-0.998381, 273, 99, 304, 114
-0.998383, 179, 121, 194, 152
-0.998384, 177, 241, 304, 272
-0.998385, 213, 127, 244, 142
-0.998389, 157, 173, 188, 188
-0.998389, 253, 71, 284, 86
-0.998389, 111, 213, 126, 244
-0.998391, 161, 209, 192, 224
-0.998391, 185, 109, 216, 124
-0.998392, 249, 95, 280, 110
-0.998393, 177, 135, 208, 150
-0.998394, 101, 105, 116, 136
-0.998395, 249, 1, 280, 16
-0.998395, 193, 117, 224, 132
-0.998399, 299, 81, 314, 112
-0.998401, 289, 13, 320, 28
-0.998402, 157, 149, 172, 180
-0.998403, 271, 61, 286, 92
-0.998405, 209, 109, 240, 124
-0.998406, 209, 119, 240, 134
-0.998406, 233, 69, 264, 84
-0.99841, 269, 91, 300, 106
-0.998412, 197, 109, 228, 124
-0.998414, 301, 97, 316, 128
-0.998415, 105, 147, 136, 162
-0.998415, 253, 81, 284, 96
-0.998416, 293, 21, 324, 36
-0.998417, 173, 205, 188, 236
-0.998417, 151, 173, 166, 204
-0.99842, 319, 93, 334, 124
-0.99842, 81, 329, 208, 360
-0.99842, 221, 121, 236, 152
-0.998424, 197, 133, 228, 148
-0.998431, 117, 21, 132, 52
-0.998434, 225, 137, 256, 152
-0.998436, 257, 59, 288, 74
-0.998438, 157, 141, 188, 156
-0.99844, 269, 9, 300, 24
-0.998441, 311, 81, 326, 112
-0.998442, 119, 121, 134, 152
-0.998442, 301, 29, 332, 44
-0.998443, 279, 89, 294, 120
-0.998444, 129, 33, 160, 160
-0.998445, 285, 99, 316, 114
-0.998454, 231, 85, 246, 116
-0.998456, 433, 1, 496, 400
-0.998459, 125, 145, 156, 160
-0.998461, 137, 143, 168, 158
-0.998465, 257, 9, 320, 24
-0.998465, 273, 53, 304, 68
-0.998466, 265, 3, 296, 18
-0.998468, 401, 1, 432, 128
-0.998469, 127, 109, 142, 140
-0.998474, 265, 225, 296, 352
-0.998479, 257, 3, 320, 18
-0.998482, 249, 63, 312, 78
-0.998483, 285, 85, 300, 116
-0.998483, 265, 73, 280, 104
-0.998487, 177, 141, 208, 156
-0.998488, 259, 37, 274, 68
-0.998489, 299, 5, 314, 36
-0.998491, 297, 241, 328, 368
-0.998494, 169, 149, 184, 180
-0.998494, 297, 99, 328, 114
-0.998494, 225, 93, 240, 124
-0.998497, 257, 17, 320, 32
-0.998498, 249, 89, 280, 104
-0.9985, 241, 75, 272, 90
-0.9985, 1, 145, 500, 208
-0.998501, 169, 139, 232, 154
-0.998504, 213, 137, 244, 152
-0.998506, 193, 137, 256, 152
-0.998508, 253, 51, 284, 66
-0.998508, 201, 139, 232, 154
-0.998513, 241, 81, 272, 96
-0.998515, 201, 145, 216, 176
-0.998517, 145, 141, 208, 156
-0.998519, 189, 139, 220, 154
-0.998521, 265, 25, 328, 40
-0.998522, 217, 145, 232, 176
-0.998522, 265, 99, 328, 114
-0.998524, 195, 13, 210, 44
-0.99853, 257, 337, 500, 400
-0.998531, 257, 79, 320, 94
-0.998533, 249, 69, 312, 84
-0.998534, 95, 101, 110, 132
-0.998535, 115, 109, 130, 140
-0.998536, 269, 59, 300, 74
-0.998536, 253, 41, 284, 56
-0.998539, 225, 91, 288, 106
-0.998544, 113, 57, 128, 88
-0.998545, 117, 97, 148, 352
-0.998546, 257, 89, 320, 104
-0.998548, 217, 83, 280, 98
-0.998549, 253, 65, 284, 80
-0.99855, 1, 121, 500, 184
-0.998551, 111, 153, 126, 184
-0.998552, 145, 135, 208, 150
-0.998552, 113, 145, 176, 160
-0.998553, 245, 53, 260, 84
-0.998553, 249, 209, 280, 336
-0.998554, 333, 313, 348, 344
-0.998558, 297, 73, 360, 88
-0.998563, 211, 89, 226, 120
-0.998563, 273, 33, 288, 160
-0.998566, 169, 133, 232, 148
-0.998568, 219, 161, 234, 192
-0.99857, 289, 35, 352, 50
-0.99857, 241, 97, 304, 112
-0.998572, 241, 337, 368, 368
-0.998574, 235, 129, 250, 160
-0.998575, 313, 93, 328, 124
-0.998576, 241, 57, 304, 72
-0.998577, 225, 137, 480, 200
-0.998583, 153, 117, 216, 132
-0.998583, 65, 137, 128, 152
-0.998584, 119, 201, 134, 232
-0.998585, 289, 41, 352, 56
-0.998588, 177, 119, 240, 134
-0.99859, 105, 139, 168, 154
-0.998591, 177, 333, 304, 364
-0.998592, 287, 1, 302, 128
-0.998593, 241, 51, 304, 66
-0.998593, 197, 33, 212, 64
-0.998595, 89, 145, 152, 160
-0.998595, 265, 43, 328, 58
-0.998596, 225, 21, 288, 36
-0.998599, 177, 127, 240, 142
-0.998599, 209, 77, 272, 92
-0.9986, 81, 11, 144, 26
-0.998601, 249, 35, 312, 50
-0.998601, 289, 29, 352, 44
-0.998603, 169, 107, 232, 122
-0.998604, 297, 67, 360, 82
-0.998604, 265, 57, 328, 72
-0.998604, 271, 1, 286, 32
-0.998604, 185, 145, 248, 160
-0.998605, 105, 125, 168, 140
-0.998606, 293, 61, 308, 92
-0.998607, 289, 97, 352, 112
-0.998607, 305, 353, 432, 384
-0.99861, 201, 95, 264, 110
-0.998611, 217, 139, 280, 154
-0.998612, 225, 45, 288, 60
-0.998614, 49, 341, 176, 372
-0.998615, 107, 109, 122, 140
-0.998617, 209, 193, 336, 224
-0.998617, 117, 213, 132, 244
-0.998618, 145, 285, 272, 316
-0.998618, 295, 97, 310, 128
-0.998619, 289, 79, 352, 94
-0.998619, 113, 213, 176, 228
-0.998619, 257, 33, 272, 160
-0.998621, 49, 17, 112, 32
-0.998622, 111, 9, 126, 40
-0.998622, 65, 143, 128, 158
-0.998623, 171, 97, 186, 128
-0.998623, 265, 49, 328, 64
-0.998624, 285, 97, 300, 128
-0.998626, 153, 125, 216, 140
-0.998626, 65, 123, 128, 138
-0.99863, 65, 131, 128, 146
-0.998632, 145, 149, 208, 164
-0.998633, 209, 71, 272, 86
-0.998633, 193, 101, 256, 116
-0.998634, 265, 49, 280, 176
-0.998634, 225, 39, 288, 54
-0.998634, 201, 131, 264, 146
-0.998636, 225, 1, 288, 16
-0.998636, 193, 25, 256, 40
-0.998636, 137, 211, 200, 226
-0.998639, 81, 55, 144, 70
-0.99864, 105, 133, 168, 148
-0.99864, 49, 25, 112, 40
-0.99864, 297, 61, 360, 76
-0.998641, 233, 133, 296, 148
-0.998641, 49, 53, 112, 68
-0.998643, 57, 81, 120, 96
-0.998643, 281, 19, 344, 34
-0.998643, 145, 105, 208, 120
-0.998644, 297, 91, 360, 106
-0.998645, 49, 37, 112, 52
-0.998646, 269, 97, 284, 128
-0.998647, 49, 31, 112, 46
-0.998647, 297, 47, 360, 62
-0.998649, 49, 73, 112, 88
-0.99865, 121, 201, 184, 216
-0.99865, 313, 247, 376, 262
-0.99865, 225, 27, 288, 42
-0.998651, 153, 173, 216, 188
-0.998651, 159, 97, 174, 128
-0.998651, 105, 151, 168, 166
-0.998651, 337, 57, 464, 88
-0.998651, 177, 173, 304, 204
-0.998652, 241, 85, 256, 116
-0.998652, 57, 95, 120, 110
-0.998652, 281, 5, 344, 20
-0.998654, 281, 85, 344, 100
-0.998656, 49, 47, 112, 62
-0.998657, 161, 203, 224, 218
-0.998657, 105, 197, 120, 228
-0.998658, 209, 65, 272, 80
-0.998658, 175, 149, 190, 180
-0.998658, 49, 5, 112, 20
-0.998658, 81, 19, 144, 34
-0.998659, 33, 233, 160, 264
-0.998659, 153, 191, 216, 206
-0.99866, 49, 11, 112, 26
-0.998661, 57, 89, 120, 104
-0.998661, 81, 67, 144, 82
-0.998661, 225, 15, 288, 30
-0.998662, 49, 59, 112, 74
-0.998664, 209, 59, 272, 74
-0.998664, 105, 221, 168, 236
-0.998664, 185, 113, 248, 128
-0.998665, 57, 103, 120, 118
-0.998665, 129, 177, 144, 208
-0.998665, 145, 179, 208, 194
-0.998666, 81, 61, 144, 76
-0.998666, 65, 149, 128, 164
-0.998666, 49, 67, 112, 82
-0.998667, 73, 207, 136, 222
-0.998667, 281, 11, 344, 26
-0.998668, 81, 215, 144, 230
-0.998669, 313, 41, 376, 56
-0.99867, 201, 121, 264, 136
-0.998671, 105, 169, 168, 184
-0.998671, 65, 117, 128, 132
-0.998672, 177, 161, 240, 176
-0.998672, 161, 197, 224, 212
-0.998672, 121, 187, 184, 202
-0.998673, 313, 259, 376, 274
-0.998673, 161, 167, 224, 182
-0.998674, 273, 255, 336, 270
-0.998675, 89, 75, 152, 90
-0.998676, 193, 107, 256, 122
-0.998676, 105, 11, 168, 26
-0.998676, 113, 115, 176, 130
-0.998676, 289, 55, 352, 70
-0.998677, 81, 5, 144, 20
-0.998677, 129, 125, 192, 140
-0.998677, 97, 285, 224, 316
-0.998677, 9, 23, 72, 38
-0.998678, 129, 219, 192, 234
-0.998679, 161, 209, 224, 224
-0.998679, 313, 357, 376, 372
-0.99868, 65, 273, 192, 304
-0.99868, 185, 31, 248, 46
-0.998682, 129, 195, 192, 210
-0.998683, 305, 85, 368, 100
-0.998684, 89, 85, 152, 100
-0.998684, 225, 7, 288, 22
-0.998689, 133, 213, 148, 244
-0.998689, 305, 65, 320, 96
-0.998691, 325, 305, 340, 336
-0.998692, 1, 337, 500, 400
-0.998693, 133, 145, 148, 176
-0.998694, 303, 1, 318, 128
-0.998695, 77, 1, 108, 256
-0.998696, 115, 69, 130, 100
-0.998697, 129, 337, 256, 368
-0.998704, 139, 209, 154, 240
-0.998708, 107, 173, 122, 204
-0.99871, 273, 125, 400, 156
-0.998713, 97, 241, 224, 272
-0.998714, 169, 33, 200, 288
-0.998728, 241, 325, 368, 356
-0.998731, 305, 265, 432, 296
-0.998731, 241, 349, 368, 380
-0.998735, 273, 369, 400, 400
-0.998749, 225, 161, 480, 224
-0.998757, 301, 97, 332, 352
-0.998779, 97, 81, 224, 112
-0.998797, 193, 309, 320, 340
-0.998805, 33, 297, 160, 328
-0.998812, 311, 17, 326, 144
-0.998814, 337, 145, 400, 272
-0.998818, 49, 353, 176, 384
-0.998823, 293, 17, 308, 144
-0.998837, 329, 65, 360, 320
-0.998848, 209, 149, 336, 180
-0.998848, 289, 213, 416, 244
-0.998878, 201, 65, 232, 320
-0.998878, 279, 33, 294, 160
-0.998881, 97, 229, 224, 260
-0.998909, 177, 297, 304, 328
-0.998913, 1, 273, 256, 336
-0.998917, 49, 313, 176, 344
-0.998929, 101, 97, 132, 352
-0.998958, 49, 33, 80, 288
-0.998961, 49, 365, 176, 396
-0.998968, 285, 65, 300, 192
-0.99897, 241, 137, 368, 168
-0.998975, 291, 65, 306, 192
-0.998992, 1, 1, 32, 128
-0.998993, 61, 97, 92, 352
-0.999015, 369, 329, 496, 360
-0.999032, 251, 33, 266, 160
-0.999033, 113, 113, 128, 240
-0.999037, 1, 201, 500, 264
-0.999041, 185, 97, 216, 352
-0.99905, 317, 17, 332, 144
-0.999056, 305, 49, 320, 176
-0.999057, 299, 65, 314, 192
-0.999066, 289, 145, 320, 272
-0.999073, 273, 81, 288, 208
-0.999086, 345, 49, 376, 176
-0.999099, 279, 81, 294, 208
-0.999099, 105, 113, 120, 240
-0.999113, 205, 225, 236, 352
-0.99912, 385, 1, 448, 256
-0.99912, 13, 65, 44, 192
-0.999138, 323, 17, 338, 144
-0.999179, 321, 169, 448, 232
-0.999188, 259, 81, 274, 208
-0.999197, 123, 113, 138, 240
-0.999199, 289, 97, 320, 352
-0.999205, 105, 177, 120, 304
-0.999218, 113, 161, 128, 288
-0.999219, 105, 65, 120, 192
-0.999225, 313, 65, 328, 192
-0.999232, 209, 1, 240, 128
-0.999233, 99, 113, 114, 240
-0.999253, 269, 97, 300, 352
-0.999254, 215, 97, 230, 224
-0.999257, 1, 313, 500, 376
-0.999276, 233, 1, 264, 256
-0.999297, 209, 81, 224, 208
-0.9993, 245, 97, 276, 352
-0.9993, 329, 225, 344, 352
-0.999309, 331, 33, 346, 160
-0.999314, 323, 273, 338, 400
-0.99932, 253, 81, 268, 208
-0.999329, 169, 161, 184, 288
-0.999342, 65, 177, 96, 304
-0.999344, 77, 273, 108, 400
-0.999345, 95, 65, 110, 192
-0.999346, 131, 113, 146, 240
-0.999347, 221, 81, 236, 208
-0.999352, 69, 49, 100, 176
-0.999366, 201, 49, 216, 176
-0.999371, 267, 97, 282, 224
-0.999371, 1, 281, 500, 344
-0.999371, 323, 65, 338, 192
-0.999392, 159, 145, 174, 272
-0.999394, 245, 33, 260, 160
-0.999397, 169, 97, 184, 224
-0.999403, 339, 273, 354, 400
-0.999405, 317, 241, 332, 368
-0.999428, 117, 65, 132, 192
-0.999437, 119, 161, 134, 288
-0.999438, 343, 225, 358, 352
-0.99944, 175, 161, 190, 288
-0.999441, 143, 129, 158, 256
-0.999441, 137, 145, 152, 272
-0.999448, 123, 33, 138, 160
-0.999449, 161, 49, 192, 176
-0.999458, 351, 241, 366, 368
-0.999464, 111, 65, 126, 192
-0.999473, 159, 97, 174, 224
-0.999491, 193, 81, 208, 208
-0.999493, 201, 97, 216, 224
-0.999493, 341, 177, 372, 304
-0.999495, 185, 113, 200, 240
-0.999499, 111, 209, 126, 336
-0.9995, 115, 1, 130, 128
-0.999509, 323, 225, 338, 352
-0.99951, 153, 161, 168, 288
-0.999513, 215, 49, 230, 176
-0.999518, 193, 145, 208, 272
-0.999525, 181, 1, 212, 256
-0.999531, 179, 81, 194, 208
-0.999533, 181, 161, 196, 288
-0.999536, 233, 97, 264, 352
-0.999537, 117, 217, 132, 232
-0.999538, 139, 115, 154, 130
-0.999539, 153, 121, 168, 136
-0.999539, 111, 11, 126, 26
-0.999539, 333, 81, 348, 208
-0.999539, 111, 213, 126, 228
-0.99954, 233, 89, 248, 104
-0.99954, 225, 143, 240, 158
-0.99954, 297, 93, 312, 108
-0.999541, 89, 33, 104, 160
-0.999541, 155, 127, 170, 142
-0.999541, 133, 215, 148, 230
-0.999541, 165, 169, 180, 184
-0.999542, 265, 25, 280, 40
-0.999543, 175, 209, 190, 224
-0.999543, 227, 1, 242, 128
-0.999544, 159, 105, 174, 120
-0.999544, 225, 103, 240, 118
-0.999545, 261, 7, 276, 22
-0.999545, 103, 129, 118, 144
-0.999546, 305, 5, 320, 20
-0.999547, 149, 109, 164, 124
-0.999547, 211, 93, 226, 108
-0.999547, 151, 181, 166, 196
-0.999548, 263, 89, 278, 104
-0.999548, 151, 115, 166, 130
-0.999548, 109, 191, 124, 206
-0.999549, 271, 7, 286, 22
-0.999549, 243, 69, 258, 84
-0.999549, 101, 137, 116, 152
-0.99955, 157, 133, 172, 148
-0.99955, 305, 97, 320, 224
-0.99955, 149, 139, 164, 154
-0.99955, 171, 105, 186, 120
-0.999551, 117, 15, 132, 30
-0.999552, 167, 127, 182, 142
-0.999552, 209, 33, 224, 160
-0.999552, 97, 119, 112, 134
-0.999552, 103, 143, 118, 158
-0.999552, 209, 129, 224, 256
-0.999552, 167, 203, 182, 218
-0.999552, 269, 1, 284, 16
-0.999552, 111, 207, 126, 222
-0.999554, 181, 127, 196, 142
-0.999555, 241, 89, 256, 104
-0.999555, 321, 113, 336, 240
-0.999555, 263, 13, 278, 28
-0.999556, 261, 81, 276, 96
-0.999557, 195, 31, 210, 46
-0.999558, 261, 1, 276, 16
-0.999559, 323, 113, 338, 128
-0.999559, 201, 123, 216, 138
-0.999559, 253, 47, 268, 62
-0.99956, 239, 137, 254, 152
-0.99956, 105, 113, 120, 128
-0.999561, 131, 161, 146, 288
-0.999561, 323, 35, 338, 50
-0.999562, 317, 105, 332, 120
-0.999563, 123, 145, 138, 160
-0.999564, 301, 65, 316, 80
-0.999564, 227, 23, 242, 38
-0.999565, 149, 113, 164, 240
-0.999566, 199, 1, 214, 128
-0.999567, 249, 79, 264, 94
-0.999568, 295, 63, 310, 78
-0.999568, 161, 111, 176, 126
-0.999569, 173, 129, 204, 384
-0.999569, 231, 65, 246, 192
-0.999569, 311, 97, 326, 112
-0.999572, 113, 57, 128, 72
-0.999573, 329, 273, 344, 400
-0.999573, 165, 121, 180, 136
-0.999574, 117, 9, 132, 24
-0.999574, 177, 121, 192, 136
-0.999575, 109, 137, 124, 152
-0.999577, 111, 143, 126, 158
-0.999577, 335, 225, 350, 352
-0.999579, 147, 177, 162, 304
-0.999579, 307, 79, 322, 94
-0.999579, 209, 273, 240, 400
-0.999579, 213, 65, 244, 320
-0.99958, 185, 135, 200, 150
-0.999584, 301, 15, 316, 30
-0.999584, 265, 37, 280, 52
-0.999585, 285, 99, 300, 114
-0.999585, 161, 143, 176, 158
-0.999586, 107, 123, 122, 138
-0.999587, 227, 127, 242, 142
-0.999587, 199, 135, 214, 150
-0.999589, 257, 87, 272, 102
-0.999589, 233, 95, 248, 110
-0.999589, 305, 99, 320, 114
-0.999589, 109, 131, 124, 146
-0.99959, 233, 135, 248, 150
-0.999591, 199, 117, 214, 132
-0.999593, 159, 173, 174, 188
-0.999594, 313, 29, 328, 44
-0.999595, 193, 131, 208, 146
-0.999596, 303, 73, 318, 88
-0.999597, 173, 111, 188, 126
-0.999599, 55, 17, 70, 144
-0.999602, 343, 33, 358, 160
-0.999603, 255, 41, 270, 56
-0.999603, 117, 147, 132, 162
-0.999604, 129, 145, 144, 160
-0.999606, 139, 145, 154, 160
-0.999606, 297, 99, 312, 114
-0.999611, 233, 1, 248, 128
-0.999612, 183, 107, 198, 122
-0.999612, 9, 177, 72, 304
-0.999612, 175, 141, 190, 156
-0.999613, 205, 129, 220, 144
-0.999614, 167, 143, 182, 158
-0.999614, 267, 53, 282, 68
-0.999614, 257, 57, 272, 72
-0.999615, 155, 143, 170, 158
-0.999616, 203, 99, 218, 114
-0.999616, 223, 117, 238, 132
-0.999617, 189, 121, 204, 136
-0.999617, 249, 67, 264, 82
-0.999617, 199, 145, 214, 272
-0.999618, 145, 145, 160, 160
-0.99962, 219, 111, 234, 126
-0.999621, 215, 105, 230, 120
-0.999622, 209, 115, 224, 130
-0.999622, 185, 113, 200, 128
-0.999622, 195, 109, 210, 124
-0.999625, 265, 45, 280, 60
-0.999625, 279, 55, 294, 70
-0.999627, 193, 193, 208, 320
-0.999629, 291, 97, 306, 112
-0.999629, 181, 141, 196, 156
-0.999634, 193, 103, 208, 118
-0.999634, 217, 129, 232, 144
-0.999635, 265, 19, 280, 34
-0.999636, 61, 65, 76, 192
-0.999637, 239, 225, 254, 352
-0.999639, 227, 113, 242, 240
-0.999639, 207, 193, 222, 320
-0.999642, 101, 17, 116, 144
-0.999642, 129, 65, 144, 192
-0.999643, 265, 61, 280, 76
-0.999643, 273, 47, 288, 62
-0.999643, 255, 75, 270, 90
-0.999646, 223, 97, 238, 112
-0.999646, 221, 137, 236, 152
-0.999649, 271, 59, 286, 74
-0.999649, 145, 1, 160, 128
-0.999655, 189, 141, 204, 156
-0.999657, 213, 99, 228, 114
-0.999658, 215, 137, 230, 152
-0.999659, 205, 105, 220, 120
-0.999659, 205, 139, 220, 154
-0.99966, 195, 141, 210, 156
-0.999663, 163, 193, 178, 320
-0.999664, 273, 53, 288, 68
-0.999666, 235, 113, 250, 240
-0.999667, 361, 257, 376, 384
-0.999668, 213, 121, 228, 136
-0.999668, 141, 81, 156, 208
-0.999672, 221, 33, 236, 160
-0.999673, 227, 137, 242, 152
-0.999673, 217, 145, 232, 272
-0.999674, 187, 65, 202, 192
-0.999674, 125, 161, 140, 288
-0.999675, 117, 209, 132, 336
-0.999677, 315, 193, 330, 320
-0.999686, 69, 113, 84, 240
-0.999688, 201, 193, 216, 320
-0.99969, 243, 97, 258, 224
-0.999692, 337, 33, 352, 160
-0.999693, 173, 209, 188, 336
-0.999697, 255, 81, 270, 96
-0.999697, 247, 225, 262, 352
-0.999699, 229, 161, 244, 288
-0.999702, 187, 161, 202, 288
-0.999703, 233, 257, 248, 384
-0.999708, 249, 73, 264, 88
-0.99971, 83, 1, 98, 128
-0.999712, 179, 209, 194, 336
-0.999719, 227, 257, 242, 384
-0.99972, 311, 241, 326, 368
-0.999722, 279, 273, 294, 400
-0.999723, 239, 273, 254, 400
-0.999726, 245, 273, 260, 400
-0.999731, 315, 113, 330, 240
-0.999741, 259, 129, 274, 256
-0.999742, 137, 193, 152, 320
-0.999742, 255, 257, 270, 384
-0.999744, 1, 65, 64, 320
-0.999745, 349, 193, 364, 320
-0.999745, 411, 1, 426, 128
-0.999746, 239, 177, 254, 304
-0.999747, 193, 1, 208, 128
-0.999749, 201, 273, 216, 400
-0.999751, 75, 161, 90, 288
-0.999753, 17, 17, 32, 144
-0.999753, 157, 209, 172, 336
-0.999776, 255, 65, 270, 80
-0.999817, 9, 1, 40, 256
-0.99988, 141, 1, 172, 128
-0.999915, 269, 177, 300, 304
-0.999953, 357, 97, 388, 352
-0.999961, 37, 1, 68, 256
-0.999974, 161, 257, 192, 384
-1.00001, 345, 97, 376, 352
-1.00005, 29, 145, 60, 272
-1.00005, 401, 209, 432, 336
-1.00012, 413, 1, 444, 128
-1.00013, 353, 49, 416, 176
-1.00015, 281, 273, 312, 400
-1.00016, 341, 1, 372, 256
-1.00023, 417, 1, 448, 256
-1.00026, 21, 65, 52, 320
-1.0003, 409, 1, 472, 256
-1.0003, 73, 225, 104, 352
-1.0003, 369, 129, 400, 384
-1.0003, 73, 129, 104, 384
-1.00031, 377, 209, 408, 336
-1.00033, 33, 129, 64, 384
-1.00038, 397, 1, 428, 256
-1.00048, 181, 241, 212, 368
-1.00052, 445, 1, 476, 128
-1.00053, 413, 241, 444, 368
-1.00054, 33, 1, 64, 128
-1.00058, 449, 1, 480, 256
-1.00061, 369, 161, 496, 288
-1.00062, 381, 129, 412, 384
-1.00068, 353, 1, 416, 128
-1.00068, 429, 1, 460, 256
-1.00069, 65, 1, 96, 256
-1.00073, 109, 273, 140, 400
-1.00073, 381, 1, 412, 256
-1.00074, 121, 225, 152, 352
-1.00081, 393, 129, 424, 384
-1.00082, 369, 33, 400, 288
-1.00085, 469, 1, 500, 256
-1.00089, 469, 97, 500, 352
-1.00092, 353, 1, 384, 256
-1.00095, 405, 129, 436, 384
-1.00096, 145, 65, 176, 192
-1.00097, 449, 129, 480, 384
-1.00103, 129, 273, 160, 400
-1.00104, 429, 97, 460, 352
-1.00109, 417, 129, 448, 384
-1.00113, 49, 129, 80, 384
-1.00115, 357, 161, 388, 288
-1.00118, 389, 177, 420, 304
-1.00119, 13, 17, 44, 144
-1.0012, 401, 273, 464, 400
-1.00135, 9, 97, 40, 352
-1.00143, 433, 49, 496, 176
-1.00164, 357, 49, 388, 176
-1.00171, 433, 1, 496, 256
-1.00181, 37, 193, 68, 320
-1.00184, 389, 257, 420, 384
-1.00199, 17, 129, 48, 256
-1.00204, 409, 49, 472, 176
-1.00207, 365, 113, 396, 240
-1.00209, 81, 161, 112, 288
-1.00213, 333, 97, 364, 224
-1.00221, 17, 225, 80, 352
-1.00243, 1, 81, 64, 208
-1.00267, 353, 1, 416, 256
-1.00292, 401, 225, 464, 352
-1.00309, 25, 273, 88, 400
-1.00309, 377, 129, 440, 384
-1.00341, 425, 97, 488, 352
-1.00445, 401, 129, 464, 384
-1.00454, 345, 97, 408, 224
-1.00496, 433, 273, 496, 400
-1.00513, 385, 145, 448, 272
-1.00578, 377, 49, 440, 176
-1.00601, 433, 97, 496, 224
-1.00694, 361, 145, 424, 272
-1.00714, 369, 97, 432, 224
-1.00762, 425, 225, 488, 352
-1.00779, 409, 177, 472, 304
-1.00821, 409, 97, 472, 224
-1.00909, 433, 161, 496, 288
-1.01549, 1, 273, 64, 400
