1917
-0.560731, 1, 129, 333, 384
-0.695939, 1, 1, 333, 500
-0.698489, 1, 225, 333, 480
-0.705097, 1, 33, 333, 288
-0.805376, 65, 1, 320, 500
-0.864963, 65, 97, 320, 352
-0.898307, 193, 97, 320, 352
-0.927689, 209, 1, 333, 500
-0.928187, 1, 177, 333, 304
-0.931391, 209, 97, 272, 224
-0.935617, 209, 1, 333, 256
-0.937743, 145, 65, 272, 320
-0.940376, 1, 1, 128, 256
-0.948232, 1, 97, 333, 224
-0.949445, 177, 193, 304, 448
-0.95241, 209, 105, 272, 168
-0.954251, 1, 1, 256, 256
-0.954427, 65, 225, 320, 480
-0.956597, 161, 1, 288, 500
-0.956942, 1, 1, 333, 128
-0.958517, 1, 273, 333, 400
-0.958823, 209, 97, 333, 224
-0.962461, 209, 145, 333, 272
-0.962895, 129, 257, 256, 500
-0.963083, 209, 129, 272, 192
-0.963936, 65, 97, 320, 224
-0.964214, 1, 193, 128, 448
-0.964819, 233, 129, 296, 256
-0.965711, 1, 1, 128, 500
-0.966725, 145, 97, 272, 224
-0.967247, 65, 1, 192, 500
-0.967666, 1, 1, 256, 128
-0.967984, 185, 113, 248, 240
-0.968778, 33, 1, 96, 128
-0.969575, 1, 1, 128, 128
-0.971367, 209, 161, 272, 288
-0.971712, 225, 153, 288, 216
-0.971827, 17, 97, 144, 352
-0.972067, 113, 1, 240, 500
-0.972132, 97, 33, 224, 288
-0.972967, 1, 225, 333, 352
-0.973283, 225, 177, 288, 240
-0.973394, 201, 153, 264, 216
-0.973571, 65, 145, 320, 272
-0.973637, 217, 97, 248, 224
-0.973878, 229, 81, 260, 208
-0.97433, 233, 81, 296, 208
-0.974351, 209, 49, 272, 176
-0.976313, 1, 353, 333, 480
-0.976721, 9, 1, 72, 128
-0.977942, 185, 121, 248, 184
-0.978555, 209, 49, 333, 176
-0.978576, 225, 97, 256, 160
-0.978691, 9, 17, 72, 80
-0.978719, 57, 1, 120, 64
-0.979404, 225, 153, 256, 216
-0.979969, 1, 49, 333, 176
-0.980025, 233, 113, 296, 176
-0.980298, 33, 1, 96, 64
-0.980578, 213, 105, 244, 168
-0.980633, 273, 225, 333, 352
-0.980833, 161, 145, 288, 272
-0.981044, 221, 145, 252, 272
-0.981056, 193, 193, 320, 320
-0.981201, 129, 161, 256, 416
-0.981279, 113, 49, 240, 176
-0.981468, 217, 129, 248, 192
-0.981519, 201, 177, 264, 240
-0.981763, 209, 105, 333, 168
-0.981768, 9, 1, 72, 256
-0.98177, 81, 225, 208, 480
-0.982073, 193, 145, 320, 208
-0.982273, 205, 113, 236, 240
-0.982401, 65, 49, 320, 176
-0.982573, 237, 177, 268, 240
-0.98343, 209, 161, 272, 416
-0.983449, 161, 105, 288, 168
-0.983562, 249, 145, 312, 208
-0.9837, 257, 81, 320, 208
-0.983826, 273, 209, 333, 272
-0.984115, 241, 177, 304, 304
-0.984211, 241, 305, 304, 432
-0.984282, 17, 1, 144, 64
-0.984348, 237, 145, 268, 272
-0.984397, 9, 225, 72, 288
-0.98461, 65, 369, 320, 496
-0.985, 209, 177, 333, 240
-0.985016, 225, 369, 288, 496
-0.985368, 225, 201, 288, 264
-0.985672, 209, 369, 333, 496
-0.985682, 217, 185, 248, 248
-0.985781, 65, 193, 320, 320
-0.985792, 249, 225, 312, 288
-0.986, 237, 105, 268, 168
-0.986085, 17, 177, 144, 304
-0.986378, 177, 289, 304, 416
-0.986397, 273, 193, 333, 448
-0.986731, 65, 289, 320, 416
-0.986733, 65, 129, 192, 384
-0.987009, 217, 81, 280, 144
-0.987023, 209, 65, 272, 320
-0.987041, 277, 209, 308, 272
-0.987123, 233, 97, 296, 352
-0.987314, 41, 1, 72, 128
-0.987319, 237, 153, 268, 216
-0.987486, 265, 185, 328, 248
-0.987559, 265, 161, 328, 288
-0.987841, 249, 257, 312, 384
-0.988018, 241, 273, 304, 336
-0.988194, 177, 241, 304, 368
-0.988256, 241, 305, 304, 368
-0.988262, 129, 81, 256, 144
-0.988681, 209, 161, 240, 288
-0.988707, 249, 81, 312, 144
-0.988783, 145, 153, 272, 216
-0.989092, 145, 193, 272, 320
-0.989147, 217, 209, 280, 336
-0.98932, 201, 201, 264, 264
-0.98945, 145, 129, 272, 192
-0.989466, 209, 81, 333, 144
-0.989504, 185, 97, 248, 160
-0.989504, 65, 241, 320, 368
-0.98957, 209, 105, 272, 136
-0.989585, 241, 97, 272, 224
-0.989626, 221, 193, 252, 320
-0.989645, 237, 129, 268, 192
-0.989691, 209, 145, 272, 176
-0.989802, 69, 1, 100, 64
-0.989845, 217, 425, 280, 488
-0.989984, 209, 209, 333, 272
-0.990108, 161, 185, 288, 248
-0.990148, 217, 401, 280, 464
-0.990176, 205, 161, 236, 224
-0.99019, 209, 117, 272, 148
-0.990221, 201, 113, 232, 176
-0.990324, 241, 337, 304, 400
-0.990436, 281, 161, 312, 288
-0.990503, 233, 369, 296, 432
-0.990524, 209, 157, 272, 188
-0.990591, 209, 133, 272, 164
-0.990644, 57, 1, 88, 64
-0.990706, 161, 33, 288, 160
-0.990777, 261, 265, 292, 328
-0.990855, 269, 233, 300, 296
-0.990874, 65, 1, 96, 128
-0.991094, 25, 201, 88, 264
-0.99113, 225, 185, 288, 216
-0.991178, 1, 25, 128, 88
-0.991239, 273, 281, 333, 344
-0.991363, 265, 105, 328, 168
-0.991401, 201, 173, 264, 204
-0.991548, 265, 225, 328, 256
-0.991548, 49, 193, 112, 256
-0.99168, 9, 229, 72, 260
-0.991681, 185, 161, 248, 288
-0.991754, 289, 113, 320, 240
-0.991765, 53, 1, 84, 128
-0.991771, 257, 257, 288, 384
-0.991807, 29, 17, 60, 80
-0.99182, 9, 209, 72, 336
-0.99184, 185, 153, 248, 184
-0.991849, 25, 13, 88, 44
-0.991853, 65, 1, 128, 32
-0.99186, 257, 289, 288, 352
-0.991896, 1, 225, 128, 288
-0.991908, 225, 173, 288, 204
-0.991952, 249, 137, 312, 168
-0.991991, 57, 1, 120, 128
-0.992033, 233, 153, 296, 184
-0.992058, 201, 197, 264, 228
-0.992078, 201, 185, 264, 216
-0.992112, 177, 257, 240, 384
-0.99215, 185, 129, 248, 160
-0.992155, 249, 145, 280, 208
-0.992213, 177, 153, 240, 216
-0.992226, 13, 25, 44, 88
-0.992242, 249, 1, 312, 500
-0.992265, 265, 209, 296, 336
-0.992267, 177, 113, 240, 144
-0.992276, 1, 37, 64, 68
-0.992307, 193, 249, 320, 312
-0.992316, 17, 17, 48, 144
-0.99238, 29, 1, 60, 128
-0.992403, 225, 197, 288, 228
-0.992441, 273, 97, 333, 352
-0.992441, 1, 401, 64, 432
-0.992458, 233, 193, 296, 448
-0.992458, 225, 101, 256, 132
-0.992474, 81, 1, 112, 64
-0.992484, 225, 209, 288, 240
-0.992567, 249, 109, 312, 140
-0.992614, 257, 213, 320, 244
-0.992616, 49, 1, 176, 128
-0.992621, 273, 305, 333, 432
-0.992688, 17, 25, 80, 56
-0.992873, 241, 297, 304, 328
-0.992875, 229, 173, 260, 204
-0.99288, 217, 141, 248, 172
-0.992884, 213, 109, 244, 140
-0.992888, 209, 129, 240, 160
-0.992907, 221, 153, 252, 184
-0.99291, 217, 429, 280, 460
-0.992915, 249, 125, 312, 156
-0.992915, 229, 201, 260, 264
-0.992953, 241, 225, 304, 256
-0.992961, 277, 221, 308, 252
-0.99298, 221, 205, 252, 236
-0.992987, 9, 241, 72, 272
-0.992993, 25, 229, 56, 260
-0.992994, 221, 185, 252, 216
-0.993001, 249, 97, 312, 128
-0.993011, 217, 93, 280, 124
-0.993012, 9, 217, 72, 248
-0.993089, 217, 441, 280, 472
-0.993094, 265, 249, 328, 312
-0.993098, 185, 141, 248, 172
-0.993099, 201, 209, 264, 240
-0.993135, 9, 233, 40, 296
-0.993144, 257, 149, 320, 180
-0.993148, 113, 105, 240, 168
-0.99315, 1, 393, 32, 424
-0.993165, 201, 117, 232, 148
-0.993167, 233, 365, 296, 396
-0.993168, 277, 185, 308, 248
-0.993172, 217, 417, 280, 448
-0.993175, 89, 1, 152, 32
-0.993177, 217, 165, 248, 196
-0.993177, 241, 309, 304, 340
-0.993178, 241, 325, 304, 356
-0.993178, 249, 173, 312, 204
-0.993179, 21, 25, 52, 56
-0.993185, 221, 121, 252, 152
-0.993189, 233, 197, 264, 228
-0.993191, 237, 157, 268, 188
-0.9932, 13, 237, 44, 268
-0.993212, 33, 17, 64, 48
-0.993217, 297, 225, 328, 256
-0.99322, 233, 121, 264, 152
-0.993222, 209, 469, 272, 500
-0.993232, 93, 1, 124, 32
-0.993234, 237, 105, 268, 136
-0.993243, 225, 389, 288, 420
-0.993244, 201, 153, 232, 184
-0.993244, 237, 185, 268, 216
-0.993246, 273, 301, 333, 332
-0.993253, 209, 425, 333, 488
-0.993266, 233, 133, 264, 164
-0.993286, 241, 145, 272, 176
-0.993287, 209, 193, 240, 224
-0.993289, 213, 97, 244, 128
-0.993295, 257, 261, 320, 292
-0.993297, 209, 361, 333, 424
-0.9933, 185, 101, 248, 132
-0.993306, 13, 397, 44, 428
-0.993313, 257, 221, 288, 252
-0.993318, 249, 277, 312, 308
-0.99333, 225, 401, 288, 432
-0.993337, 273, 289, 333, 320
-0.993339, 249, 185, 312, 216
-0.993346, 1, 389, 64, 420
-0.993357, 9, 33, 40, 64
-0.993369, 233, 377, 296, 408
-0.993372, 33, 217, 96, 248
-0.993376, 225, 89, 256, 120
-0.993398, 33, 217, 64, 248
-0.993406, 273, 185, 333, 216
-0.993411, 81, 173, 112, 204
-0.993418, 1, 45, 32, 76
-0.993425, 1, 249, 32, 280
-0.99343, 185, 293, 248, 324
-0.993432, 49, 13, 112, 44
-0.993442, 233, 213, 264, 244
-0.993442, 217, 221, 280, 252
-0.993454, 1, 229, 32, 260
-0.993455, 45, 13, 76, 44
-0.993456, 65, 177, 128, 208
-0.993457, 81, 1, 112, 32
-0.993457, 277, 209, 308, 240
-0.993457, 273, 233, 304, 264
-0.993466, 197, 129, 228, 160
-0.993468, 185, 89, 248, 120
-0.993468, 257, 209, 288, 272
-0.993468, 21, 217, 52, 280
-0.993469, 265, 273, 296, 304
-0.993469, 249, 173, 280, 204
-0.993483, 205, 169, 236, 200
-0.993487, 261, 285, 292, 316
-0.993493, 221, 217, 252, 248
-0.993499, 217, 453, 280, 484
-0.9935, 217, 33, 280, 64
-0.993502, 205, 181, 236, 212
-0.993503, 125, 117, 156, 148
-0.993515, 241, 337, 304, 368
-0.99352, 205, 141, 236, 172
-0.993523, 257, 301, 288, 332
-0.993523, 113, 121, 176, 152
-0.993524, 61, 9, 92, 40
-0.993529, 245, 93, 276, 124
-0.993531, 265, 209, 296, 240
-0.993548, 13, 225, 44, 256
-0.993552, 33, 233, 96, 264
-0.993556, 273, 313, 333, 344
-0.993556, 217, 209, 248, 272
-0.993561, 153, 57, 216, 120
-0.993562, 273, 325, 333, 356
-0.993566, 253, 109, 284, 140
-0.993567, 253, 125, 284, 156
-0.993567, 153, 77, 184, 108
-0.99357, 41, 169, 104, 200
-0.993571, 281, 181, 312, 212
-0.993577, 249, 157, 280, 188
-0.993578, 233, 353, 296, 384
-0.993586, 217, 469, 248, 500
-0.993588, 233, 153, 248, 216
-0.993591, 229, 393, 260, 456
-0.993593, 257, 241, 320, 272
-0.993593, 161, 65, 192, 96
-0.993599, 269, 257, 300, 288
-0.993603, 89, 161, 120, 192
-0.993607, 253, 141, 284, 172
-0.993607, 297, 97, 328, 128
-0.993612, 225, 417, 256, 448
-0.993613, 37, 233, 68, 264
-0.993624, 241, 85, 304, 116
-0.993632, 145, 281, 208, 312
-0.993638, 189, 285, 220, 316
-0.993639, 281, 193, 312, 224
-0.993641, 209, 433, 240, 464
-0.993642, 293, 117, 324, 148
-0.993643, 221, 445, 252, 476
-0.993647, 209, 205, 240, 236
-0.993648, 65, 189, 96, 220
-0.993652, 285, 157, 316, 188
-0.993652, 41, 1, 104, 32
-0.993654, 261, 313, 292, 344
-0.993655, 201, 137, 232, 200
-0.993656, 249, 33, 312, 160
-0.993658, 1, 253, 64, 284
-0.993659, 133, 105, 164, 136
-0.993661, 273, 377, 333, 408
-0.993661, 177, 49, 240, 176
-0.993664, 109, 137, 140, 168
-0.993665, 289, 137, 320, 168
-0.993665, 249, 289, 280, 320
-0.993676, 25, 401, 56, 432
-0.993677, 241, 369, 272, 400
-0.993679, 273, 341, 333, 372
-0.993679, 221, 433, 252, 464
-0.99368, 217, 49, 248, 176
-0.993681, 237, 305, 268, 336
-0.993694, 205, 465, 236, 496
-0.993696, 53, 201, 84, 232
-0.993697, 1, 385, 64, 448
-0.993698, 25, 401, 88, 432
-0.993704, 249, 321, 280, 352
-0.993705, 201, 105, 232, 136
-0.993711, 297, 213, 328, 244
-0.993711, 245, 217, 276, 248
-0.993715, 249, 185, 280, 216
-0.993716, 201, 93, 232, 124
-0.99372, 169, 53, 200, 84
-0.993723, 233, 385, 264, 416
-0.993725, 101, 149, 132, 180
-0.993729, 217, 297, 280, 328
-0.993731, 265, 393, 328, 424
-0.993731, 229, 405, 260, 436
-0.993733, 177, 289, 304, 352
-0.993734, 285, 169, 316, 200
-0.993735, 145, 89, 176, 120
-0.993737, 273, 105, 333, 136
-0.993739, 249, 337, 280, 368
-0.993741, 113, 457, 144, 488
-0.993742, 285, 233, 316, 264
-0.993743, 269, 245, 300, 276
-0.993743, 221, 457, 252, 488
-0.993745, 121, 441, 152, 472
-0.993746, 45, 217, 76, 248
-0.993746, 109, 469, 140, 500
-0.993752, 69, 177, 100, 208
-0.993753, 249, 201, 312, 232
-0.993757, 177, 281, 240, 312
-0.993759, 113, 125, 144, 156
-0.993765, 273, 81, 333, 112
-0.993772, 133, 405, 164, 436
-0.993773, 1, 5, 64, 36
-0.993773, 177, 289, 208, 320
-0.993774, 257, 233, 288, 264
-0.993774, 237, 353, 268, 384
-0.993775, 181, 301, 212, 332
-0.993777, 177, 169, 240, 200
-0.993779, 153, 65, 216, 96
-0.993779, 209, 445, 240, 476
-0.993779, 249, 269, 280, 300
-0.993779, 249, 357, 280, 388
-0.993781, 301, 85, 332, 116
-0.993781, 9, 125, 72, 156
-0.993782, 129, 417, 160, 448
-0.993785, 213, 85, 244, 116
-0.993785, 221, 369, 252, 400
-0.99379, 77, 161, 108, 192
-0.993791, 193, 141, 224, 172
-0.993792, 281, 289, 312, 320
-0.993793, 193, 273, 224, 304
-0.993794, 81, 165, 144, 196
-0.993799, 13, 385, 44, 416
-0.993799, 253, 253, 284, 284
-0.993801, 209, 1, 272, 500
-0.993802, 49, 277, 112, 308
-0.993802, 221, 381, 252, 412
-0.993805, 145, 293, 208, 324
-0.993823, 1, 269, 64, 300
-0.993828, 25, 273, 88, 304
-0.993844, 145, 77, 208, 108
-0.993852, 81, 281, 144, 312
-0.993854, 113, 285, 176, 316
-0.993857, 265, 353, 328, 480
-0.993867, 209, 357, 272, 388
-0.993867, 49, 201, 112, 232
-0.99388, 225, 261, 288, 292
-0.993883, 193, 421, 256, 452
-0.993891, 185, 469, 248, 500
-0.993892, 273, 273, 333, 304
-0.993897, 177, 193, 240, 224
-0.993899, 193, 433, 256, 464
-0.993918, 273, 357, 333, 388
-0.993929, 265, 405, 328, 436
-0.993929, 257, 425, 320, 456
-0.993942, 273, 197, 333, 228
-0.99395, 105, 109, 168, 140
-0.993964, 193, 33, 256, 64
-0.993964, 113, 69, 176, 100
-0.993981, 217, 285, 280, 316
-0.993985, 201, 385, 264, 416
-0.993987, 153, 357, 216, 388
-0.993996, 273, 133, 333, 164
-0.994, 81, 117, 144, 148
-0.994013, 1, 49, 64, 80
-0.994013, 169, 49, 232, 80
-0.994029, 249, 437, 312, 468
-0.994041, 1, 33, 32, 160
-0.994047, 249, 457, 312, 488
-0.994056, 9, 109, 72, 140
-0.994067, 57, 189, 120, 220
-0.994083, 25, 385, 88, 416
-0.994093, 209, 369, 272, 400
-0.994106, 129, 105, 192, 136
-0.994109, 41, 157, 104, 188
-0.994109, 217, 325, 280, 356
-0.99413, 177, 21, 240, 52
-0.994148, 265, 161, 328, 192
-0.994206, 225, 417, 256, 480
-0.994217, 1, 33, 32, 96
-0.994225, 249, 1, 312, 256
-0.994273, 249, 305, 280, 432
-0.994299, 209, 329, 333, 392
-0.994366, 217, 321, 280, 448
-0.994381, 215, 113, 230, 176
-0.994441, 113, 145, 240, 272
-0.994461, 1, 1, 64, 500
-0.994461, 223, 137, 238, 200
-0.994546, 65, 113, 192, 240
-0.994597, 65, 169, 128, 232
-0.99461, 249, 321, 280, 384
-0.994642, 49, 1, 176, 256
-0.994701, 273, 313, 333, 376
-0.994705, 237, 369, 268, 432
-0.994831, 231, 129, 246, 192
-0.994913, 65, 145, 320, 208
-0.994961, 225, 225, 288, 288
-0.99506, 161, 433, 288, 496
-0.995097, 273, 57, 333, 120
-0.995104, 221, 113, 236, 176
-0.995215, 209, 289, 272, 352
-0.99527, 65, 1, 192, 64
-0.995277, 289, 217, 320, 280
-0.995332, 45, 9, 76, 72
-0.995332, 185, 97, 248, 352
-0.995349, 241, 153, 256, 216
-0.995375, 229, 33, 260, 160
-0.995436, 233, 193, 264, 320
-0.995449, 209, 401, 333, 464
-0.995499, 149, 65, 180, 128
-0.995505, 249, 113, 280, 176
-0.995629, 285, 153, 316, 216
-0.995645, 1, 1, 256, 64
-0.995661, 289, 129, 320, 192
-0.995665, 161, 353, 288, 480
-0.995675, 113, 353, 240, 480
-0.995729, 129, 65, 192, 128
-0.995747, 177, 281, 240, 344
-0.99575, 225, 185, 240, 248
-0.995754, 293, 105, 324, 168
-0.995803, 241, 129, 256, 192
-0.995853, 301, 81, 332, 208
-0.995862, 129, 345, 256, 408
-0.995876, 273, 161, 333, 224
-0.995897, 1, 121, 256, 184
-0.995936, 1, 41, 64, 104
-0.995954, 201, 273, 264, 400
-0.996013, 243, 177, 258, 240
-0.996022, 247, 105, 262, 168
-0.996069, 129, 305, 256, 432
-0.996074, 225, 89, 240, 152
-0.9961, 209, 105, 333, 136
-0.996111, 265, 385, 328, 448
-0.996117, 133, 393, 164, 456
-0.996135, 177, 1, 240, 256
-0.99616, 33, 217, 64, 280
-0.996181, 251, 145, 266, 208
-0.9962, 209, 129, 333, 160
-0.996203, 281, 193, 296, 256
-0.996237, 161, 113, 288, 144
-0.99624, 225, 73, 256, 136
-0.99625, 161, 129, 288, 160
-0.99628, 237, 337, 268, 464
-0.996371, 239, 97, 254, 160
-0.996386, 237, 185, 252, 248
-0.996391, 225, 161, 240, 224
-0.996394, 209, 141, 333, 172
-0.996412, 213, 81, 244, 144
-0.996419, 193, 161, 320, 192
-0.99644, 221, 65, 252, 320
-0.996447, 209, 117, 333, 148
-0.996471, 185, 273, 216, 336
-0.996565, 153, 289, 216, 416
-0.996584, 145, 57, 272, 120
-0.996607, 233, 97, 248, 160
-0.996622, 289, 225, 320, 352
-0.996628, 113, 113, 176, 176
-0.996634, 231, 177, 246, 240
-0.996639, 253, 89, 284, 152
-0.99664, 273, 337, 333, 400
-0.996658, 205, 49, 236, 176
-0.99667, 219, 169, 234, 232
-0.996671, 81, 145, 144, 208
-0.996678, 213, 145, 228, 208
-0.996691, 193, 173, 320, 204
-0.996729, 241, 249, 304, 312
-0.996731, 161, 313, 288, 376
-0.996749, 117, 433, 148, 496
-0.996788, 113, 409, 240, 472
-0.996791, 301, 193, 332, 320
-0.996817, 17, 161, 80, 288
-0.996832, 201, 361, 264, 424
-0.996852, 161, 369, 288, 432
-0.996885, 217, 89, 232, 152
-0.996916, 277, 217, 292, 280
-0.996917, 193, 209, 256, 336
-0.996922, 257, 417, 320, 480
-0.996922, 1, 225, 128, 352
-0.996927, 245, 345, 276, 408
-0.996933, 129, 281, 256, 344
-0.99695, 297, 113, 312, 176
-0.99696, 249, 169, 280, 232
-0.996981, 65, 97, 320, 160
-0.997037, 233, 161, 248, 192
-0.99705, 301, 89, 316, 152
-0.997051, 261, 281, 276, 344
-0.997053, 247, 337, 262, 400
-0.997066, 49, 177, 176, 240
-0.997075, 253, 313, 268, 376
-0.99708, 161, 217, 288, 280
-0.997102, 241, 173, 256, 204
-0.997104, 265, 361, 328, 424
-0.997118, 209, 57, 333, 120
-0.997134, 209, 189, 333, 220
-0.997135, 193, 409, 256, 472
-0.997161, 71, 1, 86, 64
-0.997169, 233, 141, 248, 172
-0.997185, 113, 433, 240, 496
-0.997188, 81, 65, 208, 128
-0.997191, 217, 109, 232, 140
-0.9972, 241, 393, 304, 456
-0.997211, 17, 201, 144, 264
-0.997236, 185, 73, 248, 136
-0.997242, 239, 369, 254, 432
-0.997275, 271, 241, 286, 304
-0.997297, 271, 217, 286, 280
-0.997305, 65, 153, 192, 216
-0.99731, 49, 1, 176, 32
-0.997377, 215, 133, 230, 164
-0.997383, 277, 209, 308, 336
-0.997388, 33, 1, 96, 256
-0.99744, 225, 369, 256, 496
-0.997448, 297, 81, 328, 144
-0.99747, 227, 417, 242, 480
-0.997472, 293, 137, 308, 200
-0.997506, 193, 65, 224, 192
-0.997515, 209, 121, 224, 184
-0.997544, 145, 149, 272, 180
-0.997549, 1, 97, 64, 160
-0.997567, 161, 49, 192, 112
-0.997569, 1, 137, 128, 200
-0.997572, 287, 169, 302, 232
-0.997606, 253, 121, 268, 184
-0.997609, 233, 393, 248, 456
-0.997616, 79, 1, 94, 64
-0.997631, 1, 33, 128, 64
-0.997649, 267, 265, 282, 328
-0.997656, 221, 361, 252, 424
-0.997657, 25, 161, 88, 224
-0.997657, 223, 153, 238, 184
-0.997659, 113, 177, 240, 240
-0.997669, 17, 209, 48, 336
-0.997674, 65, 177, 320, 240
-0.99771, 49, 201, 80, 264
-0.997716, 209, 225, 333, 256
-0.997726, 161, 101, 288, 132
-0.997733, 193, 113, 224, 240
-0.997746, 233, 177, 248, 208
-0.997767, 241, 149, 256, 180
-0.997775, 185, 257, 248, 320
-0.997776, 225, 101, 240, 132
-0.997778, 145, 177, 272, 208
-0.997793, 289, 65, 320, 192
-0.997793, 93, 1, 108, 64
-0.997794, 221, 125, 236, 156
-0.997802, 87, 1, 102, 64
-0.997816, 233, 65, 264, 320
-0.997818, 145, 281, 208, 344
-0.997827, 225, 181, 240, 212
-0.997859, 159, 65, 174, 128
-0.99787, 1, 169, 128, 232
-0.997874, 9, 193, 72, 448
-0.997879, 209, 93, 333, 124
-0.99788, 293, 209, 308, 272
-0.997899, 25, 25, 40, 88
-0.997901, 47, 9, 62, 72
-0.997902, 227, 205, 242, 236
-0.99791, 215, 121, 230, 152
-0.997934, 33, 113, 160, 176
-0.997935, 65, 1, 80, 64
-0.997942, 241, 161, 256, 192
-0.99796, 15, 33, 30, 96
-0.997962, 239, 101, 254, 132
-0.997977, 261, 185, 292, 248
-0.998025, 259, 105, 274, 168
-0.99803, 231, 97, 246, 128
-0.998032, 153, 257, 216, 320
-0.998037, 209, 213, 333, 244
-0.998045, 33, 17, 48, 80
-0.998054, 231, 209, 246, 272
-0.998057, 7, 41, 22, 104
-0.998066, 161, 393, 288, 456
-0.998078, 169, 33, 232, 96
-0.998079, 253, 65, 284, 192
-0.998095, 145, 161, 272, 192
-0.9981, 233, 369, 248, 432
-0.998104, 209, 409, 240, 472
-0.99811, 243, 193, 258, 224
-0.998111, 225, 165, 240, 196
-0.998134, 249, 177, 264, 240
-0.998149, 237, 289, 268, 352
-0.998153, 227, 133, 242, 164
-0.998159, 17, 17, 144, 48
-0.998186, 217, 321, 280, 384
-0.998188, 237, 73, 268, 136
-0.998193, 299, 209, 314, 272
-0.998218, 113, 125, 240, 156
-0.998221, 271, 193, 286, 256
-0.998229, 1, 225, 32, 352
-0.998234, 209, 97, 240, 352
-0.998239, 249, 151, 280, 166
-0.998239, 1, 389, 32, 404
-0.99824, 249, 173, 280, 188
-0.99824, 65, 197, 96, 212
-0.998241, 109, 119, 140, 134
-0.998242, 221, 437, 252, 452
-0.998244, 261, 311, 292, 326
-0.998245, 245, 95, 276, 110
-0.998245, 161, 67, 192, 82
-0.998245, 277, 239, 308, 254
-0.998246, 209, 207, 240, 222
-0.998246, 265, 285, 296, 300
-0.998246, 205, 167, 236, 182
-0.998247, 129, 115, 160, 130
-0.998248, 297, 221, 328, 236
-0.998248, 217, 181, 248, 196
-0.998249, 289, 137, 320, 152
-0.99825, 293, 115, 324, 130
-0.998251, 13, 245, 44, 260
-0.998253, 277, 217, 308, 232
-0.998253, 197, 145, 228, 160
-0.998253, 93, 175, 124, 190
-0.998253, 253, 125, 284, 140
-0.998253, 69, 173, 100, 188
-0.998254, 141, 73, 172, 88
-0.998255, 217, 221, 248, 236
-0.998256, 257, 229, 288, 244
-0.998258, 37, 223, 68, 238
-0.998258, 221, 141, 236, 172
-0.998259, 221, 35, 252, 50
-0.998259, 265, 291, 296, 306
-0.99826, 281, 185, 312, 200
-0.99826, 205, 189, 236, 204
-0.998261, 285, 159, 316, 174
-0.998261, 205, 185, 236, 248
-0.998262, 1, 257, 32, 272
-0.998262, 21, 225, 36, 288
-0.998263, 253, 119, 284, 134
-0.998264, 141, 369, 172, 432
-0.998264, 1, 51, 32, 66
-0.998264, 249, 179, 280, 194
-0.998264, 193, 125, 224, 140
-0.998266, 41, 131, 72, 146
-0.998266, 249, 121, 264, 152
-0.998266, 1, 239, 32, 254
-0.998267, 9, 251, 40, 266
-0.998269, 153, 77, 184, 92
-0.998269, 17, 31, 48, 46
-0.998269, 269, 271, 300, 286
-0.99827, 1, 49, 16, 112
-0.99827, 249, 107, 280, 122
-0.99827, 237, 125, 268, 140
-0.998271, 219, 433, 234, 496
-0.998273, 217, 187, 248, 202
-0.998273, 201, 101, 232, 116
-0.998274, 265, 219, 296, 234
-0.998276, 233, 209, 264, 224
-0.998277, 233, 173, 264, 188
-0.998278, 205, 109, 236, 124
-0.99828, 1, 385, 32, 448
-0.99828, 209, 195, 240, 210
-0.99828, 249, 113, 280, 128
-0.998282, 9, 43, 40, 58
-0.998285, 213, 97, 244, 112
-0.998285, 25, 129, 88, 192
-0.998286, 185, 1, 248, 500
-0.998286, 297, 235, 328, 250
-0.998286, 45, 201, 60, 264
-0.998287, 81, 169, 112, 184
-0.99829, 251, 157, 266, 188
-0.998291, 125, 123, 156, 138
-0.998291, 57, 9, 72, 72
-0.998292, 273, 233, 304, 248
-0.998293, 239, 137, 254, 168
-0.998295, 261, 303, 292, 318
-0.998295, 45, 237, 76, 252
-0.998296, 253, 145, 284, 160
-0.998296, 249, 185, 280, 200
-0.998297, 9, 125, 40, 140
-0.998299, 15, 233, 30, 296
-0.998299, 25, 401, 56, 416
-0.9983, 1, 401, 32, 416
-0.9983, 201, 117, 232, 132
-0.998301, 29, 129, 60, 144
-0.998301, 241, 221, 272, 236
-0.998302, 233, 203, 264, 218
-0.998302, 81, 5, 112, 20
-0.998303, 253, 223, 284, 238
-0.998304, 1, 89, 128, 152
-0.998304, 287, 145, 302, 208
-0.998305, 17, 227, 48, 242
-0.998305, 33, 19, 64, 34
-0.998306, 233, 113, 264, 128
-0.998307, 197, 131, 228, 146
-0.998307, 205, 161, 236, 176
-0.998307, 209, 201, 240, 216
-0.998308, 209, 141, 240, 156
-0.998308, 69, 7, 100, 22
-0.998309, 205, 155, 236, 170
-0.998309, 245, 101, 276, 116
-0.99831, 217, 123, 248, 138
-0.998311, 17, 37, 48, 52
-0.998313, 221, 135, 252, 150
-0.998315, 237, 133, 268, 148
-0.998316, 29, 25, 60, 40
-0.998316, 241, 145, 272, 160
-0.998318, 281, 213, 296, 244
-0.998322, 81, 175, 112, 190
-0.998322, 45, 15, 76, 30
-0.998323, 17, 239, 48, 254
-0.998326, 233, 119, 264, 134
-0.998327, 1, 1, 333, 64
-0.998328, 57, 11, 88, 26
-0.998328, 231, 73, 246, 136
-0.99833, 199, 265, 214, 328
-0.998331, 231, 189, 246, 220
-0.998335, 97, 1, 128, 16
-0.998336, 33, 229, 64, 244
-0.998338, 241, 157, 272, 172
-0.998341, 233, 215, 264, 230
-0.998342, 217, 129, 248, 144
-0.998342, 13, 399, 44, 414
-0.998347, 283, 225, 298, 288
-0.99835, 237, 193, 268, 208
-0.99835, 237, 165, 268, 180
-0.998351, 21, 229, 36, 260
-0.998352, 229, 185, 260, 200
-0.998356, 269, 225, 300, 240
-0.998358, 9, 233, 40, 248
-0.99836, 225, 113, 240, 144
-0.998361, 233, 139, 264, 154
-0.998363, 179, 297, 194, 360
-0.998363, 225, 95, 256, 110
-0.998367, 265, 217, 280, 280
-0.998369, 297, 229, 328, 244
-0.998372, 221, 215, 252, 230
-0.998373, 41, 17, 56, 80
-0.998379, 229, 179, 260, 194
-0.99838, 1, 395, 32, 410
-0.998386, 213, 149, 244, 164
-0.998388, 221, 173, 252, 188
-0.998389, 213, 115, 244, 130
-0.998393, 221, 209, 252, 224
-0.998393, 281, 227, 312, 242
-0.998394, 209, 373, 333, 404
-0.998397, 221, 203, 252, 218
-0.998399, 129, 385, 192, 448
-0.9984, 295, 233, 310, 296
-0.998405, 39, 217, 54, 280
-0.998407, 213, 103, 244, 118
-0.998408, 221, 141, 252, 156
-0.998409, 271, 217, 286, 248
-0.99841, 105, 97, 168, 224
-0.998415, 189, 273, 204, 336
-0.998415, 233, 151, 264, 166
-0.998416, 205, 125, 236, 140
-0.998419, 221, 159, 252, 174
-0.998425, 245, 105, 260, 136
-0.998425, 209, 121, 224, 152
-0.998432, 33, 235, 64, 250
-0.998435, 229, 107, 260, 122
-0.99844, 215, 145, 230, 176
-0.998447, 221, 167, 252, 182
-0.998448, 213, 157, 228, 188
-0.99845, 221, 193, 252, 208
-0.99845, 209, 135, 240, 150
-0.998453, 33, 1, 64, 256
-0.998453, 21, 233, 52, 248
-0.998455, 29, 229, 44, 260
-0.998456, 225, 193, 240, 224
-0.998462, 217, 109, 248, 124
-0.998463, 151, 73, 166, 136
-0.998477, 239, 345, 254, 408
-0.998479, 129, 249, 256, 312
-0.998481, 287, 193, 302, 256
-0.998491, 213, 433, 244, 496
-0.998492, 209, 153, 272, 168
-0.998499, 1, 233, 128, 264
-0.9985, 233, 161, 264, 416
-0.998505, 209, 113, 272, 128
-0.998518, 259, 305, 274, 368
-0.998518, 81, 281, 208, 344
-0.998523, 209, 147, 272, 162
-0.998526, 209, 105, 272, 120
-0.998528, 185, 297, 200, 360
-0.998531, 209, 119, 272, 134
-0.998531, 227, 393, 242, 456
-0.998539, 13, 1, 44, 256
-0.998541, 255, 281, 270, 344
-0.998542, 219, 193, 234, 256
-0.998549, 209, 159, 272, 174
-0.998561, 165, 57, 180, 120
-0.998567, 277, 225, 292, 256
-0.998567, 125, 433, 140, 496
-0.998569, 33, 217, 48, 280
-0.998569, 33, 385, 160, 448
-0.998571, 217, 127, 280, 142
-0.998576, 51, 201, 66, 264
-0.998577, 9, 235, 72, 250
-0.998577, 37, 225, 52, 256
-0.998585, 265, 229, 328, 244
-0.998585, 219, 97, 234, 128
-0.998586, 1, 353, 128, 480
-0.998588, 217, 141, 280, 156
-0.998589, 65, 209, 320, 272
-0.998592, 161, 189, 288, 220
-0.998593, 237, 205, 252, 236
-0.998593, 255, 81, 270, 144
-0.998598, 261, 257, 276, 320
-0.998602, 221, 161, 252, 416
-0.998603, 217, 133, 280, 148
-0.998604, 209, 165, 272, 180
-0.998606, 209, 241, 224, 304
-0.998606, 131, 417, 146, 480
-0.998606, 1, 337, 64, 464
-0.998609, 119, 433, 134, 496
-0.99861, 145, 361, 208, 424
-0.998614, 241, 73, 256, 136
-0.998615, 163, 65, 178, 96
-0.998622, 15, 229, 30, 260
-0.998623, 155, 77, 170, 108
-0.998624, 37, 21, 52, 52
-0.998625, 43, 221, 58, 252
-0.998626, 225, 185, 288, 200
-0.998629, 1, 403, 64, 418
-0.998635, 247, 313, 262, 376
-0.998635, 129, 89, 192, 152
-0.998635, 225, 101, 256, 116
-0.998636, 209, 175, 272, 190
-0.998636, 135, 393, 150, 456
-0.998638, 257, 223, 320, 238
-0.99864, 185, 125, 248, 140
-0.998641, 299, 225, 314, 256
-0.998642, 201, 187, 264, 202
-0.998643, 225, 195, 288, 210
-0.998645, 97, 1, 112, 32
-0.998646, 273, 137, 333, 200
-0.99865, 249, 149, 312, 164
-0.998651, 225, 223, 288, 238
-0.998653, 241, 143, 304, 158
-0.99866, 233, 157, 296, 172
-0.998661, 193, 257, 224, 384
-0.998663, 33, 161, 64, 288
-0.998663, 9, 41, 24, 72
-0.998664, 233, 101, 296, 116
-0.998665, 185, 157, 248, 172
-0.998666, 237, 193, 252, 224
-0.998671, 57, 7, 120, 22
-0.998671, 23, 29, 38, 60
-0.998673, 203, 241, 218, 304
-0.998674, 33, 233, 96, 296
-0.998675, 233, 175, 296, 190
-0.998676, 1, 229, 64, 244
-0.998681, 91, 161, 106, 192
-0.998685, 201, 195, 264, 210
-0.998685, 201, 201, 264, 216
-0.998688, 9, 39, 72, 54
-0.998689, 201, 181, 264, 196
-0.99869, 251, 145, 266, 176
-0.998691, 249, 111, 312, 126
-0.998691, 241, 301, 304, 316
-0.998691, 241, 137, 304, 152
-0.998692, 185, 131, 248, 146
-0.998692, 81, 1, 144, 16
-0.998693, 33, 235, 96, 250
-0.998694, 177, 119, 240, 134
-0.998697, 1, 397, 64, 412
-0.998699, 193, 281, 320, 312
-0.9987, 201, 99, 264, 114
-0.998701, 185, 137, 248, 152
-0.998703, 81, 1, 144, 64
-0.998703, 233, 169, 296, 184
-0.998703, 1, 45, 64, 60
-0.998704, 219, 181, 234, 212
-0.998705, 41, 13, 104, 28
-0.998706, 225, 201, 288, 216
-0.998706, 1, 129, 64, 144
-0.99871, 225, 217, 288, 232
-0.998713, 273, 235, 333, 250
-0.998713, 249, 121, 312, 136
-0.998715, 273, 1, 333, 500
-0.998716, 185, 147, 248, 162
-0.998717, 185, 113, 248, 128
-0.998719, 201, 207, 264, 222
-0.998719, 25, 25, 88, 40
-0.998719, 225, 211, 288, 226
-0.998719, 185, 105, 248, 120
-0.99872, 9, 33, 72, 48
-0.99872, 217, 435, 280, 450
-0.998721, 249, 187, 312, 202
-0.998721, 49, 173, 112, 188
-0.998723, 9, 241, 72, 256
-0.998723, 257, 265, 320, 280
-0.998724, 33, 19, 96, 34
-0.998725, 249, 131, 312, 146
-0.998725, 141, 393, 156, 456
-0.998726, 217, 425, 280, 440
-0.998726, 73, 177, 136, 192
-0.998728, 233, 163, 296, 178
-0.998728, 201, 215, 264, 230
-0.998729, 265, 277, 280, 308
-0.998729, 241, 327, 304, 342
-0.99873, 217, 445, 280, 460
-0.998731, 241, 229, 304, 244
-0.998732, 241, 333, 304, 348
-0.998732, 93, 153, 124, 216
-0.998735, 233, 369, 296, 384
-0.998736, 273, 271, 333, 286
-0.998737, 257, 137, 272, 168
-0.998737, 129, 105, 144, 168
-0.998738, 25, 229, 88, 244
-0.998738, 1, 391, 64, 406
-0.998739, 257, 217, 320, 232
-0.998739, 249, 295, 312, 310
-0.99874, 185, 175, 248, 190
-0.99874, 105, 1, 168, 16
-0.998741, 113, 137, 240, 168
-0.998741, 241, 309, 304, 324
-0.998742, 209, 485, 272, 500
-0.998742, 139, 105, 154, 136
-0.998742, 113, 105, 240, 136
-0.998743, 273, 303, 333, 318
-0.998745, 27, 225, 42, 288
-0.998746, 99, 1, 114, 64
-0.998747, 225, 401, 288, 416
-0.998748, 185, 295, 248, 310
-0.99875, 249, 181, 312, 196
-0.998751, 303, 93, 318, 124
-0.998751, 209, 475, 272, 490
-0.998751, 233, 375, 296, 390
-0.998752, 217, 419, 280, 434
-0.998753, 233, 363, 296, 378
-0.998753, 21, 241, 36, 272
-0.998754, 217, 295, 280, 310
-0.998754, 273, 191, 333, 206
-0.998754, 289, 185, 320, 248
-0.998755, 225, 395, 288, 410
-0.998755, 225, 389, 288, 404
-0.998756, 209, 37, 272, 52
-0.998756, 57, 167, 120, 182
-0.998756, 209, 469, 272, 484
-0.998757, 113, 125, 176, 140
-0.998757, 271, 253, 286, 284
-0.998757, 1, 389, 16, 420
-0.998758, 25, 133, 88, 148
-0.998758, 245, 361, 260, 424
-0.998758, 257, 155, 320, 170
-0.998758, 273, 327, 333, 342
-0.998759, 217, 451, 280, 466
-0.99876, 273, 199, 333, 214
-0.99876, 273, 381, 333, 396
-0.99876, 301, 161, 332, 416
-0.99876, 225, 95, 288, 110
-0.99876, 273, 309, 333, 324
-0.998762, 273, 109, 333, 124
-0.998762, 209, 463, 272, 478
-0.998763, 249, 279, 312, 294
-0.998763, 225, 407, 288, 422
-0.998763, 29, 25, 44, 56
-0.998764, 257, 109, 272, 140
-0.998764, 317, 81, 332, 144
-0.998765, 81, 171, 144, 186
-0.998765, 233, 263, 296, 278
-0.998766, 241, 339, 304, 354
-0.998767, 185, 169, 248, 184
-0.998767, 201, 223, 264, 238
-0.998767, 249, 271, 312, 286
-0.998767, 113, 425, 176, 488
-0.998768, 89, 119, 152, 134
-0.99877, 1, 49, 16, 80
-0.99877, 105, 285, 168, 300
-0.998771, 1, 11, 64, 26
-0.998771, 273, 89, 333, 104
-0.998771, 273, 295, 333, 310
-0.998773, 177, 301, 240, 316
-0.998773, 217, 457, 280, 472
-0.998773, 25, 397, 88, 412
-0.998773, 1, 271, 64, 286
-0.998774, 153, 291, 216, 306
-0.998774, 217, 301, 280, 316
-0.998775, 25, 223, 88, 238
-0.998775, 25, 273, 88, 288
-0.998775, 209, 365, 272, 380
-0.998778, 249, 133, 264, 164
-0.998779, 243, 97, 258, 224
-0.998782, 225, 89, 240, 120
-0.998783, 81, 241, 208, 368
-0.998794, 3, 253, 18, 284
-0.998795, 293, 221, 308, 252
-0.998796, 219, 197, 234, 228
-0.998798, 103, 1, 118, 32
-0.998801, 263, 289, 278, 320
-0.998802, 49, 117, 176, 148
-0.99881, 253, 97, 268, 128
-0.998813, 171, 313, 186, 376
-0.99882, 119, 129, 134, 160
-0.998821, 65, 169, 96, 232
-0.998823, 11, 393, 26, 424
-0.998827, 177, 305, 304, 336
-0.998836, 255, 321, 270, 352
-0.998843, 215, 169, 230, 200
-0.998843, 247, 181, 262, 212
-0.998851, 251, 337, 266, 368
-0.998856, 193, 457, 320, 488
-0.998857, 1, 113, 333, 176
-0.998858, 215, 225, 230, 288
-0.99886, 17, 33, 32, 64
-0.998868, 211, 109, 226, 140
-0.998869, 227, 425, 242, 456
-0.99887, 17, 393, 32, 424
-0.998875, 269, 265, 284, 296
-0.998877, 65, 289, 320, 352
-0.998879, 257, 309, 272, 340
-0.99888, 285, 189, 300, 220
-0.998882, 91, 1, 106, 32
-0.998885, 221, 469, 236, 500
-0.998886, 125, 121, 140, 152
-0.998889, 251, 109, 266, 140
-0.99889, 97, 161, 112, 192
-0.998891, 219, 97, 234, 224
-0.998892, 223, 453, 238, 484
-0.998892, 209, 141, 224, 172
-0.998892, 267, 233, 282, 264
-0.998893, 209, 201, 333, 232
-0.998894, 65, 353, 320, 416
-0.998895, 57, 201, 72, 264
-0.9989, 47, 17, 62, 48
-0.998901, 1, 361, 128, 424
-0.998903, 195, 281, 210, 312
-0.998904, 193, 445, 320, 476
-0.998906, 273, 241, 288, 272
-0.998909, 257, 297, 272, 328
-0.998912, 147, 89, 162, 120
-0.998912, 131, 117, 146, 148
-0.998913, 225, 437, 240, 468
-0.998914, 231, 129, 246, 256
-0.998919, 81, 169, 96, 232
-0.998921, 241, 365, 256, 396
-0.998925, 69, 161, 84, 224
-0.998926, 85, 169, 100, 200
-0.998929, 193, 261, 320, 292
-0.998933, 111, 141, 126, 172
-0.998933, 213, 169, 228, 232
-0.998935, 9, 377, 24, 440
-0.998938, 301, 145, 332, 272
-0.99894, 299, 109, 314, 140
-0.99894, 209, 97, 224, 160
-0.998953, 283, 225, 298, 256
-0.998954, 1, 249, 128, 312
-0.998956, 249, 289, 264, 352
-0.998958, 81, 181, 96, 212
-0.998958, 245, 97, 276, 352
-0.998958, 209, 245, 333, 276
-0.998959, 305, 225, 320, 256
-0.998965, 229, 413, 244, 444
-0.998968, 147, 377, 162, 440
-0.998968, 49, 213, 64, 244
-0.998969, 231, 121, 246, 152
-0.998969, 63, 9, 78, 40
-0.99897, 233, 401, 248, 432
-0.998971, 185, 257, 248, 500
-0.998971, 49, 177, 176, 208
-0.998973, 55, 13, 70, 44
-0.998974, 1, 5, 128, 36
-0.998977, 241, 125, 256, 156
-0.998978, 13, 249, 28, 280
-0.998983, 237, 209, 252, 272
-0.998984, 135, 105, 150, 168
-0.998984, 297, 121, 312, 152
-0.998985, 185, 301, 200, 332
-0.998993, 283, 201, 298, 232
-0.998993, 161, 33, 288, 96
-0.998999, 237, 385, 252, 416
-0.999, 261, 261, 276, 292
-0.999001, 207, 253, 222, 284
-0.999001, 247, 349, 262, 380
-0.999003, 71, 185, 86, 216
-0.999004, 119, 121, 134, 184
-0.999005, 249, 81, 264, 144
-0.999006, 233, 85, 248, 116
-0.999007, 281, 169, 296, 232
-0.999009, 301, 185, 316, 248
-0.999012, 285, 129, 316, 384
-0.999012, 189, 289, 204, 320
-0.999014, 3, 249, 18, 312
-0.999017, 269, 161, 300, 288
-0.999017, 113, 385, 240, 448
-0.999022, 287, 265, 302, 328
-0.999025, 231, 81, 246, 208
-0.999026, 101, 149, 116, 180
-0.999026, 77, 5, 92, 36
-0.999027, 169, 61, 184, 92
-0.999028, 263, 409, 278, 472
-0.99903, 299, 213, 314, 244
-0.999031, 287, 177, 302, 208
-0.999034, 221, 409, 236, 472
-0.999035, 113, 285, 240, 316
-0.999036, 199, 269, 214, 300
-0.999038, 23, 1, 38, 64
-0.999039, 295, 133, 310, 164
-0.99904, 307, 65, 322, 128
-0.999048, 229, 217, 244, 248
-0.999049, 225, 129, 240, 256
-0.999049, 279, 305, 294, 368
-0.999051, 253, 113, 284, 240
-0.999059, 141, 89, 156, 152
-0.999059, 233, 425, 248, 488
-0.999068, 109, 137, 124, 200
-0.999068, 75, 177, 90, 240
-0.99907, 225, 81, 240, 208
-0.99908, 207, 145, 222, 208
-0.999083, 237, 145, 252, 272
-0.999093, 221, 217, 236, 280
-0.999094, 1, 389, 128, 420
-0.999095, 193, 433, 320, 464
-0.999099, 197, 257, 228, 320
-0.999113, 209, 469, 333, 500
-0.999115, 177, 297, 208, 360
-0.999116, 51, 225, 66, 288
-0.999128, 193, 89, 224, 152
-0.999131, 237, 81, 252, 208
-0.999148, 287, 105, 302, 168
-0.999149, 209, 81, 333, 112
-0.999155, 193, 293, 320, 324
-0.999157, 45, 1, 76, 256
-0.999157, 129, 89, 256, 120
-0.999172, 33, 385, 288, 448
-0.999174, 289, 233, 304, 296
-0.999188, 251, 113, 266, 240
-0.999215, 213, 129, 228, 256
-0.999218, 177, 289, 208, 416
-0.999229, 1, 169, 128, 200
-0.999237, 1, 1, 32, 256
-0.999247, 17, 217, 144, 248
-0.999255, 209, 361, 333, 392
-0.999282, 43, 1, 58, 128
-0.999288, 209, 385, 333, 416
-0.999292, 97, 129, 224, 192
-0.999295, 301, 201, 332, 264
-0.999302, 161, 469, 288, 500
-0.999314, 217, 265, 280, 328
-0.999327, 177, 325, 304, 356
-0.99933, 1, 193, 333, 256
-0.999345, 243, 161, 258, 288
-0.999358, 225, 177, 240, 304
-0.999362, 1, 153, 333, 216
-0.999376, 49, 1, 112, 500
-0.999403, 1, 225, 333, 288
-0.999414, 287, 161, 302, 288
-0.999414, 269, 241, 284, 368
-0.999424, 281, 289, 312, 352
-0.999428, 245, 257, 276, 500
-0.999442, 129, 361, 256, 392
-0.999443, 49, 89, 176, 152
-0.999445, 49, 277, 176, 308
-0.999448, 277, 209, 292, 336
-0.999455, 219, 161, 234, 288
-0.999455, 81, 153, 112, 216
-0.999463, 293, 113, 308, 240
-0.99948, 249, 265, 280, 328
-0.999491, 65, 1, 80, 128
-0.999492, 215, 49, 230, 176
-0.999493, 151, 89, 166, 104
-0.999493, 213, 105, 228, 120
-0.999494, 59, 205, 74, 220
-0.999494, 61, 11, 76, 26
-0.999494, 79, 185, 94, 200
-0.999494, 269, 231, 284, 246
-0.999495, 281, 231, 296, 246
-0.999496, 113, 143, 128, 158
-0.999496, 65, 241, 192, 304
-0.999496, 255, 149, 270, 164
-0.999497, 263, 291, 278, 306
-0.999497, 125, 121, 140, 136
-0.999498, 51, 235, 66, 250
-0.999499, 43, 229, 58, 244
-0.999499, 71, 193, 86, 208
-0.9995, 219, 201, 234, 216
-0.9995, 167, 67, 182, 82
-0.9995, 65, 199, 80, 214
-0.999501, 95, 165, 110, 180
-0.999502, 3, 259, 18, 274
-0.999503, 219, 183, 234, 198
-0.999503, 85, 179, 100, 194
-0.999504, 75, 1, 90, 128
-0.999504, 257, 143, 272, 158
-0.999505, 27, 399, 42, 414
-0.999505, 245, 167, 260, 182
-0.999505, 287, 231, 302, 246
-0.999505, 15, 247, 30, 262
-0.999505, 227, 131, 242, 146
-0.999506, 27, 239, 42, 254
-0.999507, 153, 73, 168, 88
-0.999508, 49, 1, 64, 128
-0.999509, 109, 149, 124, 164
-0.999509, 317, 231, 332, 246
-0.99951, 253, 107, 268, 122
-0.999513, 251, 159, 266, 174
-0.999513, 155, 79, 170, 94
-0.999513, 53, 15, 68, 30
-0.999514, 237, 95, 252, 110
-0.999514, 131, 119, 146, 134
-0.999515, 275, 229, 290, 244
-0.999515, 249, 145, 264, 160
-0.999517, 269, 273, 300, 400
-0.999518, 17, 37, 32, 52
-0.999518, 171, 59, 186, 74
-0.999519, 209, 135, 224, 150
-0.999519, 85, 173, 100, 188
-0.999519, 1, 53, 16, 68
-0.99952, 231, 191, 246, 206
-0.999522, 309, 229, 324, 244
-0.999523, 255, 113, 270, 128
-0.999524, 47, 17, 62, 32
-0.999524, 261, 273, 276, 400
-0.999524, 59, 1, 74, 128
-0.999525, 31, 227, 46, 242
-0.999525, 21, 399, 36, 414
-0.999526, 11, 41, 26, 56
-0.999527, 109, 1, 124, 16
-0.999527, 145, 449, 272, 480
-0.999529, 211, 143, 226, 158
-0.999529, 249, 135, 264, 150
-0.999531, 245, 161, 260, 176
-0.999531, 231, 199, 246, 214
-0.999531, 39, 21, 54, 36
-0.999531, 145, 201, 272, 232
-0.999531, 19, 233, 34, 248
-0.999532, 213, 113, 228, 128
-0.999532, 299, 227, 314, 242
-0.999534, 249, 119, 264, 134
-0.999534, 45, 235, 60, 250
-0.999534, 23, 33, 38, 48
-0.999535, 249, 127, 264, 142
-0.999536, 213, 159, 228, 174
-0.999537, 33, 409, 160, 472
-0.999537, 231, 103, 246, 118
-0.999538, 1, 277, 128, 308
-0.999538, 241, 217, 256, 232
-0.999539, 1, 393, 16, 408
-0.999539, 227, 209, 242, 224
-0.99954, 225, 107, 240, 122
-0.999541, 161, 213, 288, 244
-0.999541, 209, 127, 224, 142
-0.999541, 37, 227, 52, 242
-0.999541, 15, 397, 30, 412
-0.999542, 21, 241, 36, 256
-0.999542, 7, 395, 22, 410
-0.999542, 161, 69, 176, 84
-0.999545, 29, 27, 44, 42
-0.999546, 305, 91, 320, 106
-0.999547, 37, 1, 52, 128
-0.999548, 223, 123, 238, 138
-0.999554, 243, 145, 258, 160
-0.999554, 235, 209, 250, 224
-0.999555, 229, 215, 244, 230
-0.999558, 243, 107, 258, 122
-0.99956, 225, 95, 240, 110
-0.999561, 91, 171, 106, 186
-0.999562, 241, 187, 256, 202
-0.999565, 209, 401, 333, 432
-0.999566, 233, 369, 248, 496
-0.999567, 233, 183, 248, 198
-0.999567, 245, 113, 260, 128
-0.999568, 219, 103, 234, 118
-0.999568, 293, 227, 308, 242
-0.99957, 255, 273, 270, 400
-0.99957, 65, 233, 320, 296
-0.99957, 275, 223, 290, 238
-0.999571, 209, 421, 333, 452
-0.999571, 1, 25, 256, 88
-0.999575, 81, 337, 208, 400
-0.99958, 161, 75, 176, 90
-0.99958, 225, 203, 240, 218
-0.999582, 241, 155, 256, 170
-0.999582, 235, 215, 250, 230
-0.999583, 239, 369, 254, 496
-0.999586, 225, 193, 240, 208
-0.999586, 25, 233, 40, 248
-0.999588, 223, 165, 238, 180
-0.99959, 227, 155, 242, 170
-0.999592, 3, 33, 18, 160
-0.999593, 35, 233, 50, 248
-0.999593, 1, 281, 333, 344
-0.999594, 221, 135, 236, 150
-0.999596, 231, 177, 246, 304
-0.999597, 225, 143, 240, 158
-0.999601, 17, 193, 48, 448
-0.999601, 283, 225, 298, 240
-0.999602, 237, 141, 252, 156
-0.999607, 251, 321, 266, 448
-0.999609, 237, 147, 252, 162
-0.999611, 225, 183, 240, 198
-0.999611, 81, 73, 208, 104
-0.999615, 31, 17, 46, 144
-0.999616, 209, 345, 333, 376
-0.999617, 65, 161, 192, 192
-0.999619, 217, 141, 232, 156
-0.99962, 113, 425, 240, 456
-0.999623, 129, 377, 256, 408
-0.999623, 223, 175, 238, 190
-0.999625, 239, 161, 254, 176
-0.999625, 21, 17, 36, 144
-0.999626, 213, 149, 228, 164
-0.999626, 243, 193, 258, 208
-0.999629, 215, 119, 230, 134
-0.999631, 49, 41, 176, 104
-0.999632, 239, 167, 254, 182
-0.999634, 215, 135, 230, 150
-0.999635, 317, 193, 332, 320
-0.999635, 297, 65, 328, 320
-0.999637, 221, 149, 236, 164
-0.999639, 245, 337, 260, 464
-0.99964, 233, 177, 248, 192
-0.99964, 221, 157, 236, 172
-0.999645, 243, 49, 258, 176
-0.999645, 233, 167, 248, 182
-0.999646, 81, 1, 96, 128
-0.999647, 231, 139, 246, 154
-0.999651, 219, 109, 234, 124
-0.999651, 299, 81, 314, 208
-0.999651, 243, 181, 258, 196
-0.999652, 231, 97, 246, 112
-0.999658, 237, 33, 252, 160
-0.99966, 221, 129, 236, 144
-0.999665, 137, 1, 200, 500
-0.999667, 239, 101, 254, 116
-0.999669, 299, 161, 314, 288
-0.999669, 311, 81, 326, 208
-0.99967, 215, 125, 230, 140
-0.999677, 281, 161, 296, 288
-0.999679, 209, 81, 224, 208
-0.999683, 225, 101, 240, 116
-0.999684, 15, 17, 30, 144
-0.999691, 1, 369, 16, 496
-0.999693, 231, 145, 246, 160
-0.999696, 161, 249, 288, 280
-0.999707, 121, 41, 184, 104
-0.999707, 177, 177, 240, 240
-0.99971, 277, 305, 292, 432
-0.999714, 241, 173, 256, 188
-0.999715, 221, 33, 236, 160
-0.999721, 291, 225, 306, 352
-0.999725, 1, 161, 32, 416
-0.999726, 305, 129, 320, 256
-0.999726, 233, 155, 248, 170
-0.999726, 9, 33, 24, 160
-0.999733, 233, 161, 248, 176
-0.999738, 249, 65, 264, 192
-0.999746, 285, 257, 300, 384
-0.999747, 245, 225, 276, 288
-0.999747, 19, 193, 34, 320
-0.99975, 201, 1, 232, 256
-0.999751, 249, 161, 264, 288
-0.999762, 13, 225, 28, 352
-0.99977, 257, 97, 272, 224
-0.999775, 261, 225, 276, 352
-0.999787, 303, 33, 318, 160
-0.999788, 97, 313, 224, 376
-0.99979, 225, 369, 240, 496
-0.999794, 1, 153, 128, 184
-0.999801, 113, 437, 240, 468
-0.999802, 227, 33, 242, 160
-0.999803, 113, 113, 128, 240
-0.999806, 261, 193, 292, 448
-0.999812, 297, 225, 312, 352
-0.999812, 237, 193, 252, 320
-0.999812, 281, 225, 312, 480
-0.999816, 41, 145, 56, 272
-0.999818, 201, 241, 216, 368
-0.999818, 157, 1, 172, 128
-0.999824, 25, 193, 40, 320
-0.999829, 239, 321, 254, 448
-0.999831, 17, 129, 144, 160
-0.99984, 271, 337, 286, 464
-0.99984, 145, 61, 272, 92
-0.999841, 219, 209, 234, 336
-0.999841, 49, 361, 176, 424
-0.999846, 247, 257, 262, 384
-0.999847, 287, 113, 302, 240
-0.999848, 309, 193, 324, 320
-0.99985, 195, 257, 210, 384
-0.99986, 181, 289, 196, 416
-0.999862, 145, 49, 160, 176
-0.999863, 65, 265, 320, 328
-0.999863, 245, 257, 276, 384
-0.999868, 113, 461, 240, 492
-0.999871, 291, 33, 306, 160
-0.999871, 129, 73, 256, 104
-0.999873, 255, 225, 270, 352
-0.999875, 275, 145, 290, 272
-0.999876, 5, 193, 20, 320
-0.999882, 31, 209, 46, 336
-0.999882, 211, 225, 226, 352
-0.999884, 65, 97, 192, 128
-0.999886, 265, 369, 280, 496
-0.999892, 177, 9, 304, 72
-0.999893, 269, 193, 284, 320
-0.999893, 187, 257, 202, 384
-0.999894, 267, 289, 282, 416
-0.999894, 1, 281, 128, 344
-0.999898, 173, 305, 188, 432
-0.999905, 125, 113, 156, 176
-0.999905, 313, 241, 328, 368
-0.999906, 97, 273, 224, 304
-0.999907, 245, 1, 276, 256
-0.999909, 17, 401, 144, 432
-0.999913, 213, 385, 244, 448
-0.999913, 129, 297, 256, 328
-0.999915, 255, 49, 270, 176
-0.999917, 293, 161, 308, 288
-0.999918, 143, 369, 158, 496
-0.999918, 65, 425, 320, 488
-0.999919, 131, 369, 146, 496
-0.999921, 207, 129, 222, 256
-0.999923, 33, 197, 160, 228
-0.999925, 1, 321, 16, 448
-0.999925, 161, 389, 288, 420
-0.999928, 47, 145, 62, 272
-0.99993, 157, 49, 172, 176
-0.999945, 119, 113, 134, 240
-0.999947, 213, 177, 228, 304
-0.999948, 37, 81, 52, 208
-0.999949, 217, 369, 232, 496
-0.999951, 281, 113, 296, 240
-0.999952, 305, 81, 320, 208
-0.999953, 11, 177, 26, 304
-0.999955, 233, 321, 248, 448
-0.999957, 21, 241, 36, 368
-0.999958, 273, 97, 304, 352
-0.999958, 313, 33, 328, 160
-0.99996, 7, 369, 22, 496
-0.999961, 177, 37, 304, 68
-0.999961, 165, 321, 180, 448
-0.999962, 283, 209, 298, 336
-0.999963, 17, 105, 144, 136
-0.999964, 137, 353, 152, 480
-0.999967, 113, 65, 128, 192
-0.999968, 317, 81, 332, 208
-0.999969, 241, 273, 256, 400
-0.99997, 33, 313, 288, 376
-0.999973, 259, 321, 274, 448
-0.999974, 297, 1, 312, 128
-0.999974, 1, 377, 128, 408
-0.999976, 123, 65, 138, 192
-0.999976, 107, 129, 122, 256
-0.999977, 49, 57, 176, 88
-0.999979, 175, 257, 190, 384
-0.99998, 163, 1, 178, 128
-0.99998, 35, 161, 50, 288
-0.999981, 137, 81, 152, 208
-0.999983, 283, 305, 298, 432
-0.999984, 85, 129, 100, 256
-0.999988, 129, 349, 256, 380
-0.999988, 63, 193, 78, 320
-0.999992, 1, 45, 128, 76
-0.999992, 93, 241, 108, 368
-0.999992, 159, 337, 174, 464
-0.999996, 151, 353, 166, 480
-0.999996, 275, 257, 290, 384
-0.999997, 1, 193, 64, 256
-0.999999, 113, 17, 240, 80
-1, 65, 433, 192, 496
-1, 285, 65, 300, 192
-1, 317, 305, 332, 432
-1.00002, 1, 181, 128, 212
-1.00003, 33, 161, 96, 416
-1.00003, 229, 329, 260, 392
-1.00004, 105, 137, 136, 200
-1.00006, 161, 421, 288, 452
-1.00006, 193, 385, 256, 448
-1.00006, 1, 249, 128, 280
-1.00007, 65, 349, 192, 380
-1.00008, 1, 265, 128, 296
-1.0001, 113, 245, 240, 276
-1.00011, 17, 433, 144, 496
-1.00011, 113, 189, 240, 220
-1.00013, 209, 25, 333, 56
-1.00014, 161, 401, 288, 432
-1.00014, 65, 289, 192, 320
-1.00014, 161, 225, 288, 256
-1.00017, 1, 369, 333, 432
-1.00018, 197, 97, 228, 352
-1.00018, 161, 237, 288, 268
-1.00019, 193, 353, 256, 480
-1.0002, 133, 89, 164, 152
-1.00021, 49, 141, 176, 172
-1.00021, 9, 1, 40, 64
-1.00022, 97, 1, 224, 32
-1.00023, 1, 141, 128, 172
-1.00023, 49, 265, 176, 296
-1.00026, 97, 177, 224, 208
-1.00026, 81, 113, 144, 240
-1.00027, 49, 237, 176, 268
-1.00027, 81, 325, 208, 356
-1.00028, 49, 421, 176, 452
-1.00029, 49, 389, 176, 420
-1.0003, 281, 273, 312, 400
-1.00031, 129, 329, 256, 360
-1.00031, 301, 57, 332, 120
-1.00032, 65, 437, 192, 468
-1.00033, 105, 1, 168, 500
-1.00034, 285, 33, 316, 288
-1.00035, 129, 369, 160, 496
-1.00037, 37, 97, 68, 352
-1.00037, 49, 337, 176, 368
-1.00037, 17, 465, 144, 496
-1.00039, 209, 369, 240, 496
-1.0004, 205, 193, 236, 448
-1.00041, 81, 45, 208, 76
-1.00041, 1, 249, 333, 312
-1.00041, 113, 233, 240, 264
-1.00041, 145, 273, 272, 304
-1.00043, 193, 1, 256, 128
-1.00044, 81, 313, 208, 344
-1.00044, 185, 225, 216, 480
-1.00044, 209, 9, 333, 40
-1.00044, 165, 289, 196, 416
-1.00045, 129, 49, 256, 80
-1.00047, 257, 33, 288, 288
-1.00047, 49, 85, 176, 116
-1.00047, 1, 337, 128, 368
-1.00047, 1, 361, 64, 424
-1.00048, 1, 117, 128, 148
-1.00048, 209, 49, 333, 80
-1.00048, 97, 397, 224, 428
-1.00048, 249, 161, 280, 288
-1.00049, 17, 49, 144, 176
-1.00049, 129, 21, 256, 52
-1.00049, 65, 365, 192, 396
-1.00049, 65, 377, 192, 408
-1.0005, 13, 97, 44, 352
-1.0005, 113, 413, 240, 444
-1.0005, 81, 33, 208, 64
-1.00051, 65, 129, 192, 160
-1.00051, 273, 321, 304, 448
-1.00051, 93, 1, 124, 64
-1.00051, 257, 241, 288, 304
-1.00053, 97, 149, 224, 180
-1.00053, 65, 469, 192, 500
-1.00053, 49, 161, 80, 416
-1.00054, 157, 337, 188, 400
-1.00054, 209, 69, 333, 100
-1.00055, 65, 225, 192, 256
-1.00055, 113, 257, 240, 288
-1.00056, 173, 257, 204, 500
-1.00058, 273, 257, 304, 320
-1.00059, 1, 317, 128, 348
-1.00059, 161, 257, 192, 500
-1.00059, 129, 313, 256, 344
-1.00061, 65, 249, 192, 280
-1.00062, 37, 241, 68, 304
-1.00063, 189, 1, 220, 256
-1.00064, 29, 193, 60, 448
-1.00066, 145, 337, 208, 400
-1.00067, 81, 1, 144, 500
-1.00067, 241, 33, 272, 160
-1.00071, 217, 257, 248, 500
-1.00072, 205, 225, 236, 352
-1.00072, 57, 1, 88, 256
-1.00074, 65, 97, 96, 352
-1.00075, 233, 257, 264, 500
-1.00077, 273, 81, 333, 144
-1.0008, 185, 433, 248, 496
-1.0008, 165, 273, 196, 336
-1.0008, 145, 33, 176, 288
-1.00082, 293, 257, 324, 500
-1.00083, 261, 401, 292, 464
-1.00084, 33, 65, 160, 128
-1.00086, 1, 433, 333, 496
-1.00086, 49, 129, 80, 256
-1.00087, 249, 17, 312, 80
-1.00089, 149, 225, 180, 480
-1.00093, 157, 33, 188, 288
-1.00093, 161, 1, 224, 500
-1.00094, 81, 289, 208, 416
-1.00098, 105, 401, 168, 464
-1.001, 173, 161, 204, 416
-1.001, 33, 329, 160, 392
-1.001, 65, 49, 320, 112
-1.00103, 129, 417, 160, 480
-1.00103, 225, 257, 288, 384
-1.00105, 49, 113, 112, 176
-1.00107, 1, 81, 333, 144
-1.00109, 113, 225, 240, 288
-1.00111, 209, 33, 333, 96
-1.00112, 33, 73, 288, 136
-1.00113, 25, 97, 56, 352
-1.00114, 117, 33, 148, 288
-1.00115, 69, 1, 100, 256
-1.00115, 285, 265, 316, 328
-1.00115, 161, 161, 192, 416
-1.00116, 1, 257, 32, 500
-1.00117, 269, 1, 300, 256
-1.00118, 13, 161, 44, 288
-1.00119, 1, 305, 333, 368
-1.00121, 37, 193, 68, 256
-1.00122, 177, 1, 208, 256
-1.00126, 93, 33, 124, 288
-1.00126, 129, 257, 256, 384
-1.00127, 65, 209, 192, 272
-1.00128, 113, 113, 144, 176
-1.00128, 113, 201, 240, 264
-1.00129, 109, 129, 140, 384
-1.00131, 81, 129, 112, 384
-1.00131, 169, 305, 232, 368
-1.00131, 105, 113, 136, 240
-1.00131, 153, 321, 184, 448
-1.00131, 1, 113, 32, 176
-1.00133, 129, 97, 160, 352
-1.00136, 205, 225, 236, 288
-1.00136, 121, 257, 152, 500
-1.00137, 257, 369, 288, 496
-1.00137, 121, 273, 184, 336
-1.00138, 193, 17, 256, 80
-1.0014, 133, 257, 164, 500
-1.00145, 93, 129, 124, 384
-1.00145, 133, 1, 164, 256
-1.00146, 185, 129, 216, 384
-1.00146, 301, 153, 332, 216
-1.00148, 61, 193, 92, 448
-1.0015, 1, 401, 333, 464
-1.00152, 77, 1, 108, 128
-1.00153, 21, 193, 52, 256
-1.00156, 141, 65, 172, 192
-1.00156, 105, 257, 136, 500
-1.00158, 25, 1, 88, 500
-1.0016, 137, 41, 168, 104
-1.0016, 113, 345, 176, 408
-1.00163, 65, 273, 128, 336
-1.00163, 81, 1, 112, 256
-1.00164, 301, 241, 332, 368
-1.00167, 169, 9, 232, 72
-1.00168, 49, 305, 176, 368
-1.00169, 89, 89, 152, 152
-1.0017, 105, 33, 136, 288
-1.0017, 129, 81, 160, 208
-1.00171, 45, 257, 76, 500
-1.00171, 13, 385, 44, 448
-1.00172, 145, 129, 176, 384
-1.00172, 261, 313, 292, 376
-1.00173, 1, 305, 128, 368
-1.00173, 93, 257, 124, 500
-1.00174, 285, 241, 316, 304
-1.00174, 89, 433, 152, 496
-1.00174, 73, 257, 104, 500
-1.00175, 117, 97, 148, 224
-1.00178, 149, 1, 180, 128
-1.00179, 65, 161, 192, 288
-1.00182, 269, 361, 300, 424
-1.00182, 57, 257, 120, 384
-1.00183, 1, 353, 32, 480
-1.00183, 1, 121, 64, 184
-1.00184, 97, 273, 160, 336
-1.00185, 53, 177, 84, 240
-1.00185, 241, 201, 272, 264
-1.00192, 1, 345, 333, 408
-1.00195, 129, 313, 192, 376
-1.00196, 277, 97, 308, 224
-1.00197, 257, 425, 288, 488
-1.00198, 249, 209, 280, 336
-1.00201, 301, 225, 332, 288
-1.00204, 69, 161, 100, 288
-1.00208, 229, 289, 260, 416
-1.00208, 165, 313, 196, 376
-1.00209, 241, 393, 272, 456
-1.0021, 277, 313, 308, 376
-1.00211, 1, 57, 333, 120
-1.00216, 105, 137, 168, 200
-1.00216, 97, 377, 160, 440
-1.00216, 33, 121, 64, 184
-1.00218, 9, 89, 40, 152
-1.0022, 273, 337, 304, 400
-1.00225, 137, 49, 200, 176
-1.00225, 297, 17, 328, 144
-1.00229, 273, 49, 304, 176
-1.0023, 25, 265, 88, 328
-1.0023, 17, 129, 144, 256
-1.00234, 141, 369, 172, 496
-1.00237, 177, 241, 208, 368
-1.00239, 153, 361, 184, 424
-1.00241, 49, 337, 176, 464
-1.00244, 89, 249, 152, 312
-1.00246, 65, 241, 128, 304
-1.00248, 225, 25, 288, 88
-1.00252, 237, 265, 268, 328
-1.00255, 97, 57, 160, 120
-1.00258, 169, 329, 232, 392
-1.00268, 73, 113, 136, 176
-1.00269, 173, 41, 204, 104
-1.00272, 269, 153, 300, 216
-1.00273, 49, 97, 80, 160
-1.00281, 97, 41, 224, 104
-1.00282, 85, 257, 116, 384
-1.00284, 161, 129, 224, 192
-1.00285, 161, 225, 224, 480
-1.00285, 29, 209, 60, 336
-1.00289, 201, 1, 232, 128
-1.00291, 85, 113, 116, 176
-1.00295, 77, 177, 108, 240
-1.00295, 129, 353, 192, 480
-1.00296, 125, 353, 156, 416
-1.00297, 1, 249, 64, 312
-1.00302, 49, 129, 112, 256
-1.00304, 257, 353, 288, 416
-1.00304, 145, 89, 176, 152
-1.00305, 69, 145, 100, 208
-1.00305, 1, 177, 32, 304
-1.00309, 269, 369, 300, 496
-1.0031, 33, 273, 160, 400
-1.00311, 1, 25, 333, 88
-1.00311, 97, 433, 128, 496
-1.00311, 281, 105, 312, 168
-1.00313, 65, 49, 192, 176
-1.00317, 1, 153, 64, 216
-1.0032, 25, 97, 56, 224
-1.00324, 109, 385, 140, 448
-1.00327, 289, 57, 320, 120
-1.00329, 113, 369, 144, 496
-1.00333, 5, 209, 36, 272
-1.00333, 177, 249, 208, 312
-1.00333, 273, 1, 333, 128
-1.00335, 229, 25, 260, 88
-1.00335, 265, 97, 296, 224
-1.00337, 21, 241, 52, 304
-1.00338, 185, 233, 248, 296
-1.00338, 81, 409, 144, 472
-1.00341, 49, 41, 112, 104
-1.00346, 233, 241, 264, 368
-1.0035, 213, 305, 244, 432
-1.00352, 129, 249, 192, 312
-1.00355, 209, 1, 333, 128
-1.00358, 153, 49, 184, 176
-1.00367, 121, 65, 152, 128
-1.00368, 301, 177, 332, 240
-1.00371, 93, 129, 124, 256
-1.00379, 57, 177, 88, 304
-1.00379, 41, 81, 104, 144
-1.00382, 233, 57, 296, 120
-1.00389, 45, 177, 76, 304
-1.00392, 145, 1, 208, 64
-1.00392, 261, 321, 292, 448
-1.00402, 73, 241, 104, 368
-1.00409, 217, 1, 248, 128
-1.0041, 9, 97, 72, 352
-1.00411, 81, 145, 112, 272
-1.00411, 161, 97, 224, 160
-1.00416, 1, 97, 64, 224
-1.00416, 137, 257, 200, 500
-1.00417, 137, 409, 200, 472
-1.00418, 65, 433, 128, 496
-1.00424, 25, 393, 88, 456
-1.00425, 101, 369, 132, 496
-1.00431, 285, 17, 316, 144
-1.00433, 125, 33, 156, 160
-1.00435, 81, 33, 144, 96
-1.00441, 193, 209, 224, 336
-1.00441, 113, 49, 144, 176
-1.00445, 57, 257, 88, 384
-1.00448, 57, 145, 120, 208
-1.00449, 161, 217, 224, 280
-1.00451, 217, 1, 280, 64
-1.00453, 61, 113, 92, 240
-1.00456, 49, 329, 112, 392
-1.0046, 209, 257, 272, 500
-1.00461, 1, 305, 32, 432
-1.00472, 25, 369, 88, 432
-1.00476, 141, 321, 172, 448
-1.00479, 81, 313, 144, 376
-1.0048, 193, 337, 256, 400
-1.00486, 153, 33, 216, 288
-1.00487, 93, 81, 124, 208
-1.00502, 161, 97, 224, 224
-1.00503, 37, 49, 68, 176
-1.00513, 301, 321, 332, 448
-1.00522, 273, 33, 333, 96
-1.00522, 121, 65, 184, 320
-1.00523, 201, 41, 264, 104
-1.00523, 73, 161, 136, 288
-1.00524, 161, 1, 192, 128
-1.00525, 1, 273, 64, 336
-1.00537, 197, 161, 228, 288
-1.0054, 113, 1, 240, 128
-1.00541, 89, 169, 152, 232
-1.00542, 129, 97, 192, 224
-1.00546, 49, 305, 112, 368
-1.00549, 129, 321, 160, 448
-1.0055, 1, 305, 64, 368
-1.0057, 149, 273, 180, 400
-1.00572, 57, 97, 120, 352
-1.00575, 25, 257, 88, 384
-1.00578, 293, 369, 324, 496
-1.0058, 181, 1, 212, 128
-1.006, 153, 225, 216, 352
-1.00601, 105, 241, 136, 368
-1.00604, 77, 97, 108, 224
-1.00604, 217, 257, 248, 384
-1.0061, 157, 225, 188, 352
-1.00613, 81, 337, 144, 464
-1.00617, 41, 177, 104, 304
-1.00618, 113, 321, 144, 448
-1.00623, 193, 305, 224, 432
-1.00625, 165, 337, 196, 464
-1.0063, 165, 49, 196, 176
-1.00634, 13, 321, 44, 448
-1.00636, 129, 241, 192, 368
-1.00641, 217, 1, 280, 128
-1.00643, 161, 129, 224, 384
-1.00643, 81, 257, 144, 384
-1.00646, 33, 81, 96, 208
-1.00646, 37, 113, 68, 240
-1.00647, 101, 193, 132, 320
-1.00654, 49, 81, 80, 208
-1.00655, 45, 241, 76, 368
-1.00658, 181, 193, 212, 320
-1.00661, 189, 353, 220, 480
-1.00664, 101, 321, 132, 448
-1.0067, 89, 97, 152, 352
-1.00679, 89, 209, 152, 336
-1.00682, 149, 161, 180, 288
-1.00683, 137, 17, 168, 144
-1.00694, 65, 65, 128, 192
-1.00701, 89, 33, 120, 160
-1.00702, 153, 337, 216, 464
-1.00704, 273, 1, 304, 128
-1.00709, 73, 289, 104, 416
-1.00711, 73, 1, 136, 256
-1.00712, 141, 113, 172, 240
-1.00714, 113, 49, 176, 176
-1.00715, 177, 337, 208, 464
-1.00722, 113, 161, 176, 416
-1.0075, 129, 289, 192, 416
-1.00756, 153, 177, 216, 304
-1.00768, 137, 161, 200, 416
-1.00773, 97, 257, 160, 500
-1.00795, 177, 305, 240, 432
-1.00797, 273, 1, 333, 256
-1.00838, 121, 161, 184, 288
-1.00843, 89, 33, 152, 160
-1.00847, 105, 289, 168, 416
-1.0086, 1, 49, 64, 176
-1.00918, 57, 193, 120, 448
-1.00945, 97, 1, 160, 256
-1.00954, 137, 1, 200, 128
-1.00967, 105, 369, 168, 496
-1.00984, 65, 209, 128, 336
-1.0101, 97, 161, 160, 288
-1.01093, 113, 1, 176, 128
-1.01149, 49, 305, 112, 432
-1.01171, 169, 1, 232, 128
-1.01173, 33, 257, 96, 500
-1.01178, 57, 369, 120, 496
-1.01266, 25, 305, 88, 432
-1.01344, 25, 369, 88, 496
-1.01391, 1, 289, 64, 416
