1984
-0.542715, 1, 129, 500, 372
-0.555061, 1, 1, 500, 372
-0.599324, 1, 33, 500, 288
-0.677113, 1, 97, 256, 352
-0.726347, 65, 1, 320, 372
-0.743863, 225, 1, 480, 372
-0.767075, 193, 129, 448, 372
-0.851656, 97, 129, 352, 372
-0.853994, 129, 33, 384, 288
-0.871748, 33, 97, 160, 352
-0.89074, 49, 1, 176, 372
-0.902833, 97, 97, 224, 352
-0.904326, 1, 1, 128, 372
-0.916789, 1, 129, 256, 256
-0.917147, 1, 177, 500, 304
-0.918222, 113, 1, 240, 372
-0.92076, 305, 129, 432, 372
-0.92153, 1, 129, 500, 256
-0.927786, 225, 1, 352, 372
-0.92806, 17, 1, 144, 256
-0.928126, 65, 1, 192, 256
-0.928637, 193, 193, 448, 320
-0.929962, 257, 129, 384, 372
-0.930619, 177, 129, 304, 372
-0.93085, 65, 177, 320, 304
-0.931023, 65, 129, 192, 256
-0.931594, 81, 97, 144, 224
-0.935123, 353, 129, 480, 372
-0.94005, 193, 145, 448, 272
-0.940486, 177, 1, 304, 372
-0.941071, 321, 1, 448, 372
-0.941973, 81, 113, 144, 176
-0.942196, 145, 177, 272, 304
-0.943787, 273, 1, 400, 372
-0.944227, 225, 193, 352, 320
-0.944563, 369, 1, 496, 372
-0.944638, 73, 49, 136, 176
-0.945194, 105, 129, 168, 256
-0.945979, 1, 81, 500, 208
-0.946269, 241, 193, 304, 320
-0.947517, 57, 97, 120, 224
-0.95042, 289, 177, 416, 304
-0.950847, 97, 129, 352, 256
-0.951184, 73, 89, 136, 152
-0.952555, 145, 33, 272, 288
-0.952845, 185, 177, 248, 304
-0.954905, 265, 193, 328, 320
-0.955336, 217, 193, 280, 320
-0.956202, 17, 113, 144, 240
-0.956902, 81, 145, 144, 272
-0.958338, 273, 201, 336, 264
-0.96058, 81, 153, 144, 216
-0.96065, 65, 65, 128, 128
-0.961112, 297, 201, 360, 264
-0.961178, 105, 145, 168, 208
-0.96122, 289, 177, 352, 304
-0.961332, 113, 129, 240, 256
-0.96198, 353, 177, 480, 304
-0.962168, 97, 81, 352, 208
-0.962556, 401, 177, 464, 304
-0.9626, 153, 177, 216, 304
-0.963102, 249, 201, 312, 264
-0.963107, 257, 33, 384, 288
-0.963487, 361, 177, 424, 304
-0.96418, 129, 129, 192, 256
-0.964328, 65, 81, 192, 208
-0.964373, 17, 65, 144, 192
-0.964676, 201, 193, 264, 256
-0.964931, 97, 177, 224, 304
-0.964977, 77, 65, 108, 128
-0.965031, 49, 49, 112, 176
-0.967077, 1, 241, 500, 368
-0.967161, 105, 121, 168, 184
-0.967608, 97, 89, 128, 152
-0.967981, 225, 241, 480, 368
-0.968144, 193, 33, 320, 288
-0.968445, 313, 225, 376, 288
-0.968829, 1, 33, 500, 160
-0.969, 321, 33, 448, 288
-0.96905, 49, 177, 176, 304
-0.969153, 57, 145, 120, 208
-0.969216, 97, 225, 352, 352
-0.969348, 85, 65, 116, 192
-0.969403, 265, 145, 328, 272
-0.969407, 49, 161, 112, 288
-0.969857, 225, 201, 288, 264
-0.969911, 193, 145, 320, 272
-0.970233, 105, 97, 136, 224
-0.970326, 17, 161, 80, 288
-0.970369, 313, 177, 376, 304
-0.970581, 177, 193, 240, 256
-0.970663, 117, 113, 148, 240
-0.970903, 65, 145, 192, 208
-0.970941, 305, 225, 432, 352
-0.970945, 337, 193, 400, 320
-0.971128, 241, 169, 304, 232
-0.972241, 129, 153, 192, 216
-0.972621, 209, 201, 336, 264
-0.972667, 241, 145, 368, 272
-0.973008, 185, 169, 248, 232
-0.973372, 369, 33, 496, 288
-0.973511, 241, 145, 304, 272
-0.973636, 1, 161, 128, 288
-0.973689, 97, 97, 160, 352
-0.973856, 305, 201, 336, 264
-0.973916, 273, 177, 336, 240
-0.974163, 241, 193, 272, 320
-0.974247, 257, 225, 320, 288
-0.974587, 85, 89, 116, 152
-0.974966, 73, 65, 136, 320
-0.974966, 129, 177, 192, 304
-0.975127, 337, 145, 400, 272
-0.97515, 401, 225, 464, 288
-0.975162, 137, 177, 200, 240
-0.975375, 425, 177, 488, 304
-0.975387, 89, 153, 120, 216
-0.975827, 217, 145, 280, 272
-0.975836, 321, 201, 384, 264
-0.975888, 109, 105, 140, 168
-0.976068, 161, 169, 224, 232
-0.976271, 161, 193, 288, 256
-0.976347, 425, 201, 488, 264
-0.97648, 289, 129, 352, 256
-0.976922, 209, 169, 272, 232
-0.977033, 289, 225, 352, 288
-0.977144, 353, 201, 416, 264
-0.977478, 261, 193, 292, 320
-0.97756, 257, 201, 384, 264
-0.977629, 225, 241, 352, 368
-0.97771, 129, 129, 160, 256
-0.97784, 33, 121, 160, 184
-0.977846, 85, 113, 116, 176
-0.977849, 217, 225, 280, 288
-0.978028, 409, 169, 472, 232
-0.978049, 225, 169, 352, 232
-0.978201, 41, 121, 104, 184
-0.978232, 313, 169, 376, 232
-0.978237, 97, 81, 160, 144
-0.978438, 273, 161, 400, 224
-0.978515, 89, 113, 120, 240
-0.97856, 401, 201, 464, 264
-0.978586, 73, 97, 104, 224
-0.978656, 185, 225, 248, 288
-0.978675, 161, 225, 288, 352
-0.978931, 113, 177, 176, 240
-0.97904, 89, 65, 120, 128
-0.979281, 25, 161, 88, 224
-0.97943, 285, 201, 316, 264
-0.97946, 377, 201, 440, 264
-0.980083, 125, 121, 156, 184
-0.980205, 101, 153, 132, 216
-0.980229, 377, 225, 440, 352
-0.980316, 337, 225, 400, 288
-0.980331, 125, 153, 156, 216
-0.980768, 141, 145, 172, 208
-0.980824, 113, 185, 240, 248
-0.980871, 225, 193, 256, 320
-0.980896, 97, 49, 160, 176
-0.980981, 49, 89, 112, 152
-0.981024, 17, 161, 144, 224
-0.981091, 273, 193, 304, 320
-0.98122, 225, 193, 256, 256
-0.981325, 161, 129, 224, 256
-0.98136, 233, 241, 296, 368
-0.981365, 105, 177, 168, 304
-0.981501, 289, 225, 416, 288
-0.981562, 49, 81, 176, 144
-0.98166, 433, 177, 496, 240
-0.981777, 265, 201, 296, 264
-0.981888, 289, 193, 320, 320
-0.981894, 337, 201, 464, 264
-0.982116, 377, 225, 440, 288
-0.982209, 73, 177, 136, 240
-0.982495, 209, 177, 240, 304
-0.98251, 97, 113, 128, 176
-0.982785, 369, 225, 496, 352
-0.982805, 385, 169, 448, 232
-0.982878, 113, 153, 144, 216
-0.982989, 65, 33, 192, 160
-0.982994, 49, 169, 112, 232
-0.983283, 313, 129, 376, 256
-0.983367, 41, 65, 104, 128
-0.983402, 425, 225, 488, 288
-0.983469, 113, 153, 240, 216
-0.983589, 129, 129, 192, 372
-0.983718, 1, 73, 128, 136
-0.983782, 337, 129, 464, 256
-0.983798, 209, 225, 336, 288
-0.983865, 1, 161, 64, 224
-0.983964, 193, 193, 224, 256
-0.984001, 193, 129, 256, 256
-0.984183, 205, 185, 236, 248
-0.984241, 329, 201, 360, 264
-0.984407, 197, 177, 228, 304
-0.984442, 337, 169, 464, 232
-0.984454, 65, 33, 320, 160
-0.984558, 321, 129, 384, 372
-0.984565, 289, 249, 352, 312
-0.984644, 153, 129, 216, 372
-0.984644, 337, 169, 400, 232
-0.984681, 161, 177, 192, 304
-0.984722, 113, 65, 240, 192
-0.984745, 181, 177, 212, 304
-0.984751, 65, 177, 192, 240
-0.98483, 301, 177, 332, 304
-0.984908, 81, 121, 208, 184
-0.984939, 177, 169, 304, 232
-0.985024, 249, 201, 280, 264
-0.98506, 109, 129, 140, 192
-0.985076, 1, 81, 256, 208
-0.985245, 73, 1, 136, 372
-0.985254, 285, 169, 316, 232
-0.985266, 313, 161, 344, 224
-0.985343, 269, 145, 300, 272
-0.985399, 369, 193, 400, 320
-0.985481, 173, 169, 204, 232
-0.985485, 33, 97, 96, 224
-0.985548, 105, 145, 136, 272
-0.985646, 69, 137, 100, 200
-0.985672, 77, 17, 108, 144
-0.985871, 401, 177, 432, 304
-0.985886, 337, 225, 464, 288
-0.986029, 357, 177, 388, 304
-0.986036, 65, 73, 96, 136
-0.986061, 209, 249, 272, 312
-0.986206, 421, 177, 452, 304
-0.986266, 421, 225, 452, 288
-0.986296, 281, 241, 344, 368
-0.986299, 145, 217, 272, 280
-0.986394, 1, 129, 64, 372
-0.986413, 433, 129, 496, 256
-0.98644, 97, 49, 128, 176
-0.986492, 313, 225, 376, 352
-0.986558, 209, 241, 272, 368
-0.986576, 297, 129, 360, 372
-0.986623, 141, 129, 172, 256
-0.986731, 273, 129, 336, 372
-0.98685, 389, 193, 420, 320
-0.986913, 49, 1, 112, 372
-0.986941, 193, 169, 224, 232
-0.986962, 305, 225, 336, 288
-0.986991, 41, 161, 72, 288
-0.987195, 289, 129, 416, 256
-0.98724, 345, 225, 376, 288
-0.987245, 177, 129, 240, 372
-0.98725, 153, 169, 184, 232
-0.987262, 273, 169, 304, 232
-0.98727, 77, 145, 108, 272
-0.987316, 225, 169, 256, 232
-0.987472, 321, 225, 352, 288
-0.987494, 121, 89, 184, 152
-0.987554, 49, 33, 112, 288
-0.987646, 161, 217, 224, 280
-0.987696, 297, 161, 328, 224
-0.987699, 421, 201, 452, 264
-0.987893, 129, 129, 192, 192
-0.988051, 401, 225, 464, 352
-0.988161, 237, 193, 268, 256
-0.98817, 345, 129, 408, 372
-0.988174, 325, 161, 356, 224
-0.988286, 249, 177, 280, 240
-0.988321, 161, 241, 288, 304
-0.988327, 345, 161, 376, 224
-0.988425, 89, 161, 120, 288
-0.988448, 293, 225, 324, 288
-0.988466, 129, 81, 192, 208
-0.988475, 361, 129, 424, 256
-0.988587, 73, 97, 136, 128
-0.988592, 61, 177, 92, 304
-0.988803, 281, 145, 312, 272
-0.988877, 377, 249, 440, 312
-0.9889, 73, 109, 136, 140
-0.988916, 441, 177, 472, 304
-0.98896, 73, 85, 136, 116
-0.988972, 225, 225, 256, 288
-0.989018, 441, 201, 472, 264
-0.989044, 401, 201, 432, 264
-0.989055, 33, 161, 64, 224
-0.989063, 141, 177, 172, 240
-0.989125, 341, 201, 372, 264
-0.989179, 81, 125, 144, 156
-0.989211, 1, 97, 128, 160
-0.989237, 117, 161, 148, 288
-0.989368, 49, 173, 112, 204
-0.989388, 245, 145, 276, 272
-0.98948, 237, 169, 268, 232
-0.989515, 209, 225, 240, 288
-0.989529, 89, 57, 152, 120
-0.989556, 65, 97, 96, 160
-0.989609, 9, 113, 72, 240
-0.989649, 421, 169, 452, 232
-0.989674, 317, 201, 348, 264
-0.9897, 65, 69, 128, 100
-0.989711, 97, 141, 160, 172
-0.989726, 321, 177, 352, 304
-0.989888, 265, 249, 328, 312
-0.989929, 461, 201, 492, 264
-0.989942, 41, 129, 104, 372
-0.989946, 25, 169, 88, 200
-0.989955, 65, 49, 96, 176
-0.990042, 81, 49, 208, 112
-0.990048, 109, 81, 140, 144
-0.990078, 365, 201, 396, 264
-0.990083, 73, 161, 136, 192
-0.99017, 221, 145, 252, 272
-0.990175, 73, 177, 136, 208
-0.990207, 77, 161, 108, 224
-0.990293, 273, 209, 336, 240
-0.990297, 201, 201, 264, 232
-0.990466, 205, 161, 236, 224
-0.990466, 457, 177, 488, 240
-0.990499, 353, 201, 384, 264
-0.990506, 185, 249, 248, 312
-0.990578, 409, 225, 440, 288
-0.990636, 337, 177, 368, 304
-0.990669, 241, 225, 272, 288
-0.990672, 129, 81, 160, 208
-0.99071, 77, 41, 108, 104
-0.990801, 357, 177, 388, 240
-0.990809, 233, 205, 296, 236
-0.990852, 1, 225, 128, 352
-0.990854, 105, 161, 168, 192
-0.990857, 385, 129, 448, 256
-0.990873, 233, 145, 264, 272
-0.990882, 261, 177, 292, 240
-0.990901, 249, 129, 312, 372
-0.990912, 149, 177, 180, 304
-0.990925, 97, 89, 224, 152
-0.99093, 161, 201, 416, 264
-0.990968, 173, 193, 204, 256
-0.991027, 313, 229, 376, 260
-0.991032, 257, 241, 320, 368
-0.991041, 257, 249, 384, 312
-0.991043, 425, 177, 488, 208
-0.99106, 137, 193, 200, 224
-0.991065, 161, 197, 224, 228
-0.991081, 41, 97, 104, 128
-0.991106, 313, 249, 376, 312
-0.991109, 233, 249, 296, 312
-0.991113, 97, 109, 160, 140
-0.991141, 1, 241, 256, 368
-0.991149, 409, 129, 472, 256
-0.991177, 1, 165, 64, 196
-0.991221, 97, 181, 160, 212
-0.991238, 109, 49, 140, 176
-0.991292, 273, 237, 336, 268
-0.99131, 97, 1, 160, 372
-0.991322, 1, 153, 256, 216
-0.991338, 117, 185, 148, 248
-0.991341, 137, 257, 200, 320
-0.991396, 333, 225, 364, 288
-0.991408, 453, 193, 484, 320
-0.991476, 49, 153, 112, 184
-0.991513, 289, 161, 352, 192
-0.991599, 97, 97, 160, 128
-0.991601, 49, 109, 112, 140
-0.991608, 73, 141, 136, 172
-0.991616, 105, 129, 168, 160
-0.991631, 129, 185, 160, 248
-0.991705, 313, 217, 376, 248
-0.991767, 361, 169, 424, 232
-0.991799, 153, 181, 216, 212
-0.991847, 265, 169, 328, 200
-0.991849, 217, 241, 280, 272
-0.991852, 105, 193, 168, 224
-0.991858, 281, 225, 312, 288
-0.991868, 273, 225, 336, 256
-0.991882, 97, 209, 224, 272
-0.99189, 49, 85, 112, 116
-0.991915, 121, 149, 184, 180
-0.991944, 241, 193, 304, 224
-0.991946, 189, 129, 220, 256
-0.991953, 401, 225, 464, 256
-0.991977, 57, 121, 120, 152
-0.991989, 289, 197, 352, 228
-0.992017, 401, 177, 464, 208
-0.992024, 177, 181, 240, 212
-0.992033, 265, 197, 328, 228
-0.992055, 113, 257, 176, 320
-0.992115, 77, 65, 108, 96
-0.992116, 49, 141, 112, 172
-0.992125, 93, 89, 124, 120
-0.992127, 401, 249, 464, 312
-0.99215, 113, 241, 240, 304
-0.992165, 265, 153, 328, 216
-0.992178, 49, 185, 112, 216
-0.992182, 433, 189, 496, 220
-0.992184, 241, 217, 304, 248
-0.9922, 241, 241, 304, 272
-0.992203, 353, 241, 416, 368
-0.992206, 369, 145, 400, 272
-0.992218, 121, 181, 184, 212
-0.992221, 337, 233, 400, 264
-0.992224, 321, 145, 448, 208
-0.992227, 313, 161, 376, 192
-0.992227, 177, 221, 240, 252
-0.992232, 101, 101, 132, 132
-0.992241, 257, 145, 288, 272
-0.992262, 81, 109, 112, 140
-0.992279, 433, 225, 464, 288
-0.992286, 81, 93, 112, 124
-0.992291, 409, 237, 472, 268
-0.992314, 33, 73, 96, 104
-0.992315, 217, 229, 280, 260
-0.992321, 225, 129, 288, 372
-0.992321, 281, 253, 344, 284
-0.992322, 361, 225, 424, 256
-0.992362, 209, 249, 336, 312
-0.992363, 89, 161, 120, 192
-0.992408, 377, 237, 440, 268
-0.992431, 201, 129, 264, 372
-0.992448, 353, 249, 416, 312
-0.992463, 381, 145, 412, 272
-0.992474, 305, 173, 368, 204
-0.992482, 297, 241, 360, 272
-0.992499, 469, 177, 500, 304
-0.992506, 73, 189, 136, 220
-0.992525, 185, 225, 248, 352
-0.992538, 249, 229, 312, 260
-0.992539, 209, 253, 272, 284
-0.992545, 345, 165, 408, 196
-0.99255, 109, 113, 140, 144
-0.992557, 357, 225, 388, 288
-0.992583, 89, 141, 120, 172
-0.992594, 377, 129, 440, 372
-0.992594, 129, 121, 256, 184
-0.992607, 97, 77, 160, 108
-0.992609, 425, 221, 488, 252
-0.992614, 437, 169, 468, 232
-0.992622, 69, 173, 100, 204
-0.992623, 25, 181, 88, 212
-0.99263, 177, 129, 208, 256
-0.992634, 201, 189, 264, 220
-0.992645, 177, 209, 240, 240
-0.992654, 49, 169, 80, 232
-0.992661, 85, 77, 116, 108
-0.992661, 233, 253, 296, 284
-0.992683, 345, 213, 408, 244
-0.992691, 313, 205, 376, 236
-0.992719, 193, 241, 256, 272
-0.992727, 45, 169, 76, 200
-0.992729, 429, 173, 460, 204
-0.992739, 129, 141, 160, 172
-0.992745, 1, 177, 64, 208
-0.992761, 217, 217, 280, 248
-0.992769, 285, 205, 316, 236
-0.992772, 65, 169, 96, 232
-0.992773, 81, 173, 112, 204
-0.992778, 85, 121, 116, 152
-0.992798, 305, 249, 432, 312
-0.992804, 129, 161, 192, 192
-0.992835, 137, 129, 200, 160
-0.99284, 121, 129, 152, 160
-0.992845, 57, 169, 88, 200
-0.992861, 409, 177, 440, 240
-0.992863, 93, 173, 124, 204
-0.992882, 305, 233, 336, 264
-0.992905, 297, 129, 328, 256
-0.992906, 241, 169, 304, 200
-0.992919, 237, 241, 268, 368
-0.992925, 265, 209, 296, 240
-0.992945, 257, 253, 320, 284
-0.992954, 101, 161, 132, 192
-0.992974, 241, 201, 272, 232
-0.992984, 377, 249, 440, 280
-0.992987, 217, 177, 280, 208
-0.992988, 105, 81, 120, 144
-0.993004, 113, 161, 144, 192
-0.993016, 117, 189, 148, 220
-0.993016, 297, 205, 328, 236
-0.993021, 69, 85, 100, 116
-0.993025, 105, 129, 136, 160
-0.993027, 177, 197, 208, 228
-0.993031, 197, 197, 228, 228
-0.993035, 49, 241, 176, 304
-0.993038, 29, 165, 60, 196
-0.993041, 393, 165, 456, 196
-0.99305, 229, 201, 260, 232
-0.993051, 161, 193, 192, 224
-0.993051, 401, 213, 464, 244
-0.993061, 105, 177, 136, 208
-0.993061, 77, 161, 108, 192
-0.993062, 353, 249, 480, 312
-0.993065, 325, 221, 356, 252
-0.993074, 141, 153, 172, 184
-0.993085, 97, 65, 160, 96
-0.993096, 333, 165, 364, 196
-0.993112, 445, 225, 476, 288
-0.993113, 441, 173, 472, 204
-0.993126, 285, 165, 316, 196
-0.993131, 221, 249, 252, 312
-0.993141, 113, 257, 176, 288
-0.993141, 425, 165, 488, 196
-0.993147, 213, 201, 244, 232
-0.993149, 225, 229, 256, 260
-0.993149, 153, 221, 216, 252
-0.99316, 69, 97, 100, 128
-0.993167, 257, 225, 500, 288
-0.993179, 301, 221, 332, 252
-0.993184, 89, 241, 152, 304
-0.993188, 281, 217, 312, 248
-0.993192, 145, 149, 208, 180
-0.993192, 377, 213, 440, 244
-0.993193, 253, 205, 284, 236
-0.993201, 461, 185, 492, 216
-0.993206, 349, 165, 380, 196
-0.993207, 69, 125, 100, 156
-0.993211, 25, 157, 88, 188
-0.993212, 265, 157, 328, 188
-0.993212, 177, 185, 208, 216
-0.993213, 33, 177, 64, 208
-0.993218, 349, 233, 380, 264
-0.993218, 129, 157, 160, 188
-0.993226, 149, 193, 180, 224
-0.993228, 321, 165, 352, 196
-0.993228, 257, 33, 500, 288
-0.993228, 421, 225, 452, 256
-0.993229, 401, 237, 432, 268
-0.993231, 105, 149, 136, 180
-0.993234, 313, 205, 344, 236
-0.993235, 313, 193, 376, 224
-0.993237, 153, 209, 216, 240
-0.99324, 105, 189, 136, 220
-0.993248, 101, 77, 132, 108
-0.993251, 417, 201, 480, 232
-0.993253, 65, 73, 96, 104
-0.993257, 313, 217, 344, 248
-0.993258, 93, 185, 124, 216
-0.993259, 109, 89, 140, 120
-0.993262, 99, 73, 114, 136
-0.993269, 133, 193, 164, 224
-0.993269, 293, 237, 324, 268
-0.993271, 273, 137, 400, 200
-0.993273, 161, 241, 224, 304
-0.99328, 89, 265, 152, 328
-0.993281, 197, 181, 228, 212
-0.993285, 161, 181, 192, 212
-0.993287, 57, 181, 88, 212
-0.993294, 281, 233, 312, 264
-0.993295, 129, 233, 192, 296
-0.993297, 245, 241, 276, 272
-0.993306, 97, 117, 128, 148
-0.993309, 305, 165, 336, 196
-0.993325, 337, 229, 368, 260
-0.99333, 117, 173, 148, 204
-0.99333, 293, 193, 324, 224
-0.993332, 73, 149, 104, 180
-0.993336, 353, 245, 416, 276
-0.993336, 137, 261, 200, 292
-0.993342, 65, 113, 96, 144
-0.993346, 269, 197, 300, 228
-0.993347, 1, 49, 128, 112
-0.993348, 417, 181, 448, 212
-0.993359, 185, 253, 248, 284
-0.993359, 305, 253, 368, 284
-0.993362, 17, 169, 48, 200
-0.993364, 329, 177, 392, 208
-0.993367, 377, 181, 440, 212
-0.993367, 205, 225, 236, 256
-0.993377, 401, 253, 464, 284
-0.993382, 417, 237, 448, 268
-0.993385, 117, 149, 148, 180
-0.993386, 429, 161, 460, 192
-0.993388, 401, 225, 432, 256
-0.993391, 433, 257, 496, 288
-0.993394, 33, 121, 96, 152
-0.993402, 229, 189, 260, 220
-0.993402, 173, 173, 204, 204
-0.993403, 273, 169, 304, 200
-0.993404, 281, 193, 312, 224
-0.993407, 329, 209, 360, 240
-0.993408, 217, 181, 248, 212
-0.993412, 225, 265, 288, 296
-0.993416, 265, 245, 296, 276
-0.993418, 361, 165, 392, 196
-0.993421, 69, 137, 100, 168
-0.993434, 225, 253, 256, 284
-0.993442, 389, 241, 420, 304
-0.993443, 45, 181, 76, 212
-0.993451, 305, 253, 336, 284
-0.993455, 137, 181, 168, 212
-0.993458, 81, 185, 112, 216
-0.993466, 421, 213, 452, 244
-0.993469, 229, 217, 260, 248
-0.993473, 121, 109, 152, 140
-0.993474, 253, 193, 284, 224
-0.993475, 221, 241, 252, 272
-0.99348, 345, 217, 376, 248
-0.993481, 453, 173, 484, 204
-0.993481, 401, 189, 464, 220
-0.993484, 189, 209, 220, 240
-0.993485, 289, 153, 320, 184
-0.99349, 149, 181, 180, 212
-0.993493, 269, 221, 300, 252
-0.993493, 321, 241, 352, 272
-0.993494, 361, 237, 392, 268
-0.993498, 257, 193, 500, 256
-0.993502, 65, 193, 320, 256
-0.993503, 281, 245, 312, 276
-0.993513, 257, 265, 320, 296
-0.993516, 201, 265, 264, 296
-0.993518, 241, 181, 304, 212
-0.993522, 417, 169, 448, 200
-0.993522, 441, 221, 472, 252
-0.993525, 73, 57, 136, 88
-0.99353, 293, 253, 324, 284
-0.993533, 305, 193, 336, 224
-0.993533, 433, 241, 496, 272
-0.993534, 237, 253, 268, 284
-0.993536, 385, 245, 416, 276
-0.993538, 337, 201, 400, 232
-0.993542, 5, 161, 36, 192
-0.993543, 393, 201, 456, 232
-0.993549, 89, 65, 120, 96
-0.99355, 349, 153, 380, 184
-0.993552, 465, 201, 496, 232
-0.993552, 405, 165, 436, 196
-0.993552, 185, 173, 216, 204
-0.993554, 141, 141, 172, 172
-0.993558, 213, 253, 244, 284
-0.993563, 205, 241, 236, 272
-0.993567, 337, 257, 400, 288
-0.993573, 137, 209, 200, 272
-0.993609, 281, 265, 344, 296
-0.993615, 33, 61, 96, 92
-0.993617, 305, 265, 368, 296
-0.993624, 217, 165, 280, 196
-0.993629, 369, 165, 432, 196
-0.99363, 111, 89, 126, 152
-0.993639, 121, 113, 184, 144
-0.993658, 281, 181, 344, 212
-0.993666, 49, 225, 112, 288
-0.993674, 129, 209, 192, 240
-0.993681, 165, 129, 196, 256
-0.993685, 201, 277, 264, 308
-0.993694, 89, 253, 152, 284
-0.993697, 369, 193, 432, 224
-0.993703, 305, 277, 368, 308
-0.993703, 161, 169, 224, 200
-0.993736, 185, 165, 248, 196
-0.993748, 305, 225, 336, 352
-0.993758, 1, 261, 64, 292
-0.993758, 241, 157, 304, 188
-0.993823, 161, 225, 416, 288
-0.99384, 177, 201, 304, 232
-0.993879, 61, 97, 92, 224
-0.993883, 417, 129, 480, 372
-0.993912, 233, 1, 296, 372
-0.993914, 197, 217, 228, 280
-0.993948, 33, 129, 288, 192
-0.993962, 385, 209, 416, 272
-0.993968, 305, 249, 336, 312
-0.993999, 193, 1, 256, 372
-0.994002, 49, 265, 176, 328
-0.994005, 305, 201, 320, 264
-0.994008, 1, 173, 128, 204
-0.994028, 385, 185, 416, 248
-0.994051, 83, 65, 98, 128
-0.994127, 369, 169, 400, 232
-0.994144, 1, 241, 128, 304
-0.994213, 1, 265, 128, 328
-0.994267, 97, 169, 352, 232
-0.994289, 21, 161, 52, 224
-0.994291, 17, 185, 144, 248
-0.994291, 49, 161, 176, 192
-0.994314, 469, 177, 500, 240
-0.994317, 177, 145, 304, 208
-0.994324, 433, 153, 496, 216
-0.994326, 141, 137, 156, 200
-0.994365, 17, 265, 80, 328
-0.994372, 1, 161, 32, 288
-0.994438, 129, 177, 160, 304
-0.994451, 289, 145, 352, 208
-0.994454, 1, 241, 64, 304
-0.994464, 93, 65, 108, 128
-0.994471, 113, 225, 240, 352
-0.994503, 131, 121, 146, 184
-0.994555, 209, 129, 240, 256
-0.994569, 161, 265, 224, 328
-0.994581, 161, 265, 288, 328
-0.99461, 317, 129, 348, 256
-0.994654, 225, 209, 352, 240
-0.994665, 33, 41, 96, 104
-0.99467, 65, 137, 192, 168
-0.994715, 161, 1, 224, 372
-0.99478, 457, 225, 488, 288
-0.994793, 291, 201, 306, 264
-0.994801, 293, 249, 324, 312
-0.994804, 25, 241, 88, 304
-0.994828, 369, 233, 400, 296
-0.99485, 113, 289, 176, 352
-0.994852, 353, 129, 384, 256
-0.994871, 253, 225, 284, 288
-0.994908, 1, 137, 64, 200
-0.994912, 13, 161, 44, 288
-0.994927, 97, 265, 224, 328
-0.995002, 121, 1, 184, 372
-0.995062, 49, 225, 176, 352
-0.995089, 469, 225, 500, 288
-0.995106, 361, 1, 424, 372
-0.995149, 153, 137, 216, 200
-0.995183, 101, 153, 116, 216
-0.995207, 117, 97, 132, 160
-0.995228, 29, 161, 60, 288
-0.995257, 281, 169, 296, 232
-0.995261, 433, 249, 496, 312
-0.995276, 345, 145, 408, 208
-0.995324, 289, 1, 352, 372
-0.99533, 257, 169, 500, 232
-0.995362, 345, 161, 360, 224
-0.995367, 369, 145, 496, 208
-0.995382, 49, 173, 176, 204
-0.995382, 257, 1, 320, 372
-0.995395, 277, 201, 292, 264
-0.995408, 349, 225, 380, 352
-0.995424, 135, 153, 150, 216
-0.995427, 217, 145, 280, 208
-0.995431, 409, 1, 472, 372
-0.995431, 91, 153, 106, 216
-0.995465, 113, 201, 176, 264
-0.995467, 99, 113, 114, 176
-0.995472, 313, 161, 328, 224
-0.995474, 107, 153, 122, 216
-0.995483, 405, 249, 436, 312
-0.995488, 105, 177, 136, 240
-0.995502, 105, 121, 120, 184
-0.995505, 313, 201, 328, 264
-0.995516, 1, 153, 500, 216
-0.995518, 121, 33, 184, 288
-0.995572, 161, 193, 192, 256
-0.995603, 217, 193, 232, 256
-0.995636, 265, 241, 296, 304
-0.995639, 209, 233, 336, 264
-0.995667, 303, 161, 318, 224
-0.995676, 49, 257, 112, 320
-0.995751, 49, 97, 176, 128
-0.995751, 305, 233, 432, 264
-0.995763, 271, 201, 286, 264
-0.99577, 285, 201, 300, 264
-0.995771, 337, 161, 352, 224
-0.995786, 49, 113, 176, 144
-0.995803, 249, 201, 264, 264
-0.995807, 299, 209, 314, 272
-0.995809, 1, 201, 500, 264
-0.995831, 127, 153, 142, 216
-0.995831, 33, 217, 160, 280
-0.995835, 317, 249, 348, 312
-0.995841, 97, 189, 224, 220
-0.99586, 77, 65, 92, 128
-0.995867, 401, 225, 432, 352
-0.99588, 129, 289, 256, 352
-0.995893, 359, 161, 374, 224
-0.995896, 121, 89, 152, 152
-0.995896, 147, 137, 162, 200
-0.995915, 153, 145, 184, 208
-0.995928, 115, 153, 130, 216
-0.995943, 295, 169, 310, 232
-0.995982, 1, 289, 128, 352
-0.995991, 125, 121, 140, 184
-0.995993, 351, 161, 366, 224
-0.996002, 337, 129, 368, 256
-0.996006, 65, 125, 192, 156
-0.996008, 307, 225, 322, 288
-0.99601, 257, 229, 384, 260
-0.996014, 187, 169, 202, 232
-0.996026, 249, 241, 280, 368
-0.996033, 385, 145, 448, 208
-0.996055, 167, 169, 182, 232
-0.99608, 321, 1, 384, 372
-0.99609, 321, 161, 336, 224
-0.996111, 65, 225, 320, 288
-0.996113, 177, 217, 208, 280
-0.996113, 121, 153, 136, 216
-0.996124, 89, 105, 104, 168
-0.996172, 49, 81, 176, 112
-0.996176, 93, 129, 108, 192
-0.996184, 329, 161, 344, 224
-0.996198, 153, 129, 184, 256
-0.996203, 457, 145, 488, 272
-0.996206, 111, 121, 126, 184
-0.996211, 137, 289, 200, 352
-0.996228, 137, 121, 168, 184
-0.996236, 49, 289, 176, 352
-0.996241, 213, 169, 228, 232
-0.996251, 209, 249, 240, 312
-0.996259, 85, 137, 100, 200
-0.996263, 225, 145, 352, 208
-0.996264, 65, 149, 192, 180
-0.996272, 211, 193, 226, 256
-0.996275, 223, 193, 238, 256
-0.996287, 79, 105, 94, 168
-0.996325, 9, 185, 72, 248
-0.996352, 1, 177, 500, 240
-0.996361, 49, 189, 176, 220
-0.996377, 161, 169, 176, 232
-0.99638, 243, 193, 258, 256
-0.996396, 219, 169, 234, 232
-0.996424, 273, 169, 400, 200
-0.996425, 239, 169, 254, 232
-0.996438, 275, 177, 290, 240
-0.996456, 185, 145, 248, 208
-0.996473, 227, 169, 242, 232
-0.996477, 1, 77, 128, 108
-0.996483, 257, 273, 384, 336
-0.996489, 209, 221, 336, 252
-0.996503, 369, 177, 496, 208
-0.996519, 343, 201, 358, 264
-0.996546, 233, 249, 264, 312
-0.996552, 207, 169, 222, 232
-0.996552, 423, 225, 438, 288
-0.996562, 323, 201, 338, 264
-0.996578, 229, 193, 244, 256
-0.99659, 305, 273, 432, 336
-0.996602, 265, 201, 280, 264
-0.996612, 193, 169, 208, 232
-0.996628, 205, 193, 220, 256
-0.99664, 245, 169, 260, 232
-0.996667, 175, 169, 190, 232
-0.996673, 385, 1, 448, 372
-0.996676, 355, 201, 370, 264
-0.996695, 143, 161, 158, 224
-0.996696, 209, 281, 336, 344
-0.996697, 321, 217, 448, 248
-0.996706, 445, 201, 460, 264
-0.996713, 97, 1, 160, 256
-0.996726, 151, 161, 166, 224
-0.996739, 17, 1, 80, 372
-0.996752, 201, 169, 216, 232
-0.996754, 85, 33, 116, 288
-0.996761, 323, 225, 338, 288
-0.996764, 105, 97, 136, 352
-0.99679, 233, 169, 248, 232
-0.996801, 191, 193, 206, 256
-0.996818, 289, 177, 304, 240
-0.996844, 193, 97, 448, 224
-0.996861, 137, 113, 152, 176
-0.996865, 227, 225, 242, 288
-0.996868, 117, 129, 132, 192
-0.996872, 253, 169, 268, 232
-0.996885, 359, 225, 374, 288
-0.996891, 331, 201, 346, 264
-0.996901, 315, 225, 330, 288
-0.996912, 241, 197, 368, 228
-0.996923, 49, 69, 176, 100
-0.996937, 181, 169, 196, 232
-0.996958, 367, 169, 382, 232
-0.996958, 337, 165, 464, 196
-0.996961, 225, 245, 352, 276
-0.996972, 1, 157, 128, 188
-0.996975, 97, 177, 224, 208
-0.996997, 83, 89, 98, 120
-0.997, 259, 201, 274, 264
-0.997016, 435, 201, 450, 264
-0.997022, 9, 161, 40, 224
-0.997027, 65, 105, 320, 168
-0.997041, 193, 249, 448, 312
-0.997044, 349, 201, 364, 264
-0.997047, 79, 65, 94, 96
-0.997051, 33, 81, 288, 144
-0.997059, 347, 225, 362, 288
-0.997088, 73, 97, 104, 352
-0.997092, 197, 193, 212, 256
-0.997092, 451, 201, 466, 264
-0.997096, 317, 225, 348, 352
-0.997097, 425, 201, 440, 264
-0.997108, 93, 1, 124, 128
-0.997118, 129, 201, 256, 232
-0.997121, 353, 229, 480, 260
-0.997126, 337, 201, 352, 264
-0.997128, 413, 201, 428, 264
-0.997139, 1, 65, 128, 96
-0.997153, 329, 225, 344, 288
-0.997164, 81, 41, 96, 104
-0.997165, 89, 1, 152, 128
-0.997171, 397, 177, 428, 240
-0.997185, 235, 193, 250, 256
-0.997196, 417, 225, 432, 288
-0.997196, 221, 225, 236, 288
-0.997196, 83, 169, 98, 232
-0.997216, 269, 177, 284, 240
-0.997221, 329, 273, 392, 336
-0.997241, 245, 225, 260, 288
-0.997283, 1, 117, 128, 148
-0.997284, 473, 201, 488, 264
-0.997289, 361, 201, 376, 264
-0.997295, 433, 1, 496, 372
-0.997297, 273, 213, 400, 244
-0.997304, 93, 185, 124, 248
-0.997315, 301, 241, 316, 304
-0.997338, 161, 189, 288, 220
-0.997349, 369, 201, 384, 264
-0.997364, 259, 169, 274, 232
-0.997368, 215, 217, 230, 280
-0.997374, 353, 225, 368, 288
-0.997403, 117, 97, 148, 352
-0.997406, 123, 97, 138, 160
-0.99742, 357, 153, 388, 216
-0.997421, 35, 161, 50, 224
-0.997444, 461, 193, 476, 256
-0.997444, 413, 225, 444, 352
-0.99745, 467, 193, 482, 256
-0.997464, 101, 57, 132, 120
-0.997478, 237, 225, 252, 288
-0.997483, 115, 97, 130, 128
-0.997487, 137, 177, 152, 240
-0.99749, 439, 225, 454, 288
-0.9975, 249, 273, 312, 336
-0.997505, 89, 33, 152, 96
-0.997523, 129, 145, 384, 208
-0.997539, 43, 153, 58, 216
-0.997543, 431, 161, 446, 224
-0.997548, 281, 225, 296, 288
-0.997554, 97, 249, 352, 312
-0.997556, 91, 41, 106, 104
-0.997557, 123, 185, 138, 248
-0.997574, 1, 185, 128, 216
-0.997601, 155, 185, 170, 248
-0.997614, 103, 161, 118, 192
-0.997617, 161, 289, 224, 352
-0.997644, 441, 161, 456, 224
-0.997646, 141, 141, 156, 172
-0.997647, 93, 161, 108, 192
-0.99765, 147, 149, 162, 180
-0.99766, 71, 65, 86, 128
-0.997663, 411, 225, 426, 288
-0.997666, 365, 225, 380, 288
-0.997667, 225, 241, 256, 368
-0.997668, 157, 145, 172, 208
-0.997674, 97, 89, 112, 120
-0.997675, 473, 177, 488, 240
-0.997678, 289, 245, 416, 276
-0.997682, 25, 33, 88, 288
-0.997687, 433, 225, 448, 288
-0.99769, 289, 201, 416, 232
-0.997694, 353, 129, 384, 372
-0.997696, 1, 93, 128, 124
-0.9977, 9, 129, 40, 372
-0.997703, 447, 225, 462, 288
-0.997709, 97, 101, 224, 132
-0.997711, 345, 169, 360, 200
-0.997719, 145, 221, 272, 252
-0.997722, 291, 209, 306, 240
-0.997725, 285, 213, 300, 244
-0.997728, 185, 281, 248, 344
-0.997735, 333, 137, 364, 200
-0.997736, 97, 165, 224, 196
-0.997745, 419, 201, 434, 264
-0.997751, 359, 169, 374, 200
-0.997753, 89, 85, 104, 116
-0.997754, 17, 129, 144, 160
-0.99777, 73, 169, 88, 200
-0.997777, 103, 77, 118, 108
-0.997778, 441, 129, 472, 256
-0.997806, 277, 209, 292, 240
-0.997811, 113, 153, 240, 184
-0.997811, 89, 65, 104, 96
-0.997817, 1, 145, 128, 176
-0.997822, 103, 97, 118, 128
-0.997824, 89, 97, 104, 128
-0.997828, 431, 173, 446, 204
-0.997829, 85, 173, 100, 204
-0.997831, 225, 185, 352, 216
-0.997843, 345, 137, 376, 200
-0.997873, 131, 129, 146, 160
-0.9979, 119, 109, 134, 140
-0.9979, 97, 113, 224, 144
-0.997907, 149, 257, 180, 320
-0.997908, 105, 173, 120, 204
-0.997919, 331, 165, 346, 196
-0.997919, 321, 137, 352, 200
-0.997929, 315, 165, 330, 196
-0.997936, 357, 249, 388, 312
-0.997958, 79, 173, 94, 204
-0.997971, 353, 169, 368, 200
-0.997973, 109, 109, 124, 140
-0.997976, 257, 305, 384, 368
-0.997986, 97, 77, 112, 108
-0.997995, 397, 129, 428, 256
-0.998012, 129, 141, 256, 172
-0.998015, 299, 165, 314, 196
-0.998019, 225, 169, 352, 200
-0.998025, 161, 249, 288, 280
-0.99803, 307, 165, 322, 196
-0.998048, 109, 89, 124, 120
-0.998051, 87, 109, 102, 140
-0.998052, 109, 161, 124, 192
-0.998068, 1, 105, 128, 136
-0.998075, 307, 205, 322, 236
-0.998092, 339, 165, 354, 196
-0.998094, 421, 129, 452, 256
-0.998101, 261, 241, 292, 368
-0.998104, 67, 169, 82, 200
-0.998114, 87, 161, 102, 192
-0.998114, 73, 217, 136, 280
-0.998118, 49, 145, 80, 208
-0.99812, 161, 237, 288, 268
-0.99812, 83, 77, 98, 108
-0.998123, 57, 169, 72, 200
-0.998124, 305, 273, 368, 336
-0.998129, 245, 201, 260, 232
-0.998134, 145, 177, 272, 208
-0.998136, 241, 257, 368, 288
-0.998136, 111, 181, 126, 212
-0.998143, 181, 129, 212, 372
-0.998148, 353, 281, 480, 344
-0.998149, 441, 173, 456, 204
-0.998151, 77, 85, 92, 116
-0.998151, 137, 241, 168, 304
-0.998153, 323, 165, 338, 196
-0.998156, 353, 245, 480, 276
-0.998159, 305, 225, 320, 256
-0.998188, 329, 129, 360, 372
-0.99819, 89, 129, 104, 160
-0.998197, 95, 109, 110, 140
-0.998199, 165, 129, 196, 372
-0.998206, 99, 173, 114, 204
-0.998209, 115, 161, 130, 192
-0.998214, 273, 273, 336, 336
-0.998224, 385, 161, 416, 224
-0.998225, 281, 169, 296, 200
-0.99826, 225, 273, 288, 336
-0.998264, 305, 137, 336, 200
-0.998276, 299, 205, 314, 236
-0.998292, 43, 165, 58, 196
-0.998293, 193, 197, 208, 228
-0.998299, 61, 187, 92, 202
-0.998299, 305, 237, 320, 268
-0.9983, 217, 179, 248, 194
-0.9983, 57, 71, 88, 86
-0.998302, 405, 179, 436, 194
-0.998304, 281, 217, 312, 232
-0.998307, 91, 141, 106, 172
-0.998307, 109, 157, 140, 172
-0.998307, 273, 203, 304, 218
-0.998307, 37, 183, 68, 198
-0.998307, 321, 177, 448, 208
-0.998309, 313, 207, 344, 222
-0.998309, 73, 169, 104, 184
-0.99831, 425, 225, 456, 240
-0.99831, 33, 1, 96, 128
-0.99831, 69, 147, 100, 162
-0.998312, 461, 187, 492, 202
-0.998312, 273, 167, 304, 182
-0.998312, 209, 227, 240, 242
-0.998314, 449, 179, 480, 194
-0.998316, 315, 217, 330, 248
-0.998316, 53, 169, 84, 184
-0.998317, 65, 113, 96, 128
-0.998317, 345, 175, 376, 190
-0.998318, 401, 227, 432, 242
-0.998318, 51, 169, 66, 200
-0.998318, 41, 167, 72, 182
-0.99832, 185, 179, 216, 194
-0.998321, 91, 173, 106, 204
-0.998321, 129, 187, 160, 202
-0.998323, 65, 85, 96, 100
-0.998323, 73, 155, 104, 170
-0.998323, 97, 129, 128, 144
-0.998324, 421, 233, 452, 248
-0.998328, 57, 77, 88, 92
-0.998328, 239, 197, 254, 228
-0.998328, 65, 119, 96, 134
-0.998329, 173, 191, 204, 206
-0.99833, 245, 211, 276, 226
-0.998332, 167, 177, 182, 208
-0.998332, 101, 85, 132, 100
-0.998332, 229, 197, 260, 212
-0.998333, 285, 239, 316, 254
-0.998335, 205, 195, 236, 210
-0.998336, 93, 173, 124, 188
-0.998336, 369, 189, 496, 220
-0.998336, 287, 165, 302, 196
-0.998337, 285, 233, 316, 248
-0.998341, 201, 197, 216, 228
-0.998342, 301, 207, 332, 222
-0.998342, 421, 183, 452, 198
-0.998343, 325, 229, 356, 244
-0.998344, 221, 203, 252, 218
-0.998346, 269, 215, 300, 230
-0.998346, 69, 135, 100, 150
-0.998348, 125, 139, 156, 154
-0.998348, 265, 173, 296, 188
-0.998351, 29, 177, 60, 192
-0.998354, 65, 103, 96, 118
-0.998354, 217, 197, 248, 212
-0.998356, 357, 171, 388, 186
-0.998357, 473, 185, 488, 216
-0.998358, 113, 107, 144, 122
-0.99836, 73, 79, 104, 94
-0.99836, 93, 191, 124, 206
-0.99836, 85, 165, 116, 180
-0.99836, 313, 231, 344, 246
-0.998361, 95, 65, 110, 96
-0.998363, 105, 119, 136, 134
-0.998364, 349, 157, 364, 188
-0.998365, 105, 95, 136, 110
-0.998366, 257, 211, 288, 226
-0.998366, 5, 169, 36, 184
-0.998367, 185, 193, 216, 208
-0.998369, 341, 249, 372, 312
-0.99837, 125, 161, 156, 176
-0.998371, 117, 187, 148, 202
-0.998371, 349, 235, 380, 250
-0.998371, 207, 197, 222, 228
-0.998372, 349, 163, 380, 178
-0.998372, 105, 101, 136, 116
-0.998374, 105, 125, 120, 156
-0.998375, 365, 165, 380, 196
-0.998376, 105, 163, 136, 178
-0.998376, 33, 165, 48, 196
-0.998379, 305, 173, 336, 188
-0.998383, 289, 205, 320, 220
-0.998384, 157, 189, 188, 204
-0.998384, 145, 189, 176, 204
-0.998385, 69, 95, 100, 110
-0.998388, 129, 145, 160, 160
-0.99839, 125, 129, 140, 160
-0.99839, 273, 157, 400, 188
-0.99839, 305, 239, 336, 254
-0.998392, 89, 155, 120, 170
-0.998394, 205, 201, 236, 216
-0.998395, 117, 189, 132, 220
-0.998396, 411, 225, 426, 256
-0.998396, 225, 235, 256, 250
-0.998396, 173, 175, 204, 190
-0.998398, 133, 151, 164, 166
-0.998399, 141, 157, 172, 172
-0.9984, 289, 241, 320, 368
-0.998401, 415, 237, 430, 268
-0.998401, 333, 173, 364, 188
-0.998402, 105, 181, 136, 196
-0.998403, 193, 261, 320, 292
-0.998407, 253, 205, 284, 220
-0.998408, 113, 129, 240, 160
-0.998411, 437, 175, 468, 190
-0.998412, 81, 109, 144, 124
-0.998414, 81, 189, 112, 204
-0.998415, 89, 147, 120, 162
-0.998416, 139, 157, 154, 188
-0.998417, 233, 203, 264, 218
-0.998419, 49, 179, 80, 194
-0.998422, 173, 145, 204, 208
-0.998423, 85, 135, 116, 150
-0.998425, 111, 129, 126, 160
-0.998425, 73, 97, 136, 112
-0.998428, 293, 173, 324, 188
-0.99843, 327, 221, 342, 252
-0.998434, 317, 173, 348, 188
-0.998435, 117, 193, 148, 208
-0.998435, 149, 195, 180, 210
-0.998437, 61, 181, 92, 196
-0.99844, 85, 79, 116, 94
-0.99844, 127, 189, 142, 220
-0.99844, 173, 197, 204, 212
-0.998443, 49, 175, 112, 190
-0.998446, 159, 193, 174, 224
-0.998447, 117, 131, 148, 146
-0.998449, 317, 167, 348, 182
-0.99845, 277, 173, 308, 188
-0.998451, 301, 231, 332, 246
-0.998457, 193, 199, 224, 214
-0.998458, 85, 141, 116, 156
-0.998458, 295, 229, 310, 260
-0.998459, 187, 197, 202, 228
-0.998459, 93, 179, 124, 194
-0.998461, 169, 193, 184, 224
-0.998461, 105, 191, 136, 206
-0.998462, 161, 197, 192, 212
-0.998462, 129, 193, 160, 208
-0.998463, 177, 193, 192, 224
-0.998465, 73, 89, 136, 104
-0.998466, 99, 121, 114, 152
-0.998466, 89, 85, 120, 100
-0.998466, 85, 125, 116, 140
-0.998467, 269, 209, 300, 224
-0.998469, 289, 211, 320, 226
-0.998471, 9, 173, 72, 188
-0.998477, 109, 149, 124, 180
-0.998478, 129, 161, 144, 192
-0.998483, 65, 77, 128, 92
-0.998487, 305, 167, 336, 182
-0.998488, 105, 185, 120, 216
-0.998488, 285, 167, 316, 182
-0.998491, 81, 115, 144, 130
-0.998494, 17, 169, 48, 184
-0.998496, 153, 129, 184, 372
-0.998499, 77, 97, 92, 128
-0.998501, 117, 173, 132, 204
-0.998502, 333, 167, 364, 182
-0.998503, 41, 183, 104, 198
-0.998503, 81, 141, 96, 172
-0.998505, 73, 103, 136, 118
-0.998506, 73, 183, 104, 198
-0.998507, 77, 103, 108, 118
-0.998509, 125, 113, 140, 144
-0.99851, 73, 121, 136, 136
-0.99851, 227, 201, 242, 232
-0.998516, 81, 129, 144, 144
-0.998517, 73, 185, 136, 200
-0.998518, 345, 169, 376, 184
-0.998519, 425, 177, 440, 208
-0.998519, 277, 129, 308, 372
-0.99852, 425, 175, 456, 190
-0.998522, 81, 177, 112, 192
-0.998522, 65, 71, 128, 86
-0.998524, 213, 197, 228, 228
-0.998524, 177, 241, 208, 304
-0.998526, 105, 113, 136, 128
-0.998529, 241, 207, 304, 222
-0.998533, 73, 177, 136, 192
-0.998533, 65, 83, 128, 98
-0.998535, 317, 233, 332, 264
-0.998535, 77, 87, 108, 102
-0.998536, 121, 161, 136, 192
-0.998537, 29, 171, 60, 186
-0.998539, 193, 129, 224, 372
-0.99854, 153, 153, 168, 184
-0.998542, 85, 119, 116, 134
-0.998542, 271, 209, 286, 240
-0.998544, 285, 201, 300, 232
-0.998545, 133, 189, 148, 220
-0.998548, 193, 201, 256, 216
-0.998549, 313, 231, 376, 246
-0.99855, 81, 95, 112, 110
-0.99855, 313, 145, 376, 208
-0.998551, 145, 197, 208, 212
-0.998555, 119, 129, 134, 160
-0.998556, 347, 229, 362, 260
-0.99856, 93, 185, 124, 200
-0.99856, 313, 33, 376, 288
-0.998564, 41, 173, 72, 188
-0.998565, 273, 167, 336, 182
-0.998568, 79, 121, 94, 152
-0.998568, 81, 155, 144, 170
-0.998569, 417, 177, 480, 192
-0.998569, 105, 193, 168, 208
-0.99857, 105, 151, 168, 166
-0.99857, 313, 205, 328, 236
-0.998573, 281, 239, 344, 254
-0.998574, 273, 209, 336, 224
-0.998576, 93, 99, 124, 114
-0.998576, 251, 201, 266, 232
-0.998577, 305, 173, 368, 188
-0.998578, 257, 175, 320, 190
-0.998579, 65, 57, 320, 120
-0.998583, 169, 199, 232, 214
-0.998586, 451, 173, 466, 204
-0.998587, 219, 181, 234, 212
-0.998588, 81, 143, 144, 158
-0.998589, 257, 201, 272, 232
-0.998591, 61, 175, 92, 190
-0.998593, 135, 141, 150, 172
-0.998598, 57, 111, 120, 126
-0.998598, 131, 113, 146, 240
-0.998598, 81, 191, 144, 206
-0.998598, 305, 297, 432, 360
-0.998601, 187, 177, 202, 208
-0.998602, 217, 205, 280, 220
-0.998604, 97, 185, 160, 200
-0.998606, 105, 143, 168, 158
-0.998606, 279, 221, 294, 252
-0.998607, 97, 137, 160, 152
-0.998608, 423, 229, 438, 260
-0.99861, 129, 191, 192, 206
-0.998612, 153, 193, 168, 224
-0.998614, 105, 161, 168, 176
-0.998614, 81, 149, 144, 164
-0.998616, 161, 241, 192, 304
-0.998616, 197, 241, 228, 304
-0.998616, 93, 91, 124, 106
-0.998616, 73, 73, 88, 104
-0.998617, 197, 181, 212, 212
-0.998621, 49, 95, 112, 110
-0.998623, 241, 213, 304, 228
-0.998623, 61, 33, 92, 288
-0.998624, 73, 135, 136, 150
-0.998625, 409, 183, 472, 198
-0.998627, 221, 201, 236, 232
-0.998627, 281, 231, 344, 246
-0.998627, 17, 179, 80, 194
-0.998628, 101, 107, 132, 122
-0.998628, 297, 167, 360, 182
-0.998629, 81, 109, 112, 124
-0.998629, 225, 237, 240, 268
-0.99863, 275, 169, 290, 200
-0.998631, 97, 179, 160, 194
-0.998632, 137, 175, 200, 190
-0.998632, 147, 193, 162, 224
-0.998632, 111, 81, 126, 208
-0.998633, 97, 77, 224, 108
-0.998634, 45, 177, 60, 208
-0.998636, 433, 161, 448, 192
-0.998637, 41, 169, 104, 184
-0.998637, 81, 163, 144, 178
-0.998637, 323, 233, 338, 264
-0.998638, 213, 181, 228, 212
-0.998638, 1, 167, 64, 182
-0.998639, 321, 165, 384, 180
-0.998639, 161, 181, 176, 212
-0.99864, 293, 165, 308, 196
-0.998641, 415, 213, 430, 244
-0.998642, 357, 157, 372, 188
-0.998643, 257, 239, 320, 254
-0.998645, 297, 179, 360, 194
-0.998647, 129, 157, 192, 172
-0.998647, 249, 201, 312, 216
-0.998648, 161, 191, 224, 206
-0.998649, 137, 129, 168, 372
-0.998653, 49, 101, 112, 116
-0.998653, 297, 207, 360, 222
-0.998653, 209, 179, 272, 194
-0.998655, 361, 233, 376, 264
-0.998655, 321, 237, 384, 252
-0.998656, 49, 143, 112, 158
-0.998657, 193, 195, 256, 210
-0.998659, 263, 205, 278, 236
-0.99866, 97, 95, 160, 110
-0.99866, 49, 155, 112, 170
-0.99866, 145, 205, 208, 220
-0.998663, 105, 241, 136, 304
-0.998663, 409, 231, 472, 246
-0.998664, 409, 225, 472, 240
-0.998665, 385, 179, 448, 194
-0.998665, 49, 189, 112, 204
-0.998665, 177, 179, 240, 194
-0.998665, 77, 69, 108, 84
-0.998667, 41, 125, 104, 140
-0.998668, 1, 257, 256, 320
-0.998669, 329, 171, 392, 186
-0.998671, 361, 233, 424, 248
-0.998671, 129, 135, 192, 150
-0.998673, 105, 109, 168, 124
-0.998676, 209, 239, 272, 254
-0.998676, 281, 173, 344, 188
-0.998678, 41, 135, 104, 150
-0.998678, 433, 185, 496, 200
-0.998678, 241, 245, 304, 260
-0.99868, 97, 123, 160, 138
-0.998681, 41, 117, 104, 132
-0.998682, 377, 239, 440, 254
-0.998682, 41, 83, 104, 98
-0.998685, 97, 83, 160, 98
-0.998691, 217, 197, 280, 212
-0.998692, 65, 169, 128, 184
-0.998692, 41, 149, 104, 164
-0.998693, 105, 131, 168, 146
-0.998694, 401, 239, 464, 254
-0.998695, 177, 223, 240, 238
-0.998695, 145, 151, 208, 166
-0.998696, 33, 77, 96, 92
-0.998696, 273, 225, 336, 240
-0.998697, 217, 255, 280, 270
-0.998697, 153, 185, 216, 200
-0.998698, 241, 233, 304, 248
-0.998699, 273, 203, 336, 218
-0.998699, 281, 255, 344, 270
-0.998702, 49, 89, 112, 104
-0.998703, 85, 129, 116, 372
-0.998704, 337, 205, 464, 236
-0.998705, 433, 195, 496, 210
-0.998706, 113, 103, 176, 118
-0.998707, 217, 211, 280, 226
-0.998707, 273, 181, 336, 196
-0.998708, 297, 161, 360, 176
-0.998708, 137, 143, 200, 158
-0.998709, 241, 259, 304, 274
-0.998712, 209, 249, 272, 264
-0.998712, 97, 73, 160, 88
-0.998713, 33, 71, 96, 86
-0.998717, 209, 233, 272, 248
-0.998717, 113, 259, 176, 274
-0.998718, 123, 113, 138, 240
-0.998718, 57, 163, 120, 178
-0.998718, 17, 185, 80, 200
-0.998719, 297, 225, 360, 240
-0.998719, 169, 173, 232, 188
-0.998721, 273, 215, 336, 230
-0.998721, 329, 181, 392, 196
-0.998721, 225, 225, 288, 240
-0.998722, 345, 165, 408, 180
-0.998722, 377, 227, 440, 242
-0.998722, 297, 201, 360, 216
-0.998722, 257, 251, 320, 266
-0.998722, 97, 173, 160, 188
-0.998722, 105, 89, 168, 104
-0.998723, 273, 245, 336, 260
-0.998724, 169, 213, 232, 228
-0.998727, 361, 247, 424, 262
-0.998727, 121, 185, 184, 200
-0.998751, 289, 33, 352, 288
-0.998766, 21, 129, 52, 372
-0.998767, 1, 289, 64, 352
-0.99877, 353, 257, 480, 288
-0.998771, 369, 217, 496, 248
-0.998781, 105, 97, 120, 224
-0.998805, 91, 49, 106, 176
-0.998818, 251, 193, 266, 320
-0.998819, 1, 225, 500, 288
-0.998836, 205, 129, 236, 372
-0.998837, 87, 97, 102, 224
-0.998845, 117, 97, 132, 224
-0.998847, 99, 49, 114, 176
-0.998851, 245, 193, 260, 320
-0.998854, 81, 97, 96, 224
-0.998856, 289, 189, 416, 220
-0.998873, 261, 193, 276, 320
-0.998877, 245, 249, 276, 312
-0.998882, 193, 157, 320, 188
-0.998886, 137, 113, 152, 240
-0.998891, 93, 97, 108, 224
-0.998893, 81, 193, 144, 320
-0.998894, 81, 201, 208, 232
-0.998903, 65, 281, 128, 344
-0.998908, 469, 129, 500, 256
-0.998922, 289, 257, 416, 288
-0.998924, 425, 225, 488, 352
-0.998931, 89, 289, 152, 352
-0.998932, 61, 49, 92, 112
-0.998933, 239, 193, 254, 320
-0.998939, 81, 257, 208, 288
-0.998939, 301, 129, 332, 372
-0.998946, 267, 193, 282, 320
-0.998954, 79, 49, 94, 176
-0.998955, 111, 129, 126, 256
-0.998967, 17, 253, 144, 284
-0.998974, 117, 241, 148, 304
-0.998977, 275, 193, 290, 320
-0.998983, 97, 217, 224, 248
-0.998986, 291, 193, 306, 320
-0.998994, 41, 225, 104, 352
-0.998999, 281, 145, 312, 208
-0.999002, 409, 129, 440, 256
-0.999008, 317, 129, 348, 372
-0.999017, 117, 1, 148, 256
-0.999019, 73, 1, 104, 256
-0.999035, 99, 97, 114, 224
-0.999036, 21, 265, 52, 328
-0.999115, 85, 49, 100, 176
-0.999118, 389, 241, 420, 368
-0.999122, 73, 193, 104, 320
-0.99913, 145, 265, 272, 296
-0.999134, 285, 193, 300, 320
-0.999156, 233, 193, 248, 320
-0.999156, 149, 209, 180, 272
-0.999171, 265, 129, 296, 372
-0.99918, 53, 129, 84, 372
-0.999183, 97, 65, 224, 96
-0.999183, 113, 237, 240, 268
-0.999185, 161, 225, 224, 352
-0.999185, 285, 145, 300, 272
-0.999186, 199, 177, 214, 304
-0.999187, 413, 177, 428, 304
-0.999191, 299, 177, 314, 304
-0.999193, 89, 145, 104, 272
-0.999193, 409, 145, 472, 208
-0.999197, 187, 161, 202, 288
-0.999197, 173, 161, 188, 288
-0.9992, 193, 277, 320, 308
-0.9992, 101, 1, 132, 256
-0.999203, 193, 161, 208, 288
-0.999205, 213, 177, 228, 304
-0.999216, 375, 193, 390, 320
-0.999217, 143, 129, 158, 256
-0.999219, 417, 249, 448, 312
-0.999223, 307, 177, 322, 304
-0.999223, 341, 129, 372, 372
-0.999225, 393, 193, 408, 320
-0.99923, 177, 305, 304, 368
-0.999231, 407, 193, 422, 320
-0.999232, 181, 161, 196, 288
-0.999233, 317, 177, 332, 304
-0.999235, 41, 241, 72, 304
-0.99924, 401, 177, 416, 304
-0.99924, 387, 193, 402, 320
-0.999241, 97, 281, 352, 344
-0.999255, 9, 225, 72, 352
-0.999255, 233, 129, 264, 372
-0.999255, 381, 193, 396, 320
-0.999257, 117, 145, 132, 272
-0.999261, 167, 177, 182, 304
-0.999267, 205, 177, 220, 304
-0.999268, 365, 193, 380, 320
-0.999268, 57, 161, 72, 288
-0.999269, 353, 33, 416, 288
-0.999273, 273, 277, 400, 308
-0.999274, 355, 145, 370, 272
-0.999274, 223, 177, 238, 304
-0.999285, 365, 129, 396, 372
-0.999292, 279, 145, 294, 272
-0.999293, 365, 241, 396, 368
-0.999293, 225, 273, 480, 336
-0.999297, 363, 145, 378, 272
-0.999298, 349, 145, 364, 272
-0.999314, 97, 145, 112, 272
-0.999317, 293, 145, 308, 272
-0.999324, 357, 193, 372, 320
-0.999333, 105, 145, 120, 272
-0.999333, 323, 161, 338, 288
-0.999362, 445, 177, 460, 304
-0.999365, 353, 305, 480, 368
-0.999377, 131, 161, 146, 288
-0.999377, 161, 161, 176, 288
-0.999378, 113, 277, 240, 308
-0.999381, 65, 177, 80, 304
-0.999385, 337, 153, 464, 184
-0.999395, 247, 145, 262, 272
-0.999396, 425, 177, 440, 304
-0.9994, 369, 145, 384, 272
-0.999401, 125, 161, 140, 288
-0.999403, 439, 177, 454, 304
-0.999406, 337, 225, 368, 352
-0.999411, 419, 177, 434, 304
-0.999415, 217, 97, 248, 352
-0.999415, 333, 145, 348, 272
-0.999424, 1, 237, 128, 268
-0.99943, 149, 129, 164, 256
-0.99943, 253, 145, 268, 272
-0.999433, 453, 177, 468, 304
-0.999438, 137, 161, 152, 288
-0.999438, 97, 89, 224, 120
-0.999438, 463, 193, 478, 320
-0.999445, 129, 65, 144, 192
-0.999447, 51, 161, 66, 288
-0.999448, 353, 281, 480, 312
-0.999453, 9, 217, 72, 280
-0.999454, 401, 129, 432, 372
-0.99946, 235, 145, 250, 272
-0.999462, 339, 145, 354, 272
-0.999468, 273, 145, 288, 272
-0.999476, 377, 129, 408, 372
-0.999477, 37, 129, 68, 372
-0.999483, 123, 65, 138, 192
-0.999485, 433, 177, 448, 304
-0.999485, 83, 145, 98, 272
-0.999486, 265, 145, 280, 272
-0.999487, 73, 49, 88, 176
-0.999491, 351, 193, 366, 320
-0.999492, 73, 177, 88, 304
-0.999496, 245, 97, 276, 352
-0.999499, 309, 129, 324, 256
-0.999501, 241, 145, 256, 272
-0.999501, 259, 145, 274, 272
-0.999502, 369, 269, 496, 300
-0.999503, 105, 49, 120, 176
-0.999515, 437, 129, 468, 372
-0.999516, 315, 225, 330, 352
-0.999517, 199, 129, 214, 256
-0.999533, 207, 129, 222, 256
-0.999534, 65, 245, 192, 276
-0.999538, 289, 97, 320, 352
-0.999543, 155, 177, 170, 304
-0.999548, 299, 129, 314, 256
-0.99955, 81, 1, 96, 128
-0.999553, 385, 145, 400, 272
-0.999555, 327, 177, 342, 192
-0.999555, 221, 201, 236, 216
-0.999556, 87, 123, 102, 138
-0.999557, 289, 293, 416, 324
-0.999557, 267, 205, 282, 220
-0.999557, 93, 155, 108, 170
-0.999558, 97, 75, 112, 90
-0.999558, 289, 205, 304, 220
-0.999558, 427, 183, 442, 198
-0.999558, 147, 159, 162, 174
-0.999558, 107, 163, 122, 178
-0.999559, 485, 177, 500, 304
-0.999559, 167, 197, 182, 212
-0.999559, 1, 273, 128, 304
-0.99956, 137, 161, 152, 176
-0.999563, 295, 235, 310, 250
-0.999564, 395, 145, 410, 272
-0.999565, 93, 165, 108, 180
-0.999566, 89, 95, 104, 110
-0.999567, 433, 183, 448, 198
-0.999567, 159, 189, 174, 204
-0.999568, 179, 175, 194, 190
-0.999569, 309, 207, 324, 222
-0.99957, 101, 163, 116, 178
-0.99957, 361, 235, 376, 250
-0.999571, 375, 145, 390, 272
-0.999572, 307, 163, 322, 178
-0.999572, 145, 193, 160, 208
-0.999573, 141, 145, 156, 160
-0.999573, 167, 191, 182, 206
-0.999574, 127, 193, 142, 208
-0.999575, 89, 87, 104, 102
-0.999576, 345, 177, 360, 192
-0.999577, 315, 233, 330, 248
-0.999578, 287, 163, 302, 178
-0.999579, 107, 191, 122, 206
-0.99958, 87, 67, 102, 82
-0.99958, 107, 111, 122, 126
-0.999582, 295, 209, 310, 224
-0.999582, 89, 129, 104, 144
-0.999584, 241, 241, 256, 368
-0.999586, 193, 199, 208, 214
-0.999586, 315, 129, 330, 256
-0.999586, 311, 177, 326, 192
-0.999587, 73, 181, 88, 196
-0.999587, 241, 201, 256, 216
-0.999587, 303, 205, 318, 220
-0.999587, 261, 205, 276, 220
-0.999588, 91, 141, 106, 156
-0.999589, 41, 161, 56, 288
-0.999591, 49, 57, 176, 88
-0.999591, 325, 231, 340, 246
-0.999591, 425, 129, 456, 372
-0.999592, 137, 139, 152, 154
-0.999592, 413, 227, 428, 242
-0.999592, 351, 163, 366, 178
-0.999594, 21, 169, 36, 184
-0.999598, 251, 205, 266, 220
-0.999599, 153, 195, 168, 210
-0.999599, 65, 181, 80, 196
-0.999599, 161, 195, 176, 210
-0.999599, 111, 177, 126, 304
-0.999599, 93, 109, 108, 124
-0.9996, 113, 191, 128, 206
-0.9996, 199, 199, 214, 214
-0.9996, 119, 191, 134, 206
-0.9996, 133, 193, 148, 208
-0.999602, 173, 197, 188, 212
-0.999603, 153, 155, 168, 170
-0.999605, 97, 95, 112, 110
-0.999606, 329, 193, 344, 320
-0.999607, 167, 129, 182, 256
-0.999607, 25, 161, 40, 288
-0.999607, 79, 77, 94, 92
-0.99961, 93, 69, 108, 84
-0.99961, 367, 169, 382, 184
-0.999611, 279, 209, 294, 224
-0.999614, 179, 197, 194, 212
-0.999616, 441, 175, 456, 190
-0.999616, 5, 161, 20, 288
-0.999616, 103, 105, 118, 120
-0.999616, 185, 197, 200, 212
-0.999617, 131, 131, 146, 146
-0.999618, 279, 175, 294, 190
-0.999619, 139, 193, 154, 208
-0.999619, 79, 183, 94, 198
-0.999619, 55, 179, 70, 194
-0.999619, 213, 129, 228, 256
-0.999619, 305, 229, 320, 244
-0.99962, 353, 175, 368, 190
-0.99962, 109, 185, 124, 200
-0.99962, 305, 175, 320, 190
-0.999621, 79, 177, 94, 192
-0.999621, 407, 145, 422, 272
-0.999624, 285, 217, 300, 232
-0.999625, 33, 161, 48, 288
-0.999625, 413, 225, 428, 352
-0.999627, 289, 175, 304, 190
-0.999627, 33, 171, 48, 186
-0.99963, 321, 225, 336, 352
-0.999634, 89, 135, 104, 150
-0.999634, 61, 173, 76, 188
-0.999635, 49, 173, 64, 188
-0.999635, 321, 269, 448, 300
-0.999636, 297, 225, 312, 352
-0.999637, 185, 175, 200, 190
-0.999637, 103, 179, 118, 194
-0.999638, 401, 225, 416, 352
-0.999639, 143, 81, 158, 208
-0.999639, 143, 177, 158, 304
-0.999639, 149, 177, 164, 304
-0.999641, 229, 145, 244, 272
-0.999643, 473, 145, 488, 272
-0.999643, 17, 145, 32, 272
-0.999644, 73, 175, 88, 190
-0.999645, 65, 273, 192, 304
-0.999645, 95, 179, 110, 194
-0.999645, 101, 81, 116, 96
-0.999647, 85, 183, 100, 198
-0.999648, 147, 151, 162, 166
-0.999649, 341, 171, 356, 186
-0.999651, 11, 161, 26, 288
-0.999652, 87, 177, 102, 192
-0.999652, 101, 1, 116, 128
-0.999653, 81, 87, 96, 102
-0.999653, 435, 175, 450, 190
-0.999654, 27, 169, 42, 184
-0.999656, 111, 33, 126, 160
-0.999656, 91, 185, 106, 200
-0.999657, 219, 129, 234, 256
-0.999661, 469, 193, 484, 320
-0.999661, 209, 293, 336, 324
-0.999668, 103, 185, 118, 200
-0.999668, 43, 171, 58, 186
-0.999669, 89, 101, 104, 116
-0.999669, 477, 193, 492, 320
-0.999671, 335, 165, 350, 180
-0.999672, 389, 129, 420, 372
-0.999674, 247, 241, 262, 368
-0.999676, 285, 169, 300, 184
-0.999677, 85, 109, 100, 124
-0.999677, 295, 167, 310, 182
-0.999678, 459, 145, 474, 272
-0.999678, 75, 97, 90, 224
-0.999681, 319, 165, 334, 180
-0.999681, 361, 173, 376, 188
-0.999684, 289, 211, 304, 226
-0.999686, 313, 165, 328, 180
-0.999686, 117, 107, 132, 122
-0.999687, 95, 89, 110, 104
-0.999693, 359, 167, 374, 182
-0.999694, 111, 97, 126, 112
-0.999694, 67, 175, 82, 190
-0.999699, 105, 87, 120, 102
-0.999701, 427, 177, 442, 192
-0.999702, 83, 103, 98, 118
-0.999707, 343, 165, 358, 180
-0.999707, 79, 69, 94, 84
-0.999711, 55, 173, 70, 188
-0.999713, 361, 273, 424, 336
-0.999715, 1, 113, 500, 176
-0.999717, 297, 173, 312, 188
-0.999719, 97, 185, 112, 200
-0.999721, 329, 171, 344, 186
-0.999725, 307, 169, 322, 184
-0.999739, 377, 241, 408, 368
-0.99974, 301, 167, 316, 182
-0.999742, 83, 93, 98, 108
-0.999748, 347, 171, 362, 186
-0.999751, 49, 285, 176, 316
-0.999755, 335, 171, 350, 186
-0.999755, 353, 169, 368, 184
-0.999756, 327, 165, 342, 180
-0.99976, 225, 297, 288, 360
-0.99976, 313, 171, 328, 186
-0.999762, 145, 165, 272, 196
-0.999769, 321, 171, 336, 186
-0.999786, 145, 325, 272, 356
-0.999797, 413, 129, 444, 372
-0.999806, 25, 289, 88, 352
-0.999818, 1, 257, 500, 320
-0.999849, 369, 293, 496, 324
-0.999849, 369, 329, 496, 360
-0.999865, 97, 297, 224, 328
-0.999865, 81, 341, 208, 372
-0.999901, 1, 281, 256, 344
-0.999927, 141, 33, 172, 288
-0.999935, 209, 329, 336, 360
-0.999939, 457, 129, 488, 372
-0.999943, 233, 33, 296, 288
-0.999944, 161, 289, 288, 320
-0.999948, 33, 317, 160, 348
-0.999953, 161, 97, 288, 224
-0.99996, 1, 285, 128, 316
-0.999967, 289, 337, 416, 368
-0.99997, 225, 309, 352, 340
-0.99998, 49, 221, 176, 252
-1.00003, 145, 33, 208, 288
-1.00004, 1, 301, 128, 332
-1.00005, 145, 309, 272, 340
-1.00005, 305, 317, 432, 348
-1.00012, 1, 225, 128, 256
-1.00013, 49, 305, 176, 336
-1.00013, 341, 33, 372, 288
-1.00014, 97, 309, 224, 340
-1.00014, 369, 33, 400, 288
-1.00014, 141, 81, 172, 208
-1.00015, 65, 233, 192, 264
-1.00015, 97, 321, 224, 352
-1.00018, 1, 53, 128, 84
-1.00018, 161, 341, 288, 372
-1.00018, 225, 341, 352, 372
-1.00019, 65, 41, 128, 104
-1.0002, 261, 33, 292, 288
-1.00022, 41, 113, 72, 240
-1.00022, 369, 341, 496, 372
-1.00022, 469, 129, 500, 372
-1.00022, 257, 325, 384, 356
-1.00024, 201, 33, 264, 288
-1.00025, 369, 313, 496, 344
-1.00025, 29, 113, 60, 240
-1.00026, 97, 305, 352, 368
-1.00026, 317, 33, 348, 288
-1.00029, 321, 305, 448, 336
-1.00035, 1, 329, 128, 360
-1.00035, 17, 33, 48, 288
-1.00037, 213, 225, 244, 352
-1.00038, 1, 197, 128, 228
-1.00039, 189, 33, 220, 288
-1.00039, 353, 33, 384, 288
-1.00041, 301, 33, 332, 288
-1.00043, 5, 33, 36, 288
-1.00044, 1, 17, 128, 144
-1.00045, 161, 33, 192, 288
-1.00046, 1, 209, 128, 240
-1.00049, 129, 225, 192, 352
-1.00049, 65, 25, 192, 88
-1.0005, 49, 329, 176, 360
-1.0005, 129, 33, 160, 288
-1.00052, 1, 341, 128, 372
-1.00054, 177, 33, 208, 288
-1.00056, 225, 145, 352, 176
-1.00057, 193, 297, 448, 360
-1.00057, 273, 305, 400, 336
-1.00059, 29, 33, 60, 288
-1.0006, 273, 33, 304, 288
-1.0006, 381, 33, 412, 288
-1.00062, 321, 121, 448, 184
-1.00063, 9, 113, 40, 240
-1.00065, 201, 33, 232, 288
-1.00066, 225, 145, 480, 208
-1.00067, 49, 45, 176, 76
-1.00067, 397, 33, 428, 288
-1.00071, 329, 33, 360, 288
-1.00072, 233, 33, 264, 288
-1.00076, 273, 145, 400, 176
-1.00077, 1, 49, 500, 112
-1.00077, 41, 201, 104, 264
-1.0008, 421, 33, 452, 288
-1.00081, 105, 225, 168, 352
-1.00089, 49, 33, 80, 288
-1.00094, 17, 25, 144, 88
-1.00094, 369, 141, 496, 172
-1.00095, 1, 41, 128, 72
-1.00097, 465, 225, 496, 352
-1.00098, 1, 305, 256, 368
-1.00099, 321, 137, 448, 168
-1.001, 209, 121, 336, 184
-1.00103, 177, 137, 304, 168
-1.00104, 97, 53, 224, 84
-1.00108, 277, 241, 308, 368
-1.00108, 441, 225, 472, 352
-1.00109, 449, 33, 480, 288
-1.00111, 409, 33, 440, 288
-1.00112, 161, 105, 416, 168
-1.00114, 285, 1, 316, 256
-1.00114, 465, 33, 496, 288
-1.00121, 433, 33, 464, 288
-1.00121, 433, 281, 496, 344
-1.00124, 1, 281, 500, 344
-1.00129, 425, 225, 456, 352
-1.00129, 49, 225, 80, 352
-1.00132, 169, 33, 232, 288
-1.00135, 249, 1, 280, 256
-1.00137, 101, 193, 132, 320
-1.00138, 221, 1, 252, 256
-1.00144, 1, 73, 500, 136
-1.00147, 33, 33, 288, 96
-1.0015, 265, 129, 328, 192
-1.00151, 265, 33, 328, 288
-1.00153, 201, 225, 232, 352
-1.00155, 209, 97, 336, 224
-1.00162, 121, 33, 152, 160
-1.00163, 361, 297, 424, 360
-1.00202, 65, 1, 128, 128
-1.00205, 257, 113, 500, 176
-1.00206, 1, 1, 256, 64
-1.00208, 1, 305, 500, 368
-1.00212, 161, 17, 416, 80
-1.00212, 257, 17, 500, 80
-1.00212, 161, 41, 416, 104
-1.00212, 257, 41, 500, 104
-1.00212, 161, 65, 416, 128
-1.00212, 257, 65, 500, 128
-1.00212, 257, 89, 500, 152
-1.00213, 141, 225, 172, 352
-1.00214, 61, 225, 92, 352
-1.00216, 273, 297, 336, 360
-1.00217, 241, 137, 304, 200
-1.00223, 57, 1, 88, 128
-1.00228, 9, 225, 40, 352
-1.00231, 177, 225, 208, 352
-1.00234, 33, 1, 288, 256
-1.00234, 401, 297, 464, 360
-1.00243, 393, 273, 456, 336
-1.00247, 161, 225, 192, 352
-1.00254, 369, 121, 496, 184
-1.00255, 329, 297, 392, 360
-1.00256, 189, 225, 220, 352
-1.0026, 257, 105, 384, 168
-1.00264, 33, 225, 64, 352
-1.00264, 305, 305, 368, 368
-1.00268, 113, 57, 176, 120
-1.0027, 145, 105, 208, 168
-1.00278, 201, 305, 264, 368
-1.00284, 129, 57, 256, 120
-1.00285, 17, 1, 144, 64
-1.00285, 65, 1, 192, 64
-1.00291, 369, 1, 496, 64
-1.00291, 129, 9, 256, 72
-1.00291, 273, 9, 400, 72
-1.00291, 177, 17, 304, 80
-1.00291, 225, 17, 352, 80
-1.00291, 321, 17, 448, 80
-1.00291, 369, 25, 496, 88
-1.00291, 129, 33, 256, 96
-1.00291, 273, 33, 400, 96
-1.00291, 177, 41, 304, 104
-1.00291, 225, 41, 352, 104
-1.00291, 321, 41, 448, 104
-1.00291, 369, 49, 496, 112
-1.00291, 273, 57, 400, 120
-1.00291, 209, 65, 336, 128
-1.00291, 321, 65, 448, 128
-1.00291, 369, 73, 496, 136
-1.00291, 161, 81, 288, 144
-1.00291, 257, 81, 384, 144
-1.00291, 209, 89, 336, 152
-1.00291, 305, 89, 432, 152
-1.00291, 353, 97, 480, 160
-1.00291, 89, 209, 120, 336
-1.00298, 249, 97, 312, 224
-1.00299, 21, 225, 52, 352
-1.003, 1, 33, 64, 288
-1.00306, 249, 297, 312, 360
-1.00315, 125, 225, 156, 352
-1.00326, 453, 241, 484, 368
-1.0036, 113, 209, 144, 336
-1.00366, 1, 25, 500, 88
-1.00383, 377, 33, 440, 288
-1.00385, 1, 1, 500, 64
-1.00398, 225, 97, 256, 224
-1.00403, 401, 33, 464, 288
-1.00406, 73, 241, 136, 368
-1.00411, 373, 97, 404, 224
-1.00412, 57, 305, 120, 368
-1.00413, 73, 241, 104, 368
-1.00418, 425, 305, 488, 368
-1.00421, 285, 97, 316, 224
-1.00427, 25, 89, 88, 152
-1.00441, 153, 81, 184, 208
-1.00518, 101, 241, 132, 368
-1.0053, 337, 97, 400, 224
-1.00551, 289, 121, 352, 184
-1.00557, 113, 17, 240, 144
-1.00569, 453, 97, 484, 224
-1.00574, 433, 33, 496, 288
-1.00602, 261, 97, 292, 224
-1.00652, 385, 97, 416, 224
-1.00662, 121, 33, 184, 160
-1.00674, 393, 121, 456, 184
-1.00678, 329, 121, 392, 184
-1.00688, 433, 121, 496, 184
-1.00717, 349, 81, 380, 208
-1.00732, 133, 33, 164, 160
-1.00736, 329, 65, 360, 192
-1.00742, 217, 97, 280, 224
-1.00752, 169, 81, 200, 208
-1.00756, 53, 49, 84, 176
-1.00769, 249, 97, 280, 224
-1.00786, 105, 1, 136, 128
-1.00804, 313, 65, 344, 192
-1.00804, 273, 97, 304, 224
-1.0082, 289, 65, 352, 192
-1.00841, 301, 65, 332, 192
-1.0086, 145, 33, 176, 160
-1.0086, 181, 81, 212, 208
-1.01012, 337, 33, 464, 160
-1.01021, 161, 49, 288, 176
-1.01024, 289, 65, 416, 192
-1.01035, 353, 81, 480, 208
-1.01038, 193, 1, 320, 128
-1.01038, 241, 17, 368, 144
-1.01038, 289, 17, 416, 144
-1.01046, 193, 49, 448, 176
-1.01047, 161, 1, 416, 128
-1.01047, 257, 1, 500, 128
-1.01067, 313, 65, 376, 192
-1.01101, 25, 49, 88, 176
-1.01192, 417, 81, 480, 208
-1.01225, 361, 81, 424, 208
-1.01262, 153, 81, 216, 208
-1.01304, 257, 49, 320, 176
-1.01421, 337, 49, 400, 176
-1.01432, 177, 49, 240, 176
-1.01468, 209, 49, 272, 176
-1.01471, 401, 33, 464, 160
-1.01471, 425, 33, 488, 160
-1.01478, 161, 1, 224, 128
-1.01478, 185, 1, 248, 128
-1.01478, 209, 1, 272, 128
-1.01478, 265, 1, 328, 128
-1.01478, 353, 1, 416, 128
-1.01478, 1, 17, 64, 144
-1.01478, 233, 17, 296, 144
-1.01478, 289, 17, 352, 144
-1.01478, 313, 17, 376, 144
-1.01478, 377, 17, 440, 144
-1.01536, 385, 81, 448, 208
-1.01643, 1, 65, 64, 192
