1758
-0.459745, 1, 1, 500, 264
-0.488184, 1, 1, 500, 256
-0.511234, 161, 1, 416, 264
-0.559078, 257, 1, 500, 264
-0.566316, 65, 1, 320, 264
-0.677562, 161, 1, 416, 256
-0.72139, 257, 1, 500, 256
-0.728019, 65, 1, 320, 256
-0.874548, 193, 1, 320, 264
-0.881587, 273, 1, 400, 264
-0.883243, 193, 1, 320, 256
-0.883946, 369, 1, 496, 264
-0.884515, 145, 1, 272, 264
-0.889006, 1, 113, 500, 240
-0.889187, 97, 1, 224, 264
-0.889916, 321, 1, 448, 264
-0.889938, 17, 1, 144, 264
-0.890561, 273, 1, 400, 256
-0.893014, 369, 1, 496, 256
-0.893605, 145, 1, 272, 256
-0.898462, 97, 1, 224, 256
-0.89922, 321, 1, 448, 256
-0.899242, 17, 1, 144, 256
-0.90716, 1, 49, 500, 176
-0.931855, 97, 49, 352, 176
-0.935385, 1, 65, 256, 192
-0.935569, 225, 113, 480, 240
-0.93617, 1, 113, 256, 240
-0.941601, 257, 49, 500, 176
-0.945182, 113, 65, 240, 192
-0.9467, 193, 121, 256, 184
-0.948984, 33, 49, 160, 176
-0.950197, 241, 49, 368, 176
-0.950249, 217, 121, 280, 184
-0.950365, 169, 65, 232, 192
-0.95148, 161, 65, 288, 192
-0.951739, 433, 113, 496, 240
-0.952423, 97, 49, 160, 176
-0.95274, 201, 65, 264, 192
-0.952932, 369, 113, 496, 240
-0.953094, 217, 113, 280, 240
-0.953347, 129, 113, 384, 240
-0.953825, 401, 113, 464, 240
-0.955066, 145, 65, 208, 192
-0.955147, 17, 49, 80, 176
-0.955236, 273, 113, 336, 240
-0.95555, 353, 49, 480, 176
-0.956118, 241, 49, 304, 176
-0.956656, 241, 129, 304, 192
-0.95666, 193, 113, 320, 240
-0.958086, 241, 113, 368, 240
-0.958205, 121, 65, 184, 192
-0.958295, 321, 113, 448, 240
-0.958565, 377, 113, 440, 240
-0.958764, 81, 113, 208, 240
-0.95891, 145, 121, 208, 184
-0.958912, 73, 49, 136, 176
-0.959139, 41, 49, 104, 176
-0.959468, 305, 49, 432, 176
-0.959551, 185, 145, 248, 208
-0.960384, 153, 113, 216, 240
-0.960887, 17, 113, 144, 240
-0.962295, 273, 121, 336, 184
-0.962341, 169, 121, 232, 184
-0.962787, 337, 49, 400, 176
-0.962857, 41, 113, 104, 240
-0.963004, 417, 49, 480, 176
-0.963135, 393, 49, 456, 176
-0.963179, 353, 113, 416, 240
-0.963305, 305, 49, 368, 176
-0.963415, 209, 145, 272, 208
-0.963627, 361, 49, 424, 176
-0.964646, 193, 113, 256, 240
-0.96505, 281, 49, 344, 176
-0.965848, 1, 1, 500, 128
-0.965968, 145, 113, 272, 240
-0.966697, 241, 113, 304, 240
-0.967044, 81, 113, 144, 240
-0.968612, 9, 113, 72, 240
-0.968748, 161, 121, 288, 184
-0.969658, 197, 121, 228, 184
-0.970074, 17, 121, 80, 184
-0.970151, 1, 17, 256, 144
-0.970191, 65, 121, 128, 184
-0.971348, 105, 121, 168, 184
-0.971387, 217, 121, 248, 184
-0.971533, 113, 113, 176, 240
-0.972448, 41, 121, 104, 184
-0.973287, 313, 113, 376, 240
-0.973598, 185, 129, 216, 192
-0.973687, 249, 121, 280, 184
-0.974013, 233, 121, 264, 184
-0.974025, 417, 121, 480, 184
-0.974739, 377, 121, 440, 184
-0.974894, 329, 121, 392, 184
-0.974987, 81, 121, 208, 184
-0.975049, 161, 145, 224, 208
-0.975086, 17, 57, 80, 120
-0.975194, 209, 129, 336, 192
-0.975522, 353, 121, 416, 184
-0.976029, 305, 201, 368, 264
-0.976168, 425, 57, 488, 120
-0.976507, 297, 121, 360, 184
-0.976607, 9, 201, 72, 264
-0.976656, 89, 57, 152, 120
-0.97679, 161, 145, 288, 208
-0.976869, 169, 121, 200, 184
-0.977246, 193, 65, 224, 192
-0.977265, 273, 121, 400, 184
-0.977389, 233, 153, 296, 216
-0.977811, 17, 169, 80, 232
-0.977828, 265, 201, 328, 264
-0.977913, 233, 1, 296, 256
-0.97836, 13, 49, 44, 176
-0.978504, 241, 105, 304, 168
-0.978539, 465, 113, 496, 240
-0.978784, 289, 57, 352, 120
-0.97881, 161, 1, 224, 256
-0.979145, 141, 65, 172, 192
-0.979213, 413, 113, 444, 240
-0.979213, 401, 57, 464, 120
-0.979415, 117, 49, 148, 176
-0.979438, 217, 145, 248, 208
-0.979596, 233, 145, 264, 208
-0.979615, 229, 65, 260, 192
-0.979685, 257, 1, 320, 256
-0.979843, 201, 1, 264, 256
-0.979884, 289, 1, 352, 256
-0.97993, 241, 57, 304, 120
-0.980136, 425, 113, 456, 240
-0.980259, 417, 1, 480, 256
-0.980298, 393, 201, 456, 264
-0.980326, 265, 57, 328, 120
-0.980367, 393, 1, 456, 256
-0.980446, 213, 113, 244, 240
-0.980469, 449, 113, 480, 240
-0.98048, 1, 65, 32, 192
-0.980598, 97, 17, 224, 144
-0.980693, 181, 65, 212, 192
-0.980764, 249, 113, 280, 240
-0.980813, 41, 49, 72, 176
-0.981009, 285, 121, 316, 184
-0.981103, 105, 49, 136, 176
-0.981198, 17, 121, 144, 184
-0.9812, 401, 113, 432, 240
-0.981259, 321, 1, 384, 256
-0.981268, 209, 97, 272, 160
-0.981291, 161, 49, 192, 176
-0.981312, 65, 57, 128, 120
-0.981422, 81, 49, 112, 176
-0.981426, 437, 113, 468, 240
-0.981474, 353, 1, 416, 256
-0.981501, 213, 65, 244, 192
-0.981561, 25, 65, 56, 192
-0.981673, 41, 57, 104, 120
-0.981738, 129, 49, 160, 176
-0.981768, 269, 49, 300, 176
-0.981861, 137, 1, 200, 256
-0.981885, 193, 17, 256, 144
-0.981887, 273, 145, 336, 208
-0.98193, 201, 65, 264, 128
-0.982044, 93, 49, 124, 176
-0.982198, 105, 1, 168, 256
-0.982411, 61, 49, 92, 176
-0.982527, 353, 57, 416, 120
-0.982587, 353, 121, 480, 184
-0.982629, 249, 49, 280, 176
-0.982643, 277, 113, 308, 240
-0.982795, 169, 97, 232, 160
-0.982833, 185, 113, 216, 240
-0.982931, 261, 113, 292, 240
-0.982975, 241, 57, 368, 120
-0.982986, 153, 17, 216, 144
-0.98304, 369, 201, 432, 264
-0.983056, 201, 145, 232, 208
-0.983149, 361, 49, 392, 176
-0.983155, 33, 57, 160, 120
-0.983245, 65, 1, 128, 256
-0.983356, 33, 121, 64, 184
-0.983474, 193, 17, 320, 144
-0.983574, 45, 121, 76, 184
-0.983596, 261, 129, 292, 192
-0.983733, 329, 201, 392, 264
-0.983822, 137, 65, 200, 128
-0.983892, 401, 49, 432, 176
-0.984071, 97, 121, 128, 184
-0.984119, 333, 49, 364, 176
-0.984144, 457, 49, 488, 176
-0.984368, 429, 49, 460, 176
-0.984419, 321, 57, 384, 120
-0.984453, 353, 201, 480, 264
-0.984581, 61, 121, 92, 184
-0.984627, 385, 49, 416, 176
-0.984629, 17, 1, 80, 256
-0.984629, 109, 121, 140, 184
-0.984633, 49, 97, 112, 160
-0.984644, 97, 1, 352, 128
-0.984775, 389, 113, 420, 240
-0.984784, 157, 121, 188, 184
-0.984805, 345, 49, 376, 176
-0.984834, 369, 57, 496, 120
-0.984841, 201, 113, 232, 240
-0.984851, 377, 177, 440, 240
-0.984916, 309, 49, 340, 176
-0.984938, 73, 121, 104, 184
-0.985012, 297, 49, 328, 176
-0.985025, 417, 201, 480, 264
-0.985091, 321, 49, 352, 176
-0.985101, 469, 49, 500, 176
-0.985215, 413, 49, 444, 176
-0.98522, 137, 121, 168, 184
-0.985277, 441, 49, 472, 176
-0.985337, 21, 121, 52, 184
-0.985358, 257, 169, 320, 232
-0.98538, 433, 145, 496, 208
-0.985427, 373, 49, 404, 176
-0.985435, 5, 121, 36, 184
-0.985466, 289, 113, 320, 240
-0.985512, 49, 113, 80, 240
-0.985541, 85, 121, 116, 184
-0.98556, 113, 145, 240, 208
-0.985615, 233, 1, 296, 264
-0.985634, 89, 113, 120, 240
-0.985729, 145, 17, 272, 144
-0.985764, 105, 97, 168, 160
-0.985822, 145, 97, 208, 160
-0.985866, 121, 121, 152, 184
-0.985884, 285, 49, 316, 176
-0.985888, 305, 201, 432, 264
-0.985928, 245, 145, 276, 208
-0.985971, 49, 185, 112, 248
-0.986083, 101, 113, 132, 240
-0.986095, 161, 1, 224, 264
-0.986144, 193, 97, 320, 160
-0.986172, 185, 153, 216, 216
-0.986175, 9, 97, 72, 160
-0.986228, 265, 105, 296, 168
-0.986249, 321, 121, 352, 184
-0.986258, 41, 57, 72, 120
-0.986297, 337, 121, 368, 184
-0.986301, 169, 73, 232, 136
-0.986311, 301, 201, 332, 264
-0.986344, 353, 177, 416, 240
-0.986493, 241, 161, 368, 224
-0.986546, 73, 97, 136, 160
-0.986564, 257, 1, 320, 264
-0.986564, 241, 201, 368, 264
-0.986581, 21, 113, 52, 240
-0.986627, 437, 121, 468, 184
-0.986648, 201, 1, 264, 264
-0.98667, 289, 1, 352, 264
-0.986679, 297, 161, 360, 224
-0.986689, 469, 121, 500, 184
-0.986816, 69, 113, 100, 240
-0.986835, 305, 121, 336, 184
-0.986857, 193, 57, 320, 120
-0.986871, 417, 1, 480, 264
-0.986904, 377, 57, 440, 120
-0.986929, 393, 1, 456, 264
-0.986931, 33, 113, 64, 240
-0.986976, 377, 113, 408, 240
-0.987012, 321, 201, 352, 264
-0.987055, 41, 1, 104, 256
-0.987153, 433, 57, 464, 120
-0.987162, 273, 1, 400, 128
-0.987165, 401, 121, 432, 184
-0.987166, 193, 1, 448, 128
-0.987196, 389, 121, 420, 184
-0.987242, 169, 169, 232, 232
-0.987246, 453, 121, 484, 184
-0.987302, 361, 121, 392, 184
-0.987383, 421, 121, 452, 184
-0.987407, 321, 1, 384, 264
-0.987522, 353, 1, 416, 264
-0.987582, 289, 97, 352, 160
-0.987588, 237, 113, 268, 240
-0.987673, 373, 121, 404, 184
-0.987699, 113, 65, 176, 128
-0.987718, 349, 121, 380, 184
-0.987729, 137, 1, 200, 264
-0.98779, 337, 177, 464, 240
-0.987867, 81, 57, 208, 120
-0.987875, 401, 177, 464, 240
-0.98791, 105, 1, 168, 264
-0.988015, 165, 113, 196, 240
-0.988024, 217, 41, 280, 104
-0.988261, 457, 57, 488, 120
-0.988317, 177, 149, 240, 180
-0.988336, 393, 153, 456, 216
-0.988393, 113, 97, 240, 160
-0.988414, 177, 41, 240, 104
-0.988453, 273, 129, 304, 192
-0.988463, 313, 97, 376, 160
-0.98847, 65, 1, 128, 264
-0.988528, 9, 113, 40, 240
-0.988555, 113, 113, 144, 240
-0.988564, 433, 177, 496, 240
-0.988794, 209, 125, 272, 156
-0.9888, 329, 145, 392, 208
-0.988829, 125, 113, 156, 240
-0.9889, 161, 169, 288, 232
-0.988925, 153, 113, 184, 240
-0.989026, 321, 57, 352, 120
-0.989033, 49, 185, 176, 248
-0.989109, 1, 177, 128, 240
-0.989162, 345, 113, 376, 240
-0.989181, 129, 41, 192, 104
-0.989199, 181, 105, 212, 168
-0.989209, 37, 201, 68, 264
-0.989211, 17, 1, 80, 264
-0.989261, 137, 113, 168, 240
-0.989341, 393, 97, 456, 160
-0.989438, 369, 153, 496, 216
-0.989455, 417, 57, 448, 120
-0.989484, 117, 57, 148, 120
-0.989497, 33, 97, 160, 160
-0.989555, 365, 113, 396, 240
-0.989578, 233, 129, 296, 160
-0.989595, 417, 97, 480, 160
-0.989603, 185, 137, 248, 168
-0.989638, 337, 97, 400, 160
-0.989671, 333, 113, 364, 240
-0.989716, 17, 201, 48, 264
-0.989757, 321, 57, 448, 120
-0.98981, 273, 129, 336, 160
-0.989915, 1, 121, 256, 184
-0.989927, 201, 149, 264, 180
-0.98995, 93, 57, 124, 120
-0.990087, 469, 57, 500, 120
-0.990088, 193, 193, 320, 256
-0.990089, 265, 57, 296, 120
-0.990103, 321, 1, 448, 128
-0.990159, 213, 57, 244, 120
-0.990159, 289, 201, 320, 264
-0.990167, 305, 113, 336, 240
-0.990187, 161, 125, 224, 156
-0.990263, 201, 169, 264, 232
-0.990281, 233, 145, 296, 176
-0.990299, 129, 65, 256, 128
-0.990302, 241, 193, 304, 256
-0.990303, 1, 201, 128, 264
-0.990321, 121, 17, 184, 144
-0.990331, 369, 97, 432, 160
-0.990377, 353, 57, 384, 120
-0.990379, 41, 161, 104, 224
-0.990438, 353, 153, 416, 216
-0.990448, 89, 61, 152, 92
-0.990481, 265, 97, 328, 160
-0.990511, 41, 1, 104, 264
-0.990522, 289, 153, 416, 216
-0.990528, 145, 41, 272, 104
-0.990613, 137, 69, 200, 100
-0.990622, 233, 157, 296, 188
-0.990634, 433, 33, 496, 96
-0.990738, 241, 97, 368, 160
-0.990813, 161, 121, 416, 184
-0.990826, 209, 137, 272, 168
-0.99085, 317, 113, 348, 240
-0.990894, 265, 221, 328, 252
-0.99091, 289, 61, 352, 92
-0.990915, 393, 189, 456, 220
-0.990984, 173, 145, 204, 208
-0.991012, 201, 165, 264, 196
-0.991056, 241, 221, 304, 252
-0.991084, 41, 33, 104, 96
-0.991134, 329, 33, 392, 96
-0.99115, 405, 57, 436, 120
-0.991156, 25, 61, 88, 92
-0.99118, 153, 153, 216, 184
-0.991189, 289, 177, 416, 240
-0.991209, 65, 61, 128, 92
-0.991211, 289, 97, 416, 160
-0.991221, 433, 189, 496, 220
-0.99126, 169, 65, 200, 128
-0.99129, 177, 169, 240, 200
-0.991293, 417, 201, 448, 264
-0.991295, 201, 69, 264, 100
-0.991296, 137, 129, 200, 160
-0.991303, 257, 61, 320, 92
-0.991324, 261, 153, 292, 216
-0.991368, 329, 177, 392, 240
-0.991387, 321, 33, 448, 96
-0.991387, 273, 141, 336, 172
-0.991388, 313, 125, 376, 156
-0.9914, 185, 125, 248, 156
-0.991401, 81, 57, 112, 120
-0.991401, 405, 201, 436, 264
-0.991411, 29, 177, 60, 240
-0.991424, 17, 125, 80, 156
-0.991442, 49, 125, 112, 156
-0.991452, 153, 201, 216, 264
-0.991469, 233, 117, 296, 148
-0.991474, 193, 97, 224, 160
-0.991474, 1, 205, 64, 236
-0.991501, 33, 209, 96, 240
-0.991514, 113, 69, 176, 100
-0.991523, 233, 169, 296, 200
-0.991527, 289, 225, 352, 256
-0.991532, 301, 57, 332, 120
-0.991546, 113, 125, 176, 156
-0.991556, 73, 125, 136, 156
-0.991589, 329, 65, 392, 96
-0.991614, 257, 165, 320, 196
-0.991634, 257, 153, 320, 184
-0.991645, 13, 65, 44, 128
-0.991647, 161, 137, 224, 168
-0.991661, 369, 125, 432, 156
-0.991662, 417, 125, 480, 156
-0.991682, 337, 125, 400, 156
-0.991699, 225, 113, 256, 240
-0.991706, 1, 65, 64, 96
-0.991712, 401, 65, 464, 96
-0.991719, 389, 57, 420, 120
-0.99174, 81, 213, 144, 244
-0.991743, 337, 97, 464, 160
-0.99175, 393, 125, 456, 156
-0.99179, 153, 165, 216, 196
-0.991797, 345, 189, 408, 220
-0.991797, 313, 225, 376, 256
-0.991799, 425, 61, 488, 92
-0.991823, 1, 33, 64, 96
-0.991893, 369, 1, 496, 128
-0.991928, 425, 233, 488, 264
-0.991947, 361, 229, 424, 260
-0.991975, 49, 201, 80, 264
-0.991991, 169, 73, 232, 104
-0.992004, 337, 229, 400, 260
-0.992022, 225, 69, 288, 100
-0.992035, 433, 201, 464, 264
-0.992037, 385, 33, 448, 96
-0.992049, 245, 65, 276, 128
-0.99207, 377, 65, 440, 96
-0.992086, 49, 1, 176, 128
-0.992114, 257, 117, 320, 148
-0.992123, 369, 189, 432, 220
-0.992166, 261, 133, 292, 164
-0.992173, 177, 57, 240, 88
-0.992254, 193, 137, 224, 168
-0.992267, 113, 57, 176, 88
-0.992308, 257, 177, 320, 208
-0.992333, 353, 65, 416, 96
-0.992352, 137, 141, 200, 172
-0.992362, 137, 57, 200, 88
-0.992362, 385, 229, 448, 260
-0.992403, 57, 209, 120, 240
-0.992423, 137, 145, 200, 208
-0.992423, 433, 173, 496, 204
-0.992437, 1, 177, 32, 240
-0.992451, 105, 57, 136, 120
-0.992458, 281, 117, 344, 148
-0.992461, 217, 221, 280, 252
-0.992467, 17, 157, 80, 188
-0.992473, 233, 185, 296, 216
-0.992499, 281, 165, 344, 196
-0.992513, 333, 201, 364, 264
-0.992537, 213, 129, 244, 160
-0.992546, 49, 33, 176, 96
-0.99255, 281, 129, 312, 160
-0.992557, 345, 153, 408, 184
-0.992565, 217, 57, 280, 88
-0.992577, 245, 129, 276, 160
-0.992578, 185, 125, 216, 156
-0.99259, 1, 217, 64, 248
-0.992601, 185, 153, 216, 184
-0.992648, 261, 177, 292, 240
-0.992654, 145, 217, 208, 248
-0.99266, 281, 153, 344, 184
-0.992662, 337, 53, 400, 84
-0.992668, 197, 149, 228, 180
-0.992669, 313, 185, 376, 216
-0.992678, 105, 217, 168, 248
-0.992687, 281, 33, 344, 96
-0.992687, 305, 149, 368, 180
-0.992692, 425, 201, 488, 232
-0.992704, 281, 57, 312, 120
-0.992705, 361, 201, 424, 232
-0.992729, 221, 149, 252, 180
-0.992749, 209, 153, 240, 184
-0.992765, 321, 165, 384, 196
-0.992772, 249, 233, 312, 264
-0.992776, 73, 185, 136, 248
-0.992776, 269, 121, 300, 152
-0.992785, 361, 177, 424, 208
-0.992792, 253, 145, 284, 176
-0.992793, 217, 17, 280, 144
-0.992806, 41, 197, 104, 228
-0.992808, 1, 193, 64, 224
-0.992822, 17, 69, 48, 100
-0.992823, 105, 61, 136, 92
-0.992824, 389, 201, 420, 264
-0.992843, 385, 201, 448, 232
-0.992848, 201, 125, 232, 156
-0.992865, 233, 149, 264, 180
-0.992868, 133, 65, 164, 128
-0.99287, 469, 189, 500, 220
-0.992873, 117, 65, 148, 96
-0.992876, 273, 221, 304, 252
-0.992883, 41, 61, 72, 92
-0.99289, 113, 193, 176, 256
-0.992891, 169, 129, 200, 160
-0.992898, 409, 177, 472, 208
-0.992902, 229, 97, 260, 160
-0.992906, 289, 185, 352, 216
-0.992912, 213, 65, 244, 96
-0.992919, 41, 153, 104, 184
-0.992927, 81, 33, 144, 96
-0.992938, 233, 129, 264, 160
-0.992939, 57, 49, 120, 80
-0.992946, 193, 113, 256, 144
-0.992946, 57, 221, 120, 252
-0.992954, 169, 113, 232, 144
-0.992954, 185, 73, 216, 136
-0.99296, 129, 153, 192, 184
-0.992963, 369, 153, 432, 184
-0.992975, 193, 221, 256, 252
-0.992984, 289, 49, 352, 80
-0.992992, 353, 65, 384, 96
-0.992992, 361, 53, 424, 84
-0.992992, 269, 61, 300, 92
-0.993005, 293, 125, 324, 156
-0.993007, 213, 169, 244, 200
-0.99301, 453, 189, 484, 220
-0.99302, 29, 205, 60, 236
-0.993022, 165, 65, 196, 96
-0.993026, 269, 145, 300, 176
-0.993033, 249, 69, 280, 100
-0.993039, 297, 225, 328, 256
-0.993039, 401, 53, 464, 84
-0.993043, 197, 169, 228, 200
-0.993048, 185, 169, 216, 200
-0.993058, 365, 229, 396, 260
-0.99306, 73, 153, 136, 184
-0.993062, 17, 125, 48, 156
-0.993064, 17, 145, 80, 176
-0.993071, 289, 213, 352, 244
-0.993072, 313, 125, 344, 156
-0.993074, 245, 157, 276, 188
-0.993078, 29, 125, 60, 156
-0.993081, 393, 153, 456, 184
-0.993081, 409, 189, 440, 220
-0.993083, 133, 69, 164, 100
-0.993083, 81, 73, 144, 104
-0.993086, 313, 53, 376, 84
-0.993087, 65, 125, 96, 156
-0.993095, 5, 205, 36, 236
-0.993096, 97, 125, 128, 156
-0.993098, 345, 165, 408, 196
-0.993098, 285, 225, 316, 256
-0.993099, 261, 221, 292, 252
-0.9931, 5, 125, 36, 156
-0.993101, 433, 49, 496, 80
-0.993103, 173, 149, 204, 180
-0.993104, 417, 153, 480, 184
-0.993113, 149, 129, 180, 160
-0.993114, 77, 125, 108, 156
-0.99312, 313, 225, 344, 256
-0.993122, 89, 113, 152, 144
-0.993124, 337, 205, 400, 236
-0.993126, 397, 125, 428, 156
-0.993129, 17, 205, 48, 236
-0.99313, 81, 61, 112, 92
-0.99313, 45, 125, 76, 156
-0.993131, 109, 125, 140, 156
-0.993133, 137, 125, 168, 156
-0.993133, 377, 125, 408, 156
-0.993133, 377, 113, 440, 144
-0.993133, 191, 121, 206, 184
-0.993134, 261, 165, 292, 196
-0.993135, 137, 117, 200, 148
-0.993136, 385, 169, 448, 200
-0.993139, 321, 61, 352, 92
-0.993143, 333, 57, 364, 120
-0.993143, 425, 125, 456, 156
-0.993149, 125, 125, 156, 156
-0.993158, 33, 113, 96, 144
-0.993158, 333, 125, 364, 156
-0.993165, 281, 141, 312, 172
-0.993166, 9, 113, 72, 144
-0.993166, 305, 113, 368, 144
-0.993174, 409, 125, 440, 156
-0.993174, 337, 113, 400, 144
-0.993178, 93, 61, 124, 92
-0.993178, 337, 177, 400, 208
-0.99318, 397, 189, 428, 220
-0.993181, 461, 61, 492, 92
-0.993183, 417, 113, 480, 144
-0.993185, 349, 125, 380, 156
-0.99319, 105, 153, 168, 184
-0.993196, 457, 125, 488, 156
-0.993202, 257, 49, 320, 80
-0.993203, 433, 233, 464, 264
-0.993204, 441, 189, 472, 220
-0.993206, 5, 69, 36, 100
-0.99321, 365, 125, 396, 156
-0.993211, 437, 125, 468, 156
-0.993216, 309, 61, 340, 92
-0.993216, 469, 125, 500, 156
-0.993221, 41, 165, 104, 196
-0.993224, 273, 169, 304, 200
-0.993227, 377, 229, 408, 260
-0.993228, 365, 65, 396, 96
-0.993229, 413, 65, 444, 96
-0.993233, 433, 65, 464, 96
-0.993235, 233, 165, 264, 196
-0.993236, 225, 65, 256, 128
-0.993237, 225, 69, 256, 100
-0.993241, 265, 185, 296, 216
-0.993241, 401, 65, 432, 96
-0.993242, 281, 61, 312, 92
-0.993245, 237, 69, 268, 100
-0.993249, 145, 69, 176, 100
-0.99325, 297, 57, 328, 88
-0.993257, 93, 97, 124, 160
-0.993258, 1, 169, 64, 200
-0.99326, 385, 197, 416, 228
-0.993262, 421, 189, 452, 220
-0.993262, 241, 33, 368, 96
-0.993264, 449, 233, 480, 264
-0.993264, 93, 213, 124, 244
-0.993268, 257, 121, 288, 152
-0.993277, 201, 73, 232, 104
-0.993279, 169, 221, 232, 252
-0.99328, 81, 161, 144, 224
-0.993281, 389, 65, 420, 96
-0.993282, 41, 209, 72, 240
-0.993285, 385, 185, 416, 216
-0.993291, 77, 209, 108, 240
-0.993305, 365, 189, 396, 220
-0.993306, 189, 77, 220, 108
-0.993319, 469, 173, 500, 204
-0.993323, 377, 69, 408, 100
-0.993341, 61, 65, 92, 96
-0.993344, 361, 33, 424, 96
-0.993347, 461, 233, 492, 264
-0.993348, 177, 69, 208, 100
-0.99335, 445, 65, 476, 96
-0.993352, 325, 225, 356, 256
-0.993352, 253, 177, 284, 208
-0.993352, 193, 33, 320, 96
-0.993356, 281, 157, 312, 188
-0.993357, 341, 69, 372, 100
-0.993361, 5, 201, 36, 264
-0.993369, 249, 221, 280, 252
-0.993369, 337, 221, 368, 252
-0.993371, 373, 57, 404, 120
-0.993372, 353, 185, 384, 216
-0.993373, 173, 161, 204, 192
-0.993377, 53, 57, 84, 120
-0.993382, 389, 229, 420, 260
-0.993384, 197, 169, 228, 232
-0.993388, 177, 145, 304, 176
-0.993388, 193, 17, 224, 144
-0.993392, 29, 61, 60, 92
-0.993393, 25, 217, 56, 248
-0.993403, 341, 185, 372, 216
-0.993404, 229, 57, 260, 88
-0.993416, 341, 53, 372, 84
-0.993422, 257, 33, 320, 96
-0.993427, 209, 141, 240, 172
-0.99343, 213, 117, 244, 148
-0.993431, 469, 201, 500, 232
-0.993436, 405, 229, 436, 260
-0.993437, 273, 153, 304, 216
-0.993438, 317, 149, 348, 180
-0.993446, 189, 61, 220, 92
-0.993449, 133, 57, 164, 88
-0.993495, 213, 17, 244, 144
-0.993524, 145, 193, 272, 256
-0.993566, 53, 97, 84, 160
-0.993626, 201, 129, 216, 192
-0.993629, 305, 33, 368, 96
-0.993698, 1, 65, 32, 128
-0.993729, 65, 57, 96, 120
-0.993744, 409, 33, 472, 96
-0.993754, 219, 121, 234, 184
-0.993763, 445, 57, 476, 120
-0.99377, 227, 121, 242, 184
-0.993777, 169, 97, 200, 160
-0.993839, 239, 121, 254, 184
-0.993875, 81, 97, 112, 160
-0.993875, 109, 97, 140, 160
-0.993887, 289, 97, 320, 160
-0.993899, 257, 121, 500, 184
-0.993905, 1, 33, 128, 96
-0.993907, 65, 145, 320, 208
-0.993914, 397, 177, 428, 240
-0.993935, 369, 33, 496, 96
-0.99394, 233, 121, 248, 184
-0.993951, 41, 97, 72, 160
-0.993966, 17, 97, 48, 160
-0.994033, 207, 137, 222, 200
-0.994059, 5, 97, 36, 160
-0.994158, 153, 41, 216, 104
-0.99417, 213, 97, 244, 160
-0.994191, 41, 177, 72, 240
-0.994218, 381, 177, 412, 240
-0.994246, 157, 97, 188, 160
-0.994284, 273, 1, 336, 128
-0.994398, 247, 121, 262, 184
-0.99443, 185, 121, 200, 184
-0.994458, 257, 121, 272, 184
-0.994474, 193, 129, 320, 160
-0.994476, 29, 97, 60, 160
-0.994492, 65, 97, 96, 160
-0.994551, 9, 145, 72, 208
-0.994556, 241, 97, 272, 160
-0.994646, 353, 201, 384, 264
-0.994646, 377, 201, 408, 264
-0.994666, 161, 145, 416, 208
-0.994701, 273, 185, 304, 248
-0.994705, 105, 33, 168, 96
-0.994717, 179, 121, 194, 184
-0.994757, 193, 57, 448, 120
-0.994765, 29, 57, 60, 120
-0.994868, 97, 33, 224, 96
-0.994877, 241, 125, 368, 156
-0.99489, 369, 153, 400, 216
-0.994903, 213, 121, 228, 184
-0.995058, 33, 145, 160, 208
-0.99506, 145, 65, 176, 128
-0.995064, 225, 17, 256, 144
-0.995089, 201, 65, 232, 128
-0.995143, 137, 97, 168, 160
-0.995155, 233, 145, 248, 208
-0.995174, 129, 201, 384, 264
-0.995196, 425, 177, 456, 240
-0.995215, 17, 177, 48, 240
-0.995236, 233, 41, 264, 104
-0.995246, 249, 169, 280, 232
-0.995251, 121, 97, 152, 160
-0.995259, 453, 145, 484, 208
-0.99527, 217, 145, 232, 208
-0.995284, 189, 49, 220, 112
-0.995311, 1, 1, 128, 128
-0.995321, 469, 145, 500, 208
-0.995323, 157, 65, 188, 128
-0.995337, 365, 185, 396, 248
-0.99537, 177, 157, 304, 188
-0.995371, 445, 201, 476, 264
-0.995375, 301, 97, 332, 160
-0.995384, 263, 129, 278, 192
-0.995386, 239, 145, 254, 208
-0.995461, 1, 121, 500, 184
-0.995474, 145, 129, 272, 160
-0.995511, 1, 57, 256, 120
-0.995531, 81, 65, 208, 96
-0.995546, 129, 153, 256, 184
-0.995555, 469, 185, 500, 248
-0.995592, 189, 145, 204, 208
-0.995659, 225, 149, 352, 180
-0.995659, 1, 169, 500, 232
-0.995672, 73, 1, 136, 128
-0.995672, 193, 69, 320, 100
-0.995685, 207, 113, 222, 176
-0.9957, 97, 125, 224, 156
-0.995708, 195, 145, 210, 208
-0.995708, 241, 61, 368, 92
-0.995742, 381, 153, 412, 216
-0.995791, 177, 169, 304, 200
-0.995793, 349, 177, 380, 240
-0.995807, 401, 1, 464, 128
-0.99582, 369, 189, 496, 220
-0.995837, 17, 61, 144, 92
-0.995871, 63, 121, 78, 184
-0.995873, 47, 121, 62, 184
-0.995898, 289, 121, 304, 184
-0.99594, 57, 121, 72, 184
-0.995965, 173, 17, 204, 144
-0.99597, 289, 125, 416, 156
-0.995983, 103, 121, 118, 184
-0.996008, 173, 121, 188, 184
-0.996016, 65, 97, 320, 160
-0.996026, 227, 145, 242, 208
-0.996048, 241, 137, 368, 168
-0.996061, 41, 121, 56, 184
-0.996068, 329, 1, 392, 128
-0.99608, 257, 201, 500, 264
-0.996101, 109, 121, 124, 184
-0.99612, 69, 121, 84, 184
-0.996132, 115, 121, 130, 184
-0.996135, 89, 121, 104, 184
-0.996162, 33, 121, 48, 184
-0.996163, 95, 121, 110, 184
-0.996168, 315, 201, 330, 264
-0.996187, 79, 121, 94, 184
-0.996211, 177, 193, 240, 256
-0.996227, 25, 121, 40, 184
-0.996227, 121, 121, 136, 184
-0.996264, 305, 1, 368, 128
-0.996265, 1, 57, 500, 120
-0.996293, 129, 121, 144, 184
-0.996294, 1, 209, 128, 240
-0.996309, 151, 121, 166, 184
-0.996316, 241, 221, 368, 252
-0.996321, 161, 121, 176, 184
-0.996333, 19, 121, 34, 184
-0.996363, 335, 121, 350, 184
-0.996372, 49, 125, 176, 156
-0.996394, 167, 121, 182, 184
-0.996398, 257, 177, 500, 240
-0.996422, 13, 121, 28, 184
-0.996444, 307, 201, 322, 264
-0.996449, 465, 121, 480, 184
-0.996455, 135, 121, 150, 184
-0.996456, 433, 1, 496, 128
-0.996499, 323, 121, 338, 184
-0.996513, 479, 121, 494, 184
-0.996521, 369, 1, 432, 128
-0.996534, 145, 121, 160, 184
-0.996543, 425, 121, 440, 184
-0.996552, 1, 193, 256, 256
-0.996554, 329, 121, 344, 184
-0.996559, 485, 121, 500, 184
-0.996561, 353, 125, 480, 156
-0.996569, 283, 129, 298, 192
-0.996571, 1, 145, 500, 208
-0.996598, 1, 125, 128, 156
-0.996609, 347, 121, 362, 184
-0.996623, 49, 201, 64, 264
-0.996638, 3, 121, 18, 184
-0.996643, 473, 121, 488, 184
-0.996659, 453, 121, 468, 184
-0.996679, 419, 121, 434, 184
-0.996682, 245, 145, 260, 208
-0.996689, 193, 221, 320, 252
-0.996691, 341, 121, 356, 184
-0.996706, 353, 121, 368, 184
-0.996715, 275, 145, 290, 208
-0.996716, 433, 121, 448, 184
-0.996716, 439, 121, 454, 184
-0.996722, 129, 73, 256, 104
-0.996722, 389, 121, 404, 184
-0.996727, 317, 121, 332, 184
-0.996728, 381, 121, 396, 184
-0.996729, 459, 121, 474, 184
-0.996752, 375, 121, 390, 184
-0.996758, 367, 121, 382, 184
-0.996762, 445, 121, 460, 184
-0.996763, 257, 165, 384, 196
-0.996771, 411, 121, 426, 184
-0.996798, 419, 57, 434, 120
-0.996819, 403, 121, 418, 184
-0.996826, 237, 17, 268, 144
-0.996831, 97, 65, 352, 128
-0.996832, 467, 57, 482, 120
-0.996843, 361, 121, 376, 184
-0.996858, 303, 121, 318, 184
-0.996875, 207, 137, 222, 168
-0.996879, 311, 121, 326, 184
-0.996882, 105, 145, 168, 208
-0.996913, 161, 169, 416, 232
-0.996931, 321, 189, 448, 220
-0.99694, 297, 121, 312, 184
-0.99694, 321, 201, 336, 264
-0.996969, 127, 57, 142, 120
-0.996971, 395, 121, 410, 184
-0.996977, 161, 97, 416, 160
-0.996982, 129, 141, 256, 172
-0.997002, 43, 201, 58, 264
-0.997022, 129, 165, 256, 196
-0.997045, 289, 225, 416, 256
-0.997053, 251, 145, 266, 208
-0.997057, 81, 153, 208, 184
-0.997061, 257, 185, 384, 216
-0.997062, 327, 201, 342, 264
-0.997079, 197, 105, 212, 168
-0.997082, 217, 193, 280, 256
-0.997108, 23, 201, 38, 264
-0.997108, 55, 201, 70, 264
-0.997115, 271, 57, 286, 120
-0.997138, 399, 57, 414, 120
-0.997155, 93, 57, 108, 120
-0.997158, 269, 145, 284, 208
-0.997163, 433, 57, 448, 120
-0.997168, 257, 145, 500, 208
-0.997177, 149, 17, 180, 144
-0.997192, 301, 201, 316, 264
-0.997196, 43, 57, 58, 120
-0.997203, 269, 113, 284, 176
-0.997212, 183, 145, 198, 208
-0.997224, 97, 193, 224, 256
-0.997228, 353, 65, 480, 96
-0.99723, 49, 57, 64, 120
-0.997234, 25, 17, 56, 144
-0.997243, 369, 233, 496, 264
-0.997249, 257, 97, 272, 160
-0.997263, 473, 57, 488, 120
-0.997277, 161, 57, 288, 88
-0.997278, 485, 57, 500, 120
-0.997284, 37, 201, 52, 264
-0.997288, 441, 57, 456, 120
-0.997311, 273, 185, 288, 248
-0.997316, 231, 57, 246, 120
-0.997321, 335, 57, 350, 120
-0.997332, 261, 1, 292, 256
-0.997335, 367, 57, 382, 120
-0.997338, 97, 169, 224, 232
-0.997345, 257, 145, 272, 208
-0.997367, 297, 57, 312, 120
-0.99737, 55, 57, 70, 120
-0.997378, 245, 1, 276, 256
-0.997379, 205, 125, 220, 156
-0.997379, 287, 57, 302, 120
-0.997384, 211, 161, 226, 224
-0.997394, 197, 125, 212, 156
-0.997397, 107, 57, 122, 120
-0.997402, 457, 1, 488, 256
-0.997406, 17, 193, 32, 256
-0.997411, 81, 213, 208, 244
-0.997436, 435, 201, 450, 264
-0.997449, 97, 33, 352, 96
-0.99745, 201, 153, 216, 216
-0.997462, 317, 57, 332, 120
-0.997468, 257, 125, 272, 156
-0.997472, 181, 1, 212, 256
-0.997473, 121, 57, 136, 120
-0.997474, 413, 1, 444, 256
-0.997488, 31, 201, 46, 264
-0.99749, 285, 1, 316, 256
-0.997491, 161, 1, 192, 256
-0.997503, 447, 57, 462, 120
-0.997512, 461, 57, 476, 120
-0.997518, 469, 1, 500, 256
-0.997537, 441, 1, 472, 256
-0.99754, 281, 57, 296, 120
-0.997541, 217, 129, 232, 160
-0.997542, 425, 1, 456, 256
-0.997547, 305, 1, 336, 256
-0.997547, 393, 1, 424, 256
-0.997552, 333, 201, 348, 264
-0.997552, 193, 117, 320, 148
-0.997555, 321, 1, 352, 256
-0.997585, 425, 201, 440, 264
-0.997594, 79, 57, 94, 120
-0.997597, 405, 201, 420, 264
-0.997597, 149, 1, 180, 256
-0.997609, 1, 169, 256, 232
-0.997614, 273, 1, 304, 256
-0.997618, 373, 1, 404, 256
-0.997622, 197, 73, 212, 136
-0.997631, 113, 57, 128, 120
-0.997646, 337, 1, 368, 256
-0.997648, 273, 153, 400, 184
-0.997652, 201, 137, 216, 168
-0.997655, 1, 201, 500, 264
-0.997656, 233, 1, 264, 256
-0.997657, 289, 125, 304, 156
-0.997666, 189, 145, 204, 176
-0.997667, 289, 61, 416, 92
-0.997689, 213, 149, 228, 180
-0.997697, 353, 1, 384, 256
-0.997698, 1, 17, 32, 144
-0.997699, 221, 1, 252, 256
-0.997709, 191, 129, 206, 160
-0.997711, 193, 1, 224, 256
-0.99774, 17, 197, 144, 228
-0.997749, 203, 157, 218, 188
-0.997759, 369, 173, 496, 204
-0.997768, 283, 133, 298, 164
-0.997771, 259, 141, 274, 172
-0.997809, 97, 1, 160, 128
-0.997828, 209, 1, 240, 256
-0.997831, 133, 1, 164, 256
-0.997839, 113, 53, 240, 84
-0.997887, 305, 177, 432, 208
-0.997891, 279, 145, 294, 176
-0.997895, 33, 153, 160, 184
-0.997899, 93, 1, 124, 256
-0.997902, 263, 129, 278, 160
-0.997903, 223, 149, 238, 180
-0.997915, 251, 125, 266, 156
-0.997931, 127, 65, 142, 96
-0.997945, 369, 201, 496, 232
-0.997969, 211, 125, 226, 156
-0.99797, 105, 1, 136, 256
-0.997981, 121, 1, 152, 256
-0.99799, 145, 117, 272, 148
-0.998008, 181, 129, 196, 160
-0.998025, 277, 133, 292, 164
-0.998034, 19, 69, 34, 100
-0.998034, 145, 217, 272, 248
-0.998038, 233, 149, 248, 180
-0.998038, 31, 205, 46, 236
-0.998043, 195, 141, 210, 172
-0.99806, 241, 113, 368, 144
-0.998071, 275, 221, 290, 252
-0.998078, 17, 1, 48, 256
-0.998086, 111, 61, 126, 92
-0.998088, 241, 125, 256, 156
-0.998088, 321, 201, 448, 232
-0.998094, 77, 1, 108, 256
-0.998095, 467, 189, 482, 220
-0.998118, 37, 1, 68, 256
-0.998122, 353, 53, 480, 84
-0.998122, 479, 189, 494, 220
-0.998125, 81, 137, 208, 168
-0.998133, 39, 205, 54, 236
-0.998157, 485, 189, 500, 220
-0.99816, 91, 61, 106, 92
-0.998165, 337, 153, 464, 184
-0.998174, 257, 97, 500, 160
-0.998184, 39, 65, 54, 96
-0.998184, 225, 33, 480, 96
-0.998211, 235, 125, 250, 156
-0.998225, 229, 129, 244, 160
-0.998225, 229, 65, 244, 96
-0.998231, 275, 165, 290, 196
-0.998241, 253, 141, 268, 172
-0.998246, 53, 125, 68, 156
-0.998253, 101, 125, 116, 156
-0.998256, 197, 153, 212, 184
-0.998263, 33, 125, 48, 156
-0.998266, 209, 169, 224, 200
-0.998267, 27, 125, 42, 156
-0.998271, 319, 125, 334, 156
-0.998271, 241, 153, 256, 184
-0.998273, 313, 225, 328, 256
-0.998277, 21, 125, 36, 156
-0.99828, 27, 69, 42, 100
-0.998284, 281, 221, 296, 252
-0.998291, 65, 125, 80, 156
-0.998296, 209, 185, 336, 216
-0.998301, 3, 125, 18, 156
-0.998303, 215, 165, 230, 196
-0.998304, 461, 189, 476, 220
-0.998307, 143, 125, 158, 156
-0.99831, 113, 125, 128, 156
-0.99831, 473, 189, 488, 220
-0.998312, 287, 221, 302, 252
-0.998314, 85, 125, 100, 156
-0.998317, 223, 65, 238, 96
-0.998318, 381, 229, 396, 260
-0.998319, 97, 61, 112, 92
-0.998322, 197, 169, 212, 200
-0.998326, 249, 157, 264, 188
-0.998326, 59, 125, 74, 156
-0.998328, 47, 125, 62, 156
-0.998329, 77, 125, 92, 156
-0.99833, 175, 129, 190, 160
-0.998331, 71, 125, 86, 156
-0.998335, 469, 61, 484, 92
-0.998336, 39, 125, 54, 156
-0.998338, 295, 125, 310, 156
-0.998341, 225, 233, 352, 264
-0.998343, 269, 187, 300, 202
-0.998344, 301, 125, 316, 156
-0.998344, 437, 127, 468, 142
-0.998345, 337, 127, 368, 142
-0.998345, 331, 125, 346, 156
-0.998345, 333, 63, 364, 78
-0.998345, 109, 217, 140, 232
-0.998346, 341, 169, 372, 184
-0.998346, 223, 129, 238, 160
-0.998347, 221, 129, 252, 144
-0.998349, 321, 227, 352, 242
-0.998349, 453, 65, 484, 80
-0.998349, 189, 79, 220, 94
-0.99835, 381, 127, 412, 142
-0.99835, 405, 129, 436, 144
-0.998351, 5, 1, 36, 256
-0.998351, 305, 49, 432, 80
-0.998352, 289, 167, 320, 182
-0.998352, 453, 185, 484, 200
-0.998352, 77, 129, 108, 144
-0.998352, 123, 125, 138, 156
-0.998353, 369, 129, 400, 144
-0.998354, 405, 125, 420, 156
-0.998355, 333, 61, 348, 92
-0.998356, 233, 129, 264, 144
-0.998357, 93, 129, 124, 144
-0.998357, 337, 221, 464, 252
-0.998357, 305, 129, 336, 144
-0.998358, 13, 125, 28, 156
-0.998358, 309, 227, 340, 242
-0.998358, 113, 129, 144, 144
-0.998358, 465, 127, 496, 142
-0.998359, 53, 129, 84, 144
-0.998359, 89, 215, 120, 230
-0.998359, 65, 129, 96, 144
-0.99836, 385, 125, 400, 156
-0.99836, 165, 129, 196, 144
-0.99836, 307, 125, 322, 156
-0.998361, 37, 129, 68, 144
-0.998361, 129, 129, 160, 144
-0.998361, 397, 185, 428, 200
-0.998361, 329, 169, 360, 184
-0.998361, 149, 129, 180, 144
-0.998361, 169, 125, 184, 156
-0.998362, 425, 127, 456, 142
-0.998363, 9, 129, 40, 144
-0.998363, 197, 129, 228, 144
-0.998364, 129, 125, 144, 156
-0.998365, 95, 125, 110, 156
-0.998366, 433, 185, 464, 200
-0.998366, 277, 163, 308, 178
-0.998367, 405, 179, 436, 194
-0.998368, 25, 129, 56, 144
-0.998368, 121, 73, 152, 88
-0.99837, 429, 201, 460, 216
-0.99837, 257, 135, 288, 150
-0.998371, 465, 185, 496, 200
-0.998371, 271, 61, 286, 92
-0.998372, 265, 141, 280, 172
-0.998372, 213, 139, 244, 154
-0.998372, 365, 67, 396, 82
-0.998373, 171, 65, 186, 96
-0.998373, 293, 129, 324, 144
-0.998374, 107, 125, 122, 156
-0.998375, 145, 69, 160, 100
-0.998376, 313, 125, 328, 156
-0.998376, 341, 125, 356, 156
-0.998376, 5, 71, 36, 86
-0.998377, 377, 185, 408, 200
-0.998378, 277, 149, 308, 164
-0.998379, 413, 67, 444, 82
-0.998379, 369, 113, 496, 144
-0.998379, 33, 67, 64, 82
-0.99838, 249, 159, 280, 174
-0.998382, 417, 201, 448, 216
-0.998383, 365, 185, 396, 200
-0.998384, 237, 69, 268, 84
-0.998386, 413, 185, 444, 200
-0.998387, 161, 129, 176, 160
-0.998387, 181, 145, 212, 160
-0.998387, 401, 201, 432, 216
-0.998388, 189, 69, 220, 84
-0.998388, 205, 71, 236, 86
-0.998388, 225, 169, 256, 184
-0.998388, 273, 185, 288, 216
-0.998389, 441, 203, 472, 218
-0.998391, 425, 125, 440, 156
-0.998392, 317, 173, 348, 188
-0.998392, 229, 75, 260, 90
-0.998393, 153, 69, 184, 84
-0.998393, 17, 211, 48, 226
-0.998396, 265, 167, 296, 182
-0.998396, 295, 225, 310, 256
-0.998397, 233, 161, 264, 176
-0.998398, 25, 205, 40, 236
-0.998399, 333, 179, 364, 194
-0.9984, 419, 125, 434, 156
-0.9984, 281, 143, 312, 158
-0.998401, 37, 211, 68, 226
-0.998401, 255, 153, 270, 184
-0.998401, 85, 65, 116, 80
-0.998401, 5, 209, 36, 224
-0.998402, 397, 67, 428, 82
-0.998402, 169, 149, 200, 164
-0.998403, 345, 179, 376, 194
-0.998403, 133, 71, 164, 86
-0.998407, 401, 197, 416, 228
-0.998408, 315, 57, 330, 88
-0.998409, 65, 1, 96, 256
-0.998409, 203, 173, 218, 204
-0.998411, 53, 1, 84, 256
-0.998413, 349, 125, 364, 156
-0.998413, 93, 209, 108, 240
-0.998415, 269, 221, 284, 252
-0.998415, 105, 63, 136, 78
-0.998418, 453, 203, 484, 218
-0.998419, 305, 61, 336, 76
-0.99842, 237, 169, 268, 184
-0.99842, 325, 125, 340, 156
-0.99842, 221, 163, 252, 178
-0.99842, 189, 157, 204, 188
-0.998421, 1, 205, 16, 236
-0.998421, 361, 179, 392, 194
-0.998422, 369, 125, 384, 156
-0.998424, 151, 125, 166, 156
-0.998424, 373, 179, 404, 194
-0.998426, 465, 203, 496, 218
-0.998427, 177, 167, 208, 182
-0.998428, 433, 65, 464, 80
-0.998428, 209, 129, 240, 144
-0.998429, 183, 69, 198, 100
-0.99843, 249, 177, 280, 192
-0.998431, 177, 151, 240, 166
-0.998433, 185, 153, 216, 168
-0.998433, 49, 57, 64, 88
-0.998435, 293, 179, 324, 194
-0.998436, 265, 151, 296, 166
-0.998437, 305, 173, 336, 188
-0.998437, 121, 67, 152, 82
-0.998438, 249, 69, 264, 100
-0.998438, 379, 125, 394, 156
-0.99844, 183, 149, 198, 180
-0.998443, 177, 159, 240, 174
-0.998444, 465, 65, 496, 80
-0.998445, 185, 145, 248, 160
-0.998445, 413, 125, 428, 156
-0.998445, 185, 129, 216, 144
-0.998446, 307, 225, 322, 256
-0.998446, 201, 159, 232, 174
-0.998447, 201, 169, 232, 184
-0.998448, 391, 125, 406, 156
-0.998448, 321, 179, 352, 194
-0.998449, 45, 61, 76, 76
-0.998449, 441, 189, 456, 220
-0.99845, 197, 137, 228, 152
-0.998451, 253, 153, 284, 168
-0.998451, 245, 143, 276, 158
-0.998452, 305, 179, 336, 194
-0.998452, 163, 69, 178, 100
-0.998453, 193, 177, 224, 192
-0.998453, 217, 69, 232, 100
-0.998454, 135, 125, 150, 156
-0.998454, 225, 149, 256, 164
-0.998454, 401, 65, 416, 96
-0.998455, 375, 229, 390, 260
-0.998455, 249, 71, 280, 86
-0.998455, 431, 125, 446, 156
-0.998455, 465, 125, 480, 156
-0.998456, 269, 127, 300, 142
-0.99846, 477, 125, 492, 156
-0.99846, 269, 139, 300, 154
-0.998462, 121, 61, 136, 92
-0.998463, 353, 67, 384, 82
-0.998463, 381, 65, 396, 96
-0.998463, 395, 189, 410, 220
-0.998469, 213, 145, 244, 160
-0.998471, 269, 65, 300, 80
-0.998472, 209, 149, 272, 164
-0.998475, 165, 69, 196, 84
-0.998475, 289, 141, 416, 172
-0.998478, 273, 179, 336, 194
-0.99848, 1, 165, 128, 196
-0.998483, 193, 169, 256, 184
-0.998483, 285, 173, 316, 188
-0.998483, 321, 63, 352, 78
-0.998484, 281, 179, 312, 194
-0.998486, 249, 129, 280, 144
-0.998486, 189, 169, 220, 184
-0.998488, 241, 143, 304, 158
-0.998488, 201, 151, 232, 166
-0.998492, 1, 221, 128, 252
-0.998493, 273, 129, 336, 144
-0.998498, 269, 173, 300, 188
-0.998501, 269, 179, 300, 194
-0.998502, 257, 173, 320, 188
-0.998505, 237, 149, 268, 164
-0.998506, 17, 73, 144, 104
-0.998509, 297, 63, 360, 78
-0.99851, 213, 169, 244, 184
-0.99851, 137, 69, 200, 84
-0.998517, 213, 151, 244, 166
-0.998521, 257, 143, 288, 158
-0.998526, 281, 129, 312, 144
-0.998527, 233, 153, 296, 168
-0.998527, 217, 129, 280, 144
-0.998527, 185, 71, 248, 86
-0.99853, 185, 159, 216, 174
-0.998544, 81, 65, 144, 80
-0.998546, 17, 71, 48, 86
-0.998547, 297, 179, 360, 194
-0.998549, 17, 67, 80, 82
-0.99855, 209, 159, 272, 174
-0.998552, 217, 69, 248, 84
-0.998557, 33, 1, 96, 128
-0.998562, 257, 65, 320, 80
-0.998567, 153, 129, 216, 144
-0.998569, 305, 113, 432, 144
-0.99857, 233, 173, 296, 188
-0.998571, 281, 173, 344, 188
-0.998571, 241, 137, 304, 152
-0.998572, 9, 211, 72, 226
-0.998573, 433, 203, 496, 218
-0.998573, 249, 179, 312, 194
-0.998573, 193, 139, 256, 154
-0.998575, 393, 201, 456, 216
-0.998575, 337, 69, 400, 84
-0.998577, 241, 159, 304, 174
-0.998578, 209, 71, 272, 86
-0.998578, 161, 167, 224, 182
-0.998578, 33, 113, 160, 144
-0.998579, 161, 143, 224, 158
-0.99858, 329, 179, 392, 194
-0.99858, 269, 133, 300, 148
-0.99859, 425, 65, 488, 80
-0.998592, 193, 129, 256, 144
-0.998593, 241, 167, 304, 182
-0.998594, 401, 67, 464, 82
-0.998594, 273, 147, 336, 162
-0.998595, 217, 143, 280, 158
-0.998596, 289, 227, 352, 242
-0.998597, 161, 69, 224, 84
-0.998599, 217, 167, 280, 182
-0.998601, 113, 71, 176, 86
-0.998605, 33, 213, 96, 228
-0.998606, 105, 223, 168, 238
-0.998606, 33, 61, 96, 76
-0.998606, 1, 33, 256, 96
-0.998612, 249, 129, 312, 144
-0.998612, 169, 175, 232, 190
-0.998614, 353, 185, 416, 200
-0.998618, 385, 181, 448, 196
-0.998618, 257, 201, 384, 232
-0.998619, 353, 179, 416, 194
-0.998619, 145, 149, 208, 164
-0.998625, 305, 169, 368, 184
-0.998626, 257, 153, 320, 168
-0.998627, 417, 185, 480, 200
-0.998628, 313, 127, 376, 142
-0.998629, 273, 167, 336, 182
-0.99863, 313, 229, 376, 244
-0.998631, 193, 143, 224, 158
-0.998631, 81, 201, 208, 232
-0.998633, 57, 63, 120, 78
-0.998633, 153, 155, 216, 170
-0.998637, 49, 129, 112, 144
-0.998638, 209, 175, 272, 190
-0.998638, 225, 65, 288, 80
-0.998639, 33, 49, 160, 80
-0.998639, 241, 223, 304, 238
-0.998639, 81, 165, 208, 196
-0.998641, 97, 129, 160, 144
-0.998641, 257, 123, 320, 138
-0.998641, 305, 165, 432, 196
-0.998642, 97, 217, 160, 232
-0.998642, 9, 129, 72, 144
-0.998643, 377, 127, 440, 142
-0.998644, 425, 127, 488, 142
-0.998644, 73, 129, 136, 144
-0.998644, 129, 129, 192, 144
-0.998646, 145, 75, 208, 90
-0.998646, 137, 165, 200, 180
-0.998647, 329, 185, 392, 200
-0.998647, 57, 215, 120, 230
-0.998648, 273, 135, 336, 150
-0.998649, 265, 225, 328, 240
-0.99865, 345, 129, 408, 144
-0.99865, 401, 127, 464, 142
-0.998651, 233, 123, 296, 138
-0.998651, 273, 141, 336, 156
-0.998653, 169, 137, 232, 152
-0.998653, 73, 221, 136, 236
-0.998654, 177, 77, 240, 92
-0.998655, 377, 67, 440, 82
-0.998656, 241, 71, 304, 86
-0.998657, 337, 63, 400, 78
-0.998657, 89, 71, 152, 86
-0.998659, 329, 169, 392, 184
-0.99866, 65, 225, 192, 256
-0.998661, 105, 65, 168, 80
-0.998662, 369, 201, 432, 216
-0.998662, 145, 225, 208, 240
-0.998673, 377, 233, 440, 248
-0.998674, 257, 185, 320, 200
-0.998675, 137, 219, 200, 234
-0.998675, 217, 135, 280, 150
-0.998676, 425, 237, 488, 252
-0.998677, 49, 69, 112, 84
-0.998677, 337, 233, 400, 248
-0.99868, 81, 113, 208, 144
-0.99868, 409, 179, 472, 194
-0.99868, 177, 63, 240, 78
-0.998684, 377, 175, 440, 190
-0.998688, 401, 191, 464, 206
-0.998688, 361, 61, 424, 76
-0.998688, 137, 143, 200, 158
-0.998689, 377, 187, 440, 202
-0.99869, 257, 197, 320, 212
-0.99869, 265, 231, 328, 246
-0.998691, 433, 59, 496, 74
-0.998692, 129, 157, 192, 172
-0.998693, 337, 227, 400, 242
-0.998694, 129, 63, 192, 78
-0.998694, 1, 217, 64, 232
-0.998696, 225, 181, 288, 196
-0.998697, 401, 61, 464, 76
-0.998699, 401, 233, 464, 248
-0.9987, 345, 201, 408, 216
-0.998701, 1, 73, 64, 88
-0.998702, 233, 187, 296, 202
-0.998702, 201, 223, 264, 238
-0.998703, 297, 185, 360, 200
-0.998705, 201, 65, 264, 80
-0.998708, 25, 145, 88, 160
-0.998709, 273, 59, 336, 74
-0.99871, 241, 231, 304, 246
-0.99871, 57, 57, 120, 72
-0.998711, 169, 227, 232, 242
-0.998712, 1, 205, 64, 220
-0.998766, 369, 141, 496, 172
-0.998767, 207, 65, 222, 192
-0.998768, 257, 49, 384, 80
-0.998782, 1, 97, 500, 160
-0.998785, 161, 181, 288, 212
-0.998885, 7, 65, 22, 192
-0.998915, 33, 65, 48, 192
-0.998933, 177, 233, 304, 264
-0.998936, 19, 49, 34, 176
-0.998949, 1, 65, 16, 192
-0.998959, 155, 65, 170, 192
-0.998969, 177, 205, 304, 236
-0.998978, 481, 113, 496, 240
-0.998982, 435, 113, 450, 240
-0.998992, 145, 49, 160, 176
-0.998995, 131, 49, 146, 176
-0.998997, 189, 65, 204, 192
-0.998998, 13, 65, 28, 192
-0.999, 233, 65, 248, 192
-0.999002, 109, 49, 124, 176
-0.999009, 423, 113, 438, 240
-0.99901, 289, 213, 416, 244
-0.999013, 447, 113, 462, 240
-0.99902, 27, 49, 42, 176
-0.999023, 441, 113, 456, 240
-0.999024, 41, 49, 56, 176
-0.999024, 407, 113, 422, 240
-0.999029, 207, 129, 222, 256
-0.999031, 101, 49, 116, 176
-0.999034, 417, 113, 432, 240
-0.99904, 197, 65, 212, 192
-0.999041, 429, 113, 444, 240
-0.999047, 461, 113, 476, 240
-0.999056, 137, 65, 152, 192
-0.999057, 95, 49, 110, 176
-0.999067, 239, 65, 254, 192
-0.999076, 47, 49, 62, 176
-0.999082, 453, 113, 468, 240
-0.999084, 199, 113, 214, 240
-0.999084, 163, 49, 178, 176
-0.999094, 79, 49, 94, 176
-0.999096, 471, 113, 486, 240
-0.9991, 215, 113, 230, 240
-0.999105, 123, 49, 138, 176
-0.999105, 401, 113, 416, 240
-0.999122, 61, 49, 76, 176
-0.999124, 85, 49, 100, 176
-0.999125, 73, 49, 88, 176
-0.999126, 245, 65, 260, 192
-0.999127, 115, 49, 130, 176
-0.999136, 263, 113, 278, 240
-0.999141, 363, 49, 378, 176
-0.999143, 67, 49, 82, 176
-0.999145, 401, 49, 416, 176
-0.999151, 17, 137, 144, 168
-0.999153, 387, 49, 402, 176
-0.999159, 415, 49, 430, 176
-0.999163, 353, 49, 368, 176
-0.999167, 485, 49, 500, 176
-0.999168, 251, 49, 266, 176
-0.999169, 257, 113, 272, 240
-0.999169, 173, 49, 188, 176
-0.999177, 319, 49, 334, 176
-0.999178, 307, 49, 322, 176
-0.999178, 451, 49, 466, 176
-0.999179, 379, 49, 394, 176
-0.999181, 291, 49, 306, 176
-0.999184, 179, 49, 194, 176
-0.999186, 325, 49, 340, 176
-0.999189, 53, 49, 68, 176
-0.99919, 429, 49, 444, 176
-0.99919, 465, 49, 480, 176
-0.999192, 297, 49, 312, 176
-0.999193, 395, 113, 410, 240
-0.999193, 407, 49, 422, 176
-0.999194, 313, 49, 328, 176
-0.999194, 345, 49, 360, 176
-0.999197, 393, 49, 408, 176
-0.999201, 441, 49, 456, 176
-0.999206, 41, 113, 56, 240
-0.999208, 215, 65, 230, 192
-0.999208, 473, 49, 488, 176
-0.999213, 457, 49, 472, 176
-0.999216, 289, 113, 304, 240
-0.99922, 369, 49, 384, 176
-0.99922, 479, 49, 494, 176
-0.999226, 339, 49, 354, 176
-0.999231, 341, 1, 372, 128
-0.999232, 421, 49, 436, 176
-0.999234, 331, 49, 346, 176
-0.999235, 281, 49, 296, 176
-0.999245, 223, 49, 238, 176
-0.999251, 435, 49, 450, 176
-0.99926, 101, 113, 116, 240
-0.999268, 389, 113, 404, 240
-0.999272, 85, 113, 100, 240
-0.999275, 33, 113, 48, 240
-0.999277, 257, 49, 272, 176
-0.999284, 91, 113, 106, 240
-0.999284, 267, 49, 282, 176
-0.999285, 53, 113, 68, 240
-0.999294, 47, 113, 62, 240
-0.999309, 107, 113, 122, 240
-0.999309, 277, 113, 292, 240
-0.999311, 115, 113, 130, 240
-0.999313, 75, 113, 90, 240
-0.999314, 27, 113, 42, 240
-0.999326, 179, 113, 194, 240
-0.999336, 283, 113, 298, 240
-0.999344, 69, 113, 84, 240
-0.999348, 121, 113, 136, 240
-0.999353, 11, 113, 26, 240
-0.999357, 63, 113, 78, 240
-0.999371, 269, 113, 284, 240
-0.999379, 273, 49, 288, 176
-0.999381, 161, 113, 176, 240
-0.999383, 21, 113, 36, 240
-0.999387, 127, 113, 142, 240
-0.999388, 243, 113, 258, 240
-0.999389, 141, 113, 156, 240
-0.999394, 153, 113, 168, 240
-0.999395, 167, 113, 182, 240
-0.999398, 383, 113, 398, 240
-0.9994, 133, 113, 148, 240
-0.999401, 251, 113, 266, 240
-0.999402, 9, 1, 72, 128
-0.999405, 209, 49, 336, 80
-0.999409, 335, 113, 350, 240
-0.99941, 1, 113, 16, 240
-0.999415, 147, 113, 162, 240
-0.999417, 113, 229, 240, 260
-0.999417, 173, 113, 188, 240
-0.999419, 359, 113, 374, 240
-0.999419, 299, 113, 314, 240
-0.999427, 349, 113, 364, 240
-0.999432, 321, 113, 336, 240
-0.999434, 315, 113, 330, 240
-0.999434, 193, 113, 208, 240
-0.999441, 221, 113, 236, 240
-0.999456, 227, 113, 242, 240
-0.999462, 305, 113, 320, 240
-0.999468, 327, 113, 342, 240
-0.999476, 113, 177, 240, 208
-0.999502, 469, 1, 500, 128
-0.999545, 305, 73, 432, 104
-0.999559, 475, 185, 490, 200
-0.999559, 445, 185, 460, 200
-0.999559, 415, 185, 430, 200
-0.99956, 483, 65, 498, 80
-0.999561, 285, 163, 300, 178
-0.999561, 257, 177, 272, 192
-0.999562, 403, 201, 418, 216
-0.999562, 181, 151, 196, 166
-0.999562, 373, 185, 388, 200
-0.999563, 373, 129, 388, 144
-0.999563, 57, 129, 72, 144
-0.999564, 29, 211, 44, 226
-0.999564, 353, 179, 368, 194
-0.999564, 417, 179, 432, 194
-0.999565, 47, 211, 62, 226
-0.999565, 485, 185, 500, 200
-0.999566, 477, 127, 492, 142
-0.999567, 3, 73, 18, 88
-0.999567, 269, 151, 284, 166
-0.999567, 427, 185, 442, 200
-0.99957, 295, 129, 310, 144
-0.99957, 171, 69, 186, 84
-0.999571, 281, 173, 296, 188
-0.999571, 347, 179, 362, 194
-0.999572, 279, 167, 294, 182
-0.999572, 433, 65, 448, 80
-0.999572, 263, 153, 278, 168
-0.999572, 443, 201, 458, 216
-0.999573, 367, 67, 382, 82
-0.999573, 39, 211, 54, 226
-0.999573, 475, 203, 490, 218
-0.999573, 217, 69, 232, 84
-0.999574, 233, 161, 248, 176
-0.999574, 437, 201, 452, 216
-0.999575, 295, 63, 310, 78
-0.999575, 225, 163, 240, 178
-0.999576, 283, 65, 298, 80
-0.999576, 327, 173, 342, 188
-0.999576, 137, 73, 152, 88
-0.999577, 213, 159, 228, 174
-0.999577, 421, 185, 436, 200
-0.999577, 197, 177, 212, 192
-0.999578, 455, 203, 470, 218
-0.999578, 263, 135, 278, 150
-0.999579, 387, 179, 402, 194
-0.999581, 181, 71, 196, 86
-0.999582, 231, 169, 246, 184
-0.999582, 285, 143, 300, 158
-0.999583, 203, 159, 218, 174
-0.999585, 449, 203, 464, 218
-0.999585, 293, 169, 308, 184
-0.999586, 277, 149, 292, 164
-0.999587, 239, 169, 254, 184
-0.999587, 187, 159, 202, 174
-0.999587, 419, 67, 434, 82
-0.999587, 359, 179, 374, 194
-0.999588, 249, 169, 264, 184
-0.999589, 463, 203, 478, 218
-0.99959, 219, 161, 234, 176
-0.99959, 317, 59, 332, 74
-0.999591, 213, 169, 228, 184
-0.999593, 229, 69, 244, 84
-0.999593, 485, 203, 500, 218
-0.999594, 241, 149, 256, 164
-0.999595, 217, 145, 232, 160
-0.999596, 321, 173, 336, 188
-0.999596, 311, 59, 326, 74
-0.999598, 109, 63, 124, 78
-0.999599, 37, 67, 52, 82
-0.999599, 339, 179, 354, 194
-0.9996, 359, 67, 374, 82
-0.9996, 207, 75, 222, 90
-0.999601, 367, 179, 382, 194
-0.999601, 469, 203, 484, 218
-0.999602, 163, 69, 178, 84
-0.999603, 269, 181, 284, 196
-0.999604, 263, 143, 278, 158
-0.999604, 299, 179, 314, 194
-0.999604, 185, 167, 200, 182
-0.999605, 299, 169, 314, 184
-0.999605, 319, 179, 334, 194
-0.999606, 381, 179, 396, 194
-0.999606, 101, 65, 116, 80
-0.999606, 381, 67, 396, 82
-0.999607, 257, 153, 272, 168
-0.999607, 29, 71, 44, 86
-0.999607, 1, 185, 128, 216
-0.999608, 145, 71, 160, 86
-0.999609, 401, 67, 416, 82
-0.999611, 333, 179, 348, 194
-0.999611, 127, 67, 142, 82
-0.999612, 325, 179, 340, 194
-0.999612, 263, 177, 278, 192
-0.999613, 313, 179, 328, 194
-0.999614, 375, 179, 390, 194
-0.999614, 1, 207, 16, 222
-0.999614, 205, 167, 220, 182
-0.999615, 469, 63, 484, 78
-0.999615, 271, 65, 286, 80
-0.999617, 275, 179, 290, 194
-0.999619, 91, 63, 106, 78
-0.999619, 241, 81, 304, 144
-0.999619, 309, 173, 324, 188
-0.99962, 223, 69, 238, 84
-0.999621, 305, 179, 320, 194
-0.999621, 315, 173, 330, 188
-0.999622, 251, 69, 266, 84
-0.999623, 287, 173, 302, 188
-0.999625, 333, 63, 348, 78
-0.999625, 289, 179, 304, 194
-0.999626, 223, 151, 238, 166
-0.999628, 209, 177, 224, 192
-0.99963, 191, 147, 206, 162
-0.999634, 209, 129, 224, 144
-0.999634, 219, 167, 234, 182
-0.999634, 215, 129, 230, 144
-0.999638, 199, 171, 214, 186
-0.999641, 19, 69, 34, 84
-0.999642, 281, 179, 296, 194
-0.999642, 281, 133, 296, 148
-0.999644, 229, 151, 244, 166
-0.999645, 249, 147, 264, 162
-0.999649, 207, 143, 222, 158
-0.999653, 201, 141, 216, 156
-0.999654, 203, 177, 218, 192
-0.999656, 213, 151, 228, 166
-0.99966, 199, 129, 214, 144
-0.999661, 257, 145, 272, 160
-0.999676, 289, 129, 304, 144
-0.999683, 191, 169, 206, 184
-0.999691, 129, 205, 256, 236
-0.999692, 259, 129, 274, 144
-0.999692, 457, 1, 488, 128
-0.9997, 177, 81, 304, 112
-0.99975, 207, 137, 222, 152
-0.99988, 249, 1, 280, 128
-0.999894, 241, 1, 304, 128
-0.999919, 81, 77, 208, 108
-0.999977, 89, 1, 120, 128
-0.99998, 49, 177, 176, 208
-1, 65, 189, 192, 220
-1.00003, 129, 193, 256, 224
-1.00008, 277, 1, 308, 128
-1.00011, 161, 105, 288, 136
-1.00013, 241, 73, 368, 104
-1.00025, 1, 33, 500, 96
-1.00035, 433, 1, 464, 128
-1.00036, 137, 1, 168, 128
-1.00039, 405, 1, 436, 128
-1.0004, 369, 1, 400, 128
-1.00041, 381, 1, 412, 128
-1.00042, 125, 1, 156, 128
-1.00049, 417, 1, 448, 128
-1.00049, 129, 85, 256, 116
-1.00057, 1, 85, 128, 116
-1.00057, 357, 1, 388, 128
-1.00057, 289, 1, 320, 128
-1.00059, 393, 1, 424, 128
-1.00061, 81, 41, 208, 72
-1.00062, 161, 45, 288, 76
-1.00063, 81, 89, 208, 120
-1.00069, 369, 77, 496, 108
-1.00072, 241, 85, 368, 116
-1.00076, 445, 1, 476, 128
-1.00077, 289, 85, 416, 116
-1.00078, 369, 89, 496, 120
-1.00078, 177, 93, 304, 124
-1.00081, 353, 41, 480, 72
-1.00082, 105, 1, 136, 128
-1.00084, 329, 1, 360, 128
-1.00089, 209, 1, 336, 32
-1.00093, 121, 169, 184, 232
-1.00096, 257, 1, 384, 32
-1.00098, 257, 33, 384, 64
-1.001, 17, 33, 144, 64
-1.001, 161, 9, 288, 40
-1.00102, 1, 21, 128, 52
-1.00103, 337, 17, 464, 48
-1.00103, 257, 21, 384, 52
-1.00103, 337, 29, 464, 60
-1.00104, 273, 101, 400, 132
-1.00106, 1, 9, 128, 40
-1.00106, 145, 29, 272, 60
-1.00106, 113, 5, 240, 36
-1.00106, 337, 5, 464, 36
-1.00107, 65, 5, 192, 36
-1.00107, 209, 13, 336, 44
-1.00107, 65, 17, 192, 48
-1.00107, 113, 17, 240, 48
-1.00107, 209, 25, 336, 56
-1.00107, 65, 29, 192, 60
-1.00107, 17, 233, 144, 264
-1.00107, 17, 97, 144, 128
-1.0011, 305, 1, 336, 128
-1.00123, 145, 169, 208, 232
-1.00126, 337, 101, 464, 132
-1.00127, 81, 101, 208, 132
-1.00129, 225, 97, 352, 128
-1.00134, 209, 37, 336, 68
-1.00145, 261, 1, 292, 128
-1.0015, 161, 1, 192, 128
-1.00162, 317, 1, 348, 128
-1.00173, 53, 1, 84, 128
-1.00177, 129, 1, 384, 64
-1.00179, 37, 1, 68, 128
-1.00194, 225, 1, 352, 64
-1.00195, 1, 1, 256, 64
-1.00199, 73, 1, 104, 128
-1.0024, 257, 1, 500, 64
-1.00251, 145, 1, 272, 64
-1.00255, 13, 1, 44, 128
-1.00261, 33, 1, 160, 64
-1.00308, 225, 17, 288, 80
-1.00318, 337, 1, 464, 64
-1.00351, 81, 1, 208, 64
-1.00378, 1, 1, 500, 64
-1.00415, 273, 1, 400, 64
-1.00855, 201, 1, 264, 64
-1.0091, 353, 1, 416, 64
-1.00914, 129, 17, 192, 80
-1.0092, 17, 1, 80, 64
-1.00924, 153, 1, 216, 64
-1.00949, 393, 1, 456, 64
-1.00958, 89, 1, 152, 64
-1.01, 425, 1, 488, 64
-1.01039, 289, 1, 352, 64
-1.01043, 249, 1, 312, 64
-1.01051, 177, 1, 240, 64
-1.01115, 65, 1, 128, 64
-1.0112, 313, 9, 376, 72
-1.01277, 41, 1, 104, 64
