1928
-0.290962, 1, 1, 480, 360
-0.33921, 97, 1, 352, 360
-0.377166, 1, 1, 480, 256
-0.38074, 1, 97, 480, 352
-0.517493, 193, 1, 448, 360
-0.537666, 1, 1, 256, 360
-0.550659, 97, 33, 352, 288
-0.627714, 1, 97, 256, 352
-0.678603, 193, 1, 448, 256
-0.688643, 193, 97, 448, 352
-0.737547, 1, 1, 256, 256
-0.840179, 145, 1, 272, 360
-0.853392, 193, 1, 320, 360
-0.856847, 65, 97, 192, 352
-0.858285, 225, 1, 352, 256
-0.858403, 241, 1, 368, 360
-0.858422, 273, 97, 400, 352
-0.860045, 305, 1, 432, 360
-0.865034, 145, 65, 272, 320
-0.868387, 273, 1, 400, 256
-0.876437, 321, 65, 448, 320
-0.88, 1, 145, 480, 272
-0.881333, 65, 1, 192, 360
-0.882386, 1, 81, 480, 208
-0.882872, 1, 1, 480, 128
-0.898043, 33, 1, 160, 256
-0.899773, 353, 1, 480, 360
-0.900359, 17, 1, 144, 360
-0.900464, 225, 97, 352, 352
-0.906274, 1, 97, 128, 352
-0.907681, 81, 1, 208, 256
-0.9102, 193, 161, 448, 288
-0.916078, 129, 1, 384, 128
-0.919289, 209, 1, 336, 128
-0.920899, 161, 65, 416, 192
-0.92305, 33, 177, 288, 304
-0.923478, 225, 193, 288, 320
-0.924423, 1, 193, 480, 320
-0.927164, 145, 193, 272, 320
-0.928079, 97, 113, 352, 240
-0.930969, 225, 193, 352, 320
-0.933993, 257, 1, 384, 128
-0.934681, 33, 1, 288, 128
-0.934962, 33, 225, 288, 352
-0.935201, 289, 161, 416, 288
-0.93523, 225, 1, 288, 128
-0.935862, 81, 193, 208, 320
-0.937022, 313, 145, 376, 272
-0.937971, 161, 1, 288, 128
-0.938478, 161, 209, 416, 336
-0.940296, 321, 113, 448, 240
-0.941067, 225, 1, 480, 128
-0.941249, 257, 1, 320, 128
-0.941876, 153, 209, 216, 336
-0.942492, 65, 49, 320, 176
-0.943967, 1, 129, 256, 256
-0.944326, 305, 1, 368, 128
-0.946985, 177, 1, 240, 128
-0.947321, 89, 113, 152, 240
-0.947631, 289, 177, 352, 304
-0.948288, 81, 145, 208, 272
-0.948387, 337, 129, 400, 256
-0.948404, 201, 193, 264, 320
-0.949176, 201, 1, 264, 128
-0.950413, 145, 145, 272, 272
-0.951234, 257, 81, 384, 208
-0.951605, 153, 241, 216, 304
-0.952484, 241, 145, 368, 272
-0.952514, 137, 1, 200, 128
-0.952963, 113, 17, 240, 144
-0.953641, 153, 217, 216, 280
-0.953767, 121, 65, 184, 192
-0.954062, 217, 9, 280, 72
-0.954525, 49, 97, 176, 224
-0.954686, 257, 177, 320, 304
-0.955217, 113, 65, 240, 192
-0.955283, 305, 33, 432, 160
-0.955903, 153, 161, 216, 288
-0.956004, 313, 81, 376, 208
-0.956148, 361, 81, 424, 208
-0.956217, 217, 233, 280, 296
-0.956339, 281, 1, 344, 128
-0.956743, 225, 193, 288, 256
-0.957175, 241, 17, 304, 80
-0.95755, 177, 209, 240, 336
-0.957711, 129, 177, 192, 304
-0.957917, 289, 49, 352, 112
-0.95834, 273, 1, 336, 64
-0.958965, 193, 113, 448, 240
-0.959139, 329, 33, 392, 160
-0.95916, 313, 153, 376, 216
-0.959529, 177, 49, 304, 176
-0.960424, 193, 25, 256, 88
-0.960436, 289, 81, 352, 208
-0.960562, 113, 129, 176, 256
-0.961843, 289, 169, 352, 232
-0.961985, 65, 65, 128, 192
-0.962094, 193, 249, 256, 312
-0.962769, 233, 41, 296, 104
-0.962789, 1, 161, 128, 288
-0.962941, 153, 185, 216, 248
-0.963029, 289, 193, 352, 256
-0.963306, 193, 225, 256, 288
-0.963387, 89, 137, 152, 200
-0.963573, 337, 161, 464, 288
-0.963669, 289, 129, 352, 256
-0.963683, 49, 193, 112, 320
-0.96369, 337, 145, 400, 208
-0.96393, 257, 193, 320, 256
-0.964684, 81, 89, 144, 152
-0.964737, 249, 225, 312, 352
-0.964821, 97, 65, 160, 192
-0.965549, 137, 113, 200, 240
-0.965837, 297, 17, 360, 80
-0.966125, 57, 97, 120, 160
-0.966132, 169, 265, 232, 328
-0.966808, 121, 121, 184, 184
-0.967305, 241, 177, 272, 304
-0.967534, 337, 81, 400, 208
-0.967807, 257, 41, 320, 104
-0.967941, 1, 65, 128, 192
-0.968027, 145, 49, 208, 176
-0.968148, 257, 129, 320, 256
-0.96816, 129, 185, 192, 248
-0.96819, 209, 9, 336, 72
-0.968589, 65, 113, 128, 240
-0.968811, 105, 97, 168, 160
-0.969075, 313, 49, 376, 112
-0.969289, 145, 225, 272, 288
-0.969522, 161, 193, 192, 320
-0.96956, 169, 33, 232, 96
-0.969625, 313, 177, 376, 240
-0.969927, 1, 113, 128, 240
-0.970188, 361, 137, 424, 200
-0.970331, 225, 257, 288, 320
-0.970472, 185, 1, 248, 64
-0.970519, 49, 1, 176, 128
-0.97053, 229, 193, 260, 320
-0.970747, 273, 49, 400, 112
-0.970781, 161, 1, 224, 64
-0.970787, 237, 193, 268, 256
-0.970909, 241, 1, 272, 64
-0.971017, 129, 249, 256, 312
-0.971137, 225, 201, 352, 264
-0.971305, 305, 161, 432, 224
-0.97147, 105, 193, 168, 320
-0.971736, 25, 1, 88, 128
-0.972181, 193, 201, 256, 264
-0.97224, 273, 209, 400, 336
-0.972384, 177, 49, 240, 176
-0.972481, 161, 193, 288, 256
-0.97255, 225, 1, 256, 128
-0.972719, 193, 145, 320, 272
-0.972837, 305, 1, 368, 256
-0.972841, 385, 97, 448, 224
-0.973118, 157, 217, 188, 280
-0.973212, 345, 49, 408, 112
-0.973329, 249, 225, 312, 288
-0.973493, 205, 249, 236, 312
-0.973493, 337, 169, 400, 232
-0.973611, 97, 217, 224, 280
-0.97374, 137, 17, 200, 80
-0.973773, 305, 97, 368, 352
-0.973821, 25, 113, 88, 240
-0.973846, 321, 137, 448, 200
-0.973883, 225, 33, 352, 96
-0.973898, 81, 289, 144, 352
-0.973933, 81, 1, 144, 128
-0.973951, 273, 17, 304, 80
-0.973975, 257, 1, 384, 64
-0.973987, 201, 273, 264, 336
-0.974117, 161, 25, 288, 88
-0.974193, 265, 1, 296, 128
-0.974425, 401, 145, 464, 272
-0.974519, 313, 161, 344, 224
-0.974536, 9, 257, 72, 320
-0.974607, 113, 1, 176, 128
-0.97469, 49, 281, 112, 344
-0.974765, 333, 153, 364, 216
-0.974821, 277, 1, 308, 128
-0.974829, 393, 145, 456, 208
-0.974875, 129, 233, 192, 296
-0.974889, 193, 225, 320, 288
-0.97489, 113, 209, 176, 272
-0.97497, 129, 145, 192, 208
-0.975091, 301, 177, 332, 240
-0.975104, 129, 225, 192, 352
-0.975224, 49, 49, 176, 176
-0.975235, 225, 225, 256, 288
-0.975323, 273, 25, 400, 88
-0.975382, 257, 65, 320, 128
-0.975426, 361, 129, 424, 256
-0.975465, 225, 177, 352, 240
-0.975621, 157, 177, 188, 240
-0.975846, 17, 225, 144, 352
-0.975851, 65, 121, 128, 184
-0.975864, 33, 249, 96, 312
-0.975892, 321, 161, 352, 288
-0.975984, 265, 49, 328, 176
-0.976029, 201, 17, 232, 144
-0.976071, 285, 49, 316, 112
-0.976261, 253, 193, 284, 320
-0.976371, 121, 97, 184, 352
-0.976387, 301, 161, 332, 288
-0.976519, 273, 193, 400, 256
-0.976519, 249, 169, 312, 232
-0.97652, 337, 33, 400, 288
-0.97662, 201, 49, 264, 176
-0.976628, 161, 1, 288, 64
-0.976893, 257, 65, 320, 320
-0.977188, 229, 1, 260, 64
-0.977281, 161, 241, 192, 304
-0.977393, 193, 145, 256, 272
-0.977399, 121, 97, 152, 160
-0.977453, 145, 41, 208, 104
-0.977464, 333, 97, 364, 224
-0.977569, 253, 1, 284, 128
-0.977703, 97, 65, 160, 320
-0.977717, 25, 225, 88, 352
-0.977728, 361, 105, 424, 168
-0.977864, 89, 161, 152, 224
-0.977903, 345, 145, 376, 208
-0.977925, 289, 1, 320, 128
-0.977983, 241, 49, 304, 176
-0.978024, 333, 145, 364, 272
-0.978025, 25, 161, 88, 288
-0.97814, 213, 1, 244, 128
-0.978199, 145, 193, 176, 256
-0.978274, 185, 1, 216, 128
-0.97831, 209, 49, 272, 112
-0.978505, 313, 193, 376, 320
-0.97853, 217, 17, 248, 80
-0.978542, 169, 297, 232, 360
-0.978572, 1, 1, 128, 128
-0.978691, 65, 97, 128, 352
-0.978807, 57, 249, 120, 312
-0.97886, 361, 161, 424, 224
-0.978925, 145, 265, 208, 328
-0.978929, 81, 241, 208, 304
-0.978961, 81, 185, 208, 248
-0.978999, 137, 81, 200, 144
-0.979006, 281, 217, 344, 280
-0.979033, 241, 225, 272, 352
-0.97917, 417, 225, 480, 352
-0.979319, 193, 57, 320, 120
-0.979346, 169, 209, 200, 272
-0.979349, 281, 81, 344, 144
-0.979426, 145, 129, 176, 256
-0.979473, 121, 81, 152, 208
-0.979532, 253, 17, 284, 80
-0.979543, 121, 57, 184, 120
-0.979564, 353, 33, 416, 160
-0.979635, 281, 97, 344, 352
-0.979665, 141, 177, 172, 304
-0.979686, 225, 145, 288, 272
-0.979716, 33, 89, 160, 152
-0.979749, 281, 1, 344, 256
-0.979801, 321, 33, 352, 96
-0.979849, 25, 65, 88, 192
-0.979877, 249, 249, 312, 312
-0.979904, 137, 1, 200, 256
-0.980027, 241, 233, 272, 296
-0.980055, 209, 1, 272, 256
-0.980059, 113, 1, 240, 64
-0.980068, 329, 121, 392, 184
-0.980069, 109, 81, 140, 208
-0.980124, 217, 193, 248, 320
-0.980129, 345, 129, 376, 256
-0.980315, 81, 97, 208, 160
-0.980428, 65, 153, 128, 216
-0.980495, 353, 225, 480, 352
-0.980545, 177, 65, 240, 128
-0.980654, 81, 265, 208, 328
-0.980674, 113, 257, 176, 320
-0.980712, 133, 121, 164, 184
-0.980743, 185, 1, 248, 256
-0.980761, 337, 1, 368, 128
-0.980867, 65, 185, 128, 248
-0.980909, 309, 1, 340, 128
-0.980911, 185, 209, 216, 336
-0.980949, 97, 65, 224, 128
-0.981027, 385, 121, 448, 184
-0.98106, 285, 1, 316, 64
-0.981088, 253, 225, 284, 288
-0.981102, 193, 249, 320, 312
-0.981142, 265, 41, 296, 104
-0.981185, 73, 161, 136, 288
-0.981256, 73, 65, 136, 128
-0.981268, 321, 1, 384, 64
-0.981347, 117, 129, 148, 256
-0.981407, 1, 1, 64, 128
-0.981441, 145, 169, 272, 232
-0.981442, 173, 249, 204, 312
-0.98146, 81, 121, 208, 184
-0.981513, 49, 153, 176, 216
-0.981522, 241, 225, 368, 288
-0.981562, 41, 65, 104, 128
-0.981642, 173, 193, 204, 320
-0.981746, 337, 41, 368, 104
-0.981763, 329, 73, 392, 136
-0.981808, 165, 145, 196, 272
-0.981851, 353, 161, 480, 224
-0.981862, 325, 1, 356, 128
-0.981872, 241, 153, 368, 216
-0.98191, 321, 25, 384, 88
-0.981986, 73, 193, 104, 320
-0.98199, 189, 241, 220, 304
-0.981992, 33, 169, 96, 232
-0.981995, 301, 17, 332, 80
-0.98203, 201, 33, 232, 96
-0.982059, 385, 81, 416, 208
-0.982071, 301, 49, 332, 112
-0.982121, 153, 97, 216, 352
-0.982149, 201, 1, 264, 360
-0.98223, 149, 153, 180, 216
-0.982257, 297, 1, 360, 360
-0.982308, 321, 97, 352, 224
-0.982351, 217, 249, 248, 312
-0.98236, 365, 81, 396, 208
-0.982411, 289, 177, 320, 304
-0.982492, 337, 177, 400, 304
-0.982558, 313, 201, 376, 264
-0.982567, 153, 161, 216, 224
-0.982583, 105, 121, 136, 184
-0.982709, 49, 1, 112, 128
-0.982727, 133, 97, 164, 224
-0.98277, 189, 33, 220, 96
-0.982789, 173, 41, 204, 104
-0.982792, 33, 113, 160, 176
-0.982879, 353, 65, 480, 192
-0.982928, 113, 33, 240, 96
-0.98293, 145, 273, 272, 336
-0.982969, 357, 137, 388, 200
-0.982975, 1, 177, 64, 304
-0.982982, 161, 113, 224, 240
-0.983006, 333, 177, 364, 240
-0.98306, 321, 1, 352, 64
-0.983115, 273, 225, 336, 352
-0.983154, 161, 1, 224, 256
-0.983233, 145, 65, 272, 128
-0.983255, 97, 113, 128, 240
-0.983297, 1, 225, 64, 352
-0.983314, 185, 177, 248, 240
-0.983327, 1, 113, 64, 240
-0.983342, 109, 89, 140, 152
-0.983352, 361, 81, 424, 144
-0.983357, 1, 49, 64, 176
-0.983359, 117, 137, 148, 200
-0.983364, 185, 217, 216, 280
-0.983464, 181, 1, 212, 64
-0.983473, 361, 33, 424, 288
-0.983495, 161, 97, 288, 224
-0.983587, 17, 105, 80, 168
-0.983595, 321, 185, 352, 248
-0.983648, 93, 81, 124, 144
-0.983658, 121, 33, 152, 160
-0.983705, 385, 49, 448, 176
-0.983726, 385, 241, 448, 304
-0.983769, 145, 105, 208, 168
-0.983844, 233, 33, 296, 288
-0.983894, 49, 209, 176, 272
-0.983923, 153, 273, 184, 336
-0.984069, 289, 193, 320, 256
-0.984095, 233, 41, 264, 104
-0.984123, 1, 249, 128, 312
-0.984126, 257, 1, 320, 360
-0.984153, 237, 1, 268, 128
-0.984326, 149, 1, 180, 128
-0.984381, 97, 65, 160, 128
-0.984407, 393, 193, 456, 320
-0.984472, 225, 1, 288, 360
-0.984548, 349, 49, 380, 112
-0.984571, 37, 257, 68, 320
-0.984584, 345, 81, 376, 208
-0.984665, 137, 1, 168, 128
-0.984712, 161, 137, 224, 200
-0.984715, 409, 225, 472, 288
-0.984733, 169, 1, 232, 360
-0.98483, 217, 273, 248, 336
-0.984843, 357, 129, 388, 256
-0.98485, 409, 65, 472, 192
-0.984886, 409, 177, 472, 240
-0.984934, 105, 1, 136, 128
-0.984944, 305, 105, 368, 168
-0.984964, 93, 281, 124, 344
-0.984969, 129, 297, 192, 360
-0.984982, 397, 113, 428, 240
-0.985019, 1, 9, 64, 72
-0.985151, 105, 1, 168, 64
-0.985198, 73, 97, 104, 224
-0.985244, 305, 73, 368, 136
-0.985297, 285, 25, 316, 88
-0.985309, 89, 265, 152, 328
-0.985377, 305, 73, 432, 136
-0.985405, 97, 65, 128, 192
-0.985446, 213, 225, 244, 288
-0.985478, 65, 1, 128, 256
-0.985605, 345, 25, 408, 88
-0.985632, 41, 65, 104, 320
-0.985637, 309, 97, 340, 224
-0.985643, 417, 153, 480, 216
-0.985754, 129, 161, 160, 224
-0.985758, 385, 169, 448, 232
-0.985794, 1, 169, 128, 232
-0.985794, 57, 41, 120, 104
-0.985812, 241, 81, 368, 144
-0.985833, 33, 1, 160, 64
-0.985868, 337, 113, 464, 176
-0.985878, 305, 1, 432, 64
-0.985931, 173, 17, 204, 144
-0.985933, 1, 65, 128, 128
-0.985963, 321, 49, 448, 112
-0.985965, 89, 25, 152, 88
-0.985968, 393, 265, 456, 328
-0.985986, 25, 129, 88, 192
-0.986019, 81, 281, 112, 344
-0.986031, 197, 281, 228, 344
-0.986121, 177, 97, 240, 352
-0.986146, 389, 137, 420, 200
-0.986208, 33, 225, 96, 288
-0.986429, 173, 185, 204, 248
-0.986557, 193, 273, 320, 336
-0.98661, 205, 225, 236, 352
-0.986627, 301, 49, 332, 176
-0.986634, 237, 257, 268, 320
-0.986657, 225, 193, 256, 256
-0.986659, 153, 1, 184, 64
-0.986716, 113, 297, 240, 360
-0.986815, 65, 1, 128, 64
-0.986815, 41, 193, 104, 256
-0.98683, 401, 97, 464, 160
-0.98684, 417, 249, 480, 312
-0.986991, 213, 49, 244, 176
-0.987084, 345, 169, 376, 232
-0.987128, 161, 49, 192, 112
-0.987132, 369, 177, 432, 304
-0.987179, 225, 169, 288, 232
-0.987182, 377, 137, 408, 200
-0.987191, 321, 25, 448, 88
-0.987218, 73, 209, 136, 336
-0.987259, 89, 105, 120, 168
-0.987312, 209, 97, 336, 224
-0.987368, 1, 233, 64, 296
-0.98739, 337, 1, 400, 360
-0.987448, 17, 289, 144, 352
-0.987492, 49, 65, 176, 128
-0.987517, 89, 1, 152, 360
-0.987536, 129, 1, 192, 360
-0.987548, 321, 185, 448, 248
-0.987554, 161, 49, 192, 176
-0.987574, 149, 225, 180, 352
-0.987625, 129, 145, 160, 272
-0.987668, 369, 57, 432, 120
-0.987718, 41, 9, 104, 72
-0.987814, 65, 289, 192, 352
-0.98785, 369, 225, 432, 352
-0.987862, 65, 33, 192, 96
-0.987903, 65, 209, 128, 272
-0.987935, 317, 49, 348, 176
-0.987939, 333, 1, 364, 64
-0.987985, 289, 145, 352, 208
-0.988015, 401, 137, 432, 200
-0.988127, 177, 129, 208, 256
-0.98816, 113, 145, 240, 208
-0.988216, 285, 73, 316, 136
-0.988255, 117, 1, 148, 64
-0.988276, 273, 65, 304, 128
-0.988281, 81, 241, 112, 304
-0.988293, 17, 33, 80, 96
-0.988331, 141, 249, 172, 312
-0.988332, 133, 49, 164, 176
-0.988337, 85, 145, 116, 272
-0.98834, 1, 201, 128, 264
-0.988384, 69, 145, 100, 272
-0.98841, 249, 201, 280, 264
-0.988443, 185, 273, 216, 336
-0.988472, 21, 1, 52, 128
-0.98851, 41, 1, 104, 360
-0.988562, 237, 129, 268, 256
-0.988568, 337, 121, 368, 184
-0.988576, 85, 65, 116, 192
-0.98864, 409, 81, 440, 208
-0.98868, 253, 41, 284, 104
-0.988704, 73, 97, 104, 160
-0.988723, 361, 57, 392, 120
-0.988734, 369, 129, 400, 256
-0.988815, 217, 13, 280, 44
-0.988817, 249, 257, 280, 320
-0.988832, 353, 17, 480, 144
-0.988843, 73, 161, 104, 224
-0.988905, 165, 17, 196, 80
-0.988951, 357, 161, 388, 224
-0.988995, 273, 129, 400, 192
-0.989028, 217, 197, 280, 228
-0.989078, 273, 241, 336, 304
-0.9891, 89, 209, 152, 272
-0.989103, 25, 281, 88, 344
-0.989122, 65, 1, 128, 360
-0.989159, 73, 209, 104, 272
-0.989187, 309, 201, 340, 264
-0.989221, 289, 217, 320, 280
-0.98925, 393, 73, 456, 136
-0.989257, 129, 9, 384, 72
-0.989261, 153, 257, 216, 288
-0.989269, 17, 81, 48, 144
-0.989269, 105, 233, 168, 296
-0.989281, 241, 249, 368, 312
-0.989333, 193, 29, 256, 60
-0.989385, 129, 89, 256, 152
-0.989411, 249, 217, 312, 248
-0.989415, 353, 257, 480, 320
-0.989433, 105, 185, 168, 248
-0.989438, 337, 233, 464, 296
-0.989477, 193, 297, 320, 360
-0.989477, 413, 137, 444, 200
-0.989484, 425, 153, 456, 216
-0.989556, 141, 1, 172, 64
-0.989598, 297, 37, 360, 68
-0.989601, 193, 257, 256, 288
-0.989724, 165, 153, 196, 216
-0.989726, 161, 1, 192, 128
-0.989736, 261, 201, 292, 264
-0.989745, 137, 25, 168, 88
-0.989749, 409, 201, 472, 264
-0.989774, 25, 241, 56, 304
-0.989785, 161, 221, 224, 252
-0.98979, 161, 129, 192, 192
-0.989798, 153, 245, 216, 276
-0.989843, 257, 205, 320, 236
-0.989854, 257, 21, 320, 52
-0.98986, 273, 105, 400, 168
-0.989872, 329, 49, 360, 176
-0.989882, 133, 185, 164, 248
-0.989914, 297, 189, 360, 220
-0.989916, 201, 73, 264, 136
-0.989922, 217, 25, 280, 56
-0.989945, 197, 217, 228, 280
-0.989963, 185, 49, 216, 176
-0.989979, 201, 1, 232, 64
-0.989982, 289, 81, 320, 208
-0.990016, 361, 1, 424, 360
-0.990108, 169, 269, 232, 300
-0.990146, 225, 233, 288, 264
-0.990152, 241, 9, 304, 40
-0.990167, 297, 177, 360, 208
-0.990167, 389, 97, 420, 160
-0.990183, 93, 1, 124, 128
-0.990186, 289, 205, 352, 236
-0.990203, 1, 137, 128, 200
-0.990238, 265, 249, 296, 312
-0.990238, 1, 225, 128, 288
-0.990288, 269, 225, 300, 352
-0.990294, 89, 141, 152, 172
-0.990298, 249, 41, 312, 72
-0.990307, 353, 137, 416, 168
-0.990317, 313, 53, 376, 84
-0.990325, 81, 93, 144, 124
-0.990334, 289, 217, 416, 280
-0.99034, 129, 33, 384, 96
-0.990344, 149, 25, 180, 88
-0.990367, 409, 121, 472, 184
-0.990385, 209, 297, 272, 360
-0.990389, 217, 209, 280, 240
-0.990404, 385, 97, 448, 352
-0.990418, 313, 165, 376, 196
-0.990424, 265, 177, 296, 304
-0.990434, 281, 53, 344, 84
-0.99044, 157, 97, 188, 224
-0.99046, 233, 65, 296, 128
-0.990511, 257, 193, 320, 224
-0.990574, 153, 233, 216, 264
-0.990595, 185, 221, 248, 252
-0.990596, 185, 1, 248, 32
-0.990615, 153, 193, 216, 224
-0.990689, 349, 33, 380, 160
-0.99069, 425, 257, 456, 320
-0.990717, 1, 33, 128, 96
-0.99072, 209, 245, 272, 276
-0.990726, 193, 269, 256, 300
-0.990752, 209, 221, 272, 252
-0.99076, 125, 57, 156, 120
-0.990839, 141, 217, 172, 280
-0.990843, 57, 285, 120, 316
-0.990856, 361, 257, 424, 320
-0.990859, 225, 261, 288, 292
-0.990867, 113, 25, 176, 88
-0.990911, 73, 121, 104, 184
-0.990925, 213, 201, 244, 264
-0.990932, 121, 141, 184, 172
-0.99094, 185, 209, 248, 240
-0.990951, 185, 245, 248, 276
-0.990966, 329, 181, 392, 212
-0.990976, 97, 109, 160, 140
-0.991007, 353, 81, 480, 144
-0.991011, 129, 121, 256, 184
-0.991011, 221, 41, 252, 104
-0.991031, 85, 193, 116, 320
-0.991038, 53, 33, 84, 96
-0.991063, 129, 205, 192, 236
-0.991074, 385, 1, 448, 128
-0.991081, 289, 25, 352, 56
-0.991093, 337, 97, 400, 160
-0.991116, 321, 153, 384, 184
-0.991144, 209, 97, 272, 352
-0.991147, 321, 41, 384, 72
-0.991163, 377, 141, 440, 172
-0.991169, 89, 153, 152, 184
-0.991184, 121, 129, 184, 160
-0.99119, 129, 189, 192, 220
-0.991195, 101, 9, 132, 72
-0.9912, 153, 205, 216, 236
-0.991211, 345, 53, 408, 84
-0.99125, 153, 1, 216, 32
-0.991266, 1, 233, 256, 296
-0.991284, 317, 57, 348, 120
-0.991286, 169, 37, 232, 68
-0.991305, 169, 13, 232, 44
-0.991319, 65, 121, 128, 152
-0.991326, 97, 129, 160, 160
-0.991333, 217, 273, 280, 304
-0.991336, 165, 281, 196, 344
-0.991362, 57, 145, 88, 272
-0.991363, 273, 1, 336, 32
-0.991375, 129, 153, 192, 184
-0.991398, 381, 57, 412, 120
-0.991403, 81, 233, 144, 296
-0.991414, 201, 233, 264, 264
-0.991435, 409, 113, 440, 176
-0.991459, 81, 289, 144, 320
-0.991476, 161, 281, 224, 312
-0.991502, 113, 81, 176, 112
-0.991513, 57, 101, 120, 132
-0.991516, 141, 81, 172, 144
-0.991518, 321, 193, 384, 224
-0.991518, 369, 161, 400, 224
-0.99152, 97, 161, 352, 224
-0.991532, 193, 17, 256, 48
-0.991566, 249, 229, 312, 260
-0.991568, 89, 137, 120, 200
-0.991574, 13, 49, 44, 176
-0.991575, 121, 217, 184, 248
-0.991585, 201, 41, 264, 72
-0.991589, 33, 17, 64, 144
-0.991607, 49, 189, 112, 220
-0.99161, 233, 53, 296, 84
-0.991621, 225, 37, 288, 68
-0.991623, 129, 253, 192, 284
-0.991645, 409, 241, 440, 304
-0.991669, 145, 45, 208, 76
-0.991685, 57, 273, 120, 304
-0.991688, 257, 77, 320, 108
-0.991691, 273, 41, 336, 72
-0.991695, 137, 117, 200, 148
-0.9917, 153, 65, 216, 96
-0.991707, 317, 89, 348, 152
-0.991721, 257, 181, 320, 212
-0.991722, 53, 89, 84, 152
-0.991723, 41, 245, 104, 276
-0.991732, 37, 233, 68, 296
-0.991761, 25, 257, 88, 288
-0.991762, 113, 1, 176, 32
-0.991769, 89, 1, 120, 64
-0.991777, 141, 273, 172, 336
-0.991778, 129, 241, 192, 272
-0.99178, 345, 149, 408, 180
-0.991796, 45, 57, 76, 120
-0.991821, 185, 289, 248, 320
-0.991824, 369, 125, 432, 156
-0.991832, 137, 29, 200, 60
-0.991832, 289, 73, 352, 104
-0.991832, 241, 65, 304, 96
-0.991846, 73, 1, 136, 32
-0.991857, 9, 81, 72, 144
-0.991886, 313, 205, 376, 236
-0.991903, 169, 49, 232, 80
-0.991906, 289, 217, 352, 248
-0.991915, 97, 193, 352, 256
-0.99192, 209, 65, 272, 96
-0.991932, 209, 285, 272, 316
-0.991942, 1, 249, 64, 280
-0.99195, 49, 173, 112, 204
-0.991961, 129, 265, 192, 296
-0.991973, 169, 301, 232, 332
-0.991975, 217, 65, 248, 128
-0.991981, 137, 97, 200, 128
-0.991999, 129, 165, 192, 196
-0.992031, 377, 265, 440, 296
-0.992046, 393, 157, 456, 188
-0.992049, 73, 189, 136, 220
-0.992059, 129, 225, 384, 288
-0.992063, 105, 97, 168, 128
-0.992064, 169, 113, 232, 176
-0.992075, 265, 49, 296, 176
-0.992082, 89, 165, 152, 196
-0.992105, 129, 177, 192, 208
-0.992107, 313, 133, 376, 164
-0.992108, 353, 169, 416, 200
-0.992109, 345, 37, 408, 68
-0.992126, 393, 249, 456, 280
-0.992132, 17, 65, 80, 320
-0.992157, 73, 81, 136, 112
-0.992176, 401, 129, 464, 160
-0.992181, 1, 209, 64, 272
-0.992197, 145, 137, 208, 168
-0.992202, 57, 133, 120, 164
-0.99222, 121, 45, 184, 76
-0.99222, 97, 277, 160, 308
-0.992228, 353, 209, 480, 272
-0.992244, 25, 173, 88, 204
-0.992246, 161, 73, 192, 136
-0.992257, 249, 249, 312, 280
-0.992276, 33, 109, 96, 140
-0.992278, 297, 5, 360, 36
-0.992286, 25, 265, 56, 328
-0.992291, 185, 185, 248, 216
-0.992305, 9, 269, 72, 300
-0.992309, 161, 25, 224, 56
-0.992312, 145, 293, 208, 324
-0.992314, 129, 229, 192, 260
-0.992316, 57, 297, 120, 328
-0.99232, 81, 301, 144, 332
-0.992331, 313, 85, 376, 116
-0.992392, 105, 65, 136, 128
-0.992406, 413, 193, 444, 320
-0.992409, 197, 177, 228, 304
-0.992416, 333, 65, 364, 128
-0.992442, 97, 73, 352, 136
-0.992443, 365, 33, 396, 160
-0.992455, 237, 9, 268, 40
-0.992456, 153, 185, 184, 216
-0.992457, 161, 105, 192, 168
-0.992492, 49, 241, 80, 304
-0.992502, 345, 177, 376, 304
-0.992546, 1, 113, 256, 176
-0.992546, 45, 1, 76, 128
-0.992573, 305, 265, 432, 328
-0.992578, 193, 193, 448, 256
-0.99258, 225, 13, 256, 44
-0.992583, 193, 81, 320, 144
-0.992599, 409, 97, 472, 352
-0.992606, 305, 181, 336, 212
-0.992611, 33, 225, 64, 352
-0.992613, 45, 225, 76, 352
-0.992615, 61, 193, 92, 320
-0.992621, 149, 49, 180, 176
-0.992635, 157, 241, 188, 272
-0.992647, 297, 193, 328, 224
-0.992648, 225, 41, 480, 104
-0.992649, 161, 201, 192, 232
-0.992675, 333, 41, 364, 72
-0.992676, 269, 17, 300, 48
-0.992679, 317, 169, 348, 200
-0.992683, 241, 193, 272, 224
-0.992686, 205, 253, 236, 284
-0.99269, 81, 285, 112, 316
-0.992698, 157, 257, 188, 288
-0.992699, 193, 249, 224, 280
-0.992715, 1, 1, 64, 360
-0.992742, 205, 265, 236, 296
-0.992756, 9, 1, 40, 128
-0.992775, 249, 13, 280, 44
-0.992789, 337, 153, 368, 184
-0.99279, 321, 37, 352, 68
-0.992797, 201, 65, 232, 192
-0.992801, 1, 161, 480, 224
-0.992803, 193, 169, 448, 232
-0.992803, 249, 37, 280, 68
-0.992803, 229, 233, 260, 264
-0.992804, 349, 53, 380, 84
-0.992805, 285, 57, 316, 88
-0.992807, 265, 5, 296, 36
-0.99281, 105, 133, 136, 164
-0.992825, 353, 145, 384, 176
-0.992851, 25, 253, 56, 284
-0.992856, 105, 93, 136, 124
-0.992863, 237, 21, 268, 52
-0.992865, 229, 197, 260, 228
-0.992869, 133, 141, 164, 172
-0.992876, 157, 213, 188, 244
-0.992883, 221, 25, 252, 56
-0.992893, 129, 137, 384, 200
-0.992937, 217, 225, 248, 256
-0.992942, 197, 237, 228, 268
-0.992944, 177, 257, 208, 288
-0.992949, 281, 1, 312, 32
-0.992957, 217, 257, 248, 288
-0.99296, 293, 205, 324, 236
-0.992963, 189, 33, 220, 64
-0.992964, 225, 1, 480, 64
-0.992965, 281, 45, 312, 76
-0.992969, 149, 197, 180, 228
-0.992972, 161, 229, 192, 260
-0.992973, 209, 29, 240, 60
-0.992978, 297, 37, 328, 68
-0.992989, 37, 257, 68, 288
-0.992994, 333, 185, 364, 216
-0.992994, 213, 285, 244, 316
-0.992999, 97, 117, 128, 148
-0.993003, 145, 173, 176, 204
-0.993008, 421, 145, 452, 272
-0.993011, 93, 285, 124, 316
-0.993013, 125, 129, 156, 160
-0.993014, 177, 41, 208, 72
-0.993019, 325, 157, 356, 188
-0.993024, 245, 225, 276, 256
-0.993024, 117, 149, 148, 180
-0.993029, 281, 21, 312, 52
-0.993034, 33, 33, 288, 96
-0.993035, 281, 77, 312, 108
-0.993037, 117, 97, 148, 128
-0.993045, 337, 53, 368, 84
-0.993047, 169, 213, 200, 244
-0.993056, 241, 265, 272, 296
-0.993063, 93, 89, 124, 120
-0.993066, 309, 53, 340, 84
-0.993075, 253, 237, 284, 268
-0.993078, 401, 145, 432, 176
-0.993093, 145, 217, 176, 248
-0.993094, 89, 297, 120, 328
-0.993094, 13, 209, 44, 336
-0.993097, 165, 185, 196, 216
-0.993098, 117, 109, 148, 140
-0.993101, 233, 253, 264, 284
-0.993102, 265, 45, 296, 76
-0.993105, 73, 93, 104, 124
-0.993107, 225, 41, 256, 72
-0.993109, 189, 269, 220, 300
-0.993109, 225, 273, 256, 304
-0.99312, 249, 25, 280, 56
-0.993134, 417, 1, 480, 360
-0.993135, 109, 13, 140, 44
-0.993136, 321, 53, 352, 84
-0.993137, 137, 197, 168, 228
-0.993137, 389, 141, 420, 172
-0.993138, 141, 153, 172, 184
-0.99314, 181, 217, 212, 248
-0.993153, 73, 177, 104, 208
-0.993158, 321, 197, 352, 228
-0.993159, 149, 269, 180, 300
-0.99316, 169, 245, 200, 276
-0.993161, 161, 269, 192, 300
-0.993164, 121, 41, 152, 72
-0.993165, 301, 209, 332, 336
-0.993167, 29, 269, 60, 300
-0.993167, 345, 177, 376, 208
-0.99317, 257, 221, 288, 252
-0.993176, 153, 13, 184, 44
-0.993177, 377, 137, 408, 168
-0.993179, 365, 137, 396, 168
-0.993179, 209, 237, 240, 268
-0.993189, 141, 185, 172, 216
-0.993192, 173, 201, 204, 232
-0.993196, 193, 285, 224, 316
-0.993197, 37, 245, 68, 276
-0.993197, 213, 213, 244, 244
-0.993199, 37, 57, 68, 88
-0.993205, 233, 53, 264, 84
-0.993211, 141, 121, 172, 152
-0.993212, 241, 213, 272, 244
-0.993212, 313, 209, 344, 336
-0.993212, 125, 161, 156, 192
-0.993216, 141, 245, 172, 276
-0.993216, 49, 249, 80, 280
-0.993218, 393, 125, 424, 156
-0.993218, 1, 209, 256, 272
-0.993221, 137, 1, 168, 32
-0.993231, 293, 217, 324, 248
-0.993231, 141, 257, 172, 288
-0.993234, 253, 1, 284, 32
-0.993235, 153, 153, 184, 184
-0.993237, 425, 157, 456, 188
-0.993239, 297, 53, 328, 84
-0.993243, 133, 37, 164, 68
-0.993244, 161, 1, 192, 32
-0.993244, 141, 13, 172, 44
-0.993248, 93, 5, 124, 36
-0.993261, 181, 237, 212, 268
-0.993267, 101, 25, 132, 56
-0.993267, 33, 1, 288, 64
-0.993267, 53, 53, 84, 84
-0.993267, 241, 37, 368, 68
-0.993268, 241, 237, 272, 268
-0.993269, 161, 49, 192, 80
-0.993272, 57, 189, 88, 220
-0.99328, 1, 257, 256, 320
-0.993281, 133, 173, 164, 204
-0.993286, 117, 29, 148, 60
-0.993286, 413, 153, 444, 184
-0.993289, 245, 249, 276, 280
-0.993302, 209, 197, 336, 228
-0.993329, 1, 153, 256, 216
-0.993338, 289, 241, 416, 304
-0.993358, 409, 145, 440, 272
-0.993394, 385, 1, 448, 360
-0.993413, 1, 137, 480, 200
-0.99342, 385, 145, 416, 272
-0.993454, 243, 1, 258, 64
-0.993519, 53, 97, 84, 224
-0.993525, 97, 273, 352, 336
-0.993555, 1, 185, 256, 248
-0.993578, 161, 145, 288, 208
-0.993607, 233, 49, 264, 176
-0.993615, 61, 17, 92, 144
-0.993639, 167, 177, 182, 240
-0.993655, 193, 21, 320, 52
-0.993663, 161, 249, 416, 312
-0.993686, 161, 209, 288, 240
-0.993687, 327, 161, 342, 224
-0.993843, 209, 209, 336, 240
-0.993899, 225, 129, 352, 192
-0.993903, 129, 261, 256, 292
-0.993906, 177, 121, 304, 184
-0.994034, 129, 249, 256, 280
-0.99404, 275, 1, 290, 64
-0.994075, 337, 153, 352, 216
-0.994126, 1, 113, 480, 176
-0.99414, 145, 229, 272, 260
-0.994143, 21, 161, 52, 288
-0.994177, 33, 97, 64, 224
-0.99424, 221, 145, 252, 272
-0.99426, 1, 81, 256, 144
-0.994302, 241, 25, 368, 56
-0.994323, 289, 181, 416, 212
-0.99435, 163, 217, 178, 280
-0.99435, 105, 209, 136, 336
-0.994352, 437, 209, 468, 336
-0.994357, 305, 169, 432, 200
-0.994361, 161, 197, 288, 228
-0.994372, 241, 185, 368, 216
-0.994387, 277, 65, 308, 192
-0.994398, 1, 9, 480, 72
-0.994406, 349, 145, 364, 208
-0.994412, 173, 65, 204, 192
-0.994442, 397, 161, 428, 288
-0.994451, 255, 193, 270, 256
-0.99448, 253, 145, 284, 272
-0.994505, 209, 249, 224, 312
-0.994537, 177, 37, 304, 68
-0.994551, 257, 53, 384, 84
-0.99459, 161, 105, 416, 168
-0.994601, 225, 145, 480, 208
-0.994613, 257, 197, 384, 228
-0.994621, 317, 169, 332, 232
-0.994631, 417, 17, 480, 144
-0.994648, 1, 73, 480, 136
-0.99465, 193, 229, 320, 260
-0.994727, 233, 193, 248, 256
-0.994744, 193, 65, 448, 128
-0.994744, 193, 9, 320, 40
-0.994827, 219, 241, 234, 304
-0.994844, 311, 177, 326, 240
-0.994848, 255, 225, 270, 288
-0.99486, 337, 141, 464, 172
-0.994872, 343, 153, 358, 216
-0.99491, 401, 225, 432, 352
-0.994916, 385, 33, 416, 160
-0.994992, 1, 33, 480, 96
-0.995015, 281, 1, 296, 64
-0.995058, 257, 281, 384, 344
-0.995059, 145, 21, 272, 52
-0.995063, 355, 145, 370, 208
-0.995076, 269, 9, 284, 72
-0.995079, 81, 17, 112, 144
-0.995089, 277, 161, 308, 288
-0.995105, 295, 49, 310, 112
-0.995129, 335, 33, 350, 96
-0.995138, 289, 49, 304, 112
-0.995161, 237, 1, 252, 64
-0.995176, 249, 1, 264, 64
-0.995198, 231, 9, 246, 72
-0.995226, 21, 113, 52, 240
-0.995263, 81, 245, 208, 276
-0.995271, 421, 97, 452, 224
-0.995271, 257, 1, 384, 32
-0.995276, 249, 233, 264, 296
-0.995285, 249, 193, 264, 256
-0.995331, 97, 225, 224, 256
-0.995345, 301, 185, 316, 248
-0.995362, 161, 185, 176, 248
-0.995376, 193, 69, 320, 100
-0.995402, 161, 241, 176, 304
-0.995419, 169, 209, 184, 272
-0.995421, 193, 49, 320, 80
-0.99548, 263, 17, 278, 80
-0.995487, 229, 225, 244, 288
-0.995501, 277, 41, 292, 104
-0.995512, 425, 225, 456, 352
-0.995521, 239, 185, 254, 248
-0.995578, 241, 13, 368, 44
-0.995619, 321, 153, 448, 184
-0.99563, 177, 265, 304, 296
-0.995637, 177, 245, 304, 276
-0.995643, 97, 277, 224, 308
-0.995652, 203, 33, 218, 96
-0.995655, 95, 281, 110, 344
-0.995655, 65, 97, 192, 128
-0.995672, 363, 137, 378, 200
-0.995676, 243, 233, 258, 296
-0.995693, 337, 1, 352, 64
-0.9957, 225, 217, 480, 280
-0.995708, 397, 65, 428, 192
-0.995716, 353, 281, 480, 344
-0.995721, 157, 209, 172, 272
-0.995732, 289, 1, 304, 64
-0.995733, 283, 41, 298, 104
-0.995733, 33, 297, 288, 360
-0.995736, 81, 201, 208, 232
-0.995737, 237, 233, 252, 296
-0.995741, 257, 209, 384, 240
-0.995764, 81, 213, 208, 244
-0.995764, 33, 177, 64, 304
-0.995782, 1, 57, 256, 120
-0.995784, 203, 241, 218, 304
-0.995814, 241, 221, 368, 252
-0.995868, 215, 33, 230, 96
-0.995904, 161, 273, 176, 336
-0.995924, 49, 185, 176, 216
-0.995927, 161, 297, 416, 360
-0.99595, 241, 173, 368, 204
-0.995958, 131, 105, 146, 168
-0.99596, 113, 5, 240, 36
-0.995964, 301, 49, 316, 112
-0.995977, 289, 37, 416, 68
-0.995978, 1, 185, 480, 248
-0.995988, 307, 49, 322, 112
-0.995998, 39, 241, 54, 304
-0.995999, 239, 41, 254, 104
-0.996015, 81, 117, 208, 148
-0.996044, 341, 33, 356, 96
-0.996049, 95, 249, 110, 312
-0.996052, 331, 1, 346, 64
-0.996065, 129, 145, 144, 208
-0.996078, 81, 257, 208, 288
-0.996083, 113, 89, 128, 152
-0.996085, 225, 17, 240, 80
-0.996102, 45, 177, 76, 304
-0.996128, 89, 273, 104, 336
-0.996129, 119, 129, 134, 192
-0.996173, 261, 217, 276, 280
-0.99619, 353, 169, 480, 200
-0.996217, 257, 9, 272, 72
-0.996235, 201, 265, 216, 328
-0.996245, 97, 81, 224, 112
-0.99628, 329, 33, 344, 96
-0.99628, 173, 185, 188, 248
-0.996287, 369, 137, 384, 200
-0.996291, 49, 169, 176, 200
-0.996298, 179, 217, 194, 280
-0.9963, 135, 161, 150, 224
-0.996324, 379, 137, 394, 200
-0.996326, 401, 1, 464, 256
-0.996332, 1, 209, 480, 272
-0.996341, 209, 33, 224, 96
-0.996355, 337, 225, 400, 352
-0.996356, 273, 69, 400, 100
-0.996359, 103, 81, 118, 144
-0.996377, 119, 89, 134, 152
-0.99638, 347, 41, 362, 104
-0.99638, 129, 37, 256, 68
-0.996388, 137, 113, 152, 176
-0.996389, 319, 1, 334, 64
-0.996394, 167, 153, 182, 216
-0.99641, 155, 257, 170, 320
-0.99641, 47, 249, 62, 312
-0.996424, 179, 41, 194, 104
-0.996435, 299, 25, 314, 88
-0.996436, 257, 161, 384, 192
-0.996442, 97, 21, 224, 52
-0.996443, 321, 97, 352, 352
-0.996444, 355, 49, 370, 112
-0.996446, 313, 49, 328, 112
-0.996447, 313, 17, 328, 80
-0.996459, 305, 289, 432, 352
-0.996477, 195, 225, 210, 288
-0.996482, 323, 25, 338, 88
-0.996482, 179, 249, 194, 312
-0.996493, 179, 9, 194, 72
-0.996496, 113, 121, 128, 184
-0.996514, 193, 273, 448, 336
-0.996532, 33, 113, 160, 144
-0.996537, 403, 137, 418, 200
-0.996545, 129, 185, 256, 216
-0.996558, 227, 201, 242, 264
-0.996561, 17, 93, 144, 124
-0.996572, 339, 177, 354, 240
-0.996575, 185, 217, 200, 280
-0.996577, 349, 169, 364, 232
-0.99659, 155, 1, 170, 64
-0.996604, 325, 1, 340, 64
-0.996606, 295, 193, 310, 256
-0.996615, 1, 145, 32, 272
-0.996621, 305, 49, 432, 80
-0.996633, 331, 185, 346, 248
-0.996634, 209, 225, 224, 288
-0.996647, 81, 149, 208, 180
-0.996649, 65, 37, 192, 68
-0.996655, 325, 1, 356, 256
-0.996656, 393, 137, 408, 200
-0.996668, 171, 241, 186, 304
-0.996678, 301, 1, 332, 256
-0.996681, 307, 17, 322, 80
-0.99669, 151, 193, 166, 256
-0.996733, 173, 41, 188, 104
-0.996741, 353, 1, 480, 64
-0.996756, 319, 49, 334, 112
-0.996764, 289, 129, 320, 256
-0.996772, 81, 129, 208, 160
-0.996786, 299, 1, 314, 64
-0.996794, 189, 33, 204, 96
-0.996794, 65, 89, 80, 152
-0.996802, 337, 181, 464, 212
-0.996805, 225, 257, 352, 288
-0.996809, 145, 177, 160, 240
-0.996818, 101, 281, 116, 344
-0.996818, 189, 1, 204, 64
-0.996827, 209, 273, 224, 336
-0.996827, 245, 25, 260, 88
-0.996836, 189, 249, 204, 312
-0.996873, 283, 65, 298, 128
-0.996873, 409, 113, 424, 176
-0.996886, 345, 33, 376, 288
-0.996928, 315, 201, 330, 264
-0.996937, 145, 69, 272, 100
-0.996937, 145, 49, 272, 80
-0.996937, 167, 49, 182, 112
-0.996944, 433, 161, 464, 288
-0.996948, 125, 97, 140, 160
-0.996952, 225, 249, 240, 312
-0.996953, 1, 193, 32, 320
-0.996956, 367, 57, 382, 120
-0.996957, 143, 121, 158, 184
-0.996961, 97, 81, 112, 144
-0.996969, 1, 241, 480, 304
-0.996977, 113, 101, 240, 132
-0.996978, 193, 81, 320, 112
-0.996981, 197, 25, 212, 88
-0.996981, 269, 41, 284, 104
-0.996982, 113, 1, 128, 64
-0.996982, 241, 85, 368, 116
-0.996984, 167, 273, 182, 336
-0.996996, 305, 197, 432, 228
-0.997001, 97, 69, 224, 100
-0.997009, 37, 265, 52, 328
-0.997021, 1, 185, 128, 216
-0.997021, 113, 329, 240, 360
-0.997022, 195, 249, 210, 312
-0.997024, 1, 81, 128, 112
-0.997025, 33, 137, 160, 168
-0.997025, 355, 169, 370, 232
-0.997061, 219, 273, 234, 336
-0.997062, 233, 33, 248, 96
-0.997077, 365, 177, 396, 304
-0.997083, 309, 97, 340, 352
-0.997098, 95, 285, 110, 316
-0.997108, 129, 289, 256, 320
-0.997111, 33, 17, 160, 48
-0.997112, 129, 97, 160, 352
-0.997123, 113, 1, 144, 256
-0.99713, 1, 273, 480, 336
-0.997133, 141, 1, 172, 256
-0.997149, 161, 97, 192, 352
-0.997155, 313, 1, 344, 256
-0.99719, 333, 97, 364, 352
-0.99719, 129, 317, 256, 348
-0.997203, 433, 81, 464, 208
-0.997204, 17, 249, 144, 280
-0.997207, 167, 185, 182, 216
-0.997267, 145, 277, 272, 308
-0.997311, 193, 285, 320, 316
-0.997312, 337, 129, 464, 160
-0.997315, 129, 305, 256, 336
-0.997333, 1, 169, 128, 200
-0.997379, 353, 229, 480, 260
-0.997415, 377, 209, 408, 336
-0.997433, 49, 233, 176, 264
-0.997436, 193, 185, 320, 216
-0.997441, 49, 61, 176, 92
-0.997457, 33, 153, 160, 184
-0.997457, 225, 245, 352, 276
-0.997461, 65, 313, 192, 344
-0.997466, 343, 45, 358, 76
-0.997474, 81, 49, 208, 80
-0.997482, 285, 65, 316, 320
-0.997488, 241, 9, 256, 40
-0.997504, 39, 253, 54, 284
-0.997508, 141, 97, 172, 352
-0.997509, 321, 21, 448, 52
-0.997509, 247, 9, 262, 40
-0.997525, 349, 49, 364, 80
-0.997534, 1, 285, 128, 316
-0.997551, 225, 21, 240, 52
-0.997557, 65, 289, 192, 320
-0.997576, 265, 129, 296, 256
-0.997587, 233, 1, 264, 256
-0.997594, 337, 117, 464, 148
-0.997598, 305, 209, 432, 240
-0.9976, 277, 9, 292, 40
-0.997605, 281, 225, 312, 352
-0.99761, 289, 81, 416, 112
-0.997613, 297, 97, 328, 352
-0.997614, 193, 297, 320, 328
-0.997622, 181, 1, 212, 256
-0.997639, 231, 13, 246, 44
-0.997649, 353, 269, 480, 300
-0.997665, 273, 1, 304, 256
-0.997674, 273, 149, 400, 180
-0.997676, 335, 37, 350, 68
-0.997712, 17, 261, 144, 292
-0.997718, 153, 1, 184, 256
-0.997758, 161, 241, 176, 272
-0.997763, 49, 73, 176, 104
-0.997766, 163, 217, 178, 248
-0.997769, 17, 125, 144, 156
-0.997789, 305, 97, 432, 128
-0.997791, 89, 97, 120, 352
-0.997812, 337, 249, 464, 280
-0.997827, 249, 49, 280, 176
-0.997831, 163, 197, 178, 228
-0.997833, 49, 49, 80, 176
-0.997836, 273, 233, 400, 264
-0.997845, 305, 185, 320, 216
-0.997847, 361, 33, 392, 288
-0.997869, 101, 161, 132, 288
-0.997871, 283, 9, 298, 40
-0.997879, 241, 45, 256, 76
-0.997885, 209, 249, 224, 280
-0.997894, 89, 285, 104, 316
-0.997897, 257, 129, 384, 160
-0.997901, 247, 253, 262, 284
-0.997902, 1, 237, 128, 268
-0.99791, 319, 173, 334, 204
-0.99791, 113, 169, 240, 200
-0.997912, 329, 161, 344, 192
-0.997916, 271, 13, 286, 44
-0.997922, 253, 13, 268, 44
-0.997924, 337, 33, 464, 64
-0.997929, 1, 45, 128, 76
-0.997939, 129, 141, 256, 172
-0.997941, 293, 45, 308, 76
-0.997952, 355, 53, 370, 84
-0.997954, 313, 177, 328, 208
-0.997971, 73, 65, 104, 320
-0.997981, 337, 157, 352, 188
-0.997983, 201, 1, 232, 256
-0.997986, 285, 61, 300, 92
-0.997995, 257, 197, 272, 228
-0.998, 203, 249, 218, 280
-0.998006, 217, 253, 232, 284
-0.998008, 207, 265, 222, 296
-0.998031, 33, 5, 160, 36
-0.998031, 1, 33, 128, 64
-0.998037, 129, 113, 256, 144
-0.998037, 33, 325, 160, 356
-0.99805, 225, 269, 352, 300
-0.99805, 161, 253, 176, 284
-0.998061, 121, 137, 136, 168
-0.998074, 349, 153, 364, 184
-0.998101, 299, 197, 314, 228
-0.998104, 163, 229, 178, 260
-0.998104, 241, 233, 256, 264
-0.998104, 229, 225, 244, 256
-0.998105, 157, 181, 172, 212
-0.998108, 127, 149, 142, 180
-0.998117, 129, 129, 256, 160
-0.998122, 1, 273, 128, 304
-0.998124, 291, 57, 306, 88
-0.998124, 117, 97, 148, 352
-0.998125, 33, 201, 160, 232
-0.998127, 257, 97, 384, 128
-0.998138, 101, 285, 116, 316
-0.998154, 145, 81, 272, 112
-0.998156, 173, 97, 204, 352
-0.998159, 17, 297, 144, 328
-0.998161, 265, 21, 280, 52
-0.99817, 1, 225, 128, 256
-0.998171, 363, 57, 378, 88
-0.998177, 329, 33, 344, 64
-0.998178, 281, 45, 296, 76
-0.998181, 359, 145, 374, 176
-0.998182, 239, 193, 254, 224
-0.998197, 337, 61, 464, 92
-0.9982, 115, 129, 130, 160
-0.998202, 343, 153, 358, 184
-0.998204, 233, 197, 248, 228
-0.998207, 245, 1, 276, 256
-0.998209, 129, 1, 160, 256
-0.998213, 219, 25, 234, 56
-0.998214, 47, 261, 62, 292
-0.998225, 193, 317, 320, 348
-0.998227, 117, 85, 132, 116
-0.998227, 225, 149, 352, 180
-0.998227, 289, 221, 416, 252
-0.998235, 133, 161, 148, 192
-0.998246, 297, 57, 312, 88
-0.998252, 301, 41, 316, 72
-0.998253, 1, 57, 128, 88
-0.998253, 95, 297, 110, 328
-0.998255, 259, 221, 274, 252
-0.998255, 49, 1, 80, 256
-0.99826, 169, 213, 184, 244
-0.998263, 281, 21, 296, 52
-0.998265, 89, 1, 120, 256
-0.998266, 251, 237, 266, 268
-0.998268, 49, 273, 176, 304
-0.998276, 203, 33, 218, 64
-0.998276, 289, 1, 304, 32
-0.998285, 217, 1, 248, 256
-0.998286, 181, 41, 196, 72
-0.998289, 219, 241, 234, 272
-0.998291, 117, 1, 132, 32
-0.998293, 195, 253, 210, 284
-0.998295, 175, 45, 190, 76
-0.998318, 337, 77, 464, 108
-0.998324, 135, 141, 150, 172
-0.99833, 259, 17, 274, 48
-0.998332, 155, 201, 170, 232
-0.998338, 155, 13, 170, 44
-0.998341, 257, 229, 288, 244
-0.998341, 169, 1, 200, 256
-0.998341, 285, 71, 316, 86
-0.998342, 237, 29, 252, 60
-0.998342, 109, 147, 140, 162
-0.998342, 257, 223, 288, 238
-0.998342, 193, 269, 224, 284
-0.998342, 117, 153, 148, 168
-0.998342, 173, 271, 204, 286
-0.998343, 189, 35, 220, 50
-0.998343, 261, 217, 292, 232
-0.998344, 121, 107, 152, 122
-0.998344, 149, 155, 180, 170
-0.998344, 343, 57, 358, 88
-0.998345, 209, 277, 240, 292
-0.998345, 125, 115, 156, 130
-0.998345, 77, 199, 108, 214
-0.998345, 153, 1, 168, 32
-0.998346, 393, 143, 424, 158
-0.998347, 345, 149, 376, 164
-0.998347, 117, 163, 148, 178
-0.998348, 161, 9, 192, 24
-0.998349, 161, 233, 192, 248
-0.99835, 281, 81, 312, 96
-0.99835, 221, 235, 252, 250
-0.998351, 225, 281, 256, 296
-0.998351, 77, 293, 108, 308
-0.998352, 293, 215, 324, 230
-0.998352, 241, 267, 272, 282
-0.998353, 233, 29, 264, 44
-0.998354, 73, 179, 104, 194
-0.998354, 193, 289, 224, 304
-0.998354, 141, 263, 172, 278
-0.998354, 221, 41, 252, 56
-0.998355, 171, 201, 186, 232
-0.998356, 241, 37, 272, 52
-0.998357, 117, 87, 148, 102
-0.998357, 233, 201, 264, 216
-0.998357, 325, 39, 356, 54
-0.998357, 141, 257, 172, 272
-0.998357, 281, 5, 312, 20
-0.998357, 141, 215, 172, 230
-0.998358, 121, 133, 152, 148
-0.998358, 211, 33, 226, 64
-0.998358, 217, 271, 248, 286
-0.998359, 205, 247, 236, 262
-0.998359, 133, 9, 164, 24
-0.99836, 229, 251, 260, 266
-0.99836, 101, 27, 132, 42
-0.998361, 25, 261, 56, 276
-0.998362, 209, 27, 240, 42
-0.998362, 73, 283, 104, 298
-0.998362, 159, 1, 174, 32
-0.998363, 101, 33, 132, 288
-0.998364, 325, 57, 356, 72
-0.998364, 317, 33, 348, 48
-0.998364, 105, 141, 136, 156
-0.998365, 405, 147, 436, 162
-0.998366, 219, 273, 234, 304
-0.998366, 133, 149, 164, 164
-0.998366, 269, 9, 300, 24
-0.998367, 245, 201, 276, 216
-0.998369, 161, 93, 288, 124
-0.998369, 169, 253, 200, 268
-0.998369, 161, 239, 192, 254
-0.99837, 189, 259, 220, 274
-0.998371, 281, 61, 312, 76
-0.998371, 109, 95, 140, 110
-0.998371, 369, 141, 400, 156
-0.998372, 169, 259, 200, 274
-0.998376, 101, 297, 116, 328
-0.998376, 109, 15, 140, 30
-0.998377, 209, 221, 240, 236
-0.998377, 353, 97, 480, 128
-0.998378, 165, 191, 196, 206
-0.998378, 319, 53, 334, 84
-0.998379, 201, 269, 216, 300
-0.998379, 245, 233, 276, 248
-0.998379, 145, 179, 176, 194
-0.998381, 147, 189, 162, 220
-0.998382, 213, 289, 244, 304
-0.998383, 137, 109, 152, 140
-0.998383, 141, 201, 172, 216
-0.998384, 281, 21, 312, 36
-0.998384, 309, 181, 340, 196
-0.998385, 307, 53, 322, 84
-0.998387, 165, 185, 196, 200
-0.998387, 73, 191, 104, 206
-0.998389, 97, 9, 128, 24
-0.998389, 333, 45, 364, 60
-0.99839, 313, 55, 344, 70
-0.99839, 61, 97, 92, 352
-0.998391, 129, 101, 144, 132
-0.998393, 217, 253, 248, 268
-0.998394, 181, 41, 212, 56
-0.998394, 105, 135, 136, 150
-0.998394, 381, 141, 412, 156
-0.998394, 139, 169, 154, 200
-0.998395, 93, 91, 124, 106
-0.998396, 65, 301, 192, 332
-0.998399, 113, 13, 128, 44
-0.9984, 133, 155, 164, 170
-0.9984, 227, 281, 242, 312
-0.998401, 325, 165, 356, 180
-0.998402, 177, 219, 208, 234
-0.998403, 225, 265, 256, 280
-0.998404, 337, 57, 368, 72
-0.998404, 217, 229, 248, 244
-0.998404, 209, 281, 224, 312
-0.998404, 233, 235, 264, 250
-0.998405, 245, 21, 276, 36
-0.998406, 149, 207, 180, 222
-0.998407, 281, 11, 312, 26
-0.998407, 137, 161, 168, 176
-0.998408, 1, 69, 128, 100
-0.998409, 213, 33, 244, 48
-0.99841, 157, 221, 172, 252
-0.99841, 157, 221, 188, 236
-0.998411, 161, 277, 176, 308
-0.998412, 161, 275, 192, 290
-0.998413, 37, 261, 68, 276
-0.998413, 129, 143, 160, 158
-0.998413, 89, 297, 120, 312
-0.998414, 89, 93, 104, 124
-0.998415, 249, 225, 264, 256
-0.998419, 217, 285, 232, 316
-0.998425, 297, 209, 328, 224
-0.998427, 165, 69, 180, 100
-0.998428, 169, 229, 184, 260
-0.998428, 317, 175, 348, 190
-0.998428, 293, 57, 324, 72
-0.998429, 353, 217, 480, 248
-0.998431, 337, 155, 368, 170
-0.998437, 349, 61, 380, 76
-0.998437, 99, 89, 114, 120
-0.998437, 357, 145, 388, 160
-0.998438, 111, 117, 126, 148
-0.99844, 157, 245, 188, 260
-0.998441, 153, 199, 184, 214
-0.998441, 269, 21, 300, 36
-0.998442, 383, 137, 398, 168
-0.998444, 237, 227, 268, 242
-0.998444, 201, 35, 232, 50
-0.998445, 161, 209, 192, 224
-0.998445, 247, 53, 262, 84
-0.998446, 153, 185, 184, 200
-0.998448, 29, 255, 60, 270
-0.998448, 301, 195, 332, 210
-0.998448, 297, 201, 328, 216
-0.99845, 187, 41, 202, 72
-0.998452, 123, 97, 138, 128
-0.998456, 47, 49, 62, 80
-0.998456, 181, 253, 196, 284
-0.998456, 249, 15, 280, 30
-0.998457, 205, 265, 236, 280
-0.998457, 123, 29, 138, 60
-0.998464, 157, 253, 188, 268
-0.998464, 155, 269, 170, 300
-0.998466, 243, 21, 258, 52
-0.998466, 349, 55, 380, 70
-0.998466, 197, 253, 228, 268
-0.998469, 161, 215, 192, 230
-0.99847, 287, 45, 302, 76
-0.99847, 153, 193, 184, 208
-0.99847, 157, 269, 188, 284
-0.99847, 209, 237, 224, 268
-0.998471, 269, 15, 300, 30
-0.998472, 225, 15, 288, 30
-0.998475, 221, 27, 252, 42
-0.998477, 305, 187, 336, 202
-0.998478, 225, 201, 288, 216
-0.998479, 225, 19, 256, 34
-0.998482, 209, 259, 272, 274
-0.998482, 249, 219, 312, 234
-0.998485, 235, 229, 250, 260
-0.998488, 213, 259, 244, 274
-0.998489, 337, 51, 368, 66
-0.998489, 197, 33, 212, 64
-0.998489, 333, 53, 348, 84
-0.998491, 279, 61, 294, 92
-0.998492, 257, 213, 320, 228
-0.998494, 397, 141, 412, 172
-0.998495, 217, 217, 280, 232
-0.998497, 153, 267, 216, 282
-0.998497, 353, 143, 416, 158
-0.998498, 153, 261, 216, 276
-0.998498, 69, 97, 84, 128
-0.9985, 325, 193, 340, 224
-0.998504, 157, 263, 188, 278
-0.998504, 257, 207, 320, 222
-0.998505, 161, 229, 224, 244
-0.998506, 217, 21, 280, 36
-0.998507, 305, 179, 368, 194
-0.998507, 89, 287, 120, 302
-0.998507, 255, 265, 270, 296
-0.998508, 187, 249, 202, 280
-0.998508, 33, 89, 48, 120
-0.998509, 257, 199, 320, 214
-0.99851, 237, 195, 268, 210
-0.998512, 293, 201, 308, 232
-0.998514, 245, 193, 260, 224
-0.998515, 217, 207, 280, 222
-0.998516, 297, 187, 360, 202
-0.998517, 409, 129, 424, 160
-0.998517, 423, 153, 438, 184
-0.998518, 201, 265, 264, 280
-0.99852, 193, 227, 256, 242
-0.99852, 313, 55, 376, 70
-0.998521, 39, 269, 54, 300
-0.998523, 65, 173, 80, 204
-0.998524, 237, 97, 268, 352
-0.998524, 81, 93, 144, 108
-0.998528, 365, 141, 380, 172
-0.998528, 217, 27, 280, 42
-0.998528, 185, 39, 248, 54
-0.998531, 249, 225, 312, 240
-0.998533, 241, 9, 304, 24
-0.998537, 289, 57, 352, 72
-0.998537, 217, 223, 280, 238
-0.998538, 289, 205, 352, 220
-0.998538, 161, 223, 224, 238
-0.99854, 225, 195, 288, 210
-0.998542, 153, 245, 216, 260
-0.998544, 297, 195, 360, 210
-0.998545, 237, 177, 252, 304
-0.998547, 257, 193, 320, 208
-0.998553, 161, 235, 224, 250
-0.998553, 313, 173, 376, 188
-0.998556, 193, 33, 256, 48
-0.998556, 121, 143, 184, 158
-0.998557, 89, 149, 152, 164
-0.998559, 247, 177, 262, 304
-0.998559, 185, 221, 248, 236
-0.998559, 169, 253, 232, 268
-0.998562, 297, 37, 360, 52
-0.998563, 193, 273, 256, 288
-0.998565, 89, 141, 152, 156
-0.998566, 153, 199, 216, 214
-0.998567, 289, 211, 352, 226
-0.998567, 193, 233, 256, 248
-0.99857, 225, 35, 288, 50
-0.998571, 57, 287, 120, 302
-0.998572, 153, 193, 216, 208
-0.998573, 217, 229, 280, 244
-0.998573, 249, 231, 312, 246
-0.998577, 313, 167, 376, 182
-0.998578, 153, 213, 216, 228
-0.998583, 153, 273, 216, 288
-0.998584, 177, 265, 240, 280
-0.998585, 185, 259, 248, 274
-0.998585, 145, 255, 208, 270
-0.998586, 89, 155, 152, 170
-0.998587, 121, 149, 184, 164
-0.998588, 233, 41, 296, 56
-0.998589, 185, 215, 248, 230
-0.99859, 329, 159, 392, 174
-0.998594, 313, 49, 376, 64
-0.998595, 217, 235, 280, 250
-0.998595, 273, 7, 336, 22
-0.998595, 185, 9, 248, 24
-0.998597, 249, 15, 312, 30
-0.998598, 89, 161, 152, 176
-0.998598, 81, 289, 144, 304
-0.998601, 129, 195, 192, 210
-0.998601, 49, 193, 112, 208
-0.998603, 289, 31, 352, 46
-0.998603, 129, 159, 192, 174
-0.998604, 297, 43, 360, 58
-0.998604, 257, 35, 320, 50
-0.998607, 337, 153, 400, 168
-0.998607, 177, 15, 240, 30
-0.998607, 345, 53, 408, 68
-0.998609, 321, 195, 384, 210
-0.998609, 209, 253, 272, 268
-0.99861, 97, 111, 160, 126
-0.998611, 277, 1, 292, 128
-0.998612, 153, 205, 216, 220
-0.998612, 145, 7, 208, 22
-0.998612, 233, 11, 264, 26
-0.998613, 129, 205, 192, 220
-0.998613, 129, 261, 192, 276
-0.998613, 57, 293, 120, 308
-0.998615, 65, 115, 128, 130
-0.998615, 241, 3, 304, 18
-0.998616, 337, 61, 400, 76
-0.998618, 257, 29, 320, 44
-0.998618, 289, 217, 352, 232
-0.998619, 169, 287, 232, 302
-0.99862, 137, 119, 200, 134
-0.998621, 97, 117, 160, 132
-0.998622, 241, 57, 304, 72
-0.998623, 113, 137, 176, 152
-0.998625, 225, 267, 288, 282
-0.998625, 57, 137, 120, 152
-0.998625, 377, 149, 440, 164
-0.998627, 273, 1, 336, 16
-0.998628, 249, 49, 312, 64
-0.99863, 273, 65, 336, 80
-0.99863, 193, 25, 256, 40
-0.998631, 241, 21, 304, 36
-0.998631, 49, 281, 112, 296
-0.998632, 169, 279, 232, 294
-0.998632, 209, 285, 272, 300
-0.998633, 113, 129, 176, 144
-0.998634, 129, 103, 192, 118
-0.998635, 49, 187, 112, 202
-0.998636, 81, 295, 144, 310
-0.998636, 57, 109, 120, 124
-0.998637, 185, 209, 248, 224
-0.998638, 121, 221, 184, 236
-0.998639, 129, 271, 192, 286
-0.998642, 89, 99, 152, 114
-0.998643, 345, 47, 408, 62
-0.998644, 57, 103, 120, 118
-0.998644, 81, 135, 144, 150
-0.998644, 321, 189, 384, 204
-0.998645, 153, 69, 216, 84
-0.998645, 97, 105, 160, 120
-0.998645, 201, 291, 264, 306
-0.998645, 257, 41, 320, 56
-0.998647, 1, 257, 64, 272
-0.998647, 201, 45, 264, 60
-0.998648, 137, 111, 200, 126
-0.998652, 113, 255, 176, 270
-0.998653, 233, 63, 296, 78
-0.998653, 113, 211, 176, 226
-0.998653, 289, 223, 352, 238
-0.99868, 271, 1, 286, 128
-0.998691, 253, 177, 268, 304
-0.998699, 165, 177, 180, 304
-0.998708, 325, 145, 340, 272
-0.998722, 227, 1, 242, 128
-0.998758, 231, 193, 246, 320
-0.998796, 185, 97, 216, 352
-0.998803, 259, 193, 274, 320
-0.998811, 331, 145, 346, 272
-0.998828, 205, 17, 220, 144
-0.99883, 397, 97, 428, 352
-0.998866, 311, 161, 326, 288
-0.998889, 291, 1, 306, 128
-0.99889, 317, 161, 332, 288
-0.998903, 215, 17, 230, 144
-0.998907, 225, 105, 352, 168
-0.998909, 373, 33, 404, 288
-0.998915, 221, 1, 236, 128
-0.99892, 199, 17, 214, 144
-0.998936, 265, 1, 280, 128
-0.998947, 305, 161, 320, 288
-0.998955, 311, 1, 326, 128
-0.998957, 337, 145, 352, 272
-0.998963, 355, 129, 370, 256
-0.998967, 183, 1, 198, 128
-0.998968, 159, 193, 174, 320
-0.998972, 117, 81, 132, 208
-0.998989, 339, 97, 354, 224
-0.99899, 283, 1, 298, 128
-0.998992, 125, 81, 140, 208
-0.998993, 305, 1, 320, 128
-0.998996, 333, 97, 348, 224
-0.999, 349, 129, 364, 256
-0.99901, 377, 81, 392, 208
-0.999031, 297, 1, 312, 128
-0.999038, 241, 225, 256, 352
-0.999041, 337, 1, 352, 128
-0.999049, 233, 1, 248, 128
-0.999053, 261, 65, 292, 320
-0.999059, 131, 81, 146, 208
-0.999067, 171, 193, 186, 320
-0.999092, 183, 193, 198, 320
-0.999094, 327, 81, 342, 208
-0.999104, 153, 1, 168, 128
-0.999104, 215, 225, 230, 352
-0.999107, 253, 225, 268, 352
-0.999112, 319, 81, 334, 208
-0.999113, 343, 145, 358, 272
-0.999114, 189, 193, 204, 320
-0.999117, 241, 1, 256, 128
-0.99912, 355, 81, 370, 208
-0.99912, 361, 113, 376, 240
-0.999127, 407, 97, 422, 224
-0.999131, 323, 1, 338, 128
-0.99914, 349, 81, 364, 208
-0.999142, 125, 129, 140, 256
-0.999153, 247, 225, 262, 352
-0.999153, 113, 1, 128, 128
-0.999153, 299, 177, 314, 304
-0.999165, 345, 17, 360, 144
-0.999174, 87, 193, 102, 320
-0.999178, 147, 113, 162, 240
-0.999185, 317, 1, 332, 128
-0.999189, 209, 97, 240, 352
-0.999191, 21, 33, 52, 288
-0.999195, 365, 65, 380, 192
-0.999196, 111, 81, 126, 208
-0.9992, 153, 193, 168, 320
-0.999202, 73, 177, 88, 304
-0.999207, 165, 225, 180, 352
-0.99921, 225, 193, 240, 320
-0.999217, 159, 129, 174, 256
-0.999218, 177, 17, 192, 144
-0.999226, 123, 33, 138, 160
-0.999229, 137, 97, 152, 224
-0.999232, 371, 65, 386, 192
-0.999233, 73, 97, 88, 224
-0.999237, 131, 145, 146, 272
-0.999238, 307, 49, 322, 176
-0.999244, 177, 193, 192, 320
-0.999244, 193, 17, 208, 144
-0.999245, 257, 1, 272, 128
-0.999246, 395, 81, 410, 208
-0.999247, 401, 97, 416, 224
-0.999247, 129, 17, 144, 144
-0.999251, 27, 1, 42, 128
-0.999254, 409, 97, 440, 352
-0.999256, 45, 97, 76, 352
-0.999259, 135, 17, 150, 144
-0.999263, 367, 113, 382, 240
-0.999267, 313, 81, 328, 208
-0.999271, 37, 1, 68, 256
-0.999272, 265, 177, 280, 304
-0.999272, 165, 129, 180, 256
-0.999272, 119, 129, 134, 256
-0.999275, 329, 1, 344, 128
-0.999278, 387, 81, 402, 208
-0.999279, 97, 225, 112, 352
-0.99928, 273, 97, 304, 352
-0.999294, 103, 65, 118, 192
-0.999302, 247, 1, 262, 128
-0.999311, 79, 193, 94, 320
-0.999316, 413, 113, 428, 240
-0.999316, 195, 209, 210, 336
-0.999319, 61, 1, 92, 256
-0.999321, 293, 177, 308, 304
-0.999323, 449, 97, 480, 352
-0.999328, 159, 1, 174, 128
-0.999332, 177, 145, 192, 272
-0.999336, 35, 1, 50, 128
-0.999339, 139, 161, 154, 288
-0.999365, 43, 225, 58, 352
-0.999371, 207, 225, 222, 352
-0.999377, 147, 177, 162, 304
-0.999383, 1, 33, 32, 288
-0.999384, 351, 17, 366, 144
-0.999386, 223, 49, 238, 176
-0.999386, 67, 161, 82, 288
-0.999388, 171, 145, 186, 272
-0.99939, 107, 1, 122, 128
-0.99939, 63, 81, 78, 208
-0.9994, 83, 145, 98, 272
-0.999403, 49, 225, 64, 352
-0.999409, 93, 177, 108, 304
-0.999427, 153, 145, 168, 272
-0.99943, 249, 129, 264, 256
-0.999432, 377, 129, 392, 256
-0.999432, 205, 65, 220, 192
-0.999439, 201, 209, 216, 336
-0.999445, 357, 33, 372, 160
-0.999448, 301, 81, 316, 208
-0.999459, 33, 65, 48, 192
-0.99946, 105, 113, 120, 240
-0.999463, 147, 1, 162, 128
-0.999467, 25, 49, 40, 176
-0.999468, 363, 161, 378, 288
-0.999468, 383, 129, 398, 256
-0.999469, 405, 145, 420, 272
-0.999469, 185, 49, 200, 176
-0.999471, 325, 193, 340, 320
-0.999472, 379, 33, 394, 160
-0.99948, 421, 97, 452, 352
-0.999495, 385, 33, 416, 288
-0.999509, 1, 297, 480, 360
-0.999538, 143, 165, 158, 180
-0.999539, 369, 63, 384, 78
-0.999539, 87, 95, 102, 110
-0.999541, 247, 55, 262, 70
-0.999541, 89, 295, 104, 310
-0.999541, 37, 35, 52, 50
-0.999541, 289, 73, 304, 88
-0.999542, 209, 287, 224, 302
-0.999542, 247, 257, 262, 272
-0.999542, 349, 59, 364, 74
-0.999543, 133, 27, 148, 42
-0.999543, 159, 279, 174, 294
-0.999543, 383, 141, 398, 156
-0.999544, 1, 35, 16, 50
-0.999545, 163, 79, 178, 94
-0.999545, 167, 69, 182, 84
-0.999545, 367, 143, 382, 158
-0.999545, 391, 141, 406, 156
-0.999545, 279, 63, 294, 78
-0.999546, 131, 141, 146, 156
-0.999546, 159, 307, 174, 322
-0.999546, 159, 183, 174, 198
-0.999548, 315, 181, 330, 196
-0.999548, 155, 215, 170, 230
-0.999549, 233, 203, 248, 218
-0.999549, 217, 291, 232, 306
-0.999549, 257, 233, 272, 248
-0.999551, 121, 15, 136, 30
-0.999552, 171, 213, 186, 228
-0.999553, 95, 13, 110, 28
-0.999553, 219, 261, 234, 276
-0.999553, 131, 163, 146, 178
-0.999554, 155, 203, 170, 218
-0.999555, 209, 267, 224, 282
-0.999555, 289, 13, 304, 28
-0.999555, 165, 235, 180, 250
-0.999556, 289, 19, 304, 34
-0.999556, 139, 159, 154, 174
-0.999557, 125, 153, 140, 168
-0.999557, 155, 273, 170, 288
-0.999557, 401, 145, 416, 160
-0.999559, 219, 285, 234, 300
-0.999559, 115, 87, 130, 102
-0.999559, 155, 5, 170, 20
-0.999559, 341, 57, 356, 72
-0.999559, 129, 37, 144, 52
-0.999559, 167, 197, 182, 212
-0.99956, 307, 57, 322, 72
-0.999561, 299, 205, 314, 220
-0.999562, 277, 5, 292, 20
-0.999562, 127, 101, 142, 116
-0.999563, 47, 263, 62, 278
-0.999563, 203, 35, 218, 50
-0.999563, 209, 33, 224, 48
-0.999563, 115, 133, 130, 148
-0.999564, 325, 55, 340, 70
-0.999566, 27, 33, 42, 48
-0.999569, 187, 41, 202, 56
-0.999569, 281, 21, 296, 36
-0.999569, 169, 219, 184, 234
-0.99957, 405, 115, 420, 130
-0.99957, 301, 57, 316, 72
-0.999571, 121, 33, 136, 48
-0.999572, 85, 289, 100, 304
-0.999572, 249, 233, 264, 248
-0.999573, 319, 55, 334, 70
-0.999574, 255, 15, 270, 30
-0.999574, 101, 297, 116, 312
-0.999574, 257, 197, 272, 212
-0.999575, 341, 47, 356, 62
-0.999576, 117, 139, 132, 154
-0.999576, 123, 147, 138, 162
-0.999577, 39, 263, 54, 278
-0.999578, 337, 41, 352, 56
-0.999578, 249, 97, 280, 352
-0.999579, 335, 57, 350, 72
-0.99958, 225, 285, 240, 300
-0.99958, 95, 297, 110, 312
-0.99958, 235, 43, 250, 58
-0.999581, 357, 59, 372, 74
-0.999581, 215, 33, 230, 48
-0.999582, 163, 203, 178, 218
-0.999582, 209, 251, 224, 266
-0.999582, 237, 235, 252, 250
-0.999586, 157, 193, 172, 208
-0.999586, 301, 199, 316, 214
-0.999589, 95, 291, 110, 306
-0.999592, 277, 11, 292, 26
-0.999593, 161, 241, 176, 256
-0.999594, 295, 59, 310, 74
-0.999595, 181, 45, 196, 60
-0.999595, 361, 147, 376, 162
-0.999597, 119, 95, 134, 110
-0.999597, 161, 255, 176, 270
-0.999599, 213, 261, 228, 276
-0.999601, 241, 47, 256, 62
-0.999603, 223, 31, 238, 46
-0.999605, 85, 283, 100, 298
-0.999608, 235, 13, 250, 28
-0.999609, 163, 215, 178, 230
-0.99961, 219, 255, 234, 270
-0.999612, 229, 227, 244, 242
-0.999612, 355, 149, 370, 164
-0.999613, 163, 269, 178, 284
-0.999614, 285, 63, 300, 78
-0.999616, 169, 191, 184, 206
-0.999616, 317, 175, 332, 190
-0.999617, 161, 261, 176, 276
-0.999617, 161, 247, 176, 262
-0.999618, 39, 257, 54, 272
-0.999618, 343, 157, 358, 172
-0.999619, 163, 209, 178, 224
-0.999627, 163, 221, 178, 236
-0.999627, 335, 161, 350, 176
-0.999627, 305, 189, 320, 204
-0.999628, 273, 17, 288, 32
-0.99963, 241, 193, 256, 208
-0.99963, 225, 25, 240, 40
-0.99963, 249, 11, 264, 26
-0.999633, 229, 17, 244, 32
-0.999638, 349, 153, 364, 168
-0.999638, 329, 165, 344, 180
-0.99964, 363, 59, 378, 74
-0.999648, 241, 11, 256, 26
-0.999656, 347, 49, 362, 64
-0.999656, 169, 185, 184, 200
-0.999657, 323, 169, 338, 184
-0.999661, 283, 13, 298, 28
-0.999664, 309, 183, 324, 198
-0.999685, 433, 65, 464, 320
-0.999693, 353, 53, 368, 68
-0.999696, 95, 285, 110, 300
-0.99975, 225, 97, 256, 352
-0.99975, 445, 1, 476, 256
-0.999756, 197, 97, 228, 352
-0.999765, 33, 97, 64, 352
-1.00001, 405, 1, 436, 256
-1.0003, 421, 1, 452, 256
-1.00231, 193, 97, 256, 224
-1.0024, 217, 97, 280, 224
