1979
-0.416676, 1, 257, 375, 500
-0.461134, 1, 161, 375, 416
-0.532282, 1, 1, 375, 500
-0.563606, 33, 1, 288, 500
-0.618526, 1, 65, 375, 320
-0.639755, 33, 225, 288, 480
-0.701228, 129, 1, 375, 500
-0.737643, 129, 225, 375, 480
-0.753512, 33, 129, 288, 384
-0.812312, 129, 129, 375, 384
-0.837963, 49, 257, 176, 500
-0.867187, 129, 193, 256, 448
-0.878812, 49, 1, 176, 500
-0.879182, 1, 33, 256, 288
-0.880888, 49, 129, 176, 384
-0.885419, 129, 1, 256, 500
-0.889842, 1, 289, 375, 416
-0.894725, 1, 193, 128, 448
-0.897308, 1, 1, 128, 500
-0.902063, 1, 241, 375, 368
-0.903537, 1, 353, 375, 480
-0.903766, 1, 161, 375, 288
-0.908338, 129, 97, 256, 352
-0.911263, 209, 225, 336, 480
-0.911785, 97, 33, 352, 288
-0.920297, 177, 1, 304, 500
-0.922803, 33, 321, 160, 448
-0.92366, 1, 177, 256, 304
-0.929596, 33, 305, 288, 432
-0.934241, 97, 289, 160, 416
-0.936475, 65, 369, 192, 496
-0.936516, 129, 225, 375, 352
-0.937024, 81, 33, 208, 288
-0.937059, 1, 353, 256, 480
-0.941739, 1, 97, 128, 352
-0.941806, 225, 1, 352, 500
-0.944788, 121, 353, 184, 480
-0.945342, 49, 273, 176, 400
-0.945517, 129, 353, 375, 480
-0.945763, 41, 337, 104, 464
-0.945872, 177, 129, 304, 384
-0.946428, 129, 193, 256, 320
-0.946711, 33, 209, 160, 336
-0.947083, 97, 177, 352, 304
-0.947439, 33, 241, 288, 368
-0.948168, 33, 161, 160, 288
-0.948891, 73, 305, 136, 432
-0.949618, 17, 369, 144, 496
-0.950494, 97, 241, 160, 368
-0.951392, 9, 353, 72, 480
-0.952176, 1, 1, 128, 256
-0.952754, 241, 129, 368, 384
-0.953286, 41, 361, 104, 424
-0.953748, 1, 113, 375, 240
-0.954262, 129, 393, 192, 456
-0.954836, 97, 305, 160, 368
-0.955528, 193, 33, 320, 288
-0.955931, 145, 161, 208, 288
-0.956186, 1, 129, 256, 256
-0.956358, 121, 241, 184, 368
-0.958133, 9, 193, 72, 320
-0.959113, 241, 305, 368, 432
-0.959998, 81, 177, 208, 304
-0.960975, 1, 49, 375, 176
-0.961411, 105, 193, 168, 320
-0.961506, 129, 273, 375, 400
-0.962284, 97, 129, 352, 256
-0.962957, 129, 1, 256, 256
-0.963077, 41, 337, 104, 400
-0.96343, 121, 417, 184, 480
-0.963618, 105, 145, 168, 272
-0.964089, 129, 337, 256, 464
-0.964412, 121, 369, 184, 432
-0.96457, 81, 329, 144, 392
-0.964649, 1, 257, 128, 384
-0.964856, 81, 225, 208, 352
-0.96535, 41, 385, 104, 448
-0.965363, 41, 289, 104, 416
-0.965503, 289, 321, 352, 448
-0.96567, 129, 241, 256, 368
-0.966331, 169, 161, 232, 288
-0.96645, 105, 249, 168, 312
-0.966702, 241, 241, 368, 368
-0.966752, 97, 281, 160, 344
-0.966838, 81, 113, 208, 240
-0.966839, 265, 273, 328, 400
-0.967084, 209, 369, 336, 496
-0.967896, 129, 145, 256, 272
-0.968336, 49, 369, 176, 432
-0.969144, 121, 305, 184, 432
-0.969378, 105, 209, 168, 272
-0.969485, 313, 273, 375, 400
-0.970076, 49, 337, 176, 400
-0.970103, 9, 305, 72, 432
-0.970691, 153, 113, 216, 240
-0.970742, 65, 257, 128, 384
-0.971144, 9, 201, 72, 264
-0.971199, 145, 177, 208, 240
-0.971292, 81, 257, 144, 500
-0.971313, 137, 225, 200, 288
-0.971406, 65, 393, 192, 456
-0.971529, 105, 257, 168, 500
-0.971558, 49, 337, 80, 464
-0.971617, 33, 113, 160, 240
-0.971638, 9, 353, 72, 416
-0.971815, 49, 353, 80, 416
-0.971934, 1, 1, 375, 128
-0.972074, 105, 161, 168, 224
-0.972445, 41, 193, 104, 320
-0.972601, 81, 353, 144, 480
-0.97262, 145, 209, 208, 336
-0.972695, 97, 289, 224, 416
-0.973273, 265, 353, 328, 480
-0.973898, 161, 417, 224, 480
-0.974276, 105, 337, 168, 400
-0.974473, 121, 289, 184, 352
-0.974875, 193, 257, 320, 384
-0.974879, 41, 409, 104, 472
-0.975101, 81, 321, 112, 448
-0.975163, 105, 129, 168, 384
-0.975287, 133, 361, 164, 424
-0.975327, 129, 337, 160, 464
-0.975848, 129, 113, 192, 240
-0.975864, 9, 377, 72, 440
-0.975894, 137, 201, 200, 264
-0.976176, 105, 185, 168, 248
-0.976204, 137, 265, 200, 328
-0.976292, 129, 97, 256, 224
-0.976409, 65, 81, 320, 208
-0.976506, 289, 369, 352, 496
-0.976533, 109, 305, 140, 432
-0.976584, 49, 257, 176, 320
-0.976711, 9, 329, 72, 392
-0.976812, 313, 369, 375, 496
-0.977214, 33, 193, 64, 320
-0.977231, 121, 313, 184, 376
-0.977297, 61, 321, 92, 448
-0.97744, 17, 393, 144, 456
-0.97745, 33, 209, 160, 272
-0.977671, 193, 305, 320, 432
-0.977723, 101, 305, 132, 368
-0.977997, 129, 137, 192, 200
-0.978124, 169, 145, 232, 208
-0.978145, 129, 289, 160, 416
-0.978226, 149, 401, 180, 464
-0.978272, 313, 305, 375, 368
-0.978299, 49, 313, 176, 376
-0.978324, 129, 225, 192, 480
-0.978616, 61, 337, 92, 400
-0.978694, 41, 241, 104, 368
-0.978746, 33, 209, 96, 272
-0.978979, 241, 225, 304, 352
-0.979037, 49, 281, 176, 344
-0.979088, 145, 369, 176, 496
-0.979177, 113, 313, 144, 376
-0.97924, 73, 305, 136, 368
-0.979264, 125, 313, 156, 376
-0.979269, 37, 201, 68, 264
-0.979466, 297, 225, 360, 352
-0.979503, 129, 345, 192, 408
-0.979607, 129, 201, 256, 264
-0.979713, 1, 361, 128, 424
-0.979942, 289, 361, 352, 424
-0.979944, 145, 217, 176, 280
-0.980001, 145, 177, 176, 304
-0.980201, 1, 145, 64, 272
-0.980289, 49, 185, 176, 248
-0.98031, 305, 385, 368, 448
-0.980316, 9, 409, 72, 472
-0.980317, 129, 177, 256, 240
-0.980362, 145, 369, 208, 496
-0.98043, 129, 337, 160, 400
-0.980484, 97, 289, 128, 416
-0.980543, 113, 409, 240, 472
-0.98058, 61, 361, 92, 424
-0.980782, 41, 313, 104, 376
-0.980865, 33, 417, 160, 480
-0.980896, 73, 369, 136, 432
-0.980938, 265, 297, 328, 360
-0.980971, 121, 241, 152, 368
-0.980974, 33, 233, 160, 296
-0.981046, 41, 145, 104, 272
-0.981153, 9, 257, 72, 500
-0.98116, 81, 113, 144, 240
-0.981346, 77, 329, 108, 392
-0.981477, 129, 417, 160, 480
-0.981682, 125, 289, 156, 352
-0.981695, 169, 169, 232, 232
-0.981803, 289, 281, 352, 344
-0.981881, 105, 97, 168, 224
-0.981982, 65, 273, 128, 336
-0.982197, 113, 377, 240, 440
-0.982205, 233, 321, 296, 448
-0.982334, 345, 257, 375, 384
-0.982384, 289, 337, 352, 400
-0.982408, 161, 409, 192, 472
-0.982478, 1, 289, 128, 352
-0.982523, 265, 273, 328, 336
-0.982552, 129, 225, 256, 288
-0.982654, 9, 225, 72, 288
-0.982735, 233, 177, 296, 304
-0.98314, 141, 225, 172, 352
-0.983253, 109, 257, 140, 384
-0.983254, 65, 161, 192, 224
-0.983275, 153, 177, 184, 240
-0.983305, 49, 225, 112, 480
-0.983308, 17, 241, 80, 368
-0.98331, 1, 337, 128, 400
-0.98339, 125, 249, 156, 312
-0.983472, 49, 329, 80, 392
-0.983497, 29, 337, 60, 464
-0.983513, 41, 281, 104, 344
-0.983549, 1, 177, 64, 240
-0.983587, 313, 425, 375, 488
-0.983837, 173, 145, 204, 208
-0.983841, 265, 321, 328, 384
-0.983878, 81, 65, 208, 192
-0.98392, 89, 393, 152, 456
-0.983947, 37, 225, 68, 288
-0.983988, 133, 385, 164, 448
-0.984097, 265, 257, 328, 500
-0.984163, 29, 337, 60, 400
-0.984292, 81, 217, 208, 280
-0.984499, 129, 145, 160, 272
-0.984561, 169, 81, 200, 208
-0.984593, 45, 209, 76, 336
-0.984724, 209, 297, 336, 360
-0.984774, 241, 193, 368, 320
-0.984848, 97, 121, 160, 184
-0.984865, 113, 249, 240, 312
-0.984908, 161, 81, 224, 144
-0.985006, 113, 433, 240, 496
-0.985062, 113, 273, 240, 336
-0.985119, 21, 177, 52, 304
-0.985156, 193, 209, 320, 336
-0.985159, 49, 273, 80, 400
-0.98516, 113, 153, 240, 216
-0.985168, 81, 193, 144, 320
-0.985235, 173, 105, 204, 168
-0.985362, 241, 241, 304, 304
-0.985393, 113, 289, 144, 352
-0.985407, 289, 353, 320, 480
-0.985527, 201, 241, 264, 368
-0.985555, 313, 321, 375, 448
-0.985615, 129, 65, 192, 192
-0.985714, 241, 265, 368, 328
-0.985723, 169, 113, 232, 176
-0.985739, 193, 177, 256, 304
-0.985751, 241, 265, 304, 328
-0.985787, 293, 305, 324, 432
-0.985794, 41, 185, 104, 248
-0.985794, 97, 361, 160, 424
-0.985808, 113, 337, 144, 400
-0.985854, 257, 393, 320, 456
-0.9859, 97, 305, 224, 368
-0.985947, 129, 353, 256, 416
-0.985998, 181, 81, 212, 144
-0.986001, 65, 249, 128, 312
-0.986135, 345, 273, 375, 336
-0.986146, 157, 129, 188, 256
-0.986173, 177, 81, 240, 208
-0.986196, 145, 129, 208, 384
-0.986218, 265, 369, 328, 432
-0.986347, 145, 105, 208, 168
-0.9864, 105, 1, 168, 500
-0.986403, 81, 121, 208, 184
-0.986434, 1, 33, 256, 160
-0.986434, 169, 369, 232, 496
-0.986473, 25, 201, 56, 264
-0.986515, 281, 417, 344, 480
-0.986521, 185, 89, 248, 152
-0.98653, 289, 273, 352, 400
-0.986619, 333, 305, 364, 432
-0.986747, 173, 425, 204, 488
-0.986747, 65, 401, 128, 464
-0.986762, 153, 393, 216, 456
-0.986864, 313, 361, 375, 424
-0.986994, 61, 273, 92, 400
-0.987008, 209, 353, 336, 416
-0.987115, 145, 425, 176, 488
-0.987476, 293, 377, 324, 440
-0.987483, 241, 329, 368, 392
-0.987687, 209, 385, 336, 448
-0.987734, 77, 273, 108, 400
-0.987745, 345, 369, 375, 496
-0.987759, 313, 337, 344, 464
-0.987762, 141, 193, 172, 256
-0.987774, 277, 369, 308, 432
-0.987865, 269, 225, 300, 352
-0.987873, 61, 369, 92, 496
-0.987901, 177, 81, 304, 208
-0.987938, 89, 313, 120, 376
-0.98798, 313, 329, 375, 392
-0.987993, 185, 209, 248, 272
-0.988023, 129, 217, 160, 280
-0.988091, 161, 145, 192, 208
-0.988142, 1, 265, 128, 328
-0.988239, 313, 257, 375, 500
-0.988253, 145, 1, 208, 500
-0.988499, 97, 321, 160, 352
-0.988503, 233, 305, 296, 368
-0.988535, 121, 193, 152, 320
-0.988543, 25, 257, 88, 320
-0.988667, 133, 169, 164, 232
-0.988685, 41, 433, 104, 496
-0.988709, 49, 265, 80, 328
-0.98871, 241, 369, 304, 432
-0.988757, 185, 121, 216, 184
-0.98876, 169, 65, 232, 320
-0.988761, 41, 361, 104, 392
-0.988771, 169, 145, 200, 272
-0.988776, 17, 65, 144, 192
-0.988839, 1, 433, 64, 496
-0.988951, 193, 265, 320, 328
-0.989003, 81, 153, 144, 216
-0.989018, 61, 393, 92, 456
-0.989047, 17, 297, 80, 360
-0.989058, 313, 265, 375, 328
-0.989075, 281, 393, 312, 456
-0.989103, 265, 225, 328, 352
-0.989195, 129, 193, 160, 256
-0.989196, 225, 209, 288, 272
-0.9892, 177, 129, 304, 256
-0.989358, 81, 1, 144, 500
-0.989374, 121, 405, 184, 436
-0.989418, 97, 241, 128, 368
-0.989435, 33, 145, 64, 272
-0.989438, 141, 289, 172, 352
-0.989494, 145, 241, 176, 304
-0.989502, 73, 161, 136, 416
-0.989597, 117, 401, 148, 464
-0.989618, 33, 265, 64, 328
-0.989655, 49, 1, 112, 500
-0.989664, 33, 289, 64, 352
-0.989721, 265, 345, 328, 408
-0.989724, 241, 329, 304, 392
-0.989726, 141, 273, 172, 400
-0.989729, 281, 393, 344, 456
-0.989813, 337, 377, 368, 440
-0.98982, 201, 185, 264, 248
-0.989844, 97, 305, 160, 336
-0.989852, 33, 241, 64, 368
-0.989862, 153, 369, 216, 432
-0.989903, 97, 425, 160, 488
-0.989908, 153, 321, 216, 448
-0.989927, 41, 373, 104, 404
-0.98993, 41, 389, 104, 420
-0.990014, 241, 225, 304, 480
-0.990037, 273, 257, 304, 320
-0.990043, 145, 257, 208, 384
-0.990058, 161, 433, 192, 496
-0.990104, 41, 401, 104, 432
-0.990114, 337, 417, 368, 480
-0.99014, 281, 257, 312, 384
-0.990177, 185, 97, 216, 224
-0.990184, 121, 393, 184, 424
-0.99019, 293, 409, 324, 472
-0.990194, 97, 285, 160, 316
-0.990195, 29, 377, 60, 440
-0.990219, 141, 265, 172, 328
-0.990246, 33, 349, 96, 380
-0.990248, 169, 81, 200, 144
-0.990317, 97, 329, 224, 392
-0.990322, 185, 1, 248, 500
-0.990424, 1, 161, 128, 224
-0.990425, 129, 417, 192, 448
-0.990476, 277, 353, 308, 480
-0.99051, 33, 121, 160, 184
-0.990516, 105, 253, 168, 284
-0.99054, 329, 369, 360, 496
-0.990543, 169, 161, 232, 416
-0.990544, 225, 369, 288, 496
-0.990571, 9, 205, 72, 236
-0.990584, 129, 121, 256, 184
-0.990609, 49, 209, 80, 272
-0.990628, 81, 97, 208, 160
-0.990642, 281, 249, 344, 312
-0.990709, 241, 241, 368, 304
-0.990778, 153, 65, 216, 192
-0.990791, 121, 381, 184, 412
-0.990808, 293, 353, 324, 416
-0.990812, 81, 333, 144, 364
-0.990812, 105, 221, 168, 252
-0.990812, 9, 161, 72, 416
-0.990814, 33, 289, 64, 416
-0.990825, 129, 33, 375, 160
-0.990847, 65, 313, 96, 376
-0.990857, 41, 413, 104, 444
-0.990877, 121, 433, 184, 464
-0.990878, 105, 265, 168, 296
-0.990886, 9, 361, 72, 392
-0.990893, 105, 241, 168, 272
-0.990893, 121, 369, 184, 400
-0.990924, 145, 181, 208, 212
-0.990938, 73, 321, 136, 352
-0.99094, 113, 265, 144, 328
-0.990961, 49, 377, 80, 440
-0.990967, 177, 393, 240, 456
-0.99097, 161, 153, 288, 216
-0.990976, 105, 209, 168, 240
-0.990976, 137, 229, 200, 260
-0.991006, 181, 145, 212, 272
-0.991016, 73, 113, 136, 176
-0.991039, 193, 409, 320, 472
-0.991046, 1, 185, 128, 248
-0.991052, 193, 161, 256, 416
-0.991058, 197, 161, 228, 288
-0.991063, 57, 337, 120, 368
-0.991078, 73, 309, 136, 340
-0.991249, 233, 273, 296, 400
-0.991262, 345, 297, 375, 360
-0.991299, 113, 185, 176, 216
-0.991324, 153, 429, 216, 460
-0.991333, 145, 205, 208, 236
-0.991361, 9, 349, 72, 380
-0.991393, 9, 377, 72, 408
-0.991458, 77, 377, 108, 440
-0.991489, 113, 169, 176, 200
-0.99149, 105, 357, 168, 388
-0.991492, 1, 313, 128, 376
-0.991495, 9, 193, 40, 320
-0.991503, 105, 341, 168, 372
-0.991521, 49, 401, 80, 464
-0.991522, 169, 165, 232, 196
-0.991548, 193, 241, 256, 304
-0.991549, 137, 241, 200, 272
-0.991616, 33, 233, 96, 296
-0.991619, 17, 233, 80, 264
-0.991621, 33, 185, 288, 248
-0.991624, 145, 289, 272, 416
-0.991655, 297, 369, 360, 400
-0.991666, 145, 161, 208, 192
-0.991697, 13, 201, 44, 264
-0.991698, 193, 241, 320, 304
-0.9917, 301, 353, 332, 480
-0.991702, 145, 193, 208, 224
-0.991708, 313, 445, 375, 476
-0.991721, 9, 397, 72, 428
-0.991726, 113, 449, 176, 480
-0.991741, 121, 317, 184, 348
-0.991779, 289, 193, 352, 448
-0.991794, 161, 89, 288, 152
-0.991796, 129, 149, 192, 180
-0.991846, 297, 301, 360, 332
-0.991864, 145, 217, 208, 248
-0.991877, 129, 301, 192, 332
-0.991889, 113, 241, 144, 304
-0.9919, 137, 273, 200, 304
-0.991901, 309, 289, 340, 416
-0.991905, 105, 197, 168, 228
-0.991912, 17, 221, 80, 252
-0.991918, 293, 433, 324, 496
-0.991921, 129, 289, 192, 320
-0.99193, 81, 353, 144, 384
-0.991932, 161, 105, 224, 136
-0.991933, 149, 377, 180, 440
-0.991938, 73, 373, 136, 404
-0.991942, 57, 65, 120, 192
-0.991949, 137, 253, 200, 284
-0.991954, 49, 161, 80, 288
-0.991959, 113, 113, 144, 240
-0.992007, 265, 373, 328, 404
-0.992043, 157, 81, 188, 144
-0.992047, 233, 1, 296, 500
-0.992057, 241, 33, 368, 288
-0.99206, 105, 421, 168, 452
-0.992064, 129, 357, 192, 388
-0.992067, 153, 413, 216, 444
-0.992071, 41, 425, 104, 456
-0.992072, 201, 369, 264, 496
-0.992092, 73, 293, 136, 324
-0.992105, 73, 397, 136, 428
-0.992107, 321, 361, 352, 424
-0.992117, 81, 201, 144, 264
-0.992117, 33, 337, 96, 368
-0.992133, 81, 65, 144, 192
-0.992154, 9, 409, 72, 440
-0.992157, 289, 357, 352, 388
-0.992187, 193, 321, 320, 384
-0.99219, 169, 177, 232, 208
-0.992232, 265, 317, 328, 348
-0.992233, 145, 441, 208, 472
-0.992238, 81, 177, 144, 240
-0.992239, 161, 105, 192, 168
-0.992249, 65, 385, 128, 416
-0.992249, 105, 317, 136, 348
-0.99225, 1, 209, 256, 272
-0.992294, 265, 329, 328, 360
-0.992296, 25, 225, 56, 288
-0.992311, 117, 321, 148, 352
-0.992316, 129, 345, 192, 376
-0.992343, 49, 357, 80, 388
-0.992359, 177, 421, 240, 452
-0.992363, 197, 97, 228, 224
-0.992369, 145, 385, 208, 416
-0.992372, 89, 385, 152, 416
-0.992374, 169, 145, 232, 176
-0.992376, 33, 177, 64, 240
-0.99238, 33, 289, 96, 320
-0.992384, 241, 261, 304, 292
-0.992385, 169, 217, 232, 248
-0.992397, 1, 193, 64, 224
-0.992401, 297, 385, 360, 416
-0.992402, 73, 281, 136, 312
-0.992424, 41, 217, 104, 248
-0.992426, 77, 353, 108, 416
-0.992442, 89, 409, 152, 440
-0.992453, 57, 349, 120, 380
-0.992487, 133, 365, 164, 396
-0.992488, 265, 273, 328, 304
-0.992502, 305, 337, 368, 368
-0.992505, 161, 89, 224, 120
-0.992524, 289, 417, 352, 448
-0.992527, 89, 289, 120, 352
-0.992533, 265, 293, 328, 324
-0.992539, 121, 461, 184, 492
-0.992539, 9, 1, 72, 500
-0.992544, 145, 117, 208, 148
-0.992557, 145, 369, 208, 400
-0.992559, 25, 325, 88, 356
-0.992562, 105, 305, 136, 336
-0.992567, 93, 321, 124, 352
-0.99258, 305, 325, 368, 356
-0.992583, 33, 313, 64, 376
-0.992585, 297, 313, 360, 344
-0.99259, 241, 273, 304, 304
-0.99259, 305, 429, 368, 460
-0.992592, 233, 393, 296, 424
-0.992592, 133, 385, 164, 416
-0.992597, 121, 309, 152, 340
-0.99262, 289, 305, 352, 368
-0.99263, 305, 401, 368, 432
-0.992634, 289, 469, 352, 500
-0.992655, 117, 369, 148, 496
-0.992659, 49, 317, 112, 348
-0.992667, 41, 233, 104, 264
-0.992673, 145, 217, 176, 248
-0.992673, 161, 417, 192, 448
-0.992679, 257, 361, 320, 392
-0.992684, 265, 305, 328, 336
-0.9927, 141, 321, 172, 448
-0.99271, 81, 437, 144, 468
-0.992711, 129, 353, 160, 384
-0.992713, 89, 157, 152, 188
-0.992719, 77, 369, 108, 496
-0.992723, 193, 161, 256, 224
-0.992726, 81, 245, 144, 276
-0.992729, 97, 233, 352, 296
-0.99273, 97, 369, 160, 400
-0.992735, 113, 333, 144, 364
-0.992747, 9, 421, 72, 452
-0.992748, 161, 401, 224, 432
-0.992748, 61, 357, 92, 388
-0.992755, 185, 145, 216, 208
-0.992766, 313, 289, 375, 320
-0.992776, 177, 433, 240, 464
-0.992795, 9, 337, 72, 368
-0.992812, 233, 309, 296, 340
-0.99282, 81, 17, 208, 144
-0.992827, 125, 261, 156, 292
-0.99283, 121, 329, 184, 360
-0.992832, 117, 433, 148, 496
-0.992833, 9, 437, 72, 468
-0.992835, 129, 441, 160, 472
-0.99284, 17, 269, 80, 300
-0.992841, 45, 345, 76, 376
-0.992842, 129, 341, 160, 372
-0.992842, 161, 385, 288, 448
-0.992848, 289, 281, 352, 312
-0.992853, 97, 121, 160, 152
-0.992861, 241, 249, 304, 280
-0.992868, 129, 421, 160, 452
-0.99287, 257, 405, 320, 436
-0.99287, 49, 129, 112, 384
-0.992871, 313, 349, 375, 380
-0.992883, 33, 205, 64, 236
-0.992885, 145, 405, 176, 436
-0.992885, 265, 341, 328, 372
-0.992885, 209, 209, 272, 240
-0.99289, 233, 297, 296, 328
-0.992891, 169, 209, 232, 336
-0.992893, 133, 397, 164, 428
-0.992896, 185, 205, 248, 236
-0.992898, 61, 341, 92, 372
-0.992899, 29, 349, 60, 380
-0.992905, 281, 445, 344, 476
-0.99292, 121, 293, 152, 324
-0.992921, 173, 141, 204, 172
-0.992925, 325, 385, 356, 448
-0.992927, 41, 233, 72, 264
-0.992944, 109, 293, 140, 324
-0.992952, 117, 217, 148, 280
-0.992954, 313, 417, 344, 480
-0.992956, 129, 49, 256, 176
-0.992956, 33, 321, 288, 384
-0.992963, 153, 193, 184, 224
-0.992973, 125, 281, 156, 312
-0.992992, 77, 333, 108, 364
-0.992995, 341, 377, 372, 408
-0.992996, 169, 157, 200, 188
-0.993001, 49, 373, 176, 404
-0.993012, 145, 229, 176, 260
-0.993015, 129, 329, 160, 360
-0.993016, 161, 57, 224, 120
-0.993071, 153, 181, 184, 212
-0.993073, 97, 333, 128, 364
-0.993074, 173, 113, 204, 144
-0.993074, 225, 193, 256, 320
-0.993079, 145, 245, 176, 276
-0.993083, 137, 201, 168, 232
-0.9931, 129, 401, 375, 464
-0.993109, 145, 437, 176, 468
-0.993116, 181, 101, 212, 132
-0.993122, 125, 241, 156, 272
-0.993126, 285, 377, 316, 408
-0.993137, 61, 369, 92, 400
-0.993148, 177, 429, 208, 460
-0.993157, 129, 217, 160, 248
-0.993158, 113, 121, 144, 184
-0.993159, 161, 429, 192, 460
-0.993166, 45, 269, 76, 300
-0.993182, 185, 157, 216, 188
-0.99319, 145, 273, 176, 304
-0.993192, 121, 113, 184, 176
-0.993193, 33, 397, 160, 428
-0.993205, 345, 301, 375, 332
-0.993213, 165, 441, 196, 472
-0.993225, 125, 453, 156, 484
-0.99323, 77, 297, 108, 360
-0.99323, 1, 265, 64, 328
-0.993231, 341, 389, 372, 420
-0.993231, 141, 301, 172, 332
-0.993234, 309, 305, 340, 368
-0.993236, 49, 385, 176, 416
-0.993241, 125, 229, 156, 260
-0.99325, 97, 273, 352, 336
-0.993253, 117, 177, 148, 240
-0.993255, 157, 81, 188, 208
-0.993257, 61, 381, 92, 412
-0.993258, 109, 281, 140, 312
-0.993261, 157, 149, 188, 180
-0.993262, 133, 313, 164, 344
-0.993263, 273, 369, 304, 400
-0.993266, 77, 353, 108, 384
-0.993269, 141, 189, 172, 220
-0.993279, 93, 301, 124, 332
-0.993284, 45, 369, 76, 400
-0.993284, 293, 433, 324, 464
-0.993286, 321, 377, 352, 408
-0.993287, 29, 233, 60, 264
-0.993287, 41, 217, 72, 248
-0.993289, 77, 365, 108, 396
-0.99329, 173, 129, 204, 160
-0.99329, 21, 201, 52, 232
-0.993291, 145, 425, 176, 456
-0.993297, 29, 377, 60, 408
-0.993298, 133, 177, 164, 208
-0.993298, 345, 281, 375, 312
-0.993302, 293, 449, 324, 480
-0.993303, 125, 409, 156, 440
-0.993305, 149, 377, 180, 408
-0.993307, 273, 385, 304, 416
-0.993308, 61, 405, 92, 436
-0.993313, 49, 405, 80, 436
-0.993315, 177, 413, 208, 444
-0.993316, 233, 129, 296, 384
-0.993317, 113, 457, 144, 488
-0.993318, 269, 261, 300, 292
-0.99332, 141, 285, 172, 316
-0.993324, 33, 281, 64, 312
-0.993326, 157, 405, 188, 436
-0.993333, 33, 297, 64, 328
-0.993334, 17, 221, 48, 252
-0.993339, 61, 393, 92, 424
-0.993339, 45, 381, 76, 412
-0.993341, 337, 437, 368, 468
-0.993343, 161, 117, 192, 148
-0.993343, 49, 281, 80, 312
-0.993365, 309, 421, 340, 452
-0.993365, 193, 113, 224, 144
-0.993366, 145, 257, 176, 288
-0.993366, 273, 277, 304, 308
-0.993366, 277, 405, 308, 436
-0.993366, 29, 389, 60, 420
-0.993366, 77, 381, 108, 412
-0.993368, 25, 361, 56, 392
-0.993374, 293, 397, 324, 428
-0.993376, 165, 173, 196, 204
-0.993377, 161, 297, 288, 360
-0.99338, 9, 205, 40, 236
-0.993382, 341, 405, 372, 436
-0.993383, 165, 97, 196, 128
-0.993384, 153, 205, 184, 236
-0.993384, 137, 81, 200, 144
-0.993393, 49, 393, 80, 424
-0.993394, 185, 125, 216, 156
-0.993394, 201, 393, 264, 456
-0.993396, 193, 169, 224, 200
-0.993397, 77, 393, 108, 424
-0.993398, 181, 89, 212, 120
-0.9934, 33, 193, 64, 224
-0.993406, 33, 337, 64, 368
-0.99341, 181, 169, 212, 200
-0.993415, 113, 265, 144, 296
-0.993419, 313, 333, 344, 364
-0.993421, 129, 189, 160, 220
-0.993424, 329, 425, 360, 456
-0.993436, 145, 349, 176, 380
-0.993441, 29, 221, 60, 252
-0.993443, 113, 409, 144, 440
-0.993443, 49, 417, 80, 448
-0.993445, 197, 157, 228, 188
-0.993445, 53, 225, 84, 256
-0.993451, 29, 401, 60, 432
-0.993452, 113, 245, 144, 276
-0.993455, 117, 421, 148, 452
-0.99346, 201, 129, 264, 256
-0.993466, 181, 401, 212, 464
-0.993538, 157, 177, 188, 304
-0.993542, 97, 209, 352, 272
-0.993564, 17, 361, 144, 392
-0.993574, 193, 65, 224, 128
-0.993577, 241, 409, 368, 472
-0.99359, 129, 377, 375, 440
-0.993591, 165, 169, 196, 232
-0.993644, 81, 73, 208, 136
-0.993672, 109, 193, 140, 320
-0.993711, 217, 129, 248, 256
-0.993803, 109, 289, 124, 352
-0.993835, 197, 105, 228, 168
-0.993855, 65, 409, 192, 440
-0.993879, 233, 393, 296, 456
-0.99388, 1, 17, 128, 144
-0.993914, 217, 201, 248, 264
-0.993916, 113, 369, 144, 432
-0.993927, 1, 281, 375, 344
-0.993938, 145, 321, 208, 384
-0.994021, 161, 433, 288, 496
-0.994036, 51, 353, 66, 416
-0.994071, 289, 305, 320, 368
-0.99411, 125, 313, 140, 376
-0.994133, 21, 225, 52, 352
-0.994141, 149, 153, 180, 216
-0.994159, 49, 213, 176, 244
-0.994162, 301, 329, 332, 392
-0.994165, 113, 145, 144, 208
-0.994172, 193, 33, 256, 288
-0.994179, 197, 169, 228, 232
-0.994194, 185, 65, 248, 128
-0.994201, 257, 417, 320, 480
-0.994236, 209, 1, 272, 500
-0.994244, 225, 185, 288, 248
-0.99428, 119, 289, 134, 352
-0.994288, 129, 177, 375, 240
-0.994305, 81, 225, 144, 288
-0.99433, 209, 217, 336, 280
-0.994335, 269, 233, 300, 296
-0.994336, 145, 33, 208, 288
-0.994347, 45, 201, 60, 264
-0.994352, 161, 385, 192, 448
-0.994374, 49, 289, 80, 352
-0.99442, 17, 409, 144, 440
-0.994438, 73, 425, 136, 488
-0.99454, 1, 409, 256, 472
-0.994601, 1, 345, 256, 408
-0.994646, 33, 401, 64, 464
-0.994661, 33, 297, 288, 360
-0.994698, 101, 329, 132, 392
-0.994722, 185, 169, 216, 232
-0.99473, 141, 113, 172, 240
-0.994749, 33, 97, 160, 160
-0.994753, 193, 177, 320, 240
-0.994781, 49, 337, 176, 368
-0.994788, 209, 433, 336, 496
-0.994791, 57, 217, 120, 280
-0.9948, 167, 409, 182, 472
-0.994815, 1, 321, 375, 384
-0.994822, 105, 33, 168, 288
-0.994861, 71, 337, 86, 400
-0.994865, 1, 377, 256, 440
-0.994873, 289, 241, 320, 304
-0.994895, 129, 353, 375, 416
-0.994906, 49, 225, 176, 256
-0.994909, 321, 321, 352, 384
-0.994914, 153, 321, 184, 448
-0.994922, 177, 33, 304, 160
-0.994923, 333, 305, 364, 368
-0.994981, 325, 425, 356, 488
-0.995042, 345, 321, 375, 448
-0.995074, 49, 277, 176, 308
-0.995076, 209, 137, 272, 200
-0.995086, 177, 57, 208, 120
-0.995101, 345, 345, 375, 408
-0.99513, 133, 145, 164, 208
-0.995141, 155, 185, 170, 248
-0.995149, 1, 185, 375, 248
-0.995154, 97, 425, 352, 488
-0.995227, 53, 185, 84, 248
-0.995246, 49, 349, 176, 380
-0.995266, 65, 337, 80, 400
-0.995271, 33, 421, 160, 452
-0.995296, 149, 201, 164, 264
-0.995319, 97, 97, 160, 160
-0.995347, 147, 225, 162, 288
-0.995387, 61, 417, 92, 480
-0.995445, 111, 313, 126, 376
-0.995456, 49, 265, 176, 296
-0.995479, 103, 305, 118, 368
-0.99548, 65, 361, 192, 392
-0.995513, 49, 321, 176, 352
-0.995523, 49, 289, 176, 320
-0.995543, 201, 297, 264, 360
-0.995544, 129, 201, 256, 232
-0.995577, 101, 97, 132, 224
-0.995602, 113, 413, 240, 444
-0.995619, 281, 281, 312, 344
-0.995625, 345, 249, 375, 312
-0.995664, 177, 425, 192, 488
-0.995673, 149, 353, 180, 416
-0.995706, 145, 321, 176, 384
-0.995719, 79, 337, 94, 400
-0.995726, 1, 209, 375, 272
-0.995727, 177, 129, 304, 192
-0.99573, 41, 161, 104, 224
-0.995763, 1, 233, 256, 296
-0.995767, 129, 177, 256, 208
-0.995773, 129, 229, 256, 260
-0.995778, 213, 225, 244, 352
-0.995786, 135, 305, 150, 368
-0.995786, 39, 193, 54, 256
-0.995816, 13, 353, 44, 480
-0.995853, 155, 393, 170, 456
-0.995883, 217, 369, 280, 432
-0.995887, 1, 153, 256, 216
-0.995888, 185, 89, 200, 152
-0.995894, 1, 257, 375, 320
-0.995895, 293, 225, 324, 352
-0.9959, 133, 409, 148, 472
-0.995904, 153, 225, 184, 352
-0.99593, 229, 217, 260, 280
-0.995934, 1, 273, 256, 336
-0.995936, 209, 177, 240, 304
-0.99595, 297, 265, 328, 328
-0.995955, 217, 161, 248, 224
-0.995972, 101, 113, 132, 176
-0.995983, 129, 257, 160, 500
-0.995996, 1, 373, 128, 404
-0.995998, 309, 393, 340, 456
-0.996002, 47, 225, 62, 288
-0.996004, 139, 425, 154, 488
-0.996015, 113, 397, 240, 428
-0.996026, 49, 301, 176, 332
-0.996047, 145, 329, 272, 392
-0.996051, 65, 169, 192, 200
-0.996052, 135, 329, 150, 392
-0.996063, 51, 201, 66, 264
-0.996081, 59, 337, 74, 400
-0.996084, 113, 433, 240, 464
-0.99609, 57, 81, 120, 144
-0.996092, 73, 361, 88, 424
-0.996104, 157, 369, 188, 496
-0.996106, 129, 97, 160, 224
-0.996118, 269, 345, 300, 408
-0.996128, 49, 253, 176, 284
-0.996145, 171, 153, 186, 216
-0.996156, 33, 201, 160, 232
-0.996169, 161, 401, 176, 464
-0.996174, 1, 385, 128, 416
-0.996179, 173, 369, 204, 496
-0.996189, 175, 121, 190, 184
-0.996191, 1, 361, 375, 424
-0.99622, 115, 265, 130, 328
-0.996224, 65, 185, 192, 216
-0.99623, 1, 73, 128, 136
-0.996234, 41, 337, 56, 400
-0.996239, 175, 97, 190, 160
-0.996268, 137, 241, 152, 304
-0.99627, 129, 189, 256, 220
-0.996271, 185, 49, 216, 176
-0.996277, 125, 273, 140, 336
-0.996287, 97, 153, 352, 216
-0.996307, 129, 213, 256, 244
-0.996321, 295, 393, 310, 456
-0.996323, 281, 1, 344, 500
-0.996326, 49, 241, 176, 272
-0.996332, 205, 409, 236, 472
-0.996336, 21, 177, 52, 240
-0.99639, 321, 281, 352, 344
-0.996391, 269, 305, 300, 432
-0.996393, 17, 289, 48, 416
-0.996405, 1, 193, 32, 256
-0.996421, 269, 401, 300, 464
-0.99643, 193, 65, 320, 128
-0.99643, 41, 225, 56, 288
-0.996439, 201, 265, 264, 328
-0.99645, 193, 73, 208, 136
-0.99645, 149, 113, 180, 176
-0.996453, 109, 257, 140, 500
-0.99646, 143, 353, 158, 416
-0.996471, 205, 217, 236, 280
-0.996491, 1, 409, 375, 472
-0.996502, 285, 369, 300, 432
-0.996518, 133, 273, 148, 336
-0.996521, 177, 145, 192, 208
-0.996534, 359, 257, 374, 320
-0.996571, 123, 321, 138, 352
-0.996574, 345, 209, 375, 336
-0.996577, 111, 317, 126, 348
-0.996586, 1, 229, 128, 260
-0.996586, 241, 313, 368, 344
-0.996587, 129, 297, 375, 360
-0.996594, 149, 393, 164, 456
-0.996599, 97, 317, 224, 348
-0.996599, 65, 441, 192, 472
-0.99661, 31, 201, 46, 264
-0.996619, 51, 329, 66, 392
-0.996624, 77, 401, 108, 464
-0.996634, 209, 301, 336, 332
-0.996636, 163, 177, 178, 240
-0.996652, 113, 273, 240, 304
-0.99669, 113, 161, 240, 192
-0.996693, 295, 361, 310, 424
-0.996703, 145, 297, 160, 360
-0.996704, 333, 353, 364, 416
-0.99671, 97, 377, 224, 408
-0.996725, 113, 245, 240, 276
-0.996739, 1, 433, 256, 496
-0.996758, 281, 225, 344, 288
-0.996761, 97, 305, 224, 336
-0.996778, 61, 265, 92, 328
-0.996808, 175, 401, 190, 464
-0.99681, 173, 73, 188, 136
-0.996811, 1, 233, 375, 296
-0.996829, 129, 285, 256, 316
-0.99683, 345, 369, 360, 432
-0.996836, 145, 161, 176, 416
-0.996857, 145, 273, 160, 336
-0.99686, 181, 121, 196, 184
-0.996884, 135, 385, 150, 448
-0.996926, 1, 385, 375, 448
-0.996927, 145, 65, 176, 192
-0.996932, 51, 257, 66, 320
-0.996932, 241, 377, 368, 408
-0.996939, 127, 409, 142, 472
-0.996956, 119, 313, 134, 376
-0.996965, 161, 217, 224, 280
-0.99698, 171, 433, 186, 496
-0.996985, 117, 321, 132, 352
-0.996997, 193, 113, 208, 176
-0.996999, 241, 289, 368, 320
-0.997005, 113, 261, 240, 292
-0.997027, 129, 321, 375, 384
-0.997033, 217, 233, 280, 296
-0.997036, 187, 113, 202, 176
-0.997043, 129, 365, 256, 396
-0.997064, 81, 145, 208, 176
-0.997074, 43, 377, 58, 440
-0.997104, 1, 213, 128, 244
-0.997135, 131, 433, 146, 496
-0.997141, 141, 329, 156, 392
-0.997153, 81, 121, 208, 152
-0.997167, 147, 249, 162, 312
-0.997183, 35, 225, 50, 288
-0.997195, 137, 201, 152, 264
-0.997199, 93, 305, 108, 368
-0.997206, 95, 329, 110, 392
-0.997223, 121, 161, 152, 416
-0.997234, 1, 337, 128, 368
-0.997252, 105, 317, 120, 348
-0.997255, 69, 313, 84, 376
-0.997264, 1, 297, 128, 328
-0.997273, 351, 273, 366, 336
-0.99728, 125, 377, 140, 440
-0.997284, 51, 357, 66, 388
-0.997287, 339, 385, 354, 448
-0.99729, 109, 305, 124, 336
-0.997293, 199, 89, 214, 152
-0.997301, 145, 385, 272, 416
-0.997302, 49, 257, 80, 500
-0.997305, 125, 337, 140, 400
-0.997316, 301, 393, 316, 456
-0.997328, 123, 241, 138, 304
-0.997332, 81, 201, 208, 232
-0.997339, 145, 177, 160, 240
-0.997354, 57, 201, 72, 264
-0.997371, 85, 329, 100, 392
-0.997384, 225, 325, 352, 356
-0.997391, 115, 289, 130, 320
-0.9974, 225, 241, 256, 368
-0.997406, 97, 49, 224, 112
-0.997418, 113, 445, 240, 476
-0.997421, 97, 333, 224, 364
-0.997423, 239, 169, 254, 232
-0.997433, 75, 313, 90, 376
-0.997439, 275, 225, 290, 288
-0.997441, 17, 433, 144, 464
-0.997445, 35, 273, 50, 336
-0.99745, 53, 225, 68, 288
-0.997451, 75, 385, 90, 448
-0.997452, 185, 33, 248, 160
-0.997457, 201, 321, 264, 384
-0.997462, 121, 301, 136, 332
-0.997481, 309, 425, 324, 488
-0.997488, 85, 225, 116, 352
-0.99749, 53, 401, 68, 464
-0.997493, 57, 137, 120, 200
-0.997503, 209, 393, 336, 424
-0.997512, 343, 297, 358, 360
-0.997514, 303, 425, 318, 488
-0.997532, 355, 361, 370, 424
-0.997533, 183, 145, 198, 208
-0.997536, 335, 361, 350, 424
-0.997549, 333, 257, 364, 384
-0.997551, 133, 177, 148, 240
-0.997552, 355, 401, 370, 464
-0.997564, 155, 361, 170, 424
-0.997566, 281, 305, 312, 432
-0.997575, 289, 393, 304, 456
-0.997575, 147, 417, 162, 480
-0.997579, 1, 285, 128, 316
-0.997581, 337, 417, 352, 480
-0.997581, 123, 193, 138, 256
-0.997582, 217, 225, 280, 480
-0.997585, 65, 121, 320, 184
-0.99759, 65, 157, 192, 188
-0.997598, 139, 265, 154, 328
-0.9976, 1, 313, 128, 344
-0.997607, 209, 361, 336, 392
-0.997614, 51, 377, 66, 440
-0.997623, 97, 257, 128, 500
-0.997623, 25, 193, 40, 256
-0.997632, 9, 65, 72, 320
-0.997633, 313, 1, 375, 500
-0.997635, 157, 209, 172, 272
-0.997637, 241, 277, 368, 308
-0.997643, 149, 213, 164, 244
-0.997645, 1, 273, 128, 304
-0.997648, 225, 129, 288, 256
-0.997651, 71, 357, 86, 388
-0.997662, 165, 153, 180, 216
-0.997666, 127, 153, 142, 216
-0.997679, 175, 425, 190, 456
-0.997683, 1, 161, 375, 224
-0.997684, 303, 313, 318, 376
-0.997685, 309, 329, 324, 392
-0.997698, 169, 105, 184, 168
-0.997703, 33, 193, 64, 448
-0.997715, 349, 401, 364, 464
-0.997717, 63, 313, 78, 376
-0.997721, 221, 201, 236, 264
-0.997725, 1, 325, 128, 356
-0.997728, 65, 97, 320, 160
-0.997735, 101, 329, 116, 392
-0.997748, 193, 321, 256, 448
-0.997755, 109, 265, 124, 328
-0.99776, 211, 169, 226, 232
-0.997763, 125, 433, 140, 496
-0.997764, 149, 369, 164, 432
-0.997765, 135, 361, 150, 424
-0.99777, 57, 313, 72, 376
-0.997773, 135, 329, 150, 360
-0.997774, 145, 65, 272, 128
-0.997775, 9, 145, 40, 272
-0.997787, 149, 225, 164, 256
-0.997788, 1, 349, 128, 380
-0.99779, 193, 113, 256, 176
-0.997797, 133, 309, 148, 340
-0.9978, 125, 289, 140, 320
-0.997804, 61, 265, 76, 328
-0.997809, 203, 65, 218, 128
-0.997812, 295, 381, 310, 412
-0.997825, 45, 265, 60, 328
-0.997827, 81, 361, 96, 424
-0.997831, 65, 453, 192, 484
-0.997831, 293, 281, 308, 344
-0.997832, 209, 405, 336, 436
-0.997838, 239, 193, 254, 256
-0.99784, 193, 285, 320, 316
-0.997841, 89, 333, 104, 364
-0.997846, 333, 321, 348, 384
-0.997848, 167, 73, 182, 136
-0.997849, 99, 321, 114, 352
-0.997854, 97, 177, 128, 304
-0.997857, 41, 349, 56, 380
-0.997866, 35, 345, 50, 408
-0.997875, 225, 337, 352, 368
-0.997877, 133, 421, 148, 452
-0.997894, 35, 297, 50, 360
-0.997903, 301, 369, 316, 432
-0.997906, 87, 305, 102, 368
-0.99791, 241, 261, 368, 292
-0.997923, 115, 305, 130, 336
-0.997923, 155, 185, 170, 216
-0.997929, 1, 241, 128, 272
-0.99795, 183, 109, 198, 140
-0.997954, 273, 225, 304, 480
-0.997956, 65, 341, 80, 372
-0.997963, 127, 453, 142, 484
-0.997964, 157, 213, 172, 244
-0.997972, 113, 73, 176, 136
-0.997976, 1, 49, 128, 112
-0.99798, 209, 81, 240, 208
-0.998005, 81, 133, 208, 164
-0.998026, 161, 405, 288, 436
-0.998028, 161, 417, 288, 448
-0.998029, 125, 401, 140, 432
-0.998035, 175, 101, 190, 132
-0.998043, 47, 233, 62, 264
-0.998049, 81, 109, 208, 140
-0.998055, 341, 257, 372, 500
-0.998056, 193, 313, 320, 344
-0.998059, 59, 345, 74, 376
-0.998064, 147, 241, 162, 272
-0.998065, 51, 345, 66, 376
-0.998066, 177, 153, 192, 184
-0.998069, 129, 349, 256, 380
-0.998073, 103, 305, 118, 336
-0.998086, 237, 161, 268, 288
-0.998088, 193, 269, 320, 300
-0.998104, 159, 405, 174, 436
-0.998114, 209, 349, 336, 380
-0.998119, 115, 333, 130, 364
-0.998144, 133, 441, 148, 472
-0.998153, 79, 341, 94, 372
-0.998178, 61, 257, 92, 500
-0.998195, 165, 413, 180, 444
-0.9982, 107, 329, 122, 360
-0.998201, 1, 25, 128, 88
-0.998206, 343, 377, 358, 408
-0.998212, 109, 161, 140, 416
-0.998212, 65, 357, 80, 388
-0.998217, 193, 113, 208, 144
-0.998234, 41, 233, 56, 264
-0.998235, 65, 469, 192, 500
-0.998237, 17, 445, 144, 476
-0.998239, 147, 269, 162, 300
-0.998243, 139, 257, 154, 288
-0.998245, 109, 293, 124, 324
-0.998251, 179, 141, 194, 172
-0.998253, 151, 201, 166, 232
-0.998254, 305, 241, 368, 304
-0.998261, 295, 369, 310, 400
-0.998278, 161, 161, 288, 192
-0.998282, 321, 257, 352, 384
-0.998298, 193, 381, 320, 412
-0.998299, 135, 409, 150, 440
-0.998299, 59, 357, 74, 388
-0.998308, 177, 129, 192, 160
-0.998309, 171, 85, 186, 116
-0.998314, 285, 177, 316, 304
-0.998314, 129, 125, 256, 156
-0.998316, 171, 153, 186, 184
-0.998319, 101, 339, 132, 354
-0.998319, 29, 385, 60, 400
-0.99832, 269, 263, 300, 278
-0.99832, 149, 383, 180, 398
-0.99832, 133, 305, 164, 320
-0.998322, 161, 123, 192, 138
-0.998322, 61, 399, 92, 414
-0.998322, 185, 125, 216, 140
-0.998323, 113, 285, 144, 300
-0.998324, 129, 413, 160, 428
-0.998324, 45, 291, 76, 306
-0.998324, 125, 333, 140, 364
-0.998326, 149, 395, 180, 410
-0.998326, 153, 205, 184, 220
-0.998327, 169, 163, 200, 178
-0.998327, 77, 369, 108, 384
-0.998328, 133, 325, 164, 340
-0.998328, 45, 365, 76, 380
-0.998328, 45, 377, 76, 392
-0.998329, 145, 357, 176, 372
-0.99833, 345, 307, 375, 322
-0.99833, 1, 257, 128, 288
-0.99833, 61, 385, 92, 400
-0.998331, 181, 431, 212, 446
-0.998331, 141, 299, 172, 314
-0.998332, 77, 375, 108, 390
-0.998332, 133, 195, 164, 210
-0.998332, 97, 299, 128, 314
-0.998333, 153, 211, 184, 226
-0.998333, 325, 385, 356, 400
-0.998334, 117, 413, 148, 428
-0.998335, 345, 297, 375, 312
-0.998335, 145, 439, 176, 454
-0.998336, 53, 281, 84, 296
-0.998337, 145, 273, 176, 288
-0.998338, 181, 103, 212, 118
-0.998339, 61, 377, 92, 392
-0.998339, 133, 331, 164, 346
-0.99834, 141, 433, 172, 448
-0.99834, 33, 297, 64, 312
-0.998342, 285, 377, 300, 408
-0.998342, 61, 371, 92, 386
-0.998343, 285, 381, 316, 396
-0.998344, 189, 159, 220, 174
-0.998344, 129, 483, 160, 498
-0.998345, 137, 341, 152, 372
-0.998345, 29, 379, 60, 394
-0.998345, 161, 179, 192, 194
-0.998349, 173, 123, 204, 138
-0.998349, 273, 375, 304, 390
-0.998351, 47, 205, 62, 236
-0.998351, 25, 201, 56, 216
-0.998351, 93, 321, 124, 336
-0.998351, 45, 273, 76, 288
-0.998352, 145, 251, 176, 266
-0.998353, 181, 437, 212, 452
-0.998355, 125, 235, 156, 250
-0.998357, 133, 201, 164, 216
-0.998358, 121, 457, 152, 472
-0.998359, 71, 341, 86, 372
-0.998359, 133, 215, 164, 230
-0.998359, 145, 261, 176, 276
-0.998359, 73, 337, 104, 352
-0.998361, 301, 377, 332, 392
-0.998361, 125, 249, 156, 264
-0.998361, 145, 279, 176, 294
-0.998363, 139, 441, 154, 472
-0.998365, 129, 223, 160, 238
-0.998368, 175, 413, 190, 444
-0.998369, 325, 379, 356, 394
-0.998369, 141, 239, 172, 254
-0.99837, 285, 375, 316, 390
-0.99837, 177, 419, 208, 434
-0.998371, 173, 157, 204, 172
-0.998371, 161, 109, 288, 140
-0.998372, 17, 207, 48, 222
-0.998372, 157, 415, 188, 430
-0.998373, 355, 389, 370, 420
-0.998374, 161, 433, 288, 464
-0.998375, 37, 197, 52, 228
-0.998375, 125, 255, 156, 270
-0.998377, 129, 435, 160, 450
-0.998377, 169, 145, 200, 160
-0.998379, 125, 229, 156, 244
-0.998381, 125, 291, 156, 306
-0.998382, 161, 423, 192, 438
-0.998382, 29, 357, 60, 372
-0.998387, 59, 273, 74, 304
-0.998387, 153, 405, 168, 436
-0.998388, 181, 117, 212, 132
-0.998389, 129, 419, 160, 434
-0.998391, 137, 209, 168, 224
-0.998392, 337, 387, 368, 402
-0.998392, 153, 185, 184, 200
-0.998393, 37, 207, 68, 222
-0.998394, 161, 177, 176, 208
-0.9984, 129, 321, 144, 352
-0.9984, 141, 245, 172, 260
-0.998402, 153, 199, 184, 214
-0.998402, 125, 243, 156, 258
-0.998402, 97, 321, 160, 336
-0.998403, 129, 429, 160, 444
-0.998403, 33, 129, 160, 160
-0.998404, 199, 97, 214, 128
-0.998404, 129, 445, 160, 460
-0.998406, 145, 231, 176, 246
-0.998407, 129, 261, 160, 276
-0.998409, 41, 351, 72, 366
-0.99841, 161, 429, 192, 444
-0.99841, 153, 191, 184, 206
-0.998415, 129, 273, 160, 288
-0.998418, 97, 305, 128, 320
-0.998418, 85, 331, 116, 346
-0.99842, 125, 317, 156, 332
-0.998422, 109, 297, 140, 312
-0.998422, 145, 407, 176, 422
-0.998422, 41, 361, 104, 376
-0.998423, 169, 151, 200, 166
-0.998428, 155, 389, 170, 420
-0.998429, 129, 341, 160, 356
-0.99843, 129, 357, 160, 372
-0.998435, 241, 417, 368, 448
-0.998437, 183, 153, 198, 184
-0.998438, 145, 219, 176, 234
-0.998438, 359, 265, 374, 296
-0.998438, 285, 257, 316, 500
-0.998438, 49, 49, 176, 112
-0.998442, 125, 451, 156, 466
-0.998442, 61, 361, 92, 376
-0.998442, 37, 235, 68, 250
-0.998443, 337, 381, 368, 396
-0.998444, 133, 403, 164, 418
-0.998448, 129, 267, 160, 282
-0.998451, 133, 161, 164, 416
-0.998454, 1, 433, 375, 496
-0.998459, 143, 361, 158, 392
-0.99846, 159, 225, 174, 256
-0.99846, 109, 307, 140, 322
-0.998463, 125, 283, 156, 298
-0.998464, 193, 257, 320, 288
-0.998464, 121, 301, 152, 316
-0.998465, 97, 161, 128, 416
-0.998472, 129, 347, 160, 362
-0.998473, 121, 307, 152, 322
-0.998475, 241, 249, 368, 280
-0.998477, 121, 407, 184, 422
-0.99848, 97, 333, 128, 348
-0.998483, 129, 413, 192, 428
-0.998484, 101, 315, 132, 330
-0.998485, 129, 363, 160, 378
-0.998485, 97, 311, 160, 326
-0.998485, 195, 161, 210, 192
-0.998487, 173, 165, 188, 196
-0.998489, 147, 421, 162, 452
-0.998492, 133, 383, 164, 398
-0.998493, 85, 337, 116, 352
-0.998493, 133, 389, 164, 404
-0.998493, 23, 205, 38, 236
-0.998494, 41, 373, 104, 388
-0.998495, 187, 97, 202, 128
-0.998497, 355, 377, 370, 408
-0.998497, 133, 397, 164, 412
-0.998498, 41, 367, 104, 382
-0.998503, 113, 337, 144, 352
-0.998504, 133, 297, 148, 328
-0.998505, 145, 281, 160, 312
-0.998506, 41, 401, 104, 416
-0.998508, 105, 289, 168, 304
-0.998509, 41, 393, 104, 408
-0.998509, 133, 369, 164, 384
-0.99851, 41, 381, 104, 396
-0.99851, 113, 291, 144, 306
-0.998513, 145, 225, 176, 240
-0.998514, 41, 377, 56, 408
-0.998516, 41, 387, 104, 402
-0.998518, 97, 299, 160, 314
-0.998521, 183, 121, 198, 152
-0.998522, 121, 401, 184, 416
-0.998526, 145, 201, 160, 232
-0.998526, 41, 407, 104, 422
-0.998526, 9, 207, 72, 222
-0.998529, 1, 189, 128, 220
-0.998529, 195, 77, 210, 108
-0.99853, 169, 425, 184, 456
-0.998531, 209, 153, 336, 216
-0.998531, 173, 177, 188, 208
-0.998536, 129, 419, 192, 434
-0.998537, 17, 153, 144, 184
-0.99854, 349, 389, 364, 420
-0.99854, 113, 313, 144, 328
-0.99854, 101, 327, 132, 342
-0.998543, 17, 165, 144, 196
-0.998545, 1, 1, 128, 64
-0.998545, 81, 333, 144, 348
-0.998546, 133, 375, 164, 390
-0.998553, 187, 165, 202, 196
-0.998553, 139, 429, 154, 460
-0.998554, 105, 263, 168, 278
-0.998554, 95, 333, 110, 364
-0.998555, 121, 331, 152, 346
-0.998555, 105, 255, 168, 270
-0.998558, 139, 233, 154, 264
-0.998558, 137, 425, 200, 440
-0.998562, 121, 323, 152, 338
-0.998563, 201, 345, 264, 408
-0.998564, 41, 413, 104, 428
-0.998566, 105, 243, 168, 258
-0.998567, 121, 395, 184, 410
-0.998567, 105, 283, 168, 298
-0.998568, 143, 309, 158, 340
-0.998571, 117, 277, 132, 308
-0.998572, 89, 305, 152, 320
-0.998573, 105, 269, 168, 284
-0.998573, 49, 359, 80, 374
-0.998575, 41, 365, 56, 396
-0.998575, 121, 377, 184, 392
-0.998576, 121, 387, 184, 402
-0.998576, 113, 469, 240, 500
-0.998576, 35, 233, 50, 264
-0.998577, 105, 227, 168, 242
-0.998578, 97, 339, 160, 354
-0.998583, 105, 213, 168, 228
-0.998588, 113, 305, 176, 320
-0.99859, 193, 89, 208, 120
-0.998593, 137, 431, 200, 446
-0.998595, 137, 233, 200, 248
-0.998596, 105, 371, 168, 386
-0.998598, 105, 277, 168, 292
-0.998599, 303, 433, 318, 464
-0.998601, 41, 419, 104, 434
-0.998603, 9, 367, 72, 382
-0.998603, 105, 249, 168, 264
-0.998603, 349, 377, 364, 408
-0.998605, 337, 377, 352, 408
-0.998606, 295, 401, 310, 432
-0.998606, 127, 441, 142, 472
-0.998606, 105, 219, 168, 234
-0.998607, 113, 189, 176, 204
-0.998607, 161, 65, 192, 320
-0.998607, 145, 207, 208, 222
-0.998608, 97, 327, 160, 342
-0.998608, 289, 375, 352, 390
-0.998608, 17, 359, 80, 374
-0.998609, 51, 265, 66, 296
-0.99861, 9, 377, 72, 392
-0.998611, 105, 237, 168, 252
-0.998612, 193, 101, 208, 132
-0.998613, 137, 221, 200, 236
-0.998613, 113, 197, 176, 212
-0.998614, 123, 413, 138, 444
-0.998615, 105, 333, 168, 348
-0.998615, 145, 257, 176, 500
-0.998615, 97, 345, 160, 360
-0.998617, 49, 343, 112, 358
-0.998617, 121, 365, 184, 380
-0.998618, 129, 185, 144, 216
-0.998618, 173, 141, 188, 172
-0.998618, 145, 293, 160, 324
-0.998619, 153, 185, 216, 200
-0.998619, 57, 213, 72, 244
-0.99862, 137, 249, 200, 264
-0.99862, 9, 383, 72, 398
-0.998623, 137, 227, 200, 242
-0.998624, 17, 177, 144, 208
-0.998625, 145, 199, 208, 214
-0.998627, 105, 359, 168, 374
-0.998627, 113, 179, 176, 194
-0.998628, 73, 313, 136, 328
-0.998629, 169, 419, 232, 434
-0.998629, 199, 109, 214, 140
-0.998631, 169, 175, 232, 190
-0.998631, 177, 437, 192, 468
-0.998632, 105, 321, 136, 336
-0.998632, 145, 193, 208, 208
-0.998633, 121, 317, 184, 332
-0.998634, 137, 283, 200, 298
-0.998635, 73, 327, 136, 342
-0.998635, 73, 299, 136, 314
-0.998635, 101, 333, 116, 364
-0.998636, 105, 207, 168, 222
-0.998636, 147, 253, 162, 284
-0.998637, 41, 425, 104, 440
-0.998637, 81, 257, 112, 500
-0.998637, 145, 439, 208, 454
-0.998638, 201, 157, 216, 188
-0.998638, 9, 397, 72, 412
-0.998639, 57, 337, 120, 352
-0.99864, 313, 379, 375, 394
-0.99864, 73, 319, 136, 334
-0.99864, 121, 347, 184, 362
-0.99864, 129, 371, 192, 386
-0.998641, 73, 291, 136, 306
-0.998642, 17, 233, 80, 248
-0.998642, 121, 353, 184, 368
-0.998643, 331, 373, 346, 404
-0.998645, 9, 391, 72, 406
-0.998645, 121, 451, 184, 466
-0.998645, 297, 307, 360, 322
-0.998645, 121, 437, 184, 452
-0.998645, 53, 229, 68, 260
-0.998646, 137, 239, 200, 254
-0.998646, 9, 405, 72, 420
-0.998648, 41, 355, 104, 370
-0.998649, 73, 373, 136, 388
-0.998651, 139, 457, 154, 488
-0.998651, 299, 465, 314, 496
-0.998653, 205, 105, 220, 136
-0.998654, 135, 285, 150, 316
-0.998654, 265, 377, 328, 392
-0.998655, 81, 365, 144, 380
-0.998655, 161, 157, 224, 172
-0.998656, 129, 297, 192, 312
-0.998657, 81, 65, 144, 320
-0.998658, 129, 157, 192, 172
-0.998658, 29, 205, 44, 236
-0.998658, 9, 225, 72, 240
-0.998661, 65, 381, 128, 396
-0.998661, 137, 213, 200, 228
-0.998662, 137, 277, 200, 292
-0.998665, 81, 369, 96, 400
-0.998665, 313, 451, 375, 466
-0.998666, 167, 109, 182, 140
-0.998666, 129, 311, 192, 326
-0.998666, 41, 349, 104, 364
-0.998666, 1, 469, 128, 500
-0.998667, 121, 443, 184, 458
-0.998667, 145, 179, 208, 194
-0.998667, 65, 389, 128, 404
-0.998667, 161, 427, 224, 442
-0.998668, 9, 411, 72, 426
-0.998668, 161, 107, 224, 122
-0.998668, 137, 269, 200, 284
-0.998669, 17, 349, 80, 364
-0.998672, 65, 395, 128, 410
-0.998672, 169, 113, 232, 128
-0.998672, 169, 225, 232, 240
-0.998672, 81, 359, 144, 374
-0.998673, 161, 413, 224, 428
-0.998673, 313, 387, 375, 402
-0.998673, 137, 255, 200, 270
-0.998674, 33, 295, 96, 310
-0.998675, 289, 369, 352, 384
-0.998675, 137, 263, 200, 278
-0.998675, 129, 359, 192, 374
-0.998675, 137, 163, 200, 178
-0.998676, 25, 215, 88, 230
-0.998677, 25, 275, 88, 290
-0.998678, 89, 351, 152, 366
-0.998679, 41, 431, 104, 446
-0.99868, 161, 149, 288, 180
-0.99868, 297, 313, 360, 328
-0.998682, 241, 269, 304, 284
-0.998682, 89, 397, 152, 412
-0.998682, 129, 151, 192, 166
-0.998682, 89, 383, 152, 398
-0.998685, 51, 369, 66, 400
-0.998686, 113, 65, 144, 192
-0.998687, 285, 389, 300, 420
-0.998692, 177, 113, 192, 144
-0.998693, 123, 277, 138, 308
-0.998693, 181, 65, 212, 320
-0.998694, 35, 289, 50, 320
-0.9987, 133, 453, 148, 484
-0.998742, 45, 193, 60, 320
-0.99879, 147, 193, 162, 320
-0.998792, 193, 209, 320, 240
-0.99881, 225, 113, 352, 176
-0.998811, 125, 305, 140, 432
-0.99886, 233, 417, 296, 480
-0.998861, 273, 177, 336, 304
-0.998872, 161, 297, 288, 328
-0.998875, 33, 117, 160, 148
-0.998879, 33, 97, 96, 224
-0.998885, 165, 161, 196, 416
-0.998896, 221, 193, 252, 448
-0.998898, 53, 337, 68, 464
-0.9989, 177, 325, 304, 356
-0.998901, 113, 457, 240, 488
-0.998907, 37, 177, 52, 304
-0.998922, 147, 353, 162, 480
-0.998935, 241, 433, 368, 464
-0.998938, 33, 141, 160, 172
-0.998953, 69, 337, 84, 464
-0.998957, 193, 449, 320, 480
-0.998962, 169, 193, 200, 320
-0.998978, 193, 417, 256, 480
-0.998992, 193, 245, 320, 276
-0.998992, 149, 65, 180, 320
-0.998995, 107, 289, 122, 416
-0.998995, 81, 321, 96, 448
-0.998996, 177, 221, 304, 252
-0.999021, 41, 33, 104, 288
-0.999033, 113, 97, 240, 128
-0.999037, 51, 193, 66, 320
-0.99905, 161, 93, 288, 124
-0.999057, 159, 161, 174, 288
-0.999061, 113, 273, 128, 400
-0.999062, 209, 233, 336, 264
-0.999063, 135, 273, 150, 400
-0.999095, 209, 461, 336, 492
-0.999104, 171, 81, 186, 208
-0.999122, 123, 257, 138, 384
-0.999122, 153, 177, 168, 304
-0.999123, 1, 73, 256, 136
-0.99913, 61, 337, 76, 464
-0.999137, 145, 241, 160, 368
-0.999141, 157, 33, 188, 160
-0.999144, 1, 121, 375, 184
-0.999154, 133, 369, 148, 496
-0.999156, 205, 129, 236, 384
-0.999169, 265, 369, 296, 496
-0.99917, 301, 305, 316, 432
-0.999171, 177, 337, 304, 368
-0.99918, 97, 77, 224, 108
-0.999183, 75, 353, 90, 480
-0.999189, 31, 177, 46, 304
-0.999202, 1, 457, 128, 488
-0.999203, 49, 161, 80, 416
-0.999204, 145, 137, 272, 168
-0.999213, 189, 97, 204, 224
-0.999215, 193, 197, 320, 228
-0.999217, 197, 97, 212, 224
-0.99922, 135, 321, 150, 448
-0.999228, 357, 241, 372, 368
-0.999232, 115, 225, 130, 352
-0.999234, 41, 337, 56, 464
-0.999236, 141, 321, 156, 448
-0.999242, 101, 305, 116, 432
-0.999249, 133, 225, 148, 352
-0.999254, 35, 225, 50, 352
-0.999258, 179, 97, 194, 224
-0.999259, 87, 321, 102, 448
-0.999263, 193, 181, 320, 212
-0.999272, 65, 273, 80, 400
-0.999274, 75, 305, 90, 432
-0.999276, 293, 337, 308, 464
-0.999278, 153, 369, 168, 496
-0.999287, 171, 145, 186, 272
-0.999292, 119, 305, 134, 432
-0.9993, 313, 161, 375, 416
-0.999301, 301, 353, 316, 480
-0.999311, 193, 65, 224, 320
-0.999317, 33, 105, 160, 136
-0.999318, 13, 193, 44, 448
-0.999334, 17, 193, 32, 320
-0.999339, 129, 65, 160, 320
-0.999342, 127, 369, 142, 496
-0.999344, 309, 321, 324, 448
-0.999349, 25, 193, 40, 320
-0.999351, 295, 289, 310, 416
-0.999359, 159, 369, 174, 496
-0.999362, 105, 49, 168, 176
-0.999364, 49, 113, 112, 176
-0.999367, 209, 81, 272, 144
-0.999376, 45, 145, 60, 272
-0.999376, 129, 65, 375, 128
-0.99938, 107, 241, 122, 368
-0.999388, 143, 129, 158, 256
-0.999401, 153, 129, 168, 256
-0.999406, 177, 121, 304, 152
-0.999407, 165, 129, 180, 256
-0.999408, 337, 305, 352, 432
-0.999412, 239, 161, 254, 288
-0.999413, 85, 161, 116, 416
-0.99942, 127, 113, 142, 240
-0.999422, 343, 369, 358, 496
-0.999425, 65, 161, 96, 416
-0.999425, 275, 225, 290, 352
-0.999427, 343, 289, 358, 416
-0.999432, 349, 273, 364, 400
-0.999434, 283, 369, 298, 496
-0.999435, 57, 273, 72, 400
-0.999435, 47, 337, 62, 464
-0.999441, 57, 177, 72, 304
-0.999441, 93, 305, 108, 432
-0.999443, 45, 241, 60, 368
-0.999444, 241, 445, 368, 476
-0.999446, 101, 257, 116, 384
-0.999455, 357, 369, 372, 496
-0.999455, 137, 161, 152, 288
-0.999456, 51, 273, 66, 400
-0.999463, 337, 369, 352, 496
-0.999469, 167, 369, 182, 496
-0.999475, 331, 321, 346, 448
-0.999478, 289, 273, 304, 400
-0.999484, 81, 273, 96, 400
-0.999491, 349, 369, 364, 496
-0.999491, 209, 161, 224, 288
-0.999498, 185, 145, 200, 272
-0.999499, 331, 369, 346, 496
-0.999502, 1, 33, 256, 96
-0.999509, 35, 273, 50, 400
-0.99951, 179, 49, 194, 176
-0.99952, 177, 145, 192, 272
-0.999535, 95, 257, 110, 384
-0.999536, 171, 99, 186, 114
-0.999536, 39, 205, 54, 220
-0.999536, 143, 319, 158, 334
-0.999537, 145, 287, 160, 302
-0.999537, 295, 387, 310, 402
-0.999537, 183, 103, 198, 118
-0.999538, 199, 159, 214, 174
-0.999538, 355, 381, 370, 396
-0.999538, 127, 413, 142, 428
-0.999538, 35, 235, 50, 250
-0.999539, 123, 283, 138, 298
-0.999539, 139, 449, 154, 464
-0.999539, 177, 123, 192, 138
-0.99954, 131, 161, 146, 288
-0.99954, 137, 255, 152, 270
-0.99954, 181, 129, 196, 144
-0.99954, 143, 365, 158, 380
-0.999541, 127, 401, 142, 416
-0.999541, 133, 477, 148, 492
-0.999541, 189, 163, 204, 178
-0.999543, 171, 411, 186, 426
-0.999543, 339, 387, 354, 402
-0.999544, 123, 209, 138, 336
-0.999544, 53, 271, 68, 286
-0.999545, 157, 215, 172, 230
-0.999546, 133, 347, 148, 362
-0.999546, 203, 145, 218, 272
-0.999546, 147, 261, 162, 276
-0.999547, 129, 327, 144, 342
-0.999548, 125, 421, 140, 436
-0.999549, 55, 351, 70, 366
-0.999549, 163, 413, 178, 428
-0.999549, 155, 187, 170, 202
-0.99955, 41, 355, 56, 370
-0.99955, 175, 105, 190, 120
-0.99955, 41, 289, 56, 416
-0.99955, 107, 299, 122, 314
-0.999552, 155, 399, 170, 414
-0.999553, 95, 337, 110, 352
-0.999554, 139, 455, 154, 470
-0.999555, 173, 159, 188, 174
-0.999555, 183, 159, 198, 174
-0.999555, 177, 143, 192, 158
-0.999555, 139, 243, 154, 258
-0.999557, 199, 105, 214, 120
-0.999557, 81, 339, 96, 354
-0.999557, 183, 113, 198, 128
-0.999558, 189, 105, 204, 120
-0.999559, 133, 301, 148, 316
-0.999559, 147, 253, 162, 268
-0.99956, 49, 349, 64, 364
-0.99956, 75, 257, 90, 384
-0.99956, 173, 151, 188, 166
-0.999561, 41, 379, 56, 394
-0.999561, 285, 377, 300, 392
-0.999561, 203, 97, 218, 224
-0.999562, 139, 225, 154, 352
-0.999562, 117, 337, 132, 352
-0.999562, 103, 323, 118, 338
-0.999563, 147, 275, 162, 290
-0.999565, 139, 233, 154, 248
-0.999565, 123, 161, 138, 288
-0.999566, 291, 375, 306, 390
-0.999566, 299, 375, 314, 390
-0.999566, 127, 317, 142, 332
-0.999568, 217, 161, 280, 224
-0.999568, 61, 359, 76, 374
-0.999568, 333, 379, 348, 394
-0.999569, 97, 317, 112, 332
-0.999569, 159, 227, 174, 242
-0.999569, 139, 267, 154, 282
-0.999571, 175, 165, 190, 180
-0.999571, 175, 111, 190, 126
-0.999571, 193, 49, 208, 176
-0.999573, 47, 235, 62, 250
-0.999574, 67, 359, 82, 374
-0.999574, 355, 387, 370, 402
-0.999575, 315, 337, 330, 464
-0.999576, 133, 447, 148, 462
-0.999576, 99, 309, 114, 324
-0.999576, 191, 145, 206, 272
-0.999578, 153, 205, 168, 220
-0.999578, 23, 207, 38, 222
-0.999578, 185, 121, 200, 136
-0.999578, 115, 303, 130, 318
-0.999579, 145, 219, 160, 234
-0.999579, 133, 441, 148, 456
-0.999579, 155, 199, 170, 214
-0.99958, 157, 221, 172, 236
-0.999581, 133, 425, 148, 440
-0.999581, 147, 233, 162, 248
-0.999582, 89, 335, 104, 350
-0.999582, 37, 199, 52, 214
-0.999584, 161, 183, 176, 198
-0.999585, 125, 407, 140, 422
-0.999586, 97, 325, 112, 340
-0.999587, 325, 337, 340, 464
-0.999587, 135, 339, 150, 354
-0.999587, 175, 429, 190, 444
-0.99959, 233, 129, 264, 384
-0.999591, 41, 235, 56, 250
-0.999591, 193, 81, 320, 112
-0.999592, 145, 309, 272, 340
-0.999592, 25, 145, 40, 272
-0.999592, 343, 381, 358, 396
-0.999592, 29, 305, 44, 432
-0.999593, 145, 281, 160, 296
-0.999593, 153, 321, 168, 448
-0.999593, 161, 461, 288, 492
-0.999595, 199, 113, 214, 128
-0.999597, 177, 417, 192, 432
-0.999598, 169, 419, 184, 434
-0.999599, 135, 307, 150, 322
-0.999599, 133, 419, 148, 434
-0.9996, 123, 289, 138, 304
-0.999602, 121, 309, 136, 324
-0.999603, 155, 193, 170, 208
-0.999603, 281, 241, 296, 368
-0.999605, 353, 321, 368, 448
-0.999606, 47, 207, 62, 222
-0.999606, 349, 381, 364, 396
-0.999607, 189, 111, 204, 126
-0.999608, 51, 145, 66, 272
-0.999608, 135, 323, 150, 338
-0.999609, 229, 209, 244, 336
-0.999613, 309, 369, 324, 496
-0.999613, 295, 381, 310, 396
-0.999614, 147, 241, 162, 256
-0.999614, 157, 405, 172, 420
-0.999616, 43, 349, 58, 364
-0.999616, 215, 177, 230, 304
-0.999619, 111, 311, 126, 326
-0.999621, 177, 161, 208, 416
-0.999622, 151, 211, 166, 226
-0.999624, 329, 257, 360, 500
-0.999626, 157, 225, 172, 352
-0.999626, 135, 329, 150, 344
-0.999626, 139, 369, 154, 496
-0.999629, 121, 113, 136, 240
-0.999629, 129, 453, 144, 468
-0.999631, 109, 333, 124, 348
-0.999632, 305, 257, 336, 500
-0.999635, 109, 327, 124, 342
-0.999637, 125, 295, 140, 310
-0.999638, 193, 117, 208, 132
-0.99964, 99, 331, 114, 346
-0.99964, 11, 177, 26, 304
-0.999649, 73, 361, 88, 376
-0.99965, 123, 333, 138, 348
-0.99965, 223, 161, 238, 288
-0.999654, 35, 337, 50, 464
-0.999657, 19, 145, 34, 272
-0.999659, 15, 353, 30, 480
-0.999661, 299, 225, 314, 352
-0.999662, 165, 177, 180, 304
-0.999665, 305, 257, 320, 384
-0.999667, 105, 311, 120, 326
-0.999668, 133, 317, 148, 332
-0.999672, 261, 225, 292, 480
-0.999672, 89, 257, 104, 384
-0.999677, 133, 113, 148, 240
-0.999678, 147, 289, 162, 416
-0.999681, 113, 97, 128, 224
-0.999682, 193, 161, 224, 416
-0.999683, 221, 241, 236, 368
-0.999684, 117, 323, 132, 338
-0.999686, 347, 225, 362, 352
-0.999687, 199, 49, 214, 176
-0.999687, 123, 303, 138, 318
-0.999688, 197, 49, 228, 176
-0.999689, 149, 227, 164, 242
-0.999689, 115, 331, 130, 346
-0.999693, 51, 359, 66, 374
-0.999694, 291, 209, 306, 336
-0.999696, 151, 217, 166, 232
-0.999699, 187, 49, 202, 176
-0.999699, 163, 81, 178, 208
-0.999701, 117, 315, 132, 330
-0.999701, 273, 321, 288, 448
-0.999706, 325, 289, 340, 416
-0.999707, 209, 81, 224, 208
-0.999711, 173, 369, 188, 496
-0.999723, 109, 305, 124, 320
-0.999724, 61, 225, 76, 352
-0.999727, 217, 65, 248, 320
-0.999727, 123, 323, 138, 338
-0.999729, 81, 369, 96, 496
-0.99974, 113, 297, 128, 312
-0.999743, 107, 317, 122, 332
-0.999758, 145, 41, 272, 104
-0.999789, 241, 321, 272, 448
-0.999793, 273, 129, 304, 384
-0.999798, 129, 65, 256, 96
-0.999804, 117, 291, 132, 306
-0.999827, 57, 209, 88, 336
-0.999828, 33, 97, 64, 352
-0.999837, 193, 41, 320, 104
-0.999838, 225, 369, 256, 496
-0.999849, 257, 1, 320, 500
-0.999867, 225, 221, 352, 252
-0.999914, 21, 129, 52, 256
-0.999942, 33, 85, 160, 116
-0.99995, 285, 161, 316, 416
-0.999953, 245, 129, 276, 384
-0.999963, 177, 61, 304, 92
-0.999969, 17, 97, 48, 352
-0.999978, 1, 193, 32, 448
-1.00002, 317, 257, 348, 500
-1.00003, 117, 65, 148, 320
-1.00005, 201, 81, 264, 208
-1.00006, 245, 113, 276, 240
-1.00007, 345, 161, 375, 416
-1.00009, 309, 241, 340, 368
-1.00011, 209, 225, 240, 480
-1.00016, 53, 65, 84, 320
-1.00017, 173, 33, 204, 160
-1.00018, 97, 65, 128, 320
-1.00019, 81, 73, 144, 136
-1.00022, 1, 97, 375, 160
-1.00025, 245, 225, 276, 480
-1.00025, 49, 25, 176, 88
-1.00026, 333, 209, 364, 336
-1.00028, 205, 33, 236, 288
-1.00029, 209, 89, 336, 152
-1.00036, 157, 257, 188, 500
-1.00036, 225, 305, 256, 432
-1.00037, 257, 129, 288, 384
-1.00041, 169, 241, 232, 304
-1.00042, 1, 1, 256, 64
-1.00044, 153, 345, 216, 408
-1.00046, 49, 1, 176, 64
-1.00048, 333, 161, 364, 416
-1.0005, 241, 1, 368, 64
-1.0005, 237, 33, 268, 288
-1.00051, 89, 113, 120, 240
-1.00052, 1, 97, 32, 352
-1.00054, 297, 161, 328, 416
-1.00054, 265, 161, 328, 416
-1.00054, 129, 41, 375, 104
-1.00055, 65, 65, 96, 320
-1.00062, 85, 33, 116, 288
-1.00063, 265, 201, 328, 264
-1.00064, 1, 65, 375, 128
-1.0007, 25, 1, 56, 256
-1.00071, 249, 113, 312, 176
-1.00071, 233, 225, 264, 480
-1.00072, 169, 257, 200, 500
-1.00074, 61, 161, 92, 288
-1.00074, 257, 225, 288, 352
-1.0008, 37, 1, 68, 256
-1.00087, 253, 305, 284, 432
-1.00088, 45, 113, 76, 240
-1.00094, 285, 65, 316, 320
-1.00094, 241, 185, 368, 248
-1.00095, 9, 1, 40, 256
-1.00096, 249, 33, 280, 288
-1.00096, 317, 161, 348, 416
-1.00097, 273, 177, 304, 304
-1.001, 1, 41, 375, 104
-1.00102, 241, 65, 368, 128
-1.00104, 9, 241, 40, 368
-1.00105, 241, 257, 272, 384
-1.00106, 129, 9, 375, 72
-1.00107, 273, 33, 304, 288
-1.00111, 241, 97, 368, 224
-1.00111, 213, 369, 244, 496
-1.00118, 253, 369, 284, 496
-1.00121, 153, 257, 216, 500
-1.00128, 193, 257, 256, 500
-1.0013, 193, 257, 224, 500
-1.0013, 85, 65, 116, 192
-1.00132, 201, 225, 232, 352
-1.00133, 101, 49, 132, 176
-1.00134, 261, 33, 292, 288
-1.00136, 1, 369, 32, 496
-1.00139, 297, 1, 328, 256
-1.0014, 181, 257, 212, 500
-1.00141, 201, 369, 232, 496
-1.00142, 1, 17, 375, 80
-1.00144, 161, 17, 288, 80
-1.00148, 253, 177, 284, 304
-1.00149, 333, 65, 364, 320
-1.00161, 317, 33, 348, 288
-1.00163, 345, 1, 375, 256
-1.00165, 161, 17, 224, 144
-1.00174, 241, 41, 368, 104
-1.00183, 97, 17, 224, 80
-1.00196, 129, 49, 160, 176
-1.00205, 241, 369, 272, 496
-1.00213, 57, 17, 120, 144
-1.00228, 57, 65, 88, 192
-1.00238, 93, 337, 124, 464
-1.00253, 85, 177, 116, 304
-1.00282, 225, 145, 352, 272
-1.00285, 137, 17, 200, 144
-1.00288, 217, 33, 248, 160
-1.00292, 185, 193, 216, 320
-1.00305, 73, 225, 104, 352
-1.00316, 9, 97, 72, 224
-1.00316, 241, 49, 368, 176
-1.00317, 257, 129, 320, 256
-1.00321, 241, 209, 272, 336
-1.00327, 165, 321, 196, 448
-1.00337, 33, 1, 96, 128
-1.00339, 217, 33, 280, 288
-1.00345, 185, 369, 216, 496
-1.00355, 269, 129, 300, 256
-1.00357, 73, 65, 104, 192
-1.00383, 197, 1, 228, 128
-1.00384, 5, 305, 36, 432
-1.00384, 129, 1, 256, 128
-1.00432, 9, 33, 72, 160
-1.00437, 81, 17, 144, 144
-1.00476, 265, 65, 328, 320
-1.00519, 225, 1, 352, 128
-1.00525, 33, 49, 96, 176
-1.00542, 257, 81, 320, 208
-1.00597, 289, 97, 352, 352
-1.00617, 241, 33, 304, 288
-1.00764, 313, 177, 375, 304
-1.00802, 305, 1, 368, 256
-1.00815, 177, 257, 240, 384
-1.00831, 217, 17, 280, 144
-1.00834, 281, 97, 344, 224
-1.00837, 313, 113, 375, 240
-1.0085, 225, 81, 288, 208
-1.00912, 305, 65, 368, 192
-1.00945, 313, 1, 375, 128
-1.00968, 281, 49, 344, 176
-1.01025, 105, 1, 168, 128
-1.01065, 241, 17, 304, 144
-1.0127, 281, 1, 344, 128
