1978
-0.438345, 1, 97, 500, 352
-0.47346, 129, 1, 384, 375
-0.478761, 1, 1, 500, 375
-0.492582, 225, 1, 480, 375
-0.579076, 1, 1, 256, 375
-0.607648, 161, 65, 416, 320
-0.631849, 1, 1, 500, 256
-0.672309, 33, 129, 288, 375
-0.736185, 257, 33, 500, 288
-0.774601, 1, 1, 256, 256
-0.850221, 161, 65, 288, 320
-0.869121, 289, 1, 416, 375
-0.87305, 161, 1, 288, 375
-0.884099, 337, 1, 464, 375
-0.886701, 113, 1, 240, 256
-0.888669, 113, 129, 240, 375
-0.890701, 241, 1, 368, 375
-0.895153, 65, 129, 192, 375
-0.895634, 289, 33, 416, 288
-0.899663, 97, 1, 224, 375
-0.901871, 209, 65, 336, 320
-0.910238, 1, 145, 500, 272
-0.913181, 337, 33, 464, 288
-0.914994, 1, 193, 500, 320
-0.922118, 1, 209, 256, 336
-0.923454, 1, 97, 500, 224
-0.924543, 129, 81, 384, 208
-0.925462, 1, 129, 256, 256
-0.925686, 33, 1, 160, 375
-0.927626, 257, 49, 500, 176
-0.930826, 1, 49, 500, 176
-0.935907, 153, 17, 216, 144
-0.936513, 177, 65, 240, 192
-0.941614, 289, 33, 416, 160
-0.942052, 1, 129, 128, 375
-0.942308, 129, 145, 192, 272
-0.944167, 121, 209, 184, 336
-0.944612, 81, 209, 208, 336
-0.945351, 129, 65, 256, 192
-0.946375, 161, 33, 416, 160
-0.947118, 145, 97, 208, 224
-0.947531, 89, 225, 152, 352
-0.950732, 33, 225, 160, 352
-0.95191, 9, 177, 72, 304
-0.95214, 129, 177, 384, 304
-0.953176, 313, 33, 376, 160
-0.9549, 49, 241, 112, 368
-0.954924, 129, 177, 256, 304
-0.955021, 33, 33, 160, 288
-0.95636, 81, 145, 208, 272
-0.956379, 145, 193, 208, 320
-0.956452, 65, 33, 320, 160
-0.956486, 161, 129, 416, 256
-0.956608, 177, 81, 304, 208
-0.956715, 289, 33, 352, 160
-0.957163, 177, 81, 240, 144
-0.957951, 345, 33, 408, 160
-0.960039, 1, 241, 500, 368
-0.9605, 177, 17, 304, 144
-0.961269, 49, 249, 112, 312
-0.961551, 97, 17, 224, 144
-0.961757, 225, 65, 352, 192
-0.962262, 137, 113, 200, 176
-0.963249, 33, 193, 96, 320
-0.963415, 369, 129, 496, 375
-0.963587, 321, 41, 384, 104
-0.963687, 201, 89, 264, 152
-0.963751, 177, 17, 240, 144
-0.963897, 265, 65, 328, 192
-0.964064, 89, 241, 152, 304
-0.964137, 177, 65, 240, 320
-0.964457, 57, 177, 120, 304
-0.964565, 281, 57, 344, 120
-0.964581, 337, 49, 464, 176
-0.965762, 289, 129, 416, 375
-0.966014, 161, 49, 224, 112
-0.966161, 1, 1, 500, 128
-0.966578, 177, 177, 240, 304
-0.966957, 145, 9, 208, 72
-0.967378, 201, 65, 264, 192
-0.967598, 33, 161, 160, 288
-0.967885, 137, 161, 200, 224
-0.968719, 153, 145, 216, 272
-0.968743, 81, 97, 208, 224
-0.9688, 49, 225, 112, 288
-0.969142, 177, 113, 240, 240
-0.969256, 241, 81, 304, 208
-0.969804, 121, 97, 184, 224
-0.970056, 257, 129, 500, 375
-0.970258, 185, 33, 216, 160
-0.97043, 145, 209, 208, 272
-0.970442, 161, 113, 224, 176
-0.970844, 257, 1, 500, 128
-0.97103, 353, 49, 416, 112
-0.971638, 121, 225, 184, 288
-0.972034, 113, 113, 240, 176
-0.972115, 161, 241, 416, 368
-0.972312, 385, 49, 448, 176
-0.972327, 129, 113, 256, 240
-0.972461, 241, 89, 304, 152
-0.972527, 173, 17, 204, 144
-0.972942, 153, 1, 216, 256
-0.973011, 17, 193, 80, 256
-0.973043, 157, 145, 188, 272
-0.973791, 25, 241, 88, 368
-0.973924, 201, 65, 264, 128
-0.97418, 201, 17, 264, 144
-0.974355, 289, 49, 416, 112
-0.974468, 201, 49, 232, 176
-0.974554, 169, 193, 200, 320
-0.975024, 209, 81, 240, 144
-0.975482, 153, 97, 216, 352
-0.975943, 137, 209, 168, 336
-0.976249, 337, 1, 464, 128
-0.976321, 165, 97, 196, 224
-0.976597, 197, 49, 228, 112
-0.976624, 153, 97, 184, 224
-0.977014, 149, 209, 180, 336
-0.977185, 1, 81, 256, 208
-0.977256, 129, 97, 192, 352
-0.977361, 129, 225, 256, 352
-0.977413, 197, 73, 228, 136
-0.977432, 265, 81, 328, 144
-0.977599, 97, 225, 128, 352
-0.977601, 97, 241, 128, 304
-0.977602, 185, 25, 216, 88
-0.977738, 177, 97, 208, 224
-0.977945, 89, 265, 152, 328
-0.978065, 33, 241, 160, 304
-0.978195, 61, 225, 92, 352
-0.978419, 153, 73, 216, 136
-0.978429, 177, 97, 304, 160
-0.978452, 129, 1, 192, 128
-0.978574, 81, 249, 112, 312
-0.978603, 105, 145, 168, 272
-0.978637, 169, 17, 232, 80
-0.978793, 173, 1, 204, 64
-0.978821, 65, 257, 96, 320
-0.978892, 41, 193, 72, 320
-0.97899, 117, 225, 148, 352
-0.979123, 17, 233, 80, 296
-0.979173, 377, 57, 440, 120
-0.979177, 161, 1, 224, 375
-0.979367, 177, 193, 240, 256
-0.97939, 185, 73, 216, 136
-0.979421, 177, 73, 304, 136
-0.979477, 137, 113, 168, 176
-0.979652, 117, 233, 148, 296
-0.979791, 153, 273, 216, 336
-0.980021, 241, 17, 368, 144
-0.980039, 145, 145, 176, 272
-0.980068, 185, 41, 248, 104
-0.980155, 297, 49, 328, 176
-0.980488, 317, 33, 348, 160
-0.980664, 329, 33, 360, 160
-0.980683, 49, 265, 176, 328
-0.980747, 409, 49, 472, 176
-0.980982, 77, 241, 108, 368
-0.981021, 173, 25, 204, 88
-0.981063, 353, 41, 384, 104
-0.98122, 185, 49, 216, 112
-0.981302, 193, 49, 320, 112
-0.98148, 129, 281, 192, 344
-0.981554, 41, 201, 72, 264
-0.981591, 225, 33, 288, 160
-0.981603, 33, 209, 160, 272
-0.981745, 169, 209, 200, 272
-0.981779, 165, 161, 196, 224
-0.981973, 341, 41, 372, 104
-0.982033, 113, 121, 176, 184
-0.982095, 297, 57, 328, 120
-0.982167, 241, 89, 368, 152
-0.98217, 81, 233, 208, 296
-0.982219, 193, 97, 224, 160
-0.98227, 177, 225, 240, 352
-0.982315, 177, 129, 304, 256
-0.982345, 209, 97, 272, 352
-0.98236, 169, 145, 200, 272
-0.98249, 329, 41, 360, 104
-0.982496, 433, 49, 496, 176
-0.98284, 201, 113, 264, 176
-0.982959, 349, 33, 380, 160
-0.98305, 309, 49, 340, 112
-0.983237, 257, 97, 500, 224
-0.983334, 25, 257, 88, 320
-0.983335, 225, 193, 480, 320
-0.98336, 1, 169, 64, 232
-0.983387, 281, 33, 344, 288
-0.98356, 189, 81, 220, 208
-0.98358, 241, 65, 304, 320
-0.983608, 129, 81, 256, 144
-0.983672, 57, 233, 88, 296
-0.984, 297, 33, 360, 96
-0.984022, 105, 129, 168, 375
-0.984028, 97, 161, 224, 224
-0.984072, 241, 65, 368, 128
-0.984169, 121, 1, 184, 64
-0.984351, 153, 185, 216, 248
-0.984472, 185, 1, 248, 375
-0.984485, 161, 1, 192, 128
-0.984533, 153, 241, 216, 368
-0.98456, 129, 225, 160, 288
-0.984584, 353, 57, 480, 120
-0.98463, 49, 241, 80, 368
-0.984684, 53, 257, 84, 320
-0.984786, 321, 33, 384, 288
-0.984836, 377, 1, 440, 375
-0.984837, 285, 73, 316, 136
-0.984883, 129, 201, 256, 264
-0.984943, 273, 81, 400, 208
-0.984965, 285, 49, 316, 176
-0.984986, 81, 177, 144, 304
-0.984997, 137, 33, 200, 96
-0.985004, 321, 73, 384, 136
-0.98508, 225, 65, 288, 128
-0.985089, 133, 145, 164, 272
-0.985131, 161, 177, 288, 240
-0.98514, 177, 225, 304, 352
-0.98525, 97, 33, 224, 96
-0.985303, 361, 33, 392, 160
-0.985431, 97, 1, 224, 64
-0.98545, 213, 105, 244, 168
-0.985474, 217, 81, 248, 208
-0.985525, 137, 97, 168, 224
-0.985563, 161, 1, 192, 64
-0.985615, 385, 33, 448, 288
-0.985622, 177, 249, 240, 312
-0.985683, 17, 161, 48, 288
-0.985717, 29, 185, 60, 248
-0.985795, 149, 113, 180, 176
-0.985896, 297, 1, 360, 375
-0.985926, 33, 113, 160, 240
-0.98594, 29, 177, 60, 304
-0.98597, 377, 1, 440, 128
-0.986054, 369, 97, 496, 224
-0.986132, 1, 161, 32, 288
-0.986134, 153, 217, 184, 280
-0.986135, 9, 129, 72, 375
-0.986208, 17, 177, 48, 240
-0.986208, 177, 169, 240, 232
-0.986425, 113, 249, 176, 312
-0.986553, 113, 145, 176, 208
-0.986627, 401, 65, 464, 128
-0.986632, 165, 113, 196, 176
-0.986982, 57, 273, 120, 336
-0.986992, 129, 57, 256, 120
-0.987108, 181, 161, 212, 288
-0.987357, 353, 1, 416, 375
-0.987378, 321, 1, 384, 375
-0.987489, 297, 89, 360, 152
-0.987519, 273, 65, 304, 192
-0.987598, 313, 81, 376, 208
-0.987627, 57, 201, 120, 264
-0.987657, 97, 265, 224, 328
-0.987756, 225, 105, 256, 168
-0.987786, 369, 25, 432, 88
-0.9878, 61, 177, 92, 304
-0.987852, 369, 49, 400, 112
-0.987884, 345, 33, 408, 288
-0.987898, 49, 121, 176, 184
-0.987932, 9, 129, 72, 256
-0.98811, 173, 49, 204, 112
-0.988249, 145, 1, 272, 64
-0.988413, 141, 153, 172, 216
-0.98856, 401, 57, 432, 120
-0.988709, 177, 113, 208, 176
-0.988716, 249, 17, 312, 144
-0.988757, 177, 145, 240, 208
-0.988807, 253, 81, 284, 208
-0.988838, 5, 177, 36, 240
-0.988861, 273, 1, 336, 375
-0.988898, 1, 265, 128, 328
-0.989184, 129, 1, 192, 256
-0.989267, 129, 89, 192, 152
-0.989283, 137, 1, 200, 375
-0.989287, 409, 177, 472, 304
-0.98931, 41, 249, 72, 312
-0.98934, 409, 49, 440, 176
-0.989359, 409, 33, 472, 288
-0.989364, 241, 105, 272, 168
-0.989378, 161, 25, 192, 88
-0.989385, 353, 33, 480, 96
-0.989391, 125, 129, 156, 192
-0.989479, 201, 1, 264, 256
-0.989509, 417, 1, 480, 128
-0.989546, 157, 273, 188, 336
-0.989556, 185, 101, 248, 132
-0.989556, 401, 1, 464, 375
-0.989577, 229, 97, 260, 224
-0.989812, 149, 1, 180, 64
-0.9899, 185, 185, 216, 248
-0.989903, 273, 81, 304, 144
-0.989932, 433, 1, 496, 375
-0.989938, 33, 297, 96, 360
-0.989985, 321, 45, 384, 76
-0.990002, 329, 17, 392, 80
-0.99002, 169, 265, 200, 328
-0.990216, 177, 177, 304, 304
-0.990249, 153, 249, 216, 312
-0.990292, 217, 225, 280, 352
-0.990327, 241, 97, 272, 224
-0.990329, 209, 105, 272, 136
-0.99033, 33, 185, 160, 248
-0.990354, 145, 265, 272, 328
-0.990448, 49, 261, 112, 292
-0.990455, 177, 89, 240, 120
-0.990554, 201, 113, 264, 240
-0.990569, 177, 25, 304, 88
-0.990683, 145, 113, 208, 144
-0.990708, 201, 89, 264, 120
-0.990712, 49, 237, 112, 268
-0.990717, 169, 73, 232, 104
-0.990717, 373, 33, 404, 160
-0.990734, 217, 1, 280, 375
-0.990816, 65, 289, 192, 352
-0.99092, 161, 53, 224, 84
-0.990921, 161, 121, 288, 184
-0.990949, 1, 169, 256, 232
-0.990965, 141, 225, 172, 288
-0.990968, 281, 73, 344, 104
-0.990972, 361, 53, 424, 84
-0.990984, 153, 1, 216, 32
-0.990998, 145, 21, 208, 52
-0.991016, 153, 37, 216, 68
-0.991097, 305, 25, 432, 88
-0.991114, 225, 113, 352, 240
-0.991117, 169, 113, 232, 144
-0.991119, 1, 193, 256, 256
-0.991149, 109, 177, 140, 304
-0.991167, 17, 209, 80, 240
-0.991185, 89, 273, 152, 304
-0.991197, 161, 145, 288, 208
-0.991199, 425, 57, 488, 120
-0.991279, 105, 265, 136, 328
-0.991282, 393, 49, 424, 176
-0.991301, 225, 113, 288, 176
-0.99131, 121, 193, 184, 256
-0.991333, 121, 121, 184, 152
-0.991337, 241, 1, 304, 375
-0.991338, 381, 49, 412, 112
-0.991346, 249, 89, 312, 120
-0.991378, 421, 49, 452, 176
-0.991383, 97, 137, 224, 200
-0.991385, 1, 185, 64, 216
-0.991417, 261, 89, 292, 152
-0.991596, 185, 61, 248, 92
-0.991597, 137, 165, 200, 196
-0.991598, 161, 101, 224, 132
-0.991602, 17, 257, 80, 288
-0.991609, 273, 85, 336, 116
-0.991657, 221, 81, 252, 144
-0.991663, 193, 77, 256, 108
-0.991676, 73, 253, 136, 284
-0.991709, 393, 33, 456, 96
-0.991725, 129, 5, 192, 36
-0.991726, 49, 129, 112, 375
-0.991737, 177, 37, 240, 68
-0.991744, 297, 57, 360, 88
-0.991748, 169, 21, 232, 52
-0.991749, 89, 209, 152, 272
-0.99182, 321, 81, 448, 144
-0.991834, 161, 209, 224, 240
-0.991834, 137, 221, 200, 252
-0.991845, 153, 277, 216, 308
-0.991867, 17, 197, 80, 228
-0.991932, 177, 193, 240, 224
-0.992026, 385, 61, 448, 92
-0.992031, 89, 241, 152, 272
-0.992039, 197, 1, 228, 128
-0.992051, 1, 217, 256, 280
-0.992073, 177, 177, 240, 208
-0.992084, 49, 249, 112, 280
-0.992114, 113, 229, 176, 260
-0.992118, 97, 113, 352, 176
-0.992125, 17, 233, 80, 264
-0.992128, 17, 221, 80, 252
-0.992137, 185, 49, 248, 80
-0.99215, 257, 49, 500, 112
-0.992151, 217, 241, 280, 304
-0.992186, 17, 245, 80, 276
-0.992189, 193, 117, 256, 148
-0.992189, 225, 93, 288, 124
-0.99225, 205, 97, 236, 224
-0.992259, 49, 177, 112, 240
-0.992262, 77, 193, 108, 320
-0.992281, 129, 277, 192, 308
-0.992312, 97, 137, 160, 168
-0.992318, 121, 153, 184, 184
-0.992365, 57, 225, 120, 256
-0.992368, 409, 69, 472, 100
-0.992376, 209, 97, 240, 128
-0.992377, 1, 289, 128, 352
-0.992399, 145, 177, 208, 208
-0.99244, 145, 189, 208, 220
-0.992478, 129, 133, 192, 164
-0.99252, 169, 265, 232, 296
-0.992524, 297, 45, 360, 76
-0.992537, 25, 269, 88, 300
-0.992557, 121, 261, 184, 292
-0.992601, 201, 81, 232, 112
-0.992605, 145, 137, 208, 200
-0.992621, 93, 265, 124, 328
-0.992662, 193, 65, 224, 96
-0.992665, 133, 121, 164, 152
-0.99268, 241, 105, 304, 136
-0.992696, 197, 101, 228, 132
-0.992711, 185, 49, 216, 80
-0.992716, 229, 49, 260, 176
-0.992727, 129, 225, 256, 288
-0.992732, 165, 9, 196, 40
-0.992734, 225, 81, 288, 112
-0.992744, 177, 33, 208, 64
-0.992752, 137, 289, 200, 320
-0.992767, 305, 89, 368, 120
-0.992782, 17, 161, 144, 224
-0.992783, 173, 21, 204, 52
-0.992802, 85, 253, 116, 284
-0.992807, 177, 161, 240, 192
-0.99282, 169, 241, 200, 368
-0.992823, 213, 109, 244, 140
-0.992843, 57, 249, 88, 280
-0.992848, 409, 53, 472, 84
-0.992882, 169, 169, 200, 200
-0.992883, 281, 97, 344, 128
-0.992892, 61, 265, 92, 296
-0.992899, 165, 213, 196, 244
-0.9929, 49, 213, 112, 244
-0.992911, 177, 1, 240, 32
-0.992924, 333, 45, 364, 76
-0.992935, 301, 57, 332, 88
-0.99294, 89, 129, 152, 192
-0.992948, 73, 257, 104, 288
-0.992962, 109, 241, 140, 272
-0.992964, 361, 49, 392, 80
-0.992971, 313, 49, 344, 80
-0.992985, 153, 221, 184, 252
-0.992986, 345, 45, 376, 76
-0.992988, 153, 145, 216, 176
-0.992991, 137, 229, 168, 260
-0.992992, 33, 281, 96, 312
-0.99302, 125, 233, 156, 264
-0.993021, 29, 189, 60, 220
-0.993026, 201, 113, 232, 144
-0.993032, 221, 97, 252, 128
-0.993042, 229, 109, 260, 140
-0.993045, 345, 41, 408, 72
-0.993047, 321, 77, 384, 108
-0.993052, 113, 289, 176, 320
-0.993055, 293, 69, 324, 100
-0.993057, 17, 181, 48, 212
-0.993061, 145, 65, 208, 96
-0.993061, 153, 85, 216, 116
-0.993069, 249, 77, 312, 108
-0.993075, 413, 65, 444, 128
-0.993076, 97, 245, 128, 276
-0.993085, 249, 57, 312, 88
-0.993088, 65, 285, 128, 316
-0.99309, 45, 209, 76, 240
-0.993094, 433, 61, 496, 92
-0.9931, 33, 177, 96, 208
-0.993102, 165, 113, 196, 144
-0.993102, 177, 113, 208, 144
-0.993106, 409, 65, 440, 96
-0.993106, 177, 277, 240, 308
-0.993118, 41, 189, 104, 220
-0.99313, 49, 265, 80, 296
-0.993143, 281, 81, 312, 112
-0.993145, 161, 273, 192, 304
-0.99315, 153, 161, 184, 192
-0.99316, 169, 185, 200, 248
-0.993163, 137, 49, 200, 80
-0.993173, 153, 113, 184, 144
-0.993182, 189, 89, 220, 120
-0.993182, 141, 153, 172, 184
-0.993185, 57, 273, 120, 304
-0.993189, 189, 117, 220, 148
-0.993192, 185, 77, 216, 108
-0.993197, 321, 33, 384, 64
-0.993204, 397, 61, 428, 92
-0.993207, 49, 201, 112, 232
-0.993212, 173, 269, 204, 300
-0.993212, 129, 33, 192, 64
-0.993223, 121, 17, 184, 48
-0.993223, 129, 49, 384, 112
-0.99323, 213, 85, 244, 116
-0.993232, 373, 53, 404, 84
-0.993234, 113, 289, 240, 352
-0.993236, 177, 61, 208, 92
-0.993253, 205, 69, 236, 100
-0.993258, 305, 101, 368, 132
-0.993259, 385, 57, 416, 88
-0.99326, 45, 253, 76, 284
-0.993263, 185, 193, 216, 224
-0.993264, 61, 237, 92, 268
-0.993274, 149, 1, 180, 32
-0.993275, 177, 205, 208, 236
-0.993276, 89, 105, 152, 168
-0.99328, 41, 197, 72, 228
-0.993282, 97, 149, 160, 180
-0.993283, 197, 53, 228, 84
-0.99329, 189, 37, 220, 68
-0.99329, 169, 45, 200, 76
-0.993294, 153, 13, 184, 44
-0.993296, 269, 89, 300, 120
-0.993296, 185, 177, 216, 208
-0.993304, 129, 145, 160, 176
-0.993308, 337, 193, 464, 320
-0.993318, 161, 29, 192, 60
-0.993321, 1, 173, 64, 204
-0.993325, 241, 105, 272, 136
-0.99333, 117, 265, 148, 328
-0.993339, 49, 301, 112, 332
-0.99334, 421, 69, 452, 100
-0.993352, 273, 57, 336, 88
-0.993352, 5, 177, 36, 208
-0.993359, 253, 97, 284, 128
-0.993368, 121, 273, 152, 304
-0.993369, 101, 269, 132, 300
-0.993388, 89, 113, 152, 144
-0.99339, 385, 49, 448, 80
-0.993396, 265, 45, 328, 76
-0.993398, 117, 129, 148, 160
-0.993413, 85, 277, 116, 308
-0.99342, 177, 9, 208, 40
-0.993424, 45, 221, 76, 252
-0.993425, 329, 85, 360, 116
-0.99343, 321, 145, 448, 272
-0.99343, 185, 101, 216, 132
-0.993444, 97, 125, 160, 156
-0.993445, 177, 289, 240, 320
-0.993452, 233, 93, 264, 124
-0.993459, 37, 265, 68, 296
-0.99346, 193, 17, 256, 80
-0.993466, 177, 229, 240, 260
-0.993471, 149, 281, 180, 312
-0.993471, 313, 97, 344, 128
-0.993476, 185, 165, 216, 196
-0.993477, 169, 181, 200, 212
-0.993499, 209, 65, 272, 96
-0.993506, 49, 1, 112, 375
-0.993514, 141, 269, 172, 300
-0.993523, 361, 65, 424, 96
-0.993526, 33, 65, 160, 192
-0.993529, 357, 37, 388, 68
-0.993529, 37, 233, 68, 264
-0.993534, 181, 257, 212, 288
-0.993547, 345, 77, 408, 108
-0.993556, 61, 225, 92, 256
-0.993567, 177, 249, 240, 280
-0.993573, 141, 293, 172, 324
-0.993581, 257, 57, 320, 120
-0.993583, 337, 89, 400, 120
-0.993586, 145, 265, 208, 296
-0.99359, 97, 261, 160, 292
-0.993598, 349, 77, 380, 108
-0.993598, 157, 149, 188, 180
-0.993601, 117, 141, 148, 172
-0.993603, 137, 209, 200, 240
-0.993603, 81, 221, 144, 252
-0.993606, 321, 37, 352, 68
-0.993607, 133, 281, 164, 312
-0.993609, 333, 73, 364, 136
-0.99361, 337, 33, 368, 64
-0.993614, 217, 229, 280, 260
-0.99363, 185, 21, 216, 52
-0.993632, 105, 209, 168, 240
-0.993633, 25, 305, 88, 336
-0.993639, 381, 41, 412, 72
-0.993639, 169, 101, 200, 132
-0.993641, 105, 257, 136, 288
-0.993641, 141, 105, 172, 136
-0.993643, 113, 241, 176, 272
-0.993654, 213, 57, 244, 88
-0.993654, 401, 49, 432, 80
-0.993655, 81, 185, 208, 248
-0.993657, 417, 53, 448, 84
-0.993657, 369, 37, 400, 68
-0.993658, 221, 73, 252, 104
-0.993661, 113, 105, 176, 136
-0.993662, 169, 153, 200, 184
-0.993671, 193, 265, 256, 296
-0.993674, 61, 213, 92, 244
-0.993678, 205, 41, 236, 72
-0.993678, 57, 281, 88, 312
-0.993684, 161, 285, 192, 316
-0.993686, 77, 289, 108, 320
-0.993689, 165, 193, 196, 224
-0.993689, 121, 177, 152, 304
-0.993692, 197, 25, 228, 56
-0.993692, 1, 165, 32, 196
-0.993697, 41, 277, 72, 308
-0.993701, 189, 9, 220, 40
-0.993701, 281, 69, 312, 100
-0.993706, 137, 213, 168, 244
-0.993709, 41, 173, 72, 204
-0.993712, 53, 189, 84, 220
-0.993713, 173, 281, 204, 312
-0.993715, 125, 221, 156, 252
-0.993716, 217, 117, 280, 148
-0.993718, 1, 241, 256, 304
-0.993718, 109, 229, 140, 260
-0.993718, 17, 169, 48, 200
-0.993722, 281, 57, 312, 88
-0.993723, 369, 37, 432, 68
-0.993723, 61, 201, 92, 232
-0.993724, 157, 101, 188, 132
-0.993726, 57, 301, 88, 332
-0.993727, 49, 233, 80, 264
-0.993731, 289, 81, 352, 208
-0.993732, 113, 305, 176, 336
-0.993745, 217, 241, 280, 272
-0.993747, 153, 309, 216, 340
-0.993752, 289, 49, 416, 80
-0.993768, 129, 49, 192, 176
-0.99377, 281, 33, 344, 64
-0.993784, 73, 297, 136, 328
-0.993791, 337, 65, 400, 96
-0.99381, 425, 189, 488, 220
-0.993818, 409, 205, 472, 236
-0.993835, 81, 129, 144, 375
-0.993841, 289, 113, 352, 144
-0.993856, 9, 293, 72, 324
-0.993867, 425, 137, 488, 168
-0.993874, 193, 25, 256, 56
-0.993885, 145, 281, 176, 344
-0.993918, 185, 205, 248, 236
-0.994095, 209, 57, 240, 120
-0.994096, 161, 81, 416, 144
-0.994111, 213, 73, 228, 136
-0.994155, 213, 33, 244, 160
-0.994167, 1, 145, 256, 208
-0.994172, 433, 33, 496, 288
-0.994202, 179, 169, 194, 232
-0.994223, 177, 273, 240, 336
-0.994238, 369, 121, 496, 184
-0.994247, 409, 193, 472, 256
-0.994274, 185, 161, 216, 224
-0.994312, 265, 25, 328, 88
-0.994349, 233, 81, 264, 144
-0.994376, 201, 49, 216, 112
-0.99439, 9, 1, 72, 375
-0.994452, 113, 117, 240, 148
-0.994476, 321, 81, 352, 144
-0.994537, 193, 33, 208, 96
-0.994655, 185, 17, 200, 80
-0.994662, 345, 73, 408, 136
-0.994696, 177, 77, 304, 108
-0.994703, 225, 193, 352, 320
-0.994711, 107, 241, 122, 304
-0.994732, 97, 65, 160, 192
-0.994733, 193, 225, 256, 288
-0.994738, 207, 57, 222, 120
-0.994743, 89, 177, 120, 304
-0.994754, 153, 297, 216, 360
-0.994767, 179, 1, 194, 64
-0.994779, 65, 297, 128, 360
-0.99479, 203, 81, 218, 144
-0.994809, 153, 153, 184, 216
-0.99484, 81, 225, 112, 288
-0.994912, 89, 249, 104, 312
-0.994992, 113, 241, 128, 304
-0.994992, 225, 113, 352, 176
-0.995017, 33, 97, 160, 160
-0.995073, 261, 33, 292, 160
-0.995076, 221, 89, 236, 152
-0.995079, 305, 1, 336, 128
-0.995091, 157, 185, 188, 248
-0.995103, 129, 193, 384, 256
-0.99512, 257, 73, 500, 136
-0.995126, 121, 233, 136, 296
-0.995129, 1, 265, 256, 328
-0.995181, 61, 233, 76, 296
-0.995191, 165, 89, 196, 152
-0.995219, 41, 145, 72, 272
-0.995221, 209, 89, 336, 120
-0.995223, 95, 249, 110, 312
-0.99526, 71, 257, 86, 320
-0.995272, 101, 241, 116, 304
-0.995305, 177, 233, 304, 296
-0.995315, 33, 221, 160, 252
-0.995329, 417, 33, 480, 96
-0.995333, 433, 153, 496, 216
-0.995341, 33, 153, 96, 216
-0.995347, 45, 225, 76, 288
-0.995368, 135, 121, 150, 184
-0.995374, 147, 113, 162, 176
-0.995398, 273, 73, 400, 104
-0.995413, 127, 233, 142, 296
-0.995423, 81, 273, 208, 304
-0.995437, 425, 65, 456, 128
-0.995443, 209, 97, 224, 160
-0.995444, 141, 113, 156, 176
-0.995475, 177, 101, 304, 132
-0.995493, 197, 73, 212, 136
-0.995522, 121, 201, 152, 264
-0.995554, 257, 145, 500, 272
-0.995557, 369, 25, 400, 88
-0.995566, 241, 41, 368, 104
-0.995569, 177, 201, 304, 264
-0.995584, 65, 313, 192, 375
-0.995598, 1, 201, 500, 264
-0.995604, 33, 241, 160, 272
-0.995608, 105, 289, 168, 352
-0.995611, 61, 265, 76, 328
-0.995617, 77, 257, 92, 320
-0.995626, 293, 1, 324, 128
-0.99566, 53, 201, 68, 264
-0.995674, 165, 1, 196, 256
-0.995688, 305, 57, 320, 120
-0.995692, 33, 253, 160, 284
-0.995695, 1, 113, 32, 240
-0.995711, 353, 41, 368, 104
-0.995715, 1, 153, 32, 216
-0.995721, 105, 209, 136, 272
-0.995723, 97, 217, 352, 280
-0.995791, 193, 65, 320, 96
-0.995835, 367, 41, 382, 104
-0.995838, 139, 225, 154, 288
-0.995847, 141, 201, 172, 264
-0.995875, 361, 41, 376, 104
-0.995886, 81, 209, 208, 272
-0.995897, 1, 97, 500, 160
-0.995897, 165, 137, 196, 200
-0.995902, 317, 81, 348, 208
-0.995927, 299, 65, 314, 128
-0.995929, 445, 49, 476, 176
-0.995961, 73, 281, 104, 344
-0.995966, 129, 25, 384, 88
-0.995976, 333, 17, 364, 80
-0.995978, 241, 17, 368, 80
-0.995982, 83, 249, 98, 312
-0.995987, 177, 1, 208, 256
-0.996004, 331, 41, 346, 104
-0.996007, 129, 273, 160, 336
-0.996053, 341, 41, 356, 104
-0.996062, 289, 105, 416, 168
-0.996071, 129, 221, 256, 252
-0.996089, 121, 129, 152, 256
-0.996097, 175, 209, 190, 272
-0.996113, 17, 313, 144, 375
-0.996116, 1, 177, 500, 240
-0.996118, 153, 113, 168, 176
-0.996143, 389, 1, 420, 128
-0.996146, 257, 85, 384, 116
-0.996154, 249, 81, 280, 144
-0.996173, 113, 1, 176, 375
-0.996186, 13, 113, 44, 240
-0.99619, 353, 9, 480, 72
-0.996212, 55, 241, 70, 304
-0.996229, 217, 217, 280, 280
-0.996232, 353, 145, 480, 208
-0.996245, 129, 169, 384, 232
-0.996287, 321, 169, 448, 232
-0.996295, 469, 49, 500, 176
-0.996296, 321, 97, 448, 224
-0.99632, 173, 97, 204, 352
-0.996322, 157, 217, 172, 280
-0.996341, 61, 209, 92, 272
-0.996366, 347, 41, 362, 104
-0.996368, 229, 105, 244, 168
-0.996392, 317, 49, 332, 112
-0.996395, 321, 225, 448, 288
-0.996405, 173, 241, 204, 304
-0.996413, 289, 61, 416, 92
-0.996415, 129, 137, 384, 200
-0.996456, 81, 241, 208, 272
-0.996458, 133, 233, 148, 296
-0.996464, 313, 113, 376, 176
-0.996471, 37, 185, 52, 248
-0.996474, 1, 289, 256, 352
-0.996519, 293, 73, 308, 136
-0.99653, 129, 77, 256, 108
-0.996533, 49, 209, 176, 240
-0.996537, 129, 105, 256, 136
-0.996556, 201, 113, 216, 176
-0.996556, 221, 209, 252, 336
-0.996561, 311, 57, 326, 120
-0.996562, 145, 225, 160, 288
-0.996566, 193, 53, 320, 84
-0.996568, 433, 49, 464, 176
-0.996571, 45, 193, 60, 256
-0.996574, 163, 217, 178, 280
-0.996579, 161, 289, 288, 352
-0.996579, 145, 209, 272, 240
-0.996582, 129, 313, 192, 375
-0.996598, 81, 57, 208, 120
-0.996615, 323, 49, 338, 112
-0.996615, 169, 209, 184, 272
-0.996636, 151, 217, 166, 280
-0.996646, 163, 113, 178, 176
-0.996662, 457, 49, 488, 176
-0.996673, 189, 33, 220, 288
-0.996695, 209, 41, 272, 104
-0.996709, 33, 65, 288, 128
-0.996724, 181, 201, 196, 264
-0.996725, 93, 217, 124, 280
-0.996728, 33, 273, 160, 304
-0.996751, 349, 65, 380, 128
-0.996767, 31, 177, 46, 240
-0.99678, 349, 17, 380, 80
-0.996781, 161, 129, 192, 375
-0.996789, 425, 121, 488, 184
-0.996792, 217, 233, 248, 296
-0.996799, 165, 1, 180, 64
-0.996799, 375, 49, 390, 112
-0.996824, 149, 49, 180, 176
-0.996825, 29, 129, 60, 256
-0.996842, 113, 45, 240, 76
-0.996874, 187, 49, 202, 112
-0.996875, 153, 89, 184, 152
-0.996883, 171, 17, 186, 80
-0.996892, 165, 273, 180, 336
-0.996896, 185, 177, 200, 240
-0.996898, 287, 73, 302, 136
-0.996908, 169, 217, 232, 280
-0.996919, 149, 65, 180, 320
-0.996926, 19, 177, 34, 240
-0.996931, 309, 25, 340, 88
-0.996933, 9, 177, 24, 240
-0.996944, 179, 33, 194, 96
-0.996947, 1, 225, 500, 288
-0.996967, 337, 57, 464, 88
-0.996987, 413, 57, 428, 120
-0.996988, 129, 313, 256, 375
-0.997017, 195, 113, 210, 176
-0.997036, 155, 153, 170, 216
-0.997055, 141, 249, 172, 312
-0.99706, 1, 177, 16, 240
-0.997079, 81, 161, 208, 192
-0.997093, 97, 13, 224, 44
-0.997105, 213, 65, 244, 320
-0.99711, 55, 265, 70, 328
-0.997125, 97, 181, 224, 212
-0.997126, 273, 17, 304, 144
-0.997134, 21, 153, 52, 216
-0.997143, 139, 145, 154, 208
-0.997154, 173, 161, 188, 224
-0.997157, 25, 177, 40, 240
-0.99716, 243, 105, 258, 168
-0.99716, 241, 49, 272, 176
-0.997174, 353, 193, 480, 256
-0.997202, 97, 1, 224, 32
-0.997209, 145, 13, 272, 44
-0.997217, 129, 121, 144, 184
-0.997218, 215, 97, 230, 160
-0.997219, 129, 89, 256, 120
-0.997227, 189, 121, 220, 184
-0.997229, 161, 173, 288, 204
-0.997236, 137, 65, 168, 320
-0.997243, 241, 101, 368, 132
-0.997252, 133, 89, 164, 152
-0.997264, 179, 113, 194, 176
-0.997264, 1, 121, 256, 184
-0.997266, 161, 197, 288, 228
-0.997299, 185, 113, 200, 176
-0.997321, 161, 185, 288, 216
-0.997323, 369, 45, 496, 76
-0.997335, 309, 89, 340, 152
-0.99736, 173, 265, 188, 328
-0.997397, 225, 249, 352, 312
-0.997414, 113, 129, 240, 160
-0.997416, 407, 57, 422, 120
-0.997418, 109, 265, 124, 328
-0.997426, 433, 145, 496, 272
-0.997439, 169, 113, 184, 176
-0.997452, 381, 49, 396, 112
-0.99746, 161, 41, 288, 72
-0.997463, 97, 193, 224, 224
-0.997463, 253, 97, 268, 160
-0.997476, 281, 81, 296, 144
-0.997479, 181, 209, 212, 336
-0.997486, 1, 153, 500, 216
-0.997491, 49, 281, 80, 344
-0.997491, 273, 137, 400, 200
-0.997506, 129, 141, 256, 172
-0.997518, 65, 285, 192, 316
-0.997524, 191, 73, 206, 136
-0.997525, 235, 113, 250, 176
-0.997557, 145, 273, 272, 304
-0.997574, 145, 1, 272, 32
-0.997583, 201, 33, 232, 288
-0.997606, 81, 253, 208, 284
-0.997612, 177, 113, 304, 144
-0.997613, 321, 17, 352, 80
-0.997614, 211, 73, 226, 104
-0.997615, 129, 65, 256, 96
-0.997627, 159, 281, 174, 344
-0.997629, 59, 209, 74, 272
-0.997633, 221, 93, 236, 124
-0.997639, 149, 153, 164, 216
-0.997639, 9, 281, 72, 344
-0.997639, 81, 89, 208, 152
-0.997656, 205, 61, 220, 92
-0.997678, 65, 149, 192, 180
-0.997681, 199, 49, 214, 80
-0.997693, 193, 37, 208, 68
-0.997694, 265, 89, 280, 152
-0.997707, 113, 33, 240, 64
-0.997711, 185, 129, 216, 375
-0.997718, 193, 105, 448, 168
-0.99772, 125, 129, 156, 375
-0.997723, 393, 33, 424, 96
-0.997729, 187, 25, 202, 56
-0.99773, 81, 229, 208, 260
-0.997731, 389, 49, 404, 112
-0.997748, 181, 13, 196, 44
-0.99775, 405, 1, 436, 128
-0.997753, 433, 97, 496, 224
-0.997783, 159, 1, 174, 64
-0.997785, 259, 89, 274, 152
-0.997787, 129, 257, 384, 320
-0.997809, 187, 201, 202, 264
-0.99781, 353, 69, 480, 100
-0.997815, 293, 33, 324, 288
-0.997817, 225, 217, 352, 280
-0.997827, 419, 57, 434, 120
-0.997833, 61, 297, 92, 360
-0.997834, 67, 225, 82, 288
-0.997839, 33, 113, 96, 240
-0.997846, 409, 217, 472, 280
-0.997854, 211, 97, 226, 128
-0.997858, 161, 153, 176, 216
-0.99788, 65, 265, 80, 296
-0.997888, 261, 65, 292, 128
-0.99789, 89, 1, 152, 375
-0.997893, 381, 25, 412, 88
-0.997898, 49, 137, 176, 168
-0.997899, 65, 89, 320, 152
-0.997907, 115, 265, 130, 328
-0.997907, 179, 169, 194, 200
-0.997907, 1, 57, 500, 120
-0.997909, 167, 161, 182, 224
-0.997911, 425, 65, 440, 128
-0.997911, 145, 201, 160, 264
-0.997918, 135, 121, 150, 152
-0.997923, 275, 89, 290, 152
-0.997923, 161, 193, 176, 256
-0.997927, 295, 73, 310, 104
-0.997943, 49, 125, 176, 156
-0.997952, 121, 265, 136, 328
-0.997957, 175, 1, 190, 32
-0.997962, 215, 85, 230, 116
-0.997986, 421, 41, 452, 104
-0.997989, 101, 249, 116, 280
-0.99799, 153, 289, 168, 352
-0.997999, 369, 97, 496, 160
-0.998003, 113, 285, 240, 316
-0.998004, 69, 233, 100, 296
-0.998008, 303, 65, 318, 96
-0.998014, 401, 97, 464, 224
-0.998018, 399, 57, 414, 120
-0.998028, 231, 81, 246, 144
-0.998031, 191, 169, 206, 232
-0.998036, 211, 109, 226, 140
-0.998037, 201, 225, 232, 352
-0.99804, 125, 237, 140, 268
-0.998044, 133, 233, 148, 264
-0.998046, 181, 265, 212, 328
-0.998054, 175, 213, 190, 244
-0.998057, 167, 137, 182, 200
-0.998059, 103, 265, 118, 328
-0.99806, 33, 193, 160, 224
-0.998064, 219, 65, 234, 128
-0.998066, 141, 229, 156, 260
-0.998071, 191, 9, 206, 72
-0.998076, 135, 97, 150, 160
-0.998083, 59, 249, 74, 280
-0.998094, 95, 225, 110, 288
-0.998103, 417, 129, 480, 375
-0.998105, 321, 85, 448, 116
-0.998113, 199, 25, 214, 88
-0.998114, 167, 217, 182, 248
-0.998119, 149, 225, 164, 256
-0.998123, 373, 25, 388, 88
-0.998125, 337, 45, 352, 76
-0.998125, 83, 257, 98, 288
-0.998129, 159, 221, 174, 252
-0.998131, 233, 97, 264, 352
-0.998138, 369, 169, 496, 232
-0.998146, 313, 57, 328, 88
-0.998154, 117, 241, 132, 272
-0.998158, 437, 65, 468, 128
-0.998159, 91, 253, 106, 284
-0.998159, 227, 105, 242, 136
-0.998168, 161, 153, 288, 184
-0.998171, 329, 33, 360, 288
-0.998172, 77, 233, 92, 296
-0.998175, 319, 53, 334, 84
-0.998182, 73, 261, 88, 292
-0.998183, 161, 49, 192, 176
-0.998186, 47, 197, 62, 228
-0.998187, 371, 49, 386, 80
-0.99819, 183, 89, 198, 152
-0.998196, 129, 209, 144, 272
-0.998199, 327, 81, 342, 144
-0.998201, 203, 81, 218, 112
-0.998202, 289, 77, 304, 108
-0.998214, 105, 313, 168, 375
-0.998217, 115, 217, 130, 280
-0.998226, 107, 245, 122, 276
-0.99824, 179, 145, 194, 208
-0.998241, 237, 89, 252, 152
-0.998258, 181, 209, 196, 240
-0.998265, 37, 255, 68, 270
-0.998265, 345, 33, 376, 288
-0.998267, 149, 149, 180, 164
-0.998268, 249, 103, 280, 118
-0.998268, 213, 49, 228, 112
-0.99827, 225, 91, 256, 106
-0.99827, 149, 229, 180, 244
-0.99827, 55, 205, 70, 236
-0.998271, 185, 13, 216, 28
-0.998272, 361, 45, 376, 76
-0.998273, 189, 21, 220, 36
-0.998274, 169, 201, 200, 216
-0.998274, 193, 29, 224, 44
-0.998274, 197, 37, 228, 52
-0.998274, 201, 45, 232, 60
-0.998274, 205, 53, 236, 68
-0.998275, 225, 119, 256, 134
-0.998275, 17, 177, 144, 208
-0.998276, 61, 221, 92, 236
-0.998276, 209, 61, 240, 76
-0.998278, 217, 97, 248, 112
-0.99828, 145, 281, 176, 296
-0.998281, 301, 59, 332, 74
-0.998282, 213, 69, 244, 84
-0.998282, 221, 85, 252, 100
-0.998283, 37, 249, 68, 264
-0.998283, 117, 273, 148, 288
-0.998283, 167, 185, 182, 248
-0.998284, 217, 77, 248, 92
-0.998284, 261, 65, 292, 320
-0.998285, 169, 181, 200, 196
-0.998285, 245, 109, 276, 124
-0.998286, 345, 43, 376, 58
-0.998286, 141, 275, 172, 290
-0.998286, 57, 269, 72, 300
-0.998287, 185, 199, 216, 214
-0.998289, 133, 135, 164, 150
-0.99829, 61, 271, 92, 286
-0.99829, 189, 111, 220, 126
-0.99829, 431, 65, 446, 128
-0.998291, 205, 97, 220, 128
-0.998292, 41, 239, 72, 254
-0.998293, 185, 169, 216, 184
-0.998293, 129, 129, 160, 144
-0.998295, 113, 137, 144, 152
-0.998296, 145, 287, 176, 302
-0.998297, 157, 285, 188, 300
-0.998299, 161, 29, 192, 44
-0.9983, 165, 37, 196, 52
-0.998302, 169, 45, 200, 60
-0.998303, 157, 21, 188, 36
-0.998303, 173, 53, 204, 68
-0.998303, 45, 221, 76, 236
-0.998304, 57, 245, 88, 260
-0.998304, 153, 13, 184, 28
-0.998306, 177, 61, 208, 76
-0.998306, 121, 241, 152, 256
-0.998306, 61, 235, 92, 250
-0.998306, 161, 273, 192, 288
-0.998307, 149, 5, 180, 20
-0.998311, 197, 69, 212, 100
-0.998311, 321, 25, 336, 88
-0.998312, 181, 69, 212, 84
-0.998313, 185, 193, 216, 208
-0.998314, 245, 65, 276, 320
-0.998315, 185, 77, 216, 92
-0.998316, 33, 41, 288, 104
-0.998316, 189, 85, 220, 100
-0.998317, 41, 189, 56, 220
-0.998318, 1, 181, 32, 196
-0.998318, 185, 183, 216, 198
-0.998319, 181, 3, 212, 18
-0.99832, 53, 257, 68, 288
-0.99832, 393, 61, 424, 76
-0.998324, 193, 99, 224, 114
-0.998324, 121, 143, 152, 158
-0.998325, 273, 89, 304, 104
-0.998326, 193, 93, 224, 108
-0.998326, 49, 271, 80, 286
-0.99833, 3, 153, 18, 216
-0.99833, 197, 105, 228, 120
-0.998331, 105, 271, 136, 286
-0.998334, 141, 157, 172, 172
-0.998336, 165, 5, 180, 36
-0.998336, 35, 185, 50, 216
-0.998339, 169, 175, 200, 190
-0.998339, 125, 235, 156, 250
-0.99834, 185, 177, 216, 192
-0.998342, 21, 187, 52, 202
-0.998342, 129, 149, 160, 164
-0.998343, 185, 205, 216, 220
-0.998344, 45, 227, 76, 242
-0.998345, 137, 229, 168, 244
-0.998348, 161, 279, 192, 294
-0.998348, 37, 205, 68, 220
-0.998348, 201, 117, 232, 132
-0.998349, 45, 213, 76, 228
-0.998353, 285, 83, 316, 98
-0.998355, 73, 259, 104, 274
-0.998357, 189, 117, 220, 132
-0.998359, 229, 101, 260, 116
-0.998361, 41, 265, 72, 280
-0.998362, 233, 107, 264, 122
-0.998362, 417, 69, 448, 84
-0.998362, 183, 41, 198, 72
-0.998362, 191, 57, 206, 88
-0.998363, 1, 121, 500, 184
-0.998363, 149, 223, 180, 238
-0.99837, 171, 17, 186, 48
-0.998372, 421, 177, 452, 304
-0.998372, 173, 269, 204, 284
-0.998373, 29, 195, 60, 210
-0.998374, 213, 115, 244, 130
-0.998375, 85, 253, 116, 268
-0.998376, 13, 181, 44, 196
-0.998376, 153, 163, 184, 178
-0.998376, 381, 57, 412, 72
-0.998377, 189, 113, 204, 144
-0.998377, 61, 265, 92, 280
-0.998377, 161, 261, 288, 292
-0.998378, 165, 113, 180, 144
-0.998379, 297, 71, 328, 86
-0.998379, 241, 61, 368, 92
-0.998381, 347, 45, 362, 76
-0.998384, 301, 65, 332, 80
-0.998386, 109, 243, 140, 258
-0.998386, 157, 117, 188, 132
-0.998386, 293, 77, 324, 92
-0.998391, 365, 51, 396, 66
-0.998392, 229, 113, 260, 128
-0.998393, 169, 115, 200, 130
-0.998395, 313, 57, 344, 72
-0.9984, 355, 45, 370, 76
-0.9984, 137, 145, 152, 176
-0.9984, 165, 169, 196, 184
-0.998401, 173, 213, 204, 228
-0.998403, 97, 249, 128, 264
-0.998404, 417, 65, 432, 96
-0.998408, 41, 177, 72, 240
-0.998409, 161, 1, 192, 16
-0.998411, 145, 119, 176, 134
-0.998412, 405, 65, 436, 80
-0.998417, 225, 217, 480, 280
-0.998418, 377, 49, 392, 80
-0.998421, 353, 49, 384, 64
-0.998422, 321, 51, 352, 66
-0.998427, 133, 123, 164, 138
-0.998429, 161, 219, 192, 234
-0.998429, 197, 33, 212, 160
-0.99843, 325, 49, 340, 80
-0.99843, 205, 117, 220, 148
-0.998431, 321, 37, 448, 68
-0.998434, 201, 111, 232, 126
-0.998438, 321, 49, 384, 64
-0.998438, 177, 29, 192, 60
-0.998442, 133, 49, 164, 176
-0.998444, 165, 7, 196, 22
-0.998444, 57, 255, 88, 270
-0.998446, 151, 157, 166, 188
-0.998448, 161, 297, 192, 360
-0.998448, 305, 33, 336, 288
-0.998448, 333, 47, 364, 62
-0.998451, 233, 113, 248, 144
-0.998455, 183, 113, 198, 144
-0.998462, 155, 117, 170, 148
-0.998463, 159, 161, 174, 192
-0.998464, 165, 13, 196, 28
-0.998465, 273, 65, 304, 320
-0.998468, 173, 31, 204, 46
-0.998469, 169, 165, 184, 196
-0.99847, 169, 21, 200, 36
-0.99847, 405, 61, 420, 92
-0.998471, 337, 81, 400, 208
-0.998472, 177, 37, 208, 52
-0.998473, 201, 101, 264, 116
-0.998475, 181, 47, 212, 62
-0.998479, 185, 55, 216, 70
-0.998481, 167, 273, 182, 304
-0.998483, 97, 209, 224, 240
-0.998485, 29, 181, 44, 212
-0.998488, 189, 63, 220, 78
-0.998488, 213, 109, 244, 124
-0.99849, 199, 117, 214, 148
-0.998499, 193, 71, 224, 86
-0.9985, 197, 79, 228, 94
-0.998502, 201, 87, 232, 102
-0.998502, 185, 107, 248, 122
-0.998503, 217, 109, 232, 140
-0.998504, 209, 177, 336, 240
-0.998507, 145, 153, 160, 184
-0.998516, 205, 95, 236, 110
-0.998519, 177, 25, 304, 56
-0.998522, 209, 41, 336, 72
-0.998524, 187, 17, 202, 144
-0.998526, 209, 103, 240, 118
-0.998528, 141, 121, 156, 152
-0.998528, 283, 85, 298, 116
-0.99853, 145, 117, 208, 132
-0.998537, 49, 247, 112, 262
-0.998545, 171, 113, 186, 144
-0.998546, 209, 111, 272, 126
-0.998554, 177, 91, 240, 106
-0.998554, 49, 257, 112, 272
-0.998555, 331, 45, 346, 76
-0.998557, 369, 217, 496, 280
-0.99856, 49, 297, 176, 328
-0.998563, 411, 61, 426, 92
-0.998564, 169, 75, 232, 90
-0.998566, 297, 33, 328, 96
-0.998567, 317, 33, 348, 288
-0.99857, 193, 83, 256, 98
-0.998572, 153, 1, 216, 16
-0.998573, 161, 59, 224, 74
-0.998575, 185, 67, 248, 82
-0.998576, 161, 281, 176, 312
-0.998581, 281, 83, 344, 98
-0.998583, 153, 43, 216, 58
-0.998584, 257, 25, 500, 88
-0.998585, 137, 9, 200, 24
-0.998585, 201, 95, 264, 110
-0.998586, 243, 109, 258, 140
-0.998587, 145, 27, 208, 42
-0.998587, 89, 273, 152, 288
-0.998588, 197, 81, 212, 112
-0.998588, 177, 51, 240, 66
-0.998591, 169, 35, 232, 50
-0.998592, 185, 113, 248, 128
-0.998592, 161, 19, 224, 34
-0.998593, 129, 231, 192, 246
-0.998598, 1, 177, 16, 208
-0.998601, 49, 263, 112, 278
-0.998604, 199, 101, 214, 132
-0.998611, 57, 241, 120, 256
-0.998611, 113, 239, 176, 254
-0.998611, 273, 89, 336, 104
-0.998613, 177, 97, 240, 112
-0.998613, 177, 113, 192, 144
-0.998614, 225, 101, 288, 116
-0.998615, 17, 213, 80, 228
-0.998618, 25, 259, 88, 274
-0.998618, 89, 251, 152, 266
-0.99862, 161, 215, 224, 230
-0.998622, 63, 233, 78, 264
-0.998623, 153, 279, 216, 294
-0.998624, 169, 81, 232, 96
-0.998625, 145, 223, 208, 238
-0.998629, 183, 53, 198, 84
-0.998631, 161, 65, 224, 80
-0.998632, 345, 53, 408, 68
-0.998634, 153, 49, 216, 64
-0.998634, 305, 55, 368, 70
-0.998635, 193, 77, 256, 92
-0.998636, 281, 77, 344, 92
-0.998636, 369, 61, 432, 76
-0.998636, 173, 265, 188, 296
-0.998637, 137, 15, 200, 30
-0.998637, 9, 205, 72, 220
-0.998637, 129, 123, 192, 138
-0.998638, 97, 245, 160, 260
-0.998638, 159, 1, 174, 32
-0.998639, 289, 71, 352, 86
-0.99864, 145, 33, 208, 48
-0.99864, 17, 237, 80, 252
-0.99864, 15, 181, 30, 212
-0.99864, 73, 257, 136, 272
-0.998641, 289, 65, 352, 80
-0.998641, 129, 277, 192, 292
-0.998642, 177, 207, 240, 222
-0.998643, 185, 61, 248, 76
-0.998644, 201, 89, 264, 104
-0.998644, 17, 219, 80, 234
-0.998645, 131, 137, 146, 168
-0.998648, 177, 45, 240, 60
-0.998649, 57, 269, 120, 284
-0.998649, 425, 69, 440, 100
-0.99865, 161, 7, 224, 22
-0.99865, 137, 169, 200, 184
-0.998655, 169, 29, 232, 44
-0.998656, 129, 1, 192, 16
-0.998658, 161, 13, 224, 28
-0.998659, 1, 209, 128, 240
-0.998659, 249, 95, 312, 110
-0.99866, 9, 197, 72, 212
-0.99866, 17, 227, 80, 242
-0.998661, 61, 185, 92, 248
-0.998662, 23, 177, 38, 208
-0.998663, 33, 1, 288, 64
-0.998663, 177, 175, 240, 190
-0.998664, 177, 199, 240, 214
-0.998666, 121, 161, 184, 176
-0.998667, 191, 69, 206, 100
-0.998669, 1, 185, 64, 200
-0.99867, 161, 109, 224, 124
-0.998671, 1, 191, 64, 206
-0.998671, 393, 67, 456, 82
-0.998671, 161, 273, 224, 288
-0.998672, 185, 119, 248, 134
-0.998674, 105, 153, 168, 168
-0.998676, 121, 135, 184, 150
-0.998676, 177, 193, 240, 208
-0.998676, 153, 285, 216, 300
-0.998677, 89, 279, 152, 294
-0.998677, 177, 181, 240, 196
-0.998678, 17, 247, 80, 262
-0.998678, 7, 177, 22, 208
-0.998681, 129, 141, 192, 156
-0.998683, 129, 21, 192, 36
-0.998683, 59, 217, 74, 248
-0.998684, 177, 187, 240, 202
-0.998685, 121, 129, 184, 144
-0.998685, 25, 267, 88, 282
-0.998688, 225, 95, 288, 110
-0.99869, 57, 225, 120, 240
-0.99869, 145, 185, 208, 200
-0.998691, 225, 241, 352, 368
-0.998692, 145, 175, 208, 190
-0.998692, 49, 231, 112, 246
-0.998693, 113, 283, 176, 298
-0.998694, 145, 195, 208, 210
-0.998694, 145, 201, 208, 216
-0.998695, 97, 147, 160, 162
-0.998695, 149, 117, 164, 148
-0.998696, 169, 163, 232, 178
-0.998697, 137, 271, 200, 286
-0.998698, 49, 205, 112, 220
-0.998698, 57, 219, 120, 234
-0.998698, 137, 291, 200, 306
-0.998699, 137, 147, 200, 162
-0.9987, 249, 89, 312, 104
-0.9987, 305, 97, 432, 128
-0.9987, 369, 67, 432, 82
-0.998701, 145, 153, 208, 168
-0.998701, 89, 141, 152, 156
-0.998703, 187, 201, 202, 232
-0.998705, 409, 61, 472, 76
-0.998706, 209, 117, 272, 132
-0.998706, 225, 113, 352, 144
-0.998709, 49, 275, 112, 290
-0.998709, 177, 1, 240, 16
-0.998711, 177, 41, 192, 72
-0.998711, 161, 103, 224, 118
-0.998712, 179, 97, 194, 224
-0.998713, 249, 73, 312, 88
-0.998713, 249, 101, 312, 116
-0.998713, 9, 253, 72, 268
-0.998715, 89, 127, 152, 142
-0.998715, 175, 145, 190, 272
-0.998716, 177, 169, 240, 184
-0.998716, 73, 263, 136, 278
-0.998718, 33, 189, 96, 204
-0.998719, 89, 135, 152, 150
-0.998722, 273, 129, 400, 256
-0.998723, 249, 81, 312, 96
-0.998723, 41, 199, 104, 214
-0.998723, 153, 87, 216, 102
-0.998723, 209, 69, 272, 84
-0.998723, 113, 289, 176, 304
-0.998724, 169, 267, 232, 282
-0.998725, 171, 29, 186, 60
-0.998725, 233, 109, 296, 124
-0.998726, 183, 269, 198, 300
-0.998726, 369, 47, 432, 62
-0.998726, 273, 95, 336, 110
-0.998732, 385, 33, 416, 288
-0.998736, 187, 1, 202, 32
-0.998741, 189, 177, 204, 208
-0.998745, 165, 17, 180, 48
-0.998745, 383, 53, 398, 84
-0.99875, 405, 33, 436, 288
-0.998754, 297, 89, 328, 152
-0.998754, 113, 129, 144, 375
-0.998759, 129, 125, 144, 156
-0.99876, 205, 49, 220, 176
-0.998761, 103, 269, 118, 300
-0.998772, 369, 249, 496, 312
-0.998782, 189, 189, 204, 220
-0.998783, 249, 105, 264, 136
-0.998784, 129, 281, 384, 344
-0.998793, 357, 33, 388, 288
-0.998798, 181, 193, 196, 224
-0.998804, 169, 145, 184, 272
-0.998806, 397, 57, 412, 88
-0.998809, 373, 33, 404, 288
-0.998817, 177, 297, 240, 360
-0.998824, 181, 161, 196, 288
-0.998841, 421, 33, 452, 288
-0.998843, 277, 49, 308, 112
-0.998855, 123, 269, 138, 300
-0.998868, 161, 209, 176, 336
-0.99887, 155, 285, 170, 316
-0.998871, 131, 273, 146, 304
-0.998872, 181, 1, 196, 128
-0.998875, 431, 69, 446, 100
-0.998875, 163, 145, 178, 272
-0.998877, 173, 193, 188, 320
-0.998881, 469, 49, 500, 112
-0.998903, 69, 241, 84, 368
-0.998905, 235, 101, 250, 132
-0.99891, 189, 241, 220, 304
-0.998913, 1, 305, 128, 336
-0.998916, 53, 193, 68, 320
-0.998916, 97, 309, 224, 340
-0.998926, 169, 97, 184, 224
-0.998926, 119, 225, 134, 352
-0.998929, 317, 97, 332, 128
-0.998938, 125, 225, 140, 352
-0.998941, 135, 209, 150, 336
-0.998941, 59, 209, 74, 336
-0.998944, 155, 209, 170, 336
-0.998948, 17, 129, 48, 375
-0.998955, 33, 129, 64, 375
-0.998957, 151, 145, 166, 272
-0.99896, 307, 53, 322, 84
-0.998966, 325, 93, 340, 124
-0.99897, 151, 97, 166, 224
-0.99897, 211, 65, 226, 192
-0.998972, 181, 181, 196, 212
-0.998974, 97, 273, 112, 304
-0.998974, 367, 37, 382, 68
-0.998975, 53, 233, 68, 264
-0.998976, 103, 225, 118, 352
-0.99898, 157, 145, 172, 272
-0.998982, 321, 33, 336, 160
-0.998983, 141, 209, 156, 336
-0.998984, 81, 241, 96, 368
-0.998986, 257, 97, 272, 128
-0.998994, 329, 81, 360, 208
-0.998995, 109, 225, 124, 352
-0.998998, 149, 209, 164, 336
-0.998998, 51, 269, 66, 300
-0.998999, 201, 265, 264, 328
-0.999001, 173, 201, 188, 232
-0.999002, 189, 165, 204, 196
-0.999005, 109, 269, 124, 300
-0.999006, 163, 205, 178, 236
-0.999009, 189, 97, 204, 224
-0.999013, 117, 269, 132, 300
-0.999017, 147, 213, 162, 244
-0.999021, 409, 169, 472, 232
-0.999022, 5, 129, 36, 375
-0.999032, 163, 97, 178, 224
-0.999032, 289, 9, 352, 72
-0.999037, 33, 113, 160, 144
-0.999037, 321, 249, 448, 312
-0.999037, 305, 49, 320, 176
-0.999054, 353, 33, 368, 160
-0.999062, 129, 1, 384, 64
-0.999062, 209, 273, 336, 336
-0.999068, 311, 49, 326, 176
-0.999069, 167, 193, 182, 320
-0.999072, 97, 297, 224, 328
-0.999072, 145, 145, 160, 272
-0.999074, 87, 241, 102, 368
-0.99908, 171, 17, 186, 144
-0.999081, 337, 33, 352, 160
-0.999088, 75, 241, 90, 368
-0.99909, 369, 241, 496, 368
-0.99911, 157, 97, 172, 224
-0.999117, 9, 305, 72, 368
-0.999119, 1, 285, 128, 316
-0.99912, 97, 225, 112, 352
-0.999122, 327, 33, 342, 160
-0.99913, 343, 33, 358, 160
-0.999139, 257, 145, 500, 208
-0.999146, 1, 313, 256, 375
-0.999148, 221, 81, 236, 208
-0.999153, 299, 49, 314, 176
-0.999159, 433, 193, 496, 320
-0.999172, 363, 33, 378, 160
-0.999174, 129, 233, 256, 264
-0.999175, 113, 105, 144, 168
-0.999183, 433, 33, 464, 288
-0.999187, 65, 193, 80, 320
-0.999188, 273, 37, 400, 68
-0.999204, 57, 129, 88, 375
-0.999219, 45, 177, 60, 304
-0.999225, 199, 81, 214, 208
-0.999229, 401, 241, 464, 368
-0.999231, 65, 101, 192, 132
-0.999234, 161, 285, 288, 316
-0.999276, 187, 161, 202, 288
-0.99928, 417, 1, 448, 128
-0.999281, 19, 161, 34, 288
-0.999282, 31, 161, 46, 288
-0.999288, 289, 65, 304, 192
-0.999294, 9, 161, 24, 288
-0.999304, 185, 1, 216, 64
-0.999306, 369, 33, 384, 160
-0.999307, 179, 209, 194, 336
-0.99931, 225, 241, 480, 304
-0.999313, 181, 49, 196, 176
-0.999321, 37, 177, 52, 304
-0.999326, 273, 193, 400, 256
-0.999345, 205, 249, 236, 312
-0.999347, 3, 161, 18, 288
-0.999352, 273, 161, 400, 224
-0.999366, 145, 97, 160, 224
-0.999366, 453, 33, 484, 288
-0.99937, 281, 209, 344, 272
-0.999377, 161, 249, 288, 280
-0.999378, 139, 145, 154, 272
-0.99938, 25, 161, 40, 288
-0.999385, 377, 193, 440, 320
-0.999391, 239, 97, 254, 224
-0.999392, 385, 89, 448, 152
-0.999392, 469, 33, 500, 288
-0.999395, 283, 65, 298, 192
-0.999397, 145, 297, 272, 328
-0.999401, 161, 125, 288, 156
-0.999403, 369, 137, 496, 168
-0.99941, 81, 129, 112, 375
-0.99941, 337, 97, 400, 160
-0.999421, 197, 129, 228, 375
-0.999422, 255, 81, 270, 208
-0.999425, 375, 33, 390, 160
-0.999426, 229, 97, 244, 224
-0.999426, 245, 97, 260, 224
-0.999431, 225, 1, 256, 256
-0.999438, 433, 1, 464, 128
-0.999443, 211, 17, 226, 144
-0.999449, 261, 81, 276, 208
-0.999451, 165, 1, 180, 128
-0.999455, 139, 97, 154, 224
-0.999456, 425, 49, 440, 176
-0.999457, 441, 169, 472, 232
-0.99946, 271, 81, 286, 208
-0.99946, 419, 49, 434, 176
-0.99946, 125, 177, 140, 304
-0.999468, 409, 49, 424, 176
-0.999472, 277, 81, 292, 208
-0.999478, 381, 33, 396, 160
-0.999485, 203, 1, 218, 128
-0.999486, 119, 177, 134, 304
-0.999487, 395, 49, 410, 176
-0.999489, 237, 115, 252, 130
-0.99949, 9, 181, 24, 196
-0.99949, 163, 281, 178, 296
-0.999491, 301, 73, 316, 88
-0.999491, 1, 165, 128, 196
-0.999493, 183, 269, 198, 284
-0.999493, 397, 59, 412, 74
-0.999493, 59, 255, 74, 270
-0.999494, 51, 271, 66, 286
-0.999494, 403, 49, 418, 176
-0.999495, 55, 237, 70, 252
-0.999495, 55, 279, 70, 294
-0.999499, 189, 183, 204, 198
-0.999499, 247, 109, 262, 124
-0.9995, 105, 273, 120, 288
-0.999502, 209, 221, 336, 252
-0.999502, 189, 177, 204, 192
-0.999505, 133, 131, 148, 146
-0.999505, 63, 245, 78, 260
-0.999506, 385, 55, 400, 70
-0.999506, 159, 289, 174, 304
-0.999507, 189, 201, 204, 216
-0.999509, 45, 129, 76, 375
-0.999509, 131, 275, 146, 290
-0.99951, 205, 109, 220, 124
-0.999511, 219, 115, 234, 130
-0.999513, 177, 137, 208, 200
-0.999513, 403, 63, 418, 78
-0.999514, 3, 181, 18, 196
-0.999514, 109, 177, 124, 304
-0.999515, 125, 133, 140, 148
-0.999515, 449, 57, 480, 120
-0.999516, 183, 3, 198, 18
-0.999516, 235, 107, 250, 122
-0.999517, 81, 193, 96, 320
-0.999517, 457, 153, 488, 216
-0.999518, 427, 71, 442, 86
-0.999519, 53, 241, 68, 368
-0.99952, 21, 181, 36, 196
-0.999524, 187, 207, 202, 222
-0.999524, 131, 141, 146, 156
-0.999525, 87, 193, 102, 320
-0.999526, 59, 227, 74, 242
-0.999527, 177, 115, 192, 130
-0.999527, 97, 129, 128, 375
-0.999528, 41, 197, 56, 212
-0.999531, 177, 37, 192, 52
-0.999532, 167, 15, 182, 30
-0.999532, 173, 271, 188, 286
-0.999533, 205, 97, 220, 224
-0.999534, 141, 123, 156, 138
-0.999534, 205, 117, 220, 132
-0.999534, 173, 29, 188, 44
-0.999535, 181, 45, 196, 60
-0.999536, 65, 235, 80, 250
-0.999537, 185, 53, 200, 68
-0.999537, 177, 313, 304, 375
-0.999537, 169, 115, 184, 130
-0.999537, 421, 69, 436, 84
-0.999537, 69, 129, 100, 375
-0.999537, 197, 117, 212, 132
-0.999537, 219, 33, 234, 160
-0.999538, 389, 49, 404, 176
-0.999538, 431, 49, 446, 176
-0.999539, 57, 271, 72, 286
-0.999539, 283, 87, 298, 102
-0.999539, 169, 21, 184, 36
-0.999539, 53, 205, 68, 220
-0.99954, 379, 53, 394, 68
-0.99954, 311, 1, 326, 128
-0.999543, 289, 109, 416, 140
-0.999544, 163, 9, 178, 24
-0.999544, 189, 61, 204, 76
-0.999544, 27, 181, 42, 196
-0.999544, 133, 145, 148, 272
-0.999545, 159, 163, 174, 178
-0.999546, 137, 147, 152, 162
-0.999547, 57, 215, 72, 230
-0.999547, 73, 193, 88, 320
-0.999548, 173, 241, 188, 368
-0.999549, 147, 121, 162, 136
-0.999551, 193, 69, 208, 84
-0.999552, 159, 1, 174, 16
-0.999552, 53, 265, 68, 280
-0.999553, 415, 67, 430, 82
-0.999553, 231, 113, 246, 128
-0.999554, 353, 47, 368, 62
-0.999554, 59, 261, 74, 276
-0.999557, 183, 115, 198, 130
-0.999557, 191, 117, 206, 132
-0.999557, 155, 119, 170, 134
-0.999558, 39, 191, 54, 206
-0.999559, 367, 49, 382, 64
-0.999559, 161, 117, 176, 132
-0.99956, 167, 275, 182, 290
-0.999561, 143, 153, 158, 168
-0.999563, 47, 201, 62, 216
-0.999563, 197, 77, 212, 92
-0.999563, 405, 33, 436, 96
-0.999564, 289, 83, 304, 98
-0.999568, 409, 65, 424, 80
-0.999569, 341, 47, 356, 62
-0.99957, 331, 49, 346, 64
-0.999571, 201, 85, 216, 100
-0.999573, 165, 165, 180, 180
-0.999575, 361, 49, 376, 64
-0.999576, 205, 93, 220, 108
-0.999577, 469, 137, 500, 200
-0.999578, 295, 75, 310, 90
-0.99958, 85, 257, 100, 272
-0.99958, 181, 211, 196, 226
-0.999581, 125, 239, 140, 254
-0.999581, 209, 101, 224, 116
-0.999582, 153, 159, 168, 174
-0.999582, 175, 169, 190, 184
-0.999583, 161, 221, 176, 236
-0.999583, 141, 231, 156, 246
-0.999583, 173, 5, 188, 20
-0.999583, 33, 185, 48, 200
-0.999584, 147, 229, 162, 244
-0.999585, 347, 47, 362, 62
-0.999585, 155, 225, 170, 240
-0.999585, 117, 243, 132, 258
-0.999586, 109, 247, 124, 262
-0.999586, 373, 51, 388, 66
-0.999588, 169, 217, 184, 232
-0.999589, 91, 255, 106, 270
-0.999589, 135, 235, 150, 250
-0.99959, 79, 261, 94, 276
-0.999591, 81, 57, 208, 88
-0.999591, 101, 251, 116, 266
-0.999592, 307, 65, 322, 80
-0.999594, 325, 51, 340, 66
-0.999597, 71, 265, 86, 280
-0.999603, 195, 51, 210, 66
-0.999606, 53, 145, 68, 272
-0.999607, 209, 79, 224, 94
-0.99961, 301, 67, 316, 82
-0.999612, 193, 45, 208, 60
-0.999613, 231, 49, 246, 176
-0.999613, 189, 37, 204, 52
-0.999614, 203, 65, 218, 80
-0.999615, 185, 29, 200, 44
-0.999616, 199, 57, 214, 72
-0.999617, 207, 73, 222, 88
-0.999617, 317, 55, 332, 70
-0.999617, 181, 21, 196, 36
-0.999617, 213, 85, 228, 100
-0.999618, 175, 215, 190, 230
-0.999618, 217, 93, 232, 108
-0.999619, 135, 125, 150, 140
-0.99962, 177, 13, 192, 28
-0.999622, 181, 173, 196, 188
-0.999622, 311, 59, 326, 74
-0.999623, 185, 209, 200, 336
-0.999628, 221, 101, 236, 116
-0.999629, 63, 269, 78, 284
-0.99963, 321, 233, 448, 264
-0.99963, 145, 309, 272, 340
-0.99963, 39, 129, 54, 256
-0.999634, 213, 111, 228, 126
-0.999636, 129, 321, 256, 352
-0.999637, 33, 297, 64, 360
-0.999641, 305, 1, 320, 128
-0.999642, 481, 49, 496, 176
-0.999642, 3, 113, 18, 240
-0.999645, 95, 177, 110, 304
-0.999645, 273, 105, 336, 168
-0.999647, 225, 109, 240, 124
-0.999649, 209, 237, 336, 268
-0.999654, 437, 49, 452, 176
-0.999655, 209, 125, 336, 156
-0.999655, 353, 169, 480, 200
-0.999667, 59, 161, 74, 288
-0.999667, 9, 113, 24, 240
-0.999668, 19, 113, 34, 240
-0.99967, 29, 113, 44, 240
-0.999674, 167, 241, 182, 368
-0.999678, 103, 177, 118, 304
-0.99968, 275, 33, 290, 160
-0.999681, 181, 209, 212, 272
-0.999684, 475, 49, 490, 176
-0.999686, 65, 25, 192, 56
-0.999688, 243, 49, 258, 176
-0.9997, 105, 81, 168, 144
-0.999702, 249, 49, 264, 176
-0.999704, 291, 17, 306, 144
-0.999705, 353, 149, 480, 180
-0.999708, 455, 49, 470, 176
-0.999711, 319, 81, 334, 208
-0.999713, 321, 245, 448, 276
-0.999717, 219, 225, 234, 352
-0.999719, 469, 49, 484, 176
-0.999723, 299, 1, 314, 128
-0.999725, 321, 209, 448, 240
-0.999736, 267, 33, 282, 160
-0.999736, 389, 1, 404, 128
-0.999736, 237, 49, 252, 176
-0.999738, 225, 33, 240, 160
-0.999738, 133, 97, 148, 224
-0.999739, 45, 129, 60, 256
-0.999741, 81, 321, 208, 352
-0.999741, 285, 17, 300, 144
-0.999743, 225, 225, 240, 352
-0.999749, 151, 49, 166, 176
-0.999778, 145, 313, 176, 375
-0.99978, 225, 193, 480, 256
-0.999792, 49, 333, 176, 364
-0.999809, 49, 305, 80, 368
-0.999811, 201, 25, 232, 88
-0.999817, 289, 125, 416, 156
-0.999824, 321, 221, 448, 252
-0.999827, 353, 185, 480, 216
-0.999833, 225, 253, 352, 284
-0.999913, 161, 333, 288, 364
-0.999929, 337, 125, 464, 156
-0.99995, 97, 305, 352, 368
-0.999951, 257, 137, 384, 168
-0.999955, 273, 153, 400, 184
-0.999958, 33, 225, 64, 288
-0.99997, 369, 81, 496, 112
-0.999977, 1, 341, 128, 372
-0.999983, 17, 317, 144, 348
-0.999985, 209, 153, 336, 216
-0.999986, 209, 209, 336, 240
-0.999992, 209, 265, 336, 296
-0.999994, 417, 193, 448, 256
-1, 337, 113, 464, 144
-1.00003, 49, 1, 176, 64
-1.00004, 5, 33, 36, 288
-1.00004, 201, 121, 232, 184
-1.00005, 369, 33, 496, 64
-1.00006, 209, 177, 272, 304
-1.00006, 305, 137, 432, 168
-1.00006, 321, 197, 448, 228
-1.00006, 369, 225, 432, 288
-1.00007, 1, 33, 64, 288
-1.00007, 65, 41, 192, 72
-1.00008, 17, 33, 48, 288
-1.00008, 209, 185, 336, 216
-1.00009, 273, 165, 400, 196
-1.0001, 1, 249, 500, 312
-1.0001, 37, 241, 68, 368
-1.00011, 81, 73, 208, 104
-1.00011, 225, 265, 288, 328
-1.00012, 113, 333, 240, 364
-1.00013, 209, 277, 336, 308
-1.00013, 369, 101, 496, 132
-1.00013, 257, 169, 500, 232
-1.00014, 1, 329, 128, 360
-1.00017, 257, 217, 384, 248
-1.00018, 281, 129, 344, 375
-1.00019, 437, 177, 468, 304
-1.0002, 369, 225, 496, 256
-1.0002, 369, 201, 496, 232
-1.0002, 209, 197, 336, 228
-1.0002, 1, 33, 500, 96
-1.00021, 437, 129, 468, 375
-1.00024, 49, 9, 176, 40
-1.00027, 129, 345, 256, 375
-1.00027, 193, 313, 320, 344
-1.00028, 321, 25, 448, 56
-1.0003, 257, 233, 384, 264
-1.00031, 225, 29, 352, 60
-1.00031, 81, 345, 208, 375
-1.00031, 233, 193, 264, 320
-1.00036, 241, 241, 304, 304
-1.00037, 313, 129, 344, 375
-1.00039, 273, 177, 400, 304
-1.00041, 393, 241, 456, 304
-1.00043, 305, 97, 336, 224
-1.00047, 29, 33, 60, 288
-1.00047, 465, 113, 496, 240
-1.00048, 369, 145, 496, 272
-1.00048, 457, 129, 488, 375
-1.00051, 425, 129, 456, 375
-1.00056, 1, 281, 500, 344
-1.00057, 369, 177, 432, 240
-1.00058, 273, 217, 400, 280
-1.00058, 361, 73, 392, 136
-1.0006, 125, 33, 156, 288
-1.00061, 193, 1, 320, 64
-1.00068, 469, 129, 500, 375
-1.00069, 41, 33, 72, 288
-1.00071, 425, 81, 488, 144
-1.00072, 301, 129, 332, 375
-1.00073, 241, 217, 304, 280
-1.00074, 233, 177, 296, 304
-1.00077, 325, 129, 356, 375
-1.00079, 413, 129, 444, 375
-1.00087, 329, 137, 392, 200
-1.00087, 197, 177, 228, 304
-1.0009, 37, 273, 68, 336
-1.00092, 433, 177, 496, 240
-1.00092, 425, 241, 488, 304
-1.00094, 289, 129, 320, 375
-1.00097, 337, 129, 368, 375
-1.00097, 341, 81, 372, 208
-1.00099, 149, 1, 180, 128
-1.00104, 377, 129, 408, 375
-1.00108, 349, 129, 380, 375
-1.00109, 273, 241, 400, 304
-1.00113, 113, 33, 144, 288
-1.00116, 305, 129, 368, 375
-1.00116, 365, 129, 396, 375
-1.00118, 389, 129, 420, 375
-1.00128, 401, 137, 464, 200
-1.0013, 449, 161, 480, 288
-1.00131, 281, 193, 344, 320
-1.00133, 209, 177, 240, 304
-1.00137, 401, 129, 432, 375
-1.00137, 225, 265, 480, 328
-1.00138, 193, 305, 448, 368
-1.00139, 1, 137, 128, 200
-1.00139, 369, 129, 432, 256
-1.00145, 453, 97, 484, 224
-1.00148, 53, 33, 84, 288
-1.00153, 9, 145, 72, 208
-1.00156, 65, 33, 96, 288
-1.00158, 281, 185, 344, 248
-1.00166, 1, 305, 500, 368
-1.0017, 257, 1, 500, 64
-1.00181, 101, 33, 132, 288
-1.00186, 89, 33, 120, 288
-1.00187, 409, 193, 440, 320
-1.00188, 297, 129, 360, 256
-1.00199, 77, 33, 108, 288
-1.00204, 457, 1, 488, 128
-1.00204, 121, 65, 152, 192
-1.00207, 305, 137, 368, 200
-1.00207, 417, 241, 448, 368
-1.00215, 369, 273, 496, 336
-1.00217, 33, 73, 160, 136
-1.00225, 257, 273, 384, 336
-1.00229, 233, 193, 296, 256
-1.00232, 1, 9, 500, 72
-1.0024, 425, 97, 456, 224
-1.00241, 377, 201, 440, 264
-1.00242, 281, 233, 344, 296
-1.00248, 193, 129, 224, 256
-1.00256, 321, 273, 448, 336
-1.00266, 225, 313, 352, 375
-1.00266, 257, 241, 500, 368
-1.00269, 201, 289, 264, 352
-1.0027, 305, 1, 432, 64
-1.00272, 293, 97, 324, 224
-1.00276, 361, 121, 424, 184
-1.0028, 249, 113, 312, 176
-1.00287, 469, 1, 500, 128
-1.00287, 97, 33, 160, 288
-1.00289, 433, 217, 496, 280
-1.0029, 369, 129, 432, 375
-1.00291, 1, 1, 128, 64
-1.00291, 33, 25, 160, 88
-1.00291, 33, 49, 160, 112
-1.00291, 273, 313, 400, 375
-1.00291, 321, 313, 448, 375
-1.00291, 369, 313, 496, 375
-1.00291, 461, 177, 492, 304
-1.00294, 393, 113, 456, 176
-1.00294, 281, 129, 344, 192
-1.00294, 429, 225, 460, 352
-1.00296, 445, 1, 476, 128
-1.00309, 97, 185, 160, 248
-1.0031, 321, 241, 448, 368
-1.00312, 257, 193, 320, 320
-1.00317, 1, 225, 64, 352
-1.00317, 237, 241, 268, 368
-1.00324, 257, 193, 320, 256
-1.00327, 241, 33, 304, 96
-1.00329, 417, 265, 480, 328
-1.00334, 437, 113, 468, 240
-1.0034, 201, 193, 264, 256
-1.00344, 393, 129, 456, 375
-1.00352, 441, 241, 472, 368
-1.00355, 221, 161, 252, 288
-1.00363, 41, 33, 104, 288
-1.00368, 201, 137, 264, 200
-1.0037, 425, 241, 488, 368
-1.00379, 285, 193, 316, 320
-1.00386, 265, 113, 328, 240
-1.0039, 413, 97, 444, 224
-1.00393, 397, 161, 428, 288
-1.00394, 53, 113, 84, 240
-1.00397, 469, 241, 500, 368
-1.00398, 17, 209, 48, 336
-1.00399, 1, 257, 64, 320
-1.00406, 337, 129, 400, 375
-1.00412, 353, 1, 416, 64
-1.00414, 201, 169, 264, 232
-1.00416, 249, 225, 280, 352
-1.00417, 337, 161, 400, 224
-1.00421, 281, 113, 312, 240
-1.00422, 361, 81, 392, 208
-1.00432, 457, 225, 488, 352
-1.0044, 393, 265, 456, 328
-1.00443, 405, 241, 436, 368
-1.00444, 377, 153, 440, 216
-1.00453, 305, 161, 368, 224
-1.00457, 261, 225, 292, 352
-1.00461, 321, 129, 384, 256
-1.00473, 273, 225, 304, 352
-1.00483, 317, 129, 348, 256
-1.00492, 329, 145, 360, 272
-1.00497, 297, 177, 328, 304
-1.005, 377, 113, 408, 240
-1.00518, 273, 161, 304, 288
-1.00524, 109, 81, 140, 208
-1.00536, 309, 193, 340, 320
-1.00537, 397, 113, 428, 240
-1.00551, 1, 209, 32, 336
-1.00561, 269, 113, 300, 240
-1.00564, 225, 1, 256, 128
-1.00575, 353, 129, 384, 256
-1.00578, 257, 177, 288, 304
-1.00595, 241, 241, 304, 368
-1.00646, 305, 177, 368, 304
-1.00663, 273, 241, 400, 368
-1.00712, 377, 241, 440, 368
-1.00718, 353, 177, 416, 304
-1.00731, 329, 177, 392, 304
-1.00796, 345, 129, 408, 256
-1.00796, 297, 241, 360, 368
-1.00812, 265, 241, 328, 368
-1.00814, 361, 81, 424, 208
-1.00863, 225, 129, 288, 256
-1.00887, 9, 81, 72, 208
-1.01028, 73, 33, 136, 288
-1.01038, 1, 1, 128, 128
-1.01071, 49, 17, 176, 144
-1.01082, 321, 241, 384, 368
-1.01085, 73, 81, 136, 208
-1.0109, 57, 129, 120, 256
-1.01154, 105, 17, 168, 144
-1.01338, 345, 225, 408, 352
-1.01363, 81, 129, 144, 256
-1.01406, 73, 33, 136, 160
-1.01478, 49, 1, 112, 128
-1.01478, 1, 33, 64, 160
-1.01478, 25, 33, 88, 160
-1.01478, 49, 49, 112, 176
