1888
-0.434305, 1, 1, 500, 333
-0.520008, 1, 33, 500, 288
-0.58432, 161, 1, 416, 333
-0.616777, 257, 65, 500, 320
-0.680795, 257, 1, 500, 333
-0.690132, 161, 65, 416, 320
-0.72203, 1, 1, 256, 333
-0.838125, 65, 1, 320, 256
-0.866618, 241, 65, 368, 320
-0.866896, 353, 65, 480, 320
-0.8856, 1, 193, 500, 320
-0.8922, 337, 1, 464, 333
-0.893901, 305, 65, 432, 320
-0.894839, 225, 1, 352, 333
-0.902099, 1, 145, 500, 272
-0.910627, 177, 65, 304, 320
-0.912527, 1, 65, 500, 192
-0.915536, 193, 161, 448, 288
-0.917998, 273, 1, 400, 333
-0.920777, 129, 1, 256, 333
-0.921381, 1, 17, 500, 144
-0.922767, 113, 65, 240, 320
-0.925559, 177, 1, 304, 333
-0.929029, 97, 161, 352, 288
-0.929265, 193, 113, 448, 240
-0.931847, 49, 1, 176, 333
-0.940791, 241, 113, 368, 240
-0.940832, 225, 65, 480, 192
-0.943057, 225, 161, 352, 288
-0.944547, 329, 161, 392, 288
-0.945088, 337, 113, 464, 240
-0.945346, 321, 161, 448, 288
-0.946225, 1, 209, 256, 333
-0.947321, 97, 177, 224, 304
-0.947657, 1, 1, 128, 333
-0.947902, 257, 209, 500, 333
-0.948735, 65, 65, 192, 320
-0.949897, 97, 113, 352, 240
-0.951023, 353, 65, 480, 192
-0.953026, 161, 209, 416, 333
-0.953036, 257, 65, 384, 192
-0.95324, 273, 193, 400, 320
-0.953855, 369, 81, 432, 208
-0.954518, 225, 17, 480, 144
-0.955203, 321, 209, 448, 333
-0.955843, 289, 113, 416, 240
-0.95713, 241, 153, 304, 216
-0.95741, 281, 113, 344, 240
-0.957489, 305, 177, 368, 304
-0.957511, 249, 65, 312, 192
-0.958982, 425, 193, 488, 320
-0.95947, 249, 145, 312, 272
-0.959491, 321, 233, 384, 296
-0.960596, 177, 161, 304, 288
-0.960727, 105, 177, 168, 304
-0.961501, 385, 81, 448, 144
-0.962146, 313, 113, 376, 240
-0.962311, 345, 113, 408, 240
-0.962982, 305, 65, 432, 192
-0.963102, 321, 201, 384, 264
-0.963261, 281, 177, 344, 304
-0.963618, 225, 145, 288, 272
-0.963748, 385, 33, 448, 160
-0.963852, 369, 193, 496, 320
-0.963915, 337, 161, 400, 224
-0.964082, 193, 113, 320, 240
-0.966024, 289, 17, 416, 144
-0.966528, 105, 185, 168, 248
-0.966841, 129, 65, 384, 192
-0.967523, 129, 145, 192, 272
-0.967535, 393, 217, 456, 280
-0.968049, 361, 89, 424, 152
-0.968647, 17, 1, 144, 256
-0.968745, 353, 161, 416, 288
-0.96878, 401, 209, 464, 333
-0.968985, 425, 65, 488, 192
-0.969076, 193, 177, 256, 304
-0.96936, 369, 233, 432, 296
-0.969464, 345, 217, 408, 280
-0.969902, 17, 209, 144, 333
-0.969967, 273, 65, 336, 192
-0.97007, 257, 145, 288, 208
-0.970095, 425, 81, 488, 144
-0.970574, 353, 209, 416, 333
-0.970624, 145, 113, 272, 240
-0.970892, 97, 129, 224, 256
-0.971157, 81, 193, 144, 320
-0.971214, 385, 57, 448, 120
-0.972062, 153, 177, 216, 304
-0.972646, 209, 65, 336, 192
-0.972751, 305, 177, 368, 240
-0.9729, 1, 161, 256, 288
-0.97319, 425, 201, 488, 264
-0.973219, 377, 193, 440, 320
-0.973296, 313, 65, 376, 192
-0.973344, 297, 201, 360, 264
-0.973751, 329, 209, 392, 333
-0.974098, 369, 113, 432, 176
-0.974169, 369, 17, 496, 144
-0.974269, 105, 129, 168, 256
-0.974325, 433, 145, 496, 272
-0.974757, 65, 17, 320, 144
-0.974855, 281, 65, 344, 320
-0.975055, 321, 241, 448, 304
-0.975064, 225, 97, 288, 224
-0.975264, 385, 65, 448, 320
-0.9753, 333, 185, 364, 248
-0.975563, 353, 65, 416, 320
-0.975876, 297, 225, 360, 288
-0.975917, 233, 177, 296, 240
-0.975981, 225, 153, 352, 216
-0.97609, 249, 89, 312, 152
-0.976184, 425, 273, 488, 333
-0.976594, 225, 209, 352, 333
-0.977157, 129, 177, 192, 240
-0.977217, 333, 177, 364, 304
-0.977346, 345, 241, 408, 304
-0.97746, 217, 153, 280, 216
-0.977671, 329, 225, 360, 288
-0.977714, 89, 249, 152, 312
-0.977899, 385, 145, 448, 272
-0.978082, 305, 217, 432, 280
-0.978133, 361, 65, 424, 128
-0.978161, 281, 177, 344, 240
-0.978169, 349, 161, 380, 224
-0.978375, 425, 169, 488, 232
-0.978622, 137, 145, 200, 208
-0.978638, 393, 105, 456, 168
-0.978661, 357, 129, 388, 256
-0.978909, 401, 81, 464, 208
-0.979061, 241, 121, 304, 184
-0.979685, 65, 217, 128, 280
-0.980041, 209, 177, 272, 240
-0.980295, 385, 257, 448, 320
-0.980353, 361, 33, 424, 160
-0.980373, 253, 129, 284, 256
-0.980381, 273, 89, 336, 152
-0.980456, 353, 145, 480, 208
-0.980555, 369, 81, 496, 144
-0.980626, 409, 225, 440, 288
-0.980712, 273, 129, 400, 192
-0.980742, 113, 233, 176, 296
-0.980981, 145, 209, 272, 333
-0.980991, 257, 65, 320, 320
-0.981004, 321, 177, 448, 240
-0.98115, 421, 65, 452, 128
-0.981155, 273, 17, 336, 144
-0.981213, 409, 65, 440, 128
-0.981251, 97, 185, 224, 248
-0.981387, 433, 193, 464, 320
-0.981456, 369, 113, 400, 240
-0.981466, 329, 137, 392, 200
-0.981488, 225, 177, 352, 240
-0.981506, 113, 185, 144, 248
-0.981559, 265, 153, 328, 216
-0.981734, 225, 17, 352, 144
-0.981753, 329, 113, 392, 176
-0.981773, 49, 209, 112, 333
-0.981798, 433, 65, 496, 320
-0.981802, 289, 89, 416, 152
-0.981877, 149, 145, 180, 208
-0.981888, 101, 193, 132, 320
-0.981908, 353, 273, 480, 333
-0.981982, 1, 257, 64, 320
-0.982064, 389, 81, 420, 144
-0.982065, 233, 193, 296, 320
-0.98209, 329, 65, 392, 320
-0.982126, 257, 177, 320, 240
-0.98213, 409, 145, 472, 272
-0.982141, 353, 105, 480, 168
-0.982452, 417, 17, 480, 144
-0.982476, 353, 209, 480, 272
-0.982487, 297, 249, 360, 312
-0.982562, 233, 65, 296, 320
-0.982567, 177, 145, 304, 208
-0.9828, 305, 65, 368, 320
-0.982951, 113, 273, 176, 333
-0.983033, 241, 201, 368, 264
-0.983061, 269, 153, 300, 216
-0.983133, 137, 249, 200, 312
-0.983146, 137, 145, 168, 272
-0.983171, 129, 193, 192, 320
-0.983309, 265, 121, 328, 184
-0.983366, 177, 17, 304, 144
-0.983454, 433, 73, 464, 136
-0.98347, 1, 113, 256, 240
-0.983495, 177, 169, 304, 232
-0.983497, 429, 201, 460, 264
-0.983541, 317, 177, 348, 240
-0.983566, 425, 105, 488, 168
-0.983594, 369, 137, 432, 200
-0.983603, 273, 113, 304, 240
-0.983624, 105, 209, 168, 272
-0.9837, 313, 177, 344, 304
-0.98372, 153, 177, 216, 240
-0.983731, 1, 209, 64, 333
-0.983745, 185, 177, 248, 240
-0.983902, 345, 161, 376, 288
-0.983988, 385, 193, 448, 256
-0.984066, 201, 113, 264, 240
-0.984122, 257, 65, 288, 192
-0.984212, 321, 257, 384, 320
-0.984237, 409, 89, 440, 152
-0.98428, 385, 33, 448, 96
-0.984447, 117, 177, 148, 304
-0.984448, 33, 65, 288, 192
-0.98455, 397, 217, 428, 280
-0.984656, 101, 209, 132, 272
-0.984728, 273, 241, 400, 304
-0.984835, 273, 169, 400, 232
-0.984845, 113, 145, 176, 208
-0.984922, 421, 209, 452, 333
-0.985004, 365, 137, 396, 200
-0.985119, 389, 65, 420, 192
-0.985153, 141, 169, 172, 232
-0.985187, 201, 177, 232, 304
-0.985199, 349, 209, 380, 272
-0.985244, 409, 33, 472, 288
-0.985363, 345, 185, 408, 248
-0.985409, 49, 161, 176, 288
-0.985438, 249, 17, 312, 144
-0.985528, 97, 233, 224, 296
-0.98574, 421, 49, 452, 176
-0.985767, 225, 113, 352, 176
-0.985822, 417, 241, 480, 304
-0.985974, 445, 73, 476, 136
-0.985977, 369, 241, 496, 304
-0.985978, 245, 153, 276, 216
-0.986044, 417, 49, 480, 112
-0.986049, 241, 265, 368, 328
-0.986072, 17, 225, 144, 288
-0.986081, 369, 57, 496, 120
-0.986158, 365, 161, 396, 224
-0.9862, 409, 49, 440, 176
-0.986219, 97, 153, 224, 216
-0.986224, 337, 161, 368, 224
-0.986346, 161, 65, 288, 192
-0.986546, 73, 193, 136, 256
-0.986562, 421, 89, 452, 152
-0.986584, 261, 121, 292, 184
-0.986639, 269, 65, 300, 192
-0.986673, 385, 1, 448, 333
-0.986679, 361, 161, 424, 224
-0.98672, 49, 249, 176, 312
-0.986791, 397, 57, 428, 120
-0.986896, 153, 113, 216, 240
-0.986971, 241, 129, 272, 256
-0.987072, 97, 209, 224, 272
-0.987098, 229, 177, 260, 304
-0.9871, 137, 273, 200, 333
-0.987146, 377, 97, 408, 160
-0.98723, 1, 161, 128, 288
-0.987368, 321, 81, 384, 144
-0.987403, 369, 161, 400, 288
-0.987478, 101, 249, 132, 312
-0.987503, 421, 113, 452, 240
-0.987542, 377, 73, 408, 136
-0.98756, 373, 65, 404, 192
-0.987657, 313, 129, 344, 256
-0.987668, 297, 113, 328, 240
-0.987804, 49, 193, 176, 256
-0.987903, 341, 233, 372, 296
-0.987903, 273, 265, 336, 328
-0.987983, 337, 17, 400, 144
-0.988033, 137, 145, 168, 208
-0.988074, 285, 129, 316, 256
-0.988089, 153, 177, 184, 304
-0.988216, 301, 89, 332, 152
-0.988302, 313, 81, 344, 208
-0.988393, 345, 185, 376, 248
-0.988429, 257, 193, 320, 320
-0.988478, 209, 17, 272, 144
-0.988485, 161, 249, 224, 312
-0.988499, 397, 17, 428, 144
-0.9885, 161, 153, 192, 216
-0.988528, 461, 273, 492, 333
-0.988548, 209, 65, 272, 320
-0.988576, 453, 65, 484, 192
-0.988611, 25, 209, 88, 333
-0.988618, 417, 249, 448, 312
-0.988623, 361, 1, 424, 333
-0.988724, 173, 177, 204, 304
-0.988729, 305, 65, 432, 128
-0.988734, 433, 145, 464, 272
-0.988756, 241, 177, 272, 304
-0.98879, 297, 153, 360, 216
-0.988852, 1, 249, 128, 312
-0.988867, 301, 65, 332, 192
-0.988867, 49, 113, 176, 240
-0.988884, 241, 149, 304, 180
-0.988948, 261, 177, 292, 304
-0.989087, 149, 129, 180, 256
-0.989132, 385, 93, 448, 124
-0.989163, 441, 65, 472, 192
-0.989179, 417, 201, 448, 264
-0.989247, 189, 177, 220, 304
-0.989324, 345, 113, 376, 240
-0.989336, 209, 89, 336, 152
-0.989374, 321, 201, 352, 264
-0.989386, 273, 121, 304, 184
-0.989405, 385, 217, 416, 280
-0.989409, 297, 89, 360, 152
-0.989409, 185, 249, 248, 312
-0.98941, 353, 209, 384, 333
-0.989454, 445, 161, 476, 288
-0.989469, 217, 177, 248, 304
-0.989486, 457, 193, 488, 320
-0.98961, 289, 65, 320, 192
-0.989631, 373, 225, 404, 288
-0.989639, 233, 153, 264, 216
-0.989685, 281, 153, 312, 216
-0.989687, 333, 129, 364, 256
-0.989709, 345, 265, 408, 328
-0.989765, 177, 129, 240, 256
-0.989769, 305, 265, 432, 328
-0.989827, 273, 177, 304, 304
-0.989901, 461, 145, 492, 272
-0.989915, 121, 65, 184, 320
-0.989926, 357, 81, 388, 208
-0.990033, 361, 105, 424, 136
-0.99007, 337, 161, 400, 192
-0.990085, 361, 33, 424, 96
-0.990092, 425, 301, 488, 332
-0.990099, 57, 161, 120, 288
-0.990101, 145, 241, 272, 304
-0.990143, 253, 81, 284, 144
-0.990234, 225, 81, 288, 144
-0.990317, 97, 273, 224, 333
-0.990319, 417, 1, 480, 333
-0.990331, 65, 257, 128, 320
-0.990345, 225, 225, 352, 288
-0.990358, 241, 169, 304, 200
-0.990392, 161, 153, 224, 216
-0.990407, 217, 113, 280, 176
-0.990413, 269, 81, 300, 144
-0.990445, 361, 113, 392, 176
-0.990453, 385, 109, 448, 140
-0.990488, 249, 265, 312, 328
-0.9905, 321, 233, 384, 264
-0.990602, 41, 225, 104, 288
-0.990617, 365, 209, 396, 333
-0.990652, 385, 69, 448, 100
-0.99066, 433, 281, 496, 312
-0.990672, 417, 77, 480, 108
-0.990676, 409, 209, 440, 333
-0.990677, 169, 273, 232, 333
-0.990728, 301, 177, 332, 304
-0.990801, 329, 177, 392, 208
-0.990854, 337, 1, 400, 333
-0.990859, 321, 205, 384, 236
-0.99086, 369, 177, 496, 240
-0.990882, 429, 273, 460, 333
-0.99092, 157, 177, 188, 240
-0.990924, 273, 177, 304, 240
-0.990924, 397, 249, 428, 312
-0.990929, 305, 181, 368, 212
-0.990937, 457, 73, 488, 136
-0.99101, 385, 233, 448, 264
-0.99101, 425, 129, 488, 192
-0.991011, 105, 185, 168, 216
-0.991038, 249, 121, 280, 184
-0.991053, 81, 209, 112, 333
-0.991162, 425, 201, 488, 232
-0.991183, 377, 153, 408, 216
-0.991187, 385, 221, 448, 252
-0.9912, 245, 177, 276, 240
-0.99121, 389, 105, 420, 168
-0.991214, 321, 245, 384, 276
-0.991214, 385, 81, 448, 112
-0.991219, 193, 145, 448, 208
-0.991284, 353, 233, 384, 296
-0.991286, 369, 33, 496, 96
-0.991334, 297, 229, 360, 260
-0.991377, 361, 241, 424, 272
-0.991408, 361, 117, 424, 148
-0.991418, 1, 293, 64, 324
-0.99142, 273, 169, 336, 200
-0.991502, 321, 221, 384, 252
-0.991504, 469, 33, 500, 160
-0.991522, 321, 109, 384, 140
-0.991524, 281, 117, 344, 148
-0.991578, 217, 169, 280, 200
-0.991583, 413, 113, 444, 176
-0.991603, 329, 189, 392, 220
-0.99162, 33, 273, 160, 333
-0.991676, 241, 181, 304, 212
-0.991676, 433, 97, 464, 160
-0.991678, 177, 121, 304, 184
-0.991686, 101, 185, 132, 248
-0.991703, 385, 57, 448, 88
-0.991718, 193, 273, 320, 333
-0.991736, 361, 73, 424, 104
-0.99175, 369, 129, 432, 160
-0.991776, 369, 153, 432, 184
-0.991784, 193, 273, 256, 333
-0.991799, 433, 89, 496, 120
-0.991833, 193, 249, 320, 312
-0.991845, 361, 89, 424, 120
-0.991846, 241, 113, 304, 144
-0.991883, 409, 109, 472, 140
-0.991901, 137, 181, 200, 212
-0.991907, 297, 1, 360, 333
-0.991922, 345, 221, 408, 252
-0.991923, 129, 185, 160, 248
-0.991928, 329, 149, 392, 180
-0.991929, 385, 241, 416, 304
-0.99195, 409, 161, 440, 288
-0.991962, 305, 169, 368, 200
-0.991974, 89, 213, 152, 244
-0.991983, 209, 177, 240, 240
-0.992036, 409, 217, 472, 248
-0.992046, 249, 81, 312, 112
-0.992055, 273, 241, 336, 304
-0.992069, 297, 217, 360, 248
-0.99207, 381, 161, 412, 288
-0.992073, 313, 257, 376, 288
-0.992078, 329, 249, 360, 312
-0.992091, 417, 241, 480, 272
-0.992098, 273, 105, 336, 136
-0.992141, 129, 145, 192, 176
-0.992145, 281, 81, 344, 112
-0.992148, 393, 129, 456, 192
-0.99215, 401, 281, 464, 312
-0.992154, 193, 181, 256, 212
-0.992155, 297, 197, 360, 228
-0.992158, 329, 121, 392, 152
-0.992172, 409, 65, 472, 96
-0.992188, 361, 253, 424, 284
-0.992201, 385, 249, 448, 280
-0.992211, 289, 177, 320, 304
-0.992213, 33, 257, 96, 320
-0.992214, 129, 177, 384, 240
-0.992221, 65, 217, 128, 248
-0.992239, 1, 273, 32, 333
-0.992267, 361, 257, 392, 320
-0.992285, 453, 161, 484, 224
-0.992291, 241, 93, 304, 124
-0.992291, 289, 89, 320, 152
-0.992292, 209, 157, 272, 188
-0.992305, 265, 181, 328, 212
-0.992312, 433, 101, 496, 132
-0.992313, 273, 157, 336, 188
-0.992314, 1, 253, 64, 284
-0.992327, 385, 209, 448, 240
-0.992333, 81, 257, 144, 288
-0.992334, 193, 121, 448, 184
-0.992341, 369, 141, 432, 172
-0.992352, 217, 181, 280, 212
-0.992371, 313, 17, 376, 144
-0.992401, 113, 241, 176, 272
-0.992413, 145, 225, 208, 288
-0.992427, 241, 1, 304, 333
-0.992428, 409, 93, 472, 124
-0.992438, 1, 233, 64, 296
-0.992443, 253, 149, 284, 180
-0.992466, 161, 181, 224, 212
-0.992494, 121, 165, 184, 196
-0.992505, 73, 229, 136, 260
-0.992507, 353, 161, 384, 192
-0.992516, 421, 137, 452, 200
-0.992528, 293, 265, 324, 328
-0.992528, 361, 165, 424, 196
-0.992531, 425, 173, 488, 204
-0.992556, 97, 197, 160, 228
-0.992558, 169, 65, 232, 320
-0.992573, 177, 237, 240, 268
-0.992573, 121, 277, 184, 308
-0.992576, 441, 169, 472, 232
-0.992576, 177, 273, 240, 304
-0.992577, 249, 137, 312, 168
-0.992585, 281, 93, 344, 124
-0.992589, 281, 269, 344, 300
-0.992591, 469, 209, 500, 333
-0.992605, 321, 97, 384, 128
-0.992608, 329, 229, 360, 260
-0.992624, 145, 265, 272, 328
-0.992631, 365, 149, 396, 180
-0.992631, 385, 37, 448, 68
-0.992635, 425, 229, 488, 260
-0.992635, 385, 169, 448, 232
-0.992647, 1, 177, 500, 240
-0.992654, 257, 269, 320, 300
-0.992658, 365, 161, 396, 192
-0.992658, 25, 297, 88, 328
-0.992659, 121, 265, 184, 296
-0.992672, 201, 237, 264, 268
-0.992673, 325, 181, 356, 212
-0.992674, 333, 201, 364, 232
-0.992678, 393, 93, 424, 124
-0.992678, 145, 145, 176, 176
-0.992682, 433, 117, 496, 148
-0.992686, 113, 229, 176, 260
-0.992689, 249, 125, 312, 156
-0.992697, 265, 149, 296, 180
-0.992698, 41, 217, 104, 248
-0.992706, 393, 125, 456, 156
-0.992712, 257, 169, 500, 232
-0.992716, 433, 269, 496, 300
-0.992721, 297, 241, 360, 272
-0.992731, 425, 189, 488, 220
-0.992736, 65, 205, 128, 236
-0.992737, 273, 137, 336, 168
-0.992742, 341, 169, 372, 200
-0.992753, 433, 225, 464, 288
-0.992767, 341, 181, 372, 212
-0.992767, 425, 53, 488, 84
-0.992772, 393, 77, 424, 108
-0.992781, 89, 245, 152, 276
-0.992781, 425, 25, 488, 88
-0.992793, 349, 265, 380, 328
-0.992816, 109, 189, 140, 220
-0.992822, 469, 293, 500, 324
-0.992834, 193, 177, 224, 240
-0.992836, 145, 273, 208, 304
-0.99284, 161, 129, 192, 256
-0.992846, 257, 161, 288, 192
-0.992854, 433, 161, 496, 192
-0.99286, 49, 153, 176, 216
-0.992871, 449, 73, 480, 104
-0.992875, 413, 109, 444, 140
-0.99288, 377, 209, 408, 333
-0.992882, 277, 165, 308, 196
-0.992887, 89, 273, 152, 333
-0.992896, 233, 269, 296, 300
-0.992903, 385, 261, 448, 292
-0.992931, 413, 221, 444, 252
-0.992935, 381, 77, 412, 108
-0.992941, 417, 69, 448, 100
-0.992943, 453, 285, 484, 316
-0.992944, 305, 265, 336, 328
-0.992947, 413, 89, 444, 120
-0.992951, 329, 137, 392, 168
-0.99296, 385, 193, 448, 224
-0.992966, 297, 105, 360, 136
-0.992971, 97, 277, 160, 308
-0.992978, 129, 193, 160, 320
-0.992978, 65, 193, 128, 224
-0.992982, 361, 37, 424, 68
-0.992982, 365, 109, 396, 140
-0.992984, 377, 109, 408, 140
-0.993003, 145, 229, 208, 260
-0.993005, 429, 201, 460, 232
-0.99302, 225, 133, 288, 164
-0.993021, 225, 177, 256, 240
-0.993024, 469, 281, 500, 312
-0.99303, 1, 225, 500, 288
-0.993031, 429, 77, 460, 108
-0.993041, 425, 133, 488, 164
-0.993044, 397, 65, 428, 96
-0.993056, 305, 41, 432, 104
-0.993064, 153, 165, 184, 196
-0.993065, 281, 257, 344, 288
-0.993068, 385, 17, 416, 144
-0.993068, 237, 165, 268, 196
-0.993073, 201, 269, 264, 300
-0.99308, 97, 213, 128, 244
-0.993082, 413, 233, 444, 264
-0.993083, 401, 221, 432, 252
-0.993083, 353, 173, 384, 204
-0.993084, 361, 121, 392, 152
-0.993092, 437, 281, 468, 312
-0.993122, 141, 165, 172, 196
-0.993122, 393, 141, 456, 172
-0.993123, 41, 245, 104, 276
-0.993128, 57, 257, 120, 288
-0.993129, 429, 301, 460, 332
-0.993133, 445, 201, 476, 264
-0.993139, 25, 257, 88, 288
-0.99314, 177, 225, 240, 256
-0.993145, 225, 225, 288, 256
-0.993146, 121, 185, 152, 216
-0.993147, 345, 265, 408, 296
-0.993155, 405, 77, 436, 108
-0.993156, 9, 293, 40, 324
-0.993161, 349, 221, 380, 252
-0.993172, 257, 173, 288, 204
-0.993172, 181, 177, 212, 240
-0.993173, 401, 233, 432, 264
-0.993186, 345, 209, 408, 240
-0.993193, 305, 269, 368, 300
-0.993196, 141, 181, 172, 212
-0.993196, 441, 293, 472, 324
-0.9932, 373, 129, 404, 160
-0.993201, 425, 93, 456, 124
-0.99321, 21, 293, 52, 324
-0.993212, 169, 1, 232, 333
-0.993214, 145, 245, 208, 276
-0.993215, 329, 217, 360, 248
-0.993226, 169, 169, 232, 200
-0.99323, 265, 117, 296, 148
-0.993231, 257, 133, 288, 164
-0.993232, 269, 177, 300, 208
-0.993234, 305, 117, 336, 148
-0.993235, 333, 241, 364, 272
-0.993235, 193, 145, 256, 208
-0.993236, 113, 209, 176, 240
-0.993239, 377, 161, 408, 192
-0.993243, 329, 165, 360, 196
-0.993245, 93, 201, 124, 232
-0.993257, 261, 177, 292, 240
-0.99326, 97, 153, 352, 216
-0.993261, 413, 209, 444, 240
-0.993268, 101, 245, 132, 276
-0.993271, 381, 241, 412, 272
-0.993272, 349, 233, 380, 264
-0.993275, 317, 221, 348, 252
-0.993276, 225, 237, 256, 268
-0.993298, 393, 105, 424, 136
-0.993302, 209, 181, 240, 212
-0.993308, 429, 217, 460, 248
-0.99331, 433, 105, 464, 136
-0.99331, 153, 181, 184, 212
-0.993315, 377, 89, 408, 120
-0.993316, 453, 297, 484, 328
-0.993321, 253, 85, 284, 116
-0.993321, 313, 181, 344, 212
-0.993326, 385, 113, 416, 240
-0.993328, 425, 277, 456, 308
-0.99333, 101, 225, 132, 256
-0.993331, 353, 245, 384, 276
-0.993331, 265, 97, 296, 128
-0.993333, 129, 165, 160, 196
-0.993339, 313, 193, 344, 224
-0.993339, 245, 177, 276, 208
-0.993343, 417, 121, 448, 152
-0.993348, 389, 221, 420, 252
-0.99335, 353, 109, 384, 140
-0.993355, 277, 153, 308, 184
-0.993356, 417, 273, 448, 333
-0.993361, 277, 117, 308, 148
-0.993363, 265, 77, 296, 108
-0.993363, 317, 209, 348, 240
-0.993367, 253, 113, 284, 144
-0.993374, 181, 181, 212, 212
-0.993379, 433, 237, 464, 268
-0.993385, 193, 181, 224, 212
-0.993388, 445, 209, 476, 333
-0.993395, 417, 265, 448, 296
-0.993396, 113, 249, 144, 312
-0.993402, 225, 181, 256, 212
-0.993404, 369, 77, 400, 108
-0.993407, 293, 117, 324, 148
-0.993411, 417, 249, 448, 280
-0.993413, 301, 105, 332, 136
-0.993415, 121, 277, 152, 308
-0.993416, 285, 129, 316, 192
-0.993417, 381, 65, 412, 96
-0.993418, 349, 209, 380, 240
-0.993426, 157, 149, 188, 180
-0.993434, 301, 93, 332, 124
-0.993436, 325, 153, 356, 216
-0.993442, 285, 81, 316, 112
-0.993446, 133, 273, 164, 304
-0.993448, 421, 133, 452, 164
-0.993448, 113, 1, 176, 333
-0.993449, 417, 57, 448, 88
-0.993452, 269, 137, 300, 168
-0.993452, 289, 181, 320, 212
-0.993459, 133, 145, 164, 176
-0.993459, 193, 1, 256, 333
-0.993462, 457, 85, 488, 116
-0.993463, 277, 105, 308, 136
-0.993463, 361, 257, 392, 288
-0.993464, 41, 217, 72, 248
-0.99347, 209, 237, 240, 268
-0.993472, 397, 249, 428, 280
-0.993477, 113, 201, 144, 232
-0.993479, 461, 161, 492, 192
-0.993481, 33, 301, 64, 332
-0.993482, 225, 225, 256, 256
-0.993483, 1, 253, 32, 284
-0.993484, 369, 237, 400, 268
-0.993486, 241, 149, 272, 180
-0.99349, 341, 157, 372, 188
-0.993491, 273, 269, 304, 300
-0.993492, 361, 137, 392, 168
-0.993492, 301, 77, 332, 108
-0.993495, 345, 193, 376, 224
-0.993496, 81, 217, 112, 248
-0.993553, 397, 193, 428, 320
-0.993576, 257, 209, 500, 272
-0.993723, 399, 73, 414, 136
-0.993746, 137, 1, 200, 333
-0.993756, 421, 225, 452, 288
-0.993771, 361, 201, 392, 264
-0.993783, 377, 121, 408, 184
-0.993785, 257, 265, 500, 328
-0.993836, 217, 273, 280, 333
-0.993875, 273, 1, 336, 333
-0.993918, 125, 249, 156, 312
-0.993966, 289, 177, 320, 240
-0.994044, 249, 241, 312, 304
-0.994083, 169, 217, 232, 280
-0.99409, 465, 49, 496, 112
-0.994093, 141, 249, 172, 312
-0.994152, 313, 241, 344, 304
-0.994162, 169, 177, 200, 240
-0.994165, 129, 273, 160, 333
-0.994166, 273, 201, 336, 264
-0.994175, 141, 193, 172, 320
-0.994234, 161, 193, 288, 256
-0.994273, 265, 17, 296, 144
-0.994303, 337, 65, 400, 192
-0.994333, 257, 97, 500, 160
-0.994413, 217, 1, 280, 333
-0.994443, 97, 233, 352, 296
-0.994446, 259, 145, 274, 208
-0.994485, 241, 161, 368, 192
-0.994488, 337, 201, 352, 264
-0.994493, 301, 17, 332, 144
-0.994521, 1, 185, 128, 248
-0.994538, 469, 177, 500, 240
-0.994547, 1, 201, 500, 264
-0.994589, 397, 33, 428, 96
-0.994605, 249, 65, 312, 128
-0.994689, 365, 81, 396, 144
-0.994723, 281, 65, 344, 128
-0.994725, 161, 81, 288, 144
-0.994729, 89, 1, 152, 333
-0.994748, 257, 73, 500, 136
-0.994777, 125, 129, 156, 256
-0.994804, 209, 249, 272, 312
-0.994823, 273, 145, 288, 208
-0.994907, 257, 233, 500, 296
-0.994923, 281, 153, 296, 216
-0.994925, 153, 249, 184, 312
-0.994967, 29, 209, 60, 333
-0.995025, 321, 237, 448, 268
-0.99506, 173, 233, 204, 296
-0.995064, 313, 89, 344, 152
-0.99507, 353, 137, 384, 200
-0.995074, 1, 137, 500, 200
-0.995115, 393, 73, 408, 136
-0.995122, 399, 49, 414, 112
-0.99514, 421, 161, 452, 288
-0.995147, 409, 73, 424, 136
-0.99519, 193, 209, 256, 272
-0.995217, 141, 273, 172, 333
-0.99523, 461, 137, 492, 200
-0.995267, 81, 225, 112, 288
-0.995287, 21, 273, 52, 333
-0.995324, 251, 153, 266, 216
-0.995328, 1, 201, 256, 264
-0.995335, 445, 273, 476, 333
-0.995353, 337, 177, 352, 240
-0.995368, 369, 81, 496, 112
-0.995389, 1, 273, 500, 333
-0.995443, 121, 209, 152, 272
-0.995443, 161, 201, 416, 264
-0.99548, 321, 221, 448, 252
-0.995488, 421, 41, 452, 104
-0.995488, 429, 249, 460, 312
-0.99555, 273, 149, 400, 180
-0.995557, 349, 161, 364, 224
-0.995569, 1, 273, 256, 333
-0.995578, 241, 181, 368, 212
-0.995582, 385, 41, 416, 104
-0.99561, 49, 129, 176, 192
-0.995624, 1, 113, 500, 176
-0.995626, 289, 113, 352, 176
-0.995633, 145, 145, 160, 208
-0.995637, 435, 201, 450, 264
-0.995648, 267, 145, 282, 208
-0.995649, 151, 169, 166, 232
-0.995659, 349, 185, 364, 248
-0.995661, 159, 145, 174, 208
-0.995677, 405, 97, 436, 224
-0.995688, 353, 109, 480, 140
-0.995698, 449, 113, 480, 240
-0.995753, 193, 177, 320, 208
-0.995765, 415, 65, 430, 128
-0.995773, 289, 113, 416, 144
-0.995786, 333, 225, 348, 288
-0.99582, 151, 137, 166, 200
-0.995833, 427, 65, 442, 128
-0.995834, 427, 97, 442, 160
-0.995842, 241, 65, 368, 128
-0.995892, 353, 137, 480, 168
-0.995897, 161, 265, 416, 328
-0.99592, 433, 73, 448, 136
-0.995927, 1, 249, 256, 312
-0.995948, 305, 249, 432, 280
-0.995954, 145, 217, 272, 280
-0.99596, 329, 177, 344, 240
-0.995976, 145, 65, 208, 320
-0.995985, 277, 121, 292, 184
-0.996012, 97, 17, 224, 144
-0.996013, 309, 201, 340, 264
-0.996026, 337, 161, 464, 192
-0.996029, 245, 65, 276, 192
-0.996031, 485, 273, 500, 333
-0.996038, 457, 201, 488, 264
-0.996041, 33, 177, 288, 240
-0.996055, 125, 161, 156, 224
-0.996055, 69, 193, 100, 320
-0.99607, 285, 17, 316, 144
-0.996071, 129, 97, 192, 224
-0.996073, 389, 193, 420, 256
-0.996086, 401, 113, 432, 176
-0.996093, 341, 225, 356, 288
-0.996094, 89, 201, 120, 264
-0.996097, 343, 177, 358, 240
-0.9961, 305, 113, 336, 176
-0.996118, 343, 201, 358, 264
-0.996149, 41, 209, 72, 333
-0.996149, 407, 217, 422, 280
-0.996192, 113, 129, 144, 256
-0.996207, 111, 185, 126, 248
-0.996209, 433, 49, 464, 112
-0.996213, 331, 201, 346, 264
-0.996244, 1, 89, 500, 152
-0.996263, 321, 197, 448, 228
-0.99627, 193, 161, 320, 192
-0.996277, 359, 161, 374, 224
-0.996307, 1, 249, 32, 312
-0.996308, 369, 97, 496, 128
-0.996335, 97, 185, 224, 216
-0.996337, 49, 185, 112, 248
-0.996353, 425, 209, 440, 272
-0.996362, 145, 201, 208, 264
-0.996365, 105, 209, 120, 272
-0.996375, 305, 77, 432, 108
-0.996377, 413, 217, 428, 280
-0.996407, 293, 241, 324, 304
-0.99641, 375, 137, 390, 200
-0.99641, 253, 17, 284, 144
-0.996414, 313, 33, 344, 160
-0.996423, 317, 265, 348, 328
-0.996427, 461, 249, 492, 312
-0.996447, 97, 245, 224, 276
-0.996451, 353, 121, 480, 152
-0.99647, 421, 65, 436, 128
-0.996475, 401, 217, 416, 280
-0.996496, 381, 105, 396, 168
-0.996497, 241, 229, 368, 260
-0.9965, 465, 81, 496, 208
-0.996501, 369, 69, 496, 100
-0.996562, 457, 97, 488, 160
-0.996566, 129, 129, 256, 192
-0.996582, 429, 161, 460, 224
-0.996589, 475, 273, 490, 333
-0.996594, 373, 201, 404, 264
-0.996596, 193, 149, 320, 180
-0.996613, 413, 177, 444, 240
-0.996622, 117, 273, 148, 333
-0.996633, 185, 129, 216, 256
-0.996633, 157, 169, 172, 232
-0.996676, 269, 121, 284, 184
-0.996687, 259, 81, 274, 144
-0.99669, 409, 1, 440, 128
-0.996696, 263, 113, 278, 176
-0.996698, 111, 217, 126, 280
-0.996701, 57, 1, 120, 333
-0.996707, 321, 173, 448, 204
-0.996741, 433, 17, 464, 144
-0.996749, 185, 249, 216, 312
-0.996756, 225, 129, 256, 256
-0.996757, 385, 73, 400, 136
-0.996757, 117, 185, 132, 248
-0.996758, 347, 233, 362, 296
-0.996773, 315, 89, 330, 152
-0.996793, 369, 65, 400, 320
-0.996804, 305, 209, 432, 240
-0.996806, 305, 261, 432, 292
-0.996823, 369, 121, 384, 184
-0.996844, 273, 137, 400, 168
-0.99685, 257, 33, 500, 96
-0.996867, 269, 89, 284, 152
-0.996872, 241, 109, 368, 140
-0.99688, 241, 217, 368, 248
-0.996887, 1, 265, 16, 328
-0.996897, 17, 17, 144, 144
-0.996898, 427, 257, 442, 320
-0.99691, 287, 153, 302, 216
-0.996915, 353, 249, 480, 280
-0.996915, 437, 97, 452, 160
-0.996918, 145, 145, 272, 176
-0.996918, 421, 89, 436, 152
-0.996949, 209, 129, 240, 256
-0.996966, 393, 137, 424, 200
-0.996969, 289, 101, 416, 132
-0.996981, 391, 97, 406, 160
-0.996988, 369, 237, 496, 268
-0.996995, 89, 249, 120, 312
-0.996998, 381, 137, 396, 200
-0.997008, 301, 177, 332, 240
-0.997008, 405, 41, 420, 104
-0.997025, 1, 57, 500, 120
-0.997048, 89, 161, 120, 288
-0.997058, 241, 121, 368, 152
-0.997068, 165, 145, 180, 208
-0.997073, 419, 225, 434, 288
-0.997081, 115, 249, 130, 312
-0.9971, 145, 121, 208, 184
-0.997102, 137, 185, 152, 248
-0.997108, 241, 201, 368, 232
-0.997119, 225, 33, 352, 96
-0.997123, 289, 161, 416, 192
-0.997145, 325, 81, 340, 144
-0.997164, 357, 233, 372, 296
-0.997168, 457, 17, 488, 144
-0.99718, 369, 161, 384, 224
-0.997182, 241, 81, 368, 112
-0.997183, 257, 65, 288, 320
-0.997186, 93, 217, 108, 280
-0.997189, 441, 73, 456, 136
-0.997191, 375, 113, 390, 176
-0.997192, 415, 97, 430, 160
-0.997213, 401, 97, 416, 160
-0.997215, 89, 161, 152, 224
-0.997216, 343, 153, 358, 216
-0.997216, 353, 261, 480, 292
-0.997219, 289, 125, 416, 156
-0.997233, 113, 273, 240, 304
-0.997242, 17, 257, 144, 288
-0.997246, 241, 269, 368, 300
-0.997251, 447, 73, 462, 136
-0.997265, 345, 9, 408, 72
-0.997287, 33, 217, 160, 248
-0.997288, 277, 177, 292, 240
-0.997318, 99, 225, 114, 288
-0.99732, 1, 33, 500, 96
-0.99732, 395, 217, 410, 280
-0.997325, 1, 249, 500, 312
-0.997332, 409, 97, 424, 160
-0.997348, 245, 153, 260, 216
-0.997352, 333, 177, 348, 208
-0.997356, 161, 97, 416, 160
-0.997361, 353, 149, 480, 180
-0.997385, 401, 77, 416, 108
-0.997393, 257, 169, 272, 232
-0.997398, 435, 273, 450, 333
-0.997406, 375, 161, 390, 224
-0.997424, 459, 73, 474, 136
-0.997427, 281, 169, 296, 200
-0.997433, 253, 129, 268, 192
-0.997442, 309, 89, 324, 152
-0.997451, 1, 145, 256, 208
-0.997453, 369, 213, 496, 244
-0.997469, 145, 185, 160, 248
-0.99747, 275, 81, 290, 144
-0.997475, 195, 177, 210, 240
-0.997487, 359, 161, 374, 192
-0.997516, 379, 73, 394, 136
-0.997517, 297, 89, 312, 152
-0.997524, 145, 249, 160, 312
-0.997531, 369, 301, 496, 332
-0.997534, 433, 129, 448, 192
-0.997534, 313, 65, 344, 320
-0.997539, 129, 185, 144, 248
-0.997541, 425, 233, 440, 296
-0.997546, 365, 257, 380, 320
-0.997546, 297, 273, 360, 333
-0.997547, 347, 169, 362, 200
-0.997552, 137, 161, 152, 224
-0.997552, 289, 121, 304, 184
-0.997554, 173, 177, 188, 240
-0.99756, 209, 177, 224, 240
-0.997562, 113, 229, 240, 260
-0.997566, 9, 1, 72, 333
-0.99757, 53, 209, 84, 333
-0.997584, 353, 209, 368, 272
-0.997586, 145, 181, 272, 212
-0.997589, 339, 185, 354, 216
-0.99759, 393, 77, 408, 108
-0.997597, 369, 277, 496, 308
-0.997597, 485, 293, 500, 324
-0.9976, 1, 161, 128, 224
-0.997606, 305, 185, 432, 216
-0.997612, 367, 109, 382, 140
-0.997616, 355, 273, 370, 333
-0.997618, 137, 265, 152, 328
-0.997625, 321, 89, 448, 120
-0.997629, 357, 65, 388, 320
-0.997632, 81, 209, 208, 240
-0.997643, 97, 1, 160, 256
-0.997644, 463, 161, 478, 224
-0.997647, 177, 25, 304, 88
-0.997648, 281, 97, 296, 160
-0.99766, 303, 89, 318, 152
-0.997675, 383, 161, 398, 224
-0.997677, 323, 177, 338, 240
-0.997681, 9, 273, 24, 333
-0.997687, 411, 241, 426, 304
-0.997697, 477, 161, 492, 224
-0.9977, 447, 169, 462, 232
-0.997713, 441, 201, 456, 264
-0.997714, 257, 149, 272, 180
-0.997714, 97, 25, 224, 88
-0.997715, 231, 177, 246, 240
-0.997716, 283, 121, 298, 184
-0.997725, 99, 249, 114, 312
-0.997734, 225, 97, 352, 128
-0.997739, 373, 225, 388, 288
-0.997742, 441, 169, 456, 232
-0.997746, 221, 177, 236, 240
-0.997746, 397, 93, 412, 124
-0.997753, 251, 165, 266, 196
-0.997755, 397, 25, 412, 88
-0.997755, 449, 201, 464, 264
-0.997762, 379, 109, 394, 140
-0.997765, 333, 225, 348, 256
-0.997766, 365, 209, 380, 272
-0.997767, 237, 17, 268, 144
-0.99777, 387, 217, 402, 280
-0.997772, 415, 77, 430, 108
-0.997773, 347, 185, 362, 216
-0.997773, 241, 241, 368, 272
-0.997779, 81, 197, 208, 228
-0.997779, 367, 161, 382, 192
-0.997782, 433, 33, 464, 288
-0.997783, 281, 157, 296, 188
-0.997786, 327, 241, 342, 304
-0.997794, 257, 105, 272, 168
-0.997794, 97, 1, 224, 64
-0.997795, 171, 153, 186, 216
-0.997801, 269, 65, 300, 320
-0.997801, 381, 65, 412, 320
-0.997804, 251, 177, 266, 240
-0.997806, 145, 161, 272, 192
-0.997811, 103, 185, 118, 248
-0.997822, 307, 257, 322, 320
-0.997823, 1, 225, 256, 288
-0.997831, 193, 269, 320, 300
-0.997837, 455, 169, 470, 232
-0.997838, 287, 81, 302, 144
-0.99784, 97, 261, 224, 292
-0.997849, 33, 237, 160, 268
-0.997855, 409, 77, 424, 108
-0.997863, 399, 65, 414, 96
-0.997872, 17, 25, 144, 88
-0.997894, 145, 241, 272, 272
-0.9979, 271, 149, 286, 180
-0.997907, 413, 65, 444, 320
-0.997943, 379, 153, 394, 184
-0.99795, 357, 173, 372, 204
-0.997953, 445, 33, 476, 288
-0.99796, 337, 197, 352, 228
-0.997967, 157, 165, 172, 196
-0.997978, 301, 65, 332, 320
-0.997984, 433, 205, 448, 236
-0.997988, 353, 161, 368, 192
-0.99799, 241, 257, 368, 288
-0.997993, 17, 297, 144, 328
-0.997993, 419, 65, 434, 96
-0.997998, 369, 225, 496, 256
-0.998005, 225, 133, 352, 164
-0.998007, 193, 237, 320, 268
-0.998028, 287, 161, 302, 192
-0.998029, 151, 165, 166, 196
-0.998035, 343, 229, 358, 260
-0.998041, 483, 281, 498, 312
-0.998058, 33, 1, 160, 64
-0.998062, 409, 89, 424, 120
-0.998064, 33, 1, 96, 333
-0.998074, 369, 17, 400, 144
-0.998078, 427, 109, 442, 140
-0.998085, 477, 293, 492, 324
-0.998094, 321, 65, 448, 96
-0.998101, 373, 109, 388, 140
-0.998105, 433, 97, 448, 128
-0.998117, 425, 217, 440, 248
-0.998121, 153, 177, 168, 208
-0.998129, 375, 129, 390, 160
-0.99813, 333, 65, 364, 320
-0.998135, 151, 145, 166, 176
-0.998142, 103, 205, 118, 236
-0.998146, 65, 145, 192, 176
-0.99815, 161, 145, 176, 176
-0.998158, 321, 17, 448, 80
-0.99816, 173, 129, 204, 256
-0.998166, 263, 149, 278, 180
-0.998167, 109, 189, 124, 220
-0.998198, 419, 109, 434, 140
-0.998203, 225, 1, 352, 64
-0.998206, 403, 89, 418, 120
-0.998215, 251, 149, 266, 180
-0.998215, 65, 89, 320, 152
-0.998217, 49, 185, 176, 216
-0.998229, 393, 33, 424, 288
-0.998231, 455, 285, 470, 316
-0.998281, 413, 65, 428, 96
-0.998283, 477, 277, 492, 308
-0.99829, 325, 81, 356, 208
-0.998296, 443, 281, 458, 312
-0.998309, 391, 101, 406, 132
-0.998312, 353, 255, 384, 270
-0.998313, 253, 111, 284, 126
-0.998313, 77, 259, 108, 274
-0.998314, 433, 241, 464, 256
-0.998314, 305, 125, 336, 140
-0.998315, 141, 277, 172, 292
-0.998315, 41, 259, 72, 274
-0.998315, 373, 149, 388, 180
-0.998316, 353, 261, 384, 276
-0.998316, 261, 147, 292, 162
-0.998316, 429, 69, 444, 100
-0.998316, 381, 167, 412, 182
-0.99832, 221, 239, 252, 254
-0.998321, 101, 229, 132, 244
-0.998321, 415, 221, 430, 252
-0.998321, 453, 291, 484, 306
-0.998321, 425, 73, 456, 88
-0.998323, 429, 217, 460, 232
-0.998324, 141, 183, 172, 198
-0.998324, 437, 285, 468, 300
-0.998324, 173, 243, 204, 258
-0.998325, 373, 145, 404, 160
-0.998325, 413, 109, 428, 140
-0.998326, 389, 115, 420, 130
-0.998326, 401, 109, 432, 124
-0.998327, 149, 245, 180, 260
-0.998327, 425, 109, 456, 124
-0.998329, 193, 241, 224, 256
-0.998329, 349, 241, 380, 256
-0.998329, 381, 89, 412, 104
-0.99833, 275, 169, 290, 200
-0.998331, 309, 269, 340, 284
-0.998331, 257, 163, 288, 178
-0.998332, 401, 97, 432, 112
-0.998333, 353, 181, 384, 196
-0.998334, 341, 165, 356, 196
-0.998336, 405, 79, 436, 94
-0.998337, 469, 291, 500, 306
-0.998337, 429, 313, 460, 328
-0.998338, 409, 65, 440, 80
-0.998339, 333, 165, 364, 180
-0.998339, 5, 311, 36, 326
-0.998341, 137, 153, 168, 168
-0.998341, 145, 145, 160, 176
-0.998342, 237, 177, 268, 192
-0.998342, 329, 237, 360, 252
-0.998342, 369, 201, 496, 232
-0.998343, 413, 93, 444, 108
-0.998344, 25, 303, 56, 318
-0.998344, 433, 301, 448, 332
-0.998346, 317, 223, 348, 238
-0.998347, 449, 281, 464, 312
-0.998348, 129, 279, 160, 294
-0.998348, 417, 79, 448, 94
-0.998348, 401, 73, 432, 88
-0.998348, 325, 195, 356, 210
-0.998349, 333, 207, 364, 222
-0.998349, 97, 219, 128, 234
-0.998349, 381, 103, 412, 118
-0.998352, 205, 241, 236, 256
-0.998352, 349, 209, 380, 224
-0.998353, 449, 285, 480, 300
-0.998353, 385, 161, 416, 176
-0.998354, 237, 167, 268, 182
-0.998356, 153, 177, 184, 192
-0.998357, 441, 297, 472, 312
-0.998358, 249, 181, 280, 196
-0.998358, 153, 183, 184, 198
-0.998359, 469, 285, 500, 300
-0.998359, 409, 103, 440, 118
-0.998361, 373, 239, 404, 254
-0.998361, 397, 237, 428, 252
-0.998362, 369, 83, 400, 98
-0.998362, 5, 305, 36, 320
-0.998363, 429, 303, 460, 318
-0.998365, 465, 285, 480, 316
-0.998368, 413, 215, 444, 230
-0.998369, 413, 227, 444, 242
-0.998369, 269, 181, 300, 196
-0.998369, 365, 153, 396, 168
-0.998369, 17, 309, 48, 324
-0.99837, 453, 303, 484, 318
-0.998371, 137, 165, 168, 180
-0.998372, 329, 243, 360, 258
-0.998372, 109, 189, 140, 204
-0.998373, 149, 155, 180, 170
-0.998375, 145, 145, 176, 160
-0.998376, 361, 175, 392, 190
-0.998378, 349, 235, 380, 250
-0.998381, 369, 173, 496, 204
-0.998381, 335, 209, 350, 240
-0.998382, 409, 133, 440, 148
-0.998386, 387, 77, 402, 108
-0.998388, 105, 195, 136, 210
-0.998389, 153, 161, 184, 176
-0.998391, 241, 155, 304, 170
-0.998391, 429, 205, 460, 220
-0.998392, 329, 225, 360, 240
-0.998392, 413, 111, 444, 126
-0.998393, 65, 161, 128, 224
-0.998395, 333, 213, 364, 228
-0.998396, 277, 167, 308, 182
-0.998398, 273, 159, 304, 174
-0.998402, 373, 137, 404, 152
-0.998403, 413, 73, 444, 88
-0.998404, 33, 293, 48, 324
-0.998405, 289, 65, 320, 320
-0.998405, 345, 193, 376, 208
-0.998406, 409, 221, 440, 236
-0.998409, 413, 233, 444, 248
-0.998413, 369, 159, 400, 174
-0.998416, 469, 309, 500, 324
-0.998416, 431, 129, 446, 160
-0.998417, 365, 77, 396, 92
-0.998418, 121, 187, 152, 202
-0.998419, 465, 297, 496, 312
-0.998419, 357, 119, 388, 134
-0.998422, 345, 163, 376, 178
-0.998424, 257, 169, 288, 184
-0.998424, 369, 289, 496, 320
-0.998426, 373, 129, 404, 144
-0.998429, 457, 73, 472, 104
-0.998429, 137, 159, 168, 174
-0.998432, 417, 127, 448, 142
-0.998433, 317, 177, 348, 192
-0.998435, 381, 75, 412, 90
-0.998436, 325, 189, 356, 204
-0.998438, 381, 83, 412, 98
-0.998443, 409, 87, 440, 102
-0.998444, 97, 129, 352, 192
-0.998448, 101, 253, 132, 268
-0.998455, 373, 119, 404, 134
-0.998462, 377, 113, 408, 128
-0.998464, 5, 297, 20, 328
-0.998464, 393, 91, 424, 106
-0.998466, 445, 77, 476, 92
-0.998467, 391, 89, 406, 120
-0.998475, 145, 165, 160, 196
-0.998476, 437, 109, 452, 140
-0.998481, 259, 81, 274, 112
-0.998486, 425, 229, 440, 260
-0.998487, 265, 153, 296, 168
-0.998488, 249, 153, 280, 168
-0.998488, 337, 163, 400, 178
-0.998491, 257, 133, 272, 164
-0.998491, 389, 109, 420, 124
-0.998495, 343, 197, 358, 228
-0.998495, 325, 183, 356, 198
-0.998496, 337, 171, 368, 186
-0.998496, 279, 145, 294, 176
-0.998499, 425, 303, 488, 318
-0.998502, 385, 111, 448, 126
-0.998503, 337, 201, 368, 216
-0.998505, 93, 217, 108, 248
-0.998506, 385, 153, 400, 184
-0.998506, 249, 173, 312, 188
-0.998507, 161, 133, 288, 164
-0.998509, 241, 161, 304, 176
-0.998511, 389, 97, 420, 112
-0.998511, 17, 205, 144, 236
-0.998513, 287, 149, 302, 180
-0.998516, 361, 111, 424, 126
-0.998518, 381, 77, 396, 108
-0.998518, 341, 183, 372, 198
-0.998523, 1, 257, 16, 288
-0.998526, 385, 97, 448, 112
-0.998528, 257, 169, 272, 200
-0.998529, 385, 1, 448, 64
-0.998531, 263, 137, 278, 168
-0.998532, 471, 289, 486, 320
-0.998535, 329, 231, 360, 246
-0.998537, 1, 269, 16, 300
-0.998537, 385, 103, 448, 118
-0.998537, 383, 165, 398, 196
-0.998538, 393, 103, 424, 118
-0.99854, 463, 77, 478, 108
-0.99854, 369, 165, 400, 180
-0.99854, 193, 117, 320, 148
-0.998541, 233, 179, 296, 194
-0.998541, 385, 237, 448, 252
-0.998543, 369, 73, 432, 88
-0.998544, 385, 91, 448, 106
-0.998548, 123, 185, 138, 216
-0.99855, 257, 175, 288, 190
-0.998551, 11, 297, 26, 328
-0.998552, 349, 171, 380, 186
-0.998555, 353, 185, 368, 216
-0.998557, 393, 81, 424, 96
-0.998558, 373, 161, 388, 192
-0.998559, 273, 137, 288, 168
-0.99856, 337, 177, 368, 192
-0.99856, 445, 297, 460, 328
-0.998562, 329, 17, 360, 144
-0.998563, 321, 239, 384, 254
-0.998564, 365, 113, 396, 128
-0.998565, 337, 183, 400, 198
-0.998567, 135, 273, 150, 304
-0.998567, 337, 169, 400, 184
-0.99857, 409, 77, 472, 92
-0.998571, 321, 115, 384, 130
-0.998572, 457, 65, 488, 320
-0.998572, 361, 105, 424, 120
-0.998573, 305, 177, 368, 192
-0.998574, 321, 207, 384, 222
-0.998574, 369, 133, 432, 148
-0.998578, 345, 239, 408, 254
-0.998583, 329, 177, 392, 192
-0.998585, 115, 189, 130, 220
-0.998587, 249, 167, 312, 182
-0.998588, 193, 225, 320, 256
-0.998589, 385, 81, 448, 96
-0.99859, 327, 181, 342, 212
-0.998593, 357, 163, 388, 178
-0.998593, 427, 93, 442, 124
-0.998594, 385, 67, 448, 82
-0.998595, 305, 273, 432, 304
-0.998599, 427, 253, 442, 284
-0.998601, 321, 233, 384, 248
-0.998602, 313, 183, 376, 198
-0.998603, 225, 237, 240, 268
-0.998604, 279, 181, 294, 212
-0.998605, 133, 185, 148, 216
-0.998605, 433, 287, 496, 302
-0.998608, 89, 253, 152, 268
-0.998608, 321, 201, 384, 216
-0.998609, 259, 105, 274, 136
-0.998611, 361, 245, 424, 260
-0.998611, 65, 273, 192, 304
-0.998613, 321, 245, 384, 260
-0.998614, 113, 187, 176, 202
-0.998614, 421, 77, 436, 108
-0.998615, 361, 163, 424, 178
-0.998615, 361, 85, 424, 100
-0.998615, 137, 183, 200, 198
-0.998616, 369, 119, 432, 134
-0.998616, 361, 251, 424, 266
-0.998617, 99, 221, 114, 252
-0.998617, 321, 213, 384, 228
-0.998621, 327, 221, 342, 252
-0.998622, 385, 221, 448, 236
-0.998623, 177, 57, 304, 120
-0.998626, 435, 77, 450, 108
-0.998627, 177, 105, 304, 136
-0.998627, 177, 241, 240, 256
-0.998629, 297, 229, 360, 244
-0.998629, 425, 309, 488, 324
-0.998629, 315, 105, 330, 136
-0.99863, 163, 161, 178, 192
-0.99863, 297, 189, 360, 204
-0.998633, 385, 243, 448, 258
-0.998633, 313, 167, 376, 182
-0.998633, 313, 109, 376, 124
-0.998633, 1, 297, 64, 312
-0.998636, 337, 157, 400, 172
-0.998636, 225, 173, 288, 188
-0.998636, 417, 243, 480, 258
-0.998638, 451, 73, 466, 104
-0.99864, 417, 83, 480, 98
-0.998641, 409, 109, 472, 124
-0.998641, 321, 219, 384, 234
-0.998643, 257, 181, 320, 196
-0.998644, 137, 277, 200, 292
-0.998646, 273, 175, 336, 190
-0.998647, 289, 223, 352, 238
-0.998647, 297, 195, 360, 210
-0.998647, 1, 307, 64, 322
-0.998649, 289, 183, 352, 198
-0.99865, 313, 265, 376, 280
-0.99865, 129, 153, 192, 168
-0.99865, 419, 89, 434, 120
-0.998651, 345, 121, 408, 136
-0.998651, 409, 69, 472, 84
-0.998652, 425, 203, 488, 218
-0.998653, 233, 209, 296, 272
-0.998654, 377, 157, 440, 172
-0.998654, 321, 253, 384, 268
-0.998655, 387, 113, 402, 144
-0.998657, 361, 257, 424, 272
-0.998657, 433, 101, 496, 116
-0.998657, 241, 115, 304, 130
-0.998658, 433, 293, 496, 308
-0.998658, 289, 207, 352, 222
-0.998659, 361, 79, 424, 94
-0.998659, 273, 269, 336, 284
-0.99866, 129, 163, 192, 178
-0.99866, 195, 181, 210, 212
-0.998661, 433, 281, 496, 296
-0.998661, 385, 231, 448, 246
-0.998662, 361, 99, 424, 114
-0.998662, 321, 259, 384, 274
-0.998663, 209, 163, 272, 178
-0.998663, 257, 93, 272, 124
-0.998663, 369, 147, 432, 162
-0.998663, 113, 245, 176, 260
-0.998663, 273, 125, 336, 140
-0.998664, 369, 139, 432, 154
-0.998665, 393, 129, 456, 144
-0.998666, 273, 167, 336, 182
-0.998666, 345, 233, 408, 248
-0.998666, 89, 223, 152, 238
-0.998667, 329, 127, 392, 142
-0.998667, 1, 313, 64, 328
-0.998668, 241, 149, 304, 164
-0.998669, 361, 127, 424, 142
-0.998669, 273, 115, 336, 130
-0.99867, 433, 77, 496, 92
-0.99867, 145, 245, 208, 260
-0.99867, 269, 105, 284, 136
-0.998671, 297, 235, 360, 250
-0.998671, 197, 129, 228, 256
-0.998672, 409, 217, 472, 232
-0.998672, 363, 173, 378, 204
-0.998673, 385, 249, 448, 264
-0.998673, 49, 259, 112, 274
-0.998673, 97, 195, 160, 210
-0.998674, 321, 121, 384, 136
-0.998674, 249, 125, 312, 140
-0.998677, 409, 227, 472, 242
-0.99868, 327, 209, 342, 240
-0.99868, 281, 109, 344, 124
-0.998681, 361, 91, 424, 106
-0.998682, 433, 93, 496, 108
-0.998683, 289, 201, 352, 216
-0.998683, 385, 215, 448, 230
-0.998683, 337, 149, 400, 164
-0.998683, 113, 279, 176, 294
-0.998684, 201, 241, 264, 256
-0.998684, 329, 195, 392, 210
-0.998685, 81, 259, 144, 274
-0.998685, 201, 185, 264, 200
-0.998686, 409, 99, 472, 114
-0.998686, 361, 169, 424, 184
-0.998687, 249, 271, 312, 286
-0.998688, 321, 227, 384, 242
-0.998688, 425, 317, 488, 332
-0.998688, 325, 81, 340, 112
-0.998689, 241, 93, 304, 108
-0.998689, 409, 221, 424, 252
-0.998689, 241, 99, 304, 114
-0.998689, 269, 161, 284, 192
-0.998689, 385, 317, 448, 332
-0.99869, 231, 233, 246, 264
-0.998691, 73, 229, 136, 244
-0.998692, 225, 273, 288, 288
-0.998692, 289, 215, 352, 230
-0.998692, 209, 179, 272, 194
-0.998692, 297, 243, 360, 258
-0.998693, 367, 149, 382, 180
-0.998695, 437, 277, 452, 308
-0.998696, 273, 181, 288, 212
-0.998702, 173, 181, 188, 212
-0.998703, 285, 117, 300, 148
-0.998703, 109, 213, 124, 244
-0.998705, 381, 121, 396, 152
-0.998706, 407, 233, 422, 264
-0.998708, 145, 185, 160, 216
-0.998717, 273, 9, 400, 72
-0.998751, 177, 85, 304, 116
-0.998755, 369, 57, 496, 88
-0.998763, 245, 65, 276, 320
-0.998768, 129, 33, 384, 96
-0.99877, 81, 145, 144, 272
-0.998773, 421, 1, 452, 128
-0.998801, 97, 173, 224, 204
-0.998819, 353, 185, 480, 216
-0.998853, 201, 73, 264, 136
-0.998854, 469, 1, 500, 256
-0.998889, 369, 41, 496, 72
-0.998897, 345, 65, 376, 320
-0.998917, 145, 1, 272, 64
-0.998964, 335, 161, 350, 288
-0.998965, 129, 217, 256, 248
-0.998966, 97, 161, 224, 192
-0.998991, 141, 65, 172, 320
-0.999005, 365, 129, 380, 256
-0.999011, 193, 257, 320, 288
-0.999036, 259, 97, 274, 224
-0.999049, 17, 281, 144, 312
-0.999078, 321, 293, 448, 324
-0.999087, 269, 129, 284, 256
-0.999093, 435, 193, 450, 320
-0.999097, 145, 261, 272, 292
-0.999098, 375, 97, 390, 224
-0.999126, 253, 129, 268, 256
-0.999126, 345, 177, 360, 304
-0.999132, 177, 209, 304, 240
-0.999141, 399, 49, 414, 176
-0.999148, 365, 81, 380, 208
-0.999148, 263, 145, 278, 272
-0.999181, 137, 97, 168, 224
-0.999181, 279, 113, 294, 240
-0.999196, 321, 33, 448, 64
-0.999201, 355, 161, 370, 288
-0.999207, 423, 49, 438, 176
-0.999215, 153, 65, 184, 320
-0.999225, 111, 177, 126, 304
-0.999231, 17, 173, 144, 204
-0.999237, 151, 161, 166, 288
-0.999247, 393, 65, 408, 192
-0.999251, 105, 193, 120, 320
-0.999259, 359, 113, 374, 240
-0.99926, 435, 145, 450, 272
-0.999268, 427, 193, 442, 320
-0.999272, 333, 209, 348, 333
-0.999278, 1, 185, 128, 216
-0.999283, 273, 65, 288, 192
-0.999286, 139, 145, 154, 272
-0.999288, 129, 65, 160, 320
-0.999291, 445, 17, 476, 144
-0.999293, 321, 177, 336, 304
-0.999295, 411, 65, 426, 192
-0.999297, 157, 161, 172, 288
-0.999301, 383, 97, 398, 224
-0.999305, 267, 65, 282, 192
-0.999311, 145, 129, 160, 256
-0.999315, 417, 65, 432, 192
-0.999316, 201, 177, 216, 304
-0.999319, 213, 177, 228, 304
-0.999321, 93, 209, 108, 333
-0.999325, 381, 161, 396, 288
-0.999333, 279, 65, 294, 192
-0.999333, 397, 145, 428, 272
-0.999334, 315, 65, 330, 192
-0.999334, 1, 9, 500, 72
-0.999342, 325, 81, 340, 208
-0.999346, 225, 69, 352, 100
-0.999347, 81, 285, 208, 316
-0.999347, 315, 129, 330, 256
-0.999348, 327, 177, 342, 304
-0.999358, 259, 49, 274, 176
-0.999358, 287, 113, 302, 240
-0.999359, 231, 177, 246, 304
-0.999361, 123, 177, 138, 304
-0.999364, 207, 177, 222, 304
-0.999366, 245, 177, 260, 304
-0.999367, 221, 177, 236, 304
-0.999368, 441, 193, 456, 320
-0.999368, 195, 177, 210, 304
-0.999368, 277, 177, 292, 304
-0.999376, 299, 129, 314, 256
-0.999377, 253, 177, 268, 304
-0.999382, 309, 129, 324, 256
-0.999384, 129, 197, 256, 228
-0.999389, 371, 145, 386, 272
-0.99939, 187, 177, 202, 304
-0.999402, 239, 177, 254, 304
-0.999407, 117, 177, 132, 304
-0.999409, 315, 177, 330, 304
-0.99941, 445, 145, 460, 272
-0.999412, 181, 177, 196, 304
-0.999416, 325, 129, 340, 256
-0.999418, 451, 193, 466, 320
-0.999425, 309, 65, 324, 192
-0.999429, 229, 65, 260, 320
-0.99943, 289, 65, 304, 192
-0.999433, 177, 65, 208, 320
-0.999437, 141, 193, 156, 320
-0.999438, 355, 209, 370, 333
-0.999442, 429, 65, 444, 192
-0.999446, 273, 65, 400, 96
-0.999448, 309, 177, 324, 304
-0.99945, 459, 193, 474, 320
-0.999453, 165, 65, 196, 320
-0.999461, 293, 129, 308, 256
-0.999472, 1, 1, 256, 64
-0.999474, 345, 129, 360, 256
-0.999474, 393, 17, 408, 144
-0.999475, 441, 65, 456, 192
-0.999477, 193, 65, 224, 320
-0.999477, 217, 65, 248, 320
-0.999479, 405, 65, 420, 192
-0.99948, 151, 113, 166, 240
-0.999485, 361, 209, 376, 333
-0.999486, 459, 65, 474, 192
-0.999486, 387, 161, 402, 288
-0.999491, 271, 177, 286, 304
-0.999492, 475, 145, 490, 272
-0.999493, 465, 81, 480, 208
-0.999496, 303, 177, 318, 304
-0.999497, 415, 209, 430, 333
-0.999501, 295, 65, 310, 192
-0.999503, 253, 81, 268, 208
-0.999503, 157, 113, 172, 240
-0.999503, 289, 177, 304, 304
-0.999504, 465, 193, 480, 320
-0.999504, 303, 65, 318, 192
-0.999507, 405, 17, 420, 144
-0.999508, 225, 9, 480, 72
-0.999509, 387, 49, 402, 176
-0.99951, 163, 129, 178, 256
-0.999513, 469, 145, 484, 272
-0.999513, 371, 209, 386, 333
-0.999516, 133, 145, 148, 272
-0.999517, 369, 1, 496, 64
-0.999525, 455, 145, 470, 272
-0.99953, 471, 33, 486, 160
-0.999531, 389, 113, 404, 240
-0.999537, 423, 97, 438, 224
-0.999539, 461, 145, 476, 272
-0.999544, 379, 209, 394, 333
-0.999545, 295, 177, 310, 304
-0.999545, 399, 67, 414, 82
-0.999546, 423, 129, 438, 144
-0.999547, 143, 279, 158, 294
-0.999547, 375, 153, 390, 168
-0.999548, 429, 133, 444, 148
-0.999549, 315, 269, 330, 284
-0.999549, 477, 303, 492, 318
-0.99955, 41, 257, 56, 272
-0.99955, 217, 241, 232, 256
-0.999551, 435, 123, 450, 138
-0.999551, 171, 181, 186, 196
-0.999551, 121, 187, 136, 202
-0.999552, 379, 165, 394, 180
-0.999553, 259, 179, 274, 194
-0.999553, 479, 295, 494, 310
-0.999553, 433, 303, 448, 318
-0.999554, 431, 311, 446, 326
-0.999554, 115, 253, 130, 268
-0.999554, 273, 175, 288, 190
-0.999555, 449, 299, 464, 314
-0.999555, 443, 281, 458, 296
-0.999555, 167, 177, 182, 304
-0.999555, 93, 219, 108, 234
-0.999556, 339, 177, 354, 192
-0.999556, 449, 75, 464, 90
-0.999556, 455, 75, 470, 90
-0.999556, 333, 231, 348, 246
-0.999556, 1, 265, 16, 280
-0.999559, 253, 175, 268, 190
-0.99956, 205, 1, 236, 256
-0.999563, 347, 191, 362, 206
-0.999564, 415, 221, 430, 236
-0.999564, 429, 127, 444, 142
-0.999565, 283, 177, 298, 304
-0.999565, 417, 87, 432, 102
-0.999566, 485, 315, 500, 330
-0.999566, 293, 165, 308, 180
-0.999567, 385, 75, 400, 90
-0.999567, 375, 145, 390, 160
-0.999568, 115, 189, 130, 204
-0.999569, 357, 175, 372, 190
-0.999569, 287, 157, 302, 172
-0.999571, 399, 37, 414, 52
-0.999571, 17, 209, 80, 272
-0.999571, 325, 33, 340, 160
-0.999571, 403, 73, 418, 88
-0.999571, 1, 25, 256, 88
-0.999573, 427, 71, 442, 86
-0.999573, 157, 175, 172, 190
-0.999573, 385, 159, 400, 174
-0.999574, 473, 309, 488, 324
-0.999575, 429, 111, 444, 126
-0.999575, 223, 239, 238, 254
-0.999575, 281, 161, 296, 176
-0.999576, 155, 143, 170, 158
-0.999577, 175, 177, 190, 304
-0.999578, 193, 197, 320, 228
-0.999578, 435, 97, 450, 224
-0.999578, 339, 209, 354, 333
-0.999578, 133, 279, 148, 294
-0.999579, 353, 113, 368, 240
-0.99958, 151, 171, 166, 186
-0.99958, 149, 143, 164, 158
-0.99958, 425, 219, 440, 234
-0.999581, 279, 181, 294, 196
-0.999583, 43, 209, 58, 333
-0.999584, 145, 165, 160, 180
-0.999584, 327, 175, 342, 190
-0.999585, 247, 129, 262, 256
-0.999586, 415, 17, 430, 144
-0.999586, 417, 113, 432, 240
-0.999587, 419, 71, 434, 86
-0.999587, 433, 205, 448, 220
-0.999587, 485, 307, 500, 322
-0.999588, 391, 209, 406, 333
-0.999588, 109, 193, 124, 208
-0.999589, 425, 229, 440, 244
-0.999589, 379, 159, 394, 174
-0.99959, 275, 153, 290, 168
-0.99959, 99, 209, 114, 333
-0.999591, 151, 157, 166, 172
-0.999592, 251, 167, 266, 182
-0.999592, 261, 173, 276, 188
-0.999593, 305, 53, 432, 84
-0.999594, 479, 311, 494, 326
-0.999595, 485, 193, 500, 320
-0.999595, 363, 175, 378, 190
-0.999595, 347, 169, 362, 184
-0.999597, 399, 1, 414, 128
-0.999597, 483, 301, 498, 316
-0.999598, 153, 181, 168, 196
-0.999598, 267, 151, 282, 166
-0.999599, 135, 193, 150, 320
-0.999599, 347, 177, 362, 192
-0.999599, 375, 125, 390, 140
-0.9996, 341, 231, 356, 246
-0.9996, 331, 97, 346, 224
-0.999601, 415, 81, 430, 96
-0.999601, 333, 225, 348, 240
-0.999602, 373, 165, 388, 180
-0.999602, 385, 165, 400, 180
-0.999603, 269, 17, 284, 144
-0.999604, 259, 151, 274, 166
-0.999605, 17, 269, 144, 300
-0.999606, 421, 77, 436, 92
-0.999606, 415, 133, 430, 148
-0.999607, 363, 113, 378, 128
-0.999607, 479, 33, 494, 160
-0.999607, 273, 29, 400, 60
-0.999607, 385, 113, 400, 128
-0.999608, 393, 99, 408, 114
-0.999608, 385, 209, 400, 333
-0.999609, 157, 167, 172, 182
-0.99961, 415, 111, 430, 126
-0.999611, 421, 209, 436, 333
-0.999613, 391, 107, 406, 122
-0.999613, 375, 135, 390, 150
-0.999614, 419, 65, 434, 80
-0.999614, 449, 65, 464, 192
-0.999615, 373, 77, 388, 92
-0.999617, 341, 193, 356, 208
-0.99962, 337, 187, 352, 202
-0.999622, 403, 81, 418, 96
-0.999624, 369, 119, 384, 134
-0.999625, 141, 157, 156, 172
-0.999626, 409, 89, 424, 104
-0.999628, 157, 161, 172, 176
-0.999628, 281, 171, 296, 186
-0.999628, 397, 79, 412, 94
-0.999629, 473, 97, 488, 224
-0.999629, 471, 193, 486, 320
-0.999631, 393, 91, 408, 106
-0.999632, 409, 99, 424, 114
-0.999632, 361, 169, 376, 184
-0.999636, 397, 73, 412, 88
-0.999638, 381, 49, 396, 176
-0.999639, 65, 133, 192, 164
-0.999639, 379, 119, 394, 134
-0.999639, 401, 105, 416, 120
-0.99964, 399, 99, 414, 114
-0.999642, 353, 181, 368, 196
-0.999642, 281, 155, 296, 170
-0.999643, 409, 105, 424, 120
-0.999644, 409, 209, 424, 333
-0.999645, 409, 81, 424, 96
-0.999647, 279, 17, 294, 144
-0.999649, 429, 129, 444, 256
-0.999651, 367, 163, 382, 178
-0.999653, 379, 81, 394, 96
-0.999658, 339, 199, 354, 214
-0.99966, 389, 83, 404, 98
-0.999661, 253, 153, 268, 168
-0.999662, 353, 163, 368, 178
-0.999663, 287, 163, 302, 178
-0.999664, 391, 113, 406, 128
-0.999666, 391, 77, 406, 92
-0.999668, 151, 163, 166, 178
-0.999672, 413, 75, 428, 90
-0.999676, 161, 73, 288, 104
-0.999678, 403, 93, 418, 108
-0.99968, 129, 65, 384, 128
-0.99968, 333, 179, 348, 194
-0.99969, 161, 281, 288, 312
-0.999695, 343, 183, 358, 198
-0.999698, 369, 113, 384, 128
-0.999698, 485, 293, 500, 308
-0.999703, 379, 113, 394, 128
-0.999714, 355, 169, 370, 184
-0.999715, 361, 161, 376, 176
-0.999929, 49, 33, 176, 64
-0.999938, 321, 21, 448, 52
-0.999941, 1, 29, 128, 60
-0.999952, 161, 33, 288, 64
-0.999967, 97, 29, 224, 60
-0.99997, 209, 281, 336, 312
-0.999972, 1, 105, 128, 168
-1, 369, 29, 496, 60
-1.00002, 97, 1, 352, 64
-1.00003, 49, 161, 176, 192
-1.00003, 225, 29, 352, 60
-1.00012, 257, 281, 384, 312
-1.00014, 117, 65, 148, 320
-1.00015, 357, 33, 388, 160
-1.00016, 273, 17, 400, 48
-1.00016, 17, 141, 144, 172
-1.00017, 337, 57, 400, 120
-1.00017, 97, 17, 224, 48
-1.00018, 17, 17, 144, 48
-1.00025, 101, 145, 132, 272
-1.00026, 177, 21, 304, 52
-1.00027, 225, 17, 352, 48
-1.00029, 273, 293, 400, 324
-1.00031, 65, 297, 192, 328
-1.00035, 113, 133, 240, 164
-1.00036, 161, 61, 288, 92
-1.00037, 1, 65, 256, 128
-1.00037, 105, 121, 168, 184
-1.0004, 1, 121, 128, 152
-1.00042, 225, 293, 352, 324
-1.00043, 33, 1, 160, 32
-1.00043, 1, 101, 128, 132
-1.00044, 305, 1, 432, 32
-1.00047, 369, 1, 496, 32
-1.00048, 101, 65, 132, 320
-1.00049, 369, 17, 496, 48
-1.00051, 233, 81, 264, 208
-1.00051, 1, 57, 128, 120
-1.00054, 65, 105, 192, 168
-1.00058, 1, 121, 256, 184
-1.00062, 97, 49, 224, 112
-1.00071, 33, 81, 160, 144
-1.00089, 1, 1, 32, 256
-1.00095, 89, 1, 120, 256
-1.00095, 33, 161, 96, 288
-1.00097, 13, 1, 44, 256
-1.00099, 25, 1, 56, 256
-1.00103, 53, 1, 84, 256
-1.00108, 37, 1, 68, 256
-1.00108, 65, 1, 96, 256
-1.00117, 77, 33, 108, 288
-1.00125, 97, 73, 224, 136
-1.00126, 113, 105, 240, 168
-1.00132, 337, 33, 400, 96
-1.00139, 1, 129, 128, 192
-1.00148, 49, 49, 176, 112
-1.00149, 193, 25, 256, 88
-1.00152, 341, 65, 372, 192
-1.00165, 49, 65, 176, 192
-1.00173, 13, 209, 44, 333
-1.00189, 45, 161, 76, 288
-1.00194, 153, 81, 184, 208
-1.00195, 185, 17, 248, 144
-1.00219, 73, 65, 136, 320
-1.00239, 225, 25, 288, 88
-1.00243, 1, 209, 32, 333
-1.00249, 1, 113, 128, 240
-1.00257, 1, 185, 64, 248
-1.0028, 249, 25, 312, 88
-1.00281, 1, 161, 64, 288
-1.00281, 89, 1, 152, 64
-1.00288, 161, 25, 224, 88
-1.00289, 225, 57, 288, 120
-1.00294, 305, 25, 368, 88
-1.00302, 145, 1, 208, 64
-1.00305, 313, 57, 376, 120
-1.00309, 197, 17, 228, 144
-1.00311, 97, 81, 160, 208
-1.00311, 225, 1, 288, 64
-1.00315, 201, 1, 264, 64
-1.00315, 321, 1, 384, 64
-1.00327, 221, 17, 252, 144
-1.00327, 289, 1, 352, 64
-1.00332, 265, 1, 328, 64
-1.00336, 97, 25, 160, 88
-1.00336, 209, 17, 240, 144
-1.00338, 273, 33, 336, 96
-1.00345, 121, 9, 184, 72
-1.0035, 57, 1, 120, 64
-1.00362, 433, 1, 496, 64
-1.00365, 125, 81, 156, 208
-1.00386, 1, 1, 64, 256
-1.00386, 25, 161, 56, 288
-1.00386, 57, 161, 88, 288
-1.00387, 25, 25, 88, 88
-1.00412, 57, 25, 120, 88
-1.00415, 33, 1, 96, 256
-1.00445, 185, 17, 216, 144
-1.00466, 341, 17, 372, 144
-1.00498, 77, 145, 108, 272
-1.00529, 173, 17, 204, 144
-1.00532, 153, 1, 216, 128
-1.00555, 13, 161, 44, 288
-1.00556, 133, 1, 164, 128
-1.00562, 1, 17, 64, 144
-1.00567, 145, 1, 176, 128
-1.00568, 201, 65, 264, 192
-1.00578, 165, 81, 196, 208
-1.00582, 89, 113, 120, 240
-1.00587, 69, 17, 100, 144
-1.00591, 97, 1, 160, 128
-1.00598, 5, 17, 36, 144
-1.00604, 97, 17, 128, 144
-1.00604, 109, 17, 140, 144
-1.00618, 17, 17, 48, 144
-1.00618, 45, 17, 76, 144
-1.00618, 57, 17, 88, 144
-1.00621, 57, 17, 120, 144
-1.00622, 33, 17, 64, 144
-1.00626, 121, 1, 152, 128
-1.00627, 25, 17, 88, 144
-1.00643, 1, 65, 128, 192
-1.00692, 129, 1, 192, 128
-1.00814, 113, 65, 240, 192
-1.0086, 1, 113, 64, 240
-1.00907, 65, 97, 128, 224
-1.00981, 177, 81, 240, 208
-1.01027, 145, 49, 208, 176
-1.01211, 1, 65, 64, 192
-1.01262, 41, 113, 104, 240
-1.01371, 25, 65, 88, 192
-1.01372, 121, 49, 184, 176
