1835
-0.332788, 1, 65, 500, 312
-0.346516, 1, 1, 500, 312
-0.450892, 161, 1, 416, 312
-0.486832, 65, 1, 320, 312
-0.576839, 225, 65, 480, 312
-0.585022, 65, 65, 320, 312
-0.669765, 257, 1, 500, 312
-0.849989, 209, 1, 336, 312
-0.869274, 81, 1, 208, 312
-0.869402, 1, 81, 500, 208
-0.871196, 257, 65, 384, 312
-0.874874, 1, 161, 500, 288
-0.875127, 97, 1, 224, 256
-0.877901, 337, 1, 464, 256
-0.881388, 257, 1, 384, 312
-0.884814, 49, 65, 176, 312
-0.885474, 161, 1, 288, 312
-0.887065, 33, 1, 160, 312
-0.888964, 209, 33, 336, 288
-0.892445, 145, 65, 272, 312
-0.896667, 305, 1, 432, 312
-0.897332, 1, 65, 128, 312
-0.900958, 1, 33, 500, 160
-0.90652, 353, 1, 480, 312
-0.913859, 65, 177, 320, 304
-0.920693, 193, 81, 448, 208
-0.924524, 65, 113, 320, 240
-0.929756, 33, 49, 288, 176
-0.933624, 49, 145, 176, 272
-0.933758, 193, 33, 448, 160
-0.935012, 225, 193, 480, 312
-0.936917, 89, 193, 152, 312
-0.937629, 1, 161, 128, 288
-0.940134, 273, 49, 400, 176
-0.941727, 321, 161, 448, 288
-0.94283, 225, 129, 480, 256
-0.94343, 281, 33, 344, 160
-0.944593, 65, 193, 192, 312
-0.944664, 209, 33, 336, 160
-0.945614, 161, 33, 288, 160
-0.945775, 97, 145, 160, 272
-0.945806, 145, 129, 272, 256
-0.948771, 273, 193, 400, 312
-0.950851, 361, 33, 424, 160
-0.952131, 49, 177, 112, 304
-0.952477, 225, 161, 352, 288
-0.952766, 97, 145, 224, 272
-0.953603, 89, 225, 152, 288
-0.953669, 273, 113, 400, 240
-0.95407, 145, 177, 272, 304
-0.95434, 49, 97, 176, 224
-0.954818, 209, 81, 336, 208
-0.955077, 313, 81, 376, 208
-0.955836, 81, 201, 144, 264
-0.955992, 233, 81, 296, 208
-0.956233, 49, 17, 176, 144
-0.956334, 353, 113, 480, 240
-0.956435, 73, 145, 136, 272
-0.956496, 353, 33, 480, 160
-0.956884, 65, 1, 320, 128
-0.956937, 345, 97, 408, 224
-0.957902, 361, 145, 424, 272
-0.958721, 105, 193, 168, 256
-0.958982, 257, 81, 320, 208
-0.960127, 97, 33, 224, 160
-0.960521, 1, 97, 128, 224
-0.96108, 49, 129, 112, 256
-0.961437, 121, 177, 184, 304
-0.961471, 97, 81, 224, 208
-0.961528, 185, 33, 248, 160
-0.961656, 177, 129, 240, 256
-0.961791, 281, 49, 344, 112
-0.96224, 169, 33, 232, 96
-0.962939, 297, 145, 360, 272
-0.963622, 409, 33, 472, 160
-0.964005, 217, 161, 280, 288
-0.964257, 337, 193, 400, 312
-0.964404, 41, 177, 104, 240
-0.964588, 233, 33, 296, 160
-0.964648, 361, 161, 424, 224
-0.965524, 209, 97, 272, 224
-0.965615, 385, 17, 448, 144
-0.965796, 129, 33, 192, 96
-0.966361, 105, 17, 168, 144
-0.967012, 161, 81, 288, 208
-0.967093, 93, 193, 124, 312
-0.967336, 265, 177, 328, 304
-0.967369, 81, 65, 144, 192
-0.968232, 361, 193, 424, 312
-0.968253, 377, 25, 440, 88
-0.968367, 401, 49, 464, 112
-0.96867, 257, 185, 320, 248
-0.968939, 209, 41, 272, 104
-0.968967, 369, 81, 432, 208
-0.969035, 273, 137, 336, 200
-0.969151, 153, 145, 216, 272
-0.969527, 65, 241, 128, 304
-0.969559, 289, 217, 416, 280
-0.969673, 425, 81, 488, 208
-0.969963, 305, 209, 368, 272
-0.970059, 361, 105, 424, 168
-0.970248, 393, 249, 456, 312
-0.970279, 65, 177, 128, 240
-0.970345, 113, 241, 176, 304
-0.970495, 81, 1, 144, 128
-0.97063, 305, 241, 368, 304
-0.970692, 321, 81, 384, 144
-0.970705, 233, 89, 296, 152
-0.970751, 137, 49, 200, 176
-0.970847, 17, 97, 80, 224
-0.971023, 249, 49, 312, 112
-0.971304, 145, 193, 208, 312
-0.971565, 369, 193, 496, 312
-0.971843, 89, 217, 120, 280
-0.97185, 241, 161, 304, 288
-0.971911, 273, 217, 336, 280
-0.971944, 177, 137, 240, 200
-0.972102, 297, 145, 360, 208
-0.972342, 105, 153, 168, 216
-0.97241, 401, 81, 464, 208
-0.972572, 329, 217, 392, 280
-0.972652, 361, 209, 424, 272
-0.972916, 9, 177, 72, 304
-0.973037, 433, 193, 496, 312
-0.973042, 393, 129, 456, 256
-0.973184, 209, 33, 272, 160
-0.973325, 233, 161, 296, 224
-0.973397, 9, 161, 72, 224
-0.973407, 101, 193, 132, 256
-0.973437, 281, 73, 344, 136
-0.973585, 305, 17, 368, 144
-0.973901, 41, 97, 104, 160
-0.973965, 113, 225, 144, 288
-0.974015, 105, 25, 168, 88
-0.974073, 345, 41, 408, 104
-0.974121, 225, 209, 288, 272
-0.974259, 65, 153, 192, 216
-0.974505, 305, 41, 432, 104
-0.974534, 329, 193, 392, 256
-0.974791, 361, 185, 424, 248
-0.974904, 257, 33, 320, 160
-0.974955, 85, 129, 116, 256
-0.97498, 185, 1, 248, 256
-0.975008, 401, 73, 464, 136
-0.975053, 65, 209, 192, 272
-0.975187, 361, 65, 424, 128
-0.97537, 113, 97, 176, 224
-0.975505, 81, 145, 144, 208
-0.975563, 401, 1, 464, 256
-0.975581, 89, 249, 152, 312
-0.975633, 433, 233, 496, 296
-0.975715, 105, 193, 136, 312
-0.975823, 305, 193, 368, 312
-0.975833, 273, 33, 336, 288
-0.975855, 209, 41, 336, 104
-0.975977, 1, 49, 128, 176
-0.976062, 273, 161, 336, 224
-0.976065, 41, 81, 104, 208
-0.976069, 317, 217, 348, 280
-0.97621, 193, 177, 256, 304
-0.976229, 361, 137, 424, 200
-0.976312, 425, 33, 488, 96
-0.976315, 313, 25, 376, 88
-0.97634, 225, 185, 288, 248
-0.976345, 385, 193, 448, 312
-0.976347, 425, 73, 488, 136
-0.976455, 161, 41, 288, 104
-0.976511, 73, 17, 136, 80
-0.976984, 337, 49, 400, 176
-0.977237, 145, 169, 272, 232
-0.977261, 153, 145, 216, 208
-0.977409, 305, 65, 368, 312
-0.977449, 65, 233, 192, 296
-0.97753, 337, 217, 368, 280
-0.977684, 329, 145, 392, 272
-0.977791, 353, 65, 480, 128
-0.977791, 73, 65, 136, 312
-0.977827, 73, 177, 104, 304
-0.977896, 273, 113, 336, 176
-0.977907, 297, 169, 360, 232
-0.977914, 337, 249, 400, 312
-0.97796, 1, 177, 128, 240
-0.978095, 209, 209, 336, 272
-0.978126, 225, 33, 288, 288
-0.978128, 265, 185, 296, 248
-0.978144, 49, 153, 112, 216
-0.978317, 389, 161, 420, 288
-0.978386, 337, 177, 368, 304
-0.978474, 313, 121, 376, 184
-0.978485, 225, 73, 352, 136
-0.978513, 85, 193, 116, 256
-0.97857, 385, 129, 448, 192
-0.97865, 145, 169, 208, 232
-0.978698, 301, 209, 332, 272
-0.978699, 201, 169, 264, 232
-0.97872, 305, 161, 432, 224
-0.978734, 65, 185, 192, 248
-0.97875, 265, 129, 328, 256
-0.978882, 85, 169, 116, 232
-0.978886, 273, 1, 400, 128
-0.978951, 329, 169, 392, 232
-0.978993, 289, 25, 352, 88
-0.979089, 393, 225, 456, 288
-0.97911, 57, 201, 120, 264
-0.97921, 17, 105, 80, 168
-0.979228, 305, 49, 368, 112
-0.979269, 305, 105, 432, 168
-0.979292, 321, 241, 448, 304
-0.979293, 137, 1, 200, 256
-0.979308, 137, 225, 200, 288
-0.979546, 389, 137, 420, 200
-0.979624, 145, 57, 208, 120
-0.979829, 161, 33, 192, 96
-0.979845, 257, 185, 384, 248
-0.979942, 241, 233, 368, 296
-0.979945, 401, 185, 464, 248
-0.980071, 93, 241, 124, 304
-0.980109, 217, 113, 280, 176
-0.980119, 321, 185, 448, 248
-0.980131, 145, 145, 272, 208
-0.980153, 65, 25, 192, 88
-0.980258, 101, 217, 132, 280
-0.980291, 389, 105, 420, 168
-0.980321, 361, 1, 424, 256
-0.980335, 409, 105, 472, 168
-0.980371, 137, 97, 200, 224
-0.980397, 113, 1, 176, 256
-0.9804, 73, 113, 104, 240
-0.980475, 389, 97, 420, 224
-0.980504, 401, 25, 464, 88
-0.98058, 241, 169, 272, 232
-0.98059, 301, 41, 332, 104
-0.980613, 241, 25, 304, 88
-0.980617, 349, 225, 380, 288
-0.980628, 289, 217, 320, 280
-0.980642, 113, 33, 240, 96
-0.980684, 305, 33, 336, 160
-0.980891, 273, 73, 400, 136
-0.980919, 105, 145, 136, 272
-0.980992, 269, 177, 300, 304
-0.981035, 245, 161, 276, 288
-0.981088, 173, 33, 204, 96
-0.981126, 249, 193, 280, 256
-0.981143, 129, 241, 160, 304
-0.981216, 349, 89, 380, 152
-0.981241, 389, 25, 420, 88
-0.981293, 213, 33, 244, 96
-0.981319, 409, 177, 472, 304
-0.981473, 385, 105, 448, 168
-0.98162, 337, 105, 400, 168
-0.981733, 133, 145, 164, 272
-0.98177, 145, 201, 208, 264
-0.981774, 185, 129, 216, 192
-0.981774, 77, 233, 108, 296
-0.981825, 289, 97, 352, 224
-0.981836, 461, 73, 492, 136
-0.981839, 269, 217, 300, 280
-0.981881, 345, 81, 376, 208
-0.981894, 209, 185, 336, 248
-0.981899, 369, 33, 496, 96
-0.981935, 365, 97, 396, 224
-0.981957, 1, 1, 128, 128
-0.982003, 113, 217, 176, 280
-0.982069, 65, 97, 128, 160
-0.982126, 185, 33, 216, 96
-0.982129, 329, 33, 392, 288
-0.982255, 1, 105, 128, 168
-0.982269, 337, 241, 368, 304
-0.982273, 105, 49, 168, 112
-0.982331, 137, 249, 200, 312
-0.982354, 325, 177, 356, 304
-0.982412, 177, 161, 240, 224
-0.982477, 369, 233, 432, 296
-0.982519, 237, 41, 268, 104
-0.982573, 337, 145, 400, 208
-0.982579, 353, 209, 480, 272
-0.982606, 225, 145, 352, 208
-0.98261, 177, 97, 240, 160
-0.982642, 161, 1, 224, 256
-0.982659, 137, 9, 200, 72
-0.982683, 249, 65, 312, 312
-0.982723, 433, 33, 496, 160
-0.982743, 201, 33, 232, 96
-0.98278, 1, 249, 64, 312
-0.982845, 273, 1, 336, 312
-0.982871, 17, 225, 144, 288
-0.982904, 169, 57, 232, 120
-0.982926, 209, 113, 336, 176
-0.982956, 49, 129, 112, 192
-0.983035, 401, 225, 432, 288
-0.983078, 325, 81, 356, 208
-0.98308, 433, 33, 464, 160
-0.9831, 121, 25, 152, 88
-0.983102, 145, 65, 272, 128
-0.983108, 361, 201, 392, 264
-0.983115, 129, 193, 256, 256
-0.983226, 201, 193, 264, 256
-0.983251, 73, 137, 104, 200
-0.983261, 61, 97, 92, 224
-0.983273, 225, 169, 256, 232
-0.983308, 113, 249, 240, 312
-0.983377, 41, 65, 104, 312
-0.983385, 89, 1, 152, 312
-0.983394, 117, 145, 148, 272
-0.983397, 249, 241, 312, 304
-0.983456, 141, 153, 172, 216
-0.983547, 289, 41, 320, 104
-0.983743, 305, 137, 432, 200
-0.983753, 81, 57, 208, 120
-0.983819, 217, 1, 280, 312
-0.983822, 193, 65, 256, 128
-0.983845, 169, 81, 232, 208
-0.983869, 81, 73, 144, 136
-0.983923, 257, 49, 384, 112
-0.984003, 257, 177, 288, 304
-0.984011, 433, 97, 496, 160
-0.98404, 301, 137, 332, 200
-0.984109, 137, 121, 200, 184
-0.984187, 1, 153, 128, 216
-0.984268, 65, 169, 96, 232
-0.984304, 289, 33, 320, 160
-0.984341, 193, 17, 256, 80
-0.984366, 61, 161, 92, 288
-0.984375, 401, 81, 432, 208
-0.984388, 265, 81, 296, 208
-0.984389, 369, 89, 496, 152
-0.984401, 145, 41, 176, 104
-0.984438, 429, 249, 460, 312
-0.984457, 17, 161, 48, 288
-0.984488, 321, 25, 352, 88
-0.984529, 357, 161, 388, 288
-0.984533, 301, 161, 332, 288
-0.984691, 337, 81, 368, 144
-0.984757, 109, 249, 140, 312
-0.98489, 321, 145, 352, 208
-0.984895, 129, 201, 160, 264
-0.984898, 209, 89, 272, 152
-0.984931, 81, 105, 208, 168
-0.984944, 249, 113, 312, 176
-0.984962, 1, 201, 128, 264
-0.984974, 277, 185, 308, 248
-0.98499, 41, 225, 104, 288
-0.985013, 341, 177, 372, 240
-0.985014, 129, 121, 256, 184
-0.985052, 149, 161, 180, 288
-0.985057, 245, 33, 276, 160
-0.985061, 449, 65, 480, 192
-0.985084, 177, 89, 304, 152
-0.985097, 221, 113, 252, 240
-0.985144, 65, 129, 192, 192
-0.98516, 325, 241, 356, 304
-0.985198, 161, 33, 224, 160
-0.985222, 257, 89, 320, 152
-0.985375, 209, 17, 240, 144
-0.985396, 381, 33, 412, 160
-0.985448, 297, 97, 360, 160
-0.985597, 377, 113, 408, 240
-0.985741, 81, 121, 144, 184
-0.985744, 401, 161, 464, 224
-0.985922, 249, 49, 280, 112
-0.986001, 113, 1, 176, 312
-0.986012, 89, 1, 120, 128
-0.986015, 389, 161, 420, 224
-0.986064, 425, 65, 488, 312
-0.986103, 353, 129, 480, 192
-0.986135, 65, 97, 96, 160
-0.986147, 457, 113, 488, 240
-0.986149, 401, 1, 464, 312
-0.98615, 201, 137, 264, 200
-0.986172, 201, 137, 232, 200
-0.9862, 9, 193, 72, 256
-0.98628, 413, 241, 444, 304
-0.986281, 221, 161, 252, 288
-0.986369, 249, 137, 312, 200
-0.986457, 401, 105, 432, 168
-0.986471, 233, 81, 264, 208
-0.98652, 301, 113, 332, 176
-0.986561, 225, 17, 352, 80
-0.986629, 281, 241, 344, 304
-0.986656, 137, 1, 200, 128
-0.986676, 413, 217, 444, 280
-0.986682, 389, 201, 420, 264
-0.986696, 465, 193, 496, 312
-0.986704, 193, 241, 320, 304
-0.986721, 125, 193, 156, 312
-0.986802, 453, 17, 484, 144
-0.986856, 93, 81, 124, 208
-0.986925, 369, 241, 496, 304
-0.986952, 313, 161, 344, 288
-0.986962, 113, 225, 240, 288
-0.987044, 249, 1, 312, 312
-0.98708, 49, 81, 176, 144
-0.987142, 177, 1, 240, 312
-0.987154, 61, 145, 92, 208
-0.98717, 289, 161, 320, 288
-0.987174, 137, 97, 168, 224
-0.987213, 145, 1, 208, 312
-0.987223, 225, 41, 256, 104
-0.987261, 169, 145, 200, 208
-0.987304, 133, 33, 164, 96
-0.987305, 205, 113, 236, 240
-0.987314, 373, 225, 404, 288
-0.987331, 245, 81, 276, 144
-0.987333, 437, 41, 468, 104
-0.987378, 265, 81, 296, 144
-0.987419, 361, 1, 424, 312
-0.987484, 325, 81, 356, 144
-0.987617, 229, 97, 260, 160
-0.987675, 33, 33, 96, 160
-0.987703, 181, 249, 212, 312
-0.987731, 369, 105, 400, 168
-0.987741, 17, 129, 144, 192
-0.987751, 121, 17, 152, 144
-0.987783, 441, 81, 472, 144
-0.98786, 49, 73, 112, 136
-0.987863, 113, 201, 144, 264
-0.987911, 273, 17, 400, 80
-0.987912, 409, 129, 440, 256
-0.987974, 281, 241, 312, 304
-0.988027, 141, 33, 172, 160
-0.988064, 17, 249, 144, 312
-0.988077, 453, 97, 484, 160
-0.988099, 161, 17, 288, 80
-0.988104, 425, 33, 456, 96
-0.988107, 137, 81, 200, 144
-0.988116, 277, 49, 308, 112
-0.988136, 349, 201, 380, 264
-0.988137, 377, 33, 408, 96
-0.988166, 289, 153, 320, 216
-0.988213, 277, 49, 308, 176
-0.988235, 281, 193, 344, 256
-0.98824, 225, 65, 288, 128
-0.988334, 73, 65, 104, 192
-0.988387, 297, 1, 360, 312
-0.988461, 85, 145, 116, 208
-0.988463, 433, 177, 496, 240
-0.988464, 57, 1, 120, 128
-0.988526, 289, 185, 320, 248
-0.988598, 329, 1, 392, 312
-0.988665, 65, 1, 128, 312
-0.9887, 449, 33, 480, 96
-0.988704, 401, 33, 432, 96
-0.988715, 129, 145, 192, 208
-0.988722, 433, 209, 496, 272
-0.988742, 245, 113, 276, 240
-0.988818, 233, 193, 264, 312
-0.988859, 401, 193, 432, 312
-0.988882, 461, 65, 492, 192
-0.988907, 325, 193, 356, 256
-0.988979, 81, 229, 144, 260
-0.989053, 293, 241, 324, 304
-0.98908, 353, 153, 480, 216
-0.989104, 153, 177, 184, 240
-0.989115, 173, 57, 204, 120
-0.989169, 345, 153, 376, 216
-0.989253, 329, 169, 360, 232
-0.989329, 465, 241, 496, 304
-0.989351, 425, 1, 488, 312
-0.989374, 225, 189, 288, 220
-0.989378, 249, 209, 312, 272
-0.989405, 313, 213, 376, 244
-0.989457, 257, 33, 288, 160
-0.989473, 105, 209, 168, 240
-0.98949, 281, 49, 344, 80
-0.989525, 141, 225, 172, 288
-0.989542, 105, 237, 168, 268
-0.989548, 137, 193, 168, 312
-0.98961, 197, 49, 228, 176
-0.98963, 273, 233, 336, 264
-0.989637, 277, 97, 308, 160
-0.989674, 321, 17, 352, 144
-0.989686, 185, 249, 248, 312
-0.989712, 253, 169, 284, 232
-0.989744, 265, 161, 296, 224
-0.989745, 361, 241, 392, 304
-0.989747, 401, 249, 432, 312
-0.989761, 161, 9, 224, 72
-0.989805, 309, 73, 340, 136
-0.989921, 401, 49, 464, 80
-0.989923, 101, 137, 132, 200
-0.989927, 129, 89, 256, 152
-0.989936, 49, 101, 112, 132
-0.989974, 1, 225, 64, 288
-0.989999, 281, 217, 344, 248
-0.990009, 233, 89, 296, 120
-0.99004, 73, 193, 104, 256
-0.990072, 377, 33, 440, 64
-0.990075, 401, 129, 432, 192
-0.990082, 41, 185, 104, 216
-0.990084, 73, 197, 136, 228
-0.990089, 465, 97, 496, 160
-0.990188, 217, 121, 248, 184
-0.99021, 65, 41, 128, 104
-0.99024, 257, 121, 384, 184
-0.990259, 449, 193, 480, 312
-0.990273, 105, 281, 168, 312
-0.990277, 161, 57, 224, 88
-0.990305, 81, 241, 144, 272
-0.990311, 233, 33, 264, 160
-0.990318, 241, 201, 304, 232
-0.990326, 305, 33, 368, 64
-0.99035, 345, 33, 376, 160
-0.990358, 89, 265, 152, 296
-0.990379, 89, 97, 152, 160
-0.990381, 81, 217, 144, 248
-0.990384, 249, 53, 312, 84
-0.990454, 105, 189, 168, 220
-0.990456, 273, 145, 336, 176
-0.99046, 105, 225, 168, 256
-0.990471, 257, 185, 320, 216
-0.990481, 361, 205, 424, 236
-0.990488, 9, 113, 72, 144
-0.990511, 341, 49, 372, 112
-0.990516, 169, 141, 232, 172
-0.990552, 113, 169, 144, 232
-0.990557, 65, 201, 320, 264
-0.990576, 217, 45, 280, 76
-0.990588, 305, 233, 336, 296
-0.990591, 65, 265, 128, 296
-0.990622, 401, 37, 464, 68
-0.990626, 373, 145, 404, 208
-0.99064, 413, 33, 444, 96
-0.99064, 17, 169, 48, 232
-0.990649, 137, 41, 200, 72
-0.990735, 385, 113, 448, 144
-0.990764, 361, 217, 424, 248
-0.990792, 309, 97, 340, 224
-0.990817, 221, 33, 252, 160
-0.99089, 121, 53, 184, 84
-0.990891, 65, 177, 320, 240
-0.990911, 297, 165, 360, 196
-0.990942, 1, 81, 128, 144
-0.99096, 161, 37, 224, 68
-0.990963, 217, 17, 280, 80
-0.991018, 169, 269, 232, 300
-0.991029, 373, 193, 404, 312
-0.991048, 281, 97, 312, 224
-0.991057, 361, 165, 424, 196
-0.99106, 337, 9, 400, 72
-0.991061, 465, 177, 496, 240
-0.991068, 161, 145, 192, 272
-0.99107, 281, 61, 344, 92
-0.991078, 249, 233, 312, 264
-0.991081, 397, 17, 428, 144
-0.991082, 329, 233, 392, 264
-0.991104, 177, 153, 240, 184
-0.991112, 109, 17, 140, 80
-0.991121, 109, 57, 140, 120
-0.991123, 9, 173, 72, 204
-0.991127, 321, 93, 384, 124
-0.991128, 297, 141, 360, 172
-0.991138, 25, 101, 88, 132
-0.991149, 169, 17, 200, 144
-0.991151, 369, 233, 432, 264
-0.99116, 105, 65, 136, 192
-0.99117, 361, 113, 424, 144
-0.991174, 449, 57, 480, 120
-0.991179, 349, 249, 380, 312
-0.99118, 89, 253, 152, 284
-0.991204, 297, 153, 360, 184
-0.991206, 409, 117, 472, 148
-0.99122, 341, 121, 372, 184
-0.991226, 57, 245, 120, 276
-0.991234, 169, 281, 232, 312
-0.991242, 217, 177, 280, 208
-0.991264, 213, 185, 244, 248
-0.991273, 425, 105, 488, 136
-0.991273, 401, 61, 464, 92
-0.991285, 73, 185, 136, 216
-0.99129, 257, 217, 320, 248
-0.991297, 193, 89, 448, 152
-0.991301, 157, 153, 188, 216
-0.991306, 281, 77, 344, 108
-0.991307, 421, 17, 452, 144
-0.991312, 425, 33, 488, 64
-0.991315, 369, 185, 496, 248
-0.991335, 137, 229, 200, 260
-0.991342, 109, 17, 140, 144
-0.991347, 21, 97, 52, 224
-0.991349, 345, 41, 408, 72
-0.991362, 105, 29, 168, 60
-0.991364, 297, 233, 360, 264
-0.991364, 41, 197, 104, 228
-0.991367, 217, 201, 280, 232
-0.991372, 337, 213, 400, 244
-0.991372, 393, 249, 456, 280
-0.991374, 193, 129, 224, 256
-0.991397, 185, 37, 248, 68
-0.991414, 369, 53, 432, 84
-0.991422, 417, 253, 480, 284
-0.991433, 73, 21, 136, 52
-0.991449, 361, 185, 424, 216
-0.991452, 241, 169, 304, 200
-0.991496, 249, 245, 312, 276
-0.991498, 113, 269, 176, 300
-0.9915, 289, 177, 352, 208
-0.991505, 273, 161, 336, 192
-0.99152, 49, 97, 80, 224
-0.991523, 201, 189, 264, 220
-0.991534, 425, 53, 488, 84
-0.991542, 65, 137, 128, 168
-0.991568, 41, 173, 104, 204
-0.991576, 77, 89, 108, 152
-0.991594, 153, 33, 184, 160
-0.991594, 337, 265, 400, 296
-0.991596, 145, 281, 208, 312
-0.99162, 225, 117, 288, 148
-0.991626, 45, 97, 76, 160
-0.991647, 225, 49, 480, 112
-0.991655, 81, 93, 144, 124
-0.991663, 313, 81, 376, 112
-0.991664, 417, 265, 480, 296
-0.991671, 97, 149, 160, 180
-0.991684, 145, 145, 208, 176
-0.991686, 273, 109, 336, 140
-0.991688, 425, 69, 488, 100
-0.991715, 297, 253, 360, 284
-0.991728, 57, 225, 120, 256
-0.991729, 357, 169, 388, 232
-0.991746, 401, 1, 464, 64
-0.991752, 321, 169, 384, 200
-0.991767, 297, 125, 360, 156
-0.99178, 1, 89, 500, 152
-0.991809, 313, 45, 376, 76
-0.991812, 185, 165, 248, 196
-0.991822, 65, 173, 128, 204
-0.991823, 41, 177, 72, 304
-0.991841, 265, 197, 328, 228
-0.991852, 257, 41, 320, 72
-0.991857, 377, 133, 440, 164
-0.99186, 185, 17, 216, 144
-0.991861, 361, 85, 424, 116
-0.991863, 65, 41, 320, 104
-0.991865, 345, 53, 408, 84
-0.991866, 345, 129, 376, 256
-0.991918, 257, 125, 320, 156
-0.991923, 89, 57, 120, 120
-0.991926, 145, 177, 208, 208
-0.991957, 357, 49, 388, 176
-0.991957, 329, 201, 392, 232
-0.991967, 281, 37, 344, 68
-0.991977, 433, 81, 496, 112
-0.99198, 73, 161, 136, 192
-0.991989, 145, 265, 208, 296
-0.992002, 73, 49, 136, 80
-0.992013, 337, 245, 400, 276
-0.992013, 393, 261, 456, 292
-0.992014, 125, 145, 156, 208
-0.992022, 177, 125, 240, 156
-0.992034, 193, 273, 256, 304
-0.992035, 193, 137, 256, 168
-0.992036, 145, 189, 208, 220
-0.992051, 153, 157, 216, 188
-0.992054, 401, 229, 464, 260
-0.992058, 41, 161, 104, 192
-0.992059, 329, 113, 360, 176
-0.992063, 193, 61, 256, 92
-0.992092, 337, 157, 400, 188
-0.992094, 333, 221, 364, 252
-0.992107, 161, 249, 224, 312
-0.992131, 61, 121, 92, 184
-0.99214, 313, 57, 376, 88
-0.99215, 65, 153, 320, 216
-0.992158, 369, 245, 432, 276
-0.99216, 273, 97, 336, 128
-0.992162, 401, 73, 464, 104
-0.992166, 341, 233, 372, 264
-0.992169, 393, 201, 456, 232
-0.992169, 205, 161, 236, 224
-0.992195, 321, 221, 352, 252
-0.992219, 5, 249, 36, 312
-0.992223, 269, 229, 300, 260
-0.992225, 301, 185, 332, 248
-0.992226, 289, 229, 416, 260
-0.992234, 257, 97, 384, 160
-0.992239, 373, 201, 404, 264
-0.992248, 153, 201, 184, 264
-0.992259, 289, 237, 320, 268
-0.992281, 93, 193, 124, 224
-0.992303, 357, 229, 388, 260
-0.992338, 89, 245, 120, 276
-0.992341, 313, 233, 344, 264
-0.992348, 181, 81, 212, 208
-0.99245, 117, 269, 148, 300
-0.992453, 249, 193, 280, 224
-0.992462, 293, 213, 324, 244
-0.992464, 1, 233, 256, 296
-0.992473, 301, 233, 332, 264
-0.992515, 109, 229, 140, 260
-0.992517, 85, 225, 116, 256
-0.992563, 325, 129, 356, 256
-0.992571, 345, 213, 376, 244
-0.992573, 269, 185, 300, 216
-0.992579, 109, 281, 140, 312
-0.992592, 85, 205, 116, 236
-0.992604, 17, 65, 80, 312
-0.992623, 189, 273, 220, 304
-0.992638, 77, 97, 108, 128
-0.992642, 297, 141, 328, 172
-0.992652, 293, 45, 324, 76
-0.992653, 409, 233, 440, 264
-0.992655, 341, 217, 356, 280
-0.992663, 309, 141, 340, 172
-0.992674, 181, 137, 212, 168
-0.992681, 433, 145, 496, 272
-0.992693, 113, 9, 240, 72
-0.992696, 145, 45, 176, 76
-0.992713, 329, 209, 360, 240
-0.992725, 393, 33, 424, 64
-0.992733, 105, 217, 136, 248
-0.992734, 389, 141, 420, 172
-0.99274, 237, 189, 268, 220
-0.992742, 309, 217, 340, 248
-0.992751, 93, 269, 124, 300
-0.992757, 397, 57, 428, 88
-0.992768, 261, 197, 292, 228
-0.992769, 325, 173, 356, 204
-0.992772, 169, 53, 200, 84
-0.992789, 281, 225, 312, 256
-0.992804, 425, 253, 456, 284
-0.992805, 353, 245, 384, 276
-0.992809, 393, 113, 424, 144
-0.992811, 373, 233, 404, 264
-0.992814, 365, 213, 396, 244
-0.99282, 157, 37, 188, 68
-0.992829, 97, 257, 128, 288
-0.992829, 161, 217, 288, 280
-0.992834, 225, 169, 480, 232
-0.992855, 133, 281, 164, 312
-0.992856, 249, 205, 280, 236
-0.992862, 277, 213, 308, 244
-0.992862, 457, 85, 488, 116
-0.992863, 325, 233, 356, 264
-0.992875, 65, 177, 96, 208
-0.992878, 405, 37, 436, 68
-0.992878, 417, 45, 448, 76
-0.992878, 385, 165, 416, 196
-0.992883, 225, 209, 480, 272
-0.992895, 129, 225, 160, 256
-0.9929, 245, 49, 276, 80
-0.99291, 85, 173, 116, 204
-0.992915, 73, 137, 104, 168
-0.992915, 17, 113, 48, 144
-0.992925, 217, 41, 248, 72
-0.992927, 429, 53, 460, 84
-0.992932, 197, 141, 228, 172
-0.992936, 369, 9, 496, 72
-0.992938, 341, 245, 372, 276
-0.992941, 69, 233, 100, 264
-0.992945, 1, 161, 500, 224
-0.992948, 125, 97, 156, 224
-0.99295, 277, 241, 308, 272
-0.992952, 105, 269, 136, 300
-0.992959, 221, 173, 252, 204
-0.992962, 1, 117, 32, 148
-0.992969, 437, 265, 468, 296
-0.992977, 321, 157, 352, 188
-0.992979, 429, 37, 460, 68
-0.992979, 97, 205, 128, 236
-0.99298, 425, 153, 488, 216
-0.992982, 77, 257, 108, 288
-0.992984, 257, 237, 288, 268
-0.992992, 113, 105, 176, 168
-0.992995, 133, 37, 164, 68
-0.992996, 317, 33, 348, 64
-0.992997, 453, 73, 484, 104
-0.993004, 337, 173, 368, 204
-0.993006, 181, 57, 212, 88
-0.993009, 61, 141, 92, 172
-0.993009, 253, 177, 284, 208
-0.99301, 409, 57, 440, 88
-0.99301, 169, 37, 200, 68
-0.993019, 29, 109, 60, 140
-0.99302, 345, 89, 376, 120
-0.993021, 413, 245, 444, 276
-0.993025, 393, 229, 424, 260
-0.993026, 65, 161, 96, 192
-0.993027, 201, 153, 232, 184
-0.993029, 389, 153, 420, 184
-0.993031, 409, 221, 440, 252
-0.993031, 129, 249, 160, 280
-0.993034, 345, 265, 376, 296
-0.993036, 313, 245, 344, 276
-0.993036, 401, 249, 432, 280
-0.993039, 53, 97, 84, 128
-0.993041, 233, 45, 264, 76
-0.993046, 41, 105, 72, 136
-0.99305, 297, 81, 328, 208
-0.993052, 181, 261, 212, 292
-0.993052, 325, 249, 356, 280
-0.993054, 417, 113, 448, 144
-0.993055, 109, 257, 140, 288
-0.993064, 189, 37, 220, 68
-0.993069, 97, 233, 128, 264
-0.993082, 81, 185, 112, 216
-0.993089, 73, 245, 104, 276
-0.99309, 393, 129, 424, 160
-0.99309, 157, 185, 188, 216
-0.993091, 377, 37, 408, 68
-0.993094, 185, 149, 216, 180
-0.993096, 309, 153, 340, 184
-0.993101, 281, 181, 312, 212
-0.993102, 25, 137, 88, 200
-0.993104, 357, 201, 388, 232
-0.993106, 305, 49, 336, 80
-0.993108, 389, 213, 420, 244
-0.993108, 425, 241, 456, 272
-0.993112, 209, 57, 240, 88
-0.99312, 65, 225, 192, 256
-0.99313, 265, 89, 296, 120
-0.993131, 113, 201, 144, 232
-0.993132, 273, 197, 304, 228
-0.993133, 265, 217, 296, 248
-0.993147, 297, 129, 328, 160
-0.993149, 133, 153, 164, 184
-0.993151, 213, 157, 244, 188
-0.993151, 201, 37, 232, 68
-0.993155, 221, 185, 252, 216
-0.993155, 257, 217, 384, 248
-0.993156, 313, 205, 344, 236
-0.993162, 73, 149, 104, 180
-0.993165, 437, 253, 468, 284
-0.993196, 33, 81, 288, 144
-0.993267, 33, 201, 96, 264
-0.993319, 257, 129, 288, 256
-0.993396, 1, 57, 128, 120
-0.993403, 17, 17, 144, 80
-0.993422, 287, 217, 302, 280
-0.993666, 469, 113, 500, 240
-0.993686, 181, 129, 212, 256
-0.993709, 305, 217, 432, 248
-0.993725, 353, 217, 368, 280
-0.993726, 333, 33, 364, 160
-0.993745, 113, 1, 176, 64
-0.993758, 149, 97, 180, 224
-0.993869, 169, 81, 200, 208
-0.993923, 97, 225, 352, 288
-0.993945, 275, 217, 290, 280
-0.994009, 105, 185, 120, 248
-0.994106, 409, 33, 440, 160
-0.994135, 265, 25, 328, 88
-0.99414, 313, 209, 328, 272
-0.994164, 277, 185, 292, 248
-0.99424, 241, 229, 368, 260
-0.994276, 267, 201, 282, 264
-0.994277, 337, 1, 400, 128
-0.994319, 299, 217, 314, 280
-0.994331, 369, 49, 400, 176
-0.994335, 29, 161, 60, 288
-0.994371, 193, 113, 448, 176
-0.994396, 321, 17, 448, 80
-0.99448, 193, 145, 448, 208
-0.99448, 225, 49, 352, 80
-0.994484, 409, 129, 472, 192
-0.994495, 97, 225, 112, 288
-0.994504, 105, 73, 168, 136
-0.99452, 93, 201, 108, 264
-0.994532, 161, 25, 416, 88
-0.994544, 1, 109, 128, 140
-0.994557, 233, 145, 264, 272
-0.994602, 1, 201, 500, 264
-0.994673, 289, 241, 416, 272
-0.99468, 353, 233, 480, 264
-0.994701, 413, 81, 444, 208
-0.994702, 289, 45, 416, 76
-0.99473, 1, 129, 500, 192
-0.994736, 269, 129, 300, 256
-0.99478, 1, 33, 500, 96
-0.994793, 65, 113, 320, 176
-0.994824, 41, 1, 104, 312
-0.99487, 99, 193, 114, 256
-0.994915, 305, 165, 432, 196
-0.99494, 161, 45, 288, 76
-0.994949, 129, 65, 384, 128
-0.994955, 65, 237, 192, 268
-0.994968, 129, 173, 256, 204
-0.995, 209, 209, 336, 240
-0.995041, 65, 173, 192, 204
-0.995057, 111, 193, 126, 256
-0.995065, 103, 217, 118, 280
-0.995083, 269, 177, 284, 240
-0.995085, 209, 65, 240, 192
-0.995098, 413, 193, 444, 312
-0.995127, 87, 201, 102, 264
-0.99515, 403, 105, 418, 168
-0.995185, 361, 225, 376, 288
-0.995211, 179, 33, 194, 96
-0.995237, 205, 177, 236, 304
-0.995243, 305, 209, 320, 272
-0.99525, 193, 241, 448, 304
-0.995284, 85, 225, 100, 288
-0.995287, 257, 81, 384, 112
-0.995292, 329, 209, 344, 272
-0.995297, 395, 129, 410, 192
-0.995305, 369, 233, 384, 296
-0.995307, 353, 37, 480, 68
-0.995343, 125, 233, 140, 296
-0.995389, 109, 249, 124, 312
-0.995415, 139, 249, 154, 312
-0.99542, 257, 177, 384, 208
-0.995426, 131, 241, 146, 304
-0.995462, 173, 33, 188, 96
-0.995466, 65, 189, 192, 220
-0.995469, 87, 169, 102, 232
-0.995471, 261, 193, 276, 256
-0.995538, 115, 217, 130, 280
-0.995561, 145, 185, 272, 216
-0.995576, 423, 225, 438, 288
-0.995594, 469, 73, 484, 136
-0.995604, 65, 213, 192, 244
-0.995606, 1, 225, 500, 288
-0.99561, 339, 169, 354, 232
-0.995614, 321, 209, 336, 272
-0.995649, 257, 25, 500, 88
-0.995682, 209, 61, 336, 92
-0.995685, 397, 25, 412, 88
-0.995705, 461, 73, 476, 136
-0.995709, 349, 241, 364, 304
-0.995711, 91, 233, 106, 296
-0.995713, 33, 97, 160, 128
-0.995718, 97, 277, 224, 308
-0.995723, 321, 113, 448, 144
-0.995732, 253, 41, 268, 104
-0.995766, 281, 209, 296, 272
-0.995789, 185, 33, 200, 96
-0.995813, 103, 241, 118, 304
-0.995817, 217, 33, 232, 96
-0.99582, 317, 49, 332, 112
-0.995833, 167, 33, 182, 96
-0.995852, 353, 221, 480, 252
-0.995853, 1, 65, 500, 128
-0.995859, 65, 161, 192, 192
-0.995865, 97, 249, 352, 312
-0.995883, 313, 233, 328, 296
-0.995912, 33, 113, 64, 240
-0.995916, 297, 41, 312, 104
-0.995927, 403, 33, 418, 96
-0.995938, 433, 249, 448, 312
-0.995941, 469, 161, 484, 224
-0.995944, 205, 33, 220, 96
-0.995958, 283, 177, 298, 240
-0.995964, 469, 97, 484, 160
-0.995981, 97, 57, 224, 88
-0.995988, 161, 57, 288, 88
-0.995989, 257, 201, 384, 232
-0.995992, 251, 169, 266, 232
-0.995993, 345, 169, 360, 232
-0.996004, 303, 121, 318, 184
-0.996005, 1, 185, 128, 216
-0.996088, 353, 85, 480, 116
-0.996092, 305, 57, 432, 88
-0.996107, 1, 233, 128, 264
-0.996115, 97, 37, 224, 68
-0.996116, 257, 189, 384, 220
-0.99613, 157, 185, 172, 248
-0.996142, 307, 41, 322, 104
-0.996147, 293, 201, 308, 264
-0.996153, 65, 201, 192, 232
-0.996159, 185, 113, 200, 176
-0.996159, 353, 205, 480, 236
-0.99617, 387, 137, 402, 200
-0.996177, 339, 81, 354, 144
-0.996178, 225, 93, 352, 124
-0.996203, 347, 193, 362, 256
-0.996254, 129, 197, 256, 228
-0.996265, 1, 169, 128, 200
-0.996269, 225, 241, 352, 272
-0.996271, 347, 81, 362, 144
-0.996275, 289, 177, 304, 240
-0.996305, 209, 193, 336, 224
-0.996308, 211, 33, 226, 96
-0.996322, 243, 185, 258, 248
-0.996327, 305, 205, 432, 236
-0.996356, 259, 49, 274, 112
-0.99636, 305, 101, 432, 132
-0.996376, 241, 37, 368, 68
-0.996379, 335, 241, 350, 304
-0.996417, 129, 153, 256, 184
-0.99643, 247, 41, 262, 104
-0.996435, 193, 181, 320, 212
-0.996438, 313, 137, 328, 200
-0.99644, 353, 89, 368, 152
-0.996465, 77, 17, 108, 144
-0.996474, 241, 165, 368, 196
-0.996475, 261, 169, 276, 232
-0.996477, 17, 1, 80, 312
-0.996486, 475, 73, 490, 136
-0.996489, 185, 137, 200, 200
-0.996489, 85, 137, 100, 200
-0.996504, 133, 25, 148, 88
-0.996504, 65, 17, 320, 80
-0.996507, 415, 217, 430, 280
-0.996512, 379, 209, 394, 272
-0.996524, 199, 33, 214, 96
-0.996543, 193, 33, 208, 96
-0.996545, 395, 105, 410, 168
-0.996556, 239, 41, 254, 104
-0.996572, 65, 1, 192, 64
-0.996572, 269, 1, 300, 128
-0.996583, 289, 49, 304, 112
-0.99659, 343, 241, 358, 304
-0.996592, 141, 33, 156, 96
-0.996592, 369, 49, 496, 80
-0.996594, 321, 181, 448, 212
-0.996602, 225, 161, 240, 224
-0.996603, 323, 145, 338, 208
-0.996607, 151, 161, 166, 224
-0.996622, 285, 241, 300, 304
-0.996623, 363, 201, 378, 264
-0.996637, 453, 49, 468, 112
-0.996637, 237, 177, 252, 240
-0.99664, 287, 229, 302, 260
-0.996643, 273, 145, 400, 176
-0.996644, 193, 129, 320, 160
-0.996665, 49, 141, 176, 172
-0.996667, 391, 25, 406, 88
-0.996667, 145, 241, 160, 304
-0.996668, 445, 41, 460, 104
-0.996671, 275, 89, 290, 152
-0.996681, 413, 33, 428, 96
-0.996687, 337, 245, 464, 276
-0.996689, 129, 225, 256, 256
-0.996691, 193, 169, 320, 200
-0.9967, 81, 93, 208, 124
-0.996709, 161, 33, 176, 96
-0.996715, 209, 109, 336, 140
-0.996719, 223, 33, 238, 96
-0.996731, 265, 225, 280, 288
-0.996736, 353, 225, 368, 256
-0.996736, 79, 169, 94, 232
-0.996742, 405, 129, 420, 192
-0.996744, 323, 73, 338, 136
-0.996745, 345, 145, 360, 208
-0.996757, 275, 233, 290, 264
-0.996758, 113, 265, 240, 296
-0.996763, 269, 81, 284, 144
-0.996764, 191, 129, 206, 192
-0.996766, 225, 149, 352, 180
-0.996771, 93, 161, 108, 224
-0.996778, 215, 129, 230, 192
-0.996783, 369, 61, 496, 92
-0.996785, 461, 97, 476, 160
-0.996805, 289, 133, 416, 164
-0.996809, 471, 233, 486, 296
-0.99681, 281, 225, 296, 256
-0.996822, 233, 41, 248, 104
-0.99684, 395, 249, 410, 312
-0.996851, 291, 217, 306, 248
-0.996863, 369, 233, 384, 264
-0.996865, 353, 165, 480, 196
-0.996869, 403, 153, 418, 216
-0.996874, 295, 153, 310, 216
-0.996875, 347, 217, 362, 280
-0.99688, 289, 33, 416, 64
-0.996885, 49, 25, 176, 56
-0.996895, 355, 241, 370, 304
-0.996901, 223, 121, 238, 184
-0.996901, 299, 233, 314, 264
-0.996903, 385, 113, 400, 176
-0.99691, 321, 65, 352, 312
-0.996912, 161, 153, 176, 216
-0.996922, 263, 81, 278, 144
-0.996929, 337, 73, 464, 104
-0.996929, 129, 141, 256, 172
-0.996939, 297, 213, 312, 244
-0.99694, 295, 177, 310, 240
-0.996941, 151, 217, 166, 280
-0.996948, 313, 233, 328, 264
-0.996954, 317, 113, 332, 176
-0.996968, 237, 89, 252, 152
-0.996981, 359, 89, 374, 152
-0.996984, 187, 249, 202, 312
-0.996987, 367, 97, 382, 160
-0.996996, 331, 213, 346, 244
-0.997007, 65, 249, 192, 280
-0.997015, 5, 177, 36, 304
-0.997018, 337, 261, 464, 292
-0.99702, 347, 217, 362, 248
-0.99704, 49, 281, 176, 312
-0.997047, 343, 229, 358, 260
-0.997048, 1, 197, 128, 228
-0.997062, 113, 281, 128, 312
-0.997079, 355, 213, 370, 244
-0.997089, 189, 1, 220, 256
-0.997091, 321, 153, 448, 184
-0.997104, 161, 89, 288, 120
-0.997105, 301, 33, 332, 288
-0.997124, 429, 193, 460, 312
-0.997125, 363, 233, 378, 264
-0.997145, 389, 1, 420, 256
-0.997156, 361, 217, 376, 248
-0.997158, 315, 217, 330, 248
-0.997165, 161, 69, 288, 100
-0.997169, 325, 221, 340, 252
-0.997174, 265, 65, 296, 312
-0.997204, 87, 225, 102, 256
-0.997211, 113, 213, 240, 244
-0.997213, 273, 113, 400, 144
-0.997222, 201, 1, 232, 256
-0.997235, 353, 193, 480, 224
-0.99724, 17, 209, 144, 240
-0.997241, 281, 213, 296, 244
-0.997248, 113, 237, 240, 268
-0.997251, 337, 217, 352, 248
-0.997254, 133, 1, 164, 256
-0.997267, 267, 193, 282, 224
-0.997269, 337, 229, 352, 260
-0.99727, 161, 117, 288, 148
-0.997271, 293, 229, 308, 260
-0.997288, 465, 17, 496, 144
-0.997313, 81, 81, 208, 112
-0.997317, 145, 33, 272, 64
-0.997324, 265, 233, 280, 264
-0.997326, 217, 1, 248, 256
-0.99734, 119, 269, 134, 300
-0.997351, 275, 221, 290, 252
-0.997359, 273, 69, 400, 100
-0.997377, 285, 241, 300, 272
-0.997382, 337, 65, 368, 312
-0.997382, 145, 101, 272, 132
-0.997386, 353, 237, 368, 268
-0.997392, 273, 189, 288, 220
-0.997397, 353, 97, 480, 128
-0.997402, 161, 1, 192, 256
-0.997423, 193, 229, 320, 260
-0.997459, 97, 65, 128, 312
-0.997463, 339, 169, 354, 200
-0.997471, 303, 217, 318, 248
-0.99749, 343, 241, 358, 272
-0.997499, 103, 193, 118, 224
-0.997503, 161, 209, 288, 240
-0.997507, 377, 1, 408, 256
-0.997517, 261, 193, 276, 224
-0.997528, 349, 65, 380, 312
-0.997544, 197, 1, 228, 128
-0.997549, 81, 69, 208, 100
-0.997555, 177, 141, 304, 172
-0.997602, 161, 281, 288, 312
-0.997647, 255, 197, 270, 228
-0.997658, 49, 269, 176, 300
-0.997661, 49, 45, 176, 76
-0.997667, 107, 261, 122, 292
-0.997673, 241, 253, 368, 284
-0.997675, 81, 105, 208, 136
-0.997682, 345, 169, 360, 200
-0.997685, 421, 233, 436, 264
-0.99769, 107, 213, 122, 244
-0.997691, 311, 141, 326, 172
-0.997705, 459, 93, 474, 124
-0.997709, 203, 273, 218, 304
-0.997713, 81, 129, 208, 160
-0.99772, 93, 241, 108, 272
-0.99772, 319, 229, 334, 260
-0.997731, 241, 65, 272, 312
-0.997742, 353, 125, 480, 156
-0.997742, 83, 237, 98, 268
-0.997743, 177, 153, 304, 184
-0.997744, 281, 33, 312, 288
-0.997746, 129, 269, 144, 300
-0.997759, 415, 225, 430, 256
-0.997761, 371, 245, 386, 276
-0.997768, 471, 89, 486, 120
-0.997772, 325, 233, 340, 264
-0.997783, 377, 233, 392, 264
-0.997786, 455, 73, 470, 104
-0.997789, 17, 257, 144, 288
-0.99779, 61, 33, 92, 160
-0.997791, 173, 1, 204, 256
-0.997797, 441, 257, 456, 288
-0.997798, 1, 221, 128, 252
-0.997805, 305, 193, 432, 224
-0.997818, 395, 129, 410, 160
-0.997818, 307, 229, 322, 260
-0.997818, 1, 245, 128, 276
-0.997823, 309, 217, 324, 248
-0.997828, 117, 1, 148, 256
-0.997828, 119, 281, 134, 312
-0.997855, 379, 213, 394, 244
-0.997863, 361, 245, 376, 276
-0.997864, 465, 73, 480, 104
-0.997866, 103, 245, 118, 276
-0.997873, 183, 145, 198, 176
-0.997879, 469, 105, 484, 136
-0.997882, 291, 241, 306, 272
-0.997885, 147, 281, 162, 312
-0.997898, 265, 205, 280, 236
-0.997908, 369, 141, 496, 172
-0.997918, 321, 209, 336, 240
-0.997926, 331, 229, 346, 260
-0.997929, 465, 85, 480, 116
-0.997933, 279, 185, 294, 216
-0.997942, 99, 257, 114, 288
-0.997947, 169, 37, 184, 68
-0.99795, 291, 49, 306, 80
-0.997957, 313, 245, 328, 276
-0.99796, 93, 93, 108, 124
-0.997961, 157, 41, 172, 72
-0.997962, 301, 141, 316, 172
-0.997969, 257, 49, 272, 80
-0.997975, 205, 57, 220, 88
-0.997976, 211, 141, 226, 172
-0.997979, 99, 229, 114, 260
-0.997987, 97, 205, 112, 236
-0.997991, 169, 53, 184, 84
-0.997997, 145, 1, 176, 256
-0.998, 385, 221, 400, 252
-0.998003, 429, 245, 444, 276
-0.998014, 439, 57, 454, 88
-0.998016, 75, 101, 90, 132
-0.998022, 397, 29, 412, 60
-0.998038, 469, 173, 484, 204
-0.998043, 135, 273, 150, 304
-0.998045, 91, 213, 106, 244
-0.99805, 225, 169, 240, 200
-0.998054, 407, 37, 422, 68
-0.998057, 407, 57, 422, 88
-0.998058, 215, 157, 230, 188
-0.998058, 1, 149, 128, 180
-0.998064, 447, 69, 462, 100
-0.998065, 413, 213, 428, 244
-0.998065, 277, 245, 292, 276
-0.99807, 117, 225, 132, 256
-0.998073, 305, 129, 320, 160
-0.998073, 125, 281, 140, 312
-0.998073, 101, 273, 116, 304
-0.998084, 323, 153, 338, 184
-0.998088, 349, 249, 364, 280
-0.998088, 147, 41, 162, 72
-0.998088, 85, 65, 116, 312
-0.998089, 229, 189, 244, 220
-0.998093, 433, 257, 448, 288
-0.998103, 241, 125, 368, 156
-0.998117, 161, 269, 288, 300
-0.998124, 63, 97, 78, 128
-0.998125, 317, 53, 332, 84
-0.998138, 449, 33, 480, 288
-0.998143, 1, 121, 128, 152
-0.998144, 75, 137, 90, 168
-0.998147, 289, 277, 416, 308
-0.998149, 163, 37, 178, 68
-0.998152, 409, 65, 440, 312
-0.998153, 243, 189, 258, 220
-0.998155, 87, 169, 102, 200
-0.998159, 267, 221, 282, 252
-0.99816, 321, 141, 336, 172
-0.998163, 413, 37, 428, 68
-0.998166, 113, 209, 128, 240
-0.998166, 373, 201, 388, 232
-0.998167, 89, 193, 104, 224
-0.99817, 271, 177, 286, 208
-0.998172, 67, 137, 82, 168
-0.99818, 161, 181, 176, 212
-0.998187, 249, 193, 264, 224
-0.998192, 229, 1, 260, 256
-0.998197, 407, 213, 422, 244
-0.998214, 77, 173, 92, 204
-0.998219, 141, 37, 156, 68
-0.998222, 297, 45, 312, 76
-0.998223, 249, 45, 264, 76
-0.998228, 419, 37, 434, 68
-0.998231, 97, 25, 224, 56
-0.998234, 253, 65, 284, 312
-0.998237, 9, 81, 40, 208
-0.99826, 193, 33, 320, 64
-0.998301, 69, 65, 100, 312
-0.998331, 353, 273, 480, 304
-0.998375, 369, 113, 496, 144
-0.998394, 1, 137, 128, 168
-0.998401, 97, 265, 128, 280
-0.998404, 105, 271, 136, 286
-0.998405, 385, 153, 416, 168
-0.998406, 457, 73, 488, 88
-0.998406, 285, 183, 316, 198
-0.998406, 221, 185, 252, 200
-0.998406, 441, 71, 472, 86
-0.998407, 429, 267, 460, 282
-0.998408, 257, 89, 288, 104
-0.998409, 321, 31, 352, 46
-0.998409, 133, 241, 164, 256
-0.99841, 213, 297, 244, 312
-0.99841, 401, 61, 432, 76
-0.99841, 429, 49, 460, 64
-0.998413, 13, 115, 44, 130
-0.998413, 101, 145, 132, 160
-0.998414, 1, 117, 32, 132
-0.998414, 309, 235, 340, 250
-0.998414, 369, 159, 400, 174
-0.998416, 141, 55, 172, 70
-0.998417, 277, 241, 308, 256
-0.998419, 93, 233, 124, 248
-0.998419, 73, 147, 104, 162
-0.998419, 397, 227, 428, 242
-0.998419, 301, 225, 332, 240
-0.99842, 389, 135, 420, 150
-0.99842, 125, 281, 156, 296
-0.99842, 421, 249, 452, 264
-0.998422, 453, 101, 484, 116
-0.998423, 401, 251, 432, 266
-0.998424, 461, 85, 492, 100
-0.998424, 337, 171, 368, 186
-0.998425, 201, 37, 232, 52
-0.998425, 197, 289, 228, 304
-0.998425, 389, 35, 420, 50
-0.998426, 325, 231, 356, 246
-0.998426, 285, 233, 316, 248
-0.998426, 377, 243, 408, 258
-0.998428, 73, 103, 104, 118
-0.998428, 457, 91, 488, 106
-0.998429, 105, 221, 136, 236
-0.99843, 69, 141, 100, 156
-0.99843, 297, 153, 328, 168
-0.998431, 341, 123, 372, 138
-0.998431, 197, 277, 228, 292
-0.998431, 65, 183, 96, 198
-0.998433, 81, 197, 112, 212
-0.998433, 93, 271, 124, 286
-0.998434, 121, 151, 152, 166
-0.998434, 357, 217, 388, 232
-0.998434, 385, 165, 416, 180
-0.998435, 409, 49, 440, 64
-0.998436, 85, 191, 116, 206
-0.998437, 237, 193, 268, 208
-0.998437, 221, 191, 252, 206
-0.998437, 85, 227, 116, 242
-0.998437, 269, 229, 300, 244
-0.998441, 221, 173, 252, 188
-0.998442, 141, 297, 172, 312
-0.998442, 265, 241, 296, 256
-0.998443, 41, 109, 72, 124
-0.998444, 309, 153, 340, 168
-0.998444, 357, 243, 388, 258
-0.998445, 105, 237, 168, 252
-0.998452, 17, 61, 144, 92
-0.998454, 85, 209, 116, 224
-0.998456, 249, 209, 280, 224
-0.998457, 137, 155, 168, 170
-0.998457, 305, 241, 336, 256
-0.998458, 297, 141, 328, 156
-0.998458, 233, 199, 264, 214
-0.998459, 225, 197, 288, 212
-0.998461, 165, 55, 196, 70
-0.998461, 201, 155, 232, 170
-0.998462, 181, 267, 212, 282
-0.998463, 129, 235, 160, 250
-0.998463, 25, 111, 56, 126
-0.998466, 53, 105, 84, 120
-0.998466, 81, 239, 144, 254
-0.998467, 313, 215, 376, 230
-0.998467, 421, 255, 452, 270
-0.998467, 185, 139, 216, 154
-0.998468, 261, 199, 292, 214
-0.998469, 133, 289, 164, 304
-0.998469, 89, 239, 120, 254
-0.998469, 409, 239, 440, 254
-0.998471, 309, 145, 340, 160
-0.998472, 73, 197, 136, 212
-0.998474, 109, 239, 140, 254
-0.998474, 269, 187, 300, 202
-0.998476, 109, 265, 140, 280
-0.99848, 269, 247, 300, 262
-0.998484, 185, 291, 216, 306
-0.998484, 273, 217, 304, 232
-0.998485, 89, 251, 120, 266
-0.998488, 249, 193, 280, 208
-0.998488, 97, 203, 128, 218
-0.998491, 101, 227, 132, 242
-0.998493, 297, 235, 328, 250
-0.998493, 333, 245, 364, 260
-0.998494, 113, 283, 144, 298
-0.998497, 81, 233, 144, 248
-0.998497, 89, 269, 152, 284
-0.998498, 197, 297, 228, 312
-0.998499, 81, 233, 112, 248
-0.9985, 249, 203, 280, 218
-0.998503, 89, 257, 120, 272
-0.998506, 73, 203, 136, 218
-0.998507, 81, 97, 112, 112
-0.998508, 281, 55, 344, 70
-0.998509, 269, 235, 300, 250
-0.99851, 81, 117, 208, 148
-0.99851, 265, 193, 296, 208
-0.998512, 185, 283, 216, 298
-0.998514, 357, 237, 388, 252
-0.998515, 25, 111, 88, 126
-0.998517, 297, 247, 328, 262
-0.998517, 105, 231, 168, 246
-0.998519, 105, 243, 168, 258
-0.998519, 225, 191, 288, 206
-0.99852, 345, 215, 376, 230
-0.998521, 103, 193, 118, 312
-0.998522, 285, 247, 316, 262
-0.998523, 109, 233, 140, 248
-0.998524, 105, 297, 136, 312
-0.998525, 281, 237, 344, 252
-0.998527, 293, 217, 324, 232
-0.998527, 105, 197, 168, 212
-0.998529, 313, 247, 344, 262
-0.998531, 81, 245, 144, 260
-0.998534, 97, 285, 160, 300
-0.998535, 353, 25, 480, 56
-0.998535, 345, 243, 376, 258
-0.998535, 293, 47, 324, 62
-0.998537, 81, 227, 144, 242
-0.998538, 97, 197, 128, 212
-0.998538, 9, 117, 72, 132
-0.998539, 401, 49, 464, 64
-0.998539, 113, 297, 176, 312
-0.998541, 309, 217, 340, 232
-0.998542, 109, 289, 140, 304
-0.998542, 325, 175, 356, 190
-0.998543, 49, 105, 112, 120
-0.998543, 265, 243, 328, 258
-0.998543, 49, 195, 112, 210
-0.998544, 89, 245, 120, 260
-0.998545, 313, 223, 344, 238
-0.998546, 289, 179, 352, 194
-0.998546, 273, 49, 336, 64
-0.998549, 409, 233, 440, 248
-0.998549, 105, 209, 168, 224
-0.998554, 293, 241, 324, 256
-0.998554, 185, 273, 216, 288
-0.998555, 145, 293, 208, 308
-0.998562, 305, 173, 368, 188
-0.998563, 41, 183, 104, 198
-0.998563, 345, 223, 376, 238
-0.998564, 177, 275, 240, 290
-0.998564, 241, 89, 304, 104
-0.998564, 41, 189, 104, 204
-0.998566, 333, 239, 364, 254
-0.998567, 385, 55, 448, 70
-0.998567, 313, 229, 344, 244
-0.998567, 105, 225, 168, 240
-0.998568, 97, 277, 160, 292
-0.998569, 89, 263, 152, 278
-0.998571, 161, 59, 224, 74
-0.998571, 273, 141, 336, 156
-0.998572, 313, 233, 376, 248
-0.998574, 89, 147, 152, 162
-0.998574, 169, 157, 232, 172
-0.998575, 281, 73, 344, 88
-0.998576, 365, 1, 396, 256
-0.998577, 105, 203, 168, 218
-0.998578, 57, 143, 120, 158
-0.998578, 385, 63, 448, 78
-0.998578, 361, 209, 424, 224
-0.998578, 325, 217, 356, 232
-0.99858, 257, 187, 320, 202
-0.99858, 121, 59, 184, 74
-0.998581, 281, 151, 344, 166
-0.998582, 153, 287, 216, 302
-0.998582, 257, 237, 320, 252
-0.998584, 177, 141, 240, 156
-0.998586, 241, 57, 304, 72
-0.998587, 65, 267, 128, 282
-0.998587, 73, 191, 136, 206
-0.998587, 233, 203, 296, 218
-0.998587, 137, 53, 200, 68
-0.998588, 105, 191, 168, 206
-0.998588, 113, 291, 176, 306
-0.998588, 313, 51, 376, 66
-0.998588, 321, 239, 352, 254
-0.99859, 425, 107, 488, 122
-0.99859, 305, 221, 368, 236
-0.998591, 81, 95, 144, 110
-0.998592, 353, 217, 416, 232
-0.998592, 185, 297, 248, 312
-0.998592, 185, 285, 248, 300
-0.998592, 325, 223, 356, 238
-0.998593, 377, 37, 440, 52
-0.998597, 225, 181, 288, 196
-0.998598, 385, 115, 448, 130
-0.9986, 401, 253, 464, 268
-0.998601, 137, 281, 200, 296
-0.998603, 313, 239, 376, 254
-0.998603, 105, 215, 168, 230
-0.998604, 281, 67, 344, 82
-0.998604, 153, 271, 216, 286
-0.998605, 161, 281, 224, 296
-0.998606, 417, 269, 480, 284
-0.998607, 377, 249, 440, 264
-0.998607, 417, 263, 480, 278
-0.998607, 249, 193, 312, 208
-0.998607, 433, 73, 496, 88
-0.998607, 49, 201, 112, 216
-0.998607, 281, 103, 344, 118
-0.998607, 361, 53, 424, 68
-0.998608, 41, 175, 104, 190
-0.998608, 289, 215, 352, 230
-0.998609, 289, 243, 352, 258
-0.998609, 369, 225, 432, 240
-0.99861, 281, 61, 344, 76
-0.99861, 217, 119, 280, 134
-0.998611, 105, 249, 168, 264
-0.998611, 265, 215, 328, 230
-0.998611, 345, 47, 408, 62
-0.998612, 337, 245, 400, 260
-0.998612, 329, 177, 392, 192
-0.998613, 1, 111, 64, 126
-0.998613, 321, 93, 384, 108
-0.998614, 273, 223, 336, 238
-0.998615, 49, 99, 112, 114
-0.998615, 233, 95, 296, 110
-0.998615, 129, 239, 192, 254
-0.998616, 129, 129, 256, 160
-0.998618, 297, 145, 360, 160
-0.998619, 297, 121, 360, 136
-0.99862, 81, 255, 144, 270
-0.99862, 65, 261, 128, 276
-0.998621, 97, 153, 160, 168
-0.998621, 321, 99, 384, 114
-0.998622, 297, 139, 360, 154
-0.998623, 117, 273, 148, 288
-0.998624, 73, 209, 136, 224
-0.998625, 225, 209, 288, 224
-0.998626, 217, 51, 280, 66
-0.998626, 57, 239, 120, 254
-0.998627, 273, 157, 336, 172
-0.998627, 177, 37, 240, 52
-0.998628, 281, 163, 344, 178
-0.998629, 361, 165, 424, 180
-0.99863, 401, 37, 464, 52
-0.998631, 297, 157, 360, 172
-0.998633, 25, 105, 88, 120
-0.998633, 273, 229, 336, 244
-0.998633, 361, 197, 424, 212
-0.998634, 209, 81, 336, 112
-0.998635, 313, 227, 376, 242
-0.998636, 337, 171, 400, 186
-0.998636, 201, 201, 264, 216
-0.998638, 353, 273, 416, 288
-0.998638, 337, 267, 400, 282
-0.998639, 353, 191, 416, 206
-0.99864, 409, 125, 472, 140
-0.99864, 249, 249, 312, 264
-0.998644, 341, 177, 356, 304
-0.998651, 177, 249, 304, 280
-0.998655, 341, 233, 372, 248
-0.998656, 305, 21, 432, 52
-0.998736, 1, 281, 128, 312
-0.998746, 57, 65, 88, 312
-0.998751, 97, 177, 112, 304
-0.998764, 369, 153, 496, 184
-0.998791, 89, 161, 104, 288
-0.998797, 33, 85, 160, 116
-0.998835, 403, 81, 418, 208
-0.998839, 305, 89, 432, 120
-0.998854, 209, 277, 336, 308
-0.998876, 437, 1, 468, 256
-0.998905, 161, 1, 416, 64
-0.998912, 241, 25, 368, 56
-0.99892, 113, 253, 240, 284
-0.998979, 85, 113, 100, 240
-0.998983, 265, 177, 280, 304
-0.998987, 177, 193, 208, 312
-0.998988, 111, 193, 126, 312
-0.999028, 273, 265, 400, 296
-0.999064, 109, 145, 124, 272
-0.999066, 1, 49, 128, 80
-0.999071, 393, 97, 408, 224
-0.999073, 347, 161, 362, 288
-0.999074, 313, 177, 328, 304
-0.999077, 375, 97, 390, 224
-0.999079, 465, 65, 480, 192
-0.999081, 311, 33, 326, 160
-0.999092, 1, 249, 500, 312
-0.999099, 469, 145, 484, 272
-0.9991, 147, 145, 162, 272
-0.999106, 271, 177, 286, 304
-0.999115, 77, 145, 92, 272
-0.99913, 41, 65, 72, 312
-0.999134, 157, 161, 172, 288
-0.999137, 365, 81, 380, 208
-0.999142, 455, 17, 470, 144
-0.999149, 403, 33, 418, 160
-0.99915, 213, 17, 228, 144
-0.99915, 319, 49, 334, 176
-0.999152, 403, 161, 418, 288
-0.999159, 225, 113, 240, 240
-0.999161, 103, 145, 118, 272
-0.999173, 83, 193, 98, 312
-0.999182, 279, 81, 294, 208
-0.999183, 381, 97, 396, 224
-0.999184, 301, 33, 316, 160
-0.999201, 443, 17, 458, 144
-0.999205, 307, 113, 322, 240
-0.999214, 117, 193, 132, 312
-0.999219, 471, 97, 486, 224
-0.999223, 329, 177, 344, 304
-0.999224, 359, 81, 374, 208
-0.999227, 1, 1, 500, 64
-0.999228, 345, 81, 360, 208
-0.999229, 259, 33, 274, 160
-0.999233, 329, 81, 344, 208
-0.999245, 95, 129, 110, 256
-0.999248, 19, 161, 34, 288
-0.999251, 297, 145, 312, 272
-0.999253, 65, 97, 80, 224
-0.999257, 73, 97, 88, 224
-0.999258, 377, 161, 392, 288
-0.999261, 361, 177, 376, 304
-0.999262, 151, 193, 166, 312
-0.999267, 287, 49, 302, 176
-0.999272, 285, 177, 300, 304
-0.999272, 335, 65, 350, 192
-0.999277, 119, 145, 134, 272
-0.99928, 143, 33, 158, 160
-0.999281, 251, 65, 266, 192
-0.999285, 187, 97, 202, 224
-0.999286, 385, 145, 400, 272
-0.999293, 243, 193, 258, 312
-0.999297, 261, 81, 276, 208
-0.999297, 459, 65, 474, 192
-0.999299, 335, 145, 350, 272
-0.999305, 249, 17, 264, 144
-0.999306, 133, 145, 148, 272
-0.999307, 215, 113, 230, 240
-0.999312, 269, 81, 284, 208
-0.999317, 251, 161, 266, 288
-0.999318, 397, 17, 412, 144
-0.999319, 449, 33, 464, 160
-0.999319, 279, 193, 294, 312
-0.999321, 125, 145, 140, 272
-0.999323, 445, 113, 476, 240
-0.999325, 241, 17, 256, 144
-0.999326, 141, 193, 156, 312
-0.999326, 409, 113, 424, 240
-0.999326, 409, 193, 424, 312
-0.99933, 155, 33, 170, 160
-0.999332, 371, 161, 386, 288
-0.999333, 355, 177, 370, 304
-0.999335, 137, 17, 152, 144
-0.99934, 353, 81, 368, 208
-0.999344, 141, 145, 156, 272
-0.999345, 323, 177, 338, 304
-0.999346, 357, 33, 372, 160
-0.999346, 243, 81, 258, 208
-0.999347, 469, 193, 484, 312
-0.999357, 437, 17, 452, 144
-0.99936, 303, 177, 318, 304
-0.999365, 101, 97, 116, 224
-0.99937, 85, 65, 100, 192
-0.999387, 95, 81, 110, 208
-0.999391, 469, 1, 500, 256
-0.999392, 241, 145, 256, 272
-0.999392, 123, 193, 138, 312
-0.999392, 293, 33, 308, 160
-0.999396, 397, 145, 412, 272
-0.9994, 297, 193, 312, 312
-0.999407, 137, 97, 152, 224
-0.999408, 231, 113, 246, 240
-0.999409, 391, 49, 406, 176
-0.99941, 85, 1, 100, 128
-0.99941, 415, 193, 430, 312
-0.999417, 473, 49, 488, 176
-0.999418, 391, 161, 406, 288
-0.999418, 351, 33, 366, 160
-0.999422, 185, 17, 200, 144
-0.999423, 295, 97, 310, 224
-0.999425, 129, 193, 144, 312
-0.999426, 413, 65, 428, 192
-0.999427, 79, 97, 94, 224
-0.99943, 319, 97, 334, 224
-0.99943, 151, 97, 166, 224
-0.999437, 263, 129, 278, 256
-0.99944, 65, 145, 80, 272
-0.999441, 237, 65, 252, 192
-0.999441, 291, 177, 306, 304
-0.999441, 71, 161, 86, 288
-0.999445, 387, 97, 402, 224
-0.999448, 329, 17, 344, 144
-0.999455, 103, 1, 118, 128
-0.999455, 131, 17, 146, 144
-0.999462, 205, 49, 220, 176
-0.999463, 113, 17, 128, 144
-0.999468, 219, 33, 234, 160
-0.999469, 25, 81, 40, 208
-0.999475, 301, 97, 316, 224
-0.99948, 479, 193, 494, 312
-0.999482, 235, 17, 250, 144
-0.999489, 265, 33, 280, 160
-0.99949, 225, 161, 240, 288
-0.999492, 163, 145, 178, 272
-0.999493, 195, 17, 210, 144
-0.999494, 107, 65, 122, 192
-0.999579, 169, 193, 232, 312
-0.999614, 267, 205, 282, 220
-0.999614, 25, 113, 40, 128
-0.999615, 187, 273, 202, 288
-0.999617, 197, 281, 212, 296
-0.999617, 93, 247, 108, 262
-0.999618, 291, 223, 306, 238
-0.999619, 19, 115, 34, 130
-0.99962, 85, 97, 100, 112
-0.999621, 277, 213, 292, 228
-0.999621, 309, 141, 324, 156
-0.999621, 79, 99, 94, 114
-0.999622, 273, 249, 288, 264
-0.999622, 201, 289, 216, 304
-0.999623, 433, 269, 448, 284
-0.999624, 423, 241, 438, 256
-0.999624, 147, 295, 162, 310
-0.999625, 397, 29, 412, 44
-0.999625, 333, 239, 348, 254
-0.999625, 369, 233, 384, 248
-0.999626, 473, 93, 488, 108
-0.999626, 203, 283, 218, 298
-0.999626, 395, 133, 410, 148
-0.999628, 345, 123, 360, 138
-0.999629, 267, 195, 282, 210
-0.99963, 207, 297, 222, 312
-0.99963, 183, 267, 198, 282
-0.999631, 313, 225, 328, 240
-0.999631, 349, 171, 364, 186
-0.999631, 337, 169, 352, 184
-0.999632, 273, 229, 288, 244
-0.999632, 413, 253, 428, 268
-0.999632, 319, 239, 334, 254
-0.999634, 303, 141, 318, 156
-0.999635, 379, 241, 394, 256
-0.999636, 431, 251, 446, 266
-0.999637, 109, 287, 124, 302
-0.999637, 93, 95, 108, 110
-0.999637, 189, 287, 204, 302
-0.999637, 303, 247, 318, 262
-0.999638, 123, 285, 138, 300
-0.999639, 111, 267, 126, 282
-0.999641, 267, 247, 282, 262
-0.999641, 67, 141, 82, 156
-0.999647, 279, 237, 294, 252
-0.999647, 267, 233, 282, 248
-0.999647, 361, 215, 376, 230
-0.999649, 335, 177, 350, 192
-0.99965, 189, 279, 204, 294
-0.999652, 305, 239, 320, 254
-0.999653, 331, 229, 346, 244
-0.999653, 437, 255, 452, 270
-0.999653, 321, 223, 336, 238
-0.999654, 303, 229, 318, 244
-0.999654, 413, 225, 428, 240
-0.999655, 107, 223, 122, 238
-0.999655, 363, 233, 378, 248
-0.999656, 271, 241, 286, 256
-0.999656, 283, 185, 298, 200
-0.999658, 441, 261, 456, 276
-0.99966, 193, 271, 208, 286
-0.99966, 131, 275, 146, 290
-0.999661, 83, 239, 98, 254
-0.999662, 113, 279, 128, 294
-0.999663, 205, 275, 220, 290
-0.999663, 29, 65, 60, 312
-0.999663, 285, 233, 300, 248
-0.999665, 147, 289, 162, 304
-0.999665, 117, 227, 132, 242
-0.999668, 117, 297, 132, 312
-0.999669, 277, 187, 292, 202
-0.999669, 463, 103, 478, 118
-0.999671, 343, 177, 358, 192
-0.999671, 121, 291, 136, 306
-0.999672, 199, 295, 214, 310
-0.999673, 291, 239, 306, 254
-0.999678, 207, 291, 222, 306
-0.999678, 255, 203, 270, 218
-0.999681, 193, 293, 208, 308
-0.999681, 421, 1, 452, 256
-0.999681, 261, 203, 276, 218
-0.999683, 353, 241, 368, 256
-0.999684, 279, 231, 294, 246
-0.999685, 315, 219, 330, 234
-0.999687, 313, 233, 328, 248
-0.99969, 361, 239, 376, 254
-0.99969, 199, 273, 214, 288
-0.999692, 295, 233, 310, 248
-0.999697, 105, 193, 120, 208
-0.999697, 261, 197, 276, 212
-0.999701, 321, 231, 336, 246
-0.999702, 361, 245, 376, 260
-0.999702, 337, 231, 352, 246
-0.999704, 345, 217, 360, 232
-0.999705, 343, 239, 358, 254
-0.999706, 343, 231, 358, 246
-0.999708, 271, 189, 286, 204
-0.99971, 87, 231, 102, 246
-0.999712, 337, 225, 352, 240
-0.999714, 343, 245, 358, 260
-0.999716, 299, 241, 314, 256
-0.999716, 469, 105, 484, 120
-0.999719, 353, 225, 368, 240
-0.999719, 287, 247, 302, 262
-0.999721, 127, 269, 142, 284
-0.999725, 331, 223, 346, 238
-0.999726, 343, 171, 358, 186
-0.999726, 415, 231, 430, 246
-0.999726, 297, 223, 312, 238
-0.999727, 307, 217, 322, 232
-0.999728, 263, 241, 278, 256
-0.999729, 347, 223, 362, 238
-0.999731, 119, 271, 134, 286
-0.999733, 355, 219, 370, 234
-0.999736, 111, 293, 126, 308
-0.999736, 337, 217, 352, 232
-0.999737, 273, 235, 288, 250
-0.999747, 285, 227, 300, 242
-0.99975, 277, 219, 292, 234
-0.999751, 115, 285, 130, 300
-0.999752, 331, 215, 346, 230
-0.999762, 367, 239, 382, 254
-0.999765, 119, 277, 134, 292
-0.999769, 287, 217, 302, 232
-0.999773, 369, 247, 384, 262
-0.999773, 351, 235, 366, 250
-0.999774, 297, 215, 312, 230
-0.999778, 357, 231, 372, 246
-0.99978, 313, 245, 328, 260
-0.999786, 277, 243, 292, 258
-0.999787, 321, 217, 336, 232
-0.999791, 311, 239, 326, 254
-0.999801, 285, 241, 300, 256
-0.999846, 257, 1, 500, 64
-1.00009, 189, 193, 220, 312
-1.00012, 17, 65, 48, 312
-1.00069, 41, 49, 72, 176
-1.00073, 433, 81, 464, 208
-1.00085, 5, 65, 36, 312
-1.00143, 365, 1, 396, 128
-1.00316, 5, 129, 36, 256
-1.00321, 21, 49, 52, 176
-1.00331, 9, 49, 72, 176
-1.00603, 165, 193, 196, 312
-1.00613, 1, 33, 32, 160
-1.00712, 421, 129, 452, 256
-1.00879, 29, 1, 60, 128
-1.00895, 13, 1, 44, 128
-1.00924, 41, 1, 72, 128
-1.00959, 433, 129, 464, 256
-1.01285, 9, 1, 72, 128
