1963
-0.351967, 1, 1, 500, 375
-0.37343, 1, 65, 500, 320
-0.494366, 161, 1, 416, 375
-0.624367, 161, 65, 416, 320
-0.632881, 33, 1, 288, 375
-0.647137, 1, 129, 256, 375
-0.655797, 257, 1, 500, 375
-0.7677, 1, 1, 256, 256
-0.817964, 257, 1, 500, 256
-0.856688, 225, 1, 352, 375
-0.868025, 209, 65, 336, 320
-0.881152, 81, 97, 208, 352
-0.883137, 1, 113, 500, 240
-0.887914, 273, 1, 400, 375
-0.892445, 33, 129, 160, 375
-0.892809, 257, 129, 500, 375
-0.89866, 129, 97, 256, 352
-0.900389, 257, 33, 384, 288
-0.90138, 1, 65, 500, 192
-0.904356, 113, 1, 240, 375
-0.907672, 305, 129, 432, 375
-0.908332, 33, 1, 160, 375
-0.910161, 1, 177, 500, 304
-0.912456, 161, 1, 288, 375
-0.917034, 321, 1, 448, 375
-0.918481, 1, 225, 500, 352
-0.921346, 161, 177, 416, 304
-0.921814, 257, 129, 384, 375
-0.922026, 1, 33, 128, 288
-0.93153, 33, 209, 288, 336
-0.934056, 1, 17, 500, 144
-0.935499, 33, 97, 288, 224
-0.936988, 161, 129, 416, 256
-0.938319, 313, 161, 376, 288
-0.938365, 305, 177, 432, 304
-0.940102, 65, 145, 320, 272
-0.940372, 305, 1, 432, 256
-0.941444, 353, 129, 480, 375
-0.94327, 161, 1, 288, 256
-0.943767, 257, 161, 500, 288
-0.944, 65, 145, 192, 272
-0.944806, 1, 49, 256, 176
-0.944883, 337, 145, 400, 272
-0.948279, 193, 81, 448, 208
-0.948669, 49, 1, 176, 256
-0.94887, 257, 1, 500, 128
-0.949393, 321, 193, 384, 256
-0.949798, 113, 1, 240, 256
-0.950825, 193, 225, 448, 352
-0.952569, 297, 217, 360, 280
-0.954399, 113, 113, 240, 240
-0.954959, 65, 225, 192, 352
-0.95551, 225, 65, 352, 192
-0.955792, 273, 225, 400, 352
-0.956122, 369, 1, 496, 375
-0.956126, 337, 161, 400, 224
-0.956318, 313, 209, 376, 336
-0.957464, 289, 1, 416, 128
-0.957668, 257, 177, 384, 304
-0.95842, 81, 225, 144, 352
-0.958707, 193, 97, 256, 224
-0.959174, 281, 193, 344, 320
-0.959296, 113, 193, 240, 320
-0.959765, 297, 193, 360, 256
-0.960251, 161, 81, 288, 208
-0.961176, 81, 297, 144, 360
-0.961828, 193, 161, 256, 288
-0.962222, 345, 201, 408, 264
-0.962365, 1, 97, 64, 224
-0.962576, 17, 161, 144, 288
-0.962617, 73, 145, 136, 272
-0.962904, 161, 113, 224, 240
-0.963053, 265, 49, 328, 176
-0.963199, 369, 33, 496, 288
-0.963249, 177, 177, 304, 304
-0.963594, 273, 241, 336, 304
-0.963883, 305, 129, 432, 256
-0.964376, 321, 217, 384, 280
-0.964482, 41, 289, 104, 352
-0.964873, 241, 65, 304, 192
-0.965064, 161, 33, 416, 160
-0.965188, 337, 193, 368, 256
-0.965411, 169, 177, 232, 304
-0.965609, 225, 225, 352, 352
-0.965652, 337, 193, 400, 320
-0.965686, 225, 129, 352, 256
-0.966106, 17, 81, 144, 208
-0.966358, 325, 185, 356, 248
-0.966571, 17, 281, 80, 344
-0.966974, 361, 177, 424, 304
-0.967497, 41, 161, 104, 288
-0.967793, 297, 17, 360, 144
-0.96799, 241, 1, 368, 128
-0.968851, 17, 209, 144, 336
-0.969348, 105, 313, 168, 375
-0.969477, 241, 81, 304, 144
-0.96955, 313, 169, 376, 232
-0.970182, 217, 81, 280, 208
-0.970756, 97, 145, 160, 272
-0.97099, 349, 201, 380, 264
-0.971137, 201, 97, 264, 160
-0.971307, 177, 129, 304, 256
-0.97191, 273, 209, 336, 272
-0.972009, 1, 49, 64, 176
-0.972055, 297, 25, 360, 88
-0.972106, 105, 241, 168, 368
-0.972195, 1, 113, 64, 176
-0.972257, 273, 49, 400, 176
-0.972355, 201, 193, 264, 256
-0.972509, 337, 161, 368, 288
-0.972665, 73, 161, 136, 224
-0.972776, 177, 225, 240, 288
-0.973133, 217, 129, 280, 256
-0.973163, 325, 177, 356, 304
-0.973513, 1, 1, 256, 128
-0.973534, 225, 193, 288, 320
-0.973886, 265, 1, 328, 128
-0.97395, 1, 17, 128, 144
-0.974267, 289, 201, 416, 264
-0.974483, 317, 217, 348, 280
-0.974518, 17, 145, 80, 272
-0.974969, 33, 97, 96, 224
-0.975048, 129, 129, 192, 256
-0.975298, 161, 185, 224, 248
-0.97555, 265, 57, 328, 120
-0.975636, 289, 49, 352, 112
-0.975707, 289, 225, 416, 288
-0.975914, 345, 97, 408, 224
-0.975939, 281, 145, 344, 272
-0.976052, 353, 177, 480, 304
-0.976254, 1, 81, 64, 144
-0.976358, 201, 169, 264, 232
-0.976483, 369, 193, 432, 256
-0.976535, 33, 153, 96, 216
-0.976585, 9, 137, 72, 200
-0.97669, 145, 209, 208, 272
-0.976884, 17, 297, 144, 360
-0.977071, 113, 137, 176, 200
-0.977108, 289, 161, 416, 224
-0.977471, 321, 129, 384, 375
-0.977669, 105, 305, 136, 368
-0.977753, 297, 241, 360, 304
-0.978103, 265, 1, 328, 64
-0.978292, 297, 241, 328, 304
-0.978411, 297, 1, 360, 64
-0.978554, 5, 33, 36, 160
-0.978652, 97, 129, 160, 375
-0.978955, 225, 201, 352, 264
-0.979163, 117, 313, 148, 375
-0.979185, 41, 177, 104, 240
-0.979207, 113, 241, 240, 368
-0.979275, 57, 225, 120, 352
-0.979587, 49, 313, 112, 375
-0.979638, 25, 129, 88, 375
-0.979733, 69, 289, 100, 352
-0.979744, 349, 145, 380, 272
-0.97984, 113, 225, 240, 288
-0.979939, 321, 225, 448, 352
-0.979942, 333, 217, 364, 280
-0.980068, 1, 57, 64, 120
-0.980234, 337, 1, 400, 128
-0.980369, 89, 297, 120, 360
-0.980487, 137, 129, 200, 192
-0.980505, 217, 233, 280, 296
-0.980552, 345, 225, 408, 288
-0.980585, 241, 217, 304, 280
-0.98062, 249, 249, 312, 312
-0.980829, 33, 241, 96, 368
-0.980856, 145, 105, 272, 168
-0.980964, 225, 17, 288, 144
-0.981038, 73, 129, 136, 375
-0.981093, 1, 65, 64, 320
-0.981234, 1, 257, 64, 320
-0.981244, 185, 97, 248, 352
-0.981284, 169, 113, 232, 176
-0.981422, 361, 145, 392, 272
-0.981562, 217, 145, 280, 208
-0.981768, 313, 177, 344, 304
-0.981935, 161, 201, 288, 264
-0.982062, 369, 129, 496, 256
-0.982165, 257, 225, 320, 352
-0.982291, 13, 65, 44, 128
-0.982533, 193, 89, 320, 152
-0.982538, 57, 265, 120, 328
-0.98257, 361, 169, 424, 232
-0.98261, 265, 17, 296, 144
-0.982619, 361, 201, 392, 264
-0.982755, 209, 241, 336, 304
-0.982825, 41, 129, 104, 192
-0.982954, 161, 33, 288, 160
-0.982959, 321, 137, 384, 200
-0.982961, 129, 209, 192, 336
-0.983035, 285, 233, 316, 296
-0.983046, 293, 57, 324, 120
-0.983148, 129, 313, 160, 375
-0.983232, 193, 257, 256, 320
-0.983272, 289, 1, 416, 64
-0.98329, 313, 113, 376, 240
-0.983302, 337, 169, 368, 232
-0.983349, 25, 105, 88, 168
-0.983372, 17, 129, 144, 192
-0.983396, 273, 57, 400, 120
-0.983463, 93, 241, 124, 368
-0.983509, 137, 97, 200, 352
-0.983548, 197, 177, 228, 304
-0.983564, 373, 201, 404, 264
-0.983617, 129, 129, 256, 192
-0.983626, 221, 249, 252, 312
-0.983662, 17, 65, 48, 192
-0.983856, 45, 289, 76, 352
-0.984059, 349, 193, 380, 320
-0.984074, 1, 49, 128, 112
-0.984104, 9, 161, 72, 224
-0.984134, 25, 281, 56, 344
-0.984235, 193, 185, 224, 248
-0.984255, 33, 161, 160, 224
-0.984256, 1, 33, 32, 96
-0.984279, 57, 289, 88, 352
-0.984297, 265, 41, 296, 104
-0.984326, 273, 1, 336, 375
-0.984412, 313, 193, 344, 256
-0.984424, 289, 169, 352, 232
-0.984429, 97, 161, 160, 224
-0.984482, 109, 241, 140, 368
-0.984505, 5, 273, 36, 336
-0.984536, 225, 65, 352, 128
-0.984572, 265, 65, 296, 192
-0.984573, 257, 25, 320, 88
-0.984614, 121, 233, 184, 296
-0.984631, 81, 273, 144, 336
-0.984644, 373, 145, 404, 272
-0.984725, 65, 225, 128, 288
-0.984777, 65, 305, 192, 368
-0.984885, 337, 201, 464, 264
-0.984915, 325, 129, 356, 256
-0.984919, 9, 97, 40, 160
-0.985124, 345, 97, 408, 352
-0.985191, 385, 145, 448, 272
-0.985204, 97, 209, 160, 272
-0.985205, 241, 177, 368, 240
-0.985227, 161, 241, 288, 368
-0.985295, 209, 65, 272, 320
-0.985396, 321, 241, 384, 304
-0.985412, 373, 161, 404, 224
-0.985426, 361, 177, 392, 240
-0.985454, 57, 177, 88, 240
-0.98546, 65, 185, 192, 248
-0.985492, 325, 161, 356, 224
-0.985516, 33, 257, 96, 320
-0.985529, 337, 25, 400, 88
-0.985553, 73, 161, 104, 288
-0.98566, 17, 1, 80, 128
-0.9857, 337, 1, 464, 128
-0.985742, 241, 65, 304, 320
-0.985928, 89, 145, 120, 272
-0.985953, 321, 1, 384, 375
-0.985965, 57, 97, 120, 224
-0.986026, 173, 201, 204, 264
-0.986046, 305, 217, 336, 280
-0.986053, 373, 193, 404, 320
-0.986117, 29, 145, 60, 208
-0.986179, 113, 201, 240, 264
-0.986194, 49, 129, 112, 375
-0.9862, 225, 81, 256, 208
-0.986308, 265, 33, 328, 288
-0.986327, 349, 161, 380, 224
-0.986383, 81, 153, 208, 216
-0.986466, 289, 33, 416, 96
-0.98652, 201, 217, 232, 280
-0.986574, 325, 225, 356, 352
-0.986597, 253, 17, 284, 144
-0.986634, 73, 169, 104, 232
-0.986779, 301, 209, 332, 336
-0.986781, 161, 65, 224, 320
-0.986833, 29, 129, 60, 256
-0.986879, 1, 1, 64, 375
-0.986922, 25, 49, 88, 176
-0.986924, 9, 225, 72, 352
-0.986964, 241, 89, 272, 152
-0.987013, 45, 161, 76, 288
-0.987151, 41, 161, 72, 224
-0.987159, 245, 65, 276, 192
-0.987194, 225, 97, 256, 160
-0.987219, 221, 161, 252, 288
-0.987328, 209, 161, 240, 288
-0.987333, 105, 289, 168, 352
-0.987351, 65, 281, 192, 344
-0.987439, 385, 169, 448, 232
-0.987476, 25, 81, 88, 144
-0.987572, 105, 145, 136, 272
-0.987711, 9, 33, 72, 96
-0.987762, 193, 49, 256, 176
-0.987772, 17, 105, 144, 168
-0.987779, 241, 49, 304, 112
-0.987824, 349, 225, 380, 288
-0.987848, 385, 145, 416, 272
-0.987872, 289, 49, 320, 176
-0.987876, 85, 169, 116, 232
-0.98789, 385, 177, 416, 240
-0.988021, 81, 225, 112, 352
-0.988025, 337, 161, 464, 224
-0.988053, 209, 1, 336, 64
-0.988074, 289, 1, 320, 128
-0.988111, 193, 209, 256, 336
-0.988126, 313, 197, 376, 228
-0.988151, 257, 81, 288, 144
-0.988168, 129, 297, 192, 360
-0.988206, 257, 249, 384, 312
-0.988211, 193, 113, 224, 240
-0.988228, 29, 81, 60, 208
-0.988292, 289, 33, 352, 288
-0.988363, 65, 97, 192, 224
-0.988373, 161, 177, 288, 240
-0.988387, 1, 185, 128, 248
-0.988405, 241, 1, 304, 375
-0.988563, 289, 1, 320, 64
-0.988667, 273, 265, 336, 328
-0.988714, 217, 217, 248, 280
-0.988741, 329, 217, 392, 248
-0.988796, 29, 97, 60, 160
-0.988827, 337, 201, 400, 232
-0.988881, 241, 129, 304, 256
-0.988964, 225, 137, 352, 200
-0.989015, 5, 81, 36, 208
-0.989067, 33, 33, 96, 288
-0.989099, 213, 97, 244, 224
-0.989134, 65, 313, 96, 375
-0.989152, 225, 121, 288, 184
-0.989159, 125, 225, 156, 352
-0.989232, 73, 185, 136, 248
-0.989371, 9, 9, 72, 72
-0.989436, 253, 17, 284, 80
-0.989499, 89, 241, 152, 304
-0.989504, 297, 225, 360, 256
-0.989554, 5, 249, 36, 312
-0.989555, 161, 65, 224, 192
-0.989599, 25, 257, 56, 320
-0.989625, 217, 73, 280, 136
-0.989652, 273, 241, 304, 304
-0.989715, 57, 161, 88, 288
-0.989755, 273, 241, 336, 272
-0.989815, 1, 233, 128, 296
-0.989821, 1, 1, 128, 64
-0.989826, 105, 153, 136, 216
-0.989826, 321, 49, 384, 176
-0.989829, 221, 185, 252, 248
-0.989871, 221, 241, 252, 368
-0.989878, 113, 65, 240, 192
-0.989897, 113, 289, 240, 352
-0.989898, 209, 249, 240, 312
-0.989912, 65, 301, 128, 332
-0.989917, 249, 177, 312, 304
-0.989927, 217, 161, 248, 224
-0.989956, 41, 201, 104, 264
-0.989966, 209, 25, 336, 88
-0.990029, 185, 1, 248, 375
-0.990129, 313, 169, 344, 232
-0.990138, 277, 1, 308, 128
-0.990164, 301, 17, 332, 144
-0.990211, 17, 121, 48, 184
-0.990258, 1, 285, 64, 316
-0.990292, 281, 145, 344, 208
-0.9903, 293, 33, 324, 96
-0.990301, 233, 129, 264, 256
-0.990324, 329, 49, 392, 112
-0.990328, 97, 317, 160, 348
-0.990375, 305, 237, 368, 268
-0.990375, 205, 169, 236, 232
-0.990465, 241, 85, 304, 116
-0.990485, 249, 105, 312, 168
-0.990491, 345, 33, 376, 96
-0.990545, 361, 193, 392, 320
-0.99055, 49, 241, 176, 304
-0.990577, 345, 1, 376, 128
-0.99058, 321, 49, 448, 176
-0.990607, 273, 17, 304, 80
-0.99061, 313, 185, 376, 216
-0.99062, 41, 293, 104, 324
-0.990634, 17, 305, 80, 368
-0.990712, 161, 241, 288, 304
-0.990755, 181, 113, 212, 240
-0.990761, 337, 113, 368, 240
-0.990762, 297, 213, 360, 244
-0.990762, 297, 45, 360, 76
-0.99078, 1, 73, 128, 136
-0.990799, 177, 161, 240, 224
-0.990812, 281, 65, 312, 128
-0.990839, 201, 213, 264, 244
-0.990863, 1, 113, 64, 144
-0.990922, 189, 225, 220, 288
-0.990943, 217, 93, 280, 124
-0.990949, 33, 209, 160, 272
-0.990957, 345, 137, 408, 200
-0.990961, 233, 193, 264, 320
-0.991027, 89, 305, 152, 336
-0.99106, 17, 265, 144, 328
-0.991061, 161, 113, 192, 240
-0.991084, 185, 225, 248, 256
-0.991085, 45, 265, 76, 328
-0.991109, 305, 265, 368, 328
-0.991117, 177, 193, 208, 320
-0.99117, 353, 165, 416, 196
-0.991177, 49, 1, 112, 375
-0.991195, 105, 193, 168, 320
-0.991197, 41, 181, 104, 212
-0.991198, 281, 65, 344, 96
-0.991202, 265, 261, 328, 292
-0.991233, 253, 57, 284, 120
-0.991235, 297, 33, 360, 64
-0.991243, 237, 209, 268, 272
-0.991291, 161, 213, 224, 244
-0.991301, 29, 121, 60, 184
-0.99131, 289, 209, 320, 336
-0.991317, 273, 209, 336, 240
-0.991322, 209, 193, 240, 256
-0.991343, 65, 137, 128, 200
-0.991346, 297, 129, 360, 375
-0.99137, 289, 253, 352, 284
-0.991377, 49, 161, 112, 192
-0.991382, 337, 185, 400, 216
-0.991413, 361, 205, 424, 236
-0.991446, 313, 225, 344, 352
-0.991461, 25, 277, 88, 308
-0.991477, 197, 105, 228, 168
-0.991488, 185, 253, 248, 284
-0.991505, 161, 209, 416, 272
-0.99151, 193, 193, 256, 224
-0.99151, 185, 109, 248, 140
-0.991513, 237, 121, 268, 184
-0.991525, 329, 161, 392, 192
-0.991531, 17, 297, 80, 328
-0.991535, 193, 73, 256, 136
-0.991538, 241, 193, 304, 256
-0.99154, 225, 249, 288, 280
-0.991572, 337, 229, 400, 260
-0.991603, 277, 65, 308, 192
-0.991623, 145, 233, 208, 296
-0.991654, 289, 193, 352, 224
-0.991679, 297, 17, 360, 48
-0.991687, 297, 5, 360, 36
-0.991688, 309, 17, 340, 80
-0.99169, 353, 217, 416, 248
-0.991696, 65, 325, 128, 356
-0.991706, 201, 121, 264, 184
-0.991729, 1, 101, 64, 132
-0.991734, 265, 81, 328, 144
-0.991741, 41, 113, 72, 240
-0.991741, 369, 193, 432, 224
-0.991757, 209, 1, 272, 375
-0.991799, 145, 225, 208, 256
-0.991807, 265, 77, 328, 108
-0.991811, 1, 25, 128, 88
-0.991821, 121, 325, 184, 356
-0.991826, 161, 121, 224, 152
-0.991838, 65, 173, 128, 204
-0.991893, 329, 137, 360, 200
-0.991908, 233, 241, 264, 304
-0.991924, 9, 161, 72, 192
-0.991932, 193, 161, 448, 224
-0.991946, 289, 181, 352, 212
-0.991967, 249, 249, 312, 280
-0.991988, 345, 201, 376, 232
-0.991998, 1, 69, 64, 100
-0.992018, 265, 37, 328, 68
-0.992023, 345, 1, 408, 375
-0.992025, 129, 313, 256, 375
-0.992037, 117, 153, 148, 216
-0.992042, 33, 309, 96, 340
-0.992048, 1, 273, 64, 304
-0.992069, 89, 333, 152, 364
-0.992098, 277, 41, 308, 104
-0.992101, 1, 129, 256, 192
-0.992101, 241, 113, 368, 176
-0.992109, 61, 153, 92, 216
-0.992111, 329, 217, 360, 248
-0.992115, 357, 217, 388, 248
-0.992135, 1, 149, 64, 180
-0.992182, 265, 21, 328, 52
-0.992188, 161, 201, 224, 232
-0.99219, 325, 241, 356, 304
-0.992194, 329, 173, 392, 204
-0.992197, 161, 185, 416, 248
-0.992204, 345, 217, 376, 248
-0.992211, 25, 125, 88, 156
-0.992213, 209, 105, 272, 136
-0.992216, 321, 205, 352, 236
-0.992226, 325, 189, 356, 220
-0.992257, 357, 205, 388, 236
-0.992258, 117, 145, 148, 272
-0.992261, 225, 213, 288, 244
-0.992265, 97, 229, 160, 260
-0.992279, 209, 261, 272, 292
-0.99228, 1, 73, 32, 136
-0.992283, 21, 17, 52, 144
-0.992284, 265, 1, 328, 32
-0.992292, 61, 225, 92, 352
-0.992293, 1, 85, 64, 116
-0.992296, 265, 177, 328, 240
-0.992311, 129, 289, 160, 352
-0.992324, 113, 337, 176, 368
-0.992339, 209, 97, 240, 160
-0.992351, 17, 57, 80, 88
-0.992368, 17, 173, 80, 204
-0.992382, 1, 137, 64, 168
-0.992383, 97, 157, 160, 188
-0.992386, 273, 221, 336, 252
-0.99242, 81, 97, 144, 224
-0.992435, 269, 73, 300, 136
-0.992481, 265, 49, 328, 80
-0.992482, 281, 245, 312, 276
-0.992484, 209, 129, 272, 160
-0.992492, 121, 141, 184, 172
-0.992497, 33, 137, 96, 168
-0.992508, 369, 129, 432, 375
-0.992519, 305, 57, 368, 88
-0.992521, 57, 229, 120, 260
-0.99253, 177, 145, 304, 208
-0.992543, 117, 289, 148, 352
-0.992547, 241, 201, 304, 232
-0.992555, 217, 161, 280, 192
-0.992567, 281, 241, 344, 368
-0.992576, 317, 229, 348, 260
-0.992583, 293, 237, 324, 268
-0.992586, 5, 277, 36, 308
-0.992607, 9, 17, 72, 48
-0.992614, 217, 201, 280, 232
-0.992619, 25, 285, 56, 316
-0.992621, 221, 253, 252, 284
-0.992632, 339, 193, 354, 256
-0.992647, 25, 109, 88, 140
-0.992654, 193, 181, 256, 212
-0.992665, 129, 321, 160, 352
-0.992667, 97, 245, 160, 276
-0.992672, 13, 41, 44, 104
-0.992673, 37, 289, 68, 320
-0.992677, 225, 237, 288, 268
-0.99268, 49, 281, 112, 312
-0.992684, 241, 65, 304, 96
-0.992691, 185, 265, 248, 296
-0.992695, 233, 145, 296, 176
-0.992705, 145, 317, 208, 348
-0.992706, 57, 313, 120, 344
-0.992714, 353, 1, 384, 64
-0.99272, 333, 201, 364, 232
-0.992722, 153, 133, 216, 164
-0.992729, 369, 205, 400, 236
-0.992731, 321, 149, 384, 180
-0.992736, 297, 165, 360, 196
-0.992748, 369, 217, 432, 280
-0.992768, 333, 237, 364, 268
-0.992784, 329, 241, 392, 272
-0.992787, 197, 225, 228, 256
-0.992793, 345, 229, 376, 260
-0.992799, 341, 1, 372, 64
-0.992801, 9, 69, 40, 100
-0.992812, 137, 213, 200, 244
-0.992818, 41, 149, 104, 180
-0.992818, 1, 261, 64, 292
-0.992827, 9, 37, 72, 68
-0.992841, 89, 169, 152, 200
-0.992848, 117, 313, 148, 344
-0.992859, 17, 113, 48, 240
-0.992866, 385, 177, 448, 208
-0.992885, 337, 45, 400, 76
-0.992887, 297, 1, 360, 375
-0.992888, 249, 85, 280, 116
-0.9929, 129, 305, 192, 336
-0.992916, 73, 297, 104, 328
-0.992924, 145, 105, 208, 168
-0.992937, 357, 229, 388, 260
-0.992946, 241, 261, 304, 292
-0.992951, 61, 181, 92, 212
-0.99296, 1, 125, 64, 156
-0.992962, 49, 293, 80, 324
-0.992971, 61, 293, 92, 324
-0.992977, 289, 209, 320, 272
-0.992983, 269, 81, 300, 112
-0.992995, 9, 109, 40, 140
-0.993005, 33, 153, 64, 184
-0.993006, 193, 169, 256, 200
-0.993008, 197, 213, 228, 244
-0.993011, 361, 193, 392, 224
-0.993013, 121, 153, 184, 184
-0.993015, 297, 149, 360, 180
-0.993021, 233, 253, 264, 284
-0.993021, 121, 241, 184, 272
-0.993022, 313, 241, 344, 272
-0.993023, 233, 97, 264, 128
-0.993032, 289, 65, 320, 96
-0.993038, 41, 169, 72, 200
-0.993038, 169, 189, 232, 220
-0.993041, 85, 173, 116, 204
-0.993045, 337, 33, 400, 64
-0.993046, 337, 345, 400, 375
-0.993052, 313, 269, 376, 300
-0.99306, 185, 121, 248, 152
-0.993061, 325, 177, 356, 208
-0.993062, 73, 177, 104, 208
-0.993063, 105, 161, 136, 192
-0.993064, 113, 293, 176, 324
-0.993067, 301, 253, 332, 284
-0.99307, 209, 257, 240, 288
-0.993079, 61, 313, 92, 344
-0.993096, 185, 237, 248, 268
-0.993097, 341, 157, 372, 188
-0.993099, 85, 301, 116, 332
-0.993103, 373, 217, 404, 248
-0.99311, 381, 165, 412, 196
-0.993112, 349, 97, 380, 224
-0.993115, 381, 197, 412, 228
-0.993115, 345, 189, 376, 220
-0.993117, 269, 249, 300, 280
-0.993117, 73, 321, 104, 352
-0.993121, 305, 221, 336, 252
-0.993123, 217, 189, 280, 220
-0.993131, 217, 241, 248, 272
-0.993133, 5, 57, 36, 88
-0.993134, 49, 305, 80, 336
-0.993143, 229, 201, 260, 232
-0.993152, 305, 137, 432, 200
-0.993154, 105, 309, 136, 340
-0.993156, 241, 133, 304, 164
-0.993164, 221, 101, 252, 132
-0.993167, 361, 181, 424, 212
-0.993168, 17, 273, 48, 304
-0.993171, 177, 57, 304, 120
-0.993172, 317, 217, 348, 248
-0.993173, 289, 1, 320, 32
-0.993176, 193, 85, 256, 116
-0.993179, 1, 1, 64, 32
-0.993185, 125, 149, 156, 180
-0.993185, 337, 49, 368, 176
-0.993187, 289, 257, 320, 288
-0.993193, 289, 197, 416, 228
-0.993194, 301, 209, 332, 240
-0.993194, 281, 77, 312, 108
-0.993195, 177, 213, 208, 244
-0.993197, 25, 81, 88, 112
-0.993203, 209, 209, 240, 240
-0.993206, 21, 97, 52, 128
-0.993208, 325, 185, 340, 248
-0.993209, 293, 29, 324, 60
-0.993217, 273, 29, 304, 60
-0.993218, 37, 301, 68, 332
-0.993221, 73, 241, 136, 272
-0.993223, 197, 113, 228, 144
-0.993224, 209, 221, 240, 252
-0.993228, 241, 225, 304, 256
-0.993235, 13, 289, 44, 320
-0.993238, 313, 345, 376, 375
-0.993239, 225, 213, 256, 244
-0.993241, 1, 45, 32, 76
-0.993249, 393, 165, 456, 196
-0.99325, 185, 233, 216, 264
-0.99325, 309, 197, 340, 228
-0.993251, 233, 185, 264, 248
-0.993261, 269, 69, 300, 100
-0.993261, 101, 333, 132, 364
-0.993262, 133, 333, 164, 364
-0.993266, 217, 193, 248, 224
-0.99327, 241, 205, 272, 236
-0.993272, 13, 81, 44, 112
-0.993272, 61, 165, 92, 196
-0.993275, 181, 121, 212, 152
-0.993285, 33, 273, 64, 304
-0.993289, 193, 193, 224, 224
-0.993289, 329, 145, 360, 176
-0.993295, 345, 37, 376, 68
-0.993307, 253, 17, 284, 48
-0.993308, 277, 261, 308, 292
-0.99331, 53, 281, 84, 312
-0.993313, 253, 29, 284, 60
-0.993317, 289, 45, 320, 76
-0.99332, 325, 165, 356, 196
-0.993321, 265, 41, 296, 72
-0.993324, 265, 17, 296, 48
-0.993325, 201, 177, 232, 208
-0.993325, 1, 193, 500, 256
-0.993327, 9, 97, 40, 128
-0.993328, 29, 121, 60, 152
-0.993329, 353, 157, 384, 188
-0.993337, 257, 73, 288, 104
-0.993342, 117, 333, 148, 364
-0.993345, 225, 157, 256, 188
-0.993345, 85, 325, 116, 356
-0.993348, 209, 105, 240, 136
-0.993352, 149, 229, 180, 260
-0.993354, 393, 185, 424, 216
-0.993361, 301, 61, 332, 92
-0.993361, 33, 233, 288, 296
-0.993366, 25, 297, 56, 328
-0.99337, 293, 13, 324, 44
-0.993374, 145, 141, 176, 172
-0.993378, 5, 261, 36, 292
-0.993381, 217, 269, 248, 300
-0.993384, 357, 1, 388, 32
-0.993385, 229, 237, 260, 268
-0.993388, 245, 145, 276, 176
-0.993391, 117, 161, 148, 192
-0.993391, 217, 257, 280, 320
-0.993392, 293, 225, 324, 256
-0.993395, 21, 141, 52, 172
-0.993396, 173, 121, 204, 184
-0.993399, 381, 185, 412, 216
-0.993402, 245, 133, 276, 164
-0.993403, 133, 241, 164, 272
-0.993408, 309, 13, 340, 44
-0.993409, 29, 109, 60, 140
-0.993414, 157, 133, 188, 164
-0.993414, 325, 261, 356, 292
-0.993461, 113, 177, 240, 240
-0.993481, 113, 1, 176, 375
-0.993549, 285, 257, 316, 320
-0.993553, 229, 153, 260, 216
-0.993558, 57, 113, 88, 240
-0.993561, 129, 65, 192, 192
-0.993565, 73, 1, 136, 375
-0.993566, 161, 241, 416, 304
-0.993578, 257, 17, 500, 80
-0.993592, 9, 241, 40, 368
-0.993605, 137, 1, 200, 375
-0.993619, 209, 209, 240, 336
-0.993622, 309, 241, 340, 304
-0.993653, 305, 129, 336, 256
-0.993664, 241, 89, 368, 152
-0.993707, 361, 225, 392, 288
-0.993822, 321, 33, 384, 288
-0.993832, 345, 193, 360, 256
-0.993837, 81, 129, 208, 192
-0.993851, 361, 153, 392, 216
-0.993936, 101, 281, 132, 344
-0.993959, 77, 313, 108, 375
-0.993965, 149, 129, 180, 256
-0.994007, 277, 209, 308, 336
-0.994013, 1, 105, 256, 168
-0.994025, 369, 137, 496, 200
-0.99404, 305, 41, 336, 104
-0.994043, 193, 265, 320, 328
-0.994048, 49, 137, 80, 200
-0.994065, 1, 129, 500, 192
-0.994087, 355, 201, 370, 264
-0.994091, 129, 73, 256, 136
-0.9941, 25, 1, 88, 375
-0.994159, 333, 201, 348, 264
-0.994166, 33, 153, 288, 216
-0.99418, 385, 153, 416, 216
-0.9942, 337, 241, 400, 368
-0.994218, 361, 225, 424, 352
-0.99422, 1, 9, 32, 72
-0.99426, 289, 233, 416, 264
-0.994296, 137, 129, 168, 256
-0.99433, 129, 121, 384, 184
-0.994397, 185, 113, 216, 176
-0.994418, 85, 233, 116, 296
-0.99444, 57, 33, 120, 288
-0.994457, 161, 97, 416, 160
-0.994462, 1, 81, 256, 144
-0.994466, 169, 89, 232, 152
-0.994491, 245, 113, 276, 240
-0.994492, 397, 169, 428, 232
-0.994513, 289, 213, 416, 244
-0.994587, 289, 97, 352, 224
-0.994591, 33, 177, 288, 240
-0.994605, 1, 153, 500, 216
-0.99464, 33, 201, 288, 264
-0.994643, 249, 129, 312, 192
-0.994686, 225, 249, 352, 280
-0.994697, 131, 313, 146, 375
-0.994698, 133, 145, 164, 208
-0.994698, 345, 1, 408, 64
-0.994701, 161, 1, 224, 375
-0.994729, 337, 241, 368, 304
-0.99477, 177, 225, 208, 288
-0.994787, 153, 129, 184, 192
-0.994819, 65, 265, 96, 328
-0.994823, 25, 73, 56, 136
-0.994855, 361, 201, 376, 264
-0.994891, 337, 113, 464, 176
-0.994914, 329, 25, 360, 88
-0.994948, 369, 97, 400, 224
-0.99496, 81, 273, 112, 336
-0.994967, 145, 209, 176, 336
-0.994976, 121, 305, 136, 368
-0.99498, 193, 65, 448, 128
-0.994998, 89, 129, 152, 192
-0.995103, 257, 185, 500, 248
-0.995105, 225, 241, 240, 304
-0.995114, 385, 97, 448, 224
-0.995136, 345, 129, 376, 192
-0.995143, 145, 225, 176, 288
-0.995159, 113, 113, 176, 176
-0.99516, 125, 241, 156, 304
-0.995215, 241, 145, 272, 208
-0.99522, 231, 225, 246, 288
-0.995222, 33, 289, 288, 352
-0.995235, 325, 225, 340, 288
-0.99524, 145, 217, 272, 248
-0.995243, 113, 233, 240, 264
-0.995264, 349, 217, 364, 280
-0.99527, 137, 313, 152, 375
-0.995289, 105, 81, 168, 208
-0.995292, 225, 209, 352, 240
-0.995308, 337, 225, 368, 352
-0.995323, 343, 217, 358, 280
-0.995341, 73, 289, 88, 352
-0.995342, 97, 241, 128, 304
-0.995347, 241, 169, 304, 232
-0.995359, 161, 193, 192, 320
-0.995375, 87, 297, 102, 360
-0.995391, 397, 145, 428, 272
-0.995398, 193, 113, 320, 176
-0.995422, 339, 169, 354, 232
-0.995425, 103, 297, 118, 360
-0.995458, 287, 241, 302, 304
-0.995477, 351, 17, 366, 80
-0.99549, 337, 225, 464, 288
-0.995508, 113, 305, 128, 368
-0.995524, 319, 217, 334, 280
-0.995528, 303, 233, 318, 296
-0.995532, 49, 317, 176, 348
-0.995545, 25, 57, 88, 120
-0.995562, 79, 289, 94, 352
-0.995563, 33, 297, 160, 328
-0.995563, 25, 33, 56, 96
-0.995607, 157, 217, 188, 280
-0.995615, 305, 185, 432, 216
-0.995626, 33, 165, 160, 196
-0.995635, 17, 145, 144, 176
-0.995647, 371, 193, 386, 256
-0.995651, 177, 137, 240, 200
-0.995651, 293, 233, 308, 296
-0.995677, 257, 217, 500, 280
-0.995679, 305, 161, 432, 192
-0.995683, 61, 289, 76, 352
-0.995715, 15, 33, 30, 96
-0.995755, 321, 113, 384, 176
-0.995768, 345, 41, 360, 104
-0.995773, 335, 225, 350, 288
-0.995773, 97, 313, 352, 375
-0.995786, 77, 113, 108, 240
-0.995797, 97, 33, 352, 96
-0.995821, 67, 289, 82, 352
-0.995841, 309, 233, 324, 296
-0.995841, 329, 161, 344, 224
-0.995854, 273, 65, 400, 96
-0.99588, 289, 5, 416, 36
-0.995895, 77, 193, 108, 256
-0.995903, 93, 297, 108, 360
-0.995955, 349, 241, 380, 368
-0.995961, 161, 265, 416, 328
-0.996003, 23, 57, 38, 120
-0.996031, 225, 229, 352, 260
-0.996033, 233, 249, 248, 312
-0.996047, 1, 265, 256, 328
-0.996058, 161, 125, 288, 156
-0.996065, 297, 121, 360, 184
-0.996065, 369, 137, 432, 200
-0.996086, 393, 145, 456, 208
-0.996117, 265, 1, 280, 64
-0.996117, 261, 257, 292, 320
-0.996125, 81, 89, 208, 152
-0.996126, 1, 81, 500, 144
-0.996144, 1, 105, 500, 168
-0.99616, 357, 1, 372, 64
-0.996171, 269, 57, 284, 120
-0.996175, 75, 177, 90, 240
-0.99618, 337, 213, 464, 244
-0.996197, 273, 217, 304, 280
-0.996254, 261, 225, 292, 288
-0.996262, 225, 261, 352, 292
-0.996265, 337, 313, 464, 375
-0.996271, 389, 161, 404, 224
-0.996288, 195, 225, 210, 288
-0.996322, 321, 1, 384, 64
-0.996328, 149, 305, 180, 368
-0.996337, 153, 161, 216, 224
-0.996351, 85, 169, 100, 232
-0.996357, 1, 313, 256, 375
-0.996374, 299, 57, 314, 120
-0.996382, 129, 153, 256, 216
-0.996383, 45, 281, 60, 344
-0.996395, 65, 333, 192, 364
-0.996415, 353, 1, 416, 256
-0.996429, 301, 177, 332, 240
-0.996442, 337, 57, 368, 120
-0.996443, 257, 241, 500, 304
-0.996458, 55, 169, 70, 232
-0.996488, 145, 201, 272, 232
-0.99649, 257, 41, 500, 104
-0.996493, 383, 193, 398, 256
-0.996512, 337, 201, 464, 232
-0.996517, 377, 193, 392, 256
-0.996517, 81, 217, 208, 248
-0.99652, 241, 193, 368, 224
-0.99652, 105, 33, 168, 288
-0.996525, 93, 145, 124, 208
-0.996539, 345, 161, 360, 224
-0.996548, 195, 193, 210, 256
-0.99655, 13, 65, 28, 128
-0.996564, 337, 129, 368, 375
-0.996574, 389, 193, 404, 256
-0.996574, 325, 65, 356, 192
-0.996604, 369, 1, 432, 375
-0.996606, 77, 145, 108, 208
-0.99661, 177, 229, 304, 260
-0.996647, 169, 225, 232, 352
-0.996659, 383, 161, 398, 224
-0.996666, 177, 113, 304, 144
-0.996668, 297, 289, 360, 352
-0.996686, 305, 173, 432, 204
-0.996719, 225, 85, 352, 116
-0.996723, 281, 241, 296, 304
-0.996726, 121, 209, 184, 272
-0.996732, 273, 245, 400, 276
-0.996735, 201, 185, 216, 248
-0.996738, 25, 273, 40, 336
-0.99674, 223, 217, 238, 280
-0.996747, 321, 65, 448, 128
-0.996748, 297, 313, 360, 375
-0.996756, 219, 249, 234, 312
-0.99676, 1, 225, 500, 288
-0.996776, 39, 281, 54, 344
-0.99678, 69, 177, 84, 240
-0.996787, 305, 17, 320, 80
-0.996793, 1, 49, 500, 112
-0.996799, 143, 313, 158, 375
-0.9968, 17, 281, 144, 312
-0.996801, 353, 177, 368, 240
-0.996825, 1, 265, 16, 328
-0.996854, 113, 241, 144, 304
-0.996861, 305, 57, 320, 120
-0.996895, 161, 1, 416, 64
-0.996896, 275, 41, 290, 104
-0.996907, 349, 129, 380, 375
-0.996917, 205, 49, 236, 176
-0.99692, 7, 265, 22, 328
-0.996924, 61, 177, 76, 240
-0.996929, 15, 265, 30, 328
-0.996937, 49, 153, 64, 216
-0.996945, 201, 217, 216, 280
-0.996953, 353, 153, 368, 216
-0.996961, 121, 185, 184, 248
-0.99699, 145, 265, 272, 328
-0.996992, 293, 57, 308, 120
-0.996997, 129, 141, 256, 172
-0.997007, 43, 153, 58, 216
-0.997009, 315, 241, 330, 304
-0.997058, 73, 217, 104, 280
-0.997063, 1, 1, 32, 256
-0.997086, 313, 81, 376, 144
-0.997089, 289, 17, 416, 48
-0.997094, 225, 181, 352, 212
-0.997096, 209, 97, 336, 128
-0.9971, 33, 273, 48, 336
-0.997105, 359, 205, 374, 236
-0.997123, 51, 281, 66, 344
-0.997136, 343, 197, 358, 228
-0.997137, 209, 1, 336, 32
-0.997141, 301, 209, 316, 272
-0.997149, 357, 217, 372, 248
-0.997158, 1, 61, 128, 92
-0.997162, 189, 201, 204, 264
-0.997168, 113, 153, 240, 184
-0.997181, 7, 9, 22, 72
-0.997181, 397, 161, 412, 224
-0.997189, 363, 217, 378, 248
-0.997189, 243, 89, 258, 152
-0.997192, 371, 205, 386, 236
-0.997195, 17, 133, 144, 164
-0.997218, 267, 81, 282, 144
-0.997219, 31, 81, 46, 144
-0.997227, 17, 89, 32, 152
-0.997232, 209, 177, 224, 240
-0.997234, 225, 265, 240, 328
-0.99724, 337, 193, 352, 224
-0.997241, 97, 317, 224, 348
-0.997243, 253, 81, 268, 144
-0.997249, 325, 129, 356, 375
-0.997251, 113, 265, 176, 328
-0.997258, 43, 129, 58, 192
-0.99726, 241, 217, 256, 280
-0.997265, 41, 225, 104, 288
-0.997272, 335, 213, 350, 244
-0.997281, 259, 81, 274, 144
-0.997285, 271, 17, 286, 80
-0.997292, 293, 33, 308, 96
-0.997294, 375, 161, 390, 224
-0.997296, 217, 217, 232, 280
-0.997303, 91, 169, 106, 232
-0.997304, 365, 177, 380, 240
-0.997305, 349, 201, 364, 232
-0.997307, 231, 201, 246, 264
-0.997308, 37, 129, 68, 375
-0.997313, 7, 73, 22, 136
-0.997318, 345, 217, 360, 248
-0.997318, 127, 289, 142, 352
-0.997319, 353, 113, 416, 176
-0.997322, 273, 313, 400, 375
-0.997328, 359, 177, 374, 240
-0.99735, 319, 193, 334, 256
-0.997363, 247, 201, 262, 264
-0.997374, 227, 249, 242, 280
-0.997384, 283, 73, 298, 136
-0.997397, 209, 49, 272, 112
-0.997401, 337, 33, 368, 288
-0.997408, 365, 205, 380, 236
-0.997409, 93, 193, 124, 320
-0.997409, 75, 313, 90, 375
-0.99741, 121, 129, 152, 192
-0.997412, 339, 65, 354, 128
-0.997423, 367, 225, 382, 288
-0.997434, 25, 113, 40, 176
-0.997451, 99, 161, 114, 224
-0.997467, 369, 189, 496, 220
-0.99747, 289, 53, 416, 84
-0.99748, 371, 217, 386, 248
-0.997484, 13, 33, 44, 288
-0.997497, 37, 145, 52, 208
-0.997502, 221, 161, 236, 224
-0.997517, 141, 325, 156, 356
-0.997519, 293, 257, 308, 320
-0.997524, 327, 189, 342, 220
-0.997525, 361, 81, 424, 144
-0.997527, 225, 137, 480, 200
-0.997528, 263, 57, 278, 120
-0.997536, 1, 177, 128, 208
-0.997539, 287, 217, 302, 280
-0.99754, 283, 249, 298, 280
-0.997543, 117, 153, 132, 216
-0.997546, 105, 161, 120, 224
-0.997547, 321, 161, 336, 224
-0.997561, 351, 217, 366, 248
-0.997564, 395, 185, 410, 248
-0.997566, 177, 189, 304, 220
-0.997566, 1, 313, 128, 344
-0.997569, 65, 229, 192, 260
-0.997594, 379, 201, 394, 232
-0.997597, 359, 153, 374, 216
-0.997611, 161, 101, 288, 132
-0.997618, 319, 265, 334, 328
-0.997624, 79, 153, 94, 216
-0.997632, 43, 289, 58, 320
-0.997633, 337, 229, 464, 260
-0.997636, 225, 149, 352, 180
-0.997657, 337, 1, 464, 64
-0.997664, 375, 217, 390, 280
-0.997669, 275, 241, 290, 304
-0.997681, 1, 49, 256, 112
-0.997689, 251, 121, 266, 184
-0.99769, 287, 41, 302, 104
-0.997691, 341, 17, 356, 80
-0.997691, 3, 273, 18, 304
-0.997695, 199, 113, 214, 176
-0.997695, 49, 129, 64, 192
-0.997696, 29, 241, 60, 368
-0.997717, 27, 281, 42, 312
-0.997722, 239, 241, 254, 304
-0.997724, 35, 285, 50, 316
-0.997725, 325, 201, 340, 232
-0.997741, 211, 209, 226, 272
-0.997746, 21, 281, 36, 312
-0.997748, 289, 29, 416, 60
-0.997749, 325, 229, 340, 260
-0.997749, 333, 233, 348, 264
-0.997754, 17, 121, 144, 152
-0.997755, 307, 237, 322, 268
-0.99776, 1, 29, 128, 60
-0.997764, 305, 249, 432, 312
-0.997767, 135, 321, 150, 352
-0.99777, 351, 37, 366, 68
-0.997784, 57, 293, 72, 324
-0.997785, 273, 265, 400, 296
-0.997788, 49, 241, 80, 368
-0.997797, 329, 213, 344, 244
-0.997806, 177, 241, 304, 272
-0.997815, 221, 253, 236, 284
-0.997824, 93, 129, 124, 375
-0.997827, 265, 209, 296, 336
-0.997838, 15, 277, 30, 308
-0.997846, 51, 289, 66, 320
-0.997856, 289, 245, 304, 276
-0.997857, 339, 225, 354, 256
-0.997864, 289, 41, 416, 72
-0.997888, 17, 269, 144, 300
-0.99789, 221, 65, 252, 320
-0.99789, 81, 305, 208, 336
-0.997897, 129, 317, 144, 348
-0.997903, 377, 217, 392, 248
-0.997904, 233, 33, 264, 160
-0.997905, 9, 273, 24, 304
-0.997932, 81, 165, 208, 196
-0.997935, 351, 229, 366, 260
-0.997952, 147, 329, 162, 360
-0.997964, 225, 53, 352, 84
-0.997964, 97, 293, 224, 324
-0.99797, 225, 65, 352, 96
-0.997972, 233, 249, 248, 280
-0.997978, 289, 273, 416, 336
-0.997981, 359, 5, 374, 36
-0.997982, 295, 245, 310, 276
-0.997982, 305, 345, 432, 375
-0.997985, 65, 49, 192, 176
-0.997985, 1, 49, 128, 80
-0.997997, 49, 241, 176, 272
-0.998026, 387, 201, 402, 232
-0.998036, 357, 229, 372, 260
-0.998056, 367, 229, 382, 260
-0.998062, 173, 97, 204, 352
-0.998071, 385, 193, 416, 320
-0.998072, 201, 217, 216, 248
-0.998073, 17, 53, 32, 84
-0.998077, 25, 65, 56, 320
-0.998087, 289, 33, 320, 288
-0.998087, 1, 25, 256, 88
-0.998089, 225, 21, 352, 52
-0.998089, 289, 281, 416, 312
-0.99809, 105, 129, 136, 375
-0.998092, 231, 237, 246, 268
-0.998096, 153, 305, 216, 368
-0.998098, 173, 65, 204, 192
-0.998103, 193, 225, 208, 256
-0.998107, 77, 181, 92, 212
-0.998109, 49, 129, 80, 375
-0.998112, 113, 329, 240, 360
-0.998116, 145, 81, 176, 208
-0.998122, 145, 253, 272, 284
-0.998124, 271, 85, 286, 116
-0.998125, 1, 73, 128, 104
-0.998142, 97, 257, 224, 320
-0.998149, 269, 17, 284, 48
-0.998164, 65, 153, 192, 184
-0.998169, 341, 237, 356, 268
-0.998182, 369, 81, 496, 208
-0.998185, 273, 65, 304, 320
-0.998187, 47, 161, 62, 192
-0.998192, 299, 65, 314, 96
-0.998198, 193, 97, 224, 352
-0.998204, 21, 65, 36, 96
-0.998216, 63, 293, 78, 324
-0.998217, 369, 97, 400, 352
-0.998218, 235, 205, 250, 236
-0.998227, 97, 73, 352, 136
-0.998227, 301, 241, 316, 272
-0.998243, 209, 161, 336, 192
-0.998248, 123, 313, 138, 344
-0.998266, 345, 49, 360, 80
-0.998268, 1, 109, 128, 140
-0.998283, 261, 85, 276, 116
-0.998283, 331, 153, 346, 184
-0.998285, 273, 289, 336, 352
-0.998285, 353, 25, 368, 56
-0.998289, 53, 173, 68, 204
-0.998292, 225, 41, 352, 72
-0.998297, 349, 1, 380, 256
-0.998299, 273, 77, 400, 108
-0.998301, 369, 177, 496, 208
-0.998301, 393, 189, 408, 220
-0.998304, 113, 129, 240, 160
-0.998311, 65, 177, 192, 208
-0.998315, 177, 85, 304, 116
-0.998315, 21, 99, 52, 114
-0.998317, 225, 163, 256, 178
-0.998317, 353, 161, 384, 176
-0.998319, 253, 39, 284, 54
-0.998319, 1, 51, 32, 66
-0.998319, 9, 109, 40, 124
-0.99832, 33, 293, 64, 308
-0.99832, 353, 9, 384, 24
-0.99832, 89, 173, 120, 188
-0.99832, 181, 235, 212, 250
-0.998322, 25, 67, 56, 82
-0.998323, 193, 235, 224, 250
-0.998323, 89, 329, 120, 344
-0.998324, 293, 33, 324, 48
-0.998324, 207, 213, 222, 244
-0.998324, 241, 151, 272, 166
-0.998326, 319, 273, 334, 304
-0.998329, 13, 83, 44, 98
-0.998329, 265, 77, 296, 92
-0.998329, 265, 49, 296, 64
-0.998329, 333, 181, 364, 196
-0.99833, 153, 141, 184, 156
-0.99833, 361, 213, 392, 228
-0.99833, 33, 155, 64, 170
-0.998331, 317, 241, 348, 256
-0.998331, 1, 229, 128, 260
-0.998331, 265, 25, 296, 40
-0.998331, 369, 233, 400, 248
-0.998332, 373, 197, 404, 212
-0.998333, 13, 77, 44, 92
-0.998333, 281, 81, 312, 96
-0.998334, 137, 335, 168, 350
-0.998334, 257, 265, 500, 328
-0.998335, 65, 201, 192, 232
-0.998337, 41, 305, 72, 320
-0.998338, 161, 265, 288, 296
-0.998338, 29, 127, 60, 142
-0.998339, 189, 121, 220, 136
-0.99834, 265, 31, 296, 46
-0.998341, 209, 261, 240, 276
-0.998341, 33, 135, 64, 150
-0.998343, 289, 3, 320, 18
-0.998343, 301, 253, 332, 268
-0.998344, 293, 39, 324, 54
-0.998345, 249, 93, 280, 108
-0.998346, 305, 61, 320, 92
-0.998347, 81, 179, 112, 194
-0.998348, 337, 197, 368, 212
-0.998349, 233, 255, 264, 270
-0.998349, 313, 187, 344, 202
-0.998349, 341, 189, 372, 204
-0.998349, 341, 159, 372, 174
-0.99835, 77, 325, 108, 340
-0.99835, 265, 39, 296, 54
-0.998351, 189, 223, 220, 238
-0.998352, 229, 215, 260, 230
-0.998353, 33, 161, 64, 176
-0.998353, 65, 319, 96, 334
-0.998353, 345, 225, 376, 240
-0.998353, 53, 181, 84, 196
-0.998354, 73, 297, 88, 328
-0.998354, 225, 101, 256, 116
-0.998354, 41, 177, 72, 192
-0.998355, 237, 95, 268, 110
-0.998355, 53, 311, 84, 326
-0.998356, 161, 135, 192, 150
-0.998358, 313, 229, 344, 244
-0.998358, 265, 263, 296, 278
-0.998358, 57, 295, 88, 310
-0.99836, 273, 69, 304, 84
-0.99836, 209, 215, 240, 230
-0.998361, 385, 199, 416, 214
-0.998362, 1, 285, 32, 300
-0.998362, 217, 267, 248, 282
-0.998363, 285, 245, 316, 260
-0.998365, 229, 205, 260, 220
-0.998366, 33, 33, 64, 160
-0.998366, 301, 213, 332, 228
-0.998367, 355, 193, 370, 224
-0.998367, 125, 321, 156, 336
-0.998367, 229, 213, 244, 244
-0.998367, 5, 57, 36, 72
-0.998368, 109, 311, 140, 326
-0.998368, 201, 117, 216, 148
-0.998369, 349, 185, 364, 216
-0.99837, 277, 263, 308, 278
-0.998371, 293, 65, 324, 80
-0.998372, 85, 301, 116, 316
-0.998372, 85, 177, 100, 208
-0.998374, 313, 247, 344, 262
-0.998375, 343, 65, 358, 96
-0.998377, 267, 1, 282, 32
-0.998378, 283, 81, 298, 112
-0.998378, 293, 259, 324, 274
-0.998378, 65, 129, 96, 375
-0.998379, 277, 85, 292, 116
-0.998381, 369, 227, 400, 242
-0.998381, 317, 221, 332, 252
-0.998381, 5, 63, 36, 78
-0.998383, 37, 171, 68, 186
-0.998386, 337, 177, 352, 208
-0.998386, 181, 229, 212, 244
-0.998387, 181, 127, 212, 142
-0.998387, 209, 225, 240, 240
-0.998388, 373, 213, 404, 228
-0.998389, 97, 305, 128, 320
-0.998389, 209, 255, 240, 270
-0.998389, 353, 13, 368, 44
-0.99839, 225, 269, 240, 300
-0.998392, 33, 299, 64, 314
-0.998393, 17, 293, 48, 308
-0.998395, 229, 249, 260, 264
-0.998395, 69, 297, 100, 312
-0.998397, 243, 93, 258, 124
-0.998399, 305, 221, 336, 236
-0.998401, 317, 235, 348, 250
-0.998404, 269, 85, 300, 100
-0.998404, 161, 97, 192, 352
-0.998404, 1, 325, 128, 356
-0.998408, 257, 87, 288, 102
-0.998409, 245, 193, 276, 320
-0.998411, 357, 199, 388, 214
-0.998411, 61, 175, 92, 190
-0.998412, 117, 129, 148, 375
-0.998413, 321, 225, 384, 240
-0.998415, 177, 69, 304, 100
-0.998416, 277, 257, 308, 272
-0.998418, 249, 89, 264, 120
-0.99843, 71, 185, 86, 216
-0.998432, 365, 219, 396, 234
-0.998435, 9, 115, 40, 130
-0.998436, 193, 237, 208, 268
-0.998437, 133, 329, 164, 344
-0.998438, 349, 209, 380, 224
-0.998439, 337, 205, 400, 220
-0.99844, 325, 199, 356, 214
-0.99844, 221, 261, 252, 276
-0.998441, 241, 137, 368, 168
-0.998442, 217, 249, 248, 264
-0.998444, 223, 213, 238, 244
-0.998445, 361, 193, 376, 224
-0.998446, 325, 187, 356, 202
-0.998448, 305, 211, 368, 226
-0.998448, 313, 241, 328, 272
-0.998448, 129, 113, 256, 144
-0.998455, 257, 1, 288, 256
-0.998459, 69, 183, 100, 198
-0.998461, 373, 203, 404, 218
-0.998462, 313, 199, 376, 214
-0.998465, 337, 239, 368, 254
-0.998466, 9, 71, 40, 86
-0.99847, 245, 201, 260, 232
-0.99847, 321, 219, 384, 234
-0.998471, 269, 33, 284, 64
-0.998471, 383, 213, 398, 244
-0.998473, 281, 251, 312, 266
-0.998473, 97, 245, 224, 276
-0.998474, 357, 235, 388, 250
-0.998474, 1, 275, 32, 290
-0.998476, 41, 295, 104, 310
-0.998477, 193, 229, 224, 244
-0.998477, 13, 69, 28, 100
-0.998479, 277, 253, 292, 284
-0.99848, 199, 229, 214, 260
-0.998482, 29, 293, 44, 324
-0.998485, 111, 161, 126, 192
-0.998486, 313, 205, 376, 220
-0.998487, 325, 269, 340, 300
-0.998489, 321, 205, 352, 220
-0.998491, 351, 1, 366, 32
-0.998495, 373, 229, 388, 260
-0.998496, 45, 293, 76, 308
-0.998497, 255, 89, 270, 120
-0.998497, 341, 231, 372, 246
-0.998498, 395, 165, 410, 196
-0.998501, 65, 313, 80, 344
-0.998504, 17, 283, 48, 298
-0.998507, 297, 241, 328, 256
-0.998508, 29, 287, 60, 302
-0.998513, 115, 309, 130, 340
-0.998514, 345, 203, 376, 218
-0.998515, 113, 97, 144, 224
-0.998515, 333, 223, 364, 238
-0.998516, 329, 211, 392, 226
-0.998517, 293, 73, 308, 104
-0.998518, 91, 173, 106, 204
-0.998523, 41, 153, 56, 184
-0.998523, 57, 301, 120, 316
-0.998524, 353, 219, 384, 234
-0.998527, 105, 327, 168, 342
-0.998527, 313, 231, 376, 246
-0.998528, 81, 141, 208, 172
-0.998529, 65, 185, 80, 216
-0.99853, 221, 255, 252, 270
-0.998532, 273, 253, 336, 268
-0.998532, 1, 97, 128, 128
-0.998537, 17, 97, 32, 128
-0.998539, 185, 227, 248, 242
-0.99854, 371, 193, 386, 224
-0.998541, 99, 169, 114, 200
-0.998546, 343, 33, 358, 64
-0.998546, 281, 245, 344, 260
-0.998547, 189, 225, 220, 352
-0.998549, 1, 1, 256, 64
-0.998552, 1, 115, 64, 130
-0.998553, 287, 65, 302, 96
-0.998555, 9, 21, 24, 52
-0.998555, 353, 337, 480, 368
-0.998555, 297, 51, 360, 66
-0.998557, 79, 297, 94, 328
-0.998559, 241, 121, 368, 152
-0.998561, 153, 225, 216, 240
-0.998563, 357, 225, 388, 240
-0.998564, 87, 297, 102, 328
-0.998564, 1, 17, 128, 48
-0.998564, 25, 289, 88, 304
-0.998566, 119, 157, 134, 188
-0.998567, 297, 223, 360, 238
-0.998567, 325, 33, 356, 288
-0.998567, 305, 239, 368, 254
-0.998567, 381, 189, 396, 220
-0.99857, 79, 321, 94, 352
-0.998574, 297, 217, 360, 232
-0.998575, 1, 287, 64, 302
-0.998579, 59, 177, 74, 208
-0.998579, 57, 177, 120, 192
-0.998579, 325, 193, 356, 208
-0.99858, 337, 231, 400, 246
-0.99858, 49, 167, 112, 182
-0.99858, 289, 229, 352, 244
-0.998581, 113, 193, 144, 320
-0.998582, 321, 217, 352, 232
-0.998582, 47, 301, 62, 332
-0.998583, 361, 207, 392, 222
-0.998583, 1, 1, 128, 32
-0.998584, 313, 193, 376, 208
-0.998588, 213, 209, 228, 240
-0.99859, 41, 183, 104, 198
-0.99859, 225, 259, 288, 274
-0.998591, 231, 261, 246, 292
-0.998591, 345, 195, 408, 210
-0.998592, 353, 157, 368, 188
-0.998592, 55, 305, 70, 336
-0.998592, 9, 285, 24, 316
-0.998593, 329, 237, 392, 252
-0.998596, 297, 57, 360, 72
-0.998597, 209, 97, 240, 352
-0.998598, 89, 321, 152, 336
-0.998598, 329, 257, 344, 288
-0.998601, 65, 307, 128, 322
-0.998603, 345, 221, 408, 236
-0.998603, 341, 215, 372, 230
-0.998604, 153, 231, 216, 246
-0.998605, 321, 211, 352, 226
-0.998605, 329, 161, 392, 176
-0.998607, 161, 219, 224, 234
-0.998608, 53, 161, 68, 192
-0.998609, 81, 315, 144, 330
-0.998609, 297, 13, 360, 28
-0.998611, 241, 89, 304, 104
-0.998612, 297, 21, 360, 36
-0.998612, 225, 99, 288, 114
-0.998614, 297, 45, 360, 60
-0.998614, 297, 27, 360, 42
-0.998615, 1, 279, 64, 294
-0.998617, 337, 209, 368, 224
-0.998619, 105, 333, 168, 348
-0.998619, 273, 259, 336, 274
-0.998621, 185, 255, 248, 270
-0.998625, 273, 217, 336, 232
-0.998627, 353, 215, 416, 230
-0.998629, 297, 35, 360, 50
-0.998629, 353, 167, 416, 182
-0.99863, 249, 253, 312, 268
-0.998632, 377, 199, 440, 214
-0.998635, 313, 187, 376, 202
-0.998637, 249, 263, 312, 278
-0.998642, 289, 195, 352, 210
-0.998643, 305, 245, 368, 260
-0.998643, 289, 187, 352, 202
-0.998645, 65, 327, 128, 342
-0.998647, 201, 215, 264, 230
-0.998647, 9, 169, 72, 184
-0.998647, 33, 175, 96, 190
-0.998647, 201, 203, 264, 218
-0.998649, 273, 223, 336, 238
-0.99865, 209, 105, 272, 120
-0.998651, 193, 117, 256, 132
-0.998651, 281, 77, 344, 92
-0.998652, 297, 7, 360, 22
-0.998653, 361, 209, 424, 224
-0.998653, 225, 253, 288, 268
-0.998653, 327, 161, 342, 288
-0.998654, 81, 333, 144, 348
-0.998655, 297, 255, 360, 270
-0.998655, 257, 83, 320, 98
-0.998656, 177, 125, 240, 140
-0.998656, 113, 339, 176, 354
-0.998656, 185, 191, 248, 206
-0.998656, 81, 175, 144, 190
-0.998657, 209, 265, 272, 280
-0.998657, 1, 293, 64, 308
-0.998658, 1, 151, 64, 166
-0.998658, 337, 189, 400, 204
-0.998659, 129, 333, 192, 348
-0.99866, 25, 135, 88, 150
-0.99866, 273, 211, 336, 226
-0.99866, 33, 315, 96, 330
-0.99866, 289, 205, 352, 220
-0.998661, 185, 197, 248, 212
-0.998662, 177, 209, 240, 224
-0.998663, 265, 41, 328, 56
-0.998665, 161, 133, 224, 148
-0.998666, 201, 209, 264, 224
-0.998666, 297, 1, 360, 16
-0.998667, 1, 121, 64, 136
-0.998668, 185, 261, 248, 276
-0.998668, 281, 65, 344, 80
-0.998668, 9, 161, 72, 176
-0.998668, 209, 111, 272, 126
-0.998668, 33, 147, 96, 162
-0.998669, 313, 1, 344, 128
-0.998669, 257, 247, 320, 262
-0.99867, 1, 109, 64, 124
-0.998671, 97, 167, 160, 182
-0.998672, 265, 35, 328, 50
-0.998672, 329, 177, 392, 192
-0.998674, 17, 65, 80, 80
-0.998674, 25, 129, 88, 144
-0.998675, 89, 241, 152, 256
-0.998677, 177, 203, 240, 218
-0.998677, 385, 191, 448, 206
-0.998677, 9, 299, 72, 314
-0.998677, 313, 155, 376, 170
-0.998679, 265, 5, 328, 20
-0.99868, 265, 29, 328, 44
-0.99868, 329, 167, 392, 182
-0.998681, 185, 267, 248, 282
-0.998681, 265, 55, 328, 70
-0.998681, 185, 233, 248, 248
-0.998681, 249, 69, 312, 84
-0.998682, 361, 229, 424, 244
-0.998683, 113, 159, 176, 174
-0.998683, 225, 247, 288, 262
-0.998683, 1, 85, 64, 100
-0.998685, 265, 47, 328, 62
-0.998686, 1, 73, 64, 88
-0.998686, 41, 159, 104, 174
-0.998686, 17, 85, 144, 116
-0.998687, 193, 221, 256, 236
-0.998688, 25, 141, 88, 156
-0.998688, 17, 307, 80, 322
-0.998689, 1, 103, 64, 118
-0.998707, 193, 313, 320, 375
-0.998711, 381, 65, 412, 192
-0.998721, 245, 65, 276, 320
-0.998743, 241, 281, 368, 344
-0.99875, 369, 157, 496, 188
-0.998756, 145, 97, 176, 352
-0.998758, 377, 33, 440, 288
-0.998762, 305, 149, 432, 180
-0.998769, 113, 17, 240, 144
-0.998782, 321, 89, 448, 152
-0.998797, 65, 281, 192, 312
-0.998811, 49, 189, 176, 220
-0.998813, 347, 161, 362, 288
-0.998813, 257, 105, 500, 168
-0.998814, 129, 89, 256, 120
-0.998821, 177, 177, 304, 208
-0.99883, 113, 181, 240, 212
-0.998841, 133, 129, 164, 375
-0.998855, 329, 209, 344, 336
-0.998876, 129, 289, 384, 352
-0.998901, 241, 285, 368, 316
-0.99891, 81, 129, 112, 375
-0.998919, 265, 1, 280, 128
-0.998926, 257, 161, 384, 192
-0.998941, 321, 193, 336, 320
-0.998952, 337, 161, 352, 288
-0.998963, 129, 305, 256, 336
-0.998988, 145, 317, 272, 348
-0.998989, 357, 145, 372, 272
-0.998991, 193, 345, 320, 375
-0.998993, 1, 213, 128, 244
-0.999002, 45, 1, 76, 256
-0.999005, 15, 33, 30, 160
-0.99902, 301, 1, 332, 256
-0.999031, 1, 189, 128, 220
-0.999034, 321, 257, 448, 288
-0.999067, 369, 241, 496, 368
-0.999073, 313, 129, 344, 375
-0.999077, 23, 49, 38, 176
-0.999078, 65, 121, 192, 152
-0.999081, 9, 17, 24, 144
-0.999091, 337, 1, 464, 32
-0.999102, 1, 25, 500, 88
-0.999106, 289, 113, 416, 176
-0.999114, 353, 193, 368, 320
-0.999115, 381, 65, 412, 320
-0.999124, 363, 145, 378, 272
-0.99913, 233, 97, 264, 352
-0.999134, 1, 281, 500, 344
-0.999134, 353, 1, 368, 128
-0.999143, 177, 141, 304, 172
-0.999144, 381, 145, 396, 272
-0.999152, 271, 1, 286, 128
-0.999157, 269, 49, 284, 176
-0.99916, 377, 57, 440, 120
-0.999164, 353, 145, 480, 176
-0.999172, 119, 241, 134, 368
-0.999179, 389, 145, 404, 272
-0.99919, 303, 1, 318, 128
-0.999193, 113, 341, 240, 372
-0.999199, 227, 177, 242, 304
-0.999215, 97, 101, 224, 132
-0.999221, 209, 273, 336, 304
-0.999223, 361, 193, 376, 320
-0.999224, 321, 65, 448, 96
-0.99923, 371, 145, 386, 272
-0.999232, 337, 41, 464, 104
-0.999236, 95, 225, 110, 352
-0.999237, 293, 161, 324, 288
-0.999241, 31, 65, 46, 192
-0.999245, 161, 153, 288, 184
-0.999257, 217, 241, 280, 368
-0.999258, 113, 241, 128, 368
-0.999275, 81, 145, 96, 272
-0.999286, 75, 145, 90, 272
-0.999294, 85, 225, 100, 352
-0.999296, 235, 81, 250, 208
-0.999297, 105, 241, 120, 368
-0.999299, 193, 65, 224, 192
-0.999304, 197, 177, 212, 304
-0.999308, 1, 201, 128, 232
-0.999312, 221, 161, 236, 288
-0.999312, 351, 113, 366, 240
-0.99932, 313, 209, 328, 336
-0.99933, 87, 145, 102, 272
-0.999338, 371, 193, 386, 320
-0.999338, 99, 145, 114, 272
-0.999343, 257, 313, 500, 375
-0.999345, 257, 65, 272, 192
-0.999345, 287, 17, 302, 144
-0.99935, 203, 97, 218, 224
-0.99935, 203, 177, 218, 304
-0.999352, 229, 81, 244, 208
-0.999353, 347, 33, 362, 160
-0.999353, 335, 209, 350, 336
-0.999357, 191, 193, 206, 320
-0.999358, 335, 113, 350, 240
-0.999359, 321, 269, 448, 300
-0.999366, 241, 81, 256, 208
-0.999368, 295, 49, 310, 176
-0.999369, 59, 161, 74, 288
-0.999372, 275, 65, 290, 192
-0.999372, 303, 49, 318, 176
-0.999373, 125, 241, 140, 368
-0.999374, 197, 97, 212, 224
-0.999384, 49, 145, 64, 272
-0.999385, 107, 145, 122, 272
-0.999389, 79, 225, 94, 352
-0.999396, 41, 113, 56, 240
-0.999401, 3, 1, 18, 128
-0.999407, 361, 313, 424, 375
-0.999407, 247, 65, 262, 192
-0.999418, 263, 65, 278, 192
-0.999418, 227, 241, 242, 368
-0.999421, 341, 113, 356, 240
-0.999422, 395, 145, 410, 272
-0.999422, 337, 53, 464, 84
-0.999428, 221, 209, 236, 336
-0.999431, 1, 313, 500, 375
-0.999439, 21, 97, 36, 224
-0.99944, 233, 225, 248, 352
-0.999442, 131, 241, 146, 368
-0.999444, 211, 161, 226, 288
-0.999445, 93, 145, 108, 272
-0.999448, 283, 65, 298, 192
-0.999458, 33, 129, 48, 256
-0.999461, 379, 193, 394, 320
-0.999464, 5, 65, 20, 192
-0.999466, 69, 161, 84, 288
-0.999468, 101, 97, 132, 224
-0.99947, 171, 113, 186, 240
-0.999478, 169, 257, 232, 320
-0.999478, 425, 313, 488, 375
-0.999479, 287, 209, 302, 336
-0.999485, 217, 97, 232, 224
-0.999486, 233, 145, 248, 272
-0.999486, 257, 345, 384, 375
-0.999492, 321, 145, 336, 272
-0.999495, 27, 113, 42, 240
-0.999496, 37, 65, 52, 192
-0.999497, 309, 17, 324, 144
-0.999497, 225, 109, 352, 140
-0.999502, 113, 145, 128, 272
-0.999506, 249, 273, 312, 336
-0.999506, 187, 113, 202, 240
-0.999508, 211, 97, 226, 224
-0.99951, 277, 17, 292, 144
-0.999512, 289, 65, 304, 192
-0.999517, 293, 1, 308, 128
-0.999517, 227, 129, 242, 256
-0.999524, 329, 113, 344, 240
-0.999526, 245, 129, 260, 256
-0.999526, 295, 209, 310, 336
-0.999527, 301, 209, 316, 336
-0.999527, 47, 97, 62, 224
-0.999528, 57, 33, 88, 288
-0.999532, 387, 193, 402, 320
-0.999541, 319, 241, 334, 368
-0.999542, 15, 241, 30, 368
-0.999548, 125, 159, 140, 174
-0.999549, 303, 257, 318, 272
-0.999549, 301, 241, 316, 256
-0.99955, 67, 315, 82, 330
-0.999551, 293, 261, 308, 276
-0.999551, 267, 1, 282, 16
-0.999553, 7, 285, 22, 300
-0.999553, 275, 87, 290, 102
-0.999553, 67, 179, 82, 194
-0.999553, 57, 309, 72, 324
-0.999554, 267, 29, 282, 44
-0.999554, 193, 237, 208, 252
-0.999554, 75, 297, 90, 312
-0.999555, 291, 67, 306, 82
-0.999555, 251, 129, 266, 256
-0.999555, 21, 291, 36, 306
-0.999556, 113, 309, 128, 324
-0.999556, 319, 225, 334, 240
-0.999557, 247, 203, 262, 218
-0.999558, 21, 241, 36, 368
-0.99956, 359, 199, 374, 214
-0.99956, 61, 183, 76, 198
-0.999561, 289, 79, 304, 94
-0.999561, 251, 93, 266, 108
-0.999561, 129, 165, 256, 196
-0.999562, 73, 185, 88, 200
-0.999564, 187, 231, 202, 246
-0.999564, 103, 169, 118, 184
-0.999565, 15, 111, 30, 126
-0.999565, 321, 273, 336, 288
-0.999565, 353, 33, 368, 48
-0.999565, 1, 241, 128, 272
-0.999566, 311, 251, 326, 266
-0.999567, 367, 207, 382, 222
-0.999568, 283, 83, 298, 98
-0.999568, 21, 71, 36, 86
-0.999569, 109, 167, 124, 182
-0.999569, 227, 271, 242, 286
-0.999569, 163, 129, 178, 256
-0.999569, 327, 219, 342, 234
-0.999569, 283, 257, 298, 272
-0.999569, 347, 51, 362, 66
-0.99957, 45, 301, 60, 316
-0.999571, 121, 313, 136, 328
-0.999571, 119, 145, 134, 272
-0.999572, 141, 325, 156, 340
-0.999573, 363, 223, 378, 238
-0.999574, 339, 223, 354, 238
-0.999575, 345, 221, 360, 236
-0.999575, 235, 251, 250, 266
-0.999575, 247, 213, 262, 228
-0.999576, 51, 169, 66, 184
-0.999576, 205, 229, 220, 244
-0.999577, 129, 317, 144, 332
-0.999579, 289, 89, 416, 120
-0.999579, 95, 173, 110, 188
-0.99958, 269, 23, 284, 38
-0.999581, 119, 161, 134, 176
-0.999582, 307, 209, 322, 336
-0.999582, 201, 223, 216, 238
-0.999582, 243, 97, 258, 112
-0.999583, 217, 223, 232, 238
-0.999585, 191, 123, 206, 138
-0.999586, 267, 83, 282, 98
-0.999586, 135, 321, 150, 336
-0.999586, 181, 113, 196, 240
-0.999586, 221, 269, 236, 284
-0.999587, 351, 197, 366, 212
-0.999587, 65, 225, 80, 352
-0.999587, 387, 201, 402, 216
-0.999588, 333, 219, 348, 234
-0.999588, 239, 129, 254, 256
-0.999589, 51, 293, 66, 308
-0.999589, 269, 17, 284, 32
-0.99959, 81, 33, 144, 288
-0.999593, 261, 85, 276, 100
-0.999593, 199, 119, 214, 134
-0.999595, 199, 233, 214, 248
-0.999596, 67, 113, 82, 240
-0.999597, 275, 261, 290, 276
-0.999597, 19, 63, 34, 78
-0.999598, 223, 247, 238, 262
-0.999598, 377, 225, 392, 240
-0.999598, 45, 159, 60, 174
-0.9996, 325, 229, 340, 244
-0.999601, 357, 15, 372, 30
-0.999601, 359, 235, 374, 250
-0.999601, 289, 247, 304, 262
-0.999602, 381, 213, 396, 228
-0.999603, 87, 177, 102, 192
-0.999603, 225, 217, 240, 232
-0.999604, 303, 65, 318, 80
-0.999607, 375, 205, 390, 220
-0.999607, 281, 251, 296, 266
-0.999608, 185, 193, 200, 320
-0.999609, 349, 45, 364, 60
-0.999609, 29, 285, 44, 300
-0.999609, 337, 195, 352, 210
-0.999612, 357, 217, 372, 232
-0.999614, 23, 283, 38, 298
-0.999614, 55, 175, 70, 190
-0.999614, 73, 225, 88, 352
-0.999617, 259, 1, 274, 128
-0.999618, 365, 235, 380, 250
-0.999619, 223, 81, 238, 208
-0.999619, 125, 145, 140, 272
-0.999619, 351, 39, 366, 54
-0.99962, 37, 289, 52, 304
-0.99962, 359, 7, 374, 22
-0.99962, 371, 233, 386, 248
-0.99962, 331, 233, 346, 248
-0.999623, 57, 113, 72, 240
-0.999623, 325, 203, 340, 218
-0.999623, 145, 225, 160, 352
-0.999623, 347, 227, 362, 242
-0.999625, 401, 145, 416, 272
-0.999625, 355, 211, 370, 226
-0.999626, 225, 261, 240, 276
-0.999627, 345, 239, 360, 254
-0.999629, 79, 181, 94, 196
-0.999629, 337, 281, 464, 312
-0.99963, 309, 241, 324, 256
-0.999632, 137, 225, 152, 352
-0.999633, 351, 217, 366, 232
-0.999633, 163, 209, 178, 336
-0.999634, 13, 279, 28, 294
-0.999634, 351, 239, 366, 254
-0.999634, 345, 225, 360, 352
-0.999635, 45, 291, 60, 306
-0.999635, 231, 243, 246, 258
-0.999637, 177, 57, 304, 88
-0.999641, 323, 209, 338, 224
-0.999641, 3, 275, 18, 290
-0.999642, 155, 129, 170, 256
-0.999643, 343, 199, 358, 214
-0.999644, 337, 49, 352, 176
-0.999644, 357, 223, 372, 238
-0.999645, 145, 331, 160, 346
-0.999646, 365, 217, 380, 232
-0.99965, 341, 207, 356, 222
-0.99965, 361, 205, 376, 220
-0.999652, 15, 81, 30, 208
-0.999653, 353, 233, 368, 248
-0.999653, 363, 241, 378, 368
-0.999654, 273, 313, 336, 375
-0.999655, 339, 215, 354, 230
-0.999655, 139, 129, 154, 256
-0.999655, 239, 193, 254, 320
-0.999657, 375, 217, 390, 232
-0.999662, 129, 49, 256, 112
-0.999666, 131, 145, 146, 272
-0.999666, 313, 81, 344, 208
-0.999667, 337, 237, 352, 252
-0.999676, 381, 203, 396, 218
-0.999687, 365, 229, 380, 244
-0.999688, 355, 205, 370, 220
-0.999691, 357, 97, 372, 224
-0.999694, 173, 193, 188, 320
-0.999696, 113, 265, 240, 296
-0.999697, 371, 223, 386, 238
-0.999697, 179, 193, 194, 320
-0.999699, 151, 209, 166, 336
-0.9997, 193, 289, 320, 320
-0.999703, 241, 301, 368, 332
-0.999703, 21, 1, 36, 128
-0.999708, 27, 1, 42, 128
-0.999708, 223, 255, 238, 270
-0.99971, 193, 229, 208, 244
-0.999711, 329, 189, 344, 204
-0.999715, 349, 209, 364, 224
-0.999715, 359, 229, 374, 244
-0.999717, 261, 97, 292, 352
-0.999721, 1, 97, 32, 352
-0.999725, 289, 297, 416, 328
-0.999733, 345, 215, 360, 230
-0.999734, 229, 249, 244, 264
-0.999751, 349, 203, 364, 218
-0.999772, 335, 209, 350, 224
-0.999792, 85, 33, 116, 288
-0.999823, 1, 1, 500, 64
-0.999827, 353, 249, 480, 312
-0.999865, 221, 33, 252, 160
-0.999921, 1, 257, 500, 320
-0.999972, 369, 65, 496, 128
-0.999974, 325, 1, 356, 128
-1.00004, 1, 233, 64, 296
-1.00005, 365, 1, 396, 256
-1.00006, 337, 273, 464, 336
-1.00007, 201, 1, 232, 256
-1.00009, 101, 33, 132, 288
-1.00012, 189, 1, 220, 256
-1.00016, 393, 33, 424, 288
-1.00017, 393, 129, 424, 375
-1.00018, 13, 129, 44, 375
-1.00022, 69, 33, 100, 288
-1.00022, 113, 33, 144, 288
-1.00031, 173, 1, 204, 256
-1.00031, 233, 1, 264, 256
-1.00032, 133, 81, 164, 208
-1.00033, 185, 1, 248, 256
-1.00034, 89, 97, 120, 224
-1.00038, 289, 73, 352, 136
-1.00044, 145, 1, 176, 256
-1.00046, 133, 33, 164, 288
-1.00054, 257, 113, 288, 240
-1.00054, 17, 185, 80, 248
-1.00054, 161, 1, 288, 64
-1.00054, 289, 129, 320, 375
-1.00057, 161, 1, 192, 256
-1.00058, 397, 97, 428, 224
-1.00058, 313, 1, 344, 256
-1.00065, 301, 97, 332, 352
-1.00065, 225, 289, 480, 352
-1.00066, 9, 193, 40, 320
-1.00068, 329, 265, 392, 328
-1.00074, 161, 289, 288, 352
-1.0009, 405, 33, 436, 288
-1.00091, 133, 177, 164, 304
-1.00104, 49, 25, 176, 88
-1.00105, 329, 313, 392, 375
-1.00109, 369, 89, 496, 152
-1.0011, 81, 1, 208, 64
-1.00111, 113, 25, 240, 88
-1.00116, 161, 65, 192, 192
-1.00119, 357, 1, 388, 128
-1.00129, 49, 49, 176, 112
-1.00132, 369, 1, 400, 128
-1.00136, 261, 161, 292, 288
-1.00139, 437, 129, 468, 375
-1.0014, 417, 65, 448, 320
-1.0014, 217, 281, 280, 344
-1.00145, 145, 81, 208, 144
-1.00146, 45, 65, 76, 192
-1.00149, 465, 129, 496, 375
-1.00152, 433, 33, 464, 288
-1.00155, 453, 65, 484, 320
-1.00169, 361, 241, 392, 368
-1.0017, 469, 33, 500, 288
-1.0018, 405, 129, 436, 375
-1.00199, 409, 1, 472, 375
-1.00203, 361, 49, 424, 176
-1.00223, 385, 17, 416, 144
-1.00223, 281, 161, 312, 288
-1.00224, 273, 129, 336, 375
-1.00266, 433, 1, 496, 375
-1.00271, 21, 193, 52, 320
-1.00275, 137, 1, 200, 256
-1.0028, 161, 25, 288, 88
-1.00288, 233, 241, 264, 368
-1.00306, 373, 241, 404, 368
-1.0031, 253, 241, 284, 368
-1.00327, 349, 49, 380, 176
-1.00413, 33, 193, 64, 320
-1.00437, 193, 17, 224, 144
-1.00456, 401, 97, 464, 352
-1.00457, 177, 241, 208, 368
-1.00485, 181, 17, 212, 144
-1.00491, 149, 33, 180, 160
-1.005, 397, 17, 428, 144
-1.0051, 369, 49, 400, 176
-1.00516, 185, 1, 248, 128
-1.00532, 437, 177, 468, 304
-1.00533, 397, 241, 428, 368
-1.00543, 153, 17, 216, 144
-1.00561, 409, 81, 440, 208
-1.00561, 437, 113, 468, 240
-1.00566, 429, 33, 460, 160
-1.0058, 445, 241, 476, 368
-1.0058, 433, 225, 464, 352
-1.00588, 377, 1, 440, 128
-1.00682, 385, 193, 448, 320
-1.00733, 41, 1, 104, 128
-1.00799, 49, 1, 176, 128
-1.00821, 401, 1, 464, 256
-1.00844, 425, 129, 488, 375
-1.00847, 425, 33, 488, 160
-1.00847, 433, 161, 496, 288
-1.00867, 409, 113, 472, 240
-1.00889, 417, 241, 480, 368
-1.00893, 425, 33, 488, 288
-1.00922, 65, 1, 128, 128
-1.0093, 393, 241, 456, 368
-1.00932, 409, 193, 472, 320
-1.00951, 393, 49, 456, 176
-1.01083, 129, 17, 192, 144
-1.01095, 49, 49, 112, 176
-1.01108, 73, 49, 136, 176
-1.01111, 265, 97, 328, 224
-1.01177, 97, 33, 160, 160
-1.01276, 401, 1, 464, 128
-1.01276, 433, 81, 496, 208
