1976
-0.264115, 1, 1, 375, 500
-0.390003, 1, 33, 375, 288
-0.396931, 129, 1, 375, 500
-0.453934, 1, 193, 375, 448
-0.639402, 33, 1, 288, 500
-0.666946, 129, 65, 375, 320
-0.722735, 33, 1, 288, 256
-0.723247, 1, 257, 256, 500
-0.752759, 129, 193, 375, 448
-0.823425, 1, 97, 256, 352
-0.859718, 241, 1, 368, 500
-0.871646, 241, 65, 368, 320
-0.874806, 1, 49, 375, 176
-0.880266, 193, 1, 320, 256
-0.887918, 193, 1, 320, 500
-0.889526, 33, 1, 160, 500
-0.890372, 49, 1, 176, 256
-0.893393, 145, 1, 272, 256
-0.899174, 1, 1, 375, 128
-0.899798, 1, 65, 128, 320
-0.900737, 145, 1, 272, 500
-0.904903, 1, 193, 375, 320
-0.908361, 1, 97, 375, 224
-0.911057, 1, 369, 375, 496
-0.911093, 1, 241, 375, 368
-0.919818, 81, 1, 208, 500
-0.92057, 65, 225, 192, 480
-0.921888, 1, 305, 375, 432
-0.925427, 1, 257, 128, 500
-0.926358, 49, 97, 176, 352
-0.927032, 97, 1, 224, 256
-0.931861, 1, 65, 256, 192
-0.936803, 113, 257, 240, 500
-0.937513, 177, 97, 304, 352
-0.939437, 129, 161, 375, 288
-0.940103, 241, 257, 368, 500
-0.941, 33, 369, 288, 496
-0.941892, 129, 33, 375, 160
-0.942105, 113, 97, 240, 352
-0.94226, 225, 161, 352, 416
-0.942742, 25, 65, 88, 192
-0.943004, 33, 1, 288, 128
-0.94301, 33, 65, 160, 192
-0.94439, 129, 241, 375, 368
-0.945808, 129, 81, 375, 208
-0.946998, 129, 289, 375, 416
-0.947178, 33, 73, 96, 136
-0.947187, 1, 273, 256, 400
-0.947582, 217, 17, 280, 144
-0.947822, 1, 321, 256, 448
-0.951091, 161, 257, 288, 500
-0.951466, 193, 33, 320, 160
-0.951872, 1, 145, 375, 272
-0.953247, 17, 1, 144, 128
-0.953389, 65, 65, 128, 192
-0.954359, 33, 113, 288, 240
-0.955194, 249, 17, 312, 144
-0.955476, 41, 1, 104, 128
-0.956771, 1, 193, 256, 320
-0.956854, 241, 33, 368, 160
-0.958028, 217, 33, 280, 96
-0.959046, 217, 65, 280, 128
-0.959295, 225, 65, 288, 192
-0.959475, 41, 97, 104, 160
-0.959726, 129, 81, 256, 208
-0.960038, 49, 425, 112, 488
-0.960662, 9, 1, 72, 128
-0.960929, 129, 337, 375, 464
-0.960985, 33, 353, 160, 480
-0.961844, 129, 17, 256, 144
-0.962431, 257, 57, 320, 120
-0.962834, 169, 1, 232, 128
-0.963748, 33, 241, 96, 368
-0.964159, 209, 81, 336, 208
-0.964385, 33, 129, 96, 256
-0.964523, 1, 49, 64, 176
-0.964706, 81, 65, 208, 192
-0.965059, 273, 49, 336, 176
-0.965537, 1, 161, 128, 416
-0.965564, 33, 113, 160, 240
-0.965584, 193, 1, 256, 128
-0.965607, 297, 33, 360, 160
-0.96599, 249, 65, 312, 192
-0.966011, 65, 1, 128, 128
-0.96646, 57, 73, 120, 136
-0.966487, 313, 97, 375, 224
-0.966617, 57, 113, 120, 240
-0.967138, 25, 121, 88, 184
-0.967603, 25, 425, 88, 488
-0.967653, 257, 1, 320, 64
-0.967658, 33, 49, 96, 112
-0.968129, 9, 73, 72, 136
-0.968206, 217, 89, 280, 152
-0.96821, 241, 81, 304, 144
-0.968614, 65, 1, 192, 128
-0.96867, 289, 1, 352, 64
-0.970282, 193, 81, 256, 208
-0.97056, 49, 369, 112, 496
-0.970603, 1, 289, 128, 416
-0.970725, 65, 225, 192, 352
-0.970907, 17, 97, 80, 160
-0.970935, 313, 257, 375, 384
-0.971123, 281, 73, 344, 136
-0.971489, 257, 33, 320, 96
-0.972077, 237, 1, 268, 128
-0.972142, 57, 49, 120, 112
-0.972311, 113, 145, 240, 272
-0.972377, 65, 97, 128, 160
-0.972409, 241, 177, 368, 304
-0.972894, 33, 1, 96, 64
-0.97293, 313, 65, 375, 128
-0.972945, 233, 9, 296, 72
-0.972955, 193, 65, 256, 128
-0.973002, 89, 1, 152, 128
-0.973209, 57, 65, 88, 128
-0.973606, 169, 65, 232, 192
-0.973756, 225, 1, 288, 256
-0.973923, 25, 257, 88, 320
-0.973986, 297, 97, 360, 160
-0.974067, 53, 425, 84, 488
-0.974127, 313, 209, 375, 336
-0.974386, 341, 257, 372, 384
-0.974562, 9, 49, 72, 112
-0.974621, 65, 225, 128, 352
-0.974662, 25, 1, 88, 256
-0.974865, 193, 9, 256, 72
-0.974868, 33, 73, 160, 136
-0.975259, 65, 177, 192, 304
-0.975581, 53, 65, 84, 192
-0.975676, 209, 65, 336, 128
-0.975724, 33, 97, 160, 160
-0.97575, 17, 241, 144, 368
-0.975802, 41, 289, 104, 416
-0.975845, 53, 113, 84, 176
-0.975974, 305, 65, 368, 320
-0.97602, 281, 1, 344, 256
-0.976063, 137, 81, 200, 208
-0.976063, 313, 305, 375, 432
-0.976114, 17, 369, 80, 496
-0.976139, 249, 1, 312, 256
-0.976256, 337, 273, 368, 336
-0.976483, 49, 121, 112, 184
-0.976517, 265, 97, 328, 160
-0.976933, 89, 49, 152, 176
-0.977076, 81, 65, 144, 128
-0.977078, 345, 209, 375, 336
-0.977378, 49, 1, 112, 256
-0.977442, 65, 241, 128, 304
-0.977474, 65, 305, 192, 432
-0.977868, 81, 353, 208, 480
-0.977873, 241, 225, 368, 352
-0.978167, 69, 81, 100, 208
-0.978188, 289, 97, 352, 224
-0.978588, 305, 249, 368, 312
-0.978736, 145, 33, 208, 160
-0.978993, 89, 177, 152, 304
-0.979229, 257, 41, 288, 104
-0.979642, 33, 401, 96, 464
-0.979678, 345, 241, 375, 304
-0.979898, 53, 1, 84, 128
-0.979925, 65, 105, 96, 168
-0.979935, 73, 353, 136, 480
-0.980143, 169, 1, 232, 64
-0.980166, 33, 257, 96, 500
-0.980288, 245, 73, 276, 136
-0.980307, 145, 193, 272, 320
-0.980309, 37, 65, 68, 192
-0.980335, 161, 65, 288, 128
-0.980509, 209, 89, 336, 152
-0.98087, 41, 297, 104, 360
-0.981034, 9, 113, 72, 240
-0.981135, 25, 49, 56, 176
-0.98153, 33, 49, 160, 112
-0.981584, 49, 89, 80, 152
-0.981619, 313, 273, 375, 336
-0.981672, 313, 257, 375, 500
-0.981708, 161, 145, 288, 272
-0.981738, 193, 89, 256, 152
-0.981835, 241, 289, 368, 416
-0.981973, 313, 169, 375, 232
-0.981995, 341, 65, 372, 128
-0.982001, 41, 321, 104, 384
-0.982229, 209, 33, 336, 96
-0.982456, 145, 337, 272, 464
-0.982583, 113, 81, 176, 208
-0.982595, 225, 1, 352, 64
-0.982656, 33, 377, 96, 440
-0.98272, 213, 1, 244, 128
-0.982861, 281, 65, 312, 128
-0.982867, 341, 49, 372, 176
-0.983065, 237, 33, 268, 96
-0.983074, 65, 401, 128, 464
-0.983093, 41, 145, 104, 208
-0.983122, 257, 17, 288, 144
-0.983141, 41, 49, 72, 112
-0.98321, 49, 97, 112, 352
-0.983243, 41, 129, 72, 192
-0.983275, 65, 425, 96, 488
-0.98361, 161, 89, 288, 152
-0.983615, 237, 9, 268, 72
-0.983631, 177, 1, 208, 128
-0.983665, 89, 1, 152, 64
-0.983701, 289, 25, 352, 88
-0.983764, 33, 425, 160, 488
-0.983773, 169, 65, 232, 128
-0.983847, 73, 425, 136, 488
-0.983898, 201, 1, 264, 256
-0.983933, 289, 49, 320, 176
-0.983955, 305, 193, 368, 256
-0.983997, 225, 81, 256, 144
-0.984323, 57, 1, 120, 64
-0.984428, 261, 89, 292, 152
-0.984448, 1, 1, 64, 256
-0.984478, 169, 97, 232, 160
-0.984505, 37, 105, 68, 168
-0.984577, 73, 1, 136, 256
-0.984678, 169, 145, 232, 272
-0.984749, 201, 1, 232, 128
-0.984804, 325, 57, 356, 120
-0.984817, 313, 9, 375, 72
-0.984897, 313, 1, 375, 500
-0.984899, 329, 257, 360, 384
-0.984923, 53, 257, 84, 320
-0.98504, 169, 25, 232, 88
-0.985223, 269, 65, 300, 128
-0.985338, 345, 97, 375, 224
-0.985583, 121, 145, 184, 272
-0.985603, 45, 1, 76, 64
-0.985606, 225, 33, 256, 160
-0.985636, 241, 257, 368, 320
-0.985637, 65, 1, 96, 128
-0.985664, 17, 289, 80, 416
-0.985704, 69, 81, 100, 144
-0.985751, 49, 361, 176, 424
-0.985763, 49, 121, 176, 184
-0.985826, 73, 353, 136, 416
-0.9859, 1, 121, 64, 184
-0.986033, 129, 1, 192, 64
-0.986041, 193, 41, 256, 104
-0.986172, 293, 1, 324, 64
-0.986189, 273, 89, 304, 152
-0.986228, 37, 73, 68, 136
-0.986311, 129, 89, 192, 152
-0.986343, 81, 33, 112, 160
-0.986346, 233, 57, 264, 120
-0.986365, 1, 1, 32, 128
-0.986388, 285, 89, 316, 152
-0.986405, 281, 1, 312, 64
-0.986407, 49, 113, 80, 240
-0.986408, 25, 97, 88, 352
-0.986409, 65, 305, 128, 432
-0.986465, 41, 233, 104, 296
-0.986489, 249, 9, 280, 72
-0.986501, 65, 369, 96, 496
-0.986512, 213, 65, 244, 128
-0.986536, 97, 169, 224, 232
-0.986592, 113, 289, 240, 416
-0.986616, 273, 1, 336, 128
-0.986622, 65, 385, 192, 448
-0.986704, 97, 89, 224, 152
-0.986725, 9, 401, 72, 464
-0.98674, 9, 193, 72, 320
-0.98678, 241, 193, 368, 256
-0.986855, 321, 97, 352, 224
-0.987005, 161, 25, 288, 88
-0.987007, 169, 1, 232, 256
-0.987057, 329, 49, 360, 176
-0.987065, 25, 353, 88, 416
-0.987103, 1, 177, 128, 304
-0.987155, 41, 1, 72, 128
-0.987162, 53, 241, 84, 368
-0.987202, 121, 33, 184, 160
-0.98727, 241, 129, 368, 256
-0.987307, 145, 145, 208, 272
-0.987315, 1, 129, 128, 192
-0.987384, 257, 65, 288, 128
-0.987446, 289, 1, 352, 500
-0.987458, 89, 97, 152, 224
-0.987463, 305, 33, 336, 160
-0.987482, 9, 225, 72, 288
-0.98749, 241, 337, 368, 464
-0.987536, 1, 1, 128, 64
-0.987552, 241, 105, 304, 168
-0.987588, 121, 1, 152, 64
-0.987631, 153, 401, 216, 464
-0.987653, 77, 225, 108, 352
-0.987706, 333, 249, 364, 312
-0.987709, 165, 33, 196, 160
-0.987754, 161, 1, 288, 64
-0.987761, 9, 1, 72, 64
-0.987835, 321, 97, 352, 160
-0.987836, 189, 1, 220, 128
-0.987843, 53, 137, 84, 200
-0.987925, 25, 65, 56, 128
-0.987972, 17, 401, 144, 464
-0.987993, 81, 65, 208, 128
-0.988058, 305, 161, 368, 288
-0.98809, 193, 145, 256, 272
-0.98813, 41, 25, 104, 88
-0.988143, 65, 41, 96, 104
-0.988188, 145, 169, 208, 232
-0.988211, 245, 65, 276, 192
-0.988234, 241, 169, 368, 232
-0.988245, 41, 1, 104, 500
-0.988279, 277, 65, 308, 192
-0.988317, 81, 217, 144, 280
-0.988342, 65, 233, 192, 296
-0.988349, 213, 65, 244, 192
-0.988354, 257, 1, 320, 500
-0.988359, 77, 241, 108, 304
-0.98837, 81, 65, 112, 128
-0.988426, 193, 337, 320, 464
-0.988479, 305, 1, 336, 64
-0.988489, 1, 353, 128, 416
-0.98851, 65, 129, 96, 192
-0.988579, 81, 1, 208, 64
-0.988634, 281, 369, 344, 496
-0.988639, 97, 89, 160, 152
-0.988666, 301, 73, 332, 136
-0.98871, 313, 297, 375, 360
-0.988713, 121, 169, 184, 232
-0.988724, 317, 33, 348, 160
-0.98876, 261, 9, 292, 72
-0.988824, 313, 321, 375, 384
-0.989021, 77, 417, 108, 480
-0.989066, 65, 329, 192, 392
-0.989128, 33, 77, 96, 108
-0.989163, 13, 1, 44, 128
-0.989196, 225, 1, 288, 500
-0.989202, 177, 409, 240, 472
-0.989216, 41, 425, 72, 488
-0.989242, 1, 329, 128, 392
-0.989276, 33, 113, 96, 144
-0.989276, 77, 105, 108, 168
-0.989338, 137, 321, 200, 448
-0.989433, 49, 369, 80, 496
-0.989508, 221, 1, 252, 64
-0.989525, 49, 449, 112, 480
-0.98953, 281, 49, 344, 112
-0.989569, 129, 369, 192, 496
-0.989575, 305, 225, 368, 288
-0.989596, 305, 97, 336, 160
-0.989664, 29, 417, 60, 480
-0.989681, 101, 1, 132, 128
-0.989728, 65, 257, 96, 384
-0.989752, 129, 393, 192, 456
-0.989754, 81, 41, 144, 104
-0.989767, 49, 345, 112, 408
-0.989777, 333, 97, 364, 224
-0.989807, 33, 89, 96, 120
-0.989855, 333, 97, 364, 160
-0.989879, 33, 65, 96, 96
-0.989903, 1, 425, 64, 488
-0.98992, 113, 401, 240, 464
-0.989952, 97, 33, 224, 96
-0.989954, 57, 257, 120, 500
-0.989977, 25, 125, 88, 156
-0.990007, 177, 65, 208, 192
-0.990015, 217, 57, 280, 88
-0.99003, 233, 41, 296, 72
-0.990052, 97, 433, 160, 496
-0.99008, 197, 1, 228, 64
-0.990101, 169, 353, 232, 480
-0.990105, 309, 97, 340, 224
-0.990128, 225, 89, 288, 120
-0.990148, 49, 125, 112, 156
-0.990149, 105, 1, 136, 64
-0.99019, 201, 81, 232, 208
-0.990199, 241, 233, 368, 296
-0.990219, 65, 265, 192, 328
-0.990267, 77, 41, 108, 104
-0.990315, 145, 169, 272, 232
-0.990321, 73, 81, 136, 112
-0.990337, 269, 33, 300, 96
-0.990373, 213, 97, 244, 160
-0.990392, 77, 369, 108, 496
-0.9904, 49, 177, 112, 304
-0.99044, 65, 305, 192, 368
-0.99046, 313, 33, 375, 96
-0.990463, 145, 65, 208, 128
-0.990463, 49, 265, 112, 328
-0.990498, 9, 49, 40, 176
-0.990538, 249, 53, 312, 84
-0.99058, 217, 69, 280, 100
-0.990613, 93, 1, 124, 64
-0.990647, 313, 105, 375, 136
-0.990673, 97, 169, 160, 232
-0.990692, 65, 321, 128, 384
-0.990696, 25, 101, 88, 132
-0.99071, 345, 209, 375, 272
-0.99075, 321, 1, 352, 64
-0.990759, 1, 377, 128, 440
-0.990761, 17, 265, 144, 328
-0.99079, 37, 369, 68, 496
-0.990803, 257, 101, 320, 132
-0.990809, 73, 265, 136, 328
-0.990844, 53, 41, 84, 104
-0.990856, 73, 169, 136, 232
-0.990875, 57, 249, 120, 280
-0.990897, 281, 93, 344, 124
-0.990949, 289, 105, 352, 136
-0.990967, 289, 273, 352, 336
-0.990977, 33, 437, 96, 468
-0.990977, 25, 137, 88, 168
-0.990987, 257, 81, 288, 208
-0.990992, 1, 97, 256, 160
-0.990995, 257, 89, 320, 120
-0.990995, 73, 97, 136, 128
-0.990997, 65, 145, 192, 208
-0.991007, 49, 101, 112, 132
-0.991009, 249, 65, 312, 96
-0.99103, 161, 1, 224, 500
-0.991032, 245, 97, 276, 160
-0.991038, 321, 305, 352, 432
-0.991059, 201, 1, 264, 500
-0.991064, 225, 289, 352, 352
-0.991067, 105, 369, 168, 496
-0.99107, 1, 153, 128, 216
-0.99108, 1, 305, 128, 368
-0.991091, 169, 169, 232, 232
-0.991127, 333, 209, 364, 336
-0.991131, 173, 1, 204, 64
-0.99117, 189, 65, 220, 192
-0.991196, 161, 81, 192, 208
-0.991201, 217, 29, 280, 60
-0.991206, 129, 241, 256, 368
-0.991209, 201, 97, 264, 128
-0.991238, 73, 1, 136, 32
-0.99125, 17, 241, 144, 304
-0.991286, 49, 1, 112, 32
-0.991314, 49, 461, 112, 492
-0.991335, 1, 73, 256, 136
-0.991336, 9, 81, 72, 112
-0.991338, 9, 1, 72, 32
-0.991352, 33, 265, 96, 296
-0.991391, 49, 137, 112, 168
-0.991437, 193, 85, 256, 116
-0.991449, 337, 1, 368, 128
-0.991454, 57, 65, 120, 96
-0.991508, 65, 113, 128, 144
-0.991549, 305, 93, 368, 124
-0.991551, 265, 1, 328, 32
-0.991571, 233, 101, 296, 132
-0.991571, 73, 461, 136, 492
-0.991588, 17, 321, 80, 384
-0.991598, 9, 61, 72, 92
-0.991608, 209, 45, 272, 76
-0.991656, 81, 193, 144, 256
-0.991702, 9, 113, 72, 144
-0.991757, 313, 73, 344, 136
-0.991762, 65, 209, 192, 272
-0.991767, 289, 225, 352, 352
-0.991782, 345, 97, 375, 160
-0.991782, 305, 9, 368, 40
-0.991785, 305, 353, 368, 480
-0.991797, 241, 77, 304, 108
-0.991799, 105, 65, 168, 128
-0.991799, 241, 97, 304, 352
-0.991807, 1, 241, 64, 368
-0.991823, 305, 265, 368, 296
-0.991843, 185, 1, 248, 32
-0.991848, 93, 65, 124, 192
-0.991885, 233, 1, 296, 32
-0.991885, 49, 425, 112, 456
-0.991889, 257, 41, 320, 72
-0.991911, 297, 53, 360, 84
-0.991923, 17, 41, 48, 104
-0.991937, 193, 25, 256, 56
-0.991941, 201, 409, 264, 472
-0.991947, 313, 181, 375, 212
-0.991949, 145, 369, 272, 432
-0.99197, 65, 305, 96, 368
-0.991997, 277, 17, 308, 144
-0.992021, 65, 305, 96, 432
-0.992024, 313, 277, 375, 308
-0.992029, 65, 53, 128, 84
-0.992034, 65, 1, 128, 500
-0.992064, 225, 13, 288, 44
-0.992082, 217, 145, 280, 272
-0.992087, 121, 65, 152, 192
-0.992098, 113, 193, 240, 256
-0.992104, 1, 97, 64, 352
-0.992127, 257, 13, 320, 44
-0.992127, 193, 169, 320, 232
-0.992159, 57, 437, 120, 468
-0.992172, 305, 237, 368, 268
-0.992178, 41, 149, 104, 180
-0.9922, 17, 461, 80, 492
-0.99221, 1, 125, 64, 156
-0.99221, 17, 253, 80, 284
-0.992217, 41, 401, 72, 464
-0.992221, 169, 13, 232, 44
-0.992223, 193, 169, 256, 232
-0.992223, 169, 97, 232, 128
-0.992224, 313, 65, 375, 96
-0.992227, 169, 57, 200, 120
-0.992242, 9, 433, 72, 464
-0.992252, 193, 61, 256, 92
-0.992277, 73, 449, 136, 480
-0.992286, 97, 97, 160, 128
-0.9923, 341, 277, 372, 308
-0.992316, 61, 401, 92, 464
-0.99233, 313, 345, 375, 408
-0.992336, 241, 313, 368, 376
-0.992339, 53, 125, 84, 156
-0.992344, 37, 113, 68, 240
-0.992353, 49, 41, 112, 72
-0.992357, 209, 181, 272, 212
-0.992383, 41, 325, 104, 356
-0.992392, 17, 25, 144, 88
-0.992404, 121, 97, 184, 128
-0.992405, 313, 193, 375, 224
-0.992413, 73, 297, 136, 360
-0.992416, 41, 305, 104, 336
-0.99242, 25, 449, 88, 480
-0.99243, 145, 97, 208, 128
-0.992431, 241, 29, 304, 60
-0.99244, 177, 177, 240, 208
-0.99244, 33, 293, 96, 324
-0.992451, 33, 413, 96, 444
-0.992453, 41, 241, 72, 368
-0.992463, 145, 1, 208, 256
-0.992463, 1, 249, 64, 312
-0.992466, 313, 205, 375, 236
-0.992467, 49, 169, 176, 232
-0.992471, 17, 1, 80, 500
-0.992486, 281, 69, 344, 100
-0.99249, 153, 177, 216, 208
-0.992496, 185, 49, 248, 80
-0.992499, 65, 129, 96, 256
-0.992504, 113, 345, 240, 408
-0.992504, 209, 1, 272, 32
-0.992507, 1, 41, 375, 104
-0.992519, 233, 181, 296, 212
-0.992523, 65, 1, 96, 64
-0.992528, 57, 69, 88, 100
-0.992532, 97, 1, 160, 32
-0.992532, 129, 97, 375, 160
-0.992533, 45, 137, 76, 168
-0.992552, 65, 225, 96, 288
-0.992562, 1, 101, 64, 132
-0.992589, 201, 13, 264, 44
-0.992624, 81, 237, 144, 268
-0.99264, 313, 217, 375, 248
-0.992641, 81, 69, 144, 100
-0.992645, 41, 113, 72, 144
-0.992645, 229, 81, 260, 208
-0.992669, 185, 37, 248, 68
-0.992687, 33, 277, 96, 308
-0.992711, 41, 365, 104, 396
-0.99272, 313, 161, 375, 416
-0.992739, 41, 237, 104, 268
-0.992757, 61, 85, 92, 116
-0.992758, 41, 337, 104, 368
-0.992758, 237, 33, 268, 64
-0.992758, 53, 113, 84, 144
-0.992764, 33, 53, 96, 84
-0.992769, 81, 453, 112, 484
-0.992773, 41, 349, 104, 380
-0.992778, 97, 85, 160, 116
-0.992795, 257, 49, 288, 80
-0.992797, 129, 1, 192, 32
-0.992818, 193, 73, 256, 104
-0.992819, 161, 85, 224, 116
-0.992824, 341, 265, 372, 296
-0.992828, 69, 105, 100, 136
-0.992829, 257, 181, 320, 212
-0.992834, 229, 89, 260, 120
-0.992834, 337, 169, 368, 232
-0.992835, 281, 81, 344, 112
-0.992837, 153, 369, 216, 432
-0.992838, 53, 433, 84, 464
-0.992841, 129, 177, 192, 208
-0.992845, 201, 97, 232, 160
-0.992847, 33, 401, 96, 432
-0.99285, 153, 409, 216, 440
-0.992854, 73, 377, 136, 408
-0.992857, 33, 125, 64, 156
-0.992857, 49, 1, 80, 32
-0.992861, 305, 249, 368, 280
-0.992865, 37, 61, 68, 92
-0.992865, 49, 57, 80, 88
-0.992874, 53, 261, 84, 292
-0.99289, 161, 25, 224, 56
-0.992891, 337, 97, 368, 128
-0.992903, 73, 425, 136, 456
-0.992909, 281, 101, 312, 132
-0.992914, 245, 89, 276, 120
-0.992916, 73, 137, 136, 168
-0.992923, 53, 101, 84, 132
-0.992923, 73, 245, 104, 276
-0.992931, 57, 137, 88, 168
-0.992938, 297, 289, 360, 320
-0.992941, 321, 97, 352, 128
-0.992954, 289, 1, 320, 128
-0.992954, 1, 1, 32, 32
-0.992957, 185, 1, 216, 64
-0.992966, 113, 145, 240, 208
-0.992966, 41, 389, 104, 420
-0.992974, 293, 93, 324, 124
-0.992981, 73, 365, 136, 396
-0.992988, 257, 89, 288, 120
-0.99299, 309, 93, 340, 124
-0.992992, 77, 81, 108, 112
-0.993005, 61, 449, 92, 480
-0.993009, 237, 49, 268, 80
-0.993017, 65, 261, 128, 292
-0.993023, 161, 41, 224, 72
-0.993024, 161, 1, 224, 32
-0.993039, 281, 41, 344, 72
-0.993045, 49, 81, 80, 112
-0.993047, 281, 89, 312, 120
-0.993048, 69, 461, 100, 492
-0.993049, 69, 117, 100, 148
-0.993063, 77, 93, 108, 124
-0.993064, 9, 241, 72, 272
-0.993065, 269, 101, 300, 132
-0.99308, 269, 89, 300, 120
-0.993083, 93, 73, 124, 136
-0.99309, 53, 149, 84, 180
-0.993093, 313, 333, 375, 364
-0.993105, 341, 69, 372, 100
-0.993109, 121, 65, 184, 320
-0.993112, 37, 73, 68, 104
-0.993112, 241, 5, 272, 36
-0.993118, 265, 1, 296, 32
-0.993119, 93, 457, 124, 488
-0.993124, 89, 41, 120, 104
-0.993134, 17, 297, 80, 360
-0.993146, 257, 37, 288, 68
-0.993151, 309, 105, 340, 136
-0.993153, 17, 349, 80, 380
-0.993155, 329, 61, 360, 92
-0.993156, 149, 81, 180, 208
-0.993156, 289, 313, 352, 344
-0.993165, 49, 469, 80, 500
-0.993169, 217, 85, 248, 116
-0.993173, 269, 53, 300, 84
-0.993176, 193, 1, 224, 32
-0.993177, 129, 397, 192, 428
-0.993177, 41, 93, 72, 124
-0.99318, 289, 21, 352, 52
-0.993181, 121, 1, 152, 32
-0.993181, 297, 105, 328, 136
-0.993183, 69, 421, 100, 452
-0.993183, 325, 265, 356, 296
-0.993188, 237, 77, 268, 108
-0.99319, 61, 1, 92, 32
-0.99319, 281, 393, 344, 456
-0.993198, 97, 177, 160, 208
-0.993201, 213, 25, 244, 88
-0.99321, 345, 245, 375, 276
-0.993214, 209, 101, 240, 132
-0.993218, 309, 5, 340, 36
-0.993218, 69, 137, 100, 168
-0.99322, 237, 21, 268, 52
-0.993222, 1, 65, 375, 128
-0.993225, 29, 429, 60, 460
-0.993239, 253, 101, 284, 132
-0.993243, 221, 5, 252, 36
-0.993247, 237, 61, 268, 92
-0.993251, 293, 5, 324, 36
-0.993256, 277, 1, 308, 32
-0.993259, 341, 53, 372, 84
-0.993262, 161, 193, 288, 256
-0.993263, 49, 453, 80, 484
-0.993264, 345, 233, 375, 264
-0.993286, 233, 169, 296, 232
-0.993288, 37, 1, 68, 32
-0.993296, 101, 1, 132, 32
-0.993298, 257, 61, 288, 92
-0.993302, 217, 45, 248, 76
-0.993311, 61, 57, 92, 88
-0.993318, 337, 289, 368, 320
-0.993318, 225, 101, 256, 132
-0.993318, 197, 97, 228, 128
-0.993319, 213, 33, 244, 64
-0.993333, 225, 21, 256, 52
-0.993338, 1, 97, 375, 160
-0.993341, 201, 17, 232, 48
-0.993342, 161, 409, 288, 472
-0.993343, 81, 321, 112, 448
-0.993345, 181, 1, 212, 32
-0.993345, 289, 65, 320, 96
-0.993347, 85, 245, 116, 276
-0.993347, 21, 117, 52, 148
-0.993353, 341, 181, 372, 212
-0.993355, 41, 421, 72, 452
-0.993359, 77, 65, 108, 96
-0.993362, 65, 149, 96, 180
-0.993363, 333, 297, 364, 360
-0.993365, 249, 77, 280, 108
-0.993365, 81, 465, 112, 496
-0.993372, 241, 101, 272, 132
-0.993379, 329, 85, 360, 116
-0.99338, 133, 81, 164, 208
-0.99338, 25, 97, 56, 224
-0.993381, 177, 97, 208, 128
-0.993384, 21, 81, 52, 112
-0.993385, 25, 89, 56, 152
-0.993392, 89, 81, 120, 112
-0.993394, 289, 305, 352, 368
-0.993394, 269, 41, 300, 72
-0.993395, 329, 277, 360, 308
-0.9934, 289, 305, 352, 432
-0.993405, 345, 109, 375, 140
-0.993406, 209, 1, 240, 32
-0.993411, 273, 65, 304, 96
-0.993413, 109, 89, 140, 120
-0.993413, 253, 1, 284, 32
-0.993414, 29, 33, 60, 96
-0.993426, 129, 89, 160, 120
-0.993428, 81, 425, 208, 488
-0.993433, 61, 249, 92, 280
-0.993433, 177, 13, 208, 44
-0.993439, 77, 1, 108, 32
-0.993448, 141, 97, 172, 128
-0.993451, 209, 181, 240, 212
-0.993453, 29, 93, 60, 124
-0.993453, 261, 13, 292, 44
-0.993456, 61, 301, 92, 332
-0.993458, 221, 181, 252, 212
-0.993467, 221, 57, 252, 88
-0.993467, 249, 25, 280, 56
-0.993468, 261, 73, 292, 104
-0.993469, 37, 461, 68, 492
-0.99347, 337, 13, 368, 44
-0.993472, 257, 169, 320, 232
-0.993474, 185, 177, 216, 208
-0.993475, 345, 213, 375, 244
-0.993476, 161, 89, 192, 120
-0.993478, 233, 181, 264, 212
-0.993479, 97, 97, 128, 128
-0.993481, 165, 177, 196, 208
-0.993481, 41, 253, 72, 284
-0.99349, 333, 301, 364, 332
-0.9935, 113, 65, 144, 128
-0.993548, 121, 33, 184, 96
-0.993551, 129, 193, 375, 256
-0.993551, 113, 145, 176, 208
-0.993555, 129, 369, 192, 432
-0.993577, 209, 401, 336, 464
-0.993624, 25, 113, 56, 176
-0.993669, 153, 33, 184, 160
-0.99367, 153, 193, 216, 320
-0.993699, 33, 209, 96, 272
-0.993737, 297, 97, 328, 224
-0.993783, 73, 137, 136, 200
-0.993906, 133, 1, 164, 64
-0.993947, 185, 65, 216, 128
-0.993993, 201, 65, 232, 128
-0.994026, 97, 57, 352, 120
-0.994115, 89, 177, 120, 304
-0.994133, 1, 49, 256, 112
-0.994146, 17, 25, 80, 88
-0.994165, 129, 297, 375, 360
-0.994185, 129, 281, 256, 344
-0.994191, 25, 1, 56, 128
-0.994237, 129, 257, 375, 320
-0.99425, 129, 233, 256, 296
-0.994251, 17, 145, 80, 208
-0.994262, 1, 265, 256, 328
-0.99427, 61, 281, 92, 344
-0.994299, 347, 241, 362, 304
-0.994315, 177, 385, 240, 448
-0.994349, 81, 193, 144, 448
-0.994363, 193, 369, 320, 432
-0.994421, 137, 1, 200, 500
-0.99443, 161, 145, 288, 208
-0.994454, 67, 113, 82, 176
-0.994461, 65, 177, 96, 304
-0.994492, 1, 393, 256, 456
-0.99451, 129, 193, 192, 320
-0.994531, 129, 233, 375, 296
-0.994544, 145, 33, 208, 96
-0.994569, 65, 329, 96, 392
-0.994573, 1, 73, 32, 136
-0.994592, 113, 321, 240, 384
-0.994629, 169, 89, 200, 152
-0.994636, 81, 97, 112, 224
-0.994673, 73, 377, 136, 440
-0.99473, 305, 369, 368, 432
-0.994744, 225, 25, 256, 88
-0.994774, 73, 97, 136, 352
-0.994798, 209, 93, 336, 124
-0.994812, 109, 65, 140, 192
-0.994819, 1, 289, 256, 352
-0.99483, 1, 249, 375, 312
-0.994831, 129, 257, 256, 320
-0.994857, 173, 25, 204, 88
-0.994878, 105, 169, 136, 232
-0.994888, 33, 85, 160, 116
-0.994896, 157, 73, 188, 136
-0.994901, 185, 97, 216, 160
-0.994911, 249, 113, 312, 240
-0.994978, 1, 1, 375, 64
-0.995031, 17, 97, 144, 128
-0.995041, 289, 33, 320, 96
-0.995041, 265, 97, 328, 352
-0.995045, 1, 1, 32, 64
-0.995061, 67, 425, 82, 488
-0.995088, 359, 185, 374, 248
-0.995095, 97, 1, 352, 64
-0.995126, 73, 105, 88, 168
-0.995151, 67, 65, 82, 128
-0.995175, 257, 409, 320, 472
-0.995179, 341, 273, 356, 336
-0.995275, 1, 313, 256, 376
-0.995297, 345, 161, 375, 288
-0.99539, 129, 321, 375, 384
-0.995402, 161, 1, 192, 64
-0.99541, 1, 361, 256, 424
-0.995414, 225, 337, 352, 400
-0.995417, 129, 369, 375, 432
-0.995437, 65, 25, 320, 88
-0.995445, 329, 193, 360, 256
-0.995533, 97, 1, 160, 500
-0.995536, 333, 33, 364, 96
-0.995547, 97, 65, 160, 320
-0.995562, 61, 113, 76, 176
-0.995582, 33, 169, 288, 232
-0.995588, 341, 249, 356, 312
-0.995603, 137, 89, 168, 152
-0.995615, 33, 1, 64, 64
-0.995627, 209, 1, 240, 64
-0.995668, 1, 337, 256, 400
-0.99567, 61, 425, 76, 488
-0.995675, 33, 73, 160, 104
-0.995675, 81, 1, 112, 64
-0.995677, 305, 353, 336, 480
-0.995685, 281, 169, 344, 232
-0.995686, 177, 193, 240, 320
-0.995687, 353, 273, 368, 336
-0.995696, 49, 97, 64, 160
-0.995712, 353, 201, 368, 264
-0.995717, 59, 65, 74, 128
-0.99573, 33, 113, 160, 144
-0.99573, 209, 57, 336, 88
-0.995773, 293, 1, 308, 64
-0.995776, 13, 97, 44, 224
-0.995803, 209, 69, 336, 100
-0.995806, 287, 65, 302, 128
-0.99586, 129, 169, 375, 232
-0.995864, 77, 129, 108, 192
-0.995905, 1, 273, 375, 336
-0.995906, 241, 105, 368, 136
-0.995917, 73, 433, 88, 496
-0.995932, 345, 193, 375, 448
-0.995936, 353, 65, 368, 128
-0.995954, 105, 385, 168, 448
-0.995957, 5, 41, 36, 104
-0.995958, 209, 1, 336, 32
-0.995959, 325, 273, 356, 336
-0.995969, 347, 273, 362, 336
-0.995975, 225, 409, 288, 472
-0.995989, 1, 209, 128, 272
-0.996052, 347, 65, 362, 128
-0.996055, 53, 425, 68, 488
-0.996057, 1, 1, 256, 64
-0.996071, 283, 89, 298, 152
-0.996071, 161, 169, 192, 232
-0.996087, 273, 73, 288, 136
-0.99609, 1, 361, 64, 424
-0.996136, 259, 89, 274, 152
-0.996141, 1, 241, 256, 304
-0.996148, 73, 65, 88, 128
-0.996152, 51, 121, 66, 184
-0.996175, 321, 313, 352, 376
-0.996191, 261, 33, 276, 96
-0.996218, 109, 161, 140, 288
-0.996225, 193, 145, 224, 272
-0.996228, 109, 41, 140, 104
-0.996229, 53, 1, 84, 256
-0.996237, 209, 81, 336, 112
-0.99624, 235, 57, 250, 120
-0.996242, 63, 249, 78, 312
-0.996243, 113, 1, 144, 128
-0.996265, 13, 225, 44, 352
-0.996285, 13, 73, 44, 136
-0.996295, 113, 321, 176, 448
-0.996297, 105, 353, 168, 416
-0.996309, 33, 129, 160, 160
-0.996311, 267, 89, 282, 152
-0.996318, 307, 1, 322, 64
-0.996318, 253, 73, 268, 136
-0.996321, 49, 1, 64, 64
-0.996325, 161, 97, 288, 128
-0.996326, 241, 377, 368, 440
-0.996349, 57, 137, 72, 200
-0.99635, 293, 65, 308, 128
-0.996352, 281, 65, 296, 128
-0.996354, 289, 89, 304, 152
-0.996361, 129, 345, 375, 408
-0.996368, 205, 145, 236, 272
-0.996373, 359, 273, 374, 336
-0.996375, 97, 113, 224, 176
-0.996378, 33, 425, 288, 488
-0.996389, 79, 97, 94, 160
-0.996392, 211, 1, 226, 64
-0.996398, 229, 57, 244, 120
-0.996422, 53, 57, 68, 120
-0.996426, 33, 121, 288, 184
-0.996435, 17, 61, 144, 92
-0.996437, 63, 41, 78, 104
-0.9965, 161, 37, 288, 68
-0.996512, 297, 89, 312, 152
-0.996533, 41, 265, 72, 328
-0.996539, 133, 33, 164, 160
-0.996539, 345, 41, 375, 104
-0.996545, 55, 97, 70, 160
-0.996551, 337, 65, 352, 128
-0.996552, 1, 145, 256, 208
-0.996582, 145, 257, 208, 500
-0.99659, 241, 265, 368, 296
-0.996608, 41, 57, 56, 120
-0.996617, 209, 45, 336, 76
-0.996623, 253, 1, 268, 64
-0.996626, 43, 89, 58, 152
-0.996631, 345, 97, 375, 352
-0.996631, 1, 225, 375, 288
-0.996631, 233, 81, 248, 144
-0.996633, 61, 89, 76, 152
-0.996641, 33, 453, 160, 484
-0.996656, 93, 169, 124, 232
-0.99666, 45, 121, 60, 184
-0.996685, 1, 409, 375, 472
-0.996688, 239, 81, 254, 144
-0.996694, 161, 313, 288, 376
-0.996696, 265, 1, 280, 64
-0.996701, 79, 417, 94, 480
-0.996732, 259, 65, 274, 128
-0.996739, 149, 97, 180, 160
-0.99674, 161, 181, 288, 212
-0.996753, 289, 1, 320, 256
-0.996765, 193, 193, 320, 320
-0.996774, 1, 1, 128, 32
-0.99678, 173, 145, 204, 272
-0.996789, 245, 1, 276, 256
-0.996821, 223, 73, 238, 136
-0.996826, 161, 85, 288, 116
-0.996827, 73, 393, 104, 456
-0.996841, 97, 177, 224, 208
-0.996848, 303, 89, 318, 152
-0.996854, 1, 273, 64, 336
-0.996862, 65, 97, 192, 128
-0.996869, 137, 345, 200, 408
-0.996871, 87, 233, 102, 296
-0.996875, 137, 193, 200, 256
-0.996875, 89, 241, 152, 304
-0.996888, 89, 225, 120, 288
-0.99689, 55, 1, 70, 64
-0.996902, 325, 1, 340, 64
-0.996919, 173, 401, 204, 464
-0.996945, 9, 257, 72, 500
-0.996948, 337, 97, 352, 160
-0.996951, 47, 49, 62, 112
-0.996955, 33, 437, 160, 468
-0.996956, 1, 201, 256, 264
-0.996968, 49, 1, 176, 32
-0.996968, 261, 1, 292, 256
-0.996976, 239, 17, 254, 80
-0.996981, 93, 97, 124, 160
-0.996983, 313, 1, 328, 64
-0.996989, 241, 181, 368, 212
-0.996991, 65, 257, 96, 320
-0.997, 299, 1, 314, 64
-0.997001, 157, 49, 188, 112
-0.997006, 329, 97, 344, 160
-0.99701, 33, 141, 160, 172
-0.997015, 1, 297, 375, 360
-0.997016, 27, 73, 42, 136
-0.997023, 65, 65, 96, 320
-0.997044, 1, 1, 16, 64
-0.997051, 63, 145, 78, 208
-0.997052, 41, 25, 72, 88
-0.997056, 273, 97, 288, 160
-0.997059, 33, 49, 160, 80
-0.997074, 77, 329, 108, 392
-0.997079, 245, 1, 260, 64
-0.997085, 161, 57, 288, 88
-0.997101, 121, 257, 184, 500
-0.997103, 287, 1, 302, 64
-0.997115, 161, 337, 288, 400
-0.997128, 217, 97, 280, 352
-0.997133, 323, 97, 338, 160
-0.997134, 209, 409, 240, 472
-0.997138, 61, 377, 92, 440
-0.997142, 259, 9, 274, 72
-0.997148, 251, 25, 266, 88
-0.997154, 321, 193, 352, 320
-0.997167, 345, 89, 360, 152
-0.997187, 321, 249, 352, 312
-0.997195, 161, 145, 192, 272
-0.9972, 187, 73, 202, 136
-0.997206, 53, 33, 68, 96
-0.997209, 131, 1, 146, 64
-0.997211, 81, 353, 112, 416
-0.997215, 209, 113, 336, 176
-0.997217, 265, 57, 280, 120
-0.997222, 311, 89, 326, 152
-0.997225, 169, 193, 232, 256
-0.997225, 289, 329, 352, 392
-0.997225, 65, 1, 80, 64
-0.997235, 245, 89, 260, 152
-0.99724, 201, 33, 232, 96
-0.997246, 39, 113, 54, 176
-0.997272, 251, 49, 266, 112
-0.997273, 125, 81, 156, 144
-0.997275, 149, 393, 180, 456
-0.99728, 333, 225, 364, 480
-0.997283, 79, 73, 94, 136
-0.997295, 73, 41, 88, 104
-0.997296, 67, 89, 82, 152
-0.997305, 319, 1, 334, 64
-0.997316, 317, 89, 332, 152
-0.99733, 107, 1, 122, 64
-0.99733, 15, 73, 30, 136
-0.99733, 1, 361, 375, 424
-0.997338, 57, 249, 72, 312
-0.997342, 87, 73, 102, 136
-0.997348, 69, 257, 84, 320
-0.997348, 25, 305, 56, 432
-0.997356, 65, 389, 192, 420
-0.99737, 117, 1, 132, 64
-0.997397, 65, 237, 192, 268
-0.997403, 361, 249, 375, 312
-0.997406, 123, 1, 138, 64
-0.997417, 1, 341, 128, 372
-0.997423, 351, 97, 366, 160
-0.997427, 343, 277, 358, 308
-0.997434, 161, 289, 288, 416
-0.997435, 129, 401, 375, 464
-0.997435, 357, 97, 372, 160
-0.997436, 71, 137, 86, 200
-0.997451, 335, 289, 350, 352
-0.997463, 1, 385, 375, 448
-0.997467, 113, 97, 240, 128
-0.997476, 329, 57, 344, 120
-0.997483, 97, 1, 224, 32
-0.997483, 219, 1, 234, 64
-0.99749, 81, 233, 96, 296
-0.997494, 273, 33, 304, 288
-0.997507, 241, 285, 368, 316
-0.997507, 299, 65, 314, 128
-0.997514, 49, 121, 64, 152
-0.997515, 77, 297, 92, 360
-0.997515, 333, 65, 364, 320
-0.997517, 57, 257, 88, 500
-0.997517, 233, 1, 264, 256
-0.997522, 301, 1, 332, 256
-0.997526, 217, 97, 232, 160
-0.997533, 53, 97, 84, 352
-0.997544, 1, 245, 128, 276
-0.997546, 49, 373, 176, 404
-0.997547, 223, 97, 238, 160
-0.997557, 353, 277, 368, 308
-0.99756, 97, 41, 224, 72
-0.997563, 287, 25, 302, 88
-0.997572, 205, 1, 220, 64
-0.997592, 1, 353, 128, 384
-0.997595, 241, 21, 368, 52
-0.997604, 1, 169, 375, 232
-0.99761, 229, 33, 244, 96
-0.99761, 41, 1, 72, 256
-0.997619, 241, 233, 368, 264
-0.997626, 33, 425, 160, 456
-0.997629, 1, 321, 375, 384
-0.997635, 63, 257, 78, 288
-0.997646, 61, 1, 76, 32
-0.997651, 79, 41, 94, 104
-0.997651, 97, 41, 112, 104
-0.997658, 33, 41, 48, 104
-0.997659, 181, 73, 196, 136
-0.99766, 129, 233, 192, 296
-0.997673, 353, 249, 368, 312
-0.997679, 53, 133, 68, 164
-0.997685, 63, 129, 78, 160
-0.99769, 271, 1, 286, 64
-0.99769, 307, 65, 322, 128
-0.99769, 85, 433, 100, 496
-0.997697, 1, 369, 128, 400
-0.997701, 323, 73, 338, 136
-0.997715, 35, 65, 50, 128
-0.997719, 345, 261, 360, 292
-0.997721, 189, 1, 204, 64
-0.997725, 241, 253, 368, 284
-0.997727, 241, 193, 368, 224
-0.997735, 361, 189, 375, 220
-0.997736, 33, 465, 160, 496
-0.997744, 211, 97, 226, 160
-0.997746, 73, 409, 88, 472
-0.997753, 1, 177, 128, 240
-0.997769, 65, 61, 192, 92
-0.997773, 65, 401, 80, 464
-0.997775, 137, 145, 200, 208
-0.997777, 35, 393, 50, 456
-0.997779, 49, 249, 176, 280
-0.99778, 29, 257, 60, 384
-0.997784, 161, 73, 288, 104
-0.997796, 39, 33, 54, 96
-0.997801, 77, 1, 108, 256
-0.997803, 353, 225, 368, 288
-0.997826, 87, 241, 102, 272
-0.997837, 67, 73, 82, 104
-0.997839, 161, 145, 224, 208
-0.997854, 161, 1, 288, 32
-0.997866, 357, 209, 372, 240
-0.997884, 129, 137, 375, 200
-0.997891, 61, 69, 76, 100
-0.997892, 281, 369, 344, 432
-0.997914, 201, 385, 264, 448
-0.997967, 65, 269, 192, 300
-0.99797, 63, 149, 78, 180
-0.997981, 241, 297, 368, 328
-0.997981, 69, 117, 84, 148
-0.997989, 333, 161, 364, 288
-0.99799, 73, 73, 88, 104
-0.997995, 217, 1, 248, 256
-0.997996, 33, 153, 160, 184
-0.998, 43, 117, 58, 148
-0.998001, 1, 121, 375, 184
-0.998004, 13, 353, 44, 480
-0.998014, 65, 361, 192, 392
-0.998014, 55, 69, 70, 100
-0.998015, 1, 269, 128, 300
-0.998017, 193, 13, 320, 44
-0.998018, 145, 21, 272, 52
-0.998041, 81, 85, 208, 116
-0.998042, 65, 225, 192, 256
-0.998048, 353, 105, 368, 136
-0.998063, 1, 329, 128, 360
-0.998068, 343, 97, 358, 128
-0.998068, 299, 101, 314, 132
-0.998071, 283, 93, 298, 124
-0.998073, 239, 89, 254, 120
-0.998078, 11, 1, 26, 32
-0.99808, 241, 221, 368, 252
-0.998082, 65, 281, 192, 312
-0.998093, 233, 89, 248, 120
-0.998099, 361, 277, 375, 308
-0.998103, 95, 453, 110, 484
-0.998103, 145, 121, 272, 184
-0.998105, 345, 1, 375, 256
-0.998109, 75, 105, 90, 136
-0.998117, 313, 1, 344, 256
-0.998121, 293, 93, 308, 124
-0.998122, 65, 337, 192, 368
-0.998132, 69, 93, 84, 124
-0.998141, 69, 133, 84, 164
-0.998142, 1, 381, 128, 412
-0.998149, 337, 105, 352, 136
-0.998151, 57, 117, 72, 148
-0.998152, 81, 165, 208, 196
-0.998159, 57, 57, 72, 88
-0.998162, 81, 453, 96, 484
-0.998165, 359, 105, 374, 136
-0.998178, 81, 97, 96, 128
-0.998187, 41, 129, 56, 160
-0.998197, 57, 145, 72, 176
-0.998197, 313, 101, 328, 132
-0.998216, 221, 145, 252, 272
-0.998223, 67, 61, 82, 92
-0.998227, 305, 101, 320, 132
-0.99823, 129, 433, 256, 496
-0.998237, 41, 129, 72, 384
-0.998239, 63, 113, 78, 144
-0.99824, 277, 101, 292, 132
-0.99824, 209, 33, 336, 64
-0.998241, 81, 401, 208, 432
-0.998249, 55, 1, 70, 32
-0.998254, 273, 89, 288, 120
-0.998257, 5, 1, 20, 32
-0.998257, 323, 97, 338, 128
-0.998262, 345, 69, 360, 100
-0.998263, 75, 85, 90, 116
-0.998266, 71, 145, 86, 176
-0.998269, 45, 61, 60, 92
-0.998283, 49, 1, 64, 32
-0.998284, 75, 421, 90, 452
-0.998288, 57, 257, 72, 288
-0.998289, 51, 57, 66, 88
-0.998293, 177, 433, 304, 496
-0.998295, 81, 349, 208, 380
-0.998298, 339, 265, 354, 296
-0.998301, 265, 321, 328, 448
-0.998302, 251, 81, 266, 112
-0.998314, 281, 53, 296, 84
-0.998323, 129, 95, 160, 110
-0.998323, 241, 19, 272, 34
-0.998324, 217, 95, 248, 110
-0.998325, 29, 123, 60, 138
-0.998325, 65, 427, 96, 442
-0.998326, 331, 105, 346, 136
-0.998327, 349, 245, 364, 276
-0.998328, 261, 85, 292, 100
-0.998328, 281, 97, 312, 112
-0.998329, 57, 67, 88, 82
-0.998329, 53, 463, 84, 478
-0.998329, 345, 185, 375, 200
-0.998329, 257, 77, 288, 92
-0.99833, 241, 7, 272, 22
-0.99833, 345, 239, 375, 254
-0.998332, 29, 1, 60, 256
-0.998332, 269, 55, 300, 70
-0.998332, 177, 257, 304, 320
-0.998332, 85, 471, 116, 486
-0.998333, 337, 289, 368, 304
-0.998333, 221, 3, 252, 18
-0.998334, 311, 5, 326, 36
-0.998334, 229, 91, 260, 106
-0.998335, 61, 451, 92, 466
-0.998335, 61, 129, 92, 144
-0.998335, 341, 71, 372, 86
-0.998336, 65, 73, 96, 88
-0.998336, 45, 259, 76, 274
-0.998338, 293, 7, 324, 22
-0.998339, 217, 51, 248, 66
-0.998339, 53, 433, 84, 448
-0.99834, 57, 473, 88, 488
-0.99834, 45, 471, 76, 486
-0.99834, 193, 15, 224, 30
-0.998341, 65, 153, 96, 168
-0.998341, 353, 225, 368, 256
-0.998342, 33, 431, 64, 446
-0.998343, 65, 293, 192, 324
-0.998344, 259, 41, 274, 72
-0.998344, 261, 93, 276, 124
-0.998345, 257, 63, 288, 78
-0.998346, 341, 263, 372, 278
-0.998347, 241, 77, 272, 92
-0.998348, 345, 245, 375, 260
-0.998349, 37, 111, 68, 126
-0.99835, 251, 33, 266, 64
-0.99835, 225, 103, 256, 118
-0.998351, 241, 13, 272, 28
-0.998351, 313, 99, 344, 114
-0.998352, 177, 11, 208, 26
-0.998354, 37, 7, 68, 22
-0.998354, 269, 47, 300, 62
-0.998355, 69, 105, 84, 136
-0.998355, 81, 1, 112, 16
-0.998356, 181, 101, 212, 116
-0.998356, 257, 71, 288, 86
-0.998357, 81, 81, 112, 96
-0.998358, 257, 57, 288, 72
-0.998358, 65, 7, 96, 22
-0.998358, 89, 465, 120, 480
-0.998358, 57, 101, 88, 116
-0.99836, 41, 65, 72, 80
-0.998361, 81, 241, 96, 272
-0.998361, 345, 251, 375, 266
-0.998361, 325, 63, 356, 78
-0.998361, 101, 1, 132, 16
-0.998363, 341, 101, 372, 116
-0.998363, 325, 273, 356, 288
-0.998363, 75, 449, 90, 480
-0.998364, 41, 97, 72, 112
-0.998364, 131, 1, 146, 32
-0.998364, 57, 445, 88, 460
-0.998364, 257, 39, 288, 54
-0.998365, 241, 33, 272, 48
-0.998366, 29, 97, 60, 112
-0.998367, 49, 85, 80, 100
-0.998367, 209, 145, 336, 208
-0.998368, 93, 101, 124, 116
-0.998368, 237, 65, 268, 80
-0.998369, 241, 87, 272, 102
-0.998369, 57, 95, 88, 110
-0.998369, 193, 9, 224, 24
-0.998369, 49, 59, 80, 74
-0.998371, 49, 113, 80, 128
-0.998372, 37, 75, 68, 90
-0.998372, 67, 433, 82, 464
-0.998373, 197, 101, 228, 116
-0.998374, 37, 129, 68, 144
-0.998374, 225, 309, 352, 340
-0.998375, 253, 101, 284, 116
-0.998376, 269, 1, 300, 16
-0.998376, 209, 101, 240, 116
-0.998378, 65, 117, 96, 132
-0.998378, 81, 97, 112, 112
-0.998378, 1, 409, 128, 440
-0.998379, 25, 103, 56, 118
-0.99838, 289, 161, 352, 416
-0.998381, 237, 45, 268, 60
-0.998384, 237, 41, 252, 72
-0.998385, 261, 95, 292, 110
-0.998385, 241, 209, 368, 240
-0.998386, 53, 267, 84, 282
-0.998387, 85, 247, 116, 262
-0.998395, 101, 457, 116, 488
-0.998395, 125, 3, 156, 18
-0.998397, 45, 143, 76, 158
-0.998397, 53, 7, 84, 22
-0.998397, 113, 377, 240, 408
-0.998398, 113, 189, 240, 220
-0.998398, 329, 101, 360, 116
-0.998398, 341, 59, 372, 74
-0.9984, 65, 325, 192, 356
-0.9984, 237, 59, 268, 74
-0.998401, 67, 1, 82, 32
-0.998401, 65, 147, 96, 162
-0.998401, 69, 469, 100, 484
-0.998402, 121, 113, 152, 240
-0.998407, 351, 73, 366, 104
-0.998407, 241, 93, 272, 108
-0.998408, 257, 45, 288, 60
-0.998409, 161, 169, 288, 200
-0.99841, 37, 117, 68, 132
-0.99841, 73, 109, 104, 124
-0.998411, 61, 87, 92, 102
-0.998412, 33, 1, 64, 16
-0.998418, 75, 465, 90, 496
-0.998418, 85, 457, 116, 472
-0.998419, 65, 29, 192, 60
-0.99842, 89, 457, 104, 488
-0.998422, 237, 39, 268, 54
-0.998426, 37, 135, 68, 150
-0.998426, 65, 305, 192, 336
-0.998426, 63, 101, 78, 132
-0.998427, 237, 53, 268, 68
-0.998431, 57, 107, 88, 122
-0.998431, 269, 105, 300, 120
-0.998433, 73, 247, 104, 262
-0.998437, 81, 85, 96, 116
-0.99844, 271, 101, 286, 132
-0.998441, 53, 439, 84, 454
-0.998443, 281, 103, 312, 118
-0.998444, 337, 107, 368, 122
-0.998445, 193, 353, 256, 480
-0.998448, 325, 107, 356, 122
-0.998448, 229, 97, 260, 112
-0.998449, 69, 97, 100, 112
-0.998449, 61, 79, 92, 94
-0.998452, 33, 77, 96, 92
-0.998453, 309, 105, 340, 120
-0.998453, 53, 151, 84, 166
-0.998454, 297, 105, 328, 120
-0.998456, 41, 123, 72, 138
-0.998457, 341, 271, 372, 286
-0.998457, 37, 117, 52, 148
-0.99846, 1, 3, 32, 18
-0.998461, 145, 369, 176, 496
-0.998462, 305, 5, 320, 36
-0.998463, 241, 99, 272, 114
-0.998463, 77, 463, 108, 478
-0.998465, 51, 469, 66, 500
-0.998466, 61, 1, 92, 16
-0.998467, 57, 261, 88, 276
-0.998468, 351, 57, 366, 88
-0.998468, 47, 133, 62, 164
-0.998469, 57, 141, 88, 156
-0.998476, 33, 117, 96, 132
-0.998476, 257, 51, 288, 66
-0.998479, 53, 119, 84, 134
-0.998481, 49, 129, 80, 144
-0.998481, 57, 89, 72, 120
-0.998481, 177, 1, 208, 256
-0.998485, 77, 103, 108, 118
-0.998486, 337, 93, 352, 124
-0.998492, 177, 401, 304, 432
-0.998494, 9, 1, 72, 16
-0.998499, 245, 89, 260, 120
-0.9985, 49, 453, 112, 468
-0.9985, 113, 1, 144, 16
-0.9985, 49, 73, 64, 104
-0.998504, 33, 95, 96, 110
-0.998506, 225, 353, 288, 480
-0.998507, 73, 1, 136, 16
-0.998508, 339, 65, 354, 96
-0.998508, 17, 285, 144, 316
-0.99851, 299, 89, 314, 120
-0.99851, 225, 101, 240, 132
-0.998511, 207, 1, 222, 32
-0.998513, 63, 85, 78, 116
-0.998514, 41, 1, 104, 16
-0.998516, 33, 71, 96, 86
-0.998516, 289, 105, 352, 120
-0.998516, 291, 61, 306, 92
-0.998517, 227, 81, 242, 112
-0.998519, 313, 107, 375, 122
-0.99852, 41, 87, 104, 102
-0.998521, 41, 131, 104, 146
-0.998521, 205, 1, 236, 256
-0.998523, 113, 1, 128, 32
-0.998523, 5, 1, 36, 256
-0.998525, 233, 43, 296, 58
-0.998531, 225, 99, 288, 114
-0.998533, 25, 125, 88, 140
-0.998536, 49, 1, 80, 16
-0.998538, 73, 101, 136, 116
-0.998544, 145, 413, 272, 444
-0.998545, 57, 135, 88, 150
-0.998546, 257, 103, 320, 118
-0.998547, 73, 61, 88, 92
-0.998547, 41, 101, 104, 116
-0.998548, 341, 279, 372, 294
-0.998549, 33, 107, 96, 122
-0.99855, 53, 73, 84, 88
-0.998551, 217, 61, 280, 76
-0.998551, 297, 5, 312, 36
-0.998554, 25, 137, 88, 152
-0.998555, 183, 1, 198, 32
-0.998556, 217, 69, 280, 84
-0.998557, 189, 1, 220, 256
-0.998557, 125, 1, 140, 32
-0.998557, 69, 469, 84, 500
-0.998558, 249, 67, 312, 82
-0.998559, 307, 89, 322, 120
-0.99856, 233, 51, 296, 66
-0.998561, 49, 461, 112, 476
-0.998562, 49, 139, 112, 154
-0.998563, 53, 105, 68, 136
-0.998566, 261, 81, 276, 112
-0.998567, 73, 81, 136, 96
-0.998568, 349, 93, 364, 124
-0.998571, 331, 93, 346, 124
-0.998571, 339, 289, 354, 320
-0.998571, 225, 77, 288, 92
-0.998573, 85, 273, 116, 400
-0.998574, 267, 89, 282, 120
-0.998575, 225, 321, 352, 352
-0.998576, 9, 101, 72, 116
-0.998576, 257, 55, 320, 70
-0.998577, 57, 469, 72, 500
-0.998583, 49, 447, 112, 462
-0.998584, 41, 105, 56, 136
-0.998586, 53, 449, 68, 480
-0.998589, 61, 433, 76, 464
-0.998589, 219, 101, 234, 132
-0.99859, 243, 17, 258, 48
-0.99859, 213, 1, 228, 32
-0.998591, 73, 107, 136, 122
-0.998593, 9, 7, 72, 22
-0.998596, 201, 101, 264, 116
-0.998597, 257, 43, 320, 58
-0.998597, 73, 95, 136, 110
-0.998598, 217, 37, 280, 52
-0.998599, 41, 7, 104, 22
-0.998602, 25, 143, 88, 158
-0.998605, 217, 85, 280, 100
-0.998608, 217, 93, 280, 108
-0.998609, 33, 63, 96, 78
-0.99861, 9, 77, 72, 92
-0.998612, 57, 145, 120, 160
-0.998612, 41, 471, 104, 486
-0.998613, 49, 247, 112, 262
-0.998614, 313, 101, 375, 116
-0.998617, 209, 55, 272, 70
-0.998618, 209, 45, 272, 60
-0.998619, 249, 61, 312, 76
-0.998619, 257, 49, 320, 64
-0.998621, 217, 31, 280, 46
-0.998622, 49, 439, 112, 454
-0.998622, 289, 61, 352, 76
-0.998623, 193, 97, 208, 128
-0.998623, 249, 73, 312, 88
-0.998624, 49, 253, 112, 268
-0.998624, 289, 99, 352, 114
-0.998624, 353, 9, 368, 40
-0.998624, 73, 87, 136, 102
-0.998626, 355, 193, 370, 320
-0.998627, 73, 463, 136, 478
-0.998628, 289, 9, 352, 24
-0.998628, 255, 93, 270, 124
-0.998628, 257, 97, 320, 112
-0.998629, 241, 83, 304, 98
-0.998629, 9, 109, 72, 124
-0.998632, 337, 277, 352, 308
-0.998633, 169, 101, 232, 116
-0.998633, 241, 37, 304, 52
-0.998635, 241, 1, 256, 32
-0.998635, 257, 13, 320, 28
-0.998636, 45, 225, 76, 480
-0.998637, 17, 131, 80, 146
-0.998638, 25, 257, 88, 272
-0.998638, 79, 73, 94, 104
-0.998639, 57, 75, 120, 90
-0.998641, 265, 5, 328, 20
-0.998641, 65, 115, 128, 130
-0.998642, 227, 53, 242, 84
-0.998644, 261, 53, 276, 84
-0.998644, 313, 189, 375, 204
-0.998645, 145, 389, 272, 420
-0.998645, 233, 1, 296, 16
-0.998645, 73, 457, 136, 472
-0.99865, 49, 125, 112, 140
-0.99865, 65, 7, 128, 22
-0.99865, 305, 273, 368, 288
-0.998651, 75, 117, 90, 148
-0.998652, 97, 1, 160, 16
-0.998653, 17, 83, 80, 98
-0.998654, 33, 149, 96, 164
-0.998655, 65, 133, 128, 148
-0.998656, 233, 105, 296, 120
-0.998657, 193, 95, 256, 110
-0.998658, 33, 265, 96, 280
-0.998659, 213, 17, 228, 48
-0.998659, 63, 469, 78, 500
-0.998659, 25, 437, 88, 452
-0.998659, 305, 67, 368, 82
-0.99866, 225, 19, 288, 34
-0.99866, 65, 67, 128, 82
-0.998661, 25, 431, 88, 446
-0.998662, 49, 259, 112, 274
-0.998663, 9, 95, 72, 110
-0.998664, 193, 7, 256, 22
-0.998665, 305, 243, 368, 258
-0.998665, 73, 245, 136, 260
-0.998665, 169, 13, 232, 28
-0.998666, 33, 425, 96, 440
-0.998666, 305, 253, 368, 268
-0.998666, 305, 15, 368, 30
-0.998667, 193, 37, 256, 52
-0.998667, 241, 91, 304, 106
-0.998667, 217, 25, 280, 40
-0.998668, 129, 97, 192, 112
-0.998668, 97, 101, 160, 116
-0.99867, 313, 215, 375, 230
-0.998671, 313, 57, 375, 72
-0.998672, 65, 471, 128, 486
-0.998672, 25, 445, 88, 460
-0.998672, 49, 93, 64, 124
-0.998672, 1, 125, 64, 140
-0.998676, 193, 183, 256, 198
-0.998677, 225, 9, 288, 24
-0.998679, 313, 221, 375, 236
-0.998679, 213, 101, 228, 132
-0.998679, 305, 237, 368, 252
-0.99868, 9, 71, 72, 86
-0.998682, 185, 53, 248, 68
-0.998684, 193, 29, 256, 44
-0.998684, 49, 433, 112, 448
-0.998685, 1, 37, 128, 68
-0.998685, 313, 279, 375, 294
-0.998686, 193, 71, 256, 86
-0.998686, 293, 105, 308, 136
-0.998686, 257, 21, 320, 36
-0.998689, 281, 55, 344, 70
-0.998689, 305, 229, 368, 244
-0.998689, 313, 207, 375, 222
-0.99869, 217, 183, 280, 198
-0.998692, 57, 151, 120, 166
-0.998692, 177, 19, 240, 34
-0.998693, 305, 259, 368, 274
-0.998693, 161, 181, 224, 196
-0.998693, 73, 451, 136, 466
-0.998694, 25, 465, 88, 480
-0.998694, 349, 209, 364, 336
-0.998694, 241, 185, 304, 200
-0.998698, 1, 433, 375, 496
-0.998703, 17, 297, 144, 328
-0.998734, 361, 177, 375, 304
-0.998787, 343, 241, 358, 368
-0.998799, 333, 305, 364, 432
-0.998808, 161, 193, 288, 224
-0.998811, 1, 317, 128, 348
-0.998818, 1, 145, 375, 208
-0.998826, 73, 81, 88, 208
-0.99883, 129, 401, 256, 432
-0.99883, 81, 457, 208, 488
-0.998833, 1, 393, 128, 424
-0.998849, 81, 201, 208, 232
-0.998853, 33, 181, 160, 212
-0.998858, 67, 65, 82, 192
-0.998875, 113, 361, 240, 392
-0.998877, 81, 133, 208, 164
-0.998881, 133, 369, 164, 496
-0.998891, 17, 1, 48, 256
-0.998901, 321, 257, 352, 500
-0.998903, 201, 193, 264, 320
-0.998904, 113, 53, 240, 84
-0.998947, 81, 437, 208, 468
-0.998954, 129, 241, 192, 368
-0.998954, 225, 333, 352, 364
-0.998964, 353, 257, 368, 384
-0.998966, 55, 1, 70, 128
-0.998966, 177, 281, 304, 344
-0.998967, 113, 213, 240, 244
-0.998988, 169, 257, 232, 500
-0.998996, 97, 13, 224, 44
-0.998997, 53, 65, 68, 192
-0.999008, 249, 1, 264, 128
-0.999008, 209, 169, 336, 200
-0.999015, 129, 313, 256, 344
-0.999017, 11, 1, 26, 128
-0.999021, 313, 241, 344, 368
-0.999038, 321, 97, 352, 352
-0.99904, 209, 413, 336, 444
-0.999041, 165, 1, 196, 256
-0.999046, 177, 217, 304, 280
-0.999052, 1, 233, 128, 264
-0.999052, 65, 1, 80, 128
-0.99906, 361, 257, 375, 384
-0.999063, 113, 237, 240, 268
-0.999083, 261, 17, 276, 144
-0.999085, 97, 413, 224, 444
-0.999088, 213, 1, 228, 128
-0.99909, 69, 257, 100, 500
-0.999094, 129, 249, 256, 280
-0.999096, 61, 65, 76, 192
-0.999098, 113, 225, 240, 256
-0.999101, 169, 305, 232, 432
-0.999104, 113, 261, 240, 292
-0.999122, 177, 1, 192, 128
-0.999129, 129, 297, 256, 328
-0.999135, 353, 49, 368, 176
-0.999146, 225, 345, 352, 376
-0.999154, 337, 257, 352, 384
-0.999154, 173, 353, 204, 480
-0.999155, 113, 325, 240, 356
-0.999161, 79, 65, 94, 192
-0.999165, 255, 17, 270, 144
-0.999166, 193, 109, 320, 140
-0.999173, 353, 97, 368, 224
-0.999174, 347, 65, 362, 192
-0.999183, 65, 213, 192, 244
-0.999184, 161, 353, 192, 480
-0.999204, 39, 49, 54, 176
-0.99921, 47, 49, 62, 176
-0.999216, 65, 161, 96, 416
-0.999231, 33, 165, 160, 196
-0.999233, 361, 97, 375, 224
-0.999236, 89, 289, 152, 416
-0.999243, 241, 1, 256, 128
-0.999244, 219, 1, 234, 128
-0.999244, 49, 1, 64, 128
-0.999245, 75, 369, 90, 496
-0.999254, 81, 73, 208, 104
-0.999259, 67, 113, 82, 240
-0.99926, 103, 1, 118, 128
-0.999266, 129, 285, 256, 316
-0.999272, 291, 49, 306, 176
-0.999277, 301, 49, 316, 176
-0.999279, 129, 273, 256, 304
-0.999281, 351, 1, 366, 128
-0.999281, 1, 1, 16, 128
-0.999293, 71, 1, 86, 128
-0.999302, 335, 97, 350, 224
-0.999304, 231, 33, 246, 160
-0.999308, 41, 193, 72, 320
-0.999315, 61, 241, 76, 368
-0.999315, 63, 369, 78, 496
-0.999326, 81, 121, 208, 152
-0.999326, 1, 257, 128, 288
-0.999329, 187, 1, 202, 128
-0.99933, 113, 337, 240, 368
-0.99933, 225, 357, 352, 388
-0.999332, 145, 97, 208, 352
-0.999335, 255, 65, 270, 192
-0.999336, 341, 49, 356, 176
-0.999337, 85, 49, 100, 176
-0.999343, 27, 49, 42, 176
-0.999346, 33, 201, 160, 232
-0.999351, 207, 1, 222, 128
-0.999352, 33, 49, 48, 176
-0.999353, 17, 1, 32, 128
-0.999358, 77, 17, 92, 144
-0.999358, 81, 145, 208, 176
-0.999359, 105, 113, 136, 240
-0.999371, 1, 193, 375, 256
-0.999371, 89, 1, 120, 256
-0.999374, 81, 109, 208, 140
-0.999374, 361, 33, 375, 160
-0.999374, 209, 373, 336, 404
-0.999376, 327, 97, 342, 224
-0.99938, 215, 65, 230, 192
-0.999382, 173, 65, 188, 192
-0.999386, 327, 49, 342, 176
-0.999388, 75, 273, 90, 400
-0.999389, 59, 129, 74, 256
-0.999391, 261, 97, 292, 352
-0.999391, 77, 97, 108, 352
-0.999393, 241, 401, 368, 432
-0.999396, 341, 97, 356, 224
-0.999403, 145, 349, 272, 380
-0.999404, 69, 369, 84, 496
-0.999405, 335, 33, 350, 160
-0.999408, 45, 113, 60, 240
-0.999408, 207, 81, 222, 208
-0.999412, 267, 33, 282, 160
-0.999412, 225, 1, 240, 128
-0.999414, 83, 321, 98, 448
-0.999417, 285, 33, 300, 160
-0.999418, 317, 97, 332, 224
-0.99942, 321, 33, 336, 160
-0.999424, 87, 225, 102, 352
-0.999432, 171, 17, 186, 144
-0.999438, 307, 49, 322, 176
-0.999447, 181, 49, 196, 176
-0.999452, 91, 33, 106, 160
-0.999459, 343, 193, 358, 320
-0.999466, 331, 289, 346, 416
-0.999472, 261, 65, 276, 192
-0.999473, 313, 17, 328, 144
-0.999481, 187, 65, 202, 192
-0.999481, 57, 369, 72, 496
-0.999483, 221, 81, 236, 208
-0.999484, 277, 33, 292, 160
-0.999489, 97, 33, 112, 160
-0.999491, 281, 81, 296, 208
-0.999498, 209, 385, 336, 416
-0.999499, 21, 49, 36, 176
-0.9995, 145, 157, 272, 188
-0.999504, 67, 241, 82, 368
-0.999505, 149, 145, 180, 272
-0.999508, 15, 49, 30, 176
-0.999516, 267, 81, 282, 208
-0.999517, 51, 113, 66, 240
-0.999522, 133, 65, 148, 192
-0.999522, 81, 241, 96, 368
-0.999523, 311, 97, 326, 224
-0.999535, 329, 101, 344, 116
-0.999535, 261, 39, 276, 54
-0.999535, 165, 33, 180, 160
-0.999535, 239, 101, 254, 116
-0.999535, 341, 289, 356, 304
-0.999536, 301, 99, 316, 114
-0.999536, 351, 237, 366, 252
-0.999536, 311, 7, 326, 22
-0.999536, 73, 87, 88, 102
-0.999536, 273, 81, 288, 208
-0.999537, 201, 81, 216, 208
-0.999538, 73, 471, 88, 486
-0.999538, 77, 79, 92, 94
-0.999538, 355, 219, 370, 234
-0.999538, 65, 9, 80, 24
-0.999538, 353, 75, 368, 90
-0.999539, 71, 97, 86, 112
-0.99954, 293, 99, 308, 114
-0.999541, 67, 437, 82, 452
-0.999541, 251, 37, 266, 52
-0.999542, 91, 463, 106, 478
-0.999542, 67, 133, 82, 148
-0.999542, 341, 101, 356, 116
-0.999542, 349, 247, 364, 262
-0.999543, 77, 107, 92, 122
-0.999543, 353, 229, 368, 244
-0.999543, 59, 87, 74, 102
-0.999544, 291, 1, 306, 128
-0.999545, 63, 253, 78, 268
-0.999545, 263, 95, 278, 110
-0.999546, 347, 257, 362, 272
-0.999546, 35, 189, 50, 204
-0.999546, 15, 245, 30, 260
-0.999547, 61, 147, 76, 162
-0.999547, 129, 65, 160, 320
-0.999547, 227, 81, 242, 208
-0.999548, 271, 99, 286, 114
-0.999548, 61, 127, 76, 142
-0.999548, 49, 125, 64, 140
-0.999548, 103, 1, 118, 16
-0.999548, 227, 53, 242, 68
-0.999548, 79, 469, 94, 484
-0.999548, 69, 109, 84, 124
-0.999549, 283, 99, 298, 114
-0.99955, 341, 67, 356, 82
-0.99955, 209, 101, 224, 116
-0.99955, 99, 467, 114, 482
-0.999551, 59, 119, 74, 134
-0.999551, 259, 73, 274, 88
-0.999552, 345, 1, 360, 128
-0.999552, 195, 65, 210, 192
-0.999552, 39, 115, 54, 130
-0.999552, 89, 103, 104, 118
-0.999553, 345, 263, 360, 278
-0.999554, 115, 1, 130, 128
-0.999555, 35, 125, 50, 140
-0.999555, 359, 207, 374, 222
-0.999555, 81, 463, 96, 478
-0.999556, 223, 103, 238, 118
-0.999557, 193, 101, 208, 116
-0.999557, 323, 101, 338, 116
-0.999558, 55, 241, 70, 368
-0.999559, 193, 1, 208, 128
-0.999559, 259, 51, 274, 66
-0.999561, 345, 109, 360, 124
-0.999561, 271, 45, 286, 60
-0.999561, 339, 273, 354, 288
-0.999561, 59, 7, 74, 22
-0.999561, 81, 421, 96, 436
-0.999562, 53, 117, 68, 132
-0.999562, 243, 65, 258, 192
-0.999562, 81, 95, 96, 110
-0.999563, 229, 103, 244, 118
-0.999563, 19, 101, 34, 116
-0.999564, 97, 103, 112, 118
-0.999565, 215, 101, 230, 116
-0.999565, 251, 101, 266, 116
-0.999566, 249, 97, 280, 352
-0.999566, 81, 369, 96, 496
-0.999567, 165, 81, 180, 208
-0.999567, 73, 115, 88, 130
-0.999567, 275, 1, 290, 16
-0.999568, 63, 113, 78, 128
-0.999569, 53, 73, 68, 88
-0.999569, 39, 131, 54, 146
-0.999569, 77, 427, 92, 442
-0.999571, 249, 81, 264, 208
-0.999571, 347, 71, 362, 86
-0.999572, 69, 153, 84, 168
-0.999575, 359, 279, 374, 294
-0.999575, 263, 103, 278, 118
-0.999576, 245, 99, 260, 114
-0.999576, 353, 105, 368, 120
-0.999576, 233, 97, 248, 112
-0.999579, 75, 1, 90, 16
-0.999579, 81, 243, 96, 258
-0.999579, 347, 103, 362, 118
-0.999581, 25, 1, 40, 128
-0.999581, 271, 105, 286, 120
-0.999582, 257, 99, 272, 114
-0.999584, 359, 109, 374, 124
-0.999585, 87, 97, 102, 224
-0.999587, 73, 129, 88, 256
-0.999588, 225, 433, 352, 496
-0.999588, 287, 97, 302, 224
-0.999588, 149, 65, 180, 320
-0.999589, 285, 97, 316, 352
-0.999589, 127, 65, 142, 192
-0.999589, 109, 1, 124, 128
-0.999591, 57, 261, 72, 276
-0.999592, 299, 1, 314, 128
-0.999592, 267, 51, 282, 66
-0.999593, 59, 135, 74, 150
-0.999593, 131, 1, 146, 16
-0.999594, 161, 369, 288, 400
-0.999594, 49, 13, 176, 44
-0.999595, 277, 105, 292, 120
-0.999597, 67, 119, 82, 134
-0.999598, 25, 103, 40, 118
-0.999598, 99, 457, 114, 472
-0.999599, 63, 71, 78, 86
-0.999599, 15, 5, 30, 20
-0.9996, 115, 3, 130, 18
-0.9996, 239, 95, 254, 110
-0.999601, 51, 369, 66, 496
-0.999601, 291, 65, 306, 80
-0.999602, 61, 153, 76, 168
-0.999603, 53, 143, 68, 158
-0.999604, 83, 1, 98, 128
-0.999604, 355, 145, 370, 272
-0.999605, 51, 7, 66, 22
-0.999606, 37, 1, 52, 128
-0.999607, 305, 105, 320, 120
-0.999607, 357, 213, 372, 228
-0.999607, 311, 105, 326, 120
-0.999607, 305, 97, 320, 224
-0.999608, 63, 141, 78, 156
-0.999609, 361, 193, 375, 208
-0.99961, 53, 137, 68, 152
-0.99961, 285, 105, 300, 120
-0.999612, 155, 81, 170, 208
-0.999612, 327, 107, 342, 122
-0.999613, 337, 107, 352, 122
-0.999613, 71, 75, 86, 90
-0.999614, 353, 279, 368, 294
-0.999615, 43, 369, 58, 496
-0.999617, 143, 81, 158, 208
-0.999617, 291, 105, 306, 120
-0.999618, 83, 101, 98, 116
-0.999619, 43, 121, 58, 136
-0.99962, 299, 97, 314, 224
-0.999621, 319, 107, 334, 122
-0.999622, 125, 1, 140, 16
-0.999624, 201, 33, 216, 160
-0.999624, 299, 105, 314, 120
-0.999626, 237, 49, 252, 176
-0.99963, 345, 269, 360, 284
-0.99963, 45, 135, 60, 150
-0.999631, 293, 97, 308, 224
-0.999634, 65, 3, 80, 18
-0.999635, 1, 3, 16, 18
-0.999637, 323, 321, 338, 448
-0.999638, 149, 65, 164, 192
-0.999638, 39, 97, 54, 224
-0.999638, 261, 45, 276, 60
-0.99964, 95, 177, 110, 304
-0.99964, 51, 131, 66, 146
-0.999641, 105, 33, 136, 288
-0.999642, 49, 1, 64, 16
-0.999652, 307, 1, 322, 128
-0.999652, 67, 147, 82, 162
-0.999654, 9, 5, 24, 20
-0.999654, 95, 97, 110, 224
-0.999661, 343, 279, 358, 294
-0.999661, 117, 1, 148, 256
-0.999701, 63, 259, 78, 274
-0.999737, 49, 289, 80, 416
-0.999753, 87, 245, 102, 260
-0.999754, 89, 241, 152, 368
-0.999774, 81, 257, 112, 500
-0.99979, 59, 1, 74, 16
-0.999885, 317, 353, 348, 480
-0.999896, 297, 97, 328, 352
-0.999933, 309, 97, 340, 352
-0.999978, 177, 97, 240, 352
-1.00002, 29, 97, 60, 352
-1.00005, 121, 225, 152, 480
-1.00007, 13, 97, 44, 352
-1.00009, 33, 257, 64, 500
-1.00017, 1, 225, 32, 352
-1.00022, 177, 241, 304, 368
-1.00024, 129, 425, 375, 488
-1.00026, 109, 193, 140, 448
-1.00029, 149, 257, 180, 500
-1.0003, 1, 97, 32, 352
-1.00036, 29, 209, 60, 336
-1.00037, 93, 97, 124, 352
-1.00038, 237, 97, 268, 352
-1.00047, 17, 225, 48, 480
-1.00048, 137, 257, 168, 500
-1.00052, 169, 257, 200, 500
-1.00053, 93, 257, 124, 500
-1.00053, 205, 97, 236, 352
-1.00055, 181, 257, 212, 500
-1.00057, 161, 97, 192, 352
-1.00058, 233, 145, 264, 272
-1.0006, 297, 257, 328, 500
-1.00066, 277, 113, 308, 240
-1.00066, 309, 225, 340, 480
-1.00068, 209, 257, 240, 500
-1.0007, 5, 257, 36, 500
-1.00071, 193, 257, 224, 500
-1.00071, 121, 177, 152, 304
-1.00073, 257, 369, 320, 496
-1.00073, 121, 369, 152, 496
-1.00074, 273, 129, 304, 384
-1.00078, 189, 97, 220, 352
-1.0008, 177, 97, 208, 352
-1.00083, 217, 97, 248, 352
-1.0009, 273, 257, 336, 500
-1.0009, 117, 97, 148, 352
-1.0009, 281, 257, 312, 500
-1.00092, 293, 369, 324, 496
-1.00094, 133, 161, 164, 416
-1.00095, 137, 321, 168, 448
-1.00096, 281, 369, 312, 496
-1.001, 269, 257, 300, 500
-1.00101, 25, 369, 56, 496
-1.00103, 221, 257, 252, 500
-1.00103, 253, 257, 284, 500
-1.00107, 189, 353, 220, 480
-1.00108, 149, 321, 180, 448
-1.00112, 93, 113, 124, 240
-1.00114, 233, 257, 264, 500
-1.00115, 145, 161, 176, 416
-1.00151, 37, 321, 68, 448
-1.00161, 201, 257, 264, 500
-1.0017, 17, 177, 48, 304
-1.00172, 109, 209, 140, 336
-1.00175, 133, 145, 164, 272
-1.00179, 89, 225, 120, 352
-1.00183, 109, 353, 140, 480
-1.00186, 97, 353, 128, 480
-1.00194, 125, 305, 156, 432
-1.00196, 245, 113, 276, 240
-1.00202, 261, 369, 292, 496
-1.00205, 53, 193, 84, 320
-1.00206, 309, 305, 340, 432
-1.00211, 105, 161, 168, 416
-1.00215, 109, 289, 140, 416
-1.00224, 9, 273, 40, 400
-1.00227, 205, 369, 236, 496
-1.00227, 345, 321, 375, 448
-1.00246, 161, 257, 224, 384
-1.00406, 241, 177, 304, 304
-1.0045, 233, 257, 296, 500
-1.00682, 273, 145, 336, 272
-1.00759, 185, 257, 248, 384
-1.0082, 193, 305, 256, 432
-1.01032, 209, 257, 272, 384
-1.0107, 265, 273, 328, 400
-1.01088, 265, 193, 328, 320
-1.0112, 233, 273, 296, 400
-1.01374, 233, 225, 296, 352
