1955
-0.338169, 1, 65, 500, 320
-0.363023, 1, 1, 500, 375
-0.363438, 1, 1, 256, 375
-0.376322, 161, 1, 416, 375
-0.457879, 193, 1, 448, 256
-0.500842, 97, 65, 352, 320
-0.553887, 257, 1, 500, 375
-0.571268, 1, 1, 256, 256
-0.582957, 257, 97, 500, 352
-0.613526, 1, 97, 256, 352
-0.826044, 209, 1, 336, 256
-0.833971, 1, 1, 128, 256
-0.836194, 209, 1, 336, 375
-0.840005, 161, 97, 288, 352
-0.840463, 161, 1, 288, 375
-0.842762, 273, 33, 400, 288
-0.844927, 81, 1, 208, 375
-0.845206, 97, 1, 224, 256
-0.84572, 305, 1, 432, 375
-0.855759, 17, 1, 144, 375
-0.859348, 81, 97, 208, 352
-0.862409, 145, 1, 272, 256
-0.86257, 353, 1, 480, 375
-0.86349, 369, 1, 496, 256
-0.863794, 1, 97, 128, 352
-0.865629, 225, 97, 352, 352
-0.865687, 321, 1, 448, 256
-0.87675, 49, 1, 176, 256
-0.880779, 1, 1, 500, 128
-0.881481, 257, 1, 384, 375
-0.890344, 161, 17, 416, 144
-0.890552, 273, 129, 400, 375
-0.891435, 321, 97, 448, 352
-0.894451, 33, 177, 288, 304
-0.895406, 1, 129, 500, 256
-0.895426, 129, 97, 384, 224
-0.897391, 1, 177, 500, 304
-0.899557, 33, 49, 288, 176
-0.89975, 129, 177, 384, 304
-0.901392, 257, 1, 500, 128
-0.902422, 33, 113, 288, 240
-0.906063, 1, 1, 256, 128
-0.912062, 1, 49, 500, 176
-0.91602, 257, 161, 500, 288
-0.919475, 273, 17, 400, 144
-0.920156, 1, 241, 500, 368
-0.920945, 65, 225, 320, 352
-0.921483, 145, 1, 272, 128
-0.922173, 81, 97, 208, 224
-0.922484, 65, 177, 192, 304
-0.923271, 257, 81, 500, 208
-0.923627, 33, 1, 160, 128
-0.923858, 273, 177, 336, 304
-0.925067, 145, 193, 272, 320
-0.925956, 209, 65, 336, 192
-0.926487, 65, 113, 128, 240
-0.927801, 97, 145, 160, 272
-0.928923, 97, 49, 224, 176
-0.929015, 209, 177, 336, 304
-0.92913, 65, 65, 128, 192
-0.929207, 161, 193, 224, 320
-0.929268, 129, 193, 192, 320
-0.930183, 321, 1, 448, 128
-0.930248, 81, 17, 144, 144
-0.930292, 233, 1, 296, 128
-0.930551, 193, 17, 320, 144
-0.931549, 81, 1, 208, 128
-0.931863, 369, 97, 496, 352
-0.932417, 185, 33, 248, 160
-0.932879, 161, 225, 416, 352
-0.933679, 145, 145, 272, 272
-0.934349, 185, 161, 248, 288
-0.934734, 401, 1, 464, 128
-0.935371, 153, 113, 216, 240
-0.935968, 97, 81, 160, 208
-0.937816, 1, 97, 128, 224
-0.937927, 305, 65, 432, 192
-0.938058, 329, 1, 392, 128
-0.938345, 161, 1, 224, 128
-0.938475, 25, 1, 88, 128
-0.938541, 121, 113, 184, 240
-0.939043, 289, 145, 416, 272
-0.939716, 49, 49, 176, 176
-0.939716, 257, 65, 384, 192
-0.940118, 1, 17, 64, 144
-0.940132, 209, 113, 336, 240
-0.940281, 153, 65, 216, 192
-0.940461, 65, 177, 128, 304
-0.940465, 305, 1, 368, 128
-0.940474, 145, 49, 272, 176
-0.940647, 361, 1, 424, 128
-0.941983, 177, 201, 240, 264
-0.942014, 105, 225, 168, 352
-0.942509, 273, 97, 336, 224
-0.942632, 217, 209, 280, 336
-0.942712, 81, 225, 208, 352
-0.943176, 241, 129, 304, 256
-0.943211, 257, 193, 384, 320
-0.943213, 257, 209, 500, 336
-0.943395, 65, 145, 128, 208
-0.943484, 1, 49, 128, 176
-0.943761, 129, 97, 256, 224
-0.944086, 121, 1, 184, 128
-0.944638, 153, 201, 216, 264
-0.945511, 209, 33, 272, 160
-0.945513, 369, 1, 496, 128
-0.945527, 209, 225, 336, 352
-0.945943, 265, 209, 328, 272
-0.946001, 337, 49, 400, 176
-0.946393, 177, 113, 240, 240
-0.946633, 249, 209, 312, 336
-0.947272, 297, 177, 360, 304
-0.947368, 17, 209, 144, 336
-0.947575, 209, 9, 272, 72
-0.94759, 201, 193, 264, 256
-0.948026, 201, 81, 264, 208
-0.948191, 65, 225, 128, 352
-0.948196, 305, 49, 368, 176
-0.948299, 361, 89, 424, 152
-0.948499, 273, 33, 336, 160
-0.94894, 353, 81, 480, 208
-0.949658, 153, 97, 216, 160
-0.949761, 65, 97, 128, 160
-0.94991, 345, 97, 408, 224
-0.950447, 153, 241, 216, 368
-0.950453, 169, 17, 232, 80
-0.950585, 121, 65, 184, 192
-0.950606, 65, 121, 128, 184
-0.950969, 177, 177, 240, 240
-0.950997, 129, 241, 256, 368
-0.951176, 1, 145, 128, 272
-0.951225, 137, 177, 200, 240
-0.951303, 361, 49, 424, 176
-0.951446, 137, 241, 200, 304
-0.95157, 305, 33, 368, 96
-0.951665, 129, 241, 192, 368
-0.951838, 305, 177, 368, 240
-0.952064, 97, 177, 160, 240
-0.952781, 417, 1, 480, 64
-0.95318, 105, 249, 168, 312
-0.953323, 185, 57, 248, 120
-0.953379, 193, 209, 256, 336
-0.953595, 177, 89, 240, 152
-0.953623, 65, 193, 128, 256
-0.953634, 233, 201, 296, 264
-0.953798, 1, 1, 64, 64
-0.953827, 305, 113, 368, 240
-0.953863, 369, 57, 432, 120
-0.953999, 201, 81, 264, 144
-0.954256, 129, 209, 192, 272
-0.954373, 209, 217, 272, 280
-0.954383, 329, 113, 392, 176
-0.954708, 209, 41, 272, 104
-0.954862, 169, 233, 232, 296
-0.954902, 81, 9, 144, 72
-0.954995, 113, 105, 176, 168
-0.955029, 225, 241, 288, 304
-0.955397, 329, 33, 392, 96
-0.955419, 137, 273, 200, 336
-0.955653, 129, 1, 192, 64
-0.956327, 233, 33, 296, 96
-0.956388, 41, 129, 104, 256
-0.956395, 369, 17, 432, 80
-0.956491, 57, 1, 120, 128
-0.956512, 409, 25, 472, 88
-0.956715, 273, 33, 336, 96
-0.956736, 113, 25, 176, 88
-0.957004, 265, 89, 328, 152
-0.957265, 233, 1, 296, 64
-0.957432, 25, 1, 88, 64
-0.957493, 305, 233, 368, 296
-0.957762, 225, 89, 288, 152
-0.957819, 225, 81, 288, 208
-0.957873, 121, 153, 184, 216
-0.958062, 145, 129, 208, 192
-0.95808, 41, 193, 104, 320
-0.958139, 305, 1, 368, 64
-0.958519, 153, 65, 216, 320
-0.958779, 57, 241, 120, 304
-0.958825, 289, 201, 352, 264
-0.958946, 273, 65, 336, 128
-0.959293, 329, 9, 392, 72
-0.959308, 273, 177, 336, 240
-0.959364, 201, 65, 264, 320
-0.959722, 1, 193, 64, 320
-0.959771, 65, 217, 128, 280
-0.959861, 73, 169, 136, 232
-0.959914, 153, 65, 216, 128
-0.959949, 337, 129, 464, 256
-0.960171, 193, 113, 256, 176
-0.960199, 1, 33, 64, 96
-0.960378, 265, 113, 328, 176
-0.960449, 241, 65, 304, 128
-0.960622, 257, 241, 384, 368
-0.960628, 97, 57, 160, 120
-0.960658, 97, 153, 160, 216
-0.960923, 345, 145, 408, 272
-0.961006, 169, 265, 232, 328
-0.96108, 273, 225, 336, 352
-0.961364, 329, 65, 392, 128
-0.961561, 65, 73, 128, 136
-0.961714, 1, 65, 64, 192
-0.96175, 401, 49, 464, 112
-0.96175, 121, 57, 184, 120
-0.962038, 49, 1, 112, 64
-0.962225, 425, 17, 488, 144
-0.962272, 105, 225, 168, 288
-0.962388, 209, 161, 272, 288
-0.962449, 33, 177, 96, 240
-0.962644, 41, 121, 104, 184
-0.96307, 305, 57, 368, 120
-0.96311, 273, 241, 336, 304
-0.96316, 137, 33, 200, 96
-0.963435, 201, 1, 232, 128
-0.963478, 25, 97, 88, 160
-0.963596, 161, 153, 224, 216
-0.963726, 361, 113, 424, 176
-0.963773, 41, 201, 104, 264
-0.963804, 25, 49, 88, 176
-0.963828, 181, 201, 212, 264
-0.963874, 65, 49, 128, 112
-0.964091, 145, 201, 272, 264
-0.964119, 1, 97, 64, 160
-0.964162, 1, 57, 64, 120
-0.964266, 401, 49, 464, 176
-0.964416, 305, 81, 368, 144
-0.964588, 105, 1, 168, 64
-0.964954, 305, 257, 368, 320
-0.965344, 33, 9, 160, 72
-0.965353, 161, 201, 192, 264
-0.96537, 289, 65, 416, 128
-0.965411, 297, 225, 360, 352
-0.965454, 385, 97, 448, 160
-0.965473, 337, 89, 400, 152
-0.965485, 225, 1, 288, 256
-0.965582, 241, 177, 304, 240
-0.965603, 385, 97, 448, 224
-0.96563, 273, 145, 336, 208
-0.965777, 313, 1, 376, 256
-0.965942, 73, 1, 136, 256
-0.965988, 105, 129, 168, 192
-0.966275, 265, 265, 328, 328
-0.96654, 105, 273, 168, 336
-0.966634, 129, 225, 256, 288
-0.96672, 177, 1, 240, 256
-0.966769, 41, 241, 104, 368
-0.966838, 161, 41, 224, 104
-0.967108, 97, 1, 160, 256
-0.967189, 209, 265, 272, 328
-0.967197, 265, 33, 328, 288
-0.967197, 113, 97, 176, 352
-0.967214, 89, 33, 152, 96
-0.967315, 337, 1, 400, 256
-0.967525, 233, 1, 264, 128
-0.967555, 385, 17, 416, 144
-0.967597, 305, 113, 368, 176
-0.967875, 41, 25, 104, 88
-0.967897, 33, 241, 96, 304
-0.9679, 297, 137, 360, 200
-0.968014, 97, 201, 160, 264
-0.968057, 321, 161, 384, 288
-0.968141, 145, 177, 272, 240
-0.96823, 1, 1, 64, 256
-0.968255, 1, 145, 64, 208
-0.968314, 209, 185, 240, 248
-0.968317, 29, 9, 60, 72
-0.968331, 49, 193, 176, 256
-0.968554, 153, 81, 184, 208
-0.968654, 369, 1, 432, 256
-0.968714, 81, 17, 208, 80
-0.968801, 81, 145, 112, 208
-0.969065, 145, 145, 176, 272
-0.96908, 25, 73, 88, 136
-0.969126, 209, 73, 336, 136
-0.969164, 197, 17, 228, 80
-0.969182, 265, 201, 296, 264
-0.969183, 221, 17, 252, 144
-0.969255, 13, 25, 44, 88
-0.96929, 197, 193, 228, 256
-0.969303, 241, 113, 304, 176
-0.969392, 89, 97, 152, 352
-0.969425, 405, 1, 436, 128
-0.969427, 81, 161, 208, 224
-0.969451, 281, 9, 344, 72
-0.969544, 89, 89, 152, 152
-0.96955, 121, 81, 184, 144
-0.969647, 193, 217, 320, 280
-0.969773, 285, 177, 316, 304
-0.969775, 165, 49, 196, 176
-0.969797, 201, 169, 264, 232
-0.96986, 373, 121, 404, 184
-0.969886, 65, 97, 128, 352
-0.969889, 241, 97, 304, 352
-0.969939, 177, 129, 240, 375
-0.969953, 329, 233, 392, 296
-0.969993, 277, 225, 308, 288
-0.970006, 101, 81, 132, 208
-0.970012, 329, 225, 392, 352
-0.970022, 193, 193, 320, 256
-0.970311, 393, 73, 456, 136
-0.970397, 169, 129, 232, 192
-0.97042, 141, 97, 172, 224
-0.970452, 369, 1, 400, 128
-0.970476, 157, 209, 188, 336
-0.970519, 105, 81, 136, 144
-0.970519, 241, 201, 272, 264
-0.970527, 173, 1, 204, 128
-0.97063, 361, 137, 424, 200
-0.970658, 289, 113, 416, 176
-0.970674, 81, 265, 144, 328
-0.970691, 369, 57, 400, 120
-0.970813, 69, 193, 100, 256
-0.970828, 317, 1, 348, 64
-0.970882, 165, 233, 196, 296
-0.970935, 389, 41, 420, 104
-0.970948, 177, 1, 208, 64
-0.970973, 241, 265, 304, 328
-0.971066, 93, 1, 124, 128
-0.971099, 433, 25, 496, 88
-0.971201, 321, 33, 352, 96
-0.971211, 377, 65, 408, 192
-0.971218, 153, 249, 184, 312
-0.971255, 321, 1, 352, 128
-0.971283, 69, 105, 100, 168
-0.971284, 81, 217, 208, 280
-0.971285, 165, 177, 196, 240
-0.971293, 225, 41, 256, 104
-0.971303, 449, 33, 480, 96
-0.971327, 81, 121, 112, 184
-0.971421, 125, 1, 156, 64
-0.971496, 133, 225, 164, 352
-0.97151, 365, 65, 396, 192
-0.971524, 149, 137, 180, 200
-0.971528, 213, 9, 244, 72
-0.971555, 13, 17, 44, 144
-0.971611, 225, 97, 352, 160
-0.971661, 225, 41, 352, 104
-0.971702, 17, 217, 80, 280
-0.971912, 169, 161, 200, 288
-0.971922, 209, 81, 240, 208
-0.971924, 149, 185, 180, 248
-0.972034, 289, 97, 352, 352
-0.972089, 249, 241, 312, 304
-0.97212, 169, 289, 232, 352
-0.972241, 1, 1, 32, 128
-0.972329, 25, 145, 88, 208
-0.972427, 77, 65, 108, 192
-0.972435, 249, 81, 312, 208
-0.972449, 425, 161, 488, 288
-0.97246, 149, 97, 180, 160
-0.972493, 145, 65, 272, 128
-0.972562, 225, 81, 256, 144
-0.972562, 153, 225, 184, 288
-0.97258, 285, 193, 316, 256
-0.972609, 49, 121, 176, 184
-0.972624, 65, 153, 96, 216
-0.972643, 125, 249, 156, 312
-0.972716, 253, 233, 284, 296
-0.972731, 337, 137, 400, 200
-0.972819, 257, 201, 384, 264
-0.97282, 353, 1, 480, 64
-0.97284, 65, 97, 192, 160
-0.972908, 5, 97, 36, 224
-0.972979, 177, 241, 304, 304
-0.972984, 1, 113, 64, 240
-0.973019, 401, 17, 432, 80
-0.973099, 169, 41, 200, 104
-0.973106, 161, 9, 288, 72
-0.973134, 241, 1, 272, 64
-0.973188, 105, 257, 136, 320
-0.973224, 193, 129, 224, 256
-0.97327, 1, 145, 128, 208
-0.97329, 197, 225, 228, 288
-0.973339, 337, 97, 464, 160
-0.973376, 213, 217, 244, 280
-0.973389, 97, 185, 224, 248
-0.973407, 221, 177, 252, 240
-0.973512, 277, 81, 308, 144
-0.973538, 257, 209, 288, 336
-0.973594, 289, 89, 416, 152
-0.9736, 393, 1, 456, 256
-0.973613, 81, 169, 112, 232
-0.973621, 89, 81, 120, 208
-0.973634, 193, 137, 256, 200
-0.973643, 29, 1, 60, 128
-0.973658, 101, 105, 132, 168
-0.973699, 9, 121, 72, 184
-0.973704, 325, 137, 356, 200
-0.973709, 201, 241, 264, 304
-0.973711, 393, 1, 456, 64
-0.973807, 233, 153, 296, 216
-0.973863, 181, 177, 212, 304
-0.973894, 129, 97, 256, 160
-0.97392, 353, 225, 480, 352
-0.973934, 17, 1, 48, 64
-0.973946, 373, 81, 404, 144
-0.973961, 129, 41, 256, 104
-0.973978, 153, 33, 184, 160
-0.974042, 81, 241, 144, 304
-0.974063, 213, 81, 244, 144
-0.974085, 85, 97, 116, 160
-0.974115, 417, 73, 480, 136
-0.974216, 97, 137, 224, 200
-0.974222, 225, 249, 352, 312
-0.974257, 337, 49, 464, 112
-0.974269, 157, 145, 188, 272
-0.974356, 17, 33, 144, 96
-0.974446, 305, 145, 336, 272
-0.974483, 449, 57, 480, 120
-0.974485, 389, 17, 420, 80
-0.974498, 209, 105, 240, 168
-0.974531, 125, 81, 156, 208
-0.974539, 121, 1, 184, 256
-0.974555, 389, 65, 420, 192
-0.974611, 305, 137, 432, 200
-0.974656, 245, 1, 276, 128
-0.97471, 349, 1, 380, 128
-0.974722, 449, 1, 480, 128
-0.974761, 169, 105, 200, 168
-0.974782, 209, 177, 240, 304
-0.974789, 345, 97, 408, 352
-0.974797, 193, 49, 224, 176
-0.974814, 1, 121, 128, 184
-0.974822, 225, 169, 352, 232
-0.974864, 449, 1, 480, 64
-0.974879, 193, 121, 320, 184
-0.97488, 337, 257, 400, 320
-0.97493, 1, 193, 64, 256
-0.974943, 85, 1, 116, 64
-0.975009, 141, 225, 172, 288
-0.975123, 125, 1, 156, 128
-0.975182, 93, 129, 124, 256
-0.975185, 145, 193, 176, 320
-0.975399, 273, 33, 400, 96
-0.975444, 173, 113, 204, 240
-0.975463, 313, 65, 344, 128
-0.975569, 289, 1, 352, 256
-0.975594, 329, 233, 360, 296
-0.975654, 225, 1, 352, 64
-0.975656, 133, 161, 164, 288
-0.975693, 177, 169, 208, 232
-0.975745, 241, 73, 272, 136
-0.97595, 173, 65, 204, 128
-0.975957, 289, 17, 320, 144
-0.975987, 237, 25, 268, 88
-0.976023, 153, 73, 184, 136
-0.976023, 309, 145, 340, 208
-0.97606, 221, 177, 252, 304
-0.97608, 97, 153, 128, 216
-0.976179, 57, 273, 120, 336
-0.976274, 1, 1, 32, 64
-0.976306, 377, 113, 408, 240
-0.976319, 329, 1, 360, 64
-0.976343, 305, 9, 432, 72
-0.976394, 161, 1, 192, 64
-0.976425, 297, 201, 328, 264
-0.976511, 277, 17, 308, 144
-0.97653, 209, 33, 240, 96
-0.976558, 53, 1, 84, 64
-0.976563, 137, 161, 168, 224
-0.976591, 261, 1, 292, 128
-0.976594, 305, 193, 432, 320
-0.976655, 265, 145, 296, 272
-0.976667, 337, 73, 464, 136
-0.976683, 33, 233, 160, 296
-0.976737, 385, 177, 448, 304
-0.976781, 189, 81, 220, 144
-0.976803, 229, 65, 260, 192
-0.976846, 85, 25, 116, 88
-0.976848, 1, 121, 32, 184
-0.976953, 145, 241, 176, 368
-0.976968, 309, 1, 340, 128
-0.977029, 145, 121, 272, 184
-0.977037, 177, 97, 304, 160
-0.977059, 225, 217, 256, 280
-0.977059, 1, 241, 64, 368
-0.977103, 273, 209, 304, 336
-0.977111, 309, 177, 340, 240
-0.977116, 125, 225, 156, 288
-0.977132, 73, 113, 104, 240
-0.977148, 161, 1, 224, 375
-0.97715, 241, 49, 272, 176
-0.977159, 425, 65, 488, 192
-0.97719, 409, 225, 472, 352
-0.977274, 333, 1, 364, 128
-0.977374, 289, 129, 320, 256
-0.977409, 369, 1, 400, 64
-0.977442, 273, 65, 304, 192
-0.977448, 109, 17, 140, 80
-0.977498, 77, 65, 108, 128
-0.977506, 373, 33, 404, 96
-0.977528, 145, 145, 272, 208
-0.977569, 273, 241, 400, 304
-0.977573, 65, 49, 96, 176
-0.977587, 409, 65, 440, 128
-0.977593, 49, 73, 176, 136
-0.977606, 117, 153, 148, 216
-0.977629, 241, 121, 368, 184
-0.977772, 5, 57, 36, 120
-0.977784, 357, 97, 388, 160
-0.977818, 209, 1, 272, 375
-0.977832, 297, 193, 328, 320
-0.977916, 81, 1, 112, 128
-0.977966, 113, 145, 144, 272
-0.978004, 353, 177, 480, 304
-0.978086, 1, 49, 32, 176
-0.978143, 289, 177, 416, 240
-0.978167, 293, 65, 324, 128
-0.978188, 33, 169, 160, 232
-0.97819, 177, 41, 304, 104
-0.978197, 185, 1, 216, 128
-0.978203, 385, 81, 416, 144
-0.978239, 253, 209, 284, 272
-0.978268, 321, 177, 352, 304
-0.978281, 229, 241, 260, 304
-0.978282, 1, 97, 64, 352
-0.978308, 33, 1, 96, 256
-0.978335, 257, 65, 288, 192
-0.978356, 417, 113, 480, 240
-0.978362, 265, 257, 296, 320
-0.978375, 9, 97, 40, 160
-0.978377, 177, 241, 208, 304
-0.978513, 421, 41, 452, 104
-0.978547, 345, 113, 376, 176
-0.978559, 357, 49, 388, 112
-0.978617, 401, 41, 432, 104
-0.97862, 93, 73, 124, 136
-0.978717, 137, 113, 168, 176
-0.97872, 137, 49, 168, 176
-0.978774, 197, 41, 228, 104
-0.978778, 353, 209, 416, 336
-0.978849, 81, 177, 112, 304
-0.978899, 137, 249, 168, 312
-0.978928, 5, 161, 36, 224
-0.97894, 197, 137, 228, 200
-0.978952, 237, 225, 268, 352
-0.978968, 253, 9, 284, 72
-0.978984, 337, 161, 368, 224
-0.978994, 273, 105, 304, 168
-0.979013, 365, 113, 396, 240
-0.979075, 353, 81, 384, 208
-0.979102, 397, 65, 428, 128
-0.979112, 405, 49, 436, 176
-0.979135, 25, 33, 56, 96
-0.979152, 57, 1, 88, 128
-0.979157, 377, 97, 440, 352
-0.979272, 57, 209, 88, 272
-0.979301, 113, 257, 240, 320
-0.979319, 45, 1, 76, 128
-0.979322, 157, 25, 188, 88
-0.97934, 353, 17, 384, 80
-0.979404, 213, 57, 244, 120
-0.979421, 277, 249, 308, 312
-0.979436, 105, 17, 136, 144
-0.979501, 185, 1, 248, 375
-0.97953, 169, 209, 200, 336
-0.979554, 425, 17, 456, 144
-0.979556, 125, 273, 156, 336
-0.979557, 209, 145, 336, 208
-0.97958, 105, 1, 168, 375
-0.979653, 189, 105, 220, 168
-0.979707, 73, 225, 104, 288
-0.979773, 97, 129, 128, 192
-0.979811, 297, 177, 328, 240
-0.979845, 305, 241, 432, 368
-0.979859, 285, 65, 316, 192
-0.979868, 189, 161, 220, 224
-0.979893, 289, 225, 320, 288
-0.979912, 113, 65, 144, 192
-0.979927, 345, 41, 376, 104
-0.979979, 41, 1, 72, 64
-0.979989, 321, 97, 384, 352
-0.980045, 141, 273, 172, 336
-0.980047, 353, 121, 480, 184
-0.980059, 133, 89, 164, 152
-0.980088, 317, 81, 348, 208
-0.980174, 265, 1, 328, 375
-0.980194, 241, 49, 272, 112
-0.980215, 237, 97, 268, 160
-0.980244, 85, 217, 116, 280
-0.980328, 1, 57, 128, 120
-0.980329, 193, 177, 224, 304
-0.980342, 257, 145, 384, 208
-0.980356, 213, 225, 244, 352
-0.980419, 417, 1, 480, 256
-0.980591, 73, 1, 136, 375
-0.980658, 1, 97, 128, 160
-0.980828, 225, 273, 352, 336
-0.980843, 97, 73, 224, 136
-0.980952, 265, 129, 328, 375
-0.981019, 33, 129, 96, 375
-0.981086, 117, 241, 148, 368
-0.981095, 1, 1, 64, 375
-0.981117, 305, 97, 336, 224
-0.981159, 65, 265, 192, 328
-0.981166, 177, 265, 304, 328
-0.981274, 233, 177, 264, 304
-0.981612, 333, 49, 364, 176
-0.981669, 213, 129, 244, 256
-0.98178, 105, 225, 136, 352
-0.981955, 433, 209, 496, 336
-0.981974, 65, 41, 192, 104
-0.982054, 353, 25, 480, 88
-0.982105, 61, 129, 92, 256
-0.982133, 81, 225, 112, 352
-0.982281, 69, 225, 100, 352
-0.982424, 181, 241, 212, 368
-0.982462, 1, 209, 128, 272
-0.982518, 17, 65, 48, 192
-0.982568, 289, 1, 352, 375
-0.982757, 69, 177, 100, 304
-0.982879, 309, 193, 340, 320
-0.983223, 129, 1, 192, 375
-0.983289, 177, 65, 208, 192
-0.983384, 233, 1, 296, 375
-0.983467, 345, 1, 408, 375
-0.983589, 225, 225, 256, 352
-0.983646, 93, 177, 124, 304
-0.983788, 141, 1, 172, 128
-0.983932, 49, 1, 112, 375
-0.983955, 321, 1, 384, 375
-0.983985, 25, 1, 88, 375
-0.984041, 69, 1, 100, 128
-0.98409, 193, 297, 320, 360
-0.9841, 97, 305, 224, 368
-0.984287, 53, 193, 84, 320
-0.984334, 317, 129, 348, 256
-0.984362, 277, 129, 308, 256
-0.984993, 385, 1, 448, 375
-0.985142, 305, 217, 432, 280
-0.985172, 377, 225, 440, 352
-0.985264, 305, 241, 336, 368
-0.985306, 353, 129, 384, 256
-0.985317, 145, 289, 272, 352
-0.985328, 389, 113, 420, 240
-0.985342, 49, 297, 176, 360
-0.985646, 241, 297, 368, 360
-0.985666, 273, 265, 400, 328
-0.985672, 1, 161, 32, 288
-0.985751, 225, 113, 256, 240
-0.986165, 289, 241, 320, 368
-0.986261, 333, 145, 364, 272
-0.986595, 437, 1, 468, 128
-0.986688, 17, 265, 144, 328
-0.986703, 169, 205, 232, 236
-0.986824, 201, 225, 232, 352
-0.986923, 425, 1, 488, 375
-0.986923, 353, 145, 480, 208
-0.98708, 457, 177, 488, 304
-0.987138, 253, 113, 284, 240
-0.987261, 237, 129, 268, 256
-0.987296, 341, 97, 372, 224
-0.987522, 321, 265, 448, 328
-0.987546, 49, 65, 80, 192
-0.98755, 265, 205, 328, 236
-0.987571, 201, 193, 264, 224
-0.987601, 1, 193, 256, 256
-0.987655, 337, 305, 464, 368
-0.987665, 33, 97, 288, 160
-0.987702, 13, 177, 44, 304
-0.987855, 161, 181, 224, 212
-0.987872, 129, 89, 384, 152
-0.987875, 93, 241, 124, 368
-0.987938, 233, 205, 296, 236
-0.988021, 341, 225, 372, 352
-0.988097, 321, 241, 352, 368
-0.988146, 257, 57, 500, 120
-0.988178, 137, 225, 200, 256
-0.988209, 185, 181, 248, 212
-0.988213, 169, 225, 232, 256
-0.988243, 381, 161, 412, 288
-0.988259, 113, 237, 176, 268
-0.988299, 369, 201, 496, 264
-0.988352, 249, 225, 312, 256
-0.988408, 169, 193, 232, 224
-0.988458, 129, 193, 192, 224
-0.988463, 129, 33, 384, 96
-0.98847, 289, 205, 352, 236
-0.988512, 129, 65, 384, 128
-0.988575, 337, 169, 464, 232
-0.988577, 153, 237, 216, 268
-0.98862, 369, 49, 432, 80
-0.988638, 225, 217, 288, 248
-0.988675, 161, 217, 416, 280
-0.988684, 265, 237, 328, 268
-0.988694, 97, 1, 160, 32
-0.988724, 53, 241, 84, 368
-0.988724, 105, 277, 168, 308
-0.988728, 401, 25, 464, 56
-0.988807, 265, 193, 328, 224
-0.988829, 145, 213, 208, 244
-0.988852, 153, 125, 216, 156
-0.988857, 297, 189, 360, 220
-0.988863, 65, 129, 128, 160
-0.988866, 321, 241, 448, 304
-0.988873, 193, 17, 256, 48
-0.988916, 225, 81, 480, 144
-0.988933, 1, 21, 64, 52
-0.988933, 5, 225, 36, 352
-0.988934, 297, 25, 360, 56
-0.988952, 97, 17, 160, 48
-0.989007, 233, 257, 296, 288
-0.989014, 161, 177, 416, 240
-0.989038, 65, 229, 128, 260
-0.989044, 121, 17, 184, 48
-0.989047, 29, 49, 60, 176
-0.989051, 73, 97, 136, 128
-0.989064, 265, 249, 328, 280
-0.989069, 153, 97, 216, 128
-0.989102, 337, 41, 400, 72
-0.989109, 417, 5, 480, 36
-0.989114, 361, 97, 424, 128
-0.989116, 129, 177, 192, 208
-0.989158, 65, 189, 128, 220
-0.989168, 465, 1, 496, 128
-0.989174, 161, 41, 224, 72
-0.98918, 273, 217, 336, 248
-0.989196, 305, 57, 368, 88
-0.989197, 201, 85, 264, 116
-0.989199, 113, 105, 176, 136
-0.989199, 209, 229, 272, 260
-0.989214, 177, 77, 240, 108
-0.989218, 313, 141, 376, 172
-0.989226, 321, 109, 384, 140
-0.989241, 209, 205, 272, 236
-0.989246, 209, 41, 272, 72
-0.989262, 209, 53, 272, 84
-0.989298, 137, 141, 200, 172
-0.989325, 217, 1, 280, 32
-0.989329, 241, 237, 304, 268
-0.98934, 57, 165, 120, 196
-0.989345, 241, 93, 304, 124
-0.989361, 121, 33, 184, 64
-0.989367, 89, 185, 152, 216
-0.989376, 249, 37, 312, 68
-0.989381, 49, 1, 112, 32
-0.989387, 249, 21, 312, 52
-0.989387, 161, 29, 224, 60
-0.98939, 169, 61, 232, 92
-0.989393, 401, 97, 464, 352
-0.989403, 73, 241, 136, 272
-0.98941, 153, 13, 216, 44
-0.989414, 129, 281, 192, 312
-0.989424, 153, 109, 216, 140
-0.989427, 257, 33, 500, 96
-0.989445, 169, 1, 232, 32
-0.989452, 145, 157, 208, 188
-0.989458, 233, 73, 296, 104
-0.989464, 9, 1, 72, 32
-0.989482, 193, 1, 448, 64
-0.989502, 305, 41, 368, 72
-0.989506, 281, 41, 344, 72
-0.989512, 177, 157, 240, 188
-0.989514, 209, 29, 272, 60
-0.989538, 289, 177, 352, 208
-0.989544, 129, 53, 192, 84
-0.989544, 81, 49, 144, 80
-0.989546, 353, 1, 416, 32
-0.989557, 337, 65, 400, 96
-0.989562, 353, 141, 416, 172
-0.989567, 33, 121, 288, 184
-0.98957, 321, 13, 384, 44
-0.989574, 321, 125, 384, 156
-0.989579, 417, 45, 480, 76
-0.989592, 289, 249, 352, 280
-0.989598, 1, 289, 128, 352
-0.989601, 225, 121, 288, 152
-0.989602, 345, 121, 408, 152
-0.989609, 65, 113, 128, 144
-0.989613, 97, 165, 160, 196
-0.989627, 381, 241, 412, 368
-0.989631, 329, 1, 392, 32
-0.989637, 81, 29, 144, 60
-0.989644, 209, 65, 272, 96
-0.989648, 201, 217, 264, 248
-0.989651, 329, 53, 392, 84
-0.989676, 1, 57, 64, 88
-0.989681, 201, 97, 264, 128
-0.989686, 65, 73, 128, 104
-0.98969, 137, 1, 200, 32
-0.989694, 193, 241, 448, 304
-0.9897, 425, 17, 488, 48
-0.989709, 177, 169, 240, 200
-0.989727, 369, 13, 432, 44
-0.989731, 33, 57, 288, 120
-0.98976, 137, 265, 200, 296
-0.989788, 1, 25, 256, 88
-0.989796, 361, 77, 424, 108
-0.989798, 193, 109, 256, 140
-0.989806, 377, 33, 440, 64
-0.98981, 1, 1, 256, 64
-0.989813, 361, 61, 424, 92
-0.989829, 177, 89, 240, 120
-0.989834, 121, 253, 184, 284
-0.989836, 57, 177, 120, 208
-0.989852, 273, 65, 336, 96
-0.989853, 313, 241, 376, 272
-0.989867, 121, 125, 184, 156
-0.989873, 73, 85, 136, 116
-0.989892, 161, 137, 224, 168
-0.989903, 65, 233, 320, 296
-0.989911, 369, 233, 496, 296
-0.989928, 41, 17, 104, 48
-0.989939, 345, 109, 408, 140
-0.989985, 345, 21, 408, 52
-0.989992, 385, 1, 448, 32
-0.990015, 41, 229, 104, 260
-0.99002, 97, 257, 352, 320
-0.990023, 65, 201, 128, 232
-0.990027, 113, 137, 176, 168
-0.990056, 73, 145, 136, 176
-0.99007, 233, 57, 296, 88
-0.990078, 177, 237, 240, 268
-0.990089, 353, 193, 384, 320
-0.990099, 273, 161, 336, 192
-0.990124, 105, 61, 168, 92
-0.990126, 185, 33, 248, 64
-0.990126, 241, 105, 304, 136
-0.990142, 1, 37, 64, 68
-0.990178, 369, 257, 496, 320
-0.990224, 193, 113, 448, 176
-0.990254, 289, 297, 416, 360
-0.990673, 97, 9, 352, 72
-0.991001, 33, 161, 288, 224
-0.991016, 1, 25, 500, 88
-0.991343, 33, 281, 288, 344
-0.991537, 1, 313, 128, 375
-0.991621, 425, 97, 488, 352
-0.991722, 169, 209, 200, 240
-0.991732, 189, 205, 220, 236
-0.991804, 293, 197, 324, 228
-0.991859, 245, 1, 276, 32
-0.991866, 145, 313, 272, 375
-0.991889, 277, 205, 308, 236
-0.991934, 125, 237, 156, 268
-0.991957, 153, 217, 184, 248
-0.991961, 113, 225, 240, 256
-0.991962, 145, 209, 272, 240
-0.991979, 257, 213, 288, 244
-0.991993, 161, 193, 192, 224
-0.99203, 1, 1, 500, 64
-0.992034, 209, 213, 240, 244
-0.992034, 149, 197, 180, 228
-0.992047, 221, 193, 252, 224
-0.992053, 129, 197, 256, 228
-0.992059, 265, 225, 296, 256
-0.992084, 189, 193, 220, 224
-0.992114, 305, 189, 336, 220
-0.992141, 177, 221, 208, 252
-0.992142, 289, 209, 320, 240
-0.992166, 137, 181, 168, 212
-0.99217, 205, 197, 236, 228
-0.992172, 1, 169, 500, 232
-0.992179, 449, 9, 480, 40
-0.992187, 245, 233, 276, 264
-0.992195, 129, 137, 384, 200
-0.992197, 101, 85, 132, 116
-0.992202, 429, 13, 460, 44
-0.992206, 277, 225, 308, 256
-0.992214, 165, 229, 196, 260
-0.99222, 29, 13, 60, 44
-0.992228, 369, 65, 400, 96
-0.992229, 173, 181, 204, 212
-0.992233, 221, 73, 252, 104
-0.992234, 125, 13, 156, 44
-0.992246, 17, 17, 48, 48
-0.992253, 69, 193, 100, 224
-0.992254, 317, 25, 348, 56
-0.992254, 177, 197, 208, 228
-0.992257, 373, 137, 404, 168
-0.992259, 233, 217, 264, 248
-0.992265, 73, 145, 104, 176
-0.992285, 241, 77, 272, 108
-0.992285, 149, 145, 180, 176
-0.992288, 361, 1, 392, 32
-0.992289, 253, 89, 284, 120
-0.992294, 9, 109, 40, 140
-0.992296, 209, 53, 240, 84
-0.992302, 9, 49, 40, 80
-0.992306, 273, 81, 304, 112
-0.992307, 233, 205, 264, 236
-0.992307, 201, 181, 232, 212
-0.992308, 313, 61, 344, 92
-0.992315, 1, 1, 32, 32
-0.992317, 313, 177, 344, 208
-0.992318, 285, 241, 316, 272
-0.992323, 1, 201, 500, 264
-0.992325, 145, 125, 176, 156
-0.992328, 329, 181, 360, 212
-0.992333, 329, 229, 360, 260
-0.992336, 153, 93, 184, 124
-0.992339, 137, 137, 168, 168
-0.992346, 117, 165, 148, 196
-0.992346, 141, 169, 172, 200
-0.992347, 389, 45, 420, 76
-0.992348, 257, 185, 500, 248
-0.992353, 73, 241, 104, 272
-0.992354, 69, 117, 100, 148
-0.992354, 197, 225, 228, 256
-0.992355, 377, 81, 408, 112
-0.992356, 77, 69, 108, 100
-0.992356, 69, 229, 100, 260
-0.992357, 381, 13, 412, 44
-0.992357, 149, 157, 180, 188
-0.992357, 257, 241, 288, 272
-0.992358, 333, 169, 364, 200
-0.99236, 213, 29, 244, 60
-0.992362, 373, 149, 404, 180
-0.992363, 221, 61, 252, 92
-0.992363, 409, 25, 440, 56
-0.992366, 317, 189, 348, 220
-0.992366, 329, 29, 360, 60
-0.992373, 393, 29, 424, 60
-0.992373, 21, 1, 52, 32
-0.992374, 237, 29, 268, 60
-0.992374, 401, 49, 432, 80
-0.992378, 1, 225, 500, 288
-0.992379, 225, 89, 256, 120
-0.992384, 81, 173, 112, 204
-0.992384, 253, 13, 284, 44
-0.992389, 225, 9, 256, 40
-0.99239, 5, 129, 36, 160
-0.992391, 229, 41, 260, 72
-0.992394, 273, 237, 304, 268
-0.992395, 101, 97, 132, 128
-0.992401, 389, 57, 420, 88
-0.992405, 209, 9, 240, 40
-0.992405, 201, 33, 232, 64
-0.992413, 329, 45, 360, 76
-0.992414, 105, 109, 136, 140
-0.992414, 153, 229, 184, 260
-0.992415, 397, 69, 428, 100
-0.992415, 281, 253, 312, 284
-0.992418, 369, 281, 496, 344
-0.992429, 77, 161, 108, 192
-0.992429, 429, 29, 460, 60
-0.99243, 365, 97, 396, 128
-0.99243, 153, 261, 184, 292
-0.99243, 133, 269, 164, 300
-0.992434, 45, 5, 76, 36
-0.992441, 177, 5, 208, 36
-0.992445, 357, 109, 388, 140
-0.99245, 97, 177, 128, 208
-0.992456, 333, 109, 364, 140
-0.992464, 213, 97, 244, 128
-0.992465, 213, 181, 244, 212
-0.992468, 109, 289, 140, 320
-0.992469, 213, 41, 244, 72
-0.992469, 137, 237, 168, 268
-0.99247, 265, 129, 296, 160
-0.992471, 177, 157, 208, 188
-0.992471, 129, 181, 256, 212
-0.992471, 281, 193, 312, 224
-0.992473, 213, 225, 244, 256
-0.992478, 85, 105, 116, 136
-0.992478, 1, 141, 32, 172
-0.992486, 241, 13, 272, 44
-0.992486, 161, 169, 192, 200
-0.992487, 209, 81, 240, 112
-0.992487, 365, 125, 396, 156
-0.992488, 413, 13, 444, 44
-0.99249, 185, 137, 216, 168
-0.992494, 197, 17, 228, 48
-0.992499, 5, 65, 36, 96
-0.992512, 449, 37, 480, 68
-0.992513, 145, 109, 176, 140
-0.992513, 297, 245, 328, 276
-0.992513, 61, 209, 92, 240
-0.992522, 345, 17, 376, 48
-0.992522, 245, 205, 276, 236
-0.992585, 1, 137, 500, 200
-0.992597, 49, 117, 176, 148
-0.992643, 33, 5, 160, 36
-0.992685, 193, 213, 320, 244
-0.992719, 33, 17, 160, 48
-0.992754, 191, 201, 206, 264
-0.992821, 193, 201, 320, 232
-0.992945, 217, 185, 232, 248
-0.993003, 83, 137, 98, 200
-0.993006, 227, 185, 242, 248
-0.99301, 205, 193, 220, 256
-0.993053, 223, 209, 238, 272
-0.993067, 97, 169, 224, 200
-0.9931, 177, 189, 304, 220
-0.993102, 225, 61, 352, 92
-0.993138, 1, 89, 500, 152
-0.993211, 105, 169, 120, 232
-0.993318, 245, 1, 260, 64
-0.993321, 77, 153, 92, 216
-0.993329, 141, 249, 156, 312
-0.993351, 179, 217, 194, 280
-0.993365, 289, 69, 416, 100
-0.993367, 193, 233, 320, 264
-0.99337, 81, 17, 208, 48
-0.993371, 145, 5, 272, 36
-0.993373, 257, 217, 500, 280
-0.993383, 1, 113, 500, 176
-0.993383, 81, 205, 208, 236
-0.993409, 289, 145, 416, 176
-0.993439, 65, 241, 192, 272
-0.993452, 159, 105, 174, 168
-0.993453, 161, 29, 288, 60
-0.993466, 199, 17, 214, 80
-0.993478, 185, 217, 200, 280
-0.993496, 147, 257, 162, 320
-0.993502, 281, 201, 296, 264
-0.993518, 1, 61, 128, 92
-0.993533, 193, 273, 448, 336
-0.993546, 381, 57, 396, 120
-0.993554, 99, 105, 114, 168
-0.993554, 1, 57, 500, 120
-0.993559, 35, 1, 50, 64
-0.99356, 453, 33, 468, 96
-0.993573, 171, 209, 186, 272
-0.993587, 49, 129, 176, 160
-0.993596, 101, 145, 116, 208
-0.99361, 239, 25, 254, 88
-0.993625, 245, 49, 260, 112
-0.993626, 211, 217, 226, 280
-0.993627, 225, 245, 352, 276
-0.993634, 113, 33, 240, 64
-0.993636, 97, 1, 224, 32
-0.993638, 193, 261, 320, 292
-0.993659, 271, 209, 286, 272
-0.99366, 327, 1, 342, 64
-0.993681, 27, 25, 42, 88
-0.993692, 131, 33, 146, 96
-0.993696, 141, 169, 156, 232
-0.993711, 77, 177, 92, 240
-0.993719, 147, 89, 162, 152
-0.993733, 217, 225, 232, 288
-0.993736, 169, 41, 184, 104
-0.993739, 113, 261, 240, 292
-0.993749, 401, 49, 416, 112
-0.993753, 209, 93, 336, 124
-0.993757, 209, 17, 224, 80
-0.993757, 95, 145, 110, 208
-0.993759, 305, 49, 432, 80
-0.993765, 175, 1, 190, 64
-0.993785, 283, 233, 298, 296
-0.993801, 241, 25, 368, 56
-0.993805, 399, 105, 414, 168
-0.993811, 225, 1, 352, 32
-0.993833, 33, 229, 160, 260
-0.993838, 107, 81, 122, 144
-0.993845, 325, 145, 340, 208
-0.993854, 361, 105, 376, 168
-0.99386, 49, 145, 176, 176
-0.99386, 139, 225, 154, 288
-0.99386, 333, 1, 348, 64
-0.993864, 241, 145, 368, 176
-0.99387, 145, 237, 272, 268
-0.993872, 199, 185, 214, 248
-0.993876, 139, 1, 154, 64
-0.993878, 179, 193, 194, 256
-0.993887, 77, 113, 92, 176
-0.993888, 321, 97, 448, 128
-0.993888, 97, 121, 224, 152
-0.993893, 177, 61, 304, 92
-0.993899, 1, 265, 500, 328
-0.993909, 193, 77, 320, 108
-0.993909, 293, 193, 308, 256
-0.993912, 165, 217, 180, 280
-0.993928, 49, 101, 176, 132
-0.993936, 337, 61, 464, 92
-0.99396, 323, 33, 338, 96
-0.993966, 257, 161, 500, 224
-0.993972, 317, 41, 332, 104
-0.993975, 161, 109, 288, 140
-0.993995, 375, 89, 390, 152
-0.994007, 69, 145, 84, 208
-0.994008, 411, 25, 426, 88
-0.994039, 237, 209, 252, 272
-0.994041, 223, 9, 238, 72
-0.994045, 279, 105, 294, 168
-0.994049, 169, 169, 184, 232
-0.99405, 391, 73, 406, 136
-0.99405, 129, 81, 256, 112
-0.994057, 273, 193, 400, 224
-0.994063, 281, 73, 296, 136
-0.994064, 177, 41, 304, 72
-0.994079, 455, 57, 470, 120
-0.994083, 165, 89, 180, 152
-0.994106, 233, 33, 248, 96
-0.99411, 145, 93, 272, 124
-0.994112, 391, 41, 406, 104
-0.994115, 257, 205, 384, 236
-0.994122, 81, 181, 208, 212
-0.994126, 375, 57, 390, 120
-0.994135, 237, 65, 252, 128
-0.994151, 459, 1, 474, 64
-0.994164, 235, 185, 250, 248
-0.994171, 367, 105, 382, 168
-0.994174, 201, 225, 216, 288
-0.994186, 113, 145, 128, 208
-0.994189, 185, 185, 200, 248
-0.99419, 329, 177, 344, 240
-0.994191, 257, 1, 272, 64
-0.994198, 337, 25, 352, 88
-0.994198, 167, 65, 182, 128
-0.994201, 377, 113, 392, 176
-0.994237, 255, 33, 270, 96
-0.994253, 81, 85, 208, 116
-0.994273, 129, 17, 256, 48
-0.994276, 315, 177, 330, 240
-0.994283, 257, 113, 384, 144
-0.994283, 9, 97, 24, 160
-0.99429, 287, 81, 302, 144
-0.994294, 83, 193, 98, 256
-0.994295, 321, 33, 448, 64
-0.994299, 289, 81, 416, 112
-0.994324, 289, 217, 304, 280
-0.994331, 255, 73, 270, 136
-0.99434, 149, 233, 164, 296
-0.994344, 1, 133, 128, 164
-0.994346, 369, 65, 384, 128
-0.994349, 257, 45, 384, 76
-0.994349, 223, 65, 238, 128
-0.994363, 375, 33, 390, 96
-0.994384, 145, 249, 272, 280
-0.994389, 113, 105, 240, 136
-0.994391, 449, 57, 464, 120
-0.994391, 225, 189, 352, 220
-0.994395, 117, 105, 132, 168
-0.994396, 19, 1, 34, 64
-0.994397, 91, 81, 106, 144
-0.994397, 111, 121, 126, 184
-0.994398, 85, 161, 100, 224
-0.994399, 33, 49, 160, 80
-0.994408, 265, 217, 280, 280
-0.994418, 229, 9, 244, 72
-0.994419, 385, 81, 400, 144
-0.994454, 215, 17, 230, 80
-0.994455, 213, 41, 228, 104
-0.994461, 399, 81, 414, 144
-0.994462, 87, 1, 102, 64
-0.994469, 109, 17, 124, 80
-0.994476, 231, 57, 246, 120
-0.994477, 319, 145, 334, 208
-0.994494, 55, 1, 70, 64
-0.994498, 463, 25, 478, 88
-0.994502, 145, 209, 160, 272
-0.994504, 117, 81, 132, 144
-0.994504, 109, 265, 124, 328
-0.994508, 69, 217, 84, 280
-0.99451, 337, 109, 464, 140
-0.994514, 411, 65, 426, 128
-0.994521, 129, 61, 256, 92
-0.994523, 41, 1, 56, 64
-0.994528, 241, 225, 368, 256
-0.994562, 191, 129, 206, 192
-0.994564, 405, 89, 420, 152
-0.994576, 259, 225, 274, 288
-0.994583, 287, 57, 302, 120
-0.994588, 155, 217, 170, 280
-0.994592, 97, 49, 224, 80
-0.994593, 161, 185, 176, 248
-0.994594, 387, 121, 402, 184
-0.994601, 131, 1, 146, 64
-0.994626, 87, 217, 102, 280
-0.99463, 333, 145, 348, 208
-0.994631, 5, 33, 36, 288
-0.994634, 453, 9, 468, 72
-0.994641, 303, 177, 318, 240
-0.994646, 275, 233, 290, 296
-0.994649, 193, 121, 320, 152
-0.99465, 97, 177, 112, 240
-0.994651, 193, 133, 320, 164
-0.994656, 65, 217, 192, 248
-0.994664, 211, 185, 226, 248
-0.994669, 101, 1, 132, 256
-0.994678, 65, 253, 192, 284
-0.994686, 87, 25, 102, 88
-0.994693, 369, 13, 496, 44
-0.994705, 209, 169, 336, 200
-0.994714, 305, 157, 432, 188
-0.994735, 321, 1, 448, 32
-0.99478, 257, 157, 384, 188
-0.994804, 113, 157, 240, 188
-0.994815, 1, 257, 256, 320
-0.994836, 65, 193, 192, 224
-0.994852, 161, 145, 288, 176
-0.994859, 305, 125, 432, 156
-0.994873, 225, 137, 480, 200
-0.99489, 65, 29, 192, 60
-0.99489, 369, 85, 496, 116
-0.994894, 1, 145, 128, 176
-0.994917, 161, 297, 416, 360
-0.994925, 369, 1, 496, 32
-0.994947, 197, 97, 228, 352
-0.994955, 273, 245, 400, 276
-0.994998, 65, 305, 320, 368
-0.994998, 1, 85, 128, 116
-0.994998, 1, 73, 128, 104
-0.995011, 225, 1, 256, 256
-0.995155, 273, 5, 400, 36
-0.995156, 257, 93, 384, 124
-0.995166, 177, 17, 304, 48
-0.995166, 277, 65, 308, 320
-0.995202, 209, 1, 240, 256
-0.995205, 145, 121, 272, 152
-0.995215, 241, 133, 368, 164
-0.995228, 189, 1, 220, 256
-0.995241, 97, 141, 224, 172
-0.995252, 369, 73, 496, 104
-0.995254, 209, 109, 336, 140
-0.995271, 289, 1, 320, 256
-0.995279, 169, 1, 200, 256
-0.995279, 369, 49, 496, 80
-0.99532, 305, 17, 432, 48
-0.995391, 289, 177, 416, 208
-0.995407, 313, 1, 344, 256
-0.995416, 49, 161, 176, 192
-0.995523, 129, 273, 256, 304
-0.995531, 49, 65, 176, 96
-0.995537, 237, 1, 268, 256
-0.99554, 25, 1, 56, 256
-0.995556, 17, 29, 144, 60
-0.995582, 1, 105, 128, 136
-0.995584, 241, 261, 368, 292
-0.995595, 1, 121, 128, 152
-0.995603, 241, 73, 368, 104
-0.995635, 177, 157, 304, 188
-0.995661, 153, 97, 184, 352
-0.995685, 169, 97, 200, 352
-0.995695, 249, 1, 280, 256
-0.995706, 49, 265, 176, 296
-0.995711, 185, 129, 216, 375
-0.995717, 225, 13, 352, 44
-0.995723, 385, 33, 416, 288
-0.995751, 345, 1, 376, 256
-0.995841, 145, 133, 272, 164
-0.995842, 73, 1, 104, 256
-0.995854, 1, 165, 128, 196
-0.99588, 225, 97, 256, 352
-0.995928, 373, 1, 404, 256
-0.995937, 85, 97, 116, 352
-0.995938, 17, 189, 144, 220
-0.995938, 353, 137, 480, 168
-0.99598, 225, 273, 352, 304
-0.996026, 353, 121, 480, 152
-0.996091, 1, 205, 128, 236
-0.996119, 49, 301, 176, 332
-0.99612, 17, 249, 144, 280
-0.996132, 145, 169, 272, 200
-0.996203, 113, 1, 144, 256
-0.996231, 49, 281, 176, 312
-0.996274, 141, 97, 172, 352
-0.996276, 177, 273, 304, 304
-0.996281, 299, 193, 314, 224
-0.996306, 65, 321, 192, 352
-0.996396, 333, 1, 364, 256
-0.996415, 369, 37, 496, 68
-0.996428, 97, 297, 224, 328
-0.996445, 213, 129, 244, 375
-0.996499, 125, 1, 156, 256
-0.996513, 305, 97, 336, 352
-0.996524, 181, 209, 196, 240
-0.996525, 171, 209, 186, 240
-0.996538, 293, 197, 308, 228
-0.996556, 237, 97, 268, 352
-0.996566, 291, 209, 306, 240
-0.996602, 325, 97, 356, 352
-0.996616, 129, 285, 256, 316
-0.996628, 369, 25, 496, 56
-0.996631, 285, 213, 300, 244
-0.996642, 225, 285, 352, 316
-0.996646, 321, 189, 448, 220
-0.996666, 369, 97, 496, 128
-0.996669, 177, 285, 304, 316
-0.996669, 161, 181, 176, 212
-0.996672, 307, 197, 322, 228
-0.996677, 305, 233, 432, 264
-0.996688, 1, 177, 128, 208
-0.996706, 257, 297, 500, 360
-0.996734, 257, 129, 288, 375
-0.996738, 275, 205, 290, 236
-0.99674, 113, 97, 144, 352
-0.996761, 401, 97, 416, 128
-0.996773, 321, 269, 448, 300
-0.996778, 85, 1, 116, 256
-0.996795, 193, 333, 320, 364
-0.996798, 191, 205, 206, 236
-0.996804, 379, 85, 394, 116
-0.996814, 279, 217, 294, 248
-0.996822, 209, 193, 224, 224
-0.996828, 159, 105, 174, 136
-0.99686, 255, 77, 270, 108
-0.99688, 223, 217, 238, 248
-0.996901, 283, 257, 298, 288
-0.996909, 245, 25, 260, 56
-0.996924, 285, 81, 300, 112
-0.996925, 217, 213, 232, 244
-0.996928, 245, 205, 260, 236
-0.996945, 391, 53, 406, 84
-0.996945, 229, 217, 244, 248
-0.996946, 81, 229, 96, 260
-0.996947, 219, 189, 234, 220
-0.996948, 109, 173, 124, 204
-0.996955, 259, 1, 274, 32
-0.996963, 225, 37, 240, 68
-0.996967, 317, 189, 332, 220
-0.99697, 115, 101, 130, 132
-0.996972, 75, 229, 90, 260
-0.996972, 61, 129, 92, 375
-0.996973, 203, 197, 218, 228
-0.996987, 339, 169, 354, 200
-0.996991, 369, 77, 384, 108
-0.996995, 147, 269, 162, 300
-0.996997, 75, 189, 90, 220
-0.997004, 265, 33, 296, 288
-0.997005, 449, 33, 464, 64
-0.99701, 211, 209, 226, 240
-0.99701, 257, 229, 272, 260
-0.997016, 271, 229, 286, 260
-0.997018, 329, 173, 344, 204
-0.997019, 141, 265, 156, 296
-0.997022, 173, 229, 188, 260
-0.997022, 191, 193, 206, 224
-0.997028, 429, 1, 460, 256
-0.997065, 197, 209, 212, 240
-0.997066, 197, 197, 212, 228
-0.997069, 145, 233, 160, 264
-0.997069, 171, 197, 186, 228
-0.997073, 3, 149, 18, 180
-0.997073, 167, 185, 182, 216
-0.997077, 329, 185, 344, 216
-0.997079, 95, 89, 110, 120
-0.997085, 169, 53, 184, 84
-0.997085, 75, 241, 90, 272
-0.997094, 397, 1, 428, 256
-0.997094, 223, 9, 238, 40
-0.997094, 135, 237, 150, 268
-0.997099, 323, 173, 338, 204
-0.9971, 275, 125, 290, 156
-0.997101, 165, 213, 180, 244
-0.997103, 165, 93, 180, 124
-0.997108, 147, 257, 162, 288
-0.997112, 169, 169, 184, 200
-0.997118, 385, 65, 400, 96
-0.997118, 157, 1, 188, 256
-0.997124, 151, 245, 166, 276
-0.997124, 239, 33, 254, 64
-0.997128, 373, 65, 388, 96
-0.997128, 179, 225, 194, 256
-0.997129, 151, 157, 166, 188
-0.997133, 187, 157, 202, 188
-0.997133, 157, 245, 172, 276
-0.997137, 395, 33, 410, 64
-0.997141, 291, 33, 306, 64
-0.997142, 11, 101, 26, 132
-0.997144, 189, 141, 204, 172
-0.997145, 421, 1, 436, 32
-0.997145, 261, 241, 276, 272
-0.997146, 213, 225, 228, 256
-0.997149, 307, 185, 322, 216
-0.997154, 129, 237, 144, 268
-0.997155, 141, 169, 156, 200
-0.997156, 11, 1, 26, 32
-0.997162, 83, 145, 98, 176
-0.997164, 425, 17, 440, 48
-0.997173, 215, 45, 230, 76
-0.997181, 5, 129, 36, 375
-0.997183, 99, 13, 114, 44
-0.997185, 87, 69, 102, 100
-0.997191, 323, 185, 338, 216
-0.997193, 109, 309, 124, 340
-0.997194, 1, 297, 500, 360
-0.997197, 347, 113, 362, 144
-0.997197, 121, 237, 136, 268
-0.997202, 275, 253, 290, 284
-0.997203, 107, 93, 122, 124
-0.997208, 221, 69, 236, 100
-0.997211, 139, 181, 154, 212
-0.997214, 391, 81, 406, 112
-0.997217, 167, 229, 182, 260
-0.997223, 235, 45, 250, 76
-0.997223, 153, 145, 168, 176
-0.997226, 157, 217, 172, 248
-0.997227, 251, 17, 266, 48
-0.997229, 161, 193, 176, 224
-0.997231, 7, 129, 22, 160
-0.997235, 285, 201, 300, 232
-0.997244, 397, 13, 412, 44
-0.997254, 267, 217, 282, 248
-0.997255, 223, 89, 238, 120
-0.997259, 81, 65, 96, 96
-0.99726, 73, 149, 88, 180
-0.99726, 255, 37, 270, 68
-0.99726, 107, 273, 122, 304
-0.997261, 123, 93, 138, 124
-0.997263, 101, 97, 132, 352
-0.997268, 227, 185, 242, 216
-0.99727, 215, 97, 230, 128
-0.997273, 369, 105, 384, 136
-0.997277, 189, 169, 204, 200
-0.997279, 335, 109, 350, 140
-0.99728, 83, 49, 98, 80
-0.99728, 277, 77, 292, 108
-0.997281, 233, 17, 248, 48
-0.997288, 245, 89, 260, 120
-0.99729, 1, 161, 16, 192
-0.997291, 287, 69, 302, 100
-0.997299, 299, 205, 314, 236
-0.997299, 219, 21, 234, 52
-0.997301, 133, 281, 148, 312
-0.997306, 85, 217, 100, 248
-0.997309, 217, 177, 232, 208
-0.997311, 399, 61, 414, 92
-0.997312, 155, 177, 170, 208
-0.997368, 125, 97, 156, 352
-0.997379, 445, 1, 476, 256
-0.997389, 293, 129, 324, 375
-0.997491, 409, 1, 440, 256
-0.997555, 137, 1, 168, 256
-0.997568, 377, 129, 408, 375
-0.997641, 17, 97, 48, 352
-0.997712, 361, 33, 392, 288
-0.99809, 349, 97, 380, 352
-0.998096, 457, 1, 488, 256
-0.998187, 397, 97, 428, 352
-0.998221, 73, 97, 104, 352
-0.998247, 301, 1, 332, 256
-0.998321, 169, 209, 232, 224
-0.998357, 193, 197, 256, 212
-0.99836, 153, 195, 216, 210
-0.998364, 273, 199, 336, 214
-0.998371, 145, 219, 208, 234
-0.998375, 73, 243, 136, 258
-0.998385, 49, 97, 80, 352
-0.998389, 177, 227, 240, 242
-0.998392, 249, 37, 312, 52
-0.998395, 289, 193, 352, 208
-0.998396, 177, 203, 240, 218
-0.998398, 113, 241, 176, 256
-0.998403, 417, 19, 480, 34
-0.998405, 9, 23, 72, 38
-0.99841, 81, 103, 144, 118
-0.99841, 193, 191, 256, 206
-0.998412, 137, 231, 200, 246
-0.998412, 249, 211, 312, 226
-0.998413, 249, 229, 312, 244
-0.998414, 161, 115, 224, 130
-0.998417, 417, 13, 480, 28
-0.99842, 177, 215, 240, 230
-0.998423, 305, 183, 368, 198
-0.998423, 233, 33, 248, 160
-0.998423, 97, 27, 160, 42
-0.998425, 201, 203, 264, 218
-0.998428, 105, 283, 168, 298
-0.998429, 161, 129, 224, 144
-0.99843, 89, 187, 152, 202
-0.998433, 209, 33, 272, 48
-0.998434, 145, 213, 208, 228
-0.998435, 161, 123, 224, 138
-0.998436, 265, 205, 328, 220
-0.998436, 129, 181, 192, 196
-0.998439, 209, 39, 272, 54
-0.998441, 65, 181, 128, 196
-0.998441, 273, 223, 336, 238
-0.998441, 169, 189, 232, 204
-0.998442, 57, 127, 120, 142
-0.998444, 417, 25, 480, 40
-0.998447, 65, 87, 128, 102
-0.998448, 97, 17, 160, 32
-0.998448, 369, 63, 432, 78
-0.998452, 113, 249, 176, 264
-0.998452, 201, 57, 264, 72
-0.998453, 113, 55, 176, 70
-0.998454, 209, 75, 272, 90
-0.998455, 177, 97, 240, 112
-0.998456, 313, 189, 376, 204
-0.998456, 169, 243, 232, 258
-0.998457, 225, 229, 288, 244
-0.998459, 233, 77, 296, 92
-0.998459, 249, 219, 312, 234
-0.998459, 273, 39, 336, 54
-0.99846, 185, 181, 248, 196
-0.998461, 161, 109, 224, 124
-0.998461, 369, 13, 432, 28
-0.998462, 57, 121, 120, 136
-0.998462, 137, 243, 200, 258
-0.998462, 409, 1, 472, 16
-0.998463, 297, 59, 360, 74
-0.998463, 377, 51, 440, 66
-0.998463, 361, 105, 424, 120
-0.998463, 145, 201, 208, 216
-0.998466, 169, 67, 232, 82
-0.998466, 297, 37, 360, 52
-0.998467, 153, 225, 216, 240
-0.998467, 9, 1, 72, 16
-0.998467, 273, 213, 336, 228
-0.998467, 1, 17, 64, 32
-0.998468, 169, 59, 232, 74
-0.998469, 201, 103, 264, 118
-0.998469, 57, 199, 120, 214
-0.998469, 121, 25, 184, 40
-0.99847, 225, 215, 288, 230
-0.99847, 233, 31, 296, 46
-0.998472, 89, 1, 152, 16
-0.998472, 145, 165, 208, 180
-0.998472, 145, 135, 208, 150
-0.998472, 193, 23, 256, 38
-0.998472, 73, 147, 136, 162
-0.998473, 121, 115, 184, 130
-0.998476, 113, 107, 176, 122
-0.998477, 81, 97, 144, 112
-0.998477, 313, 143, 376, 158
-0.998477, 1, 37, 64, 52
-0.998478, 365, 129, 396, 375
-0.998478, 209, 83, 272, 98
-0.998479, 73, 237, 136, 252
-0.998479, 169, 9, 232, 24
-0.998481, 329, 67, 392, 82
-0.998481, 361, 91, 424, 106
-0.998481, 153, 97, 216, 112
-0.998482, 361, 99, 424, 114
-0.998482, 305, 31, 368, 46
-0.998482, 145, 265, 208, 280
-0.998482, 313, 17, 376, 32
-0.998482, 147, 81, 162, 208
-0.998483, 281, 187, 344, 202
-0.998484, 249, 43, 312, 58
-0.998484, 137, 287, 200, 302
-0.998484, 161, 33, 224, 48
-0.998484, 265, 245, 328, 260
-0.998484, 209, 69, 272, 84
-0.998485, 65, 189, 128, 204
-0.998485, 97, 11, 160, 26
-0.998485, 137, 281, 200, 296
-0.998485, 25, 143, 88, 158
-0.998485, 73, 249, 136, 264
-0.998486, 345, 33, 408, 48
-0.998486, 145, 159, 208, 174
-0.998486, 161, 249, 224, 264
-0.998487, 377, 19, 440, 34
-0.998487, 177, 77, 240, 92
-0.998487, 225, 221, 288, 236
-0.998487, 9, 29, 72, 44
-0.998487, 385, 7, 448, 22
-0.998488, 27, 1, 42, 128
-0.998489, 401, 33, 464, 48
-0.99849, 177, 221, 240, 236
-0.99849, 201, 227, 264, 242
-0.99849, 273, 75, 336, 90
-0.99849, 223, 1, 238, 128
-0.998491, 113, 259, 176, 274
-0.998491, 209, 15, 272, 30
-0.998491, 111, 81, 126, 208
-0.998492, 313, 121, 376, 136
-0.998492, 377, 57, 440, 72
-0.998492, 129, 195, 192, 210
-0.998492, 49, 3, 112, 18
-0.998493, 145, 151, 208, 166
-0.998493, 9, 7, 72, 22
-0.998494, 417, 7, 480, 22
-0.998494, 273, 119, 336, 134
-0.998495, 137, 207, 200, 222
-0.998496, 297, 65, 360, 80
-0.998496, 137, 1, 200, 16
-0.998508, 277, 81, 292, 208
-0.998531, 61, 33, 92, 288
-0.998546, 89, 81, 120, 96
-0.998546, 109, 99, 140, 114
-0.998547, 409, 31, 440, 46
-0.998547, 141, 117, 172, 132
-0.998547, 91, 65, 106, 192
-0.998547, 105, 137, 136, 152
-0.998548, 117, 239, 148, 254
-0.998548, 449, 7, 480, 22
-0.998548, 209, 101, 240, 116
-0.998548, 377, 137, 408, 152
-0.998549, 273, 249, 304, 264
-0.99855, 85, 87, 116, 102
-0.998551, 17, 7, 48, 22
-0.998551, 5, 125, 36, 140
-0.998551, 277, 83, 308, 98
-0.998552, 49, 205, 80, 220
-0.998552, 233, 227, 264, 242
-0.998552, 257, 211, 288, 226
-0.998552, 153, 217, 184, 232
-0.998553, 1, 163, 32, 178
-0.998553, 137, 133, 168, 148
-0.998553, 109, 1, 124, 128
-0.998554, 449, 19, 480, 34
-0.998555, 401, 57, 432, 72
-0.998555, 1, 77, 32, 92
-0.998556, 73, 155, 104, 170
-0.998556, 149, 229, 180, 244
-0.998556, 157, 97, 172, 224
-0.998556, 137, 123, 168, 138
-0.998556, 237, 207, 268, 222
-0.998557, 221, 67, 252, 82
-0.998557, 25, 39, 56, 54
-0.998557, 173, 177, 204, 192
-0.998557, 165, 239, 196, 254
-0.998558, 333, 183, 364, 198
-0.998559, 317, 175, 348, 190
-0.99856, 313, 103, 344, 118
-0.99856, 153, 113, 184, 128
-0.998562, 81, 163, 112, 178
-0.998563, 101, 87, 132, 102
-0.998564, 257, 73, 288, 88
-0.998564, 245, 1, 276, 16
-0.998564, 157, 197, 188, 212
-0.998564, 209, 15, 240, 30
-0.998565, 125, 253, 156, 268
-0.998566, 165, 229, 196, 244
-0.998566, 229, 49, 260, 64
-0.998567, 105, 111, 136, 126
-0.998567, 171, 161, 186, 288
-0.998568, 329, 171, 360, 186
-0.998568, 317, 65, 348, 80
-0.998569, 145, 267, 176, 282
-0.99857, 9, 39, 40, 54
-0.99857, 129, 239, 160, 254
-0.99857, 65, 177, 96, 192
-0.99857, 153, 119, 184, 134
-0.998571, 209, 23, 240, 38
-0.998571, 377, 95, 408, 110
-0.998572, 277, 257, 308, 272
-0.998572, 97, 97, 128, 112
-0.998574, 17, 17, 48, 32
-0.998575, 429, 15, 460, 30
-0.998575, 281, 201, 312, 216
-0.998576, 365, 143, 396, 158
-0.998577, 225, 197, 256, 212
-0.998577, 69, 239, 100, 254
-0.998577, 449, 65, 480, 80
-0.998577, 213, 53, 244, 68
-0.998578, 401, 49, 432, 64
-0.998579, 173, 33, 204, 48
-0.998579, 395, 17, 410, 144
-0.99858, 209, 185, 240, 200
-0.99858, 113, 245, 144, 260
-0.998583, 81, 173, 112, 188
-0.998583, 377, 89, 408, 104
-0.998584, 221, 61, 252, 76
-0.998584, 221, 73, 252, 88
-0.998585, 393, 33, 424, 48
-0.998585, 397, 17, 428, 32
-0.998586, 41, 11, 72, 26
-0.998587, 265, 235, 296, 250
-0.998588, 119, 49, 134, 176
-0.998589, 449, 59, 480, 74
-0.998589, 5, 147, 36, 162
-0.998589, 229, 19, 260, 34
-0.99859, 149, 139, 180, 154
-0.99859, 233, 11, 264, 26
-0.998591, 253, 13, 284, 28
-0.998591, 5, 69, 36, 84
-0.998592, 101, 113, 116, 240
-0.998593, 389, 63, 420, 78
-0.998593, 185, 207, 216, 222
-0.998593, 269, 211, 300, 226
-0.998594, 381, 13, 412, 28
-0.998594, 221, 217, 252, 232
-0.998595, 137, 247, 168, 262
-0.998595, 81, 185, 112, 200
-0.998596, 365, 7, 396, 22
-0.998597, 9, 49, 40, 64
-0.998597, 233, 25, 264, 40
-0.998598, 321, 145, 352, 160
-0.998598, 293, 97, 324, 112
-0.998598, 389, 51, 420, 66
-0.998599, 1, 65, 16, 192
-0.9986, 137, 177, 168, 192
-0.998603, 255, 1, 270, 128
-0.998604, 273, 219, 304, 234
-0.998605, 181, 227, 212, 242
-0.998606, 373, 151, 404, 166
-0.998609, 245, 19, 276, 34
-0.998609, 201, 191, 232, 206
-0.998615, 69, 121, 100, 136
-0.998615, 29, 19, 60, 34
-0.998617, 241, 79, 272, 94
-0.998622, 317, 189, 348, 204
-0.998623, 243, 1, 258, 128
-0.998625, 229, 55, 260, 70
-0.998626, 177, 213, 208, 228
-0.998633, 213, 227, 244, 242
-0.998635, 249, 33, 264, 160
-0.998635, 185, 201, 216, 216
-0.998635, 79, 17, 94, 144
-0.998636, 369, 65, 400, 80
-0.998636, 179, 177, 194, 304
-0.998636, 201, 55, 232, 70
-0.998636, 377, 65, 392, 192
-0.998637, 323, 1, 338, 128
-0.998639, 73, 203, 104, 218
-0.99864, 245, 7, 276, 22
-0.998641, 301, 201, 332, 216
-0.998641, 191, 129, 206, 256
-0.998644, 297, 195, 328, 210
-0.998647, 153, 223, 184, 238
-0.998649, 207, 1, 222, 128
-0.998649, 165, 213, 196, 228
-0.998651, 77, 179, 108, 194
-0.998651, 413, 25, 444, 40
-0.998653, 289, 207, 320, 222
-0.998653, 257, 229, 288, 244
-0.998656, 305, 189, 336, 204
-0.998657, 221, 191, 252, 206
-0.998658, 389, 81, 404, 208
-0.998659, 379, 1, 394, 128
-0.998659, 107, 129, 122, 256
-0.99866, 101, 1, 116, 128
-0.998663, 281, 213, 312, 228
-0.99867, 385, 33, 400, 160
-0.998673, 173, 207, 204, 222
-0.998678, 283, 193, 298, 320
-0.998681, 79, 65, 94, 192
-0.998681, 331, 1, 346, 128
-0.998686, 97, 179, 128, 194
-0.998686, 309, 195, 340, 210
-0.998687, 139, 193, 154, 320
-0.998694, 151, 177, 166, 304
-0.998696, 371, 1, 386, 128
-0.998699, 231, 161, 246, 288
-0.998702, 169, 219, 200, 234
-0.998704, 383, 81, 398, 208
-0.998704, 7, 97, 22, 224
-0.998705, 29, 97, 60, 352
-0.998708, 287, 17, 302, 144
-0.998709, 163, 177, 178, 304
-0.998719, 45, 1, 76, 256
-0.998719, 141, 97, 156, 224
-0.998723, 313, 177, 328, 304
-0.998724, 165, 65, 180, 192
-0.998725, 219, 49, 234, 176
-0.998729, 407, 49, 422, 176
-0.99873, 197, 197, 228, 212
-0.998748, 171, 1, 186, 128
-0.998749, 109, 241, 124, 368
-0.99875, 293, 1, 308, 128
-0.998755, 139, 145, 154, 272
-0.998758, 137, 33, 152, 160
-0.998762, 151, 129, 166, 256
-0.998763, 85, 65, 100, 192
-0.998763, 201, 1, 216, 128
-0.998764, 123, 97, 138, 224
-0.998765, 369, 81, 384, 208
-0.998766, 213, 17, 228, 144
-0.998768, 3, 1, 18, 128
-0.998772, 413, 17, 428, 144
-0.998781, 305, 129, 320, 256
-0.998784, 201, 113, 216, 240
-0.998787, 191, 177, 206, 304
-0.998795, 225, 49, 240, 176
-0.998796, 449, 1, 464, 128
-0.998797, 349, 1, 364, 128
-0.998798, 9, 33, 24, 160
-0.998802, 185, 161, 200, 288
-0.998807, 401, 49, 416, 176
-0.998807, 85, 1, 100, 128
-0.99881, 113, 129, 128, 256
-0.998814, 105, 65, 120, 192
-0.99882, 145, 193, 160, 320
-0.998823, 167, 225, 182, 352
-0.998827, 319, 129, 334, 256
-0.998828, 181, 1, 196, 128
-0.998829, 401, 1, 416, 128
-0.998832, 157, 145, 172, 272
-0.998833, 227, 209, 242, 336
-0.998836, 163, 113, 178, 240
-0.998837, 377, 113, 392, 240
-0.998837, 145, 145, 160, 272
-0.998838, 283, 81, 298, 208
-0.998843, 225, 161, 240, 288
-0.998849, 263, 1, 278, 128
-0.998851, 313, 129, 328, 256
-0.998859, 95, 113, 110, 240
-0.998864, 173, 225, 188, 352
-0.998866, 81, 177, 96, 304
-0.998873, 123, 1, 138, 128
-0.998876, 275, 241, 290, 368
-0.998878, 131, 33, 146, 160
-0.998879, 95, 1, 110, 128
-0.998881, 289, 177, 304, 304
-0.998882, 115, 1, 130, 128
-0.998886, 219, 161, 234, 288
-0.998893, 105, 177, 120, 304
-0.998894, 339, 1, 354, 128
-0.998895, 197, 161, 212, 288
-0.998898, 361, 1, 376, 128
-0.9989, 77, 129, 92, 256
-0.998901, 213, 81, 228, 208
-0.998915, 165, 17, 180, 144
-0.998921, 21, 33, 36, 160
-0.998927, 191, 81, 206, 208
-0.998929, 261, 209, 276, 336
-0.998934, 1, 145, 16, 272
-0.998935, 259, 65, 274, 192
-0.998939, 161, 225, 176, 352
-0.998944, 207, 113, 222, 240
-0.998945, 87, 129, 102, 256
-0.998952, 395, 65, 410, 192
-0.998955, 173, 49, 188, 176
-0.998958, 179, 225, 194, 352
-0.998958, 97, 49, 112, 176
-0.998965, 277, 129, 292, 256
-0.998966, 13, 97, 28, 224
-0.998967, 325, 129, 340, 256
-0.998969, 313, 81, 328, 208
-0.998973, 233, 209, 248, 336
-0.998973, 241, 49, 256, 176
-0.998973, 321, 177, 336, 304
-0.998974, 281, 33, 296, 160
-0.998978, 461, 1, 476, 128
-0.998978, 57, 1, 72, 128
-0.99898, 419, 1, 434, 128
-0.998985, 133, 177, 148, 304
-0.998987, 129, 81, 144, 208
-0.99899, 45, 1, 60, 128
-0.998992, 307, 177, 322, 304
-0.999003, 155, 225, 170, 352
-0.999005, 363, 81, 378, 208
-0.999005, 159, 49, 174, 176
-0.999071, 337, 97, 368, 352
-0.999155, 409, 97, 440, 352
-0.999283, 445, 97, 476, 352
-0.999552, 457, 97, 488, 352
-0.999681, 429, 97, 460, 352
-0.999719, 79, 169, 94, 184
-0.999719, 369, 1, 384, 16
-0.99972, 255, 43, 270, 58
-0.99972, 451, 59, 466, 74
-0.999721, 169, 59, 184, 74
-0.999721, 275, 127, 290, 142
-0.999721, 9, 161, 24, 176
-0.999722, 279, 223, 294, 238
-0.999722, 185, 217, 200, 232
-0.999722, 421, 13, 436, 28
-0.999723, 279, 147, 294, 162
-0.999723, 177, 219, 192, 234
-0.999723, 401, 63, 416, 78
-0.999723, 117, 249, 132, 264
-0.999724, 195, 159, 210, 174
-0.999724, 81, 191, 96, 206
-0.999724, 77, 121, 92, 136
-0.999724, 257, 11, 272, 26
-0.999724, 247, 21, 262, 36
-0.999724, 255, 19, 270, 34
-0.999725, 73, 217, 88, 232
-0.999725, 21, 145, 36, 160
-0.999725, 69, 207, 84, 222
-0.999726, 369, 9, 384, 24
-0.999726, 177, 229, 192, 244
-0.999726, 151, 249, 166, 264
-0.999726, 221, 215, 236, 230
-0.999726, 79, 183, 94, 198
-0.999727, 255, 79, 270, 94
-0.999727, 29, 53, 44, 68
-0.999728, 307, 201, 322, 216
-0.999728, 45, 9, 60, 24
-0.999729, 267, 231, 282, 246
-0.999729, 63, 125, 78, 140
-0.999729, 371, 65, 386, 80
-0.99973, 155, 219, 170, 234
-0.99973, 401, 109, 416, 124
-0.99973, 125, 247, 140, 262
-0.999731, 375, 99, 390, 114
-0.999731, 237, 47, 252, 62
-0.999731, 399, 47, 414, 62
-0.999731, 75, 157, 90, 172
-0.999731, 223, 183, 238, 198
-0.999731, 107, 309, 122, 324
-0.999732, 13, 101, 28, 116
-0.999732, 205, 205, 220, 220
-0.999733, 215, 225, 230, 240
-0.999734, 247, 15, 262, 30
-0.999734, 349, 119, 364, 134
-0.999734, 79, 215, 94, 230
-0.999734, 117, 109, 132, 124
-0.999734, 87, 163, 102, 178
-0.999734, 129, 239, 144, 254
-0.999734, 157, 121, 172, 136
-0.999735, 255, 229, 270, 244
-0.999735, 205, 199, 220, 214
-0.999736, 219, 31, 234, 46
-0.999736, 341, 171, 356, 186
-0.999737, 395, 33, 410, 48
-0.999737, 273, 141, 288, 156
-0.999737, 91, 209, 106, 224
-0.999737, 207, 109, 222, 124
-0.999737, 101, 171, 116, 186
-0.999739, 257, 73, 272, 88
-0.999739, 75, 177, 90, 192
-0.999739, 447, 39, 462, 54
-0.999739, 137, 247, 152, 262
-0.999739, 347, 113, 362, 128
-0.999739, 325, 195, 340, 210
-0.999741, 83, 237, 98, 252
-0.999742, 81, 163, 96, 178
-0.999742, 227, 229, 242, 244
-0.999742, 235, 53, 250, 68
-0.999742, 261, 233, 276, 248
-0.999743, 33, 17, 48, 32
-0.999743, 317, 199, 332, 214
-0.999744, 275, 253, 290, 268
-0.999745, 155, 151, 170, 166
-0.999745, 247, 7, 262, 22
-0.999746, 169, 191, 184, 206
-0.999746, 179, 211, 194, 226
-0.999747, 121, 99, 136, 114
-0.999748, 379, 93, 394, 108
-0.999748, 161, 261, 176, 276
-0.999748, 357, 115, 372, 130
-0.99975, 119, 259, 134, 274
-0.999751, 255, 37, 270, 52
-0.999751, 171, 223, 186, 238
-0.999752, 37, 1, 52, 16
-0.999753, 315, 185, 330, 200
-0.999755, 179, 1, 194, 16
-0.999756, 309, 189, 324, 204
-0.999756, 193, 201, 208, 216
-0.999757, 395, 13, 410, 28
-0.999758, 23, 205, 38, 220
-0.999759, 333, 185, 348, 200
-0.999761, 245, 31, 260, 46
-0.999762, 115, 135, 130, 150
-0.999762, 9, 119, 24, 134
-0.999762, 151, 177, 166, 192
-0.999764, 227, 189, 242, 204
-0.999764, 157, 255, 172, 270
-0.999767, 73, 201, 88, 216
-0.999767, 167, 97, 182, 112
-0.999767, 99, 179, 114, 194
-0.999771, 221, 223, 236, 238
-0.999771, 249, 207, 264, 222
-0.999771, 141, 179, 156, 194
-0.999772, 75, 195, 90, 210
-0.999772, 223, 13, 238, 28
-0.999773, 161, 195, 176, 210
-0.999775, 211, 195, 226, 210
-0.999777, 469, 1, 500, 256
-0.999778, 109, 179, 124, 194
-0.999779, 1, 163, 16, 178
-0.999779, 221, 191, 236, 206
-0.999779, 387, 15, 402, 30
-0.99978, 263, 1, 278, 16
-0.999781, 401, 97, 416, 112
-0.999782, 291, 37, 306, 52
-0.999782, 343, 177, 358, 192
-0.999787, 357, 121, 372, 136
-0.999788, 185, 207, 200, 222
-0.999789, 165, 217, 180, 232
-0.999798, 171, 211, 186, 226
-0.9998, 311, 195, 326, 210
-0.999802, 233, 189, 248, 204
-0.999817, 325, 189, 340, 204
-0.99982, 171, 229, 186, 244
-0.999839, 317, 191, 332, 206
-0.999864, 227, 221, 242, 236
-0.9999, 469, 97, 500, 352
