1969
-0.389502, 1, 1, 500, 375
-0.421333, 1, 1, 256, 375
-0.450387, 1, 129, 500, 375
-0.454297, 1, 1, 500, 256
-0.52036, 161, 1, 416, 375
-0.648387, 1, 1, 256, 256
-0.64994, 33, 129, 288, 375
-0.663437, 257, 1, 500, 375
-0.688307, 225, 97, 480, 352
-0.714809, 97, 1, 352, 256
-0.783681, 129, 129, 384, 375
-0.846933, 225, 1, 480, 256
-0.849891, 65, 1, 192, 375
-0.857367, 65, 1, 192, 256
-0.858072, 177, 1, 304, 375
-0.860147, 17, 1, 144, 256
-0.866547, 353, 129, 480, 375
-0.875638, 177, 65, 304, 320
-0.876305, 113, 1, 240, 375
-0.876356, 1, 1, 128, 375
-0.876436, 289, 1, 416, 375
-0.877015, 1, 241, 500, 368
-0.878907, 1, 177, 500, 304
-0.880371, 1, 97, 128, 352
-0.880433, 305, 129, 432, 375
-0.882826, 241, 1, 368, 375
-0.885268, 113, 33, 240, 288
-0.88564, 1, 1, 500, 128
-0.885965, 257, 129, 384, 375
-0.88615, 49, 129, 176, 375
-0.890156, 225, 33, 352, 288
-0.901965, 225, 161, 480, 288
-0.904288, 1, 113, 500, 240
-0.90941, 97, 129, 224, 375
-0.911433, 337, 1, 464, 375
-0.917494, 225, 209, 480, 336
-0.9193, 273, 33, 400, 288
-0.920759, 1, 65, 500, 192
-0.922949, 17, 225, 80, 352
-0.923697, 1, 225, 128, 352
-0.924003, 65, 161, 320, 288
-0.924255, 361, 161, 424, 288
-0.924987, 1, 209, 256, 336
-0.927001, 33, 1, 288, 128
-0.927821, 49, 1, 176, 128
-0.929631, 353, 33, 480, 288
-0.930075, 385, 161, 448, 288
-0.933231, 113, 1, 176, 128
-0.934828, 353, 145, 480, 272
-0.934924, 305, 161, 432, 288
-0.935158, 385, 241, 448, 368
-0.935468, 257, 193, 320, 320
-0.937584, 353, 241, 480, 368
-0.93775, 65, 1, 128, 128
-0.937771, 41, 225, 104, 352
-0.939074, 257, 225, 384, 352
-0.939503, 177, 177, 304, 304
-0.93991, 337, 193, 400, 320
-0.940896, 65, 113, 320, 240
-0.941812, 1, 49, 256, 176
-0.942635, 305, 209, 432, 336
-0.943573, 257, 145, 384, 272
-0.94493, 257, 145, 320, 272
-0.945021, 345, 241, 408, 368
-0.945024, 161, 97, 416, 224
-0.945504, 33, 305, 96, 368
-0.945526, 345, 177, 408, 240
-0.946327, 17, 81, 144, 208
-0.946911, 201, 145, 264, 272
-0.947258, 177, 129, 304, 256
-0.947502, 369, 193, 496, 320
-0.948419, 97, 1, 224, 128
-0.948578, 153, 1, 216, 128
-0.948751, 313, 161, 376, 288
-0.949062, 113, 81, 240, 208
-0.949208, 1, 145, 64, 272
-0.949675, 369, 185, 432, 248
-0.949897, 401, 169, 464, 232
-0.950337, 433, 161, 496, 288
-0.950551, 145, 17, 272, 144
-0.951046, 97, 49, 352, 176
-0.951096, 33, 281, 96, 344
-0.951133, 185, 65, 248, 192
-0.95127, 377, 209, 440, 272
-0.951361, 177, 177, 240, 304
-0.952159, 337, 145, 400, 272
-0.952625, 65, 49, 192, 176
-0.952735, 89, 1, 152, 128
-0.952841, 185, 177, 248, 240
-0.953399, 433, 153, 496, 216
-0.95347, 97, 209, 352, 336
-0.953678, 361, 113, 424, 240
-0.953717, 17, 233, 80, 296
-0.953795, 9, 281, 72, 344
-0.954212, 81, 65, 144, 192
-0.954511, 209, 1, 272, 128
-0.954807, 281, 225, 344, 352
-0.955136, 209, 97, 272, 224
-0.955283, 177, 17, 240, 144
-0.955964, 409, 209, 472, 336
-0.956127, 257, 113, 500, 240
-0.95639, 97, 129, 224, 256
-0.956601, 233, 193, 296, 320
-0.956687, 33, 177, 96, 304
-0.957057, 345, 281, 408, 344
-0.957068, 273, 81, 400, 208
-0.957336, 257, 225, 320, 288
-0.957353, 129, 1, 384, 128
-0.957376, 369, 153, 432, 216
-0.957793, 257, 33, 320, 160
-0.957872, 57, 177, 120, 304
-0.958511, 49, 233, 112, 296
-0.958516, 345, 145, 408, 208
-0.958714, 241, 201, 304, 264
-0.958759, 89, 201, 152, 264
-0.958774, 329, 201, 392, 264
-0.95909, 49, 177, 176, 304
-0.959302, 313, 209, 376, 336
-0.959391, 1, 81, 64, 208
-0.959449, 1, 33, 128, 160
-0.959607, 273, 193, 336, 256
-0.960202, 233, 233, 296, 296
-0.96024, 281, 17, 344, 144
-0.961104, 313, 169, 376, 232
-0.961332, 177, 225, 304, 352
-0.961389, 241, 257, 304, 320
-0.961546, 233, 129, 296, 256
-0.96164, 241, 281, 304, 344
-0.961741, 9, 305, 72, 368
-0.962115, 153, 129, 216, 256
-0.962128, 361, 233, 424, 296
-0.962538, 289, 129, 352, 256
-0.962548, 161, 81, 288, 208
-0.962649, 217, 193, 280, 256
-0.962911, 225, 97, 352, 224
-0.962934, 385, 241, 448, 304
-0.962974, 17, 257, 80, 320
-0.963009, 41, 65, 104, 128
-0.963324, 281, 217, 344, 280
-0.963345, 433, 185, 496, 248
-0.963463, 209, 161, 272, 224
-0.963559, 161, 1, 224, 64
-0.963751, 409, 145, 472, 272
-0.963856, 273, 249, 336, 312
-0.964226, 25, 81, 88, 208
-0.964448, 209, 49, 272, 176
-0.964462, 57, 65, 120, 192
-0.964502, 65, 49, 128, 112
-0.964604, 281, 177, 344, 304
-0.964889, 177, 129, 240, 256
-0.965083, 65, 241, 128, 368
-0.965106, 297, 65, 360, 192
-0.965151, 217, 1, 280, 64
-0.965284, 401, 313, 464, 375
-0.96535, 17, 89, 80, 152
-0.965494, 225, 17, 352, 144
-0.965628, 57, 305, 120, 368
-0.965703, 17, 225, 48, 352
-0.965827, 161, 201, 224, 264
-0.965834, 249, 169, 312, 232
-0.965844, 81, 25, 144, 88
-0.96586, 1, 145, 128, 272
-0.965922, 425, 233, 488, 296
-0.966125, 41, 305, 72, 368
-0.966181, 41, 17, 104, 144
-0.966422, 185, 73, 248, 136
-0.966676, 337, 249, 400, 312
-0.966768, 57, 265, 120, 328
-0.966855, 89, 1, 152, 64
-0.967096, 425, 313, 488, 375
-0.967212, 233, 49, 296, 176
-0.967528, 29, 225, 60, 352
-0.967665, 121, 129, 184, 192
-0.967758, 97, 129, 160, 256
-0.967847, 425, 209, 488, 272
-0.967875, 241, 33, 304, 96
-0.967915, 49, 225, 176, 352
-0.968356, 377, 177, 408, 240
-0.968428, 401, 217, 464, 280
-0.96844, 97, 177, 224, 304
-0.968463, 65, 73, 128, 136
-0.968476, 57, 297, 88, 360
-0.968505, 233, 241, 296, 368
-0.968647, 305, 201, 368, 264
-0.968753, 1, 161, 64, 224
-0.968879, 353, 313, 416, 375
-0.968926, 17, 201, 80, 264
-0.968967, 297, 313, 360, 375
-0.96905, 217, 57, 280, 120
-0.969115, 5, 225, 36, 352
-0.969292, 185, 201, 248, 264
-0.969296, 45, 225, 76, 352
-0.969299, 337, 217, 464, 280
-0.969563, 113, 41, 176, 104
-0.969724, 57, 25, 120, 88
-0.969795, 185, 9, 248, 72
-0.969825, 121, 49, 184, 176
-0.969872, 313, 289, 376, 352
-0.969908, 161, 153, 224, 216
-0.970067, 297, 257, 360, 320
-0.97011, 105, 169, 168, 232
-0.970153, 313, 225, 376, 288
-0.97026, 197, 177, 228, 240
-0.970304, 365, 177, 396, 240
-0.970339, 177, 185, 304, 248
-0.97038, 369, 97, 496, 224
-0.970382, 337, 225, 400, 288
-0.970453, 9, 97, 72, 352
-0.970765, 365, 177, 396, 304
-0.970807, 373, 129, 404, 256
-0.970824, 385, 113, 448, 240
-0.970871, 241, 305, 304, 368
-0.970923, 457, 161, 488, 224
-0.970945, 97, 137, 160, 200
-0.970971, 21, 289, 52, 352
-0.970988, 273, 313, 336, 375
-0.971018, 305, 185, 432, 248
-0.971028, 137, 1, 200, 64
-0.97111, 305, 33, 432, 160
-0.97112, 369, 161, 496, 224
-0.971211, 433, 113, 496, 240
-0.971273, 225, 49, 480, 176
-0.971353, 201, 97, 264, 160
-0.971383, 369, 273, 432, 336
-0.971495, 65, 201, 128, 264
-0.971536, 469, 145, 500, 208
-0.97161, 241, 145, 304, 208
-0.971877, 305, 153, 432, 216
-0.971928, 209, 233, 272, 296
-0.971978, 369, 185, 496, 248
-0.972002, 273, 49, 336, 112
-0.972032, 45, 281, 76, 344
-0.972175, 121, 1, 152, 128
-0.972292, 49, 129, 176, 256
-0.972306, 401, 281, 464, 344
-0.972327, 257, 9, 320, 72
-0.972401, 305, 281, 432, 344
-0.972435, 185, 153, 248, 216
-0.972478, 217, 257, 280, 320
-0.972479, 257, 33, 320, 288
-0.972677, 381, 225, 412, 352
-0.972741, 249, 57, 312, 120
-0.972801, 445, 169, 476, 232
-0.972908, 257, 209, 384, 272
-0.972982, 225, 297, 352, 360
-0.973068, 393, 145, 456, 208
-0.973119, 65, 1, 128, 64
-0.973121, 209, 137, 272, 200
-0.973162, 305, 81, 368, 144
-0.973486, 245, 193, 276, 256
-0.973655, 417, 217, 448, 280
-0.973735, 33, 281, 64, 344
-0.973774, 113, 9, 176, 72
-0.973818, 385, 145, 416, 272
-0.973857, 249, 273, 280, 336
-0.973869, 1, 233, 128, 296
-0.973909, 321, 145, 384, 208
-0.973933, 65, 17, 192, 80
-0.973979, 193, 145, 224, 272
-0.97398, 89, 1, 152, 256
-0.974015, 233, 121, 296, 184
-0.974106, 413, 161, 444, 288
-0.974278, 265, 217, 296, 280
-0.974312, 353, 161, 384, 288
-0.974318, 469, 129, 500, 256
-0.974329, 257, 161, 384, 224
-0.974349, 369, 129, 432, 375
-0.974453, 321, 313, 448, 375
-0.97448, 113, 161, 240, 224
-0.974488, 153, 177, 216, 240
-0.974592, 289, 169, 352, 232
-0.974654, 337, 97, 400, 224
-0.974701, 1, 65, 64, 128
-0.974751, 261, 281, 292, 344
-0.974831, 273, 289, 336, 352
-0.97485, 1, 257, 32, 320
-0.975006, 377, 313, 440, 375
-0.975084, 129, 129, 160, 192
-0.975177, 433, 225, 464, 352
-0.97518, 57, 33, 120, 288
-0.975188, 353, 177, 384, 240
-0.975242, 401, 193, 464, 256
-0.975305, 129, 113, 192, 240
-0.975396, 273, 81, 336, 208
-0.975414, 249, 305, 280, 368
-0.975561, 153, 25, 216, 88
-0.975565, 89, 73, 152, 136
-0.975575, 321, 313, 384, 375
-0.975596, 193, 1, 256, 256
-0.97565, 49, 225, 80, 288
-0.975786, 57, 225, 88, 352
-0.975803, 1, 281, 128, 344
-0.975869, 325, 161, 356, 224
-0.975932, 153, 177, 216, 304
-0.975954, 433, 185, 464, 248
-0.976, 265, 145, 296, 272
-0.976006, 361, 201, 392, 264
-0.976011, 397, 193, 428, 320
-0.976053, 113, 1, 240, 64
-0.97607, 257, 241, 320, 368
-0.976135, 97, 185, 224, 248
-0.976158, 81, 193, 144, 320
-0.976281, 265, 241, 296, 304
-0.97629, 17, 313, 144, 375
-0.976359, 9, 289, 40, 352
-0.976433, 101, 193, 132, 256
-0.976468, 217, 281, 280, 344
-0.976515, 353, 241, 480, 304
-0.976532, 209, 193, 272, 320
-0.976552, 65, 49, 192, 112
-0.976575, 257, 241, 384, 304
-0.976594, 433, 257, 496, 320
-0.976599, 385, 281, 416, 344
-0.976639, 205, 17, 236, 144
-0.976746, 381, 153, 412, 216
-0.976754, 337, 121, 400, 184
-0.97676, 361, 113, 392, 240
-0.976817, 369, 289, 400, 352
-0.976877, 69, 233, 100, 296
-0.976944, 421, 225, 452, 352
-0.97704, 389, 185, 420, 248
-0.977116, 49, 73, 176, 136
-0.97719, 305, 1, 368, 128
-0.977291, 81, 17, 112, 144
-0.977379, 209, 145, 336, 208
-0.97753, 401, 177, 432, 240
-0.977598, 69, 225, 100, 352
-0.977611, 1, 73, 128, 136
-0.977659, 433, 209, 496, 336
-0.977662, 369, 225, 400, 352
-0.97772, 93, 1, 124, 128
-0.977786, 369, 313, 496, 375
-0.977793, 21, 177, 52, 304
-0.977806, 225, 65, 352, 128
-0.977813, 365, 153, 396, 216
-0.977822, 1, 257, 128, 320
-0.977892, 113, 65, 176, 128
-0.977892, 185, 233, 248, 296
-0.977897, 177, 217, 304, 280
-0.977918, 245, 233, 276, 296
-0.977976, 357, 241, 388, 368
-0.977989, 429, 233, 460, 296
-0.978015, 257, 185, 384, 248
-0.97805, 233, 1, 296, 128
-0.978163, 265, 193, 296, 320
-0.978188, 25, 313, 56, 375
-0.978223, 417, 129, 480, 375
-0.978362, 209, 153, 240, 216
-0.978409, 245, 177, 276, 304
-0.978421, 137, 65, 200, 128
-0.978576, 373, 209, 404, 272
-0.978593, 33, 41, 96, 104
-0.978609, 237, 297, 268, 360
-0.978708, 401, 201, 432, 264
-0.978739, 89, 113, 152, 176
-0.978769, 217, 33, 280, 96
-0.978793, 305, 313, 336, 375
-0.978807, 281, 25, 344, 88
-0.978808, 365, 265, 396, 328
-0.978812, 289, 177, 320, 304
-0.978823, 205, 145, 236, 272
-0.978876, 33, 33, 96, 288
-0.978989, 425, 281, 488, 344
-0.979031, 245, 113, 276, 240
-0.979086, 65, 1, 96, 128
-0.979139, 17, 113, 144, 176
-0.979224, 117, 1, 148, 64
-0.979236, 217, 1, 248, 128
-0.979246, 281, 1, 344, 64
-0.979317, 333, 313, 364, 375
-0.979332, 185, 33, 248, 96
-0.979353, 81, 49, 112, 112
-0.979386, 129, 1, 160, 64
-0.979386, 445, 297, 476, 360
-0.979398, 113, 177, 144, 240
-0.979438, 41, 89, 104, 152
-0.979442, 161, 97, 224, 160
-0.979534, 97, 129, 224, 192
-0.979544, 201, 97, 264, 352
-0.979571, 189, 1, 220, 128
-0.979609, 321, 49, 384, 176
-0.979626, 433, 161, 464, 288
-0.979645, 209, 305, 272, 368
-0.979749, 465, 185, 496, 248
-0.979765, 113, 57, 240, 120
-0.979805, 65, 73, 96, 136
-0.979867, 69, 313, 100, 375
-0.97987, 17, 17, 80, 144
-0.979939, 133, 33, 164, 96
-0.980035, 353, 273, 480, 336
-0.980059, 345, 153, 376, 216
-0.980139, 65, 169, 128, 232
-0.980146, 49, 249, 80, 312
-0.980146, 141, 1, 172, 128
-0.980148, 13, 233, 44, 296
-0.98022, 73, 233, 136, 296
-0.980266, 241, 265, 368, 328
-0.980308, 237, 137, 268, 200
-0.980321, 257, 129, 320, 375
-0.98042, 313, 177, 344, 240
-0.98047, 257, 1, 500, 128
-0.980473, 253, 17, 284, 80
-0.980473, 301, 201, 332, 264
-0.980518, 145, 25, 272, 88
-0.980522, 1, 81, 32, 208
-0.980522, 189, 201, 220, 264
-0.98053, 177, 1, 304, 64
-0.980544, 369, 129, 432, 192
-0.980562, 201, 81, 232, 208
-0.98057, 273, 73, 336, 136
-0.980592, 397, 145, 428, 272
-0.980628, 153, 49, 216, 176
-0.980631, 273, 129, 400, 192
-0.980644, 57, 129, 120, 375
-0.980669, 193, 1, 224, 64
-0.98071, 269, 41, 300, 104
-0.980717, 37, 89, 68, 152
-0.980759, 369, 137, 496, 200
-0.980935, 281, 137, 344, 200
-0.980962, 417, 169, 448, 232
-0.981018, 313, 65, 344, 192
-0.981141, 361, 225, 392, 288
-0.981166, 337, 129, 400, 375
-0.981186, 65, 257, 96, 320
-0.981202, 49, 113, 112, 240
-0.98121, 409, 257, 472, 320
-0.98126, 49, 265, 176, 328
-0.981284, 117, 153, 148, 216
-0.981284, 345, 209, 376, 272
-0.981352, 177, 73, 304, 136
-0.981361, 217, 65, 248, 128
-0.981518, 309, 73, 340, 136
-0.98152, 421, 193, 452, 256
-0.981596, 121, 33, 184, 288
-0.98169, 193, 241, 320, 304
-0.981784, 225, 81, 288, 144
-0.981806, 397, 241, 428, 368
-0.981864, 29, 249, 60, 312
-0.98187, 205, 65, 236, 128
-0.981899, 277, 241, 308, 304
-0.981988, 241, 89, 368, 152
-0.982007, 257, 57, 288, 120
-0.982022, 469, 177, 500, 304
-0.982077, 5, 177, 36, 304
-0.982078, 313, 113, 376, 176
-0.98217, 197, 153, 228, 216
-0.982175, 17, 257, 48, 320
-0.982269, 33, 177, 64, 304
-0.98232, 305, 241, 432, 304
-0.982325, 309, 225, 340, 352
-0.982335, 93, 65, 124, 128
-0.982409, 257, 97, 320, 160
-0.982414, 241, 33, 368, 96
-0.982418, 113, 201, 144, 264
-0.982451, 305, 177, 336, 304
-0.982457, 33, 193, 160, 256
-0.98246, 373, 233, 404, 296
-0.982477, 17, 113, 80, 176
-0.982479, 345, 225, 376, 352
-0.982481, 453, 145, 484, 272
-0.982488, 349, 249, 380, 312
-0.982541, 13, 81, 44, 208
-0.982554, 37, 81, 68, 208
-0.982577, 117, 97, 148, 160
-0.982601, 137, 201, 200, 264
-0.982603, 121, 105, 184, 168
-0.982612, 177, 49, 304, 112
-0.982658, 113, 65, 144, 128
-0.982664, 257, 121, 288, 184
-0.982682, 257, 193, 288, 256
-0.982684, 69, 25, 100, 88
-0.982708, 225, 97, 256, 160
-0.982736, 189, 193, 220, 320
-0.982737, 1, 161, 128, 224
-0.982749, 69, 49, 100, 112
-0.982761, 445, 193, 476, 256
-0.982772, 193, 25, 320, 88
-0.982797, 121, 25, 152, 88
-0.982838, 81, 297, 144, 360
-0.98284, 361, 129, 392, 192
-0.982845, 177, 121, 304, 184
-0.982863, 81, 73, 112, 136
-0.982923, 393, 129, 456, 375
-0.982936, 1, 49, 128, 112
-0.982977, 393, 153, 424, 216
-0.982983, 413, 241, 444, 304
-0.983014, 385, 209, 416, 272
-0.983024, 273, 265, 304, 328
-0.983156, 89, 49, 152, 112
-0.983237, 273, 313, 400, 375
-0.983259, 81, 25, 112, 88
-0.9833, 297, 97, 360, 352
-0.983319, 141, 9, 172, 72
-0.983321, 33, 137, 160, 200
-0.983361, 221, 153, 252, 216
-0.983373, 97, 97, 160, 352
-0.983402, 161, 153, 288, 216
-0.983404, 217, 65, 248, 192
-0.983421, 73, 1, 104, 64
-0.983441, 109, 1, 140, 128
-0.9835, 261, 241, 292, 368
-0.983534, 445, 145, 476, 208
-0.983563, 429, 161, 460, 224
-0.98358, 117, 129, 148, 192
-0.983608, 265, 17, 296, 80
-0.98361, 125, 129, 156, 256
-0.983646, 433, 257, 464, 320
-0.983665, 433, 65, 496, 192
-0.983725, 233, 113, 264, 240
-0.983747, 169, 1, 232, 256
-0.983864, 93, 25, 124, 88
-0.983913, 185, 1, 248, 375
-0.983958, 137, 65, 168, 192
-0.983966, 113, 65, 144, 192
-0.984051, 341, 177, 372, 304
-0.984073, 433, 209, 464, 272
-0.98417, 125, 177, 156, 240
-0.984181, 233, 1, 296, 256
-0.98422, 13, 313, 44, 375
-0.984249, 393, 241, 424, 304
-0.984278, 93, 1, 124, 64
-0.984286, 57, 1, 120, 375
-0.984437, 113, 209, 240, 272
-0.984489, 289, 193, 320, 256
-0.984493, 429, 313, 460, 375
-0.984533, 109, 129, 140, 256
-0.984543, 265, 169, 296, 232
-0.984591, 53, 65, 84, 128
-0.9846, 125, 201, 156, 264
-0.984704, 145, 65, 208, 320
-0.984752, 277, 217, 308, 280
-0.984855, 277, 177, 308, 304
-0.984877, 317, 161, 348, 288
-0.984907, 233, 97, 296, 352
-0.984909, 301, 225, 332, 288
-0.984921, 145, 41, 176, 104
-0.984974, 313, 113, 376, 240
-0.98502, 245, 33, 276, 160
-0.985084, 237, 81, 268, 144
-0.985102, 73, 113, 136, 240
-0.98514, 1, 233, 32, 296
-0.985152, 409, 225, 440, 352
-0.985168, 89, 209, 120, 272
-0.98518, 317, 225, 348, 288
-0.985199, 325, 73, 356, 136
-0.985215, 273, 33, 304, 160
-0.985298, 121, 1, 184, 375
-0.985342, 177, 273, 304, 336
-0.985368, 13, 81, 44, 144
-0.98543, 97, 81, 224, 144
-0.985466, 81, 1, 144, 375
-0.985492, 237, 265, 268, 328
-0.985524, 289, 225, 320, 288
-0.985545, 45, 177, 76, 304
-0.985561, 53, 17, 84, 144
-0.985588, 289, 33, 416, 96
-0.985601, 257, 97, 288, 224
-0.985625, 125, 49, 156, 176
-0.985664, 49, 241, 176, 304
-0.985688, 17, 1, 80, 375
-0.985689, 421, 281, 452, 344
-0.985726, 237, 57, 268, 120
-0.985734, 189, 97, 220, 224
-0.985753, 301, 113, 332, 240
-0.985848, 329, 241, 360, 368
-0.985905, 129, 105, 256, 168
-0.985936, 297, 241, 328, 368
-0.985939, 217, 129, 248, 256
-0.986017, 289, 73, 416, 136
-0.986398, 449, 241, 480, 368
-0.986471, 233, 33, 264, 160
-0.986538, 321, 97, 448, 224
-0.986556, 265, 1, 328, 375
-0.986599, 145, 1, 208, 375
-0.986753, 49, 217, 176, 280
-0.986789, 301, 49, 332, 176
-0.98689, 77, 65, 108, 192
-0.986907, 89, 161, 120, 288
-0.987065, 181, 145, 212, 272
-0.987344, 209, 241, 272, 368
-0.987369, 65, 65, 96, 192
-0.987458, 97, 49, 128, 176
-0.987524, 185, 225, 248, 352
-0.987533, 257, 49, 288, 176
-0.987542, 353, 33, 480, 160
-0.987577, 289, 113, 320, 240
-0.987616, 249, 225, 280, 352
-0.987635, 49, 289, 176, 352
-0.987837, 33, 309, 96, 340
-0.98784, 129, 225, 256, 352
-0.98788, 201, 193, 232, 320
-0.98788, 105, 177, 168, 304
-0.987889, 225, 281, 480, 344
-0.987946, 329, 1, 392, 128
-0.988054, 69, 177, 100, 304
-0.988095, 65, 161, 192, 224
-0.988126, 1, 25, 128, 88
-0.988131, 161, 297, 288, 360
-0.988132, 261, 1, 292, 128
-0.988138, 193, 97, 320, 160
-0.988236, 273, 1, 400, 64
-0.988284, 257, 169, 500, 232
-0.988298, 325, 65, 356, 192
-0.98833, 385, 221, 448, 252
-0.98837, 401, 181, 464, 212
-0.988393, 225, 1, 288, 375
-0.988422, 33, 233, 96, 264
-0.988492, 25, 81, 56, 208
-0.988498, 225, 121, 352, 184
-0.988522, 409, 97, 472, 224
-0.988545, 353, 181, 416, 212
-0.988554, 33, 329, 96, 360
-0.988629, 373, 81, 404, 208
-0.988674, 161, 1, 192, 128
-0.98875, 257, 241, 320, 272
-0.988754, 321, 129, 448, 192
-0.988765, 225, 1, 352, 64
-0.98878, 13, 129, 44, 256
-0.988818, 401, 201, 464, 232
-0.988879, 233, 161, 264, 288
-0.988907, 353, 201, 416, 232
-0.988949, 241, 301, 304, 332
-0.989025, 265, 205, 328, 236
-0.989087, 217, 177, 248, 304
-0.989087, 193, 181, 256, 212
-0.989103, 57, 245, 120, 276
-0.989118, 425, 173, 488, 204
-0.989147, 257, 217, 500, 280
-0.989163, 433, 185, 496, 216
-0.989167, 273, 241, 304, 368
-0.989251, 353, 281, 416, 312
-0.98926, 81, 241, 112, 368
-0.989299, 377, 189, 440, 220
-0.989345, 377, 165, 440, 196
-0.989358, 89, 201, 152, 232
-0.989368, 277, 113, 308, 240
-0.989437, 257, 193, 320, 224
-0.989469, 101, 177, 132, 304
-0.989484, 33, 345, 96, 375
-0.989619, 17, 289, 80, 320
-0.989631, 329, 337, 392, 368
-0.989646, 349, 97, 380, 224
-0.989648, 305, 1, 368, 375
-0.989669, 241, 205, 304, 236
-0.989678, 177, 193, 240, 224
-0.989806, 377, 281, 440, 312
-0.989835, 65, 105, 192, 168
-0.989867, 329, 129, 360, 256
-0.989905, 249, 221, 312, 252
-0.98991, 65, 45, 128, 76
-0.989947, 361, 49, 424, 176
-0.989956, 433, 317, 496, 348
-0.989959, 121, 133, 184, 164
-0.989974, 425, 217, 488, 248
-0.989978, 113, 9, 176, 40
-0.989991, 153, 1, 216, 32
-0.989992, 393, 1, 456, 256
-0.990023, 209, 193, 272, 224
-0.990025, 329, 209, 392, 240
-0.990027, 113, 49, 176, 80
-0.990043, 329, 277, 392, 308
-0.990069, 17, 245, 80, 276
-0.990089, 377, 153, 440, 184
-0.990105, 113, 37, 176, 68
-0.990109, 57, 177, 88, 304
-0.990136, 353, 237, 416, 268
-0.990147, 65, 225, 128, 256
-0.990154, 185, 73, 248, 104
-0.990155, 361, 217, 424, 248
-0.990181, 233, 241, 296, 272
-0.990189, 65, 73, 128, 104
-0.990203, 425, 241, 488, 272
-0.990208, 289, 105, 416, 168
-0.990243, 305, 341, 368, 372
-0.990244, 89, 241, 152, 368
-0.990244, 257, 285, 320, 316
-0.990253, 433, 157, 496, 188
-0.990258, 97, 189, 160, 220
-0.990259, 89, 213, 152, 244
-0.990273, 265, 305, 328, 336
-0.990286, 89, 53, 152, 84
-0.990295, 297, 85, 360, 116
-0.990299, 305, 325, 368, 356
-0.990309, 313, 257, 376, 288
-0.990314, 153, 13, 216, 44
-0.99033, 225, 193, 480, 256
-0.99034, 153, 193, 216, 224
-0.990349, 233, 289, 296, 320
-0.99035, 425, 197, 488, 228
-0.990361, 65, 1, 128, 32
-0.990372, 185, 13, 248, 44
-0.990382, 97, 65, 160, 96
-0.990386, 273, 221, 336, 252
-0.990389, 137, 129, 168, 256
-0.990393, 305, 177, 368, 208
-0.990409, 313, 189, 376, 220
-0.990422, 57, 269, 120, 300
-0.990434, 169, 169, 232, 200
-0.990438, 225, 253, 288, 284
-0.990489, 89, 21, 152, 52
-0.990494, 113, 21, 176, 52
-0.990536, 193, 1, 256, 32
-0.990537, 185, 85, 248, 116
-0.990553, 401, 165, 464, 196
-0.990556, 305, 293, 368, 324
-0.990581, 65, 61, 128, 92
-0.990584, 145, 241, 272, 304
-0.99059, 89, 37, 152, 68
-0.990604, 377, 205, 440, 236
-0.990613, 217, 65, 280, 96
-0.990617, 309, 1, 340, 128
-0.99064, 169, 181, 232, 212
-0.990641, 89, 1, 152, 32
-0.990692, 337, 225, 400, 256
-0.9907, 9, 313, 72, 344
-0.990705, 313, 165, 376, 196
-0.990716, 177, 205, 240, 236
-0.990736, 153, 57, 216, 88
-0.990753, 313, 237, 376, 268
-0.990755, 57, 257, 120, 288
-0.990772, 1, 89, 64, 120
-0.990778, 353, 141, 416, 172
-0.990789, 257, 261, 320, 292
-0.990789, 369, 293, 432, 324
-0.990797, 97, 133, 160, 164
-0.990811, 377, 177, 440, 208
-0.990814, 153, 49, 184, 176
-0.990847, 225, 229, 288, 260
-0.990876, 257, 241, 500, 304
-0.990877, 57, 17, 120, 48
-0.990898, 97, 201, 352, 264
-0.990898, 57, 341, 120, 372
-0.990913, 33, 277, 96, 308
-0.990913, 425, 273, 488, 304
-0.990914, 65, 85, 128, 116
-0.990914, 289, 201, 352, 232
-0.990921, 241, 29, 304, 60
-0.990928, 345, 313, 408, 344
-0.990932, 57, 325, 120, 356
-0.990938, 193, 157, 256, 188
-0.990942, 345, 169, 408, 200
-0.990942, 273, 81, 336, 112
-0.99095, 249, 41, 312, 72
-0.990986, 465, 81, 496, 208
-0.990996, 241, 181, 304, 212
-0.991016, 49, 81, 80, 208
-0.991026, 393, 233, 456, 264
-0.99103, 329, 293, 392, 324
-0.991037, 281, 249, 344, 280
-0.991052, 1, 277, 64, 308
-0.991057, 25, 93, 88, 124
-0.991058, 65, 33, 128, 64
-0.991058, 193, 101, 256, 132
-0.991069, 65, 49, 320, 112
-0.991077, 1, 165, 64, 196
-0.991088, 105, 145, 168, 176
-0.991116, 169, 153, 232, 184
-0.991127, 9, 329, 72, 360
-0.99113, 401, 325, 464, 356
-0.991167, 65, 197, 128, 228
-0.991197, 337, 1, 400, 375
-0.991201, 193, 169, 256, 200
-0.991211, 385, 249, 448, 280
-0.991212, 121, 61, 184, 92
-0.991213, 33, 53, 96, 84
-0.991232, 1, 1, 128, 64
-0.991273, 345, 157, 408, 188
-0.991293, 1, 249, 500, 312
-0.991298, 129, 145, 192, 176
-0.991299, 33, 129, 96, 375
-0.991305, 29, 33, 60, 160
-0.991324, 161, 169, 416, 232
-0.991325, 49, 297, 112, 328
-0.99143, 285, 241, 316, 368
-0.991446, 369, 113, 496, 176
-0.991599, 25, 129, 88, 256
-0.991608, 177, 1, 208, 128
-0.991617, 1, 1, 64, 256
-0.991654, 225, 305, 480, 368
-0.991723, 469, 241, 500, 368
-0.991807, 453, 193, 484, 320
-0.992025, 281, 1, 344, 256
-0.992041, 33, 1, 288, 64
-0.992057, 169, 129, 232, 375
-0.992068, 17, 33, 48, 160
-0.992105, 309, 81, 340, 112
-0.992123, 185, 49, 216, 176
-0.992145, 357, 181, 388, 212
-0.992155, 421, 113, 452, 240
-0.992174, 97, 113, 128, 240
-0.992176, 197, 181, 228, 212
-0.992193, 97, 201, 128, 232
-0.992235, 61, 329, 92, 360
-0.992294, 445, 173, 476, 204
-0.992296, 369, 277, 400, 308
-0.992306, 361, 1, 424, 375
-0.992333, 261, 285, 292, 316
-0.99234, 273, 201, 304, 232
-0.992343, 365, 225, 396, 256
-0.992352, 213, 153, 244, 184
-0.992356, 1, 289, 500, 352
-0.992361, 385, 189, 416, 220
-0.992362, 1, 277, 32, 308
-0.99237, 49, 233, 80, 264
-0.992378, 169, 145, 200, 272
-0.992392, 429, 185, 460, 216
-0.992401, 373, 201, 404, 232
-0.992406, 245, 301, 276, 332
-0.992417, 273, 301, 304, 332
-0.992418, 325, 337, 356, 368
-0.992422, 125, 1, 156, 32
-0.992427, 261, 221, 292, 252
-0.992428, 333, 325, 364, 356
-0.99244, 45, 329, 76, 360
-0.99245, 321, 165, 352, 196
-0.992452, 129, 133, 160, 164
-0.992453, 29, 313, 60, 344
-0.992454, 373, 185, 404, 216
-0.992462, 373, 169, 404, 200
-0.992463, 393, 205, 424, 236
-0.992467, 81, 33, 112, 64
-0.992467, 381, 281, 412, 312
-0.992476, 301, 201, 332, 232
-0.992486, 345, 197, 376, 228
-0.992498, 265, 241, 296, 272
-0.992505, 61, 305, 92, 336
-0.992518, 1, 129, 32, 256
-0.992526, 433, 173, 464, 204
-0.992532, 69, 241, 100, 272
-0.992534, 245, 241, 276, 272
-0.992535, 109, 205, 140, 236
-0.992536, 321, 81, 352, 112
-0.992542, 65, 229, 96, 260
-0.992543, 5, 241, 36, 272
-0.992544, 105, 189, 136, 220
-0.992555, 1, 33, 500, 96
-0.992566, 37, 341, 68, 372
-0.992571, 65, 341, 96, 372
-0.992592, 273, 221, 304, 252
-0.992592, 461, 185, 492, 216
-0.992608, 193, 201, 224, 232
-0.992615, 437, 241, 468, 272
-0.992623, 113, 1, 144, 32
-0.992624, 209, 77, 240, 108
-0.992627, 33, 25, 288, 88
-0.992628, 325, 17, 356, 144
-0.992631, 193, 9, 224, 40
-0.992631, 441, 185, 472, 216
-0.992635, 33, 329, 64, 360
-0.992636, 385, 153, 416, 184
-0.992637, 469, 149, 500, 180
-0.992638, 417, 229, 448, 260
-0.992639, 253, 205, 284, 236
-0.992655, 409, 209, 440, 240
-0.99266, 297, 309, 328, 340
-0.992661, 465, 161, 496, 192
-0.992663, 1, 149, 32, 180
-0.992676, 373, 213, 404, 244
-0.992676, 377, 141, 408, 172
-0.992678, 397, 189, 428, 220
-0.992684, 357, 197, 388, 228
-0.992689, 225, 93, 256, 124
-0.992694, 45, 305, 60, 368
-0.992696, 17, 241, 48, 272
-0.992714, 85, 209, 116, 240
-0.992717, 245, 289, 276, 320
-0.992719, 45, 285, 76, 316
-0.992722, 353, 213, 384, 244
-0.992732, 209, 89, 240, 120
-0.992737, 321, 241, 352, 272
-0.992738, 77, 69, 108, 100
-0.992743, 73, 325, 104, 356
-0.992744, 85, 21, 116, 52
-0.992745, 409, 113, 440, 240
-0.992745, 261, 297, 292, 328
-0.992762, 353, 333, 384, 364
-0.992764, 101, 33, 132, 64
-0.992767, 345, 241, 376, 272
-0.992768, 37, 93, 68, 124
-0.992771, 289, 201, 320, 232
-0.992783, 17, 317, 48, 348
-0.992784, 1, 253, 32, 284
-0.992785, 13, 157, 44, 188
-0.992788, 193, 165, 224, 196
-0.992791, 413, 189, 444, 220
-0.992793, 69, 13, 100, 44
-0.992795, 405, 177, 436, 208
-0.992808, 117, 133, 148, 164
-0.99281, 65, 45, 96, 76
-0.992822, 445, 305, 476, 336
-0.992826, 437, 317, 468, 348
-0.992827, 285, 293, 316, 324
-0.992831, 221, 81, 252, 112
-0.992832, 77, 1, 108, 32
-0.992833, 317, 325, 348, 356
-0.992834, 441, 197, 472, 228
-0.992836, 33, 73, 288, 136
-0.992836, 417, 249, 448, 280
-0.992836, 353, 281, 384, 312
-0.992839, 121, 41, 152, 72
-0.99284, 241, 229, 272, 260
-0.992841, 381, 293, 412, 324
-0.992842, 137, 17, 168, 48
-0.992843, 85, 49, 116, 80
-0.992844, 49, 305, 80, 336
-0.992845, 113, 13, 144, 44
-0.992845, 269, 29, 300, 60
-0.992847, 113, 93, 144, 124
-0.992848, 393, 221, 424, 252
-0.992849, 29, 237, 60, 268
-0.992851, 377, 225, 408, 256
-0.992852, 265, 261, 296, 292
-0.992859, 17, 293, 48, 324
-0.992861, 1, 165, 32, 196
-0.992861, 53, 273, 84, 304
-0.992869, 133, 37, 164, 68
-0.99287, 205, 165, 236, 196
-0.992871, 181, 209, 212, 240
-0.992872, 177, 193, 208, 320
-0.992875, 117, 185, 148, 216
-0.992876, 205, 65, 236, 96
-0.992881, 97, 21, 128, 52
-0.992883, 357, 241, 388, 272
-0.992884, 53, 341, 84, 372
-0.992886, 185, 189, 216, 220
-0.992888, 229, 301, 260, 332
-0.992894, 369, 237, 400, 268
-0.992897, 1, 137, 32, 168
-0.992902, 421, 173, 452, 204
-0.992981, 65, 281, 320, 344
-0.99301, 1, 145, 256, 208
-0.993012, 477, 145, 492, 208
-0.993015, 65, 313, 192, 375
-0.993073, 25, 129, 56, 256
-0.993135, 67, 297, 82, 360
-0.993172, 241, 241, 368, 272
-0.993195, 37, 129, 68, 256
-0.993196, 161, 193, 288, 224
-0.99321, 371, 201, 386, 264
-0.993266, 1, 225, 256, 288
-0.993286, 385, 153, 400, 216
-0.993301, 433, 1, 496, 375
-0.993302, 129, 313, 384, 375
-0.993323, 35, 289, 50, 352
-0.993356, 289, 1, 320, 128
-0.993394, 385, 177, 400, 240
-0.993418, 1, 201, 500, 264
-0.993439, 265, 257, 280, 320
-0.993502, 97, 189, 224, 220
-0.993534, 51, 305, 66, 368
-0.993546, 1, 9, 500, 72
-0.99356, 117, 177, 148, 304
-0.993588, 129, 273, 256, 336
-0.993608, 401, 1, 464, 375
-0.99361, 337, 221, 464, 252
-0.993629, 29, 289, 44, 352
-0.993656, 391, 177, 406, 240
-0.993656, 43, 281, 58, 344
-0.993662, 221, 225, 252, 352
-0.993672, 53, 281, 68, 344
-0.993697, 323, 169, 338, 232
-0.993699, 367, 177, 382, 240
-0.993762, 337, 185, 464, 216
-0.99379, 57, 305, 72, 368
-0.993791, 367, 233, 382, 296
-0.993798, 65, 177, 320, 240
-0.993848, 203, 177, 218, 240
-0.993848, 433, 225, 448, 288
-0.993858, 61, 281, 76, 344
-0.993864, 1, 309, 128, 340
-0.993884, 3, 257, 18, 320
-0.993885, 471, 161, 486, 224
-0.993908, 259, 257, 274, 320
-0.993938, 379, 177, 394, 240
-0.993945, 1, 225, 500, 288
-0.993969, 483, 169, 498, 232
-0.99398, 195, 177, 210, 240
-0.993993, 97, 121, 352, 184
-0.993997, 61, 225, 76, 288
-0.994008, 161, 249, 416, 312
-0.99401, 129, 129, 144, 192
-0.994012, 269, 217, 284, 280
-0.994025, 273, 205, 400, 236
-0.99403, 253, 281, 268, 344
-0.994039, 457, 161, 472, 224
-0.994044, 33, 93, 160, 124
-0.994061, 385, 273, 400, 336
-0.994077, 447, 185, 462, 248
-0.994082, 241, 221, 368, 252
-0.99412, 211, 161, 226, 224
-0.994148, 73, 305, 88, 368
-0.994162, 193, 145, 448, 208
-0.994169, 79, 313, 94, 375
-0.994171, 289, 229, 416, 260
-0.994195, 1, 305, 256, 368
-0.994202, 111, 185, 126, 248
-0.99421, 385, 97, 416, 224
-0.994223, 177, 205, 304, 236
-0.994245, 289, 293, 416, 324
-0.994255, 1, 245, 128, 276
-0.994264, 85, 41, 100, 104
-0.994277, 245, 297, 260, 360
-0.994283, 441, 209, 456, 272
-0.994284, 259, 193, 274, 256
-0.994285, 369, 25, 496, 88
-0.994297, 289, 341, 416, 372
-0.994331, 483, 145, 498, 208
-0.994336, 1, 129, 500, 192
-0.99435, 363, 209, 378, 272
-0.994391, 443, 233, 458, 296
-0.994415, 33, 257, 288, 320
-0.994424, 443, 313, 458, 375
-0.99444, 97, 145, 352, 208
-0.994445, 65, 33, 192, 64
-0.994446, 337, 241, 464, 272
-0.994451, 193, 149, 320, 180
-0.994466, 21, 289, 36, 352
-0.99453, 131, 1, 146, 64
-0.994544, 313, 113, 344, 240
-0.994557, 225, 81, 352, 112
-0.994565, 259, 281, 274, 344
-0.994589, 369, 165, 496, 196
-0.994597, 71, 225, 86, 288
-0.994622, 289, 185, 416, 216
-0.994627, 113, 93, 240, 124
-0.994631, 433, 249, 448, 312
-0.994632, 141, 25, 156, 88
-0.994634, 403, 177, 418, 240
-0.994641, 17, 345, 144, 375
-0.994648, 77, 65, 92, 128
-0.994649, 129, 17, 384, 80
-0.994651, 1, 313, 500, 375
-0.994658, 375, 273, 390, 336
-0.994659, 97, 1, 224, 32
-0.994674, 5, 33, 36, 160
-0.994698, 37, 313, 52, 375
-0.994707, 393, 201, 408, 264
-0.994744, 263, 233, 278, 296
-0.994755, 379, 153, 394, 216
-0.994763, 225, 301, 352, 332
-0.994765, 337, 49, 464, 112
-0.99477, 177, 181, 304, 212
-0.994785, 65, 45, 192, 76
-0.994796, 1, 201, 256, 264
-0.994798, 391, 281, 406, 344
-0.994802, 81, 201, 208, 232
-0.994831, 1, 281, 128, 312
-0.994836, 67, 265, 82, 328
-0.994848, 337, 197, 464, 228
-0.994858, 129, 153, 144, 216
-0.994873, 121, 129, 184, 375
-0.994879, 65, 17, 192, 48
-0.9949, 275, 217, 290, 280
-0.994908, 161, 41, 416, 104
-0.994911, 97, 25, 112, 88
-0.994912, 377, 201, 392, 264
-0.994914, 369, 293, 496, 324
-0.994925, 135, 41, 150, 104
-0.994941, 225, 285, 352, 316
-0.994966, 373, 225, 388, 288
-0.994985, 173, 81, 204, 208
-0.994994, 145, 33, 272, 64
-0.995, 247, 105, 262, 168
-0.995016, 447, 161, 462, 224
-0.995017, 269, 281, 284, 344
-0.995021, 15, 289, 30, 352
-0.995025, 11, 233, 26, 296
-0.99503, 397, 177, 412, 240
-0.995045, 275, 25, 290, 88
-0.995065, 317, 193, 332, 256
-0.995072, 337, 325, 464, 356
-0.995099, 135, 129, 150, 192
-0.995111, 129, 13, 256, 44
-0.995118, 399, 201, 414, 264
-0.995132, 225, 73, 240, 136
-0.995134, 21, 233, 36, 296
-0.995137, 103, 193, 118, 256
-0.995138, 477, 169, 492, 232
-0.99515, 289, 305, 416, 336
-0.995152, 81, 81, 208, 112
-0.995161, 471, 185, 486, 248
-0.995171, 89, 65, 104, 128
-0.995172, 145, 57, 272, 88
-0.995175, 271, 241, 286, 304
-0.99519, 145, 1, 272, 32
-0.995192, 127, 177, 142, 240
-0.9952, 451, 297, 466, 360
-0.995203, 97, 225, 352, 288
-0.995231, 417, 33, 480, 288
-0.995231, 359, 185, 374, 248
-0.995239, 417, 209, 432, 272
-0.995243, 1, 289, 16, 352
-0.995256, 49, 61, 176, 92
-0.995285, 129, 177, 192, 304
-0.995291, 463, 161, 478, 224
-0.995292, 75, 41, 90, 104
-0.995296, 225, 313, 352, 344
-0.995305, 257, 253, 384, 284
-0.99531, 1, 233, 128, 264
-0.995312, 439, 185, 454, 248
-0.995314, 217, 153, 232, 216
-0.995333, 305, 157, 432, 188
-0.995333, 369, 273, 496, 304
-0.995334, 265, 57, 280, 120
-0.995351, 99, 49, 114, 112
-0.995359, 117, 177, 132, 240
-0.995383, 385, 201, 400, 264
-0.995407, 361, 33, 424, 288
-0.995408, 305, 281, 432, 312
-0.995414, 373, 177, 388, 240
-0.995416, 395, 153, 410, 216
-0.995423, 193, 21, 320, 52
-0.995438, 423, 201, 438, 264
-0.995443, 199, 201, 214, 264
-0.995449, 97, 61, 224, 92
-0.995457, 211, 137, 226, 200
-0.995457, 453, 185, 468, 248
-0.995462, 441, 161, 456, 224
-0.995475, 177, 241, 304, 272
-0.995481, 289, 217, 416, 248
-0.995482, 1, 97, 256, 160
-0.995483, 11, 257, 26, 320
-0.995485, 123, 145, 138, 208
-0.995501, 369, 129, 384, 192
-0.995503, 323, 73, 338, 136
-0.995511, 317, 313, 332, 375
-0.995521, 427, 225, 442, 288
-0.995526, 381, 297, 396, 360
-0.995533, 225, 337, 352, 368
-0.995536, 241, 93, 368, 124
-0.995557, 1, 73, 500, 136
-0.995563, 273, 145, 400, 176
-0.995566, 11, 161, 26, 224
-0.995574, 369, 345, 496, 375
-0.995582, 15, 81, 30, 144
-0.995593, 457, 305, 472, 368
-0.995611, 115, 65, 130, 128
-0.995613, 161, 93, 288, 124
-0.995614, 313, 65, 328, 128
-0.995616, 33, 249, 48, 312
-0.995622, 143, 1, 158, 64
-0.995627, 113, 145, 240, 176
-0.995632, 79, 1, 94, 64
-0.995639, 247, 129, 262, 192
-0.995641, 125, 1, 140, 64
-0.995656, 241, 137, 256, 200
-0.995659, 217, 65, 232, 128
-0.995662, 285, 217, 300, 280
-0.995664, 31, 313, 46, 375
-0.995669, 199, 1, 214, 64
-0.995676, 9, 97, 40, 352
-0.995678, 465, 185, 480, 248
-0.995688, 5, 169, 20, 232
-0.995697, 415, 177, 430, 240
-0.995698, 97, 97, 352, 160
-0.995698, 65, 105, 192, 136
-0.995721, 281, 241, 296, 304
-0.995734, 177, 217, 304, 248
-0.995751, 311, 185, 326, 248
-0.995752, 1, 261, 128, 292
-0.995763, 129, 73, 384, 136
-0.995783, 369, 149, 496, 180
-0.995788, 225, 201, 352, 232
-0.995806, 177, 289, 304, 320
-0.995833, 257, 165, 384, 196
-0.995884, 1, 325, 128, 356
-0.995901, 1, 153, 500, 216
-0.995923, 17, 77, 144, 108
-0.995973, 225, 325, 352, 356
-0.99599, 369, 305, 496, 336
-0.995991, 337, 209, 464, 240
-0.995992, 177, 229, 304, 260
-0.996013, 17, 49, 144, 80
-0.996054, 289, 241, 416, 272
-0.996054, 289, 317, 416, 348
-0.996061, 113, 105, 240, 136
-0.996115, 209, 41, 336, 72
-0.996128, 33, 205, 160, 236
-0.996137, 17, 117, 144, 148
-0.996144, 113, 133, 240, 164
-0.996209, 289, 85, 416, 116
-0.996217, 321, 169, 448, 200
-0.996219, 445, 129, 476, 375
-0.996241, 49, 5, 176, 36
-0.996282, 65, 257, 192, 288
-0.996312, 161, 105, 288, 136
-0.996375, 113, 177, 240, 208
-0.996406, 177, 77, 304, 108
-0.996429, 109, 193, 124, 224
-0.996436, 177, 253, 304, 284
-0.996449, 225, 1, 480, 64
-0.996471, 225, 69, 352, 100
-0.996496, 145, 45, 272, 76
-0.996497, 337, 253, 464, 284
-0.996511, 469, 129, 500, 375
-0.996512, 17, 105, 144, 136
-0.996529, 193, 137, 320, 168
-0.996531, 37, 65, 68, 320
-0.996549, 113, 1, 144, 256
-0.99657, 129, 213, 256, 244
-0.99657, 257, 133, 384, 164
-0.996572, 337, 1, 400, 256
-0.9966, 97, 233, 224, 296
-0.996635, 113, 165, 240, 196
-0.996637, 281, 1, 312, 256
-0.99664, 257, 49, 500, 112
-0.996646, 323, 81, 338, 112
-0.996647, 177, 301, 304, 332
-0.996658, 241, 177, 368, 208
-0.99666, 17, 189, 144, 220
-0.996662, 245, 129, 276, 375
-0.996686, 193, 1, 320, 32
-0.996716, 265, 129, 296, 375
-0.996717, 131, 133, 146, 164
-0.996726, 49, 225, 176, 256
-0.996748, 49, 269, 176, 300
-0.996779, 93, 1, 124, 256
-0.996787, 209, 161, 336, 192
-0.996798, 81, 213, 208, 244
-0.996828, 241, 189, 368, 220
-0.996848, 49, 321, 176, 352
-0.996862, 17, 37, 144, 68
-0.996865, 1, 293, 128, 324
-0.996882, 337, 1, 464, 64
-0.996896, 33, 133, 160, 164
-0.996933, 99, 201, 114, 232
-0.996948, 257, 265, 384, 296
-0.996954, 289, 329, 416, 360
-0.996962, 225, 81, 480, 144
-0.996963, 445, 317, 460, 348
-0.997012, 245, 301, 260, 332
-0.997014, 377, 169, 392, 200
-0.997015, 21, 97, 52, 352
-0.997023, 47, 329, 62, 360
-0.997038, 371, 225, 386, 256
-0.997045, 255, 293, 270, 324
-0.997048, 1, 177, 500, 240
-0.99705, 257, 121, 500, 184
-0.997069, 129, 121, 256, 152
-0.997082, 433, 129, 464, 375
-0.997091, 221, 73, 236, 104
-0.997105, 383, 181, 398, 212
-0.997106, 327, 165, 342, 196
-0.997124, 17, 21, 144, 52
-0.997133, 73, 325, 88, 356
-0.997142, 121, 97, 152, 352
-0.997153, 369, 137, 496, 168
-0.997175, 439, 173, 454, 204
-0.997187, 49, 241, 176, 272
-0.997194, 311, 81, 326, 112
-0.99721, 257, 33, 288, 288
-0.997211, 265, 285, 280, 316
-0.997213, 411, 213, 426, 244
-0.997225, 177, 345, 304, 375
-0.997226, 201, 1, 232, 256
-0.997232, 321, 145, 448, 176
-0.997233, 177, 125, 304, 156
-0.997234, 407, 201, 422, 232
-0.997234, 133, 1, 164, 256
-0.997244, 443, 229, 458, 260
-0.997247, 55, 333, 70, 364
-0.997255, 75, 229, 90, 260
-0.997273, 365, 129, 396, 375
-0.997275, 1, 157, 128, 188
-0.997279, 49, 301, 176, 332
-0.997283, 65, 97, 96, 352
-0.99729, 215, 157, 230, 188
-0.997301, 389, 149, 404, 180
-0.997306, 457, 129, 488, 375
-0.997309, 383, 281, 398, 312
-0.997309, 401, 189, 416, 220
-0.997312, 121, 201, 136, 232
-0.997318, 161, 161, 288, 192
-0.997324, 289, 25, 416, 56
-0.997329, 381, 129, 412, 375
-0.997334, 383, 165, 398, 196
-0.997337, 129, 205, 144, 236
-0.997338, 369, 213, 384, 244
-0.99734, 369, 181, 384, 212
-0.99735, 281, 205, 296, 236
-0.997351, 267, 241, 282, 272
-0.997352, 353, 189, 368, 220
-0.99736, 221, 1, 252, 256
-0.997362, 195, 193, 210, 224
-0.997371, 389, 185, 404, 216
-0.997372, 209, 105, 336, 136
-0.997382, 233, 97, 264, 352
-0.997385, 37, 313, 52, 344
-0.997388, 137, 37, 152, 68
-0.997394, 115, 189, 130, 220
-0.9974, 377, 197, 392, 228
-0.997402, 109, 205, 124, 236
-0.997402, 291, 201, 306, 232
-0.997403, 367, 273, 382, 304
-0.997411, 1, 61, 128, 92
-0.997422, 1, 121, 256, 184
-0.997426, 361, 1, 424, 128
-0.997437, 429, 181, 444, 212
-0.997437, 271, 205, 286, 236
-0.997437, 261, 201, 276, 232
-0.997448, 19, 241, 34, 272
-0.997449, 289, 73, 416, 104
-0.99745, 77, 33, 108, 288
-0.997451, 257, 25, 500, 88
-0.997455, 345, 253, 360, 284
-0.997455, 65, 1, 96, 256
-0.997462, 101, 97, 132, 352
-0.997464, 385, 65, 448, 192
-0.997465, 67, 325, 82, 356
-0.997471, 367, 193, 382, 224
-0.997471, 211, 89, 226, 120
-0.997477, 433, 17, 496, 144
-0.997485, 377, 277, 392, 308
-0.99749, 277, 221, 292, 252
-0.997492, 137, 133, 152, 164
-0.997492, 161, 273, 288, 304
-0.997502, 377, 217, 392, 248
-0.997504, 63, 229, 78, 260
-0.997506, 257, 41, 384, 72
-0.997506, 65, 145, 192, 176
-0.997512, 79, 313, 94, 344
-0.997514, 191, 205, 206, 236
-0.997516, 129, 73, 256, 104
-0.997519, 43, 341, 58, 372
-0.99752, 329, 85, 344, 116
-0.997522, 281, 29, 296, 60
-0.997522, 215, 69, 230, 100
-0.997526, 3, 241, 18, 272
-0.997531, 447, 181, 462, 212
-0.997537, 431, 229, 446, 260
-0.997538, 271, 221, 286, 252
-0.997539, 31, 313, 46, 344
-0.997545, 3, 277, 18, 308
-0.99755, 335, 341, 350, 372
-0.997556, 477, 141, 492, 172
-0.997557, 201, 181, 216, 212
-0.997559, 359, 197, 374, 228
-0.997559, 185, 1, 216, 256
-0.997561, 303, 201, 318, 232
-0.997562, 197, 5, 212, 36
-0.997572, 265, 257, 280, 288
-0.997582, 115, 205, 130, 236
-0.997587, 437, 221, 452, 252
-0.997588, 49, 333, 176, 364
-0.997591, 127, 1, 142, 32
-0.997591, 395, 189, 410, 220
-0.997593, 297, 201, 312, 232
-0.997598, 377, 181, 392, 212
-0.997598, 125, 149, 140, 180
-0.997598, 189, 129, 220, 375
-0.997601, 321, 177, 336, 208
-0.997603, 11, 281, 26, 312
-0.997615, 479, 169, 494, 200
-0.997618, 247, 113, 262, 144
-0.997627, 447, 305, 462, 336
-0.997629, 205, 165, 220, 196
-0.997629, 483, 153, 498, 184
-0.997639, 207, 177, 222, 208
-0.99764, 431, 217, 446, 248
-0.997643, 17, 145, 144, 176
-0.997649, 279, 137, 294, 168
-0.99765, 305, 97, 336, 352
-0.997651, 453, 297, 468, 328
-0.997653, 401, 129, 432, 375
-0.997654, 9, 241, 24, 272
-0.99766, 79, 325, 94, 356
-0.997668, 117, 93, 132, 124
-0.997669, 61, 329, 76, 360
-0.997676, 361, 209, 376, 240
-0.997677, 433, 253, 448, 284
-0.997678, 441, 185, 456, 216
-0.997682, 121, 189, 136, 220
-0.997682, 77, 53, 92, 84
-0.997688, 73, 305, 88, 336
-0.997689, 101, 213, 116, 244
-0.997694, 365, 237, 380, 268
-0.997694, 239, 253, 254, 284
-0.997697, 261, 297, 276, 328
-0.997704, 193, 53, 320, 84
-0.99771, 345, 325, 360, 356
-0.997711, 221, 57, 236, 88
-0.997711, 399, 205, 414, 236
-0.997724, 43, 309, 58, 340
-0.997726, 1, 97, 16, 128
-0.997727, 77, 337, 92, 368
-0.997729, 15, 97, 30, 128
-0.997743, 143, 25, 158, 56
-0.997745, 345, 241, 360, 272
-0.997745, 121, 177, 136, 208
-0.997753, 433, 165, 448, 196
-0.997758, 353, 129, 384, 375
-0.997761, 85, 245, 100, 276
-0.997763, 49, 97, 80, 352
-0.997764, 7, 85, 22, 116
-0.997767, 85, 33, 100, 64
-0.997769, 263, 221, 278, 252
-0.997771, 327, 325, 342, 356
-0.997774, 71, 241, 86, 272
-0.997776, 37, 337, 52, 368
-0.99778, 99, 33, 114, 64
-0.997785, 81, 225, 96, 256
-0.997786, 239, 341, 254, 372
-0.997787, 421, 205, 436, 236
-0.997794, 247, 125, 262, 156
-0.997809, 97, 225, 224, 256
-0.997817, 325, 97, 356, 352
-0.997853, 413, 129, 444, 375
-0.997889, 245, 33, 276, 288
-0.998042, 337, 73, 464, 136
-0.998055, 469, 33, 500, 288
-0.998059, 269, 33, 300, 288
-0.998218, 233, 1, 264, 256
-0.99837, 145, 1, 176, 256
-0.998402, 41, 339, 104, 354
-0.99841, 401, 191, 464, 206
-0.998413, 15, 225, 30, 352
-0.998414, 369, 287, 432, 302
-0.998414, 57, 245, 120, 260
-0.998422, 233, 305, 296, 320
-0.998428, 33, 239, 96, 254
-0.998428, 33, 309, 96, 324
-0.998433, 265, 309, 328, 324
-0.998434, 193, 185, 256, 200
-0.998451, 257, 215, 320, 230
-0.998454, 321, 335, 384, 350
-0.998455, 209, 195, 272, 210
-0.998457, 41, 345, 104, 360
-0.998457, 433, 189, 496, 204
-0.998459, 265, 221, 328, 236
-0.99846, 297, 85, 360, 100
-0.998463, 65, 229, 128, 244
-0.998464, 33, 333, 96, 348
-0.998464, 353, 189, 416, 204
-0.998467, 369, 225, 432, 240
-0.998468, 65, 47, 128, 62
-0.998469, 31, 225, 46, 352
-0.998472, 217, 257, 280, 272
-0.998473, 401, 185, 464, 200
-0.998474, 377, 219, 440, 234
-0.998474, 17, 249, 80, 264
-0.998475, 37, 225, 52, 352
-0.998475, 201, 95, 232, 110
-0.998475, 361, 203, 392, 218
-0.998476, 389, 187, 420, 202
-0.998476, 45, 337, 76, 352
-0.998477, 305, 259, 368, 274
-0.998477, 221, 99, 252, 114
-0.998477, 401, 183, 432, 198
-0.998478, 77, 129, 108, 375
-0.998478, 333, 337, 364, 352
-0.998478, 241, 247, 272, 262
-0.998478, 65, 259, 96, 274
-0.998478, 405, 217, 436, 232
-0.998479, 281, 307, 312, 322
-0.998479, 193, 13, 224, 28
-0.998479, 417, 227, 448, 242
-0.99848, 129, 145, 192, 160
-0.998481, 213, 163, 244, 178
-0.998481, 181, 99, 212, 114
-0.998481, 73, 343, 104, 358
-0.998481, 89, 39, 152, 54
-0.998482, 249, 285, 312, 300
-0.998482, 369, 165, 400, 180
-0.998482, 469, 149, 500, 164
-0.998483, 205, 101, 236, 116
-0.998483, 9, 255, 40, 270
-0.998483, 249, 201, 312, 216
-0.998483, 469, 155, 500, 170
-0.998484, 441, 167, 472, 182
-0.998485, 209, 97, 240, 352
-0.998486, 89, 27, 120, 42
-0.998487, 25, 287, 88, 302
-0.998488, 345, 283, 408, 298
-0.998489, 285, 209, 316, 224
-0.998489, 21, 225, 36, 352
-0.99849, 49, 285, 80, 300
-0.99849, 257, 199, 288, 214
-0.998492, 301, 209, 332, 224
-0.998493, 33, 345, 64, 360
-0.998493, 289, 355, 320, 370
-0.998493, 1, 293, 32, 308
-0.998494, 369, 159, 432, 174
-0.998494, 369, 293, 432, 308
-0.998494, 309, 95, 340, 110
-0.998495, 125, 43, 156, 58
-0.998495, 461, 195, 492, 210
-0.998496, 105, 197, 136, 212
-0.998497, 97, 351, 128, 366
-0.998497, 1, 285, 64, 300
-0.998497, 189, 207, 220, 222
-0.998498, 205, 77, 236, 92
-0.998498, 237, 309, 268, 324
-0.998498, 13, 291, 44, 306
-0.998498, 57, 331, 88, 346
-0.998499, 89, 215, 120, 230
-0.9985, 321, 91, 352, 106
-0.9985, 125, 5, 156, 20
-0.9985, 353, 335, 384, 350
-0.998501, 453, 171, 484, 186
-0.998501, 233, 311, 296, 326
-0.998501, 281, 209, 344, 224
-0.998502, 361, 289, 392, 304
-0.998502, 429, 199, 460, 214
-0.998502, 37, 285, 68, 300
-0.998502, 25, 315, 56, 330
-0.998502, 357, 219, 388, 234
-0.998503, 185, 15, 248, 30
-0.998503, 325, 165, 356, 180
-0.998503, 113, 63, 176, 78
-0.998503, 377, 193, 440, 208
-0.998505, 25, 291, 56, 306
-0.998505, 65, 251, 96, 266
-0.998506, 389, 193, 420, 208
-0.998506, 213, 89, 244, 104
-0.998506, 49, 281, 112, 296
-0.998506, 269, 225, 300, 240
-0.998506, 67, 241, 82, 368
-0.998506, 77, 45, 108, 60
-0.998507, 367, 145, 382, 272
-0.998507, 461, 189, 492, 204
-0.998507, 185, 191, 248, 206
-0.998508, 41, 353, 72, 368
-0.998508, 393, 217, 424, 232
-0.998509, 257, 243, 320, 258
-0.998509, 121, 221, 152, 236
-0.998509, 53, 1, 84, 256
-0.998509, 17, 163, 48, 178
-0.998509, 89, 203, 152, 218
-0.998511, 401, 167, 464, 182
-0.998512, 225, 203, 288, 218
-0.998512, 85, 73, 116, 88
-0.998512, 433, 173, 496, 188
-0.998512, 1, 169, 64, 184
-0.998512, 193, 191, 224, 206
-0.998512, 57, 273, 120, 288
-0.998512, 309, 81, 340, 96
-0.998513, 265, 59, 296, 74
-0.998514, 365, 211, 396, 226
-0.998514, 293, 97, 324, 352
-0.998514, 17, 255, 80, 270
-0.998515, 261, 243, 292, 258
-0.998515, 413, 187, 444, 202
-0.998515, 321, 175, 352, 190
-0.998516, 113, 53, 176, 68
-0.998516, 177, 201, 240, 216
-0.998516, 345, 201, 408, 216
-0.998517, 377, 165, 440, 180
-0.998517, 101, 217, 132, 232
-0.998517, 189, 201, 220, 216
-0.998518, 337, 163, 400, 178
-0.998519, 433, 181, 464, 196
-0.998519, 425, 183, 488, 198
-0.99852, 441, 191, 472, 206
-0.99852, 1, 261, 32, 276
-0.998521, 305, 93, 368, 108
-0.998522, 177, 95, 240, 110
-0.998522, 97, 195, 160, 210
-0.998522, 433, 199, 496, 214
-0.998522, 125, 137, 156, 152
-0.998523, 241, 191, 304, 206
-0.998523, 241, 227, 304, 242
-0.998524, 89, 213, 152, 228
-0.998524, 387, 129, 402, 256
-0.998524, 253, 297, 284, 312
-0.998525, 437, 245, 468, 260
-0.998525, 345, 157, 408, 172
-0.998526, 185, 71, 248, 86
-0.998527, 257, 303, 288, 318
-0.998527, 293, 219, 324, 234
-0.998527, 281, 355, 344, 370
-0.998529, 65, 71, 128, 86
-0.998529, 385, 161, 416, 176
-0.998529, 257, 209, 320, 224
-0.998529, 417, 221, 448, 236
-0.99853, 245, 253, 276, 268
-0.99853, 393, 285, 424, 300
-0.99853, 441, 197, 472, 212
-0.998531, 69, 237, 100, 252
-0.998531, 269, 35, 300, 50
-0.998531, 393, 289, 456, 304
-0.998531, 377, 187, 440, 202
-0.998531, 369, 201, 432, 216
-0.998531, 105, 23, 168, 38
-0.998531, 433, 319, 496, 334
-0.998531, 345, 237, 408, 252
-0.998531, 65, 81, 128, 96
-0.998532, 105, 75, 136, 90
-0.998532, 377, 281, 440, 296
-0.998532, 361, 235, 392, 250
-0.998533, 353, 219, 416, 234
-0.998534, 41, 325, 104, 340
-0.998534, 57, 257, 120, 272
-0.998534, 233, 299, 296, 314
-0.998535, 117, 209, 148, 224
-0.998535, 41, 351, 104, 366
-0.998536, 377, 289, 408, 304
-0.998537, 393, 199, 456, 214
-0.998537, 385, 179, 448, 194
-0.998537, 1, 243, 64, 258
-0.998537, 321, 257, 352, 272
-0.998538, 73, 61, 136, 76
-0.998538, 273, 203, 336, 218
-0.998538, 81, 351, 144, 366
-0.998539, 125, 143, 156, 158
-0.99854, 345, 183, 408, 198
-0.998541, 369, 359, 432, 374
-0.998541, 209, 71, 272, 86
-0.998542, 41, 233, 104, 248
-0.998543, 313, 203, 376, 218
-0.998544, 369, 225, 400, 240
-0.998544, 289, 203, 320, 218
-0.998544, 261, 285, 292, 300
-0.998545, 341, 129, 372, 375
-0.998545, 393, 225, 456, 240
-0.998545, 353, 243, 416, 258
-0.998546, 145, 17, 208, 32
-0.998546, 353, 209, 416, 224
-0.998547, 337, 255, 368, 270
-0.998547, 57, 265, 120, 280
-0.998548, 1, 293, 64, 308
-0.998549, 121, 139, 184, 154
-0.99855, 289, 215, 352, 230
-0.99855, 65, 53, 128, 68
-0.998551, 113, 73, 176, 88
-0.998551, 305, 329, 368, 344
-0.998551, 313, 247, 376, 262
-0.998552, 265, 303, 328, 318
-0.998552, 305, 177, 368, 192
-0.998552, 209, 65, 272, 80
-0.998552, 113, 35, 176, 50
-0.998553, 425, 193, 456, 208
-0.998553, 153, 203, 216, 218
-0.998554, 177, 207, 240, 222
-0.998554, 129, 1, 192, 16
-0.998555, 345, 195, 408, 210
-0.998555, 81, 19, 144, 34
-0.998556, 65, 345, 128, 360
-0.998556, 65, 13, 128, 28
-0.998557, 217, 251, 280, 266
-0.998557, 269, 215, 300, 230
-0.998557, 345, 289, 408, 304
-0.998558, 293, 309, 324, 324
-0.998558, 145, 23, 208, 38
-0.998559, 89, 1, 152, 16
-0.998559, 249, 47, 312, 62
-0.99856, 17, 279, 80, 294
-0.998561, 257, 263, 320, 278
-0.998561, 105, 45, 168, 60
-0.998562, 321, 229, 384, 244
-0.998562, 177, 155, 240, 170
-0.998562, 57, 239, 120, 254
-0.998562, 45, 225, 60, 352
-0.998562, 89, 141, 152, 156
-0.998563, 313, 211, 376, 226
-0.998563, 281, 129, 312, 375
-0.998564, 169, 185, 232, 200
-0.998565, 217, 243, 280, 258
-0.998566, 273, 207, 304, 222
-0.998568, 373, 201, 404, 216
-0.998569, 361, 193, 392, 208
-0.998571, 313, 1, 376, 256
-0.998572, 69, 245, 100, 260
-0.998575, 369, 217, 400, 232
-0.998575, 333, 331, 364, 346
-0.998578, 57, 307, 88, 322
-0.998579, 377, 187, 408, 202
-0.998581, 5, 285, 36, 300
-0.998582, 381, 223, 412, 238
-0.998582, 301, 203, 332, 218
-0.998583, 371, 193, 386, 320
-0.998586, 213, 155, 244, 170
-0.998588, 25, 285, 56, 300
-0.998588, 89, 209, 120, 224
-0.998594, 109, 203, 140, 218
-0.998597, 197, 185, 228, 200
-0.998598, 41, 331, 72, 346
-0.998598, 425, 187, 456, 202
-0.998608, 49, 235, 80, 250
-0.998608, 61, 341, 92, 356
-0.998612, 345, 201, 376, 216
-0.998612, 481, 129, 496, 256
-0.998619, 321, 85, 352, 100
-0.998621, 309, 87, 340, 102
-0.998622, 437, 225, 452, 352
-0.998625, 97, 203, 128, 218
-0.998627, 269, 307, 300, 322
-0.99864, 101, 211, 132, 226
-0.998642, 381, 283, 412, 298
-0.998663, 241, 303, 272, 318
-0.998668, 9, 1, 40, 256
-0.99867, 369, 281, 400, 296
-0.998676, 441, 161, 456, 288
-0.998687, 61, 225, 76, 352
-0.998694, 365, 225, 380, 352
-0.998709, 249, 309, 280, 324
-0.998714, 9, 225, 24, 352
-0.99873, 205, 1, 220, 128
-0.998738, 427, 161, 442, 288
-0.998738, 157, 1, 188, 256
-0.99876, 73, 241, 88, 368
-0.998763, 221, 1, 236, 128
-0.998768, 375, 129, 390, 256
-0.998774, 395, 177, 410, 304
-0.998776, 359, 193, 374, 320
-0.998778, 81, 1, 96, 128
-0.998779, 203, 161, 218, 288
-0.998783, 51, 225, 66, 352
-0.998791, 177, 129, 208, 375
-0.998795, 211, 65, 226, 192
-0.998804, 385, 193, 400, 320
-0.998818, 381, 145, 396, 272
-0.998831, 197, 161, 212, 288
-0.998843, 387, 241, 402, 368
-0.998848, 133, 97, 164, 352
-0.998861, 377, 193, 392, 320
-0.998861, 3, 241, 18, 368
-0.998867, 431, 209, 446, 336
-0.998869, 475, 129, 490, 256
-0.998872, 125, 1, 140, 128
-0.998888, 1, 97, 500, 160
-0.998891, 221, 49, 236, 176
-0.998894, 145, 1, 160, 128
-0.998898, 407, 161, 422, 288
-0.998909, 267, 193, 282, 320
-0.998911, 433, 145, 448, 272
-0.998918, 259, 177, 274, 304
-0.998926, 131, 129, 146, 256
-0.998929, 395, 225, 410, 352
-0.998932, 131, 1, 146, 128
-0.998938, 119, 1, 134, 128
-0.998948, 113, 313, 240, 375
-0.99895, 313, 177, 328, 304
-0.998952, 401, 161, 416, 288
-0.998954, 469, 161, 484, 288
-0.998956, 151, 1, 166, 128
-0.998957, 445, 241, 460, 368
-0.998962, 71, 17, 86, 144
-0.998962, 89, 17, 104, 144
-0.998968, 363, 97, 378, 224
-0.998976, 3, 81, 18, 208
-0.99898, 319, 177, 334, 304
-0.998982, 421, 177, 436, 304
-0.999002, 213, 129, 228, 256
-0.999003, 211, 1, 226, 128
-0.999009, 381, 33, 412, 288
-0.999013, 199, 1, 214, 128
-0.999019, 23, 177, 38, 304
-0.99902, 67, 193, 82, 320
-0.99902, 275, 113, 290, 240
-0.999024, 265, 241, 280, 368
-0.999026, 41, 177, 56, 304
-0.999027, 99, 1, 114, 128
-0.99903, 413, 193, 428, 320
-0.999035, 139, 1, 154, 128
-0.999045, 35, 177, 50, 304
-0.99905, 11, 81, 26, 208
-0.99905, 173, 33, 204, 288
-0.99906, 281, 113, 296, 240
-0.999063, 357, 145, 372, 272
-0.999065, 107, 1, 122, 128
-0.999079, 81, 49, 96, 176
-0.999079, 243, 97, 258, 224
-0.999082, 3, 193, 18, 320
-0.99909, 401, 225, 416, 352
-0.999092, 21, 1, 52, 256
-0.999102, 359, 241, 374, 368
-0.999103, 47, 177, 62, 304
-0.999111, 289, 177, 304, 304
-0.999112, 17, 81, 32, 208
-0.999121, 249, 113, 264, 240
-0.999123, 11, 161, 26, 288
-0.99913, 483, 81, 498, 208
-0.99913, 317, 225, 332, 352
-0.999132, 221, 97, 252, 352
-0.999133, 369, 97, 384, 224
-0.999137, 227, 17, 242, 144
-0.999144, 29, 177, 44, 304
-0.999146, 377, 241, 392, 368
-0.999146, 65, 17, 80, 144
-0.999157, 157, 1, 172, 128
-0.999158, 125, 129, 140, 256
-0.99916, 303, 177, 318, 304
-0.999165, 27, 81, 42, 208
-0.999171, 319, 81, 334, 208
-0.999173, 353, 193, 368, 320
-0.999175, 455, 241, 470, 368
-0.999179, 191, 1, 206, 128
-0.999184, 325, 145, 340, 272
-0.999186, 311, 241, 326, 368
-0.999189, 425, 225, 440, 352
-0.99919, 477, 177, 492, 304
-0.999192, 247, 1, 262, 128
-0.999194, 393, 129, 408, 256
-0.999196, 205, 113, 220, 240
-0.999211, 415, 145, 430, 272
-0.999212, 325, 65, 340, 192
-0.999216, 261, 1, 276, 128
-0.99922, 43, 81, 58, 208
-0.999227, 485, 177, 500, 304
-0.999228, 365, 33, 396, 288
-0.999231, 261, 129, 276, 256
-0.999231, 407, 225, 422, 352
-0.999232, 279, 33, 294, 160
-0.999234, 323, 1, 338, 128
-0.999234, 219, 129, 234, 256
-0.999239, 281, 177, 296, 304
-0.999244, 103, 65, 118, 192
-0.999245, 133, 81, 148, 208
-0.999245, 99, 193, 114, 320
-0.99925, 113, 49, 128, 176
-0.999251, 239, 145, 254, 272
-0.999252, 317, 17, 332, 144
-0.999252, 313, 113, 328, 240
-0.999252, 209, 177, 224, 304
-0.999254, 57, 177, 72, 304
-0.999255, 141, 49, 156, 176
-0.999256, 419, 225, 434, 352
-0.999257, 463, 145, 478, 272
-0.999263, 241, 17, 256, 144
-0.999273, 271, 1, 286, 128
-0.999276, 157, 49, 172, 176
-0.999282, 305, 1, 336, 256
-0.999297, 293, 1, 324, 256
-0.999342, 457, 33, 488, 288
-0.999471, 441, 33, 472, 288
-0.999478, 89, 129, 120, 375
-0.999596, 325, 1, 356, 256
-0.9996, 417, 33, 448, 288
-0.999622, 353, 33, 384, 288
-0.99967, 273, 219, 288, 234
-0.99967, 383, 191, 398, 206
-0.99967, 479, 189, 494, 204
-0.99967, 477, 151, 492, 166
-0.999672, 199, 9, 214, 24
-0.999672, 225, 91, 240, 106
-0.999673, 53, 333, 68, 348
-0.999673, 191, 205, 206, 220
-0.999674, 315, 75, 330, 90
-0.999675, 129, 151, 144, 166
-0.999675, 437, 167, 452, 182
-0.999676, 133, 45, 148, 60
-0.999676, 349, 255, 364, 270
-0.999677, 45, 343, 60, 358
-0.999678, 221, 77, 236, 92
-0.999679, 475, 61, 490, 76
-0.99968, 127, 3, 142, 18
-0.99968, 13, 259, 28, 274
-0.999682, 283, 29, 298, 44
-0.999683, 297, 203, 312, 218
-0.999683, 9, 167, 24, 182
-0.999684, 195, 199, 210, 214
-0.999684, 483, 165, 498, 180
-0.999684, 373, 219, 388, 234
-0.999685, 391, 187, 406, 202
-0.999686, 323, 177, 338, 192
-0.999687, 215, 91, 230, 106
-0.999687, 41, 285, 56, 300
-0.999687, 267, 311, 282, 326
-0.999687, 95, 27, 110, 42
-0.999688, 329, 87, 344, 102
-0.999689, 69, 337, 84, 352
-0.999689, 477, 157, 492, 172
-0.999689, 1, 293, 16, 308
-0.999691, 111, 209, 126, 224
-0.999691, 55, 235, 70, 250
-0.999691, 235, 93, 250, 108
-0.999691, 121, 175, 136, 190
-0.999692, 445, 317, 460, 332
-0.999693, 129, 135, 144, 150
-0.999694, 207, 181, 222, 196
-0.999695, 85, 45, 100, 60
-0.999695, 113, 351, 128, 366
-0.999695, 77, 53, 92, 68
-0.999696, 485, 155, 500, 170
-0.999696, 389, 153, 404, 168
-0.999696, 71, 249, 86, 264
-0.999697, 303, 203, 318, 218
-0.999698, 433, 223, 448, 238
-0.999699, 441, 233, 456, 248
-0.999699, 261, 205, 276, 220
-0.999699, 387, 217, 402, 232
-0.9997, 15, 285, 30, 300
-0.9997, 225, 97, 240, 112
-0.999701, 347, 331, 362, 346
-0.999701, 445, 177, 460, 192
-0.999703, 135, 37, 150, 52
-0.999704, 45, 331, 60, 346
-0.999704, 283, 307, 298, 322
-0.999704, 317, 203, 332, 218
-0.999704, 291, 203, 306, 218
-0.999705, 21, 253, 36, 268
-0.999705, 341, 33, 372, 288
-0.999705, 101, 71, 116, 86
-0.999706, 271, 213, 286, 228
-0.999706, 377, 175, 392, 190
-0.999706, 437, 177, 452, 192
-0.999706, 385, 287, 400, 302
-0.999707, 265, 283, 280, 298
-0.999707, 447, 191, 462, 206
-0.999707, 401, 33, 432, 288
-0.999708, 59, 331, 74, 346
-0.999712, 129, 143, 144, 158
-0.999712, 209, 175, 224, 190
-0.999712, 369, 233, 384, 248
-0.999712, 397, 285, 412, 300
-0.999713, 291, 307, 306, 322
-0.999713, 325, 171, 340, 186
-0.999717, 443, 239, 458, 254
-0.999718, 255, 299, 270, 314
-0.999719, 89, 243, 104, 258
-0.999719, 97, 209, 112, 224
-0.999721, 75, 339, 90, 354
-0.999721, 255, 309, 270, 324
-0.999722, 121, 205, 136, 220
-0.999723, 219, 71, 234, 86
-0.999725, 65, 331, 80, 346
-0.999725, 239, 257, 254, 272
-0.999725, 139, 43, 154, 58
-0.999726, 363, 235, 378, 250
-0.999727, 379, 167, 394, 182
-0.999727, 443, 197, 458, 212
-0.999729, 259, 289, 274, 304
-0.999729, 389, 159, 404, 174
-0.999729, 127, 211, 142, 226
-0.999729, 439, 183, 454, 198
-0.99973, 313, 91, 328, 106
-0.999731, 379, 199, 394, 214
-0.999733, 39, 329, 54, 344
-0.999733, 259, 197, 274, 212
-0.999733, 277, 29, 292, 44
-0.999734, 343, 255, 358, 270
-0.999735, 381, 221, 396, 236
-0.999735, 117, 211, 132, 226
-0.99974, 385, 185, 400, 200
-0.99974, 215, 157, 230, 172
-0.999742, 373, 279, 388, 294
-0.999743, 21, 285, 36, 300
-0.999744, 273, 307, 288, 322
-0.999746, 439, 227, 454, 242
-0.999746, 443, 171, 458, 186
-0.999747, 247, 303, 262, 318
-0.999747, 311, 83, 326, 98
-0.999752, 109, 195, 124, 210
-0.999753, 375, 225, 390, 240
-0.999754, 27, 287, 42, 302
-0.999756, 103, 77, 118, 92
-0.999756, 109, 77, 124, 92
-0.999756, 329, 165, 344, 180
-0.999757, 35, 285, 50, 300
-0.99976, 105, 207, 120, 222
-0.999762, 391, 285, 406, 300
-0.999763, 369, 227, 384, 242
-0.999763, 65, 233, 80, 248
-0.999763, 263, 305, 278, 320
-0.99977, 103, 201, 118, 216
-0.999774, 113, 203, 128, 218
-0.999774, 323, 85, 338, 100
-0.99978, 367, 279, 382, 294
-0.999782, 381, 281, 396, 296
-0.999782, 429, 185, 444, 200
-0.999786, 157, 129, 188, 375
-0.9998, 375, 285, 390, 300
-1.00037, 145, 97, 176, 352
-1.00041, 429, 33, 460, 288
-1.00156, 161, 225, 224, 352
-1.00263, 401, 1, 464, 128
-1.00633, 137, 241, 200, 368
-1.01032, 113, 241, 176, 368
-1.0153, 409, 49, 472, 176
