1959
-0.406442, 1, 1, 500, 375
-0.464722, 1, 129, 500, 375
-0.491205, 1, 1, 500, 256
-0.498527, 161, 1, 416, 375
-0.502478, 1, 1, 256, 375
-0.668195, 193, 129, 448, 375
-0.675689, 1, 129, 256, 375
-0.676093, 257, 1, 500, 375
-0.690101, 193, 1, 448, 256
-0.71681, 1, 33, 256, 288
-0.752247, 97, 129, 352, 375
-0.75838, 97, 33, 352, 288
-0.863626, 193, 1, 320, 375
-0.869533, 17, 1, 144, 375
-0.872361, 209, 65, 336, 320
-0.876172, 17, 97, 144, 352
-0.882519, 1, 161, 500, 288
-0.884884, 289, 1, 416, 375
-0.88492, 289, 129, 416, 375
-0.887965, 241, 1, 368, 375
-0.891077, 113, 129, 240, 375
-0.892829, 353, 129, 480, 375
-0.894271, 33, 1, 160, 256
-0.895764, 1, 209, 500, 336
-0.896124, 65, 129, 192, 375
-0.902302, 97, 1, 224, 375
-0.903605, 289, 33, 416, 288
-0.906087, 369, 1, 496, 375
-0.907458, 145, 1, 272, 375
-0.908255, 161, 65, 288, 320
-0.909033, 1, 113, 500, 240
-0.911782, 1, 209, 256, 336
-0.912891, 193, 177, 448, 304
-0.913644, 1, 1, 500, 128
-0.914613, 129, 225, 384, 352
-0.919373, 1, 1, 256, 128
-0.919541, 225, 241, 480, 368
-0.922639, 1, 49, 500, 176
-0.925168, 1, 161, 256, 288
-0.925392, 97, 1, 224, 256
-0.931098, 225, 241, 352, 368
-0.932523, 65, 113, 320, 240
-0.934748, 321, 241, 448, 368
-0.935052, 1, 49, 256, 176
-0.936385, 289, 193, 416, 320
-0.936531, 113, 209, 240, 336
-0.937104, 369, 241, 432, 368
-0.938764, 49, 225, 176, 352
-0.938823, 177, 193, 304, 320
-0.940024, 33, 161, 160, 288
-0.941258, 1, 81, 64, 208
-0.942125, 97, 161, 352, 288
-0.942216, 369, 33, 496, 288
-0.94302, 281, 177, 344, 304
-0.943668, 89, 161, 152, 288
-0.943785, 377, 193, 440, 320
-0.944468, 9, 1, 72, 128
-0.944664, 329, 209, 392, 336
-0.945205, 65, 129, 128, 256
-0.945973, 1, 81, 128, 208
-0.946684, 25, 65, 88, 192
-0.947111, 41, 129, 104, 256
-0.947136, 225, 193, 352, 320
-0.947198, 257, 161, 320, 288
-0.947347, 57, 209, 120, 336
-0.947941, 1, 225, 128, 352
-0.948131, 161, 17, 416, 144
-0.94914, 225, 129, 480, 256
-0.949593, 257, 81, 500, 208
-0.950253, 161, 225, 224, 352
-0.950476, 289, 193, 352, 256
-0.950825, 297, 241, 360, 368
-0.95091, 225, 65, 352, 192
-0.950978, 353, 193, 480, 320
-0.951557, 409, 305, 472, 368
-0.951604, 89, 225, 152, 352
-0.952011, 289, 145, 416, 272
-0.952274, 353, 193, 416, 320
-0.952324, 369, 201, 432, 264
-0.953349, 9, 209, 72, 336
-0.953777, 369, 113, 496, 240
-0.954668, 273, 241, 400, 368
-0.954777, 233, 177, 296, 304
-0.955285, 81, 161, 208, 288
-0.956596, 65, 81, 128, 208
-0.956827, 305, 177, 368, 304
-0.956936, 161, 81, 416, 208
-0.957597, 193, 209, 256, 336
-0.957898, 129, 193, 192, 320
-0.958124, 17, 161, 80, 288
-0.958203, 225, 1, 352, 128
-0.958439, 369, 241, 432, 304
-0.958487, 177, 49, 304, 176
-0.958832, 257, 169, 320, 232
-0.959095, 33, 1, 160, 128
-0.959154, 177, 241, 304, 368
-0.959554, 241, 241, 304, 368
-0.959638, 273, 241, 336, 368
-0.959678, 361, 145, 424, 272
-0.959862, 137, 241, 200, 368
-0.960134, 25, 81, 88, 144
-0.960554, 193, 305, 256, 368
-0.960842, 241, 49, 304, 176
-0.960947, 217, 49, 280, 176
-0.961052, 401, 225, 464, 288
-0.96111, 33, 209, 96, 336
-0.961427, 401, 209, 464, 336
-0.961569, 233, 65, 296, 128
-0.961637, 105, 225, 168, 288
-0.961663, 33, 1, 96, 128
-0.96202, 281, 257, 344, 320
-0.962146, 329, 217, 392, 280
-0.962316, 369, 265, 432, 328
-0.962331, 97, 185, 160, 248
-0.962597, 257, 33, 500, 160
-0.96272, 385, 129, 448, 256
-0.962724, 433, 225, 496, 352
-0.96274, 73, 145, 136, 208
-0.962855, 177, 1, 304, 128
-0.962999, 321, 273, 384, 336
-0.963078, 289, 49, 416, 176
-0.963564, 265, 81, 328, 208
-0.963658, 257, 201, 320, 264
-0.963883, 241, 145, 368, 272
-0.964007, 329, 161, 392, 288
-0.964075, 49, 113, 176, 240
-0.964293, 193, 145, 320, 272
-0.964434, 353, 313, 416, 375
-0.964722, 185, 265, 248, 328
-0.964919, 265, 1, 328, 128
-0.965703, 225, 113, 288, 240
-0.965842, 265, 81, 328, 144
-0.965912, 185, 217, 248, 280
-0.966011, 9, 1, 72, 64
-0.966027, 281, 129, 344, 256
-0.966156, 409, 129, 472, 256
-0.966215, 321, 305, 384, 368
-0.966348, 129, 217, 192, 280
-0.966464, 217, 225, 280, 352
-0.966883, 369, 241, 496, 368
-0.967091, 409, 81, 472, 208
-0.967152, 385, 81, 448, 208
-0.967269, 41, 129, 104, 192
-0.967324, 289, 1, 416, 128
-0.967877, 281, 169, 344, 232
-0.967968, 433, 281, 496, 344
-0.968203, 345, 241, 408, 304
-0.968311, 225, 185, 288, 248
-0.968325, 129, 145, 256, 272
-0.96848, 369, 65, 496, 192
-0.968728, 369, 177, 432, 240
-0.968728, 153, 257, 216, 320
-0.969244, 169, 177, 232, 304
-0.96934, 313, 177, 376, 240
-0.969854, 225, 281, 352, 344
-0.970054, 65, 33, 128, 160
-0.970364, 89, 113, 152, 240
-0.970504, 113, 241, 176, 368
-0.970624, 281, 281, 344, 344
-0.970756, 1, 89, 64, 152
-0.970785, 225, 273, 288, 336
-0.970912, 193, 161, 256, 288
-0.970985, 305, 249, 368, 312
-0.971017, 9, 225, 72, 288
-0.971147, 305, 97, 432, 224
-0.971181, 97, 257, 160, 320
-0.97122, 113, 281, 176, 344
-0.971288, 57, 233, 120, 296
-0.971513, 305, 249, 432, 312
-0.971557, 121, 249, 184, 312
-0.971648, 353, 313, 480, 375
-0.971691, 177, 97, 304, 224
-0.971727, 25, 57, 88, 120
-0.971757, 385, 313, 448, 375
-0.971934, 409, 97, 472, 160
-0.971978, 249, 241, 312, 304
-0.972036, 177, 1, 240, 128
-0.972662, 45, 1, 76, 128
-0.972841, 33, 297, 96, 360
-0.973063, 153, 233, 216, 296
-0.973091, 161, 313, 224, 375
-0.973116, 305, 297, 432, 360
-0.973245, 305, 129, 368, 256
-0.973495, 281, 217, 344, 280
-0.973552, 57, 57, 120, 120
-0.973564, 193, 49, 256, 176
-0.973575, 409, 281, 472, 344
-0.973603, 369, 289, 432, 352
-0.973838, 417, 249, 480, 312
-0.97394, 313, 185, 344, 248
-0.974084, 297, 193, 328, 256
-0.974135, 17, 1, 80, 256
-0.974214, 385, 129, 448, 375
-0.974384, 265, 1, 328, 256
-0.974395, 177, 233, 208, 296
-0.974417, 161, 225, 288, 288
-0.974471, 385, 233, 416, 296
-0.974581, 273, 201, 400, 264
-0.9746, 57, 305, 120, 368
-0.974684, 353, 225, 480, 288
-0.974703, 49, 49, 176, 176
-0.974773, 385, 121, 448, 184
-0.974846, 393, 249, 456, 312
-0.974867, 393, 201, 456, 264
-0.974967, 273, 177, 400, 240
-0.975001, 17, 25, 80, 88
-0.975006, 225, 249, 352, 312
-0.975054, 81, 209, 144, 272
-0.975065, 225, 201, 352, 264
-0.975307, 177, 313, 304, 375
-0.975493, 113, 249, 240, 312
-0.975519, 53, 81, 84, 208
-0.975558, 33, 273, 96, 336
-0.975619, 57, 169, 120, 232
-0.975711, 305, 33, 368, 160
-0.97572, 345, 193, 408, 256
-0.975729, 201, 97, 264, 160
-0.975802, 73, 273, 136, 336
-0.975837, 97, 97, 224, 224
-0.975873, 161, 289, 224, 352
-0.97589, 113, 1, 240, 128
-0.975983, 385, 193, 416, 320
-0.976119, 281, 129, 344, 375
-0.976297, 265, 177, 296, 304
-0.976313, 129, 273, 256, 336
-0.976347, 225, 65, 352, 128
-0.976358, 113, 225, 240, 288
-0.976441, 433, 97, 496, 224
-0.976449, 257, 313, 384, 375
-0.976457, 133, 193, 164, 320
-0.976529, 433, 121, 496, 184
-0.976605, 93, 129, 124, 256
-0.976686, 217, 1, 280, 64
-0.976802, 121, 225, 152, 352
-0.976829, 425, 289, 456, 352
-0.976863, 81, 129, 144, 375
-0.976868, 241, 1, 304, 128
-0.976887, 265, 41, 328, 104
-0.977024, 113, 177, 144, 304
-0.977112, 353, 265, 480, 328
-0.977136, 129, 145, 192, 272
-0.977159, 201, 97, 264, 224
-0.977162, 297, 313, 360, 375
-0.977173, 277, 193, 308, 256
-0.977216, 309, 257, 340, 320
-0.977243, 17, 153, 80, 216
-0.977285, 97, 145, 128, 208
-0.977372, 17, 201, 80, 264
-0.977399, 337, 201, 464, 264
-0.97743, 433, 313, 496, 375
-0.977442, 185, 209, 216, 336
-0.977456, 33, 177, 160, 240
-0.977497, 81, 233, 144, 296
-0.977613, 133, 233, 164, 296
-0.977725, 57, 209, 120, 272
-0.977805, 381, 241, 412, 368
-0.978011, 61, 225, 92, 352
-0.978033, 345, 169, 408, 232
-0.978056, 33, 225, 160, 288
-0.978111, 41, 105, 104, 168
-0.978113, 61, 129, 92, 256
-0.978176, 209, 233, 272, 296
-0.978221, 437, 313, 468, 375
-0.978438, 225, 313, 288, 375
-0.978439, 49, 65, 80, 128
-0.978448, 17, 305, 144, 368
-0.978549, 113, 169, 144, 232
-0.97855, 25, 81, 56, 208
-0.978623, 409, 129, 472, 375
-0.97865, 185, 193, 248, 256
-0.978708, 373, 177, 404, 304
-0.978709, 305, 225, 432, 288
-0.978748, 17, 137, 144, 200
-0.978772, 385, 201, 416, 264
-0.978843, 57, 129, 120, 375
-0.9789, 353, 289, 480, 352
-0.978923, 81, 145, 112, 272
-0.978934, 217, 1, 280, 128
-0.978989, 33, 1, 64, 128
-0.978992, 65, 81, 96, 208
-0.979157, 309, 241, 340, 368
-0.979158, 97, 161, 160, 224
-0.979258, 225, 177, 352, 240
-0.979365, 209, 65, 272, 320
-0.979378, 17, 73, 144, 136
-0.979654, 17, 129, 80, 375
-0.979745, 265, 105, 328, 168
-0.979774, 41, 1, 72, 64
-0.979807, 233, 65, 296, 320
-0.979809, 65, 289, 192, 352
-0.979839, 1, 281, 64, 344
-0.979871, 345, 265, 408, 328
-0.979939, 361, 201, 392, 264
-0.979977, 397, 193, 428, 320
-0.98008, 177, 193, 304, 256
-0.980095, 413, 217, 444, 280
-0.980161, 345, 289, 408, 352
-0.980168, 209, 1, 336, 64
-0.980216, 289, 177, 320, 304
-0.980242, 257, 265, 320, 328
-0.980256, 213, 305, 244, 368
-0.980329, 121, 257, 152, 320
-0.980368, 41, 81, 72, 208
-0.980405, 93, 225, 124, 352
-0.980418, 305, 273, 432, 336
-0.980538, 217, 41, 280, 104
-0.980538, 233, 209, 296, 272
-0.980601, 413, 209, 444, 336
-0.980622, 213, 209, 244, 336
-0.980636, 49, 249, 176, 312
-0.980644, 137, 297, 200, 360
-0.980683, 185, 257, 216, 320
-0.980713, 425, 241, 456, 368
-0.980928, 289, 73, 352, 136
-0.980928, 177, 257, 304, 320
-0.98094, 369, 153, 432, 216
-0.981013, 49, 129, 80, 256
-0.981015, 297, 81, 360, 208
-0.981071, 197, 209, 228, 336
-0.98109, 137, 193, 200, 256
-0.981106, 193, 97, 320, 160
-0.981107, 57, 33, 120, 96
-0.981134, 285, 169, 316, 232
-0.981176, 313, 177, 344, 304
-0.981226, 225, 225, 352, 288
-0.981249, 137, 209, 168, 272
-0.981291, 89, 297, 152, 360
-0.981348, 177, 129, 240, 375
-0.981399, 41, 33, 104, 288
-0.981402, 265, 177, 296, 240
-0.981494, 81, 225, 112, 352
-0.9815, 397, 233, 428, 296
-0.981505, 249, 49, 280, 176
-0.98155, 381, 257, 412, 320
-0.981553, 329, 265, 360, 328
-0.981578, 41, 209, 72, 336
-0.98164, 33, 49, 160, 112
-0.981648, 105, 129, 168, 375
-0.981661, 421, 265, 452, 328
-0.981731, 177, 241, 240, 304
-0.981738, 201, 73, 264, 136
-0.981755, 277, 193, 308, 320
-0.981804, 397, 201, 428, 264
-0.981821, 401, 177, 464, 240
-0.981836, 257, 97, 320, 352
-0.981859, 33, 1, 96, 64
-0.981872, 393, 241, 424, 368
-0.981876, 277, 145, 308, 272
-0.981932, 161, 209, 224, 272
-0.982014, 101, 177, 132, 304
-0.982017, 421, 313, 452, 375
-0.982078, 9, 257, 72, 320
-0.982127, 265, 1, 328, 64
-0.98223, 229, 313, 260, 375
-0.982246, 81, 201, 208, 264
-0.982338, 33, 177, 96, 240
-0.982368, 169, 225, 200, 352
-0.982381, 113, 297, 240, 360
-0.982422, 1, 225, 32, 352
-0.982467, 225, 281, 256, 344
-0.982482, 305, 217, 368, 280
-0.982488, 193, 217, 224, 280
-0.982495, 57, 1, 120, 64
-0.982521, 365, 249, 396, 312
-0.982523, 197, 265, 228, 328
-0.98256, 337, 113, 400, 240
-0.982587, 157, 241, 188, 368
-0.98259, 369, 225, 400, 352
-0.982593, 265, 201, 296, 264
-0.982886, 369, 113, 496, 176
-0.983014, 1, 81, 32, 208
-0.98308, 193, 41, 256, 104
-0.983086, 433, 225, 464, 288
-0.983135, 385, 97, 448, 160
-0.983146, 313, 217, 344, 280
-0.983185, 129, 193, 256, 256
-0.983213, 373, 217, 404, 280
-0.983236, 109, 257, 140, 320
-0.983275, 241, 1, 304, 375
-0.983327, 61, 177, 92, 304
-0.983332, 353, 313, 384, 375
-0.983348, 325, 297, 356, 360
-0.983391, 33, 201, 160, 264
-0.983402, 1, 313, 64, 375
-0.983416, 425, 225, 488, 288
-0.983519, 409, 121, 472, 184
-0.983542, 177, 57, 304, 120
-0.983622, 1, 97, 32, 160
-0.983655, 337, 297, 368, 360
-0.983673, 313, 281, 344, 344
-0.983674, 425, 81, 456, 208
-0.983696, 285, 217, 316, 280
-0.983748, 21, 1, 52, 128
-0.983754, 45, 41, 76, 104
-0.983833, 121, 233, 152, 296
-0.983847, 189, 313, 220, 375
-0.983897, 329, 193, 360, 256
-0.983927, 49, 81, 112, 144
-0.98396, 5, 1, 36, 128
-0.983966, 409, 33, 472, 160
-0.983977, 297, 169, 328, 232
-0.984077, 445, 281, 476, 344
-0.984112, 309, 129, 340, 256
-0.984147, 409, 145, 472, 208
-0.984152, 33, 225, 96, 288
-0.98419, 97, 1, 160, 128
-0.984191, 297, 241, 328, 368
-0.984208, 433, 97, 496, 352
-0.984242, 17, 129, 80, 192
-0.984252, 1, 281, 128, 344
-0.984275, 237, 177, 268, 304
-0.98429, 209, 281, 240, 344
-0.984359, 397, 177, 428, 240
-0.984363, 157, 249, 188, 312
-0.984384, 9, 177, 72, 240
-0.984405, 33, 17, 160, 80
-0.984414, 321, 177, 448, 240
-0.984457, 361, 129, 424, 375
-0.984479, 281, 145, 344, 208
-0.984492, 225, 209, 256, 336
-0.984517, 237, 281, 268, 344
-0.984545, 177, 281, 304, 344
-0.984599, 389, 145, 420, 272
-0.984613, 437, 257, 468, 320
-0.984638, 65, 113, 128, 176
-0.984672, 393, 257, 424, 320
-0.984734, 1, 113, 128, 176
-0.984766, 13, 81, 44, 208
-0.984811, 365, 289, 396, 352
-0.984817, 377, 177, 408, 240
-0.984821, 53, 97, 84, 160
-0.984845, 17, 1, 80, 375
-0.98505, 325, 241, 356, 368
-0.98508, 409, 257, 440, 320
-0.985136, 241, 89, 304, 152
-0.985251, 105, 241, 136, 368
-0.985329, 365, 177, 396, 240
-0.985444, 249, 313, 312, 375
-0.985474, 65, 273, 96, 336
-0.985563, 361, 225, 392, 288
-0.985579, 113, 161, 240, 224
-0.985618, 357, 209, 388, 336
-0.985662, 177, 17, 240, 80
-0.985674, 17, 177, 48, 304
-0.985694, 401, 313, 432, 375
-0.985697, 249, 225, 280, 352
-0.985725, 257, 57, 288, 120
-0.985727, 241, 57, 272, 120
-0.985801, 349, 281, 380, 344
-0.985802, 197, 161, 228, 288
-0.985816, 225, 41, 352, 104
-0.985822, 337, 129, 400, 375
-0.985889, 305, 153, 432, 216
-0.985937, 433, 201, 496, 264
-0.985956, 313, 161, 344, 224
-0.985957, 297, 257, 328, 320
-0.986027, 289, 73, 416, 136
-0.98605, 21, 313, 52, 375
-0.986082, 433, 49, 496, 176
-0.986138, 177, 169, 304, 232
-0.986203, 365, 313, 396, 375
-0.986247, 33, 129, 64, 256
-0.986297, 229, 193, 260, 256
-0.986309, 369, 137, 496, 200
-0.986399, 433, 177, 496, 304
-0.986447, 305, 9, 368, 72
-0.986475, 125, 193, 156, 256
-0.98651, 93, 241, 124, 304
-0.986525, 53, 265, 84, 328
-0.986568, 41, 265, 72, 328
-0.98674, 69, 137, 100, 200
-0.986787, 413, 113, 444, 240
-0.986864, 221, 1, 252, 64
-0.986883, 437, 225, 468, 352
-0.986886, 413, 65, 444, 192
-0.986953, 289, 1, 352, 256
-0.986954, 241, 1, 304, 64
-0.986993, 41, 1, 104, 375
-0.986999, 137, 241, 168, 368
-0.987074, 305, 113, 432, 176
-0.98709, 449, 313, 480, 375
-0.987115, 13, 217, 44, 280
-0.987133, 109, 225, 140, 288
-0.987148, 1, 57, 64, 120
-0.987164, 305, 41, 368, 104
-0.987164, 113, 305, 176, 368
-0.987235, 453, 241, 484, 304
-0.987473, 301, 177, 332, 304
-0.987486, 253, 241, 284, 304
-0.987494, 297, 225, 328, 288
-0.98752, 53, 289, 84, 352
-0.987542, 409, 97, 440, 160
-0.987544, 249, 113, 280, 240
-0.987578, 73, 1, 136, 375
-0.987665, 185, 33, 248, 288
-0.987694, 129, 49, 256, 112
-0.987695, 313, 153, 376, 216
-0.98771, 253, 177, 284, 304
-0.987734, 113, 49, 240, 176
-0.987778, 25, 17, 56, 80
-0.987781, 225, 1, 256, 128
-0.987828, 13, 225, 44, 352
-0.987836, 217, 1, 280, 375
-0.987877, 433, 97, 496, 160
-0.987897, 261, 49, 292, 176
-0.987917, 349, 201, 380, 264
-0.987949, 385, 1, 448, 375
-0.987987, 377, 313, 408, 375
-0.987989, 241, 241, 272, 304
-0.988014, 305, 129, 368, 375
-0.988015, 5, 17, 36, 80
-0.988015, 33, 81, 64, 144
-0.988029, 277, 241, 308, 304
-0.988047, 49, 129, 80, 192
-0.988054, 69, 113, 100, 176
-0.98808, 329, 177, 360, 304
-0.988089, 177, 65, 240, 128
-0.988094, 293, 81, 324, 144
-0.988126, 333, 225, 364, 288
-0.988147, 1, 233, 32, 296
-0.988169, 301, 81, 332, 208
-0.988182, 369, 89, 496, 152
-0.988188, 9, 305, 40, 368
-0.988245, 85, 209, 116, 272
-0.988272, 289, 193, 352, 224
-0.988285, 105, 129, 136, 256
-0.988312, 369, 177, 496, 240
-0.988358, 65, 313, 192, 375
-0.98836, 85, 169, 116, 232
-0.988369, 225, 81, 256, 144
-0.988383, 141, 265, 172, 328
-0.988393, 421, 97, 452, 160
-0.988498, 65, 305, 96, 368
-0.988526, 385, 153, 416, 216
-0.988535, 85, 145, 116, 208
-0.98854, 241, 105, 368, 168
-0.988549, 57, 233, 88, 296
-0.988551, 21, 81, 52, 144
-0.988551, 177, 297, 208, 360
-0.988561, 121, 161, 184, 224
-0.988561, 425, 129, 456, 256
-0.988584, 49, 97, 176, 160
-0.988592, 85, 273, 116, 336
-0.988617, 253, 193, 284, 256
-0.988648, 65, 33, 128, 288
-0.988656, 285, 241, 316, 368
-0.988676, 161, 129, 224, 256
-0.98869, 105, 65, 168, 192
-0.988707, 73, 89, 136, 152
-0.988709, 273, 81, 304, 144
-0.988712, 337, 225, 368, 352
-0.988827, 401, 289, 432, 352
-0.988876, 201, 313, 232, 375
-0.988899, 45, 217, 76, 280
-0.988982, 29, 153, 60, 216
-0.989052, 165, 225, 196, 288
-0.989072, 217, 257, 248, 320
-0.989091, 257, 185, 320, 216
-0.989116, 265, 197, 328, 228
-0.98922, 89, 33, 152, 288
-0.989243, 225, 209, 480, 272
-0.989275, 261, 113, 292, 240
-0.989283, 353, 201, 416, 232
-0.989312, 369, 345, 432, 375
-0.989344, 289, 49, 416, 112
-0.98936, 217, 345, 280, 375
-0.989365, 465, 297, 496, 360
-0.98938, 313, 33, 344, 160
-0.98942, 409, 333, 472, 364
-0.989453, 281, 261, 344, 292
-0.989455, 401, 321, 464, 352
-0.989457, 209, 209, 272, 272
-0.989475, 401, 113, 432, 240
-0.989484, 165, 313, 196, 375
-0.989489, 313, 209, 376, 240
-0.989494, 293, 1, 324, 64
-0.989502, 413, 289, 444, 352
-0.989507, 245, 313, 276, 375
-0.989514, 289, 205, 352, 236
-0.989524, 185, 161, 216, 288
-0.989553, 425, 345, 488, 375
-0.989572, 361, 97, 424, 224
-0.98959, 385, 33, 448, 288
-0.989591, 25, 225, 56, 352
-0.9896, 257, 153, 384, 216
-0.989611, 273, 241, 304, 368
-0.989628, 373, 129, 404, 256
-0.989646, 161, 281, 416, 344
-0.989661, 193, 129, 320, 192
-0.989671, 137, 221, 200, 252
-0.989684, 1, 249, 128, 312
-0.989708, 369, 245, 432, 276
-0.989727, 97, 121, 224, 184
-0.989757, 29, 289, 60, 352
-0.989772, 25, 89, 88, 120
-0.989788, 33, 241, 64, 304
-0.989857, 97, 233, 160, 264
-0.989923, 193, 313, 256, 344
-0.989954, 69, 225, 100, 288
-0.989957, 281, 1, 344, 375
-0.989964, 281, 181, 344, 212
-0.989978, 265, 233, 296, 296
-0.990036, 121, 249, 184, 280
-0.990066, 201, 329, 264, 360
-0.990068, 237, 49, 268, 176
-0.990071, 233, 69, 296, 100
-0.990092, 401, 309, 464, 340
-0.990154, 65, 153, 192, 216
-0.990171, 361, 333, 424, 364
-0.990195, 145, 89, 272, 152
-0.990206, 77, 97, 108, 224
-0.990227, 273, 217, 336, 248
-0.990227, 361, 161, 392, 288
-0.990234, 21, 241, 52, 304
-0.990279, 361, 317, 424, 348
-0.990334, 449, 225, 480, 352
-0.990338, 193, 1, 256, 375
-0.990344, 177, 221, 240, 252
-0.990356, 313, 325, 376, 356
-0.990376, 321, 309, 384, 340
-0.990386, 377, 293, 440, 324
-0.990399, 257, 233, 500, 296
-0.990413, 197, 289, 228, 352
-0.990421, 377, 33, 440, 160
-0.990426, 337, 341, 400, 372
-0.990442, 145, 193, 176, 320
-0.990444, 377, 257, 440, 288
-0.990445, 201, 269, 264, 300
-0.990459, 5, 161, 36, 288
-0.990461, 305, 265, 368, 296
-0.990476, 353, 225, 416, 256
-0.990476, 121, 237, 184, 268
-0.99048, 33, 257, 288, 320
-0.990512, 233, 185, 296, 216
-0.99052, 145, 241, 208, 272
-0.990547, 233, 81, 296, 112
-0.990559, 345, 245, 408, 276
-0.990561, 417, 289, 480, 320
-0.990564, 249, 213, 312, 244
-0.990569, 113, 25, 240, 88
-0.990574, 129, 225, 384, 288
-0.990577, 97, 245, 160, 276
-0.990586, 385, 333, 448, 364
-0.9906, 97, 221, 160, 252
-0.990619, 281, 273, 344, 304
-0.990629, 321, 281, 384, 312
-0.990646, 401, 65, 432, 192
-0.990664, 49, 129, 112, 160
-0.990666, 369, 17, 496, 144
-0.990668, 257, 337, 320, 368
-0.990668, 369, 213, 432, 244
-0.990675, 257, 313, 500, 375
-0.99071, 1, 89, 64, 120
-0.990717, 345, 305, 408, 336
-0.990725, 393, 245, 456, 276
-0.990763, 409, 113, 472, 144
-0.990767, 1, 65, 256, 128
-0.990774, 257, 173, 320, 204
-0.990786, 225, 329, 288, 360
-0.990807, 153, 261, 216, 292
-0.990875, 241, 197, 304, 228
-0.990877, 33, 301, 96, 332
-0.990878, 353, 265, 416, 296
-0.990894, 57, 33, 88, 160
-0.990894, 393, 345, 456, 375
-0.990902, 369, 181, 432, 212
-0.990935, 313, 197, 376, 228
-0.990961, 89, 181, 152, 212
-0.990965, 321, 297, 384, 328
-0.990972, 289, 1, 416, 64
-0.990979, 241, 1, 304, 32
-0.99099, 377, 225, 440, 256
-0.991001, 217, 5, 280, 36
-0.991004, 433, 333, 496, 364
-0.991021, 225, 49, 256, 176
-0.991021, 401, 225, 464, 256
-0.991023, 265, 89, 328, 120
-0.991026, 9, 29, 72, 60
-0.991026, 217, 285, 280, 316
-0.991027, 97, 209, 160, 240
-0.991041, 57, 285, 120, 316
-0.991042, 1, 233, 64, 264
-0.991052, 161, 313, 416, 375
-0.991066, 257, 261, 320, 292
-0.991069, 177, 325, 240, 356
-0.991084, 329, 221, 392, 252
-0.991096, 265, 1, 328, 32
-0.991098, 249, 277, 312, 308
-0.991107, 57, 229, 120, 260
-0.991118, 321, 185, 384, 216
-0.991124, 425, 193, 456, 320
-0.991135, 129, 257, 384, 320
-0.991138, 377, 281, 440, 312
-0.991155, 173, 177, 204, 304
-0.991157, 57, 69, 120, 100
-0.991184, 9, 13, 72, 44
-0.991229, 377, 121, 440, 152
-0.991242, 389, 97, 420, 224
-0.991257, 237, 225, 268, 352
-0.991258, 17, 53, 80, 84
-0.991265, 393, 193, 456, 224
-0.991265, 49, 273, 112, 304
-0.99127, 177, 281, 240, 312
-0.991271, 385, 133, 448, 164
-0.991271, 329, 257, 392, 288
-0.991291, 153, 321, 216, 352
-0.991308, 177, 33, 304, 96
-0.991309, 257, 101, 320, 132
-0.991309, 433, 305, 496, 336
-0.991321, 25, 73, 88, 104
-0.991321, 193, 301, 256, 332
-0.991324, 105, 1, 168, 375
-0.991325, 193, 185, 448, 248
-0.991335, 41, 141, 104, 172
-0.991367, 129, 1, 256, 64
-0.99137, 281, 289, 344, 320
-0.991371, 105, 261, 168, 292
-0.991384, 241, 1, 272, 128
-0.991397, 233, 57, 296, 88
-0.991398, 129, 129, 192, 375
-0.991408, 97, 197, 160, 228
-0.991418, 57, 57, 120, 88
-0.991418, 225, 213, 288, 244
-0.991424, 417, 245, 480, 276
-0.991439, 209, 161, 240, 288
-0.99145, 65, 249, 128, 280
-0.991461, 377, 305, 440, 336
-0.991467, 257, 257, 500, 320
-0.991467, 329, 233, 392, 264
-0.991507, 417, 261, 480, 292
-0.991537, 377, 269, 440, 300
-0.991546, 417, 125, 480, 156
-0.991568, 425, 1, 488, 375
-0.991572, 233, 265, 296, 296
-0.991574, 305, 221, 368, 252
-0.991575, 129, 265, 192, 296
-0.991576, 437, 81, 468, 208
-0.991586, 193, 345, 256, 375
-0.991593, 241, 225, 304, 256
-0.991593, 57, 217, 120, 248
-0.991594, 33, 305, 288, 368
-0.9916, 289, 165, 352, 196
-0.991618, 409, 101, 472, 132
-0.991622, 201, 105, 264, 136
-0.991625, 137, 209, 200, 240
-0.99164, 65, 145, 128, 176
-0.991641, 417, 273, 480, 304
-0.991647, 73, 297, 136, 328
-0.991655, 201, 221, 264, 252
-0.991658, 65, 173, 128, 204
-0.991664, 345, 1, 408, 375
-0.99168, 81, 261, 144, 292
-0.991682, 289, 25, 416, 88
-0.991691, 177, 269, 240, 300
-0.9917, 433, 137, 496, 168
-0.991715, 273, 65, 304, 192
-0.991731, 97, 277, 160, 308
-0.991846, 1, 9, 256, 72
-0.992075, 261, 1, 292, 128
-0.992096, 321, 1, 384, 375
-0.992121, 313, 261, 344, 292
-0.992153, 93, 81, 124, 208
-0.992153, 21, 129, 52, 256
-0.992236, 73, 33, 104, 160
-0.992256, 421, 293, 452, 324
-0.992277, 205, 1, 236, 128
-0.99235, 145, 113, 272, 176
-0.992375, 125, 145, 156, 272
-0.992408, 381, 249, 412, 280
-0.992411, 361, 345, 392, 375
-0.992424, 445, 337, 476, 368
-0.992437, 297, 201, 328, 232
-0.992438, 397, 245, 428, 276
-0.992453, 277, 201, 308, 232
-0.992498, 249, 345, 280, 375
-0.992559, 289, 97, 320, 224
-0.992563, 173, 241, 204, 272
-0.992564, 321, 205, 352, 236
-0.992574, 289, 189, 320, 220
-0.992577, 365, 221, 396, 252
-0.992584, 277, 213, 308, 244
-0.992597, 425, 305, 456, 336
-0.992612, 65, 125, 96, 156
-0.992649, 233, 337, 264, 368
-0.992655, 337, 305, 368, 336
-0.992658, 309, 205, 340, 236
-0.992658, 113, 181, 144, 212
-0.99268, 305, 217, 336, 248
-0.992688, 317, 193, 348, 224
-0.992692, 425, 277, 456, 308
-0.992718, 397, 341, 428, 372
-0.992743, 193, 325, 224, 356
-0.99275, 381, 237, 412, 268
-0.992762, 133, 237, 164, 268
-0.992766, 361, 201, 392, 232
-0.992766, 181, 257, 212, 288
-0.992784, 53, 81, 84, 112
-0.992786, 317, 217, 348, 248
-0.992789, 33, 233, 288, 296
-0.99279, 185, 225, 216, 256
-0.992793, 173, 325, 204, 356
-0.992797, 349, 305, 380, 336
-0.992797, 289, 213, 320, 244
-0.992806, 117, 269, 148, 300
-0.992807, 273, 89, 304, 120
-0.992809, 25, 89, 56, 120
-0.99282, 381, 201, 412, 232
-0.992822, 129, 257, 160, 288
-0.99283, 345, 317, 376, 348
-0.992831, 277, 181, 308, 212
-0.992833, 233, 325, 264, 356
-0.992846, 413, 273, 444, 304
-0.992863, 213, 309, 244, 340
-0.992864, 397, 209, 428, 240
-0.992868, 225, 289, 256, 320
-0.992871, 113, 169, 144, 200
-0.992874, 133, 217, 164, 248
-0.992874, 1, 101, 32, 132
-0.992882, 353, 345, 480, 375
-0.992883, 385, 225, 416, 256
-0.992883, 309, 181, 340, 212
-0.992891, 53, 109, 84, 140
-0.992893, 293, 269, 324, 300
-0.992896, 297, 85, 328, 116
-0.992903, 221, 5, 252, 36
-0.992905, 373, 345, 404, 375
-0.992908, 261, 185, 292, 216
-0.992913, 381, 265, 412, 296
-0.992916, 437, 129, 468, 256
-0.992926, 421, 89, 452, 120
-0.992928, 249, 5, 280, 36
-0.992941, 221, 321, 252, 352
-0.992944, 357, 293, 388, 324
-0.992944, 389, 189, 420, 220
-0.992951, 113, 253, 144, 284
-0.992956, 429, 317, 460, 348
-0.992958, 337, 293, 368, 324
-0.992962, 41, 89, 72, 120
-0.992964, 45, 61, 76, 92
-0.992965, 441, 285, 472, 316
-0.992966, 221, 273, 252, 304
-0.992967, 249, 333, 280, 364
-0.992974, 457, 345, 488, 375
-0.992981, 133, 277, 164, 308
-0.992981, 261, 345, 292, 375
-0.992983, 205, 269, 236, 300
-0.992983, 325, 309, 356, 340
-0.992983, 257, 201, 288, 232
-0.992992, 265, 213, 296, 244
-0.992996, 393, 257, 424, 288
-0.993, 281, 165, 312, 196
-0.993002, 357, 329, 388, 360
-0.993008, 285, 89, 316, 120
-0.993011, 53, 121, 84, 152
-0.993016, 233, 269, 264, 300
-0.993017, 233, 1, 264, 32
-0.993019, 409, 285, 440, 316
-0.993024, 369, 301, 400, 332
-0.993026, 77, 129, 108, 160
-0.993031, 409, 313, 440, 344
-0.993032, 277, 5, 308, 36
-0.993032, 125, 197, 156, 228
-0.993038, 205, 297, 236, 328
-0.993039, 433, 229, 464, 260
-0.993041, 405, 261, 436, 292
-0.993046, 349, 345, 380, 375
-0.993047, 45, 49, 76, 80
-0.993048, 113, 241, 144, 272
-0.99305, 409, 161, 440, 288
-0.993056, 169, 229, 200, 260
-0.99306, 293, 5, 324, 36
-0.993063, 297, 177, 328, 208
-0.993066, 409, 333, 440, 364
-0.993068, 13, 233, 44, 264
-0.993069, 449, 325, 480, 356
-0.993072, 17, 13, 48, 44
-0.993078, 317, 273, 348, 304
-0.99308, 225, 309, 256, 340
-0.99308, 53, 93, 84, 124
-0.993082, 417, 225, 448, 256
-0.993083, 213, 345, 244, 375
-0.993088, 261, 269, 292, 300
-0.993091, 293, 225, 324, 256
-0.993095, 333, 201, 364, 232
-0.993097, 265, 1, 296, 32
-0.993099, 413, 249, 444, 280
-0.993101, 101, 153, 132, 184
-0.993101, 161, 261, 192, 292
-0.993101, 305, 277, 336, 308
-0.993105, 41, 13, 72, 44
-0.993107, 273, 225, 304, 256
-0.993112, 353, 217, 384, 248
-0.993113, 41, 33, 72, 64
-0.993122, 273, 261, 304, 292
-0.993124, 153, 249, 184, 280
-0.993126, 401, 185, 432, 216
-0.993127, 437, 241, 468, 272
-0.99313, 13, 89, 44, 120
-0.993132, 401, 297, 432, 328
-0.993133, 373, 189, 404, 220
-0.993133, 425, 345, 456, 375
-0.993191, 225, 161, 256, 288
-0.993269, 97, 81, 224, 144
-0.993295, 305, 201, 432, 232
-0.993311, 161, 1, 416, 64
-0.993354, 1, 193, 256, 256
-0.993378, 353, 333, 480, 364
-0.993386, 157, 177, 188, 304
-0.993405, 97, 193, 352, 256
-0.993533, 409, 33, 472, 288
-0.993549, 81, 57, 208, 120
-0.993617, 449, 81, 480, 208
-0.993694, 33, 145, 288, 208
-0.993808, 161, 1, 224, 375
-0.993821, 353, 321, 480, 352
-0.993824, 291, 185, 306, 248
-0.993857, 1, 297, 500, 360
-0.993859, 209, 81, 240, 208
-0.993868, 1, 281, 256, 344
-0.993932, 1, 273, 500, 336
-0.993948, 1, 217, 500, 280
-0.99404, 305, 317, 432, 348
-0.994051, 225, 281, 352, 312
-0.994117, 257, 197, 384, 228
-0.994129, 1, 41, 256, 104
-0.99415, 327, 193, 342, 256
-0.994164, 129, 1, 192, 375
-0.994236, 97, 49, 352, 112
-0.994267, 153, 129, 216, 375
-0.99435, 129, 273, 256, 304
-0.994367, 281, 17, 312, 144
-0.994393, 353, 241, 480, 272
-0.994411, 289, 265, 416, 296
-0.99442, 97, 169, 352, 232
-0.994423, 257, 281, 500, 344
-0.99451, 161, 325, 288, 356
-0.994516, 337, 225, 464, 256
-0.994534, 305, 301, 432, 332
-0.994582, 281, 201, 296, 264
-0.994584, 209, 209, 336, 240
-0.994584, 225, 269, 352, 300
-0.994594, 287, 209, 302, 272
-0.9946, 241, 129, 368, 192
-0.994618, 327, 265, 342, 328
-0.994627, 105, 81, 136, 208
-0.994665, 113, 253, 240, 284
-0.994722, 337, 65, 400, 192
-0.994724, 137, 225, 152, 288
-0.994727, 427, 273, 442, 336
-0.994742, 273, 333, 400, 364
-0.994752, 273, 217, 400, 248
-0.994754, 1, 169, 500, 232
-0.994788, 117, 97, 148, 224
-0.994852, 353, 297, 480, 328
-0.994874, 209, 185, 336, 216
-0.994888, 237, 97, 268, 224
-0.994934, 143, 209, 158, 272
-0.994958, 67, 105, 82, 168
-0.994962, 305, 277, 432, 308
-0.994976, 59, 65, 74, 128
-0.995023, 305, 249, 432, 280
-0.995027, 257, 161, 500, 224
-0.995029, 319, 177, 334, 240
-0.995035, 273, 229, 400, 260
-0.99504, 321, 213, 448, 244
-0.995058, 137, 193, 152, 256
-0.99506, 177, 345, 304, 375
-0.995125, 341, 177, 372, 304
-0.99513, 443, 313, 458, 375
-0.995133, 129, 1, 192, 128
-0.995134, 299, 193, 314, 256
-0.99514, 313, 1, 376, 256
-0.995162, 1, 241, 500, 304
-0.995182, 233, 281, 248, 344
-0.995194, 81, 221, 208, 252
-0.9952, 65, 293, 192, 324
-0.995205, 319, 257, 334, 320
-0.995228, 225, 69, 352, 100
-0.995235, 261, 241, 292, 368
-0.995255, 145, 309, 272, 340
-0.995256, 209, 5, 336, 36
-0.995286, 41, 1, 72, 256
-0.995309, 465, 241, 496, 368
-0.995312, 399, 233, 414, 296
-0.995328, 193, 137, 448, 200
-0.99533, 185, 241, 200, 304
-0.99535, 161, 25, 416, 88
-0.995356, 129, 289, 256, 320
-0.99538, 1, 89, 128, 120
-0.995405, 129, 225, 256, 256
-0.995409, 333, 129, 364, 256
-0.995411, 17, 145, 144, 176
-0.995412, 1, 57, 500, 120
-0.995426, 309, 185, 324, 248
-0.995427, 353, 253, 480, 284
-0.995437, 305, 189, 432, 220
-0.995451, 241, 257, 368, 288
-0.995464, 67, 81, 82, 144
-0.995471, 29, 177, 60, 304
-0.995473, 257, 105, 500, 168
-0.995485, 33, 105, 288, 168
-0.995485, 387, 225, 402, 288
-0.995499, 193, 81, 320, 112
-0.995505, 109, 145, 124, 208
-0.995508, 353, 309, 480, 340
-0.995517, 197, 217, 212, 280
-0.995518, 1, 193, 500, 256
-0.995535, 389, 201, 404, 264
-0.995544, 161, 237, 288, 268
-0.995545, 301, 17, 332, 144
-0.995555, 177, 225, 304, 256
-0.995586, 233, 305, 248, 368
-0.99562, 321, 201, 336, 264
-0.995627, 283, 169, 298, 232
-0.995642, 361, 313, 376, 375
-0.995657, 227, 281, 242, 344
-0.99566, 333, 193, 348, 256
-0.995676, 81, 1, 208, 64
-0.995685, 435, 289, 450, 352
-0.995686, 299, 169, 314, 232
-0.995688, 81, 237, 208, 268
-0.995691, 203, 313, 218, 375
-0.995694, 209, 17, 336, 48
-0.995696, 33, 305, 48, 368
-0.995696, 191, 217, 206, 280
-0.995739, 377, 201, 392, 264
-0.99576, 227, 305, 242, 368
-0.995769, 127, 249, 142, 312
-0.99577, 327, 297, 342, 360
-0.99577, 417, 313, 432, 375
-0.995771, 193, 101, 320, 132
-0.995811, 353, 285, 480, 316
-0.995861, 131, 177, 146, 240
-0.995869, 225, 317, 352, 348
-0.995874, 345, 33, 408, 288
-0.99588, 3, 97, 18, 160
-0.995887, 49, 273, 176, 304
-0.995898, 199, 257, 214, 320
-0.995912, 135, 249, 150, 312
-0.995928, 1, 169, 256, 232
-0.995935, 33, 61, 160, 92
-0.995939, 53, 9, 68, 72
-0.99595, 257, 345, 384, 375
-0.995956, 1, 177, 128, 208
-0.99596, 161, 89, 416, 152
-0.995961, 59, 41, 74, 104
-0.99597, 177, 265, 304, 296
-0.995972, 275, 201, 290, 264
-0.995975, 65, 305, 192, 336
-0.995983, 273, 177, 288, 240
-0.995983, 121, 1, 152, 128
-0.995983, 353, 201, 480, 232
-0.996001, 361, 201, 376, 264
-0.996018, 17, 301, 144, 332
-0.996043, 451, 313, 466, 375
-0.996049, 321, 113, 352, 240
-0.996049, 445, 177, 476, 304
-0.996053, 325, 241, 340, 304
-0.996081, 209, 197, 336, 228
-0.996092, 1, 133, 128, 164
-0.996097, 1, 229, 128, 260
-0.996099, 405, 233, 420, 296
-0.996111, 313, 257, 328, 320
-0.996119, 465, 193, 496, 320
-0.996124, 221, 265, 236, 328
-0.996125, 377, 257, 392, 320
-0.996133, 161, 1, 224, 256
-0.996136, 17, 77, 144, 108
-0.996137, 385, 161, 400, 224
-0.996148, 239, 281, 254, 344
-0.996152, 1, 137, 500, 200
-0.996156, 49, 257, 176, 288
-0.996162, 61, 97, 76, 160
-0.996165, 329, 217, 344, 280
-0.996165, 417, 273, 432, 336
-0.996176, 225, 221, 352, 252
-0.996189, 351, 313, 366, 375
-0.996193, 193, 253, 320, 284
-0.996193, 383, 265, 398, 328
-0.9962, 337, 265, 464, 296
-0.996202, 425, 33, 456, 160
-0.996217, 325, 169, 340, 232
-0.996235, 409, 209, 424, 272
-0.996241, 33, 217, 160, 248
-0.996242, 179, 233, 194, 296
-0.996246, 367, 313, 382, 375
-0.996249, 351, 289, 366, 352
-0.996265, 369, 65, 496, 128
-0.996268, 293, 209, 308, 272
-0.996269, 305, 289, 432, 320
-0.996272, 121, 169, 136, 232
-0.996284, 73, 113, 88, 176
-0.9963, 225, 293, 352, 324
-0.996312, 33, 45, 160, 76
-0.996323, 315, 201, 330, 264
-0.99633, 329, 1, 392, 128
-0.996347, 367, 193, 382, 256
-0.996352, 377, 177, 392, 240
-0.996353, 205, 257, 220, 320
-0.996359, 33, 245, 160, 276
-0.99636, 419, 217, 434, 280
-0.996364, 239, 305, 254, 368
-0.996371, 425, 217, 440, 280
-0.996374, 449, 233, 464, 296
-0.996381, 433, 1, 496, 256
-0.996385, 143, 249, 158, 312
-0.996398, 399, 201, 414, 264
-0.9964, 413, 233, 428, 296
-0.996405, 9, 97, 24, 160
-0.996411, 427, 249, 442, 312
-0.99642, 47, 1, 62, 64
-0.996428, 113, 209, 240, 240
-0.996436, 321, 289, 336, 352
-0.996445, 115, 169, 130, 232
-0.996454, 1, 321, 128, 352
-0.996457, 225, 329, 352, 360
-0.996466, 369, 189, 496, 220
-0.996467, 113, 129, 144, 375
-0.99647, 305, 81, 320, 144
-0.996471, 407, 169, 422, 232
-0.996488, 333, 297, 348, 360
-0.99651, 389, 49, 420, 176
-0.996519, 89, 1, 120, 128
-0.996524, 191, 241, 206, 304
-0.996542, 15, 9, 30, 72
-0.996545, 137, 273, 152, 336
-0.996554, 79, 121, 94, 184
-0.996557, 225, 57, 352, 88
-0.996563, 393, 249, 408, 312
-0.996591, 307, 257, 322, 320
-0.996606, 455, 241, 470, 304
-0.996609, 245, 313, 260, 375
-0.996612, 1, 289, 128, 320
-0.996618, 257, 241, 272, 304
-0.996627, 177, 277, 304, 308
-0.996647, 89, 137, 104, 200
-0.996653, 211, 265, 226, 328
-0.996658, 465, 313, 480, 375
-0.996666, 247, 257, 262, 320
-0.996675, 227, 1, 242, 64
-0.99668, 197, 313, 212, 375
-0.996682, 225, 65, 480, 128
-0.996687, 343, 289, 358, 352
-0.996704, 441, 289, 456, 352
-0.996712, 409, 313, 424, 375
-0.996713, 89, 273, 104, 336
-0.996714, 443, 225, 458, 288
-0.996715, 177, 65, 304, 96
-0.996721, 161, 197, 288, 228
-0.996725, 437, 313, 452, 375
-0.996726, 289, 161, 304, 224
-0.99673, 307, 1, 322, 64
-0.996731, 105, 249, 120, 312
-0.996747, 237, 201, 252, 264
-0.996761, 305, 177, 432, 208
-0.996764, 33, 157, 160, 188
-0.996782, 325, 201, 340, 232
-0.996788, 99, 145, 114, 208
-0.996788, 59, 281, 74, 344
-0.996793, 1, 113, 500, 176
-0.996802, 219, 297, 234, 360
-0.996808, 433, 265, 448, 328
-0.996811, 435, 225, 450, 288
-0.996814, 251, 313, 266, 375
-0.996814, 25, 305, 40, 368
-0.996816, 49, 125, 176, 156
-0.996829, 415, 193, 430, 256
-0.99683, 53, 73, 68, 136
-0.996831, 369, 137, 496, 168
-0.996836, 149, 217, 164, 280
-0.996862, 257, 241, 384, 272
-0.996868, 185, 217, 200, 280
-0.996875, 423, 313, 438, 375
-0.996876, 417, 97, 432, 160
-0.996884, 29, 1, 60, 256
-0.996884, 369, 121, 496, 152
-0.996888, 65, 265, 80, 328
-0.996892, 273, 89, 400, 120
-0.996894, 49, 137, 64, 200
-0.996902, 331, 169, 346, 232
-0.996908, 33, 5, 160, 36
-0.996909, 369, 213, 496, 244
-0.996929, 113, 325, 240, 356
-0.996957, 305, 345, 432, 375
-0.996972, 393, 97, 424, 352
-0.996979, 1, 33, 500, 96
-0.996997, 257, 25, 500, 88
-0.997025, 33, 25, 160, 56
-0.997032, 257, 181, 384, 212
-0.997038, 61, 129, 92, 375
-0.997064, 225, 305, 352, 336
-0.997091, 101, 129, 132, 375
-0.997113, 33, 205, 160, 236
-0.997114, 33, 189, 160, 220
-0.997115, 197, 113, 228, 240
-0.997135, 161, 209, 288, 240
-0.997151, 285, 201, 300, 232
-0.997151, 449, 129, 480, 256
-0.997186, 161, 113, 416, 176
-0.997202, 5, 1, 36, 256
-0.997228, 1, 333, 128, 364
-0.997235, 469, 97, 500, 224
-0.997251, 65, 317, 192, 348
-0.997252, 225, 113, 352, 144
-0.997252, 75, 121, 90, 152
-0.997254, 113, 177, 240, 208
-0.997264, 291, 209, 306, 240
-0.9973, 169, 49, 232, 176
-0.99733, 369, 109, 496, 140
-0.997333, 17, 1, 48, 256
-0.997334, 325, 261, 340, 292
-0.997374, 129, 5, 256, 36
-0.997383, 239, 325, 254, 356
-0.99739, 1, 1, 500, 64
-0.997412, 459, 341, 474, 372
-0.99742, 253, 65, 284, 320
-0.997435, 281, 1, 312, 256
-0.997437, 53, 33, 84, 288
-0.997442, 299, 193, 314, 224
-0.997457, 299, 181, 314, 212
-0.997468, 141, 217, 156, 248
-0.99748, 375, 345, 390, 375
-0.997496, 257, 1, 384, 32
-0.997506, 291, 193, 306, 224
-0.997518, 365, 345, 380, 375
-0.997522, 285, 97, 316, 352
-0.997528, 17, 105, 144, 136
-0.997532, 427, 293, 442, 324
-0.997548, 289, 105, 416, 136
-0.997553, 309, 205, 324, 236
-0.997557, 177, 113, 304, 144
-0.99757, 409, 97, 440, 352
-0.997573, 129, 257, 144, 288
-0.997578, 369, 41, 496, 104
-0.997585, 269, 1, 300, 256
-0.997585, 245, 333, 260, 364
-0.997597, 279, 205, 294, 236
-0.997605, 209, 45, 336, 76
-0.997624, 253, 345, 268, 375
-0.997627, 309, 129, 340, 375
-0.997639, 241, 101, 368, 132
-0.99764, 315, 261, 330, 292
-0.997648, 113, 193, 240, 224
-0.997661, 381, 97, 412, 352
-0.997669, 1, 277, 128, 308
-0.997671, 427, 277, 442, 308
-0.997673, 331, 201, 346, 232
-0.997678, 89, 129, 120, 375
-0.997679, 137, 233, 152, 264
-0.997685, 305, 185, 320, 216
-0.997689, 321, 217, 336, 248
-0.99769, 145, 53, 272, 84
-0.997691, 257, 1, 500, 64
-0.997696, 331, 213, 346, 244
-0.997701, 45, 129, 76, 375
-0.997705, 257, 169, 384, 200
-0.997707, 433, 297, 448, 328
-0.997711, 189, 129, 220, 375
-0.997724, 137, 201, 152, 232
-0.997725, 305, 141, 432, 172
-0.99774, 299, 209, 314, 240
-0.997742, 443, 313, 458, 344
-0.997751, 425, 129, 456, 375
-0.997751, 297, 97, 328, 352
-0.997753, 129, 345, 256, 375
-0.997754, 325, 189, 340, 220
-0.997759, 67, 109, 82, 140
-0.997765, 401, 241, 416, 272
-0.997765, 289, 69, 416, 100
-0.997776, 65, 81, 80, 112
-0.997779, 409, 337, 424, 368
-0.99778, 313, 193, 328, 224
-0.997785, 267, 345, 282, 375
-0.997793, 3, 101, 18, 132
-0.997796, 81, 125, 96, 156
-0.997815, 131, 269, 146, 300
-0.997831, 199, 261, 214, 292
-0.997833, 361, 325, 376, 356
-0.997847, 177, 289, 304, 320
-0.997848, 297, 1, 328, 256
-0.99785, 65, 77, 192, 108
-0.99785, 121, 169, 136, 200
-0.997852, 185, 225, 200, 256
-0.997856, 321, 117, 448, 148
-0.99787, 113, 33, 176, 288
-0.997877, 285, 89, 300, 120
-0.997887, 237, 65, 268, 320
-0.997894, 319, 205, 334, 236
-0.997911, 229, 5, 244, 36
-0.997911, 177, 173, 304, 204
-0.997913, 243, 1, 258, 32
-0.997914, 449, 333, 464, 364
-0.997919, 289, 57, 416, 88
-0.997924, 437, 97, 468, 352
-0.997935, 439, 345, 454, 375
-0.997941, 61, 69, 76, 100
-0.997946, 209, 241, 336, 272
-0.997948, 465, 345, 480, 375
-0.997954, 293, 177, 308, 208
-0.997959, 65, 125, 80, 156
-0.997961, 233, 321, 248, 352
-0.997967, 319, 193, 334, 224
-0.997975, 225, 305, 240, 336
-0.997986, 279, 1, 294, 32
-0.997992, 187, 237, 202, 268
-0.998, 1, 257, 128, 288
-0.998003, 363, 205, 378, 236
-0.998004, 351, 317, 366, 348
-0.998008, 335, 305, 350, 336
-0.998008, 387, 201, 402, 232
-0.998013, 341, 309, 356, 340
-0.99802, 347, 305, 362, 336
-0.998031, 371, 333, 386, 364
-0.998033, 409, 245, 424, 276
-0.998039, 309, 265, 324, 296
-0.998042, 217, 1, 248, 256
-0.998052, 381, 197, 396, 228
-0.99806, 235, 5, 250, 36
-0.998061, 59, 89, 74, 120
-0.998062, 135, 281, 150, 312
-0.998063, 113, 145, 240, 176
-0.998065, 49, 169, 176, 200
-0.998067, 209, 29, 336, 60
-0.998069, 145, 89, 272, 120
-0.998071, 315, 217, 330, 248
-0.998075, 317, 277, 332, 308
-0.998075, 361, 305, 376, 336
-0.998076, 205, 329, 220, 360
-0.998081, 135, 257, 150, 288
-0.998082, 231, 289, 246, 320
-0.998091, 57, 49, 72, 80
-0.998094, 295, 89, 310, 120
-0.998097, 147, 213, 162, 244
-0.998098, 35, 337, 50, 368
-0.998099, 231, 309, 246, 340
-0.998104, 187, 325, 202, 356
-0.998109, 279, 217, 294, 248
-0.998124, 383, 253, 398, 284
-0.998125, 401, 197, 416, 228
-0.998125, 407, 205, 422, 236
-0.998126, 113, 69, 240, 100
-0.998128, 381, 341, 396, 372
-0.99813, 161, 185, 288, 216
-0.998131, 251, 333, 266, 364
-0.998135, 285, 213, 300, 244
-0.998138, 415, 249, 430, 280
-0.998138, 65, 113, 192, 144
-0.998142, 273, 205, 288, 236
-0.998147, 73, 133, 88, 164
-0.998153, 1, 121, 128, 152
-0.998153, 369, 97, 496, 128
-0.998154, 375, 189, 390, 220
-0.998159, 259, 345, 274, 375
-0.998162, 123, 261, 138, 292
-0.998165, 351, 289, 366, 320
-0.998167, 239, 337, 254, 368
-0.99817, 371, 201, 386, 232
-0.998176, 73, 129, 104, 375
-0.998177, 311, 181, 326, 212
-0.99818, 251, 5, 266, 36
-0.998183, 305, 129, 432, 160
-0.998183, 319, 181, 334, 212
-0.998185, 175, 325, 190, 356
-0.998185, 225, 289, 240, 320
-0.998193, 265, 97, 296, 352
-0.998197, 33, 325, 48, 356
-0.998199, 289, 157, 416, 188
-0.998202, 207, 269, 222, 300
-0.998202, 133, 245, 148, 276
-0.998203, 369, 1, 496, 64
-0.998228, 259, 5, 274, 36
-0.99823, 307, 5, 322, 36
-0.998233, 433, 277, 448, 308
-0.998235, 193, 257, 208, 288
-0.998236, 327, 277, 342, 308
-0.998237, 281, 177, 296, 208
-0.998238, 407, 325, 422, 356
-0.998239, 357, 217, 372, 248
-0.998239, 441, 233, 456, 264
-0.99824, 53, 89, 68, 120
-0.998246, 273, 5, 288, 36
-0.998255, 355, 301, 370, 332
-0.998255, 197, 321, 212, 352
-0.998263, 369, 129, 400, 375
-0.998272, 285, 189, 300, 220
-0.998273, 219, 289, 234, 320
-0.998275, 399, 229, 414, 260
-0.998276, 33, 313, 48, 344
-0.998278, 213, 273, 228, 304
-0.998279, 381, 265, 396, 296
-0.99828, 417, 281, 432, 312
-0.998282, 333, 189, 348, 220
-0.998283, 279, 89, 294, 120
-0.998285, 21, 97, 52, 352
-0.998365, 281, 211, 344, 226
-0.998371, 125, 129, 156, 375
-0.998388, 129, 211, 160, 226
-0.998388, 45, 53, 76, 68
-0.998388, 345, 219, 376, 234
-0.998389, 397, 327, 428, 342
-0.99839, 393, 195, 424, 210
-0.99839, 289, 273, 320, 288
-0.998391, 237, 195, 268, 210
-0.998392, 373, 201, 404, 216
-0.998392, 413, 241, 444, 256
-0.998392, 125, 277, 156, 292
-0.998392, 441, 303, 472, 318
-0.998393, 373, 313, 404, 328
-0.998393, 453, 355, 484, 370
-0.998393, 405, 299, 436, 314
-0.998394, 133, 229, 164, 244
-0.998394, 249, 341, 280, 356
-0.998395, 381, 263, 412, 278
-0.998395, 397, 251, 428, 266
-0.998396, 69, 133, 100, 148
-0.998396, 221, 291, 252, 306
-0.998397, 309, 181, 340, 196
-0.998397, 169, 327, 200, 342
-0.998398, 149, 251, 180, 266
-0.998398, 41, 61, 72, 76
-0.998399, 265, 277, 296, 292
-0.9984, 425, 349, 456, 364
-0.998401, 113, 255, 144, 270
-0.998401, 369, 305, 400, 320
-0.998401, 281, 201, 344, 216
-0.998402, 397, 211, 428, 226
-0.998403, 1, 185, 32, 200
-0.998403, 313, 269, 344, 284
-0.998404, 377, 357, 408, 372
-0.998405, 293, 9, 324, 24
-0.998405, 257, 9, 288, 24
-0.998405, 185, 227, 216, 242
-0.998405, 113, 175, 144, 190
-0.998405, 209, 327, 240, 342
-0.998406, 233, 359, 264, 374
-0.998407, 341, 299, 372, 314
-0.998407, 209, 129, 240, 375
-0.998408, 277, 7, 308, 22
-0.998409, 221, 97, 252, 112
-0.998409, 425, 353, 488, 368
-0.99841, 133, 249, 164, 264
-0.998411, 365, 351, 396, 366
-0.998411, 433, 287, 464, 302
-0.998411, 441, 337, 472, 352
-0.998412, 241, 7, 272, 22
-0.998412, 29, 91, 60, 106
-0.998412, 265, 215, 296, 230
-0.998414, 265, 203, 296, 218
-0.998414, 245, 347, 276, 362
-0.998414, 181, 261, 212, 276
-0.998416, 405, 319, 436, 334
-0.998418, 397, 343, 428, 358
-0.998418, 229, 325, 260, 340
-0.998419, 269, 185, 300, 200
-0.998419, 133, 255, 164, 270
-0.99842, 233, 331, 264, 346
-0.998422, 329, 203, 360, 218
-0.998423, 273, 97, 304, 112
-0.998425, 361, 335, 392, 350
-0.998426, 345, 305, 376, 320
-0.998427, 421, 355, 452, 370
-0.998427, 329, 211, 360, 226
-0.998428, 397, 257, 428, 272
-0.998428, 137, 219, 168, 234
-0.998429, 365, 223, 396, 238
-0.998429, 333, 129, 364, 375
-0.99843, 433, 243, 464, 258
-0.99843, 421, 291, 452, 306
-0.998432, 373, 345, 404, 360
-0.998432, 281, 89, 312, 104
-0.998432, 289, 209, 320, 224
-0.998433, 301, 193, 332, 208
-0.998433, 177, 253, 208, 268
-0.998436, 217, 319, 248, 334
-0.998438, 437, 351, 468, 366
-0.998439, 421, 285, 452, 300
-0.99844, 113, 261, 144, 276
-0.998441, 421, 313, 452, 328
-0.998443, 333, 307, 364, 322
-0.998444, 181, 327, 212, 342
-0.998445, 349, 325, 380, 340
-0.998446, 385, 235, 416, 250
-0.998446, 133, 235, 164, 250
-0.998447, 337, 317, 368, 332
-0.998448, 289, 185, 320, 200
-0.998449, 113, 187, 144, 202
-0.998452, 265, 361, 296, 375
-0.998452, 305, 227, 336, 242
-0.998453, 393, 263, 424, 278
-0.998453, 173, 337, 204, 352
-0.998454, 277, 179, 308, 194
-0.998455, 117, 271, 148, 286
-0.998456, 285, 195, 316, 210
-0.998458, 389, 205, 420, 220
-0.998459, 349, 311, 380, 326
-0.998464, 113, 33, 144, 288
-0.998464, 65, 125, 96, 140
-0.998465, 305, 209, 368, 224
-0.998467, 125, 261, 156, 276
-0.998467, 113, 181, 144, 196
-0.998467, 253, 359, 284, 374
-0.998468, 369, 247, 432, 262
-0.998469, 321, 221, 352, 236
-0.998472, 397, 349, 428, 364
-0.998476, 233, 341, 264, 356
-0.998476, 33, 129, 64, 375
-0.998477, 53, 85, 84, 100
-0.998478, 225, 361, 288, 375
-0.99848, 281, 193, 344, 208
-0.99848, 1, 103, 32, 118
-0.998481, 297, 201, 328, 216
-0.998481, 449, 349, 480, 364
-0.998482, 201, 361, 232, 375
-0.998482, 309, 215, 340, 230
-0.998485, 309, 1, 340, 256
-0.998486, 369, 257, 432, 272
-0.998486, 201, 327, 264, 342
-0.998486, 377, 351, 440, 366
-0.998487, 349, 359, 380, 374
-0.998487, 337, 359, 400, 374
-0.998487, 425, 359, 488, 374
-0.99849, 425, 307, 456, 322
-0.99849, 361, 341, 424, 356
-0.998493, 381, 251, 412, 266
-0.998496, 401, 319, 464, 334
-0.998496, 17, 91, 80, 106
-0.998502, 369, 265, 432, 280
-0.998504, 377, 309, 440, 324
-0.998505, 305, 201, 368, 216
-0.998507, 401, 331, 464, 346
-0.998507, 397, 245, 428, 260
-0.998508, 257, 209, 320, 224
-0.998509, 297, 215, 328, 230
-0.99851, 193, 331, 224, 346
-0.99851, 313, 195, 344, 210
-0.998513, 417, 347, 480, 362
-0.998513, 249, 353, 280, 368
-0.998513, 297, 265, 360, 280
-0.998513, 401, 337, 464, 352
-0.998514, 97, 245, 160, 260
-0.998515, 445, 343, 476, 358
-0.998517, 193, 361, 256, 375
-0.998518, 385, 241, 416, 256
-0.998518, 353, 205, 416, 220
-0.998521, 285, 201, 316, 216
-0.998521, 293, 225, 324, 240
-0.998522, 277, 219, 308, 234
-0.998524, 313, 217, 376, 232
-0.998524, 425, 297, 456, 312
-0.998524, 137, 221, 200, 236
-0.998524, 233, 69, 296, 84
-0.998528, 353, 241, 416, 256
-0.998531, 329, 305, 392, 320
-0.998531, 309, 221, 340, 236
-0.998534, 401, 325, 464, 340
-0.998534, 121, 253, 184, 268
-0.998536, 273, 89, 336, 104
-0.998538, 313, 327, 376, 342
-0.998538, 281, 223, 344, 238
-0.998542, 377, 225, 440, 240
-0.998543, 257, 185, 320, 200
-0.998545, 241, 279, 304, 294
-0.998546, 401, 313, 464, 328
-0.998547, 301, 207, 332, 222
-0.998548, 273, 217, 336, 232
-0.998551, 55, 1, 70, 128
-0.998551, 281, 275, 344, 290
-0.998551, 393, 247, 456, 262
-0.998552, 97, 235, 160, 250
-0.998552, 365, 357, 396, 372
-0.998552, 209, 347, 272, 362
-0.998557, 193, 321, 256, 336
-0.998561, 345, 313, 408, 328
-0.998561, 317, 207, 348, 222
-0.998562, 337, 221, 400, 236
-0.998565, 361, 357, 424, 372
-0.998566, 297, 229, 360, 244
-0.998566, 225, 355, 288, 370
-0.998566, 153, 327, 216, 342
-0.998568, 409, 129, 472, 144
-0.998569, 381, 257, 412, 272
-0.99857, 257, 203, 320, 218
-0.99857, 177, 225, 240, 240
-0.998571, 345, 259, 408, 274
-0.998572, 329, 241, 392, 256
-0.998572, 321, 295, 384, 310
-0.998574, 401, 355, 464, 370
-0.998575, 129, 227, 192, 242
-0.998577, 321, 311, 384, 326
-0.998577, 185, 333, 248, 348
-0.998577, 153, 245, 216, 260
-0.998578, 257, 227, 320, 242
-0.998578, 393, 257, 456, 272
-0.998578, 249, 217, 312, 232
-0.998578, 361, 333, 424, 348
-0.998582, 257, 197, 320, 212
-0.998583, 233, 83, 296, 98
-0.998583, 121, 243, 184, 258
-0.998584, 425, 287, 488, 302
-0.998585, 241, 335, 304, 350
-0.998585, 161, 333, 224, 348
-0.998586, 281, 187, 344, 202
-0.998587, 353, 319, 416, 334
-0.998587, 345, 247, 408, 262
-0.998587, 265, 7, 328, 22
-0.998588, 329, 235, 392, 250
-0.998588, 193, 315, 256, 330
-0.998588, 49, 1, 64, 128
-0.998589, 337, 227, 400, 242
-0.998589, 321, 289, 384, 304
-0.998589, 369, 215, 432, 230
-0.998589, 97, 251, 160, 266
-0.998591, 241, 7, 304, 22
-0.998591, 89, 189, 152, 204
-0.998592, 361, 327, 424, 342
-0.998592, 265, 1, 328, 16
-0.998593, 409, 123, 472, 138
-0.998593, 233, 199, 296, 214
-0.998594, 277, 209, 308, 224
-0.998595, 313, 263, 344, 278
-0.998595, 417, 305, 480, 320
-0.998596, 377, 303, 440, 318
-0.998596, 369, 199, 432, 214
-0.998596, 1, 241, 64, 256
-0.998597, 353, 235, 416, 250
-0.998598, 265, 267, 328, 282
-0.998599, 345, 253, 408, 268
-0.998599, 409, 293, 472, 308
-0.998599, 305, 223, 368, 238
-0.9986, 329, 265, 392, 280
-0.9986, 153, 261, 216, 276
-0.998601, 393, 345, 456, 360
-0.998602, 409, 299, 472, 314
-0.998602, 377, 295, 440, 310
-0.998602, 121, 237, 184, 252
-0.998603, 409, 241, 472, 256
-0.998604, 209, 341, 272, 356
-0.998605, 377, 241, 440, 256
-0.998606, 257, 105, 320, 120
-0.998606, 329, 319, 392, 334
-0.998606, 89, 199, 152, 214
-0.998607, 1, 101, 64, 116
-0.998608, 65, 303, 128, 318
-0.998608, 233, 75, 296, 90
-0.998608, 41, 127, 104, 142
-0.998608, 377, 271, 440, 286
-0.998609, 41, 141, 104, 156
-0.998609, 217, 271, 280, 286
-0.99861, 377, 315, 440, 330
-0.998612, 33, 307, 96, 322
-0.998612, 97, 223, 160, 238
-0.998613, 417, 251, 480, 266
-0.998614, 241, 343, 304, 358
-0.998615, 201, 277, 264, 292
-0.998615, 105, 259, 168, 274
-0.998616, 177, 327, 240, 342
-0.998616, 233, 89, 296, 104
-0.998617, 97, 213, 160, 228
-0.998618, 57, 73, 120, 88
-0.998619, 9, 33, 72, 48
-0.998619, 409, 115, 472, 130
-0.99862, 65, 33, 96, 288
-0.998627, 313, 201, 344, 216
-0.998678, 9, 97, 40, 352
-0.998703, 389, 193, 404, 320
-0.998743, 65, 81, 80, 208
-0.998748, 449, 97, 480, 352
-0.998789, 71, 81, 86, 208
-0.998808, 93, 33, 124, 288
-0.998838, 137, 193, 152, 320
-0.998878, 57, 81, 72, 208
-0.998913, 277, 193, 292, 320
-0.998943, 43, 1, 58, 128
-0.998951, 105, 129, 120, 256
-0.998954, 321, 129, 352, 375
-0.998967, 81, 129, 96, 256
-0.998971, 89, 129, 104, 256
-0.998972, 51, 81, 66, 208
-0.998987, 3, 81, 18, 208
-0.998993, 1, 81, 500, 144
-0.998994, 323, 225, 338, 352
-0.999011, 211, 209, 226, 336
-0.999013, 65, 129, 80, 256
-0.999014, 71, 129, 86, 256
-0.999019, 199, 209, 214, 336
-0.999022, 283, 145, 298, 272
-0.999026, 131, 225, 146, 352
-0.999026, 35, 1, 50, 128
-0.999047, 217, 209, 232, 336
-0.999055, 143, 193, 158, 320
-0.999055, 65, 209, 80, 336
-0.999058, 227, 209, 242, 336
-0.999059, 399, 193, 414, 320
-0.99906, 439, 209, 454, 336
-0.999064, 81, 209, 96, 336
-0.999067, 99, 129, 114, 256
-0.999068, 57, 209, 72, 336
-0.999071, 43, 81, 58, 208
-0.999075, 131, 177, 146, 304
-0.999075, 59, 161, 74, 288
-0.999077, 387, 145, 402, 272
-0.999078, 285, 193, 300, 320
-0.999081, 53, 161, 68, 288
-0.999088, 75, 209, 90, 336
-0.999094, 137, 129, 168, 375
-0.999099, 333, 161, 348, 288
-0.9991, 205, 33, 236, 288
-0.999101, 327, 177, 342, 304
-0.999105, 205, 209, 220, 336
-0.999108, 293, 193, 308, 320
-0.999109, 145, 137, 272, 200
-0.999119, 407, 177, 422, 304
-0.999122, 191, 241, 206, 368
-0.999125, 315, 161, 330, 288
-0.999127, 413, 209, 428, 336
-0.999134, 383, 193, 398, 320
-0.999138, 115, 161, 130, 288
-0.999144, 311, 241, 326, 368
-0.99915, 391, 241, 406, 368
-0.999155, 47, 129, 62, 256
-0.999156, 271, 177, 286, 304
-0.999158, 105, 177, 120, 304
-0.99916, 381, 241, 396, 368
-0.999163, 325, 129, 340, 256
-0.999164, 19, 17, 34, 144
-0.99917, 377, 177, 392, 304
-0.999171, 305, 161, 320, 288
-0.999174, 37, 81, 52, 208
-0.999182, 87, 209, 102, 336
-0.999182, 99, 225, 114, 352
-0.999183, 9, 81, 24, 208
-0.999183, 237, 177, 252, 304
-0.999184, 105, 241, 120, 368
-0.999184, 181, 225, 196, 352
-0.999188, 61, 33, 76, 160
-0.99919, 461, 97, 492, 352
-0.999195, 117, 241, 132, 368
-0.999203, 27, 81, 42, 208
-0.999207, 187, 193, 202, 320
-0.999211, 77, 33, 108, 288
-0.999213, 123, 241, 138, 368
-0.99922, 431, 81, 446, 208
-0.999229, 305, 241, 320, 368
-0.99923, 21, 81, 36, 208
-0.999231, 251, 49, 266, 176
-0.999234, 29, 1, 44, 128
-0.99924, 241, 241, 256, 368
-0.999252, 419, 209, 434, 336
-0.999258, 397, 241, 412, 368
-0.999261, 125, 161, 140, 288
-0.999261, 433, 209, 448, 336
-0.999264, 199, 161, 214, 288
-0.999267, 447, 241, 462, 368
-0.999272, 149, 209, 164, 336
-0.999273, 225, 129, 256, 375
-0.99928, 333, 209, 348, 336
-0.999281, 277, 145, 292, 272
-0.999289, 313, 113, 328, 240
-0.999291, 13, 225, 28, 352
-0.999294, 95, 177, 110, 304
-0.999295, 175, 241, 190, 368
-0.999305, 291, 145, 306, 272
-0.999306, 417, 1, 448, 256
-0.999308, 265, 177, 280, 304
-0.999309, 111, 113, 126, 240
-0.999313, 257, 33, 272, 160
-0.999315, 393, 145, 408, 272
-0.999316, 19, 161, 34, 288
-0.999318, 47, 209, 62, 336
-0.999322, 41, 145, 56, 272
-0.999325, 137, 241, 152, 368
-0.99933, 439, 81, 454, 208
-0.999335, 453, 241, 468, 368
-0.999337, 425, 209, 440, 336
-0.999337, 321, 177, 336, 304
-0.999338, 163, 225, 178, 352
-0.999342, 15, 97, 30, 224
-0.999343, 193, 193, 208, 320
-0.999344, 205, 161, 220, 288
-0.999346, 241, 1, 256, 128
-0.999348, 263, 33, 278, 160
-0.999351, 111, 225, 126, 352
-0.999357, 1, 225, 16, 352
-0.99936, 253, 177, 268, 304
-0.999364, 263, 113, 278, 240
-0.999365, 11, 1, 26, 128
-0.999367, 399, 145, 414, 272
-0.999368, 369, 225, 384, 352
-0.999369, 425, 65, 440, 192
-0.999371, 243, 177, 258, 304
-0.999371, 271, 49, 286, 176
-0.999373, 125, 1, 156, 256
-0.999374, 299, 193, 314, 320
-0.999374, 295, 241, 310, 368
-0.999376, 143, 241, 158, 368
-0.999377, 169, 241, 184, 368
-0.99938, 271, 113, 286, 240
-0.999381, 93, 225, 108, 352
-0.999382, 297, 145, 312, 272
-0.999388, 427, 129, 442, 256
-0.999389, 307, 65, 322, 192
-0.999391, 235, 225, 250, 352
-0.999393, 445, 81, 460, 208
-0.999395, 305, 113, 320, 240
-0.99943, 389, 1, 420, 256
-0.999444, 185, 33, 216, 288
-0.999476, 153, 1, 216, 128
-0.99949, 437, 1, 468, 256
-0.999588, 275, 359, 290, 374
-0.999588, 465, 255, 480, 270
-0.999588, 453, 339, 468, 354
-0.999589, 421, 355, 436, 370
-0.999592, 131, 279, 146, 294
-0.999592, 421, 291, 436, 306
-0.999592, 217, 297, 232, 312
-0.999592, 137, 249, 152, 264
-0.999593, 345, 305, 360, 320
-0.999593, 407, 327, 422, 342
-0.999593, 429, 287, 444, 302
-0.999593, 413, 349, 428, 364
-0.999593, 231, 313, 246, 328
-0.999594, 335, 209, 350, 224
-0.999594, 313, 263, 328, 278
-0.999594, 245, 1, 260, 16
-0.999596, 309, 229, 324, 244
-0.999596, 383, 259, 398, 274
-0.999596, 133, 273, 148, 288
-0.999597, 317, 277, 332, 292
-0.999598, 181, 229, 196, 244
-0.999598, 351, 319, 366, 334
-0.999599, 411, 211, 426, 226
-0.999599, 399, 199, 414, 214
-0.999599, 407, 205, 422, 220
-0.9996, 229, 93, 244, 108
-0.9996, 465, 355, 480, 370
-0.9996, 441, 235, 456, 250
-0.999601, 229, 9, 244, 24
-0.999601, 355, 361, 370, 375
-0.999602, 183, 235, 198, 250
-0.999602, 137, 241, 152, 256
-0.999603, 407, 341, 422, 356
-0.999604, 417, 299, 432, 314
-0.999605, 187, 243, 202, 258
-0.999606, 423, 285, 438, 300
-0.999606, 373, 339, 388, 354
-0.999606, 279, 7, 294, 22
-0.999606, 189, 227, 204, 242
-0.999608, 389, 355, 404, 370
-0.999608, 427, 275, 442, 290
-0.999608, 293, 179, 308, 194
-0.999608, 137, 233, 152, 248
-0.999609, 231, 319, 246, 334
-0.99961, 197, 261, 212, 276
-0.99961, 243, 7, 258, 22
-0.99961, 195, 335, 210, 350
-0.99961, 253, 343, 268, 358
-0.99961, 73, 133, 88, 148
-0.999611, 291, 225, 306, 240
-0.999611, 433, 297, 448, 312
-0.999612, 393, 205, 408, 220
-0.999612, 305, 187, 320, 202
-0.999613, 139, 209, 154, 224
-0.999613, 383, 357, 398, 372
-0.999614, 305, 193, 320, 208
-0.999616, 247, 341, 262, 356
-0.999616, 399, 239, 414, 254
-0.999618, 311, 213, 326, 228
-0.999619, 221, 303, 236, 318
-0.999619, 253, 349, 268, 364
-0.99962, 71, 123, 86, 138
-0.99962, 279, 199, 294, 214
-0.999622, 341, 311, 356, 326
-0.999623, 261, 359, 276, 374
-0.999624, 333, 217, 348, 232
-0.999625, 267, 355, 282, 370
-0.999625, 127, 271, 142, 286
-0.999626, 293, 185, 308, 200
-0.999627, 291, 203, 306, 218
-0.999627, 245, 333, 260, 348
-0.999627, 205, 329, 220, 344
-0.999628, 447, 239, 462, 254
-0.999629, 65, 125, 80, 140
-0.999629, 325, 261, 340, 276
-0.99963, 123, 173, 138, 188
-0.99963, 143, 219, 158, 234
-0.999631, 325, 193, 340, 208
-0.999631, 299, 225, 314, 240
-0.999632, 259, 353, 274, 368
-0.999632, 63, 107, 78, 122
-0.999632, 443, 317, 458, 332
-0.999633, 339, 305, 354, 320
-0.999633, 377, 359, 392, 374
-0.999636, 61, 75, 76, 90
-0.999637, 65, 83, 80, 98
-0.999637, 371, 353, 386, 368
-0.999637, 463, 349, 478, 364
-0.999638, 435, 355, 450, 370
-0.99964, 357, 129, 388, 375
-0.999641, 285, 91, 300, 106
-0.999645, 207, 361, 222, 375
-0.999646, 299, 185, 314, 200
-0.999651, 319, 223, 334, 238
-0.999653, 3, 103, 18, 118
-0.999654, 131, 257, 146, 272
-0.999658, 235, 325, 250, 340
-0.99966, 295, 195, 310, 210
-0.999662, 275, 211, 290, 226
-0.999663, 79, 125, 94, 140
-0.999668, 315, 193, 330, 208
-0.999669, 289, 219, 304, 234
-0.99967, 127, 263, 142, 278
-0.999671, 295, 215, 310, 230
-0.999674, 441, 351, 456, 366
-0.999676, 239, 331, 254, 346
-0.999679, 305, 223, 320, 238
-0.999684, 313, 223, 328, 238
-0.999685, 285, 201, 300, 216
-0.999685, 331, 201, 346, 216
-0.999689, 281, 211, 296, 226
-0.99969, 299, 201, 314, 216
-0.99969, 297, 209, 312, 224
-0.999692, 305, 211, 320, 226
-0.999692, 307, 199, 322, 214
-0.999692, 321, 33, 352, 288
-0.999698, 365, 357, 380, 372
-0.999698, 317, 215, 332, 230
-0.999699, 317, 199, 332, 214
-0.999703, 289, 195, 304, 210
-0.999705, 459, 343, 474, 358
-0.999711, 327, 213, 342, 228
-0.99972, 279, 217, 294, 232
-0.999739, 333, 33, 364, 288
-0.99974, 327, 219, 342, 234
-0.999749, 279, 205, 294, 220
-0.99975, 315, 207, 330, 222
-0.999752, 345, 129, 376, 375
-0.999754, 329, 207, 344, 222
-0.999758, 309, 205, 324, 220
-0.999764, 325, 199, 340, 214
-0.999771, 427, 293, 442, 308
-0.999791, 177, 129, 208, 375
-0.99982, 289, 209, 304, 224
-0.999827, 369, 33, 400, 288
-0.999833, 323, 205, 338, 220
-0.99987, 405, 1, 436, 256
-1.00001, 165, 129, 196, 375
-1.00006, 149, 129, 180, 375
-1.00015, 457, 1, 488, 256
-1.00032, 173, 1, 204, 256
-1.00052, 137, 1, 168, 256
-1.00055, 353, 1, 384, 256
-1.00068, 469, 1, 500, 256
-1.00128, 161, 33, 192, 288
-1.00146, 149, 33, 180, 288
-1.00235, 433, 1, 496, 128
-1.0028, 129, 97, 192, 224
-1.00342, 137, 33, 200, 288
-1.00343, 353, 17, 416, 144
-1.00707, 145, 49, 208, 176
