1957
-0.291826, 1, 1, 500, 375
-0.337865, 33, 1, 288, 375
-0.378406, 1, 33, 500, 288
-0.431361, 65, 1, 320, 256
-0.435217, 1, 129, 500, 375
-0.526653, 129, 1, 384, 375
-0.615848, 33, 97, 288, 352
-0.630195, 193, 65, 448, 320
-0.636061, 257, 1, 500, 375
-0.824796, 113, 1, 240, 256
-0.83546, 145, 1, 272, 375
-0.842126, 81, 1, 208, 375
-0.845916, 129, 97, 256, 352
-0.85199, 65, 1, 192, 256
-0.85888, 161, 1, 288, 256
-0.876203, 1, 33, 500, 160
-0.880782, 49, 97, 176, 352
-0.883517, 209, 65, 336, 320
-0.8839, 33, 1, 160, 375
-0.88617, 193, 1, 320, 375
-0.893293, 1, 145, 500, 272
-0.902115, 1, 97, 500, 224
-0.904693, 65, 49, 320, 176
-0.909462, 65, 97, 320, 224
-0.911578, 241, 1, 368, 375
-0.919333, 161, 145, 416, 272
-0.922228, 369, 1, 496, 375
-0.922471, 353, 129, 480, 375
-0.92362, 217, 65, 280, 192
-0.925078, 121, 17, 184, 144
-0.927106, 1, 193, 500, 320
-0.928006, 193, 193, 448, 320
-0.928012, 1, 97, 128, 352
-0.928421, 145, 129, 272, 256
-0.928487, 33, 145, 288, 272
-0.929781, 257, 1, 384, 256
-0.930169, 1, 209, 256, 336
-0.93142, 161, 81, 416, 208
-0.93316, 113, 17, 240, 144
-0.933611, 177, 33, 240, 160
-0.934422, 177, 81, 304, 208
-0.935104, 1, 241, 500, 368
-0.937753, 289, 1, 416, 375
-0.938916, 49, 65, 176, 192
-0.939847, 73, 49, 136, 176
-0.939897, 97, 193, 352, 320
-0.94012, 289, 129, 416, 375
-0.940792, 105, 81, 168, 208
-0.943899, 97, 97, 224, 224
-0.944797, 177, 97, 240, 224
-0.945079, 97, 33, 160, 160
-0.945159, 345, 209, 408, 336
-0.945222, 145, 65, 208, 192
-0.946634, 97, 209, 224, 336
-0.947055, 137, 145, 200, 272
-0.947641, 65, 1, 320, 128
-0.94804, 177, 209, 240, 336
-0.948973, 145, 17, 208, 144
-0.949406, 193, 241, 448, 368
-0.949534, 161, 33, 288, 160
-0.950485, 73, 57, 136, 120
-0.950638, 97, 161, 224, 288
-0.951166, 257, 129, 500, 256
-0.951258, 177, 41, 240, 104
-0.951645, 353, 193, 480, 320
-0.952143, 369, 193, 432, 320
-0.9523, 17, 1, 144, 256
-0.95263, 65, 17, 192, 144
-0.952754, 353, 33, 480, 288
-0.953207, 49, 145, 176, 272
-0.953464, 161, 33, 416, 160
-0.953619, 177, 145, 240, 272
-0.953754, 217, 129, 280, 192
-0.953896, 145, 209, 272, 336
-0.954718, 137, 121, 200, 184
-0.954835, 137, 209, 200, 336
-0.956036, 209, 129, 336, 256
-0.956136, 225, 129, 288, 256
-0.957438, 113, 209, 176, 336
-0.95771, 121, 41, 184, 104
-0.959271, 49, 209, 176, 336
-0.959313, 305, 33, 432, 288
-0.95943, 209, 177, 272, 304
-0.9595, 249, 113, 312, 240
-0.959698, 345, 209, 408, 272
-0.960648, 201, 113, 264, 240
-0.960734, 177, 129, 240, 192
-0.960785, 217, 81, 280, 144
-0.960862, 121, 1, 184, 256
-0.961065, 161, 1, 224, 256
-0.961096, 209, 177, 336, 304
-0.961834, 113, 137, 176, 200
-0.962008, 57, 97, 120, 224
-0.96218, 257, 81, 500, 208
-0.962676, 177, 265, 240, 328
-0.962704, 97, 1, 160, 256
-0.962963, 225, 81, 352, 208
-0.963364, 289, 209, 416, 336
-0.96359, 57, 121, 120, 184
-0.964205, 57, 145, 120, 272
-0.964515, 365, 209, 396, 272
-0.965115, 97, 33, 160, 96
-0.965248, 49, 81, 176, 144
-0.965421, 89, 209, 152, 336
-0.965433, 177, 105, 240, 168
-0.965449, 209, 17, 272, 144
-0.966293, 249, 153, 312, 216
-0.966379, 345, 241, 408, 304
-0.966463, 177, 97, 304, 160
-0.966535, 137, 97, 200, 160
-0.966843, 149, 17, 180, 144
-0.967198, 365, 193, 396, 320
-0.967338, 181, 33, 212, 160
-0.967718, 209, 33, 336, 160
-0.96815, 321, 225, 384, 352
-0.968222, 113, 145, 176, 272
-0.968258, 377, 201, 440, 264
-0.968284, 129, 105, 256, 168
-0.968552, 193, 33, 256, 288
-0.968568, 57, 193, 120, 320
-0.968571, 137, 153, 200, 216
-0.968942, 225, 105, 288, 168
-0.968979, 137, 65, 200, 128
-0.969053, 81, 225, 144, 288
-0.969232, 137, 177, 200, 240
-0.969273, 161, 65, 192, 192
-0.969396, 97, 81, 160, 144
-0.969489, 209, 57, 272, 120
-0.969492, 57, 145, 120, 208
-0.969857, 113, 105, 176, 168
-0.970097, 197, 105, 228, 168
-0.970897, 137, 105, 168, 168
-0.970939, 161, 81, 224, 144
-0.971146, 145, 145, 272, 208
-0.971166, 81, 97, 144, 224
-0.971199, 113, 217, 176, 280
-0.971286, 1, 65, 128, 192
-0.971464, 249, 121, 312, 184
-0.971643, 245, 65, 276, 192
-0.971734, 97, 33, 224, 96
-0.972136, 241, 129, 272, 192
-0.972173, 177, 185, 240, 248
-0.972209, 361, 145, 424, 272
-0.972226, 289, 145, 416, 272
-0.972236, 1, 241, 128, 368
-0.972822, 105, 17, 136, 144
-0.972874, 89, 129, 152, 192
-0.972989, 337, 241, 464, 368
-0.973142, 393, 193, 456, 320
-0.973156, 49, 217, 112, 280
-0.973196, 121, 97, 184, 352
-0.973431, 65, 145, 192, 208
-0.97359, 161, 17, 224, 80
-0.973775, 133, 17, 164, 144
-0.97404, 137, 17, 200, 80
-0.974062, 377, 225, 440, 288
-0.974087, 337, 281, 400, 344
-0.974126, 65, 65, 128, 320
-0.974341, 257, 65, 320, 192
-0.974413, 65, 105, 192, 168
-0.974429, 193, 73, 320, 136
-0.974458, 201, 33, 232, 160
-0.974551, 225, 185, 288, 248
-0.974582, 89, 145, 152, 272
-0.97466, 177, 121, 304, 184
-0.974729, 117, 33, 148, 160
-0.9748, 69, 65, 100, 192
-0.974879, 1, 193, 128, 320
-0.974964, 145, 97, 176, 224
-0.975084, 353, 145, 480, 272
-0.975111, 217, 1, 280, 256
-0.975124, 185, 97, 216, 224
-0.97515, 361, 281, 424, 344
-0.975156, 125, 97, 156, 160
-0.975162, 33, 97, 96, 224
-0.975192, 365, 241, 396, 304
-0.975536, 161, 81, 192, 144
-0.975573, 221, 49, 252, 176
-0.97559, 233, 65, 264, 192
-0.975678, 321, 177, 384, 304
-0.976008, 193, 225, 320, 352
-0.976047, 185, 105, 216, 168
-0.976133, 57, 193, 120, 256
-0.976169, 65, 81, 128, 144
-0.976217, 73, 1, 136, 128
-0.976237, 133, 81, 164, 208
-0.976291, 165, 105, 196, 168
-0.976412, 213, 89, 244, 152
-0.97655, 57, 241, 120, 368
-0.976632, 153, 97, 216, 352
-0.976764, 113, 41, 144, 104
-0.976872, 97, 241, 352, 368
-0.976949, 149, 105, 180, 168
-0.976962, 377, 209, 408, 336
-0.97721, 353, 209, 384, 336
-0.977211, 221, 57, 252, 120
-0.977278, 201, 81, 232, 208
-0.977308, 89, 201, 152, 264
-0.977447, 209, 153, 272, 216
-0.977664, 177, 129, 240, 375
-0.977753, 177, 33, 208, 96
-0.977886, 377, 249, 440, 312
-0.9779, 97, 41, 128, 104
-0.978033, 201, 105, 264, 168
-0.978085, 201, 201, 264, 264
-0.978298, 85, 49, 116, 176
-0.97832, 129, 265, 256, 328
-0.978342, 185, 1, 248, 375
-0.9785, 369, 241, 432, 368
-0.978616, 201, 209, 232, 336
-0.978647, 161, 17, 192, 144
-0.978797, 169, 129, 200, 256
-0.978867, 73, 33, 136, 96
-0.978875, 89, 105, 152, 168
-0.978963, 81, 257, 144, 320
-0.979004, 49, 49, 112, 176
-0.979017, 153, 217, 216, 280
-0.979037, 33, 193, 96, 320
-0.979092, 217, 289, 280, 352
-0.979101, 129, 57, 256, 120
-0.979243, 257, 81, 320, 144
-0.979255, 233, 49, 264, 112
-0.979331, 257, 161, 288, 224
-0.979355, 209, 49, 240, 112
-0.979438, 177, 217, 240, 280
-0.979485, 185, 289, 248, 352
-0.979526, 209, 1, 272, 375
-0.979549, 161, 153, 224, 216
-0.979649, 105, 241, 168, 304
-0.979695, 321, 217, 384, 280
-0.979898, 249, 161, 312, 288
-0.979979, 145, 145, 176, 208
-0.980014, 129, 129, 160, 192
-0.98003, 113, 1, 176, 375
-0.980106, 213, 97, 244, 224
-0.980114, 369, 201, 496, 264
-0.980292, 25, 105, 88, 168
-0.980406, 229, 129, 260, 192
-0.980432, 49, 57, 176, 120
-0.980456, 101, 65, 132, 128
-0.980497, 249, 17, 312, 144
-0.980628, 205, 265, 236, 328
-0.980701, 149, 145, 180, 272
-0.980728, 385, 145, 448, 272
-0.980784, 245, 105, 276, 168
-0.980828, 257, 17, 500, 144
-0.980891, 113, 81, 240, 144
-0.980903, 181, 209, 212, 336
-0.980974, 57, 169, 120, 232
-0.981127, 97, 97, 160, 352
-0.981239, 65, 241, 192, 304
-0.981245, 185, 145, 216, 208
-0.981281, 321, 257, 384, 320
-0.981284, 249, 177, 312, 240
-0.981375, 193, 145, 320, 208
-0.981421, 113, 81, 144, 144
-0.981444, 129, 185, 256, 248
-0.981446, 213, 129, 244, 192
-0.981468, 153, 33, 184, 96
-0.981496, 353, 185, 416, 248
-0.981523, 257, 33, 384, 160
-0.981533, 217, 129, 280, 375
-0.981539, 201, 129, 232, 192
-0.981589, 225, 113, 352, 176
-0.981608, 125, 209, 156, 336
-0.981627, 57, 241, 120, 304
-0.981765, 209, 185, 336, 248
-0.981849, 173, 81, 204, 144
-0.981882, 225, 33, 288, 96
-0.981928, 165, 177, 196, 304
-0.981944, 173, 81, 204, 208
-0.982027, 49, 185, 176, 248
-0.982126, 237, 185, 268, 248
-0.982164, 145, 209, 176, 336
-0.982165, 425, 193, 488, 320
-0.982169, 73, 121, 104, 184
-0.98218, 401, 249, 464, 312
-0.982197, 337, 233, 464, 296
-0.982221, 113, 217, 240, 280
-0.982279, 85, 57, 116, 120
-0.982291, 217, 241, 280, 368
-0.982356, 89, 161, 152, 224
-0.982418, 93, 233, 124, 296
-0.982447, 137, 265, 200, 328
-0.982561, 365, 273, 396, 336
-0.982561, 101, 65, 132, 192
-0.982596, 113, 209, 144, 336
-0.982635, 245, 81, 276, 144
-0.982743, 89, 1, 152, 375
-0.982772, 181, 161, 212, 288
-0.982846, 161, 1, 224, 375
-0.982964, 65, 1, 128, 375
-0.983065, 221, 209, 252, 336
-0.98309, 273, 81, 400, 208
-0.983216, 17, 17, 144, 144
-0.983313, 17, 225, 144, 288
-0.98346, 113, 177, 176, 240
-0.983472, 117, 97, 148, 224
-0.98348, 137, 1, 200, 375
-0.983507, 353, 241, 384, 304
-0.983549, 1, 145, 128, 272
-0.983664, 249, 145, 280, 272
-0.983665, 233, 73, 264, 136
-0.983794, 253, 129, 284, 192
-0.983835, 65, 217, 192, 280
-0.983972, 165, 145, 196, 208
-0.984012, 365, 241, 396, 368
-0.984125, 233, 113, 264, 240
-0.984172, 17, 121, 144, 184
-0.984246, 33, 241, 96, 368
-0.984415, 117, 129, 148, 192
-0.984462, 81, 217, 112, 280
-0.984572, 65, 81, 96, 144
-0.984601, 169, 177, 200, 240
-0.984659, 149, 81, 180, 144
-0.984691, 261, 113, 292, 240
-0.984713, 233, 177, 264, 304
-0.984776, 109, 217, 140, 280
-0.984829, 209, 49, 336, 112
-0.984954, 241, 89, 368, 152
-0.985014, 161, 57, 192, 120
-0.985022, 153, 241, 216, 304
-0.985161, 181, 177, 212, 240
-0.985161, 137, 145, 168, 272
-0.985213, 289, 209, 416, 272
-0.985237, 245, 57, 276, 120
-0.985269, 33, 145, 96, 208
-0.985358, 129, 289, 256, 352
-0.985383, 177, 241, 240, 304
-0.985432, 289, 233, 416, 296
-0.985459, 201, 177, 264, 240
-0.985629, 69, 225, 100, 288
-0.985652, 377, 233, 408, 296
-0.985654, 353, 265, 480, 328
-0.985808, 61, 121, 92, 184
-0.985847, 73, 145, 104, 208
-0.986034, 193, 81, 256, 144
-0.986049, 365, 185, 396, 248
-0.986078, 57, 97, 88, 224
-0.986201, 401, 241, 464, 368
-0.986409, 389, 177, 420, 304
-0.986444, 425, 145, 488, 272
-0.986445, 185, 17, 248, 80
-0.986465, 377, 177, 440, 240
-0.986527, 377, 209, 408, 272
-0.986547, 101, 209, 132, 336
-0.98662, 105, 241, 136, 304
-0.986678, 125, 161, 156, 288
-0.986704, 241, 153, 368, 216
-0.986709, 389, 201, 420, 264
-0.98674, 241, 57, 304, 120
-0.986763, 217, 1, 248, 128
-0.986772, 177, 313, 240, 375
-0.986775, 25, 225, 88, 288
-0.986778, 365, 145, 396, 272
-0.986781, 125, 33, 156, 96
-0.986792, 213, 145, 244, 272
-0.986877, 161, 33, 288, 96
-0.986985, 113, 265, 176, 328
-0.98707, 113, 241, 240, 304
-0.987108, 97, 57, 160, 120
-0.987115, 89, 121, 120, 184
-0.987147, 305, 281, 432, 344
-0.987188, 121, 217, 152, 280
-0.987221, 17, 145, 144, 208
-0.987244, 353, 209, 384, 272
-0.987331, 105, 121, 136, 184
-0.987386, 217, 265, 280, 328
-0.987408, 113, 9, 176, 72
-0.987461, 33, 185, 96, 248
-0.987517, 209, 85, 272, 116
-0.987582, 41, 81, 104, 144
-0.987592, 169, 9, 200, 72
-0.987678, 97, 9, 224, 72
-0.987802, 245, 161, 276, 224
-0.987865, 33, 89, 288, 152
-0.987869, 257, 105, 288, 168
-0.987927, 249, 1, 312, 256
-0.988018, 41, 129, 104, 375
-0.988053, 209, 289, 336, 352
-0.988153, 173, 57, 204, 120
-0.988172, 33, 145, 96, 272
-0.988178, 133, 217, 164, 280
-0.988246, 129, 241, 192, 304
-0.988268, 73, 73, 136, 104
-0.988313, 237, 17, 268, 144
-0.988347, 377, 129, 440, 375
-0.988358, 17, 249, 144, 312
-0.98845, 97, 121, 352, 184
-0.988541, 353, 273, 384, 336
-0.988583, 153, 41, 216, 104
-0.988618, 241, 1, 304, 375
-0.988632, 225, 289, 256, 352
-0.988717, 149, 177, 180, 240
-0.988755, 145, 313, 272, 375
-0.988781, 65, 265, 192, 328
-0.988895, 193, 193, 224, 256
-0.988947, 233, 153, 264, 216
-0.98895, 353, 161, 416, 224
-0.98896, 33, 57, 96, 120
-0.988984, 177, 9, 304, 72
-0.988986, 117, 241, 148, 304
-0.98907, 201, 81, 232, 144
-0.989079, 177, 45, 240, 76
-0.989126, 33, 145, 288, 208
-0.989178, 65, 41, 320, 104
-0.989187, 1, 201, 128, 264
-0.989187, 161, 97, 224, 128
-0.989208, 145, 109, 208, 140
-0.989245, 73, 193, 104, 256
-0.989333, 345, 213, 408, 244
-0.98935, 89, 1, 152, 64
-0.989351, 209, 9, 272, 72
-0.989359, 125, 73, 156, 136
-0.989401, 73, 113, 104, 240
-0.989468, 121, 37, 184, 68
-0.98952, 401, 169, 464, 232
-0.989553, 177, 85, 240, 116
-0.98956, 425, 209, 488, 272
-0.98961, 161, 217, 288, 280
-0.989612, 229, 105, 260, 168
-0.989618, 181, 217, 212, 280
-0.98962, 289, 185, 416, 248
-0.989635, 49, 265, 112, 328
-0.989681, 209, 25, 240, 88
-0.989685, 225, 201, 256, 264
-0.989692, 217, 137, 280, 168
-0.989693, 185, 153, 248, 216
-0.989751, 137, 93, 200, 124
-0.989817, 165, 201, 196, 264
-0.989819, 209, 257, 336, 320
-0.989824, 57, 225, 88, 288
-0.989828, 137, 81, 168, 144
-0.98984, 281, 177, 312, 240
-0.989844, 345, 225, 408, 256
-0.989847, 313, 193, 376, 256
-0.989853, 193, 41, 224, 104
-0.989863, 85, 33, 116, 96
-0.989901, 329, 281, 392, 312
-0.989902, 217, 73, 280, 104
-0.989937, 57, 185, 88, 248
-0.989944, 105, 145, 136, 208
-0.989955, 193, 101, 256, 132
-0.989966, 93, 201, 124, 264
-0.989992, 153, 125, 216, 156
-0.990011, 49, 33, 176, 96
-0.990044, 165, 225, 196, 352
-0.990046, 313, 281, 376, 344
-0.99008, 121, 113, 184, 144
-0.990134, 345, 245, 408, 276
-0.990138, 121, 81, 184, 112
-0.99016, 73, 61, 136, 92
-0.990192, 209, 193, 240, 256
-0.990209, 177, 133, 240, 164
-0.990237, 65, 145, 128, 176
-0.990258, 337, 169, 464, 232
-0.990277, 361, 285, 424, 316
-0.990278, 217, 313, 280, 375
-0.990284, 81, 241, 112, 304
-0.990288, 217, 149, 280, 180
-0.990364, 97, 89, 160, 120
-0.990377, 217, 97, 280, 128
-0.990409, 377, 201, 440, 232
-0.990446, 93, 257, 124, 320
-0.990455, 289, 257, 416, 320
-0.990466, 193, 217, 224, 280
-0.990473, 113, 133, 176, 164
-0.990484, 65, 129, 128, 160
-0.9905, 161, 33, 224, 64
-0.990505, 337, 97, 464, 224
-0.990509, 177, 149, 240, 180
-0.990561, 213, 217, 244, 280
-0.990562, 113, 145, 176, 176
-0.990573, 265, 129, 296, 192
-0.99058, 197, 129, 228, 256
-0.990582, 113, 145, 144, 272
-0.990628, 137, 17, 168, 80
-0.990667, 1, 177, 128, 240
-0.990737, 137, 165, 200, 196
-0.990752, 185, 117, 248, 148
-0.990799, 57, 165, 120, 196
-0.990803, 201, 225, 264, 288
-0.990815, 177, 57, 240, 88
-0.990817, 97, 41, 160, 72
-0.990825, 249, 97, 312, 352
-0.990833, 225, 117, 288, 148
-0.990857, 89, 129, 152, 160
-0.990874, 337, 129, 400, 256
-0.990885, 241, 181, 304, 212
-0.990905, 61, 145, 92, 272
-0.990909, 153, 149, 216, 180
-0.990923, 165, 33, 196, 96
-0.990937, 377, 233, 440, 264
-0.990985, 17, 81, 80, 144
-0.991006, 425, 241, 488, 368
-0.991016, 137, 21, 200, 52
-0.991023, 145, 217, 176, 280
-0.991031, 105, 101, 168, 132
-0.991033, 1, 121, 256, 184
-0.991058, 177, 73, 240, 104
-0.991069, 249, 161, 312, 192
-0.99115, 53, 97, 84, 160
-0.991152, 377, 281, 408, 344
-0.991152, 161, 289, 224, 352
-0.991158, 209, 313, 336, 375
-0.991166, 177, 277, 240, 308
-0.991184, 33, 185, 288, 248
-0.991191, 257, 65, 288, 128
-0.991234, 1, 73, 128, 136
-0.991245, 65, 65, 320, 128
-0.991251, 225, 61, 288, 92
-0.991251, 353, 201, 416, 232
-0.991263, 89, 209, 120, 336
-0.991264, 165, 265, 196, 328
-0.991278, 73, 85, 136, 116
-0.991296, 257, 117, 320, 148
-0.991355, 197, 17, 228, 80
-0.991364, 257, 129, 320, 160
-0.991377, 289, 161, 416, 224
-0.991392, 113, 213, 176, 244
-0.991415, 337, 293, 400, 324
-0.991447, 369, 245, 432, 276
-0.991452, 121, 65, 184, 96
-0.99147, 57, 213, 120, 244
-0.99147, 225, 193, 288, 224
-0.991473, 321, 241, 384, 272
-0.991475, 185, 205, 248, 236
-0.991484, 221, 33, 252, 96
-0.991501, 377, 161, 408, 288
-0.991526, 257, 101, 320, 132
-0.991531, 41, 1, 104, 375
-0.991559, 89, 213, 152, 244
-0.991576, 25, 17, 88, 144
-0.991579, 137, 177, 200, 208
-0.99158, 177, 289, 240, 320
-0.991595, 209, 209, 336, 272
-0.99161, 401, 201, 464, 264
-0.991615, 185, 217, 248, 248
-0.991624, 201, 57, 264, 88
-0.991626, 89, 97, 120, 224
-0.991626, 401, 177, 432, 304
-0.991626, 137, 213, 200, 244
-0.991687, 369, 289, 496, 352
-0.991692, 57, 97, 120, 128
-0.991693, 389, 225, 420, 288
-0.991702, 89, 145, 152, 176
-0.991728, 321, 229, 384, 260
-0.991734, 153, 137, 216, 168
-0.991778, 177, 261, 240, 292
-0.99178, 209, 177, 272, 208
-0.991788, 57, 109, 120, 140
-0.991809, 249, 81, 312, 112
-0.991829, 209, 37, 272, 68
-0.991835, 145, 245, 208, 276
-0.991856, 125, 185, 156, 248
-0.991857, 89, 169, 152, 200
-0.991867, 41, 129, 104, 160
-0.991898, 377, 213, 440, 244
-0.991914, 425, 193, 456, 320
-0.99192, 337, 269, 400, 300
-0.991939, 225, 49, 288, 80
-0.991941, 337, 97, 400, 352
-0.991959, 185, 33, 248, 64
-0.991963, 25, 257, 88, 320
-0.991984, 129, 225, 192, 256
-0.991994, 193, 265, 224, 328
-0.992008, 57, 177, 120, 208
-0.99201, 153, 225, 216, 256
-0.992021, 41, 145, 104, 176
-0.992033, 89, 29, 152, 60
-0.99204, 113, 25, 176, 56
-0.99211, 193, 193, 256, 224
-0.992113, 65, 49, 128, 80
-0.992117, 217, 297, 280, 328
-0.992123, 113, 173, 176, 204
-0.992124, 57, 193, 88, 320
-0.992139, 161, 21, 224, 52
-0.99214, 97, 77, 160, 108
-0.992147, 121, 249, 184, 280
-0.992158, 161, 209, 224, 240
-0.992171, 217, 285, 280, 316
-0.992179, 157, 9, 188, 72
-0.99219, 97, 53, 160, 84
-0.992193, 1, 49, 128, 112
-0.992209, 217, 213, 280, 244
-0.992213, 305, 277, 368, 308
-0.992216, 321, 213, 384, 244
-0.992219, 249, 149, 312, 180
-0.992244, 177, 301, 240, 332
-0.992248, 377, 257, 408, 320
-0.992257, 365, 209, 396, 240
-0.992269, 285, 161, 316, 288
-0.992274, 365, 297, 396, 360
-0.992284, 365, 281, 396, 312
-0.992285, 169, 249, 232, 280
-0.992304, 161, 181, 224, 212
-0.992315, 33, 265, 288, 328
-0.992316, 137, 53, 200, 84
-0.99233, 425, 233, 488, 296
-0.992357, 401, 253, 464, 284
-0.992373, 361, 273, 424, 304
-0.992392, 229, 77, 260, 108
-0.992403, 105, 225, 168, 256
-0.992408, 177, 313, 240, 344
-0.992444, 89, 61, 120, 92
-0.992454, 1, 273, 128, 336
-0.992455, 225, 25, 352, 88
-0.992458, 193, 113, 224, 144
-0.992458, 161, 113, 192, 144
-0.992472, 49, 201, 112, 232
-0.992472, 97, 113, 160, 144
-0.992475, 177, 41, 208, 72
-0.992486, 161, 161, 224, 192
-0.992513, 137, 113, 168, 144
-0.992516, 65, 225, 128, 256
-0.992521, 257, 65, 384, 128
-0.99253, 245, 137, 276, 168
-0.99256, 25, 109, 88, 140
-0.992565, 33, 81, 96, 112
-0.992577, 173, 117, 204, 148
-0.992578, 65, 37, 128, 68
-0.992579, 161, 101, 192, 132
-0.992585, 1, 97, 128, 160
-0.992588, 217, 89, 248, 120
-0.992596, 221, 177, 252, 240
-0.992606, 209, 165, 272, 196
-0.992614, 321, 201, 384, 232
-0.992648, 193, 113, 448, 176
-0.992651, 49, 265, 112, 296
-0.992655, 57, 189, 120, 220
-0.992659, 25, 97, 88, 128
-0.992663, 245, 149, 276, 180
-0.992666, 93, 49, 124, 80
-0.992668, 205, 101, 236, 132
-0.992673, 337, 257, 400, 288
-0.992677, 369, 245, 400, 276
-0.99268, 161, 177, 416, 240
-0.992682, 1, 57, 500, 120
-0.992684, 217, 269, 280, 300
-0.992685, 97, 65, 160, 96
-0.992685, 213, 289, 244, 352
-0.992687, 73, 145, 104, 176
-0.992696, 149, 37, 180, 68
-0.992707, 165, 161, 196, 192
-0.99272, 109, 45, 140, 76
-0.992729, 229, 137, 260, 168
-0.992734, 137, 177, 168, 240
-0.992737, 229, 65, 260, 96
-0.992737, 145, 133, 176, 164
-0.992738, 149, 101, 180, 132
-0.992757, 369, 257, 432, 288
-0.992758, 145, 81, 208, 112
-0.992768, 361, 297, 424, 328
-0.992769, 125, 97, 156, 128
-0.992782, 205, 241, 236, 304
-0.992784, 133, 133, 164, 164
-0.992785, 169, 73, 200, 104
-0.992788, 49, 65, 112, 96
-0.992797, 361, 189, 424, 220
-0.992798, 193, 97, 224, 128
-0.992799, 73, 57, 104, 120
-0.992811, 213, 53, 244, 84
-0.992821, 169, 61, 200, 92
-0.992824, 217, 137, 248, 168
-0.992824, 217, 77, 248, 108
-0.992829, 369, 229, 400, 260
-0.992833, 193, 133, 224, 164
-0.992833, 205, 85, 236, 116
-0.992835, 173, 101, 204, 132
-0.99284, 177, 109, 304, 140
-0.992842, 185, 149, 216, 180
-0.992847, 149, 113, 180, 144
-0.992848, 121, 81, 152, 112
-0.992853, 205, 133, 236, 164
-0.992865, 241, 65, 272, 96
-0.992865, 97, 161, 128, 288
-0.992865, 417, 241, 448, 304
-0.992868, 61, 145, 92, 208
-0.992872, 353, 281, 384, 312
-0.99289, 161, 49, 192, 80
-0.99291, 161, 37, 192, 68
-0.99291, 377, 289, 408, 320
-0.992913, 145, 145, 176, 176
-0.992931, 109, 129, 140, 160
-0.992934, 165, 149, 196, 180
-0.992939, 97, 129, 128, 160
-0.992942, 151, 105, 166, 168
-0.992948, 105, 77, 136, 108
-0.992949, 69, 129, 100, 160
-0.99295, 169, 85, 200, 116
-0.992962, 105, 61, 136, 92
-0.992963, 237, 197, 268, 228
-0.992964, 121, 29, 152, 60
-0.992965, 165, 173, 196, 204
-0.99298, 137, 97, 168, 128
-0.99298, 357, 245, 388, 276
-0.992984, 105, 33, 136, 64
-0.992984, 81, 129, 112, 160
-0.992985, 121, 133, 152, 164
-0.993005, 241, 81, 272, 112
-0.993012, 237, 53, 268, 84
-0.993015, 157, 89, 188, 120
-0.993032, 257, 165, 288, 196
-0.993038, 77, 61, 108, 92
-0.99304, 85, 145, 116, 176
-0.993044, 189, 29, 220, 60
-0.993044, 253, 77, 284, 108
-0.993045, 253, 177, 284, 208
-0.993054, 385, 201, 416, 232
-0.993066, 169, 25, 200, 56
-0.993071, 249, 117, 280, 148
-0.993071, 221, 41, 252, 72
-0.993081, 181, 129, 212, 160
-0.993084, 73, 73, 104, 104
-0.993088, 157, 73, 188, 104
-0.993097, 365, 293, 396, 324
-0.993098, 121, 213, 152, 244
-0.9931, 133, 25, 164, 56
-0.993104, 341, 277, 372, 308
-0.993111, 193, 65, 448, 128
-0.993112, 341, 265, 372, 328
-0.993113, 169, 209, 200, 240
-0.993113, 49, 81, 176, 112
-0.99312, 181, 9, 212, 72
-0.993121, 209, 277, 240, 308
-0.993121, 157, 61, 188, 92
-0.993125, 177, 97, 304, 128
-0.993125, 49, 289, 176, 352
-0.993127, 93, 37, 124, 68
-0.993128, 149, 213, 180, 244
-0.993129, 381, 245, 412, 276
-0.993131, 209, 33, 240, 64
-0.993132, 249, 105, 280, 136
-0.993146, 201, 49, 232, 80
-0.993152, 109, 213, 140, 244
-0.993156, 1, 153, 500, 216
-0.993158, 93, 145, 124, 208
-0.993163, 181, 89, 212, 120
-0.993172, 137, 37, 168, 68
-0.993177, 257, 133, 288, 164
-0.993178, 113, 17, 144, 80
-0.993179, 349, 233, 380, 264
-0.993183, 193, 201, 448, 264
-0.993184, 201, 257, 232, 288
-0.993188, 157, 125, 188, 156
-0.993189, 185, 81, 216, 144
-0.99319, 133, 209, 164, 240
-0.99319, 73, 157, 104, 188
-0.993194, 189, 41, 220, 72
-0.9932, 361, 197, 392, 228
-0.993204, 257, 153, 288, 184
-0.993204, 213, 197, 244, 228
-0.993208, 265, 117, 296, 148
-0.993209, 417, 249, 448, 280
-0.993213, 213, 221, 244, 252
-0.993217, 1, 121, 500, 184
-0.993233, 81, 49, 112, 80
-0.993235, 65, 85, 96, 116
-0.993237, 69, 193, 100, 320
-0.993237, 249, 189, 280, 220
-0.993241, 149, 173, 180, 204
-0.993243, 97, 213, 128, 244
-0.993245, 69, 109, 100, 140
-0.99325, 61, 145, 92, 176
-0.993252, 89, 165, 120, 196
-0.993261, 81, 217, 112, 248
-0.993262, 245, 93, 276, 124
-0.993263, 237, 173, 268, 204
-0.993267, 145, 21, 176, 52
-0.993267, 165, 137, 196, 168
-0.993273, 225, 297, 256, 328
-0.993274, 181, 209, 212, 240
-0.993276, 149, 225, 180, 256
-0.99328, 57, 109, 88, 140
-0.993288, 229, 213, 260, 244
-0.99329, 57, 125, 88, 156
-0.993292, 125, 41, 156, 72
-0.993294, 105, 145, 136, 176
-0.993297, 85, 73, 116, 104
-0.993302, 365, 269, 396, 300
-0.993304, 1, 25, 128, 88
-0.993304, 161, 245, 192, 276
-0.993345, 161, 153, 416, 216
-0.993384, 321, 169, 384, 232
-0.993396, 265, 65, 296, 192
-0.993397, 281, 177, 344, 240
-0.993424, 97, 209, 352, 272
-0.993487, 65, 145, 192, 176
-0.993566, 207, 97, 222, 160
-0.993584, 199, 105, 214, 168
-0.993613, 1, 81, 500, 144
-0.993626, 417, 289, 480, 352
-0.993638, 145, 257, 176, 320
-0.993666, 161, 89, 416, 152
-0.993674, 177, 137, 304, 168
-0.993717, 193, 281, 448, 344
-0.993761, 367, 201, 382, 264
-0.993767, 181, 265, 212, 328
-0.993774, 41, 33, 104, 96
-0.993781, 181, 1, 212, 256
-0.993794, 97, 37, 224, 68
-0.993794, 73, 17, 104, 144
-0.993794, 143, 97, 158, 160
-0.993837, 377, 177, 408, 240
-0.993872, 231, 57, 246, 120
-0.993877, 249, 17, 280, 144
-0.993885, 381, 209, 396, 272
-0.993889, 413, 193, 444, 320
-0.993953, 33, 289, 288, 352
-0.993958, 255, 129, 270, 192
-0.993978, 129, 241, 160, 304
-0.993981, 129, 93, 256, 124
-0.993997, 1, 177, 500, 240
-0.994028, 215, 89, 230, 152
-0.994058, 433, 161, 496, 224
-0.994063, 77, 81, 108, 144
-0.994076, 41, 33, 104, 288
-0.994088, 193, 241, 224, 304
-0.994098, 129, 125, 256, 156
-0.994105, 385, 281, 448, 344
-0.994126, 437, 177, 468, 304
-0.994127, 93, 1, 124, 128
-0.994132, 225, 57, 240, 120
-0.994158, 225, 209, 288, 272
-0.994167, 353, 145, 480, 208
-0.994194, 49, 101, 176, 132
-0.994234, 49, 9, 176, 72
-0.994254, 125, 153, 156, 216
-0.994268, 1, 33, 500, 96
-0.99427, 161, 149, 288, 180
-0.994275, 249, 185, 280, 248
-0.994279, 111, 41, 126, 104
-0.994296, 259, 153, 274, 216
-0.994306, 149, 1, 180, 256
-0.994312, 137, 89, 152, 152
-0.994349, 393, 1, 456, 375
-0.994399, 193, 257, 448, 320
-0.994414, 289, 129, 352, 256
-0.994429, 259, 105, 274, 168
-0.994441, 173, 49, 188, 112
-0.994441, 249, 129, 264, 192
-0.994451, 117, 41, 132, 104
-0.994458, 33, 241, 288, 304
-0.994526, 49, 113, 176, 144
-0.994556, 115, 65, 130, 128
-0.994584, 157, 113, 172, 176
-0.994592, 161, 233, 416, 296
-0.994608, 193, 113, 208, 176
-0.994664, 85, 145, 116, 272
-0.994698, 33, 313, 160, 375
-0.994743, 261, 129, 276, 192
-0.994752, 353, 1, 416, 375
-0.994774, 273, 129, 400, 192
-0.994793, 129, 81, 144, 144
-0.994849, 223, 81, 238, 144
-0.994852, 173, 81, 188, 144
-0.994923, 9, 225, 72, 352
-0.994924, 177, 121, 304, 152
-0.994926, 353, 49, 480, 176
-0.994991, 367, 241, 382, 304
-0.995021, 265, 1, 328, 375
-0.995028, 145, 129, 160, 192
-0.995029, 125, 1, 156, 256
-0.995033, 25, 281, 88, 344
-0.995037, 193, 33, 448, 96
-0.995045, 257, 289, 384, 352
-0.995087, 349, 161, 380, 288
-0.995104, 121, 73, 136, 136
-0.995114, 361, 33, 424, 288
-0.995124, 297, 241, 360, 368
-0.995124, 209, 77, 336, 108
-0.995153, 187, 113, 202, 176
-0.995185, 65, 129, 192, 160
-0.995196, 53, 241, 84, 368
-0.99529, 73, 89, 88, 152
-0.995294, 241, 129, 256, 192
-0.995299, 187, 145, 202, 208
-0.995301, 33, 313, 288, 375
-0.995335, 381, 241, 396, 304
-0.995359, 113, 113, 240, 144
-0.995364, 123, 41, 138, 104
-0.995379, 235, 129, 250, 192
-0.995397, 183, 33, 198, 96
-0.995399, 161, 241, 288, 304
-0.995407, 157, 145, 172, 208
-0.99549, 289, 153, 352, 216
-0.995515, 163, 33, 178, 96
-0.995516, 229, 129, 244, 192
-0.995517, 169, 1, 200, 256
-0.995551, 75, 121, 90, 184
-0.995552, 105, 41, 120, 104
-0.995555, 425, 257, 488, 320
-0.99558, 373, 241, 388, 304
-0.995582, 129, 209, 256, 240
-0.995589, 139, 129, 154, 192
-0.995592, 1, 209, 256, 272
-0.995604, 215, 49, 230, 112
-0.99562, 1, 201, 500, 264
-0.995622, 223, 129, 238, 192
-0.995629, 369, 273, 384, 336
-0.995641, 137, 1, 168, 256
-0.995658, 65, 105, 80, 168
-0.99566, 375, 209, 390, 272
-0.995665, 49, 69, 176, 100
-0.995683, 203, 129, 218, 192
-0.995693, 151, 137, 166, 200
-0.99571, 177, 173, 304, 204
-0.995764, 261, 17, 292, 144
-0.99579, 1, 281, 500, 344
-0.995793, 145, 193, 272, 224
-0.995795, 217, 129, 232, 192
-0.995809, 101, 113, 132, 240
-0.995818, 121, 289, 184, 352
-0.995843, 163, 113, 178, 176
-0.995851, 173, 17, 188, 80
-0.995856, 93, 217, 108, 280
-0.995864, 237, 49, 252, 112
-0.995864, 131, 105, 146, 168
-0.995883, 105, 233, 120, 296
-0.995889, 211, 129, 226, 192
-0.995889, 99, 233, 114, 296
-0.995889, 385, 305, 448, 368
-0.995913, 217, 33, 248, 288
-0.995919, 289, 281, 416, 312
-0.995959, 249, 33, 312, 96
-0.995962, 251, 57, 266, 120
-0.995973, 313, 129, 376, 375
-0.99598, 193, 1, 224, 256
-0.995989, 369, 121, 496, 184
-0.995991, 257, 65, 272, 128
-0.995993, 65, 213, 192, 244
-0.996002, 375, 273, 390, 336
-0.996006, 133, 129, 148, 192
-0.996008, 337, 205, 464, 236
-0.996012, 273, 177, 336, 304
-0.99603, 45, 193, 76, 320
-0.99607, 417, 1, 480, 375
-0.996089, 111, 233, 126, 296
-0.996102, 321, 245, 448, 276
-0.996108, 253, 89, 268, 152
-0.996113, 109, 65, 124, 128
-0.996132, 17, 129, 144, 160
-0.996158, 117, 217, 132, 280
-0.996186, 391, 201, 406, 264
-0.996199, 113, 81, 240, 112
-0.996204, 1, 257, 64, 320
-0.996207, 57, 313, 120, 375
-0.996222, 65, 17, 320, 80
-0.996223, 219, 265, 234, 328
-0.99623, 225, 185, 352, 216
-0.996233, 65, 169, 192, 200
-0.996253, 337, 229, 464, 260
-0.996255, 257, 137, 500, 200
-0.996275, 145, 161, 272, 192
-0.996279, 361, 201, 376, 264
-0.996283, 87, 225, 102, 288
-0.996285, 185, 177, 200, 240
-0.996297, 289, 213, 416, 244
-0.996339, 257, 233, 500, 296
-0.996344, 65, 241, 96, 368
-0.996348, 289, 225, 416, 256
-0.996353, 75, 145, 90, 208
-0.996363, 237, 193, 252, 256
-0.99638, 83, 121, 98, 184
-0.996387, 121, 121, 136, 184
-0.996387, 227, 281, 242, 344
-0.996394, 241, 117, 368, 148
-0.996394, 241, 157, 368, 188
-0.996407, 49, 1, 112, 128
-0.996408, 417, 145, 448, 272
-0.996419, 387, 233, 402, 296
-0.996419, 361, 241, 376, 304
-0.996422, 123, 217, 138, 280
-0.996427, 129, 281, 256, 312
-0.996439, 209, 65, 336, 96
-0.996444, 243, 65, 258, 128
-0.996455, 127, 129, 142, 192
-0.996459, 85, 33, 116, 288
-0.996482, 433, 137, 496, 200
-0.996492, 421, 241, 452, 368
-0.996496, 161, 81, 288, 112
-0.996504, 225, 129, 352, 160
-0.996514, 247, 185, 262, 248
-0.996526, 401, 225, 464, 288
-0.996528, 125, 97, 156, 352
-0.996538, 129, 137, 256, 168
-0.996539, 193, 97, 224, 352
-0.996556, 221, 105, 236, 168
-0.996559, 129, 217, 144, 280
-0.99656, 161, 65, 288, 96
-0.996562, 337, 285, 464, 316
-0.996581, 81, 225, 96, 288
-0.996594, 209, 233, 336, 296
-0.996611, 181, 113, 196, 176
-0.996613, 77, 241, 108, 368
-0.996626, 241, 105, 368, 136
-0.996627, 205, 97, 236, 352
-0.996629, 97, 25, 224, 56
-0.99663, 115, 121, 130, 184
-0.99664, 91, 57, 106, 120
-0.996645, 225, 173, 352, 204
-0.996652, 249, 153, 264, 216
-0.996661, 191, 185, 206, 248
-0.996671, 183, 89, 198, 152
-0.996672, 209, 205, 336, 236
-0.996674, 63, 81, 78, 144
-0.996678, 241, 89, 368, 120
-0.996688, 267, 129, 282, 192
-0.996695, 81, 65, 96, 128
-0.996708, 363, 273, 378, 336
-0.996727, 113, 249, 240, 280
-0.996731, 113, 1, 144, 256
-0.996733, 129, 261, 256, 292
-0.996736, 57, 289, 120, 352
-0.996765, 145, 49, 272, 80
-0.996769, 119, 241, 134, 304
-0.99677, 95, 121, 110, 184
-0.996771, 205, 1, 236, 256
-0.996773, 157, 217, 172, 280
-0.996778, 193, 305, 448, 368
-0.996788, 341, 225, 372, 352
-0.996807, 229, 89, 244, 152
-0.996816, 75, 225, 90, 288
-0.996816, 229, 33, 244, 96
-0.996818, 89, 121, 104, 184
-0.996835, 87, 193, 102, 256
-0.996841, 57, 49, 88, 176
-0.996846, 93, 241, 108, 304
-0.996847, 133, 33, 148, 96
-0.996861, 125, 241, 140, 304
-0.996879, 103, 121, 118, 184
-0.996882, 137, 97, 168, 352
-0.996895, 257, 177, 500, 240
-0.996898, 195, 137, 210, 200
-0.996905, 17, 1, 80, 375
-0.996921, 163, 89, 178, 152
-0.996927, 97, 181, 224, 212
-0.996948, 1, 313, 500, 375
-0.996949, 371, 281, 386, 312
-0.996957, 209, 45, 336, 76
-0.996983, 337, 217, 464, 248
-0.996984, 145, 221, 272, 252
-0.997001, 381, 273, 396, 336
-0.99701, 121, 145, 136, 208
-0.997016, 109, 121, 124, 184
-0.997031, 165, 97, 196, 352
-0.997032, 417, 97, 480, 352
-0.997042, 245, 105, 260, 168
-0.997047, 97, 49, 224, 80
-0.997055, 145, 293, 272, 324
-0.997059, 291, 177, 306, 240
-0.99706, 65, 157, 192, 188
-0.997082, 73, 65, 104, 320
-0.997107, 153, 313, 216, 375
-0.997111, 97, 41, 112, 104
-0.997126, 69, 225, 84, 288
-0.997128, 257, 89, 500, 152
-0.997138, 1, 257, 500, 320
-0.997148, 135, 65, 150, 128
-0.997149, 149, 217, 164, 280
-0.997149, 193, 217, 208, 280
-0.997158, 157, 177, 172, 240
-0.997158, 289, 89, 416, 152
-0.997159, 177, 29, 304, 60
-0.997163, 237, 33, 268, 288
-0.997163, 231, 209, 246, 272
-0.997166, 263, 73, 278, 136
-0.997167, 131, 185, 146, 248
-0.997173, 235, 105, 250, 168
-0.997174, 97, 225, 224, 256
-0.997192, 137, 201, 152, 264
-0.9972, 289, 281, 352, 344
-0.997211, 253, 177, 268, 240
-0.997231, 75, 193, 90, 256
-0.997268, 199, 185, 214, 248
-0.997277, 81, 201, 96, 264
-0.997277, 113, 149, 240, 180
-0.997281, 95, 193, 110, 256
-0.99729, 153, 125, 168, 156
-0.997301, 97, 313, 224, 375
-0.997303, 181, 97, 212, 352
-0.997331, 209, 293, 336, 324
-0.997331, 97, 33, 128, 288
-0.997339, 119, 73, 134, 104
-0.997366, 241, 145, 368, 176
-0.997368, 369, 241, 496, 272
-0.997375, 289, 201, 416, 232
-0.997378, 225, 81, 240, 112
-0.997381, 231, 73, 246, 104
-0.997383, 157, 113, 172, 144
-0.997396, 111, 65, 126, 96
-0.997405, 33, 225, 160, 256
-0.997434, 215, 89, 230, 120
-0.997443, 191, 113, 206, 144
-0.997445, 149, 97, 180, 352
-0.997446, 379, 285, 394, 316
-0.997453, 25, 313, 88, 375
-0.997454, 127, 81, 142, 112
-0.997455, 321, 1, 384, 375
-0.997456, 133, 89, 148, 120
-0.997459, 141, 97, 156, 128
-0.997466, 321, 257, 448, 288
-0.997478, 81, 281, 144, 344
-0.997482, 203, 101, 218, 132
-0.997485, 257, 149, 272, 180
-0.997488, 173, 45, 188, 76
-0.997493, 173, 65, 188, 96
-0.997512, 209, 93, 224, 124
-0.997513, 149, 105, 164, 136
-0.997517, 297, 177, 360, 304
-0.997522, 161, 9, 416, 72
-0.997528, 259, 137, 274, 168
-0.997535, 241, 225, 368, 352
-0.997536, 173, 77, 188, 108
-0.997574, 197, 105, 212, 136
-0.997601, 353, 273, 480, 304
-0.997602, 183, 41, 198, 72
-0.997604, 65, 1, 128, 64
-0.997628, 1, 225, 500, 288
-0.997643, 75, 145, 90, 176
-0.997668, 163, 37, 178, 68
-0.997671, 365, 281, 380, 312
-0.997673, 257, 165, 272, 196
-0.997676, 289, 293, 416, 324
-0.997692, 109, 53, 124, 84
-0.997722, 209, 277, 336, 308
-0.997725, 33, 193, 160, 224
-0.997725, 49, 249, 176, 280
-0.997726, 209, 217, 336, 248
-0.997727, 383, 245, 398, 276
-0.997735, 17, 53, 144, 84
-0.997738, 129, 317, 256, 348
-0.997745, 243, 137, 258, 168
-0.997747, 1, 81, 128, 112
-0.997748, 465, 145, 496, 272
-0.997754, 17, 129, 80, 375
-0.997762, 273, 41, 400, 104
-0.99777, 147, 133, 162, 164
-0.997777, 237, 69, 252, 100
-0.997786, 201, 117, 216, 148
-0.997792, 235, 137, 250, 168
-0.997794, 103, 57, 118, 88
-0.997795, 337, 193, 464, 224
-0.997799, 173, 89, 188, 120
-0.997803, 173, 105, 188, 136
-0.997808, 229, 61, 244, 92
-0.997818, 129, 305, 256, 336
-0.997822, 193, 129, 208, 160
-0.997824, 49, 265, 176, 296
-0.997825, 163, 121, 178, 152
-0.997833, 381, 209, 396, 240
-0.997861, 173, 29, 188, 60
-0.997863, 377, 245, 392, 276
-0.997864, 185, 117, 200, 148
-0.997866, 365, 129, 396, 375
-0.997871, 141, 133, 156, 164
-0.997877, 253, 137, 268, 168
-0.997892, 143, 113, 158, 144
-0.997895, 113, 69, 240, 100
-0.997899, 77, 65, 92, 96
-0.997903, 305, 1, 432, 128
-0.997906, 17, 33, 144, 64
-0.997908, 67, 81, 82, 112
-0.997912, 101, 41, 116, 72
-0.997921, 243, 77, 258, 108
-0.997943, 17, 213, 144, 244
-0.997945, 229, 137, 244, 168
-0.997955, 109, 37, 124, 68
-0.997955, 449, 193, 480, 320
-0.997958, 369, 245, 384, 276
-0.997968, 365, 209, 380, 240
-0.997974, 241, 1, 368, 64
-0.997996, 177, 305, 304, 336
-0.998, 363, 241, 378, 272
-0.998008, 259, 77, 274, 108
-0.998031, 135, 133, 150, 164
-0.998032, 361, 305, 424, 368
-0.99804, 61, 117, 76, 148
-0.99804, 217, 133, 232, 164
-0.998049, 159, 145, 174, 176
-0.998054, 257, 237, 384, 268
-0.998056, 97, 193, 224, 224
-0.998058, 209, 133, 224, 164
-0.998058, 201, 133, 216, 164
-0.998059, 63, 93, 78, 124
-0.998065, 193, 161, 320, 192
-0.998066, 115, 45, 130, 76
-0.998073, 77, 81, 92, 112
-0.998075, 83, 73, 98, 104
-0.998076, 99, 129, 114, 160
-0.998076, 145, 329, 272, 360
-0.998087, 223, 133, 238, 164
-0.998087, 385, 285, 400, 316
-0.998093, 9, 185, 72, 248
-0.998095, 337, 297, 464, 328
-0.998102, 119, 129, 134, 160
-0.998104, 209, 317, 336, 348
-0.998105, 75, 129, 90, 160
-0.998108, 221, 277, 236, 308
-0.998124, 109, 129, 124, 160
-0.99813, 91, 53, 106, 84
-0.998134, 383, 233, 398, 264
-0.998137, 249, 193, 264, 224
-0.998149, 93, 65, 108, 96
-0.998158, 369, 261, 496, 292
-0.998159, 61, 65, 92, 320
-0.998168, 239, 201, 254, 232
-0.998174, 127, 129, 142, 160
-0.998178, 251, 149, 266, 180
-0.998182, 367, 297, 382, 328
-0.998197, 1, 113, 128, 144
-0.998204, 223, 57, 238, 88
-0.998204, 93, 129, 108, 160
-0.99821, 213, 33, 228, 64
-0.998212, 117, 33, 132, 64
-0.998212, 187, 149, 202, 180
-0.998218, 259, 117, 274, 148
-0.99822, 233, 209, 248, 240
-0.998222, 123, 29, 138, 60
-0.998225, 253, 65, 268, 96
-0.998229, 71, 69, 86, 100
-0.998232, 85, 61, 100, 92
-0.998233, 239, 57, 254, 88
-0.998235, 17, 161, 144, 192
-0.998235, 85, 145, 100, 176
-0.998237, 221, 93, 236, 124
-0.998241, 97, 145, 112, 176
-0.998241, 83, 129, 98, 160
-0.998244, 183, 105, 198, 136
-0.998249, 155, 209, 170, 240
-0.998251, 69, 129, 84, 160
-0.998261, 89, 129, 120, 375
-0.998261, 231, 85, 246, 116
-0.998263, 219, 37, 234, 68
-0.99828, 71, 109, 86, 140
-0.99828, 249, 65, 280, 320
-0.99829, 125, 213, 140, 244
-0.998291, 49, 181, 176, 212
-0.998293, 1, 265, 128, 296
-0.998294, 203, 29, 218, 60
-0.998304, 273, 169, 400, 200
-0.998309, 207, 113, 222, 144
-0.998313, 113, 81, 128, 112
-0.998321, 145, 345, 272, 375
-0.998324, 17, 145, 144, 176
-0.99833, 357, 277, 372, 308
-0.998335, 377, 273, 392, 304
-0.998337, 163, 105, 178, 136
-0.998338, 159, 133, 174, 164
-0.998342, 233, 45, 248, 76
-0.998345, 227, 289, 242, 320
-0.998346, 225, 41, 240, 72
-0.998347, 249, 115, 280, 130
-0.998347, 169, 183, 200, 198
-0.998348, 265, 121, 296, 136
-0.998348, 101, 77, 132, 92
-0.998349, 225, 299, 256, 314
-0.998351, 205, 87, 236, 102
-0.998352, 181, 223, 212, 238
-0.998352, 233, 215, 264, 230
-0.998352, 101, 129, 132, 375
-0.998353, 105, 73, 120, 104
-0.998353, 81, 63, 112, 78
-0.998354, 73, 71, 104, 86
-0.998355, 237, 187, 268, 202
-0.998356, 153, 123, 184, 138
-0.998357, 345, 239, 376, 254
-0.998357, 141, 221, 172, 236
-0.998358, 253, 183, 284, 198
-0.998359, 259, 105, 274, 136
-0.99836, 73, 221, 104, 236
-0.99836, 157, 45, 188, 60
-0.998363, 213, 223, 244, 238
-0.998363, 133, 25, 148, 56
-0.998363, 113, 73, 144, 88
-0.998364, 129, 219, 160, 234
-0.998364, 193, 45, 224, 60
-0.998364, 109, 51, 140, 66
-0.998365, 149, 177, 180, 192
-0.998365, 373, 293, 388, 324
-0.998366, 105, 65, 136, 80
-0.998366, 365, 225, 396, 240
-0.998367, 217, 65, 248, 80
-0.998367, 181, 97, 212, 112
-0.998368, 391, 205, 406, 236
-0.998369, 251, 85, 266, 116
-0.99837, 433, 241, 464, 368
-0.99837, 217, 77, 248, 92
-0.998371, 143, 37, 158, 68
-0.998371, 157, 91, 188, 106
-0.998371, 85, 75, 116, 90
-0.998373, 105, 221, 136, 236
-0.998374, 157, 51, 188, 66
-0.998375, 209, 41, 240, 56
-0.998375, 365, 297, 396, 312
-0.998375, 253, 189, 284, 204
-0.998375, 117, 35, 148, 50
-0.998375, 133, 95, 164, 110
-0.998375, 357, 245, 388, 260
-0.998377, 181, 37, 212, 52
-0.998378, 365, 231, 396, 246
-0.998378, 157, 85, 188, 100
-0.998378, 165, 147, 196, 162
-0.998379, 149, 97, 180, 112
-0.998379, 169, 33, 200, 48
-0.99838, 221, 197, 252, 212
-0.99838, 157, 57, 188, 72
-0.998381, 257, 165, 288, 180
-0.998381, 249, 139, 280, 154
-0.998382, 249, 129, 280, 144
-0.998383, 381, 291, 412, 306
-0.998383, 141, 105, 172, 120
-0.998384, 193, 101, 224, 116
-0.998384, 157, 63, 188, 78
-0.998384, 145, 147, 176, 162
-0.998385, 165, 219, 196, 234
-0.998385, 257, 177, 272, 208
-0.998386, 165, 177, 196, 192
-0.998387, 213, 217, 244, 232
-0.998387, 125, 41, 156, 56
-0.998388, 157, 71, 188, 86
-0.998389, 193, 127, 224, 142
-0.99839, 157, 79, 188, 94
-0.99839, 209, 289, 240, 304
-0.99839, 201, 93, 232, 108
-0.998391, 361, 291, 392, 306
-0.998392, 141, 117, 172, 132
-0.998393, 247, 181, 262, 212
-0.998395, 185, 217, 216, 232
-0.998397, 93, 221, 124, 236
-0.998398, 209, 89, 272, 104
-0.998399, 69, 93, 84, 124
-0.998399, 289, 189, 416, 220
-0.998399, 397, 199, 428, 214
-0.9984, 453, 129, 484, 256
-0.9984, 125, 87, 156, 102
-0.998401, 263, 153, 278, 184
-0.998404, 217, 83, 248, 98
-0.998405, 189, 119, 220, 134
-0.998405, 249, 83, 280, 98
-0.998408, 137, 39, 168, 54
-0.99841, 113, 45, 144, 60
-0.998411, 357, 229, 372, 260
-0.998412, 137, 111, 168, 126
-0.998412, 129, 101, 160, 116
-0.998414, 337, 81, 464, 144
-0.998414, 191, 25, 206, 56
-0.998414, 93, 45, 124, 60
-0.998415, 137, 125, 168, 140
-0.998416, 63, 105, 78, 136
-0.998416, 129, 41, 144, 72
-0.998417, 345, 279, 376, 294
-0.99842, 221, 49, 252, 64
-0.998422, 365, 219, 396, 234
-0.998422, 237, 69, 268, 84
-0.998426, 233, 59, 264, 74
-0.998426, 105, 39, 136, 54
-0.998428, 229, 75, 260, 90
-0.998431, 169, 93, 200, 108
-0.998432, 209, 95, 272, 110
-0.998432, 89, 55, 120, 70
-0.998434, 101, 71, 132, 86
-0.998436, 73, 77, 136, 92
-0.998436, 169, 47, 200, 62
-0.998438, 121, 93, 152, 108
-0.998438, 249, 77, 280, 92
-0.998442, 169, 53, 200, 68
-0.998445, 193, 113, 224, 128
-0.998446, 113, 79, 144, 94
-0.998446, 177, 103, 208, 118
-0.998447, 169, 59, 200, 74
-0.998449, 369, 237, 400, 252
-0.998451, 165, 159, 196, 174
-0.998452, 113, 85, 144, 100
-0.998452, 1, 65, 128, 96
-0.998453, 137, 39, 200, 54
-0.998454, 165, 153, 196, 168
-0.998454, 165, 165, 196, 180
-0.998456, 93, 63, 124, 78
-0.998457, 157, 103, 188, 118
-0.998457, 169, 65, 200, 80
-0.998457, 345, 213, 408, 228
-0.998458, 113, 97, 144, 352
-0.998458, 169, 87, 200, 102
-0.998459, 169, 77, 200, 92
-0.998461, 73, 71, 136, 86
-0.998463, 165, 171, 196, 186
-0.998463, 169, 71, 200, 86
-0.998464, 369, 247, 400, 262
-0.998464, 149, 111, 180, 126
-0.998467, 177, 95, 240, 110
-0.99847, 185, 149, 216, 164
-0.998471, 165, 125, 196, 140
-0.998472, 73, 145, 104, 160
-0.998474, 197, 107, 228, 122
-0.998478, 217, 83, 280, 98
-0.998482, 153, 113, 216, 128
-0.998484, 177, 87, 240, 102
-0.998484, 161, 43, 224, 58
-0.998485, 205, 99, 236, 114
-0.998486, 161, 109, 192, 124
-0.998486, 181, 111, 212, 126
-0.998486, 337, 285, 400, 300
-0.998491, 217, 89, 248, 104
-0.998493, 345, 221, 408, 236
-0.998499, 177, 49, 240, 64
-0.998499, 353, 235, 416, 250
-0.998499, 177, 103, 240, 118
-0.998504, 245, 151, 276, 166
-0.998504, 367, 193, 382, 320
-0.998506, 353, 229, 416, 244
-0.99851, 121, 95, 184, 110
-0.998511, 65, 145, 128, 160
-0.998513, 149, 39, 180, 54
-0.998513, 73, 65, 136, 80
-0.998517, 217, 151, 280, 166
-0.998519, 137, 103, 200, 118
-0.998521, 233, 87, 264, 102
-0.998522, 337, 157, 464, 188
-0.998524, 217, 101, 280, 116
-0.998528, 177, 55, 240, 70
-0.998529, 345, 241, 408, 256
-0.998529, 225, 77, 288, 92
-0.99853, 145, 125, 208, 140
-0.998532, 225, 129, 256, 375
-0.998533, 177, 149, 240, 164
-0.998535, 73, 83, 136, 98
-0.998535, 137, 171, 200, 186
-0.998539, 121, 85, 184, 100
-0.998546, 161, 241, 288, 272
-0.998548, 353, 291, 416, 306
-0.998549, 181, 43, 212, 58
-0.998549, 229, 81, 260, 96
-0.998549, 169, 41, 200, 56
-0.998551, 85, 69, 116, 84
-0.998555, 165, 115, 196, 130
-0.998555, 353, 247, 416, 262
-0.998556, 249, 183, 312, 198
-0.998559, 377, 243, 440, 258
-0.998563, 145, 131, 208, 146
-0.998564, 137, 177, 200, 192
-0.998564, 377, 193, 392, 320
-0.998565, 183, 33, 198, 160
-0.998565, 177, 117, 208, 132
-0.998566, 153, 149, 216, 164
-0.998573, 153, 117, 184, 132
-0.998573, 125, 33, 140, 160
-0.998574, 121, 79, 184, 94
-0.998577, 177, 81, 240, 96
-0.998579, 177, 109, 240, 124
-0.998581, 225, 129, 288, 144
-0.998584, 97, 93, 160, 108
-0.998584, 145, 119, 208, 134
-0.998586, 57, 163, 120, 178
-0.998586, 65, 221, 128, 236
-0.998587, 113, 147, 176, 162
-0.998588, 225, 71, 288, 86
-0.998593, 185, 217, 248, 232
-0.998596, 89, 169, 152, 184
-0.998596, 137, 165, 200, 180
-0.998598, 241, 189, 304, 204
-0.998599, 105, 101, 168, 116
-0.998599, 113, 41, 176, 56
-0.9986, 249, 167, 312, 182
-0.998601, 1, 253, 128, 284
-0.998602, 257, 121, 320, 136
-0.998603, 209, 265, 336, 296
-0.998605, 113, 111, 176, 126
-0.998605, 145, 217, 208, 232
-0.998605, 185, 223, 248, 238
-0.998606, 65, 169, 128, 184
-0.998608, 105, 221, 168, 236
-0.998611, 57, 175, 120, 190
-0.998612, 185, 129, 248, 144
-0.998612, 225, 139, 288, 154
-0.998613, 257, 107, 320, 122
-0.998614, 377, 205, 440, 220
-0.998615, 113, 123, 176, 138
-0.998617, 365, 211, 396, 226
-0.998618, 257, 129, 320, 144
-0.998619, 177, 35, 240, 50
-0.99862, 97, 87, 160, 102
-0.99862, 377, 237, 440, 252
-0.99862, 97, 69, 160, 84
-0.998621, 105, 33, 168, 48
-0.998621, 225, 115, 288, 130
-0.998622, 313, 289, 376, 304
-0.998624, 249, 177, 312, 192
-0.998624, 57, 131, 120, 146
-0.998626, 249, 161, 312, 176
-0.998626, 377, 229, 440, 244
-0.998626, 177, 75, 240, 90
-0.998626, 65, 59, 128, 74
-0.998626, 209, 333, 336, 364
-0.998627, 193, 197, 256, 212
-0.998628, 153, 157, 216, 172
-0.998628, 225, 121, 288, 136
-0.998628, 121, 73, 184, 88
-0.998629, 157, 97, 172, 224
-0.99863, 361, 97, 424, 224
-0.99863, 185, 211, 248, 226
-0.99863, 73, 89, 136, 104
-0.998631, 361, 259, 424, 274
-0.998631, 257, 115, 320, 130
-0.998631, 377, 215, 440, 230
-0.998632, 337, 297, 400, 312
-0.998633, 57, 157, 120, 172
-0.998634, 345, 207, 408, 222
-0.998634, 313, 281, 376, 296
-0.998635, 57, 227, 120, 242
-0.998636, 361, 285, 424, 300
-0.998636, 257, 101, 320, 116
-0.998636, 177, 293, 240, 308
-0.998636, 33, 321, 160, 352
-0.998638, 377, 223, 440, 238
-0.998638, 209, 107, 272, 122
-0.998639, 201, 43, 264, 58
-0.99864, 337, 173, 464, 204
-0.99864, 241, 83, 304, 98
-0.998641, 185, 137, 248, 152
-0.998642, 241, 195, 304, 210
-0.998643, 217, 53, 280, 68
-0.998644, 89, 45, 152, 60
-0.998646, 225, 59, 288, 74
-0.998646, 321, 241, 384, 256
-0.998647, 185, 287, 248, 302
-0.998647, 257, 155, 320, 170
-0.998647, 57, 99, 120, 114
-0.998649, 113, 175, 176, 190
-0.998649, 97, 75, 160, 90
-0.998649, 225, 215, 288, 230
-0.99865, 201, 191, 264, 206
-0.99865, 257, 135, 320, 150
-0.998651, 257, 149, 320, 164
-0.998651, 177, 61, 240, 76
-0.998651, 401, 253, 464, 268
-0.998652, 337, 279, 400, 294
-0.998654, 153, 223, 216, 238
-0.998654, 185, 281, 248, 296
-0.998654, 145, 17, 272, 48
-0.998655, 57, 251, 120, 266
-0.998655, 201, 77, 264, 92
-0.998656, 113, 131, 176, 146
-0.998658, 41, 221, 104, 236
-0.998659, 249, 95, 312, 110
-0.998659, 185, 119, 248, 134
-0.998659, 81, 39, 144, 54
-0.99866, 321, 231, 384, 246
-0.998671, 65, 301, 192, 332
-0.998677, 365, 285, 396, 300
-0.998697, 1, 305, 128, 336
-0.998701, 191, 97, 206, 224
-0.998712, 289, 269, 416, 300
-0.998722, 1, 173, 128, 204
-0.998732, 209, 345, 336, 375
-0.998751, 111, 17, 126, 144
-0.998764, 361, 137, 424, 200
-0.998765, 437, 129, 468, 256
-0.998768, 163, 17, 178, 144
-0.998769, 49, 285, 176, 316
-0.998774, 75, 65, 90, 192
-0.998813, 1, 93, 128, 124
-0.998815, 383, 209, 398, 336
-0.998823, 353, 57, 480, 120
-0.998823, 353, 313, 480, 375
-0.998855, 257, 97, 272, 224
-0.998856, 257, 77, 384, 108
-0.998857, 297, 257, 360, 320
-0.99886, 369, 145, 496, 176
-0.998862, 81, 65, 96, 192
-0.998868, 261, 33, 292, 288
-0.99887, 173, 33, 188, 160
-0.998876, 361, 209, 376, 336
-0.998915, 213, 33, 228, 160
-0.998915, 119, 33, 134, 160
-0.99893, 235, 49, 250, 176
-0.998932, 217, 209, 232, 336
-0.998945, 195, 33, 210, 160
-0.998946, 197, 97, 212, 224
-0.998946, 151, 97, 166, 224
-0.998951, 49, 21, 176, 52
-0.998956, 225, 33, 240, 160
-0.998964, 135, 17, 150, 144
-0.998971, 151, 17, 166, 144
-0.998974, 225, 97, 240, 224
-0.998989, 249, 9, 312, 72
-0.998998, 145, 17, 160, 144
-0.999008, 201, 33, 216, 160
-0.999013, 185, 97, 200, 224
-0.999025, 89, 49, 104, 176
-0.999029, 163, 97, 178, 224
-0.999032, 227, 209, 242, 336
-0.999044, 321, 121, 448, 184
-0.999046, 289, 17, 416, 80
-0.99905, 157, 209, 172, 336
-0.999051, 219, 33, 234, 160
-0.999058, 259, 145, 274, 272
-0.999067, 369, 241, 384, 368
-0.999067, 211, 209, 226, 336
-0.999067, 207, 17, 222, 144
-0.999071, 131, 209, 146, 336
-0.999073, 201, 209, 216, 336
-0.999078, 69, 65, 84, 192
-0.999079, 33, 333, 160, 364
-0.99908, 189, 33, 204, 160
-0.999082, 195, 209, 210, 336
-0.999087, 185, 161, 200, 288
-0.999087, 161, 145, 176, 272
-0.999091, 143, 209, 158, 336
-0.999103, 97, 49, 112, 176
-0.999107, 187, 209, 202, 336
-0.999113, 105, 33, 120, 160
-0.999115, 245, 65, 260, 192
-0.99912, 237, 129, 268, 375
-0.999123, 149, 209, 164, 336
-0.999125, 193, 253, 320, 284
-0.999126, 125, 209, 140, 336
-0.999135, 219, 97, 234, 224
-0.999136, 1, 9, 500, 72
-0.999137, 353, 313, 480, 344
-0.999138, 137, 177, 152, 304
-0.999141, 259, 49, 274, 176
-0.999159, 117, 209, 132, 336
-0.999165, 389, 225, 420, 352
-0.999168, 113, 65, 128, 192
-0.999177, 273, 253, 400, 284
-0.999183, 167, 177, 182, 304
-0.99919, 131, 65, 146, 192
-0.999195, 145, 81, 160, 208
-0.999202, 1, 293, 128, 324
-0.999206, 263, 97, 278, 224
-0.999213, 237, 129, 252, 256
-0.999214, 251, 81, 266, 208
-0.999216, 179, 177, 194, 304
-0.999216, 63, 81, 78, 208
-0.999218, 245, 177, 260, 304
-0.999219, 231, 97, 246, 224
-0.99922, 125, 97, 140, 224
-0.999222, 203, 81, 218, 208
-0.999222, 157, 17, 172, 144
-0.999233, 389, 193, 404, 320
-0.999235, 149, 145, 164, 272
-0.999239, 375, 241, 390, 368
-0.999247, 111, 209, 126, 336
-0.999253, 1, 277, 128, 308
-0.999258, 97, 13, 224, 44
-0.999264, 177, 97, 192, 224
-0.99927, 155, 145, 170, 272
-0.999276, 235, 193, 250, 320
-0.999278, 289, 157, 416, 188
-0.999286, 369, 145, 384, 272
-0.999293, 209, 81, 224, 208
-0.9993, 143, 145, 158, 272
-0.99932, 105, 209, 120, 336
-0.999327, 243, 129, 258, 256
-0.999329, 119, 81, 134, 208
-0.999342, 161, 5, 288, 36
-0.999343, 75, 113, 90, 240
-0.999345, 253, 145, 268, 272
-0.999346, 139, 65, 154, 192
-0.999347, 385, 97, 416, 352
-0.999347, 137, 129, 152, 256
-0.999358, 137, 225, 152, 352
-0.999366, 241, 17, 256, 144
-0.999367, 129, 145, 144, 272
-0.999369, 257, 65, 384, 96
-0.999375, 171, 81, 186, 208
-0.999381, 375, 145, 390, 272
-0.999391, 191, 161, 206, 288
-0.999392, 65, 129, 80, 256
-0.999402, 65, 237, 192, 268
-0.999404, 173, 177, 188, 304
-0.999406, 297, 145, 328, 272
-0.999411, 231, 145, 246, 272
-0.999415, 223, 145, 238, 272
-0.999445, 383, 161, 398, 288
-0.99946, 33, 345, 160, 375
-0.999462, 81, 17, 96, 144
-0.999462, 213, 129, 228, 256
-0.999469, 99, 209, 114, 336
-0.999469, 253, 17, 268, 144
-0.999475, 61, 193, 76, 320
-0.999476, 289, 141, 416, 172
-0.999494, 91, 97, 106, 224
-0.999501, 105, 97, 120, 224
-0.999508, 169, 129, 184, 256
-0.999508, 203, 129, 218, 256
-0.99951, 393, 129, 424, 256
-0.999515, 97, 97, 112, 224
-0.999515, 181, 225, 196, 352
-0.999517, 395, 177, 410, 304
-0.99952, 165, 225, 180, 352
-0.999522, 273, 177, 304, 304
-0.999528, 429, 209, 444, 336
-0.999533, 289, 145, 304, 272
-0.999533, 71, 193, 86, 320
-0.999537, 305, 305, 432, 368
-0.99954, 289, 129, 416, 160
-0.999544, 117, 145, 132, 272
-0.999546, 267, 159, 282, 174
-0.999547, 235, 213, 250, 228
-0.999547, 235, 85, 250, 100
-0.999548, 107, 43, 122, 58
-0.999549, 75, 227, 90, 242
-0.999549, 139, 111, 154, 126
-0.999549, 359, 239, 374, 254
-0.999551, 77, 249, 92, 264
-0.999551, 227, 297, 242, 312
-0.999552, 131, 171, 146, 186
-0.999552, 257, 171, 272, 186
-0.999552, 391, 233, 406, 248
-0.999552, 197, 161, 212, 288
-0.999552, 133, 221, 148, 236
-0.999552, 129, 101, 144, 116
-0.999553, 241, 65, 256, 80
-0.999554, 237, 205, 252, 220
-0.999554, 191, 43, 206, 58
-0.999555, 391, 239, 406, 254
-0.999555, 105, 75, 120, 90
-0.999555, 197, 45, 212, 60
-0.999555, 355, 193, 370, 320
-0.999555, 111, 161, 126, 288
-0.999556, 227, 93, 242, 108
-0.999558, 295, 187, 310, 202
-0.999558, 123, 145, 138, 272
-0.999559, 389, 145, 404, 272
-0.999559, 397, 129, 428, 375
-0.999559, 261, 129, 276, 144
-0.99956, 87, 71, 102, 86
-0.99956, 165, 113, 180, 128
-0.99956, 259, 139, 274, 154
-0.999561, 241, 193, 256, 208
-0.999561, 141, 219, 156, 234
-0.999561, 377, 247, 392, 262
-0.999562, 91, 221, 106, 236
-0.999562, 201, 117, 216, 132
-0.999562, 367, 291, 382, 306
-0.999565, 141, 39, 156, 54
-0.999566, 225, 223, 240, 238
-0.999566, 189, 217, 204, 232
-0.999567, 369, 297, 384, 312
-0.999567, 101, 55, 116, 70
-0.999567, 147, 39, 162, 54
-0.99957, 157, 219, 172, 234
-0.99957, 207, 49, 222, 64
-0.99957, 101, 223, 116, 238
-0.999572, 135, 41, 150, 56
-0.999572, 107, 221, 122, 236
-0.999573, 219, 101, 234, 116
-0.999573, 81, 113, 96, 240
-0.999573, 75, 221, 90, 236
-0.999573, 193, 17, 320, 48
-0.999574, 249, 197, 264, 212
-0.999574, 61, 113, 76, 128
-0.999575, 73, 155, 88, 170
-0.999575, 207, 113, 222, 128
-0.999576, 65, 99, 80, 114
-0.999576, 435, 193, 450, 320
-0.999577, 101, 47, 116, 62
-0.999577, 367, 285, 382, 300
-0.999577, 127, 43, 142, 58
-0.999577, 221, 57, 236, 72
-0.999577, 159, 149, 174, 164
-0.999578, 99, 167, 114, 182
-0.999578, 213, 107, 228, 122
-0.999579, 385, 287, 400, 302
-0.999579, 269, 81, 284, 208
-0.999579, 83, 221, 98, 236
-0.999581, 119, 47, 134, 62
-0.999582, 181, 113, 196, 128
-0.999582, 199, 105, 214, 120
-0.999583, 349, 241, 364, 368
-0.999583, 63, 105, 78, 120
-0.999585, 371, 247, 386, 262
-0.999585, 173, 111, 188, 126
-0.999585, 223, 287, 238, 302
-0.999586, 259, 87, 274, 102
-0.999587, 93, 193, 108, 320
-0.999587, 381, 293, 396, 308
-0.999588, 215, 53, 230, 68
-0.999588, 89, 57, 104, 72
-0.999588, 361, 161, 376, 288
-0.999591, 89, 145, 104, 272
-0.999591, 67, 93, 82, 108
-0.999592, 61, 121, 76, 136
-0.999596, 375, 297, 390, 312
-0.999596, 383, 241, 398, 256
-0.999598, 433, 97, 496, 224
-0.999598, 69, 85, 84, 100
-0.999599, 373, 285, 388, 300
-0.999601, 243, 201, 258, 216
-0.999601, 153, 111, 168, 126
-0.999602, 101, 161, 116, 288
-0.999605, 247, 17, 262, 144
-0.999608, 163, 123, 178, 138
-0.99961, 173, 37, 188, 52
-0.99961, 153, 127, 168, 142
-0.999611, 79, 193, 94, 320
-0.999612, 73, 17, 88, 144
-0.999612, 173, 105, 188, 120
-0.999616, 353, 1, 480, 64
-0.999616, 231, 65, 246, 80
-0.999622, 193, 127, 208, 142
-0.999622, 225, 29, 352, 60
-0.999626, 187, 149, 202, 164
-0.999628, 173, 117, 188, 132
-0.999628, 73, 77, 88, 92
-0.999628, 183, 121, 198, 136
-0.99963, 383, 249, 398, 264
-0.999633, 173, 99, 188, 114
-0.999639, 365, 245, 380, 260
-0.999642, 83, 63, 98, 78
-0.999642, 259, 151, 274, 166
-0.999643, 365, 211, 380, 226
-0.999645, 111, 51, 126, 66
-0.999647, 75, 145, 90, 160
-0.999647, 259, 165, 274, 180
-0.999648, 49, 129, 80, 375
-0.999649, 173, 93, 188, 108
-0.999649, 163, 39, 178, 54
-0.999652, 121, 79, 136, 94
-0.999652, 79, 69, 94, 84
-0.999654, 197, 111, 212, 126
-0.999656, 189, 117, 204, 132
-0.999658, 205, 103, 220, 118
-0.999658, 379, 285, 394, 300
-0.99966, 157, 117, 172, 132
-0.999662, 211, 97, 226, 112
-0.999662, 381, 211, 396, 226
-0.999663, 129, 87, 144, 102
-0.999666, 115, 73, 130, 88
-0.999667, 147, 107, 162, 122
-0.999669, 141, 101, 156, 116
-0.99967, 173, 87, 188, 102
-0.99967, 105, 61, 120, 76
-0.999671, 173, 45, 188, 60
-0.999672, 217, 91, 232, 106
-0.999673, 135, 93, 150, 108
-0.999677, 173, 51, 188, 66
-0.999679, 235, 73, 250, 88
-0.999684, 109, 67, 124, 82
-0.999685, 173, 81, 188, 96
-0.999685, 173, 57, 188, 72
-0.999686, 173, 69, 188, 84
-0.999687, 95, 67, 110, 82
-0.999689, 223, 85, 238, 100
-0.999692, 173, 63, 188, 78
-0.999692, 243, 81, 258, 96
-0.999694, 173, 75, 188, 90
-0.999702, 229, 79, 244, 94
-0.999711, 183, 41, 198, 56
-0.999748, 297, 1, 360, 375
-0.999797, 345, 129, 376, 375
-0.999801, 41, 241, 72, 368
-0.999808, 393, 33, 456, 288
-0.999882, 365, 33, 396, 288
-0.999892, 353, 33, 480, 96
-0.999937, 397, 33, 428, 288
-1.00013, 417, 97, 448, 352
-1.00019, 329, 241, 360, 368
-1.00023, 261, 129, 292, 375
-1.00026, 337, 177, 368, 304
-1.00026, 37, 129, 68, 375
-1.00027, 405, 129, 436, 256
-1.00027, 429, 97, 460, 352
-1.00041, 441, 129, 472, 375
-1.00042, 353, 1, 480, 128
-1.00043, 1, 1, 128, 64
-1.00046, 261, 161, 292, 288
-1.00048, 289, 81, 352, 208
-1.00052, 457, 97, 488, 352
-1.00052, 461, 193, 492, 320
-1.00053, 285, 129, 316, 375
-1.00061, 377, 1, 408, 256
-1.00064, 409, 1, 440, 256
-1.00066, 409, 241, 440, 368
-1.00068, 313, 129, 376, 256
-1.0007, 469, 129, 500, 375
-1.00072, 49, 33, 80, 288
-1.00072, 257, 313, 384, 375
-1.00076, 281, 1, 312, 256
-1.00082, 349, 1, 380, 256
-1.00083, 25, 129, 56, 375
-1.00084, 441, 33, 472, 288
-1.00087, 301, 129, 332, 375
-1.00087, 469, 33, 500, 288
-1.00089, 257, 1, 500, 64
-1.00093, 1, 129, 32, 375
-1.00095, 13, 129, 44, 375
-1.00095, 453, 1, 484, 256
-1.00099, 421, 1, 452, 256
-1.00111, 301, 33, 332, 288
-1.00119, 329, 129, 360, 375
-1.00122, 381, 113, 412, 240
-1.00127, 273, 129, 304, 375
-1.00128, 281, 113, 312, 240
-1.00131, 313, 129, 344, 375
-1.00131, 37, 33, 68, 288
-1.00143, 337, 33, 368, 288
-1.00147, 317, 33, 348, 288
-1.00147, 45, 81, 76, 208
-1.00151, 17, 33, 80, 288
-1.00167, 21, 33, 52, 288
-1.0017, 1, 33, 32, 288
-1.00192, 9, 177, 72, 304
-1.00197, 29, 225, 60, 352
-1.00199, 401, 97, 464, 224
-1.00204, 9, 225, 40, 352
-1.00209, 49, 145, 80, 272
-1.00223, 317, 225, 348, 352
-1.00263, 453, 241, 484, 368
-1.00268, 61, 1, 92, 128
-1.00282, 457, 81, 488, 208
-1.00286, 353, 1, 416, 128
-1.00297, 297, 97, 328, 224
-1.00309, 465, 241, 496, 368
-1.00322, 353, 113, 384, 240
-1.00334, 245, 193, 276, 320
-1.00348, 37, 145, 68, 272
-1.00396, 369, 49, 432, 176
-1.004, 281, 129, 344, 375
-1.00403, 289, 1, 352, 128
-1.00406, 469, 49, 500, 176
-1.00407, 25, 177, 56, 304
-1.00411, 305, 225, 336, 352
-1.00413, 233, 241, 264, 368
-1.00416, 417, 1, 480, 256
-1.00422, 369, 65, 400, 192
-1.00425, 305, 1, 336, 128
-1.00435, 329, 17, 392, 144
-1.00442, 469, 97, 500, 224
-1.00446, 361, 1, 392, 128
-1.00454, 281, 1, 312, 128
-1.0046, 313, 33, 376, 288
-1.0047, 273, 1, 336, 256
-1.00476, 9, 129, 72, 256
-1.00484, 13, 177, 44, 304
-1.00503, 349, 1, 380, 128
-1.00507, 273, 225, 336, 352
-1.00515, 293, 225, 324, 352
-1.00525, 1, 177, 32, 304
-1.0054, 393, 49, 424, 176
-1.00561, 41, 33, 72, 160
-1.00566, 417, 97, 448, 224
-1.00568, 325, 177, 356, 304
-1.00574, 417, 49, 480, 176
-1.00577, 413, 33, 444, 160
-1.0058, 453, 17, 484, 144
-1.00626, 337, 65, 400, 192
-1.00642, 337, 1, 400, 256
-1.00675, 393, 49, 456, 176
-1.00735, 9, 65, 72, 192
-1.00786, 433, 1, 496, 128
-1.00799, 393, 1, 456, 128
-1.00863, 313, 65, 376, 192
-1.00925, 241, 241, 304, 368
-1.01234, 1, 1, 64, 128
