1974
-0.348052, 1, 1, 500, 375
-0.396931, 161, 1, 416, 375
-0.426088, 1, 1, 500, 256
-0.533223, 1, 129, 500, 375
-0.53569, 257, 1, 500, 375
-0.614737, 65, 1, 320, 375
-0.648995, 225, 1, 480, 256
-0.700717, 161, 97, 416, 352
-0.706466, 33, 129, 288, 375
-0.717178, 97, 1, 352, 256
-0.755754, 257, 97, 500, 352
-0.846149, 273, 1, 400, 375
-0.861585, 193, 1, 320, 375
-0.867694, 257, 1, 384, 256
-0.884231, 209, 33, 336, 288
-0.886825, 305, 33, 432, 288
-0.887476, 1, 225, 500, 352
-0.889671, 1, 1, 256, 256
-0.89143, 97, 129, 224, 375
-0.891497, 193, 129, 320, 375
-0.895627, 1, 17, 500, 144
-0.897541, 321, 1, 448, 375
-0.897774, 33, 129, 160, 375
-0.90237, 33, 209, 288, 336
-0.903333, 145, 1, 272, 375
-0.906579, 97, 1, 224, 375
-0.907451, 257, 97, 384, 352
-0.915284, 257, 49, 500, 176
-0.919224, 49, 1, 176, 375
-0.919594, 1, 177, 500, 304
-0.923535, 257, 1, 500, 128
-0.92556, 161, 1, 416, 128
-0.926162, 1, 81, 500, 208
-0.929226, 193, 209, 448, 336
-0.929944, 145, 129, 272, 375
-0.930495, 1, 33, 128, 288
-0.931123, 1, 129, 500, 256
-0.931194, 1, 1, 128, 375
-0.931283, 257, 1, 384, 128
-0.934981, 249, 1, 312, 128
-0.935418, 161, 1, 288, 256
-0.935974, 353, 129, 480, 375
-0.937288, 305, 129, 432, 375
-0.937591, 177, 225, 304, 352
-0.93773, 161, 49, 416, 176
-0.939268, 233, 241, 296, 368
-0.940139, 225, 225, 352, 352
-0.940769, 353, 1, 480, 256
-0.940875, 49, 33, 176, 288
-0.941072, 273, 1, 336, 128
-0.941347, 369, 1, 496, 375
-0.945032, 193, 1, 320, 128
-0.945058, 17, 225, 144, 352
-0.945714, 257, 225, 320, 352
-0.947487, 305, 1, 368, 128
-0.948499, 305, 49, 432, 176
-0.948509, 225, 1, 288, 128
-0.948753, 257, 49, 320, 176
-0.948805, 209, 241, 272, 368
-0.948841, 97, 33, 224, 288
-0.949247, 241, 49, 368, 176
-0.949458, 41, 225, 104, 352
-0.95061, 185, 241, 248, 368
-0.951298, 233, 41, 296, 104
-0.952203, 113, 241, 240, 368
-0.952814, 257, 97, 500, 224
-0.952871, 289, 49, 352, 176
-0.953504, 33, 161, 288, 288
-0.953534, 65, 1, 320, 128
-0.954247, 17, 225, 80, 352
-0.95476, 313, 49, 376, 176
-0.954763, 129, 161, 384, 288
-0.955379, 273, 209, 400, 336
-0.955994, 217, 193, 280, 320
-0.957039, 225, 265, 288, 328
-0.957049, 281, 193, 344, 320
-0.957596, 257, 57, 320, 120
-0.957841, 81, 297, 144, 360
-0.958006, 161, 113, 416, 240
-0.958264, 305, 193, 368, 320
-0.958569, 305, 1, 432, 128
-0.958814, 313, 57, 376, 120
-0.959198, 177, 177, 304, 304
-0.960235, 233, 241, 296, 304
-0.960702, 329, 1, 392, 128
-0.960799, 305, 1, 368, 64
-0.961005, 73, 225, 136, 352
-0.961624, 193, 281, 256, 344
-0.961768, 161, 177, 224, 304
-0.962288, 249, 177, 312, 304
-0.962477, 225, 177, 352, 304
-0.962684, 281, 57, 344, 120
-0.962775, 129, 193, 256, 320
-0.962784, 209, 49, 272, 112
-0.962964, 65, 49, 320, 176
-0.963513, 265, 233, 328, 296
-0.963619, 9, 281, 72, 344
-0.963769, 49, 177, 112, 304
-0.963924, 233, 17, 296, 80
-0.964115, 65, 209, 192, 336
-0.964522, 217, 313, 280, 375
-0.964775, 25, 241, 88, 304
-0.964832, 1, 177, 128, 304
-0.965188, 257, 1, 320, 64
-0.965358, 233, 217, 296, 280
-0.96563, 249, 265, 312, 328
-0.966283, 225, 289, 288, 352
-0.966751, 177, 49, 304, 176
-0.966813, 281, 241, 344, 368
-0.966925, 257, 1, 384, 64
-0.967396, 305, 201, 368, 264
-0.967557, 49, 305, 112, 368
-0.967772, 153, 313, 216, 375
-0.967975, 233, 49, 296, 176
-0.968122, 201, 241, 264, 304
-0.968501, 49, 145, 176, 272
-0.968578, 193, 313, 256, 375
-0.968927, 193, 193, 256, 320
-0.969181, 209, 241, 240, 368
-0.969648, 329, 89, 392, 152
-0.969877, 281, 265, 344, 328
-0.969926, 209, 281, 240, 344
-0.969979, 273, 1, 304, 128
-0.970239, 25, 257, 56, 320
-0.970589, 257, 25, 320, 88
-0.970597, 209, 217, 272, 280
-0.970859, 305, 233, 368, 296
-0.970867, 1, 217, 64, 280
-0.970919, 193, 41, 320, 104
-0.971169, 257, 65, 384, 128
-0.971328, 305, 33, 368, 96
-0.971438, 257, 161, 500, 288
-0.97168, 257, 1, 288, 128
-0.971801, 73, 161, 136, 288
-0.971808, 425, 81, 488, 144
-0.971823, 249, 289, 312, 352
-0.972003, 97, 145, 224, 272
-0.972463, 329, 193, 392, 320
-0.972602, 1, 257, 64, 320
-0.972673, 193, 249, 320, 312
-0.972676, 289, 145, 352, 272
-0.972799, 265, 209, 328, 272
-0.972948, 361, 65, 424, 128
-0.973143, 205, 305, 236, 368
-0.973155, 49, 65, 176, 192
-0.973212, 293, 49, 324, 176
-0.973285, 97, 209, 160, 336
-0.97342, 281, 33, 344, 288
-0.973464, 89, 297, 120, 360
-0.973628, 201, 193, 264, 256
-0.973792, 293, 57, 324, 120
-0.973966, 417, 81, 480, 208
-0.974044, 161, 201, 224, 264
-0.974087, 305, 161, 432, 288
-0.974164, 1, 177, 64, 304
-0.974228, 105, 313, 168, 375
-0.974229, 121, 193, 184, 320
-0.974285, 285, 1, 316, 128
-0.974339, 209, 1, 272, 64
-0.974375, 241, 129, 368, 256
-0.974453, 313, 1, 344, 128
-0.974457, 25, 281, 56, 344
-0.974812, 237, 41, 268, 104
-0.974855, 25, 241, 56, 368
-0.974955, 145, 313, 272, 375
-0.974986, 401, 81, 464, 144
-0.975032, 17, 305, 144, 368
-0.975281, 233, 1, 296, 256
-0.975426, 209, 225, 336, 288
-0.975524, 301, 1, 332, 128
-0.975635, 269, 49, 300, 112
-0.975676, 209, 65, 272, 192
-0.975747, 41, 209, 104, 272
-0.975896, 313, 65, 344, 192
-0.9761, 241, 25, 368, 88
-0.976141, 105, 289, 168, 352
-0.976168, 313, 33, 376, 288
-0.976207, 221, 281, 252, 344
-0.976287, 229, 241, 260, 368
-0.97631, 337, 49, 400, 176
-0.976357, 257, 265, 288, 328
-0.97637, 281, 33, 344, 96
-0.9764, 177, 281, 304, 344
-0.976405, 105, 297, 136, 360
-0.976442, 313, 73, 344, 136
-0.976458, 233, 265, 264, 328
-0.976471, 321, 129, 384, 256
-0.976519, 329, 193, 392, 256
-0.976587, 353, 81, 480, 208
-0.976592, 337, 1, 368, 128
-0.976675, 225, 73, 288, 136
-0.976719, 41, 265, 104, 328
-0.976971, 353, 89, 416, 152
-0.977019, 221, 241, 252, 304
-0.977059, 385, 65, 448, 192
-0.977283, 221, 49, 252, 112
-0.977399, 265, 9, 296, 72
-0.977417, 245, 241, 276, 368
-0.977518, 249, 81, 312, 144
-0.977578, 1, 73, 64, 136
-0.977689, 153, 241, 216, 368
-0.977719, 329, 33, 392, 96
-0.977746, 253, 33, 284, 96
-0.977845, 305, 49, 432, 112
-0.977964, 145, 113, 208, 240
-0.977994, 121, 113, 184, 240
-0.978295, 33, 97, 96, 224
-0.978503, 273, 209, 304, 336
-0.978629, 185, 145, 248, 272
-0.978649, 97, 289, 224, 352
-0.978667, 257, 209, 384, 272
-0.978689, 177, 225, 240, 288
-0.978754, 225, 281, 352, 344
-0.978789, 73, 177, 136, 240
-0.978827, 129, 49, 256, 176
-0.978951, 13, 265, 44, 328
-0.979052, 217, 305, 248, 368
-0.979149, 201, 17, 264, 144
-0.979167, 305, 89, 432, 152
-0.979196, 257, 249, 384, 312
-0.979244, 45, 209, 76, 336
-0.979257, 321, 209, 448, 336
-0.979311, 209, 25, 272, 88
-0.97934, 345, 145, 408, 272
-0.979667, 185, 41, 248, 104
-0.979873, 17, 281, 144, 344
-0.979875, 265, 49, 296, 176
-0.979878, 273, 1, 336, 375
-0.979881, 305, 257, 368, 320
-0.979942, 9, 305, 72, 368
-0.980033, 341, 57, 372, 120
-0.980117, 305, 113, 432, 240
-0.980127, 273, 241, 304, 304
-0.980128, 257, 65, 288, 128
-0.980141, 33, 97, 96, 352
-0.980304, 261, 225, 292, 352
-0.980315, 305, 241, 368, 368
-0.980395, 237, 241, 268, 304
-0.980403, 297, 1, 360, 375
-0.980497, 313, 49, 344, 112
-0.980503, 357, 89, 388, 152
-0.980527, 33, 97, 96, 160
-0.980633, 233, 297, 264, 360
-0.980739, 145, 1, 272, 128
-0.980842, 153, 177, 216, 240
-0.980856, 65, 113, 320, 240
-0.98086, 49, 233, 112, 296
-0.980916, 145, 257, 272, 320
-0.980936, 25, 177, 88, 304
-0.980945, 257, 33, 320, 288
-0.980969, 225, 97, 288, 160
-0.981139, 177, 17, 304, 80
-0.981191, 129, 185, 192, 248
-0.981199, 209, 257, 240, 320
-0.981213, 249, 241, 280, 304
-0.981219, 1, 241, 128, 304
-0.981238, 65, 201, 128, 264
-0.981298, 337, 49, 368, 176
-0.981332, 37, 281, 68, 344
-0.981351, 193, 129, 320, 256
-0.981394, 245, 265, 276, 328
-0.981436, 97, 97, 224, 224
-0.9815, 333, 1, 364, 64
-0.981562, 353, 1, 480, 128
-0.981567, 281, 49, 312, 176
-0.981815, 81, 225, 112, 352
-0.981897, 41, 241, 72, 304
-0.98192, 97, 161, 160, 288
-0.981933, 293, 225, 324, 352
-0.981935, 33, 185, 96, 248
-0.981962, 257, 217, 288, 280
-0.98198, 65, 313, 192, 375
-0.982004, 401, 1, 464, 128
-0.982033, 69, 305, 100, 368
-0.982041, 385, 57, 448, 120
-0.982056, 265, 129, 328, 256
-0.982063, 309, 193, 340, 320
-0.982151, 261, 241, 292, 304
-0.982246, 209, 41, 240, 104
-0.982282, 129, 241, 192, 368
-0.982293, 193, 129, 256, 375
-0.982298, 293, 265, 324, 328
-0.982325, 237, 65, 268, 128
-0.982394, 273, 129, 336, 375
-0.982487, 361, 65, 424, 192
-0.982638, 337, 57, 400, 120
-0.982649, 245, 217, 276, 280
-0.982688, 197, 225, 228, 352
-0.982719, 193, 305, 320, 368
-0.982719, 337, 33, 400, 288
-0.98276, 225, 89, 352, 152
-0.98282, 97, 209, 224, 272
-0.982865, 297, 241, 328, 304
-0.982897, 201, 201, 232, 264
-0.982948, 329, 233, 392, 296
-0.982954, 349, 1, 380, 128
-0.982975, 281, 57, 312, 120
-0.983092, 265, 185, 328, 248
-0.983213, 65, 273, 128, 336
-0.983291, 161, 225, 288, 288
-0.983348, 353, 73, 480, 136
-0.983405, 249, 129, 312, 375
-0.983423, 213, 193, 244, 320
-0.983436, 25, 193, 56, 320
-0.983544, 137, 113, 200, 176
-0.983572, 201, 73, 264, 136
-0.983597, 245, 1, 276, 128
-0.983602, 177, 201, 304, 264
-0.983626, 321, 1, 384, 375
-0.98363, 41, 73, 104, 136
-0.983693, 249, 1, 312, 375
-0.983695, 145, 57, 272, 120
-0.983719, 241, 97, 304, 224
-0.983859, 177, 49, 240, 176
-0.983864, 277, 1, 308, 64
-0.983904, 257, 89, 288, 152
-0.983922, 137, 209, 200, 272
-0.983967, 1, 193, 64, 256
-0.984059, 281, 1, 344, 64
-0.984069, 321, 169, 384, 232
-0.984116, 305, 81, 368, 144
-0.98423, 345, 1, 408, 64
-0.984244, 33, 305, 64, 368
-0.984272, 421, 81, 452, 144
-0.984292, 193, 297, 224, 360
-0.984342, 41, 49, 104, 176
-0.984381, 369, 161, 432, 288
-0.984386, 305, 201, 336, 264
-0.984429, 241, 17, 272, 80
-0.98444, 329, 49, 360, 112
-0.984459, 273, 281, 304, 344
-0.984507, 153, 129, 216, 375
-0.984509, 209, 65, 336, 128
-0.984511, 1, 209, 128, 272
-0.984535, 97, 225, 128, 352
-0.984608, 417, 105, 480, 168
-0.984624, 245, 289, 276, 352
-0.984653, 233, 193, 296, 256
-0.984672, 353, 57, 384, 120
-0.984712, 353, 169, 416, 232
-0.98477, 313, 113, 344, 176
-0.984883, 209, 145, 272, 272
-0.984885, 49, 225, 176, 288
-0.984934, 249, 193, 280, 320
-0.984986, 225, 193, 256, 320
-0.985045, 437, 81, 468, 144
-0.985123, 217, 217, 248, 280
-0.985132, 197, 233, 228, 296
-0.98518, 61, 225, 92, 352
-0.985189, 65, 129, 128, 375
-0.985266, 353, 193, 416, 256
-0.985305, 153, 289, 216, 352
-0.985355, 25, 233, 56, 296
-0.985499, 13, 241, 44, 368
-0.985586, 325, 49, 356, 176
-0.985609, 289, 177, 352, 240
-0.985729, 209, 1, 272, 256
-0.985839, 17, 185, 144, 248
-0.985844, 425, 57, 488, 120
-0.98586, 201, 177, 232, 304
-0.985869, 97, 1, 224, 128
-0.985946, 253, 9, 284, 72
-0.985949, 217, 1, 280, 375
-0.985956, 353, 1, 416, 128
-0.98599, 305, 233, 432, 296
-0.986145, 341, 33, 372, 96
-0.986191, 9, 129, 72, 375
-0.9862, 113, 209, 176, 272
-0.986302, 281, 201, 312, 264
-0.986377, 325, 201, 356, 264
-0.986383, 185, 193, 216, 320
-0.9864, 285, 25, 316, 88
-0.986457, 181, 201, 212, 264
-0.986526, 273, 185, 400, 248
-0.986566, 353, 145, 480, 272
-0.986587, 329, 209, 360, 336
-0.986599, 321, 145, 352, 272
-0.986637, 53, 305, 84, 368
-0.986697, 105, 185, 168, 248
-0.986699, 13, 289, 44, 352
-0.986699, 261, 289, 292, 352
-0.986737, 177, 249, 240, 312
-0.986744, 169, 1, 232, 128
-0.98675, 273, 273, 400, 336
-0.986834, 301, 113, 332, 240
-0.986836, 305, 25, 432, 88
-0.986937, 97, 185, 224, 248
-0.98694, 1, 49, 64, 176
-0.986989, 313, 1, 344, 64
-0.987005, 261, 177, 292, 304
-0.987006, 233, 33, 264, 160
-0.987022, 177, 169, 240, 232
-0.987075, 73, 233, 136, 296
-0.987099, 145, 129, 272, 256
-0.987121, 9, 97, 72, 160
-0.987246, 321, 209, 448, 272
-0.987409, 305, 113, 432, 176
-0.98742, 341, 201, 372, 264
-0.987432, 285, 177, 316, 304
-0.987458, 229, 217, 260, 280
-0.987547, 337, 1, 464, 64
-0.987603, 105, 129, 168, 375
-0.987664, 309, 233, 340, 296
-0.987671, 113, 89, 176, 152
-0.987685, 353, 97, 480, 160
-0.987739, 113, 161, 176, 224
-0.987745, 237, 193, 268, 320
-0.987745, 321, 177, 352, 240
-0.987749, 301, 113, 332, 176
-0.987856, 253, 49, 284, 176
-0.987869, 325, 73, 356, 136
-0.987885, 137, 89, 200, 152
-0.987902, 81, 81, 144, 208
-0.987978, 1, 129, 128, 256
-0.988063, 325, 1, 356, 128
-0.988114, 225, 45, 288, 76
-0.988218, 1, 33, 64, 288
-0.988302, 449, 65, 480, 128
-0.988334, 325, 225, 356, 288
-0.988362, 197, 265, 228, 328
-0.988372, 221, 17, 252, 80
-0.988389, 329, 121, 392, 184
-0.98852, 301, 81, 332, 144
-0.988549, 353, 121, 416, 184
-0.988584, 145, 177, 272, 240
-0.988584, 365, 65, 396, 128
-0.988589, 241, 313, 304, 375
-0.988602, 89, 273, 120, 336
-0.988628, 117, 297, 148, 360
-0.98864, 65, 177, 96, 304
-0.988664, 353, 217, 416, 280
-0.988747, 305, 129, 368, 375
-0.988769, 33, 81, 160, 144
-0.988826, 297, 177, 328, 304
-0.988874, 241, 269, 304, 300
-0.988886, 137, 153, 200, 216
-0.988999, 97, 233, 224, 296
-0.98904, 269, 209, 300, 272
-0.9891, 273, 289, 336, 352
-0.989103, 81, 81, 144, 144
-0.989177, 425, 33, 488, 160
-0.989181, 421, 57, 452, 120
-0.98922, 81, 177, 112, 304
-0.989229, 57, 201, 88, 264
-0.98925, 289, 97, 352, 224
-0.989255, 101, 273, 132, 336
-0.989358, 129, 129, 192, 375
-0.989371, 353, 145, 416, 208
-0.98944, 401, 81, 464, 112
-0.989498, 241, 57, 304, 88
-0.989516, 141, 313, 172, 375
-0.989533, 173, 177, 204, 304
-0.989559, 185, 241, 216, 368
-0.989565, 393, 113, 456, 240
-0.989605, 301, 33, 332, 96
-0.989659, 97, 161, 224, 224
-0.989672, 281, 65, 344, 96
-0.989681, 313, 137, 344, 200
-0.989726, 269, 81, 300, 144
-0.989731, 393, 145, 456, 208
-0.989768, 49, 309, 112, 340
-0.989769, 193, 337, 256, 368
-0.989775, 93, 177, 124, 304
-0.989793, 73, 309, 136, 340
-0.98982, 5, 193, 36, 320
-0.989827, 313, 241, 344, 368
-0.989828, 37, 97, 68, 160
-0.989835, 201, 45, 264, 76
-0.989842, 225, 185, 352, 248
-0.989861, 49, 161, 176, 224
-0.989869, 77, 177, 108, 240
-0.98987, 361, 209, 424, 336
-0.989876, 313, 77, 376, 108
-0.989878, 177, 89, 304, 152
-0.989902, 1, 249, 32, 312
-0.989928, 113, 333, 176, 364
-0.989937, 193, 1, 256, 375
-0.98994, 217, 317, 280, 348
-0.98998, 257, 113, 384, 176
-0.989985, 97, 265, 224, 328
-0.98999, 13, 241, 44, 304
-0.989996, 353, 121, 480, 184
-0.990022, 153, 341, 216, 372
-0.990039, 245, 89, 276, 152
-0.990056, 225, 129, 288, 375
-0.990059, 257, 257, 320, 288
-0.99006, 305, 137, 432, 200
-0.990079, 297, 53, 360, 84
-0.990083, 341, 225, 372, 288
-0.990089, 281, 81, 344, 144
-0.990146, 265, 273, 328, 304
-0.99019, 49, 17, 176, 144
-0.990199, 225, 281, 288, 312
-0.990227, 193, 297, 256, 328
-0.990248, 285, 241, 316, 304
-0.990252, 241, 81, 304, 112
-0.990286, 89, 297, 152, 328
-0.990291, 1, 65, 128, 192
-0.990293, 257, 65, 500, 128
-0.990302, 109, 241, 140, 368
-0.990302, 249, 289, 312, 320
-0.990302, 113, 129, 176, 192
-0.990314, 353, 49, 480, 112
-0.990326, 369, 209, 496, 336
-0.990358, 425, 77, 488, 108
-0.990385, 305, 1, 368, 32
-0.99041, 81, 321, 144, 352
-0.990411, 217, 57, 280, 88
-0.990419, 9, 281, 72, 312
-0.990428, 329, 145, 392, 208
-0.990447, 249, 45, 312, 76
-0.990453, 217, 257, 280, 288
-0.990463, 249, 105, 312, 168
-0.990478, 221, 17, 252, 144
-0.990493, 193, 313, 256, 344
-0.990513, 217, 81, 280, 112
-0.990531, 393, 105, 456, 168
-0.990532, 241, 93, 304, 124
-0.990567, 217, 269, 280, 300
-0.99059, 329, 93, 392, 124
-0.99059, 301, 169, 332, 232
-0.990606, 349, 49, 380, 176
-0.990614, 369, 77, 432, 108
-0.99064, 353, 193, 384, 256
-0.990649, 193, 325, 256, 356
-0.990651, 241, 301, 304, 332
-0.990655, 257, 9, 320, 40
-0.990667, 289, 77, 352, 108
-0.99067, 201, 225, 264, 256
-0.990691, 153, 329, 216, 360
-0.990695, 305, 225, 368, 256
-0.990708, 273, 233, 336, 264
-0.990755, 129, 241, 160, 368
-0.990782, 353, 33, 384, 96
-0.990831, 201, 285, 264, 316
-0.990855, 233, 221, 296, 252
-0.990863, 65, 289, 320, 352
-0.990887, 313, 65, 376, 96
-0.990893, 161, 193, 192, 320
-0.990903, 257, 137, 384, 200
-0.99092, 281, 113, 344, 176
-0.99093, 301, 137, 332, 200
-0.990934, 233, 241, 296, 272
-0.990953, 225, 33, 288, 64
-0.990969, 9, 293, 72, 324
-0.990977, 273, 53, 336, 84
-0.991031, 157, 113, 188, 240
-0.991059, 137, 1, 200, 375
-0.991061, 217, 305, 280, 336
-0.991074, 265, 245, 328, 276
-0.991145, 161, 1, 416, 64
-0.991158, 353, 89, 416, 120
-0.991177, 249, 145, 312, 208
-0.991185, 313, 249, 376, 280
-0.991202, 305, 201, 368, 232
-0.991223, 273, 285, 336, 316
-0.991237, 17, 249, 80, 280
-0.991242, 217, 93, 280, 124
-0.991247, 393, 93, 456, 124
-0.991248, 273, 221, 336, 252
-0.991252, 1, 233, 256, 296
-0.991257, 169, 177, 200, 240
-0.991267, 441, 81, 472, 208
-0.991277, 209, 69, 272, 100
-0.991289, 425, 93, 488, 124
-0.991296, 17, 261, 80, 292
-0.991305, 241, 69, 304, 100
-0.991332, 281, 205, 344, 236
-0.991337, 33, 105, 96, 136
-0.991342, 321, 25, 352, 88
-0.991346, 45, 209, 76, 272
-0.991374, 281, 261, 344, 292
-0.991406, 169, 9, 232, 72
-0.99142, 17, 309, 80, 340
-0.991427, 41, 161, 104, 224
-0.991428, 41, 241, 104, 272
-0.991432, 41, 93, 104, 124
-0.991432, 129, 33, 256, 96
-0.991433, 337, 69, 400, 100
-0.991452, 121, 345, 184, 375
-0.991457, 401, 69, 464, 100
-0.99146, 213, 193, 244, 256
-0.991467, 65, 297, 128, 328
-0.991475, 161, 201, 192, 264
-0.991496, 217, 329, 280, 360
-0.991501, 201, 241, 264, 272
-0.991502, 49, 281, 80, 344
-0.991517, 193, 273, 256, 304
-0.99153, 265, 81, 328, 112
-0.991548, 1, 97, 64, 128
-0.991551, 289, 245, 352, 276
-0.991551, 321, 169, 448, 232
-0.991569, 249, 33, 312, 64
-0.991598, 65, 185, 128, 216
-0.991614, 181, 177, 212, 240
-0.991619, 305, 13, 368, 44
-0.991619, 249, 21, 312, 52
-0.991641, 161, 205, 224, 236
-0.991649, 57, 321, 120, 352
-0.991659, 25, 201, 88, 232
-0.991688, 69, 201, 100, 264
-0.991709, 369, 65, 432, 320
-0.991737, 421, 65, 452, 192
-0.991743, 41, 1, 104, 256
-0.991753, 41, 189, 104, 220
-0.991754, 293, 217, 324, 280
-0.991796, 141, 113, 172, 240
-0.991823, 273, 41, 336, 72
-0.991835, 305, 145, 368, 208
-0.991846, 161, 169, 224, 200
-0.991866, 77, 281, 108, 344
-0.991875, 33, 297, 96, 328
-0.99188, 13, 217, 44, 280
-0.991908, 41, 225, 104, 256
-0.99191, 65, 153, 128, 216
-0.991919, 305, 261, 368, 292
-0.991921, 281, 1, 344, 32
-0.991923, 65, 265, 320, 328
-0.991941, 161, 233, 416, 296
-0.991951, 305, 41, 368, 72
-0.991951, 97, 309, 160, 340
-0.991998, 225, 33, 480, 96
-0.992, 321, 213, 384, 244
-0.992013, 113, 289, 176, 320
-0.992056, 81, 129, 208, 192
-0.992069, 1, 213, 64, 244
-0.99207, 341, 193, 372, 320
-0.992072, 313, 237, 376, 268
-0.992074, 169, 145, 232, 208
-0.992074, 369, 145, 496, 208
-0.99208, 161, 121, 192, 184
-0.992082, 321, 189, 384, 220
-0.992084, 137, 193, 200, 224
-0.992096, 17, 233, 80, 264
-0.992104, 289, 273, 352, 304
-0.992107, 329, 241, 392, 368
-0.992124, 257, 97, 500, 160
-0.992155, 193, 177, 224, 240
-0.992155, 65, 281, 96, 344
-0.992158, 217, 5, 280, 36
-0.992162, 109, 177, 140, 304
-0.992165, 217, 21, 280, 52
-0.992167, 309, 257, 340, 320
-0.992183, 73, 233, 136, 264
-0.992201, 213, 301, 244, 332
-0.992201, 137, 117, 200, 148
-0.992203, 345, 1, 408, 375
-0.992216, 41, 269, 104, 300
-0.992217, 329, 53, 392, 84
-0.992231, 113, 193, 176, 224
-0.992231, 337, 237, 400, 268
-0.992247, 241, 81, 272, 208
-0.992253, 25, 289, 56, 320
-0.992256, 305, 25, 368, 56
-0.992258, 145, 193, 176, 320
-0.992261, 153, 317, 216, 348
-0.992276, 137, 213, 200, 244
-0.992277, 325, 249, 356, 312
-0.992297, 193, 257, 256, 288
-0.992302, 345, 213, 408, 244
-0.992308, 205, 313, 236, 344
-0.992322, 193, 201, 256, 232
-0.992325, 209, 289, 240, 320
-0.992325, 345, 193, 408, 224
-0.992335, 421, 81, 452, 112
-0.992344, 49, 105, 176, 168
-0.992382, 25, 261, 56, 292
-0.992383, 145, 153, 272, 216
-0.992385, 201, 33, 264, 64
-0.992392, 81, 305, 112, 336
-0.992395, 201, 333, 232, 364
-0.992398, 289, 189, 352, 220
-0.992404, 293, 69, 324, 100
-0.992406, 105, 297, 136, 328
-0.992418, 177, 49, 240, 80
-0.992424, 253, 81, 284, 112
-0.992425, 249, 41, 280, 72
-0.992429, 137, 333, 168, 364
-0.992431, 17, 189, 80, 220
-0.992432, 53, 73, 84, 136
-0.99244, 177, 157, 240, 188
-0.992441, 113, 1, 176, 375
-0.992445, 313, 277, 376, 308
-0.992451, 345, 9, 376, 72
-0.99246, 337, 41, 400, 72
-0.992464, 93, 301, 124, 332
-0.992471, 441, 77, 472, 108
-0.992474, 425, 105, 488, 136
-0.992476, 265, 93, 328, 124
-0.992477, 425, 65, 488, 96
-0.992489, 329, 105, 392, 136
-0.99249, 221, 49, 252, 80
-0.9925, 273, 57, 304, 88
-0.992508, 125, 193, 156, 320
-0.99251, 177, 225, 240, 256
-0.992541, 21, 273, 52, 304
-0.992557, 193, 273, 448, 336
-0.99258, 241, 305, 368, 368
-0.992603, 251, 265, 266, 328
-0.99261, 257, 93, 288, 124
-0.99261, 129, 313, 192, 375
-0.992617, 293, 57, 324, 88
-0.992627, 69, 309, 100, 340
-0.99263, 213, 325, 244, 356
-0.992639, 217, 273, 248, 304
-0.992644, 357, 93, 388, 124
-0.99265, 237, 41, 268, 72
-0.992652, 321, 77, 352, 108
-0.992654, 29, 301, 60, 332
-0.992654, 117, 329, 148, 360
-0.992661, 209, 49, 240, 80
-0.992664, 369, 185, 400, 248
-0.992694, 93, 313, 124, 344
-0.992701, 257, 277, 288, 308
-0.99271, 89, 193, 120, 256
-0.992714, 261, 49, 292, 80
-0.99272, 153, 265, 216, 328
-0.992745, 441, 93, 472, 124
-0.992747, 233, 293, 264, 324
-0.992759, 41, 301, 72, 332
-0.992765, 293, 273, 324, 304
-0.992769, 233, 53, 264, 84
-0.992776, 229, 313, 260, 344
-0.992782, 237, 261, 268, 292
-0.992793, 201, 301, 232, 332
-0.992798, 305, 57, 336, 88
-0.992802, 217, 261, 248, 292
-0.992803, 173, 129, 204, 256
-0.992803, 273, 285, 304, 316
-0.992808, 241, 81, 272, 112
-0.992815, 245, 93, 276, 124
-0.992829, 221, 245, 252, 276
-0.992832, 345, 81, 376, 144
-0.992833, 105, 325, 136, 356
-0.992845, 249, 29, 280, 60
-0.992849, 81, 317, 112, 348
-0.992854, 353, 193, 384, 320
-0.992862, 13, 297, 44, 328
-0.992874, 273, 81, 304, 112
-0.992885, 25, 249, 56, 280
-0.992891, 273, 69, 304, 100
-0.992895, 97, 265, 160, 328
-0.992899, 49, 97, 80, 160
-0.992901, 269, 9, 300, 40
-0.992911, 261, 65, 292, 96
-0.992919, 253, 261, 284, 292
-0.99292, 429, 93, 460, 124
-0.992923, 233, 69, 264, 100
-0.992923, 213, 61, 244, 92
-0.992927, 257, 289, 288, 320
-0.992932, 105, 309, 136, 340
-0.992936, 245, 241, 276, 272
-0.992937, 249, 53, 280, 84
-0.992947, 129, 305, 160, 368
-0.992952, 201, 345, 232, 375
-0.992954, 245, 273, 276, 304
-0.992961, 297, 249, 328, 280
-0.992969, 313, 89, 344, 120
-0.992971, 421, 69, 452, 100
-0.992978, 425, 1, 456, 128
-0.992982, 37, 105, 68, 136
-0.992982, 229, 281, 260, 312
-0.992987, 321, 61, 352, 92
-0.992987, 145, 345, 176, 375
-0.99299, 261, 233, 292, 264
-0.992994, 93, 325, 124, 356
-0.992995, 337, 69, 368, 100
-0.992998, 13, 261, 44, 292
-0.992998, 261, 249, 292, 280
-0.993001, 313, 133, 344, 164
-0.993001, 209, 241, 240, 272
-0.993008, 161, 1, 224, 375
-0.993009, 29, 73, 60, 136
-0.993011, 1, 241, 32, 368
-0.993021, 273, 269, 304, 300
-0.993028, 217, 313, 248, 344
-0.99303, 57, 309, 88, 340
-0.993037, 277, 257, 308, 288
-0.993039, 337, 45, 368, 76
-0.993044, 205, 277, 236, 308
-0.993044, 37, 289, 68, 320
-0.993045, 365, 81, 396, 112
-0.993049, 33, 277, 64, 308
-0.993049, 243, 257, 258, 320
-0.993051, 337, 9, 368, 40
-0.993052, 77, 185, 108, 216
-0.993058, 249, 221, 280, 252
-0.993064, 197, 289, 228, 320
-0.993069, 209, 225, 240, 256
-0.993072, 193, 317, 224, 348
-0.993078, 245, 297, 276, 328
-0.993091, 229, 225, 260, 256
-0.993091, 325, 229, 356, 260
-0.993098, 281, 1, 312, 32
-0.993099, 281, 237, 312, 268
-0.9931, 97, 313, 352, 375
-0.993105, 437, 57, 468, 120
-0.993107, 49, 93, 80, 124
-0.993114, 37, 249, 68, 280
-0.993118, 301, 129, 332, 160
-0.993122, 57, 189, 88, 220
-0.993123, 301, 193, 332, 224
-0.99313, 265, 25, 296, 56
-0.993131, 9, 273, 40, 304
-0.993135, 305, 233, 336, 264
-0.993138, 313, 117, 344, 148
-0.99314, 129, 129, 256, 192
-0.993142, 37, 265, 68, 296
-0.993149, 1, 313, 256, 375
-0.99315, 13, 285, 44, 316
-0.993152, 229, 81, 260, 112
-0.993154, 257, 9, 500, 72
-0.993155, 285, 45, 316, 76
-0.99316, 245, 65, 276, 96
-0.993164, 309, 77, 340, 108
-0.993164, 141, 129, 172, 192
-0.993166, 233, 241, 264, 272
-0.993166, 313, 105, 344, 136
-0.993168, 293, 81, 324, 112
-0.993168, 353, 81, 384, 112
-0.993169, 301, 97, 332, 128
-0.993174, 301, 113, 332, 144
-0.993179, 1, 289, 32, 320
-0.993189, 409, 81, 440, 112
-0.993191, 261, 217, 292, 248
-0.993199, 245, 285, 276, 316
-0.9932, 329, 217, 360, 248
-0.993203, 193, 145, 320, 208
-0.993204, 313, 197, 344, 228
-0.993205, 17, 57, 144, 120
-0.993206, 401, 69, 432, 100
-0.993207, 209, 49, 240, 176
-0.993207, 241, 309, 272, 340
-0.993209, 161, 201, 192, 232
-0.993214, 333, 201, 364, 232
-0.993269, 25, 209, 56, 272
-0.993269, 161, 57, 416, 120
-0.993275, 1, 281, 32, 344
-0.993278, 329, 129, 392, 375
-0.993311, 209, 1, 240, 128
-0.993315, 69, 233, 100, 296
-0.993337, 261, 129, 292, 256
-0.993363, 281, 153, 344, 216
-0.993393, 369, 145, 400, 272
-0.993412, 193, 297, 448, 360
-0.993419, 1, 41, 500, 104
-0.993444, 255, 241, 270, 304
-0.993473, 1, 105, 128, 168
-0.993476, 37, 81, 68, 208
-0.993498, 417, 1, 480, 256
-0.993538, 193, 121, 320, 184
-0.993553, 35, 257, 50, 320
-0.993555, 401, 49, 432, 176
-0.99361, 185, 1, 248, 256
-0.993631, 257, 77, 384, 108
-0.993658, 129, 209, 384, 272
-0.993721, 257, 9, 384, 40
-0.993722, 265, 249, 280, 312
-0.993755, 81, 1, 144, 375
-0.99377, 243, 289, 258, 352
-0.99378, 329, 257, 392, 320
-0.993882, 185, 145, 216, 272
-0.993923, 227, 273, 242, 336
-0.993956, 129, 289, 192, 352
-0.993982, 449, 33, 480, 160
-0.993997, 349, 145, 380, 272
-0.994001, 219, 273, 234, 336
-0.994016, 1, 289, 500, 352
-0.994068, 209, 57, 336, 88
-0.994086, 237, 273, 252, 336
-0.994093, 223, 297, 238, 360
-0.994093, 217, 297, 232, 360
-0.994133, 377, 225, 440, 288
-0.994165, 145, 65, 208, 192
-0.994198, 207, 313, 222, 375
-0.994204, 305, 233, 320, 296
-0.994218, 1, 249, 500, 312
-0.994219, 209, 257, 336, 288
-0.994219, 367, 81, 382, 144
-0.994232, 129, 1, 256, 64
-0.994249, 257, 57, 384, 88
-0.994264, 289, 129, 320, 256
-0.994271, 193, 45, 320, 76
-0.994288, 161, 89, 416, 152
-0.994305, 105, 65, 168, 192
-0.994308, 29, 257, 44, 320
-0.994322, 247, 233, 262, 296
-0.994353, 33, 209, 288, 272
-0.994366, 1, 17, 500, 80
-0.994379, 145, 341, 272, 372
-0.994382, 241, 37, 368, 68
-0.994388, 45, 161, 76, 288
-0.99443, 97, 33, 352, 96
-0.994433, 97, 233, 160, 296
-0.994437, 243, 41, 258, 104
-0.994461, 225, 209, 480, 272
-0.994474, 1, 305, 128, 336
-0.994478, 53, 65, 84, 192
-0.994484, 39, 281, 54, 344
-0.994489, 257, 265, 272, 328
-0.994518, 101, 297, 116, 360
-0.99452, 231, 249, 246, 312
-0.994521, 237, 297, 252, 360
-0.994527, 299, 241, 314, 304
-0.994534, 211, 289, 226, 352
-0.994537, 305, 73, 432, 104
-0.994547, 215, 41, 230, 104
-0.994557, 249, 289, 264, 352
-0.994565, 221, 241, 236, 304
-0.994579, 369, 225, 496, 288
-0.994596, 269, 9, 284, 72
-0.994601, 1, 225, 500, 288
-0.994611, 257, 25, 384, 56
-0.994641, 409, 97, 440, 224
-0.994733, 129, 145, 160, 272
-0.994735, 361, 49, 392, 176
-0.994742, 235, 49, 250, 112
-0.994743, 177, 273, 304, 304
-0.994782, 273, 49, 288, 112
-0.994794, 305, 113, 368, 176
-0.994797, 377, 169, 440, 232
-0.99484, 27, 281, 42, 344
-0.994856, 85, 305, 100, 368
-0.994857, 231, 297, 246, 360
-0.994867, 313, 49, 328, 112
-0.994868, 97, 345, 224, 375
-0.994877, 177, 297, 304, 328
-0.994878, 265, 41, 280, 104
-0.994884, 353, 81, 480, 112
-0.994885, 41, 1, 104, 375
-0.994893, 281, 313, 344, 375
-0.994951, 321, 265, 448, 328
-0.994962, 17, 1, 80, 375
-0.994967, 307, 49, 322, 112
-0.994976, 289, 297, 416, 360
-0.994977, 45, 281, 60, 344
-0.994993, 193, 221, 320, 252
-0.99501, 257, 121, 500, 184
-0.995024, 145, 329, 272, 360
-0.995029, 81, 81, 208, 144
-0.995036, 177, 285, 304, 316
-0.995041, 389, 161, 420, 288
-0.995094, 277, 1, 292, 64
-0.9951, 365, 193, 396, 320
-0.995106, 225, 289, 352, 320
-0.995106, 369, 1, 432, 375
-0.995124, 353, 33, 416, 96
-0.995139, 257, 81, 272, 144
-0.995158, 97, 57, 224, 120
-0.995205, 209, 153, 272, 216
-0.995221, 209, 245, 336, 276
-0.995222, 273, 97, 304, 224
-0.995233, 283, 57, 298, 120
-0.995235, 97, 293, 224, 324
-0.995243, 113, 317, 240, 348
-0.995246, 95, 297, 110, 360
-0.995249, 1, 161, 128, 224
-0.995261, 169, 97, 232, 224
-0.995284, 109, 297, 124, 360
-0.995286, 17, 285, 144, 316
-0.99529, 1, 1, 128, 128
-0.995293, 269, 225, 284, 288
-0.995342, 257, 245, 384, 276
-0.995343, 441, 73, 456, 136
-0.995371, 369, 113, 432, 240
-0.995401, 377, 1, 440, 128
-0.995403, 273, 89, 400, 120
-0.995408, 295, 57, 310, 120
-0.995409, 275, 249, 290, 312
-0.995427, 333, 145, 364, 272
-0.995431, 23, 257, 38, 320
-0.995444, 361, 81, 376, 144
-0.995445, 237, 225, 252, 288
-0.995451, 323, 73, 338, 136
-0.995471, 41, 241, 56, 304
-0.99548, 225, 277, 352, 308
-0.995516, 49, 333, 176, 364
-0.99552, 307, 209, 322, 272
-0.995536, 425, 1, 488, 375
-0.995539, 129, 185, 384, 248
-0.995541, 319, 201, 334, 264
-0.995553, 257, 217, 384, 248
-0.995567, 193, 333, 320, 364
-0.995602, 89, 129, 120, 256
-0.995604, 193, 321, 320, 352
-0.995616, 385, 209, 448, 336
-0.995662, 65, 57, 320, 120
-0.995715, 225, 89, 352, 120
-0.99573, 305, 61, 432, 92
-0.995735, 367, 57, 382, 120
-0.995771, 299, 265, 314, 328
-0.995774, 267, 65, 282, 128
-0.99579, 321, 281, 384, 344
-0.995795, 177, 233, 304, 264
-0.995798, 317, 129, 332, 192
-0.995811, 213, 265, 228, 328
-0.995817, 225, 233, 352, 264
-0.995818, 315, 225, 330, 288
-0.995843, 97, 305, 224, 336
-0.995854, 41, 1, 104, 128
-0.995856, 119, 297, 134, 360
-0.995867, 255, 289, 270, 352
-0.995876, 305, 257, 320, 320
-0.995883, 273, 161, 400, 224
-0.995884, 1, 313, 500, 375
-0.995886, 1, 65, 500, 128
-0.995886, 311, 249, 326, 312
-0.995894, 89, 145, 152, 208
-0.995912, 317, 73, 332, 136
-0.99593, 353, 25, 480, 88
-0.99594, 355, 57, 370, 120
-0.995953, 17, 317, 144, 348
-0.99596, 121, 33, 184, 288
-0.99596, 153, 241, 184, 368
-0.995975, 255, 217, 270, 280
-0.995977, 221, 41, 236, 104
-0.995986, 257, 249, 500, 312
-0.995996, 197, 17, 228, 144
-0.996005, 301, 57, 316, 120
-0.996006, 319, 49, 334, 112
-0.996011, 393, 1, 456, 256
-0.996028, 97, 333, 224, 364
-0.996035, 321, 93, 448, 124
-0.996084, 293, 1, 324, 256
-0.996093, 249, 41, 264, 104
-0.99611, 263, 17, 278, 80
-0.996121, 217, 145, 248, 272
-0.996125, 97, 105, 224, 168
-0.996129, 343, 217, 358, 280
-0.996134, 271, 273, 286, 336
-0.996139, 35, 233, 50, 296
-0.996158, 97, 113, 352, 176
-0.996161, 15, 273, 30, 336
-0.996212, 141, 241, 172, 368
-0.996214, 283, 281, 298, 344
-0.996218, 17, 129, 144, 192
-0.996225, 81, 33, 144, 160
-0.996244, 351, 33, 366, 96
-0.996265, 317, 169, 332, 232
-0.996269, 393, 161, 456, 288
-0.99627, 193, 69, 320, 100
-0.996271, 201, 129, 232, 256
-0.996275, 79, 305, 94, 368
-0.996288, 65, 89, 320, 152
-0.996289, 191, 193, 206, 256
-0.996306, 369, 193, 496, 256
-0.996315, 21, 297, 36, 360
-0.996321, 161, 145, 416, 208
-0.996323, 331, 49, 346, 112
-0.996332, 373, 81, 388, 144
-0.996337, 49, 89, 64, 152
-0.996341, 321, 65, 352, 320
-0.996352, 349, 1, 364, 64
-0.996359, 361, 97, 392, 224
-0.99638, 251, 65, 266, 128
-0.996387, 339, 49, 354, 112
-0.99639, 289, 57, 304, 120
-0.996404, 1, 201, 500, 264
-0.996421, 47, 241, 62, 304
-0.996428, 33, 289, 48, 352
-0.996449, 263, 273, 278, 336
-0.99645, 205, 201, 220, 264
-0.996475, 213, 201, 228, 264
-0.996477, 409, 97, 472, 352
-0.996489, 1, 185, 256, 248
-0.996497, 97, 193, 224, 224
-0.996503, 245, 17, 260, 80
-0.996504, 157, 49, 188, 176
-0.99651, 245, 145, 276, 272
-0.99651, 207, 257, 222, 320
-0.996528, 257, 57, 272, 120
-0.996531, 177, 33, 304, 64
-0.996531, 331, 73, 346, 136
-0.996538, 317, 105, 332, 168
-0.996539, 261, 225, 276, 288
-0.996566, 197, 169, 212, 232
-0.996575, 435, 81, 450, 144
-0.996583, 49, 305, 176, 336
-0.996591, 113, 213, 240, 244
-0.996592, 199, 193, 214, 256
-0.996593, 243, 313, 258, 375
-0.996598, 303, 25, 318, 88
-0.996599, 273, 273, 400, 304
-0.996599, 225, 301, 352, 332
-0.996606, 59, 305, 74, 368
-0.996606, 53, 305, 68, 368
-0.996608, 193, 345, 320, 375
-0.996611, 33, 189, 160, 220
-0.996633, 49, 257, 176, 320
-0.996648, 447, 81, 462, 144
-0.996653, 229, 57, 244, 120
-0.996655, 71, 305, 86, 368
-0.996666, 257, 257, 384, 288
-0.996676, 203, 233, 218, 296
-0.996679, 313, 193, 328, 256
-0.996679, 75, 201, 90, 264
-0.996694, 29, 233, 44, 296
-0.996702, 209, 233, 224, 296
-0.996703, 177, 21, 304, 52
-0.996708, 105, 17, 168, 144
-0.996721, 289, 273, 304, 336
-0.996729, 257, 33, 272, 96
-0.996729, 209, 41, 224, 104
-0.996738, 323, 145, 338, 208
-0.996745, 287, 33, 302, 96
-0.996762, 305, 109, 432, 140
-0.996769, 65, 1, 320, 64
-0.996785, 1, 213, 128, 244
-0.996787, 65, 225, 192, 256
-0.996789, 21, 209, 36, 272
-0.996804, 129, 281, 256, 312
-0.996807, 45, 305, 60, 368
-0.996809, 177, 309, 304, 340
-0.996819, 263, 89, 278, 152
-0.996821, 1, 273, 128, 304
-0.996823, 281, 33, 312, 288
-0.996824, 343, 193, 358, 256
-0.996827, 45, 217, 60, 280
-0.99684, 257, 85, 272, 116
-0.996841, 251, 17, 266, 80
-0.996842, 161, 209, 288, 240
-0.996844, 241, 65, 256, 128
-0.996847, 95, 301, 110, 332
-0.996848, 283, 1, 298, 64
-0.996854, 361, 57, 376, 120
-0.996874, 393, 1, 456, 375
-0.996874, 275, 201, 290, 264
-0.996881, 41, 97, 72, 352
-0.996883, 305, 129, 432, 160
-0.996886, 345, 41, 360, 104
-0.99689, 273, 233, 400, 264
-0.9969, 441, 77, 456, 108
-0.996913, 433, 209, 496, 336
-0.996915, 1, 161, 500, 224
-0.996916, 129, 265, 256, 296
-0.996941, 251, 273, 266, 304
-0.996962, 353, 69, 480, 100
-0.996965, 129, 81, 256, 144
-0.996983, 257, 105, 384, 136
-0.997003, 243, 293, 258, 324
-0.997006, 249, 285, 264, 316
-0.997015, 65, 321, 192, 352
-0.997021, 243, 265, 258, 296
-0.997025, 35, 285, 50, 316
-0.997044, 193, 5, 320, 36
-0.997056, 321, 1, 448, 32
-0.997069, 253, 261, 268, 292
-0.997071, 237, 301, 252, 332
-0.997075, 367, 85, 382, 116
-0.997075, 437, 1, 468, 128
-0.997075, 33, 161, 288, 224
-0.997081, 205, 333, 220, 364
-0.997089, 341, 1, 372, 256
-0.997091, 215, 45, 230, 76
-0.99711, 17, 257, 144, 288
-0.997129, 305, 33, 336, 288
-0.997144, 241, 281, 256, 312
-0.997155, 17, 241, 144, 272
-0.99716, 29, 257, 44, 288
-0.997162, 113, 225, 240, 256
-0.997178, 29, 33, 60, 160
-0.997199, 209, 321, 224, 352
-0.997207, 435, 81, 450, 112
-0.997218, 397, 97, 428, 224
-0.997221, 215, 313, 230, 344
-0.997224, 321, 45, 448, 76
-0.997262, 145, 57, 272, 88
-0.997263, 25, 277, 40, 308
-0.997271, 257, 117, 384, 148
-0.997285, 153, 333, 168, 364
-0.997288, 273, 197, 400, 228
-0.997297, 413, 1, 444, 128
-0.997312, 369, 169, 496, 232
-0.997313, 193, 193, 320, 224
-0.997315, 223, 321, 238, 352
-0.997315, 177, 93, 304, 124
-0.997347, 225, 185, 480, 248
-0.997365, 227, 285, 242, 316
-0.997372, 235, 313, 250, 344
-0.99739, 49, 201, 176, 232
-0.997397, 177, 81, 304, 112
-0.997406, 361, 1, 392, 128
-0.997408, 209, 297, 224, 328
-0.99741, 145, 177, 272, 208
-0.997419, 321, 17, 448, 48
-0.997425, 265, 257, 280, 288
-0.997427, 225, 301, 240, 332
-0.997432, 245, 41, 260, 72
-0.997449, 269, 1, 300, 256
-0.997476, 153, 33, 216, 288
-0.997477, 443, 93, 458, 124
-0.997484, 307, 53, 322, 84
-0.997487, 369, 145, 496, 176
-0.997501, 233, 53, 248, 84
-0.997503, 233, 273, 248, 304
-0.997505, 201, 129, 232, 375
-0.997509, 245, 305, 260, 336
-0.997515, 305, 261, 320, 292
-0.997515, 251, 301, 266, 332
-0.997516, 27, 297, 42, 328
-0.997517, 113, 129, 144, 256
-0.997522, 259, 253, 274, 284
-0.997534, 305, 233, 320, 264
-0.997534, 447, 77, 462, 108
-0.997536, 305, 209, 432, 240
-0.997542, 45, 297, 60, 328
-0.997544, 87, 305, 102, 336
-0.997548, 219, 277, 234, 308
-0.997571, 217, 301, 232, 332
-0.997572, 245, 253, 260, 284
-0.997574, 37, 269, 52, 300
-0.997584, 107, 305, 122, 336
-0.997595, 285, 61, 300, 92
-0.997598, 115, 293, 130, 324
-0.997599, 97, 313, 112, 344
-0.99761, 321, 33, 448, 64
-0.99761, 263, 273, 278, 304
-0.997614, 303, 249, 318, 280
-0.997627, 269, 49, 284, 80
-0.997629, 283, 77, 298, 108
-0.997642, 49, 101, 64, 132
-0.997648, 215, 325, 230, 356
-0.997652, 241, 1, 272, 256
-0.997653, 267, 245, 282, 276
-0.99766, 141, 65, 172, 192
-0.99768, 241, 145, 368, 176
-0.997684, 267, 81, 282, 112
-0.997687, 145, 45, 272, 76
-0.997701, 255, 285, 270, 316
-0.997704, 237, 241, 252, 272
-0.997708, 81, 169, 208, 200
-0.997709, 301, 61, 316, 92
-0.997709, 209, 309, 224, 340
-0.99771, 19, 293, 34, 324
-0.997714, 421, 81, 436, 112
-0.997717, 213, 337, 228, 368
-0.997717, 161, 245, 288, 276
-0.997723, 291, 61, 306, 92
-0.997727, 217, 289, 232, 320
-0.997729, 275, 53, 290, 84
-0.997739, 235, 257, 250, 288
-0.997741, 225, 53, 240, 84
-0.997746, 321, 77, 336, 108
-0.997749, 81, 305, 96, 336
-0.997751, 225, 205, 352, 236
-0.997754, 229, 313, 244, 344
-0.997757, 299, 273, 314, 304
-0.997765, 361, 85, 376, 116
-0.997777, 247, 241, 262, 272
-0.997779, 365, 97, 380, 128
-0.997797, 103, 321, 118, 352
-0.997798, 293, 129, 324, 375
-0.997803, 263, 41, 278, 72
-0.997805, 297, 261, 312, 292
-0.997809, 275, 277, 290, 308
-0.997809, 257, 241, 272, 272
-0.997813, 209, 285, 224, 316
-0.997816, 313, 53, 328, 84
-0.997822, 381, 65, 412, 192
-0.997832, 321, 229, 448, 260
-0.997833, 221, 241, 236, 272
-0.997838, 243, 53, 258, 84
-0.997841, 225, 129, 352, 160
-0.997845, 231, 297, 246, 328
-0.997848, 65, 129, 96, 256
-0.997848, 251, 89, 266, 120
-0.997856, 89, 317, 104, 348
-0.997859, 317, 129, 332, 160
-0.997867, 369, 93, 496, 124
-0.997878, 233, 65, 248, 96
-0.99788, 131, 329, 146, 360
-0.997884, 73, 33, 136, 288
-0.997923, 273, 289, 288, 320
-0.997933, 309, 129, 340, 375
-0.997942, 17, 101, 144, 132
-0.997948, 53, 97, 84, 352
-0.997948, 277, 129, 308, 375
-0.997954, 261, 285, 276, 316
-0.997955, 239, 41, 254, 72
-0.997958, 109, 293, 124, 324
-0.99796, 145, 197, 272, 228
-0.997963, 257, 273, 272, 304
-0.997967, 373, 89, 388, 120
-0.997973, 307, 65, 322, 96
-0.997974, 101, 297, 116, 328
-0.99798, 125, 81, 156, 208
-0.997983, 307, 221, 322, 252
-0.99799, 35, 257, 50, 288
-0.997993, 305, 181, 432, 212
-0.997996, 365, 73, 380, 104
-0.998002, 319, 205, 334, 236
-0.998004, 429, 77, 444, 108
-0.998006, 271, 233, 286, 264
-0.998008, 275, 65, 290, 96
-0.99802, 121, 325, 136, 356
-0.998022, 89, 129, 120, 375
-0.99803, 49, 345, 176, 375
-0.998031, 141, 333, 156, 364
-0.998037, 257, 33, 288, 288
-0.998038, 227, 273, 242, 304
-0.998043, 259, 97, 274, 128
-0.998044, 147, 333, 162, 364
-0.998046, 437, 93, 452, 124
-0.998053, 145, 69, 272, 100
-0.99806, 273, 81, 288, 112
-0.998062, 211, 273, 226, 304
-0.998065, 75, 309, 90, 340
-0.998071, 33, 85, 160, 116
-0.998073, 25, 97, 56, 352
-0.998074, 291, 73, 306, 104
-0.998078, 287, 285, 302, 316
-0.99808, 257, 73, 272, 104
-0.99808, 267, 93, 282, 124
-0.998087, 185, 129, 216, 375
-0.998094, 23, 265, 38, 296
-0.998099, 1, 201, 128, 232
-0.998101, 77, 129, 108, 375
-0.998102, 253, 45, 268, 76
-0.998104, 49, 113, 80, 240
-0.998119, 313, 245, 328, 276
-0.998121, 213, 129, 244, 375
-0.998126, 31, 273, 46, 304
-0.998153, 205, 345, 220, 375
-0.998158, 113, 325, 128, 356
-0.998167, 305, 249, 432, 280
-0.998169, 415, 81, 430, 112
-0.99817, 97, 181, 224, 212
-0.998174, 37, 305, 52, 336
-0.998183, 115, 305, 130, 336
-0.998187, 313, 73, 328, 104
-0.998189, 41, 285, 56, 316
-0.998191, 203, 321, 218, 352
-0.998213, 325, 97, 356, 224
-0.99824, 9, 97, 72, 224
-0.998247, 97, 157, 224, 188
-0.998254, 273, 285, 400, 316
-0.998277, 353, 113, 480, 144
-0.998337, 241, 341, 368, 372
-0.998349, 145, 9, 272, 40
-0.998371, 231, 241, 246, 368
-0.99838, 301, 95, 332, 110
-0.99838, 197, 295, 228, 310
-0.998381, 277, 255, 308, 270
-0.998381, 281, 287, 312, 302
-0.998381, 305, 247, 336, 262
-0.998381, 309, 53, 340, 68
-0.998382, 93, 297, 124, 312
-0.998383, 41, 249, 72, 264
-0.998383, 221, 285, 252, 300
-0.998384, 441, 91, 472, 106
-0.998384, 13, 283, 44, 298
-0.998385, 313, 125, 344, 140
-0.998385, 421, 89, 452, 104
-0.998385, 13, 269, 44, 284
-0.998387, 201, 351, 232, 366
-0.998387, 1, 1, 64, 128
-0.998388, 313, 97, 344, 112
-0.998388, 197, 225, 228, 240
-0.998389, 17, 293, 48, 308
-0.998391, 213, 337, 244, 352
-0.998391, 305, 141, 432, 172
-0.998391, 313, 143, 344, 158
-0.998392, 257, 261, 288, 276
-0.998394, 221, 45, 252, 60
-0.998394, 81, 323, 112, 338
-0.998396, 213, 67, 244, 82
-0.998397, 233, 315, 264, 330
-0.998399, 233, 297, 264, 312
-0.998399, 281, 243, 312, 258
-0.998399, 265, 93, 296, 108
-0.998401, 245, 99, 276, 114
-0.998402, 249, 63, 280, 78
-0.998402, 245, 263, 276, 278
-0.998403, 241, 71, 272, 86
-0.998405, 225, 45, 288, 60
-0.998405, 293, 85, 324, 100
-0.998406, 445, 79, 476, 94
-0.998406, 277, 89, 308, 104
-0.998406, 241, 185, 368, 216
-0.998407, 37, 109, 68, 124
-0.998408, 337, 77, 368, 92
-0.998409, 289, 57, 320, 72
-0.998411, 441, 103, 472, 118
-0.998412, 213, 331, 244, 346
-0.998412, 265, 63, 296, 78
-0.998418, 421, 95, 452, 110
-0.99842, 313, 91, 344, 106
-0.998422, 229, 291, 260, 306
-0.998424, 249, 293, 280, 308
-0.998424, 277, 7, 308, 22
-0.998425, 233, 267, 264, 282
-0.998428, 217, 325, 248, 340
-0.99843, 217, 261, 248, 276
-0.998431, 293, 75, 324, 90
-0.998431, 277, 249, 308, 264
-0.998432, 293, 277, 324, 292
-0.998434, 209, 55, 240, 70
-0.998436, 221, 243, 252, 258
-0.998437, 273, 77, 304, 92
-0.998438, 281, 71, 312, 86
-0.998441, 357, 97, 388, 112
-0.998442, 357, 85, 388, 100
-0.998444, 129, 333, 160, 348
-0.998444, 201, 313, 232, 328
-0.998444, 17, 229, 144, 260
-0.998445, 429, 101, 460, 116
-0.998445, 117, 329, 148, 344
-0.998445, 33, 295, 64, 310
-0.998447, 241, 85, 272, 100
-0.998447, 249, 77, 280, 92
-0.998448, 257, 99, 288, 114
-0.99845, 249, 57, 280, 72
-0.998451, 273, 277, 304, 292
-0.998454, 217, 267, 248, 282
-0.998454, 257, 145, 500, 208
-0.998457, 73, 317, 104, 332
-0.998458, 249, 37, 280, 52
-0.998459, 201, 301, 232, 316
-0.99846, 61, 313, 92, 328
-0.99846, 105, 305, 136, 320
-0.998461, 37, 103, 68, 118
-0.998463, 21, 305, 52, 320
-0.998463, 369, 133, 496, 164
-0.998463, 81, 33, 208, 96
-0.998463, 313, 81, 344, 96
-0.998464, 233, 53, 296, 68
-0.998464, 221, 51, 252, 66
-0.998464, 49, 103, 80, 118
-0.998466, 201, 307, 232, 322
-0.998466, 209, 283, 240, 298
-0.998467, 261, 77, 292, 92
-0.998469, 261, 297, 292, 312
-0.998469, 153, 343, 216, 358
-0.998469, 305, 59, 336, 74
-0.99847, 409, 81, 472, 96
-0.998472, 65, 137, 320, 200
-0.998472, 33, 177, 160, 208
-0.998474, 209, 49, 240, 64
-0.998477, 241, 61, 304, 76
-0.998477, 241, 91, 272, 106
-0.998483, 237, 45, 268, 60
-0.998484, 105, 325, 136, 340
-0.998484, 269, 291, 300, 306
-0.998485, 269, 1, 284, 128
-0.998487, 201, 53, 264, 68
-0.998487, 201, 47, 264, 62
-0.998487, 233, 51, 264, 66
-0.998488, 281, 73, 344, 88
-0.998488, 225, 267, 288, 282
-0.998488, 421, 83, 452, 98
-0.998493, 25, 261, 56, 276
-0.998494, 205, 325, 236, 340
-0.998495, 141, 335, 172, 350
-0.998495, 441, 97, 472, 112
-0.998497, 237, 61, 268, 76
-0.998497, 37, 307, 68, 322
-0.998498, 277, 63, 308, 78
-0.998502, 257, 287, 288, 302
-0.998503, 249, 45, 280, 60
-0.998504, 353, 1, 384, 256
-0.998506, 233, 285, 296, 300
-0.998506, 253, 51, 284, 66
-0.998507, 209, 61, 240, 76
-0.998507, 201, 59, 264, 74
-0.998507, 293, 69, 324, 84
-0.998508, 85, 309, 116, 324
-0.998508, 25, 277, 56, 292
-0.998508, 217, 273, 248, 288
-0.998509, 81, 307, 144, 322
-0.998514, 1, 337, 128, 368
-0.998517, 243, 241, 258, 368
-0.998518, 279, 1, 294, 128
-0.998519, 253, 83, 284, 98
-0.998519, 73, 311, 104, 326
-0.99852, 225, 63, 256, 78
-0.99852, 113, 253, 240, 284
-0.998522, 329, 91, 392, 106
-0.998523, 361, 91, 392, 106
-0.998524, 433, 81, 464, 96
-0.998525, 41, 311, 104, 326
-0.998525, 93, 323, 124, 338
-0.998526, 269, 57, 300, 72
-0.998526, 161, 353, 224, 368
-0.998527, 241, 95, 304, 110
-0.998528, 121, 335, 184, 350
-0.998528, 221, 65, 252, 192
-0.998528, 97, 329, 160, 344
-0.99853, 161, 361, 224, 375
-0.998533, 305, 67, 368, 82
-0.998533, 85, 303, 116, 318
-0.998533, 353, 91, 416, 106
-0.998534, 209, 289, 240, 304
-0.998535, 193, 339, 256, 354
-0.998536, 49, 305, 112, 320
-0.998537, 313, 77, 376, 92
-0.99854, 21, 299, 52, 314
-0.99854, 265, 67, 328, 82
-0.998541, 85, 317, 116, 332
-0.998543, 193, 309, 256, 324
-0.998544, 25, 267, 56, 282
-0.998545, 153, 337, 216, 352
-0.998546, 213, 303, 244, 318
-0.998547, 81, 301, 144, 316
-0.998547, 33, 301, 64, 316
-0.998549, 57, 319, 120, 334
-0.998549, 29, 289, 60, 304
-0.99855, 289, 63, 320, 78
-0.99855, 425, 99, 488, 114
-0.99855, 201, 333, 232, 348
-0.998552, 241, 261, 304, 276
-0.998552, 385, 83, 448, 98
-0.998554, 321, 161, 448, 192
-0.998554, 209, 295, 240, 310
-0.998554, 225, 273, 288, 288
-0.998555, 215, 241, 230, 368
-0.998557, 81, 323, 144, 338
-0.998558, 265, 265, 328, 280
-0.998558, 41, 105, 104, 120
-0.998558, 1, 105, 64, 120
-0.99856, 221, 57, 252, 72
-0.99856, 265, 61, 328, 76
-0.998561, 217, 315, 280, 330
-0.998561, 361, 83, 424, 98
-0.998562, 205, 319, 236, 334
-0.998563, 145, 157, 272, 188
-0.998564, 273, 287, 336, 302
-0.998564, 233, 291, 296, 306
-0.998566, 173, 81, 204, 208
-0.998567, 213, 309, 244, 324
-0.998567, 105, 299, 136, 314
-0.998568, 193, 349, 256, 364
-0.99857, 321, 85, 384, 100
-0.998572, 193, 327, 256, 342
-0.998573, 345, 97, 408, 112
-0.998574, 225, 299, 288, 314
-0.998574, 305, 61, 368, 76
-0.998575, 385, 91, 448, 106
-0.998575, 217, 261, 280, 276
-0.998577, 265, 9, 328, 24
-0.99858, 193, 315, 256, 330
-0.998582, 153, 331, 216, 346
-0.998582, 193, 225, 256, 240
-0.998583, 241, 305, 304, 320
-0.998584, 273, 247, 336, 262
-0.998585, 217, 93, 280, 108
-0.998587, 305, 5, 368, 20
-0.998588, 217, 321, 280, 336
-0.998588, 253, 93, 284, 108
-0.998589, 233, 279, 296, 294
-0.99859, 425, 93, 488, 108
-0.998591, 1, 279, 64, 294
-0.998591, 201, 339, 232, 354
-0.998591, 113, 343, 176, 358
-0.998592, 201, 65, 264, 80
-0.998593, 209, 293, 272, 308
-0.998593, 249, 299, 312, 314
-0.998595, 305, 203, 368, 218
-0.998595, 249, 271, 312, 286
-0.998595, 233, 241, 296, 256
-0.998595, 65, 313, 128, 328
-0.998598, 257, 237, 320, 252
-0.998599, 193, 333, 256, 348
-0.998599, 321, 97, 384, 112
-0.998599, 461, 65, 492, 192
-0.998599, 193, 321, 256, 336
-0.998601, 281, 55, 344, 70
-0.998602, 233, 77, 296, 92
-0.998603, 297, 233, 360, 248
-0.998603, 241, 67, 304, 82
-0.998604, 233, 223, 296, 238
-0.998604, 17, 271, 80, 286
-0.998604, 289, 79, 352, 94
-0.998605, 257, 77, 320, 92
-0.998605, 193, 361, 256, 375
-0.998606, 9, 295, 72, 310
-0.998607, 281, 225, 344, 240
-0.998607, 265, 231, 328, 246
-0.998608, 281, 281, 344, 296
-0.998609, 401, 97, 464, 112
-0.998612, 193, 355, 256, 370
-0.998612, 241, 87, 304, 102
-0.998612, 217, 83, 280, 98
-0.998613, 281, 1, 344, 16
-0.998613, 361, 77, 424, 92
-0.998614, 273, 259, 336, 274
-0.998615, 225, 39, 288, 54
-0.998615, 409, 87, 472, 102
-0.998616, 217, 255, 280, 270
-0.998616, 257, 55, 320, 70
-0.998616, 329, 71, 392, 86
-0.998617, 249, 47, 312, 62
-0.998618, 193, 303, 256, 318
-0.998618, 241, 101, 304, 116
-0.998619, 9, 289, 72, 304
-0.998619, 257, 279, 320, 294
-0.998619, 385, 113, 416, 240
-0.998622, 217, 309, 280, 324
-0.998622, 201, 241, 264, 256
-0.998622, 41, 245, 104, 260
-0.998624, 289, 197, 352, 212
-0.998624, 193, 105, 320, 136
-0.998625, 241, 311, 304, 326
-0.998625, 313, 251, 376, 266
-0.998626, 41, 99, 104, 114
-0.998628, 217, 71, 280, 86
-0.998629, 281, 275, 344, 290
-0.99863, 273, 253, 336, 268
-0.998631, 281, 219, 344, 234
-0.998631, 1, 265, 64, 280
-0.998631, 249, 41, 312, 56
-0.998631, 217, 331, 280, 346
-0.998632, 17, 311, 80, 326
-0.998632, 305, 11, 368, 26
-0.998632, 357, 97, 388, 352
-0.998633, 305, 225, 368, 240
-0.998635, 9, 301, 72, 316
-0.998637, 89, 313, 152, 328
-0.998639, 297, 241, 360, 256
-0.998639, 193, 287, 256, 302
-0.99864, 201, 41, 264, 56
-0.998641, 313, 51, 376, 66
-0.998641, 233, 217, 296, 232
-0.998641, 113, 237, 240, 268
-0.998641, 17, 249, 80, 264
-0.998643, 433, 79, 496, 94
-0.998643, 273, 301, 400, 332
-0.998644, 173, 129, 204, 375
-0.998655, 17, 69, 144, 100
-0.998662, 1, 137, 500, 200
-0.998678, 225, 129, 256, 375
-0.998683, 285, 1, 300, 128
-0.998684, 97, 81, 128, 208
-0.998688, 353, 57, 480, 88
-0.998692, 53, 1, 84, 256
-0.998693, 249, 241, 264, 368
-0.998707, 49, 157, 176, 188
-0.998732, 145, 105, 272, 136
-0.998733, 261, 129, 292, 375
-0.998742, 237, 241, 252, 368
-0.998743, 315, 1, 330, 128
-0.998755, 65, 213, 192, 244
-0.998767, 257, 317, 384, 348
-0.998769, 161, 97, 192, 352
-0.998774, 65, 129, 96, 375
-0.998776, 49, 145, 176, 176
-0.998779, 49, 273, 176, 304
-0.998793, 249, 129, 280, 375
-0.998801, 225, 241, 240, 368
-0.998809, 257, 241, 272, 368
-0.998815, 121, 129, 152, 375
-0.998834, 341, 241, 372, 368
-0.998837, 279, 209, 294, 336
-0.998846, 193, 141, 320, 172
-0.998864, 309, 49, 324, 176
-0.998873, 229, 1, 260, 256
-0.998884, 77, 129, 108, 256
-0.998898, 369, 33, 400, 288
-0.9989, 307, 209, 322, 336
-0.998908, 149, 129, 180, 375
-0.998912, 351, 1, 366, 128
-0.998918, 321, 65, 336, 192
-0.99892, 45, 241, 60, 368
-0.99893, 301, 209, 316, 336
-0.998936, 105, 129, 136, 375
-0.998945, 309, 1, 324, 128
-0.998946, 303, 1, 318, 128
-0.998948, 193, 117, 320, 148
-0.998952, 273, 241, 288, 368
-0.998973, 369, 229, 496, 260
-0.998974, 209, 193, 224, 320
-0.998977, 207, 241, 222, 368
-0.998979, 51, 225, 66, 352
-0.99898, 37, 225, 52, 352
-0.998987, 1, 105, 500, 168
-0.998992, 261, 1, 276, 128
-0.998995, 297, 49, 312, 176
-0.998998, 321, 197, 448, 228
-0.999002, 1, 33, 256, 96
-0.999005, 17, 33, 144, 96
-0.999012, 193, 153, 320, 184
-0.999025, 65, 237, 192, 268
-0.999027, 251, 193, 266, 320
-0.999029, 31, 225, 46, 352
-0.999032, 337, 97, 368, 224
-0.999037, 291, 1, 306, 128
-0.999039, 313, 161, 328, 288
-0.999041, 145, 117, 272, 148
-0.999072, 65, 97, 192, 128
-0.999072, 91, 241, 106, 368
-0.999077, 219, 193, 234, 320
-0.999078, 283, 49, 298, 176
-0.99908, 13, 129, 44, 375
-0.999093, 303, 49, 318, 176
-0.999104, 297, 1, 312, 128
-0.99913, 291, 49, 306, 176
-0.999131, 271, 49, 286, 176
-0.999134, 345, 1, 360, 128
-0.999137, 277, 49, 292, 176
-0.999138, 315, 65, 330, 192
-0.999138, 237, 129, 268, 375
-0.99914, 25, 241, 40, 368
-0.999141, 243, 193, 258, 320
-0.999141, 323, 1, 338, 128
-0.999143, 331, 65, 346, 192
-0.999158, 79, 225, 94, 352
-0.999167, 377, 193, 408, 320
-0.999169, 229, 193, 244, 320
-0.999177, 267, 225, 282, 352
-0.999178, 201, 225, 216, 352
-0.999184, 405, 145, 436, 272
-0.999189, 293, 241, 308, 368
-0.99919, 97, 225, 112, 352
-0.999195, 259, 193, 274, 320
-0.999197, 57, 97, 120, 224
-0.999197, 319, 193, 334, 320
-0.999198, 331, 1, 346, 128
-0.999202, 235, 193, 250, 320
-0.999219, 313, 209, 328, 336
-0.999221, 315, 113, 330, 240
-0.999224, 249, 33, 264, 160
-0.999227, 285, 209, 300, 336
-0.999237, 85, 225, 100, 352
-0.999238, 73, 225, 88, 352
-0.999245, 257, 49, 272, 176
-0.999249, 321, 129, 336, 256
-0.999252, 357, 1, 372, 128
-0.999255, 67, 225, 82, 352
-0.999265, 45, 193, 60, 320
-0.999273, 215, 17, 230, 144
-0.999274, 203, 177, 218, 304
-0.999286, 337, 1, 352, 128
-0.999289, 59, 209, 74, 336
-0.999292, 89, 161, 104, 288
-0.999295, 337, 289, 464, 352
-0.999297, 191, 177, 206, 304
-0.999304, 201, 33, 232, 288
-0.999309, 25, 145, 56, 272
-0.999312, 103, 225, 118, 352
-0.999313, 197, 161, 212, 288
-0.999317, 343, 193, 358, 320
-0.999317, 255, 1, 270, 128
-0.999318, 243, 17, 258, 144
-0.999326, 265, 49, 280, 176
-0.999329, 341, 49, 356, 176
-0.99935, 295, 193, 310, 320
-0.999358, 33, 1, 64, 256
-0.999368, 433, 97, 496, 352
-0.999372, 443, 81, 458, 208
-0.999375, 273, 193, 288, 320
-0.999379, 183, 177, 198, 304
-0.999379, 301, 161, 316, 288
-0.99938, 233, 33, 248, 160
-0.999383, 19, 193, 34, 320
-0.99939, 309, 113, 324, 240
-0.999392, 25, 193, 40, 320
-0.999403, 19, 241, 34, 368
-0.999406, 371, 177, 386, 304
-0.999408, 83, 161, 98, 288
-0.999411, 333, 129, 364, 375
-0.999412, 1, 113, 256, 176
-0.999418, 405, 97, 436, 352
-0.999431, 331, 177, 346, 304
-0.999443, 113, 225, 128, 352
-0.999443, 111, 177, 126, 304
-0.999447, 223, 17, 238, 144
-0.999448, 175, 193, 190, 320
-0.99945, 169, 193, 184, 320
-0.999452, 333, 225, 348, 352
-0.999454, 51, 177, 66, 304
-0.999455, 129, 225, 144, 352
-0.999465, 149, 193, 164, 320
-0.999469, 267, 177, 282, 304
-0.99947, 349, 177, 364, 304
-0.999479, 143, 177, 158, 304
-0.999479, 37, 177, 52, 304
-0.999485, 347, 49, 362, 176
-0.999485, 51, 81, 66, 208
-0.999486, 119, 209, 134, 336
-0.999491, 359, 209, 374, 336
-0.999496, 337, 177, 352, 304
-0.999496, 337, 313, 464, 375
-0.999497, 213, 1, 244, 256
-0.999504, 163, 193, 178, 320
-0.999505, 95, 177, 110, 304
-0.999505, 365, 193, 380, 320
-0.999509, 365, 49, 380, 176
-0.99951, 33, 9, 160, 72
-0.999512, 69, 177, 84, 304
-0.999512, 437, 65, 452, 192
-0.999515, 325, 193, 340, 320
-0.999515, 57, 161, 72, 288
-0.999515, 141, 241, 156, 368
-0.999515, 377, 17, 408, 144
-0.999516, 439, 1, 454, 128
-0.999517, 389, 129, 420, 375
-0.999521, 173, 113, 188, 240
-0.999526, 105, 177, 120, 304
-0.999527, 135, 225, 150, 352
-0.999535, 81, 1, 208, 64
-0.999535, 327, 129, 342, 256
-0.999535, 353, 49, 368, 176
-0.999536, 133, 97, 164, 352
-0.999536, 75, 161, 90, 288
-0.99954, 31, 177, 46, 304
-0.999543, 125, 177, 140, 304
-0.999545, 407, 81, 422, 208
-0.99955, 449, 65, 464, 192
-0.999563, 129, 17, 192, 144
-0.999565, 425, 1, 456, 256
-0.999607, 409, 209, 472, 336
-0.999615, 71, 313, 86, 328
-0.999615, 371, 97, 386, 112
-0.999618, 39, 269, 54, 284
-0.999618, 219, 273, 234, 288
-0.999619, 283, 83, 298, 98
-0.999619, 247, 53, 262, 68
-0.99962, 135, 333, 150, 348
-0.99962, 111, 297, 126, 312
-0.999621, 227, 55, 242, 70
-0.999622, 225, 63, 240, 78
-0.999622, 235, 269, 250, 284
-0.999622, 299, 263, 314, 278
-0.999623, 317, 203, 332, 218
-0.999624, 19, 295, 34, 310
-0.999624, 279, 291, 294, 306
-0.999624, 109, 325, 124, 340
-0.999624, 273, 287, 288, 302
-0.999625, 203, 331, 218, 346
-0.999628, 267, 91, 282, 106
-0.999628, 277, 57, 292, 72
-0.999629, 301, 255, 316, 270
-0.99963, 87, 315, 102, 330
-0.999631, 105, 299, 120, 314
-0.999631, 227, 287, 242, 302
-0.999631, 77, 311, 92, 326
-0.999632, 217, 285, 232, 300
-0.999632, 265, 273, 280, 288
-0.999634, 39, 277, 54, 292
-0.999635, 233, 285, 248, 300
-0.999637, 211, 283, 226, 298
-0.999637, 213, 341, 228, 356
-0.999639, 219, 61, 234, 76
-0.999639, 291, 73, 306, 88
-0.999639, 429, 83, 444, 98
-0.99964, 267, 261, 282, 276
-0.99964, 247, 259, 262, 274
-0.99964, 305, 237, 320, 252
-0.999641, 155, 337, 170, 352
-0.999641, 37, 301, 52, 316
-0.999641, 257, 257, 272, 272
-0.999641, 285, 287, 300, 302
-0.999642, 99, 303, 114, 318
-0.999642, 259, 269, 274, 284
-0.999642, 255, 87, 270, 102
-0.999643, 299, 269, 314, 284
-0.999647, 235, 311, 250, 326
-0.999647, 273, 295, 288, 310
-0.999647, 251, 93, 266, 108
-0.999648, 129, 331, 144, 346
-0.999649, 219, 305, 234, 320
-0.999649, 243, 297, 258, 312
-0.999649, 209, 317, 224, 332
-0.999651, 97, 323, 112, 338
-0.999652, 231, 279, 246, 294
-0.999652, 29, 259, 44, 274
-0.999652, 225, 307, 240, 322
-0.999652, 229, 273, 244, 288
-0.999655, 223, 319, 238, 334
-0.999656, 209, 325, 224, 340
-0.999656, 299, 275, 314, 290
-0.999656, 255, 81, 270, 96
-0.999657, 89, 305, 104, 320
-0.999658, 237, 63, 252, 78
-0.99966, 209, 299, 224, 314
-0.999661, 227, 293, 242, 308
-0.999661, 301, 63, 316, 78
-0.999661, 345, 97, 376, 352
-0.999663, 307, 67, 322, 82
-0.999663, 35, 295, 50, 310
-0.999663, 415, 83, 430, 98
-0.999664, 213, 59, 228, 74
-0.999664, 217, 295, 232, 310
-0.999664, 209, 311, 224, 326
-0.999665, 249, 289, 264, 304
-0.999666, 231, 299, 246, 314
-0.999667, 91, 321, 106, 336
-0.999668, 205, 343, 220, 358
-0.999668, 443, 103, 458, 118
-0.999669, 29, 265, 44, 280
-0.99967, 291, 63, 306, 78
-0.99967, 237, 299, 252, 314
-0.999672, 365, 99, 380, 114
-0.999672, 215, 331, 230, 346
-0.999673, 243, 43, 258, 58
-0.999673, 27, 277, 42, 292
-0.999673, 263, 77, 278, 92
-0.999676, 305, 267, 320, 282
-0.999676, 233, 53, 248, 68
-0.999677, 103, 323, 118, 338
-0.999678, 99, 317, 114, 332
-0.99968, 257, 99, 272, 114
-0.99968, 251, 269, 266, 284
-0.99968, 241, 275, 256, 290
-0.999681, 243, 283, 258, 298
-0.999681, 271, 55, 286, 70
-0.999683, 283, 61, 298, 76
-0.999686, 437, 81, 452, 96
-0.999686, 83, 309, 98, 324
-0.999689, 251, 275, 266, 290
-0.999689, 229, 313, 244, 328
-0.999689, 443, 79, 458, 94
-0.999689, 257, 263, 272, 278
-0.999691, 45, 303, 60, 318
-0.999691, 247, 305, 262, 320
-0.999691, 215, 315, 230, 330
-0.999691, 239, 291, 254, 306
-0.999691, 311, 57, 326, 72
-0.999692, 25, 293, 40, 308
-0.999693, 249, 295, 264, 310
-0.999695, 209, 305, 224, 320
-0.999698, 29, 303, 44, 318
-0.999701, 245, 311, 260, 326
-0.999702, 245, 269, 260, 284
-0.999708, 223, 325, 238, 340
-0.999709, 215, 321, 230, 336
-0.99971, 117, 297, 132, 312
-0.99971, 215, 45, 230, 60
-0.99971, 209, 331, 224, 346
-0.999711, 421, 83, 436, 98
-0.999712, 219, 279, 234, 294
-0.999712, 251, 283, 266, 298
-0.999717, 243, 59, 258, 74
-0.999717, 367, 89, 382, 104
-0.999731, 93, 315, 108, 330
-0.999734, 235, 317, 250, 332
-0.999747, 237, 305, 252, 320
-0.999749, 205, 337, 220, 352
-0.999753, 35, 289, 50, 304
-0.999756, 443, 97, 458, 112
-0.99977, 1, 97, 32, 352
-0.999776, 49, 103, 64, 118
-0.999796, 173, 33, 204, 288
-0.999815, 1, 1, 32, 256
-0.999821, 257, 93, 272, 108
-0.999864, 425, 129, 488, 256
-0.999876, 453, 129, 484, 375
-0.999917, 449, 129, 480, 256
-0.999925, 389, 33, 420, 288
-0.999934, 17, 1, 48, 256
-0.999948, 273, 145, 304, 272
-0.999953, 373, 129, 404, 375
-0.999989, 413, 1, 444, 256
-0.999989, 49, 17, 80, 144
-1.00002, 441, 65, 472, 320
-1.00003, 145, 33, 176, 288
-1.00005, 465, 65, 496, 320
-1.00006, 93, 17, 124, 144
-1.00008, 421, 97, 452, 352
-1.00011, 121, 33, 152, 288
-1.00015, 401, 1, 432, 256
-1.00025, 189, 33, 220, 288
-1.00025, 233, 145, 264, 272
-1.00027, 93, 33, 124, 288
-1.00032, 157, 1, 188, 256
-1.00038, 165, 241, 196, 368
-1.00043, 453, 33, 484, 288
-1.00047, 133, 1, 164, 256
-1.00049, 73, 33, 104, 288
-1.00053, 369, 249, 496, 312
-1.00058, 109, 65, 140, 192
-1.0006, 109, 33, 140, 288
-1.00067, 349, 97, 380, 224
-1.00082, 73, 65, 104, 192
-1.00113, 97, 33, 160, 288
