1995
-0.481576, 1, 129, 500, 378
-0.666423, 1, 33, 500, 288
-0.673539, 257, 1, 500, 378
-0.699083, 33, 97, 288, 352
-0.709321, 33, 1, 288, 378
-0.720449, 1, 1, 500, 378
-0.72251, 193, 129, 448, 378
-0.798366, 161, 1, 416, 378
-0.868966, 161, 33, 416, 288
-0.88887, 1, 145, 500, 272
-0.89169, 161, 97, 288, 352
-0.893953, 257, 129, 384, 378
-0.899454, 305, 129, 432, 378
-0.90507, 161, 145, 416, 272
-0.905691, 209, 129, 336, 378
-0.909299, 225, 1, 352, 378
-0.919172, 1, 193, 500, 320
-0.923658, 225, 33, 352, 288
-0.925149, 49, 97, 176, 352
-0.926472, 225, 145, 352, 272
-0.926953, 369, 65, 496, 320
-0.927027, 337, 1, 464, 378
-0.929797, 129, 1, 256, 378
-0.929992, 65, 161, 320, 288
-0.930867, 289, 1, 416, 378
-0.934899, 17, 177, 80, 304
-0.935086, 161, 145, 288, 272
-0.936639, 1, 97, 500, 224
-0.936649, 113, 97, 240, 352
-0.936883, 1, 177, 128, 304
-0.938128, 313, 129, 376, 256
-0.938729, 257, 97, 500, 224
-0.939419, 1, 129, 128, 378
-0.939725, 257, 145, 500, 272
-0.940019, 289, 129, 416, 256
-0.940124, 33, 113, 288, 240
-0.940605, 33, 1, 160, 378
-0.940711, 305, 33, 432, 288
-0.942336, 225, 145, 288, 272
-0.942506, 81, 1, 208, 378
-0.944356, 265, 145, 328, 272
-0.944971, 337, 113, 464, 240
-0.945514, 161, 193, 416, 320
-0.945532, 193, 145, 256, 272
-0.945658, 25, 209, 88, 272
-0.945735, 177, 1, 304, 378
-0.94591, 161, 97, 416, 224
-0.946582, 337, 129, 400, 256
-0.947194, 25, 185, 88, 248
-0.947993, 361, 113, 424, 240
-0.949712, 409, 97, 472, 224
-0.95031, 33, 209, 288, 336
-0.950629, 289, 145, 352, 272
-0.951452, 49, 193, 112, 320
-0.95149, 49, 193, 176, 320
-0.951883, 377, 121, 440, 184
-0.952231, 113, 113, 240, 240
-0.954051, 385, 97, 448, 224
-0.955025, 113, 161, 240, 288
-0.955468, 257, 33, 500, 288
-0.956083, 49, 193, 112, 256
-0.95742, 209, 137, 272, 200
-0.957571, 169, 185, 232, 248
-0.958115, 337, 129, 400, 192
-0.959092, 185, 153, 248, 216
-0.959325, 169, 145, 232, 272
-0.959589, 409, 105, 472, 168
-0.959654, 297, 137, 360, 200
-0.959912, 249, 161, 312, 224
-0.960684, 337, 153, 400, 216
-0.960688, 297, 177, 360, 240
-0.961124, 273, 177, 400, 304
-0.961427, 49, 217, 112, 280
-0.961967, 1, 169, 64, 232
-0.963562, 177, 129, 240, 192
-0.963724, 1, 33, 128, 288
-0.964537, 161, 193, 288, 320
-0.964558, 433, 105, 496, 168
-0.96488, 161, 97, 288, 224
-0.965044, 129, 193, 192, 256
-0.965199, 161, 193, 224, 320
-0.966023, 313, 177, 376, 304
-0.967019, 185, 193, 248, 320
-0.967054, 105, 193, 168, 320
-0.967441, 1, 193, 128, 256
-0.96772, 225, 209, 352, 336
-0.967953, 185, 209, 248, 272
-0.968507, 37, 177, 68, 240
-0.968521, 273, 185, 336, 248
-0.968577, 433, 97, 496, 224
-0.968853, 145, 113, 208, 176
-0.968899, 1, 193, 64, 256
-0.969131, 89, 209, 152, 272
-0.969431, 37, 177, 68, 304
-0.969878, 241, 97, 368, 224
-0.970082, 209, 185, 272, 248
-0.970213, 1, 217, 64, 280
-0.970268, 273, 153, 336, 216
-0.97068, 273, 209, 336, 272
-0.97071, 225, 161, 288, 224
-0.971057, 145, 129, 208, 256
-0.971311, 385, 121, 416, 184
-0.97132, 177, 1, 304, 256
-0.971341, 65, 193, 96, 256
-0.971665, 53, 185, 84, 248
-0.971945, 289, 81, 416, 208
-0.97246, 241, 153, 368, 216
-0.972461, 305, 201, 368, 264
-0.972623, 321, 121, 448, 184
-0.972694, 129, 177, 192, 304
-0.97276, 161, 153, 224, 216
-0.972781, 217, 193, 280, 320
-0.972801, 365, 129, 396, 192
-0.972894, 257, 193, 500, 320
-0.972942, 337, 161, 464, 288
-0.973048, 65, 209, 192, 272
-0.973114, 193, 97, 256, 224
-0.973129, 369, 105, 496, 168
-0.973286, 49, 177, 80, 304
-0.973639, 453, 105, 484, 168
-0.97373, 81, 193, 144, 320
-0.973821, 273, 193, 336, 320
-0.974067, 25, 201, 56, 264
-0.974239, 369, 65, 496, 192
-0.974247, 361, 145, 424, 208
-0.974465, 129, 193, 256, 256
-0.974796, 113, 1, 240, 256
-0.975353, 37, 209, 68, 272
-0.975392, 337, 177, 400, 240
-0.975768, 217, 161, 248, 288
-0.975778, 337, 81, 400, 208
-0.97579, 233, 201, 296, 264
-0.975802, 353, 129, 384, 256
-0.975828, 129, 217, 192, 280
-0.975846, 1, 129, 128, 256
-0.975878, 53, 217, 84, 280
-0.97589, 97, 209, 224, 336
-0.975902, 225, 177, 352, 240
-0.975925, 313, 81, 376, 208
-0.97609, 161, 209, 224, 272
-0.976298, 241, 209, 304, 336
-0.976358, 365, 113, 396, 240
-0.976471, 121, 113, 184, 176
-0.97671, 289, 145, 416, 208
-0.976983, 25, 177, 56, 304
-0.977012, 17, 217, 144, 280
-0.977063, 317, 177, 348, 240
-0.977152, 17, 169, 48, 232
-0.977364, 401, 129, 464, 192
-0.977395, 193, 145, 320, 208
-0.977481, 249, 145, 280, 272
-0.977546, 1, 49, 500, 176
-0.977596, 33, 241, 96, 304
-0.977654, 309, 129, 340, 256
-0.977667, 209, 217, 272, 280
-0.977668, 129, 217, 256, 280
-0.977859, 433, 137, 496, 200
-0.977933, 233, 129, 296, 378
-0.977976, 169, 97, 232, 224
-0.978023, 393, 113, 424, 240
-0.978195, 185, 121, 216, 184
-0.978274, 177, 185, 208, 248
-0.978277, 25, 129, 88, 256
-0.978297, 177, 169, 304, 232
-0.978409, 325, 145, 356, 272
-0.978428, 17, 241, 80, 368
-0.978485, 201, 145, 232, 272
-0.978697, 233, 137, 264, 200
-0.978776, 1, 225, 128, 352
-0.978812, 409, 113, 440, 176
-0.978839, 213, 129, 244, 192
-0.97884, 249, 137, 312, 200
-0.978958, 157, 201, 188, 264
-0.979028, 273, 145, 304, 272
-0.979053, 293, 185, 324, 248
-0.979151, 413, 97, 444, 224
-0.979434, 221, 161, 252, 224
-0.979448, 329, 185, 360, 248
-0.979673, 145, 137, 272, 200
-0.979699, 177, 201, 304, 264
-0.979705, 277, 153, 308, 216
-0.979744, 13, 161, 44, 288
-0.979826, 265, 97, 328, 224
-0.97984, 341, 129, 372, 256
-0.979887, 397, 121, 428, 184
-0.979916, 49, 145, 176, 272
-0.979939, 61, 177, 92, 304
-0.980049, 353, 129, 384, 192
-0.980093, 169, 105, 232, 168
-0.980117, 329, 161, 360, 224
-0.980133, 385, 145, 448, 272
-0.980196, 201, 129, 232, 192
-0.980201, 1, 129, 64, 256
-0.980242, 1, 241, 500, 368
-0.980275, 257, 201, 384, 264
-0.98028, 385, 153, 448, 216
-0.98035, 285, 161, 316, 288
-0.980504, 257, 129, 320, 378
-0.980553, 57, 145, 120, 272
-0.980633, 197, 161, 228, 224
-0.980729, 233, 129, 264, 256
-0.980796, 441, 97, 472, 224
-0.980892, 65, 97, 192, 224
-0.980896, 209, 129, 272, 378
-0.980946, 305, 169, 432, 232
-0.980957, 337, 177, 400, 304
-0.980977, 177, 97, 240, 352
-0.981002, 97, 121, 224, 184
-0.981085, 13, 193, 44, 256
-0.981211, 361, 65, 424, 192
-0.981312, 121, 113, 184, 240
-0.981493, 457, 97, 488, 224
-0.981531, 369, 145, 496, 208
-0.981602, 161, 113, 192, 176
-0.981641, 209, 209, 240, 272
-0.981777, 465, 105, 496, 168
-0.982023, 9, 241, 72, 304
-0.982349, 345, 153, 376, 216
-0.982662, 201, 185, 232, 248
-0.982665, 181, 145, 212, 272
-0.982835, 425, 97, 456, 224
-0.982954, 253, 145, 284, 208
-0.983021, 49, 169, 112, 232
-0.983054, 369, 153, 400, 216
-0.983119, 381, 113, 412, 240
-0.983129, 361, 161, 424, 288
-0.983158, 301, 145, 332, 208
-0.983201, 233, 225, 296, 288
-0.983213, 341, 129, 372, 192
-0.98326, 337, 97, 400, 352
-0.98339, 25, 161, 88, 224
-0.983425, 17, 241, 144, 304
-0.983501, 297, 161, 328, 288
-0.983522, 325, 137, 356, 200
-0.983713, 421, 113, 452, 176
-0.983862, 185, 145, 216, 208
-0.983873, 65, 233, 192, 296
-0.984029, 65, 1, 192, 256
-0.984053, 189, 193, 220, 256
-0.984109, 21, 233, 52, 296
-0.98411, 241, 129, 368, 192
-0.984117, 273, 129, 336, 192
-0.984129, 85, 201, 116, 264
-0.984147, 49, 185, 176, 248
-0.984169, 317, 201, 348, 264
-0.984224, 313, 177, 344, 304
-0.98426, 37, 233, 68, 296
-0.984345, 193, 225, 320, 288
-0.984361, 289, 145, 320, 208
-0.984406, 297, 97, 360, 352
-0.984416, 125, 209, 156, 272
-0.98444, 289, 97, 352, 224
-0.984468, 441, 105, 472, 168
-0.984496, 417, 145, 480, 272
-0.984581, 277, 209, 308, 272
-0.984612, 65, 217, 96, 280
-0.984646, 25, 97, 88, 352
-0.984908, 137, 225, 200, 352
-0.985008, 145, 193, 176, 256
-0.985161, 73, 233, 136, 296
-0.985235, 41, 241, 104, 368
-0.985253, 145, 113, 272, 176
-0.985327, 345, 177, 376, 240
-0.985433, 225, 97, 288, 224
-0.985641, 265, 217, 296, 280
-0.985696, 173, 113, 204, 176
-0.985711, 149, 113, 180, 176
-0.985729, 1, 169, 128, 232
-0.985763, 261, 145, 292, 272
-0.98602, 305, 169, 336, 232
-0.986281, 73, 185, 136, 248
-0.986328, 181, 97, 212, 224
-0.986335, 305, 193, 336, 256
-0.986339, 105, 233, 168, 296
-0.986392, 49, 241, 176, 368
-0.986431, 265, 153, 296, 216
-0.986489, 209, 153, 240, 216
-0.986634, 113, 201, 144, 264
-0.986849, 465, 129, 496, 192
-0.986852, 229, 177, 260, 304
-0.98688, 113, 193, 144, 320
-0.986965, 313, 137, 344, 200
-0.987031, 169, 209, 200, 272
-0.987407, 233, 169, 264, 232
-0.987556, 221, 185, 252, 248
-0.987626, 257, 49, 500, 176
-0.987886, 101, 209, 132, 336
-0.987917, 129, 241, 384, 368
-0.987938, 377, 97, 440, 160
-0.987966, 25, 189, 88, 220
-0.988025, 129, 161, 256, 224
-0.988173, 133, 193, 164, 320
-0.98823, 137, 217, 168, 280
-0.988309, 137, 105, 168, 168
-0.988321, 305, 193, 432, 256
-0.988354, 337, 97, 400, 160
-0.988363, 209, 209, 240, 336
-0.988378, 25, 213, 88, 244
-0.988395, 85, 193, 116, 320
-0.988397, 265, 209, 296, 336
-0.988474, 45, 225, 76, 352
-0.98848, 165, 177, 196, 240
-0.98851, 417, 49, 480, 176
-0.988597, 49, 201, 112, 232
-0.988633, 213, 113, 244, 240
-0.988643, 161, 49, 416, 176
-0.988754, 9, 217, 40, 280
-0.988824, 173, 145, 204, 208
-0.988825, 337, 157, 400, 188
-0.988832, 193, 121, 320, 184
-0.98893, 265, 217, 328, 248
-0.988989, 221, 209, 252, 272
-0.989014, 201, 241, 264, 368
-0.989026, 201, 241, 264, 304
-0.989078, 393, 145, 424, 208
-0.989113, 193, 193, 224, 320
-0.989184, 409, 153, 472, 216
-0.989187, 305, 205, 368, 236
-0.98921, 161, 145, 416, 208
-0.989247, 169, 145, 200, 272
-0.989268, 153, 49, 216, 176
-0.989296, 177, 221, 240, 252
-0.989396, 33, 209, 288, 272
-0.989429, 1, 129, 64, 378
-0.989437, 257, 165, 320, 196
-0.989446, 369, 125, 432, 156
-0.989461, 97, 201, 128, 264
-0.989529, 25, 225, 88, 256
-0.989547, 261, 193, 292, 256
-0.989598, 453, 145, 484, 208
-0.98962, 65, 161, 192, 224
-0.989657, 377, 65, 440, 320
-0.98972, 1, 173, 64, 204
-0.989736, 45, 129, 76, 256
-0.989758, 233, 221, 296, 252
-0.989762, 381, 153, 412, 216
-0.989809, 225, 149, 288, 180
-0.989822, 169, 193, 232, 224
-0.989835, 161, 121, 224, 152
-0.989886, 25, 241, 88, 272
-0.98997, 253, 209, 284, 336
-0.989993, 185, 177, 248, 208
-0.99001, 169, 97, 200, 224
-0.990057, 145, 197, 208, 228
-0.990079, 217, 233, 280, 264
-0.990101, 1, 193, 64, 224
-0.990108, 361, 169, 424, 232
-0.990111, 361, 161, 424, 192
-0.990137, 201, 113, 264, 176
-0.990151, 49, 241, 112, 272
-0.990184, 145, 193, 176, 320
-0.990209, 1, 213, 64, 244
-0.990214, 65, 225, 128, 256
-0.990215, 89, 209, 152, 240
-0.990246, 297, 181, 360, 212
-0.990249, 433, 81, 496, 144
-0.99031, 281, 185, 312, 248
-0.990316, 249, 153, 312, 184
-0.990333, 5, 161, 36, 224
-0.99034, 193, 133, 256, 164
-0.990344, 1, 145, 64, 208
-0.990359, 409, 109, 472, 140
-0.990395, 337, 125, 400, 156
-0.990401, 209, 161, 272, 192
-0.990402, 57, 213, 120, 244
-0.99041, 433, 113, 496, 144
-0.990431, 437, 145, 468, 208
-0.990459, 25, 201, 88, 232
-0.990487, 289, 169, 352, 200
-0.990529, 129, 177, 384, 240
-0.990532, 233, 225, 264, 288
-0.990556, 193, 97, 224, 224
-0.990565, 121, 201, 184, 232
-0.990577, 469, 97, 500, 224
-0.990624, 281, 205, 344, 236
-0.990626, 145, 81, 208, 144
-0.990689, 185, 165, 248, 196
-0.990705, 157, 177, 188, 304
-0.990755, 233, 169, 296, 200
-0.990757, 345, 145, 408, 176
-0.990772, 137, 213, 200, 244
-0.990792, 417, 149, 480, 180
-0.990808, 225, 113, 288, 176
-0.990808, 313, 161, 376, 192
-0.990822, 33, 253, 96, 284
-0.990859, 113, 241, 176, 368
-0.990871, 161, 233, 224, 264
-0.990903, 357, 153, 388, 216
-0.99091, 221, 233, 252, 296
-0.990918, 113, 113, 176, 144
-0.990926, 289, 145, 352, 176
-0.990953, 81, 145, 144, 272
-0.99102, 89, 225, 152, 256
-0.991045, 201, 217, 264, 248
-0.991051, 73, 177, 104, 304
-0.991054, 161, 181, 224, 212
-0.991068, 137, 113, 200, 144
-0.991094, 421, 145, 452, 208
-0.991126, 377, 113, 440, 144
-0.991126, 237, 225, 268, 352
-0.991134, 177, 209, 240, 240
-0.991156, 301, 209, 332, 336
-0.991166, 321, 137, 384, 168
-0.991176, 153, 65, 216, 320
-0.991182, 385, 153, 448, 184
-0.991237, 369, 137, 432, 168
-0.991239, 225, 121, 480, 184
-0.991252, 193, 189, 256, 220
-0.991277, 33, 185, 288, 248
-0.991295, 57, 225, 88, 352
-0.99132, 169, 149, 232, 180
-0.991323, 161, 233, 224, 296
-0.991335, 373, 105, 404, 168
-0.991359, 337, 169, 400, 200
-0.991399, 217, 205, 280, 236
-0.991404, 97, 185, 160, 248
-0.991418, 137, 237, 200, 268
-0.991436, 145, 49, 272, 176
-0.991444, 197, 217, 228, 280
-0.991452, 25, 177, 88, 208
-0.991459, 49, 189, 112, 220
-0.991558, 349, 177, 380, 304
-0.991588, 257, 205, 320, 236
-0.991603, 65, 169, 96, 232
-0.991642, 33, 129, 64, 256
-0.991663, 1, 237, 64, 268
-0.991679, 305, 193, 368, 224
-0.991736, 121, 225, 184, 256
-0.991745, 353, 81, 384, 208
-0.991757, 241, 225, 368, 288
-0.991764, 37, 257, 68, 320
-0.991767, 245, 169, 276, 232
-0.991772, 253, 217, 284, 280
-0.991772, 77, 225, 108, 288
-0.991785, 409, 81, 472, 144
-0.991814, 193, 241, 256, 272
-0.991831, 297, 217, 360, 248
-0.991833, 217, 181, 280, 212
-0.991844, 97, 241, 160, 272
-0.991874, 273, 185, 336, 216
-0.991888, 241, 1, 304, 378
-0.991912, 225, 33, 288, 288
-0.991934, 301, 217, 332, 280
-0.991943, 137, 185, 200, 216
-0.99198, 201, 145, 264, 176
-0.991981, 137, 137, 200, 200
-0.991982, 89, 197, 152, 228
-0.991985, 1, 249, 64, 280
-0.992008, 145, 141, 208, 172
-0.992011, 289, 157, 352, 188
-0.992048, 241, 233, 304, 264
-0.99205, 17, 145, 48, 208
-0.992075, 329, 181, 392, 212
-0.992078, 177, 241, 304, 368
-0.992105, 329, 201, 392, 264
-0.99213, 113, 213, 176, 244
-0.992132, 393, 125, 456, 156
-0.992144, 297, 1, 360, 378
-0.992147, 37, 189, 68, 220
-0.99219, 313, 113, 376, 176
-0.992205, 221, 225, 252, 352
-0.992208, 377, 125, 408, 156
-0.99225, 265, 1, 328, 378
-0.992252, 73, 237, 136, 268
-0.992253, 129, 129, 192, 160
-0.99226, 433, 137, 496, 168
-0.992267, 93, 225, 124, 288
-0.992281, 45, 201, 76, 232
-0.992285, 409, 137, 472, 168
-0.992305, 153, 97, 184, 224
-0.992313, 397, 121, 428, 152
-0.992342, 37, 153, 68, 216
-0.992347, 321, 97, 448, 160
-0.992363, 273, 217, 304, 248
-0.992385, 353, 113, 416, 144
-0.992385, 257, 153, 500, 216
-0.992406, 37, 245, 68, 276
-0.992408, 169, 133, 232, 164
-0.992425, 49, 249, 80, 312
-0.992429, 45, 217, 76, 248
-0.992456, 365, 157, 396, 188
-0.992462, 29, 209, 60, 240
-0.992491, 313, 205, 344, 236
-0.992518, 17, 201, 48, 232
-0.992532, 113, 225, 144, 288
-0.992546, 121, 89, 184, 152
-0.992568, 129, 101, 192, 132
-0.992574, 65, 197, 96, 228
-0.992576, 157, 225, 188, 288
-0.992601, 329, 197, 360, 228
-0.992607, 137, 169, 200, 232
-0.992608, 9, 261, 72, 292
-0.992621, 157, 201, 188, 232
-0.992629, 177, 197, 208, 228
-0.992632, 57, 225, 88, 256
-0.992633, 265, 153, 296, 184
-0.992654, 17, 173, 48, 204
-0.992654, 185, 217, 216, 280
-0.992658, 413, 113, 444, 144
-0.992659, 261, 221, 292, 252
-0.992662, 337, 161, 368, 192
-0.992663, 217, 161, 248, 192
-0.992665, 145, 197, 176, 228
-0.992671, 353, 157, 384, 188
-0.992679, 33, 225, 64, 352
-0.992688, 461, 113, 492, 144
-0.992704, 329, 201, 392, 232
-0.992705, 281, 161, 312, 192
-0.992734, 61, 237, 92, 268
-0.992739, 25, 189, 56, 220
-0.99274, 49, 189, 80, 220
-0.992759, 257, 137, 320, 168
-0.992768, 117, 205, 148, 236
-0.992773, 361, 105, 392, 168
-0.992781, 377, 161, 408, 192
-0.992784, 217, 229, 248, 260
-0.992786, 133, 201, 164, 232
-0.992787, 301, 177, 332, 208
-0.992789, 205, 173, 236, 204
-0.992792, 321, 217, 384, 248
-0.992796, 229, 225, 260, 256
-0.992796, 217, 1, 280, 378
-0.992802, 57, 209, 88, 240
-0.992802, 233, 181, 264, 212
-0.992807, 49, 241, 80, 272
-0.992813, 361, 129, 392, 160
-0.992814, 245, 169, 276, 200
-0.992815, 453, 145, 484, 176
-0.992818, 321, 169, 352, 200
-0.992821, 1, 233, 256, 296
-0.992825, 17, 217, 48, 248
-0.99283, 37, 177, 68, 208
-0.99284, 57, 185, 72, 248
-0.99284, 209, 213, 240, 244
-0.992842, 373, 137, 404, 168
-0.992849, 409, 125, 440, 156
-0.992857, 253, 149, 284, 180
-0.99286, 181, 125, 212, 156
-0.992865, 129, 201, 384, 264
-0.992871, 129, 185, 160, 248
-0.992876, 29, 221, 60, 252
-0.992881, 1, 193, 32, 320
-0.992891, 77, 221, 108, 252
-0.992892, 301, 209, 332, 240
-0.992894, 93, 209, 124, 240
-0.9929, 341, 81, 372, 208
-0.992901, 425, 125, 488, 156
-0.992912, 157, 117, 188, 148
-0.992921, 37, 261, 68, 292
-0.992923, 169, 121, 200, 152
-0.992925, 1, 225, 64, 256
-0.992928, 269, 165, 300, 196
-0.992941, 141, 109, 172, 140
-0.992944, 189, 213, 220, 244
-0.992949, 329, 181, 360, 212
-0.992968, 205, 225, 236, 256
-0.99297, 81, 205, 112, 236
-0.992979, 189, 149, 220, 180
-0.992981, 265, 129, 296, 192
-0.992981, 1, 145, 128, 208
-0.992981, 425, 113, 456, 144
-0.992984, 161, 189, 192, 220
-0.992985, 285, 217, 316, 248
-0.99299, 237, 145, 268, 176
-0.992992, 209, 137, 240, 168
-0.992996, 177, 217, 208, 248
-0.992998, 313, 181, 344, 212
-0.993008, 217, 177, 248, 208
-0.993012, 73, 233, 104, 264
-0.993017, 81, 185, 144, 216
-0.993029, 177, 181, 208, 212
-0.993032, 193, 129, 224, 160
-0.993034, 341, 149, 372, 180
-0.993043, 385, 137, 416, 168
-0.993048, 401, 109, 432, 140
-0.993049, 205, 149, 236, 180
-0.993052, 205, 189, 236, 220
-0.993052, 217, 241, 248, 272
-0.993053, 205, 161, 236, 192
-0.993055, 113, 189, 176, 220
-0.993057, 249, 225, 280, 256
-0.993082, 385, 113, 416, 144
-0.993092, 161, 161, 224, 192
-0.993096, 389, 161, 420, 192
-0.993096, 25, 241, 56, 272
-0.993104, 229, 165, 260, 196
-0.993106, 189, 181, 220, 212
-0.993112, 441, 145, 472, 176
-0.993115, 265, 229, 328, 260
-0.993115, 301, 189, 332, 220
-0.993115, 349, 133, 380, 164
-0.993116, 37, 233, 68, 264
-0.993117, 257, 165, 288, 196
-0.993125, 273, 157, 400, 188
-0.993134, 165, 213, 196, 244
-0.993136, 433, 101, 496, 132
-0.993138, 321, 141, 352, 172
-0.993143, 313, 149, 376, 180
-0.993144, 361, 145, 392, 176
-0.993148, 5, 169, 36, 200
-0.993149, 233, 193, 264, 256
-0.993158, 189, 193, 220, 224
-0.993159, 129, 109, 160, 140
-0.99316, 337, 137, 368, 168
-0.993164, 1, 161, 64, 192
-0.993165, 361, 173, 424, 204
-0.993165, 365, 161, 396, 288
-0.993165, 13, 233, 44, 264
-0.99317, 57, 253, 120, 284
-0.993174, 5, 221, 36, 252
-0.993174, 285, 149, 316, 180
-0.993182, 345, 177, 376, 208
-0.993187, 61, 185, 92, 216
-0.993189, 173, 141, 204, 172
-0.993196, 153, 129, 184, 160
-0.993197, 33, 201, 160, 232
-0.993203, 113, 225, 144, 256
-0.993205, 281, 173, 312, 204
-0.993205, 145, 209, 176, 240
-0.993209, 297, 149, 328, 180
-0.993213, 277, 129, 308, 192
-0.993215, 393, 149, 424, 180
-0.993225, 465, 133, 496, 164
-0.993225, 445, 109, 476, 140
-0.99323, 225, 141, 256, 172
-0.99323, 365, 169, 396, 200
-0.993236, 97, 225, 128, 256
-0.993238, 25, 253, 56, 284
-0.993239, 105, 209, 136, 240
-0.993244, 409, 145, 440, 272
-0.993245, 1, 177, 500, 240
-0.993247, 125, 221, 156, 252
-0.993253, 397, 133, 428, 164
-0.993257, 261, 209, 292, 240
-0.99326, 301, 165, 332, 196
-0.993261, 261, 233, 292, 264
-0.993269, 377, 149, 408, 180
-0.993269, 273, 205, 304, 236
-0.993271, 113, 237, 144, 268
-0.993272, 129, 193, 256, 224
-0.993276, 49, 253, 80, 284
-0.993284, 141, 121, 172, 152
-0.993284, 193, 225, 224, 256
-0.993296, 89, 105, 152, 136
-0.993302, 325, 97, 356, 224
-0.993316, 409, 97, 472, 128
-0.993323, 385, 165, 448, 196
-0.99336, 33, 161, 96, 192
-0.993366, 385, 97, 416, 160
-0.993381, 225, 193, 288, 224
-0.99343, 57, 173, 120, 204
-0.993458, 379, 129, 394, 192
-0.993527, 401, 65, 432, 192
-0.99353, 37, 185, 52, 248
-0.993547, 185, 121, 248, 152
-0.993551, 129, 129, 192, 378
-0.993622, 297, 133, 360, 164
-0.993626, 249, 181, 312, 212
-0.993634, 209, 169, 336, 200
-0.993671, 225, 137, 288, 168
-0.993688, 161, 109, 224, 140
-0.993716, 97, 205, 224, 236
-0.993749, 389, 65, 420, 192
-0.993771, 65, 217, 192, 248
-0.993786, 65, 97, 192, 160
-0.993795, 129, 241, 256, 304
-0.993807, 217, 121, 280, 152
-0.993812, 17, 225, 144, 256
-0.993821, 385, 101, 448, 132
-0.99383, 49, 129, 112, 378
-0.99383, 185, 109, 248, 140
-0.99391, 177, 193, 208, 320
-0.99391, 333, 209, 364, 272
-0.993921, 337, 1, 400, 378
-0.993955, 65, 137, 320, 200
-0.993966, 369, 149, 496, 180
-0.993977, 313, 121, 376, 152
-0.994005, 137, 173, 200, 204
-0.994026, 387, 121, 402, 184
-0.994047, 329, 109, 392, 140
-0.99406, 401, 1, 464, 378
-0.994071, 33, 265, 96, 296
-0.994112, 145, 225, 272, 256
-0.99412, 105, 125, 168, 156
-0.99412, 169, 245, 232, 276
-0.994129, 337, 1, 400, 256
-0.994134, 409, 137, 440, 200
-0.994138, 249, 193, 312, 224
-0.994165, 153, 97, 216, 128
-0.994172, 411, 113, 426, 176
-0.994181, 289, 121, 352, 152
-0.994211, 217, 245, 280, 276
-0.99422, 257, 217, 384, 248
-0.994221, 129, 89, 256, 152
-0.994221, 297, 113, 328, 240
-0.994232, 89, 241, 152, 368
-0.994273, 361, 101, 424, 132
-0.994306, 1, 201, 500, 264
-0.994312, 25, 257, 56, 320
-0.994323, 469, 113, 484, 176
-0.994328, 45, 193, 60, 256
-0.994361, 81, 93, 144, 124
-0.99438, 1, 185, 32, 248
-0.994396, 241, 105, 368, 168
-0.994404, 369, 113, 496, 144
-0.99442, 141, 97, 172, 224
-0.994486, 17, 113, 48, 240
-0.994487, 321, 137, 448, 168
-0.994493, 29, 201, 44, 264
-0.994526, 401, 121, 416, 184
-0.994559, 177, 213, 304, 244
-0.994608, 343, 169, 358, 232
-0.994678, 281, 209, 312, 336
-0.994695, 421, 145, 452, 272
-0.99472, 67, 185, 82, 248
-0.994722, 177, 141, 304, 172
-0.994735, 225, 149, 352, 180
-0.994744, 1, 213, 128, 244
-0.9948, 373, 129, 388, 192
-0.994847, 193, 1, 256, 378
-0.99486, 161, 181, 288, 212
-0.994878, 13, 209, 44, 336
-0.994897, 27, 169, 42, 232
-0.994897, 417, 65, 480, 320
-0.994919, 321, 165, 448, 196
-0.994926, 33, 241, 160, 272
-0.994933, 463, 113, 478, 176
-0.994935, 49, 1, 112, 378
-0.994943, 53, 161, 84, 224
-0.994946, 129, 113, 384, 176
-0.994964, 73, 97, 136, 352
-0.994993, 249, 193, 280, 256
-0.995011, 397, 97, 428, 160
-0.995012, 51, 185, 66, 248
-0.995048, 381, 161, 412, 288
-0.995082, 343, 193, 358, 256
-0.995088, 1, 161, 256, 224
-0.9951, 369, 81, 496, 144
-0.995115, 1, 145, 32, 272
-0.995125, 225, 153, 240, 216
-0.995128, 101, 161, 132, 288
-0.995201, 353, 125, 480, 156
-0.995218, 393, 129, 408, 192
-0.995218, 281, 209, 296, 272
-0.995225, 289, 209, 320, 272
-0.995235, 337, 177, 368, 304
-0.995237, 129, 225, 384, 288
-0.995252, 337, 161, 352, 224
-0.99529, 209, 233, 240, 296
-0.995325, 67, 209, 82, 272
-0.995351, 1, 153, 500, 216
-0.995355, 35, 217, 50, 280
-0.995383, 393, 49, 456, 176
-0.99539, 445, 81, 476, 144
-0.995409, 329, 177, 344, 240
-0.995432, 257, 33, 320, 288
-0.995433, 1, 189, 128, 220
-0.995443, 275, 209, 290, 272
-0.995468, 97, 97, 160, 160
-0.995474, 215, 185, 230, 248
-0.995485, 257, 205, 384, 236
-0.995496, 43, 169, 58, 232
-0.995505, 293, 145, 308, 208
-0.995505, 225, 181, 352, 212
-0.995506, 33, 113, 288, 176
-0.995517, 153, 89, 184, 152
-0.995543, 453, 145, 484, 272
-0.995547, 175, 113, 190, 176
-0.99555, 345, 129, 360, 192
-0.995581, 457, 113, 472, 176
-0.995606, 225, 201, 480, 264
-0.995625, 365, 129, 380, 192
-0.995642, 49, 217, 64, 280
-0.99567, 21, 193, 36, 256
-0.995677, 383, 153, 398, 216
-0.995696, 475, 105, 490, 168
-0.995703, 195, 121, 210, 184
-0.995721, 219, 209, 234, 272
-0.995723, 213, 161, 228, 224
-0.995737, 377, 1, 440, 378
-0.995779, 97, 233, 224, 264
-0.995807, 81, 193, 96, 256
-0.995813, 357, 129, 372, 192
-0.995817, 183, 121, 198, 184
-0.995824, 207, 153, 222, 216
-0.995831, 273, 145, 400, 176
-0.995836, 57, 217, 72, 280
-0.995844, 319, 193, 334, 256
-0.995893, 161, 137, 192, 200
-0.995894, 319, 169, 334, 232
-0.995905, 305, 185, 320, 248
-0.995922, 177, 153, 304, 184
-0.99594, 43, 217, 58, 280
-0.995941, 437, 145, 468, 272
-0.99596, 447, 121, 462, 184
-0.995961, 209, 233, 336, 264
-0.995962, 73, 193, 88, 256
-0.995977, 129, 125, 256, 156
-0.995982, 421, 89, 452, 152
-0.995984, 441, 49, 472, 176
-0.995991, 237, 137, 252, 200
-0.995995, 457, 49, 488, 176
-0.996006, 333, 137, 348, 200
-0.996031, 235, 161, 250, 224
-0.996034, 201, 121, 216, 184
-0.996036, 155, 105, 170, 168
-0.99604, 337, 185, 352, 248
-0.996041, 49, 185, 176, 216
-0.996052, 65, 113, 192, 144
-0.996063, 61, 241, 92, 304
-0.996068, 409, 89, 440, 152
-0.996068, 169, 201, 184, 264
-0.996084, 17, 161, 32, 224
-0.996094, 223, 185, 238, 248
-0.996098, 285, 97, 316, 224
-0.996109, 421, 105, 436, 168
-0.996112, 207, 129, 222, 192
-0.996124, 161, 165, 288, 196
-0.99615, 193, 185, 208, 248
-0.996151, 465, 81, 496, 144
-0.996158, 439, 105, 454, 168
-0.996165, 215, 129, 230, 192
-0.996168, 303, 145, 318, 208
-0.996174, 185, 97, 216, 160
-0.99618, 425, 1, 488, 378
-0.996185, 223, 129, 238, 192
-0.996185, 33, 257, 288, 378
-0.996208, 193, 153, 208, 216
-0.996208, 273, 177, 400, 208
-0.996218, 297, 225, 360, 352
-0.996224, 145, 209, 160, 272
-0.99625, 351, 129, 366, 192
-0.996264, 129, 241, 192, 304
-0.996316, 349, 153, 364, 216
-0.996338, 353, 169, 480, 232
-0.99634, 121, 1, 184, 378
-0.996347, 73, 217, 88, 280
-0.996352, 233, 113, 264, 176
-0.996359, 267, 145, 282, 208
-0.996361, 253, 97, 284, 224
-0.996372, 1, 129, 500, 192
-0.996376, 369, 153, 384, 216
-0.996378, 327, 137, 342, 200
-0.996378, 305, 125, 432, 156
-0.996395, 209, 197, 336, 228
-0.996403, 37, 241, 52, 304
-0.996424, 339, 129, 354, 192
-0.996438, 181, 185, 196, 248
-0.996444, 373, 65, 404, 192
-0.996449, 139, 209, 154, 272
-0.996461, 225, 81, 256, 208
-0.996461, 169, 113, 184, 176
-0.996464, 189, 121, 204, 184
-0.996481, 313, 193, 328, 256
-0.996491, 57, 193, 72, 224
-0.996528, 83, 217, 98, 280
-0.996529, 89, 201, 104, 264
-0.996534, 187, 145, 202, 208
-0.996541, 247, 137, 262, 200
-0.996553, 187, 185, 202, 248
-0.996585, 269, 217, 284, 280
-0.996591, 481, 113, 496, 176
-0.996602, 153, 193, 168, 256
-0.996609, 279, 153, 294, 216
-0.996614, 261, 137, 276, 200
-0.996621, 163, 201, 178, 264
-0.996621, 209, 217, 224, 280
-0.996622, 353, 177, 368, 240
-0.996635, 231, 137, 246, 200
-0.99664, 299, 185, 314, 248
-0.996643, 105, 97, 168, 352
-0.996647, 29, 225, 44, 288
-0.996672, 305, 205, 432, 236
-0.996673, 1, 225, 500, 288
-0.996698, 11, 185, 26, 248
-0.996712, 119, 201, 134, 264
-0.996716, 201, 33, 264, 288
-0.996729, 219, 161, 234, 224
-0.996738, 249, 121, 280, 184
-0.99675, 253, 153, 268, 216
-0.996759, 39, 189, 54, 220
-0.996761, 225, 177, 480, 240
-0.996761, 163, 113, 178, 176
-0.996778, 203, 185, 218, 248
-0.996798, 459, 137, 474, 200
-0.996798, 133, 209, 148, 272
-0.996804, 225, 209, 240, 272
-0.996809, 401, 97, 416, 160
-0.996819, 49, 161, 64, 224
-0.99684, 17, 253, 144, 284
-0.996842, 201, 153, 216, 216
-0.996845, 149, 169, 180, 232
-0.996883, 321, 153, 448, 184
-0.996908, 205, 105, 236, 168
-0.99691, 377, 153, 392, 216
-0.996911, 37, 161, 52, 224
-0.996914, 129, 137, 256, 168
-0.996929, 175, 193, 190, 256
-0.996937, 99, 201, 114, 264
-0.996945, 475, 129, 490, 192
-0.99695, 1, 177, 128, 208
-0.996967, 209, 185, 224, 248
-0.996971, 273, 169, 288, 232
-0.996972, 469, 137, 484, 200
-0.996974, 127, 209, 142, 272
-0.99698, 153, 1, 216, 378
-0.996981, 263, 209, 278, 272
-0.996986, 273, 145, 288, 208
-0.996993, 361, 153, 376, 216
-0.997014, 47, 241, 62, 304
-0.997022, 231, 193, 246, 256
-0.997029, 25, 1, 88, 378
-0.997033, 449, 145, 464, 208
-0.997039, 283, 185, 298, 248
-0.997046, 261, 129, 292, 378
-0.99705, 275, 217, 290, 248
-0.997057, 389, 161, 404, 224
-0.997066, 433, 105, 448, 168
-0.997096, 369, 161, 496, 192
-0.997105, 151, 225, 166, 288
-0.997121, 417, 129, 432, 192
-0.997122, 355, 153, 370, 216
-0.997141, 65, 49, 192, 176
-0.997146, 269, 221, 284, 252
-0.997185, 309, 145, 324, 208
-0.997199, 145, 241, 176, 368
-0.997203, 281, 129, 312, 378
-0.99721, 47, 205, 62, 236
-0.99725, 165, 89, 196, 152
-0.99726, 387, 121, 402, 152
-0.997264, 399, 121, 414, 152
-0.997271, 411, 117, 426, 148
-0.997279, 37, 209, 52, 240
-0.997295, 273, 225, 400, 352
-0.997312, 289, 121, 320, 184
-0.997316, 45, 193, 60, 224
-0.997355, 369, 157, 384, 188
-0.997363, 237, 129, 268, 378
-0.99739, 67, 225, 82, 256
-0.997396, 53, 205, 68, 236
-0.997484, 113, 149, 240, 180
-0.997525, 375, 157, 390, 188
-0.997557, 231, 225, 246, 256
-0.997558, 113, 181, 240, 212
-0.997562, 291, 157, 306, 188
-0.99758, 113, 113, 240, 144
-0.997593, 29, 205, 44, 236
-0.997597, 317, 205, 332, 236
-0.997597, 225, 125, 352, 156
-0.997598, 377, 125, 392, 156
-0.997605, 387, 161, 402, 192
-0.997611, 51, 181, 66, 212
-0.997624, 157, 225, 188, 352
-0.997633, 39, 253, 54, 284
-0.997645, 77, 177, 108, 240
-0.997649, 343, 197, 358, 228
-0.997651, 177, 129, 304, 160
-0.997699, 363, 157, 378, 188
-0.997705, 369, 137, 496, 168
-0.99772, 217, 169, 232, 200
-0.997724, 39, 177, 54, 208
-0.997728, 59, 237, 74, 268
-0.997735, 59, 205, 74, 236
-0.99774, 459, 145, 474, 176
-0.997743, 375, 141, 390, 172
-0.997754, 249, 129, 280, 378
-0.997757, 93, 205, 108, 236
-0.997759, 57, 217, 72, 248
-0.997779, 67, 193, 82, 224
-0.99778, 45, 245, 60, 276
-0.997785, 229, 169, 244, 200
-0.997788, 49, 217, 64, 248
-0.99782, 285, 217, 300, 248
-0.997827, 417, 113, 432, 144
-0.997836, 473, 113, 488, 144
-0.99785, 89, 1, 152, 378
-0.99785, 161, 89, 416, 152
-0.997855, 81, 125, 208, 156
-0.997863, 213, 97, 244, 352
-0.997864, 225, 129, 256, 378
-0.997865, 45, 181, 60, 212
-0.997869, 339, 181, 354, 212
-0.997875, 321, 177, 448, 208
-0.997902, 279, 153, 294, 184
-0.997904, 113, 161, 176, 224
-0.997907, 345, 153, 360, 184
-0.997908, 51, 245, 66, 276
-0.997914, 273, 157, 288, 188
-0.997928, 239, 181, 254, 212
-0.997941, 225, 229, 240, 260
-0.997942, 481, 117, 496, 148
-0.997953, 237, 81, 268, 208
-0.997954, 321, 73, 448, 136
-0.997957, 257, 97, 500, 160
-0.997957, 337, 161, 352, 192
-0.997961, 151, 109, 166, 140
-0.997964, 275, 205, 290, 236
-0.997965, 263, 225, 278, 256
-0.997966, 157, 113, 172, 144
-0.997966, 357, 153, 372, 184
-0.997968, 405, 117, 420, 148
-0.997969, 29, 237, 44, 268
-0.997972, 381, 161, 396, 192
-0.997973, 345, 165, 360, 196
-0.997975, 369, 129, 384, 160
-0.997984, 65, 237, 80, 268
-0.997992, 323, 205, 338, 236
-0.997993, 337, 201, 352, 232
-0.997996, 73, 225, 88, 256
-0.998008, 381, 137, 396, 168
-0.99801, 411, 129, 426, 160
-0.998011, 211, 173, 226, 204
-0.998015, 225, 157, 240, 188
-0.998018, 295, 169, 310, 200
-0.998019, 157, 193, 172, 224
-0.998027, 265, 161, 280, 192
-0.998041, 199, 145, 214, 176
-0.998045, 65, 213, 80, 244
-0.998046, 321, 193, 448, 224
-0.998055, 373, 129, 404, 378
-0.998059, 469, 141, 484, 172
-0.998067, 211, 157, 226, 188
-0.998075, 15, 217, 30, 248
-0.998081, 285, 157, 300, 188
-0.998087, 433, 81, 464, 144
-0.998089, 147, 197, 162, 228
-0.99809, 129, 241, 160, 368
-0.998095, 51, 193, 66, 224
-0.998101, 351, 153, 366, 184
-0.998111, 341, 105, 372, 168
-0.998114, 305, 177, 320, 208
-0.998116, 89, 177, 120, 240
-0.99812, 171, 193, 186, 224
-0.998121, 393, 161, 408, 192
-0.998126, 219, 213, 234, 244
-0.998139, 219, 225, 234, 256
-0.998143, 221, 185, 236, 216
-0.998149, 145, 237, 272, 268
-0.998151, 69, 129, 100, 256
-0.998155, 393, 121, 408, 152
-0.998157, 331, 201, 346, 232
-0.99816, 1, 1, 64, 378
-0.998161, 245, 169, 260, 200
-0.998166, 199, 129, 214, 160
-0.998168, 141, 197, 156, 228
-0.998176, 329, 97, 360, 352
-0.998178, 353, 97, 384, 352
-0.998183, 85, 201, 100, 232
-0.998183, 193, 97, 320, 160
-0.998185, 169, 117, 184, 148
-0.998191, 297, 1, 360, 256
-0.998195, 33, 189, 48, 220
-0.998204, 25, 129, 56, 378
-0.998207, 163, 193, 178, 224
-0.998209, 99, 209, 114, 240
-0.998209, 311, 209, 326, 240
-0.998214, 263, 149, 278, 180
-0.998217, 231, 157, 246, 188
-0.998217, 37, 129, 68, 378
-0.99823, 191, 145, 206, 176
-0.998232, 205, 209, 220, 240
-0.998237, 327, 185, 342, 216
-0.998239, 181, 217, 196, 248
-0.998239, 321, 113, 448, 144
-0.998243, 195, 181, 210, 212
-0.998245, 145, 109, 160, 140
-0.998246, 179, 121, 194, 152
-0.998249, 35, 221, 50, 252
-0.99825, 421, 49, 452, 176
-0.998253, 183, 197, 198, 228
-0.998254, 325, 193, 356, 320
-0.998262, 237, 221, 252, 252
-0.998268, 163, 117, 178, 148
-0.998271, 35, 241, 50, 272
-0.998278, 257, 193, 384, 224
-0.99828, 479, 129, 494, 160
-0.998282, 29, 173, 44, 204
-0.998289, 217, 157, 232, 188
-0.998294, 351, 165, 366, 196
-0.998294, 135, 201, 150, 232
-0.998299, 247, 229, 262, 260
-0.998301, 195, 213, 210, 244
-0.998312, 327, 173, 342, 204
-0.998318, 21, 217, 36, 248
-0.998318, 121, 205, 136, 236
-0.998325, 187, 125, 202, 156
-0.998332, 339, 137, 354, 168
-0.998335, 219, 241, 234, 272
-0.998336, 43, 221, 58, 252
-0.998338, 313, 177, 328, 208
-0.998339, 195, 193, 210, 224
-0.998341, 281, 205, 296, 236
-0.998344, 255, 165, 270, 196
-0.998344, 179, 185, 194, 216
-0.998348, 453, 145, 468, 176
-0.998366, 241, 183, 272, 198
-0.998366, 201, 219, 232, 234
-0.998367, 301, 223, 332, 238
-0.998367, 329, 193, 360, 208
-0.998368, 261, 233, 292, 248
-0.998369, 257, 153, 288, 168
-0.998369, 353, 155, 384, 170
-0.998369, 205, 191, 236, 206
-0.99837, 161, 119, 192, 134
-0.998372, 177, 187, 208, 202
-0.998373, 325, 171, 356, 186
-0.998373, 17, 187, 48, 202
-0.998376, 53, 249, 84, 264
-0.998377, 233, 225, 264, 240
-0.998378, 453, 145, 484, 160
-0.998378, 129, 201, 160, 216
-0.99838, 281, 153, 312, 168
-0.998382, 345, 167, 376, 182
-0.998383, 25, 197, 88, 212
-0.998383, 97, 211, 128, 226
-0.998385, 33, 221, 64, 236
-0.998386, 57, 191, 88, 206
-0.998386, 397, 163, 428, 178
-0.998387, 345, 183, 376, 198
-0.998387, 301, 189, 332, 204
-0.998389, 369, 125, 432, 140
-0.998389, 217, 237, 248, 252
-0.998389, 213, 139, 244, 154
-0.998389, 453, 117, 484, 132
-0.998392, 65, 247, 96, 262
-0.998393, 25, 241, 56, 256
-0.998395, 85, 219, 116, 234
-0.998395, 97, 217, 128, 232
-0.998396, 37, 209, 68, 224
-0.998398, 205, 173, 236, 188
-0.998399, 21, 213, 52, 228
-0.9984, 193, 193, 224, 208
-0.998401, 377, 171, 408, 186
-0.998401, 341, 155, 372, 170
-0.998401, 265, 215, 296, 230
-0.998404, 57, 239, 88, 254
-0.998404, 17, 195, 48, 210
-0.998404, 257, 221, 288, 236
-0.998405, 157, 213, 188, 228
-0.998405, 157, 195, 188, 210
-0.998406, 209, 227, 240, 242
-0.998406, 337, 175, 368, 190
-0.99841, 229, 187, 260, 202
-0.99841, 265, 219, 328, 234
-0.998411, 361, 137, 392, 152
-0.998411, 217, 245, 248, 260
-0.998412, 269, 171, 300, 186
-0.998412, 181, 217, 212, 232
-0.998412, 205, 165, 236, 180
-0.998413, 265, 159, 296, 174
-0.998413, 57, 227, 88, 242
-0.998413, 217, 185, 248, 200
-0.998414, 373, 141, 404, 156
-0.998415, 181, 147, 212, 162
-0.998416, 225, 231, 256, 246
-0.998417, 137, 207, 168, 222
-0.998417, 301, 177, 332, 192
-0.998418, 125, 209, 156, 224
-0.998419, 233, 165, 264, 180
-0.99842, 341, 97, 372, 352
-0.998421, 313, 219, 344, 234
-0.998421, 237, 237, 268, 252
-0.998424, 61, 129, 92, 378
-0.998426, 73, 223, 104, 238
-0.998427, 37, 263, 68, 278
-0.99843, 141, 199, 172, 214
-0.998433, 177, 197, 208, 212
-0.998433, 45, 243, 76, 258
-0.998433, 409, 117, 440, 132
-0.998433, 17, 203, 48, 218
-0.998433, 149, 117, 180, 132
-0.998435, 165, 201, 196, 216
-0.998436, 249, 177, 280, 192
-0.998436, 385, 165, 416, 180
-0.998438, 25, 203, 88, 218
-0.998439, 65, 203, 96, 218
-0.998441, 277, 159, 308, 174
-0.998441, 129, 101, 256, 132
-0.998445, 249, 231, 280, 246
-0.998446, 437, 151, 468, 166
-0.998448, 9, 221, 40, 236
-0.998449, 81, 245, 208, 276
-0.998451, 445, 111, 476, 126
-0.998453, 249, 171, 280, 186
-0.998454, 49, 201, 112, 216
-0.998456, 201, 211, 232, 226
-0.998457, 365, 131, 396, 146
-0.998458, 313, 209, 344, 224
-0.998458, 33, 247, 64, 262
-0.998461, 401, 133, 432, 148
-0.998464, 217, 171, 248, 186
-0.998465, 389, 135, 420, 150
-0.998468, 61, 217, 92, 232
-0.998469, 141, 111, 172, 126
-0.998469, 313, 181, 344, 196
-0.998471, 449, 151, 480, 166
-0.998473, 293, 215, 324, 230
-0.998474, 357, 167, 388, 182
-0.998474, 57, 129, 88, 256
-0.998476, 345, 161, 408, 176
-0.998477, 297, 179, 360, 194
-0.99848, 45, 197, 76, 212
-0.998481, 33, 217, 96, 232
-0.998483, 45, 203, 76, 218
-0.998483, 229, 181, 260, 196
-0.998485, 305, 209, 368, 224
-0.998487, 353, 131, 384, 146
-0.998488, 149, 205, 180, 220
-0.998489, 413, 125, 444, 140
-0.998489, 229, 175, 260, 190
-0.99849, 249, 167, 312, 182
-0.99849, 201, 165, 264, 180
-0.998491, 9, 221, 72, 236
-0.998491, 37, 253, 68, 268
-0.998491, 281, 167, 312, 182
-0.998491, 25, 191, 88, 206
-0.998493, 25, 209, 88, 224
-0.998497, 329, 203, 360, 218
-0.998498, 193, 149, 224, 164
-0.998504, 377, 133, 440, 148
-0.998504, 5, 171, 36, 186
-0.998508, 465, 117, 496, 132
-0.998512, 257, 165, 288, 180
-0.998513, 337, 161, 368, 176
-0.998516, 33, 203, 64, 218
-0.998516, 337, 135, 400, 150
-0.998516, 65, 209, 128, 224
-0.998517, 301, 183, 332, 198
-0.998518, 281, 221, 312, 236
-0.998518, 261, 227, 292, 242
-0.998519, 1, 173, 64, 188
-0.99852, 209, 171, 272, 186
-0.99852, 25, 245, 88, 260
-0.99852, 321, 161, 384, 176
-0.99852, 113, 207, 176, 222
-0.998522, 217, 165, 248, 180
-0.998523, 325, 177, 356, 192
-0.998525, 81, 137, 208, 168
-0.998526, 45, 187, 76, 202
-0.998526, 225, 223, 288, 238
-0.998528, 225, 225, 480, 288
-0.998533, 45, 221, 76, 236
-0.998534, 297, 185, 360, 200
-0.998536, 225, 229, 288, 244
-0.998537, 225, 165, 288, 180
-0.998541, 177, 229, 240, 244
-0.998543, 201, 143, 264, 158
-0.998544, 185, 193, 248, 208
-0.998544, 137, 215, 200, 230
-0.998545, 361, 161, 392, 176
-0.998546, 329, 169, 392, 184
-0.998547, 201, 179, 264, 194
-0.998547, 409, 113, 472, 128
-0.998548, 13, 129, 44, 378
-0.998548, 417, 153, 480, 168
-0.998548, 369, 165, 432, 180
-0.998551, 161, 127, 224, 142
-0.998552, 57, 219, 120, 234
-0.998554, 377, 135, 408, 150
-0.998555, 9, 183, 72, 198
-0.998557, 373, 163, 404, 178
-0.998559, 145, 121, 208, 136
-0.998559, 269, 221, 300, 236
-0.998559, 297, 129, 328, 378
-0.998559, 217, 241, 280, 256
-0.99856, 433, 117, 496, 132
-0.998561, 265, 173, 328, 188
-0.998562, 273, 225, 336, 240
-0.998563, 241, 173, 304, 188
-0.998566, 249, 161, 312, 176
-0.998567, 345, 129, 408, 144
-0.998568, 9, 215, 72, 230
-0.998571, 265, 213, 328, 228
-0.998571, 385, 97, 416, 352
-0.998572, 89, 213, 152, 228
-0.998572, 49, 243, 112, 258
-0.998573, 55, 177, 70, 304
-0.998573, 65, 197, 96, 212
-0.998574, 249, 113, 312, 176
-0.998575, 33, 251, 96, 266
-0.998578, 297, 215, 360, 230
-0.998578, 33, 215, 64, 230
-0.998578, 389, 123, 420, 138
-0.998582, 41, 225, 104, 240
-0.998583, 33, 193, 64, 208
-0.998583, 169, 133, 232, 148
-0.998583, 73, 225, 136, 240
-0.998584, 1, 199, 64, 214
-0.998584, 349, 161, 380, 176
-0.998585, 361, 171, 424, 186
-0.998587, 321, 177, 384, 192
-0.998588, 137, 201, 200, 216
-0.998588, 193, 215, 256, 230
-0.998593, 129, 115, 192, 130
-0.998593, 209, 187, 272, 202
-0.998594, 393, 119, 456, 134
-0.998594, 1, 193, 64, 208
-0.9986, 169, 211, 232, 226
-0.998601, 49, 209, 80, 224
-0.998604, 217, 235, 280, 250
-0.998604, 201, 227, 264, 242
-0.998605, 9, 253, 72, 268
-0.998607, 145, 191, 208, 206
-0.998607, 177, 185, 240, 200
-0.998607, 377, 127, 408, 142
-0.998607, 25, 239, 88, 254
-0.998608, 73, 245, 136, 260
-0.998609, 161, 199, 224, 214
-0.99861, 161, 237, 224, 252
-0.99861, 81, 219, 144, 234
-0.998611, 389, 129, 420, 144
-0.998611, 225, 157, 288, 172
-0.998612, 369, 157, 432, 172
-0.998613, 33, 259, 96, 274
-0.998616, 305, 221, 368, 236
-0.998619, 305, 203, 368, 218
-0.998621, 289, 173, 352, 188
-0.998621, 185, 221, 248, 236
-0.998622, 129, 241, 192, 256
-0.998624, 185, 157, 248, 172
-0.998625, 177, 149, 240, 164
-0.998625, 297, 159, 360, 174
-0.998627, 25, 231, 88, 246
-0.998628, 57, 251, 120, 266
-0.998628, 401, 127, 432, 142
-0.99863, 393, 161, 456, 176
-0.99863, 321, 141, 384, 156
-0.99863, 97, 241, 160, 256
-0.99863, 265, 207, 328, 222
-0.998631, 345, 155, 408, 170
-0.998632, 249, 225, 312, 240
-0.998632, 273, 167, 336, 182
-0.998634, 49, 237, 112, 252
-0.998637, 241, 215, 304, 230
-0.998637, 49, 195, 112, 210
-0.998639, 185, 235, 248, 250
-0.998639, 1, 209, 64, 224
-0.99864, 105, 113, 168, 128
-0.998641, 161, 223, 224, 238
-0.998641, 425, 147, 488, 162
-0.998643, 345, 177, 408, 192
-0.998645, 393, 125, 456, 140
-0.998647, 177, 139, 240, 154
-0.998647, 153, 145, 216, 160
-0.998651, 105, 247, 168, 262
-0.998651, 249, 155, 312, 170
-0.998652, 185, 171, 248, 186
-0.998652, 273, 157, 336, 172
-0.998654, 433, 123, 496, 138
-0.998654, 225, 151, 288, 166
-0.998656, 249, 179, 312, 194
-0.998656, 241, 237, 304, 252
-0.998656, 89, 203, 152, 218
-0.998657, 201, 247, 264, 262
-0.998659, 369, 119, 432, 134
-0.998659, 249, 231, 312, 246
-0.998659, 361, 139, 424, 154
-0.99866, 297, 191, 360, 206
-0.998661, 273, 183, 336, 198
-0.998661, 433, 111, 496, 126
-0.998662, 49, 129, 80, 378
-0.998663, 273, 151, 336, 166
-0.998663, 177, 163, 240, 178
-0.998668, 113, 199, 176, 214
-0.998672, 161, 155, 224, 170
-0.998672, 121, 235, 184, 250
-0.998674, 225, 181, 288, 196
-0.998674, 1, 247, 64, 262
-0.998685, 257, 229, 384, 260
-0.998689, 313, 81, 344, 208
-0.998735, 265, 97, 296, 224
-0.99874, 43, 177, 58, 304
-0.998814, 129, 65, 192, 192
-0.998816, 317, 129, 348, 378
-0.99882, 65, 177, 80, 304
-0.998826, 397, 161, 428, 288
-0.998856, 177, 113, 304, 144
-0.998864, 321, 101, 448, 132
-0.998867, 273, 113, 400, 144
-0.998871, 49, 177, 64, 304
-0.998873, 1, 105, 500, 168
-0.998877, 367, 113, 382, 240
-0.998891, 357, 129, 372, 256
-0.998895, 17, 265, 80, 328
-0.998895, 141, 49, 172, 176
-0.998898, 65, 101, 192, 132
-0.9989, 327, 129, 342, 256
-0.998905, 391, 113, 406, 240
-0.998906, 37, 161, 52, 288
-0.998915, 383, 113, 398, 240
-0.998916, 321, 161, 336, 288
-0.998924, 227, 161, 242, 288
-0.998926, 1, 165, 128, 196
-0.998939, 25, 161, 40, 288
-0.998941, 273, 161, 288, 288
-0.998941, 129, 33, 192, 288
-0.998947, 113, 165, 240, 196
-0.998966, 309, 145, 324, 272
-0.998966, 457, 97, 472, 224
-0.99898, 315, 129, 330, 256
-0.999002, 221, 161, 236, 288
-0.999004, 377, 113, 392, 240
-0.999013, 465, 97, 480, 224
-0.999025, 305, 217, 432, 248
-0.999031, 407, 113, 422, 240
-0.999035, 203, 129, 218, 256
-0.999038, 341, 129, 356, 256
-0.999052, 31, 161, 46, 288
-0.999055, 351, 129, 366, 256
-0.999058, 193, 145, 208, 272
-0.999059, 189, 65, 220, 320
-0.999066, 413, 113, 428, 240
-0.99907, 215, 161, 230, 288
-0.999073, 285, 145, 300, 272
-0.999077, 447, 97, 462, 224
-0.999097, 73, 161, 136, 224
-0.9991, 177, 65, 208, 320
-0.999102, 419, 97, 434, 224
-0.999103, 373, 1, 404, 256
-0.999105, 237, 129, 252, 256
-0.999109, 441, 97, 456, 224
-0.999116, 279, 145, 294, 272
-0.999128, 161, 129, 192, 378
-0.999141, 297, 161, 312, 288
-0.999147, 473, 97, 488, 224
-0.999151, 397, 113, 412, 240
-0.999158, 333, 129, 348, 256
-0.999168, 267, 145, 282, 272
-0.999173, 425, 97, 440, 224
-0.999184, 225, 113, 240, 240
-0.999193, 431, 97, 446, 224
-0.9992, 187, 145, 202, 272
-0.9992, 291, 145, 306, 272
-0.999214, 197, 97, 212, 224
-0.999215, 303, 145, 318, 272
-0.999223, 19, 161, 34, 288
-0.999234, 401, 65, 432, 320
-0.999237, 187, 97, 202, 224
-0.999238, 251, 145, 266, 272
-0.99925, 201, 97, 232, 352
-0.999255, 209, 145, 224, 272
-0.999281, 315, 177, 330, 304
-0.999283, 225, 137, 352, 168
-0.999285, 127, 193, 142, 320
-0.999286, 271, 209, 286, 336
-0.999296, 121, 193, 136, 320
-0.999303, 261, 145, 276, 272
-0.999303, 243, 177, 258, 304
-0.999303, 327, 177, 342, 304
-0.999313, 215, 113, 230, 240
-0.999322, 33, 209, 48, 336
-0.999325, 181, 145, 196, 272
-0.999326, 97, 193, 112, 320
-0.999347, 13, 193, 28, 320
-0.999354, 177, 249, 304, 312
-0.999354, 59, 225, 74, 352
-0.999373, 363, 161, 378, 288
-0.999373, 71, 177, 86, 304
-0.999392, 11, 145, 26, 272
-0.999399, 243, 129, 258, 256
-0.999406, 147, 193, 162, 320
-0.999414, 133, 193, 148, 320
-0.999414, 233, 177, 248, 304
-0.999427, 103, 193, 118, 320
-0.999431, 51, 225, 66, 352
-0.999432, 49, 173, 176, 204
-0.999438, 153, 193, 168, 320
-0.999445, 279, 209, 294, 336
-0.999445, 265, 209, 280, 336
-0.999445, 45, 225, 60, 352
-0.999454, 277, 33, 308, 288
-0.999462, 181, 97, 196, 224
-0.999465, 115, 209, 130, 336
-0.999472, 173, 97, 188, 224
-0.999474, 215, 209, 230, 336
-0.999479, 369, 101, 496, 132
-0.999489, 465, 49, 480, 176
-0.999489, 357, 81, 372, 208
-0.99949, 317, 33, 348, 288
-0.999492, 223, 209, 238, 336
-0.999493, 241, 225, 256, 352
-0.999494, 203, 177, 218, 304
-0.999497, 49, 129, 64, 256
-0.999502, 321, 113, 336, 240
-0.999512, 109, 193, 124, 320
-0.999513, 139, 193, 154, 320
-0.999518, 65, 225, 80, 352
-0.999523, 335, 177, 350, 304
-0.999525, 91, 177, 106, 304
-0.999526, 1, 265, 128, 328
-0.999528, 77, 177, 92, 304
-0.999529, 231, 113, 246, 240
-0.99953, 285, 209, 300, 336
-0.999533, 307, 193, 322, 320
-0.999534, 161, 97, 176, 224
-0.999535, 159, 177, 174, 304
-0.999536, 57, 129, 72, 256
-0.999536, 361, 1, 392, 256
-0.99954, 209, 193, 224, 320
-0.999544, 369, 161, 384, 288
-0.999555, 353, 177, 368, 304
-0.999557, 413, 65, 428, 192
-0.999557, 261, 33, 292, 288
-0.999558, 167, 97, 182, 224
-0.999564, 175, 145, 190, 272
-0.99957, 341, 177, 356, 304
-0.99957, 83, 223, 98, 238
-0.999571, 285, 163, 300, 178
-0.999571, 401, 139, 416, 154
-0.999571, 75, 225, 90, 240
-0.999572, 275, 235, 290, 250
-0.999573, 225, 227, 240, 242
-0.999574, 351, 165, 366, 180
-0.999574, 395, 165, 410, 180
-0.999574, 455, 111, 470, 126
-0.999575, 65, 249, 80, 264
-0.999575, 29, 205, 44, 220
-0.999575, 285, 155, 300, 170
-0.999576, 155, 205, 170, 220
-0.999576, 465, 153, 480, 168
-0.999577, 41, 245, 56, 260
-0.999577, 231, 233, 246, 248
-0.999578, 209, 171, 224, 186
-0.999579, 43, 255, 58, 270
-0.999579, 45, 195, 60, 210
-0.999579, 407, 119, 422, 134
-0.99958, 95, 209, 110, 224
-0.999582, 65, 241, 80, 256
-0.999583, 231, 191, 246, 206
-0.999583, 457, 145, 472, 272
-0.999583, 27, 239, 42, 254
-0.999584, 35, 249, 50, 264
-0.999584, 225, 237, 240, 252
-0.999585, 195, 193, 210, 320
-0.999585, 285, 215, 300, 230
-0.999585, 59, 243, 74, 258
-0.999585, 145, 111, 160, 126
-0.999586, 43, 129, 58, 256
-0.999587, 49, 245, 64, 260
-0.999587, 31, 113, 46, 240
-0.999587, 59, 217, 74, 232
-0.999588, 339, 159, 354, 174
-0.999589, 419, 125, 434, 140
-0.999593, 211, 165, 226, 180
-0.999594, 83, 177, 98, 304
-0.999596, 405, 131, 420, 146
-0.999596, 449, 65, 480, 320
-0.999596, 35, 243, 50, 258
-0.999598, 247, 225, 262, 352
-0.999599, 9, 173, 24, 188
-0.9996, 231, 179, 246, 194
-0.9996, 461, 113, 476, 128
-0.999602, 293, 171, 308, 186
-0.999602, 463, 147, 478, 162
-0.999602, 73, 129, 104, 378
-0.999605, 413, 117, 428, 132
-0.999605, 383, 161, 398, 288
-0.999605, 387, 137, 402, 152
-0.999606, 39, 261, 54, 276
-0.999606, 377, 125, 392, 140
-0.999607, 215, 211, 230, 226
-0.999607, 45, 183, 60, 198
-0.999608, 27, 209, 42, 336
-0.999609, 169, 145, 184, 272
-0.99961, 307, 217, 322, 232
-0.99961, 261, 169, 276, 184
-0.999614, 11, 223, 26, 238
-0.999614, 357, 155, 372, 170
-0.999615, 327, 179, 342, 194
-0.999616, 335, 175, 350, 190
-0.999617, 369, 167, 384, 182
-0.999617, 29, 197, 44, 212
-0.999617, 217, 171, 232, 186
-0.999618, 29, 211, 44, 226
-0.999618, 247, 237, 262, 252
-0.999621, 205, 147, 220, 162
-0.999622, 129, 145, 160, 272
-0.999624, 161, 49, 192, 176
-0.999626, 39, 205, 54, 220
-0.999626, 279, 159, 294, 174
-0.999626, 237, 171, 252, 186
-0.999626, 367, 131, 382, 146
-0.999627, 221, 187, 236, 202
-0.999627, 247, 173, 262, 188
-0.999627, 1, 265, 128, 296
-0.999629, 279, 169, 294, 184
-0.99963, 191, 149, 206, 164
-0.999632, 317, 211, 332, 226
-0.999632, 217, 243, 232, 258
-0.999632, 321, 179, 336, 194
-0.999633, 275, 213, 290, 228
-0.999633, 447, 151, 462, 166
-0.999633, 149, 129, 180, 378
-0.999633, 7, 193, 22, 320
-0.999634, 65, 219, 80, 234
-0.999635, 263, 231, 278, 246
-0.999636, 209, 97, 224, 224
-0.999636, 389, 161, 404, 288
-0.999637, 253, 225, 268, 352
-0.999637, 257, 233, 272, 248
-0.999637, 313, 183, 328, 198
-0.999638, 375, 169, 390, 184
-0.99964, 343, 201, 358, 216
-0.99964, 383, 131, 398, 146
-0.999642, 305, 183, 320, 198
-0.999643, 217, 163, 232, 178
-0.999644, 23, 113, 38, 240
-0.999644, 285, 221, 300, 236
-0.999645, 225, 163, 240, 178
-0.999646, 481, 119, 496, 134
-0.999648, 389, 1, 420, 256
-0.99965, 389, 65, 404, 192
-0.999653, 49, 205, 64, 220
-0.999654, 35, 213, 50, 228
-0.999654, 223, 169, 238, 184
-0.999654, 203, 81, 218, 208
-0.999654, 227, 185, 242, 200
-0.999654, 421, 145, 436, 272
-0.999656, 57, 209, 72, 224
-0.999656, 199, 149, 214, 164
-0.999656, 57, 189, 72, 204
-0.999657, 397, 65, 412, 192
-0.999657, 49, 211, 64, 226
-0.999658, 373, 137, 388, 152
-0.999658, 237, 181, 252, 196
-0.999662, 193, 245, 320, 276
-0.999663, 449, 145, 464, 272
-0.999663, 403, 65, 418, 192
-0.999663, 153, 81, 168, 208
-0.999664, 345, 165, 360, 180
-0.999665, 235, 225, 250, 352
-0.999668, 51, 199, 66, 214
-0.999669, 451, 49, 466, 176
-0.99967, 397, 123, 412, 138
-0.99967, 351, 81, 366, 208
-0.999671, 243, 179, 258, 194
-0.999676, 375, 161, 390, 176
-0.99968, 231, 163, 246, 178
-0.99968, 351, 159, 366, 174
-0.999681, 253, 171, 268, 186
-0.999684, 57, 223, 72, 238
-0.999687, 291, 163, 306, 178
-0.999688, 47, 217, 62, 232
-0.999697, 51, 187, 66, 202
-0.999699, 379, 137, 394, 152
-0.999701, 389, 165, 404, 180
-0.999701, 387, 125, 402, 140
-0.999701, 457, 151, 472, 166
-0.999702, 277, 219, 292, 234
-0.999704, 275, 227, 290, 242
-0.999705, 381, 163, 396, 178
-0.999707, 357, 161, 372, 176
-0.999708, 421, 65, 452, 320
-0.999708, 433, 65, 464, 320
-0.999709, 67, 195, 82, 210
-0.99971, 137, 129, 168, 378
-0.999711, 57, 203, 72, 218
-0.999716, 399, 133, 414, 148
-0.999716, 39, 193, 54, 208
-0.999717, 369, 161, 384, 176
-0.999722, 413, 125, 428, 140
-0.999722, 41, 213, 56, 228
-0.999726, 229, 33, 260, 288
-0.99973, 269, 227, 284, 242
-0.999734, 389, 131, 404, 146
-0.999734, 313, 225, 344, 352
-0.999734, 345, 1, 376, 256
-0.999734, 289, 33, 320, 288
-0.99974, 363, 161, 378, 176
-0.999744, 301, 33, 332, 288
-0.999745, 345, 159, 360, 174
-0.999745, 57, 197, 72, 212
-0.999765, 411, 131, 426, 146
-0.99977, 271, 221, 286, 236
-0.999802, 377, 131, 392, 146
-0.999806, 407, 125, 422, 140
-0.999813, 257, 233, 320, 296
-0.999831, 249, 33, 280, 288
-0.999858, 273, 81, 400, 144
-0.999862, 65, 73, 192, 136
-0.999888, 1, 97, 32, 352
-0.999888, 85, 97, 116, 352
-0.999992, 1, 81, 500, 144
-1.00002, 193, 49, 256, 176
-1.00003, 125, 129, 156, 378
-1.00004, 25, 33, 56, 288
-1.00004, 113, 89, 240, 120
-1.00005, 145, 249, 272, 280
-1.00008, 377, 73, 440, 136
-1.00009, 305, 217, 432, 280
-1.00013, 17, 101, 144, 132
-1.00018, 1, 89, 256, 152
-1.00018, 461, 97, 492, 352
-1.00021, 333, 1, 364, 256
-1.00029, 113, 97, 144, 352
-1.00034, 17, 153, 144, 184
-1.00035, 217, 1, 248, 256
-1.00037, 65, 33, 96, 288
-1.00038, 1, 257, 256, 320
-1.00048, 33, 89, 160, 120
-1.00052, 153, 33, 184, 288
-1.00052, 129, 65, 256, 128
-1.00054, 201, 1, 232, 256
-1.00056, 141, 33, 172, 288
-1.00059, 13, 33, 44, 288
-1.00061, 45, 33, 76, 288
-1.00066, 49, 121, 176, 184
-1.00067, 337, 89, 464, 120
-1.00067, 297, 225, 360, 288
-1.00071, 369, 173, 496, 204
-1.00072, 65, 241, 128, 368
-1.00072, 177, 101, 304, 132
-1.00078, 289, 105, 352, 168
-1.00078, 165, 33, 196, 288
-1.0008, 125, 33, 156, 288
-1.00081, 97, 97, 128, 352
-1.00088, 17, 345, 144, 376
-1.00089, 305, 229, 432, 260
-1.00097, 73, 225, 104, 352
-1.00098, 289, 345, 416, 376
-1.00098, 177, 241, 240, 368
-1.001, 469, 1, 500, 256
-1.00102, 97, 345, 224, 376
-1.00103, 193, 257, 320, 288
-1.00104, 1, 137, 128, 168
-1.00104, 353, 209, 480, 240
-1.00104, 65, 77, 192, 108
-1.00104, 113, 77, 240, 108
-1.00105, 117, 241, 148, 368
-1.00106, 113, 145, 144, 272
-1.00107, 177, 273, 304, 304
-1.00107, 225, 273, 352, 304
-1.00107, 273, 273, 400, 304
-1.00107, 321, 273, 448, 304
-1.00107, 369, 273, 496, 304
-1.00107, 33, 285, 160, 316
-1.00107, 81, 285, 208, 316
-1.00107, 129, 285, 256, 316
-1.00107, 177, 285, 304, 316
-1.00107, 225, 285, 352, 316
-1.00107, 273, 285, 400, 316
-1.00107, 321, 285, 448, 316
-1.00107, 369, 285, 496, 316
-1.00107, 33, 297, 160, 328
-1.00107, 81, 297, 208, 328
-1.00107, 129, 297, 256, 328
-1.00107, 177, 297, 304, 328
-1.00107, 225, 297, 352, 328
-1.00107, 273, 297, 400, 328
-1.00107, 321, 297, 448, 328
-1.00107, 369, 297, 496, 328
-1.00107, 33, 309, 160, 340
-1.00107, 81, 309, 208, 340
-1.00107, 129, 309, 256, 340
-1.00107, 177, 309, 304, 340
-1.00107, 225, 309, 352, 340
-1.00107, 273, 309, 400, 340
-1.00107, 321, 309, 448, 340
-1.00107, 369, 309, 496, 340
-1.00107, 33, 321, 160, 352
-1.00107, 81, 321, 208, 352
-1.00107, 129, 321, 256, 352
-1.00107, 177, 321, 304, 352
-1.00107, 225, 321, 352, 352
-1.00107, 273, 321, 400, 352
-1.00107, 321, 321, 448, 352
-1.00107, 369, 321, 496, 352
-1.00107, 33, 333, 160, 364
-1.00107, 81, 333, 208, 364
-1.00107, 129, 333, 256, 364
-1.00107, 177, 333, 304, 364
-1.00107, 225, 333, 352, 364
-1.00107, 273, 333, 400, 364
-1.00107, 321, 333, 448, 364
-1.00107, 369, 333, 496, 364
-1.00107, 85, 145, 116, 272
-1.00109, 213, 65, 244, 192
-1.00117, 257, 73, 500, 136
-1.00121, 1, 65, 256, 192
-1.00125, 465, 145, 496, 272
-1.00133, 97, 65, 352, 128
-1.00134, 225, 241, 480, 368
-1.00136, 1, 249, 500, 312
-1.0015, 1, 1, 32, 256
-1.00151, 101, 1, 132, 256
-1.00151, 85, 1, 116, 256
-1.00156, 113, 1, 144, 256
-1.00161, 1, 65, 256, 128
-1.00164, 17, 89, 144, 152
-1.00166, 193, 249, 448, 312
-1.00181, 185, 49, 216, 176
-1.00195, 97, 249, 352, 312
-1.00203, 257, 49, 500, 112
-1.00212, 257, 1, 500, 64
-1.00212, 65, 17, 320, 80
-1.00212, 161, 17, 416, 80
-1.00212, 257, 25, 500, 88
-1.00212, 65, 41, 320, 104
-1.00212, 161, 41, 416, 104
-1.00212, 161, 273, 416, 336
-1.00212, 257, 273, 500, 336
-1.00212, 65, 297, 320, 360
-1.00212, 161, 297, 416, 360
-1.00212, 257, 297, 500, 360
-1.00239, 177, 73, 304, 136
-1.00247, 141, 145, 172, 272
-1.00252, 25, 129, 88, 192
-1.00255, 89, 241, 120, 368
-1.00259, 369, 49, 496, 112
-1.00269, 81, 49, 208, 112
-1.0027, 1, 121, 128, 184
-1.00282, 177, 1, 240, 256
-1.00283, 353, 193, 480, 256
-1.0029, 49, 145, 112, 208
-1.00291, 97, 1, 224, 64
-1.00291, 225, 1, 352, 64
-1.00291, 321, 1, 448, 64
-1.00291, 369, 1, 496, 64
-1.00291, 33, 17, 160, 80
-1.00291, 145, 17, 272, 80
-1.00291, 273, 17, 400, 80
-1.00291, 81, 25, 208, 88
-1.00291, 193, 25, 320, 88
-1.00291, 321, 25, 448, 88
-1.00291, 369, 25, 496, 88
-1.00291, 33, 41, 160, 104
-1.00291, 129, 41, 256, 104
-1.00291, 241, 41, 368, 104
-1.00291, 177, 49, 304, 112
-1.00291, 289, 49, 416, 112
-1.00291, 1, 65, 128, 128
-1.00291, 225, 65, 352, 128
-1.00291, 369, 225, 496, 288
-1.00291, 273, 249, 400, 312
-1.00291, 321, 249, 448, 312
-1.00291, 369, 249, 496, 312
-1.00291, 81, 273, 208, 336
-1.00291, 129, 273, 256, 336
-1.00291, 177, 273, 304, 336
-1.00291, 225, 273, 352, 336
-1.00291, 273, 273, 400, 336
-1.00291, 321, 273, 448, 336
-1.00291, 369, 273, 496, 336
-1.00291, 33, 297, 160, 360
-1.00291, 81, 297, 208, 360
-1.00291, 129, 297, 256, 360
-1.00291, 177, 297, 304, 360
-1.00291, 225, 297, 352, 360
-1.00291, 273, 297, 400, 360
-1.00291, 321, 297, 448, 360
-1.00291, 369, 297, 496, 360
-1.00309, 57, 257, 120, 320
-1.00318, 105, 49, 168, 176
-1.00324, 469, 49, 500, 176
-1.00358, 129, 81, 160, 208
-1.00372, 89, 73, 152, 136
-1.00387, 1, 17, 500, 80
-1.00387, 1, 41, 500, 104
-1.00387, 1, 273, 500, 336
-1.00387, 1, 297, 500, 360
-1.00425, 173, 49, 204, 176
-1.00448, 1, 241, 32, 368
-1.0045, 321, 33, 448, 160
-1.00464, 97, 257, 224, 378
-1.0047, 321, 209, 448, 336
-1.00475, 1, 1, 500, 128
-1.00499, 197, 241, 228, 368
-1.00502, 193, 89, 256, 152
-1.00508, 225, 249, 352, 312
-1.00517, 9, 1, 72, 256
-1.00524, 201, 49, 232, 176
-1.00535, 301, 65, 332, 192
-1.00553, 337, 225, 368, 352
-1.0056, 169, 81, 232, 144
-1.00561, 5, 97, 36, 224
-1.00598, 21, 257, 52, 378
-1.00602, 33, 1, 96, 256
-1.00618, 225, 89, 288, 152
-1.0062, 121, 33, 152, 160
-1.00631, 321, 225, 384, 288
-1.00635, 169, 241, 200, 368
-1.00687, 97, 113, 128, 240
-1.00693, 105, 257, 136, 378
-1.00696, 321, 225, 384, 352
-1.00696, 113, 65, 176, 128
-1.00699, 353, 33, 384, 160
-1.00701, 433, 161, 496, 224
-1.00707, 209, 49, 336, 176
-1.00707, 325, 49, 356, 176
-1.0071, 97, 121, 160, 184
-1.00729, 181, 241, 212, 368
-1.00737, 313, 89, 376, 152
-1.00745, 73, 1, 136, 256
-1.00746, 209, 257, 240, 378
-1.00751, 177, 257, 240, 320
-1.00764, 1, 113, 64, 176
-1.00767, 1, 81, 128, 208
-1.00767, 97, 1, 160, 256
-1.00776, 117, 81, 148, 208
-1.00779, 401, 17, 432, 144
-1.00782, 337, 73, 400, 136
-1.00787, 145, 57, 208, 120
-1.00789, 29, 81, 60, 208
-1.00828, 113, 1, 240, 128
-1.00832, 33, 17, 288, 144
-1.00876, 133, 1, 164, 128
-1.00883, 433, 57, 496, 120
-1.00891, 253, 49, 284, 176
-1.00896, 73, 105, 136, 168
-1.00921, 349, 225, 380, 352
-1.00924, 361, 201, 424, 264
-1.00928, 409, 49, 472, 112
-1.00929, 129, 273, 192, 336
-1.00929, 153, 273, 216, 336
-1.00929, 217, 273, 280, 336
-1.00929, 241, 273, 304, 336
-1.00929, 265, 273, 328, 336
-1.00929, 289, 273, 352, 336
-1.00929, 313, 273, 376, 336
-1.00929, 337, 273, 400, 336
-1.00929, 361, 273, 424, 336
-1.00929, 385, 273, 448, 336
-1.00929, 409, 273, 472, 336
-1.00929, 433, 273, 496, 336
-1.00929, 1, 297, 64, 360
-1.00929, 25, 297, 88, 360
-1.00929, 49, 297, 112, 360
-1.00929, 73, 297, 136, 360
-1.00929, 97, 297, 160, 360
-1.00929, 121, 297, 184, 360
-1.00929, 145, 297, 208, 360
-1.00929, 169, 297, 232, 360
-1.00929, 193, 297, 256, 360
-1.00929, 217, 297, 280, 360
-1.00929, 241, 297, 304, 360
-1.00929, 265, 297, 328, 360
-1.00929, 289, 297, 352, 360
-1.00929, 313, 297, 376, 360
-1.00929, 337, 297, 400, 360
-1.00929, 361, 297, 424, 360
-1.00929, 385, 297, 448, 360
-1.00929, 409, 297, 472, 360
-1.00929, 433, 297, 496, 360
-1.00939, 257, 257, 288, 378
-1.00986, 17, 33, 144, 160
-1.01026, 273, 33, 400, 160
-1.01031, 369, 17, 496, 144
-1.01038, 225, 1, 352, 128
-1.01038, 369, 209, 496, 336
-1.01038, 321, 257, 448, 378
-1.01038, 369, 257, 496, 378
-1.01064, 49, 97, 112, 224
-1.01073, 97, 97, 160, 224
-1.01094, 129, 1, 384, 128
-1.0113, 249, 49, 312, 176
-1.01136, 1, 81, 64, 208
-1.01145, 33, 1, 288, 256
-1.01219, 129, 17, 192, 144
-1.01244, 273, 49, 336, 176
-1.01285, 65, 1, 192, 128
-1.01295, 337, 33, 400, 160
-1.01325, 225, 257, 352, 378
-1.01327, 225, 1, 480, 128
-1.0135, 153, 1, 216, 128
-1.01371, 225, 257, 288, 378
-1.01373, 97, 1, 160, 128
-1.01383, 81, 49, 144, 176
-1.01416, 177, 1, 304, 128
-1.01442, 249, 257, 312, 378
-1.01467, 25, 81, 88, 208
-1.01478, 65, 1, 128, 128
-1.01478, 225, 1, 288, 128
-1.01478, 249, 1, 312, 128
-1.01478, 273, 1, 336, 128
-1.01478, 297, 1, 360, 128
-1.01478, 9, 33, 72, 160
-1.01478, 33, 33, 96, 160
-1.01478, 57, 49, 120, 176
-1.01478, 361, 209, 424, 336
-1.01478, 385, 209, 448, 336
-1.01478, 409, 209, 472, 336
-1.01478, 433, 209, 496, 336
-1.01478, 273, 257, 336, 378
-1.01478, 361, 257, 424, 378
-1.01478, 385, 257, 448, 378
-1.01478, 409, 257, 472, 378
-1.01478, 433, 257, 496, 378
-1.01478, 433, 1, 496, 128
-1.01504, 361, 17, 424, 144
-1.01682, 217, 49, 280, 176
-1.01704, 177, 1, 240, 128
-1.01735, 385, 1, 448, 128
-1.01757, 201, 1, 264, 128
-1.01874, 73, 97, 136, 224
-1.01965, 409, 1, 472, 128
