1946
-0.354996, 1, 1, 366, 500
-0.440328, 1, 97, 366, 352
-0.44649, 1, 1, 366, 256
-0.466825, 1, 193, 366, 448
-0.500659, 97, 1, 352, 500
-0.535848, 1, 1, 256, 500
-0.64323, 65, 1, 320, 256
-0.738187, 1, 257, 256, 500
-0.774873, 97, 193, 352, 448
-0.791607, 65, 97, 320, 352
-0.870257, 161, 1, 288, 256
-0.880751, 209, 1, 336, 256
-0.88094, 97, 97, 224, 352
-0.885837, 113, 1, 240, 256
-0.886202, 1, 33, 366, 160
-0.888925, 33, 257, 160, 500
-0.892955, 1, 353, 366, 480
-0.895302, 1, 97, 366, 224
-0.89682, 17, 1, 144, 500
-0.897844, 49, 65, 176, 320
-0.898441, 81, 1, 208, 500
-0.901267, 129, 1, 256, 500
-0.902273, 241, 257, 366, 500
-0.905171, 1, 1, 128, 256
-0.905956, 193, 1, 320, 500
-0.908912, 1, 289, 366, 416
-0.909397, 1, 1, 256, 128
-0.912273, 225, 161, 352, 416
-0.912745, 145, 97, 272, 352
-0.913473, 97, 225, 224, 480
-0.913993, 193, 257, 320, 500
-0.919829, 33, 161, 160, 416
-0.926509, 241, 1, 366, 500
-0.926691, 33, 49, 288, 176
-0.928638, 145, 257, 272, 500
-0.932731, 97, 1, 352, 128
-0.933651, 1, 337, 256, 464
-0.935847, 1, 145, 366, 272
-0.937779, 65, 97, 320, 224
-0.940251, 145, 1, 272, 128
-0.942203, 1, 241, 366, 368
-0.943023, 1, 289, 256, 416
-0.945137, 81, 113, 208, 240
-0.946385, 1, 193, 366, 320
-0.946541, 97, 273, 352, 400
-0.946551, 169, 1, 232, 128
-0.946801, 129, 81, 256, 208
-0.947586, 97, 321, 352, 448
-0.948438, 209, 33, 336, 160
-0.948984, 177, 337, 304, 464
-0.950251, 1, 337, 64, 464
-0.951082, 129, 353, 256, 480
-0.953296, 241, 337, 366, 464
-0.954077, 25, 353, 88, 480
-0.955269, 265, 97, 328, 224
-0.9559, 81, 49, 208, 176
-0.95614, 1, 353, 64, 416
-0.956578, 1, 33, 128, 160
-0.957424, 137, 65, 200, 192
-0.95755, 41, 33, 104, 160
-0.957851, 1, 337, 128, 464
-0.958332, 25, 369, 88, 432
-0.958771, 49, 337, 176, 464
-0.959099, 233, 17, 296, 144
-0.960055, 209, 353, 272, 416
-0.960296, 25, 289, 88, 416
-0.960683, 289, 305, 352, 432
-0.960732, 33, 113, 160, 240
-0.960767, 209, 289, 336, 416
-0.961024, 1, 33, 64, 160
-0.962592, 17, 257, 144, 384
-0.962601, 129, 89, 192, 152
-0.962785, 49, 1, 176, 128
-0.963431, 225, 65, 288, 192
-0.963949, 113, 65, 176, 192
-0.964016, 193, 113, 320, 240
-0.96421, 113, 321, 176, 448
-0.964411, 65, 209, 320, 336
-0.964558, 161, 81, 224, 208
-0.964702, 65, 145, 320, 272
-0.964975, 49, 81, 112, 208
-0.965141, 193, 1, 256, 128
-0.965463, 105, 273, 168, 400
-0.96589, 225, 81, 288, 144
-0.966447, 257, 33, 320, 160
-0.966534, 137, 17, 200, 144
-0.966582, 97, 113, 160, 240
-0.966774, 97, 369, 352, 496
-0.967632, 233, 113, 296, 240
-0.967866, 89, 49, 152, 176
-0.967928, 145, 329, 208, 392
-0.967928, 65, 361, 128, 424
-0.96796, 249, 377, 312, 440
-0.968365, 17, 161, 144, 288
-0.968388, 249, 321, 312, 448
-0.96869, 25, 345, 88, 408
-0.968789, 73, 1, 136, 128
-0.969473, 153, 289, 216, 416
-0.970042, 17, 41, 80, 104
-0.970138, 305, 241, 366, 368
-0.970348, 201, 81, 264, 208
-0.970469, 57, 353, 120, 480
-0.970612, 169, 9, 232, 72
-0.970709, 169, 353, 232, 480
-0.971078, 97, 105, 160, 168
-0.971079, 241, 97, 366, 224
-0.971234, 281, 257, 344, 384
-0.971394, 113, 337, 176, 400
-0.971406, 153, 97, 216, 160
-0.971663, 49, 33, 112, 96
-0.971756, 233, 353, 296, 416
-0.97191, 57, 305, 120, 432
-0.972093, 281, 377, 312, 440
-0.972292, 241, 193, 366, 320
-0.972575, 57, 241, 120, 368
-0.972822, 273, 97, 336, 160
-0.973246, 197, 353, 228, 480
-0.973338, 137, 113, 200, 240
-0.973585, 17, 313, 80, 376
-0.973721, 145, 353, 208, 480
-0.974381, 145, 353, 176, 480
-0.974406, 97, 305, 224, 432
-0.974637, 153, 73, 216, 136
-0.974664, 65, 257, 192, 384
-0.974703, 145, 1, 208, 256
-0.974748, 145, 41, 272, 104
-0.97498, 121, 361, 184, 424
-0.975027, 97, 1, 224, 128
-0.975043, 257, 273, 320, 400
-0.975053, 241, 241, 366, 368
-0.975162, 73, 113, 136, 240
-0.975183, 17, 81, 80, 208
-0.975205, 49, 337, 112, 400
-0.975218, 89, 353, 152, 480
-0.975268, 297, 337, 360, 400
-0.975284, 265, 177, 328, 304
-0.97538, 113, 97, 240, 160
-0.975454, 41, 369, 72, 432
-0.975512, 65, 9, 128, 72
-0.975604, 65, 249, 128, 312
-0.975862, 81, 305, 144, 432
-0.975868, 73, 113, 136, 176
-0.975868, 265, 297, 328, 360
-0.975937, 145, 289, 272, 416
-0.976032, 289, 353, 352, 480
-0.976065, 1, 289, 64, 416
-0.976266, 73, 177, 136, 304
-0.97656, 149, 65, 180, 192
-0.976565, 105, 313, 168, 376
-0.976696, 161, 41, 224, 104
-0.976721, 129, 113, 192, 176
-0.976744, 65, 209, 192, 336
-0.97685, 145, 9, 272, 72
-0.976937, 257, 353, 320, 416
-0.97699, 33, 257, 96, 320
-0.977094, 209, 321, 272, 448
-0.977094, 197, 393, 228, 456
-0.97711, 193, 329, 256, 392
-0.977137, 129, 65, 192, 128
-0.97715, 201, 89, 264, 152
-0.977203, 41, 281, 104, 344
-0.977289, 225, 105, 288, 168
-0.977444, 9, 1, 72, 64
-0.977482, 185, 145, 248, 208
-0.977528, 173, 1, 204, 128
-0.977684, 177, 369, 304, 432
-0.977747, 105, 81, 168, 144
-0.977838, 81, 257, 144, 384
-0.977861, 33, 89, 96, 152
-0.978047, 161, 89, 288, 152
-0.978085, 153, 89, 184, 152
-0.978299, 145, 345, 272, 408
-0.978378, 1, 73, 64, 136
-0.978477, 129, 393, 192, 456
-0.978507, 129, 65, 256, 128
-0.978578, 305, 241, 366, 304
-0.978625, 153, 353, 216, 416
-0.978679, 193, 353, 224, 416
-0.978749, 209, 385, 272, 448
-0.978765, 65, 121, 192, 184
-0.978774, 65, 257, 128, 500
-0.978988, 281, 337, 312, 464
-0.979064, 25, 321, 56, 448
-0.979076, 145, 305, 208, 368
-0.979138, 49, 385, 112, 448
-0.979187, 1, 385, 32, 448
-0.979364, 241, 129, 304, 192
-0.979393, 237, 353, 268, 416
-0.979399, 249, 105, 312, 168
-0.979433, 17, 361, 144, 424
-0.979521, 1, 377, 64, 440
-0.979543, 241, 329, 304, 392
-0.979606, 121, 369, 184, 496
-0.979611, 209, 33, 336, 96
-0.979639, 241, 337, 366, 400
-0.979771, 177, 65, 240, 128
-0.979941, 65, 1, 128, 256
-0.980005, 57, 425, 120, 488
-0.980051, 49, 345, 80, 408
-0.980157, 37, 345, 68, 408
-0.98045, 277, 345, 308, 408
-0.980621, 33, 9, 96, 72
-0.980721, 193, 1, 256, 64
-0.980727, 185, 353, 248, 416
-0.980754, 33, 241, 96, 368
-0.980811, 113, 65, 176, 320
-0.98086, 193, 41, 256, 104
-0.980875, 225, 33, 288, 96
-0.981116, 1, 41, 128, 104
-0.98118, 5, 337, 36, 464
-0.981299, 161, 385, 224, 448
-0.981393, 33, 97, 160, 160
-0.981453, 225, 57, 288, 120
-0.98146, 297, 225, 360, 480
-0.981476, 185, 353, 216, 480
-0.98151, 241, 1, 304, 256
-0.981605, 225, 361, 352, 424
-0.981664, 137, 401, 168, 464
-0.981707, 261, 385, 292, 448
-0.981746, 53, 377, 84, 440
-0.98182, 97, 1, 160, 128
-0.98189, 281, 361, 344, 424
-0.981892, 17, 289, 80, 352
-0.98193, 49, 145, 112, 208
-0.982005, 77, 1, 108, 128
-0.982065, 261, 361, 292, 424
-0.98207, 33, 129, 96, 256
-0.982225, 209, 65, 336, 128
-0.982255, 57, 177, 120, 240
-0.982381, 17, 209, 144, 336
-0.982458, 25, 1, 88, 500
-0.98247, 129, 33, 192, 96
-0.982518, 13, 33, 44, 160
-0.98253, 141, 105, 172, 168
-0.982603, 81, 81, 144, 144
-0.982627, 21, 345, 52, 408
-0.982679, 177, 161, 304, 288
-0.982719, 45, 369, 76, 496
-0.982765, 89, 369, 152, 432
-0.982855, 149, 401, 180, 464
-0.982898, 97, 409, 160, 472
-0.982904, 185, 377, 216, 440
-0.98299, 81, 41, 208, 104
-0.982994, 57, 89, 120, 152
-0.983006, 1, 1, 64, 256
-0.983031, 209, 273, 272, 400
-0.98304, 257, 369, 320, 496
-0.983064, 77, 105, 108, 168
-0.983097, 33, 1, 96, 256
-0.983122, 217, 1, 248, 128
-0.983206, 237, 1, 268, 128
-0.983303, 65, 17, 192, 80
-0.983395, 161, 137, 224, 200
-0.983413, 277, 97, 308, 224
-0.983433, 197, 1, 228, 128
-0.983442, 97, 345, 224, 408
-0.983456, 177, 9, 208, 72
-0.983469, 49, 121, 112, 184
-0.983481, 41, 313, 104, 376
-0.983494, 121, 9, 184, 72
-0.983526, 257, 33, 320, 96
-0.983594, 65, 73, 192, 136
-0.983627, 201, 65, 264, 128
-0.98365, 81, 161, 208, 288
-0.983658, 177, 105, 240, 168
-0.983872, 225, 161, 288, 224
-0.98389, 161, 33, 192, 160
-0.983918, 129, 417, 192, 480
-0.983945, 133, 81, 164, 144
-0.98399, 153, 409, 216, 472
-0.984038, 33, 65, 96, 128
-0.984094, 225, 1, 288, 64
-0.984098, 61, 353, 92, 416
-0.984106, 113, 401, 240, 464
-0.984134, 265, 113, 296, 240
-0.98423, 185, 1, 216, 128
-0.984231, 141, 305, 172, 432
-0.984249, 225, 305, 352, 368
-0.984307, 145, 65, 176, 128
-0.984369, 169, 321, 232, 384
-0.984386, 241, 177, 304, 304
-0.984407, 141, 321, 172, 384
-0.984407, 193, 113, 320, 176
-0.984437, 305, 305, 366, 368
-0.984454, 1, 1, 64, 500
-0.98446, 49, 305, 80, 432
-0.984479, 105, 257, 168, 500
-0.984507, 281, 49, 344, 176
-0.984569, 249, 369, 280, 432
-0.98457, 201, 113, 264, 176
-0.984666, 97, 41, 160, 104
-0.984666, 65, 225, 128, 288
-0.984722, 1, 297, 128, 360
-0.984758, 201, 417, 232, 480
-0.984836, 265, 161, 328, 224
-0.984864, 93, 33, 124, 160
-0.984873, 185, 401, 216, 464
-0.984894, 129, 377, 256, 440
-0.984899, 157, 353, 188, 480
-0.984913, 193, 369, 256, 496
-0.984938, 73, 361, 104, 424
-0.98496, 169, 81, 200, 208
-0.984982, 129, 137, 192, 200
-0.984986, 89, 1, 152, 256
-0.985015, 89, 257, 152, 320
-0.985042, 209, 353, 240, 480
-0.985155, 17, 401, 80, 464
-0.985165, 273, 193, 336, 448
-0.985192, 1, 361, 32, 424
-0.985211, 33, 257, 160, 320
-0.985249, 41, 225, 104, 480
-0.98526, 33, 385, 160, 448
-0.985333, 145, 377, 176, 440
-0.985405, 249, 81, 312, 144
-0.985427, 301, 321, 332, 448
-0.985458, 305, 273, 366, 336
-0.985479, 209, 281, 272, 344
-0.98548, 141, 353, 172, 416
-0.985514, 93, 97, 124, 224
-0.985555, 1, 49, 32, 176
-0.985578, 29, 49, 60, 176
-0.985584, 209, 1, 336, 64
-0.985752, 129, 129, 256, 256
-0.985763, 137, 1, 200, 500
-0.98586, 193, 337, 320, 400
-0.985866, 89, 97, 152, 352
-0.985891, 97, 193, 160, 320
-0.985893, 33, 89, 64, 152
-0.985903, 73, 97, 104, 224
-0.985963, 205, 345, 236, 408
-0.985972, 53, 265, 84, 328
-0.98614, 73, 289, 136, 352
-0.986146, 273, 97, 336, 352
-0.986157, 125, 353, 156, 480
-0.986157, 65, 161, 128, 416
-0.986172, 57, 57, 120, 120
-0.986172, 33, 33, 64, 96
-0.986295, 241, 113, 366, 176
-0.986361, 17, 49, 48, 112
-0.986439, 257, 401, 320, 464
-0.986453, 89, 433, 152, 496
-0.986462, 21, 321, 52, 384
-0.986468, 17, 9, 144, 72
-0.986581, 209, 89, 336, 152
-0.986581, 17, 329, 144, 392
-0.986593, 277, 105, 308, 168
-0.986604, 221, 65, 252, 192
-0.98672, 113, 121, 240, 184
-0.98672, 177, 393, 304, 456
-0.986732, 281, 401, 312, 464
-0.986806, 97, 321, 224, 384
-0.986841, 33, 1, 64, 128
-0.986866, 65, 353, 96, 480
-0.986868, 89, 201, 152, 264
-0.98695, 289, 273, 320, 400
-0.986972, 1, 97, 64, 160
-0.986979, 281, 249, 344, 312
-0.987036, 289, 145, 352, 272
-0.98705, 17, 137, 80, 200
-0.987087, 113, 225, 240, 352
-0.987096, 169, 41, 200, 104
-0.987149, 209, 417, 272, 480
-0.987158, 113, 1, 176, 500
-0.987214, 181, 345, 212, 408
-0.987272, 241, 297, 304, 360
-0.987277, 269, 337, 300, 464
-0.987284, 193, 209, 320, 336
-0.987302, 137, 81, 168, 208
-0.987353, 185, 417, 248, 480
-0.987364, 233, 49, 264, 176
-0.987398, 33, 193, 96, 320
-0.987436, 185, 281, 248, 344
-0.987467, 145, 9, 208, 72
-0.987474, 233, 81, 264, 144
-0.987527, 125, 393, 156, 456
-0.987542, 173, 353, 204, 480
-0.987554, 273, 321, 336, 384
-0.987572, 73, 329, 136, 392
-0.987608, 5, 321, 36, 384
-0.987612, 145, 321, 272, 384
-0.987625, 129, 105, 160, 168
-0.987671, 89, 145, 152, 208
-0.987673, 1, 137, 128, 200
-0.987685, 37, 97, 68, 224
-0.987724, 205, 369, 236, 432
-0.987737, 105, 265, 136, 328
-0.987801, 257, 337, 288, 464
-0.987807, 293, 297, 324, 360
-0.987899, 201, 33, 264, 288
-0.987939, 277, 33, 308, 160
-0.987954, 309, 241, 340, 368
-0.987959, 105, 257, 136, 384
-0.988065, 1, 1, 32, 128
-0.988097, 297, 193, 360, 320
-0.988116, 161, 129, 224, 256
-0.98813, 249, 97, 312, 352
-0.988142, 289, 1, 352, 128
-0.988168, 221, 89, 252, 152
-0.988174, 65, 17, 96, 144
-0.988186, 169, 1, 232, 256
-0.988189, 57, 1, 120, 500
-0.988191, 233, 185, 296, 248
-0.988285, 49, 281, 176, 344
-0.988286, 137, 97, 200, 352
-0.988286, 81, 169, 144, 232
-0.988305, 65, 417, 192, 480
-0.988321, 201, 169, 264, 232
-0.988345, 49, 257, 80, 384
-0.988364, 37, 289, 68, 416
-0.98837, 265, 193, 328, 256
-0.988371, 17, 225, 80, 480
-0.988435, 157, 305, 188, 432
-0.988475, 273, 65, 336, 128
-0.988488, 33, 425, 96, 488
-0.988499, 129, 369, 160, 432
-0.988553, 161, 289, 288, 352
-0.98864, 13, 25, 44, 88
-0.988656, 265, 1, 328, 256
-0.988657, 65, 201, 128, 264
-0.988685, 281, 393, 344, 456
-0.98875, 265, 129, 328, 192
-0.988788, 329, 321, 360, 384
-0.988794, 257, 33, 288, 160
-0.988845, 213, 65, 244, 128
-0.98886, 73, 33, 104, 96
-0.988862, 17, 73, 48, 136
-0.988881, 265, 121, 296, 184
-0.988889, 33, 321, 64, 384
-0.988916, 81, 49, 112, 176
-0.988934, 165, 361, 196, 424
-0.988939, 269, 289, 300, 416
-0.98897, 17, 65, 144, 128
-0.989003, 265, 273, 328, 336
-0.989005, 97, 113, 128, 176
-0.989167, 25, 225, 88, 288
-0.989187, 209, 129, 272, 256
-0.989217, 81, 145, 208, 208
-0.989229, 53, 25, 84, 88
-0.98927, 161, 169, 224, 232
-0.989287, 17, 381, 80, 412
-0.989293, 45, 105, 76, 168
-0.989322, 249, 345, 280, 408
-0.989392, 321, 273, 352, 400
-0.989439, 1, 361, 64, 392
-0.989461, 217, 41, 248, 104
-0.989498, 241, 145, 366, 272
-0.989569, 129, 177, 256, 304
-0.989583, 57, 81, 88, 208
-0.989592, 173, 97, 204, 160
-0.989592, 313, 329, 344, 392
-0.989617, 113, 425, 240, 488
-0.989638, 17, 177, 144, 240
-0.989647, 77, 249, 108, 312
-0.989653, 157, 313, 188, 376
-0.989683, 237, 1, 268, 64
-0.989708, 73, 393, 136, 456
-0.989745, 273, 305, 304, 368
-0.989751, 81, 377, 208, 440
-0.989753, 161, 137, 288, 200
-0.989832, 209, 137, 272, 200
-0.989893, 113, 289, 176, 352
-0.989896, 189, 1, 220, 64
-0.989903, 249, 1, 312, 64
-0.989917, 233, 273, 296, 400
-0.989923, 297, 321, 328, 384
-0.989923, 101, 353, 132, 480
-0.989949, 113, 161, 176, 416
-0.989956, 153, 257, 216, 500
-0.989967, 65, 425, 96, 488
-0.990028, 25, 297, 56, 360
-0.990031, 289, 33, 320, 160
-0.990045, 217, 345, 248, 408
-0.990046, 33, 369, 64, 496
-0.990058, 329, 345, 360, 408
-0.990095, 69, 385, 100, 448
-0.990095, 17, 177, 80, 240
-0.990109, 21, 1, 52, 64
-0.990114, 249, 193, 312, 448
-0.990145, 157, 33, 188, 96
-0.990149, 209, 1, 272, 500
-0.99015, 157, 65, 188, 128
-0.990188, 41, 97, 104, 352
-0.990213, 1, 209, 64, 336
-0.990231, 25, 113, 88, 176
-0.990241, 241, 393, 304, 424
-0.990242, 65, 89, 96, 152
-0.990264, 161, 365, 224, 396
-0.990269, 241, 273, 366, 336
-0.990295, 81, 1, 144, 500
-0.990298, 253, 105, 284, 168
-0.990333, 17, 393, 48, 456
-0.990358, 273, 1, 336, 500
-0.9904, 145, 281, 208, 344
-0.990401, 305, 129, 366, 384
-0.990412, 293, 385, 324, 448
-0.990422, 41, 129, 72, 192
-0.990422, 29, 369, 60, 432
-0.990442, 257, 369, 320, 400
-0.990514, 153, 97, 216, 128
-0.990526, 85, 9, 116, 72
-0.990526, 225, 81, 288, 112
-0.990549, 145, 345, 208, 376
-0.990549, 153, 129, 184, 256
-0.990577, 41, 353, 104, 384
-0.99059, 65, 1, 96, 64
-0.990594, 229, 33, 260, 96
-0.990607, 5, 65, 36, 128
-0.990609, 173, 65, 204, 128
-0.990679, 53, 33, 84, 160
-0.990703, 129, 89, 192, 120
-0.990732, 25, 393, 88, 424
-0.990735, 237, 113, 268, 240
-0.990741, 49, 365, 112, 396
-0.990767, 225, 193, 352, 256
-0.990795, 153, 113, 184, 176
-0.990796, 113, 281, 240, 344
-0.990819, 25, 273, 56, 400
-0.990831, 257, 381, 320, 412
-0.990836, 217, 369, 280, 496
-0.990897, 9, 129, 72, 256
-0.990919, 209, 137, 336, 200
-0.99092, 41, 49, 72, 176
-0.990927, 129, 361, 192, 392
-0.990941, 1, 41, 256, 104
-0.990954, 201, 305, 264, 368
-0.990961, 65, 257, 96, 320
-0.990976, 265, 113, 328, 144
-0.990978, 209, 393, 240, 456
-0.990985, 217, 329, 280, 392
-0.991002, 49, 201, 176, 264
-0.991039, 177, 9, 240, 40
-0.991069, 13, 369, 44, 432
-0.991077, 89, 121, 152, 152
-0.991078, 185, 65, 216, 192
-0.991083, 49, 305, 176, 368
-0.991098, 137, 121, 200, 152
-0.991119, 165, 385, 196, 448
-0.991119, 265, 301, 328, 332
-0.99113, 185, 357, 248, 388
-0.99116, 193, 321, 224, 384
-0.991162, 129, 313, 160, 376
-0.991167, 25, 41, 88, 72
-0.991179, 65, 257, 128, 288
-0.991187, 233, 121, 296, 152
-0.991198, 129, 377, 192, 408
-0.991207, 61, 241, 92, 368
-0.991237, 1, 393, 64, 424
-0.991252, 97, 33, 352, 96
-0.991253, 337, 241, 366, 368
-0.991258, 1, 309, 64, 340
-0.991269, 225, 97, 288, 128
-0.991272, 85, 409, 116, 472
-0.991273, 57, 37, 120, 68
-0.991278, 161, 161, 288, 224
-0.991291, 305, 249, 336, 312
-0.991307, 81, 169, 208, 232
-0.991314, 241, 357, 304, 388
-0.99132, 233, 121, 264, 184
-0.991336, 93, 41, 124, 104
-0.991339, 233, 369, 296, 400
-0.991348, 121, 109, 184, 140
-0.991361, 93, 193, 124, 320
-0.991375, 45, 57, 76, 120
-0.991382, 149, 9, 180, 72
-0.991407, 33, 345, 288, 408
-0.991419, 113, 329, 176, 360
-0.99143, 145, 333, 208, 364
-0.991444, 153, 81, 216, 112
-0.991445, 41, 377, 104, 408
-0.991468, 17, 349, 80, 380
-0.991486, 129, 77, 192, 108
-0.991501, 241, 393, 366, 456
-0.991546, 73, 369, 136, 400
-0.991559, 57, 117, 120, 148
-0.991598, 125, 65, 156, 192
-0.991601, 65, 89, 320, 152
-0.99161, 1, 53, 64, 84
-0.991631, 113, 317, 176, 348
-0.99164, 1, 361, 366, 424
-0.991643, 157, 337, 188, 400
-0.991676, 217, 349, 280, 380
-0.99168, 225, 381, 288, 412
-0.991683, 25, 25, 88, 56
-0.991694, 153, 133, 216, 164
-0.991696, 129, 305, 160, 432
-0.991709, 193, 97, 256, 128
-0.991736, 193, 157, 256, 188
-0.991741, 41, 105, 104, 136
-0.991747, 253, 81, 284, 208
-0.991749, 233, 33, 296, 64
-0.991754, 305, 253, 366, 284
-0.991816, 225, 109, 288, 140
-0.99183, 105, 357, 168, 388
-0.991835, 105, 193, 136, 320
-0.99184, 193, 77, 256, 108
-0.991854, 209, 133, 272, 164
-0.991861, 105, 345, 168, 376
-0.991863, 177, 417, 304, 480
-0.99188, 273, 325, 336, 356
-0.991883, 289, 341, 352, 372
-0.991885, 209, 365, 272, 396
-0.991908, 121, 401, 184, 432
-0.991911, 57, 437, 120, 468
-0.991919, 249, 129, 280, 256
-0.991923, 333, 241, 364, 304
-0.99193, 145, 109, 208, 140
-0.991947, 153, 321, 216, 352
-0.99195, 201, 65, 264, 96
-0.991957, 225, 69, 288, 100
-0.991966, 129, 37, 192, 68
-0.991987, 17, 93, 80, 124
-0.991997, 201, 305, 232, 432
-0.992003, 129, 137, 192, 168
-0.992011, 193, 265, 320, 328
-0.99202, 217, 145, 248, 208
-0.992025, 41, 93, 104, 124
-0.992031, 1, 81, 64, 112
-0.992034, 1, 25, 64, 56
-0.992042, 273, 313, 336, 344
-0.992051, 153, 69, 216, 100
-0.992065, 25, 365, 88, 396
-0.99207, 129, 389, 192, 420
-0.9921, 65, 305, 96, 432
-0.992102, 81, 449, 144, 480
-0.992106, 265, 125, 328, 156
-0.99213, 241, 241, 366, 304
-0.992138, 249, 193, 312, 224
-0.992143, 233, 133, 296, 164
-0.992148, 297, 353, 360, 384
-0.992149, 25, 309, 88, 340
-0.992159, 289, 97, 352, 224
-0.992171, 97, 109, 160, 140
-0.992171, 41, 297, 104, 328
-0.992179, 85, 73, 116, 136
-0.992191, 145, 429, 208, 460
-0.992195, 161, 49, 224, 80
-0.992212, 161, 29, 224, 60
-0.992216, 113, 433, 176, 464
-0.992221, 273, 393, 336, 424
-0.992229, 105, 421, 168, 452
-0.992235, 333, 289, 364, 416
-0.992239, 57, 129, 120, 160
-0.992281, 209, 169, 336, 232
-0.992289, 1, 33, 32, 96
-0.99229, 81, 161, 112, 288
-0.992291, 33, 77, 96, 108
-0.992293, 73, 25, 136, 56
-0.992323, 113, 125, 176, 156
-0.992333, 129, 413, 192, 444
-0.99234, 137, 33, 168, 160
-0.992346, 209, 37, 272, 68
-0.99235, 201, 169, 264, 200
-0.992356, 93, 361, 124, 424
-0.992359, 161, 153, 224, 184
-0.992364, 17, 409, 80, 440
-0.992372, 249, 405, 312, 436
-0.992375, 161, 377, 224, 408
-0.992381, 305, 325, 366, 356
-0.992383, 57, 397, 120, 428
-0.992388, 33, 265, 96, 296
-0.9924, 241, 305, 304, 336
-0.992402, 161, 169, 224, 200
-0.992404, 65, 381, 128, 412
-0.992408, 49, 177, 112, 208
-0.992424, 89, 393, 152, 424
-0.992432, 129, 9, 192, 40
-0.99244, 17, 421, 80, 452
-0.992446, 57, 453, 120, 484
-0.992451, 281, 401, 312, 432
-0.992453, 49, 157, 112, 188
-0.992453, 185, 425, 248, 456
-0.992454, 233, 21, 296, 52
-0.992457, 25, 57, 88, 88
-0.99246, 121, 209, 184, 336
-0.99246, 49, 381, 80, 412
-0.992462, 169, 109, 232, 140
-0.992474, 57, 141, 120, 172
-0.992484, 89, 437, 152, 468
-0.992484, 129, 25, 192, 56
-0.992488, 237, 329, 268, 392
-0.992499, 1, 17, 256, 80
-0.992499, 201, 49, 232, 176
-0.992504, 193, 49, 256, 80
-0.992506, 265, 181, 328, 212
-0.992507, 117, 337, 148, 400
-0.992514, 257, 89, 320, 120
-0.992523, 225, 181, 288, 212
-0.992538, 17, 325, 80, 356
-0.992549, 33, 121, 96, 152
-0.99255, 1, 393, 32, 424
-0.992557, 289, 17, 320, 80
-0.99256, 105, 97, 168, 128
-0.992561, 233, 293, 296, 324
-0.992563, 257, 385, 288, 416
-0.992568, 89, 381, 152, 412
-0.99257, 321, 337, 352, 464
-0.992575, 281, 381, 344, 412
-0.992576, 257, 41, 320, 72
-0.992576, 185, 305, 248, 432
-0.992581, 193, 345, 256, 376
-0.992582, 81, 257, 208, 320
-0.99259, 77, 177, 108, 240
-0.992597, 153, 89, 184, 120
-0.992599, 193, 373, 224, 404
-0.992609, 281, 389, 312, 420
-0.992615, 37, 369, 68, 400
-0.992617, 141, 89, 172, 120
-0.992619, 193, 385, 224, 416
-0.992626, 193, 401, 224, 432
-0.992635, 265, 329, 296, 392
-0.992655, 201, 421, 232, 452
-0.992669, 1, 425, 128, 488
-0.992672, 41, 265, 72, 328
-0.992676, 193, 357, 224, 388
-0.992689, 297, 361, 328, 424
-0.992691, 165, 9, 196, 72
-0.992694, 277, 377, 308, 408
-0.992695, 281, 413, 312, 444
-0.992717, 245, 145, 276, 208
-0.992743, 93, 257, 124, 320
-0.992745, 145, 409, 176, 440
-0.992766, 169, 337, 200, 400
-0.992774, 97, 297, 352, 360
-0.992785, 25, 357, 56, 388
-0.992802, 181, 361, 212, 392
-0.992809, 77, 113, 108, 144
-0.99283, 29, 57, 60, 120
-0.992835, 49, 349, 80, 380
-0.992855, 277, 349, 308, 380
-0.992868, 189, 145, 220, 208
-0.992873, 45, 313, 76, 376
-0.992899, 273, 113, 304, 144
-0.992913, 149, 397, 180, 428
-0.992921, 13, 389, 44, 420
-0.992923, 53, 81, 84, 144
-0.992927, 137, 393, 168, 424
-0.992936, 145, 381, 176, 412
-0.992941, 137, 421, 168, 452
-0.992945, 65, 385, 96, 416
-0.992945, 13, 57, 44, 88
-0.992947, 205, 353, 236, 384
-0.992948, 301, 49, 332, 176
-0.992952, 233, 57, 264, 120
-0.992963, 129, 109, 160, 140
-0.992963, 153, 361, 184, 392
-0.992977, 265, 397, 296, 428
-0.992978, 189, 413, 220, 444
-0.992982, 165, 365, 196, 396
-0.992982, 37, 357, 68, 388
-0.992985, 57, 369, 88, 400
-0.992994, 1, 381, 32, 412
-0.992999, 49, 269, 80, 300
-0.993023, 137, 321, 168, 352
-0.993026, 245, 385, 276, 416
-0.993035, 133, 405, 164, 436
-0.993037, 153, 109, 184, 140
-0.993043, 97, 65, 352, 128
-0.99305, 57, 41, 88, 72
-0.993051, 293, 321, 324, 352
-0.993051, 25, 389, 56, 420
-0.993054, 141, 361, 172, 392
-0.993059, 181, 401, 212, 432
-0.99306, 181, 9, 212, 40
-0.99306, 205, 373, 236, 404
-0.993074, 149, 77, 180, 108
-0.993088, 233, 89, 264, 120
-0.993089, 237, 349, 268, 380
-0.993091, 261, 361, 292, 392
-0.993098, 53, 393, 84, 424
-0.993098, 277, 365, 308, 396
-0.993102, 109, 113, 140, 176
-0.993111, 133, 381, 164, 412
-0.993112, 137, 333, 168, 364
-0.99312, 141, 117, 172, 148
-0.993123, 97, 117, 128, 148
-0.993124, 125, 113, 156, 240
-0.993127, 293, 393, 324, 424
-0.993128, 233, 33, 264, 64
-0.993129, 37, 37, 68, 68
-0.993142, 329, 353, 360, 384
-0.99315, 205, 393, 236, 424
-0.993156, 49, 129, 80, 256
-0.993157, 173, 101, 204, 132
-0.99316, 253, 121, 284, 152
-0.99316, 305, 337, 336, 368
-0.993163, 137, 129, 168, 256
-0.993164, 269, 409, 300, 440
-0.993172, 181, 373, 212, 404
-0.993174, 153, 325, 184, 356
-0.99318, 57, 93, 88, 124
-0.993181, 13, 341, 44, 372
-0.993181, 81, 125, 112, 156
-0.993182, 237, 73, 268, 104
-0.993184, 237, 369, 268, 400
-0.993186, 77, 45, 108, 76
-0.993188, 1, 69, 32, 100
-0.993194, 137, 345, 168, 376
-0.993195, 1, 57, 32, 88
-0.993199, 273, 301, 304, 332
-0.9932, 129, 129, 160, 160
-0.9932, 21, 369, 52, 496
-0.993205, 33, 97, 64, 128
-0.993235, 293, 333, 324, 364
-0.993241, 117, 397, 148, 428
-0.993242, 201, 433, 232, 464
-0.993247, 217, 69, 248, 100
-0.993249, 265, 129, 296, 160
-0.993252, 37, 133, 68, 164
-0.993252, 273, 313, 304, 344
-0.993255, 281, 425, 312, 456
-0.993258, 109, 269, 140, 300
-0.993259, 45, 81, 76, 112
-0.99326, 157, 341, 188, 372
-0.993262, 165, 49, 196, 80
-0.993262, 165, 393, 196, 424
-0.993267, 17, 77, 48, 108
-0.993268, 25, 309, 56, 340
-0.993268, 217, 365, 248, 396
-0.993276, 125, 417, 156, 448
-0.99328, 57, 29, 88, 60
-0.993287, 141, 105, 172, 136
-0.993289, 161, 77, 192, 108
-0.99329, 37, 385, 68, 416
-0.993292, 77, 33, 108, 64
-0.993293, 181, 385, 212, 416
-0.993295, 65, 397, 96, 428
-0.993295, 205, 409, 236, 440
-0.993302, 73, 101, 104, 132
-0.993302, 85, 365, 116, 396
-0.993303, 25, 405, 56, 436
-0.993303, 149, 37, 180, 68
-0.993304, 189, 345, 220, 376
-0.993305, 25, 345, 56, 376
-0.993309, 45, 305, 76, 336
-0.993311, 169, 37, 200, 68
-0.993311, 33, 145, 64, 176
-0.993313, 189, 425, 220, 456
-0.993315, 249, 357, 280, 388
-0.993316, 69, 369, 100, 400
-0.993316, 149, 313, 180, 344
-0.993322, 65, 257, 96, 288
-0.993324, 169, 133, 200, 164
-0.993327, 285, 45, 316, 76
-0.993328, 13, 401, 44, 432
-0.993329, 89, 105, 120, 136
-0.993336, 57, 121, 88, 152
-0.993337, 17, 25, 48, 56
-0.993342, 289, 361, 320, 392
-0.993343, 129, 369, 160, 400
-0.993356, 13, 273, 44, 400
-0.993403, 117, 305, 148, 432
-0.993404, 181, 321, 212, 384
-0.993411, 85, 289, 116, 352
-0.993414, 53, 1, 84, 64
-0.993421, 209, 257, 272, 500
-0.993423, 73, 225, 104, 352
-0.993423, 305, 1, 366, 500
-0.993497, 77, 129, 108, 192
-0.993521, 297, 177, 328, 304
-0.99357, 77, 369, 108, 496
-0.993698, 293, 369, 324, 496
-0.993719, 33, 233, 160, 296
-0.993746, 289, 377, 304, 440
-0.993835, 1, 65, 256, 128
-0.993838, 1, 41, 366, 104
-0.993842, 13, 81, 44, 208
-0.993866, 283, 377, 298, 440
-0.994, 109, 113, 140, 240
-0.99401, 289, 97, 320, 224
-0.994042, 321, 225, 352, 352
-0.994076, 93, 241, 124, 368
-0.994138, 125, 257, 156, 384
-0.994158, 185, 129, 248, 256
-0.994164, 189, 305, 220, 432
-0.994183, 37, 241, 68, 368
-0.99427, 177, 257, 240, 500
-0.994331, 65, 369, 320, 432
-0.994346, 105, 33, 136, 160
-0.99437, 305, 49, 366, 176
-0.994478, 245, 337, 276, 464
-0.994529, 1, 369, 16, 432
-0.994531, 1, 313, 256, 376
-0.994533, 225, 97, 288, 352
-0.994535, 1, 289, 256, 352
-0.994561, 241, 217, 366, 280
-0.994624, 201, 369, 216, 432
-0.994674, 287, 353, 302, 416
-0.994694, 51, 361, 66, 424
-0.994722, 177, 357, 304, 388
-0.994727, 57, 369, 72, 432
-0.994775, 169, 1, 232, 500
-0.994787, 249, 1, 312, 500
-0.994797, 25, 113, 56, 240
-0.994808, 1, 89, 366, 152
-0.994841, 129, 257, 192, 500
-0.994865, 261, 177, 292, 304
-0.994881, 63, 377, 78, 440
-0.994956, 281, 353, 296, 416
-0.994987, 301, 1, 332, 128
-0.994991, 277, 193, 308, 320
-0.995006, 97, 9, 352, 72
-0.995022, 33, 113, 288, 176
-0.995056, 17, 97, 80, 352
-0.995147, 201, 393, 216, 456
-0.995167, 45, 353, 60, 416
-0.995173, 209, 41, 336, 72
-0.995195, 149, 17, 180, 144
-0.995205, 129, 185, 256, 248
-0.995222, 145, 73, 160, 136
-0.995258, 145, 57, 272, 88
-0.995293, 337, 337, 366, 464
-0.995293, 149, 329, 164, 392
-0.995309, 145, 33, 272, 64
-0.99531, 225, 113, 256, 240
-0.995313, 177, 369, 304, 400
-0.995357, 145, 45, 272, 76
-0.995357, 129, 357, 256, 388
-0.995358, 13, 385, 28, 448
-0.995371, 177, 257, 240, 384
-0.995379, 81, 125, 208, 156
-0.995391, 209, 97, 240, 224
-0.995411, 195, 353, 210, 416
-0.995414, 241, 345, 256, 408
-0.995427, 213, 305, 244, 432
-0.995485, 7, 377, 22, 440
-0.995503, 155, 353, 170, 416
-0.995505, 161, 101, 288, 132
-0.995531, 129, 89, 256, 120
-0.995536, 145, 69, 272, 100
-0.995541, 145, 21, 272, 52
-0.995552, 97, 321, 352, 384
-0.995558, 177, 389, 304, 420
-0.995586, 97, 273, 352, 336
-0.995604, 309, 161, 340, 288
-0.995631, 155, 97, 170, 160
-0.995647, 81, 225, 208, 288
-0.995656, 113, 105, 240, 136
-0.99568, 1, 385, 366, 448
-0.995729, 33, 389, 160, 420
-0.995748, 1, 393, 256, 456
-0.995782, 247, 345, 262, 408
-0.995789, 17, 369, 144, 400
-0.995816, 147, 393, 162, 456
-0.995822, 69, 353, 84, 416
-0.995841, 241, 361, 366, 392
-0.99587, 209, 353, 224, 416
-0.995879, 209, 81, 336, 112
-0.99588, 93, 289, 124, 416
-0.995914, 77, 305, 108, 432
-0.995919, 63, 345, 78, 408
-0.995925, 113, 353, 144, 480
-0.995926, 201, 345, 216, 408
-0.995929, 273, 385, 288, 448
-0.995996, 117, 209, 148, 336
-0.995998, 165, 129, 196, 256
-0.996002, 129, 377, 256, 408
-0.996013, 143, 337, 158, 400
-0.996016, 149, 105, 164, 168
-0.996033, 241, 417, 366, 480
-0.996045, 33, 425, 288, 488
-0.996046, 157, 377, 172, 440
-0.996055, 143, 313, 158, 376
-0.996057, 1, 1, 366, 64
-0.996063, 33, 125, 160, 156
-0.996084, 81, 93, 208, 124
-0.996117, 177, 9, 192, 72
-0.996131, 209, 53, 336, 84
-0.996141, 153, 401, 168, 464
-0.996194, 81, 45, 208, 76
-0.996197, 1, 289, 32, 416
-0.996199, 1, 265, 256, 328
-0.996218, 45, 97, 60, 160
-0.996233, 283, 305, 298, 368
-0.996234, 283, 329, 298, 392
-0.996244, 57, 337, 72, 400
-0.996245, 191, 401, 206, 464
-0.996246, 273, 361, 288, 424
-0.996247, 225, 345, 352, 376
-0.996253, 139, 97, 154, 160
-0.996253, 165, 81, 180, 144
-0.996255, 129, 257, 256, 320
-0.996272, 233, 81, 248, 144
-0.996282, 257, 369, 272, 432
-0.996283, 1, 297, 366, 360
-0.996303, 65, 137, 192, 168
-0.996304, 159, 321, 174, 384
-0.996322, 97, 401, 352, 464
-0.996329, 13, 353, 28, 416
-0.996331, 195, 377, 210, 440
-0.99637, 141, 409, 156, 472
-0.996382, 177, 121, 304, 152
-0.9964, 31, 353, 46, 416
-0.996421, 333, 193, 364, 320
-0.996431, 1, 57, 128, 88
-0.99645, 129, 121, 256, 152
-0.996497, 1, 309, 128, 340
-0.996504, 273, 113, 288, 176
-0.996505, 15, 33, 30, 96
-0.996507, 17, 33, 144, 64
-0.996512, 67, 257, 82, 320
-0.996522, 39, 345, 54, 408
-0.996529, 1, 65, 366, 128
-0.996533, 151, 73, 166, 136
-0.996549, 141, 385, 156, 448
-0.99655, 33, 137, 288, 200
-0.996553, 289, 329, 304, 392
-0.996571, 149, 353, 164, 416
-0.996573, 241, 381, 366, 412
-0.996581, 313, 113, 344, 240
-0.996593, 209, 393, 224, 456
-0.996598, 89, 353, 120, 480
-0.996607, 351, 1, 366, 64
-0.996611, 163, 49, 178, 112
-0.996612, 209, 93, 336, 124
-0.996616, 33, 161, 288, 224
-0.996619, 295, 369, 310, 432
-0.996623, 229, 33, 244, 96
-0.996634, 1, 149, 128, 180
-0.996658, 65, 373, 192, 404
-0.996659, 239, 73, 254, 136
-0.996667, 1, 337, 366, 400
-0.996669, 7, 353, 22, 416
-0.996687, 171, 25, 186, 88
-0.996694, 53, 193, 84, 320
-0.996695, 163, 401, 178, 464
-0.996701, 49, 281, 64, 344
-0.996705, 257, 289, 288, 416
-0.99671, 287, 401, 302, 464
-0.996718, 69, 385, 84, 448
-0.996718, 75, 361, 90, 424
-0.996733, 31, 321, 46, 384
-0.996737, 25, 329, 40, 392
-0.996759, 201, 417, 216, 480
-0.996763, 129, 389, 256, 420
-0.996763, 129, 401, 256, 432
-0.996781, 235, 25, 250, 88
-0.996783, 225, 113, 352, 144
-0.996789, 129, 413, 256, 444
-0.996791, 33, 269, 160, 300
-0.996819, 65, 109, 192, 140
-0.996824, 165, 361, 180, 424
-0.996825, 19, 321, 34, 384
-0.996861, 177, 345, 304, 376
-0.99687, 89, 105, 104, 168
-0.996878, 263, 369, 278, 432
-0.996898, 233, 361, 248, 424
-0.996918, 1, 353, 128, 384
-0.996924, 161, 293, 288, 324
-0.996931, 65, 33, 192, 64
-0.996952, 81, 21, 208, 52
-0.99696, 81, 353, 208, 384
-0.996962, 251, 369, 266, 432
-0.996985, 23, 25, 38, 88
-0.997002, 97, 249, 352, 312
-0.997014, 5, 65, 20, 128
-0.997014, 21, 393, 36, 456
-0.997022, 197, 1, 212, 64
-0.997025, 161, 9, 288, 40
-0.997048, 57, 257, 72, 320
-0.99705, 183, 9, 198, 72
-0.99706, 129, 273, 192, 400
-0.997061, 143, 361, 158, 424
-0.997062, 273, 289, 288, 352
-0.997064, 231, 57, 246, 120
-0.997069, 209, 29, 336, 60
-0.997098, 343, 241, 358, 304
-0.997098, 165, 1, 196, 256
-0.997104, 171, 89, 186, 152
-0.997107, 73, 225, 88, 288
-0.997114, 129, 341, 256, 372
-0.997122, 37, 321, 52, 384
-0.997123, 293, 401, 308, 464
-0.997138, 51, 337, 66, 400
-0.997154, 315, 329, 330, 392
-0.997155, 41, 297, 56, 360
-0.997161, 15, 57, 30, 120
-0.997166, 27, 49, 42, 112
-0.997168, 351, 337, 366, 400
-0.997168, 33, 289, 160, 320
-0.997176, 97, 433, 224, 464
-0.997183, 351, 249, 366, 312
-0.997189, 159, 73, 174, 136
-0.997189, 173, 305, 204, 432
-0.997217, 227, 89, 242, 152
-0.997244, 127, 105, 142, 168
-0.997244, 51, 105, 66, 168
-0.997248, 69, 161, 100, 288
-0.99726, 105, 305, 136, 432
-0.99728, 73, 257, 88, 320
-0.997285, 261, 177, 276, 240
-0.997307, 75, 417, 90, 480
-0.997312, 201, 321, 216, 384
-0.997317, 115, 265, 130, 328
-0.997326, 191, 9, 206, 72
-0.997335, 31, 1, 46, 64
-0.997338, 1, 345, 16, 408
-0.997345, 177, 161, 240, 416
-0.997348, 215, 417, 230, 480
-0.997366, 147, 417, 162, 480
-0.997368, 33, 97, 160, 128
-0.997373, 283, 381, 298, 412
-0.997375, 65, 57, 192, 88
-0.997377, 133, 89, 148, 152
-0.997381, 99, 113, 114, 176
-0.997388, 289, 389, 304, 420
-0.997394, 241, 369, 256, 432
-0.997406, 1, 161, 128, 192
-0.997417, 33, 49, 48, 112
-0.997417, 137, 65, 168, 320
-0.997422, 9, 385, 24, 416
-0.997422, 169, 49, 184, 112
-0.997423, 1, 137, 128, 168
-0.997423, 337, 225, 366, 480
-0.997423, 307, 249, 322, 312
-0.997432, 65, 233, 80, 296
-0.997432, 79, 9, 94, 72
-0.997437, 87, 409, 102, 472
-0.997453, 263, 137, 278, 200
-0.997457, 343, 345, 358, 408
-0.99746, 49, 33, 64, 96
-0.997467, 313, 225, 344, 480
-0.997469, 1, 201, 128, 264
-0.99747, 49, 305, 176, 336
-0.997477, 257, 345, 272, 408
-0.997489, 133, 409, 148, 472
-0.997493, 209, 305, 336, 336
-0.997494, 189, 345, 204, 408
-0.997496, 163, 9, 178, 72
-0.9975, 295, 17, 310, 80
-0.997508, 249, 225, 312, 352
-0.997512, 225, 333, 352, 364
-0.997519, 297, 225, 328, 480
-0.997526, 113, 137, 240, 168
-0.997526, 63, 381, 78, 412
-0.997538, 201, 377, 216, 408
-0.99754, 53, 369, 68, 400
-0.997551, 33, 85, 160, 116
-0.997556, 17, 161, 48, 288
-0.99757, 209, 69, 336, 100
-0.997587, 241, 293, 366, 324
-0.997594, 1, 109, 128, 140
-0.997604, 289, 377, 304, 408
-0.997616, 3, 377, 18, 408
-0.997622, 1, 9, 128, 40
-0.997625, 149, 349, 164, 380
-0.997645, 149, 337, 164, 368
-0.997662, 149, 257, 180, 384
-0.997668, 177, 401, 304, 432
-0.997683, 201, 365, 216, 396
-0.997685, 47, 361, 62, 392
-0.997688, 81, 421, 208, 452
-0.997707, 33, 185, 288, 248
-0.997723, 325, 225, 356, 480
-0.997731, 229, 353, 260, 480
-0.997736, 105, 225, 136, 480
-0.997738, 201, 353, 216, 384
-0.997744, 81, 1, 208, 32
-0.997744, 209, 5, 336, 36
-0.997744, 225, 393, 352, 424
-0.997752, 163, 85, 178, 116
-0.997757, 81, 393, 208, 424
-0.997761, 301, 113, 332, 240
-0.997761, 281, 1, 312, 256
-0.997768, 69, 225, 100, 480
-0.997771, 49, 445, 176, 476
-0.99778, 185, 113, 216, 240
-0.99778, 1, 121, 366, 184
-0.997792, 259, 385, 274, 416
-0.997795, 1, 265, 366, 328
-0.997799, 281, 97, 312, 352
-0.997801, 65, 225, 320, 288
-0.997809, 209, 197, 336, 228
-0.997811, 17, 21, 144, 52
-0.997819, 293, 225, 324, 352
-0.997826, 15, 389, 30, 420
-0.997827, 149, 401, 164, 432
-0.997847, 269, 389, 284, 420
-0.997849, 161, 133, 288, 164
-0.997852, 41, 353, 56, 384
-0.997854, 287, 353, 302, 384
-0.997855, 125, 97, 156, 352
-0.997866, 1, 177, 366, 240
-0.997878, 1, 201, 128, 232
-0.99788, 277, 385, 292, 416
-0.997884, 121, 257, 152, 500
-0.997887, 1, 321, 128, 352
-0.997895, 201, 401, 216, 432
-0.997897, 33, 257, 160, 288
-0.997897, 283, 393, 298, 424
-0.99791, 81, 325, 208, 356
-0.997937, 3, 393, 18, 424
-0.997939, 145, 429, 272, 460
-0.99795, 163, 373, 178, 404
-0.997963, 195, 365, 210, 396
-0.99797, 153, 361, 168, 392
-0.997975, 291, 401, 306, 432
-0.997979, 57, 225, 88, 480
-0.997979, 33, 429, 160, 460
-0.997983, 69, 385, 84, 416
-0.997986, 81, 81, 208, 112
-0.997989, 101, 97, 132, 352
-0.997994, 143, 349, 158, 380
-0.998007, 49, 341, 176, 372
-0.998008, 45, 225, 76, 480
-0.998009, 281, 357, 296, 388
-0.99801, 261, 1, 292, 256
-0.998019, 211, 357, 226, 388
-0.998025, 203, 421, 218, 452
-0.998026, 287, 413, 302, 444
-0.998044, 281, 301, 296, 332
-0.998046, 17, 57, 32, 88
-0.998055, 25, 225, 56, 352
-0.998056, 145, 321, 272, 352
-0.998058, 17, 69, 144, 100
-0.998059, 155, 77, 170, 108
-0.998064, 159, 361, 174, 392
-0.998075, 169, 365, 184, 396
-0.998083, 47, 373, 62, 404
-0.9981, 145, 317, 160, 348
-0.9981, 207, 373, 222, 404
-0.998109, 25, 1, 56, 256
-0.998109, 275, 117, 290, 148
-0.99811, 81, 405, 208, 436
-0.998111, 239, 81, 254, 112
-0.998111, 225, 133, 352, 164
-0.998111, 193, 353, 208, 384
-0.998117, 225, 317, 352, 348
-0.998118, 1, 441, 128, 472
-0.99812, 273, 301, 288, 332
-0.998121, 65, 265, 80, 296
-0.998131, 289, 365, 304, 396
-0.998133, 17, 45, 144, 76
-0.998139, 201, 389, 216, 420
-0.998139, 155, 401, 170, 432
-0.998146, 155, 381, 170, 412
-0.998156, 193, 257, 224, 500
-0.998157, 113, 97, 144, 352
-0.998157, 77, 385, 92, 416
-0.998161, 13, 1, 44, 256
-0.998163, 1, 33, 32, 288
-0.998167, 17, 401, 144, 432
-0.998175, 273, 369, 288, 400
-0.998178, 283, 321, 298, 352
-0.998178, 239, 353, 254, 384
-0.998185, 235, 33, 250, 64
-0.998185, 65, 1, 96, 256
-0.998189, 49, 65, 80, 320
-0.99819, 37, 145, 68, 272
-0.998194, 141, 401, 156, 432
-0.998195, 273, 357, 288, 388
-0.998198, 147, 121, 162, 152
-0.998199, 69, 401, 84, 432
-0.998206, 193, 413, 208, 444
-0.998208, 211, 413, 226, 444
-0.998211, 161, 73, 176, 104
-0.998224, 157, 341, 172, 372
-0.99823, 153, 109, 168, 140
-0.998235, 89, 257, 120, 500
-0.998245, 49, 205, 176, 236
-0.998248, 151, 321, 166, 352
-0.998248, 157, 97, 172, 128
-0.998251, 287, 341, 302, 372
-0.998254, 81, 149, 208, 180
-0.998254, 281, 369, 296, 400
-0.998258, 157, 325, 172, 356
-0.998258, 177, 1, 208, 256
-0.99826, 41, 369, 56, 400
-0.998265, 177, 333, 304, 364
-0.998266, 209, 149, 336, 180
-0.998267, 265, 125, 280, 156
-0.998267, 289, 1, 352, 256
-0.998273, 81, 69, 208, 100
-0.998276, 241, 421, 366, 452
-0.998276, 141, 369, 156, 400
-0.998279, 97, 301, 224, 332
-0.998282, 91, 113, 106, 144
-0.998284, 155, 413, 170, 444
-0.998292, 293, 1, 324, 256
-0.998293, 193, 397, 208, 428
-0.998299, 147, 381, 162, 412
-0.998308, 59, 393, 74, 424
-0.998308, 47, 349, 62, 380
-0.998311, 21, 397, 36, 428
-0.998318, 177, 185, 304, 216
-0.998327, 27, 389, 42, 420
-0.99833, 37, 1, 68, 256
-0.998332, 67, 253, 82, 284
-0.998338, 141, 389, 156, 420
-0.998344, 69, 49, 84, 80
-0.998347, 269, 405, 300, 420
-0.998347, 89, 367, 120, 382
-0.998349, 57, 43, 88, 58
-0.998349, 133, 387, 164, 402
-0.998349, 237, 73, 268, 88
-0.99835, 293, 397, 324, 412
-0.998351, 49, 97, 80, 112
-0.998352, 277, 113, 308, 128
-0.998352, 141, 321, 172, 336
-0.998354, 125, 411, 156, 426
-0.998354, 281, 383, 312, 398
-0.998356, 13, 357, 44, 372
-0.998356, 61, 99, 92, 114
-0.998356, 273, 119, 304, 134
-0.998356, 269, 415, 300, 430
-0.998357, 53, 359, 84, 374
-0.998357, 143, 85, 158, 116
-0.998357, 57, 37, 88, 52
-0.99836, 49, 373, 80, 388
-0.99836, 273, 311, 304, 326
-0.99836, 181, 13, 212, 28
-0.998362, 137, 339, 168, 354
-0.998362, 137, 369, 168, 384
-0.998362, 237, 383, 268, 398
-0.998363, 133, 123, 164, 138
-0.998363, 309, 343, 340, 358
-0.998363, 153, 39, 184, 54
-0.998364, 149, 75, 180, 90
-0.998364, 189, 365, 220, 380
-0.998366, 157, 359, 188, 374
-0.998366, 253, 129, 284, 144
-0.998368, 209, 17, 336, 48
-0.998369, 233, 91, 264, 106
-0.998369, 65, 399, 96, 414
-0.99837, 45, 91, 76, 106
-0.99837, 145, 385, 176, 400
-0.998371, 237, 367, 268, 382
-0.998371, 125, 405, 156, 420
-0.998373, 157, 341, 188, 356
-0.998373, 145, 101, 160, 132
-0.998373, 45, 133, 60, 164
-0.998374, 149, 413, 180, 428
-0.998374, 57, 365, 88, 380
-0.998374, 141, 345, 172, 360
-0.998376, 37, 359, 68, 374
-0.998376, 229, 97, 260, 112
-0.998376, 169, 101, 200, 116
-0.998376, 293, 325, 324, 340
-0.998378, 321, 345, 336, 376
-0.998379, 201, 397, 232, 412
-0.998379, 49, 293, 64, 324
-0.99838, 185, 391, 216, 406
-0.99838, 153, 1, 184, 256
-0.998381, 277, 375, 308, 390
-0.998381, 181, 409, 212, 424
-0.998381, 65, 391, 96, 406
-0.998381, 149, 401, 180, 416
-0.998382, 147, 361, 162, 392
-0.998382, 225, 173, 352, 204
-0.998383, 137, 423, 168, 438
-0.998384, 1, 71, 32, 86
-0.998384, 57, 379, 88, 394
-0.998384, 189, 421, 220, 436
-0.998385, 201, 403, 232, 418
-0.998385, 1, 173, 128, 204
-0.998385, 193, 225, 320, 288
-0.998386, 129, 117, 160, 132
-0.998386, 261, 367, 292, 382
-0.998386, 53, 391, 84, 406
-0.998386, 269, 399, 300, 414
-0.998387, 277, 353, 308, 368
-0.998387, 137, 397, 168, 412
-0.998387, 177, 17, 192, 48
-0.998388, 45, 351, 76, 366
-0.998388, 193, 433, 224, 448
-0.998389, 165, 373, 196, 388
-0.99839, 21, 385, 36, 416
-0.99839, 165, 393, 180, 424
-0.998391, 205, 369, 236, 384
-0.998391, 113, 269, 128, 300
-0.998392, 233, 37, 264, 52
-0.998392, 277, 401, 292, 432
-0.998393, 53, 385, 68, 416
-0.998393, 185, 385, 216, 400
-0.998393, 1, 365, 16, 396
-0.998394, 21, 387, 52, 402
-0.998394, 237, 79, 268, 94
-0.998396, 141, 97, 172, 112
-0.998397, 145, 107, 176, 122
-0.998398, 277, 369, 308, 384
-0.998399, 241, 389, 272, 404
-0.9984, 237, 355, 268, 370
-0.9984, 271, 129, 286, 160
-0.9984, 133, 385, 148, 416
-0.998404, 203, 341, 218, 372
-0.998405, 177, 361, 208, 376
-0.998406, 53, 269, 84, 284
-0.998407, 293, 331, 324, 346
-0.998409, 185, 379, 216, 394
-0.998411, 143, 337, 158, 368
-0.998413, 217, 357, 248, 372
-0.998413, 5, 395, 36, 410
-0.998414, 149, 83, 180, 98
-0.998415, 157, 99, 188, 114
-0.998415, 153, 377, 184, 392
-0.998417, 137, 377, 168, 392
-0.998418, 265, 185, 280, 216
-0.998418, 137, 403, 168, 418
-0.998419, 33, 365, 64, 380
-0.99842, 77, 121, 108, 136
-0.998421, 37, 371, 68, 386
-0.998422, 9, 397, 24, 428
-0.998422, 157, 365, 188, 380
-0.998426, 89, 117, 120, 132
-0.998426, 173, 367, 204, 382
-0.998428, 37, 387, 68, 402
-0.99843, 281, 423, 312, 438
-0.998431, 41, 93, 56, 124
-0.998432, 137, 333, 168, 348
-0.998433, 141, 413, 156, 444
-0.998434, 201, 419, 232, 434
-0.998435, 1, 383, 32, 398
-0.998435, 133, 107, 164, 122
-0.998436, 81, 169, 208, 200
-0.998438, 201, 427, 232, 442
-0.99844, 149, 407, 180, 422
-0.998441, 189, 415, 220, 430
-0.998442, 23, 61, 38, 92
-0.998445, 25, 357, 56, 372
-0.998446, 7, 69, 22, 100
-0.998446, 17, 391, 80, 406
-0.998446, 137, 415, 168, 430
-0.998447, 39, 305, 54, 336
-0.998447, 21, 393, 52, 408
-0.998449, 27, 405, 42, 436
-0.998449, 193, 421, 320, 452
-0.99845, 57, 385, 88, 400
-0.99845, 201, 363, 232, 378
-0.998451, 277, 359, 308, 374
-0.998452, 281, 345, 296, 376
-0.998454, 81, 281, 208, 312
-0.998454, 137, 117, 152, 148
-0.998454, 81, 1, 112, 256
-0.998455, 241, 361, 272, 376
-0.998459, 201, 357, 232, 372
-0.998459, 193, 371, 224, 386
-0.998462, 1, 145, 366, 208
-0.998464, 133, 97, 148, 128
-0.998465, 265, 97, 296, 352
-0.998466, 185, 9, 200, 40
-0.998467, 153, 93, 184, 108
-0.99847, 257, 395, 288, 410
-0.998472, 35, 349, 50, 380
-0.998473, 195, 377, 210, 408
-0.998474, 79, 33, 94, 64
-0.998479, 17, 385, 80, 400
-0.998479, 229, 69, 244, 100
-0.99848, 197, 391, 228, 406
-0.998483, 281, 405, 312, 420
-0.998485, 141, 257, 172, 500
-0.998486, 261, 361, 292, 376
-0.998486, 297, 405, 312, 436
-0.998487, 193, 409, 224, 424
-0.998488, 197, 377, 228, 392
-0.998489, 175, 101, 190, 132
-0.998489, 189, 397, 220, 412
-0.99849, 229, 93, 244, 124
-0.99849, 5, 401, 36, 416
-0.998491, 281, 417, 312, 432
-0.998492, 177, 193, 304, 256
-0.998494, 295, 389, 310, 420
-0.998499, 137, 409, 168, 424
-0.9985, 189, 403, 220, 418
-0.998503, 189, 359, 220, 374
-0.998505, 129, 93, 192, 108
-0.998507, 273, 389, 304, 404
-0.998509, 193, 425, 208, 456
-0.998513, 233, 361, 296, 376
-0.998514, 281, 397, 312, 412
-0.998518, 209, 401, 224, 432
-0.998518, 45, 381, 76, 396
-0.99852, 257, 389, 320, 404
-0.99852, 11, 53, 26, 84
-0.99852, 241, 281, 366, 312
-0.99852, 313, 337, 328, 368
-0.998521, 281, 411, 312, 426
-0.998522, 197, 385, 228, 400
-0.998523, 273, 313, 288, 344
-0.998524, 211, 425, 226, 456
-0.998525, 149, 413, 164, 444
-0.998525, 5, 389, 36, 404
-0.998527, 273, 257, 304, 500
-0.998531, 193, 357, 256, 372
-0.998532, 57, 101, 72, 132
-0.998533, 33, 417, 160, 448
-0.998533, 41, 383, 104, 398
-0.998536, 71, 365, 86, 396
-0.998539, 17, 457, 144, 488
-0.99854, 89, 161, 120, 416
-0.998541, 33, 363, 96, 378
-0.998545, 25, 355, 88, 370
-0.998555, 153, 101, 216, 116
-0.998562, 129, 363, 192, 378
-0.998563, 253, 389, 284, 404
-0.998563, 129, 99, 192, 114
-0.998567, 241, 367, 304, 382
-0.99857, 141, 89, 172, 104
-0.998571, 225, 389, 288, 404
-0.998574, 201, 129, 264, 384
-0.998576, 177, 13, 240, 28
-0.998576, 129, 87, 192, 102
-0.998576, 257, 383, 320, 398
-0.998576, 225, 95, 288, 110
-0.998579, 1, 377, 64, 392
-0.99858, 1, 425, 366, 488
-0.998585, 33, 43, 96, 58
-0.998589, 145, 369, 208, 384
-0.998591, 265, 307, 328, 322
-0.998593, 257, 361, 320, 376
-0.998593, 129, 375, 192, 390
-0.998597, 145, 353, 208, 368
-0.998598, 145, 107, 208, 122
-0.998599, 241, 395, 304, 410
-0.998599, 233, 127, 296, 142
-0.998602, 113, 341, 176, 356
-0.998603, 233, 39, 296, 54
-0.998604, 265, 121, 328, 136
-0.998605, 81, 117, 144, 132
-0.998606, 169, 365, 232, 380
-0.998609, 113, 347, 176, 362
-0.998609, 57, 367, 120, 382
-0.998616, 225, 89, 288, 104
-0.998616, 1, 403, 64, 418
-0.998616, 1, 357, 64, 372
-0.998616, 97, 313, 224, 344
-0.998617, 65, 41, 128, 56
-0.998618, 273, 301, 336, 316
-0.99862, 185, 101, 248, 116
-0.99862, 225, 81, 288, 96
-0.998621, 233, 355, 296, 370
-0.998622, 209, 363, 272, 378
-0.998622, 33, 37, 96, 52
-0.998623, 153, 89, 216, 104
-0.998623, 9, 363, 72, 378
-0.998624, 105, 113, 168, 128
-0.998624, 145, 347, 208, 362
-0.998625, 41, 373, 104, 388
-0.998626, 41, 99, 104, 114
-0.998627, 121, 369, 184, 384
-0.998627, 161, 375, 224, 390
-0.998628, 113, 331, 176, 346
-0.998629, 1, 371, 64, 386
-0.998629, 169, 95, 232, 110
-0.998631, 89, 123, 152, 138
-0.998631, 121, 41, 184, 56
-0.998632, 97, 131, 160, 146
-0.998632, 145, 137, 208, 152
-0.998633, 145, 341, 208, 356
-0.998635, 129, 81, 192, 96
-0.998639, 33, 93, 96, 108
-0.998641, 105, 361, 168, 376
-0.998642, 65, 261, 128, 276
-0.998643, 17, 397, 80, 412
-0.998644, 49, 115, 112, 130
-0.998645, 257, 403, 320, 418
-0.998645, 49, 389, 112, 404
-0.998646, 153, 83, 216, 98
-0.998648, 129, 389, 192, 404
-0.998648, 129, 401, 192, 416
-0.99865, 169, 359, 232, 374
-0.99865, 225, 121, 288, 136
-0.998652, 297, 347, 360, 362
-0.998652, 89, 369, 152, 384
-0.998653, 113, 325, 176, 340
-0.998653, 121, 423, 184, 438
-0.998654, 25, 309, 88, 324
-0.998654, 257, 373, 320, 388
-0.998654, 145, 335, 208, 350
-0.998655, 129, 433, 192, 448
-0.998655, 57, 125, 120, 140
-0.998656, 193, 89, 256, 104
-0.998657, 121, 383, 184, 398
-0.998658, 225, 161, 352, 192
-0.99866, 201, 73, 264, 88
-0.998661, 201, 173, 264, 188
-0.998662, 273, 329, 336, 344
-0.998663, 137, 127, 200, 142
-0.998663, 217, 101, 280, 116
-0.998664, 57, 395, 120, 410
-0.998664, 305, 253, 366, 268
-0.998665, 265, 127, 328, 142
-0.998666, 153, 67, 216, 82
-0.998667, 113, 319, 176, 334
-0.998668, 57, 47, 120, 62
-0.998668, 257, 199, 320, 214
-0.99867, 265, 193, 328, 208
-0.99867, 185, 107, 248, 122
-0.998671, 265, 395, 328, 410
-0.998671, 57, 457, 120, 472
-0.998671, 265, 115, 328, 130
-0.998671, 225, 33, 288, 48
-0.998671, 121, 119, 184, 134
-0.998672, 1, 63, 64, 78
-0.998672, 185, 155, 248, 170
-0.998673, 49, 449, 112, 464
-0.998674, 193, 67, 256, 82
-0.998674, 181, 257, 212, 500
-0.998675, 73, 35, 136, 50
-0.998675, 145, 113, 208, 128
-0.998677, 89, 451, 152, 466
-0.998677, 161, 175, 224, 190
-0.998677, 265, 313, 328, 328
-0.998677, 89, 417, 152, 432
-0.998677, 17, 99, 80, 114
-0.998677, 49, 109, 112, 124
-0.998678, 209, 351, 272, 366
-0.998678, 89, 395, 152, 410
-0.998678, 233, 305, 296, 320
-0.998678, 209, 427, 272, 442
-0.998679, 25, 55, 88, 70
-0.99868, 121, 133, 184, 148
-0.99868, 161, 43, 224, 58
-0.99868, 9, 411, 72, 426
-0.998681, 129, 35, 192, 50
-0.998681, 265, 133, 328, 148
-0.998682, 145, 329, 208, 344
-0.998682, 169, 145, 232, 160
-0.998682, 201, 83, 264, 98
-0.998683, 233, 109, 296, 124
-0.998687, 145, 157, 272, 188
-0.998712, 287, 337, 302, 464
-0.998735, 149, 337, 164, 464
-0.998737, 1, 189, 128, 220
-0.998758, 97, 445, 224, 476
-0.998767, 193, 433, 320, 464
-0.998773, 81, 189, 208, 220
-0.998779, 161, 173, 288, 204
-0.998817, 161, 305, 288, 336
-0.998827, 125, 1, 156, 256
-0.998839, 241, 257, 366, 288
-0.998855, 293, 97, 324, 352
-0.998868, 203, 353, 218, 480
-0.99889, 159, 353, 174, 480
-0.998907, 1, 221, 128, 252
-0.998908, 309, 129, 340, 384
-0.998924, 249, 1, 280, 256
-0.998929, 159, 65, 174, 192
-0.99894, 237, 1, 268, 256
-0.99894, 217, 1, 248, 256
-0.998949, 73, 97, 104, 352
-0.998953, 241, 185, 366, 216
-0.998978, 225, 209, 352, 240
-0.998981, 145, 441, 272, 472
-0.998983, 49, 217, 176, 248
-0.999, 37, 129, 68, 384
-0.999001, 181, 1, 196, 128
-0.999001, 281, 305, 296, 432
-0.999023, 101, 1, 132, 256
-0.99903, 211, 353, 226, 480
-0.999042, 175, 1, 190, 128
-0.999043, 209, 257, 240, 500
-0.999044, 197, 353, 212, 480
-0.999067, 143, 337, 158, 464
-0.999079, 187, 1, 202, 128
-0.999093, 165, 49, 180, 176
-0.999093, 193, 281, 320, 312
-0.999094, 15, 17, 30, 144
-0.999126, 21, 17, 36, 144
-0.999126, 31, 337, 46, 464
-0.99913, 155, 305, 170, 432
-0.999132, 153, 49, 168, 176
-0.999133, 285, 193, 316, 448
-0.999134, 61, 129, 92, 384
-0.999149, 23, 337, 38, 464
-0.999154, 241, 245, 366, 276
-0.999157, 81, 269, 208, 300
-0.999175, 113, 201, 240, 232
-0.999179, 197, 1, 212, 128
-0.999197, 41, 353, 56, 480
-0.999197, 5, 353, 20, 480
-0.999223, 277, 353, 292, 480
-0.999227, 165, 369, 180, 496
-0.999234, 69, 241, 84, 368
-0.999234, 17, 257, 48, 500
-0.999238, 63, 369, 78, 496
-0.999238, 147, 81, 162, 208
-0.999239, 239, 1, 254, 128
-0.99924, 161, 145, 288, 176
-0.999242, 153, 97, 184, 352
-0.999245, 17, 337, 32, 464
-0.999246, 27, 33, 42, 160
-0.999249, 81, 249, 208, 280
-0.999255, 139, 65, 154, 192
-0.999258, 41, 305, 56, 432
-0.999263, 227, 1, 242, 128
-0.999296, 63, 257, 78, 384
-0.999297, 305, 1, 336, 256
-0.999301, 309, 241, 324, 368
-0.999302, 153, 97, 168, 224
-0.999305, 275, 97, 290, 224
-0.999305, 171, 65, 186, 192
-0.999311, 3, 49, 18, 176
-0.999314, 47, 353, 62, 480
-0.999318, 271, 321, 286, 448
-0.999321, 293, 353, 308, 480
-0.999325, 207, 1, 222, 128
-0.999329, 217, 1, 232, 128
-0.999336, 147, 289, 162, 416
-0.999338, 191, 353, 206, 480
-0.999345, 69, 337, 84, 464
-0.999347, 41, 97, 56, 224
-0.999352, 33, 33, 48, 160
-0.999353, 177, 65, 192, 192
-0.999353, 33, 225, 64, 480
-0.999358, 95, 49, 110, 176
-0.999363, 233, 49, 248, 176
-0.999374, 103, 33, 118, 160
-0.999379, 69, 33, 84, 160
-0.999379, 11, 353, 26, 480
-0.999384, 351, 241, 366, 368
-0.999385, 17, 65, 32, 192
-0.999387, 115, 257, 130, 384
-0.999396, 201, 305, 216, 432
-0.999401, 9, 49, 24, 176
-0.999401, 265, 129, 280, 256
-0.999406, 255, 129, 270, 256
-0.999407, 245, 1, 260, 128
-0.999407, 9, 1, 24, 128
-0.999407, 241, 409, 366, 440
-0.999409, 325, 273, 340, 400
-0.999409, 119, 337, 134, 464
-0.999409, 317, 273, 332, 400
-0.999411, 265, 81, 280, 208
-0.99942, 253, 97, 284, 352
-0.999424, 147, 33, 162, 160
-0.999426, 41, 49, 56, 176
-0.999426, 51, 33, 66, 160
-0.999431, 55, 321, 70, 448
-0.999438, 137, 369, 152, 496
-0.999442, 79, 1, 94, 128
-0.999446, 281, 33, 296, 160
-0.999446, 299, 33, 314, 160
-0.999447, 157, 225, 188, 480
-0.999448, 97, 113, 112, 240
-0.999448, 63, 305, 78, 432
-0.999449, 261, 257, 292, 500
-0.99945, 49, 241, 64, 368
-0.999454, 175, 353, 190, 480
-0.999455, 291, 289, 306, 416
-0.999458, 253, 1, 268, 128
-0.999463, 283, 257, 298, 384
-0.999464, 1, 225, 32, 480
-0.999465, 57, 369, 72, 496
-0.999469, 217, 353, 232, 480
-0.999472, 287, 33, 302, 160
-0.999474, 97, 1, 112, 128
-0.999474, 89, 81, 104, 208
-0.999474, 253, 81, 268, 208
-0.999477, 85, 1, 100, 128
-0.999486, 31, 273, 46, 400
-0.999486, 39, 1, 54, 128
-0.999488, 47, 305, 62, 432
-0.999493, 75, 209, 90, 336
-0.999496, 141, 289, 156, 416
-0.999496, 267, 33, 282, 160
-0.999496, 281, 97, 296, 224
-0.999501, 319, 321, 334, 448
-0.999502, 115, 193, 130, 320
-0.999504, 187, 81, 202, 208
-0.999504, 169, 1, 184, 128
-0.999505, 113, 353, 128, 480
-0.999506, 165, 321, 180, 448
-0.999506, 131, 353, 146, 480
-0.999507, 51, 113, 66, 240
-0.999509, 331, 273, 346, 400
-0.999512, 61, 81, 76, 208
-0.999513, 77, 369, 92, 496
-0.999513, 313, 321, 328, 448
-0.999516, 107, 193, 122, 320
-0.999518, 275, 49, 290, 176
-0.999534, 29, 81, 44, 208
-0.99954, 101, 193, 116, 320
-0.999541, 259, 81, 274, 208
-0.999542, 241, 113, 256, 240
-0.999542, 57, 241, 72, 368
-0.999544, 1, 341, 128, 372
-0.999545, 247, 49, 262, 176
-0.999545, 311, 1, 326, 128
-0.999547, 335, 337, 350, 464
-0.999547, 63, 1, 78, 128
-0.999548, 109, 257, 124, 384
-0.999548, 309, 193, 324, 320
-0.999548, 297, 289, 312, 416
-0.999556, 121, 257, 136, 384
-0.999558, 95, 193, 110, 320
-0.999562, 239, 65, 254, 192
-0.999564, 91, 129, 106, 256
-0.999565, 303, 241, 318, 368
-0.999566, 25, 273, 40, 400
-0.999567, 1, 1, 16, 128
-0.999568, 251, 389, 266, 404
-0.999568, 281, 405, 296, 420
-0.999569, 199, 387, 214, 402
-0.999569, 149, 367, 164, 382
-0.999569, 265, 129, 280, 144
-0.999569, 137, 375, 152, 390
-0.99957, 161, 73, 176, 88
-0.99957, 29, 357, 44, 372
-0.99957, 113, 269, 128, 284
-0.99957, 239, 75, 254, 90
-0.999571, 211, 367, 226, 382
-0.999571, 163, 399, 178, 414
-0.999571, 193, 403, 208, 418
-0.999573, 143, 369, 158, 384
-0.999573, 67, 395, 82, 410
-0.999573, 283, 325, 298, 340
-0.999573, 155, 411, 170, 426
-0.999574, 69, 401, 84, 416
-0.999575, 143, 87, 158, 102
-0.999575, 315, 341, 330, 356
-0.999576, 281, 313, 296, 328
-0.999576, 281, 411, 296, 426
-0.999576, 3, 395, 18, 410
-0.999576, 147, 81, 162, 96
-0.999577, 157, 335, 172, 350
-0.999578, 197, 65, 228, 320
-0.999579, 237, 367, 252, 382
-0.999579, 281, 363, 296, 378
-0.999579, 211, 417, 226, 432
-0.99958, 271, 309, 286, 324
-0.999581, 295, 411, 310, 426
-0.999581, 179, 365, 194, 380
-0.999581, 157, 79, 172, 94
-0.999581, 295, 405, 310, 420
-0.999582, 287, 345, 302, 360
-0.999582, 57, 391, 72, 406
-0.999583, 239, 355, 254, 370
-0.999584, 247, 357, 262, 372
-0.999584, 89, 115, 104, 130
-0.999584, 149, 413, 164, 428
-0.999584, 147, 379, 162, 394
-0.999584, 145, 319, 160, 334
-0.999584, 157, 347, 172, 362
-0.999586, 7, 69, 22, 84
-0.999587, 141, 413, 156, 428
-0.999587, 151, 333, 166, 348
-0.999588, 145, 329, 160, 344
-0.999589, 73, 383, 88, 398
-0.999589, 245, 363, 260, 378
-0.999591, 271, 121, 286, 136
-0.999591, 5, 401, 20, 416
-0.999591, 271, 397, 286, 412
-0.999591, 59, 265, 74, 280
-0.999593, 157, 341, 172, 356
-0.999594, 165, 365, 180, 380
-0.999594, 283, 319, 298, 334
-0.999596, 281, 351, 296, 366
-0.999596, 273, 367, 288, 382
-0.999597, 203, 427, 218, 442
-0.999597, 37, 351, 52, 366
-0.999598, 201, 395, 216, 410
-0.999599, 255, 361, 270, 376
-0.9996, 273, 303, 288, 318
-0.9996, 287, 411, 302, 426
-0.9996, 237, 87, 252, 102
-0.999601, 189, 161, 220, 416
-0.999601, 143, 351, 158, 366
-0.999601, 155, 403, 170, 418
-0.999601, 287, 359, 302, 374
-0.999602, 211, 423, 226, 438
-0.999602, 287, 417, 302, 432
-0.999603, 23, 389, 38, 404
-0.999603, 235, 35, 250, 50
-0.999603, 163, 375, 178, 390
-0.999604, 211, 361, 226, 376
-0.999604, 261, 361, 276, 376
-0.999604, 17, 397, 32, 412
-0.999605, 49, 381, 64, 396
-0.999607, 281, 373, 296, 388
-0.999612, 201, 355, 216, 370
-0.999612, 287, 369, 302, 384
-0.999613, 201, 417, 216, 432
-0.999613, 207, 375, 222, 390
-0.999615, 195, 375, 210, 390
-0.999616, 277, 387, 292, 402
-0.999616, 143, 361, 158, 376
-0.999618, 201, 403, 216, 418
-0.999618, 155, 87, 170, 102
-0.99962, 201, 411, 216, 426
-0.999621, 141, 401, 156, 416
-0.999624, 149, 353, 164, 368
-0.999626, 155, 375, 170, 390
-0.999626, 287, 405, 302, 420
-0.999626, 141, 161, 172, 416
-0.999628, 113, 1, 144, 256
-0.999629, 129, 209, 256, 272
-0.999631, 289, 377, 304, 392
-0.999631, 67, 265, 82, 280
-0.999631, 267, 361, 282, 376
-0.999632, 287, 353, 302, 368
-0.999633, 169, 373, 184, 388
-0.99964, 273, 361, 288, 376
-0.999646, 281, 357, 296, 372
-0.999647, 239, 361, 254, 376
-0.999648, 147, 107, 162, 122
-0.999649, 269, 391, 284, 406
-0.99965, 57, 377, 72, 392
-0.999651, 283, 391, 298, 406
-0.999651, 7, 387, 22, 402
-0.999652, 203, 361, 218, 376
-0.999655, 63, 383, 78, 398
-0.999657, 149, 407, 164, 422
-0.999657, 171, 367, 186, 382
-0.999658, 149, 347, 164, 362
-0.99966, 193, 357, 208, 372
-0.999662, 201, 373, 216, 388
-0.999663, 53, 371, 68, 386
-0.999673, 277, 393, 292, 408
-0.999674, 149, 359, 164, 374
-0.999675, 47, 365, 62, 380
-0.999675, 289, 395, 304, 410
-0.999675, 13, 391, 28, 406
-0.999679, 147, 339, 162, 354
-0.999683, 3, 381, 18, 396
-0.999683, 41, 357, 56, 372
-0.999685, 257, 389, 272, 404
-0.999687, 201, 381, 216, 396
-0.999688, 201, 367, 216, 382
-0.999688, 289, 389, 304, 404
-0.999689, 67, 389, 82, 404
-0.999693, 165, 91, 180, 106
-0.999694, 289, 383, 304, 398
-0.999708, 283, 379, 298, 394
-0.999715, 263, 389, 278, 404
-0.999721, 283, 385, 298, 400
-0.999746, 169, 257, 200, 500
-0.999804, 321, 129, 352, 384
-0.999815, 245, 257, 276, 500
-0.999816, 25, 129, 56, 384
-0.999854, 237, 97, 268, 352
-0.999866, 1, 241, 366, 304
-0.999922, 173, 97, 204, 352
-1.00005, 5, 129, 36, 384
-1.00009, 225, 97, 256, 352
-1.00012, 233, 257, 264, 500
-1.00015, 1, 209, 366, 272
-1.00026, 333, 129, 364, 384
-1.00028, 221, 257, 252, 500
-1.00029, 129, 161, 192, 288
-1.00047, 201, 161, 232, 416
-1.00061, 129, 233, 256, 296
-1.00067, 317, 1, 348, 256
-1.00077, 213, 97, 244, 352
-1.00084, 333, 1, 364, 256
-1.00246, 145, 209, 208, 336
-1.00275, 209, 209, 272, 336
-1.00353, 169, 177, 232, 304
