1970
-0.413016, 1, 1, 500, 375
-0.41948, 1, 129, 500, 375
-0.458461, 161, 1, 416, 375
-0.52377, 1, 33, 500, 288
-0.525421, 161, 97, 416, 352
-0.557067, 257, 1, 500, 375
-0.604615, 65, 1, 320, 375
-0.666512, 65, 97, 320, 352
-0.704592, 193, 1, 448, 256
-0.755129, 257, 129, 500, 375
-0.786675, 65, 1, 320, 256
-0.856159, 161, 97, 288, 352
-0.863142, 337, 1, 464, 375
-0.871382, 225, 1, 352, 375
-0.880552, 97, 129, 224, 375
-0.881505, 225, 65, 352, 320
-0.88283, 161, 1, 288, 375
-0.888771, 273, 1, 400, 375
-0.890424, 1, 193, 500, 320
-0.893803, 1, 145, 500, 272
-0.894818, 273, 97, 400, 352
-0.902643, 337, 1, 464, 256
-0.902773, 113, 1, 240, 375
-0.906949, 33, 129, 160, 375
-0.907912, 1, 1, 128, 375
-0.908803, 161, 129, 416, 256
-0.911998, 65, 1, 192, 375
-0.914736, 129, 177, 384, 304
-0.915159, 1, 97, 500, 224
-0.918325, 321, 129, 448, 375
-0.92237, 161, 1, 288, 256
-0.925745, 81, 33, 208, 288
-0.931879, 33, 193, 288, 320
-0.93275, 273, 1, 400, 256
-0.933061, 81, 177, 208, 304
-0.934675, 161, 145, 288, 272
-0.935361, 193, 49, 448, 176
-0.936465, 129, 161, 192, 288
-0.937901, 225, 193, 480, 320
-0.942093, 313, 145, 376, 272
-0.942496, 1, 49, 500, 176
-0.943326, 33, 145, 288, 272
-0.943682, 153, 177, 216, 304
-0.944664, 273, 145, 400, 272
-0.944879, 129, 193, 256, 320
-0.945352, 169, 129, 232, 256
-0.945823, 105, 161, 168, 288
-0.946944, 369, 129, 496, 375
-0.94707, 113, 129, 240, 256
-0.947923, 1, 1, 500, 128
-0.947992, 289, 193, 416, 320
-0.948802, 33, 33, 160, 288
-0.951172, 193, 1, 448, 128
-0.951532, 321, 145, 448, 272
-0.951575, 105, 177, 168, 240
-0.952117, 129, 201, 192, 264
-0.954255, 257, 145, 500, 272
-0.954739, 225, 113, 352, 240
-0.95487, 177, 193, 240, 320
-0.95578, 137, 177, 200, 240
-0.955879, 241, 193, 368, 320
-0.956871, 209, 145, 272, 272
-0.957333, 81, 161, 144, 288
-0.957641, 1, 241, 500, 368
-0.9587, 289, 177, 352, 304
-0.958735, 129, 225, 384, 352
-0.958782, 337, 161, 400, 288
-0.959183, 313, 193, 376, 320
-0.95936, 161, 97, 288, 224
-0.959715, 97, 209, 160, 336
-0.95976, 305, 193, 368, 256
-0.960792, 161, 201, 224, 264
-0.960898, 265, 177, 328, 304
-0.960964, 33, 161, 160, 288
-0.960985, 65, 81, 320, 208
-0.961133, 97, 217, 160, 280
-0.961267, 65, 17, 320, 144
-0.961652, 177, 193, 304, 320
-0.962563, 145, 113, 208, 240
-0.962663, 329, 169, 392, 232
-0.963008, 225, 49, 352, 176
-0.964091, 305, 81, 368, 208
-0.964273, 169, 161, 232, 224
-0.965094, 129, 209, 192, 336
-0.965111, 265, 209, 328, 272
-0.965167, 329, 65, 392, 192
-0.96543, 81, 177, 144, 240
-0.965888, 321, 65, 448, 192
-0.965955, 305, 169, 368, 232
-0.966681, 193, 97, 256, 224
-0.966786, 289, 129, 352, 256
-0.966936, 81, 225, 208, 352
-0.967779, 313, 145, 376, 208
-0.968196, 33, 209, 160, 336
-0.968246, 169, 137, 232, 200
-0.968692, 257, 97, 500, 224
-0.968964, 329, 193, 392, 256
-0.96918, 113, 209, 240, 272
-0.969721, 73, 201, 136, 264
-0.970105, 105, 177, 136, 240
-0.970296, 81, 177, 208, 240
-0.9703, 241, 1, 368, 128
-0.970394, 241, 113, 304, 240
-0.970467, 273, 65, 400, 192
-0.972236, 353, 1, 480, 128
-0.972549, 169, 97, 232, 352
-0.972755, 105, 161, 136, 288
-0.972759, 305, 97, 368, 352
-0.972763, 193, 121, 256, 184
-0.972804, 113, 113, 176, 240
-0.972916, 241, 193, 304, 320
-0.97296, 73, 209, 136, 336
-0.973008, 209, 145, 272, 208
-0.973056, 145, 153, 208, 216
-0.973116, 185, 209, 248, 272
-0.973512, 137, 225, 200, 288
-0.973641, 225, 65, 288, 192
-0.973859, 257, 201, 384, 264
-0.974773, 289, 105, 352, 168
-0.974981, 337, 145, 368, 272
-0.975186, 169, 145, 200, 272
-0.975269, 165, 185, 196, 248
-0.975278, 1, 241, 256, 368
-0.97545, 241, 217, 304, 280
-0.975543, 177, 49, 304, 176
-0.975565, 313, 217, 376, 280
-0.97584, 249, 121, 312, 184
-0.975934, 161, 193, 288, 256
-0.97603, 157, 161, 188, 288
-0.976207, 433, 1, 496, 128
-0.976268, 401, 1, 464, 128
-0.976391, 113, 153, 240, 216
-0.976416, 337, 193, 464, 320
-0.976541, 345, 17, 408, 144
-0.976578, 265, 97, 328, 224
-0.976944, 161, 113, 288, 176
-0.977016, 241, 137, 368, 200
-0.97708, 105, 201, 136, 264
-0.977178, 289, 217, 352, 280
-0.977604, 289, 129, 352, 192
-0.977652, 161, 153, 288, 216
-0.977664, 233, 145, 296, 208
-0.977838, 169, 193, 200, 320
-0.977879, 153, 177, 184, 240
-0.97788, 113, 81, 240, 208
-0.977942, 153, 201, 184, 264
-0.978062, 289, 225, 352, 352
-0.978078, 173, 137, 204, 200
-0.978118, 337, 209, 400, 336
-0.978127, 193, 97, 256, 352
-0.978325, 353, 177, 416, 240
-0.978361, 217, 193, 280, 320
-0.978379, 145, 177, 176, 304
-0.978459, 121, 153, 184, 216
-0.978631, 161, 225, 224, 288
-0.97868, 337, 145, 400, 208
-0.978741, 153, 225, 216, 352
-0.978878, 361, 145, 424, 272
-0.97892, 65, 209, 192, 272
-0.978921, 337, 113, 400, 240
-0.978927, 273, 177, 400, 240
-0.978939, 249, 49, 312, 176
-0.978941, 401, 17, 464, 80
-0.979011, 129, 129, 192, 375
-0.979032, 169, 113, 232, 176
-0.979349, 181, 177, 212, 304
-0.979694, 281, 185, 344, 248
-0.979703, 341, 177, 372, 240
-0.979744, 161, 217, 288, 280
-0.979812, 345, 33, 408, 288
-0.979836, 65, 113, 192, 240
-0.979861, 321, 177, 448, 240
-0.979968, 141, 201, 172, 264
-0.979982, 225, 97, 288, 352
-0.979986, 349, 145, 380, 272
-0.980085, 181, 113, 212, 240
-0.980105, 225, 241, 480, 368
-0.980167, 121, 177, 152, 240
-0.98048, 185, 201, 216, 264
-0.980588, 121, 209, 152, 272
-0.980625, 217, 113, 280, 176
-0.98064, 169, 81, 232, 208
-0.980652, 1, 113, 128, 240
-0.98067, 81, 233, 208, 296
-0.980677, 377, 17, 440, 144
-0.980743, 165, 209, 196, 272
-0.980906, 209, 193, 272, 256
-0.981004, 33, 177, 160, 240
-0.981129, 325, 145, 356, 272
-0.981168, 209, 209, 336, 272
-0.981281, 273, 49, 336, 176
-0.981353, 121, 145, 152, 272
-0.981355, 345, 49, 408, 112
-0.981407, 281, 97, 344, 352
-0.981466, 369, 145, 496, 272
-0.981606, 209, 217, 272, 280
-0.981635, 145, 129, 208, 192
-0.981638, 57, 129, 120, 256
-0.981657, 353, 169, 384, 232
-0.981835, 177, 177, 208, 240
-0.981935, 329, 193, 360, 256
-0.982131, 313, 145, 344, 272
-0.982195, 185, 185, 248, 248
-0.9822, 105, 129, 168, 375
-0.982325, 305, 1, 432, 128
-0.982343, 329, 81, 360, 208
-0.982406, 237, 145, 268, 208
-0.982447, 369, 33, 432, 96
-0.982558, 257, 241, 320, 304
-0.982668, 97, 153, 160, 216
-0.982684, 73, 225, 136, 288
-0.982769, 193, 193, 224, 320
-0.982782, 249, 97, 312, 352
-0.982861, 201, 49, 264, 176
-0.982929, 281, 241, 344, 304
-0.983145, 321, 89, 384, 152
-0.983254, 305, 201, 432, 264
-0.983304, 137, 177, 168, 240
-0.983385, 329, 169, 360, 232
-0.983447, 317, 193, 348, 256
-0.983562, 257, 225, 384, 288
-0.983748, 269, 217, 300, 280
-0.983773, 337, 217, 400, 280
-0.983834, 217, 169, 280, 232
-0.983931, 225, 113, 352, 176
-0.983952, 249, 89, 312, 152
-0.984073, 317, 97, 348, 224
-0.984166, 289, 145, 416, 208
-0.984179, 433, 1, 496, 64
-0.984283, 249, 65, 312, 128
-0.984334, 133, 145, 164, 272
-0.984434, 161, 1, 288, 128
-0.984508, 121, 209, 152, 336
-0.984775, 9, 241, 72, 304
-0.984821, 193, 113, 224, 240
-0.984895, 113, 129, 240, 192
-0.985005, 237, 129, 268, 256
-0.985025, 241, 81, 368, 144
-0.985034, 337, 137, 368, 200
-0.985051, 105, 209, 136, 336
-0.985121, 329, 193, 360, 320
-0.985138, 361, 161, 392, 288
-0.985155, 289, 65, 352, 128
-0.985228, 209, 185, 336, 248
-0.985285, 241, 49, 368, 112
-0.985291, 17, 193, 80, 320
-0.985292, 89, 193, 120, 256
-0.985302, 57, 177, 120, 240
-0.9854, 329, 129, 392, 375
-0.985414, 301, 177, 332, 304
-0.985441, 337, 121, 400, 184
-0.985563, 181, 113, 212, 176
-0.985684, 17, 201, 144, 264
-0.985719, 225, 161, 352, 224
-0.985742, 385, 1, 448, 256
-0.985902, 73, 153, 136, 216
-0.985995, 337, 153, 464, 216
-0.986008, 349, 145, 380, 208
-0.986129, 109, 225, 140, 288
-0.9862, 241, 241, 368, 368
-0.986211, 157, 209, 188, 336
-0.986331, 329, 1, 392, 375
-0.98635, 33, 233, 160, 296
-0.98641, 305, 241, 368, 304
-0.986421, 65, 65, 192, 192
-0.986512, 369, 153, 432, 216
-0.986561, 225, 89, 288, 152
-0.986657, 189, 161, 220, 224
-0.986715, 193, 137, 224, 200
-0.986756, 225, 1, 288, 375
-0.986764, 349, 193, 380, 320
-0.986768, 321, 65, 384, 128
-0.986786, 293, 209, 324, 272
-0.986808, 313, 113, 376, 176
-0.98684, 49, 193, 112, 320
-0.98685, 369, 97, 496, 224
-0.986862, 281, 209, 312, 272
-0.986903, 93, 177, 124, 304
-0.986929, 33, 225, 96, 288
-0.986964, 233, 241, 296, 304
-0.987001, 317, 193, 348, 320
-0.98701, 97, 241, 160, 304
-0.987113, 361, 193, 392, 256
-0.987146, 265, 225, 328, 352
-0.987155, 377, 1, 440, 375
-0.987159, 257, 209, 288, 272
-0.987162, 153, 153, 184, 216
-0.987198, 81, 129, 144, 375
-0.987218, 361, 97, 424, 224
-0.98725, 353, 9, 416, 72
-0.987407, 345, 65, 376, 192
-0.987444, 305, 17, 368, 144
-0.987503, 209, 113, 240, 240
-0.987572, 305, 1, 368, 375
-0.987607, 305, 225, 432, 288
-0.987636, 133, 193, 164, 320
-0.987695, 121, 153, 152, 216
-0.987724, 265, 193, 296, 320
-0.987779, 177, 1, 240, 375
-0.987828, 273, 113, 400, 176
-0.987842, 157, 113, 188, 240
-0.98789, 241, 193, 304, 256
-0.987946, 353, 1, 416, 375
-0.987949, 209, 233, 336, 296
-0.98797, 317, 161, 348, 224
-0.98799, 409, 1, 472, 256
-0.988025, 193, 241, 320, 368
-0.988111, 1, 241, 64, 368
-0.98816, 165, 161, 196, 224
-0.988264, 361, 129, 424, 192
-0.988264, 265, 145, 328, 208
-0.988297, 417, 1, 448, 64
-0.988307, 197, 209, 228, 272
-0.988385, 377, 9, 440, 72
-0.988393, 317, 121, 348, 184
-0.988396, 345, 201, 376, 264
-0.988509, 129, 205, 192, 236
-0.98851, 225, 145, 256, 208
-0.988549, 193, 89, 320, 152
-0.988581, 321, 49, 448, 112
-0.988634, 257, 233, 288, 296
-0.98865, 129, 241, 256, 304
-0.988742, 145, 249, 208, 312
-0.988742, 369, 9, 496, 72
-0.988845, 217, 121, 248, 184
-0.988876, 33, 153, 160, 216
-0.988884, 1, 265, 64, 328
-0.988946, 229, 81, 260, 208
-0.988964, 225, 17, 352, 80
-0.989102, 305, 201, 336, 264
-0.989104, 401, 1, 464, 375
-0.989163, 129, 241, 256, 368
-0.989304, 161, 205, 224, 236
-0.989339, 321, 121, 448, 184
-0.98935, 313, 25, 376, 88
-0.989373, 249, 1, 312, 128
-0.989428, 289, 17, 416, 80
-0.989431, 281, 193, 312, 320
-0.989437, 193, 113, 224, 176
-0.989497, 305, 193, 368, 224
-0.989499, 281, 1, 344, 375
-0.989509, 105, 205, 168, 236
-0.989525, 97, 185, 160, 216
-0.989538, 253, 193, 284, 320
-0.989558, 309, 225, 340, 288
-0.989572, 9, 217, 72, 280
-0.989617, 209, 161, 240, 288
-0.989727, 57, 97, 120, 352
-0.989779, 145, 193, 208, 224
-0.989845, 185, 233, 248, 296
-0.989854, 97, 221, 160, 252
-0.989872, 289, 89, 416, 152
-0.989876, 361, 1, 392, 128
-0.989923, 161, 193, 416, 256
-0.99004, 201, 1, 264, 375
-0.990069, 225, 17, 288, 144
-0.990085, 145, 233, 176, 296
-0.990116, 89, 217, 120, 280
-0.990157, 25, 241, 88, 368
-0.990229, 121, 181, 184, 212
-0.990231, 445, 1, 476, 128
-0.990279, 281, 1, 344, 256
-0.990298, 321, 217, 352, 280
-0.990298, 133, 225, 164, 288
-0.990348, 121, 233, 152, 296
-0.990349, 225, 1, 288, 256
-0.990367, 81, 209, 144, 240
-0.990403, 137, 217, 200, 248
-0.990416, 249, 1, 312, 375
-0.990426, 321, 177, 384, 208
-0.990451, 25, 265, 88, 328
-0.990481, 329, 193, 392, 224
-0.990514, 169, 193, 232, 224
-0.990586, 121, 1, 184, 375
-0.99063, 177, 217, 240, 248
-0.990681, 225, 129, 256, 256
-0.990684, 161, 169, 416, 232
-0.990687, 97, 217, 352, 280
-0.990688, 225, 153, 288, 184
-0.990693, 249, 145, 280, 272
-0.990694, 97, 173, 160, 204
-0.990818, 145, 181, 208, 212
-0.990876, 73, 173, 136, 204
-0.990915, 329, 97, 360, 160
-0.990919, 121, 193, 184, 224
-0.990934, 289, 205, 352, 236
-0.990937, 301, 129, 332, 192
-0.991006, 169, 97, 200, 224
-0.991016, 253, 81, 284, 208
-0.991023, 313, 145, 376, 176
-0.99103, 341, 65, 372, 128
-0.991038, 265, 217, 328, 248
-0.991109, 161, 145, 416, 208
-0.991122, 193, 157, 256, 188
-0.991124, 145, 129, 176, 256
-0.991152, 129, 105, 192, 168
-0.991164, 405, 1, 436, 128
-0.99118, 109, 153, 140, 216
-0.991213, 161, 1, 288, 64
-0.99129, 185, 145, 248, 176
-0.991291, 161, 49, 288, 112
-0.991296, 81, 197, 144, 228
-0.991314, 73, 221, 136, 252
-0.991361, 241, 113, 272, 176
-0.991367, 177, 225, 208, 288
-0.991404, 81, 105, 208, 168
-0.991452, 145, 229, 208, 260
-0.991475, 333, 217, 364, 280
-0.991476, 321, 1, 384, 256
-0.991506, 265, 201, 328, 232
-0.991517, 201, 81, 264, 144
-0.991551, 313, 205, 376, 236
-0.991562, 241, 81, 272, 208
-0.991574, 217, 165, 280, 196
-0.99161, 297, 177, 360, 208
-0.991611, 145, 33, 208, 288
-0.991627, 177, 181, 240, 212
-0.991653, 345, 177, 408, 208
-0.991655, 229, 113, 260, 176
-0.991659, 233, 25, 296, 88
-0.991673, 65, 185, 320, 248
-0.991674, 105, 233, 168, 264
-0.991678, 169, 161, 232, 192
-0.991686, 205, 121, 236, 184
-0.991713, 321, 165, 384, 196
-0.991749, 289, 141, 352, 172
-0.991802, 129, 169, 192, 200
-0.991826, 1, 209, 256, 272
-0.991875, 161, 145, 224, 176
-0.991883, 57, 209, 120, 240
-0.991911, 385, 145, 448, 272
-0.991913, 1, 241, 32, 304
-0.991919, 329, 241, 392, 304
-0.991928, 201, 1, 264, 128
-0.991957, 241, 217, 304, 248
-0.991989, 313, 217, 376, 248
-0.992, 121, 33, 184, 288
-0.992002, 81, 233, 144, 264
-0.992013, 337, 205, 400, 236
-0.992019, 81, 113, 144, 240
-0.992033, 157, 233, 188, 296
-0.992033, 369, 33, 496, 96
-0.992039, 105, 161, 168, 192
-0.992042, 289, 97, 352, 128
-0.992051, 353, 129, 416, 375
-0.992053, 305, 177, 336, 240
-0.992066, 249, 145, 280, 208
-0.99208, 289, 109, 352, 140
-0.992119, 153, 1, 216, 375
-0.992121, 265, 229, 328, 260
-0.992124, 177, 121, 240, 152
-0.992129, 281, 125, 344, 156
-0.99216, 305, 225, 336, 352
-0.992161, 13, 241, 44, 304
-0.992192, 249, 141, 312, 172
-0.992207, 201, 197, 264, 228
-0.992212, 201, 213, 264, 244
-0.992218, 281, 189, 344, 220
-0.992222, 401, 21, 464, 52
-0.992229, 137, 245, 200, 276
-0.992231, 289, 217, 352, 248
-0.992242, 169, 133, 232, 164
-0.992242, 145, 225, 176, 352
-0.992261, 225, 141, 288, 172
-0.992268, 357, 97, 388, 224
-0.992273, 353, 193, 416, 224
-0.992274, 49, 201, 112, 264
-0.992277, 57, 197, 120, 228
-0.992279, 145, 157, 208, 188
-0.992297, 373, 1, 404, 128
-0.992306, 169, 229, 232, 260
-0.992316, 73, 185, 136, 216
-0.992318, 401, 1, 464, 32
-0.992332, 369, 173, 432, 204
-0.992354, 105, 201, 136, 232
-0.99237, 17, 217, 80, 248
-0.992385, 297, 233, 328, 296
-0.992395, 193, 217, 448, 280
-0.992399, 257, 73, 288, 136
-0.992408, 353, 49, 416, 80
-0.992416, 225, 109, 288, 140
-0.992429, 201, 117, 264, 148
-0.992433, 193, 133, 256, 164
-0.99245, 249, 77, 312, 108
-0.992468, 313, 233, 376, 264
-0.992474, 377, 37, 440, 68
-0.992514, 249, 101, 312, 132
-0.992528, 345, 61, 408, 92
-0.992535, 105, 173, 136, 204
-0.992536, 385, 33, 416, 160
-0.992539, 345, 153, 408, 184
-0.992558, 249, 1, 312, 256
-0.992561, 1, 257, 128, 320
-0.992561, 269, 241, 300, 304
-0.992563, 453, 1, 484, 64
-0.992583, 237, 177, 268, 304
-0.992586, 105, 217, 136, 248
-0.99259, 209, 225, 272, 256
-0.992603, 329, 81, 392, 112
-0.992604, 249, 153, 312, 184
-0.992605, 165, 197, 196, 228
-0.992608, 105, 185, 136, 216
-0.992622, 177, 241, 240, 272
-0.992622, 249, 245, 312, 276
-0.992627, 297, 165, 360, 196
-0.992635, 337, 217, 400, 248
-0.992637, 289, 233, 352, 264
-0.992646, 73, 161, 136, 192
-0.992651, 345, 133, 408, 164
-0.992656, 305, 97, 336, 160
-0.992666, 321, 105, 384, 136
-0.992669, 433, 9, 496, 40
-0.992672, 337, 193, 368, 224
-0.992693, 153, 209, 184, 240
-0.992694, 49, 1, 112, 375
-0.992703, 377, 17, 440, 48
-0.992743, 353, 173, 384, 204
-0.992743, 249, 129, 312, 160
-0.992757, 289, 85, 352, 116
-0.992762, 297, 113, 328, 240
-0.992771, 97, 1, 160, 375
-0.992773, 329, 93, 392, 124
-0.992775, 49, 221, 112, 252
-0.992778, 233, 233, 296, 264
-0.992791, 1, 249, 64, 280
-0.992794, 181, 209, 212, 240
-0.992796, 145, 133, 208, 164
-0.9928, 241, 205, 304, 236
-0.992801, 245, 209, 276, 272
-0.992803, 237, 149, 268, 180
-0.992803, 285, 105, 316, 168
-0.992805, 209, 209, 240, 272
-0.992807, 173, 145, 204, 176
-0.992809, 265, 113, 328, 144
-0.992822, 161, 121, 416, 184
-0.992828, 113, 245, 176, 276
-0.99283, 353, 17, 416, 48
-0.992846, 289, 153, 352, 184
-0.992847, 313, 117, 376, 148
-0.992855, 345, 165, 408, 196
-0.992862, 121, 169, 152, 200
-0.992867, 121, 185, 152, 216
-0.992869, 121, 249, 184, 312
-0.992869, 125, 205, 156, 236
-0.992879, 1, 201, 500, 264
-0.99289, 153, 181, 184, 212
-0.992896, 141, 205, 172, 236
-0.9929, 313, 133, 376, 164
-0.992914, 201, 1, 264, 256
-0.992929, 165, 213, 196, 244
-0.992931, 289, 245, 352, 276
-0.992932, 177, 193, 208, 224
-0.992939, 137, 145, 200, 176
-0.992947, 353, 57, 384, 120
-0.992955, 337, 145, 368, 176
-0.992957, 257, 249, 384, 312
-0.992962, 125, 217, 156, 248
-0.992968, 249, 89, 312, 120
-0.992968, 193, 169, 256, 200
-0.992983, 93, 169, 124, 232
-0.992985, 173, 133, 204, 164
-0.992991, 325, 197, 356, 228
-0.992998, 149, 193, 180, 224
-0.993007, 25, 229, 88, 260
-0.993014, 365, 169, 396, 232
-0.993055, 273, 113, 304, 240
-0.993062, 233, 65, 296, 96
-0.993085, 265, 65, 328, 96
-0.993088, 57, 233, 120, 264
-0.993096, 209, 237, 272, 268
-0.993102, 281, 241, 312, 304
-0.993102, 313, 193, 344, 224
-0.993114, 313, 45, 376, 76
-0.993116, 329, 177, 360, 208
-0.993116, 209, 1, 272, 64
-0.993127, 1, 205, 64, 236
-0.993135, 297, 213, 328, 244
-0.993145, 181, 165, 212, 196
-0.993152, 353, 201, 480, 264
-0.993152, 361, 193, 392, 224
-0.993153, 1, 261, 64, 292
-0.993156, 313, 245, 376, 276
-0.993156, 165, 225, 196, 256
-0.993164, 113, 213, 240, 244
-0.99317, 185, 121, 216, 152
-0.993178, 193, 205, 224, 236
-0.993178, 49, 241, 112, 368
-0.993183, 93, 221, 124, 252
-0.993185, 261, 81, 292, 112
-0.993187, 25, 253, 88, 284
-0.993193, 161, 253, 224, 284
-0.993195, 273, 225, 304, 256
-0.993195, 193, 145, 224, 176
-0.993203, 417, 1, 448, 128
-0.993203, 133, 193, 164, 224
-0.993203, 345, 29, 408, 60
-0.993205, 113, 229, 144, 260
-0.993213, 201, 161, 232, 224
-0.993222, 425, 21, 488, 52
-0.993222, 257, 217, 288, 248
-0.993229, 85, 197, 116, 228
-0.993231, 73, 1, 136, 375
-0.993234, 225, 77, 288, 108
-0.993241, 305, 73, 368, 104
-0.993245, 33, 213, 64, 244
-0.993254, 177, 181, 208, 212
-0.993257, 93, 185, 124, 216
-0.993261, 85, 209, 116, 240
-0.993261, 417, 13, 448, 44
-0.993262, 225, 129, 288, 160
-0.993275, 217, 65, 248, 192
-0.993278, 33, 97, 96, 352
-0.993282, 313, 205, 344, 236
-0.993283, 233, 53, 296, 84
-0.993293, 125, 229, 156, 260
-0.993293, 201, 97, 264, 128
-0.993295, 265, 41, 328, 104
-0.993302, 349, 193, 380, 224
-0.993306, 377, 5, 440, 36
-0.993307, 353, 161, 384, 192
-0.99331, 249, 165, 312, 196
-0.993311, 193, 157, 224, 188
-0.993311, 137, 181, 168, 212
-0.993317, 225, 153, 256, 184
-0.99332, 425, 25, 456, 56
-0.993321, 401, 33, 464, 64
-0.993327, 413, 29, 444, 60
-0.993332, 169, 161, 200, 192
-0.993332, 393, 37, 424, 68
-0.993344, 49, 249, 112, 312
-0.993353, 433, 1, 464, 128
-0.993361, 317, 133, 348, 164
-0.993361, 281, 205, 312, 236
-0.993364, 365, 181, 396, 212
-0.993365, 341, 181, 372, 212
-0.993373, 325, 161, 356, 192
-0.99338, 297, 133, 328, 164
-0.993383, 301, 201, 332, 232
-0.993385, 437, 17, 468, 48
-0.993387, 457, 1, 488, 128
-0.993393, 345, 205, 376, 236
-0.993395, 261, 233, 292, 264
-0.993397, 361, 145, 392, 208
-0.993399, 225, 165, 256, 196
-0.993401, 213, 157, 244, 188
-0.993403, 161, 25, 288, 88
-0.993407, 273, 73, 304, 104
-0.993412, 141, 237, 172, 268
-0.993412, 341, 169, 372, 200
-0.993414, 89, 161, 120, 192
-0.993414, 53, 213, 84, 244
-0.993419, 357, 57, 388, 88
-0.993419, 177, 237, 208, 268
-0.993424, 193, 193, 224, 224
-0.993431, 89, 129, 120, 256
-0.993434, 313, 181, 344, 212
-0.993439, 317, 149, 348, 180
-0.993441, 13, 209, 44, 240
-0.993442, 85, 173, 116, 204
-0.993446, 153, 169, 184, 200
-0.99345, 109, 161, 140, 192
-0.993451, 285, 217, 316, 248
-0.993452, 293, 117, 324, 148
-0.993454, 449, 9, 480, 40
-0.993455, 349, 69, 380, 100
-0.993456, 369, 49, 400, 80
-0.993456, 361, 205, 392, 236
-0.993459, 337, 89, 368, 120
-0.99346, 161, 137, 192, 168
-0.99346, 73, 221, 104, 252
-0.993461, 273, 49, 304, 176
-0.993462, 305, 105, 336, 136
-0.993462, 253, 93, 284, 124
-0.993464, 261, 245, 292, 276
-0.993465, 249, 153, 280, 184
-0.993466, 93, 233, 124, 264
-0.993466, 165, 173, 196, 204
-0.993468, 213, 145, 244, 176
-0.993472, 165, 185, 196, 216
-0.993472, 237, 137, 268, 168
-0.993474, 153, 241, 184, 272
-0.993475, 345, 217, 376, 248
-0.993475, 13, 253, 44, 284
-0.993476, 425, 1, 488, 375
-0.993478, 349, 149, 380, 180
-0.993486, 1, 233, 500, 296
-0.993487, 317, 121, 348, 152
-0.99349, 329, 109, 360, 140
-0.993491, 365, 161, 396, 192
-0.993492, 417, 1, 448, 32
-0.993494, 133, 165, 164, 196
-0.993503, 241, 165, 272, 196
-0.993504, 269, 213, 300, 244
-0.993508, 377, 173, 408, 204
-0.99351, 253, 109, 284, 140
-0.993511, 209, 213, 240, 244
-0.993515, 137, 217, 168, 248
-0.993516, 313, 229, 344, 260
-0.993525, 213, 117, 244, 148
-0.993527, 301, 233, 332, 264
-0.993527, 253, 205, 284, 236
-0.993528, 245, 225, 276, 256
-0.993528, 205, 209, 236, 336
-0.993533, 277, 121, 308, 152
-0.993533, 189, 133, 220, 164
-0.993536, 261, 145, 292, 176
-0.993536, 281, 133, 312, 164
-0.993537, 177, 225, 208, 256
-0.99354, 381, 41, 412, 72
-0.993547, 1, 249, 32, 280
-0.993552, 165, 249, 196, 280
-0.993559, 225, 141, 256, 172
-0.99356, 361, 137, 392, 168
-0.99356, 57, 229, 88, 260
-0.993571, 145, 73, 272, 136
-0.993578, 81, 201, 208, 232
-0.993622, 261, 121, 292, 184
-0.993663, 345, 73, 408, 136
-0.993678, 25, 1, 88, 375
-0.993712, 225, 49, 288, 112
-0.993737, 249, 1, 312, 64
-0.993832, 193, 17, 448, 80
-0.993876, 337, 73, 464, 136
-0.993919, 65, 161, 320, 224
-0.993985, 413, 25, 444, 88
-0.994025, 285, 145, 316, 272
-0.994038, 357, 49, 388, 176
-0.994058, 1, 129, 128, 192
-0.994061, 33, 241, 64, 304
-0.994079, 309, 49, 340, 176
-0.994087, 1, 1, 64, 375
-0.994094, 377, 145, 408, 272
-0.994143, 1, 233, 256, 296
-0.994168, 193, 57, 448, 120
-0.994213, 109, 177, 124, 240
-0.994241, 361, 217, 424, 280
-0.994248, 429, 17, 460, 80
-0.994249, 361, 209, 424, 336
-0.994266, 317, 97, 348, 160
-0.994273, 193, 97, 448, 160
-0.994314, 213, 145, 244, 208
-0.994318, 65, 129, 192, 192
-0.994321, 1, 177, 500, 240
-0.994333, 81, 181, 208, 212
-0.994363, 197, 65, 228, 192
-0.994416, 9, 97, 72, 352
-0.994436, 197, 185, 228, 248
-0.994439, 175, 185, 190, 248
-0.994499, 465, 1, 496, 64
-0.994551, 289, 241, 416, 368
-0.994584, 161, 213, 288, 244
-0.994608, 257, 193, 500, 256
-0.994743, 261, 145, 292, 272
-0.994788, 129, 49, 192, 176
-0.99479, 161, 129, 192, 192
-0.994812, 293, 65, 324, 192
-0.994819, 113, 225, 240, 256
-0.994821, 305, 153, 336, 216
-0.994876, 81, 193, 112, 320
-0.994878, 349, 1, 380, 128
-0.99499, 441, 9, 472, 72
-0.994992, 81, 257, 208, 320
-0.994995, 361, 17, 392, 80
-0.995001, 257, 201, 384, 232
-0.995002, 393, 33, 424, 96
-0.99501, 213, 185, 244, 248
-0.995028, 417, 97, 480, 224
-0.99504, 369, 177, 496, 240
-0.995043, 93, 225, 124, 352
-0.995045, 357, 217, 388, 280
-0.995054, 161, 153, 288, 184
-0.995073, 129, 165, 256, 196
-0.995099, 257, 169, 320, 232
-0.995134, 257, 213, 384, 244
-0.995143, 273, 129, 304, 192
-0.995158, 155, 201, 170, 264
-0.995172, 161, 209, 176, 272
-0.995241, 1, 137, 500, 200
-0.995253, 65, 137, 320, 200
-0.995253, 165, 177, 180, 240
-0.995263, 161, 241, 416, 304
-0.995292, 105, 113, 136, 240
-0.995311, 73, 249, 136, 312
-0.995312, 217, 209, 248, 336
-0.995331, 169, 201, 184, 264
-0.995333, 257, 33, 288, 160
-0.995349, 121, 177, 136, 240
-0.995356, 345, 225, 376, 288
-0.995361, 209, 249, 272, 312
-0.995407, 1, 217, 32, 280
-0.995409, 65, 33, 320, 96
-0.995427, 237, 33, 268, 160
-0.995428, 385, 129, 448, 375
-0.99546, 373, 145, 404, 208
-0.995464, 233, 241, 296, 368
-0.995482, 133, 153, 164, 216
-0.995486, 369, 129, 496, 192
-0.995487, 1, 1, 128, 128
-0.995513, 129, 181, 256, 212
-0.99553, 177, 89, 240, 152
-0.995532, 305, 249, 432, 312
-0.995537, 161, 141, 288, 172
-0.995545, 183, 209, 198, 272
-0.995557, 369, 49, 400, 112
-0.995565, 169, 1, 232, 256
-0.995572, 381, 33, 412, 96
-0.995579, 253, 97, 284, 160
-0.995594, 161, 201, 288, 232
-0.99562, 33, 197, 160, 228
-0.99564, 33, 213, 160, 244
-0.99566, 49, 193, 80, 320
-0.995661, 115, 193, 130, 256
-0.99567, 341, 169, 356, 232
-0.995692, 29, 193, 60, 320
-0.995703, 241, 141, 368, 172
-0.995727, 245, 233, 276, 296
-0.995747, 369, 241, 432, 304
-0.995757, 183, 121, 198, 184
-0.995765, 17, 193, 80, 256
-0.995775, 127, 209, 142, 272
-0.995777, 321, 241, 352, 304
-0.995788, 1, 193, 32, 320
-0.995792, 115, 169, 130, 232
-0.995809, 293, 185, 324, 248
-0.995839, 159, 177, 174, 240
-0.995845, 89, 145, 120, 208
-0.995848, 49, 153, 112, 216
-0.995855, 97, 33, 160, 288
-0.99587, 341, 193, 356, 256
-0.995882, 347, 169, 362, 232
-0.995886, 269, 193, 300, 256
-0.995908, 273, 173, 400, 204
-0.995914, 361, 209, 392, 336
-0.995919, 289, 189, 416, 220
-0.995927, 149, 193, 164, 256
-0.995957, 193, 257, 320, 320
-0.995958, 65, 113, 320, 176
-0.995959, 273, 65, 304, 128
-0.995959, 289, 129, 320, 192
-0.995966, 5, 265, 36, 328
-0.995969, 335, 185, 350, 248
-0.995972, 233, 217, 264, 280
-0.995979, 69, 193, 100, 320
-0.996015, 293, 225, 324, 352
-0.996034, 185, 65, 216, 192
-0.996064, 353, 169, 368, 232
-0.996094, 57, 225, 88, 288
-0.996139, 273, 89, 304, 152
-0.996152, 353, 225, 480, 288
-0.996154, 193, 161, 208, 224
-0.996155, 187, 145, 202, 208
-0.996165, 45, 241, 76, 304
-0.996171, 161, 225, 288, 256
-0.996173, 175, 137, 190, 200
-0.996198, 17, 265, 48, 328
-0.996198, 121, 209, 136, 272
-0.996214, 173, 161, 188, 224
-0.996216, 181, 185, 196, 248
-0.996216, 189, 201, 204, 264
-0.996217, 275, 217, 290, 280
-0.996229, 257, 169, 500, 232
-0.996232, 65, 57, 320, 120
-0.996245, 209, 217, 336, 248
-0.996249, 241, 89, 272, 152
-0.996274, 13, 217, 44, 280
-0.996283, 209, 157, 336, 188
-0.996305, 281, 185, 312, 248
-0.996318, 121, 97, 152, 224
-0.996318, 49, 229, 176, 260
-0.996339, 377, 97, 408, 224
-0.996364, 247, 145, 262, 208
-0.996371, 9, 41, 72, 104
-0.996374, 65, 1, 320, 64
-0.996376, 343, 137, 358, 200
-0.996381, 257, 145, 500, 208
-0.996393, 433, 105, 496, 168
-0.996417, 305, 201, 432, 232
-0.996421, 401, 9, 432, 72
-0.996441, 81, 169, 208, 200
-0.996445, 359, 169, 374, 232
-0.996448, 103, 209, 118, 272
-0.996459, 281, 209, 296, 272
-0.996469, 127, 177, 142, 240
-0.996473, 353, 257, 480, 320
-0.996475, 433, 1, 496, 256
-0.996514, 169, 257, 232, 320
-0.996526, 177, 209, 192, 272
-0.996547, 133, 201, 148, 264
-0.99655, 201, 41, 264, 104
-0.996554, 49, 65, 112, 128
-0.99657, 241, 145, 256, 208
-0.996584, 329, 193, 344, 256
-0.996593, 321, 177, 448, 208
-0.996596, 97, 241, 128, 304
-0.9966, 9, 241, 40, 368
-0.996602, 1, 33, 128, 96
-0.996618, 377, 177, 440, 240
-0.996621, 33, 65, 96, 192
-0.996625, 333, 153, 348, 216
-0.996638, 347, 193, 362, 256
-0.996654, 331, 97, 346, 160
-0.996662, 351, 145, 366, 208
-0.996665, 13, 193, 44, 320
-0.996669, 65, 241, 192, 272
-0.99667, 381, 169, 412, 232
-0.996682, 177, 97, 208, 352
-0.996688, 367, 169, 382, 232
-0.996719, 369, 105, 496, 168
-0.99672, 273, 153, 400, 184
-0.996723, 113, 153, 240, 184
-0.996725, 257, 241, 500, 304
-0.996748, 269, 217, 284, 280
-0.99675, 253, 145, 268, 208
-0.996769, 25, 217, 56, 280
-0.996772, 195, 137, 210, 200
-0.996774, 209, 205, 336, 236
-0.996776, 33, 177, 160, 208
-0.996787, 65, 81, 320, 144
-0.996789, 151, 169, 166, 232
-0.996791, 287, 217, 302, 280
-0.996796, 257, 121, 500, 184
-0.996811, 161, 129, 288, 160
-0.99684, 33, 241, 64, 368
-0.996845, 139, 209, 154, 272
-0.996875, 369, 233, 400, 296
-0.996877, 187, 169, 202, 232
-0.996881, 333, 65, 364, 320
-0.996888, 203, 201, 218, 264
-0.996907, 1, 97, 128, 160
-0.99692, 161, 237, 288, 268
-0.996938, 427, 1, 442, 64
-0.99698, 311, 225, 326, 288
-0.996983, 21, 241, 52, 368
-0.996993, 319, 185, 334, 248
-0.996998, 337, 189, 464, 220
-0.997005, 241, 85, 368, 116
-0.997015, 225, 129, 352, 160
-0.997029, 195, 193, 210, 256
-0.997034, 257, 225, 384, 256
-0.997034, 97, 81, 224, 144
-0.997046, 241, 73, 368, 104
-0.997046, 149, 217, 164, 280
-0.997063, 359, 145, 374, 208
-0.997068, 199, 161, 214, 224
-0.997075, 225, 97, 352, 128
-0.997075, 141, 177, 156, 240
-0.99708, 263, 209, 278, 272
-0.997097, 353, 193, 368, 256
-0.997098, 293, 217, 308, 280
-0.997105, 191, 113, 206, 176
-0.997105, 179, 161, 194, 224
-0.99711, 33, 265, 64, 328
-0.997119, 101, 185, 116, 248
-0.997162, 373, 177, 388, 240
-0.997163, 241, 169, 272, 232
-0.997165, 225, 109, 352, 140
-0.997175, 393, 241, 456, 304
-0.997192, 133, 225, 148, 288
-0.997213, 161, 117, 288, 148
-0.997231, 361, 121, 392, 184
-0.997235, 113, 173, 128, 204
-0.997255, 299, 209, 314, 272
-0.997263, 165, 97, 196, 352
-0.997276, 309, 201, 324, 264
-0.997286, 113, 217, 128, 280
-0.997292, 317, 209, 332, 272
-0.997295, 325, 113, 340, 176
-0.997296, 125, 233, 140, 296
-0.997302, 263, 233, 278, 296
-0.99731, 263, 73, 278, 136
-0.997311, 159, 233, 174, 296
-0.997316, 241, 61, 368, 92
-0.997317, 235, 145, 250, 208
-0.997329, 123, 153, 138, 216
-0.99733, 209, 169, 336, 200
-0.997354, 317, 65, 348, 320
-0.997369, 419, 1, 434, 64
-0.99738, 359, 201, 374, 264
-0.997383, 319, 161, 334, 224
-0.997389, 325, 169, 340, 232
-0.997394, 175, 197, 190, 228
-0.9974, 135, 177, 150, 240
-0.997422, 233, 113, 248, 176
-0.997435, 257, 209, 272, 272
-0.997436, 1, 229, 128, 260
-0.997436, 33, 73, 160, 136
-0.997453, 337, 241, 464, 368
-0.997457, 313, 73, 344, 136
-0.997458, 1, 113, 500, 176
-0.997475, 225, 37, 352, 68
-0.997476, 337, 129, 352, 192
-0.997484, 241, 189, 368, 220
-0.997489, 33, 9, 160, 72
-0.997505, 329, 217, 344, 280
-0.997515, 237, 65, 268, 128
-0.997518, 193, 97, 224, 352
-0.997521, 81, 141, 208, 172
-0.997525, 213, 97, 244, 352
-0.997533, 177, 33, 240, 160
-0.99754, 463, 1, 478, 64
-0.997552, 197, 113, 212, 176
-0.997556, 219, 113, 234, 176
-0.997567, 5, 241, 20, 304
-0.997581, 171, 225, 186, 288
-0.997582, 105, 129, 136, 375
-0.997583, 321, 153, 448, 184
-0.997586, 1, 1, 500, 64
-0.997592, 69, 225, 100, 288
-0.997611, 113, 241, 240, 272
-0.997618, 345, 65, 376, 320
-0.997621, 305, 225, 320, 288
-0.997622, 13, 241, 28, 304
-0.997624, 165, 233, 180, 296
-0.997645, 369, 49, 400, 176
-0.997646, 189, 233, 220, 296
-0.997651, 337, 217, 352, 280
-0.997657, 9, 49, 72, 176
-0.997661, 65, 41, 192, 104
-0.997663, 337, 165, 464, 196
-0.997682, 209, 129, 224, 192
-0.997684, 257, 81, 272, 144
-0.997688, 295, 241, 310, 304
-0.997697, 323, 225, 338, 288
-0.997697, 41, 217, 72, 280
-0.997699, 201, 137, 216, 200
-0.9977, 273, 117, 400, 148
-0.997703, 233, 97, 264, 352
-0.997708, 311, 177, 326, 240
-0.997709, 211, 209, 226, 272
-0.99771, 225, 25, 352, 56
-0.99773, 109, 153, 124, 216
-0.997734, 277, 241, 292, 304
-0.997753, 305, 213, 432, 244
-0.997754, 227, 113, 242, 176
-0.997756, 247, 121, 262, 184
-0.997763, 241, 121, 256, 184
-0.99777, 167, 153, 182, 216
-0.997777, 19, 241, 34, 304
-0.997782, 343, 217, 358, 280
-0.997799, 241, 237, 368, 268
-0.9978, 49, 89, 112, 152
-0.997811, 345, 97, 408, 160
-0.997819, 285, 241, 300, 304
-0.997821, 185, 209, 200, 240
-0.997834, 57, 81, 120, 208
-0.997838, 25, 241, 40, 304
-0.997838, 177, 181, 304, 212
-0.997851, 337, 89, 352, 152
-0.997852, 163, 209, 178, 240
-0.997862, 357, 33, 388, 288
-0.997867, 365, 193, 380, 256
-0.997882, 373, 153, 388, 216
-0.997888, 225, 49, 352, 80
-0.997891, 309, 129, 324, 192
-0.997891, 317, 233, 332, 296
-0.997891, 305, 141, 432, 172
-0.997892, 257, 233, 272, 296
-0.997903, 253, 121, 268, 184
-0.997905, 1, 57, 500, 120
-0.997917, 33, 41, 96, 104
-0.997927, 301, 105, 316, 168
-0.997945, 153, 97, 184, 352
-0.997947, 117, 201, 132, 232
-0.997953, 373, 193, 404, 320
-0.997953, 129, 265, 256, 328
-0.997958, 241, 225, 272, 352
-0.997958, 225, 5, 352, 36
-0.997963, 115, 145, 130, 208
-0.997969, 33, 165, 160, 196
-0.997971, 343, 73, 358, 136
-0.997975, 207, 161, 222, 224
-0.997977, 39, 241, 54, 304
-0.997993, 125, 173, 140, 204
-0.998004, 139, 233, 154, 296
-0.998004, 351, 65, 366, 128
-0.998009, 253, 57, 268, 120
-0.99801, 295, 121, 310, 184
-0.998012, 273, 129, 400, 160
-0.998016, 97, 253, 224, 284
-0.998023, 193, 153, 208, 184
-0.998028, 119, 233, 134, 296
-0.998029, 419, 25, 434, 88
-0.998042, 117, 129, 148, 375
-0.998042, 123, 185, 138, 216
-0.998047, 289, 237, 416, 268
-0.99805, 417, 137, 480, 200
-0.998051, 305, 25, 432, 56
-0.998054, 301, 97, 332, 352
-0.998059, 127, 205, 142, 236
-0.998067, 241, 249, 368, 280
-0.998079, 353, 1, 480, 32
-0.998079, 169, 201, 184, 232
-0.998082, 177, 249, 304, 280
-0.998083, 157, 209, 172, 240
-0.998084, 107, 189, 122, 220
-0.998084, 107, 205, 122, 236
-0.998093, 313, 241, 376, 368
-0.9981, 393, 1, 424, 256
-0.998108, 337, 37, 464, 68
-0.998113, 343, 193, 358, 224
-0.998114, 337, 57, 464, 88
-0.998127, 273, 97, 304, 352
-0.998133, 253, 65, 284, 320
-0.998143, 405, 1, 436, 256
-0.998143, 321, 77, 448, 108
-0.998164, 273, 17, 336, 80
-0.9982, 289, 49, 416, 80
-0.998201, 289, 41, 352, 104
-0.998201, 335, 197, 350, 228
-0.998212, 147, 205, 162, 236
-0.998247, 281, 1, 344, 128
-0.998258, 349, 193, 364, 224
-0.99826, 65, 257, 320, 320
-0.99826, 119, 169, 134, 200
-0.998273, 13, 223, 44, 238
-0.998274, 189, 123, 220, 138
-0.998274, 45, 241, 76, 368
-0.998274, 125, 235, 156, 250
-0.998274, 373, 173, 404, 188
-0.998274, 309, 111, 340, 126
-0.998275, 321, 135, 352, 150
-0.998276, 181, 151, 212, 166
-0.998277, 293, 135, 324, 150
-0.998277, 237, 147, 268, 162
-0.998278, 149, 175, 180, 190
-0.99828, 253, 103, 284, 118
-0.99828, 369, 51, 400, 66
-0.99828, 165, 131, 196, 146
-0.998281, 321, 129, 448, 160
-0.998281, 149, 247, 180, 262
-0.998282, 233, 165, 264, 180
-0.998283, 309, 117, 340, 132
-0.998283, 297, 203, 328, 218
-0.998284, 433, 21, 464, 36
-0.998284, 257, 159, 288, 174
-0.998285, 401, 161, 464, 224
-0.998285, 253, 111, 284, 126
-0.998286, 155, 197, 170, 228
-0.998286, 177, 167, 208, 182
-0.998287, 305, 147, 336, 162
-0.998287, 169, 231, 200, 246
-0.998289, 33, 213, 64, 228
-0.998289, 345, 149, 376, 164
-0.998289, 85, 191, 116, 206
-0.998289, 309, 211, 340, 226
-0.998294, 133, 185, 164, 200
-0.998294, 181, 189, 196, 220
-0.998294, 317, 153, 348, 168
-0.998294, 161, 179, 192, 194
-0.998294, 325, 167, 356, 182
-0.998295, 313, 205, 344, 220
-0.998296, 425, 27, 456, 42
-0.9983, 49, 225, 80, 240
-0.9983, 289, 145, 320, 160
-0.9983, 457, 9, 488, 24
-0.998301, 377, 185, 408, 200
-0.998302, 277, 225, 308, 240
-0.998303, 89, 175, 120, 190
-0.998303, 93, 207, 124, 222
-0.998304, 405, 37, 436, 52
-0.998304, 237, 159, 268, 174
-0.998305, 177, 181, 208, 196
-0.998306, 317, 159, 348, 174
-0.998306, 179, 133, 194, 164
-0.998306, 341, 167, 372, 182
-0.998306, 317, 147, 348, 162
-0.998306, 417, 17, 448, 32
-0.998306, 93, 129, 124, 375
-0.998307, 49, 113, 112, 176
-0.998307, 221, 165, 252, 180
-0.998307, 73, 225, 104, 240
-0.998307, 293, 219, 324, 234
-0.998308, 285, 97, 316, 352
-0.998309, 133, 199, 164, 214
-0.998309, 361, 205, 392, 220
-0.99831, 9, 1, 72, 128
-0.99831, 117, 229, 148, 244
-0.998311, 193, 211, 224, 226
-0.998312, 393, 39, 424, 54
-0.998313, 337, 201, 368, 216
-0.998314, 105, 169, 136, 184
-0.998315, 181, 221, 212, 236
-0.998316, 89, 181, 120, 196
-0.998316, 361, 165, 392, 180
-0.998316, 93, 233, 124, 248
-0.998318, 117, 201, 148, 216
-0.998319, 53, 231, 84, 246
-0.99832, 361, 193, 392, 208
-0.99832, 185, 129, 216, 144
-0.99832, 201, 161, 232, 176
-0.998321, 65, 231, 96, 246
-0.998323, 193, 197, 208, 228
-0.998324, 305, 225, 432, 256
-0.998324, 169, 143, 200, 158
-0.998325, 277, 215, 308, 230
-0.998325, 317, 141, 348, 156
-0.998326, 89, 199, 120, 214
-0.998326, 297, 213, 328, 228
-0.998327, 273, 37, 400, 68
-0.998329, 89, 215, 120, 230
-0.998331, 173, 207, 204, 222
-0.998332, 325, 199, 356, 214
-0.998333, 261, 81, 292, 96
-0.998333, 301, 141, 332, 156
-0.998334, 1, 253, 128, 284
-0.998335, 257, 217, 288, 232
-0.998335, 413, 23, 444, 38
-0.998336, 173, 137, 204, 152
-0.998337, 165, 225, 196, 240
-0.998338, 349, 191, 380, 206
-0.998338, 117, 169, 148, 184
-0.998339, 221, 159, 252, 174
-0.99834, 161, 187, 192, 202
-0.99834, 101, 209, 116, 240
-0.998341, 357, 179, 388, 194
-0.998343, 361, 199, 392, 214
-0.998343, 161, 61, 288, 92
-0.998346, 189, 163, 220, 178
-0.998347, 149, 181, 180, 196
-0.998348, 125, 175, 156, 190
-0.998348, 413, 31, 444, 46
-0.998349, 277, 221, 292, 252
-0.998349, 157, 193, 188, 208
-0.998354, 317, 193, 348, 208
-0.998357, 181, 187, 212, 202
-0.998358, 357, 185, 388, 200
-0.99836, 241, 153, 272, 168
-0.998362, 161, 201, 192, 216
-0.998362, 329, 187, 360, 202
-0.998362, 189, 205, 220, 220
-0.998367, 161, 219, 192, 234
-0.998367, 179, 213, 194, 244
-0.998371, 189, 157, 220, 172
-0.998372, 89, 227, 120, 242
-0.998373, 121, 223, 152, 238
-0.998375, 121, 217, 152, 232
-0.998375, 161, 1, 288, 32
-0.998377, 105, 235, 136, 250
-0.998378, 73, 49, 136, 112
-0.998378, 121, 181, 152, 196
-0.998378, 125, 211, 156, 226
-0.99838, 161, 197, 176, 228
-0.998382, 169, 159, 200, 174
-0.998383, 169, 149, 200, 164
-0.998384, 337, 13, 464, 44
-0.998388, 161, 89, 288, 120
-0.998389, 121, 187, 152, 202
-0.99839, 371, 177, 386, 208
-0.998391, 117, 195, 148, 210
-0.998394, 433, 1, 464, 256
-0.998395, 177, 195, 208, 210
-0.998397, 125, 217, 140, 248
-0.998397, 349, 173, 380, 188
-0.998407, 333, 145, 364, 160
-0.998409, 81, 129, 208, 160
-0.998412, 105, 225, 136, 240
-0.998413, 337, 141, 352, 172
-0.998413, 133, 129, 164, 375
-0.998415, 333, 185, 348, 216
-0.998417, 161, 213, 192, 228
-0.99842, 263, 85, 278, 116
-0.998423, 149, 199, 180, 214
-0.998425, 149, 209, 180, 224
-0.998426, 181, 215, 212, 230
-0.998428, 381, 1, 412, 256
-0.998429, 185, 145, 200, 176
-0.998434, 243, 149, 258, 180
-0.998435, 1, 81, 500, 144
-0.998438, 17, 241, 144, 272
-0.998439, 185, 129, 200, 160
-0.998448, 191, 165, 206, 196
-0.998448, 117, 189, 132, 220
-0.998452, 251, 153, 266, 184
-0.998453, 101, 193, 132, 208
-0.998454, 345, 177, 360, 208
-0.998455, 105, 209, 136, 224
-0.998461, 121, 207, 184, 222
-0.998461, 129, 205, 160, 220
-0.998461, 337, 195, 368, 210
-0.998462, 199, 157, 214, 188
-0.998465, 173, 201, 204, 216
-0.998472, 105, 187, 136, 202
-0.998478, 145, 201, 208, 216
-0.99848, 119, 217, 134, 248
-0.998484, 321, 89, 448, 120
-0.998486, 161, 207, 224, 222
-0.998493, 161, 207, 192, 222
-0.998493, 105, 219, 136, 234
-0.998494, 359, 153, 374, 184
-0.998496, 171, 177, 186, 208
-0.998497, 201, 205, 216, 236
-0.998505, 105, 181, 136, 196
-0.998508, 105, 175, 136, 190
-0.998511, 327, 193, 342, 224
-0.998513, 169, 215, 232, 230
-0.998516, 97, 177, 160, 192
-0.998525, 105, 203, 136, 218
-0.998527, 97, 205, 160, 220
-0.998529, 137, 181, 200, 196
-0.998534, 121, 201, 184, 216
-0.998535, 97, 215, 160, 230
-0.998537, 113, 183, 176, 198
-0.998544, 161, 21, 288, 52
-0.998546, 121, 213, 184, 228
-0.998547, 161, 49, 288, 80
-0.998548, 169, 221, 232, 236
-0.99856, 97, 221, 160, 236
-0.998563, 1, 257, 500, 320
-0.998564, 137, 201, 152, 232
-0.998564, 185, 161, 248, 176
-0.998566, 97, 189, 160, 204
-0.998568, 271, 217, 286, 248
-0.998568, 169, 199, 232, 214
-0.99857, 217, 157, 280, 172
-0.99857, 149, 193, 164, 224
-0.998571, 359, 173, 374, 204
-0.998571, 321, 195, 384, 210
-0.998576, 269, 233, 284, 264
-0.998577, 73, 179, 136, 194
-0.998577, 173, 137, 188, 168
-0.998578, 369, 177, 496, 208
-0.998579, 237, 153, 252, 184
-0.998581, 321, 189, 336, 220
-0.998581, 145, 195, 208, 210
-0.998582, 329, 177, 392, 192
-0.998585, 97, 199, 160, 214
-0.998586, 137, 187, 200, 202
-0.998587, 155, 177, 170, 208
-0.998588, 137, 219, 200, 234
-0.99859, 265, 215, 328, 230
-0.99859, 329, 189, 392, 204
-0.99859, 353, 201, 480, 232
-0.998591, 365, 157, 380, 188
-0.998591, 65, 225, 128, 240
-0.998594, 107, 177, 122, 208
-0.998595, 427, 9, 442, 40
-0.998595, 179, 145, 194, 176
-0.998596, 297, 145, 360, 160
-0.998598, 105, 171, 168, 186
-0.998598, 313, 201, 376, 216
-0.998601, 305, 211, 368, 226
-0.998601, 321, 171, 384, 186
-0.998607, 97, 227, 160, 242
-0.998608, 169, 193, 232, 208
-0.998609, 357, 129, 388, 375
-0.998613, 177, 101, 304, 132
-0.998614, 265, 209, 328, 224
-0.998625, 169, 187, 232, 202
-0.998625, 385, 113, 448, 176
-0.998626, 337, 183, 400, 198
-0.998626, 313, 151, 376, 166
-0.998627, 105, 233, 168, 248
-0.998629, 107, 217, 122, 248
-0.998629, 73, 215, 136, 230
-0.99863, 265, 223, 328, 238
-0.99863, 65, 233, 128, 248
-0.99863, 161, 153, 224, 168
-0.998631, 137, 225, 200, 240
-0.998631, 121, 195, 184, 210
-0.998631, 73, 173, 136, 188
-0.998634, 73, 185, 136, 200
-0.998638, 131, 221, 146, 252
-0.998642, 161, 73, 288, 104
-0.998644, 297, 189, 360, 204
-0.998644, 169, 227, 232, 242
-0.998645, 169, 179, 232, 194
-0.998645, 225, 151, 288, 166
-0.998645, 297, 139, 360, 154
-0.998646, 261, 97, 276, 128
-0.998648, 217, 167, 280, 182
-0.998649, 73, 205, 136, 220
-0.998651, 169, 135, 232, 150
-0.998653, 145, 213, 208, 228
-0.998653, 185, 155, 248, 170
-0.998654, 321, 145, 384, 160
-0.998655, 365, 177, 380, 208
-0.998658, 161, 159, 224, 174
-0.998659, 289, 217, 352, 232
-0.998661, 297, 195, 360, 210
-0.998662, 289, 97, 352, 112
-0.998663, 233, 217, 296, 232
-0.998664, 353, 197, 416, 212
-0.998665, 137, 231, 200, 246
-0.998665, 305, 181, 368, 196
-0.998666, 97, 239, 160, 254
-0.998666, 177, 225, 192, 256
-0.998668, 337, 209, 400, 224
-0.998668, 185, 167, 248, 182
-0.998668, 249, 159, 312, 174
-0.99867, 177, 233, 240, 248
-0.99867, 265, 203, 328, 218
-0.998673, 137, 175, 200, 190
-0.998673, 353, 189, 416, 204
-0.998674, 289, 103, 352, 118
-0.998674, 201, 223, 264, 238
-0.998675, 321, 157, 384, 172
-0.998675, 345, 203, 408, 218
-0.998675, 241, 223, 304, 238
-0.998677, 263, 237, 278, 268
-0.998678, 289, 113, 352, 128
-0.998679, 305, 165, 368, 180
-0.998679, 249, 151, 312, 166
-0.998679, 193, 149, 256, 164
-0.998681, 281, 119, 344, 134
-0.998682, 289, 203, 352, 218
-0.998686, 161, 165, 224, 180
-0.998687, 169, 129, 232, 144
-0.998687, 99, 197, 114, 228
-0.998689, 273, 137, 336, 152
-0.998689, 73, 191, 136, 206
-0.99869, 121, 247, 184, 262
-0.99869, 161, 147, 224, 162
-0.998691, 345, 143, 408, 158
-0.998691, 209, 213, 272, 228
-0.998691, 137, 163, 200, 178
-0.998694, 101, 221, 116, 252
-0.998694, 401, 23, 464, 38
-0.998695, 289, 91, 352, 106
-0.998695, 249, 111, 312, 126
-0.998696, 123, 229, 138, 260
-0.998698, 337, 215, 400, 230
-0.998698, 1, 225, 64, 240
-0.998699, 313, 217, 376, 232
-0.998699, 329, 165, 392, 180
-0.998699, 145, 243, 208, 258
-0.998699, 401, 9, 464, 24
-0.998699, 41, 231, 104, 246
-0.9987, 169, 173, 232, 188
-0.998701, 73, 199, 136, 214
-0.998701, 281, 131, 344, 146
-0.998701, 121, 239, 184, 254
-0.998702, 145, 237, 208, 252
-0.998702, 255, 85, 270, 116
-0.998702, 207, 209, 222, 240
-0.998702, 161, 141, 224, 156
-0.998702, 289, 151, 352, 166
-0.998703, 137, 253, 200, 268
-0.998703, 217, 117, 280, 132
-0.998705, 185, 207, 248, 222
-0.998705, 69, 241, 100, 368
-0.998706, 129, 155, 192, 170
-0.998706, 177, 123, 240, 138
-0.998707, 369, 183, 432, 198
-0.998708, 353, 167, 416, 182
-0.998709, 273, 143, 336, 158
-0.99871, 329, 91, 392, 106
-0.99871, 69, 229, 84, 260
-0.99871, 353, 153, 416, 168
-0.99871, 289, 249, 416, 280
-0.998711, 201, 229, 264, 244
-0.998712, 297, 171, 360, 186
-0.998712, 249, 143, 312, 158
-0.998712, 401, 31, 464, 46
-0.998714, 249, 137, 312, 152
-0.998714, 145, 135, 208, 150
-0.998715, 313, 223, 376, 238
-0.998715, 401, 17, 464, 32
-0.998715, 353, 59, 416, 74
-0.998717, 339, 181, 354, 212
-0.998719, 185, 157, 200, 188
-0.998722, 289, 61, 416, 92
-0.998723, 199, 145, 214, 176
-0.99873, 419, 17, 434, 48
-0.998747, 273, 97, 400, 128
-0.998752, 183, 229, 198, 260
-0.998753, 199, 193, 214, 224
-0.998756, 311, 133, 326, 164
-0.998757, 49, 253, 176, 284
-0.998767, 369, 25, 496, 56
-0.99877, 417, 29, 432, 60
-0.99877, 49, 217, 64, 248
-0.998796, 373, 189, 388, 220
-0.998796, 353, 169, 368, 200
-0.998799, 111, 161, 126, 288
-0.9988, 73, 129, 136, 192
-0.998805, 139, 217, 154, 248
-0.998805, 355, 197, 370, 228
-0.998808, 161, 37, 288, 68
-0.998808, 1, 265, 128, 296
-0.99881, 305, 1, 368, 64
-0.998811, 129, 193, 144, 224
-0.998812, 193, 117, 208, 148
-0.998816, 113, 213, 128, 244
-0.99882, 187, 197, 202, 228
-0.998821, 305, 201, 320, 232
-0.998821, 417, 1, 448, 256
-0.998823, 33, 113, 96, 240
-0.998827, 327, 181, 342, 212
-0.998831, 137, 185, 152, 216
-0.998833, 249, 141, 264, 172
-0.998837, 131, 169, 146, 200
-0.998838, 167, 189, 182, 220
-0.998839, 349, 145, 364, 176
-0.998839, 13, 249, 28, 280
-0.998843, 257, 153, 272, 184
-0.998844, 283, 225, 298, 256
-0.998852, 433, 25, 448, 56
-0.998853, 257, 265, 500, 328
-0.998863, 113, 161, 128, 192
-0.998864, 427, 29, 442, 60
-0.998865, 165, 145, 180, 272
-0.998868, 173, 129, 188, 256
-0.998868, 173, 165, 188, 196
-0.998869, 27, 213, 42, 244
-0.998871, 271, 81, 286, 112
-0.998872, 319, 169, 334, 200
-0.998874, 419, 1, 434, 32
-0.998874, 265, 73, 280, 104
-0.998875, 333, 97, 348, 128
-0.998875, 295, 113, 310, 144
-0.998884, 325, 137, 340, 168
-0.998886, 1, 25, 500, 88
-0.998887, 1, 249, 16, 280
-0.998888, 329, 157, 344, 188
-0.998896, 307, 213, 322, 244
-0.998897, 371, 165, 386, 196
-0.998897, 353, 181, 368, 212
-0.998898, 29, 253, 44, 284
-0.998898, 173, 149, 188, 180
-0.998899, 351, 69, 366, 100
-0.998901, 165, 245, 180, 276
-0.99891, 145, 177, 160, 208
-0.998911, 181, 177, 196, 208
-0.998911, 277, 209, 292, 240
-0.998913, 315, 189, 330, 220
-0.998915, 155, 233, 170, 264
-0.998917, 315, 201, 330, 232
-0.998917, 275, 233, 290, 264
-0.998921, 241, 137, 256, 168
-0.998922, 169, 213, 184, 244
-0.998922, 117, 229, 132, 260
-0.998927, 301, 121, 316, 152
-0.998927, 391, 41, 406, 72
-0.998929, 255, 97, 270, 128
-0.998931, 81, 117, 208, 148
-0.998942, 413, 129, 444, 256
-0.998944, 353, 141, 480, 172
-0.998955, 183, 113, 198, 240
-0.998956, 169, 193, 184, 320
-0.998958, 345, 129, 360, 256
-0.998969, 81, 129, 112, 375
-0.998972, 273, 1, 304, 128
-0.998981, 159, 177, 174, 304
-0.998987, 335, 145, 350, 272
-0.998989, 117, 161, 132, 288
-0.998994, 181, 177, 196, 304
-0.999035, 351, 145, 366, 272
-0.99904, 153, 177, 168, 304
-0.999062, 1, 65, 128, 192
-0.999064, 175, 193, 190, 320
-0.99907, 97, 265, 160, 328
-0.999077, 65, 153, 192, 184
-0.999091, 321, 101, 448, 132
-0.999096, 191, 177, 206, 304
-0.999105, 181, 225, 212, 352
-0.999114, 17, 153, 80, 216
-0.999135, 57, 241, 88, 368
-0.999145, 353, 213, 480, 244
-0.999155, 393, 209, 456, 336
-0.999161, 329, 177, 344, 304
-0.999165, 319, 177, 334, 304
-0.999171, 117, 33, 148, 288
-0.999184, 343, 81, 358, 208
-0.999185, 233, 1, 264, 256
-0.999185, 393, 41, 456, 104
-0.999186, 197, 177, 212, 304
-0.999191, 147, 177, 162, 304
-0.999192, 313, 177, 328, 304
-0.999203, 193, 129, 208, 256
-0.999213, 331, 97, 346, 224
-0.999219, 369, 33, 400, 288
-0.99922, 33, 1, 96, 128
-0.999223, 357, 145, 372, 272
-0.999224, 203, 113, 218, 240
-0.999228, 49, 17, 112, 80
-0.999229, 105, 177, 120, 304
-0.999229, 209, 241, 272, 368
-0.999238, 337, 81, 352, 208
-0.999241, 209, 113, 224, 240
-0.999244, 125, 161, 140, 288
-0.999247, 13, 129, 44, 375
-0.999248, 341, 177, 356, 304
-0.999265, 1, 153, 128, 184
-0.999266, 1, 141, 128, 172
-0.999285, 113, 33, 240, 160
-0.999291, 289, 13, 416, 44
-0.999291, 335, 193, 350, 320
-0.999294, 203, 193, 218, 320
-0.999295, 1, 125, 128, 156
-0.999297, 321, 113, 448, 144
-0.999298, 363, 145, 378, 272
-0.999314, 307, 177, 322, 304
-0.999318, 137, 209, 152, 336
-0.99932, 57, 97, 88, 352
-0.999321, 45, 129, 76, 375
-0.999328, 245, 129, 260, 256
-0.999334, 239, 129, 254, 256
-0.999336, 209, 193, 224, 320
-0.999341, 135, 145, 150, 272
-0.999343, 253, 81, 268, 208
-0.999348, 33, 129, 64, 375
-0.999354, 375, 161, 390, 288
-0.999356, 161, 261, 288, 292
-0.999358, 121, 209, 136, 336
-0.999363, 349, 65, 364, 192
-0.999364, 141, 161, 156, 288
-0.999366, 269, 193, 284, 320
-0.999366, 325, 113, 340, 240
-0.999377, 347, 193, 362, 320
-0.99938, 337, 237, 464, 268
-0.9994, 289, 1, 320, 256
-0.999403, 131, 193, 146, 320
-0.999408, 213, 1, 244, 256
-0.999408, 385, 209, 416, 336
-0.999413, 369, 145, 384, 272
-0.999413, 9, 65, 72, 128
-0.999421, 409, 129, 472, 375
-0.999423, 215, 113, 230, 240
-0.999426, 97, 265, 224, 296
-0.999428, 129, 105, 256, 136
-0.999429, 77, 145, 108, 272
-0.999431, 99, 193, 114, 320
-0.999433, 247, 81, 262, 208
-0.999433, 231, 97, 246, 224
-0.999433, 361, 193, 376, 320
-0.999442, 69, 129, 100, 375
-0.999445, 305, 1, 432, 32
-0.999446, 241, 81, 256, 208
-0.99945, 251, 129, 266, 256
-0.999452, 263, 209, 278, 336
-0.999454, 159, 129, 174, 256
-0.999455, 221, 113, 236, 240
-0.999455, 369, 129, 400, 375
-0.999461, 355, 193, 370, 320
-0.999464, 447, 1, 462, 128
-0.999471, 337, 261, 464, 292
-0.999473, 453, 1, 468, 128
-0.999479, 259, 65, 274, 192
-0.99948, 277, 193, 292, 320
-0.999484, 419, 17, 434, 32
-0.999484, 349, 169, 364, 184
-0.999485, 255, 95, 270, 110
-0.999486, 215, 161, 230, 288
-0.999486, 257, 177, 272, 304
-0.999487, 159, 179, 174, 194
-0.999487, 119, 221, 134, 236
-0.999487, 265, 109, 280, 124
-0.999487, 347, 145, 362, 160
-0.999487, 297, 143, 312, 158
-0.999487, 411, 35, 426, 50
-0.999487, 165, 197, 180, 212
-0.999488, 191, 151, 206, 166
-0.999488, 313, 149, 328, 164
-0.999488, 99, 179, 114, 194
-0.999488, 175, 213, 190, 228
-0.999488, 461, 9, 476, 24
-0.999488, 187, 203, 202, 218
-0.999489, 225, 161, 240, 176
-0.99949, 189, 125, 204, 140
-0.999491, 443, 21, 458, 36
-0.999491, 307, 213, 322, 228
-0.999491, 449, 17, 464, 32
-0.999492, 117, 165, 132, 180
-0.999492, 257, 87, 272, 102
-0.999492, 329, 159, 344, 174
-0.999492, 101, 221, 116, 236
-0.999492, 353, 225, 480, 256
-0.999493, 311, 139, 326, 154
-0.999493, 421, 9, 436, 24
-0.999493, 163, 225, 178, 352
-0.999494, 185, 145, 200, 160
-0.999494, 277, 223, 292, 238
-0.999495, 181, 183, 196, 198
-0.999496, 419, 1, 434, 128
-0.999496, 375, 173, 390, 188
-0.999496, 121, 237, 136, 252
-0.999496, 147, 199, 162, 214
-0.999496, 255, 155, 270, 170
-0.999496, 117, 215, 132, 230
-0.999497, 417, 33, 432, 48
-0.999497, 97, 207, 112, 222
-0.999497, 391, 45, 406, 60
-0.999497, 263, 89, 278, 104
-0.999497, 181, 189, 196, 204
-0.999498, 361, 1, 376, 128
-0.999499, 455, 13, 470, 28
-0.999499, 63, 229, 78, 244
-0.9995, 153, 179, 168, 194
-0.9995, 173, 153, 188, 168
-0.999501, 283, 193, 298, 320
-0.999501, 107, 233, 122, 248
-0.999501, 355, 49, 370, 176
-0.999501, 371, 185, 386, 200
-0.999501, 245, 147, 260, 162
-0.999502, 233, 165, 248, 180
-0.999502, 279, 77, 294, 92
-0.999502, 125, 229, 140, 244
-0.999503, 107, 187, 122, 202
-0.999503, 137, 203, 152, 218
-0.999505, 335, 143, 350, 158
-0.999505, 109, 219, 124, 234
-0.999505, 427, 23, 442, 38
-0.999506, 181, 231, 196, 246
-0.999506, 311, 129, 326, 256
-0.999506, 271, 217, 286, 232
-0.999506, 173, 177, 188, 192
-0.999507, 369, 1, 384, 128
-0.999507, 145, 207, 160, 222
-0.999507, 107, 213, 122, 228
-0.999507, 331, 201, 346, 216
-0.999507, 295, 193, 310, 320
-0.999508, 361, 155, 376, 170
-0.999508, 425, 33, 440, 48
-0.999509, 269, 1, 300, 256
-0.99951, 433, 27, 448, 42
-0.99951, 399, 41, 414, 56
-0.99951, 427, 9, 442, 24
-0.99951, 97, 9, 224, 72
-0.999511, 175, 141, 190, 156
-0.999511, 107, 193, 122, 208
-0.999512, 259, 101, 274, 116
-0.999513, 173, 147, 188, 162
-0.999514, 421, 3, 436, 18
-0.999514, 325, 225, 340, 352
-0.999514, 205, 209, 220, 224
-0.999515, 337, 249, 464, 280
-0.999516, 263, 161, 278, 288
-0.999516, 341, 145, 356, 160
-0.999517, 261, 95, 276, 110
-0.999517, 183, 151, 198, 166
-0.999518, 49, 265, 176, 296
-0.999519, 109, 181, 124, 196
-0.999519, 115, 229, 130, 244
-0.999521, 131, 205, 146, 220
-0.999522, 353, 149, 368, 164
-0.999523, 335, 191, 350, 206
-0.999524, 185, 159, 200, 174
-0.999524, 121, 197, 136, 212
-0.999524, 317, 225, 332, 352
-0.999526, 153, 201, 168, 216
-0.999527, 445, 1, 476, 256
-0.999528, 99, 213, 114, 228
-0.999528, 9, 9, 72, 72
-0.999528, 1, 113, 128, 144
-0.999528, 33, 45, 160, 76
-0.999529, 371, 179, 386, 194
-0.999529, 273, 81, 288, 96
-0.999529, 193, 203, 208, 218
-0.999533, 361, 173, 376, 188
-0.999534, 125, 181, 140, 196
-0.999534, 273, 265, 336, 328
-0.999535, 419, 27, 434, 42
-0.999536, 177, 225, 192, 240
-0.999536, 173, 189, 188, 204
-0.999538, 93, 33, 124, 288
-0.999538, 265, 103, 280, 118
-0.999539, 179, 135, 194, 150
-0.999539, 355, 171, 370, 186
-0.99954, 319, 129, 334, 256
-0.999542, 107, 173, 122, 188
-0.999543, 81, 105, 208, 136
-0.999543, 409, 17, 424, 144
-0.999543, 329, 195, 344, 210
-0.999544, 125, 223, 140, 238
-0.999544, 127, 211, 142, 226
-0.999547, 301, 193, 316, 320
-0.999547, 101, 227, 116, 242
-0.999548, 289, 193, 304, 320
-0.999549, 199, 161, 214, 176
-0.999549, 463, 1, 478, 128
-0.999549, 183, 129, 198, 144
-0.999549, 153, 129, 168, 256
-0.99955, 193, 163, 208, 178
-0.99955, 69, 231, 84, 246
-0.999551, 177, 241, 240, 368
-0.999553, 125, 173, 140, 188
-0.999553, 263, 83, 278, 98
-0.999554, 167, 205, 182, 220
-0.999554, 123, 187, 138, 202
-0.999557, 179, 195, 194, 210
-0.999557, 119, 203, 134, 218
-0.999557, 367, 193, 382, 320
-0.999558, 105, 199, 120, 214
-0.999559, 175, 219, 190, 234
-0.999561, 125, 217, 140, 232
-0.999563, 113, 203, 128, 218
-0.999567, 183, 209, 198, 224
-0.999568, 375, 1, 390, 128
-0.999569, 349, 193, 364, 208
-0.999571, 219, 65, 234, 192
-0.999572, 161, 203, 176, 218
-0.999574, 337, 199, 352, 214
-0.999574, 17, 129, 80, 192
-0.999579, 115, 209, 130, 336
-0.999579, 183, 215, 198, 230
-0.999579, 155, 225, 170, 352
-0.999582, 253, 33, 268, 160
-0.999583, 311, 225, 326, 352
-0.999583, 433, 129, 496, 375
-0.999585, 147, 129, 162, 256
-0.999587, 425, 1, 440, 128
-0.999587, 269, 145, 284, 272
-0.999587, 343, 195, 358, 210
-0.999588, 287, 113, 302, 240
-0.999591, 403, 17, 418, 144
-0.999595, 233, 145, 248, 272
-0.999595, 1, 129, 32, 375
-0.999595, 285, 49, 300, 176
-0.999596, 145, 225, 160, 352
-0.9996, 107, 207, 122, 222
-0.999601, 209, 65, 224, 192
-0.999601, 151, 209, 166, 224
-0.999603, 469, 1, 484, 128
-0.999605, 173, 207, 188, 222
-0.999606, 49, 273, 112, 336
-0.999606, 221, 161, 236, 288
-0.99961, 163, 211, 178, 226
-0.999611, 265, 65, 280, 192
-0.999612, 417, 177, 480, 304
-0.999613, 81, 241, 112, 368
-0.999614, 111, 113, 126, 240
-0.999619, 257, 225, 272, 352
-0.999619, 193, 157, 208, 172
-0.999621, 361, 65, 376, 192
-0.999623, 1, 97, 128, 128
-0.999623, 383, 129, 398, 256
-0.999624, 115, 179, 130, 194
-0.999625, 175, 201, 190, 216
-0.999626, 263, 17, 278, 144
-0.999628, 383, 1, 398, 128
-0.999628, 355, 97, 370, 224
-0.99963, 257, 129, 272, 256
-0.99963, 251, 177, 266, 304
-0.999631, 353, 281, 480, 344
-0.999631, 157, 211, 172, 226
-0.999635, 301, 145, 316, 272
-0.999637, 105, 129, 168, 192
-0.999638, 441, 1, 456, 128
-0.999638, 341, 225, 356, 352
-0.999638, 279, 49, 294, 176
-0.99964, 277, 145, 292, 272
-0.999641, 109, 225, 124, 352
-0.999642, 391, 33, 406, 160
-0.999644, 119, 171, 134, 186
-0.999645, 81, 281, 208, 344
-0.99965, 229, 209, 244, 336
-0.999651, 113, 173, 128, 188
-0.999651, 125, 113, 140, 240
-0.999653, 9, 241, 24, 368
-0.999654, 73, 193, 88, 320
-0.999663, 13, 193, 28, 320
-0.999664, 431, 1, 446, 128
-0.99967, 371, 97, 386, 224
-0.999674, 231, 49, 246, 176
-0.999678, 289, 261, 416, 292
-0.99968, 223, 209, 238, 336
-0.999683, 3, 241, 18, 368
-0.999684, 117, 113, 132, 240
-0.999684, 227, 161, 242, 288
-0.999685, 215, 209, 230, 336
-0.99971, 469, 1, 500, 128
-0.999717, 73, 105, 136, 168
-0.99973, 369, 117, 496, 148
-0.999738, 1, 85, 128, 116
-0.99976, 157, 65, 188, 192
-0.999763, 425, 25, 488, 88
-0.999775, 145, 81, 208, 144
-0.999776, 1, 25, 128, 56
-0.999789, 49, 1, 176, 128
-0.999791, 201, 1, 232, 256
-0.999819, 381, 97, 412, 352
-0.999824, 65, 33, 192, 64
-0.999849, 1, 1, 128, 32
-0.999856, 89, 81, 120, 208
-0.999857, 141, 33, 172, 288
-0.999858, 1, 57, 128, 88
-0.999865, 389, 81, 420, 208
-0.999885, 241, 265, 368, 296
-0.999909, 257, 273, 384, 336
-0.999913, 33, 13, 160, 44
-0.999913, 65, 81, 192, 112
-0.999915, 165, 1, 196, 256
-0.999919, 169, 241, 200, 368
-0.99992, 369, 57, 432, 120
-0.999934, 229, 225, 260, 352
-0.999947, 65, 93, 192, 124
-0.999951, 369, 77, 496, 108
-0.99996, 113, 41, 240, 104
-0.999964, 105, 33, 136, 288
-0.999966, 161, 265, 416, 328
-0.999971, 261, 241, 292, 368
-0.999986, 1, 69, 128, 100
-0.99999, 65, 61, 192, 92
-0.99999, 145, 273, 272, 304
-0.999995, 409, 265, 472, 328
-1, 185, 1, 216, 256
-1.00002, 73, 81, 136, 144
-1.00004, 289, 1, 320, 128
-1.00005, 221, 17, 252, 144
-1.00008, 305, 1, 336, 256
-1.00009, 401, 145, 432, 272
-1.0001, 65, 1, 128, 256
-1.00013, 281, 241, 312, 368
-1.00013, 129, 33, 160, 288
-1.00015, 393, 129, 424, 375
-1.00017, 417, 129, 448, 375
-1.00022, 153, 1, 184, 256
-1.00029, 41, 1, 72, 256
-1.00029, 461, 65, 492, 320
-1.00031, 405, 129, 436, 375
-1.00033, 33, 281, 160, 344
-1.00036, 69, 33, 100, 288
-1.00038, 29, 1, 60, 256
-1.0004, 425, 129, 456, 256
-1.00044, 305, 273, 432, 336
-1.00045, 449, 129, 480, 375
-1.00046, 53, 1, 84, 256
-1.00049, 9, 1, 40, 256
-1.00049, 429, 129, 460, 375
-1.00058, 53, 113, 84, 240
-1.0006, 389, 161, 420, 288
-1.00064, 81, 33, 112, 288
-1.00078, 73, 33, 136, 160
-1.00085, 1, 281, 256, 344
-1.00086, 133, 97, 164, 224
-1.00092, 369, 49, 496, 176
-1.00101, 317, 241, 348, 368
-1.00104, 193, 281, 320, 344
-1.00106, 337, 17, 368, 144
-1.00108, 257, 289, 500, 352
-1.00108, 273, 297, 400, 360
-1.00113, 385, 97, 448, 224
-1.00115, 33, 1, 96, 256
-1.00129, 41, 33, 72, 160
-1.00129, 321, 33, 352, 160
-1.00133, 61, 17, 92, 144
-1.00137, 153, 33, 216, 160
-1.00148, 9, 113, 72, 240
-1.00148, 333, 241, 364, 368
-1.00149, 97, 289, 352, 352
-1.00152, 129, 289, 256, 352
-1.00153, 401, 209, 432, 336
-1.00153, 201, 17, 232, 144
-1.00157, 9, 1, 72, 256
-1.00167, 53, 65, 84, 192
-1.0017, 145, 81, 176, 208
-1.00177, 29, 1, 60, 128
-1.00183, 33, 113, 64, 240
-1.00184, 321, 305, 448, 368
-1.00194, 1, 305, 256, 368
-1.00199, 129, 313, 384, 375
-1.002, 69, 81, 100, 208
-1.00203, 13, 113, 44, 240
-1.00205, 65, 129, 96, 256
-1.00207, 401, 81, 432, 208
-1.00207, 369, 305, 496, 368
-1.00217, 225, 313, 480, 375
-1.00227, 105, 1, 168, 128
-1.00259, 65, 313, 192, 375
-1.00262, 209, 305, 336, 368
-1.00264, 161, 313, 288, 375
-1.00276, 1, 313, 128, 375
-1.00293, 113, 313, 240, 375
-1.00296, 1, 281, 500, 344
-1.00302, 97, 65, 160, 192
-1.00338, 1, 305, 500, 368
-1.00399, 433, 49, 496, 176
-1.00523, 425, 225, 488, 352
-1.0058, 409, 49, 472, 176
-1.00759, 129, 1, 192, 128
