1920
-0.457951, 1, 65, 500, 320
-0.50405, 257, 1, 500, 375
-0.51041, 1, 1, 500, 375
-0.534029, 97, 1, 352, 375
-0.550496, 1, 1, 256, 375
-0.620668, 129, 65, 384, 320
-0.64078, 225, 65, 480, 320
-0.650548, 1, 65, 256, 320
-0.854575, 161, 65, 288, 320
-0.864955, 209, 65, 336, 320
-0.878846, 177, 1, 304, 375
-0.878956, 257, 65, 384, 320
-0.879733, 289, 1, 416, 375
-0.88001, 65, 65, 192, 320
-0.883349, 113, 33, 240, 288
-0.883654, 129, 1, 256, 375
-0.886416, 81, 1, 208, 375
-0.886908, 369, 1, 496, 375
-0.889115, 241, 1, 368, 375
-0.891205, 321, 65, 448, 320
-0.892992, 369, 65, 496, 320
-0.893743, 1, 81, 500, 208
-0.901712, 33, 1, 160, 375
-0.911889, 17, 65, 144, 320
-0.920792, 97, 65, 352, 192
-0.928729, 225, 81, 480, 208
-0.92889, 1, 33, 500, 160
-0.93304, 113, 129, 240, 375
-0.93884, 1, 241, 500, 368
-0.939468, 1, 81, 256, 208
-0.941568, 1, 129, 500, 256
-0.942293, 97, 193, 352, 320
-0.94342, 1, 177, 500, 304
-0.944117, 177, 65, 304, 192
-0.945807, 177, 65, 240, 192
-0.946927, 113, 65, 240, 192
-0.949174, 337, 81, 464, 208
-0.951476, 257, 81, 384, 208
-0.952076, 257, 33, 500, 160
-0.952508, 209, 177, 336, 304
-0.952658, 273, 81, 336, 208
-0.953534, 129, 145, 384, 272
-0.953755, 153, 65, 216, 192
-0.954219, 241, 65, 304, 192
-0.954605, 49, 97, 176, 224
-0.95473, 105, 81, 168, 208
-0.954986, 337, 65, 400, 192
-0.95624, 129, 241, 384, 368
-0.957128, 129, 81, 192, 208
-0.957347, 401, 81, 464, 208
-0.957543, 361, 81, 424, 208
-0.957971, 161, 209, 288, 336
-0.958143, 241, 177, 304, 304
-0.958203, 225, 225, 352, 352
-0.958455, 201, 65, 264, 192
-0.958521, 257, 129, 500, 256
-0.959261, 161, 145, 288, 272
-0.9599, 257, 177, 500, 304
-0.960067, 193, 209, 256, 336
-0.960807, 305, 81, 368, 208
-0.961411, 137, 161, 200, 288
-0.961924, 217, 161, 280, 288
-0.962199, 425, 49, 488, 176
-0.963551, 177, 73, 240, 136
-0.963657, 9, 81, 72, 208
-0.964175, 249, 233, 312, 296
-0.964184, 265, 177, 328, 304
-0.964793, 337, 81, 400, 144
-0.964892, 1, 193, 256, 320
-0.965, 241, 81, 304, 144
-0.965612, 217, 209, 280, 336
-0.965834, 169, 193, 232, 320
-0.966104, 1, 97, 128, 224
-0.966296, 113, 193, 240, 320
-0.966682, 33, 129, 288, 256
-0.966728, 225, 225, 480, 352
-0.966839, 81, 81, 144, 208
-0.967656, 281, 89, 344, 152
-0.967749, 257, 225, 320, 352
-0.967793, 41, 97, 104, 224
-0.968092, 113, 89, 176, 152
-0.968488, 401, 89, 464, 152
-0.968764, 369, 33, 496, 160
-0.969273, 153, 81, 216, 144
-0.969517, 113, 129, 240, 256
-0.969541, 241, 129, 304, 256
-0.969547, 289, 33, 416, 160
-0.969704, 281, 225, 344, 352
-0.96998, 249, 65, 312, 320
-0.970142, 217, 233, 280, 296
-0.970142, 161, 129, 224, 256
-0.970216, 377, 89, 440, 152
-0.970445, 281, 217, 344, 280
-0.970479, 33, 241, 288, 368
-0.970826, 273, 209, 400, 336
-0.970874, 137, 177, 200, 240
-0.971005, 305, 97, 368, 160
-0.971781, 161, 17, 416, 144
-0.97212, 177, 217, 240, 280
-0.972177, 209, 129, 336, 256
-0.97239, 9, 105, 72, 168
-0.9726, 169, 33, 232, 288
-0.972712, 225, 33, 352, 160
-0.97273, 89, 97, 152, 160
-0.972923, 209, 65, 272, 320
-0.972927, 249, 209, 312, 272
-0.973019, 17, 49, 144, 176
-0.973194, 305, 33, 368, 160
-0.973484, 241, 177, 304, 240
-0.974187, 273, 129, 400, 256
-0.974716, 201, 201, 264, 264
-0.974801, 209, 153, 272, 216
-0.974811, 209, 81, 272, 144
-0.974999, 193, 129, 256, 256
-0.975116, 153, 153, 216, 216
-0.975269, 1, 33, 256, 160
-0.975269, 273, 65, 336, 320
-0.976058, 361, 33, 424, 160
-0.976275, 273, 129, 336, 256
-0.976493, 65, 49, 192, 176
-0.976616, 385, 33, 448, 160
-0.976693, 417, 57, 480, 120
-0.976706, 65, 105, 128, 168
-0.977274, 33, 105, 96, 168
-0.977311, 161, 177, 224, 240
-0.977341, 145, 81, 272, 144
-0.977486, 265, 33, 328, 160
-0.97773, 137, 65, 200, 320
-0.977877, 65, 177, 192, 304
-0.977917, 161, 241, 224, 368
-0.978477, 273, 241, 336, 304
-0.97855, 273, 193, 336, 256
-0.978556, 121, 81, 152, 208
-0.978718, 1, 65, 64, 320
-0.978766, 185, 65, 216, 192
-0.978798, 433, 1, 496, 256
-0.978988, 57, 49, 120, 176
-0.979057, 193, 81, 320, 144
-0.9791, 193, 177, 256, 240
-0.979282, 113, 241, 240, 368
-0.979371, 205, 65, 236, 192
-0.979432, 433, 81, 496, 144
-0.979452, 457, 33, 488, 160
-0.979541, 33, 49, 96, 176
-0.979559, 161, 81, 192, 208
-0.979634, 337, 81, 464, 144
-0.979661, 241, 65, 272, 192
-0.979667, 145, 201, 208, 264
-0.97979, 421, 81, 452, 208
-0.979819, 113, 65, 176, 320
-0.97983, 369, 65, 400, 192
-0.979979, 253, 65, 284, 192
-0.980013, 297, 65, 360, 320
-0.980059, 341, 81, 372, 208
-0.980193, 133, 81, 164, 208
-0.980234, 141, 169, 172, 232
-0.980257, 357, 65, 388, 192
-0.980397, 289, 81, 416, 144
-0.980424, 329, 65, 392, 320
-0.980453, 369, 81, 400, 144
-0.98071, 217, 113, 280, 240
-0.980719, 309, 89, 340, 152
-0.980731, 265, 65, 296, 192
-0.980838, 97, 129, 160, 256
-0.980935, 113, 169, 176, 232
-0.980936, 81, 89, 208, 152
-0.980969, 137, 225, 200, 352
-0.981011, 345, 81, 376, 144
-0.981061, 277, 81, 308, 208
-0.981082, 161, 17, 288, 144
-0.981146, 225, 65, 256, 192
-0.981174, 309, 81, 340, 208
-0.981236, 13, 81, 44, 208
-0.981346, 113, 33, 176, 160
-0.981349, 153, 81, 184, 144
-0.981371, 385, 65, 448, 320
-0.981391, 193, 185, 320, 248
-0.981412, 409, 65, 472, 320
-0.981552, 145, 153, 272, 216
-0.981595, 193, 233, 320, 296
-0.981638, 401, 81, 432, 208
-0.981659, 265, 81, 296, 144
-0.981693, 277, 233, 308, 296
-0.981694, 113, 17, 240, 144
-0.981705, 293, 217, 324, 280
-0.981899, 217, 177, 280, 240
-0.981905, 281, 65, 344, 128
-0.981924, 57, 65, 120, 320
-0.981956, 469, 17, 500, 80
-0.981969, 217, 17, 280, 144
-0.98203, 117, 89, 148, 152
-0.982048, 361, 65, 424, 320
-0.982235, 113, 177, 176, 304
-0.982249, 173, 65, 204, 192
-0.982277, 249, 233, 280, 296
-0.98248, 289, 81, 320, 208
-0.982521, 149, 65, 180, 192
-0.982583, 453, 49, 484, 112
-0.982603, 81, 65, 144, 320
-0.982629, 17, 105, 144, 168
-0.982688, 193, 17, 256, 144
-0.9827, 269, 177, 300, 304
-0.982739, 389, 81, 420, 208
-0.98274, 129, 201, 256, 264
-0.982753, 353, 57, 480, 120
-0.982803, 285, 89, 316, 152
-0.982924, 329, 81, 360, 208
-0.982935, 169, 129, 232, 375
-0.982972, 65, 225, 192, 352
-0.983155, 185, 241, 248, 304
-0.983191, 25, 65, 88, 320
-0.98338, 161, 257, 224, 320
-0.98344, 413, 89, 444, 152
-0.983467, 469, 1, 500, 128
-0.98367, 241, 145, 304, 208
-0.983842, 181, 73, 212, 136
-0.983945, 289, 177, 352, 304
-0.983988, 209, 209, 336, 272
-0.983995, 437, 81, 468, 208
-0.984163, 241, 81, 272, 144
-0.984222, 13, 97, 44, 160
-0.98426, 113, 177, 240, 240
-0.984264, 109, 81, 140, 208
-0.984287, 357, 81, 388, 144
-0.984317, 245, 161, 276, 288
-0.984383, 177, 1, 240, 375
-0.984489, 409, 1, 472, 128
-0.984572, 433, 1, 496, 375
-0.984657, 217, 57, 280, 120
-0.984672, 113, 65, 176, 128
-0.984679, 41, 81, 104, 144
-0.984759, 169, 17, 232, 144
-0.984779, 273, 217, 400, 280
-0.984787, 325, 97, 356, 160
-0.98488, 1, 105, 32, 168
-0.984946, 253, 209, 284, 336
-0.984958, 217, 1, 280, 375
-0.985074, 165, 81, 196, 144
-0.985087, 297, 193, 328, 320
-0.985136, 9, 81, 72, 144
-0.9853, 201, 209, 232, 272
-0.98541, 265, 233, 296, 296
-0.985441, 269, 209, 300, 272
-0.985583, 241, 89, 368, 152
-0.985666, 41, 97, 72, 224
-0.985671, 209, 209, 240, 336
-0.985779, 65, 81, 128, 144
-0.985806, 29, 105, 60, 168
-0.985825, 249, 1, 312, 375
-0.985845, 201, 65, 232, 128
-0.985879, 385, 65, 448, 128
-0.98588, 401, 89, 432, 152
-0.985922, 281, 209, 312, 336
-0.985957, 241, 241, 368, 304
-0.98598, 193, 121, 256, 184
-0.985996, 361, 65, 424, 128
-0.986041, 313, 73, 376, 136
-0.986068, 153, 177, 184, 304
-0.986141, 101, 97, 132, 160
-0.986172, 25, 81, 56, 208
-0.986179, 53, 97, 84, 224
-0.98619, 249, 121, 312, 184
-0.986221, 337, 129, 464, 256
-0.986255, 273, 1, 336, 375
-0.986488, 133, 97, 164, 160
-0.986638, 69, 97, 100, 224
-0.986657, 305, 225, 368, 288
-0.986666, 1, 81, 32, 208
-0.986734, 225, 209, 256, 336
-0.986739, 297, 97, 328, 160
-0.986782, 257, 57, 384, 120
-0.986794, 189, 193, 220, 320
-0.986848, 225, 201, 288, 264
-0.986864, 209, 265, 272, 328
-0.986871, 249, 265, 312, 328
-0.986879, 161, 121, 224, 184
-0.986918, 1, 81, 128, 144
-0.986929, 153, 161, 184, 224
-0.986939, 129, 225, 192, 288
-0.98709, 137, 121, 200, 184
-0.987101, 389, 89, 420, 152
-0.987146, 229, 81, 260, 144
-0.987192, 157, 185, 188, 248
-0.987209, 45, 105, 76, 168
-0.987249, 153, 1, 216, 375
-0.987259, 129, 1, 192, 375
-0.987297, 85, 97, 116, 160
-0.987309, 313, 1, 376, 375
-0.987327, 141, 161, 172, 288
-0.987439, 261, 129, 292, 256
-0.987464, 433, 25, 496, 88
-0.987472, 253, 81, 284, 144
-0.987486, 213, 81, 244, 144
-0.987491, 361, 1, 424, 375
-0.987507, 437, 97, 468, 160
-0.987536, 253, 177, 284, 240
-0.987589, 225, 145, 256, 272
-0.987623, 433, 65, 464, 128
-0.987644, 209, 249, 240, 312
-0.987701, 337, 17, 400, 144
-0.98779, 193, 57, 320, 120
-0.987803, 97, 97, 128, 224
-0.987815, 297, 129, 360, 256
-0.987835, 425, 105, 488, 168
-0.987995, 81, 97, 112, 224
-0.988104, 173, 193, 204, 320
-0.988127, 173, 113, 204, 240
-0.988181, 145, 225, 272, 288
-0.988182, 273, 193, 400, 256
-0.988209, 201, 177, 232, 240
-0.988408, 337, 1, 400, 375
-0.988446, 169, 201, 200, 264
-0.988459, 145, 57, 272, 120
-0.988512, 69, 105, 100, 168
-0.988537, 305, 209, 336, 272
-0.988556, 281, 121, 344, 184
-0.988604, 289, 193, 320, 256
-0.988656, 393, 1, 456, 375
-0.988666, 425, 97, 456, 160
-0.988716, 241, 17, 304, 144
-0.988812, 237, 233, 268, 296
-0.988902, 433, 1, 496, 128
-0.988929, 433, 33, 464, 160
-0.98893, 209, 265, 336, 328
-0.988937, 145, 17, 208, 144
-0.988957, 177, 49, 240, 112
-0.988964, 97, 145, 160, 208
-0.989038, 81, 33, 144, 160
-0.989052, 149, 113, 180, 240
-0.989114, 129, 145, 192, 208
-0.989162, 65, 217, 192, 280
-0.989203, 65, 177, 192, 240
-0.989235, 177, 153, 240, 216
-0.989245, 185, 265, 248, 328
-0.989264, 137, 249, 200, 312
-0.989356, 241, 113, 272, 240
-0.989405, 337, 89, 400, 120
-0.989432, 237, 161, 268, 224
-0.989511, 129, 257, 256, 320
-0.989529, 57, 105, 88, 168
-0.989561, 177, 73, 240, 104
-0.98957, 81, 1, 144, 375
-0.989603, 89, 73, 152, 136
-0.989609, 41, 1, 104, 375
-0.989614, 257, 233, 320, 264
-0.989723, 193, 161, 320, 224
-0.989769, 209, 121, 336, 184
-0.989814, 265, 145, 328, 208
-0.98986, 225, 225, 256, 288
-0.989868, 145, 129, 272, 192
-0.9899, 249, 57, 312, 120
-0.989901, 425, 97, 488, 224
-0.989918, 161, 129, 192, 256
-0.989965, 257, 209, 288, 272
-0.989982, 265, 225, 296, 352
-0.990037, 281, 93, 344, 124
-0.990042, 137, 57, 200, 120
-0.99013, 457, 25, 488, 88
-0.990174, 145, 193, 176, 256
-0.990188, 233, 229, 296, 260
-0.990209, 237, 225, 268, 352
-0.990249, 425, 1, 488, 64
-0.990267, 273, 221, 336, 252
-0.990305, 313, 209, 344, 336
-0.9904, 201, 129, 232, 256
-0.990439, 121, 185, 152, 248
-0.990474, 97, 81, 352, 144
-0.990491, 9, 33, 72, 160
-0.990516, 113, 93, 176, 124
-0.990548, 377, 93, 440, 124
-0.990553, 325, 33, 356, 160
-0.990553, 345, 33, 376, 160
-0.990586, 217, 129, 280, 192
-0.990597, 401, 89, 464, 120
-0.990601, 129, 185, 192, 216
-0.990602, 213, 217, 244, 280
-0.990641, 233, 81, 296, 112
-0.990729, 193, 225, 256, 256
-0.990738, 9, 105, 72, 136
-0.990796, 1, 1, 64, 375
-0.990798, 241, 177, 304, 208
-0.990811, 381, 33, 412, 160
-0.990884, 401, 121, 464, 184
-0.990903, 313, 89, 376, 120
-0.990965, 449, 81, 480, 144
-0.990987, 217, 241, 280, 272
-0.991016, 277, 33, 308, 160
-0.991016, 321, 201, 384, 264
-0.991027, 281, 161, 312, 288
-0.991067, 129, 173, 192, 204
-0.991067, 329, 113, 392, 240
-0.991116, 165, 153, 196, 216
-0.991124, 153, 81, 216, 112
-0.991225, 65, 105, 128, 136
-0.991288, 105, 1, 168, 375
-0.991313, 281, 237, 344, 268
-0.991363, 329, 105, 392, 168
-0.991367, 289, 33, 320, 160
-0.991386, 449, 81, 480, 208
-0.991488, 209, 189, 272, 220
-0.99152, 305, 225, 368, 352
-0.991534, 89, 93, 152, 124
-0.991563, 241, 161, 368, 224
-0.991571, 145, 93, 208, 124
-0.991641, 397, 33, 428, 160
-0.99165, 153, 161, 216, 192
-0.991673, 81, 241, 208, 304
-0.99168, 41, 105, 104, 136
-0.99168, 297, 105, 360, 136
-0.99169, 273, 209, 336, 240
-0.991705, 369, 9, 496, 72
-0.991732, 169, 241, 232, 272
-0.991759, 425, 85, 488, 116
-0.991763, 241, 245, 304, 276
-0.991774, 97, 153, 224, 216
-0.991779, 257, 85, 320, 116
-0.991807, 313, 177, 376, 304
-0.991812, 169, 209, 232, 240
-0.991823, 297, 249, 360, 312
-0.991837, 265, 193, 328, 224
-0.991851, 401, 129, 464, 256
-0.991877, 237, 201, 268, 264
-0.99189, 305, 201, 368, 232
-0.991898, 289, 241, 416, 304
-0.991942, 169, 189, 232, 220
-0.991948, 137, 205, 200, 236
-0.991956, 161, 177, 224, 208
-0.991959, 25, 313, 88, 375
-0.991962, 257, 113, 384, 176
-0.991964, 353, 105, 480, 168
-0.991966, 193, 177, 256, 208
-0.991998, 401, 77, 464, 108
-0.992006, 409, 33, 440, 160
-0.992007, 97, 57, 224, 120
-0.992079, 209, 85, 272, 116
-0.99213, 409, 61, 472, 92
-0.992148, 305, 237, 368, 268
-0.992187, 233, 189, 296, 220
-0.992196, 113, 81, 176, 112
-0.992213, 217, 69, 280, 100
-0.99222, 49, 65, 176, 128
-0.992227, 185, 257, 248, 288
-0.99225, 165, 241, 196, 368
-0.99225, 425, 29, 488, 60
-0.992254, 97, 121, 224, 184
-0.992262, 97, 49, 128, 176
-0.99229, 321, 101, 384, 132
-0.992292, 161, 221, 224, 252
-0.99231, 361, 81, 424, 112
-0.992331, 129, 217, 384, 280
-0.99237, 89, 105, 152, 136
-0.992372, 105, 177, 168, 208
-0.992375, 309, 233, 340, 296
-0.992391, 37, 49, 68, 176
-0.992401, 221, 249, 252, 312
-0.992408, 297, 221, 360, 252
-0.992408, 433, 49, 496, 80
-0.992409, 425, 97, 488, 128
-0.992428, 273, 73, 336, 104
-0.992433, 217, 169, 280, 200
-0.992435, 445, 33, 476, 160
-0.99247, 97, 201, 160, 264
-0.992499, 133, 209, 164, 272
-0.992499, 273, 169, 336, 232
-0.99251, 297, 129, 328, 256
-0.992523, 305, 121, 368, 184
-0.992524, 313, 77, 376, 108
-0.992538, 189, 177, 220, 240
-0.992555, 117, 89, 148, 120
-0.992574, 161, 33, 192, 160
-0.992581, 193, 237, 256, 268
-0.992604, 341, 89, 372, 120
-0.99264, 305, 33, 336, 160
-0.99265, 225, 57, 256, 120
-0.992662, 49, 49, 80, 176
-0.99267, 269, 229, 300, 260
-0.992675, 369, 85, 400, 116
-0.992678, 337, 77, 400, 108
-0.992679, 81, 49, 112, 176
-0.992689, 309, 93, 340, 124
-0.992692, 305, 177, 368, 240
-0.992709, 289, 233, 320, 264
-0.992711, 297, 249, 360, 280
-0.992733, 261, 81, 292, 112
-0.992746, 129, 157, 192, 188
-0.992747, 301, 217, 332, 248
-0.99275, 313, 49, 376, 112
-0.992754, 153, 89, 184, 120
-0.992765, 105, 221, 168, 252
-0.99277, 325, 65, 356, 128
-0.992771, 217, 217, 280, 248
-0.992781, 169, 149, 232, 180
-0.992799, 129, 249, 192, 280
-0.992799, 253, 229, 284, 260
-0.992805, 49, 137, 176, 200
-0.992823, 313, 125, 376, 156
-0.992832, 141, 177, 172, 208
-0.992832, 197, 73, 228, 104
-0.992838, 297, 201, 328, 232
-0.992838, 409, 89, 440, 120
-0.992838, 185, 73, 216, 104
-0.992844, 13, 101, 44, 132
-0.992844, 273, 249, 336, 280
-0.992856, 453, 53, 484, 84
-0.99287, 161, 265, 224, 296
-0.992893, 257, 125, 320, 156
-0.992899, 337, 129, 400, 160
-0.992908, 253, 173, 284, 204
-0.992911, 469, 21, 500, 52
-0.992912, 65, 89, 128, 120
-0.992916, 433, 65, 496, 96
-0.992933, 353, 105, 416, 168
-0.992936, 329, 93, 360, 124
-0.992942, 153, 225, 216, 288
-0.992948, 189, 209, 220, 272
-0.992952, 197, 233, 228, 296
-0.992956, 41, 105, 72, 136
-0.992963, 201, 225, 232, 256
-0.992964, 217, 157, 280, 188
-0.99297, 237, 185, 268, 216
-0.992988, 305, 189, 368, 220
-0.993002, 433, 85, 464, 116
-0.993011, 237, 173, 268, 204
-0.993013, 69, 105, 100, 136
-0.993021, 133, 73, 164, 136
-0.993021, 241, 81, 272, 112
-0.993024, 401, 101, 464, 132
-0.993036, 121, 233, 184, 264
-0.993036, 205, 253, 236, 284
-0.993044, 29, 105, 60, 136
-0.993044, 33, 93, 96, 124
-0.993051, 321, 105, 352, 136
-0.993052, 285, 65, 316, 128
-0.993055, 173, 81, 204, 112
-0.993056, 1, 105, 32, 136
-0.993057, 241, 217, 304, 248
-0.993065, 357, 85, 388, 116
-0.993066, 293, 241, 324, 304
-0.993068, 85, 105, 116, 136
-0.993072, 225, 17, 256, 144
-0.993075, 425, 97, 456, 128
-0.993077, 137, 217, 200, 248
-0.993078, 113, 225, 176, 352
-0.993081, 225, 105, 288, 168
-0.993083, 57, 105, 88, 136
-0.993085, 237, 237, 268, 268
-0.993088, 105, 121, 168, 184
-0.993103, 221, 245, 252, 276
-0.993104, 113, 105, 176, 136
-0.993104, 265, 265, 328, 296
-0.99311, 213, 177, 244, 240
-0.993113, 225, 85, 256, 116
-0.993128, 153, 169, 184, 200
-0.993132, 193, 213, 224, 244
-0.993135, 177, 85, 240, 116
-0.993137, 209, 253, 272, 284
-0.993137, 233, 121, 296, 152
-0.993137, 281, 93, 312, 124
-0.993138, 137, 97, 168, 128
-0.993139, 193, 165, 256, 196
-0.99314, 213, 77, 244, 108
-0.993145, 233, 273, 296, 304
-0.99315, 193, 205, 256, 236
-0.993155, 389, 93, 420, 124
-0.993156, 193, 333, 256, 364
-0.993164, 137, 261, 200, 292
-0.993169, 321, 81, 352, 112
-0.993177, 257, 89, 500, 152
-0.993183, 233, 225, 264, 256
-0.993195, 97, 105, 128, 136
-0.993199, 97, 165, 160, 196
-0.993199, 193, 153, 256, 184
-0.993203, 289, 189, 320, 220
-0.993203, 9, 93, 72, 124
-0.993208, 361, 129, 424, 160
-0.99321, 289, 125, 352, 156
-0.993211, 465, 45, 496, 76
-0.993212, 157, 189, 188, 220
-0.993214, 213, 229, 244, 260
-0.993218, 309, 201, 340, 232
-0.993221, 453, 29, 484, 60
-0.993226, 209, 141, 272, 172
-0.993232, 421, 33, 452, 160
-0.993244, 469, 33, 500, 64
-0.993245, 205, 213, 236, 244
-0.993246, 433, 1, 496, 32
-0.993246, 177, 177, 208, 240
-0.993251, 133, 81, 164, 112
-0.993252, 65, 49, 96, 176
-0.993252, 289, 221, 320, 252
-0.993257, 297, 337, 360, 368
-0.993261, 273, 81, 304, 112
-0.993268, 201, 269, 264, 300
-0.993272, 133, 213, 164, 244
-0.993275, 249, 153, 280, 216
-0.993281, 117, 101, 148, 132
-0.993286, 293, 93, 324, 124
-0.993288, 177, 121, 240, 152
-0.993291, 437, 101, 468, 132
-0.993296, 129, 145, 192, 176
-0.993304, 453, 77, 484, 108
-0.993304, 161, 157, 192, 188
-0.993307, 257, 97, 320, 128
-0.993313, 177, 193, 208, 224
-0.993315, 25, 81, 56, 144
-0.993318, 197, 241, 228, 272
-0.993318, 249, 185, 280, 216
-0.993322, 97, 209, 160, 240
-0.993324, 313, 237, 344, 268
-0.993335, 445, 89, 476, 120
-0.993337, 277, 241, 308, 272
-0.993339, 265, 173, 328, 204
-0.993342, 181, 205, 212, 236
-0.993351, 225, 185, 256, 216
-0.993353, 249, 245, 280, 276
-0.993354, 145, 189, 176, 220
-0.993358, 241, 161, 272, 192
-0.993359, 321, 113, 384, 144
-0.993359, 121, 317, 184, 348
-0.993373, 249, 205, 312, 236
-0.993374, 161, 253, 224, 284
-0.993381, 165, 205, 196, 236
-0.993382, 273, 341, 336, 372
-0.993391, 393, 81, 424, 112
-0.993392, 229, 73, 260, 104
-0.993393, 161, 77, 192, 108
-0.993396, 273, 185, 304, 216
-0.993397, 301, 245, 332, 276
-0.993397, 149, 157, 180, 188
-0.993399, 225, 173, 256, 204
-0.993403, 153, 297, 216, 328
-0.993406, 121, 209, 152, 240
-0.993406, 441, 57, 472, 88
-0.993411, 193, 321, 256, 352
-0.993413, 153, 325, 216, 356
-0.993414, 377, 129, 440, 256
-0.993418, 301, 229, 332, 260
-0.993424, 153, 345, 216, 375
-0.993425, 217, 217, 248, 248
-0.993431, 137, 69, 200, 100
-0.993432, 285, 77, 316, 108
-0.993435, 273, 217, 304, 248
-0.993444, 17, 129, 80, 256
-0.993445, 169, 309, 232, 340
-0.993446, 285, 201, 316, 232
-0.993449, 105, 93, 136, 124
-0.993449, 269, 93, 300, 124
-0.993455, 241, 141, 304, 172
-0.993459, 265, 241, 296, 272
-0.993462, 121, 197, 152, 228
-0.993462, 273, 265, 336, 328
-0.993466, 141, 201, 172, 232
-0.993467, 169, 181, 200, 212
-0.993475, 337, 105, 368, 136
-0.993475, 313, 225, 344, 256
-0.993484, 189, 225, 220, 256
-0.993489, 453, 65, 484, 96
-0.993497, 165, 169, 196, 200
-0.993497, 97, 189, 160, 220
-0.993498, 129, 173, 160, 204
-0.993503, 153, 125, 216, 156
-0.993514, 141, 229, 172, 260
-0.993516, 309, 189, 340, 220
-0.993517, 425, 13, 488, 44
-0.993523, 229, 153, 260, 184
-0.993525, 9, 305, 72, 336
-0.993525, 177, 345, 240, 375
-0.993536, 313, 321, 376, 352
-0.993538, 173, 153, 204, 184
-0.993539, 217, 109, 280, 140
-0.993546, 29, 93, 60, 124
-0.993547, 313, 213, 344, 244
-0.993551, 141, 145, 172, 208
-0.993554, 321, 333, 384, 364
-0.993562, 17, 321, 80, 352
-0.993565, 257, 69, 288, 100
-0.993566, 433, 73, 464, 104
-0.993569, 401, 45, 464, 76
-0.993575, 469, 9, 500, 40
-0.993577, 381, 81, 412, 112
-0.993585, 121, 129, 152, 256
-0.993585, 105, 333, 168, 364
-0.993585, 337, 125, 368, 156
-0.993587, 453, 41, 484, 72
-0.993587, 161, 261, 192, 292
-0.993588, 233, 345, 296, 375
-0.993593, 201, 121, 264, 152
-0.993593, 273, 317, 336, 348
-0.993599, 269, 169, 300, 200
-0.993603, 201, 201, 232, 232
-0.993604, 421, 85, 452, 116
-0.993606, 349, 73, 380, 104
-0.993607, 157, 249, 188, 280
-0.993607, 173, 265, 204, 296
-0.993609, 193, 61, 224, 92
-0.993609, 161, 57, 192, 120
-0.993614, 1, 93, 32, 124
-0.993614, 305, 57, 432, 120
-0.993615, 169, 93, 200, 124
-0.993617, 213, 181, 244, 212
-0.993622, 309, 105, 340, 136
-0.993622, 145, 213, 176, 244
-0.993623, 301, 81, 332, 112
-0.993624, 217, 257, 248, 288
-0.993641, 337, 57, 400, 120
-0.993713, 193, 17, 224, 144
-0.993777, 1, 81, 500, 144
-0.993779, 261, 265, 292, 328
-0.993792, 177, 241, 208, 368
-0.993805, 137, 33, 168, 160
-0.993864, 277, 177, 308, 240
-0.993876, 409, 289, 472, 352
-0.993893, 97, 193, 352, 256
-0.993923, 97, 297, 160, 360
-0.993971, 353, 33, 480, 96
-0.993978, 185, 129, 216, 256
-0.993982, 193, 241, 224, 368
-0.993983, 65, 81, 96, 144
-0.99399, 265, 177, 296, 240
-0.993997, 65, 129, 128, 256
-0.994017, 205, 17, 236, 144
-0.994062, 353, 129, 416, 256
-0.994068, 305, 121, 432, 184
-0.994087, 433, 281, 496, 344
-0.994115, 221, 145, 252, 208
-0.99414, 393, 65, 424, 128
-0.994146, 265, 57, 296, 120
-0.994168, 17, 297, 144, 360
-0.994194, 97, 73, 128, 136
-0.99421, 173, 121, 204, 184
-0.994252, 353, 129, 480, 192
-0.994289, 49, 81, 80, 144
-0.994305, 1, 305, 64, 368
-0.994312, 49, 289, 112, 352
-0.994332, 177, 225, 208, 288
-0.994335, 245, 265, 276, 328
-0.994356, 257, 265, 384, 328
-0.994363, 201, 121, 232, 184
-0.99438, 409, 25, 472, 88
-0.994395, 249, 17, 280, 144
-0.994411, 1, 81, 32, 144
-0.994454, 377, 121, 440, 184
-0.994523, 125, 33, 156, 160
-0.994538, 161, 77, 288, 108
-0.9946, 129, 241, 384, 304
-0.994615, 121, 313, 184, 375
-0.994616, 257, 137, 384, 200
-0.994672, 261, 145, 292, 208
-0.994674, 469, 41, 500, 104
-0.994683, 161, 297, 224, 360
-0.994725, 161, 281, 288, 344
-0.994739, 209, 305, 336, 368
-0.994741, 37, 81, 68, 144
-0.994751, 377, 313, 440, 375
-0.994764, 129, 313, 256, 375
-0.994773, 65, 313, 128, 375
-0.994806, 433, 145, 496, 272
-0.99489, 257, 57, 500, 120
-0.994955, 321, 89, 448, 120
-0.994984, 49, 241, 112, 368
-0.994991, 237, 137, 268, 200
-0.995041, 205, 153, 236, 216
-0.995055, 1, 89, 256, 152
-0.995059, 357, 17, 388, 144
-0.995093, 1, 273, 128, 336
-0.99513, 177, 153, 208, 216
-0.995149, 129, 177, 160, 304
-0.99515, 257, 225, 500, 288
-0.995153, 213, 129, 244, 256
-0.995207, 237, 17, 268, 144
-0.995215, 345, 129, 408, 192
-0.995225, 253, 121, 284, 184
-0.995233, 393, 265, 456, 328
-0.995252, 321, 217, 448, 280
-0.995265, 433, 129, 496, 192
-0.995269, 153, 137, 184, 200
-0.995358, 249, 57, 280, 120
-0.995369, 289, 145, 352, 208
-0.995386, 353, 209, 480, 336
-0.995404, 153, 233, 184, 296
-0.995418, 353, 57, 384, 120
-0.995449, 65, 313, 192, 375
-0.99545, 381, 65, 412, 128
-0.99546, 233, 265, 264, 328
-0.99547, 297, 73, 328, 136
-0.995487, 193, 313, 256, 375
-0.995495, 309, 129, 340, 256
-0.995527, 287, 233, 302, 296
-0.995536, 369, 289, 432, 352
-0.99557, 5, 33, 36, 160
-0.995578, 289, 169, 416, 232
-0.99558, 97, 153, 352, 216
-0.995604, 297, 305, 360, 368
-0.995658, 161, 105, 288, 168
-0.995672, 345, 81, 360, 144
-0.995675, 17, 241, 144, 368
-0.995692, 353, 305, 480, 368
-0.995708, 477, 17, 492, 80
-0.995729, 305, 305, 432, 368
-0.995775, 17, 145, 144, 272
-0.995777, 277, 81, 292, 144
-0.995845, 209, 81, 336, 112
-0.995855, 165, 81, 180, 144
-0.995863, 145, 169, 160, 232
-0.995868, 417, 65, 448, 128
-0.995876, 353, 281, 480, 344
-0.99588, 459, 49, 474, 112
-0.995924, 189, 121, 220, 184
-0.995929, 129, 289, 192, 352
-0.995939, 81, 289, 208, 352
-0.995955, 185, 49, 216, 112
-0.995968, 119, 89, 134, 152
-0.995991, 253, 233, 268, 296
-0.995998, 303, 97, 318, 160
-0.996007, 49, 265, 176, 328
-0.996009, 257, 65, 288, 320
-0.996021, 261, 241, 276, 304
-0.996023, 173, 17, 204, 144
-0.996029, 21, 97, 36, 160
-0.996032, 177, 229, 304, 260
-0.99605, 105, 225, 168, 288
-0.996051, 245, 81, 260, 144
-0.996065, 371, 81, 386, 144
-0.996069, 365, 57, 396, 120
-0.996073, 141, 209, 172, 336
-0.996086, 185, 73, 200, 136
-0.996097, 433, 97, 496, 352
-0.996134, 383, 81, 398, 144
-0.996142, 281, 225, 296, 288
-0.996147, 209, 201, 224, 264
-0.996154, 9, 105, 24, 168
-0.996158, 357, 81, 372, 144
-0.996159, 159, 81, 174, 144
-0.996168, 145, 185, 272, 216
-0.996187, 369, 73, 496, 104
-0.996202, 229, 81, 244, 144
-0.996204, 295, 89, 310, 152
-0.99621, 351, 81, 366, 144
-0.996222, 273, 105, 304, 168
-0.99623, 3, 105, 18, 168
-0.996243, 197, 33, 228, 288
-0.996254, 217, 297, 280, 360
-0.996275, 377, 81, 392, 144
-0.996278, 241, 65, 272, 320
-0.99628, 277, 257, 308, 320
-0.996302, 113, 209, 240, 240
-0.996311, 193, 121, 448, 184
-0.996315, 129, 225, 256, 256
-0.996318, 313, 89, 328, 152
-0.996327, 471, 25, 486, 88
-0.99633, 323, 89, 338, 152
-0.996333, 251, 161, 266, 224
-0.996334, 267, 233, 282, 296
-0.996337, 151, 97, 166, 160
-0.996355, 221, 121, 252, 184
-0.996376, 287, 89, 302, 152
-0.996377, 305, 145, 432, 208
-0.996378, 209, 185, 336, 216
-0.996379, 33, 105, 48, 168
-0.996379, 257, 93, 384, 124
-0.996396, 225, 229, 352, 260
-0.996399, 225, 201, 480, 264
-0.996405, 177, 257, 208, 320
-0.99642, 429, 89, 444, 152
-0.99643, 47, 105, 62, 168
-0.996438, 213, 225, 228, 288
-0.996439, 401, 145, 464, 208
-0.996449, 407, 89, 422, 152
-0.996449, 143, 97, 158, 160
-0.99645, 33, 105, 160, 136
-0.996455, 41, 105, 56, 168
-0.996472, 361, 113, 392, 240
-0.996482, 9, 281, 72, 344
-0.996483, 97, 89, 224, 120
-0.996496, 305, 281, 432, 344
-0.996497, 129, 89, 144, 152
-0.996507, 209, 245, 336, 276
-0.996509, 205, 65, 220, 128
-0.996512, 111, 97, 126, 160
-0.996515, 113, 33, 144, 160
-0.996522, 469, 1, 500, 256
-0.996532, 229, 65, 260, 320
-0.996535, 1, 225, 128, 288
-0.996539, 269, 81, 284, 144
-0.996541, 175, 89, 190, 152
-0.996551, 141, 121, 172, 184
-0.996552, 137, 97, 152, 160
-0.996557, 485, 9, 500, 72
-0.996558, 415, 89, 430, 152
-0.99656, 235, 81, 250, 144
-0.996562, 321, 225, 352, 288
-0.996579, 401, 89, 416, 152
-0.996582, 263, 81, 278, 144
-0.996584, 269, 65, 300, 320
-0.99659, 369, 89, 496, 120
-0.996591, 173, 49, 204, 112
-0.996604, 161, 57, 416, 120
-0.996606, 369, 17, 400, 144
-0.996613, 289, 65, 320, 320
-0.996614, 177, 65, 208, 320
-0.996617, 15, 97, 30, 160
-0.996626, 287, 209, 302, 272
-0.99663, 315, 209, 330, 272
-0.996633, 221, 73, 236, 136
-0.996634, 317, 193, 348, 256
-0.99664, 293, 233, 308, 296
-0.996641, 237, 57, 268, 120
-0.996641, 405, 65, 436, 128
-0.996645, 363, 81, 378, 144
-0.996647, 225, 193, 256, 256
-0.996648, 221, 217, 236, 280
-0.996653, 337, 105, 368, 168
-0.996664, 203, 225, 218, 288
-0.996675, 261, 17, 292, 144
-0.996678, 333, 105, 348, 168
-0.996682, 93, 97, 108, 160
-0.996687, 275, 233, 290, 296
-0.996695, 97, 265, 352, 328
-0.9967, 27, 97, 42, 160
-0.996713, 253, 81, 268, 144
-0.99672, 453, 49, 468, 112
-0.996756, 101, 105, 116, 168
-0.996756, 257, 73, 384, 104
-0.996764, 339, 97, 354, 160
-0.996783, 421, 89, 436, 152
-0.996788, 213, 49, 244, 112
-0.996789, 391, 89, 406, 152
-0.996822, 369, 33, 496, 64
-0.996823, 83, 105, 98, 168
-0.996832, 465, 49, 480, 112
-0.996835, 69, 105, 84, 168
-0.996836, 157, 65, 188, 320
-0.996837, 223, 241, 238, 304
-0.996864, 167, 161, 182, 224
-0.996873, 191, 73, 206, 136
-0.996874, 1, 177, 500, 240
-0.996876, 33, 217, 288, 280
-0.996876, 449, 89, 464, 152
-0.996881, 213, 65, 244, 320
-0.996907, 139, 169, 154, 232
-0.996907, 25, 33, 56, 160
-0.996913, 215, 73, 230, 136
-0.996916, 129, 173, 256, 204
-0.996916, 441, 97, 456, 160
-0.996918, 345, 297, 408, 360
-0.996938, 217, 257, 232, 320
-0.996943, 309, 65, 340, 320
-0.996947, 261, 209, 276, 272
-0.99695, 53, 105, 68, 168
-0.996951, 203, 177, 218, 240
-0.996958, 121, 201, 184, 264
-0.996958, 275, 209, 290, 272
-0.996965, 273, 313, 336, 375
-0.996968, 377, 217, 440, 280
-0.996988, 1, 241, 256, 304
-0.996997, 1, 129, 128, 192
-0.997002, 435, 97, 450, 160
-0.997002, 469, 145, 500, 272
-0.997004, 209, 93, 336, 124
-0.997009, 209, 209, 336, 240
-0.997019, 153, 161, 168, 224
-0.997031, 145, 193, 160, 256
-0.997044, 59, 105, 74, 168
-0.997053, 309, 65, 340, 128
-0.997054, 457, 1, 488, 256
-0.99706, 301, 241, 332, 368
-0.997064, 215, 177, 230, 240
-0.997078, 139, 209, 154, 272
-0.997079, 433, 257, 496, 320
-0.997096, 77, 105, 92, 168
-0.997098, 273, 225, 400, 256
-0.997101, 321, 193, 448, 256
-0.997111, 305, 217, 320, 280
-0.997142, 337, 169, 464, 232
-0.997151, 145, 161, 272, 192
-0.997153, 41, 129, 104, 192
-0.997156, 195, 201, 210, 264
-0.99717, 297, 209, 312, 272
-0.997174, 259, 169, 274, 232
-0.997175, 129, 145, 160, 208
-0.997205, 153, 225, 184, 352
-0.997209, 257, 289, 384, 352
-0.997212, 1, 113, 256, 176
-0.997217, 175, 201, 190, 264
-0.997219, 199, 65, 214, 128
-0.997221, 341, 65, 372, 320
-0.997243, 305, 281, 368, 344
-0.997263, 305, 121, 336, 184
-0.997266, 245, 225, 260, 288
-0.997281, 265, 177, 280, 240
-0.997283, 117, 65, 148, 128
-0.997296, 303, 193, 318, 256
-0.997299, 113, 73, 240, 104
-0.997304, 89, 177, 152, 240
-0.997307, 257, 145, 500, 208
-0.997314, 345, 265, 408, 328
-0.997315, 97, 121, 352, 184
-0.997318, 169, 193, 184, 256
-0.997335, 245, 161, 260, 224
-0.997337, 1, 249, 128, 312
-0.997352, 253, 201, 268, 264
-0.997354, 193, 177, 448, 240
-0.997364, 285, 113, 316, 176
-0.997371, 1, 105, 500, 168
-0.997375, 133, 185, 148, 248
-0.997389, 9, 145, 72, 208
-0.997424, 145, 89, 272, 120
-0.997429, 41, 65, 72, 320
-0.997435, 193, 33, 320, 96
-0.997446, 1, 57, 128, 120
-0.997455, 81, 101, 208, 132
-0.997471, 447, 65, 462, 128
-0.997475, 1, 177, 256, 240
-0.997484, 81, 193, 208, 224
-0.997487, 369, 193, 496, 256
-0.997491, 189, 265, 220, 328
-0.997493, 73, 273, 136, 336
-0.997507, 259, 137, 274, 200
-0.997512, 445, 33, 476, 288
-0.997512, 369, 65, 400, 320
-0.997517, 145, 65, 176, 320
-0.997526, 161, 185, 176, 248
-0.997553, 369, 225, 496, 288
-0.997562, 65, 181, 192, 212
-0.997565, 337, 257, 464, 320
-0.997565, 177, 173, 304, 204
-0.997579, 161, 245, 288, 276
-0.99758, 1, 153, 128, 216
-0.997581, 173, 169, 188, 232
-0.997606, 13, 65, 44, 320
-0.997618, 17, 201, 144, 264
-0.997623, 1, 57, 500, 120
-0.997646, 261, 265, 276, 328
-0.99766, 353, 217, 416, 280
-0.997672, 309, 193, 324, 256
-0.997675, 389, 65, 420, 320
-0.997685, 433, 153, 496, 216
-0.997687, 285, 229, 300, 260
-0.997689, 293, 185, 308, 248
-0.997691, 465, 25, 480, 88
-0.997697, 257, 241, 384, 272
-0.997698, 1, 65, 32, 320
-0.997706, 165, 257, 196, 320
-0.997724, 201, 201, 216, 264
-0.997729, 421, 65, 452, 320
-0.997736, 455, 73, 470, 136
-0.99774, 105, 81, 120, 144
-0.997741, 225, 169, 256, 232
-0.997746, 89, 65, 120, 320
-0.997752, 175, 57, 190, 120
-0.997758, 249, 137, 264, 200
-0.997759, 1, 137, 256, 200
-0.997761, 129, 65, 160, 320
-0.997763, 209, 197, 336, 228
-0.997774, 321, 65, 352, 320
-0.997775, 433, 65, 464, 320
-0.997775, 241, 297, 304, 360
-0.997782, 3, 81, 18, 144
-0.997785, 247, 181, 262, 212
-0.997785, 9, 81, 24, 144
-0.997787, 475, 25, 490, 56
-0.997792, 353, 65, 384, 320
-0.997794, 335, 73, 350, 136
-0.997801, 17, 177, 144, 240
-0.997801, 257, 249, 500, 312
-0.997803, 321, 145, 384, 208
-0.997807, 257, 33, 500, 96
-0.997814, 269, 209, 284, 272
-0.997818, 113, 265, 176, 328
-0.997824, 345, 89, 360, 120
-0.997849, 153, 169, 168, 200
-0.997857, 177, 65, 304, 96
-0.997857, 329, 81, 344, 144
-0.997859, 315, 217, 330, 248
-0.997866, 161, 153, 176, 216
-0.997868, 377, 145, 440, 208
-0.997869, 217, 253, 232, 284
-0.997873, 29, 65, 60, 320
-0.997875, 69, 65, 100, 320
-0.997876, 287, 65, 302, 128
-0.997882, 281, 201, 296, 264
-0.997899, 247, 185, 262, 248
-0.997904, 395, 65, 410, 128
-0.997915, 127, 89, 142, 120
-0.997915, 249, 265, 264, 328
-0.997923, 275, 81, 290, 112
-0.997925, 319, 89, 334, 120
-0.997929, 401, 65, 432, 320
-0.997929, 241, 181, 256, 212
-0.997932, 65, 289, 320, 352
-0.997934, 117, 65, 148, 320
-0.997936, 211, 249, 226, 312
-0.997937, 233, 57, 248, 120
-0.997952, 257, 197, 384, 228
-0.99796, 353, 61, 480, 92
-0.99796, 321, 257, 384, 320
-0.997966, 65, 1, 192, 128
-0.997973, 269, 229, 284, 260
-0.997975, 147, 173, 162, 204
-0.997975, 455, 53, 470, 84
-0.997983, 261, 233, 276, 264
-0.997986, 141, 181, 156, 212
-0.997997, 187, 77, 202, 108
-0.998001, 275, 233, 290, 264
-0.998003, 23, 101, 38, 132
-0.998004, 371, 85, 386, 116
-0.998007, 165, 85, 180, 116
-0.998007, 211, 225, 226, 256
-0.998015, 311, 201, 326, 232
-0.99804, 121, 89, 136, 120
-0.998052, 189, 129, 220, 375
-0.998054, 3, 105, 18, 136
-0.998059, 385, 89, 400, 120
-0.99807, 241, 125, 368, 156
-0.99807, 201, 129, 232, 375
-0.998073, 481, 17, 496, 48
-0.998075, 225, 173, 352, 204
-0.998098, 205, 225, 220, 256
-0.998099, 253, 81, 268, 112
-0.998103, 289, 209, 416, 240
-0.998105, 257, 313, 384, 375
-0.998107, 57, 65, 88, 320
-0.998111, 331, 109, 346, 140
-0.998117, 43, 105, 58, 136
-0.998136, 81, 245, 208, 276
-0.998143, 17, 93, 144, 124
-0.998147, 465, 49, 480, 80
-0.99816, 255, 233, 270, 264
-0.998163, 361, 89, 376, 120
-0.998169, 415, 89, 430, 120
-0.998169, 195, 73, 210, 104
-0.998173, 259, 173, 274, 204
-0.998174, 241, 81, 256, 112
-0.998175, 321, 129, 352, 256
-0.998181, 49, 105, 64, 136
-0.998182, 321, 313, 384, 375
-0.998183, 471, 37, 486, 68
-0.998184, 161, 149, 288, 180
-0.998192, 253, 185, 268, 216
-0.998194, 159, 89, 174, 120
-0.998195, 129, 197, 256, 228
-0.998195, 427, 93, 442, 124
-0.998201, 205, 69, 220, 100
-0.998209, 217, 217, 232, 248
-0.998214, 55, 105, 70, 136
-0.998214, 71, 105, 86, 136
-0.998216, 161, 257, 288, 288
-0.998238, 331, 89, 346, 120
-0.998239, 209, 213, 224, 244
-0.998242, 355, 89, 370, 120
-0.998248, 1, 65, 256, 128
-0.998251, 15, 105, 30, 136
-0.998252, 379, 85, 394, 116
-0.998253, 309, 217, 324, 248
-0.998266, 33, 109, 48, 140
-0.99827, 113, 265, 240, 296
-0.998277, 105, 65, 136, 320
-0.998278, 321, 77, 448, 108
-0.998282, 393, 185, 456, 248
-0.998284, 1, 249, 500, 312
-0.998284, 143, 101, 158, 132
-0.998286, 215, 73, 230, 104
-0.998289, 247, 81, 262, 112
-0.998289, 353, 101, 480, 132
-0.998291, 469, 97, 500, 224
-0.9983, 225, 297, 480, 360
-0.998304, 469, 33, 500, 48
-0.998305, 337, 129, 464, 160
-0.998305, 181, 217, 212, 232
-0.998306, 293, 91, 324, 106
-0.998306, 313, 229, 344, 244
-0.998307, 193, 235, 224, 250
-0.998308, 225, 153, 256, 168
-0.998308, 269, 183, 300, 198
-0.998309, 453, 73, 484, 88
-0.998309, 173, 153, 204, 168
-0.998313, 153, 193, 184, 208
-0.998315, 293, 245, 324, 260
-0.998316, 53, 109, 84, 124
-0.998316, 281, 91, 312, 106
-0.998316, 453, 89, 484, 104
-0.998316, 469, 41, 500, 56
-0.998317, 153, 169, 184, 184
-0.998317, 49, 217, 176, 248
-0.998318, 249, 189, 280, 204
-0.998318, 269, 91, 300, 106
-0.998319, 445, 99, 476, 114
-0.99832, 85, 105, 100, 136
-0.99832, 289, 215, 320, 230
-0.99832, 137, 89, 168, 104
-0.998321, 241, 231, 272, 246
-0.998321, 201, 251, 232, 266
-0.998321, 181, 81, 196, 112
-0.998321, 141, 219, 172, 234
-0.998322, 129, 175, 160, 190
-0.998322, 221, 249, 252, 264
-0.998322, 117, 105, 148, 120
-0.998323, 97, 99, 128, 114
-0.998324, 193, 229, 224, 244
-0.998325, 125, 213, 156, 228
-0.998326, 433, 87, 464, 102
-0.998327, 205, 81, 236, 96
-0.998328, 313, 219, 344, 234
-0.998328, 309, 207, 340, 222
-0.998328, 73, 249, 136, 312
-0.998329, 393, 87, 424, 102
-0.998329, 221, 81, 252, 96
-0.99833, 289, 225, 320, 240
-0.998331, 449, 93, 464, 124
-0.998331, 291, 233, 306, 264
-0.998332, 281, 243, 312, 258
-0.998333, 225, 189, 256, 204
-0.998333, 217, 219, 248, 234
-0.998334, 313, 235, 344, 250
-0.998335, 313, 93, 328, 124
-0.998336, 205, 213, 236, 228
-0.998338, 229, 231, 260, 246
-0.99834, 403, 89, 418, 120
-0.99834, 181, 83, 212, 98
-0.998341, 251, 169, 266, 200
-0.998344, 245, 243, 276, 258
-0.998344, 333, 107, 364, 122
-0.998345, 269, 227, 300, 242
-0.998345, 153, 185, 184, 200
-0.998346, 61, 105, 76, 136
-0.998346, 217, 183, 248, 198
-0.998348, 469, 21, 500, 36
-0.998348, 309, 103, 340, 118
-0.998348, 283, 93, 298, 124
-0.998349, 173, 89, 204, 104
-0.998351, 73, 107, 104, 122
-0.998355, 281, 191, 312, 206
-0.998356, 253, 87, 284, 102
-0.998356, 453, 81, 484, 96
-0.998357, 65, 313, 320, 375
-0.998357, 313, 213, 344, 228
-0.998357, 205, 257, 236, 272
-0.998357, 237, 173, 268, 188
-0.998357, 165, 183, 196, 198
-0.998358, 289, 197, 320, 212
-0.998358, 409, 89, 424, 120
-0.998359, 341, 129, 372, 256
-0.99836, 433, 101, 464, 116
-0.998361, 221, 87, 252, 102
-0.998361, 381, 91, 412, 106
-0.998362, 337, 101, 368, 116
-0.998362, 101, 107, 132, 122
-0.998362, 453, 35, 484, 50
-0.998363, 237, 181, 268, 196
-0.998365, 213, 243, 244, 258
-0.998367, 169, 189, 200, 204
-0.998367, 297, 221, 312, 252
-0.998368, 321, 109, 352, 124
-0.998368, 469, 47, 500, 62
-0.998369, 297, 209, 328, 224
-0.998369, 169, 83, 200, 98
-0.998372, 85, 107, 116, 122
-0.998372, 225, 265, 352, 296
-0.998372, 133, 95, 164, 110
-0.998374, 257, 231, 288, 246
-0.998374, 209, 237, 240, 252
-0.998377, 167, 193, 182, 224
-0.998377, 389, 97, 420, 112
-0.998377, 469, 27, 500, 42
-0.998377, 141, 187, 172, 202
-0.998378, 305, 233, 320, 264
-0.998385, 465, 33, 480, 64
-0.998385, 233, 243, 264, 258
-0.998386, 317, 241, 348, 256
-0.998389, 157, 95, 188, 110
-0.998391, 137, 101, 168, 116
-0.998391, 293, 99, 324, 114
-0.998392, 457, 53, 488, 68
-0.998393, 325, 101, 356, 116
-0.998394, 193, 223, 224, 238
-0.998394, 305, 201, 320, 232
-0.998396, 9, 105, 24, 136
-0.998397, 321, 89, 352, 104
-0.998399, 205, 225, 236, 240
-0.998399, 301, 231, 332, 246
-0.998402, 397, 97, 412, 128
-0.998402, 265, 241, 296, 256
-0.998403, 309, 247, 340, 262
-0.998403, 193, 215, 224, 230
-0.998404, 257, 183, 288, 198
-0.998405, 185, 77, 216, 92
-0.998406, 357, 89, 388, 104
-0.998407, 281, 237, 312, 252
-0.998409, 289, 93, 304, 124
-0.99841, 91, 105, 106, 136
-0.998411, 1, 107, 32, 122
-0.998414, 77, 105, 92, 136
-0.998414, 417, 95, 448, 110
-0.998416, 281, 231, 312, 246
-0.998418, 153, 175, 184, 190
-0.99842, 433, 93, 464, 108
-0.998421, 33, 107, 64, 122
-0.998426, 281, 97, 312, 112
-0.998427, 141, 175, 172, 190
-0.998429, 241, 85, 272, 100
-0.998429, 301, 221, 332, 236
-0.99843, 103, 105, 118, 136
-0.998432, 159, 181, 174, 212
-0.998432, 221, 77, 236, 108
-0.998433, 233, 237, 264, 252
-0.998435, 309, 245, 324, 276
-0.998436, 449, 59, 480, 74
-0.998439, 177, 79, 240, 94
-0.998444, 301, 215, 332, 230
-0.998449, 485, 5, 500, 36
-0.998449, 433, 97, 448, 128
-0.99845, 337, 89, 400, 104
-0.998455, 337, 105, 352, 136
-0.998456, 267, 81, 282, 112
-0.998461, 249, 173, 280, 188
-0.998462, 273, 113, 400, 144
-0.998467, 177, 121, 304, 152
-0.998469, 237, 187, 268, 202
-0.998471, 295, 93, 310, 124
-0.998475, 117, 99, 148, 114
-0.998482, 113, 105, 128, 136
-0.998485, 205, 219, 236, 234
-0.998486, 17, 105, 48, 120
-0.998489, 317, 237, 332, 268
-0.99849, 341, 91, 372, 106
-0.998491, 421, 89, 436, 120
-0.998492, 265, 85, 296, 100
-0.998492, 325, 95, 356, 110
-0.998492, 141, 181, 172, 196
-0.998496, 325, 101, 340, 132
-0.998498, 249, 237, 280, 252
-0.9985, 1, 265, 256, 328
-0.9985, 241, 235, 304, 250
-0.998505, 113, 93, 176, 108
-0.998506, 405, 93, 436, 108
-0.998506, 401, 93, 464, 108
-0.998507, 211, 253, 226, 284
-0.998507, 137, 101, 152, 132
-0.998507, 273, 177, 400, 208
-0.998511, 257, 241, 320, 256
-0.998512, 377, 93, 440, 108
-0.998512, 117, 93, 148, 108
-0.998513, 197, 75, 228, 90
-0.998518, 405, 129, 436, 256
-0.998518, 269, 235, 300, 250
-0.998518, 289, 129, 416, 160
-0.99852, 161, 89, 192, 104
-0.99852, 391, 93, 406, 124
-0.99852, 137, 209, 152, 240
-0.998527, 305, 95, 368, 110
-0.998528, 309, 95, 340, 110
-0.998528, 281, 99, 344, 114
-0.998528, 241, 87, 304, 102
-0.998529, 281, 237, 344, 252
-0.998529, 247, 237, 262, 268
-0.998529, 439, 101, 454, 132
-0.99853, 161, 161, 176, 192
-0.998532, 369, 21, 496, 52
-0.998536, 293, 239, 324, 254
-0.998538, 227, 85, 242, 116
-0.99854, 259, 85, 274, 116
-0.998544, 65, 229, 192, 260
-0.998549, 453, 69, 468, 100
-0.99855, 113, 99, 176, 114
-0.998551, 143, 213, 158, 244
-0.998558, 97, 105, 112, 136
-0.99856, 199, 217, 214, 248
-0.99856, 373, 113, 404, 240
-0.998563, 303, 97, 318, 128
-0.998564, 225, 241, 288, 256
-0.998564, 339, 93, 354, 124
-0.998566, 129, 187, 192, 202
-0.998566, 445, 105, 460, 136
-0.998568, 175, 73, 190, 104
-0.998569, 241, 169, 256, 200
-0.998571, 149, 101, 164, 132
-0.998575, 137, 181, 200, 196
-0.998579, 369, 89, 400, 104
-0.998579, 175, 89, 190, 120
-0.998583, 281, 227, 344, 242
-0.998584, 145, 93, 208, 108
-0.998586, 361, 87, 424, 102
-0.998586, 273, 93, 336, 108
-0.998586, 217, 235, 280, 250
-0.998588, 73, 107, 136, 122
-0.99859, 257, 9, 500, 72
-0.998593, 1, 107, 64, 122
-0.998595, 279, 221, 294, 252
-0.9986, 241, 185, 304, 200
-0.998601, 249, 157, 264, 188
-0.998603, 177, 73, 240, 88
-0.998605, 425, 93, 488, 108
-0.998606, 137, 175, 200, 190
-0.998608, 235, 89, 250, 120
-0.998608, 313, 101, 376, 116
-0.998608, 337, 95, 400, 110
-0.998609, 235, 185, 250, 216
-0.998613, 281, 81, 296, 112
-0.998614, 401, 87, 464, 102
-0.998614, 161, 181, 224, 196
-0.998615, 217, 177, 280, 192
-0.998615, 141, 169, 156, 200
-0.998616, 193, 237, 256, 252
-0.998619, 443, 85, 458, 116
-0.99862, 177, 269, 304, 300
-0.998622, 185, 183, 248, 198
-0.998622, 215, 237, 230, 268
-0.998623, 175, 185, 190, 216
-0.998624, 201, 245, 264, 260
-0.998625, 153, 87, 216, 102
-0.998626, 169, 219, 232, 234
-0.998626, 241, 229, 304, 244
-0.998626, 177, 85, 240, 100
-0.998627, 265, 207, 328, 222
-0.998627, 129, 193, 192, 208
-0.998628, 1, 201, 500, 264
-0.99863, 153, 189, 216, 204
-0.998631, 217, 81, 280, 96
-0.998634, 249, 191, 312, 206
-0.998635, 273, 217, 336, 232
-0.998637, 89, 99, 152, 114
-0.998639, 153, 181, 168, 212
-0.99864, 291, 221, 306, 252
-0.998647, 297, 215, 360, 230
-0.998647, 169, 255, 232, 270
-0.998647, 113, 177, 176, 192
-0.998648, 425, 31, 488, 46
-0.998649, 209, 189, 272, 204
-0.998651, 265, 247, 328, 262
-0.998651, 161, 213, 288, 244
-0.998652, 305, 241, 368, 256
-0.998652, 183, 189, 198, 220
-0.998653, 217, 171, 280, 186
-0.998653, 409, 99, 472, 114
-0.998653, 169, 155, 232, 170
-0.998656, 137, 169, 200, 184
-0.998656, 385, 99, 448, 114
-0.998657, 173, 205, 188, 236
-0.998657, 209, 229, 272, 244
-0.998659, 129, 199, 192, 214
-0.99866, 209, 183, 272, 198
-0.99866, 113, 105, 176, 120
-0.998662, 297, 247, 360, 262
-0.998664, 433, 55, 496, 70
-0.998664, 297, 205, 360, 220
-0.998666, 297, 89, 360, 104
-0.998667, 217, 89, 280, 104
-0.998669, 185, 229, 248, 244
-0.998671, 241, 81, 304, 96
-0.998671, 273, 87, 336, 102
-0.998672, 25, 107, 88, 122
-0.998672, 193, 213, 208, 244
-0.998672, 225, 245, 240, 276
-0.998672, 201, 153, 264, 168
-0.998673, 81, 169, 208, 200
-0.998674, 161, 195, 224, 210
-0.998674, 129, 87, 192, 102
-0.998676, 409, 65, 472, 80
-0.998681, 225, 247, 288, 262
-0.998682, 49, 107, 112, 122
-0.998682, 161, 241, 224, 256
-0.998683, 281, 241, 296, 272
-0.998683, 169, 211, 232, 226
-0.998684, 241, 93, 304, 108
-0.998684, 193, 219, 256, 234
-0.998686, 241, 173, 304, 188
-0.998686, 201, 159, 264, 174
-0.998686, 153, 161, 216, 176
-0.99869, 313, 107, 376, 122
-0.998694, 269, 173, 284, 204
-0.998694, 129, 125, 256, 156
-0.998695, 425, 41, 488, 56
-0.998695, 137, 221, 200, 236
-0.998697, 105, 183, 168, 198
-0.998697, 257, 197, 320, 212
-0.998698, 249, 167, 312, 182
-0.9987, 129, 205, 192, 220
-0.998701, 433, 99, 496, 114
-0.998702, 161, 235, 224, 250
-0.998702, 153, 81, 216, 96
-0.998703, 337, 101, 400, 116
-0.998703, 409, 59, 472, 74
-0.998704, 161, 249, 224, 264
-0.998705, 425, 87, 488, 102
-0.998705, 209, 165, 272, 180
-0.998705, 369, 45, 496, 76
-0.998705, 433, 81, 496, 96
-0.998709, 65, 101, 128, 116
-0.99871, 297, 193, 312, 224
-0.998711, 289, 105, 352, 120
-0.998711, 137, 215, 200, 230
-0.998712, 433, 13, 496, 28
-0.998713, 193, 211, 256, 226
-0.998713, 113, 229, 176, 244
-0.998713, 305, 229, 368, 244
-0.998713, 129, 257, 192, 272
-0.998713, 397, 81, 412, 112
-0.998715, 241, 179, 304, 194
-0.998716, 291, 189, 306, 220
-0.998717, 297, 221, 360, 236
-0.998718, 297, 199, 360, 214
-0.998719, 273, 253, 400, 284
-0.99872, 217, 75, 280, 90
-0.998721, 409, 71, 472, 86
-0.998721, 137, 99, 200, 114
-0.998721, 177, 261, 240, 276
-0.998721, 169, 203, 232, 218
-0.998721, 273, 81, 336, 96
-0.998722, 97, 221, 160, 236
-0.998724, 105, 171, 168, 186
-0.998725, 153, 229, 216, 244
-0.998726, 81, 141, 208, 172
-0.998727, 433, 23, 496, 38
-0.998727, 193, 171, 256, 186
-0.998728, 361, 99, 424, 114
-0.998729, 433, 61, 496, 76
-0.998731, 33, 101, 96, 116
-0.998732, 425, 47, 488, 62
-0.998733, 177, 161, 240, 176
-0.998734, 89, 93, 152, 108
-0.998734, 161, 175, 224, 190
-0.998735, 281, 193, 344, 208
-0.998736, 169, 267, 232, 282
-0.998741, 17, 325, 144, 356
-0.998757, 29, 129, 60, 256
-0.99876, 337, 293, 464, 324
-0.998779, 17, 309, 144, 340
-0.998779, 1, 129, 500, 192
-0.998805, 145, 337, 272, 368
-0.998811, 209, 141, 336, 172
-0.998814, 305, 197, 432, 228
-0.998817, 81, 325, 208, 356
-0.998834, 109, 129, 140, 256
-0.998846, 193, 273, 448, 336
-0.998876, 369, 9, 496, 40
-0.998877, 257, 65, 272, 192
-0.998888, 129, 109, 256, 140
-0.99889, 185, 65, 200, 192
-0.9989, 337, 113, 464, 144
-0.9989, 265, 289, 328, 352
-0.998916, 149, 17, 180, 144
-0.998919, 305, 241, 432, 272
-0.99893, 481, 1, 496, 128
-0.998932, 243, 65, 258, 192
-0.998932, 33, 205, 160, 236
-0.998945, 369, 149, 496, 180
-0.998955, 373, 65, 388, 192
-0.998961, 209, 109, 336, 140
-0.998966, 343, 81, 358, 208
-0.998966, 165, 65, 180, 192
-0.998968, 145, 81, 160, 208
-0.998978, 23, 81, 38, 208
-0.998979, 17, 129, 48, 256
-0.998983, 151, 81, 166, 208
-0.998991, 173, 81, 188, 208
-0.998999, 17, 121, 144, 152
-0.999, 1, 225, 500, 288
-0.999004, 289, 81, 304, 208
-0.999008, 221, 65, 236, 192
-0.999024, 137, 81, 152, 208
-0.999026, 425, 129, 456, 256
-0.999026, 207, 65, 222, 192
-0.999027, 131, 81, 146, 208
-0.999027, 251, 65, 266, 192
-0.999029, 191, 65, 206, 192
-0.99903, 209, 329, 336, 360
-0.999032, 273, 65, 288, 192
-0.999042, 351, 81, 366, 208
-0.999042, 267, 65, 282, 192
-0.999043, 97, 341, 224, 372
-0.999056, 437, 81, 452, 208
-0.999059, 209, 341, 336, 372
-0.999062, 319, 81, 334, 208
-0.999064, 179, 65, 194, 192
-0.999065, 97, 61, 224, 92
-0.999067, 361, 81, 376, 208
-0.999068, 379, 65, 394, 192
-0.999069, 313, 193, 328, 320
-0.99907, 415, 81, 430, 208
-0.999072, 423, 81, 438, 208
-0.999072, 279, 65, 294, 192
-0.999072, 273, 265, 400, 296
-0.999074, 429, 81, 444, 208
-0.999076, 409, 81, 424, 208
-0.999078, 295, 81, 310, 208
-0.999078, 237, 65, 252, 192
-0.999081, 313, 81, 328, 208
-0.999082, 201, 65, 216, 192
-0.999083, 227, 65, 242, 192
-0.999093, 399, 81, 414, 208
-0.999098, 209, 157, 336, 188
-0.999102, 159, 81, 174, 208
-0.999104, 161, 285, 288, 316
-0.999104, 123, 81, 138, 208
-0.999104, 81, 125, 208, 156
-0.999105, 367, 65, 382, 192
-0.999114, 253, 161, 268, 288
-0.999122, 1, 345, 128, 375
-0.999123, 305, 81, 320, 208
-0.999127, 455, 49, 470, 176
-0.999133, 177, 297, 304, 328
-0.999137, 457, 145, 488, 272
-0.999138, 17, 81, 32, 208
-0.999148, 385, 81, 400, 208
-0.999153, 215, 65, 230, 192
-0.999153, 393, 81, 408, 208
-0.999157, 475, 1, 490, 128
-0.99916, 461, 33, 476, 160
-0.999168, 443, 81, 458, 208
-0.999168, 321, 145, 448, 176
-0.999174, 129, 325, 256, 356
-0.999174, 273, 313, 400, 344
-0.999187, 117, 81, 132, 208
-0.999192, 65, 73, 192, 104
-0.99921, 325, 81, 340, 208
-0.999211, 467, 33, 482, 160
-0.999212, 353, 325, 480, 356
-0.999223, 277, 177, 292, 304
-0.99923, 217, 193, 232, 320
-0.999234, 81, 313, 208, 344
-0.999241, 267, 209, 282, 336
-0.999241, 337, 81, 352, 208
-0.999243, 53, 97, 68, 224
-0.999245, 449, 65, 464, 192
-0.999247, 29, 81, 44, 208
-0.999247, 171, 177, 186, 304
-0.999247, 225, 293, 352, 324
-0.99925, 5, 97, 20, 224
-0.999253, 287, 177, 302, 304
-0.999257, 11, 97, 26, 224
-0.999266, 249, 225, 264, 352
-0.999267, 261, 209, 276, 336
-0.999271, 59, 97, 74, 224
-0.999282, 243, 209, 258, 336
-0.999283, 35, 97, 50, 224
-0.999283, 43, 97, 58, 224
-0.999284, 331, 97, 346, 224
-0.999285, 97, 157, 224, 188
-0.999292, 49, 269, 176, 300
-0.999299, 67, 97, 82, 224
-0.999301, 65, 257, 192, 288
-0.999303, 305, 193, 320, 320
-0.999304, 337, 305, 464, 336
-0.999308, 103, 97, 118, 224
-0.99931, 89, 97, 104, 224
-0.999311, 289, 325, 416, 356
-0.999312, 195, 193, 210, 320
-0.99932, 177, 193, 192, 320
-0.999324, 77, 97, 92, 224
-0.999324, 147, 145, 162, 272
-0.999325, 177, 129, 192, 256
-0.99933, 289, 345, 416, 375
-0.99933, 201, 209, 216, 336
-0.999331, 109, 81, 124, 208
-0.999332, 97, 97, 112, 224
-0.999339, 247, 113, 262, 240
-0.99934, 167, 129, 182, 256
-0.999347, 145, 137, 272, 168
-0.999351, 257, 113, 272, 240
-0.999358, 369, 345, 496, 375
-0.999363, 83, 97, 98, 224
-0.999365, 273, 141, 400, 172
-0.999368, 293, 209, 308, 336
-0.99937, 299, 177, 314, 304
-0.999371, 129, 313, 256, 344
-0.999377, 49, 345, 176, 375
-0.999384, 65, 297, 192, 328
-0.999386, 351, 33, 366, 160
-0.99939, 287, 225, 302, 352
-0.999391, 281, 225, 296, 352
-0.999392, 185, 209, 200, 336
-0.999394, 273, 225, 288, 352
-0.999395, 331, 49, 346, 176
-0.999398, 241, 145, 256, 272
-0.9994, 141, 129, 156, 256
-0.999407, 359, 33, 374, 160
-0.999409, 289, 301, 416, 332
-0.999411, 5, 129, 36, 256
-0.999416, 273, 285, 400, 316
-0.999416, 259, 161, 274, 288
-0.999422, 231, 209, 246, 336
-0.999424, 223, 193, 238, 320
-0.999433, 11, 49, 26, 176
-0.999435, 207, 209, 222, 336
-0.999435, 267, 161, 282, 288
-0.999437, 33, 169, 160, 200
-0.999447, 319, 193, 334, 320
-0.999448, 237, 209, 252, 336
-0.99945, 277, 129, 292, 256
-0.999454, 165, 177, 180, 304
-0.999455, 285, 33, 300, 160
-0.999456, 387, 33, 402, 160
-0.999457, 193, 309, 320, 340
-0.999457, 255, 209, 270, 336
-0.999465, 1, 193, 128, 320
-0.999466, 1, 49, 16, 176
-0.999471, 313, 129, 328, 256
-0.999474, 225, 145, 240, 272
-0.999477, 81, 113, 208, 144
-0.999478, 313, 33, 328, 160
-0.999478, 415, 33, 430, 160
-0.999484, 289, 129, 304, 256
-0.999486, 153, 161, 168, 288
-0.999491, 35, 49, 50, 176
-0.999492, 171, 33, 186, 160
-0.999497, 421, 33, 436, 160
-0.999505, 33, 141, 160, 172
-0.999509, 407, 33, 422, 160
-0.999509, 291, 33, 306, 160
-0.99951, 319, 33, 334, 160
-0.999511, 49, 285, 176, 316
-0.999515, 113, 293, 240, 324
-0.999515, 397, 33, 412, 160
-0.999517, 247, 161, 262, 288
-0.999519, 297, 33, 312, 160
-0.999521, 1, 261, 128, 292
-0.999525, 265, 113, 280, 240
-0.999527, 431, 33, 446, 160
-0.999537, 447, 97, 462, 112
-0.999537, 279, 89, 294, 104
-0.999538, 455, 79, 470, 94
-0.999538, 57, 109, 72, 124
-0.999538, 331, 99, 346, 114
-0.999539, 223, 241, 238, 256
-0.999539, 93, 107, 108, 122
-0.999539, 229, 183, 244, 198
-0.999539, 139, 97, 154, 112
-0.999541, 173, 207, 188, 222
-0.999541, 301, 99, 316, 114
-0.999541, 253, 191, 268, 206
-0.999542, 213, 257, 228, 272
-0.999542, 395, 99, 410, 114
-0.999542, 9, 109, 24, 124
-0.999542, 287, 243, 302, 258
-0.999543, 267, 85, 282, 100
-0.999543, 103, 107, 118, 122
-0.999543, 321, 229, 448, 260
-0.999543, 321, 99, 336, 114
-0.999544, 475, 21, 490, 36
-0.999545, 421, 93, 436, 108
-0.999545, 197, 235, 212, 250
-0.999546, 473, 41, 488, 56
-0.999547, 261, 235, 276, 250
-0.999547, 301, 209, 316, 224
-0.999548, 35, 109, 50, 124
-0.999548, 203, 219, 218, 234
-0.999548, 253, 241, 268, 256
-0.999548, 147, 181, 162, 196
-0.999549, 279, 83, 294, 98
-0.999549, 259, 171, 274, 186
-0.99955, 221, 81, 236, 96
-0.99955, 243, 231, 258, 246
-0.99955, 401, 95, 416, 110
-0.99955, 307, 245, 322, 260
-0.999551, 113, 99, 128, 114
-0.999552, 235, 237, 250, 252
-0.999553, 159, 175, 174, 190
-0.999553, 175, 91, 190, 106
-0.999554, 29, 105, 44, 120
-0.999555, 309, 201, 324, 216
-0.999555, 143, 217, 158, 232
-0.999557, 307, 239, 322, 254
-0.999557, 87, 107, 102, 122
-0.999559, 341, 101, 356, 116
-0.999559, 337, 257, 464, 288
-0.99956, 467, 33, 482, 48
-0.99956, 307, 219, 322, 234
-0.999561, 175, 83, 190, 98
-0.999562, 137, 213, 152, 228
-0.999563, 1, 241, 64, 368
-0.999563, 287, 97, 302, 112
-0.999564, 121, 91, 136, 106
-0.999565, 113, 105, 128, 120
-0.999565, 469, 49, 484, 64
-0.999566, 245, 175, 260, 190
-0.999567, 145, 103, 160, 118
-0.999568, 157, 187, 172, 202
-0.999568, 437, 101, 452, 116
-0.999569, 281, 227, 296, 242
-0.99957, 235, 91, 250, 106
-0.99957, 155, 167, 170, 182
-0.999571, 485, 13, 500, 28
-0.999572, 329, 105, 344, 120
-0.999573, 261, 229, 276, 244
-0.999573, 297, 235, 312, 250
-0.999574, 207, 213, 222, 228
-0.999574, 49, 153, 176, 184
-0.999576, 449, 103, 464, 118
-0.999576, 379, 87, 394, 102
-0.999578, 369, 281, 496, 312
-0.999578, 195, 77, 210, 92
-0.999578, 229, 89, 244, 104
-0.999581, 351, 91, 366, 106
-0.999583, 239, 85, 254, 100
-0.999584, 363, 91, 378, 106
-0.999587, 295, 97, 310, 112
-0.999587, 17, 105, 32, 120
-0.999589, 317, 229, 332, 244
-0.999591, 225, 277, 352, 308
-0.999591, 219, 257, 234, 272
-0.999591, 463, 53, 478, 68
-0.999592, 215, 77, 230, 92
-0.999594, 159, 91, 174, 106
-0.999594, 243, 241, 258, 256
-0.999596, 203, 225, 218, 240
-0.999596, 427, 95, 442, 110
-0.999597, 121, 97, 136, 112
-0.999601, 407, 93, 422, 108
-0.999602, 253, 171, 268, 186
-0.999602, 415, 91, 430, 106
-0.999603, 275, 241, 290, 256
-0.999603, 1, 293, 128, 324
-0.999604, 113, 277, 240, 308
-0.999604, 277, 233, 292, 248
-0.999604, 335, 107, 350, 122
-0.999606, 385, 91, 400, 106
-0.999608, 309, 207, 324, 222
-0.999609, 317, 241, 332, 256
-0.999609, 261, 241, 276, 256
-0.99961, 141, 181, 156, 196
-0.99961, 267, 239, 282, 254
-0.999614, 23, 105, 38, 120
-0.999614, 253, 85, 268, 100
-0.999615, 211, 227, 226, 242
-0.999616, 393, 129, 424, 256
-0.999616, 245, 85, 260, 100
-0.999616, 41, 107, 56, 122
-0.999617, 185, 81, 200, 96
-0.999618, 239, 187, 254, 202
-0.999618, 481, 21, 496, 36
-0.99962, 217, 221, 232, 236
-0.999623, 281, 239, 296, 254
-0.999624, 313, 95, 328, 110
-0.999628, 127, 91, 142, 106
-0.999631, 153, 181, 168, 196
-0.999632, 205, 73, 220, 88
-0.999633, 215, 251, 230, 266
-0.999633, 369, 209, 432, 336
-0.999634, 307, 213, 322, 228
-0.999635, 453, 59, 468, 74
-0.999642, 249, 185, 264, 200
-0.999642, 357, 89, 372, 104
-0.999643, 3, 107, 18, 122
-0.999644, 473, 27, 488, 42
-0.999648, 321, 281, 448, 312
-0.999648, 271, 233, 286, 248
-0.999649, 313, 247, 328, 262
-0.999655, 209, 221, 224, 236
-0.999655, 273, 83, 288, 98
-0.999656, 313, 213, 328, 228
-0.999658, 165, 87, 180, 102
-0.99966, 373, 87, 388, 102
-0.999664, 287, 233, 302, 248
-0.99967, 147, 175, 162, 190
-0.999673, 273, 165, 400, 196
-0.999673, 153, 173, 168, 188
-0.999677, 345, 91, 360, 106
-0.999685, 33, 193, 160, 224
-0.999689, 305, 101, 432, 132
-0.999695, 253, 235, 268, 250
-0.999699, 319, 93, 334, 108
-0.9997, 313, 219, 328, 234
-0.999733, 25, 241, 88, 368
-0.999762, 113, 33, 240, 96
-0.999782, 337, 209, 464, 240
-0.999788, 1, 249, 128, 280
-0.999798, 369, 221, 496, 252
-0.999805, 17, 81, 144, 112
-0.999839, 369, 269, 496, 300
-1.00001, 449, 129, 480, 375
-1.00004, 1, 33, 500, 96
-1.00006, 469, 129, 500, 375
-1.00018, 89, 177, 152, 304
-1.00021, 437, 129, 468, 256
-1.00029, 1, 153, 500, 216
-1.00036, 1, 41, 256, 104
-1.0004, 89, 241, 152, 368
-1.00061, 409, 177, 472, 304
-1.00073, 393, 225, 456, 352
-1.001, 433, 225, 496, 352
-1.00103, 65, 193, 128, 320
-1.00109, 1, 305, 500, 368
-1.00111, 305, 33, 432, 96
-1.00116, 1, 273, 500, 336
-1.00128, 325, 193, 356, 320
-1.00134, 161, 33, 416, 96
-1.00145, 401, 209, 432, 336
-1.00168, 241, 9, 368, 72
-1.00178, 161, 9, 416, 72
-1.0018, 305, 1, 432, 64
-1.0018, 65, 17, 320, 80
-1.0019, 73, 241, 104, 368
-1.00194, 41, 145, 72, 272
-1.00199, 129, 225, 160, 352
-1.00205, 29, 241, 60, 368
-1.00205, 61, 145, 92, 272
-1.00206, 93, 241, 124, 368
-1.00216, 57, 225, 88, 352
-1.00223, 329, 241, 392, 368
-1.00223, 161, 9, 288, 72
-1.00227, 377, 241, 408, 368
-1.0023, 49, 41, 176, 104
-1.00242, 437, 241, 468, 368
-1.00255, 113, 9, 240, 72
-1.00259, 389, 241, 420, 368
-1.00266, 257, 33, 384, 96
-1.00284, 1, 33, 128, 96
-1.00288, 1, 9, 128, 72
-1.00291, 65, 9, 192, 72
-1.00302, 41, 145, 104, 272
-1.00307, 41, 209, 72, 336
-1.00309, 469, 49, 500, 176
-1.00315, 109, 225, 140, 352
-1.00338, 17, 1, 144, 128
-1.0036, 41, 193, 104, 320
-1.00364, 1, 9, 500, 72
-1.00392, 9, 193, 72, 320
-1.00451, 345, 193, 408, 320
-1.01253, 33, 1, 96, 128
-1.01295, 57, 1, 120, 128
