1891
-0.488063, 1, 65, 500, 320
-0.579199, 161, 1, 416, 334
-0.580964, 257, 1, 500, 334
-0.595906, 1, 1, 500, 334
-0.610211, 161, 65, 416, 320
-0.667369, 1, 1, 256, 334
-0.717146, 257, 65, 500, 320
-0.732231, 65, 65, 320, 320
-0.828812, 1, 145, 500, 272
-0.86393, 161, 129, 416, 256
-0.873045, 225, 65, 352, 320
-0.874337, 177, 65, 304, 320
-0.881527, 65, 161, 320, 288
-0.881719, 241, 1, 368, 334
-0.884591, 1, 193, 500, 320
-0.888347, 177, 1, 304, 334
-0.890288, 273, 65, 400, 320
-0.890807, 257, 129, 500, 256
-0.8913, 321, 1, 448, 334
-0.895268, 337, 65, 464, 320
-0.90162, 129, 65, 256, 320
-0.906851, 129, 1, 256, 334
-0.907467, 97, 161, 224, 288
-0.907533, 161, 145, 288, 272
-0.908717, 209, 129, 336, 256
-0.911849, 177, 145, 240, 272
-0.914158, 81, 1, 208, 334
-0.915211, 161, 177, 416, 304
-0.917663, 81, 65, 208, 320
-0.91837, 289, 129, 416, 256
-0.920174, 337, 129, 464, 256
-0.921871, 369, 1, 496, 334
-0.922426, 217, 145, 280, 272
-0.922891, 65, 209, 320, 334
-0.92349, 385, 129, 448, 256
-0.923743, 257, 177, 500, 304
-0.924225, 113, 161, 176, 288
-0.925139, 361, 129, 424, 256
-0.929506, 49, 177, 112, 304
-0.929963, 33, 177, 160, 304
-0.930733, 73, 177, 136, 304
-0.930801, 153, 145, 216, 272
-0.931081, 337, 145, 400, 272
-0.931132, 305, 129, 368, 256
-0.932021, 33, 65, 160, 320
-0.932424, 17, 1, 144, 334
-0.933066, 257, 145, 320, 272
-0.934405, 209, 177, 336, 304
-0.936008, 1, 97, 500, 224
-0.937215, 65, 113, 320, 240
-0.937954, 153, 169, 216, 232
-0.939663, 281, 129, 344, 256
-0.939826, 185, 193, 248, 320
-0.939995, 185, 201, 248, 264
-0.940992, 305, 177, 432, 304
-0.9412, 41, 193, 104, 256
-0.941203, 193, 145, 256, 208
-0.942774, 313, 145, 376, 208
-0.94427, 177, 177, 240, 240
-0.946386, 409, 145, 472, 272
-0.947483, 369, 121, 432, 184
-0.947547, 121, 169, 184, 232
-0.94791, 241, 137, 304, 200
-0.948162, 361, 145, 424, 208
-0.948261, 289, 137, 352, 200
-0.948529, 145, 193, 272, 320
-0.948889, 193, 81, 448, 208
-0.948906, 81, 209, 144, 272
-0.949115, 225, 169, 288, 232
-0.949462, 249, 209, 312, 272
-0.950399, 345, 185, 408, 248
-0.951032, 161, 201, 224, 264
-0.951189, 97, 185, 160, 248
-0.951452, 385, 153, 448, 216
-0.951472, 281, 209, 344, 272
-0.952062, 81, 209, 208, 334
-0.952345, 73, 177, 136, 240
-0.952485, 289, 185, 352, 248
-0.952652, 217, 145, 280, 208
-0.952884, 265, 137, 328, 200
-0.952942, 121, 193, 184, 256
-0.953111, 153, 193, 216, 320
-0.95322, 209, 193, 272, 256
-0.953855, 345, 121, 408, 184
-0.954503, 161, 145, 224, 208
-0.954976, 273, 161, 336, 224
-0.955367, 353, 177, 480, 304
-0.9557, 209, 193, 272, 320
-0.955871, 41, 217, 104, 280
-0.955919, 337, 145, 400, 208
-0.955923, 321, 185, 384, 248
-0.957363, 329, 193, 392, 320
-0.95738, 257, 193, 384, 320
-0.957809, 113, 113, 240, 240
-0.958284, 97, 161, 160, 224
-0.958444, 273, 193, 336, 320
-0.958705, 1, 193, 64, 320
-0.958873, 1, 201, 64, 264
-0.959242, 257, 97, 320, 224
-0.959419, 233, 97, 296, 224
-0.95978, 201, 97, 264, 224
-0.960093, 369, 177, 432, 304
-0.960646, 97, 209, 160, 334
-0.960698, 201, 169, 264, 232
-0.960819, 193, 145, 224, 272
-0.961016, 217, 217, 280, 280
-0.962056, 213, 145, 244, 272
-0.962444, 409, 137, 472, 200
-0.962608, 197, 153, 228, 216
-0.962642, 177, 169, 208, 232
-0.962954, 17, 129, 144, 256
-0.963029, 209, 81, 336, 208
-0.963396, 433, 145, 496, 272
-0.963689, 113, 169, 240, 232
-0.963717, 97, 201, 224, 264
-0.963758, 297, 193, 360, 320
-0.964143, 161, 97, 288, 224
-0.964202, 273, 81, 400, 208
-0.964398, 225, 129, 256, 256
-0.964415, 209, 137, 336, 200
-0.964879, 33, 193, 160, 256
-0.964985, 73, 233, 136, 296
-0.965521, 217, 145, 248, 208
-0.96554, 177, 145, 208, 272
-0.965675, 305, 209, 368, 272
-0.965754, 273, 145, 400, 208
-0.965808, 321, 81, 448, 208
-0.96582, 161, 145, 288, 208
-0.965838, 25, 193, 88, 320
-0.965846, 49, 169, 112, 232
-0.965857, 321, 129, 448, 192
-0.966732, 177, 97, 240, 224
-0.966979, 241, 193, 304, 320
-0.967028, 121, 161, 152, 288
-0.967129, 205, 177, 236, 240
-0.967699, 413, 129, 444, 192
-0.967706, 145, 193, 272, 256
-0.967747, 369, 81, 432, 208
-0.967796, 149, 161, 180, 224
-0.967852, 89, 129, 152, 256
-0.967901, 389, 129, 420, 256
-0.967906, 209, 169, 336, 232
-0.96797, 101, 177, 132, 304
-0.968087, 249, 161, 312, 224
-0.96813, 137, 145, 200, 208
-0.968211, 77, 161, 108, 288
-0.968277, 133, 161, 164, 224
-0.968389, 217, 193, 248, 256
-0.968541, 265, 185, 328, 248
-0.968565, 209, 201, 336, 264
-0.96867, 385, 193, 448, 256
-0.968675, 289, 185, 416, 248
-0.968782, 101, 193, 132, 256
-0.969134, 409, 161, 472, 224
-0.969212, 337, 153, 464, 216
-0.969214, 293, 145, 324, 272
-0.969417, 153, 161, 184, 288
-0.96998, 65, 169, 192, 232
-0.970019, 153, 97, 216, 224
-0.970045, 161, 169, 288, 232
-0.970143, 353, 129, 384, 256
-0.970207, 65, 113, 192, 240
-0.970273, 337, 209, 400, 272
-0.970299, 337, 145, 368, 208
-0.970357, 317, 145, 348, 208
-0.970367, 409, 113, 440, 240
-0.970427, 369, 129, 400, 256
-0.970555, 165, 145, 196, 272
-0.970784, 129, 113, 192, 240
-0.970823, 113, 185, 144, 248
-0.971134, 161, 177, 192, 240
-0.97119, 185, 145, 216, 208
-0.971342, 281, 145, 312, 272
-0.971442, 241, 161, 272, 288
-0.971456, 161, 201, 192, 264
-0.971645, 49, 217, 176, 280
-0.971661, 229, 145, 260, 208
-0.971922, 325, 185, 356, 248
-0.971964, 217, 121, 280, 184
-0.971989, 277, 209, 308, 272
-0.972005, 121, 161, 152, 224
-0.972047, 265, 137, 296, 200
-0.972139, 293, 129, 324, 192
-0.972139, 193, 177, 224, 240
-0.972268, 401, 129, 432, 192
-0.972376, 265, 145, 296, 272
-0.972385, 241, 209, 272, 272
-0.972564, 305, 129, 336, 256
-0.972582, 361, 209, 424, 272
-0.972776, 141, 185, 172, 248
-0.972799, 337, 97, 400, 224
-0.972857, 245, 137, 276, 200
-0.972902, 305, 137, 336, 200
-0.972908, 277, 129, 308, 192
-0.972924, 161, 153, 192, 216
-0.972998, 329, 129, 360, 256
-0.973043, 193, 121, 256, 184
-0.973254, 89, 201, 120, 264
-0.973307, 101, 217, 132, 280
-0.973321, 321, 121, 384, 184
-0.973407, 177, 193, 208, 256
-0.97345, 409, 97, 472, 224
-0.973463, 309, 209, 340, 272
-0.973484, 265, 193, 296, 256
-0.973485, 289, 209, 320, 272
-0.973511, 141, 161, 172, 288
-0.973791, 225, 177, 256, 304
-0.973795, 129, 185, 160, 248
-0.973826, 357, 145, 388, 208
-0.974098, 253, 145, 284, 272
-0.974123, 65, 201, 96, 264
-0.974151, 373, 145, 404, 208
-0.974283, 61, 177, 92, 304
-0.974327, 89, 177, 120, 304
-0.974538, 253, 217, 284, 280
-0.974601, 45, 201, 76, 264
-0.974831, 289, 209, 416, 272
-0.974893, 201, 201, 232, 264
-0.975012, 337, 185, 464, 248
-0.975036, 105, 217, 168, 280
-0.975036, 153, 225, 216, 288
-0.975195, 233, 169, 264, 232
-0.975455, 389, 121, 420, 184
-0.975502, 341, 129, 372, 256
-0.975642, 17, 225, 80, 288
-0.975672, 177, 193, 208, 320
-0.975883, 193, 65, 256, 320
-0.975887, 161, 217, 288, 280
-0.975908, 193, 225, 256, 288
-0.976048, 385, 185, 416, 248
-0.976054, 401, 153, 432, 216
-0.976086, 17, 169, 144, 232
-0.976106, 77, 209, 108, 272
-0.976139, 417, 153, 448, 216
-0.976256, 313, 65, 376, 320
-0.976278, 357, 177, 388, 240
-0.976378, 65, 129, 128, 256
-0.97638, 109, 161, 140, 224
-0.976402, 209, 193, 240, 320
-0.976487, 345, 185, 376, 248
-0.976516, 85, 169, 116, 232
-0.976543, 241, 65, 304, 320
-0.97667, 113, 145, 240, 208
-0.97687, 49, 241, 112, 304
-0.976883, 189, 201, 220, 264
-0.976917, 289, 113, 352, 176
-0.976935, 225, 217, 256, 280
-0.976954, 313, 81, 376, 208
-0.976969, 273, 65, 336, 320
-0.977054, 281, 81, 344, 208
-0.977203, 129, 217, 192, 280
-0.977273, 317, 129, 348, 256
-0.977295, 373, 121, 404, 184
-0.977882, 281, 161, 312, 224
-0.9779, 421, 129, 452, 256
-0.977913, 229, 193, 260, 256
-0.977969, 385, 177, 416, 304
-0.977978, 121, 209, 184, 334
-0.977983, 273, 121, 400, 184
-0.978015, 113, 209, 144, 272
-0.978181, 73, 153, 136, 216
-0.978366, 249, 233, 312, 296
-0.978437, 349, 177, 380, 304
-0.978509, 385, 65, 448, 320
-0.978526, 389, 145, 420, 208
-0.978529, 33, 129, 96, 256
-0.978615, 237, 113, 268, 240
-0.978863, 369, 129, 496, 192
-0.978935, 205, 129, 236, 192
-0.978943, 25, 201, 56, 264
-0.979074, 297, 185, 328, 248
-0.979161, 169, 65, 232, 320
-0.979616, 281, 233, 344, 296
-0.979852, 249, 161, 280, 224
-0.979947, 309, 185, 340, 248
-0.979983, 209, 225, 336, 288
-0.980005, 369, 177, 400, 240
-0.980005, 197, 193, 228, 320
-0.980024, 261, 169, 292, 232
-0.98011, 1, 145, 64, 272
-0.980237, 217, 65, 280, 320
-0.98029, 393, 193, 456, 320
-0.98031, 397, 193, 428, 256
-0.980331, 217, 169, 248, 232
-0.980429, 81, 233, 112, 296
-0.980532, 17, 177, 80, 240
-0.980707, 177, 217, 208, 280
-0.980875, 297, 161, 328, 224
-0.98099, 433, 97, 496, 224
-0.981118, 113, 225, 240, 288
-0.981147, 257, 113, 320, 176
-0.981159, 173, 145, 204, 208
-0.981168, 69, 177, 100, 240
-0.981206, 97, 169, 128, 232
-0.981261, 253, 193, 284, 256
-0.981337, 433, 161, 496, 224
-0.981384, 113, 209, 144, 334
-0.98148, 337, 65, 400, 320
-0.981565, 433, 145, 464, 272
-0.981681, 409, 161, 440, 288
-0.981835, 281, 97, 312, 224
-0.98192, 77, 209, 108, 334
-0.982004, 369, 81, 496, 208
-0.982097, 49, 193, 80, 320
-0.982273, 165, 193, 196, 320
-0.982317, 373, 201, 404, 264
-0.982325, 49, 225, 80, 288
-0.982426, 361, 121, 392, 184
-0.982477, 293, 97, 324, 224
-0.982647, 269, 97, 300, 224
-0.982741, 65, 225, 96, 288
-0.982768, 209, 113, 336, 176
-0.982892, 397, 177, 428, 304
-0.983054, 361, 65, 424, 320
-0.983066, 429, 137, 460, 200
-0.983121, 149, 217, 180, 280
-0.983309, 265, 217, 296, 280
-0.983375, 361, 177, 392, 304
-0.983408, 205, 97, 236, 224
-0.983435, 301, 193, 332, 320
-0.983671, 53, 177, 84, 240
-0.983729, 125, 209, 156, 272
-0.983924, 145, 65, 208, 320
-0.98417, 1, 217, 128, 280
-0.984232, 313, 193, 344, 320
-0.984327, 329, 121, 360, 184
-0.984339, 393, 113, 456, 176
-0.984492, 33, 193, 288, 256
-0.984687, 161, 121, 288, 184
-0.984921, 329, 217, 360, 280
-0.984967, 337, 177, 368, 304
-0.985104, 385, 217, 416, 280
-0.985193, 229, 121, 260, 184
-0.985204, 373, 177, 404, 304
-0.985243, 125, 209, 156, 334
-0.985281, 449, 145, 480, 272
-0.9854, 325, 177, 356, 304
-0.985406, 285, 185, 316, 248
-0.985421, 97, 241, 160, 304
-0.985451, 249, 97, 280, 224
-0.985522, 317, 121, 348, 184
-0.985693, 1, 49, 500, 176
-0.985721, 337, 209, 464, 272
-0.98585, 193, 97, 224, 224
-0.985884, 409, 65, 472, 320
-0.985885, 193, 137, 448, 200
-0.985915, 109, 129, 140, 256
-0.985916, 345, 209, 376, 272
-0.986071, 305, 233, 368, 296
-0.986189, 29, 193, 60, 320
-0.986296, 217, 121, 248, 184
-0.986409, 97, 169, 352, 232
-0.986471, 97, 65, 352, 192
-0.986609, 257, 233, 384, 296
-0.986926, 409, 185, 472, 248
-0.986985, 145, 113, 176, 240
-0.987012, 165, 225, 196, 288
-0.987026, 213, 217, 244, 280
-0.987084, 409, 177, 440, 240
-0.987134, 305, 1, 368, 334
-0.987232, 1, 241, 128, 304
-0.987265, 225, 1, 288, 334
-0.987282, 305, 113, 336, 176
-0.987366, 185, 1, 248, 334
-0.987442, 349, 121, 380, 184
-0.987509, 153, 177, 216, 208
-0.987511, 1, 169, 500, 232
-0.987514, 461, 145, 492, 272
-0.987519, 289, 193, 320, 320
-0.987538, 277, 193, 308, 320
-0.987553, 249, 221, 312, 252
-0.987557, 281, 1, 344, 334
-0.987617, 169, 121, 232, 184
-0.987699, 313, 145, 376, 176
-0.987713, 345, 149, 408, 180
-0.98778, 281, 217, 344, 248
-0.987847, 385, 141, 448, 172
-0.987879, 185, 185, 248, 216
-0.987902, 65, 241, 192, 304
-0.987911, 133, 113, 164, 240
-0.987974, 129, 201, 192, 232
-0.988003, 385, 153, 448, 184
-0.988051, 73, 65, 136, 320
-0.988092, 41, 197, 104, 228
-0.988095, 185, 209, 248, 240
-0.988104, 361, 129, 424, 160
-0.988176, 105, 169, 168, 200
-0.988206, 105, 185, 168, 216
-0.988254, 265, 193, 296, 320
-0.988273, 169, 229, 232, 260
-0.988396, 73, 197, 136, 228
-0.988441, 65, 177, 128, 208
-0.988496, 121, 65, 184, 320
-0.988511, 41, 217, 104, 248
-0.988522, 121, 113, 152, 240
-0.988601, 257, 1, 320, 334
-0.988616, 89, 209, 152, 240
-0.98865, 193, 225, 256, 256
-0.988651, 429, 161, 460, 224
-0.988659, 129, 201, 384, 264
-0.988662, 385, 129, 448, 160
-0.988689, 225, 221, 288, 252
-0.988694, 37, 225, 68, 288
-0.988728, 177, 197, 240, 228
-0.988767, 181, 97, 212, 224
-0.988772, 57, 229, 120, 260
-0.988778, 201, 145, 264, 176
-0.988882, 337, 213, 400, 244
-0.988889, 185, 173, 248, 204
-0.988892, 289, 137, 352, 168
-0.988895, 193, 157, 256, 188
-0.988902, 301, 233, 332, 296
-0.988918, 369, 165, 432, 196
-0.988954, 433, 129, 496, 192
-0.988958, 345, 185, 408, 216
-0.98905, 305, 221, 368, 252
-0.989065, 145, 161, 208, 192
-0.989091, 225, 177, 288, 208
-0.989105, 153, 217, 216, 248
-0.989118, 145, 137, 176, 200
-0.989192, 161, 149, 224, 180
-0.989233, 225, 81, 256, 208
-0.989234, 153, 209, 184, 334
-0.989275, 65, 213, 128, 244
-0.989284, 1, 169, 256, 232
-0.989323, 1, 201, 64, 232
-0.98935, 81, 237, 144, 268
-0.989353, 329, 1, 392, 334
-0.989378, 65, 145, 192, 208
-0.989397, 345, 173, 408, 204
-0.989408, 233, 137, 296, 168
-0.989422, 265, 141, 328, 172
-0.989454, 329, 161, 392, 192
-0.989469, 153, 189, 216, 220
-0.989541, 209, 205, 272, 236
-0.989551, 153, 205, 216, 236
-0.989567, 305, 209, 368, 240
-0.989595, 113, 137, 176, 200
-0.98963, 129, 181, 192, 212
-0.989667, 1, 193, 500, 256
-0.989682, 41, 185, 104, 216
-0.989685, 105, 237, 168, 268
-0.989693, 281, 229, 344, 260
-0.989708, 145, 229, 208, 260
-0.989726, 309, 81, 340, 208
-0.989745, 289, 149, 352, 180
-0.989749, 97, 65, 160, 320
-0.989756, 17, 177, 48, 304
-0.98977, 305, 185, 368, 216
-0.989841, 217, 189, 280, 220
-0.989856, 193, 161, 448, 224
-0.989867, 169, 161, 232, 192
-0.989891, 105, 197, 168, 228
-0.989904, 389, 81, 420, 208
-0.989912, 193, 133, 256, 164
-0.989929, 257, 209, 320, 240
-0.989961, 337, 129, 400, 160
-0.989969, 97, 225, 160, 256
-0.99005, 377, 81, 408, 208
-0.99005, 41, 177, 72, 240
-0.990058, 257, 129, 320, 160
-0.990125, 225, 233, 288, 264
-0.990128, 409, 153, 472, 184
-0.990156, 329, 225, 392, 256
-0.990193, 361, 1, 424, 334
-0.990228, 33, 229, 96, 260
-0.990236, 273, 165, 336, 196
-0.990245, 277, 233, 308, 296
-0.990274, 225, 185, 480, 248
-0.990369, 281, 205, 344, 236
-0.990375, 237, 209, 268, 334
-0.990392, 321, 173, 384, 204
-0.990443, 337, 201, 400, 232
-0.990465, 313, 233, 344, 296
-0.990517, 305, 161, 368, 192
-0.990522, 289, 233, 320, 296
-0.99056, 249, 173, 312, 204
-0.990583, 369, 185, 432, 216
-0.990614, 385, 1, 448, 334
-0.990655, 129, 241, 192, 304
-0.990661, 237, 233, 268, 296
-0.990679, 305, 197, 368, 228
-0.990736, 273, 97, 400, 160
-0.990745, 369, 217, 432, 248
-0.990769, 137, 1, 200, 334
-0.990795, 81, 165, 144, 196
-0.990804, 409, 141, 472, 172
-0.990812, 97, 145, 352, 208
-0.990822, 25, 177, 56, 240
-0.990841, 233, 209, 296, 240
-0.990861, 121, 221, 184, 252
-0.990864, 465, 161, 496, 224
-0.990886, 337, 81, 368, 208
-0.990938, 409, 165, 472, 196
-0.990996, 165, 97, 196, 224
-0.991064, 41, 245, 104, 276
-0.991156, 1, 193, 32, 320
-0.991173, 453, 161, 484, 224
-0.991194, 305, 233, 368, 264
-0.991201, 193, 237, 256, 268
-0.991229, 41, 65, 104, 320
-0.991246, 33, 217, 288, 280
-0.99125, 249, 233, 312, 264
-0.991265, 369, 197, 432, 228
-0.991275, 161, 1, 224, 334
-0.991281, 17, 213, 80, 244
-0.991319, 337, 105, 464, 168
-0.991334, 281, 193, 344, 224
-0.991365, 197, 225, 228, 288
-0.991381, 169, 241, 232, 272
-0.991405, 17, 189, 80, 220
-0.99141, 97, 129, 128, 256
-0.991431, 161, 225, 416, 288
-0.991436, 1, 145, 500, 208
-0.991436, 393, 177, 456, 208
-0.991489, 313, 133, 376, 164
-0.991513, 217, 157, 280, 188
-0.991518, 129, 241, 192, 272
-0.991637, 73, 249, 136, 280
-0.99164, 161, 241, 288, 304
-0.991679, 121, 157, 184, 188
-0.991691, 265, 153, 328, 184
-0.991757, 169, 137, 232, 168
-0.991797, 337, 133, 464, 164
-0.991806, 353, 229, 416, 260
-0.991842, 211, 153, 226, 216
-0.991845, 289, 125, 352, 156
-0.991859, 241, 113, 272, 176
-0.99186, 241, 149, 304, 180
-0.991877, 81, 181, 208, 212
-0.99188, 77, 177, 108, 208
-0.991908, 241, 221, 368, 252
-0.991914, 197, 181, 228, 212
-0.991918, 325, 141, 356, 172
-0.991957, 237, 225, 268, 256
-0.991966, 309, 217, 340, 248
-0.991974, 129, 185, 256, 216
-0.991984, 369, 117, 432, 148
-0.991993, 385, 141, 416, 172
-0.991998, 249, 225, 280, 256
-0.992004, 141, 161, 156, 224
-0.992007, 9, 225, 72, 256
-0.992016, 249, 197, 312, 228
-0.992018, 77, 213, 108, 244
-0.992021, 241, 161, 304, 192
-0.992026, 133, 169, 164, 200
-0.992041, 117, 185, 148, 216
-0.992047, 209, 209, 240, 240
-0.992058, 393, 197, 456, 228
-0.99206, 233, 125, 296, 156
-0.992066, 197, 169, 228, 200
-0.992071, 349, 81, 380, 208
-0.992094, 137, 121, 200, 184
-0.992099, 17, 197, 144, 228
-0.992108, 201, 161, 216, 224
-0.992116, 97, 197, 128, 228
-0.992117, 113, 121, 240, 184
-0.992126, 101, 209, 132, 240
-0.992129, 305, 145, 432, 176
-0.99213, 389, 125, 420, 156
-0.992134, 181, 177, 212, 208
-0.992134, 209, 185, 240, 216
-0.992134, 289, 217, 320, 248
-0.992146, 209, 141, 336, 172
-0.992149, 257, 209, 500, 272
-0.99216, 313, 145, 344, 176
-0.992161, 113, 233, 144, 296
-0.992163, 373, 129, 404, 160
-0.992174, 361, 201, 392, 264
-0.992186, 97, 205, 224, 236
-0.992188, 421, 177, 452, 304
-0.992188, 197, 229, 228, 260
-0.992193, 157, 177, 188, 208
-0.992193, 341, 145, 372, 176
-0.992193, 41, 173, 104, 204
-0.992195, 85, 201, 116, 232
-0.9922, 393, 153, 424, 184
-0.992201, 321, 225, 352, 256
-0.992214, 221, 145, 252, 176
-0.992216, 161, 209, 192, 240
-0.992224, 145, 161, 176, 192
-0.992227, 85, 189, 116, 220
-0.992229, 409, 141, 440, 172
-0.992232, 97, 173, 128, 204
-0.992232, 45, 225, 76, 256
-0.992235, 145, 181, 176, 212
-0.992245, 41, 213, 72, 244
-0.992253, 41, 145, 72, 272
-0.992254, 365, 81, 396, 208
-0.992264, 357, 161, 388, 192
-0.992267, 65, 181, 96, 212
-0.992272, 117, 205, 148, 236
-0.992282, 369, 161, 400, 192
-0.992282, 101, 229, 132, 260
-0.992285, 193, 169, 208, 232
-0.992304, 197, 193, 228, 224
-0.992307, 201, 141, 232, 172
-0.992316, 121, 165, 152, 196
-0.992319, 205, 157, 236, 188
-0.992319, 149, 233, 180, 264
-0.992329, 353, 149, 384, 180
-0.992333, 281, 181, 344, 212
-0.992336, 85, 229, 116, 260
-0.992339, 417, 153, 448, 184
-0.992343, 185, 149, 216, 180
-0.992344, 177, 193, 208, 224
-0.99235, 193, 221, 320, 252
-0.992351, 221, 229, 252, 260
-0.992352, 385, 197, 416, 228
-0.992359, 219, 177, 234, 240
-0.992362, 129, 185, 160, 216
-0.992381, 133, 197, 164, 228
-0.992381, 265, 221, 296, 252
-0.992384, 297, 141, 328, 172
-0.992386, 177, 221, 208, 252
-0.992393, 197, 209, 228, 240
-0.992395, 373, 145, 404, 176
-0.992397, 149, 193, 180, 224
-0.992412, 373, 213, 404, 244
-0.992415, 209, 197, 240, 228
-0.992421, 209, 225, 240, 256
-0.992426, 109, 169, 140, 200
-0.992435, 249, 185, 312, 216
-0.992443, 397, 141, 428, 172
-0.992455, 253, 193, 284, 320
-0.992457, 229, 177, 260, 208
-0.992466, 89, 213, 120, 244
-0.992472, 13, 201, 44, 264
-0.992474, 333, 157, 364, 188
-0.992478, 81, 229, 208, 260
-0.992479, 309, 157, 340, 188
-0.99248, 181, 205, 212, 236
-0.992481, 405, 157, 436, 188
-0.992503, 277, 221, 308, 252
-0.99253, 401, 129, 432, 160
-0.992536, 73, 197, 104, 228
-0.992544, 373, 173, 404, 204
-0.992544, 361, 181, 392, 212
-0.992553, 17, 241, 80, 272
-0.992555, 101, 241, 132, 272
-0.992557, 333, 225, 364, 256
-0.992561, 101, 185, 132, 216
-0.992565, 61, 233, 92, 264
-0.992568, 289, 205, 320, 236
-0.992572, 241, 213, 272, 244
-0.992578, 441, 161, 472, 224
-0.992581, 221, 133, 252, 164
-0.992584, 341, 173, 372, 204
-0.992587, 41, 201, 72, 232
-0.992591, 321, 213, 352, 244
-0.992593, 309, 229, 340, 260
-0.992593, 165, 161, 196, 192
-0.992602, 241, 133, 272, 164
-0.992605, 221, 217, 252, 248
-0.992606, 421, 141, 452, 172
-0.992612, 157, 221, 188, 252
-0.992614, 57, 213, 88, 244
-0.992617, 345, 217, 376, 248
-0.992637, 281, 133, 312, 164
-0.992638, 233, 145, 264, 176
-0.992644, 245, 173, 276, 204
-0.992654, 57, 201, 88, 232
-0.992657, 381, 157, 412, 188
-0.992658, 393, 213, 456, 244
-0.992668, 265, 133, 296, 164
-0.99267, 209, 173, 240, 204
-0.992676, 349, 193, 380, 224
-0.992682, 211, 177, 226, 240
-0.992686, 73, 229, 104, 260
-0.992694, 385, 217, 416, 248
-0.992696, 185, 165, 216, 196
-0.992697, 29, 201, 60, 232
-0.992702, 169, 177, 200, 208
-0.992709, 417, 1, 480, 334
-0.992725, 145, 221, 176, 252
-0.992726, 89, 241, 120, 272
-0.992728, 329, 185, 360, 216
-0.992736, 285, 145, 316, 176
-0.99276, 137, 217, 168, 280
-0.99277, 273, 169, 304, 200
-0.99277, 161, 197, 192, 228
-0.992772, 229, 205, 260, 236
-0.992777, 33, 209, 160, 240
-0.992781, 297, 233, 328, 264
-0.992785, 253, 137, 284, 168
-0.992788, 97, 169, 224, 200
-0.992793, 269, 209, 300, 240
-0.992797, 229, 193, 260, 224
-0.992797, 317, 181, 348, 212
-0.992799, 381, 185, 412, 216
-0.992809, 433, 149, 496, 180
-0.992812, 109, 185, 124, 248
-0.992827, 121, 233, 152, 264
-0.992827, 297, 165, 328, 196
-0.992831, 33, 221, 160, 252
-0.992832, 309, 133, 340, 164
-0.992834, 45, 189, 76, 220
-0.99284, 433, 161, 496, 192
-0.992842, 361, 133, 392, 164
-0.992847, 201, 185, 216, 248
-0.992852, 361, 201, 392, 232
-0.992855, 115, 193, 130, 256
-0.992866, 245, 237, 276, 268
-0.992866, 373, 201, 404, 232
-0.992867, 113, 217, 144, 248
-0.992868, 289, 161, 416, 192
-0.992869, 161, 233, 192, 264
-0.992914, 97, 249, 160, 280
-0.992916, 393, 117, 456, 148
-0.992952, 433, 65, 496, 320
-0.992958, 353, 149, 480, 180
-0.99296, 171, 177, 186, 240
-0.992969, 221, 145, 236, 208
-0.992979, 81, 193, 208, 224
-0.99306, 1, 65, 256, 192
-0.993073, 291, 209, 306, 272
-0.993089, 227, 145, 242, 208
-0.993094, 425, 129, 488, 160
-0.993106, 441, 97, 472, 224
-0.993108, 417, 193, 480, 320
-0.99315, 217, 241, 280, 304
-0.993157, 121, 185, 136, 248
-0.993178, 129, 229, 256, 260
-0.993179, 147, 161, 162, 224
-0.993181, 397, 185, 412, 248
-0.993192, 177, 177, 192, 240
-0.993202, 221, 201, 236, 264
-0.993214, 165, 161, 180, 224
-0.993215, 89, 153, 152, 184
-0.99323, 209, 173, 336, 204
-0.99327, 1, 217, 500, 280
-0.993271, 9, 177, 72, 208
-0.993277, 413, 129, 428, 192
-0.993284, 377, 229, 440, 260
-0.993285, 209, 209, 336, 240
-0.993293, 423, 129, 438, 192
-0.993309, 329, 117, 392, 148
-0.99333, 289, 133, 416, 164
-0.993373, 105, 209, 120, 272
-0.993402, 81, 217, 208, 248
-0.993414, 417, 193, 480, 224
-0.993416, 209, 121, 272, 152
-0.993425, 165, 193, 180, 256
-0.993438, 367, 145, 382, 208
-0.993449, 175, 153, 190, 216
-0.993452, 135, 161, 150, 224
-0.993466, 145, 213, 272, 244
-0.993482, 113, 1, 176, 334
-0.993489, 159, 177, 174, 240
-0.993534, 265, 113, 296, 176
-0.993535, 145, 165, 272, 196
-0.993554, 33, 185, 160, 216
-0.993559, 287, 129, 302, 192
-0.993577, 165, 217, 180, 280
-0.993589, 273, 241, 336, 272
-0.993616, 1, 201, 32, 264
-0.993618, 417, 181, 480, 212
-0.99362, 257, 209, 272, 272
-0.993635, 289, 221, 416, 252
-0.993654, 113, 145, 176, 176
-0.993657, 29, 145, 60, 272
-0.993658, 319, 137, 334, 200
-0.993669, 137, 209, 168, 334
-0.993671, 297, 137, 312, 200
-0.993693, 49, 161, 112, 192
-0.9937, 305, 233, 432, 296
-0.993705, 225, 113, 480, 176
-0.993731, 177, 201, 192, 264
-0.993739, 421, 81, 452, 208
-0.993744, 325, 137, 340, 200
-0.993762, 385, 217, 448, 280
-0.993779, 369, 97, 432, 160
-0.993786, 401, 105, 432, 168
-0.993816, 171, 201, 186, 264
-0.993823, 49, 169, 176, 200
-0.993829, 145, 133, 208, 164
-0.993835, 137, 145, 200, 176
-0.993839, 217, 245, 280, 276
-0.99384, 177, 153, 304, 184
-0.993842, 337, 161, 464, 192
-0.993862, 329, 237, 392, 268
-0.993875, 93, 241, 124, 304
-0.993876, 131, 193, 146, 256
-0.993894, 195, 193, 210, 256
-0.993909, 311, 209, 326, 272
-0.993915, 129, 137, 160, 200
-0.993938, 183, 169, 198, 232
-0.993951, 321, 177, 448, 208
-0.993951, 307, 129, 322, 192
-0.993967, 235, 145, 250, 208
-0.99397, 137, 185, 152, 248
-0.99398, 361, 145, 376, 208
-0.993984, 121, 209, 136, 272
-0.993985, 155, 153, 170, 216
-0.993997, 89, 1, 152, 334
-0.993998, 313, 153, 328, 216
-0.99401, 47, 201, 62, 264
-0.994014, 13, 177, 44, 240
-0.994014, 329, 97, 392, 160
-0.994045, 387, 177, 402, 240
-0.994047, 177, 185, 304, 216
-0.994052, 129, 153, 256, 184
-0.994114, 289, 209, 416, 240
-0.994117, 161, 197, 288, 228
-0.994125, 269, 137, 284, 200
-0.994185, 257, 189, 384, 220
-0.994192, 33, 1, 96, 334
-0.994205, 227, 185, 242, 248
-0.994209, 249, 209, 264, 272
-0.994212, 315, 185, 330, 248
-0.994251, 65, 1, 128, 334
-0.994255, 379, 137, 394, 200
-0.994279, 177, 233, 304, 264
-0.994281, 257, 145, 384, 176
-0.994284, 181, 121, 212, 184
-0.994291, 373, 137, 388, 200
-0.994315, 337, 137, 352, 200
-0.994319, 263, 209, 278, 272
-0.994319, 285, 209, 300, 272
-0.994342, 429, 129, 444, 192
-0.994354, 103, 185, 118, 248
-0.994358, 113, 217, 128, 280
-0.994368, 245, 137, 260, 200
-0.994376, 203, 137, 218, 200
-0.99438, 407, 129, 422, 192
-0.994397, 347, 145, 362, 208
-0.99443, 153, 177, 168, 240
-0.994451, 213, 201, 228, 264
-0.994457, 65, 241, 192, 272
-0.994476, 127, 161, 142, 224
-0.994489, 77, 201, 92, 264
-0.994503, 393, 121, 408, 184
-0.994524, 263, 129, 278, 192
-0.994563, 279, 137, 294, 200
-0.994578, 253, 129, 268, 192
-0.994582, 351, 193, 366, 256
-0.994593, 365, 177, 380, 240
-0.994635, 319, 161, 334, 224
-0.994649, 121, 161, 136, 224
-0.994651, 87, 217, 102, 280
-0.994669, 207, 201, 222, 264
-0.994674, 245, 169, 260, 232
-0.994715, 325, 193, 340, 256
-0.994717, 193, 113, 224, 176
-0.994729, 389, 145, 404, 208
-0.994735, 191, 145, 206, 208
-0.994746, 17, 65, 80, 320
-0.994759, 69, 201, 84, 264
-0.994768, 227, 209, 242, 272
-0.994808, 331, 137, 346, 200
-0.994823, 17, 233, 144, 264
-0.994843, 161, 141, 288, 172
-0.994879, 355, 145, 370, 208
-0.99488, 95, 193, 110, 256
-0.994882, 321, 189, 448, 220
-0.994901, 209, 129, 336, 160
-0.99491, 25, 153, 88, 216
-0.994911, 389, 201, 404, 264
-0.994935, 99, 217, 114, 280
-0.994963, 201, 209, 216, 272
-0.994987, 317, 209, 332, 272
-0.994987, 237, 217, 252, 280
-0.995006, 303, 153, 318, 216
-0.995028, 359, 177, 374, 240
-0.995032, 241, 233, 368, 264
-0.995032, 297, 209, 312, 272
-0.99504, 401, 137, 416, 200
-0.995041, 55, 201, 70, 264
-0.995062, 419, 153, 434, 216
-0.995071, 33, 241, 288, 304
-0.995079, 339, 185, 354, 248
-0.995126, 125, 233, 156, 296
-0.995127, 143, 185, 158, 248
-0.995141, 433, 153, 448, 216
-0.995178, 403, 193, 418, 256
-0.995188, 279, 201, 294, 264
-0.995199, 209, 129, 224, 192
-0.995201, 377, 185, 392, 248
-0.995203, 309, 185, 324, 248
-0.995208, 275, 169, 290, 232
-0.99522, 397, 217, 428, 280
-0.995224, 189, 201, 204, 264
-0.99525, 253, 113, 284, 176
-0.99525, 387, 121, 402, 184
-0.995261, 289, 161, 304, 224
-0.995264, 373, 161, 388, 224
-0.995268, 267, 169, 282, 232
-0.995273, 313, 129, 328, 192
-0.995285, 271, 193, 286, 256
-0.995285, 305, 209, 320, 272
-0.995286, 241, 161, 368, 192
-0.995314, 215, 129, 230, 192
-0.995324, 325, 161, 340, 224
-0.995328, 63, 209, 78, 272
-0.99534, 243, 201, 258, 264
-0.995353, 413, 153, 428, 216
-0.995357, 433, 193, 496, 256
-0.99536, 333, 161, 348, 224
-0.995409, 233, 185, 248, 248
-0.995411, 197, 137, 212, 200
-0.995431, 395, 153, 410, 216
-0.995479, 261, 169, 276, 232
-0.995482, 285, 105, 316, 168
-0.9955, 37, 201, 52, 264
-0.995522, 379, 161, 394, 224
-0.995538, 407, 153, 422, 216
-0.995544, 153, 201, 168, 264
-0.99556, 81, 225, 96, 288
-0.995619, 209, 197, 336, 228
-0.995688, 17, 129, 48, 256
-0.995909, 273, 173, 400, 204
-0.995974, 17, 245, 144, 276
-0.995997, 1, 1, 500, 128
-0.996008, 9, 1, 72, 334
-0.996072, 97, 121, 352, 184
-0.996109, 5, 145, 36, 272
-0.99611, 209, 97, 272, 160
-0.99617, 405, 65, 436, 192
-0.996234, 289, 121, 416, 152
-0.996237, 369, 233, 496, 296
-0.996238, 129, 241, 256, 272
-0.996247, 85, 113, 116, 240
-0.996385, 337, 213, 464, 244
-0.996391, 321, 81, 352, 208
-0.996403, 205, 153, 220, 184
-0.996436, 113, 249, 240, 312
-0.996445, 205, 165, 220, 196
-0.996486, 247, 221, 262, 252
-0.996539, 261, 225, 276, 256
-0.996559, 417, 105, 480, 168
-0.99656, 169, 217, 184, 248
-0.996583, 255, 217, 270, 248
-0.996608, 159, 229, 174, 260
-0.996616, 213, 181, 228, 212
-0.996642, 1, 145, 128, 208
-0.99665, 399, 193, 414, 224
-0.996661, 205, 193, 220, 224
-0.996672, 115, 209, 130, 240
-0.996695, 143, 165, 158, 196
-0.996698, 93, 145, 124, 208
-0.9967, 221, 185, 236, 216
-0.996708, 395, 125, 410, 156
-0.996736, 199, 185, 214, 216
-0.996741, 465, 97, 496, 224
-0.996749, 1, 177, 32, 240
-0.99676, 205, 181, 220, 212
-0.996761, 315, 213, 330, 244
-0.996772, 329, 141, 344, 172
-0.99678, 153, 181, 168, 212
-0.996791, 221, 65, 252, 320
-0.996798, 333, 225, 348, 256
-0.996817, 325, 65, 356, 320
-0.996823, 1, 145, 256, 208
-0.996836, 197, 173, 212, 204
-0.996845, 377, 125, 392, 156
-0.996866, 113, 65, 240, 192
-0.99692, 219, 153, 234, 184
-0.996921, 399, 141, 414, 172
-0.996927, 353, 145, 368, 176
-0.996931, 211, 161, 226, 192
-0.996945, 369, 173, 496, 204
-0.996957, 363, 161, 378, 192
-0.996969, 301, 65, 332, 320
-0.996971, 369, 161, 384, 192
-0.996972, 139, 185, 154, 216
-0.996974, 215, 193, 230, 224
-0.996978, 205, 209, 220, 240
-0.996987, 45, 213, 60, 244
-0.99699, 245, 65, 276, 320
-0.99699, 337, 201, 464, 232
-0.996991, 321, 221, 336, 252
-0.996993, 199, 149, 214, 180
-0.996995, 309, 221, 324, 252
-0.997004, 383, 125, 398, 156
-0.997014, 131, 205, 146, 236
-0.997023, 107, 209, 122, 240
-0.997037, 81, 157, 208, 188
-0.997041, 125, 209, 140, 240
-0.997042, 203, 225, 218, 256
-0.997048, 199, 197, 214, 228
-0.997054, 107, 237, 122, 268
-0.997061, 405, 145, 420, 176
-0.997061, 431, 141, 446, 172
-0.997065, 213, 141, 228, 172
-0.997071, 45, 201, 60, 232
-0.997071, 289, 233, 416, 264
-0.997079, 115, 237, 130, 268
-0.997081, 151, 161, 166, 192
-0.997083, 317, 141, 332, 172
-0.997083, 237, 217, 252, 248
-0.997089, 95, 181, 110, 212
-0.997091, 181, 65, 212, 320
-0.997096, 377, 161, 392, 192
-0.99711, 161, 177, 176, 208
-0.997111, 197, 65, 228, 320
-0.997112, 95, 201, 110, 232
-0.997113, 187, 177, 202, 208
-0.997114, 89, 181, 104, 212
-0.997121, 411, 141, 426, 172
-0.997123, 101, 237, 116, 268
-0.99713, 93, 213, 108, 244
-0.997144, 103, 225, 118, 256
-0.997157, 409, 225, 472, 288
-0.997163, 179, 209, 194, 240
-0.997165, 75, 181, 90, 212
-0.997172, 137, 169, 152, 200
-0.997177, 89, 197, 104, 228
-0.997184, 221, 197, 236, 228
-0.997192, 391, 141, 406, 172
-0.997192, 165, 197, 180, 228
-0.997193, 163, 217, 178, 248
-0.997195, 311, 141, 326, 172
-0.997198, 221, 209, 236, 240
-0.997206, 199, 209, 214, 240
-0.99721, 197, 161, 212, 192
-0.99721, 377, 201, 392, 232
-0.99721, 267, 221, 282, 252
-0.997219, 339, 225, 354, 256
-0.997221, 145, 185, 160, 216
-0.997223, 231, 221, 246, 252
-0.997227, 53, 213, 68, 244
-0.997229, 57, 129, 88, 256
-0.99725, 379, 213, 394, 244
-0.997257, 253, 229, 268, 260
-0.997259, 345, 65, 376, 320
-0.997271, 389, 205, 404, 236
-0.997273, 423, 153, 438, 184
-0.997273, 111, 197, 126, 228
-0.997274, 79, 209, 94, 240
-0.997286, 225, 145, 240, 176
-0.997287, 343, 141, 358, 172
-0.99729, 389, 125, 404, 156
-0.99729, 103, 197, 118, 228
-0.997298, 301, 217, 316, 248
-0.9973, 327, 225, 342, 256
-0.997301, 115, 221, 130, 252
-0.997306, 323, 145, 338, 176
-0.997308, 169, 237, 184, 268
-0.997314, 335, 141, 350, 172
-0.997315, 143, 197, 158, 228
-0.997326, 227, 185, 242, 216
-0.997327, 363, 149, 378, 180
-0.997327, 385, 161, 400, 192
-0.997328, 101, 177, 116, 208
-0.997334, 285, 65, 316, 320
-0.997342, 125, 169, 140, 200
-0.997358, 393, 65, 424, 320
-0.997364, 209, 229, 224, 260
-0.997367, 193, 145, 208, 176
-0.997376, 133, 185, 148, 216
-0.997383, 225, 225, 240, 256
-0.997387, 403, 129, 418, 160
-0.997394, 373, 173, 388, 204
-0.997399, 385, 137, 400, 168
-0.997416, 393, 217, 408, 248
-0.997425, 95, 169, 110, 200
-0.997426, 363, 185, 378, 216
-0.997434, 433, 153, 448, 184
-0.997444, 67, 185, 82, 216
-0.997456, 359, 173, 374, 204
-0.99747, 121, 185, 136, 216
-0.997473, 295, 221, 310, 252
-0.997476, 231, 137, 246, 168
-0.997476, 197, 225, 212, 256
-0.997482, 283, 129, 298, 160
-0.997489, 285, 221, 300, 252
-0.997494, 89, 169, 104, 200
-0.997496, 107, 185, 122, 216
-0.997511, 419, 133, 434, 164
-0.997511, 213, 209, 228, 240
-0.997513, 47, 225, 62, 256
-0.997515, 365, 173, 380, 204
-0.997515, 393, 185, 408, 216
-0.997515, 257, 233, 500, 296
-0.99752, 237, 65, 268, 192
-0.997528, 237, 145, 252, 176
-0.997531, 191, 209, 206, 240
-0.997538, 173, 205, 188, 236
-0.99754, 353, 193, 368, 224
-0.997544, 113, 141, 240, 172
-0.997589, 161, 129, 288, 160
-0.997603, 161, 97, 288, 160
-0.997625, 313, 65, 344, 320
-0.997658, 1, 173, 128, 204
-0.997662, 405, 65, 436, 320
-0.997684, 353, 121, 480, 152
-0.997728, 269, 65, 300, 320
-0.99783, 257, 65, 288, 320
-0.997838, 417, 65, 448, 320
-0.997907, 337, 225, 464, 256
-0.997921, 373, 65, 404, 320
-0.997937, 369, 189, 496, 220
-0.997952, 233, 65, 264, 320
-0.997972, 433, 193, 464, 320
-0.997979, 1, 121, 500, 184
-0.998047, 453, 97, 484, 224
-0.998049, 203, 145, 218, 272
-0.998109, 25, 249, 88, 312
-0.99811, 357, 65, 388, 320
-0.998177, 153, 249, 216, 312
-0.998186, 169, 65, 200, 320
-0.998229, 1, 113, 256, 176
-0.998254, 209, 65, 240, 320
-0.998259, 215, 145, 230, 272
-0.998306, 227, 145, 242, 272
-0.998318, 345, 151, 408, 166
-0.998319, 385, 157, 448, 172
-0.99833, 313, 147, 376, 162
-0.998336, 273, 217, 336, 232
-0.998344, 185, 187, 248, 202
-0.998355, 185, 199, 248, 214
-0.998363, 185, 193, 248, 208
-0.998369, 153, 179, 216, 194
-0.99839, 369, 147, 432, 162
-0.998391, 313, 157, 376, 172
-0.998391, 369, 127, 432, 142
-0.998391, 129, 199, 192, 214
-0.998392, 249, 219, 312, 234
-0.998394, 65, 191, 128, 206
-0.998395, 41, 213, 104, 228
-0.998396, 81, 211, 144, 226
-0.998403, 233, 97, 296, 160
-0.998404, 385, 141, 448, 156
-0.998404, 73, 241, 136, 256
-0.998408, 297, 141, 360, 156
-0.99841, 73, 179, 136, 194
-0.998413, 57, 219, 120, 234
-0.998421, 385, 163, 448, 178
-0.998422, 233, 143, 296, 158
-0.998423, 221, 145, 236, 272
-0.998423, 177, 213, 240, 228
-0.998423, 81, 197, 144, 212
-0.998425, 305, 185, 368, 200
-0.998427, 377, 133, 440, 148
-0.99843, 153, 237, 216, 252
-0.99843, 161, 203, 224, 218
-0.998431, 177, 147, 240, 162
-0.998432, 161, 155, 224, 170
-0.998432, 345, 157, 408, 172
-0.998432, 41, 197, 104, 212
-0.998433, 33, 221, 96, 236
-0.998434, 121, 235, 184, 250
-0.998434, 161, 191, 224, 206
-0.998439, 353, 183, 416, 198
-0.998439, 65, 121, 192, 184
-0.99844, 193, 181, 256, 196
-0.998443, 225, 219, 288, 234
-0.998443, 337, 223, 400, 238
-0.998446, 249, 225, 312, 240
-0.99845, 233, 129, 248, 256
-0.998451, 195, 129, 210, 256
-0.998452, 361, 233, 424, 296
-0.998454, 399, 129, 414, 256
-0.998457, 193, 231, 256, 246
-0.998457, 185, 205, 248, 220
-0.998458, 297, 227, 360, 242
-0.998459, 105, 169, 168, 184
-0.998461, 193, 141, 256, 156
-0.998461, 137, 165, 200, 180
-0.998462, 273, 137, 336, 152
-0.998466, 201, 155, 264, 170
-0.998466, 297, 221, 360, 236
-0.998467, 337, 143, 400, 158
-0.99847, 105, 189, 168, 204
-0.99847, 201, 147, 264, 162
-0.998473, 305, 215, 368, 230
-0.998474, 129, 181, 192, 196
-0.998474, 41, 191, 104, 206
-0.998478, 169, 231, 232, 246
-0.99848, 273, 211, 336, 226
-0.998482, 41, 231, 104, 246
-0.998482, 113, 241, 176, 256
-0.998483, 117, 161, 132, 288
-0.998485, 345, 189, 408, 204
-0.998487, 81, 217, 144, 232
-0.99849, 105, 183, 168, 198
-0.998491, 193, 173, 256, 188
-0.998492, 93, 195, 124, 210
-0.998492, 177, 231, 208, 246
-0.998492, 389, 219, 420, 234
-0.998492, 65, 221, 96, 236
-0.998493, 41, 207, 104, 222
-0.998494, 301, 233, 332, 248
-0.998494, 101, 231, 132, 246
-0.998494, 57, 185, 120, 200
-0.998495, 369, 159, 400, 174
-0.998496, 217, 191, 280, 206
-0.998496, 305, 185, 336, 200
-0.998496, 413, 161, 444, 176
-0.998496, 365, 205, 396, 220
-0.998497, 229, 225, 260, 240
-0.998497, 185, 147, 216, 162
-0.998498, 297, 139, 328, 154
-0.998498, 273, 223, 336, 238
-0.998498, 197, 149, 228, 164
-0.998499, 345, 165, 408, 180
-0.998499, 289, 211, 320, 226
-0.9985, 189, 145, 204, 272
-0.9985, 353, 157, 384, 172
-0.9985, 117, 189, 148, 204
-0.998501, 241, 177, 272, 192
-0.998502, 193, 225, 256, 240
-0.998502, 217, 137, 280, 152
-0.998502, 141, 167, 172, 182
-0.998502, 161, 197, 224, 212
-0.998502, 153, 217, 216, 232
-0.998502, 201, 221, 232, 236
-0.998503, 401, 133, 432, 148
-0.998504, 225, 225, 288, 240
-0.998504, 113, 205, 176, 220
-0.998504, 81, 229, 112, 244
-0.998505, 401, 163, 432, 178
-0.998505, 337, 209, 400, 224
-0.998505, 73, 173, 136, 188
-0.998505, 89, 235, 152, 250
-0.998505, 305, 163, 368, 178
-0.998506, 137, 173, 168, 188
-0.998506, 221, 231, 252, 246
-0.998507, 249, 213, 312, 228
-0.998508, 409, 159, 472, 174
-0.998509, 89, 241, 120, 256
-0.998509, 153, 209, 216, 224
-0.998509, 241, 137, 304, 152
-0.99851, 257, 139, 288, 154
-0.998511, 61, 197, 92, 212
-0.998511, 161, 163, 224, 178
-0.998511, 101, 221, 132, 236
-0.998512, 357, 189, 388, 204
-0.998512, 57, 213, 88, 228
-0.998513, 361, 141, 424, 156
-0.998513, 369, 213, 400, 228
-0.998513, 209, 149, 240, 164
-0.998515, 81, 179, 112, 194
-0.998516, 73, 203, 136, 218
-0.998517, 49, 239, 112, 254
-0.998518, 129, 201, 160, 216
-0.998518, 389, 199, 420, 214
-0.998519, 177, 205, 208, 220
-0.998519, 337, 137, 400, 152
-0.99852, 345, 223, 376, 238
-0.99852, 389, 133, 420, 148
-0.998521, 193, 219, 256, 234
-0.998522, 305, 191, 368, 206
-0.998522, 197, 233, 228, 248
-0.998522, 357, 165, 388, 180
-0.998523, 341, 153, 372, 168
-0.998523, 305, 211, 336, 226
-0.998524, 1, 203, 64, 218
-0.998524, 225, 145, 256, 160
-0.998526, 169, 173, 232, 188
-0.998527, 305, 161, 336, 176
-0.998527, 289, 233, 352, 248
-0.998527, 281, 163, 344, 178
-0.998528, 217, 177, 280, 192
-0.998529, 193, 161, 256, 176
-0.998529, 117, 183, 148, 198
-0.998529, 185, 189, 216, 204
-0.99853, 265, 143, 328, 158
-0.998531, 57, 187, 88, 202
-0.998531, 417, 139, 448, 154
-0.998532, 217, 183, 280, 198
-0.998532, 69, 213, 100, 228
-0.998532, 85, 203, 116, 218
-0.998534, 209, 161, 240, 176
-0.998534, 401, 151, 464, 166
-0.998534, 337, 217, 400, 232
-0.998535, 209, 213, 240, 228
-0.998536, 321, 229, 384, 244
-0.998538, 153, 225, 216, 240
-0.998538, 57, 225, 120, 240
-0.998539, 225, 197, 288, 212
-0.99854, 217, 203, 280, 218
-0.998541, 289, 153, 352, 168
-0.998541, 145, 231, 208, 246
-0.998541, 241, 225, 272, 240
-0.998542, 285, 217, 316, 232
-0.998542, 197, 195, 228, 210
-0.998543, 221, 187, 252, 202
-0.998544, 117, 211, 148, 226
-0.998544, 301, 145, 316, 272
-0.998545, 197, 155, 228, 170
-0.998546, 77, 219, 108, 234
-0.998546, 337, 203, 400, 218
-0.998546, 137, 187, 168, 202
-0.998548, 105, 213, 168, 228
-0.998548, 229, 219, 260, 234
-0.998549, 301, 149, 332, 164
-0.998551, 329, 181, 392, 196
-0.998552, 157, 221, 188, 236
-0.998552, 97, 175, 160, 190
-0.998554, 209, 161, 224, 288
-0.998554, 193, 213, 224, 228
-0.998555, 305, 207, 368, 222
-0.998555, 257, 169, 320, 184
-0.998555, 153, 185, 216, 200
-0.998556, 81, 247, 144, 262
-0.998556, 373, 145, 404, 160
-0.998556, 373, 133, 404, 148
-0.998557, 209, 203, 240, 218
-0.998557, 149, 161, 180, 176
-0.998557, 185, 183, 216, 198
-0.99856, 381, 155, 412, 170
-0.99856, 385, 127, 416, 142
-0.99856, 217, 239, 280, 254
-0.998562, 149, 235, 180, 250
-0.998562, 101, 177, 132, 192
-0.998563, 217, 181, 248, 196
-0.998563, 249, 237, 312, 252
-0.998564, 409, 167, 472, 182
-0.998566, 421, 153, 452, 168
-0.998568, 65, 233, 128, 248
-0.998569, 309, 227, 340, 242
-0.998569, 225, 231, 288, 246
-0.99857, 289, 145, 304, 272
-0.99857, 241, 175, 304, 190
-0.998571, 197, 165, 228, 180
-0.998573, 69, 183, 100, 198
-0.998573, 205, 143, 236, 158
-0.998573, 137, 171, 200, 186
-0.998574, 197, 207, 228, 222
-0.998574, 105, 195, 168, 210
-0.998574, 69, 191, 100, 206
-0.998575, 157, 227, 188, 242
-0.998576, 389, 149, 420, 164
-0.998576, 209, 209, 272, 224
-0.998576, 53, 221, 84, 236
-0.998577, 85, 173, 116, 188
-0.998577, 309, 219, 340, 234
-0.998577, 309, 141, 340, 156
-0.998578, 361, 197, 424, 212
-0.998579, 81, 211, 112, 226
-0.998579, 377, 113, 392, 240
-0.998579, 209, 197, 240, 212
-0.998581, 193, 167, 256, 182
-0.998582, 93, 189, 124, 204
-0.998582, 101, 241, 132, 256
-0.998582, 337, 195, 400, 210
-0.998583, 105, 215, 136, 230
-0.998585, 93, 215, 124, 230
-0.998586, 193, 241, 256, 256
-0.998588, 369, 181, 400, 196
-0.998588, 289, 147, 352, 162
-0.998589, 41, 213, 72, 228
-0.99859, 81, 185, 144, 200
-0.998591, 381, 209, 412, 224
-0.998591, 269, 217, 300, 232
-0.998592, 81, 193, 112, 208
-0.998593, 237, 145, 268, 160
-0.998593, 393, 157, 424, 172
-0.998596, 127, 161, 142, 288
-0.998596, 389, 139, 420, 154
-0.998598, 337, 159, 368, 174
-0.998599, 181, 145, 196, 272
-0.9986, 407, 129, 422, 256
-0.998601, 167, 161, 182, 288
-0.998603, 117, 205, 148, 220
-0.998603, 245, 219, 276, 234
-0.998604, 317, 185, 348, 200
-0.998605, 41, 223, 72, 238
-0.998607, 313, 145, 328, 272
-0.998608, 297, 217, 328, 232
-0.99861, 121, 167, 152, 182
-0.998613, 241, 145, 256, 272
-0.998614, 373, 127, 404, 142
-0.998614, 387, 145, 402, 272
-0.998615, 137, 181, 168, 196
-0.998616, 145, 195, 176, 210
-0.998618, 321, 153, 352, 168
-0.998624, 209, 189, 240, 204
-0.998627, 369, 151, 400, 166
-0.998627, 177, 177, 208, 192
-0.998628, 341, 147, 372, 162
-0.998631, 321, 227, 352, 242
-0.998634, 307, 145, 322, 272
-0.99864, 209, 155, 240, 170
-0.998641, 353, 149, 384, 164
-0.998643, 367, 129, 382, 256
-0.998646, 93, 209, 124, 224
-0.998652, 321, 145, 352, 160
-0.998653, 197, 189, 228, 204
-0.998653, 175, 161, 190, 288
-0.998657, 317, 159, 348, 174
-0.998658, 193, 173, 224, 188
-0.998661, 157, 179, 188, 194
-0.998672, 359, 129, 374, 256
-0.998676, 161, 161, 176, 288
-0.998681, 221, 151, 252, 166
-0.998684, 17, 157, 144, 188
-0.998692, 81, 65, 112, 320
-0.998695, 233, 177, 248, 304
-0.998696, 295, 145, 310, 272
-0.998698, 283, 145, 298, 272
-0.998701, 105, 209, 136, 224
-0.998705, 157, 65, 188, 320
-0.998709, 195, 177, 210, 304
-0.998709, 409, 155, 440, 170
-0.998715, 81, 161, 96, 288
-0.99873, 205, 183, 236, 198
-0.998738, 351, 129, 366, 256
-0.998764, 263, 145, 278, 272
-0.998772, 393, 129, 408, 256
-0.998773, 247, 145, 262, 272
-0.998776, 413, 113, 428, 240
-0.998777, 111, 161, 126, 288
-0.99878, 429, 65, 460, 320
-0.998784, 137, 65, 168, 320
-0.998788, 133, 161, 148, 288
-0.998797, 91, 177, 106, 304
-0.998801, 341, 129, 356, 256
-0.998802, 269, 145, 284, 272
-0.998805, 103, 177, 118, 304
-0.998812, 255, 145, 270, 272
-0.998813, 223, 193, 238, 320
-0.998817, 377, 161, 392, 288
-0.998831, 333, 129, 348, 256
-0.998832, 145, 145, 160, 272
-0.998847, 105, 65, 136, 320
-0.998848, 97, 177, 112, 304
-0.99885, 423, 129, 438, 256
-0.998861, 323, 129, 338, 256
-0.998875, 275, 145, 290, 272
-0.998888, 351, 177, 366, 304
-0.998892, 177, 245, 304, 276
-0.998904, 139, 177, 154, 304
-0.998914, 113, 129, 240, 160
-0.998915, 155, 161, 170, 288
-0.998918, 75, 177, 90, 304
-0.998919, 125, 65, 156, 320
-0.998927, 117, 209, 132, 334
-0.998993, 399, 177, 414, 304
-0.999021, 189, 193, 204, 320
-0.999027, 433, 129, 448, 256
-0.999032, 123, 209, 138, 334
-0.999049, 109, 209, 124, 334
-0.999057, 69, 177, 84, 304
-0.999063, 295, 97, 310, 224
-0.999066, 209, 113, 224, 240
-0.99908, 201, 209, 216, 334
-0.999081, 1, 241, 500, 304
-0.999091, 289, 97, 304, 224
-0.999095, 315, 193, 330, 320
-0.999097, 181, 193, 196, 320
-0.999123, 215, 97, 230, 224
-0.99913, 283, 97, 298, 224
-0.999148, 239, 193, 254, 320
-0.999153, 225, 97, 240, 224
-0.999167, 63, 193, 78, 320
-0.999168, 53, 193, 68, 320
-0.99917, 323, 209, 338, 334
-0.999179, 307, 97, 322, 224
-0.999181, 413, 161, 428, 288
-0.999186, 407, 177, 422, 304
-0.999187, 393, 193, 408, 320
-0.999189, 343, 193, 358, 320
-0.999196, 303, 193, 318, 320
-0.9992, 367, 177, 382, 304
-0.9992, 445, 65, 476, 320
-0.99921, 433, 225, 496, 288
-0.999217, 275, 97, 290, 224
-0.999218, 263, 97, 278, 224
-0.99923, 47, 177, 62, 304
-0.999232, 247, 97, 262, 224
-0.999233, 173, 209, 188, 334
-0.999235, 441, 145, 456, 272
-0.999236, 383, 97, 398, 224
-0.999236, 457, 65, 488, 320
-0.999239, 257, 97, 272, 224
-0.999248, 69, 65, 100, 320
-0.999256, 449, 145, 464, 272
-0.999259, 207, 209, 222, 334
-0.999265, 269, 97, 284, 224
-0.999266, 167, 209, 182, 334
-0.999274, 53, 65, 84, 320
-0.999277, 455, 145, 470, 272
-0.999279, 461, 145, 476, 272
-0.999286, 309, 193, 324, 320
-0.999287, 333, 209, 348, 334
-0.999287, 469, 65, 500, 320
-0.999287, 357, 177, 372, 304
-0.999295, 213, 209, 228, 334
-0.999303, 301, 97, 316, 224
-0.999304, 85, 209, 100, 334
-0.999305, 279, 193, 294, 320
-0.999313, 383, 193, 398, 320
-0.999324, 173, 113, 188, 240
-0.999324, 467, 145, 482, 272
-0.999326, 35, 193, 50, 320
-0.999328, 239, 97, 254, 224
-0.999336, 149, 193, 164, 320
-0.999346, 289, 193, 304, 320
-0.999349, 479, 145, 494, 272
-0.999358, 159, 209, 174, 334
-0.99936, 49, 145, 176, 176
-0.999361, 485, 145, 500, 272
-0.999364, 135, 113, 150, 240
-0.999364, 473, 145, 488, 272
-0.999365, 201, 97, 216, 224
-0.999365, 129, 209, 144, 334
-0.99938, 295, 193, 310, 320
-0.99938, 245, 193, 260, 320
-0.999388, 41, 209, 56, 334
-0.999389, 409, 209, 440, 334
-0.99939, 369, 81, 496, 144
-0.99941, 433, 177, 448, 304
-0.999417, 407, 81, 422, 208
-0.999424, 421, 81, 436, 208
-0.999451, 267, 193, 282, 320
-0.999462, 233, 81, 248, 208
-0.999462, 153, 113, 168, 240
-0.999473, 273, 193, 288, 320
-0.999476, 127, 113, 142, 240
-0.999487, 103, 129, 118, 256
-0.999489, 165, 113, 180, 240
-0.999489, 129, 249, 384, 312
-0.999491, 41, 161, 56, 288
-0.999507, 65, 253, 192, 284
-0.999584, 93, 65, 124, 320
-0.999651, 369, 109, 496, 140
-0.999659, 209, 249, 336, 312
-0.999679, 261, 223, 276, 238
-0.999679, 247, 145, 262, 160
-0.99968, 317, 229, 332, 244
-0.999681, 187, 177, 202, 192
-0.999682, 115, 221, 130, 236
-0.999682, 369, 181, 384, 196
-0.999683, 339, 225, 354, 240
-0.999684, 363, 183, 378, 198
-0.999684, 127, 165, 142, 180
-0.999685, 405, 157, 420, 172
-0.999687, 169, 179, 184, 194
-0.999688, 121, 219, 136, 234
-0.999689, 221, 203, 236, 218
-0.999689, 153, 229, 168, 244
-0.99969, 79, 177, 94, 192
-0.99969, 193, 197, 208, 212
-0.99969, 431, 153, 446, 168
-0.999691, 335, 183, 350, 198
-0.999691, 155, 237, 170, 252
-0.999691, 45, 223, 60, 238
-0.999691, 223, 145, 238, 160
-0.999691, 325, 153, 340, 168
-0.999692, 393, 133, 408, 148
-0.999692, 353, 155, 368, 170
-0.999692, 141, 165, 156, 180
-0.999693, 301, 217, 316, 232
-0.999693, 151, 189, 166, 204
-0.999694, 91, 173, 106, 188
-0.999694, 307, 231, 322, 246
-0.999695, 359, 165, 374, 180
-0.999696, 325, 185, 340, 200
-0.999697, 317, 143, 332, 158
-0.999698, 53, 221, 68, 236
-0.999698, 103, 215, 118, 230
-0.999698, 89, 211, 104, 226
-0.999698, 109, 189, 124, 204
-0.999699, 393, 125, 408, 140
-0.999699, 41, 65, 72, 320
-0.999701, 107, 239, 122, 254
-0.999702, 95, 193, 110, 208
-0.999702, 385, 211, 400, 226
-0.999702, 195, 203, 210, 218
-0.999703, 171, 233, 186, 248
-0.999704, 71, 185, 86, 200
-0.999705, 315, 213, 330, 228
-0.999706, 401, 151, 416, 166
-0.999706, 393, 219, 408, 234
-0.999707, 385, 149, 400, 164
-0.999707, 77, 213, 92, 228
-0.99971, 359, 149, 374, 164
-0.99971, 163, 223, 178, 238
-0.999711, 141, 181, 156, 196
-0.999711, 205, 209, 220, 224
-0.999712, 229, 187, 244, 202
-0.999713, 139, 199, 154, 214
-0.999713, 369, 151, 384, 166
-0.999715, 357, 189, 372, 204
-0.999717, 219, 157, 234, 172
-0.999717, 391, 155, 406, 170
-0.999718, 145, 197, 160, 212
-0.999719, 163, 235, 178, 250
-0.99972, 311, 225, 326, 240
-0.99972, 433, 141, 448, 156
-0.999721, 323, 227, 338, 242
-0.999721, 151, 179, 166, 194
-0.999722, 233, 49, 296, 176
-0.999722, 121, 185, 136, 200
-0.999722, 197, 167, 212, 182
-0.999724, 375, 151, 390, 166
-0.999726, 161, 177, 176, 192
-0.999727, 221, 197, 236, 212
-0.999727, 169, 225, 184, 240
-0.999727, 377, 203, 392, 218
-0.999729, 147, 163, 162, 178
-0.999729, 241, 145, 256, 160
-0.999729, 213, 203, 228, 218
-0.999729, 291, 215, 306, 230
-0.999729, 335, 161, 350, 176
-0.99973, 97, 211, 112, 226
-0.99973, 199, 181, 214, 196
-0.999732, 313, 151, 328, 166
-0.999732, 193, 177, 208, 192
-0.999732, 179, 217, 194, 232
-0.999733, 343, 145, 358, 160
-0.999736, 125, 211, 140, 226
-0.999738, 211, 157, 226, 172
-0.999738, 169, 213, 184, 228
-0.999739, 109, 215, 124, 230
-0.999739, 399, 197, 414, 212
-0.99974, 319, 185, 334, 200
-0.999741, 349, 147, 364, 162
-0.999742, 107, 209, 122, 224
-0.999742, 215, 197, 230, 212
-0.999745, 253, 219, 268, 234
-0.999745, 231, 149, 246, 164
-0.999745, 323, 159, 338, 174
-0.999747, 333, 227, 348, 242
-0.999749, 343, 153, 358, 168
-0.99975, 45, 213, 60, 228
-0.999753, 395, 139, 410, 154
-0.999754, 207, 177, 222, 192
-0.999754, 205, 183, 220, 198
-0.999755, 225, 151, 240, 166
-0.999756, 115, 215, 130, 230
-0.999757, 131, 205, 146, 220
-0.999759, 113, 209, 128, 224
-0.999766, 259, 217, 274, 232
-0.999768, 397, 191, 412, 206
-0.999768, 319, 153, 334, 168
-0.999773, 205, 155, 220, 170
-0.999774, 247, 223, 262, 238
-0.999774, 207, 203, 222, 218
-0.999774, 209, 163, 224, 178
-0.999775, 313, 219, 328, 234
-0.999776, 199, 173, 214, 188
-0.999789, 411, 155, 426, 170
-0.999794, 115, 239, 130, 254
-0.999794, 311, 185, 326, 200
-0.999802, 221, 185, 236, 200
-0.999803, 161, 229, 176, 244
-0.999805, 203, 161, 218, 176
-0.999807, 377, 127, 392, 142
-0.99981, 199, 187, 214, 202
-0.99981, 213, 183, 228, 198
-0.999814, 119, 207, 134, 222
-0.999816, 169, 219, 184, 234
-0.999821, 203, 167, 218, 182
-0.999822, 193, 117, 320, 148
-0.999824, 353, 237, 480, 268
-0.999829, 199, 195, 214, 210
-0.999839, 69, 113, 100, 240
-0.99984, 289, 109, 416, 140
-0.999841, 221, 191, 236, 206
-0.999842, 205, 193, 220, 208
-0.999847, 421, 157, 436, 172
-0.999874, 201, 203, 216, 218
-0.999883, 445, 193, 476, 320
-0.999898, 241, 245, 368, 276
-0.999926, 113, 253, 240, 284
-0.999946, 241, 117, 368, 148
-1.00004, 369, 305, 496, 334
-1.00006, 289, 305, 416, 334
-1.00008, 1, 65, 32, 320
-1.00012, 89, 129, 152, 192
-1.00016, 13, 65, 44, 320
-1.00017, 97, 97, 352, 160
-1.0002, 113, 97, 240, 160
-1.00021, 29, 65, 60, 320
-1.00024, 345, 49, 408, 176
-1.00026, 225, 305, 352, 334
-1.00032, 257, 273, 384, 334
-1.00041, 145, 117, 272, 148
-1.00049, 461, 193, 492, 320
-1.00057, 329, 233, 392, 296
-1.00061, 1, 53, 128, 84
-1.00062, 65, 133, 192, 164
-1.00064, 1, 73, 128, 104
-1.00064, 17, 257, 144, 288
-1.00067, 225, 61, 352, 92
-1.00068, 289, 245, 416, 276
-1.0007, 145, 45, 272, 76
-1.0007, 177, 305, 304, 334
-1.00072, 49, 145, 112, 208
-1.00072, 289, 53, 416, 84
-1.00073, 97, 53, 224, 84
-1.00075, 81, 69, 208, 100
-1.00077, 369, 265, 496, 328
-1.00077, 369, 45, 496, 76
-1.00077, 273, 33, 400, 160
-1.00078, 289, 69, 416, 100
-1.00078, 369, 69, 496, 100
-1.00082, 193, 49, 320, 80
-1.00082, 113, 1, 240, 32
-1.00083, 241, 49, 368, 80
-1.00083, 49, 81, 176, 112
-1.00083, 113, 33, 240, 64
-1.00083, 209, 65, 336, 128
-1.00084, 161, 33, 288, 64
-1.00084, 289, 41, 416, 72
-1.00084, 33, 17, 160, 48
-1.00085, 257, 81, 384, 112
-1.00085, 193, 93, 320, 124
-1.00085, 113, 21, 240, 52
-1.00085, 337, 57, 464, 88
-1.00086, 161, 65, 288, 96
-1.00086, 209, 33, 336, 64
-1.00086, 353, 269, 480, 300
-1.00087, 49, 53, 176, 84
-1.00087, 1, 85, 128, 116
-1.00087, 49, 37, 176, 68
-1.00088, 1, 41, 128, 72
-1.00088, 321, 97, 448, 128
-1.00088, 177, 81, 304, 112
-1.00089, 337, 257, 464, 288
-1.0009, 273, 269, 400, 300
-1.0009, 113, 81, 240, 112
-1.0009, 225, 89, 480, 152
-1.00092, 369, 33, 496, 64
-1.00092, 49, 93, 176, 124
-1.00092, 177, 285, 304, 316
-1.00092, 305, 281, 432, 312
-1.00093, 177, 13, 304, 44
-1.00093, 97, 101, 224, 132
-1.00093, 17, 133, 144, 164
-1.00093, 129, 285, 256, 316
-1.00094, 1, 1, 128, 32
-1.00094, 273, 93, 400, 124
-1.00094, 1, 121, 128, 152
-1.00094, 225, 273, 352, 304
-1.00095, 161, 273, 416, 334
-1.00096, 129, 273, 256, 304
-1.00096, 129, 301, 256, 332
-1.00096, 273, 1, 400, 32
-1.00097, 145, 97, 272, 128
-1.00097, 49, 117, 176, 148
-1.00099, 1, 49, 128, 112
-1.00121, 293, 49, 324, 176
-1.00128, 161, 33, 288, 96
-1.00137, 257, 265, 500, 328
-1.00144, 185, 97, 248, 160
-1.00151, 185, 49, 248, 176
-1.00151, 65, 49, 320, 112
-1.00155, 225, 89, 352, 152
-1.00158, 305, 273, 432, 334
-1.00159, 209, 33, 336, 96
-1.00161, 177, 273, 304, 334
-1.00162, 49, 73, 176, 136
-1.00163, 185, 249, 248, 312
-1.00165, 33, 25, 160, 88
-1.00166, 225, 49, 480, 112
-1.00167, 33, 273, 288, 334
-1.00172, 369, 33, 496, 96
-1.00173, 161, 73, 288, 136
-1.00174, 113, 65, 240, 128
-1.00182, 33, 25, 288, 88
-1.00182, 321, 65, 448, 128
-1.00182, 225, 9, 480, 72
-1.00185, 273, 49, 400, 112
-1.00189, 129, 1, 384, 64
-1.00193, 97, 33, 224, 96
-1.00195, 97, 73, 352, 136
-1.00196, 129, 25, 384, 88
-1.00197, 369, 57, 496, 120
-1.00197, 1, 105, 128, 168
-1.00206, 129, 273, 256, 334
-1.0021, 161, 49, 288, 176
-1.00214, 289, 25, 416, 88
-1.00214, 33, 1, 288, 64
-1.00217, 161, 9, 288, 72
-1.0022, 393, 89, 456, 152
-1.00223, 369, 1, 496, 64
-1.00225, 1, 89, 256, 152
-1.00234, 33, 265, 160, 328
-1.00239, 241, 9, 368, 72
-1.00239, 1, 73, 128, 136
-1.00244, 81, 9, 208, 72
-1.00254, 1, 97, 500, 160
-1.00255, 49, 49, 176, 112
-1.00255, 81, 273, 208, 334
-1.00258, 17, 1, 144, 64
-1.00272, 385, 241, 448, 304
-1.00277, 1, 273, 500, 334
-1.00277, 321, 1, 448, 64
-1.00281, 273, 49, 304, 176
-1.00309, 257, 89, 320, 152
-1.00331, 273, 73, 400, 136
-1.00333, 1, 33, 500, 96
-1.00339, 257, 49, 320, 176
-1.00345, 49, 97, 176, 160
-1.00367, 1, 65, 500, 128
-1.00373, 1, 9, 500, 72
-1.00388, 213, 49, 244, 176
-1.00395, 101, 81, 132, 208
-1.00419, 73, 257, 136, 320
-1.00452, 129, 65, 160, 192
-1.00458, 253, 49, 284, 176
-1.00504, 233, 273, 296, 334
-1.00515, 129, 65, 192, 192
-1.00515, 353, 33, 480, 160
-1.00535, 149, 65, 180, 192
-1.00539, 197, 49, 228, 176
-1.00541, 105, 81, 168, 208
-1.00541, 9, 57, 72, 120
-1.00545, 305, 273, 368, 334
-1.00552, 265, 273, 328, 334
-1.00559, 1, 153, 64, 216
-1.00571, 345, 273, 408, 334
-1.00587, 425, 265, 488, 328
-1.00592, 389, 33, 420, 160
-1.00594, 409, 49, 472, 176
-1.00614, 193, 33, 448, 160
-1.00616, 357, 33, 388, 160
-1.00621, 201, 273, 264, 334
-1.00644, 281, 89, 344, 152
-1.00649, 161, 97, 224, 160
-1.00652, 185, 25, 248, 88
-1.00652, 433, 41, 496, 104
-1.00655, 73, 81, 136, 208
-1.00657, 209, 49, 272, 176
-1.00661, 273, 65, 336, 128
-1.00664, 409, 33, 472, 96
-1.00664, 33, 49, 96, 112
-1.00668, 385, 273, 448, 334
-1.00687, 377, 33, 408, 160
-1.00687, 385, 41, 448, 104
-1.00689, 49, 65, 176, 192
-1.00697, 185, 49, 216, 176
-1.00716, 9, 33, 72, 96
-1.00724, 225, 57, 288, 120
-1.0074, 433, 65, 496, 128
-1.0074, 153, 273, 216, 334
-1.00749, 257, 33, 320, 96
-1.00753, 369, 65, 432, 128
-1.00754, 233, 25, 296, 88
-1.00754, 145, 33, 208, 96
-1.00754, 361, 33, 424, 96
-1.00754, 1, 81, 64, 144
-1.00761, 201, 49, 264, 112
-1.00763, 57, 81, 120, 144
-1.00763, 33, 105, 96, 168
-1.00763, 121, 265, 184, 328
-1.00763, 153, 17, 184, 144
-1.0077, 433, 1, 496, 64
-1.0077, 249, 57, 312, 120
-1.0077, 65, 1, 192, 128
-1.00773, 421, 33, 452, 160
-1.00778, 1, 1, 256, 128
-1.0078, 193, 1, 320, 128
-1.00784, 129, 9, 192, 72
-1.00784, 305, 49, 368, 112
-1.00784, 81, 89, 144, 152
-1.00793, 305, 33, 336, 160
-1.00802, 169, 1, 200, 128
-1.00812, 97, 1, 352, 128
-1.00826, 181, 1, 212, 128
-1.00829, 57, 81, 88, 208
-1.00837, 437, 49, 468, 176
-1.00841, 5, 97, 36, 224
-1.00842, 141, 1, 172, 128
-1.00842, 113, 1, 240, 128
-1.00854, 29, 97, 60, 224
-1.00861, 89, 33, 120, 160
-1.00862, 21, 17, 52, 144
-1.0087, 169, 49, 200, 176
-1.00877, 109, 1, 140, 128
-1.00878, 161, 49, 224, 176
-1.00885, 193, 1, 224, 128
-1.00885, 45, 97, 76, 224
-1.00886, 217, 1, 248, 128
-1.00888, 5, 49, 36, 176
-1.00888, 37, 49, 68, 176
-1.00892, 369, 33, 432, 160
-1.00902, 73, 49, 104, 176
-1.00904, 17, 17, 144, 144
-1.01166, 1, 81, 128, 208
-1.01192, 9, 97, 72, 224
-1.0124, 153, 1, 216, 128
-1.01244, 41, 1, 104, 128
-1.01244, 105, 1, 168, 128
-1.01255, 289, 33, 352, 160
-1.0128, 313, 1, 376, 128
-1.01283, 193, 1, 256, 128
-1.01283, 1, 33, 64, 160
-1.01293, 65, 1, 128, 128
-1.01299, 33, 81, 96, 208
-1.01322, 129, 1, 192, 128
-1.01357, 345, 1, 408, 128
-1.01364, 257, 1, 320, 128
-1.0138, 393, 1, 456, 128
-1.01471, 425, 1, 488, 128
-1.01487, 217, 1, 280, 128
-1.01652, 433, 49, 496, 176
