1902
-0.39638, 1, 1, 332, 500
-0.436888, 1, 193, 332, 448
-0.507546, 33, 1, 288, 500
-0.511432, 1, 97, 332, 352
-0.541704, 1, 1, 332, 256
-0.643551, 65, 161, 320, 416
-0.744464, 33, 257, 288, 500
-0.841408, 65, 65, 320, 320
-0.855572, 209, 193, 332, 448
-0.876224, 1, 257, 332, 384
-0.876851, 1, 225, 128, 480
-0.888673, 209, 1, 332, 500
-0.890897, 129, 1, 256, 500
-0.892241, 1, 209, 332, 336
-0.89439, 161, 257, 288, 500
-0.894964, 145, 161, 272, 416
-0.900834, 65, 1, 192, 500
-0.90173, 49, 161, 176, 416
-0.907326, 17, 1, 144, 500
-0.908365, 97, 225, 224, 480
-0.908993, 65, 273, 320, 400
-0.911986, 177, 1, 304, 256
-0.914962, 1, 161, 332, 288
-0.91503, 33, 209, 288, 336
-0.915392, 1, 97, 128, 352
-0.92184, 49, 257, 176, 500
-0.923474, 1, 1, 332, 128
-0.923482, 193, 97, 320, 352
-0.927343, 209, 209, 332, 336
-0.931943, 1, 305, 332, 432
-0.936149, 33, 161, 288, 288
-0.936611, 145, 289, 272, 416
-0.936679, 1, 113, 332, 240
-0.936975, 129, 1, 256, 256
-0.938118, 97, 129, 224, 384
-0.938245, 65, 1, 320, 128
-0.939791, 193, 289, 256, 416
-0.941232, 81, 273, 208, 400
-0.941378, 49, 65, 176, 320
-0.942562, 1, 241, 128, 368
-0.944697, 81, 273, 144, 400
-0.945855, 1, 1, 128, 256
-0.94601, 57, 209, 120, 336
-0.947099, 257, 209, 320, 336
-0.947108, 33, 321, 288, 448
-0.949186, 1, 289, 128, 416
-0.949206, 113, 273, 176, 400
-0.950249, 1, 369, 332, 496
-0.950589, 169, 289, 232, 416
-0.951312, 209, 257, 332, 384
-0.951975, 241, 161, 304, 288
-0.952866, 97, 265, 160, 328
-0.953053, 33, 225, 96, 352
-0.953899, 209, 1, 272, 128
-0.954373, 49, 209, 176, 336
-0.95464, 201, 273, 264, 336
-0.955796, 57, 257, 120, 384
-0.955987, 233, 209, 296, 336
-0.956507, 73, 273, 136, 336
-0.956646, 177, 1, 304, 128
-0.957018, 145, 289, 208, 416
-0.957624, 177, 289, 240, 352
-0.957849, 201, 241, 264, 368
-0.958342, 145, 177, 272, 304
-0.959423, 209, 161, 332, 288
-0.959525, 105, 289, 168, 352
-0.959695, 73, 305, 136, 368
-0.960426, 81, 193, 144, 320
-0.961338, 265, 161, 328, 288
-0.96236, 105, 321, 168, 448
-0.96286, 201, 177, 264, 304
-0.962911, 241, 217, 304, 280
-0.963297, 17, 273, 80, 336
-0.964305, 97, 321, 224, 448
-0.964508, 137, 289, 200, 352
-0.964518, 161, 313, 224, 376
-0.965533, 233, 257, 296, 384
-0.965754, 129, 1, 256, 128
-0.965777, 265, 217, 328, 280
-0.966059, 209, 305, 332, 432
-0.966089, 209, 281, 240, 344
-0.966175, 1, 209, 64, 272
-0.966893, 65, 81, 320, 208
-0.967342, 49, 321, 176, 448
-0.9675, 145, 353, 272, 480
-0.967582, 1, 145, 128, 272
-0.967583, 9, 241, 72, 368
-0.967824, 225, 1, 288, 64
-0.967849, 233, 305, 296, 432
-0.968075, 33, 273, 96, 400
-0.968694, 177, 113, 304, 240
-0.969055, 97, 225, 224, 352
-0.969134, 201, 9, 264, 72
-0.969207, 185, 313, 248, 376
-0.96927, 57, 241, 120, 304
-0.969825, 89, 241, 152, 304
-0.970102, 41, 305, 104, 368
-0.970322, 177, 1, 240, 128
-0.970349, 217, 289, 248, 416
-0.9705, 137, 313, 200, 376
-0.970568, 161, 241, 288, 368
-0.970741, 97, 313, 160, 376
-0.971047, 1, 177, 64, 304
-0.971358, 233, 1, 296, 128
-0.971514, 233, 193, 296, 448
-0.971544, 161, 241, 224, 368
-0.971751, 1, 233, 64, 296
-0.971833, 233, 345, 296, 408
-0.971845, 225, 305, 288, 368
-0.972023, 1, 49, 332, 176
-0.972141, 209, 217, 332, 280
-0.972423, 25, 201, 88, 264
-0.972643, 145, 425, 208, 488
-0.972794, 201, 209, 264, 272
-0.973038, 121, 249, 184, 312
-0.973062, 205, 273, 236, 400
-0.973131, 41, 281, 104, 344
-0.97318, 209, 265, 332, 328
-0.973222, 177, 1, 240, 64
-0.973494, 129, 337, 192, 464
-0.97352, 1, 185, 64, 248
-0.973634, 273, 289, 332, 416
-0.973847, 257, 193, 320, 448
-0.973856, 217, 353, 280, 480
-0.97399, 25, 225, 88, 480
-0.97412, 105, 225, 168, 352
-0.974325, 217, 129, 280, 256
-0.974853, 193, 353, 320, 480
-0.975088, 85, 257, 116, 384
-0.975132, 193, 289, 224, 352
-0.975185, 177, 265, 240, 328
-0.9752, 137, 337, 200, 400
-0.975218, 57, 305, 120, 432
-0.975523, 33, 241, 96, 304
-0.975537, 193, 289, 224, 416
-0.975678, 129, 225, 192, 352
-0.975762, 193, 353, 256, 480
-0.975825, 77, 209, 108, 336
-0.976211, 81, 281, 208, 344
-0.976248, 221, 209, 252, 336
-0.976282, 73, 41, 136, 104
-0.976325, 1, 297, 64, 360
-0.976471, 257, 97, 320, 224
-0.97658, 1, 193, 128, 320
-0.976582, 77, 281, 108, 344
-0.97668, 181, 289, 212, 352
-0.976758, 193, 1, 224, 64
-0.976782, 273, 49, 332, 112
-0.976867, 1, 185, 32, 248
-0.976887, 81, 161, 208, 288
-0.976895, 241, 209, 272, 272
-0.976986, 241, 185, 304, 248
-0.97699, 201, 233, 264, 296
-0.977122, 285, 217, 316, 280
-0.97718, 57, 145, 120, 272
-0.977211, 137, 257, 200, 500
-0.977329, 193, 345, 256, 408
-0.977452, 209, 297, 332, 360
-0.977493, 65, 257, 96, 384
-0.977583, 121, 417, 184, 480
-0.977635, 97, 265, 128, 328
-0.977702, 33, 273, 160, 336
-0.977724, 121, 265, 152, 328
-0.978011, 33, 177, 96, 304
-0.978047, 161, 257, 224, 500
-0.978085, 65, 369, 320, 496
-0.978161, 133, 289, 164, 352
-0.978223, 233, 161, 264, 288
-0.97829, 201, 225, 264, 480
-0.978313, 65, 313, 192, 376
-0.978347, 285, 209, 316, 336
-0.978418, 161, 377, 224, 440
-0.97858, 85, 305, 116, 368
-0.97861, 245, 209, 276, 336
-0.978767, 265, 305, 328, 368
-0.97884, 1, 297, 128, 360
-0.97887, 169, 273, 200, 400
-0.979262, 145, 297, 272, 360
-0.979291, 81, 337, 144, 464
-0.979302, 265, 281, 328, 344
-0.979439, 1, 129, 64, 384
-0.979494, 41, 225, 72, 352
-0.979568, 145, 329, 272, 392
-0.979616, 113, 257, 176, 500
-0.979884, 105, 337, 168, 400
-0.97989, 53, 225, 84, 352
-0.979927, 209, 177, 272, 240
-0.979964, 97, 257, 128, 384
-0.980035, 1, 209, 32, 272
-0.98004, 65, 369, 192, 496
-0.980066, 1, 225, 64, 480
-0.980104, 209, 1, 272, 256
-0.980153, 209, 1, 240, 128
-0.98019, 65, 161, 128, 416
-0.980427, 209, 81, 272, 208
-0.98049, 73, 17, 136, 144
-0.980658, 193, 129, 256, 384
-0.980745, 209, 241, 332, 304
-0.980753, 133, 273, 164, 400
-0.98079, 1, 193, 32, 320
-0.980833, 169, 337, 232, 464
-0.981178, 65, 193, 96, 320
-0.9812, 1, 273, 32, 336
-0.981253, 233, 265, 296, 328
-0.981437, 165, 289, 196, 352
-0.981523, 41, 329, 104, 392
-0.981531, 57, 281, 88, 344
-0.981557, 33, 241, 160, 304
-0.981578, 149, 313, 180, 376
-0.981587, 13, 273, 44, 336
-0.981604, 285, 161, 316, 288
-0.98179, 193, 129, 256, 256
-0.981825, 221, 281, 252, 344
-0.981871, 193, 1, 320, 64
-0.982137, 81, 337, 144, 400
-0.982142, 245, 161, 276, 288
-0.982188, 161, 209, 288, 272
-0.982285, 73, 217, 136, 280
-0.982366, 9, 289, 72, 416
-0.982375, 117, 273, 148, 400
-0.982387, 229, 257, 260, 384
-0.982469, 181, 273, 212, 400
-0.982599, 161, 273, 288, 336
-0.982758, 25, 129, 88, 384
-0.982805, 13, 185, 44, 248
-0.982868, 33, 273, 64, 336
-0.982868, 145, 289, 176, 416
-0.982899, 65, 305, 96, 368
-0.983104, 241, 345, 272, 408
-0.983153, 97, 305, 128, 432
-0.983239, 153, 265, 216, 328
-0.983279, 225, 369, 288, 432
-0.983286, 213, 9, 244, 72
-0.983357, 1, 233, 32, 296
-0.983448, 161, 353, 224, 416
-0.983483, 217, 305, 248, 368
-0.983484, 17, 321, 144, 384
-0.983568, 17, 33, 144, 160
-0.983647, 221, 1, 252, 128
-0.983655, 193, 49, 320, 176
-0.983659, 1, 201, 128, 264
-0.983676, 113, 257, 240, 320
-0.983703, 101, 313, 132, 376
-0.983873, 29, 225, 60, 352
-0.984018, 113, 113, 240, 240
-0.984218, 249, 89, 312, 152
-0.984268, 201, 369, 264, 432
-0.984273, 265, 161, 296, 288
-0.984274, 177, 353, 304, 416
-0.984301, 165, 313, 196, 376
-0.98432, 225, 209, 256, 272
-0.98432, 45, 273, 76, 336
-0.984326, 265, 257, 328, 320
-0.984351, 241, 137, 304, 200
-0.984402, 233, 1, 296, 500
-0.984416, 145, 1, 208, 128
-0.984461, 181, 321, 212, 384
-0.984471, 245, 1, 276, 128
-0.984633, 73, 425, 136, 488
-0.984671, 113, 1, 240, 64
-0.984724, 245, 1, 276, 64
-0.984736, 197, 265, 228, 328
-0.984848, 265, 177, 328, 240
-0.984895, 273, 33, 332, 160
-0.984911, 89, 145, 152, 272
-0.985136, 233, 1, 264, 64
-0.985147, 161, 177, 288, 240
-0.985151, 109, 281, 140, 344
-0.985287, 169, 161, 232, 416
-0.985309, 233, 241, 296, 304
-0.985319, 177, 193, 240, 320
-0.985337, 117, 313, 148, 376
-0.985348, 65, 337, 192, 400
-0.985365, 169, 417, 232, 480
-0.985368, 157, 273, 188, 400
-0.985494, 201, 225, 232, 352
-0.985542, 121, 289, 152, 352
-0.985805, 217, 249, 248, 312
-0.985893, 65, 33, 192, 160
-0.985932, 113, 241, 144, 304
-0.985979, 65, 257, 96, 320
-0.985995, 241, 97, 304, 352
-0.986094, 229, 305, 260, 368
-0.986193, 97, 209, 128, 336
-0.986227, 17, 209, 48, 272
-0.986259, 149, 289, 180, 352
-0.986298, 1, 145, 64, 208
-0.986371, 233, 1, 264, 128
-0.986376, 249, 1, 312, 64
-0.986404, 185, 177, 248, 240
-0.986426, 253, 345, 284, 408
-0.986427, 233, 177, 264, 240
-0.986431, 133, 257, 164, 320
-0.986539, 153, 417, 184, 480
-0.986559, 209, 1, 272, 500
-0.986773, 1, 129, 64, 256
-0.986931, 161, 233, 288, 296
-0.986946, 229, 321, 260, 448
-0.986963, 89, 225, 152, 480
-0.986979, 265, 137, 328, 200
-0.987, 209, 105, 272, 168
-0.987106, 65, 81, 128, 208
-0.987186, 121, 361, 184, 424
-0.987196, 301, 161, 332, 288
-0.987276, 205, 305, 236, 368
-0.987303, 121, 393, 184, 456
-0.987355, 137, 313, 168, 376
-0.987449, 241, 49, 304, 176
-0.987518, 185, 1, 248, 500
-0.987528, 193, 145, 320, 208
-0.98754, 177, 1, 240, 256
-0.987671, 249, 41, 312, 104
-0.987702, 165, 337, 196, 400
-0.987754, 25, 297, 56, 360
-0.987771, 129, 169, 192, 232
-0.987822, 233, 273, 264, 336
-0.987846, 209, 177, 332, 240
-0.987938, 65, 65, 128, 320
-0.987976, 169, 97, 232, 224
-0.988043, 137, 161, 200, 416
-0.988057, 257, 1, 320, 500
-0.988079, 49, 201, 112, 264
-0.988168, 33, 81, 160, 208
-0.98817, 13, 297, 44, 360
-0.988245, 281, 41, 312, 104
-0.988293, 49, 257, 112, 500
-0.988298, 249, 113, 280, 240
-0.988331, 69, 305, 100, 432
-0.988346, 53, 273, 84, 400
-0.988377, 221, 161, 252, 288
-0.988386, 33, 281, 288, 344
-0.988424, 129, 353, 256, 416
-0.988514, 197, 1, 228, 128
-0.988518, 193, 313, 224, 376
-0.988532, 1, 145, 32, 272
-0.988551, 97, 217, 160, 280
-0.988647, 85, 305, 116, 432
-0.988697, 285, 281, 316, 344
-0.988721, 233, 209, 264, 336
-0.988751, 193, 89, 320, 152
-0.988761, 301, 225, 332, 352
-0.988774, 57, 1, 120, 500
-0.988803, 1, 161, 32, 224
-0.98892, 45, 241, 76, 304
-0.988944, 133, 321, 164, 448
-0.988949, 1, 153, 128, 216
-0.98896, 29, 209, 60, 272
-0.989018, 1, 209, 64, 240
-0.989061, 261, 1, 292, 64
-0.98909, 145, 385, 272, 448
-0.989134, 73, 309, 136, 340
-0.989146, 209, 57, 272, 120
-0.989175, 205, 321, 236, 448
-0.989196, 169, 153, 232, 216
-0.989254, 209, 81, 272, 144
-0.989257, 57, 201, 88, 264
-0.989336, 1, 229, 64, 260
-0.989343, 301, 289, 332, 352
-0.989402, 253, 217, 284, 280
-0.989446, 21, 241, 52, 304
-0.989465, 193, 281, 256, 312
-0.989477, 17, 321, 80, 384
-0.989506, 217, 337, 248, 464
-0.989536, 161, 321, 192, 448
-0.989577, 161, 321, 224, 352
-0.989666, 161, 301, 224, 332
-0.98969, 73, 273, 136, 304
-0.989695, 89, 65, 152, 192
-0.989712, 233, 217, 296, 248
-0.989745, 81, 361, 208, 424
-0.989752, 257, 353, 320, 416
-0.989761, 57, 353, 120, 480
-0.989799, 105, 305, 168, 336
-0.989834, 137, 289, 200, 320
-0.989837, 33, 225, 96, 256
-0.989842, 181, 265, 212, 328
-0.989919, 69, 329, 100, 392
-0.989956, 97, 433, 160, 496
-0.990002, 217, 433, 280, 496
-0.990003, 25, 205, 88, 236
-0.990007, 125, 225, 156, 352
-0.990027, 17, 241, 48, 368
-0.990031, 89, 1, 152, 500
-0.990032, 161, 285, 224, 316
-0.990045, 49, 261, 112, 292
-0.990053, 137, 321, 200, 352
-0.990058, 233, 357, 296, 388
-0.990068, 269, 209, 300, 336
-0.990077, 137, 301, 200, 332
-0.990109, 97, 269, 160, 300
-0.990133, 285, 193, 316, 256
-0.990133, 33, 249, 64, 312
-0.990139, 1, 249, 64, 280
-0.990157, 273, 25, 332, 88
-0.990166, 125, 337, 156, 400
-0.990166, 193, 433, 256, 496
-0.990174, 265, 65, 328, 320
-0.990186, 193, 305, 256, 336
-0.990213, 105, 369, 168, 496
-0.990223, 65, 49, 192, 112
-0.990225, 217, 137, 280, 200
-0.990273, 113, 285, 176, 316
-0.990286, 145, 401, 208, 464
-0.990304, 209, 321, 332, 384
-0.990325, 101, 233, 132, 296
-0.990342, 97, 253, 160, 284
-0.990347, 201, 293, 264, 324
-0.990356, 177, 225, 208, 352
-0.990371, 81, 321, 144, 352
-0.990387, 33, 241, 96, 272
-0.990424, 17, 261, 80, 292
-0.990428, 241, 1, 304, 32
-0.990437, 137, 417, 168, 480
-0.990459, 265, 221, 328, 252
-0.990472, 137, 337, 168, 400
-0.990489, 73, 297, 136, 328
-0.990504, 73, 253, 136, 284
-0.990552, 81, 417, 208, 480
-0.990567, 17, 281, 80, 312
-0.990578, 113, 225, 144, 352
-0.990579, 41, 49, 104, 176
-0.990595, 129, 333, 192, 364
-0.99062, 273, 217, 304, 280
-0.990629, 185, 317, 248, 348
-0.990639, 25, 169, 88, 232
-0.990683, 1, 297, 32, 360
-0.990693, 1, 241, 32, 368
-0.990695, 57, 237, 120, 268
-0.990696, 209, 13, 272, 44
-0.990741, 265, 49, 296, 112
-0.990762, 173, 321, 204, 448
-0.990786, 209, 41, 332, 104
-0.990801, 49, 209, 112, 240
-0.990824, 217, 329, 248, 392
-0.990856, 1, 197, 64, 228
-0.990859, 81, 337, 144, 368
-0.99086, 97, 129, 160, 384
-0.990884, 81, 65, 144, 128
-0.990886, 1, 281, 332, 344
-0.990909, 161, 177, 224, 240
-0.99091, 85, 17, 116, 144
-0.990927, 33, 417, 96, 480
-0.990963, 17, 41, 144, 104
-0.990967, 177, 5, 240, 36
-0.990973, 253, 129, 284, 192
-0.990975, 261, 81, 292, 144
-0.991002, 257, 177, 288, 240
-0.991054, 1, 1, 64, 500
-0.991057, 73, 285, 136, 316
-0.991091, 137, 1, 200, 64
-0.991097, 105, 17, 168, 144
-0.991128, 49, 217, 176, 280
-0.991166, 217, 97, 280, 352
-0.991179, 105, 341, 168, 372
-0.991203, 201, 213, 264, 244
-0.991219, 121, 253, 184, 284
-0.991236, 261, 81, 292, 208
-0.991248, 177, 121, 304, 184
-0.991282, 41, 325, 104, 356
-0.991285, 273, 49, 332, 80
-0.991294, 41, 273, 104, 304
-0.991298, 33, 1, 96, 128
-0.991316, 137, 225, 200, 288
-0.991351, 49, 305, 112, 336
-0.991369, 117, 321, 148, 448
-0.991405, 105, 317, 168, 348
-0.991489, 153, 161, 216, 288
-0.991497, 65, 305, 320, 368
-0.991502, 257, 209, 288, 336
-0.991532, 301, 289, 332, 416
-0.991542, 229, 345, 260, 408
-0.991545, 201, 269, 264, 300
-0.991567, 161, 333, 224, 364
-0.991584, 145, 241, 176, 368
-0.991595, 145, 153, 272, 216
-0.991601, 193, 361, 256, 392
-0.991602, 81, 241, 144, 272
-0.991619, 261, 17, 292, 144
-0.991635, 217, 1, 280, 32
-0.991648, 33, 257, 288, 320
-0.991653, 221, 177, 252, 240
-0.991661, 233, 205, 296, 236
-0.991687, 273, 329, 332, 392
-0.991692, 217, 373, 280, 404
-0.991724, 225, 133, 288, 164
-0.991761, 121, 265, 184, 296
-0.991774, 57, 221, 120, 252
-0.991779, 25, 193, 88, 224
-0.991783, 113, 65, 240, 192
-0.991784, 233, 277, 296, 308
-0.991785, 245, 177, 276, 240
-0.991818, 273, 177, 304, 240
-0.991823, 97, 289, 128, 352
-0.991827, 105, 65, 168, 128
-0.991843, 113, 177, 240, 240
-0.991875, 153, 337, 184, 400
-0.991891, 137, 421, 200, 452
-0.991912, 265, 309, 328, 340
-0.991919, 225, 313, 288, 344
-0.991925, 241, 305, 272, 432
-0.991947, 1, 301, 64, 332
-0.991963, 41, 293, 104, 324
-0.991987, 233, 65, 296, 128
-0.991992, 137, 277, 200, 308
-0.991999, 101, 425, 132, 488
-0.992015, 105, 329, 168, 360
-0.992028, 113, 417, 176, 448
-0.992052, 201, 241, 264, 272
-0.992058, 209, 297, 240, 328
-0.992058, 113, 1, 176, 500
-0.992064, 289, 257, 320, 384
-0.992067, 185, 333, 248, 364
-0.99207, 277, 33, 308, 160
-0.992072, 129, 345, 192, 376
-0.992077, 169, 105, 232, 168
-0.99208, 145, 357, 208, 388
-0.992081, 169, 273, 232, 304
-0.992084, 193, 373, 256, 404
-0.992099, 249, 49, 312, 80
-0.992102, 265, 293, 328, 324
-0.992102, 201, 369, 232, 496
-0.992105, 97, 441, 160, 472
-0.992114, 65, 41, 128, 72
-0.992128, 201, 225, 264, 256
-0.992135, 77, 257, 108, 320
-0.992138, 241, 137, 272, 200
-0.992164, 121, 361, 184, 392
-0.992179, 169, 377, 232, 408
-0.992183, 233, 265, 296, 296
-0.992215, 213, 281, 244, 312
-0.992218, 201, 117, 264, 148
-0.992231, 145, 393, 176, 456
-0.992264, 73, 437, 136, 468
-0.992284, 233, 89, 296, 120
-0.9923, 177, 389, 240, 420
-0.992313, 73, 453, 136, 484
-0.992328, 265, 237, 328, 268
-0.992331, 1, 305, 32, 432
-0.992344, 209, 161, 240, 288
-0.992357, 193, 345, 256, 376
-0.99236, 265, 281, 328, 312
-0.992368, 201, 285, 232, 316
-0.992399, 49, 161, 176, 224
-0.992442, 265, 209, 328, 240
-0.992472, 265, 269, 328, 300
-0.992476, 57, 73, 120, 136
-0.99248, 85, 337, 116, 400
-0.992481, 97, 409, 160, 472
-0.992494, 193, 297, 224, 328
-0.992494, 1, 197, 32, 228
-0.992497, 201, 253, 264, 284
-0.992499, 201, 433, 232, 496
-0.992499, 97, 429, 160, 460
-0.992503, 1, 217, 32, 248
-0.992516, 265, 249, 328, 280
-0.992542, 121, 441, 184, 472
-0.992556, 181, 297, 212, 328
-0.992557, 81, 357, 144, 388
-0.992566, 89, 361, 152, 424
-0.992571, 237, 213, 268, 244
-0.992585, 145, 397, 208, 428
-0.992586, 165, 417, 196, 480
-0.992599, 225, 113, 256, 240
-0.992601, 121, 253, 152, 284
-0.992603, 25, 209, 56, 240
-0.99261, 265, 1, 328, 32
-0.992611, 241, 369, 304, 400
-0.992622, 53, 261, 84, 292
-0.992633, 65, 337, 320, 400
-0.992639, 29, 229, 60, 260
-0.992648, 249, 121, 312, 152
-0.992655, 33, 209, 288, 272
-0.99266, 209, 333, 272, 364
-0.992669, 273, 173, 332, 204
-0.992671, 197, 5, 228, 36
-0.992674, 241, 253, 304, 284
-0.992676, 85, 309, 116, 340
-0.992681, 13, 209, 44, 240
-0.992682, 297, 169, 328, 232
-0.992687, 233, 293, 296, 324
-0.992712, 1, 337, 128, 464
-0.992715, 1, 313, 64, 344
-0.992721, 33, 249, 64, 280
-0.992721, 285, 221, 316, 252
-0.992722, 1, 185, 32, 216
-0.992725, 25, 305, 88, 336
-0.992731, 289, 305, 320, 368
-0.992734, 65, 53, 128, 84
-0.992734, 1, 229, 32, 260
-0.992739, 97, 269, 128, 300
-0.992752, 165, 321, 196, 352
-0.992752, 241, 177, 304, 208
-0.992755, 145, 325, 176, 356
-0.992755, 189, 309, 220, 340
-0.992758, 37, 273, 68, 400
-0.992759, 45, 249, 76, 280
-0.992759, 225, 345, 288, 376
-0.992774, 53, 177, 84, 304
-0.992777, 1, 185, 64, 216
-0.99278, 17, 229, 48, 260
-0.992781, 273, 61, 332, 92
-0.992784, 301, 265, 332, 328
-0.992786, 41, 229, 72, 260
-0.992799, 249, 101, 312, 132
-0.9928, 49, 341, 112, 372
-0.992801, 241, 233, 272, 296
-0.992806, 225, 285, 256, 316
-0.992807, 233, 13, 296, 44
-0.992812, 233, 233, 296, 264
-0.992812, 145, 433, 272, 496
-0.992814, 193, 377, 320, 440
-0.992818, 69, 145, 100, 272
-0.992825, 233, 9, 264, 40
-0.992829, 65, 273, 96, 304
-0.99283, 145, 369, 208, 400
-0.992832, 137, 285, 168, 316
-0.992859, 217, 13, 248, 44
-0.992862, 169, 305, 200, 336
-0.992863, 113, 201, 240, 264
-0.992864, 169, 285, 200, 316
-0.992869, 73, 289, 104, 320
-0.992874, 45, 281, 76, 312
-0.992875, 149, 301, 180, 332
-0.992875, 81, 233, 112, 296
-0.992876, 113, 405, 176, 436
-0.992876, 173, 1, 204, 128
-0.992878, 1, 261, 32, 292
-0.992879, 169, 345, 232, 376
-0.99288, 209, 81, 272, 112
-0.992881, 133, 297, 164, 328
-0.992883, 73, 77, 136, 108
-0.992883, 13, 197, 44, 228
-0.992884, 177, 201, 240, 264
-0.992886, 97, 453, 160, 484
-0.992887, 185, 393, 248, 456
-0.992888, 65, 25, 192, 88
-0.992888, 121, 265, 152, 296
-0.992895, 37, 209, 68, 240
-0.992897, 209, 309, 240, 340
-0.992904, 41, 265, 72, 296
-0.992908, 65, 261, 96, 292
-0.992909, 181, 285, 212, 316
-0.992911, 185, 17, 248, 48
-0.992914, 57, 209, 88, 240
-0.992916, 153, 1, 216, 32
-0.992917, 169, 453, 232, 484
-0.99292, 17, 65, 144, 128
-0.992922, 273, 85, 332, 116
-0.992922, 49, 197, 112, 228
-0.992923, 177, 425, 208, 488
-0.992925, 193, 453, 256, 484
-0.992929, 241, 37, 304, 68
-0.992938, 73, 209, 136, 240
-0.992943, 225, 273, 256, 304
-0.992951, 133, 337, 164, 368
-0.992953, 1, 249, 32, 280
-0.992954, 277, 81, 308, 208
-0.992961, 117, 317, 148, 348
-0.992967, 109, 257, 140, 288
-0.992968, 129, 309, 160, 340
-0.992968, 21, 249, 52, 280
-0.992969, 65, 233, 96, 296
-0.992977, 169, 65, 232, 128
-0.992978, 1, 281, 32, 312
-0.992992, 249, 1, 280, 32
-0.992992, 221, 213, 252, 244
-0.993001, 105, 305, 136, 336
-0.993005, 129, 409, 256, 472
-0.993006, 29, 281, 60, 312
-0.993013, 117, 289, 148, 320
-0.993013, 97, 233, 224, 296
-0.993016, 85, 277, 116, 308
-0.993018, 121, 341, 152, 372
-0.99302, 1, 173, 32, 204
-0.993023, 133, 325, 164, 356
-0.993029, 257, 357, 288, 388
-0.99303, 249, 129, 280, 160
-0.993031, 25, 185, 56, 248
-0.993034, 97, 33, 128, 160
-0.993035, 149, 289, 180, 320
-0.993042, 49, 393, 176, 456
-0.993061, 221, 297, 252, 328
-0.993063, 17, 281, 48, 312
-0.993069, 65, 17, 128, 80
-0.993069, 281, 49, 312, 80
-0.993075, 65, 329, 96, 360
-0.993079, 57, 309, 88, 340
-0.993085, 117, 277, 148, 308
-0.993089, 181, 321, 212, 352
-0.993089, 265, 221, 296, 252
-0.993093, 53, 225, 84, 256
-0.993094, 69, 209, 100, 240
-0.993097, 237, 353, 268, 384
-0.993108, 29, 261, 60, 292
-0.993108, 137, 1, 200, 500
-0.993115, 117, 329, 148, 360
-0.993116, 77, 261, 108, 292
-0.993116, 237, 129, 268, 160
-0.99312, 25, 197, 56, 228
-0.99312, 209, 325, 240, 356
-0.993124, 165, 341, 196, 372
-0.993125, 73, 309, 104, 340
-0.993131, 189, 377, 220, 408
-0.993134, 141, 421, 172, 452
-0.993135, 261, 89, 292, 120
-0.993138, 105, 321, 136, 352
-0.993142, 301, 305, 332, 336
-0.993142, 149, 337, 180, 368
-0.993149, 293, 49, 324, 80
-0.993151, 149, 313, 180, 344
-0.993152, 89, 321, 120, 352
-0.993166, 265, 1, 296, 32
-0.993167, 17, 265, 48, 296
-0.993169, 117, 301, 148, 332
-0.993173, 57, 249, 88, 280
-0.993173, 209, 381, 240, 412
-0.993179, 221, 225, 252, 256
-0.99318, 105, 245, 136, 276
-0.99318, 253, 221, 284, 252
-0.993188, 57, 285, 88, 316
-0.993191, 93, 297, 124, 328
-0.993193, 185, 1, 216, 32
-0.993205, 125, 441, 156, 472
-0.993212, 133, 257, 164, 288
-0.993216, 5, 301, 36, 332
-0.993222, 53, 237, 84, 268
-0.99323, 65, 161, 128, 224
-0.993232, 85, 337, 116, 368
-0.993242, 225, 237, 256, 268
-0.993243, 61, 297, 92, 328
-0.99325, 229, 309, 260, 340
-0.99325, 301, 293, 332, 324
-0.993251, 285, 313, 316, 344
-0.993254, 201, 273, 232, 304
-0.993256, 45, 197, 76, 228
-0.993257, 137, 433, 168, 464
-0.993269, 221, 369, 252, 400
-0.993276, 237, 369, 268, 432
-0.993278, 169, 241, 232, 304
-0.993282, 233, 373, 264, 404
-0.993282, 101, 441, 132, 472
-0.993288, 13, 185, 44, 216
-0.993289, 113, 337, 144, 400
-0.993289, 65, 73, 192, 136
-0.99329, 233, 297, 264, 328
-0.993292, 73, 245, 104, 276
-0.993294, 177, 381, 208, 412
-0.993296, 33, 233, 288, 296
-0.993296, 273, 89, 304, 120
-0.993297, 221, 261, 252, 292
-0.9933, 181, 333, 212, 364
-0.993307, 285, 293, 316, 324
-0.993321, 269, 49, 300, 80
-0.993326, 177, 25, 240, 88
-0.993344, 301, 49, 332, 112
-0.993378, 93, 145, 124, 272
-0.993422, 257, 425, 320, 488
-0.993454, 185, 353, 216, 416
-0.993471, 217, 361, 248, 424
-0.993475, 161, 25, 288, 88
-0.993549, 113, 81, 240, 144
-0.993568, 197, 289, 212, 352
-0.993613, 1, 97, 32, 224
-0.993615, 249, 89, 280, 152
-0.993647, 137, 369, 168, 496
-0.993684, 181, 377, 212, 440
-0.993706, 193, 137, 256, 200
-0.993724, 89, 433, 120, 496
-0.993756, 33, 1, 96, 500
-0.993759, 97, 193, 160, 256
-0.993808, 105, 9, 168, 72
-0.993896, 1, 257, 332, 320
-0.993925, 73, 33, 104, 160
-0.993958, 241, 257, 272, 384
-0.99397, 97, 137, 224, 200
-0.994022, 161, 1, 224, 500
-0.99403, 205, 177, 236, 240
-0.994038, 77, 33, 108, 96
-0.994062, 219, 281, 234, 344
-0.99413, 201, 33, 264, 96
-0.994132, 207, 1, 222, 64
-0.994136, 97, 337, 128, 400
-0.994145, 233, 1, 296, 256
-0.994158, 197, 345, 228, 408
-0.994175, 169, 385, 200, 448
-0.994187, 149, 265, 180, 328
-0.994198, 257, 113, 320, 176
-0.994244, 105, 33, 168, 96
-0.994244, 129, 145, 192, 272
-0.994286, 209, 277, 332, 308
-0.994314, 113, 25, 240, 88
-0.99432, 265, 105, 296, 168
-0.994325, 209, 221, 332, 252
-0.994328, 45, 193, 76, 256
-0.994328, 301, 241, 332, 304
-0.994346, 49, 273, 176, 304
-0.994353, 45, 305, 76, 368
-0.994355, 13, 305, 44, 432
-0.994377, 65, 1, 192, 64
-0.99439, 105, 169, 168, 232
-0.994399, 293, 17, 324, 144
-0.994402, 65, 193, 192, 256
-0.994441, 1, 177, 128, 240
-0.994522, 233, 113, 296, 176
-0.994536, 33, 321, 96, 448
-0.994561, 301, 321, 332, 384
-0.994567, 161, 65, 288, 128
-0.994582, 211, 281, 226, 344
-0.994661, 1, 345, 128, 408
-0.994675, 253, 321, 284, 448
-0.994682, 135, 249, 150, 312
-0.994722, 89, 25, 120, 88
-0.994736, 237, 113, 268, 240
-0.994765, 149, 353, 180, 480
-0.99479, 113, 49, 240, 112
-0.994802, 1, 261, 128, 292
-0.994814, 77, 81, 108, 208
-0.994819, 245, 305, 276, 368
-0.99487, 113, 113, 240, 176
-0.9949, 17, 425, 144, 488
-0.994909, 161, 305, 288, 336
-0.994911, 17, 185, 32, 248
-0.994923, 247, 209, 262, 272
-0.994948, 285, 257, 316, 320
-0.994965, 297, 217, 312, 280
-0.994995, 237, 209, 252, 272
-0.994998, 65, 401, 128, 464
-0.995044, 285, 169, 316, 232
-0.995064, 265, 361, 296, 424
-0.995068, 121, 369, 152, 496
-0.995076, 193, 377, 224, 440
-0.995087, 169, 129, 232, 192
-0.995098, 81, 145, 112, 272
-0.995103, 65, 1, 320, 64
-0.995104, 57, 353, 120, 416
-0.995105, 113, 309, 240, 340
-0.995147, 33, 17, 96, 80
-0.995149, 13, 273, 28, 336
-0.995174, 17, 17, 144, 80
-0.995179, 49, 253, 176, 284
-0.995186, 73, 209, 104, 272
-0.9952, 81, 89, 144, 152
-0.99522, 209, 293, 332, 324
-0.99523, 237, 105, 268, 168
-0.995242, 1, 273, 16, 336
-0.99526, 77, 305, 92, 368
-0.995269, 21, 145, 52, 272
-0.995271, 203, 297, 218, 360
-0.995288, 7, 273, 22, 336
-0.995342, 105, 49, 136, 112
-0.995347, 81, 325, 208, 356
-0.995398, 89, 1, 152, 256
-0.995409, 209, 305, 332, 336
-0.995414, 83, 273, 98, 336
-0.995428, 265, 137, 296, 200
-0.99544, 189, 433, 220, 496
-0.995443, 21, 273, 36, 336
-0.995455, 3, 233, 18, 296
-0.995472, 5, 185, 20, 248
-0.995492, 289, 305, 320, 432
-0.995517, 237, 369, 268, 496
-0.995578, 235, 273, 250, 336
-0.995593, 65, 193, 80, 256
-0.995613, 29, 273, 44, 336
-0.995616, 5, 209, 20, 272
-0.995628, 33, 313, 160, 344
-0.995655, 225, 273, 240, 336
-0.995674, 241, 177, 256, 240
-0.995688, 125, 249, 140, 312
-0.99569, 209, 265, 332, 296
-0.995709, 201, 1, 216, 64
-0.995747, 33, 49, 96, 112
-0.995749, 161, 217, 288, 248
-0.995769, 1, 245, 128, 276
-0.995794, 177, 1, 304, 32
-0.995811, 209, 97, 240, 224
-0.995816, 1, 209, 128, 240
-0.995819, 145, 321, 272, 352
-0.995824, 1, 281, 128, 312
-0.995837, 65, 337, 192, 368
-0.995847, 129, 1, 256, 32
-0.995863, 185, 337, 216, 464
-0.995895, 11, 185, 26, 248
-0.995906, 147, 289, 162, 352
-0.99592, 157, 225, 188, 352
-0.995963, 129, 289, 256, 320
-0.995965, 105, 313, 120, 376
-0.995969, 189, 225, 220, 352
-0.995987, 1, 221, 128, 252
-0.996058, 215, 1, 230, 64
-0.996075, 33, 293, 160, 324
-0.996111, 35, 273, 50, 336
-0.996115, 139, 289, 154, 352
-0.996131, 241, 193, 272, 448
-0.996149, 221, 305, 236, 368
-0.996152, 141, 257, 156, 320
-0.996168, 93, 273, 108, 336
-0.996168, 49, 237, 176, 268
-0.996171, 13, 193, 44, 320
-0.996178, 177, 357, 304, 388
-0.99618, 217, 277, 232, 308
-0.996191, 245, 345, 260, 408
-0.996216, 25, 289, 56, 416
-0.996216, 25, 145, 88, 208
-0.996221, 153, 425, 168, 488
-0.996226, 71, 249, 86, 312
-0.996232, 41, 273, 56, 336
-0.996237, 1, 185, 256, 248
-0.996249, 1, 333, 128, 364
-0.996257, 175, 313, 190, 376
-0.996261, 27, 209, 42, 272
-0.996271, 169, 289, 184, 352
-0.996277, 87, 297, 102, 360
-0.996307, 1, 161, 256, 224
-0.996319, 69, 273, 84, 336
-0.99632, 1, 161, 332, 224
-0.996332, 1, 345, 332, 408
-0.996332, 307, 281, 322, 344
-0.996361, 249, 1, 264, 64
-0.99639, 27, 185, 42, 248
-0.996397, 1, 305, 332, 368
-0.9964, 153, 1, 216, 256
-0.996419, 77, 281, 92, 344
-0.996423, 227, 297, 242, 360
-0.996436, 225, 25, 288, 88
-0.99644, 257, 345, 272, 408
-0.996455, 109, 265, 124, 328
-0.996457, 189, 129, 220, 256
-0.996458, 243, 1, 258, 64
-0.99646, 97, 273, 224, 304
-0.996468, 65, 25, 320, 88
-0.996488, 47, 273, 62, 336
-0.996497, 97, 385, 160, 448
-0.996512, 33, 129, 160, 192
-0.99652, 119, 273, 134, 336
-0.996522, 137, 137, 200, 200
-0.996547, 161, 369, 192, 496
-0.996547, 169, 49, 232, 176
-0.996547, 113, 337, 240, 368
-0.996562, 131, 273, 146, 336
-0.996576, 217, 257, 232, 320
-0.996578, 93, 297, 108, 360
-0.99659, 21, 209, 36, 272
-0.996596, 221, 1, 236, 64
-0.996604, 33, 209, 48, 272
-0.996609, 13, 297, 28, 360
-0.996611, 103, 265, 118, 328
-0.996611, 193, 313, 208, 376
-0.996615, 81, 293, 208, 324
-0.996624, 55, 273, 70, 336
-0.996631, 61, 273, 76, 336
-0.996637, 209, 65, 332, 128
-0.996638, 65, 361, 320, 424
-0.996639, 187, 297, 202, 360
-0.996641, 77, 209, 92, 272
-0.996656, 65, 137, 320, 200
-0.996663, 1, 217, 332, 280
-0.996666, 165, 417, 180, 480
-0.996682, 241, 265, 256, 328
-0.996685, 61, 249, 76, 312
-0.996692, 1, 49, 256, 112
-0.996694, 209, 233, 332, 264
-0.996695, 111, 321, 126, 384
-0.996696, 251, 345, 266, 408
-0.996709, 159, 321, 174, 384
-0.996712, 115, 297, 130, 360
-0.996717, 185, 273, 200, 336
-0.996719, 141, 329, 156, 392
-0.996725, 227, 9, 242, 72
-0.996736, 193, 373, 320, 404
-0.996761, 239, 345, 254, 408
-0.996794, 193, 425, 208, 488
-0.996821, 209, 53, 332, 84
-0.996825, 17, 369, 144, 432
-0.996827, 233, 161, 296, 224
-0.996852, 161, 337, 288, 368
-0.996861, 209, 305, 224, 368
-0.996883, 281, 193, 312, 448
-0.996902, 253, 209, 268, 272
-0.996908, 123, 425, 138, 488
-0.996912, 185, 1, 216, 128
-0.996921, 303, 169, 318, 232
-0.996927, 247, 177, 262, 240
-0.996928, 167, 329, 182, 392
-0.996936, 209, 253, 332, 284
-0.996939, 241, 65, 272, 192
-0.99694, 273, 89, 332, 152
-0.996948, 257, 177, 272, 240
-0.996954, 263, 353, 278, 416
-0.996968, 269, 345, 284, 408
-0.99697, 237, 233, 252, 296
-0.996972, 161, 229, 288, 260
-0.996978, 129, 361, 256, 392
-0.996988, 215, 305, 230, 368
-0.996992, 37, 225, 68, 480
-0.996993, 81, 329, 96, 392
-0.996997, 147, 313, 162, 376
-0.997015, 85, 353, 116, 480
-0.997025, 159, 417, 174, 480
-0.997036, 175, 289, 190, 352
-0.997037, 7, 297, 22, 360
-0.997039, 133, 297, 148, 360
-0.99704, 71, 297, 86, 360
-0.997059, 19, 297, 34, 360
-0.997081, 209, 317, 332, 348
-0.997089, 221, 161, 252, 416
-0.997096, 205, 273, 220, 336
-0.997105, 29, 297, 44, 360
-0.997124, 29, 241, 44, 304
-0.997126, 297, 297, 312, 360
-0.997134, 135, 329, 150, 392
-0.997143, 45, 241, 60, 304
-0.997146, 35, 241, 50, 304
-0.997153, 291, 177, 306, 240
-0.997154, 81, 441, 208, 472
-0.997154, 233, 297, 248, 360
-0.997172, 39, 209, 54, 272
-0.997173, 265, 217, 280, 280
-0.997175, 237, 9, 252, 72
-0.997176, 197, 293, 212, 324
-0.997181, 261, 1, 276, 64
-0.997184, 35, 297, 50, 360
-0.997192, 177, 133, 304, 164
-0.997197, 119, 249, 134, 312
-0.997201, 99, 305, 114, 368
-0.99724, 15, 209, 30, 272
-0.997252, 173, 369, 204, 496
-0.997252, 1, 297, 16, 360
-0.997252, 145, 13, 272, 44
-0.99727, 183, 321, 198, 384
-0.997274, 193, 13, 320, 44
-0.997286, 277, 217, 292, 280
-0.997289, 1, 233, 128, 264
-0.997307, 307, 257, 322, 320
-0.997313, 109, 289, 124, 352
-0.997317, 33, 185, 48, 248
-0.997323, 11, 161, 26, 224
-0.997329, 173, 337, 188, 400
-0.99734, 283, 217, 298, 280
-0.997345, 281, 177, 296, 240
-0.997346, 97, 253, 224, 284
-0.99735, 243, 213, 258, 244
-0.997352, 283, 41, 298, 104
-0.997365, 213, 1, 244, 256
-0.997365, 129, 81, 192, 208
-0.997382, 161, 277, 288, 308
-0.997383, 65, 217, 80, 280
-0.997383, 289, 217, 304, 280
-0.997384, 49, 209, 176, 240
-0.997385, 41, 121, 104, 184
-0.997386, 117, 321, 132, 384
-0.99739, 83, 233, 98, 296
-0.997395, 129, 397, 256, 428
-0.997398, 253, 193, 284, 448
-0.997419, 297, 221, 312, 252
-0.997449, 193, 433, 320, 496
-0.997454, 29, 209, 44, 240
-0.997461, 129, 65, 192, 320
-0.997514, 131, 253, 146, 284
-0.997517, 41, 33, 104, 288
-0.997519, 1, 9, 332, 72
-0.997522, 211, 297, 226, 328
-0.997525, 161, 241, 288, 272
-0.997525, 35, 229, 50, 260
-0.997528, 33, 73, 288, 136
-0.99754, 21, 225, 52, 480
-0.997543, 17, 89, 144, 152
-0.997547, 1, 129, 32, 384
-0.997549, 53, 225, 84, 480
-0.99755, 165, 257, 196, 500
-0.997558, 23, 209, 38, 240
-0.997569, 17, 197, 32, 228
-0.997582, 217, 257, 248, 500
-0.99759, 35, 209, 50, 240
-0.997593, 33, 425, 288, 488
-0.997599, 41, 229, 56, 260
-0.997603, 145, 253, 272, 284
-0.997608, 109, 177, 140, 304
-0.997609, 157, 1, 188, 128
-0.997613, 289, 113, 320, 240
-0.99763, 207, 285, 222, 316
-0.997633, 301, 161, 332, 416
-0.997639, 81, 129, 144, 192
-0.997657, 67, 205, 82, 236
-0.99766, 125, 257, 140, 288
-0.997664, 17, 121, 80, 184
-0.997666, 47, 229, 62, 260
-0.997674, 133, 257, 164, 500
-0.997677, 211, 9, 226, 40
-0.997678, 221, 297, 236, 328
-0.997688, 193, 93, 320, 124
-0.997694, 269, 193, 300, 448
-0.997699, 65, 261, 80, 292
-0.9977, 137, 201, 200, 264
-0.99771, 225, 285, 240, 316
-0.997729, 29, 229, 44, 260
-0.99773, 233, 213, 248, 244
-0.997737, 41, 177, 72, 304
-0.997762, 73, 193, 136, 256
-0.997763, 7, 197, 22, 228
-0.997764, 43, 249, 58, 280
-0.997765, 145, 181, 272, 212
-0.997772, 121, 225, 152, 480
-0.997775, 41, 209, 56, 240
-0.997781, 225, 1, 256, 256
-0.997787, 129, 349, 256, 380
-0.997788, 33, 393, 288, 456
-0.997794, 219, 13, 234, 44
-0.997801, 113, 457, 240, 488
-0.997802, 209, 209, 332, 240
-0.997804, 37, 249, 52, 280
-0.997815, 147, 317, 162, 348
-0.99782, 29, 129, 60, 384
-0.997833, 5, 209, 20, 240
-0.997844, 1, 261, 16, 292
-0.997846, 57, 97, 120, 160
-0.997851, 49, 249, 64, 280
-0.997863, 81, 361, 208, 392
-0.997872, 65, 349, 192, 380
-0.997874, 147, 289, 162, 320
-0.99788, 145, 373, 272, 404
-0.997882, 195, 1, 210, 32
-0.997894, 201, 257, 232, 500
-0.997904, 49, 49, 176, 80
-0.99791, 249, 65, 280, 320
-0.99791, 181, 257, 212, 500
-0.997913, 59, 265, 74, 296
-0.997924, 141, 285, 156, 316
-0.997929, 27, 197, 42, 228
-0.997935, 97, 377, 224, 408
-0.997936, 1, 189, 128, 220
-0.997936, 49, 129, 80, 384
-0.997951, 101, 353, 132, 480
-0.997961, 17, 209, 32, 240
-0.997966, 201, 161, 232, 416
-0.997986, 53, 229, 68, 260
-0.997987, 55, 249, 70, 280
-0.997988, 79, 313, 94, 344
-0.997988, 83, 289, 98, 320
-0.997991, 3, 229, 18, 260
-0.997991, 193, 181, 320, 212
-0.998004, 61, 249, 76, 280
-0.998007, 145, 73, 208, 136
-0.998008, 225, 309, 240, 340
-0.998025, 23, 229, 38, 260
-0.998031, 177, 121, 304, 152
-0.99804, 141, 337, 156, 368
-0.998045, 145, 205, 272, 236
-0.998048, 69, 161, 100, 416
-0.998052, 113, 269, 128, 300
-0.998063, 233, 13, 248, 44
-0.998075, 31, 249, 46, 280
-0.998078, 1, 113, 256, 176
-0.998081, 239, 9, 254, 40
-0.998085, 95, 273, 110, 304
-0.998102, 17, 185, 32, 216
-0.998103, 79, 329, 94, 360
-0.998107, 13, 129, 44, 384
-0.998114, 9, 225, 40, 480
-0.998114, 1, 249, 16, 280
-0.998115, 203, 5, 218, 36
-0.998116, 161, 457, 288, 488
-0.998121, 53, 261, 68, 292
-0.998122, 1, 301, 16, 332
-0.998122, 209, 329, 332, 360
-0.998125, 131, 273, 146, 304
-0.998128, 171, 285, 186, 316
-0.998129, 61, 281, 76, 312
-0.998132, 203, 301, 218, 332
-0.998133, 273, 305, 304, 432
-0.998133, 137, 253, 152, 284
-0.998138, 35, 281, 50, 312
-0.998138, 193, 41, 320, 72
-0.998144, 71, 241, 86, 272
-0.998148, 209, 341, 332, 372
-0.998149, 245, 5, 260, 36
-0.998153, 7, 185, 22, 216
-0.998157, 145, 265, 272, 296
-0.998157, 33, 197, 48, 228
-0.998161, 111, 309, 126, 340
-0.998161, 177, 325, 192, 356
-0.998165, 109, 321, 124, 352
-0.998169, 285, 49, 300, 80
-0.998172, 83, 261, 98, 292
-0.998174, 235, 289, 250, 320
-0.998174, 203, 313, 218, 344
-0.998182, 21, 281, 36, 312
-0.998195, 45, 281, 60, 312
-0.998196, 227, 13, 242, 44
-0.998202, 45, 265, 60, 296
-0.998203, 167, 341, 182, 372
-0.998204, 29, 281, 44, 312
-0.998205, 237, 353, 252, 384
-0.998207, 229, 257, 260, 500
-0.998209, 61, 205, 76, 236
-0.998209, 93, 81, 124, 208
-0.998212, 1, 281, 16, 312
-0.998214, 9, 281, 24, 312
-0.998219, 77, 297, 92, 328
-0.998224, 157, 309, 172, 340
-0.998225, 235, 225, 250, 256
-0.998227, 131, 337, 146, 368
-0.998231, 75, 225, 90, 256
-0.998236, 1, 185, 332, 248
-0.998255, 65, 237, 80, 268
-0.998256, 187, 321, 202, 352
-0.998256, 49, 221, 176, 252
-0.998259, 169, 161, 200, 288
-0.998266, 71, 261, 86, 292
-0.998274, 183, 305, 198, 336
-0.99828, 231, 305, 246, 336
-0.998286, 17, 345, 144, 376
-0.998286, 1, 177, 128, 208
-0.998287, 67, 225, 82, 256
-0.998292, 15, 281, 30, 312
-0.998292, 89, 281, 104, 312
-0.998305, 25, 249, 40, 280
-0.998305, 37, 269, 52, 300
-0.998308, 99, 309, 114, 340
-0.998311, 137, 193, 168, 320
-0.998315, 73, 281, 88, 312
-0.998318, 245, 125, 260, 156
-0.99832, 97, 385, 224, 448
-0.99832, 85, 309, 100, 340
-0.998328, 273, 221, 288, 252
-0.998343, 65, 417, 192, 448
-0.998345, 1, 1, 64, 128
-0.998348, 105, 257, 136, 500
-0.998348, 73, 309, 88, 340
-0.99835, 47, 217, 62, 248
-0.99835, 51, 281, 66, 312
-0.998358, 81, 433, 112, 448
-0.998358, 301, 311, 332, 326
-0.998359, 173, 453, 204, 468
-0.998359, 85, 277, 116, 292
-0.99836, 137, 301, 168, 316
-0.99836, 225, 235, 256, 250
-0.998361, 73, 205, 88, 236
-0.998361, 243, 357, 258, 388
-0.998361, 61, 203, 92, 218
-0.998361, 65, 259, 96, 274
-0.998361, 69, 217, 100, 232
-0.998362, 221, 373, 252, 388
-0.998363, 137, 323, 168, 338
-0.998363, 193, 305, 208, 336
-0.998364, 229, 299, 260, 314
-0.998364, 125, 333, 156, 348
-0.998365, 265, 223, 296, 238
-0.998365, 177, 317, 208, 332
-0.998365, 73, 311, 104, 326
-0.998367, 145, 403, 176, 418
-0.998368, 241, 129, 272, 144
-0.998368, 97, 305, 128, 320
-0.998368, 81, 455, 112, 470
-0.998369, 279, 221, 294, 252
-0.998369, 45, 269, 76, 284
-0.998369, 209, 331, 240, 346
-0.998371, 57, 307, 88, 322
-0.998372, 133, 307, 164, 322
-0.998373, 125, 329, 140, 360
-0.998375, 221, 225, 252, 240
-0.998375, 117, 317, 148, 332
-0.998376, 201, 391, 232, 406
-0.998378, 133, 315, 164, 330
-0.99838, 53, 209, 68, 240
-0.998381, 89, 233, 120, 248
-0.998382, 229, 311, 260, 326
-0.998382, 253, 221, 284, 236
-0.998383, 149, 295, 180, 310
-0.998385, 117, 309, 132, 340
-0.998385, 241, 269, 256, 300
-0.998385, 293, 55, 324, 70
-0.998386, 93, 297, 108, 328
-0.998386, 85, 217, 100, 248
-0.998386, 1, 217, 32, 232
-0.998388, 221, 7, 252, 22
-0.998388, 119, 329, 134, 360
-0.998389, 251, 1, 266, 32
-0.998389, 1, 237, 32, 252
-0.998391, 213, 393, 244, 408
-0.998391, 295, 49, 310, 80
-0.998391, 189, 389, 220, 404
-0.998392, 133, 297, 148, 328
-0.998392, 161, 385, 288, 416
-0.998393, 121, 261, 152, 276
-0.998393, 81, 215, 112, 230
-0.998395, 53, 283, 84, 298
-0.998395, 117, 285, 148, 300
-0.998396, 31, 265, 46, 296
-0.998396, 159, 325, 174, 356
-0.998397, 1, 33, 332, 96
-0.998398, 65, 105, 192, 168
-0.998398, 211, 313, 226, 344
-0.998398, 113, 295, 144, 310
-0.998399, 89, 261, 104, 292
-0.998399, 189, 3, 220, 18
-0.998399, 149, 301, 180, 316
-0.998399, 149, 335, 180, 350
-0.998399, 277, 51, 308, 66
-0.998401, 149, 289, 180, 304
-0.998402, 147, 301, 162, 332
-0.998403, 209, 325, 240, 340
-0.998403, 149, 311, 180, 326
-0.998404, 109, 271, 140, 286
-0.998404, 219, 313, 234, 344
-0.998406, 73, 285, 104, 300
-0.998406, 79, 273, 94, 304
-0.998406, 77, 303, 108, 318
-0.998406, 1, 229, 32, 244
-0.998407, 149, 321, 180, 336
-0.998408, 189, 81, 220, 208
-0.998409, 237, 241, 252, 272
-0.998409, 169, 295, 200, 310
-0.99841, 255, 125, 270, 156
-0.998412, 229, 305, 260, 320
-0.998418, 217, 215, 248, 230
-0.998418, 189, 323, 220, 338
-0.998418, 165, 289, 196, 304
-0.998418, 169, 333, 200, 348
-0.998423, 241, 221, 272, 236
-0.998423, 5, 209, 36, 224
-0.998424, 65, 245, 96, 260
-0.998424, 85, 1, 116, 256
-0.998425, 1, 223, 64, 238
-0.998426, 209, 319, 240, 334
-0.998426, 145, 161, 176, 416
-0.998426, 205, 11, 236, 26
-0.99843, 61, 209, 92, 224
-0.998431, 1, 177, 32, 192
-0.998431, 1, 197, 32, 212
-0.998432, 169, 311, 200, 326
-0.998432, 161, 325, 192, 340
-0.998435, 217, 15, 248, 30
-0.998436, 121, 267, 152, 282
-0.998437, 189, 317, 220, 332
-0.998443, 137, 295, 168, 310
-0.998444, 105, 315, 136, 330
-0.998444, 13, 261, 44, 276
-0.998444, 201, 281, 232, 296
-0.998445, 169, 305, 200, 320
-0.998445, 37, 205, 68, 220
-0.998447, 85, 267, 116, 282
-0.998448, 193, 285, 256, 300
-0.998449, 209, 49, 240, 176
-0.998449, 73, 271, 104, 286
-0.998451, 1, 243, 64, 258
-0.998454, 225, 287, 256, 302
-0.998456, 65, 279, 96, 294
-0.998459, 137, 337, 168, 352
-0.99846, 201, 1, 232, 256
-0.99846, 65, 265, 96, 280
-0.998461, 153, 257, 184, 500
-0.998462, 1, 203, 64, 218
-0.998464, 61, 227, 92, 242
-0.998466, 1, 267, 32, 282
-0.998466, 133, 289, 164, 304
-0.998467, 209, 313, 240, 328
-0.998468, 1, 189, 32, 204
-0.998468, 85, 309, 116, 324
-0.998469, 181, 291, 212, 306
-0.99847, 225, 293, 256, 308
-0.99847, 57, 267, 120, 282
-0.99847, 65, 453, 192, 484
-0.998471, 285, 65, 316, 320
-0.998476, 161, 319, 192, 334
-0.998476, 33, 223, 64, 238
-0.998477, 17, 263, 80, 278
-0.998479, 53, 245, 84, 260
-0.99848, 21, 243, 52, 258
-0.998483, 33, 243, 64, 258
-0.998483, 117, 341, 148, 356
-0.998486, 161, 313, 224, 328
-0.998489, 25, 205, 88, 220
-0.99849, 145, 169, 272, 200
-0.998493, 245, 7, 276, 22
-0.998493, 145, 329, 176, 344
-0.998494, 25, 263, 56, 278
-0.998494, 137, 289, 200, 304
-0.998496, 21, 203, 52, 218
-0.998497, 33, 245, 96, 260
-0.998499, 197, 299, 228, 314
-0.998499, 193, 287, 224, 302
-0.9985, 97, 45, 224, 76
-0.998502, 189, 311, 220, 326
-0.998503, 45, 263, 76, 278
-0.998504, 285, 225, 316, 240
-0.998505, 209, 279, 272, 294
-0.998508, 229, 13, 260, 28
-0.998508, 97, 273, 128, 288
-0.998509, 169, 291, 232, 306
-0.998509, 225, 217, 288, 232
-0.998513, 193, 303, 256, 318
-0.998514, 1, 183, 32, 198
-0.998516, 221, 277, 252, 292
-0.998516, 21, 223, 52, 238
-0.998517, 169, 285, 232, 300
-0.998518, 161, 307, 224, 322
-0.998518, 33, 225, 96, 240
-0.998521, 177, 321, 240, 336
-0.998521, 129, 337, 192, 352
-0.998522, 73, 311, 136, 326
-0.998523, 125, 255, 156, 270
-0.998524, 49, 205, 80, 220
-0.998524, 137, 295, 200, 310
-0.998527, 193, 81, 320, 112
-0.998529, 49, 225, 80, 240
-0.998534, 1, 243, 32, 258
-0.998541, 193, 311, 256, 326
-0.998544, 209, 1, 272, 16
-0.998544, 177, 327, 240, 342
-0.998549, 81, 341, 144, 356
-0.99855, 97, 271, 160, 286
-0.99855, 145, 301, 208, 316
-0.99855, 265, 225, 328, 240
-0.99855, 81, 277, 144, 292
-0.998551, 201, 291, 264, 306
-0.998552, 233, 223, 296, 238
-0.998555, 1, 261, 32, 276
-0.998556, 1, 229, 64, 244
-0.998556, 1, 209, 64, 224
-0.998557, 193, 297, 256, 312
-0.998558, 97, 265, 160, 280
-0.998559, 113, 319, 176, 334
-0.998561, 189, 305, 220, 320
-0.998562, 137, 323, 200, 338
-0.998563, 193, 165, 320, 196
-0.998563, 1, 223, 32, 238
-0.998564, 169, 297, 232, 312
-0.998565, 57, 247, 120, 262
-0.998568, 185, 299, 216, 314
-0.998568, 213, 295, 244, 310
-0.998569, 41, 261, 104, 276
-0.998569, 169, 391, 232, 406
-0.998569, 5, 203, 36, 218
-0.99857, 137, 329, 200, 344
-0.998572, 113, 305, 176, 320
-0.998573, 113, 289, 176, 304
-0.998574, 73, 255, 136, 270
-0.998575, 73, 237, 136, 252
-0.998579, 233, 11, 296, 26
-0.99858, 249, 1, 312, 16
-0.998581, 209, 307, 240, 322
-0.998582, 73, 301, 136, 316
-0.998583, 97, 259, 160, 274
-0.998584, 213, 289, 244, 304
-0.998584, 81, 283, 144, 298
-0.998585, 185, 11, 248, 26
-0.998585, 97, 253, 160, 268
-0.998587, 121, 255, 184, 270
-0.998587, 201, 215, 264, 230
-0.998587, 105, 295, 168, 310
-0.998587, 93, 225, 124, 480
-0.998589, 177, 333, 240, 348
-0.998589, 189, 1, 220, 256
-0.998594, 233, 359, 296, 374
-0.998595, 97, 313, 160, 328
-0.998597, 49, 209, 112, 224
-0.9986, 73, 323, 136, 338
-0.998601, 177, 145, 304, 176
-0.998602, 161, 1, 224, 16
-0.998602, 121, 313, 184, 328
-0.998603, 57, 227, 120, 242
-0.998605, 33, 305, 96, 320
-0.998606, 73, 261, 136, 276
-0.998607, 73, 317, 136, 332
-0.998608, 197, 177, 228, 304
-0.998609, 217, 17, 280, 32
-0.99861, 25, 199, 88, 214
-0.998613, 49, 215, 112, 230
-0.998614, 273, 51, 332, 66
-0.998615, 73, 455, 136, 470
-0.998615, 41, 329, 104, 344
-0.998616, 113, 453, 176, 468
-0.998617, 41, 283, 104, 298
-0.998618, 201, 293, 232, 308
-0.99862, 185, 279, 248, 294
-0.99862, 81, 335, 144, 350
-0.998621, 201, 319, 264, 334
-0.998621, 57, 277, 120, 292
-0.998621, 137, 307, 200, 322
-0.998624, 213, 283, 244, 298
-0.998625, 49, 197, 176, 228
-0.998626, 17, 283, 80, 298
-0.998626, 33, 239, 96, 254
-0.998629, 233, 365, 296, 380
-0.99863, 1, 249, 64, 264
-0.998631, 233, 215, 264, 230
-0.998632, 17, 257, 80, 272
-0.998633, 209, 7, 272, 22
-0.998634, 81, 161, 112, 416
-0.998634, 193, 393, 256, 408
-0.998636, 137, 343, 200, 358
-0.998639, 173, 81, 204, 208
-0.99864, 113, 331, 176, 346
-0.998641, 169, 455, 232, 470
-0.998642, 33, 231, 96, 246
-0.998642, 233, 375, 296, 390
-0.998644, 209, 301, 240, 316
-0.998644, 105, 341, 168, 356
-0.998646, 121, 261, 184, 276
-0.99865, 209, 131, 272, 146
-0.99865, 73, 295, 136, 310
-0.998651, 105, 283, 168, 298
-0.998652, 233, 139, 296, 154
-0.998655, 121, 421, 184, 436
-0.998655, 121, 267, 184, 282
-0.998655, 265, 295, 328, 310
-0.998655, 233, 279, 296, 294
-0.998656, 25, 211, 88, 226
-0.998657, 161, 397, 224, 412
-0.998658, 249, 93, 312, 108
-0.998659, 41, 335, 104, 350
-0.998659, 201, 373, 264, 388
-0.998659, 153, 337, 216, 352
-0.998659, 81, 329, 144, 344
-0.99866, 201, 329, 264, 344
-0.99866, 193, 221, 256, 236
-0.998661, 233, 285, 296, 300
-0.998662, 97, 347, 160, 362
-0.998663, 273, 59, 332, 74
-0.998666, 33, 251, 96, 266
-0.998666, 89, 247, 152, 262
-0.998666, 65, 289, 128, 304
-0.998668, 265, 305, 328, 320
-0.998669, 25, 219, 88, 234
-0.998672, 201, 125, 264, 140
-0.998672, 1, 197, 64, 212
-0.998674, 193, 455, 256, 470
-0.998674, 193, 17, 256, 32
-0.998674, 17, 269, 80, 284
-0.998675, 49, 311, 112, 326
-0.998676, 145, 453, 208, 468
-0.998676, 137, 283, 200, 298
-0.998676, 219, 257, 234, 384
-0.998676, 1, 217, 64, 232
-0.998677, 265, 219, 328, 234
-0.998677, 265, 243, 328, 258
-0.9987, 193, 109, 320, 140
-0.998706, 97, 65, 224, 96
-0.998715, 245, 193, 260, 320
-0.998716, 129, 25, 256, 56
-0.99872, 105, 81, 136, 208
-0.998729, 17, 61, 144, 92
-0.998745, 17, 77, 144, 108
-0.998767, 1, 337, 64, 464
-0.998773, 65, 429, 192, 460
-0.998794, 173, 161, 204, 416
-0.998804, 97, 257, 112, 384
-0.998814, 113, 237, 240, 268
-0.998815, 113, 425, 240, 456
-0.998826, 1, 33, 64, 288
-0.998832, 235, 177, 250, 304
-0.998833, 297, 209, 312, 336
-0.998855, 269, 65, 300, 320
-0.99886, 195, 273, 210, 400
-0.998866, 231, 289, 246, 416
-0.998872, 237, 273, 252, 400
-0.998879, 147, 273, 162, 400
-0.998885, 65, 89, 192, 120
-0.998889, 241, 369, 304, 496
-0.998894, 97, 173, 224, 204
-0.998897, 293, 257, 324, 500
-0.998902, 237, 1, 268, 256
-0.99892, 17, 37, 144, 68
-0.998939, 105, 257, 120, 384
-0.99895, 73, 193, 88, 320
-0.998955, 87, 273, 102, 400
-0.998961, 213, 257, 228, 384
-0.998971, 33, 441, 160, 472
-0.998972, 61, 65, 92, 192
-0.998973, 75, 241, 90, 368
-0.998974, 33, 361, 160, 392
-0.998975, 201, 289, 216, 416
-0.998978, 227, 209, 242, 336
-0.998992, 87, 209, 102, 336
-0.998998, 97, 217, 224, 248
-0.998999, 65, 77, 192, 108
-0.999001, 225, 305, 240, 432
-0.999005, 129, 441, 256, 472
-0.999009, 177, 445, 304, 476
-0.999012, 237, 225, 252, 352
-0.999012, 97, 201, 224, 232
-0.999024, 237, 97, 268, 352
-0.999027, 81, 257, 96, 384
-0.999029, 215, 1, 230, 128
-0.99903, 129, 117, 256, 148
-0.999031, 145, 85, 272, 116
-0.999034, 17, 429, 144, 460
-0.999038, 81, 389, 208, 420
-0.999058, 253, 145, 268, 272
-0.99907, 43, 225, 58, 352
-0.999072, 49, 225, 64, 352
-0.999076, 299, 161, 314, 288
-0.999078, 1, 57, 332, 120
-0.999095, 67, 193, 82, 320
-0.999095, 243, 145, 258, 272
-0.999103, 217, 305, 232, 432
-0.999109, 211, 305, 226, 432
-0.999114, 1, 225, 16, 352
-0.999126, 171, 273, 186, 400
-0.999129, 209, 25, 332, 56
-0.999129, 73, 65, 104, 320
-0.999136, 209, 409, 332, 472
-0.999137, 55, 225, 70, 352
-0.999149, 281, 161, 296, 288
-0.999151, 69, 257, 84, 384
-0.999158, 113, 101, 240, 132
-0.999158, 287, 161, 302, 288
-0.999162, 37, 225, 52, 352
-0.999165, 101, 129, 132, 384
-0.999169, 65, 257, 96, 500
-0.999174, 119, 257, 134, 384
-0.999182, 145, 157, 272, 188
-0.999183, 209, 1, 224, 128
-0.999191, 261, 161, 276, 288
-0.999191, 113, 289, 128, 416
-0.999199, 293, 161, 308, 288
-0.999202, 209, 65, 332, 96
-0.999205, 209, 197, 332, 228
-0.999207, 235, 1, 250, 128
-0.999208, 133, 161, 164, 416
-0.999208, 307, 161, 322, 288
-0.999217, 1, 165, 128, 196
-0.999224, 97, 149, 224, 180
-0.999225, 95, 209, 110, 336
-0.999225, 65, 33, 192, 64
-0.999225, 65, 405, 192, 436
-0.999232, 49, 165, 176, 196
-0.999239, 75, 289, 90, 416
-0.99924, 243, 241, 258, 368
-0.999241, 185, 161, 216, 416
-0.999242, 275, 161, 290, 288
-0.999242, 61, 225, 76, 352
-0.999244, 17, 453, 144, 484
-0.999249, 241, 1, 256, 128
-0.99926, 107, 305, 122, 432
-0.999262, 101, 305, 116, 432
-0.999264, 221, 1, 236, 128
-0.999265, 81, 193, 96, 320
-0.999267, 65, 1, 192, 32
-0.999273, 267, 161, 282, 288
-0.999273, 141, 273, 156, 400
-0.999275, 177, 273, 192, 400
-0.999281, 1, 393, 128, 456
-0.999281, 307, 225, 322, 352
-0.999285, 297, 65, 328, 320
-0.999287, 131, 273, 146, 400
-0.999295, 129, 129, 256, 160
-0.999302, 227, 1, 242, 128
-0.999308, 201, 241, 216, 368
-0.999309, 247, 1, 262, 128
-0.999312, 7, 129, 22, 256
-0.999346, 97, 1, 128, 256
-0.999346, 31, 225, 46, 352
-0.999349, 165, 273, 180, 400
-0.99936, 287, 17, 302, 144
-0.999362, 81, 305, 96, 432
-0.999363, 225, 257, 240, 384
-0.999365, 111, 241, 126, 368
-0.999372, 209, 385, 332, 416
-0.999374, 3, 177, 18, 304
-0.999377, 251, 193, 266, 320
-0.99938, 97, 13, 224, 44
-0.999383, 239, 321, 254, 448
-0.999386, 189, 305, 204, 432
-0.999387, 1, 153, 128, 184
-0.999387, 209, 209, 224, 336
-0.999388, 167, 321, 182, 448
-0.999396, 153, 289, 168, 416
-0.999396, 277, 209, 292, 336
-0.999396, 113, 129, 144, 384
-0.999399, 237, 129, 252, 256
-0.999413, 139, 337, 154, 464
-0.999415, 137, 225, 152, 352
-0.999421, 203, 1, 218, 128
-0.999421, 105, 209, 120, 336
-0.999427, 291, 209, 306, 336
-0.999428, 257, 209, 272, 336
-0.999431, 121, 305, 136, 432
-0.999434, 269, 209, 284, 336
-0.999436, 133, 353, 148, 480
-0.999441, 263, 209, 278, 336
-0.999446, 125, 241, 140, 368
-0.999448, 147, 321, 162, 448
-0.999456, 299, 257, 314, 384
-0.999456, 25, 225, 40, 352
-0.999457, 145, 61, 272, 92
-0.999472, 257, 1, 272, 128
-0.999472, 285, 209, 300, 336
-0.999477, 67, 145, 82, 272
-0.999483, 233, 353, 248, 480
-0.99949, 159, 273, 174, 400
-0.99949, 217, 209, 232, 336
-0.999492, 45, 273, 60, 400
-0.999498, 145, 73, 272, 104
-0.999502, 11, 305, 26, 432
-0.999504, 247, 321, 262, 448
-0.999505, 221, 161, 236, 288
-0.999507, 181, 1, 196, 128
-0.999512, 77, 145, 92, 272
-0.999518, 255, 81, 270, 208
-0.999523, 25, 113, 88, 240
-0.999526, 305, 289, 320, 416
-0.999527, 49, 373, 176, 404
-0.999527, 13, 177, 28, 304
-0.999531, 207, 257, 222, 384
-0.999532, 215, 353, 230, 480
-0.999533, 205, 369, 220, 496
-0.999537, 281, 17, 296, 144
-0.999537, 33, 273, 48, 400
-0.999539, 93, 145, 108, 272
-0.999542, 83, 145, 98, 272
-0.999545, 155, 353, 170, 480
-0.999546, 185, 241, 200, 368
-0.999547, 1, 273, 16, 400
-0.999548, 51, 273, 66, 400
-0.999554, 87, 337, 102, 464
-0.999555, 173, 1, 204, 256
-0.999556, 17, 25, 144, 56
-0.999557, 185, 177, 216, 304
-0.999558, 97, 161, 224, 192
-0.999558, 285, 65, 300, 192
-0.999565, 261, 113, 276, 240
-0.999567, 297, 17, 312, 144
-0.999571, 17, 241, 32, 368
-0.999571, 263, 1, 278, 128
-0.999572, 93, 337, 108, 464
-0.999573, 59, 177, 74, 304
-0.999574, 79, 455, 94, 470
-0.999574, 159, 323, 174, 338
-0.999574, 103, 273, 118, 288
-0.999575, 79, 213, 94, 228
-0.999575, 59, 199, 74, 214
-0.999576, 133, 259, 148, 274
-0.999577, 39, 273, 54, 400
-0.999578, 219, 295, 234, 310
-0.999578, 95, 267, 110, 282
-0.999578, 109, 271, 124, 286
-0.999579, 17, 89, 144, 120
-0.999579, 85, 455, 100, 470
-0.999579, 271, 223, 286, 238
-0.99958, 119, 341, 134, 356
-0.99958, 87, 273, 102, 288
-0.99958, 263, 91, 278, 106
-0.999582, 185, 325, 200, 340
-0.999582, 59, 273, 74, 400
-0.999582, 125, 341, 140, 356
-0.999582, 97, 17, 112, 144
-0.999583, 283, 49, 298, 64
-0.999583, 73, 285, 88, 300
-0.999583, 201, 307, 216, 322
-0.999583, 45, 205, 60, 220
-0.999584, 115, 271, 130, 286
-0.999585, 211, 11, 226, 26
-0.999585, 211, 315, 226, 330
-0.999585, 143, 339, 158, 354
-0.999585, 193, 1, 208, 16
-0.999586, 83, 231, 98, 246
-0.999587, 259, 221, 274, 236
-0.999587, 79, 283, 94, 298
-0.999589, 89, 17, 104, 144
-0.99959, 97, 277, 112, 292
-0.999591, 201, 5, 216, 20
-0.999591, 79, 33, 94, 160
-0.999593, 83, 265, 98, 280
-0.999593, 7, 185, 22, 200
-0.999594, 3, 319, 18, 334
-0.999594, 79, 247, 94, 262
-0.999595, 77, 313, 92, 328
-0.999595, 221, 321, 236, 336
-0.999595, 71, 265, 86, 280
-0.999595, 51, 205, 66, 220
-0.999595, 91, 455, 106, 470
-0.999595, 171, 287, 186, 302
-0.999596, 97, 455, 112, 470
-0.999597, 37, 203, 52, 218
-0.999597, 75, 255, 90, 270
-0.999598, 219, 309, 234, 324
-0.999599, 109, 311, 124, 326
-0.999599, 73, 217, 88, 232
-0.9996, 231, 309, 246, 324
-0.999601, 157, 317, 172, 332
-0.999601, 93, 307, 108, 322
-0.999602, 147, 307, 162, 322
-0.999604, 289, 65, 320, 192
-0.999605, 211, 305, 226, 320
-0.999606, 299, 229, 314, 244
-0.999606, 141, 333, 156, 348
-0.999607, 127, 259, 142, 274
-0.999607, 125, 267, 140, 282
-0.999608, 235, 297, 250, 312
-0.999608, 81, 333, 96, 348
-0.999609, 151, 329, 166, 344
-0.999614, 21, 243, 36, 258
-0.999614, 57, 263, 72, 278
-0.999615, 249, 5, 264, 20
-0.999615, 51, 223, 66, 238
-0.999616, 159, 331, 174, 346
-0.999616, 45, 431, 60, 446
-0.999616, 225, 303, 240, 318
-0.999617, 129, 253, 144, 268
-0.999618, 15, 241, 30, 256
-0.999619, 1, 267, 16, 282
-0.99962, 245, 215, 260, 230
-0.999621, 13, 261, 28, 276
-0.999622, 75, 235, 90, 250
-0.999624, 31, 203, 46, 218
-0.999624, 53, 243, 68, 258
-0.999625, 21, 261, 36, 276
-0.999626, 229, 217, 244, 232
-0.999627, 157, 161, 188, 416
-0.999628, 207, 291, 222, 306
-0.999628, 43, 223, 58, 238
-0.999629, 217, 13, 232, 28
-0.99963, 39, 243, 54, 258
-0.999631, 27, 243, 42, 258
-0.999632, 45, 263, 60, 278
-0.999632, 11, 221, 26, 236
-0.999633, 47, 243, 62, 258
-0.999633, 7, 261, 22, 276
-0.999633, 61, 225, 76, 240
-0.999634, 9, 241, 24, 256
-0.999634, 245, 11, 260, 26
-0.999635, 37, 223, 52, 238
-0.999637, 197, 301, 212, 316
-0.999637, 225, 17, 240, 32
-0.999637, 3, 227, 18, 242
-0.999638, 51, 263, 66, 278
-0.999638, 27, 263, 42, 278
-0.999639, 21, 203, 36, 218
-0.999639, 33, 243, 48, 258
-0.999639, 143, 287, 158, 302
-0.99964, 227, 287, 242, 302
-0.999641, 233, 15, 248, 30
-0.999641, 221, 315, 236, 330
-0.999641, 3, 247, 18, 262
-0.999641, 39, 263, 54, 278
-0.999646, 17, 223, 32, 238
-0.99965, 239, 13, 254, 28
-0.999651, 69, 207, 84, 222
-0.999651, 31, 223, 46, 238
-0.999653, 33, 263, 48, 278
-0.999655, 67, 197, 82, 212
-0.999658, 23, 223, 38, 238
-0.999663, 5, 207, 20, 222
-0.999664, 61, 245, 76, 260
-0.999665, 57, 205, 72, 220
-0.999665, 15, 201, 30, 216
-0.999667, 7, 191, 22, 206
-0.999671, 131, 339, 146, 354
-0.999671, 65, 265, 80, 280
-0.999676, 5, 201, 20, 216
-0.999676, 67, 243, 82, 258
-0.999682, 209, 297, 224, 312
-0.999683, 67, 225, 82, 240
-0.999685, 225, 297, 240, 312
-0.999691, 217, 289, 232, 304
-0.999693, 1, 261, 16, 276
-0.999699, 177, 397, 304, 428
-0.9997, 237, 213, 252, 228
-0.999702, 5, 221, 20, 236
-0.999705, 297, 223, 312, 238
-0.999712, 33, 389, 160, 420
-0.999714, 3, 241, 18, 256
-0.99972, 135, 253, 150, 268
-0.999728, 145, 49, 272, 80
-0.99973, 1, 49, 128, 80
-0.999732, 63, 205, 78, 220
-0.999735, 197, 295, 212, 310
-0.99974, 113, 409, 240, 440
-0.999768, 61, 65, 92, 320
-0.999783, 17, 101, 144, 132
-0.999802, 217, 281, 232, 296
-0.99983, 65, 101, 192, 132
-0.999831, 17, 97, 48, 224
-0.999863, 73, 353, 104, 480
-0.999948, 81, 257, 112, 500
-1.00003, 1, 137, 332, 200
-1.00013, 257, 273, 288, 400
-1.00015, 229, 49, 260, 176
-1.0002, 1, 33, 32, 288
-1.00022, 129, 145, 160, 272
-1.00023, 1, 97, 332, 160
-1.00031, 161, 1, 192, 256
-1.00042, 121, 1, 152, 256
-1.00046, 109, 33, 140, 288
-1.00046, 301, 81, 332, 208
-1.00047, 113, 1, 144, 128
-1.00051, 49, 33, 80, 288
-1.00059, 137, 65, 168, 320
-1.00063, 21, 33, 52, 288
-1.00071, 153, 145, 184, 272
-1.00085, 149, 65, 180, 320
-1.00098, 57, 129, 88, 256
-1.001, 1, 369, 332, 432
-1.00109, 33, 33, 64, 288
-1.00121, 61, 17, 92, 144
-1.00128, 1, 433, 332, 496
-1.00133, 1, 409, 332, 472
-1.00253, 33, 369, 96, 496
-1.00412, 265, 337, 328, 464
-1.00476, 17, 49, 80, 176
