1981
-0.253752, 1, 1, 375, 500
-0.327179, 1, 65, 375, 320
-0.392201, 1, 161, 375, 416
-0.39971, 129, 1, 375, 500
-0.490354, 129, 33, 375, 288
-0.498351, 1, 1, 256, 500
-0.532548, 1, 257, 375, 500
-0.635079, 97, 161, 352, 416
-0.638778, 1, 65, 256, 320
-0.706097, 129, 257, 375, 500
-0.731494, 1, 161, 256, 416
-0.804332, 241, 1, 368, 256
-0.822727, 177, 33, 304, 288
-0.830496, 241, 1, 368, 500
-0.834773, 209, 161, 336, 416
-0.846985, 193, 1, 320, 500
-0.851721, 161, 161, 288, 416
-0.856299, 33, 257, 288, 500
-0.864915, 225, 257, 352, 500
-0.869692, 1, 81, 375, 208
-0.870589, 129, 1, 256, 500
-0.875167, 129, 1, 256, 256
-0.875915, 1, 129, 375, 256
-0.881664, 113, 161, 240, 416
-0.890324, 1, 1, 375, 128
-0.895228, 177, 257, 304, 500
-0.89902, 129, 113, 375, 240
-0.899812, 1, 1, 128, 500
-0.902198, 1, 97, 128, 352
-0.907189, 1, 177, 375, 304
-0.908082, 129, 1, 375, 128
-0.909294, 241, 129, 368, 256
-0.911301, 129, 177, 375, 304
-0.911401, 129, 65, 375, 192
-0.91274, 1, 257, 375, 384
-0.915729, 129, 257, 375, 384
-0.916368, 305, 1, 368, 128
-0.917987, 1, 161, 256, 288
-0.919609, 209, 33, 336, 160
-0.919714, 225, 257, 352, 384
-0.920005, 81, 65, 208, 320
-0.921332, 257, 129, 320, 256
-0.922731, 193, 129, 320, 256
-0.923886, 305, 273, 368, 400
-0.924277, 81, 1, 208, 500
-0.92559, 17, 1, 144, 256
-0.925783, 289, 129, 352, 256
-0.926777, 129, 257, 256, 500
-0.927102, 1, 97, 256, 224
-0.927432, 313, 129, 375, 256
-0.930229, 265, 49, 328, 176
-0.931011, 217, 177, 280, 304
-0.931659, 129, 65, 256, 192
-0.932231, 177, 177, 304, 304
-0.932771, 209, 81, 336, 208
-0.933042, 169, 161, 232, 288
-0.933584, 281, 1, 344, 128
-0.933861, 289, 177, 352, 304
-0.934041, 225, 257, 288, 384
-0.934127, 225, 33, 288, 160
-0.934188, 265, 257, 328, 384
-0.934328, 185, 49, 248, 176
-0.934731, 289, 65, 352, 192
-0.934902, 1, 193, 128, 448
-0.935017, 65, 161, 192, 416
-0.935067, 193, 145, 256, 272
-0.936817, 233, 113, 296, 240
-0.937339, 185, 97, 248, 224
-0.937715, 1, 49, 256, 176
-0.937716, 225, 177, 352, 304
-0.937862, 257, 177, 320, 304
-0.939198, 129, 305, 375, 432
-0.939498, 145, 241, 272, 368
-0.940638, 1, 209, 256, 336
-0.940659, 113, 177, 240, 304
-0.941755, 297, 49, 360, 112
-0.942054, 1, 97, 64, 224
-0.942056, 273, 41, 336, 104
-0.942637, 257, 1, 320, 128
-0.943095, 185, 57, 248, 120
-0.943253, 313, 17, 375, 80
-0.943421, 209, 97, 272, 224
-0.943846, 1, 321, 375, 448
-0.944774, 177, 225, 240, 352
-0.944789, 281, 9, 344, 72
-0.944816, 313, 49, 375, 176
-0.945932, 169, 177, 232, 240
-0.946533, 153, 1, 216, 128
-0.947547, 297, 321, 360, 448
-0.948886, 161, 1, 288, 128
-0.949226, 313, 137, 375, 200
-0.949254, 145, 113, 272, 240
-0.949325, 313, 161, 375, 224
-0.949666, 273, 321, 336, 384
-0.950242, 273, 305, 336, 432
-0.950516, 217, 41, 280, 104
-0.950571, 201, 1, 264, 128
-0.950577, 241, 41, 304, 104
-0.950896, 241, 313, 304, 376
-0.951106, 249, 129, 312, 192
-0.951613, 273, 161, 336, 224
-0.951653, 289, 137, 352, 200
-0.952161, 1, 145, 128, 272
-0.952623, 137, 177, 200, 304
-0.952673, 305, 225, 368, 352
-0.952834, 145, 433, 208, 496
-0.953076, 1, 145, 64, 272
-0.953089, 65, 257, 192, 500
-0.953119, 193, 145, 256, 208
-0.953583, 225, 129, 288, 192
-0.953722, 249, 153, 312, 216
-0.954042, 201, 257, 264, 384
-0.954652, 233, 1, 296, 64
-0.954962, 169, 153, 232, 216
-0.954964, 265, 1, 328, 256
-0.955217, 33, 257, 288, 384
-0.955797, 249, 65, 312, 128
-0.955962, 1, 193, 64, 320
-0.956122, 305, 1, 368, 256
-0.956435, 161, 49, 224, 176
-0.956541, 313, 313, 375, 376
-0.956869, 257, 9, 320, 72
-0.957026, 185, 33, 248, 96
-0.957057, 289, 97, 352, 352
-0.957086, 209, 65, 272, 128
-0.957094, 281, 273, 344, 336
-0.957415, 161, 289, 288, 416
-0.957441, 225, 321, 352, 448
-0.957599, 273, 185, 336, 248
-0.95831, 273, 65, 336, 128
-0.958643, 217, 313, 280, 376
-0.958759, 305, 193, 368, 256
-0.958931, 313, 177, 375, 304
-0.959505, 217, 33, 280, 288
-0.959748, 1, 121, 64, 184
-0.959834, 225, 169, 288, 232
-0.960071, 313, 97, 375, 352
-0.960238, 241, 41, 368, 104
-0.960484, 153, 65, 216, 128
-0.960929, 113, 305, 240, 432
-0.961231, 273, 41, 304, 104
-0.961341, 177, 1, 240, 128
-0.961886, 97, 129, 224, 256
-0.96201, 209, 129, 336, 192
-0.962013, 305, 273, 368, 336
-0.962238, 1, 193, 128, 320
-0.962241, 1, 1, 256, 128
-0.962335, 201, 121, 264, 184
-0.962762, 185, 97, 248, 160
-0.962812, 325, 49, 356, 112
-0.962841, 9, 81, 40, 208
-0.962941, 257, 161, 320, 416
-0.962987, 153, 201, 216, 264
-0.963267, 317, 1, 348, 128
-0.963314, 33, 305, 288, 432
-0.963423, 113, 17, 240, 144
-0.963497, 185, 161, 216, 288
-0.963611, 269, 129, 300, 256
-0.963774, 249, 305, 312, 432
-0.964028, 177, 57, 304, 120
-0.964044, 1, 145, 64, 208
-0.964101, 305, 73, 368, 136
-0.964361, 249, 185, 312, 248
-0.964583, 145, 177, 208, 240
-0.96459, 313, 49, 344, 112
-0.964671, 17, 97, 144, 224
-0.964692, 9, 81, 40, 144
-0.964885, 217, 161, 280, 416
-0.965117, 329, 273, 360, 400
-0.965303, 185, 1, 248, 256
-0.965415, 289, 129, 320, 256
-0.965627, 241, 161, 368, 224
-0.965674, 321, 17, 352, 80
-0.965745, 137, 113, 200, 240
-0.96594, 313, 337, 375, 400
-0.965982, 333, 129, 364, 256
-0.966015, 293, 49, 324, 176
-0.966069, 1, 97, 64, 160
-0.966111, 177, 209, 240, 272
-0.966292, 241, 1, 304, 256
-0.966376, 341, 273, 372, 400
-0.966441, 177, 169, 208, 232
-0.966619, 249, 265, 312, 328
-0.966683, 185, 57, 216, 120
-0.966684, 281, 49, 312, 176
-0.9669, 241, 17, 368, 80
-0.966902, 177, 169, 304, 232
-0.966902, 165, 433, 196, 496
-0.966914, 97, 161, 160, 288
-0.967135, 209, 305, 272, 432
-0.967154, 317, 129, 348, 256
-0.967243, 197, 49, 228, 176
-0.967304, 261, 41, 292, 104
-0.967506, 237, 257, 268, 384
-0.967517, 313, 193, 375, 448
-0.967623, 329, 1, 360, 128
-0.967667, 289, 257, 320, 384
-0.967701, 281, 297, 344, 360
-0.967777, 217, 65, 248, 192
-0.967907, 193, 177, 256, 240
-0.9682, 209, 265, 272, 328
-0.968234, 1, 105, 32, 168
-0.968313, 305, 129, 336, 256
-0.968394, 205, 225, 236, 288
-0.968451, 285, 1, 316, 128
-0.96846, 225, 65, 256, 128
-0.968461, 269, 1, 300, 128
-0.968467, 249, 337, 312, 400
-0.968482, 273, 241, 336, 304
-0.968651, 169, 161, 232, 416
-0.968717, 177, 241, 240, 304
-0.968887, 9, 49, 72, 176
-0.968914, 201, 177, 232, 304
-0.968947, 277, 313, 308, 376
-0.968979, 309, 273, 340, 400
-0.96898, 205, 225, 236, 352
-0.969011, 197, 65, 228, 128
-0.969188, 161, 145, 288, 208
-0.969363, 229, 17, 260, 144
-0.969431, 129, 369, 375, 496
-0.969502, 241, 289, 304, 352
-0.969506, 281, 129, 312, 192
-0.969517, 289, 1, 320, 64
-0.969671, 193, 313, 256, 376
-0.969754, 257, 257, 288, 384
-0.969765, 201, 185, 232, 248
-0.969873, 217, 113, 248, 240
-0.969899, 225, 329, 352, 392
-0.9699, 305, 321, 336, 384
-0.969957, 269, 65, 300, 192
-0.970252, 121, 289, 184, 416
-0.970359, 305, 1, 336, 128
-0.970432, 345, 17, 375, 80
-0.970492, 273, 9, 304, 72
-0.970508, 1, 369, 375, 496
-0.970664, 345, 17, 375, 144
-0.970806, 129, 201, 192, 264
-0.970835, 173, 161, 204, 288
-0.970854, 297, 41, 328, 104
-0.970915, 329, 313, 360, 376
-0.970996, 333, 81, 364, 208
-0.970998, 221, 257, 252, 384
-0.971041, 209, 49, 240, 112
-0.971053, 253, 113, 284, 240
-0.971103, 229, 305, 260, 368
-0.971192, 241, 97, 272, 224
-0.971234, 257, 177, 288, 304
-0.97131, 289, 177, 320, 304
-0.971318, 1, 73, 64, 136
-0.971331, 273, 257, 304, 384
-0.971418, 225, 257, 288, 500
-0.971514, 13, 105, 44, 168
-0.97174, 25, 145, 88, 272
-0.971893, 333, 17, 364, 80
-0.972036, 245, 177, 276, 304
-0.972062, 177, 273, 240, 400
-0.97207, 17, 177, 80, 240
-0.972087, 217, 337, 280, 400
-0.972089, 137, 41, 200, 104
-0.972146, 293, 321, 324, 384
-0.972166, 313, 65, 344, 192
-0.972185, 189, 169, 220, 232
-0.972299, 221, 41, 252, 104
-0.972327, 289, 193, 352, 448
-0.972543, 337, 137, 368, 200
-0.972586, 265, 257, 328, 500
-0.972599, 121, 433, 184, 496
-0.972701, 153, 225, 216, 352
-0.972705, 305, 249, 368, 312
-0.972748, 281, 345, 344, 408
-0.972825, 185, 49, 216, 176
-0.972869, 261, 153, 292, 216
-0.972876, 241, 65, 368, 128
-0.973049, 309, 17, 340, 80
-0.973051, 209, 305, 336, 368
-0.973066, 337, 49, 368, 112
-0.973087, 277, 177, 308, 304
-0.973174, 317, 321, 348, 384
-0.97321, 249, 33, 280, 160
-0.97322, 265, 185, 296, 248
-0.973256, 345, 129, 375, 256
-0.97335, 5, 129, 36, 256
-0.973351, 217, 241, 280, 304
-0.973395, 81, 353, 208, 480
-0.973439, 65, 177, 192, 304
-0.973465, 1, 249, 64, 312
-0.973542, 261, 1, 292, 64
-0.973609, 217, 121, 248, 184
-0.973816, 17, 129, 48, 192
-0.973951, 161, 89, 224, 152
-0.973987, 153, 433, 184, 496
-0.97403, 201, 1, 264, 64
-0.974305, 261, 121, 292, 184
-0.974383, 113, 17, 176, 144
-0.974395, 145, 153, 208, 216
-0.974397, 1, 161, 64, 416
-0.974419, 325, 145, 356, 208
-0.974436, 341, 313, 372, 376
-0.974533, 193, 193, 256, 448
-0.974543, 229, 97, 260, 224
-0.974659, 205, 89, 236, 152
-0.974716, 225, 97, 288, 160
-0.974762, 225, 177, 256, 304
-0.974798, 241, 193, 368, 256
-0.97501, 113, 153, 240, 216
-0.975022, 1, 137, 32, 200
-0.975026, 293, 161, 324, 224
-0.975111, 305, 185, 336, 248
-0.97524, 265, 65, 296, 128
-0.975297, 325, 273, 356, 336
-0.97532, 129, 65, 256, 128
-0.975354, 285, 49, 316, 112
-0.975401, 9, 217, 72, 280
-0.975432, 193, 33, 320, 96
-0.975454, 345, 169, 375, 232
-0.975609, 305, 177, 336, 304
-0.975624, 241, 273, 368, 336
-0.975654, 301, 137, 332, 200
-0.975749, 273, 113, 336, 176
-0.975773, 237, 329, 268, 392
-0.975826, 237, 129, 268, 192
-0.975982, 273, 153, 304, 216
-0.976071, 329, 169, 360, 232
-0.97608, 217, 97, 248, 160
-0.976092, 129, 177, 256, 240
-0.97612, 121, 169, 184, 232
-0.97638, 129, 97, 256, 160
-0.97647, 249, 129, 280, 192
-0.976489, 113, 201, 240, 264
-0.976607, 193, 145, 224, 208
-0.976612, 161, 121, 288, 184
-0.976623, 245, 265, 276, 328
-0.976804, 221, 177, 252, 240
-0.976855, 217, 17, 248, 144
-0.976859, 309, 321, 340, 448
-0.97686, 249, 177, 280, 240
-0.976918, 313, 145, 344, 208
-0.976947, 1, 241, 64, 368
-0.977031, 193, 265, 320, 328
-0.977059, 113, 209, 176, 336
-0.977172, 1, 65, 64, 320
-0.9772, 249, 209, 312, 272
-0.977322, 193, 1, 320, 64
-0.977389, 193, 337, 256, 400
-0.977403, 281, 185, 312, 248
-0.977461, 221, 305, 252, 432
-0.977471, 21, 145, 52, 272
-0.977479, 161, 353, 288, 480
-0.977489, 193, 97, 256, 352
-0.977553, 233, 153, 264, 216
-0.977728, 217, 193, 280, 256
-0.977737, 317, 169, 348, 232
-0.97775, 249, 241, 312, 304
-0.977763, 137, 65, 200, 192
-0.977782, 257, 305, 288, 368
-0.977869, 241, 49, 272, 112
-0.977911, 97, 177, 160, 240
-0.97793, 161, 1, 224, 256
-0.977958, 205, 97, 236, 224
-0.978019, 193, 193, 320, 256
-0.978053, 105, 361, 168, 424
-0.978067, 129, 233, 256, 296
-0.978105, 209, 289, 272, 352
-0.978138, 345, 281, 375, 344
-0.978188, 1, 177, 128, 240
-0.978296, 189, 201, 220, 264
-0.978311, 317, 193, 348, 256
-0.978433, 25, 153, 88, 216
-0.978515, 177, 113, 208, 240
-0.978636, 281, 1, 344, 500
-0.978798, 321, 73, 352, 136
-0.978832, 65, 33, 192, 160
-0.978882, 241, 305, 272, 368
-0.978893, 213, 177, 244, 304
-0.979098, 205, 1, 236, 128
-0.97916, 257, 1, 320, 500
-0.979198, 17, 49, 144, 176
-0.9794, 33, 353, 288, 480
-0.979508, 17, 137, 144, 200
-0.979508, 333, 73, 364, 136
-0.979532, 337, 209, 368, 336
-0.979571, 169, 201, 200, 264
-0.979578, 225, 265, 256, 328
-0.979831, 317, 177, 348, 304
-0.979871, 169, 289, 232, 352
-0.979959, 177, 145, 208, 208
-0.980003, 161, 33, 224, 96
-0.980052, 193, 217, 320, 280
-0.980052, 277, 305, 308, 432
-0.980121, 197, 33, 228, 96
-0.980124, 193, 225, 224, 288
-0.980129, 97, 225, 224, 352
-0.98013, 161, 305, 288, 368
-0.980198, 297, 273, 328, 336
-0.9802, 301, 65, 332, 128
-0.980243, 189, 97, 220, 224
-0.980302, 329, 321, 360, 448
-0.980359, 65, 273, 192, 400
-0.980446, 185, 265, 248, 328
-0.980489, 81, 433, 208, 496
-0.980535, 113, 337, 176, 400
-0.980581, 249, 1, 280, 64
-0.980628, 161, 97, 224, 224
-0.98065, 297, 113, 360, 176
-0.980675, 313, 273, 344, 336
-0.980685, 177, 329, 304, 392
-0.980811, 277, 265, 308, 328
-0.980812, 1, 225, 128, 288
-0.980838, 209, 241, 336, 304
-0.980845, 345, 81, 375, 208
-0.980896, 177, 433, 240, 496
-0.980925, 209, 145, 240, 208
-0.980986, 25, 113, 88, 176
-0.981047, 309, 225, 340, 352
-0.981049, 337, 193, 368, 256
-0.981064, 273, 353, 336, 480
-0.981091, 297, 233, 328, 296
-0.981133, 205, 113, 236, 176
-0.981168, 249, 153, 280, 216
-0.981203, 193, 89, 224, 152
-0.981208, 189, 1, 220, 128
-0.981222, 173, 65, 204, 128
-0.981352, 113, 41, 176, 104
-0.981368, 189, 209, 220, 336
-0.98137, 233, 1, 296, 500
-0.981395, 145, 321, 208, 448
-0.981429, 5, 193, 36, 320
-0.981451, 97, 353, 160, 480
-0.9815, 129, 33, 256, 96
-0.981519, 25, 97, 88, 224
-0.981581, 153, 233, 216, 296
-0.981686, 193, 81, 320, 144
-0.981791, 305, 433, 368, 496
-0.981803, 221, 329, 252, 392
-0.981804, 97, 113, 160, 240
-0.981838, 321, 225, 352, 352
-0.981839, 253, 65, 284, 128
-0.981953, 81, 177, 208, 240
-0.98196, 125, 145, 156, 272
-0.982071, 201, 217, 264, 280
-0.98211, 257, 321, 288, 448
-0.982254, 205, 249, 236, 312
-0.982262, 81, 81, 208, 208
-0.982358, 309, 345, 340, 408
-0.982381, 129, 433, 256, 496
-0.982395, 225, 369, 352, 496
-0.982426, 265, 265, 296, 328
-0.982492, 153, 273, 216, 400
-0.982573, 137, 89, 200, 152
-0.982576, 305, 361, 368, 424
-0.982648, 177, 209, 208, 336
-0.982674, 161, 65, 192, 128
-0.982674, 273, 233, 304, 296
-0.982697, 281, 209, 344, 272
-0.982762, 297, 305, 328, 432
-0.982798, 105, 201, 168, 264
-0.982855, 289, 73, 320, 136
-0.982951, 173, 65, 204, 192
-0.982967, 137, 33, 168, 160
-0.982974, 305, 1, 368, 500
-0.983002, 209, 1, 272, 500
-0.983025, 241, 241, 272, 304
-0.983037, 229, 89, 260, 152
-0.983119, 125, 169, 156, 232
-0.983261, 297, 297, 328, 360
-0.983373, 317, 249, 348, 312
-0.983444, 209, 353, 336, 416
-0.983468, 161, 161, 192, 288
-0.983493, 73, 337, 136, 464
-0.983621, 313, 297, 344, 360
-0.983622, 193, 249, 224, 312
-0.983864, 345, 73, 375, 136
-0.983897, 205, 313, 236, 376
-0.983957, 17, 321, 144, 448
-0.983983, 285, 241, 316, 304
-0.984008, 293, 185, 324, 248
-0.984059, 1, 241, 32, 368
-0.984062, 5, 33, 36, 160
-0.984131, 121, 193, 152, 256
-0.98419, 73, 353, 136, 416
-0.984358, 137, 193, 168, 320
-0.984512, 141, 201, 172, 264
-0.984537, 17, 113, 144, 176
-0.984558, 113, 121, 240, 184
-0.984594, 185, 321, 248, 448
-0.984644, 341, 321, 372, 448
-0.984659, 177, 1, 240, 64
-0.984765, 277, 73, 308, 136
-0.98478, 313, 217, 375, 280
-0.984793, 21, 97, 52, 224
-0.984798, 25, 81, 88, 144
-0.984874, 221, 145, 252, 208
-0.984875, 329, 337, 360, 400
-0.98489, 249, 337, 280, 400
-0.984909, 281, 337, 312, 400
-0.984972, 233, 361, 296, 424
-0.985023, 145, 1, 272, 64
-0.985063, 217, 305, 248, 368
-0.985086, 1, 241, 128, 368
-0.985132, 137, 73, 168, 136
-0.985227, 121, 329, 152, 392
-0.985234, 81, 57, 208, 120
-0.985234, 145, 257, 272, 320
-0.985265, 341, 337, 372, 400
-0.985316, 117, 321, 148, 448
-0.985365, 129, 297, 192, 360
-0.985422, 141, 81, 172, 208
-0.98557, 237, 321, 268, 448
-0.985591, 1, 57, 32, 120
-0.985609, 129, 65, 192, 128
-0.985615, 265, 433, 328, 496
-0.985627, 249, 105, 312, 168
-0.98568, 97, 153, 160, 216
-0.985707, 325, 121, 356, 184
-0.985926, 297, 345, 328, 408
-0.985928, 229, 1, 260, 64
-0.98596, 17, 81, 144, 144
-0.985961, 305, 393, 368, 456
-0.985966, 1, 201, 128, 264
-0.986006, 145, 409, 208, 472
-0.986183, 9, 161, 40, 224
-0.986196, 145, 161, 208, 416
-0.986217, 149, 1, 180, 128
-0.98622, 209, 25, 240, 88
-0.98638, 113, 361, 144, 424
-0.986465, 169, 313, 232, 376
-0.986481, 65, 137, 192, 200
-0.986481, 221, 241, 252, 304
-0.986482, 17, 193, 48, 320
-0.986553, 17, 201, 48, 264
-0.986578, 97, 113, 160, 176
-0.986586, 241, 25, 272, 88
-0.986834, 129, 49, 375, 112
-0.986866, 129, 129, 192, 192
-0.986925, 129, 329, 256, 392
-0.986926, 209, 105, 336, 168
-0.986933, 157, 49, 188, 176
-0.987117, 209, 273, 240, 400
-0.987121, 129, 225, 192, 288
-0.987192, 113, 65, 176, 192
-0.987234, 9, 1, 72, 128
-0.987235, 209, 361, 272, 424
-0.98732, 177, 1, 240, 500
-0.987483, 81, 81, 208, 144
-0.987501, 17, 49, 80, 112
-0.987651, 113, 305, 240, 368
-0.987726, 81, 361, 208, 424
-0.987748, 145, 1, 208, 64
-0.987782, 241, 321, 304, 352
-0.987848, 281, 333, 344, 364
-0.987968, 65, 409, 192, 472
-0.987988, 169, 129, 232, 192
-0.987998, 1, 1, 64, 500
-0.988033, 273, 393, 336, 456
-0.98805, 145, 465, 208, 496
-0.988135, 257, 153, 320, 184
-0.988143, 21, 49, 52, 176
-0.988214, 257, 173, 320, 204
-0.98828, 289, 157, 352, 188
-0.988309, 137, 33, 200, 288
-0.988437, 297, 321, 360, 352
-0.988467, 289, 177, 352, 208
-0.988522, 125, 97, 156, 224
-0.988531, 137, 369, 200, 496
-0.988548, 125, 225, 156, 352
-0.988562, 185, 69, 248, 100
-0.988563, 177, 417, 304, 480
-0.988578, 265, 321, 328, 352
-0.988605, 209, 321, 240, 448
-0.988634, 233, 133, 296, 164
-0.988639, 89, 329, 152, 392
-0.988664, 25, 65, 88, 320
-0.988767, 145, 353, 272, 416
-0.988792, 201, 145, 264, 176
-0.988833, 233, 149, 296, 180
-0.988836, 201, 49, 264, 80
-0.988845, 165, 209, 196, 336
-0.988886, 1, 249, 128, 312
-0.988891, 249, 369, 312, 496
-0.988925, 241, 53, 304, 84
-0.988927, 217, 317, 280, 348
-0.98894, 289, 141, 352, 172
-0.988946, 313, 181, 375, 212
-0.988948, 297, 61, 360, 92
-0.988967, 193, 165, 256, 196
-0.988973, 265, 57, 328, 88
-0.988988, 17, 49, 144, 112
-0.988992, 113, 1, 176, 64
-0.989038, 297, 21, 360, 52
-0.989047, 265, 345, 328, 376
-0.989058, 313, 161, 375, 192
-0.989064, 289, 345, 352, 376
-0.989065, 97, 433, 160, 496
-0.989077, 305, 333, 368, 364
-0.989079, 105, 337, 136, 464
-0.989112, 233, 169, 296, 200
-0.989131, 257, 137, 320, 168
-0.989151, 169, 193, 232, 224
-0.989158, 129, 281, 256, 344
-0.989182, 165, 369, 196, 496
-0.989201, 145, 453, 208, 484
-0.989235, 241, 1, 304, 32
-0.989237, 169, 181, 232, 212
-0.98924, 313, 145, 375, 176
-0.989263, 169, 165, 232, 196
-0.989392, 273, 17, 336, 48
-0.989407, 257, 333, 320, 364
-0.989428, 241, 393, 304, 456
-0.989442, 273, 193, 336, 224
-0.989449, 273, 41, 336, 72
-0.98946, 313, 41, 375, 72
-0.989495, 129, 197, 192, 228
-0.989534, 33, 353, 160, 416
-0.989547, 233, 333, 296, 364
-0.989587, 1, 145, 256, 208
-0.98961, 1, 81, 256, 144
-0.989634, 129, 153, 375, 216
-0.989688, 65, 201, 192, 264
-0.989721, 97, 409, 160, 472
-0.989721, 201, 333, 264, 364
-0.989736, 81, 337, 208, 400
-0.989775, 249, 33, 312, 64
-0.989789, 201, 129, 264, 160
-0.989797, 177, 409, 240, 472
-0.989805, 157, 113, 188, 240
-0.989805, 209, 353, 272, 480
-0.989808, 273, 1, 336, 32
-0.989829, 1, 201, 256, 264
-0.989842, 145, 329, 208, 392
-0.989854, 81, 33, 208, 96
-0.989879, 137, 145, 168, 272
-0.989886, 241, 385, 368, 448
-0.989899, 145, 441, 208, 472
-0.989901, 225, 185, 288, 216
-0.989921, 177, 93, 240, 124
-0.989924, 241, 73, 304, 104
-0.989926, 89, 209, 152, 336
-0.989948, 161, 209, 224, 240
-0.990027, 113, 161, 144, 288
-0.990034, 305, 369, 368, 496
-0.990078, 81, 289, 144, 416
-0.990082, 129, 129, 375, 192
-0.990098, 313, 73, 375, 104
-0.990125, 193, 181, 256, 212
-0.990167, 153, 85, 216, 116
-0.990171, 1, 133, 64, 164
-0.99019, 177, 53, 240, 84
-0.990217, 145, 181, 208, 212
-0.990218, 9, 121, 72, 152
-0.99022, 177, 369, 240, 496
-0.990222, 201, 29, 264, 60
-0.990243, 265, 77, 328, 108
-0.990271, 129, 185, 375, 248
-0.990275, 233, 345, 296, 376
-0.990287, 201, 1, 264, 32
-0.990297, 81, 241, 208, 304
-0.990298, 169, 17, 200, 144
-0.990319, 129, 73, 375, 136
-0.99032, 305, 281, 368, 312
-0.990328, 177, 141, 240, 172
-0.990352, 153, 1, 216, 500
-0.990377, 1, 129, 375, 192
-0.990449, 265, 277, 328, 308
-0.990451, 313, 197, 375, 228
-0.990457, 241, 309, 304, 340
-0.990477, 1, 225, 256, 288
-0.990479, 169, 245, 232, 276
-0.990509, 97, 89, 160, 152
-0.990528, 145, 73, 208, 104
-0.990528, 305, 85, 368, 116
-0.990537, 313, 345, 375, 376
-0.990605, 1, 149, 64, 180
-0.990611, 281, 261, 344, 292
-0.990645, 281, 369, 344, 432
-0.990649, 81, 377, 144, 440
-0.990652, 209, 69, 272, 100
-0.990685, 177, 225, 240, 256
-0.990687, 1, 85, 64, 116
-0.990761, 249, 13, 312, 44
-0.990796, 193, 321, 256, 352
-0.990807, 265, 309, 328, 340
-0.990835, 1, 161, 64, 192
-0.990879, 305, 309, 368, 340
-0.990888, 121, 469, 184, 500
-0.990919, 273, 29, 336, 60
-0.99095, 121, 409, 184, 472
-0.990967, 129, 361, 192, 424
-0.990968, 297, 5, 360, 36
-0.990982, 1, 101, 64, 132
-0.990991, 193, 257, 224, 384
-0.991026, 121, 185, 184, 216
-0.991028, 241, 273, 304, 304
-0.991034, 185, 109, 248, 140
-0.991038, 173, 257, 204, 384
-0.991068, 217, 257, 280, 288
-0.991086, 209, 269, 272, 300
-0.991134, 249, 189, 312, 220
-0.991141, 65, 105, 320, 168
-0.991177, 297, 357, 360, 388
-0.991189, 161, 169, 288, 200
-0.991221, 33, 129, 64, 256
-0.991222, 121, 449, 184, 480
-0.991222, 33, 369, 160, 496
-0.991234, 153, 49, 216, 80
-0.991239, 137, 165, 200, 196
-0.991268, 209, 305, 272, 336
-0.991289, 9, 213, 72, 244
-0.991309, 225, 29, 288, 60
-0.991312, 137, 429, 200, 460
-0.991336, 169, 461, 232, 492
-0.991338, 137, 145, 200, 176
-0.991377, 177, 257, 240, 288
-0.991381, 275, 41, 290, 104
-0.991383, 281, 89, 344, 152
-0.991402, 17, 189, 80, 220
-0.991439, 249, 261, 312, 292
-0.991452, 9, 241, 72, 272
-0.991463, 225, 117, 288, 148
-0.991465, 1, 177, 256, 240
-0.991491, 25, 161, 88, 192
-0.991499, 305, 269, 368, 300
-0.991527, 89, 233, 152, 296
-0.991528, 169, 313, 232, 344
-0.991532, 217, 357, 280, 388
-0.991533, 1, 261, 64, 292
-0.991587, 17, 201, 80, 232
-0.991591, 193, 197, 256, 228
-0.991595, 177, 81, 240, 112
-0.991643, 33, 329, 160, 392
-0.99165, 1, 173, 64, 204
-0.991681, 121, 249, 184, 312
-0.991712, 209, 345, 272, 376
-0.991713, 241, 217, 368, 280
-0.991715, 9, 229, 72, 260
-0.991721, 9, 73, 72, 104
-0.991726, 289, 73, 352, 104
-0.991738, 225, 13, 288, 44
-0.991756, 137, 61, 200, 92
-0.991759, 105, 361, 168, 392
-0.991772, 25, 173, 88, 204
-0.991796, 217, 89, 280, 120
-0.991802, 177, 41, 240, 72
-0.991812, 129, 209, 192, 240
-0.99182, 137, 233, 200, 264
-0.991822, 257, 213, 320, 244
-0.991828, 281, 41, 296, 104
-0.99186, 225, 41, 288, 72
-0.991873, 173, 461, 204, 492
-0.991874, 277, 329, 308, 360
-0.991877, 113, 433, 176, 464
-0.991887, 1, 121, 32, 152
-0.991892, 9, 97, 40, 128
-0.991902, 305, 333, 336, 364
-0.991938, 345, 325, 375, 356
-0.991939, 193, 237, 256, 268
-0.991944, 335, 49, 350, 112
-0.991961, 1, 65, 375, 128
-0.991963, 97, 313, 352, 376
-0.991977, 329, 49, 344, 112
-0.991988, 13, 109, 44, 140
-0.992005, 161, 69, 288, 100
-0.992023, 177, 177, 208, 208
-0.992033, 113, 113, 144, 240
-0.992048, 153, 465, 184, 496
-0.992065, 185, 65, 216, 96
-0.992085, 9, 133, 40, 164
-0.992092, 201, 189, 232, 220
-0.992105, 201, 229, 232, 260
-0.992135, 281, 173, 312, 204
-0.992152, 221, 313, 252, 344
-0.992163, 169, 257, 232, 500
-0.992176, 193, 153, 320, 184
-0.992189, 233, 317, 264, 348
-0.992197, 281, 153, 312, 184
-0.992208, 225, 145, 256, 176
-0.992208, 237, 333, 268, 364
-0.992213, 289, 329, 320, 360
-0.992215, 301, 321, 332, 352
-0.992224, 225, 165, 256, 196
-0.992257, 9, 85, 40, 116
-0.992281, 323, 49, 338, 112
-0.992285, 301, 141, 332, 172
-0.992286, 333, 145, 364, 176
-0.99229, 313, 177, 344, 208
-0.992299, 341, 49, 356, 112
-0.9923, 201, 201, 232, 232
-0.992302, 205, 89, 236, 120
-0.992316, 1, 185, 375, 248
-0.992319, 241, 133, 272, 164
-0.992326, 305, 261, 336, 292
-0.992337, 129, 257, 375, 320
-0.992338, 161, 433, 192, 464
-0.992346, 321, 69, 352, 100
-0.992355, 289, 341, 320, 372
-0.992355, 293, 65, 324, 96
-0.992359, 337, 49, 368, 80
-0.992361, 261, 61, 292, 92
-0.992365, 325, 321, 356, 352
-0.992367, 233, 57, 264, 88
-0.992367, 345, 65, 375, 96
-0.992372, 309, 45, 340, 76
-0.992373, 201, 249, 232, 280
-0.992382, 281, 137, 312, 168
-0.992393, 17, 145, 48, 176
-0.992399, 241, 433, 368, 496
-0.992401, 189, 197, 220, 228
-0.992404, 261, 129, 292, 160
-0.992408, 225, 185, 256, 216
-0.992411, 261, 1, 292, 32
-0.992414, 169, 449, 200, 480
-0.992419, 317, 337, 348, 368
-0.992423, 177, 193, 208, 224
-0.992425, 181, 433, 196, 496
-0.992434, 225, 69, 256, 100
-0.992435, 205, 53, 236, 84
-0.992443, 249, 169, 280, 200
-0.992445, 325, 21, 356, 52
-0.992453, 221, 337, 252, 368
-0.992453, 337, 337, 368, 368
-0.992455, 281, 41, 312, 72
-0.992457, 13, 121, 44, 152
-0.992472, 141, 461, 172, 492
-0.992474, 345, 169, 375, 200
-0.992475, 313, 165, 344, 196
-0.992476, 261, 169, 292, 200
-0.992476, 337, 181, 368, 212
-0.992481, 241, 345, 272, 376
-0.992483, 273, 317, 304, 348
-0.992487, 293, 17, 324, 48
-0.992489, 325, 181, 356, 212
-0.992492, 1, 109, 32, 140
-0.992506, 245, 157, 276, 188
-0.992508, 225, 61, 352, 92
-0.99251, 313, 141, 344, 172
-0.992513, 225, 129, 256, 160
-0.992524, 245, 53, 276, 84
-0.992526, 273, 61, 304, 92
-0.992531, 297, 177, 328, 208
-0.992532, 269, 189, 300, 220
-0.992534, 345, 145, 375, 176
-0.992535, 261, 345, 292, 376
-0.992546, 21, 133, 52, 164
-0.992548, 333, 65, 364, 96
-0.992554, 317, 49, 332, 112
-0.99256, 237, 169, 268, 200
-0.992561, 253, 73, 284, 104
-0.992561, 289, 317, 320, 348
-0.992563, 261, 317, 292, 348
-0.992563, 297, 161, 328, 192
-0.992563, 325, 165, 356, 196
-0.992564, 309, 61, 340, 92
-0.992576, 125, 273, 156, 400
-0.992577, 205, 217, 236, 248
-0.992584, 97, 233, 352, 296
-0.992587, 21, 97, 36, 160
-0.992592, 317, 269, 348, 300
-0.992592, 97, 1, 160, 256
-0.992605, 273, 341, 304, 372
-0.992609, 177, 165, 208, 196
-0.992612, 189, 161, 220, 192
-0.992613, 181, 77, 212, 108
-0.99262, 209, 69, 240, 100
-0.99262, 341, 281, 372, 312
-0.992622, 285, 193, 316, 224
-0.992623, 345, 25, 375, 56
-0.992625, 241, 269, 272, 300
-0.992627, 297, 33, 328, 64
-0.992629, 225, 45, 256, 76
-0.99263, 325, 37, 356, 68
-0.992634, 261, 157, 292, 188
-0.992637, 221, 325, 252, 356
-0.992638, 321, 349, 352, 380
-0.992647, 1, 149, 32, 180
-0.992653, 281, 17, 312, 48
-0.992655, 153, 453, 184, 484
-0.992664, 209, 113, 240, 144
-0.992666, 205, 149, 236, 180
-0.992667, 189, 41, 220, 72
-0.992667, 201, 177, 232, 208
-0.99267, 285, 269, 316, 300
-0.992673, 185, 241, 216, 272
-0.992676, 305, 349, 336, 380
-0.992676, 237, 145, 268, 176
-0.992677, 15, 105, 30, 168
-0.992685, 189, 209, 220, 240
-0.99269, 287, 41, 302, 104
-0.992696, 273, 77, 304, 108
-0.992698, 225, 353, 256, 384
-0.992709, 309, 21, 340, 52
-0.992711, 209, 333, 336, 364
-0.992712, 205, 261, 236, 292
-0.992719, 273, 29, 304, 60
-0.99272, 191, 169, 206, 232
-0.992723, 1, 69, 32, 100
-0.992723, 203, 57, 218, 120
-0.992726, 275, 1, 290, 64
-0.992736, 161, 73, 192, 104
-0.992749, 189, 181, 220, 212
-0.99276, 325, 49, 356, 80
-0.992766, 221, 269, 252, 300
-0.992767, 225, 37, 352, 68
-0.992769, 221, 113, 252, 144
-0.992771, 189, 53, 220, 84
-0.992771, 213, 165, 244, 196
-0.992772, 253, 269, 284, 300
-0.992776, 297, 45, 328, 76
-0.992783, 11, 81, 26, 144
-0.992859, 321, 321, 336, 384
-0.992896, 225, 177, 352, 208
-0.992943, 89, 1, 152, 128
-0.992951, 17, 1, 144, 128
-0.992967, 145, 181, 272, 212
-0.992974, 323, 17, 338, 80
-0.992977, 241, 321, 256, 384
-0.992989, 33, 433, 160, 496
-0.992993, 223, 57, 238, 120
-0.993006, 217, 73, 232, 136
-0.993008, 269, 41, 284, 104
-0.99301, 161, 305, 192, 432
-0.993011, 169, 433, 184, 496
-0.993012, 329, 9, 344, 72
-0.993053, 113, 97, 176, 352
-0.99306, 215, 49, 230, 112
-0.993072, 209, 321, 336, 352
-0.993101, 1, 41, 375, 104
-0.993105, 251, 313, 266, 376
-0.993125, 335, 9, 350, 72
-0.993153, 281, 1, 296, 64
-0.993166, 221, 113, 236, 176
-0.993196, 5, 97, 20, 160
-0.993205, 191, 57, 206, 120
-0.99325, 271, 121, 286, 184
-0.99325, 241, 157, 368, 188
-0.993271, 225, 137, 352, 168
-0.993275, 229, 121, 244, 184
-0.993318, 1, 153, 375, 216
-0.993339, 197, 65, 212, 128
-0.993349, 9, 121, 24, 184
-0.993365, 341, 313, 356, 376
-0.99338, 17, 65, 32, 128
-0.9934, 177, 53, 304, 84
-0.993401, 125, 17, 156, 144
-0.993414, 317, 9, 332, 72
-0.99346, 73, 97, 136, 224
-0.993467, 1, 377, 128, 440
-0.993467, 293, 321, 308, 384
-0.993495, 73, 161, 136, 288
-0.993497, 105, 273, 136, 400
-0.993574, 347, 49, 362, 112
-0.993574, 243, 297, 258, 360
-0.993661, 287, 185, 302, 248
-0.993668, 341, 17, 356, 80
-0.993704, 149, 161, 180, 288
-0.993708, 177, 177, 192, 240
-0.993715, 279, 313, 294, 376
-0.993717, 81, 385, 208, 448
-0.993722, 305, 1, 336, 256
-0.993737, 185, 57, 200, 120
-0.993742, 1, 209, 375, 272
-0.993744, 215, 177, 230, 240
-0.993771, 211, 81, 226, 144
-0.993778, 281, 129, 296, 192
-0.993782, 185, 169, 200, 232
-0.993801, 113, 161, 240, 192
-0.993855, 225, 33, 240, 96
-0.993885, 207, 217, 222, 280
-0.993901, 241, 17, 368, 48
-0.993902, 3, 121, 18, 184
-0.993905, 65, 297, 192, 360
-0.993931, 265, 1, 280, 64
-0.993938, 231, 33, 246, 96
-0.993943, 337, 97, 368, 352
-0.993946, 129, 145, 256, 176
-0.993972, 97, 9, 352, 72
-0.993978, 241, 345, 368, 376
-0.99398, 231, 313, 246, 376
-0.993988, 129, 337, 375, 400
-0.994, 359, 169, 374, 232
-0.99405, 17, 401, 144, 464
-0.994051, 257, 177, 272, 240
-0.994058, 209, 49, 224, 112
-0.994062, 297, 353, 328, 480
-0.994062, 309, 321, 324, 384
-0.994083, 315, 321, 330, 384
-0.994087, 129, 401, 256, 464
-0.994104, 97, 209, 352, 272
-0.994128, 271, 177, 286, 240
-0.994139, 161, 433, 176, 496
-0.994146, 65, 265, 192, 328
-0.994148, 287, 9, 302, 72
-0.994154, 193, 377, 320, 440
-0.994166, 337, 129, 352, 192
-0.994167, 291, 129, 306, 192
-0.994187, 271, 153, 286, 216
-0.994193, 293, 49, 308, 112
-0.994218, 17, 149, 144, 180
-0.994241, 181, 145, 196, 208
-0.994242, 259, 41, 274, 104
-0.994246, 25, 1, 88, 500
-0.994258, 347, 273, 362, 336
-0.994259, 277, 161, 292, 224
-0.994262, 353, 313, 368, 376
-0.994265, 215, 233, 230, 296
-0.99428, 347, 17, 362, 80
-0.994284, 285, 1, 316, 256
-0.994303, 1, 153, 16, 216
-0.994327, 341, 273, 356, 336
-0.994336, 327, 329, 342, 392
-0.994338, 237, 49, 252, 112
-0.99435, 193, 217, 320, 248
-0.994378, 317, 161, 332, 224
-0.994386, 311, 185, 326, 248
-0.994394, 229, 57, 244, 120
-0.9944, 331, 137, 346, 200
-0.994403, 177, 129, 304, 160
-0.994411, 359, 281, 374, 344
-0.994414, 65, 113, 192, 176
-0.994415, 29, 121, 44, 184
-0.99445, 293, 9, 308, 72
-0.994453, 273, 161, 304, 416
-0.994467, 195, 201, 210, 264
-0.994478, 337, 1, 368, 256
-0.994483, 201, 33, 216, 96
-0.994494, 281, 185, 296, 248
-0.994494, 311, 17, 326, 80
-0.994495, 325, 145, 340, 208
-0.994496, 287, 313, 302, 376
-0.994522, 301, 97, 332, 352
-0.994522, 273, 321, 288, 384
-0.99454, 265, 129, 280, 192
-0.994555, 343, 129, 358, 192
-0.994562, 175, 433, 190, 496
-0.994569, 1, 97, 375, 160
-0.994579, 201, 225, 216, 288
-0.994626, 273, 1, 304, 256
-0.994632, 353, 137, 368, 200
-0.994655, 311, 161, 326, 224
-0.994658, 1, 241, 375, 304
-0.994679, 311, 49, 326, 112
-0.994692, 359, 321, 374, 384
-0.994693, 235, 121, 250, 184
-0.994693, 227, 177, 242, 240
-0.994704, 321, 1, 352, 256
-0.994724, 301, 9, 316, 72
-0.994727, 209, 177, 224, 240
-0.994727, 347, 313, 362, 376
-0.99473, 281, 369, 312, 496
-0.99473, 225, 65, 256, 320
-0.994732, 161, 193, 288, 224
-0.994733, 319, 185, 334, 248
-0.994733, 299, 321, 314, 384
-0.994739, 281, 65, 296, 128
-0.994749, 195, 145, 210, 208
-0.994773, 203, 169, 218, 232
-0.994778, 209, 273, 336, 304
-0.99478, 321, 97, 352, 352
-0.994782, 287, 65, 302, 128
-0.994788, 275, 65, 290, 128
-0.994796, 315, 273, 330, 336
-0.994803, 253, 161, 284, 416
-0.994838, 193, 9, 320, 40
-0.994842, 209, 77, 336, 108
-0.994842, 333, 321, 348, 384
-0.994844, 301, 161, 316, 224
-0.994847, 197, 169, 212, 232
-0.994848, 97, 449, 224, 480
-0.994856, 23, 73, 38, 136
-0.994857, 227, 265, 242, 328
-0.994867, 237, 265, 252, 328
-0.994871, 223, 313, 238, 376
-0.994886, 257, 153, 272, 216
-0.994894, 267, 65, 282, 128
-0.994896, 305, 233, 320, 296
-0.9949, 161, 313, 288, 344
-0.994905, 265, 153, 280, 216
-0.994908, 129, 209, 256, 240
-0.994909, 331, 169, 346, 232
-0.994918, 263, 177, 278, 240
-0.994947, 189, 65, 220, 320
-0.994949, 323, 257, 338, 320
-0.994949, 121, 1, 184, 500
-0.994954, 117, 361, 132, 424
-0.99496, 237, 297, 252, 360
-0.994976, 113, 225, 176, 480
-0.994984, 255, 129, 270, 192
-0.995012, 209, 161, 240, 416
-0.995024, 241, 193, 368, 224
-0.995059, 17, 25, 144, 88
-0.995068, 177, 29, 304, 60
-0.995092, 81, 189, 208, 220
-0.995099, 261, 33, 292, 288
-0.995118, 113, 249, 240, 280
-0.995149, 345, 193, 375, 448
-0.995162, 157, 257, 188, 384
-0.995173, 145, 461, 272, 492
-0.99519, 241, 33, 272, 288
-0.995212, 9, 65, 40, 320
-0.99524, 149, 369, 180, 496
-0.99525, 1, 1, 375, 64
-0.995258, 129, 113, 256, 144
-0.995259, 129, 93, 256, 124
-0.995269, 97, 469, 224, 500
-0.995296, 113, 81, 240, 112
-0.995297, 33, 257, 288, 320
-0.995316, 1, 193, 128, 224
-0.995345, 285, 97, 316, 352
-0.995406, 137, 241, 168, 368
-0.995419, 97, 437, 224, 468
-0.995492, 33, 57, 288, 120
-0.995516, 97, 1, 224, 64
-0.995516, 225, 409, 352, 472
-0.995556, 177, 141, 304, 172
-0.995571, 145, 377, 272, 440
-0.995577, 141, 289, 172, 416
-0.99559, 81, 201, 208, 232
-0.995594, 193, 229, 320, 260
-0.995606, 333, 193, 364, 448
-0.995687, 225, 49, 352, 80
-0.995698, 345, 369, 375, 496
-0.995703, 33, 33, 288, 96
-0.99572, 1, 221, 128, 252
-0.99572, 193, 345, 320, 376
-0.995723, 129, 237, 256, 268
-0.995764, 129, 45, 256, 76
-0.995798, 129, 433, 375, 496
-0.995803, 209, 309, 336, 340
-0.995809, 333, 369, 364, 496
-0.9959, 1, 305, 375, 368
-0.995905, 221, 161, 252, 416
-0.99591, 269, 353, 300, 480
-0.995945, 193, 261, 320, 292
-0.995964, 17, 169, 144, 200
-0.995969, 285, 225, 316, 480
-0.996013, 97, 1, 160, 500
-0.996021, 33, 337, 288, 400
-0.996026, 97, 65, 224, 96
-0.996036, 177, 205, 304, 236
-0.996062, 145, 325, 272, 356
-0.996102, 93, 305, 124, 432
-0.996106, 321, 193, 352, 448
-0.996128, 1, 181, 128, 212
-0.996138, 177, 65, 208, 320
-0.996195, 213, 73, 228, 104
-0.9962, 21, 1, 52, 128
-0.996205, 241, 5, 368, 36
-0.996212, 129, 125, 256, 156
-0.996216, 145, 437, 272, 468
-0.996221, 209, 1, 240, 256
-0.996244, 5, 161, 36, 416
-0.996247, 193, 89, 320, 120
-0.996256, 1, 205, 128, 236
-0.99626, 25, 193, 88, 320
-0.996278, 21, 97, 36, 128
-0.996316, 309, 193, 340, 448
-0.996351, 193, 245, 320, 276
-0.99636, 65, 209, 128, 336
-0.996365, 185, 369, 216, 496
-0.996403, 9, 129, 24, 160
-0.996413, 1, 109, 128, 140
-0.996417, 129, 225, 256, 256
-0.996418, 313, 369, 344, 496
-0.996426, 1, 129, 128, 160
-0.996441, 129, 361, 375, 424
-0.996442, 3, 129, 18, 160
-0.99645, 97, 177, 224, 208
-0.996465, 37, 81, 68, 208
-0.996486, 193, 161, 224, 416
-0.996495, 315, 329, 330, 360
-0.996501, 237, 257, 268, 500
-0.996522, 209, 357, 336, 388
-0.996536, 241, 161, 272, 416
-0.996547, 193, 105, 320, 136
-0.996555, 137, 369, 168, 496
-0.996581, 81, 145, 208, 176
-0.996609, 243, 313, 258, 344
-0.996628, 173, 305, 204, 432
-0.996633, 283, 325, 298, 356
-0.996641, 241, 333, 256, 364
-0.996675, 129, 261, 256, 292
-0.996689, 307, 321, 322, 352
-0.996699, 21, 133, 36, 164
-0.996712, 1, 245, 128, 276
-0.996721, 295, 329, 310, 360
-0.996738, 167, 465, 182, 496
-0.996745, 145, 449, 272, 480
-0.996771, 17, 73, 32, 104
-0.996773, 181, 457, 196, 488
-0.996782, 345, 321, 360, 352
-0.996788, 129, 301, 256, 332
-0.996792, 273, 257, 304, 500
-0.996799, 145, 345, 272, 376
-0.996814, 27, 133, 42, 164
-0.996817, 179, 177, 194, 208
-0.996829, 17, 77, 144, 108
-0.996831, 181, 161, 212, 416
-0.996833, 129, 289, 375, 352
-0.996835, 207, 85, 222, 116
-0.99686, 323, 337, 338, 368
-0.996876, 155, 461, 170, 492
-0.996897, 65, 165, 192, 196
-0.996901, 223, 317, 238, 348
-0.996902, 297, 193, 328, 448
-0.996913, 33, 1, 160, 64
-0.996946, 281, 193, 296, 224
-0.996957, 261, 257, 292, 500
-0.996963, 181, 441, 196, 472
-0.996966, 15, 121, 30, 152
-0.996972, 81, 361, 208, 392
-0.996984, 15, 133, 30, 164
-0.996997, 351, 317, 366, 348
-0.996997, 241, 261, 368, 292
-0.997006, 271, 1, 286, 32
-0.997015, 273, 189, 288, 220
-0.997018, 275, 61, 290, 92
-0.997036, 331, 61, 346, 92
-0.997039, 1, 329, 375, 392
-0.997039, 25, 337, 88, 464
-0.997042, 359, 69, 374, 100
-0.997058, 17, 161, 48, 416
-0.997059, 305, 337, 320, 368
-0.997062, 229, 321, 244, 352
-0.997068, 173, 433, 188, 464
-0.997073, 357, 169, 372, 200
-0.997075, 277, 321, 292, 352
-0.997081, 303, 61, 318, 92
-0.997082, 187, 469, 202, 500
-0.997084, 327, 165, 342, 196
-0.997089, 31, 145, 46, 176
-0.997099, 329, 177, 344, 208
-0.997108, 249, 257, 280, 500
-0.997125, 1, 233, 128, 264
-0.997133, 277, 177, 292, 208
-0.997134, 299, 161, 314, 192
-0.997146, 161, 273, 288, 304
-0.997146, 235, 333, 250, 364
-0.997147, 247, 329, 262, 360
-0.997148, 17, 109, 32, 140
-0.997151, 205, 253, 220, 284
-0.997152, 299, 173, 314, 204
-0.997155, 1, 261, 128, 292
-0.997159, 243, 49, 258, 80
-0.997159, 9, 141, 24, 172
-0.997164, 361, 329, 375, 360
-0.997178, 81, 129, 208, 160
-0.997188, 297, 33, 312, 64
-0.99719, 283, 137, 298, 168
-0.997199, 329, 349, 344, 380
-0.997201, 235, 321, 250, 352
-0.997203, 349, 41, 364, 72
-0.997205, 269, 53, 284, 84
-0.997209, 281, 161, 296, 192
-0.997219, 137, 257, 200, 500
-0.997219, 173, 465, 188, 496
-0.997225, 239, 165, 254, 196
-0.997227, 203, 201, 218, 232
-0.997228, 321, 37, 336, 68
-0.997231, 239, 153, 254, 184
-0.997238, 97, 385, 352, 448
-0.997243, 309, 141, 324, 172
-0.99725, 183, 77, 198, 108
-0.997254, 259, 133, 274, 164
-0.997255, 319, 265, 334, 296
-0.997256, 177, 41, 304, 72
-0.99726, 273, 129, 288, 160
-0.997262, 215, 249, 230, 280
-0.997264, 291, 33, 306, 64
-0.997265, 195, 181, 210, 212
-0.997267, 221, 53, 236, 84
-0.997268, 261, 1, 276, 32
-0.997273, 337, 145, 352, 176
-0.997273, 9, 97, 24, 128
-0.997278, 247, 133, 262, 164
-0.997279, 241, 205, 368, 236
-0.997281, 229, 129, 244, 160
-0.997284, 203, 181, 218, 212
-0.997287, 5, 109, 20, 140
-0.997289, 249, 53, 264, 84
-0.997294, 235, 129, 250, 160
-0.997304, 323, 177, 338, 208
-0.997304, 251, 1, 266, 32
-0.997308, 353, 65, 368, 96
-0.997323, 343, 145, 358, 176
-0.997324, 17, 297, 144, 360
-0.997332, 205, 229, 220, 260
-0.997333, 293, 173, 308, 204
-0.997344, 21, 65, 52, 320
-0.997347, 33, 49, 96, 176
-0.997347, 355, 41, 370, 72
-0.99735, 361, 149, 375, 180
-0.997356, 221, 257, 252, 500
-0.997357, 325, 265, 340, 296
-0.997359, 293, 137, 308, 168
-0.99736, 303, 141, 318, 172
-0.99736, 181, 157, 196, 188
-0.997361, 275, 341, 290, 372
-0.997361, 177, 193, 192, 224
-0.997363, 335, 177, 350, 208
-0.997366, 263, 189, 278, 220
-0.997367, 165, 445, 180, 476
-0.997371, 181, 469, 196, 500
-0.997372, 217, 89, 232, 120
-0.997372, 323, 141, 338, 172
-0.997374, 297, 57, 312, 88
-0.997374, 325, 65, 340, 96
-0.997374, 355, 53, 370, 84
-0.997375, 333, 157, 348, 188
-0.997381, 215, 181, 230, 212
-0.997382, 327, 37, 342, 68
-0.997386, 297, 17, 312, 48
-0.99739, 13, 85, 28, 116
-0.997391, 253, 133, 268, 164
-0.997393, 309, 57, 324, 88
-0.997396, 337, 61, 352, 92
-0.997397, 229, 153, 244, 184
-0.997399, 205, 69, 220, 100
-0.997403, 325, 21, 340, 52
-0.997406, 241, 345, 256, 376
-0.997406, 355, 149, 370, 180
-0.997407, 349, 145, 364, 176
-0.997408, 271, 201, 286, 232
-0.997408, 331, 145, 346, 176
-0.997411, 299, 45, 314, 76
-0.997411, 353, 25, 368, 56
-0.997411, 271, 169, 286, 200
-0.997413, 327, 49, 342, 80
-0.997415, 233, 165, 248, 196
-0.997422, 315, 141, 330, 172
-0.997426, 305, 173, 320, 204
-0.997439, 249, 313, 264, 344
-0.997441, 293, 161, 308, 192
-0.997442, 241, 217, 368, 248
-0.997444, 81, 373, 208, 404
-0.997444, 321, 165, 336, 196
-0.997448, 161, 361, 288, 392
-0.99747, 225, 297, 352, 328
-0.997519, 33, 361, 160, 392
-0.997538, 109, 17, 140, 144
-0.997549, 81, 237, 208, 268
-0.997567, 1, 97, 128, 128
-0.997599, 209, 257, 240, 500
-0.997635, 49, 433, 176, 464
-0.997675, 121, 129, 152, 384
-0.997696, 129, 425, 256, 456
-0.997715, 97, 349, 224, 380
-0.997725, 25, 161, 88, 416
-0.997727, 17, 65, 144, 96
-0.997733, 193, 305, 224, 432
-0.997764, 113, 65, 144, 192
-0.997765, 113, 313, 240, 344
-0.997774, 1, 313, 256, 376
-0.997782, 49, 417, 176, 448
-0.997786, 145, 5, 272, 36
-0.997787, 137, 33, 168, 288
-0.997788, 241, 285, 368, 316
-0.997853, 1, 289, 256, 352
-0.997898, 81, 213, 208, 244
-0.997926, 97, 329, 224, 360
-0.997927, 193, 117, 320, 148
-0.997961, 129, 25, 256, 56
-0.997963, 97, 409, 352, 472
-0.998024, 177, 297, 304, 328
-0.998027, 33, 361, 288, 424
-0.998076, 49, 465, 176, 496
-0.998084, 17, 65, 32, 192
-0.998088, 1, 265, 375, 328
-0.99809, 81, 225, 208, 256
-0.998098, 81, 93, 208, 124
-0.99819, 101, 97, 132, 224
-0.99824, 49, 353, 112, 480
-0.998242, 13, 241, 44, 368
-0.998242, 313, 273, 328, 400
-0.998258, 49, 449, 176, 480
-0.99826, 169, 193, 200, 448
-0.99826, 33, 349, 160, 380
-0.998273, 65, 249, 192, 280
-0.998283, 129, 289, 256, 320
-0.998317, 225, 397, 352, 428
-0.998319, 65, 37, 192, 68
-0.998323, 179, 161, 194, 288
-0.998324, 241, 369, 368, 400
-0.998331, 333, 273, 348, 400
-0.998356, 233, 319, 296, 334
-0.998369, 219, 49, 234, 176
-0.99837, 283, 129, 298, 256
-0.998375, 295, 129, 310, 256
-0.998375, 185, 161, 200, 288
-0.998377, 195, 161, 210, 288
-0.998378, 295, 49, 310, 176
-0.998383, 153, 473, 216, 488
-0.998387, 145, 465, 208, 480
-0.998387, 301, 49, 316, 176
-0.998387, 7, 97, 22, 224
-0.998389, 177, 69, 240, 84
-0.998393, 265, 325, 328, 340
-0.998393, 265, 345, 328, 360
-0.998394, 297, 323, 360, 338
-0.998398, 209, 315, 272, 330
-0.998398, 305, 41, 368, 56
-0.9984, 225, 1, 288, 16
-0.998401, 321, 1, 336, 128
-0.998404, 33, 373, 160, 404
-0.998404, 289, 339, 352, 354
-0.998411, 257, 57, 320, 72
-0.998412, 201, 1, 264, 16
-0.998414, 217, 51, 280, 66
-0.998415, 289, 49, 304, 176
-0.998416, 313, 65, 375, 80
-0.998419, 307, 49, 322, 176
-0.998422, 271, 113, 286, 240
-0.998424, 153, 483, 216, 498
-0.998425, 297, 329, 360, 344
-0.998426, 265, 333, 328, 348
-0.998428, 289, 61, 352, 76
-0.998429, 311, 129, 326, 256
-0.99843, 297, 159, 360, 174
-0.998432, 273, 37, 336, 52
-0.998434, 305, 129, 320, 256
-0.998435, 185, 47, 248, 62
-0.998436, 297, 179, 360, 194
-0.99844, 169, 181, 232, 196
-0.998443, 225, 335, 288, 350
-0.998444, 225, 65, 240, 192
-0.998449, 289, 1, 304, 128
-0.998452, 161, 197, 224, 212
-0.998453, 241, 325, 304, 340
-0.998454, 289, 347, 352, 362
-0.998455, 133, 193, 164, 448
-0.998455, 273, 157, 336, 172
-0.998455, 225, 341, 288, 356
-0.998456, 249, 153, 312, 168
-0.998459, 129, 191, 192, 206
-0.998465, 233, 7, 296, 22
-0.998466, 219, 97, 234, 224
-0.998467, 303, 257, 318, 384
-0.998467, 129, 205, 192, 220
-0.998468, 145, 455, 208, 470
-0.998468, 265, 339, 328, 354
-0.998471, 185, 145, 248, 160
-0.998472, 249, 1, 312, 16
-0.998472, 329, 1, 344, 128
-0.998474, 265, 319, 328, 334
-0.998474, 353, 273, 368, 400
-0.998476, 273, 175, 336, 190
-0.998476, 217, 149, 280, 164
-0.998482, 209, 167, 272, 182
-0.998482, 201, 333, 264, 348
-0.998483, 249, 33, 312, 48
-0.998484, 297, 355, 360, 370
-0.998485, 233, 171, 296, 186
-0.998485, 321, 129, 336, 256
-0.998489, 339, 129, 354, 256
-0.998491, 225, 189, 288, 204
-0.998494, 281, 177, 296, 304
-0.998494, 161, 213, 224, 228
-0.998494, 209, 325, 272, 340
-0.998496, 193, 185, 256, 200
-0.998498, 205, 87, 236, 102
-0.998498, 261, 269, 292, 284
-0.998499, 261, 167, 292, 182
-0.998499, 241, 7, 272, 22
-0.998499, 205, 101, 236, 116
-0.998499, 169, 165, 232, 180
-0.998502, 209, 73, 272, 88
-0.998503, 205, 223, 236, 238
-0.998503, 325, 335, 356, 350
-0.998503, 337, 1, 352, 128
-0.998504, 327, 129, 342, 256
-0.998505, 261, 11, 292, 26
-0.998505, 241, 469, 368, 500
-0.998505, 309, 345, 340, 360
-0.998505, 295, 177, 310, 304
-0.998507, 273, 195, 336, 210
-0.998507, 177, 97, 240, 112
-0.998507, 161, 143, 224, 158
-0.998508, 221, 341, 252, 356
-0.998509, 145, 449, 208, 464
-0.998509, 249, 77, 312, 92
-0.998509, 201, 339, 264, 354
-0.998511, 285, 195, 316, 210
-0.998511, 205, 145, 236, 160
-0.998512, 197, 165, 228, 180
-0.998512, 161, 457, 192, 472
-0.998513, 281, 345, 312, 360
-0.998514, 199, 49, 214, 176
-0.998516, 329, 343, 360, 358
-0.998516, 177, 243, 240, 258
-0.998517, 161, 241, 192, 256
-0.998517, 81, 53, 208, 84
-0.998517, 1, 83, 32, 98
-0.998518, 25, 81, 40, 208
-0.998519, 129, 197, 192, 212
-0.99852, 269, 345, 300, 360
-0.99852, 177, 425, 304, 456
-0.99852, 233, 347, 296, 362
-0.99852, 149, 443, 180, 458
-0.99852, 293, 345, 324, 360
-0.998521, 189, 207, 220, 222
-0.998521, 333, 129, 348, 256
-0.998522, 145, 441, 208, 456
-0.998523, 217, 323, 248, 338
-0.998524, 305, 85, 368, 100
-0.998524, 269, 319, 300, 334
-0.998524, 313, 201, 375, 216
-0.998524, 257, 339, 288, 354
-0.998526, 341, 285, 372, 300
-0.998529, 273, 81, 336, 96
-0.998529, 17, 135, 48, 150
-0.998531, 323, 273, 338, 400
-0.998531, 249, 171, 280, 186
-0.998532, 321, 325, 352, 340
-0.998532, 161, 203, 224, 218
-0.998532, 225, 1, 256, 16
-0.998533, 345, 331, 375, 346
-0.998534, 185, 163, 216, 178
-0.998534, 177, 479, 240, 494
-0.998534, 309, 351, 340, 366
-0.998534, 313, 335, 375, 350
-0.998535, 153, 187, 216, 202
-0.998536, 297, 339, 328, 354
-0.998536, 191, 49, 206, 176
-0.998536, 1, 257, 32, 500
-0.998537, 1, 103, 64, 118
-0.998538, 233, 57, 296, 72
-0.998538, 1, 133, 32, 148
-0.998539, 289, 281, 352, 296
-0.998539, 345, 339, 375, 354
-0.99854, 305, 323, 336, 338
-0.99854, 129, 485, 192, 500
-0.998541, 295, 1, 310, 128
-0.998541, 273, 181, 336, 196
-0.998541, 249, 273, 312, 288
-0.998542, 121, 477, 184, 492
-0.998543, 315, 1, 330, 128
-0.998543, 345, 129, 360, 256
-0.998545, 145, 85, 208, 100
-0.998545, 1, 123, 64, 138
-0.998547, 273, 5, 336, 20
-0.998548, 1, 135, 64, 150
-0.998549, 225, 133, 288, 148
-0.998551, 153, 91, 216, 106
-0.998551, 201, 245, 232, 260
-0.998552, 261, 173, 292, 188
-0.998552, 283, 49, 298, 176
-0.998553, 313, 345, 375, 360
-0.998553, 289, 129, 304, 256
-0.998555, 185, 243, 216, 258
-0.998556, 145, 73, 208, 88
-0.998557, 305, 185, 368, 200
-0.998557, 201, 197, 232, 212
-0.998558, 161, 47, 224, 62
-0.998558, 121, 471, 184, 486
-0.998558, 261, 131, 292, 146
-0.998559, 221, 187, 252, 202
-0.998559, 265, 279, 328, 294
-0.99856, 211, 177, 226, 304
-0.99856, 261, 151, 292, 166
-0.99856, 281, 257, 296, 384
-0.998561, 225, 355, 288, 370
-0.998562, 201, 211, 232, 226
-0.998562, 49, 225, 176, 352
-0.998562, 297, 275, 360, 290
-0.998563, 17, 125, 48, 140
-0.998563, 293, 323, 324, 338
-0.998563, 297, 21, 360, 36
-0.998564, 217, 167, 248, 182
-0.998564, 161, 437, 192, 452
-0.998564, 313, 285, 375, 300
-0.998565, 1, 87, 64, 102
-0.998567, 153, 67, 216, 82
-0.998567, 1, 119, 32, 134
-0.998567, 321, 349, 352, 364
-0.998567, 225, 73, 256, 88
-0.998568, 237, 169, 268, 184
-0.998569, 225, 31, 288, 46
-0.998569, 177, 473, 240, 488
-0.99857, 237, 349, 268, 364
-0.99857, 287, 177, 302, 304
-0.99857, 277, 333, 308, 348
-0.998571, 339, 273, 354, 400
-0.998571, 185, 325, 248, 340
-0.998571, 257, 13, 320, 28
-0.998573, 1, 169, 64, 184
-0.998573, 229, 113, 244, 240
-0.998574, 145, 181, 208, 196
-0.998575, 13, 119, 44, 134
-0.998575, 153, 241, 216, 256
-0.998577, 225, 273, 288, 288
-0.998577, 265, 139, 328, 154
-0.998578, 249, 177, 312, 192
-0.998578, 309, 179, 340, 194
-0.998578, 217, 263, 280, 278
-0.998578, 291, 257, 306, 384
-0.998578, 9, 147, 72, 162
-0.998578, 185, 103, 248, 118
-0.998579, 173, 161, 204, 176
-0.998579, 121, 463, 184, 478
-0.99858, 177, 249, 240, 264
-0.998581, 209, 7, 272, 22
-0.998581, 185, 109, 248, 124
-0.998581, 321, 181, 352, 196
-0.998582, 1, 161, 64, 176
-0.998582, 237, 323, 268, 338
-0.998583, 137, 433, 200, 448
-0.998583, 205, 177, 220, 304
-0.998584, 265, 351, 328, 366
-0.998584, 233, 313, 296, 328
-0.998584, 177, 235, 240, 250
-0.998584, 129, 211, 192, 226
-0.998584, 145, 79, 208, 94
-0.998585, 237, 1, 268, 16
-0.998585, 293, 177, 324, 192
-0.998585, 313, 165, 375, 180
-0.998587, 145, 161, 208, 176
-0.998587, 297, 157, 328, 172
-0.998587, 253, 321, 284, 336
-0.998588, 281, 269, 344, 284
-0.998588, 197, 95, 228, 110
-0.998588, 137, 41, 200, 56
-0.998588, 177, 75, 240, 90
-0.998588, 165, 477, 196, 492
-0.998589, 201, 251, 232, 266
-0.99859, 337, 183, 368, 198
-0.998591, 273, 31, 336, 46
-0.998591, 227, 257, 242, 384
-0.998592, 185, 143, 216, 158
-0.998592, 313, 49, 328, 176
-0.998592, 229, 149, 260, 164
-0.998594, 169, 449, 200, 464
-0.998595, 321, 161, 352, 176
-0.998595, 289, 11, 352, 26
-0.998595, 241, 249, 368, 280
-0.998595, 241, 51, 304, 66
-0.998596, 169, 443, 200, 458
-0.998596, 185, 53, 248, 68
-0.998597, 309, 159, 340, 174
-0.998597, 275, 65, 290, 192
-0.998597, 313, 47, 375, 62
-0.998597, 277, 129, 292, 256
-0.998598, 267, 177, 282, 304
-0.998598, 297, 143, 360, 158
-0.998599, 273, 339, 304, 354
-0.998599, 341, 163, 372, 178
-0.998599, 289, 67, 352, 82
-0.998599, 229, 335, 260, 350
-0.998601, 265, 129, 280, 256
-0.998603, 201, 47, 232, 62
-0.998604, 221, 329, 252, 344
-0.998605, 241, 149, 272, 164
-0.998605, 13, 109, 44, 124
-0.998606, 205, 229, 236, 244
-0.998606, 9, 143, 40, 158
-0.998606, 217, 147, 248, 162
-0.998606, 1, 109, 32, 124
-0.998607, 269, 257, 284, 384
-0.998607, 305, 177, 320, 304
-0.998607, 261, 55, 292, 70
-0.998609, 173, 455, 204, 470
-0.998609, 313, 39, 344, 54
-0.998609, 201, 185, 232, 200
-0.998611, 177, 181, 208, 196
-0.998611, 9, 101, 40, 116
-0.998611, 341, 325, 372, 340
-0.998612, 347, 273, 362, 400
-0.998612, 337, 65, 368, 80
-0.998613, 281, 1, 296, 128
-0.998614, 9, 89, 40, 104
-0.998616, 305, 61, 336, 76
-0.998616, 329, 41, 360, 56
-0.998617, 221, 315, 252, 330
-0.998618, 325, 63, 356, 78
-0.998619, 173, 465, 204, 480
-0.998619, 343, 81, 358, 208
-0.998619, 277, 175, 308, 190
-0.998619, 213, 49, 228, 176
-0.99862, 237, 51, 268, 66
-0.998621, 347, 17, 362, 144
-0.998621, 129, 413, 256, 444
-0.998622, 193, 1, 208, 128
-0.998623, 301, 37, 332, 52
-0.998625, 341, 43, 372, 58
-0.998626, 201, 239, 232, 254
-0.998626, 239, 97, 254, 224
-0.998627, 293, 59, 324, 74
-0.998628, 301, 329, 332, 344
-0.998629, 273, 325, 304, 340
-0.99863, 257, 345, 288, 360
-0.998631, 153, 463, 184, 478
-0.998631, 285, 35, 316, 50
-0.998632, 333, 65, 348, 192
-0.998633, 237, 341, 268, 356
-0.998633, 273, 57, 304, 72
-0.998634, 249, 53, 280, 68
-0.998634, 1, 97, 16, 224
-0.998635, 1, 433, 256, 496
-0.998635, 153, 65, 184, 320
-0.998636, 233, 33, 248, 160
-0.998639, 261, 177, 276, 304
-0.998639, 161, 471, 192, 486
-0.99864, 189, 67, 220, 82
-0.99864, 201, 191, 232, 206
-0.99864, 201, 205, 232, 220
-0.998641, 257, 5, 288, 20
-0.998642, 289, 333, 320, 348
-0.998642, 1, 273, 128, 304
-0.998647, 189, 45, 220, 60
-0.998647, 81, 301, 208, 332
-0.99865, 221, 49, 252, 64
-0.998653, 273, 35, 304, 50
-0.998656, 281, 155, 312, 170
-0.998657, 173, 485, 204, 500
-0.998662, 309, 339, 340, 354
-0.998668, 145, 471, 176, 486
-0.998669, 359, 273, 374, 400
-0.998672, 253, 177, 268, 304
-0.998673, 233, 317, 264, 332
-0.998675, 301, 1, 316, 128
-0.998676, 9, 95, 40, 110
-0.998678, 225, 353, 256, 480
-0.998687, 81, 385, 208, 416
-0.998698, 31, 113, 46, 240
-0.998713, 351, 129, 366, 256
-0.998719, 275, 177, 290, 304
-0.99872, 153, 479, 184, 494
-0.998723, 353, 17, 368, 144
-0.998734, 309, 1, 324, 128
-0.998735, 327, 65, 342, 192
-0.998736, 361, 193, 375, 320
-0.998738, 201, 1, 216, 128
-0.998745, 321, 65, 336, 192
-0.998748, 1, 273, 128, 336
-0.998751, 177, 385, 304, 416
-0.998751, 361, 1, 375, 128
-0.998754, 235, 257, 250, 384
-0.998755, 19, 145, 34, 272
-0.998759, 359, 129, 374, 256
-0.998764, 33, 385, 160, 416
-0.998764, 205, 49, 220, 176
-0.998765, 275, 257, 290, 384
-0.998769, 173, 471, 204, 486
-0.99877, 241, 441, 368, 472
-0.998771, 217, 209, 232, 336
-0.998771, 245, 17, 260, 144
-0.998774, 241, 257, 256, 384
-0.998776, 267, 65, 282, 192
-0.998782, 245, 97, 260, 224
-0.998785, 241, 125, 368, 156
-0.998803, 5, 145, 20, 272
-0.998808, 317, 177, 332, 304
-0.998814, 275, 1, 290, 128
-0.998817, 225, 385, 352, 416
-0.998819, 177, 285, 304, 316
-0.998821, 243, 177, 258, 304
-0.99883, 259, 257, 274, 384
-0.998834, 257, 17, 272, 144
-0.998835, 221, 1, 236, 128
-0.998836, 259, 113, 274, 240
-0.998842, 311, 177, 326, 304
-0.998846, 241, 229, 368, 260
-0.998846, 65, 313, 192, 344
-0.99885, 133, 145, 148, 272
-0.998858, 11, 49, 26, 176
-0.998859, 297, 241, 312, 368
-0.998868, 253, 113, 268, 240
-0.998869, 227, 17, 242, 144
-0.998872, 251, 257, 266, 384
-0.998882, 125, 1, 156, 256
-0.998882, 239, 33, 254, 160
-0.998884, 349, 81, 364, 208
-0.998891, 13, 113, 28, 240
-0.998902, 217, 145, 232, 272
-0.998917, 191, 113, 206, 240
-0.998919, 211, 1, 226, 128
-0.998924, 221, 257, 236, 384
-0.998932, 225, 193, 240, 320
-0.998936, 261, 65, 276, 192
-0.99894, 275, 321, 290, 448
-0.998948, 183, 33, 198, 160
-0.998948, 307, 305, 322, 432
-0.998949, 1, 53, 128, 84
-0.998953, 251, 33, 266, 160
-0.998957, 1, 257, 64, 500
-0.998961, 173, 161, 188, 288
-0.99897, 263, 1, 278, 128
-0.998974, 13, 209, 28, 336
-0.998974, 65, 397, 192, 428
-0.998977, 325, 321, 340, 448
-0.998977, 183, 81, 198, 208
-0.99898, 29, 161, 44, 288
-0.998988, 313, 225, 328, 352
-0.998993, 339, 321, 354, 448
-0.998996, 5, 241, 20, 368
-0.999001, 49, 329, 176, 360
-0.999011, 235, 145, 250, 272
-0.999012, 355, 193, 370, 320
-0.999012, 333, 337, 348, 464
-0.999017, 355, 81, 370, 208
-0.999039, 197, 257, 228, 500
-0.999057, 1, 9, 256, 72
-0.999112, 89, 193, 152, 448
-0.999147, 57, 1, 120, 500
-0.999185, 33, 257, 96, 384
-0.999234, 109, 1, 140, 256
-0.999303, 105, 225, 136, 352
-0.999345, 165, 65, 196, 320
-0.999372, 121, 225, 152, 480
-0.999434, 129, 321, 160, 448
-0.99944, 109, 97, 140, 352
-0.999476, 157, 193, 188, 448
-0.999507, 1, 385, 256, 448
-0.99957, 1, 433, 375, 496
-0.999585, 29, 161, 60, 416
-0.999626, 89, 353, 120, 480
-0.999648, 145, 161, 176, 416
-0.999675, 1, 361, 375, 424
-0.999726, 183, 141, 198, 156
-0.999727, 207, 93, 222, 108
-0.999729, 1, 141, 16, 156
-0.999732, 273, 169, 288, 184
-0.999733, 339, 181, 354, 196
-0.999735, 203, 189, 218, 204
-0.999737, 221, 321, 236, 336
-0.999738, 325, 159, 340, 174
-0.999738, 195, 143, 210, 158
-0.999739, 355, 329, 370, 344
-0.999739, 205, 261, 220, 276
-0.999742, 215, 185, 230, 200
-0.999744, 179, 89, 194, 104
-0.999744, 9, 143, 24, 158
-0.999745, 179, 179, 194, 194
-0.999745, 331, 275, 346, 290
-0.999745, 313, 159, 328, 174
-0.999745, 313, 179, 328, 194
-0.999745, 237, 149, 252, 164
-0.999745, 339, 161, 354, 176
-0.999746, 281, 333, 296, 348
-0.999746, 243, 321, 258, 336
-0.999747, 275, 339, 290, 354
-0.999747, 215, 93, 230, 108
-0.999749, 233, 313, 248, 328
-0.99975, 257, 171, 272, 186
-0.99975, 19, 75, 34, 90
-0.999751, 299, 177, 314, 192
-0.999751, 229, 335, 244, 350
-0.999752, 333, 355, 348, 370
-0.999752, 253, 151, 268, 166
-0.999753, 235, 335, 250, 350
-0.999753, 195, 163, 210, 178
-0.999753, 353, 163, 368, 178
-0.999754, 315, 331, 330, 346
-0.999754, 189, 67, 204, 82
-0.999754, 243, 169, 258, 184
-0.999754, 199, 45, 214, 60
-0.999754, 349, 327, 364, 342
-0.999755, 361, 185, 375, 200
-0.999755, 21, 95, 36, 110
-0.999756, 313, 337, 328, 352
-0.999757, 229, 49, 244, 64
-0.999758, 333, 41, 348, 56
-0.999758, 183, 445, 198, 460
-0.999758, 315, 61, 330, 76
-0.999758, 229, 321, 244, 336
-0.999759, 305, 341, 320, 356
-0.999761, 325, 271, 340, 286
-0.999761, 289, 175, 304, 190
-0.999761, 273, 131, 288, 146
-0.999762, 177, 485, 192, 500
-0.999762, 1, 409, 256, 472
-0.999762, 361, 45, 375, 60
-0.999762, 181, 161, 196, 176
-0.999763, 255, 53, 270, 68
-0.999763, 285, 57, 300, 72
-0.999764, 319, 39, 334, 54
-0.999765, 183, 451, 198, 466
-0.999765, 249, 341, 264, 356
-0.999765, 305, 37, 320, 52
-0.999766, 347, 43, 362, 58
-0.999766, 361, 69, 375, 84
-0.999767, 175, 437, 190, 452
-0.999767, 355, 67, 370, 82
-0.999767, 341, 65, 356, 80
-0.999768, 239, 315, 254, 330
-0.999768, 349, 183, 364, 198
-0.999769, 281, 175, 296, 190
-0.999769, 229, 167, 244, 182
-0.999769, 241, 51, 256, 66
-0.99977, 327, 63, 342, 78
-0.999771, 171, 469, 186, 484
-0.999773, 243, 335, 258, 350
-0.999773, 299, 59, 314, 74
-0.999774, 269, 55, 284, 70
-0.999775, 319, 179, 334, 194
-0.999775, 329, 349, 344, 364
-0.999775, 281, 327, 296, 342
-0.999776, 249, 53, 264, 68
-0.999776, 333, 181, 348, 196
-0.999777, 349, 67, 364, 82
-0.999777, 305, 177, 320, 192
-0.999777, 33, 1, 64, 256
-0.999778, 235, 51, 250, 66
-0.999778, 265, 3, 280, 18
-0.999778, 275, 347, 290, 362
-0.999779, 361, 165, 375, 180
-0.999779, 291, 155, 306, 170
-0.999781, 187, 483, 202, 498
-0.999781, 335, 65, 350, 80
-0.999781, 321, 63, 336, 78
-0.999781, 289, 35, 304, 50
-0.999782, 263, 55, 278, 70
-0.999783, 211, 81, 226, 96
-0.999784, 293, 331, 308, 346
-0.999784, 309, 61, 324, 76
-0.999784, 303, 157, 318, 172
-0.999786, 275, 319, 290, 334
-0.999787, 285, 155, 300, 170
-0.999787, 205, 255, 220, 270
-0.999787, 327, 41, 342, 56
-0.999787, 319, 159, 334, 174
-0.999788, 243, 149, 258, 164
-0.999789, 347, 163, 362, 178
-0.999789, 293, 59, 308, 74
-0.999789, 313, 39, 328, 54
-0.99979, 279, 57, 294, 72
-0.99979, 275, 33, 290, 48
-0.99979, 333, 161, 348, 176
-0.999791, 355, 45, 370, 60
-0.999792, 259, 151, 274, 166
-0.999793, 205, 47, 220, 62
-0.999793, 237, 1, 252, 16
-0.999795, 193, 45, 208, 60
-0.999795, 341, 43, 356, 58
-0.999797, 299, 37, 314, 52
-0.999798, 283, 35, 298, 50
-0.9998, 229, 147, 244, 162
-0.999804, 181, 461, 196, 476
-0.999806, 213, 73, 228, 88
-0.999809, 271, 5, 286, 20
-0.999812, 361, 331, 375, 346
-0.999812, 223, 49, 238, 64
-0.999815, 305, 327, 320, 342
-0.999816, 247, 315, 262, 330
-0.999819, 259, 3, 274, 18
-0.999826, 243, 1, 258, 16
-0.999829, 21, 101, 36, 116
-0.999832, 211, 87, 226, 102
-0.999835, 249, 1, 264, 16
-0.999854, 229, 1, 244, 16
-0.99988, 89, 49, 152, 176
-1.00002, 185, 257, 216, 500
-1.00006, 73, 97, 136, 352
-1.00009, 109, 257, 140, 500
-1.0001, 153, 209, 184, 336
-1.00024, 1, 409, 375, 472
-1.00027, 97, 225, 128, 480
-1.00033, 97, 1, 128, 256
-1.00038, 41, 97, 72, 352
-1.00049, 61, 161, 92, 416
-1.00053, 77, 65, 108, 320
-1.00059, 93, 97, 124, 352
-1.0006, 49, 193, 80, 448
-1.00071, 81, 225, 112, 480
-1.0008, 61, 257, 92, 500
-1.00082, 13, 257, 44, 500
-1.00085, 65, 65, 96, 320
-1.00086, 1, 385, 375, 448
-1.00104, 29, 257, 60, 500
-1.00113, 53, 65, 84, 320
-1.0012, 145, 257, 176, 500
-1.00174, 49, 305, 112, 432
-1.00256, 65, 225, 128, 480
-1.00292, 1, 305, 64, 432
-1.0031, 33, 257, 96, 500
-1.00325, 65, 49, 128, 176
-1.00431, 49, 145, 112, 272
-1.00472, 49, 129, 112, 384
-1.00543, 73, 1, 136, 256
-1.00642, 1, 353, 64, 480
-1.00673, 49, 1, 112, 256
-1.00772, 49, 97, 112, 224
-1.0081, 33, 1, 96, 128
-1.0098, 65, 1, 128, 128
-1.00986, 57, 257, 120, 384
