1876
-0.453794, 129, 1, 384, 333
-0.466048, 33, 1, 288, 333
-0.477377, 1, 1, 500, 333
-0.518228, 1, 65, 500, 320
-0.547552, 97, 65, 352, 320
-0.616029, 225, 1, 480, 333
-0.641661, 193, 65, 448, 320
-0.650036, 1, 1, 256, 256
-0.823486, 129, 1, 256, 333
-0.831113, 145, 65, 272, 320
-0.856441, 97, 33, 224, 288
-0.861783, 209, 65, 336, 320
-0.861818, 49, 1, 176, 256
-0.864144, 257, 1, 384, 333
-0.868986, 289, 33, 416, 288
-0.869074, 49, 1, 176, 333
-0.873823, 177, 1, 304, 333
-0.886942, 97, 113, 352, 240
-0.889975, 1, 209, 500, 333
-0.892946, 193, 161, 448, 288
-0.893024, 1, 97, 500, 224
-0.89564, 1, 1, 128, 333
-0.898451, 1, 1, 500, 128
-0.904168, 1, 145, 500, 272
-0.907048, 1, 49, 500, 176
-0.907074, 193, 113, 448, 240
-0.90921, 129, 209, 384, 333
-0.90924, 321, 1, 448, 333
-0.910469, 353, 65, 480, 320
-0.910557, 1, 1, 128, 256
-0.911957, 145, 113, 272, 240
-0.916752, 97, 161, 352, 288
-0.916846, 385, 129, 448, 256
-0.918834, 193, 145, 320, 272
-0.920495, 121, 49, 184, 176
-0.921342, 145, 177, 272, 304
-0.922652, 209, 161, 272, 288
-0.923222, 145, 97, 208, 224
-0.923758, 193, 209, 320, 333
-0.924484, 233, 129, 296, 256
-0.924586, 97, 49, 352, 176
-0.924725, 193, 97, 320, 224
-0.925547, 137, 193, 200, 320
-0.926105, 161, 209, 224, 333
-0.926991, 145, 145, 208, 272
-0.927317, 113, 65, 240, 192
-0.927668, 353, 145, 416, 272
-0.928776, 337, 129, 464, 256
-0.92882, 185, 145, 248, 272
-0.930336, 257, 177, 320, 304
-0.930556, 97, 1, 352, 128
-0.931877, 97, 129, 224, 256
-0.932168, 121, 97, 184, 224
-0.933003, 145, 49, 208, 176
-0.933087, 257, 129, 320, 256
-0.933626, 209, 113, 272, 240
-0.934279, 225, 209, 480, 333
-0.934301, 193, 65, 448, 192
-0.934801, 241, 81, 304, 208
-0.935219, 169, 97, 232, 224
-0.936507, 273, 145, 400, 272
-0.937034, 233, 209, 296, 333
-0.937598, 161, 177, 224, 240
-0.9395, 145, 105, 208, 168
-0.940028, 377, 145, 440, 208
-0.940633, 185, 193, 248, 320
-0.940678, 1, 177, 256, 304
-0.941585, 369, 1, 496, 333
-0.941844, 81, 209, 208, 333
-0.942014, 377, 209, 440, 333
-0.942024, 1, 17, 256, 144
-0.942628, 185, 161, 248, 224
-0.943153, 225, 105, 288, 168
-0.943307, 113, 1, 176, 128
-0.943667, 137, 153, 200, 216
-0.943796, 145, 1, 272, 128
-0.943859, 169, 217, 232, 280
-0.944007, 1, 81, 256, 208
-0.945357, 121, 145, 184, 272
-0.946317, 1, 129, 256, 256
-0.946802, 145, 201, 208, 264
-0.947303, 305, 209, 432, 333
-0.947401, 233, 137, 296, 200
-0.94769, 249, 217, 312, 280
-0.947766, 193, 121, 256, 184
-0.947825, 225, 217, 288, 280
-0.947877, 33, 17, 160, 144
-0.948135, 353, 169, 416, 232
-0.948471, 145, 1, 208, 128
-0.948637, 241, 97, 368, 224
-0.949216, 193, 185, 256, 248
-0.949878, 209, 209, 272, 333
-0.950011, 241, 241, 304, 304
-0.950314, 193, 273, 256, 333
-0.950664, 129, 57, 192, 120
-0.951075, 145, 129, 208, 192
-0.951128, 241, 209, 368, 333
-0.951263, 329, 177, 392, 304
-0.951429, 401, 177, 464, 304
-0.951522, 249, 113, 312, 176
-0.951616, 113, 193, 176, 320
-0.951684, 153, 241, 216, 304
-0.952224, 209, 153, 272, 216
-0.952556, 209, 241, 272, 304
-0.952595, 65, 81, 192, 208
-0.952753, 377, 121, 440, 184
-0.952824, 161, 273, 224, 333
-0.953013, 169, 1, 232, 128
-0.953192, 233, 161, 296, 224
-0.953379, 281, 65, 344, 192
-0.953977, 121, 121, 184, 184
-0.954226, 345, 145, 408, 208
-0.95428, 185, 49, 248, 176
-0.954756, 169, 137, 232, 200
-0.954861, 97, 17, 224, 144
-0.95494, 289, 65, 416, 192
-0.955155, 385, 169, 448, 232
-0.955657, 161, 25, 224, 88
-0.955918, 169, 113, 232, 176
-0.956087, 353, 177, 480, 304
-0.956773, 161, 49, 288, 176
-0.956981, 369, 257, 432, 320
-0.957072, 233, 265, 296, 328
-0.957502, 185, 249, 248, 312
-0.957727, 201, 209, 264, 272
-0.957777, 225, 193, 288, 256
-0.958305, 249, 89, 312, 152
-0.958542, 105, 25, 168, 88
-0.958742, 89, 17, 152, 144
-0.958838, 353, 193, 416, 320
-0.959006, 289, 257, 352, 320
-0.959268, 153, 1, 216, 256
-0.959347, 169, 89, 232, 152
-0.95954, 129, 265, 192, 328
-0.959743, 137, 177, 200, 240
-0.959745, 129, 1, 192, 64
-0.960965, 161, 217, 288, 280
-0.961329, 121, 97, 184, 160
-0.961415, 113, 121, 240, 184
-0.961533, 137, 97, 168, 224
-0.961857, 217, 65, 280, 192
-0.96208, 97, 97, 160, 224
-0.962084, 257, 137, 320, 200
-0.962636, 201, 65, 264, 320
-0.962691, 369, 193, 432, 256
-0.962747, 145, 49, 176, 176
-0.962757, 121, 1, 184, 256
-0.963079, 145, 81, 208, 144
-0.963312, 253, 113, 284, 176
-0.963448, 265, 241, 328, 304
-0.963623, 253, 217, 284, 280
-0.963781, 73, 257, 136, 320
-0.96428, 157, 113, 188, 240
-0.964377, 185, 177, 216, 240
-0.964413, 145, 161, 272, 224
-0.964616, 73, 209, 136, 333
-0.964741, 253, 193, 284, 320
-0.964742, 197, 193, 228, 256
-0.964981, 273, 73, 336, 136
-0.965044, 225, 129, 256, 192
-0.965198, 405, 137, 436, 200
-0.965211, 401, 145, 464, 208
-0.965383, 385, 225, 448, 288
-0.965421, 401, 265, 464, 328
-0.965527, 161, 185, 288, 248
-0.965561, 353, 97, 416, 224
-0.96585, 273, 17, 336, 144
-0.965909, 49, 145, 176, 272
-0.966052, 113, 201, 240, 264
-0.966091, 121, 201, 184, 264
-0.966407, 241, 65, 304, 320
-0.966478, 313, 49, 376, 176
-0.966483, 201, 97, 264, 160
-0.966583, 225, 49, 352, 176
-0.966671, 137, 113, 168, 176
-0.966795, 161, 129, 288, 192
-0.96682, 169, 193, 200, 256
-0.966864, 209, 145, 240, 272
-0.967057, 185, 1, 248, 64
-0.967115, 345, 193, 408, 256
-0.967141, 393, 129, 424, 192
-0.96722, 181, 209, 212, 272
-0.967251, 233, 177, 264, 304
-0.967317, 165, 241, 196, 304
-0.967424, 157, 49, 188, 176
-0.967424, 345, 273, 408, 333
-0.967464, 105, 145, 168, 208
-0.967662, 161, 97, 192, 160
-0.967662, 161, 241, 288, 304
-0.968057, 197, 193, 228, 320
-0.968205, 249, 193, 312, 256
-0.968213, 365, 169, 396, 232
-0.968228, 221, 113, 252, 240
-0.96829, 273, 161, 304, 288
-0.968294, 197, 153, 228, 216
-0.968308, 273, 97, 336, 160
-0.968322, 133, 49, 164, 176
-0.968344, 281, 209, 344, 333
-0.968623, 189, 273, 220, 333
-0.96871, 361, 225, 424, 288
-0.968733, 353, 121, 416, 184
-0.96874, 273, 217, 336, 280
-0.968843, 265, 113, 296, 240
-0.968884, 185, 193, 216, 320
-0.968889, 377, 161, 408, 288
-0.969056, 329, 169, 392, 232
-0.969061, 337, 145, 464, 208
-0.969184, 281, 113, 344, 240
-0.969194, 181, 153, 212, 216
-0.969204, 153, 121, 184, 184
-0.969385, 265, 201, 296, 264
-0.969422, 181, 113, 212, 240
-0.969524, 181, 249, 212, 312
-0.969671, 137, 25, 200, 88
-0.969698, 373, 137, 404, 200
-0.969849, 169, 81, 200, 208
-0.970004, 261, 241, 292, 304
-0.970046, 113, 169, 176, 232
-0.97017, 385, 161, 416, 224
-0.970196, 65, 17, 128, 144
-0.97022, 237, 137, 268, 200
-0.970261, 129, 233, 192, 296
-0.970282, 165, 153, 196, 216
-0.97029, 209, 113, 336, 176
-0.97033, 169, 265, 200, 328
-0.970366, 193, 153, 320, 216
-0.970506, 393, 193, 456, 256
-0.970527, 225, 217, 352, 280
-0.970558, 353, 169, 480, 232
-0.97061, 169, 217, 200, 280
-0.970677, 97, 145, 160, 272
-0.970701, 265, 129, 296, 192
-0.970834, 113, 257, 240, 320
-0.970967, 249, 113, 280, 240
-0.971, 277, 121, 308, 184
-0.971083, 149, 177, 180, 304
-0.971089, 265, 89, 296, 152
-0.971111, 161, 105, 288, 168
-0.971211, 17, 17, 80, 144
-0.971234, 177, 65, 240, 320
-0.971266, 169, 161, 200, 288
-0.971328, 97, 225, 160, 288
-0.971337, 201, 217, 232, 280
-0.971425, 97, 145, 224, 208
-0.971517, 409, 113, 440, 240
-0.971553, 217, 241, 248, 304
-0.971567, 209, 185, 336, 248
-0.971613, 177, 129, 208, 192
-0.971722, 393, 129, 424, 256
-0.971966, 321, 57, 384, 120
-0.972017, 409, 161, 440, 224
-0.972046, 145, 153, 176, 216
-0.972048, 217, 177, 248, 240
-0.972226, 197, 113, 228, 240
-0.972287, 97, 89, 160, 152
-0.972352, 237, 113, 268, 240
-0.972395, 409, 169, 472, 232
-0.97246, 277, 217, 308, 280
-0.972478, 41, 273, 104, 333
-0.972547, 89, 1, 152, 64
-0.972568, 153, 209, 184, 272
-0.97263, 209, 153, 240, 216
-0.972711, 365, 145, 396, 272
-0.972789, 97, 169, 224, 232
-0.9729, 145, 177, 176, 240
-0.972935, 377, 201, 408, 264
-0.972945, 149, 97, 180, 160
-0.972955, 233, 97, 264, 160
-0.973027, 357, 145, 388, 208
-0.973096, 237, 161, 268, 224
-0.97311, 281, 161, 344, 288
-0.973173, 113, 233, 240, 296
-0.973193, 145, 81, 272, 144
-0.973302, 193, 17, 448, 144
-0.973354, 161, 265, 288, 328
-0.973356, 97, 1, 160, 256
-0.973399, 73, 233, 136, 296
-0.973554, 405, 113, 436, 176
-0.973601, 289, 177, 416, 240
-0.973656, 233, 225, 264, 288
-0.9737, 177, 89, 208, 152
-0.973804, 201, 273, 232, 333
-0.973805, 225, 241, 352, 304
-0.973836, 337, 33, 400, 96
-0.973857, 133, 137, 164, 200
-0.973872, 209, 1, 272, 128
-0.973891, 169, 209, 200, 333
-0.973904, 277, 81, 308, 208
-0.973947, 41, 1, 104, 128
-0.974049, 125, 97, 156, 224
-0.974088, 257, 169, 320, 232
-0.974141, 385, 209, 416, 333
-0.974166, 129, 89, 160, 152
-0.974175, 221, 209, 252, 333
-0.974205, 213, 121, 244, 184
-0.974328, 173, 17, 204, 144
-0.974407, 421, 161, 452, 224
-0.974519, 133, 1, 164, 128
-0.974531, 241, 249, 272, 312
-0.974602, 265, 65, 296, 192
-0.97475, 141, 57, 172, 120
-0.974879, 389, 209, 420, 272
-0.974881, 353, 257, 480, 320
-0.974914, 377, 241, 408, 304
-0.974917, 225, 1, 352, 128
-0.974932, 225, 81, 288, 144
-0.974955, 145, 249, 176, 312
-0.975051, 137, 145, 168, 272
-0.975171, 265, 65, 328, 320
-0.975177, 201, 73, 264, 136
-0.975837, 249, 89, 280, 152
-0.975942, 241, 185, 272, 248
-0.975942, 141, 225, 172, 288
-0.975956, 145, 1, 208, 333
-0.975983, 189, 113, 220, 176
-0.976175, 409, 113, 472, 240
-0.976182, 273, 145, 400, 208
-0.976245, 121, 65, 152, 128
-0.976265, 165, 129, 196, 192
-0.976298, 277, 97, 308, 160
-0.976319, 421, 129, 452, 256
-0.976371, 221, 161, 252, 288
-0.976419, 125, 25, 156, 88
-0.976479, 401, 121, 464, 184
-0.976501, 329, 129, 392, 256
-0.976563, 209, 89, 336, 152
-0.976566, 281, 153, 312, 216
-0.976674, 249, 33, 312, 160
-0.976702, 117, 97, 148, 160
-0.977006, 33, 25, 96, 88
-0.977048, 65, 233, 192, 296
-0.977077, 33, 25, 160, 88
-0.97717, 273, 217, 400, 280
-0.977182, 97, 97, 224, 160
-0.977301, 285, 129, 316, 256
-0.977477, 329, 241, 392, 304
-0.97766, 249, 137, 280, 200
-0.977707, 425, 161, 488, 288
-0.977743, 145, 25, 176, 88
-0.977767, 225, 153, 256, 216
-0.977808, 265, 177, 296, 240
-0.977835, 121, 17, 152, 144
-0.978104, 305, 97, 368, 224
-0.978118, 265, 209, 296, 333
-0.978151, 337, 121, 464, 184
-0.978213, 213, 273, 244, 333
-0.978229, 129, 17, 256, 80
-0.978371, 381, 113, 412, 240
-0.978386, 345, 41, 376, 104
-0.978407, 193, 241, 224, 304
-0.978562, 161, 57, 224, 120
-0.978652, 249, 65, 280, 192
-0.978707, 181, 65, 212, 192
-0.97874, 81, 41, 208, 104
-0.97877, 417, 137, 448, 200
-0.97884, 273, 49, 336, 112
-0.978864, 329, 57, 360, 120
-0.978872, 377, 81, 440, 208
-0.978899, 237, 273, 268, 333
-0.978973, 229, 201, 260, 264
-0.979045, 201, 129, 232, 192
-0.97909, 409, 161, 440, 288
-0.97912, 49, 145, 176, 208
-0.979216, 185, 17, 216, 144
-0.97923, 165, 73, 196, 136
-0.979286, 97, 113, 160, 176
-0.979288, 157, 185, 188, 248
-0.979389, 81, 25, 144, 88
-0.979411, 393, 185, 424, 248
-0.979432, 169, 25, 200, 88
-0.979433, 225, 273, 256, 333
-0.979456, 65, 273, 192, 333
-0.979557, 281, 193, 312, 256
-0.979647, 393, 233, 424, 296
-0.979675, 285, 33, 316, 160
-0.979817, 297, 217, 328, 280
-0.979845, 253, 193, 284, 256
-0.979979, 33, 249, 96, 312
-0.980077, 337, 193, 464, 256
-0.980077, 137, 193, 168, 320
-0.980094, 33, 209, 160, 333
-0.980139, 337, 81, 464, 208
-0.980262, 257, 121, 384, 184
-0.980262, 77, 257, 108, 320
-0.980285, 285, 193, 316, 320
-0.98036, 313, 73, 344, 136
-0.980541, 177, 1, 240, 333
-0.980547, 361, 65, 424, 320
-0.980551, 121, 1, 184, 333
-0.98056, 241, 265, 368, 328
-0.980638, 133, 169, 164, 232
-0.980708, 121, 121, 152, 184
-0.980712, 9, 25, 72, 88
-0.980762, 149, 1, 180, 128
-0.980764, 161, 1, 224, 64
-0.981055, 213, 201, 244, 264
-0.98115, 353, 145, 384, 272
-0.981214, 177, 1, 304, 64
-0.981251, 57, 25, 120, 88
-0.981312, 305, 81, 368, 144
-0.981333, 209, 97, 240, 224
-0.981343, 113, 97, 144, 224
-0.98135, 153, 65, 184, 128
-0.981461, 197, 1, 228, 64
-0.981549, 281, 129, 344, 192
-0.981556, 321, 145, 384, 208
-0.981578, 273, 241, 304, 304
-0.981752, 129, 225, 160, 288
-0.981753, 425, 145, 488, 208
-0.982139, 289, 25, 352, 88
-0.982151, 305, 161, 368, 288
-0.982209, 305, 257, 432, 320
-0.982322, 365, 209, 396, 272
-0.982356, 313, 257, 344, 320
-0.982363, 297, 49, 360, 112
-0.982418, 73, 1, 136, 256
-0.982434, 257, 81, 384, 144
-0.982478, 81, 65, 208, 128
-0.982549, 161, 1, 192, 128
-0.982581, 49, 169, 176, 232
-0.982649, 273, 193, 336, 256
-0.982674, 125, 265, 156, 328
-0.982727, 121, 145, 152, 272
-0.982761, 249, 161, 280, 224
-0.982774, 321, 273, 384, 333
-0.982782, 249, 65, 312, 128
-0.982846, 261, 153, 292, 216
-0.982865, 297, 1, 360, 128
-0.982982, 109, 17, 140, 144
-0.983021, 353, 1, 480, 128
-0.983029, 353, 177, 384, 240
-0.983078, 313, 33, 376, 288
-0.983372, 397, 209, 428, 333
-0.983373, 185, 9, 216, 72
-0.983424, 257, 1, 320, 333
-0.983444, 433, 265, 464, 328
-0.983467, 337, 33, 400, 160
-0.983562, 209, 193, 240, 320
-0.983571, 105, 257, 168, 320
-0.983599, 105, 65, 168, 128
-0.983792, 385, 65, 448, 320
-0.9838, 417, 265, 448, 328
-0.983831, 389, 257, 420, 320
-0.983866, 409, 65, 472, 192
-0.983875, 197, 1, 228, 128
-0.984057, 1, 1, 64, 256
-0.984258, 301, 105, 332, 168
-0.984375, 49, 113, 176, 176
-0.984465, 145, 273, 176, 333
-0.98448, 157, 273, 188, 333
-0.98451, 141, 1, 172, 64
-0.984579, 117, 145, 148, 208
-0.984602, 209, 1, 272, 333
-0.984627, 161, 57, 288, 120
-0.984629, 185, 49, 248, 112
-0.984746, 197, 49, 228, 176
-0.984811, 65, 209, 192, 272
-0.984862, 229, 249, 260, 312
-0.984936, 361, 193, 392, 320
-0.985042, 433, 113, 496, 240
-0.985133, 297, 105, 360, 168
-0.985193, 177, 65, 208, 128
-0.985214, 397, 161, 428, 224
-0.985223, 77, 233, 108, 296
-0.985246, 393, 105, 424, 168
-0.985279, 185, 25, 248, 88
-0.985386, 321, 65, 352, 192
-0.985523, 333, 49, 364, 176
-0.985625, 289, 89, 320, 152
-0.985687, 321, 233, 448, 296
-0.985706, 337, 217, 400, 280
-0.985865, 229, 65, 260, 192
-0.985915, 369, 97, 400, 224
-0.985921, 289, 81, 320, 208
-0.985953, 409, 185, 440, 248
-0.985965, 133, 201, 164, 264
-0.986006, 205, 97, 236, 160
-0.986082, 373, 209, 404, 333
-0.98618, 157, 41, 188, 104
-0.98623, 293, 249, 324, 312
-0.986286, 305, 81, 336, 208
-0.986296, 425, 273, 488, 333
-0.986308, 213, 1, 244, 64
-0.986342, 257, 1, 320, 64
-0.986345, 233, 1, 296, 333
-0.98636, 89, 1, 152, 333
-0.986578, 49, 89, 176, 152
-0.986625, 81, 17, 208, 80
-0.986649, 421, 177, 452, 304
-0.986697, 293, 185, 324, 248
-0.986746, 189, 89, 220, 152
-0.986819, 425, 209, 488, 333
-0.986828, 65, 1, 128, 64
-0.986835, 33, 1, 96, 256
-0.986867, 289, 129, 320, 192
-0.986868, 205, 249, 236, 312
-0.986894, 357, 33, 388, 96
-0.986929, 329, 265, 360, 328
-0.987019, 305, 233, 368, 296
-0.987105, 305, 97, 432, 160
-0.987262, 289, 65, 352, 320
-0.987308, 137, 165, 200, 196
-0.98734, 409, 217, 472, 280
-0.98738, 357, 97, 388, 224
-0.987443, 297, 193, 328, 320
-0.98749, 225, 113, 288, 144
-0.987498, 121, 209, 152, 333
-0.98751, 97, 121, 352, 184
-0.987516, 361, 97, 424, 160
-0.987589, 17, 265, 144, 328
-0.987675, 265, 265, 328, 328
-0.987735, 145, 97, 208, 128
-0.987753, 161, 153, 416, 216
-0.987841, 305, 57, 432, 120
-0.987854, 377, 161, 440, 192
-0.987912, 161, 185, 224, 216
-0.987919, 249, 213, 312, 244
-0.988031, 185, 169, 248, 200
-0.988041, 265, 249, 328, 280
-0.988055, 145, 109, 208, 140
-0.9881, 433, 161, 464, 288
-0.988104, 433, 169, 496, 232
-0.988123, 145, 229, 208, 260
-0.988143, 25, 17, 56, 144
-0.988184, 241, 125, 304, 156
-0.988201, 313, 1, 376, 333
-0.988213, 177, 221, 240, 252
-0.988223, 193, 121, 256, 152
-0.988279, 241, 57, 368, 120
-0.988299, 369, 217, 496, 280
-0.988304, 217, 149, 280, 180
-0.988324, 377, 145, 440, 176
-0.988347, 233, 137, 296, 168
-0.988352, 145, 153, 208, 184
-0.988352, 33, 209, 96, 333
-0.988373, 241, 149, 304, 180
-0.988384, 249, 237, 312, 268
-0.988455, 121, 97, 184, 128
-0.988503, 161, 201, 224, 232
-0.988509, 185, 181, 248, 212
-0.988532, 153, 293, 216, 324
-0.988607, 353, 173, 416, 204
-0.988615, 345, 33, 376, 160
-0.988631, 225, 161, 288, 192
-0.988663, 233, 265, 296, 296
-0.988666, 161, 281, 224, 312
-0.988673, 177, 157, 240, 188
-0.98868, 225, 233, 288, 264
-0.98869, 161, 173, 224, 204
-0.988713, 1, 17, 32, 144
-0.988727, 169, 257, 232, 288
-0.988779, 353, 141, 416, 172
-0.988796, 145, 253, 208, 284
-0.988818, 65, 1, 128, 333
-0.988821, 377, 133, 440, 164
-0.988855, 281, 1, 344, 333
-0.988875, 193, 277, 256, 308
-0.988877, 121, 117, 184, 148
-0.9889, 65, 145, 320, 208
-0.988909, 145, 133, 208, 164
-0.988925, 137, 181, 200, 212
-0.988953, 153, 217, 216, 248
-0.988969, 145, 241, 208, 272
-0.988989, 233, 249, 296, 280
-0.98903, 201, 261, 264, 292
-0.989058, 193, 145, 256, 176
-0.989096, 281, 153, 344, 216
-0.989137, 361, 185, 424, 216
-0.989143, 97, 17, 128, 144
-0.989145, 177, 233, 240, 264
-0.989149, 353, 9, 416, 72
-0.989157, 129, 177, 384, 240
-0.989176, 185, 245, 248, 276
-0.989244, 397, 81, 428, 208
-0.989253, 137, 197, 200, 228
-0.989278, 225, 221, 288, 252
-0.989303, 209, 245, 272, 276
-0.989317, 177, 109, 240, 140
-0.989329, 369, 205, 432, 236
-0.98934, 193, 129, 448, 192
-0.989374, 121, 145, 184, 176
-0.989402, 217, 125, 280, 156
-0.989529, 185, 293, 248, 324
-0.989564, 121, 61, 184, 92
-0.989565, 97, 193, 160, 256
-0.989579, 265, 225, 328, 256
-0.989581, 345, 157, 408, 188
-0.989581, 129, 217, 192, 248
-0.989615, 81, 1, 112, 128
-0.98964, 249, 97, 312, 128
-0.98968, 145, 85, 208, 116
-0.989689, 257, 137, 320, 168
-0.989693, 305, 169, 368, 232
-0.989708, 201, 201, 264, 232
-0.989712, 249, 113, 312, 144
-0.989778, 249, 201, 312, 232
-0.989798, 129, 265, 192, 296
-0.989808, 401, 289, 464, 320
-0.989815, 361, 1, 424, 333
-0.989815, 369, 253, 432, 284
-0.989847, 121, 133, 184, 164
-0.989854, 137, 277, 200, 308
-0.989854, 201, 225, 264, 256
-0.989858, 129, 293, 192, 324
-0.989886, 257, 33, 384, 96
-0.989902, 161, 269, 224, 300
-0.989977, 145, 33, 208, 64
-0.990006, 401, 177, 464, 208
-0.990023, 145, 121, 208, 152
-0.990026, 105, 237, 168, 268
-0.990028, 209, 181, 272, 212
-0.990029, 385, 1, 448, 333
-0.990045, 225, 209, 288, 240
-0.990047, 129, 257, 384, 320
-0.990061, 273, 85, 336, 116
-0.990064, 89, 169, 152, 232
-0.990116, 393, 197, 456, 228
-0.990129, 281, 261, 344, 292
-0.990144, 233, 177, 296, 208
-0.990153, 217, 101, 280, 132
-0.990167, 177, 133, 240, 164
-0.990173, 217, 1, 280, 64
-0.990223, 145, 45, 208, 76
-0.990253, 337, 273, 400, 304
-0.990272, 249, 161, 312, 192
-0.990281, 201, 213, 264, 244
-0.990287, 377, 173, 440, 204
-0.9903, 129, 21, 192, 52
-0.990303, 213, 1, 244, 128
-0.990356, 225, 197, 288, 228
-0.990385, 345, 289, 408, 320
-0.990393, 409, 1, 472, 128
-0.990445, 225, 177, 480, 240
-0.990459, 73, 281, 136, 312
-0.990471, 401, 97, 464, 160
-0.990478, 89, 225, 152, 256
-0.990497, 329, 177, 392, 208
-0.990502, 113, 181, 176, 212
-0.990516, 145, 73, 208, 104
-0.990517, 265, 125, 328, 156
-0.99052, 33, 1, 160, 64
-0.990534, 45, 17, 76, 144
-0.99055, 169, 97, 232, 128
-0.990577, 1, 1, 64, 64
-0.990604, 113, 281, 176, 312
-0.990623, 169, 121, 232, 152
-0.99067, 401, 153, 464, 184
-0.990675, 13, 17, 44, 144
-0.990677, 369, 121, 432, 152
-0.990684, 361, 1, 424, 128
-0.99069, 393, 209, 456, 240
-0.990715, 401, 165, 464, 196
-0.990748, 97, 209, 352, 272
-0.990758, 305, 17, 432, 144
-0.990772, 169, 145, 232, 176
-0.990801, 81, 297, 144, 328
-0.990809, 273, 109, 336, 140
-0.990809, 69, 1, 100, 128
-0.990818, 337, 189, 400, 220
-0.990861, 113, 165, 176, 196
-0.990871, 113, 85, 176, 116
-0.990881, 297, 33, 328, 160
-0.990882, 289, 249, 352, 280
-0.990911, 369, 225, 432, 256
-0.99092, 81, 145, 144, 208
-0.99097, 337, 33, 400, 288
-0.990998, 41, 1, 104, 64
-0.991006, 113, 193, 176, 224
-0.991012, 433, 113, 464, 240
-0.99103, 17, 81, 144, 208
-0.991035, 321, 193, 384, 256
-0.991076, 9, 1, 72, 333
-0.991128, 169, 85, 232, 116
-0.991128, 273, 237, 336, 268
-0.991128, 233, 277, 296, 308
-0.991144, 393, 121, 456, 152
-0.991155, 97, 101, 160, 132
-0.991159, 273, 209, 336, 240
-0.991166, 49, 301, 112, 332
-0.991169, 257, 181, 320, 212
-0.991195, 193, 1, 256, 32
-0.991198, 97, 33, 160, 64
-0.991204, 145, 57, 208, 88
-0.991247, 329, 261, 392, 292
-0.99125, 177, 21, 240, 52
-0.991252, 57, 17, 88, 144
-0.991262, 25, 29, 88, 60
-0.991294, 337, 45, 400, 76
-0.991301, 121, 49, 184, 80
-0.99132, 65, 97, 320, 160
-0.991345, 257, 25, 320, 88
-0.991374, 97, 233, 352, 296
-0.991427, 33, 217, 96, 280
-0.991436, 257, 1, 384, 64
-0.991457, 433, 209, 464, 333
-0.991467, 225, 201, 480, 264
-0.991471, 321, 33, 448, 96
-0.991513, 41, 1, 104, 333
-0.99156, 313, 17, 376, 80
-0.991578, 81, 209, 112, 333
-0.991588, 17, 241, 144, 304
-0.991656, 225, 233, 480, 296
-0.991715, 263, 225, 278, 288
-0.991766, 257, 233, 288, 264
-0.99178, 417, 193, 480, 256
-0.991854, 225, 257, 480, 320
-0.991857, 193, 105, 448, 168
-0.991866, 189, 209, 220, 240
-0.991888, 229, 133, 260, 164
-0.991945, 149, 105, 180, 136
-0.991965, 373, 141, 404, 172
-0.991974, 161, 117, 288, 148
-0.991988, 185, 177, 216, 208
-0.991998, 217, 173, 248, 204
-0.992002, 177, 233, 208, 264
-0.992007, 177, 221, 304, 252
-0.992022, 269, 121, 300, 152
-0.992024, 161, 105, 192, 136
-0.99203, 249, 121, 280, 152
-0.992041, 365, 173, 396, 204
-0.992042, 33, 65, 160, 128
-0.992072, 161, 189, 288, 220
-0.992075, 257, 217, 288, 248
-0.992076, 137, 121, 168, 152
-0.992078, 165, 241, 196, 272
-0.992081, 165, 165, 196, 196
-0.992083, 173, 213, 204, 244
-0.992124, 341, 129, 372, 256
-0.992128, 393, 133, 424, 164
-0.992147, 205, 161, 236, 192
-0.992155, 405, 137, 436, 168
-0.99217, 133, 141, 164, 172
-0.992178, 81, 57, 144, 120
-0.992185, 393, 145, 424, 176
-0.992188, 381, 245, 412, 276
-0.992194, 265, 201, 296, 232
-0.9922, 193, 209, 320, 240
-0.992216, 241, 109, 272, 140
-0.992224, 225, 145, 256, 176
-0.992227, 161, 133, 192, 164
-0.992229, 257, 133, 288, 164
-0.992231, 197, 197, 228, 228
-0.992232, 181, 197, 212, 228
-0.992233, 245, 153, 276, 184
-0.992235, 169, 297, 200, 328
-0.992236, 153, 153, 184, 184
-0.992236, 185, 113, 216, 144
-0.992239, 145, 173, 272, 204
-0.992243, 385, 1, 448, 128
-0.992243, 377, 205, 408, 236
-0.992246, 173, 97, 204, 128
-0.992253, 181, 293, 212, 324
-0.992256, 181, 157, 212, 188
-0.992264, 193, 221, 224, 252
-0.992265, 261, 253, 292, 284
-0.992274, 121, 73, 152, 104
-0.99228, 253, 205, 284, 236
-0.992281, 129, 129, 256, 160
-0.992285, 273, 217, 304, 248
-0.992286, 137, 97, 168, 128
-0.992305, 137, 109, 168, 140
-0.992309, 149, 249, 180, 280
-0.992309, 389, 161, 420, 192
-0.99232, 233, 225, 264, 256
-0.992331, 169, 197, 200, 228
-0.992334, 177, 85, 208, 116
-0.992336, 401, 121, 432, 152
-0.992348, 245, 217, 276, 248
-0.992349, 201, 185, 216, 248
-0.992352, 177, 249, 208, 280
-0.992361, 141, 177, 172, 208
-0.992363, 169, 261, 200, 292
-0.992364, 241, 249, 272, 280
-0.992365, 225, 113, 256, 144
-0.992373, 377, 165, 408, 196
-0.992381, 153, 117, 184, 148
-0.992384, 169, 285, 200, 316
-0.992386, 409, 149, 440, 180
-0.992388, 175, 97, 190, 160
-0.992392, 133, 165, 164, 196
-0.992392, 281, 129, 312, 160
-0.992394, 197, 185, 228, 216
-0.992404, 425, 165, 456, 196
-0.992406, 197, 173, 228, 204
-0.992408, 153, 237, 184, 268
-0.992434, 277, 201, 308, 232
-0.992435, 165, 117, 196, 148
-0.992437, 189, 281, 220, 312
-0.992441, 169, 153, 200, 184
-0.992443, 157, 93, 188, 124
-0.992446, 229, 161, 260, 192
-0.992453, 213, 121, 244, 152
-0.992454, 205, 225, 236, 256
-0.992458, 173, 185, 204, 216
-0.992477, 277, 161, 308, 192
-0.992477, 281, 173, 312, 204
-0.992478, 189, 265, 220, 296
-0.99248, 201, 277, 232, 308
-0.992483, 421, 149, 452, 180
-0.99249, 153, 173, 184, 204
-0.992492, 257, 153, 500, 216
-0.992496, 217, 273, 248, 304
-0.992496, 33, 185, 288, 248
-0.992497, 409, 177, 440, 208
-0.992501, 381, 129, 412, 160
-0.992503, 137, 241, 168, 272
-0.992514, 189, 177, 204, 240
-0.99252, 361, 189, 392, 220
-0.99252, 253, 109, 284, 140
-0.992523, 413, 161, 444, 192
-0.992524, 245, 193, 276, 224
-0.992531, 189, 249, 220, 280
-0.992536, 133, 153, 164, 184
-0.992537, 277, 237, 308, 268
-0.992544, 353, 153, 384, 184
-0.992545, 173, 129, 204, 160
-0.992546, 149, 197, 180, 228
-0.992555, 153, 293, 184, 324
-0.992557, 149, 133, 180, 164
-0.992559, 225, 261, 256, 292
-0.992568, 117, 137, 148, 168
-0.992568, 125, 101, 156, 132
-0.99257, 161, 233, 288, 264
-0.992575, 273, 17, 304, 144
-0.992584, 141, 261, 172, 292
-0.992593, 149, 225, 180, 256
-0.992597, 245, 237, 276, 268
-0.992601, 389, 229, 420, 260
-0.992617, 265, 109, 296, 140
-0.992617, 1, 265, 256, 328
-0.992623, 301, 249, 332, 280
-0.992623, 165, 73, 196, 104
-0.992626, 205, 149, 236, 180
-0.99263, 197, 13, 228, 44
-0.992639, 205, 213, 236, 244
-0.992644, 145, 29, 176, 60
-0.992655, 165, 229, 196, 260
-0.992658, 253, 93, 284, 124
-0.99266, 285, 213, 316, 244
-0.99266, 145, 57, 176, 88
-0.992664, 353, 169, 384, 200
-0.992669, 265, 185, 296, 216
-0.992675, 241, 137, 272, 168
-0.992675, 1, 25, 256, 88
-0.992677, 265, 157, 296, 188
-0.992681, 357, 33, 388, 64
-0.99269, 237, 121, 268, 152
-0.992691, 213, 49, 244, 176
-0.992696, 133, 229, 164, 260
-0.992699, 125, 117, 156, 148
-0.992702, 193, 293, 224, 324
-0.992702, 273, 113, 288, 176
-0.992703, 73, 301, 104, 332
-0.992705, 129, 277, 160, 308
-0.992706, 257, 145, 288, 176
-0.992714, 229, 289, 260, 320
-0.99272, 393, 241, 424, 272
-0.992748, 161, 157, 288, 188
-0.992789, 183, 217, 198, 280
-0.992795, 187, 273, 202, 333
-0.992812, 193, 209, 208, 272
-0.992835, 1, 121, 500, 184
-0.99285, 297, 129, 328, 256
-0.992884, 353, 165, 480, 196
-0.992953, 265, 201, 280, 264
-0.992984, 171, 225, 186, 288
-0.993016, 165, 97, 180, 160
-0.99305, 177, 245, 304, 276
-0.993075, 1, 225, 500, 288
-0.993091, 97, 73, 352, 136
-0.993099, 271, 209, 286, 272
-0.993114, 151, 153, 166, 216
-0.993115, 417, 121, 432, 184
-0.993137, 371, 169, 386, 232
-0.993146, 383, 169, 398, 232
-0.993155, 371, 145, 386, 208
-0.993156, 203, 273, 218, 333
-0.993162, 113, 149, 240, 180
-0.993177, 137, 113, 152, 176
-0.993209, 149, 113, 164, 176
-0.99321, 209, 121, 336, 152
-0.993217, 433, 169, 448, 232
-0.993235, 207, 193, 222, 256
-0.993237, 257, 209, 272, 272
-0.993251, 273, 233, 288, 296
-0.993251, 421, 81, 452, 208
-0.993251, 81, 229, 208, 260
-0.993264, 139, 89, 154, 152
-0.993266, 177, 209, 192, 272
-0.993275, 173, 169, 188, 232
-0.993291, 263, 113, 278, 176
-0.993365, 181, 129, 196, 192
-0.993387, 193, 141, 320, 172
-0.993396, 281, 97, 296, 160
-0.993398, 1, 161, 500, 224
-0.9934, 247, 137, 262, 200
-0.993401, 93, 209, 124, 333
-0.99341, 257, 233, 272, 296
-0.993416, 227, 129, 242, 192
-0.993421, 75, 265, 90, 328
-0.99345, 129, 249, 256, 280
-0.993461, 185, 249, 200, 312
-0.993469, 279, 121, 294, 184
-0.993505, 65, 301, 192, 332
-0.993525, 401, 121, 416, 184
-0.993555, 313, 209, 344, 333
-0.993568, 195, 169, 210, 232
-0.993572, 145, 209, 272, 240
-0.993577, 213, 257, 228, 320
-0.99358, 209, 161, 224, 224
-0.993601, 1, 265, 500, 328
-0.993603, 237, 129, 252, 192
-0.993622, 165, 201, 180, 264
-0.993647, 113, 109, 240, 140
-0.993684, 239, 161, 254, 224
-0.993685, 139, 25, 154, 88
-0.993696, 149, 33, 180, 288
-0.99371, 161, 261, 288, 292
-0.993739, 337, 145, 464, 176
-0.993753, 399, 217, 414, 280
-0.993775, 387, 201, 402, 264
-0.993779, 377, 169, 392, 232
-0.99378, 377, 145, 392, 208
-0.993806, 159, 97, 174, 160
-0.99382, 385, 129, 400, 192
-0.993825, 129, 9, 384, 72
-0.993827, 203, 161, 218, 224
-0.99383, 1, 121, 256, 184
-0.993873, 181, 185, 196, 248
-0.993895, 97, 173, 224, 204
-0.993898, 409, 129, 424, 192
-0.993901, 183, 153, 198, 216
-0.993931, 113, 265, 240, 296
-0.993936, 179, 249, 194, 312
-0.993944, 349, 193, 380, 320
-0.993961, 193, 169, 320, 200
-0.993978, 247, 241, 262, 304
-0.99398, 353, 177, 480, 208
-0.993981, 167, 129, 182, 192
-0.993982, 333, 1, 364, 128
-0.993983, 423, 145, 438, 208
-0.994034, 431, 145, 446, 208
-0.994038, 309, 17, 340, 144
-0.994087, 271, 89, 286, 152
-0.994095, 391, 145, 406, 208
-0.994108, 113, 197, 240, 228
-0.994109, 147, 177, 162, 240
-0.994127, 113, 161, 240, 192
-0.994128, 283, 201, 298, 264
-0.994131, 181, 73, 196, 136
-0.994177, 147, 225, 162, 288
-0.994181, 145, 17, 160, 80
-0.994188, 279, 233, 294, 296
-0.994194, 241, 273, 256, 333
-0.994203, 131, 73, 146, 136
-0.994218, 209, 109, 336, 140
-0.994243, 129, 221, 256, 252
-0.994255, 145, 97, 272, 128
-0.994275, 337, 9, 464, 72
-0.994288, 175, 73, 190, 136
-0.994311, 129, 49, 384, 112
-0.994322, 225, 257, 352, 288
-0.994326, 353, 265, 480, 296
-0.99433, 81, 241, 208, 272
-0.994352, 209, 197, 336, 228
-0.99436, 273, 137, 288, 200
-0.994371, 273, 153, 400, 184
-0.994377, 201, 233, 216, 296
-0.994402, 189, 153, 204, 216
-0.994416, 393, 209, 408, 272
-0.994422, 321, 1, 352, 128
-0.994452, 395, 121, 410, 184
-0.994453, 193, 249, 208, 312
-0.994483, 197, 273, 212, 333
-0.994486, 285, 121, 300, 184
-0.994499, 123, 73, 138, 136
-0.994506, 133, 1, 164, 256
-0.994523, 65, 289, 192, 320
-0.994525, 81, 265, 96, 328
-0.994531, 81, 253, 208, 284
-0.994533, 409, 209, 440, 333
-0.99454, 113, 185, 240, 216
-0.994553, 145, 89, 160, 152
-0.994593, 205, 129, 220, 192
-0.994596, 225, 93, 352, 124
-0.994596, 73, 81, 136, 208
-0.994598, 391, 233, 406, 296
-0.994601, 253, 145, 268, 208
-0.994604, 225, 241, 352, 272
-0.994607, 221, 121, 236, 184
-0.994612, 145, 49, 160, 112
-0.994616, 1, 241, 256, 304
-0.994633, 219, 145, 234, 208
-0.994634, 255, 89, 270, 152
-0.994643, 1, 217, 128, 280
-0.994648, 171, 201, 186, 264
-0.994659, 175, 129, 190, 192
-0.994664, 249, 113, 264, 176
-0.994673, 161, 121, 176, 184
-0.994681, 129, 97, 144, 160
-0.994687, 197, 145, 212, 208
-0.994695, 229, 105, 244, 168
-0.994695, 207, 217, 222, 280
-0.994696, 153, 241, 168, 304
-0.994705, 161, 177, 176, 240
-0.994707, 169, 1, 200, 256
-0.994717, 265, 89, 280, 152
-0.994735, 159, 241, 174, 304
-0.994739, 81, 121, 208, 152
-0.994749, 129, 281, 256, 312
-0.994754, 145, 293, 272, 324
-0.994766, 337, 1, 400, 333
-0.994778, 359, 145, 374, 208
-0.994836, 365, 169, 380, 232
-0.994844, 229, 169, 244, 232
-0.994859, 109, 145, 140, 272
-0.994866, 209, 153, 336, 184
-0.994883, 175, 273, 190, 333
-0.994886, 307, 217, 322, 280
-0.994897, 289, 189, 416, 220
-0.994913, 173, 249, 188, 312
-0.994922, 199, 209, 214, 272
-0.994949, 277, 257, 292, 320
-0.99495, 229, 1, 260, 128
-0.994954, 181, 273, 196, 333
-0.994961, 353, 133, 480, 164
-0.994963, 255, 113, 270, 176
-0.994968, 167, 161, 182, 224
-0.994969, 273, 165, 400, 196
-0.994972, 163, 273, 178, 333
-0.994974, 209, 25, 336, 88
-0.994983, 409, 1, 472, 333
-0.994984, 267, 249, 282, 312
-0.994993, 33, 1, 288, 64
-0.995009, 81, 133, 208, 164
-0.995011, 143, 113, 158, 176
-0.995046, 273, 177, 400, 208
-0.995074, 427, 169, 442, 232
-0.995081, 281, 145, 296, 208
-0.995081, 389, 169, 404, 232
-0.995085, 273, 205, 400, 236
-0.995088, 287, 97, 302, 160
-0.995119, 305, 245, 432, 276
-0.995121, 225, 221, 352, 252
-0.995123, 109, 193, 140, 320
-0.99514, 277, 209, 292, 272
-0.995142, 185, 65, 216, 320
-0.995142, 403, 145, 418, 208
-0.995154, 243, 97, 258, 160
-0.995155, 249, 193, 264, 256
-0.995164, 241, 137, 368, 168
-0.995166, 83, 241, 98, 304
-0.99518, 289, 141, 416, 172
-0.995181, 397, 145, 412, 208
-0.995194, 199, 113, 214, 176
-0.995229, 433, 1, 496, 128
-0.995231, 159, 57, 174, 120
-0.995233, 379, 209, 394, 272
-0.99524, 305, 209, 368, 333
-0.995247, 237, 105, 252, 168
-0.995272, 127, 137, 142, 200
-0.995279, 209, 181, 336, 212
-0.995283, 213, 193, 228, 256
-0.995317, 121, 1, 152, 256
-0.995341, 409, 65, 440, 192
-0.995357, 353, 189, 480, 220
-0.995412, 225, 81, 480, 144
-0.99542, 385, 65, 416, 192
-0.995479, 113, 77, 240, 108
-0.995516, 65, 161, 192, 192
-0.995529, 273, 65, 304, 320
-0.995566, 97, 209, 224, 240
-0.995595, 33, 29, 160, 60
-0.995667, 1, 201, 500, 264
-0.995673, 357, 17, 388, 144
-0.995682, 369, 97, 496, 160
-0.995685, 425, 33, 488, 288
-0.995702, 97, 97, 224, 128
-0.995718, 1, 9, 500, 72
-0.995899, 353, 205, 480, 236
-0.995935, 65, 109, 192, 140
-0.995942, 1, 73, 256, 136
-0.995968, 273, 261, 400, 292
-0.995981, 65, 277, 192, 308
-0.996091, 321, 293, 448, 324
-0.996097, 237, 65, 268, 320
-0.996144, 305, 277, 432, 308
-0.996147, 113, 21, 240, 52
-0.996169, 1, 97, 500, 160
-0.996171, 1, 209, 256, 272
-0.996188, 177, 1, 304, 32
-0.996192, 113, 65, 240, 96
-0.996215, 369, 285, 496, 316
-0.996265, 249, 65, 280, 320
-0.996278, 325, 209, 356, 333
-0.996291, 205, 65, 236, 320
-0.996293, 129, 33, 256, 64
-0.996365, 65, 145, 192, 176
-0.996401, 225, 65, 256, 320
-0.996423, 81, 33, 208, 64
-0.996445, 65, 193, 192, 224
-0.996454, 289, 129, 416, 160
-0.996469, 273, 121, 288, 152
-0.996471, 261, 233, 276, 264
-0.996477, 193, 277, 320, 308
-0.996495, 261, 217, 276, 248
-0.996509, 261, 65, 292, 320
-0.996516, 195, 221, 210, 252
-0.996518, 161, 85, 288, 116
-0.996529, 249, 141, 264, 172
-0.996533, 127, 77, 142, 108
-0.996536, 145, 177, 160, 208
-0.996557, 165, 105, 180, 136
-0.996593, 77, 285, 92, 316
-0.996599, 177, 13, 304, 44
-0.996602, 403, 133, 418, 164
-0.996618, 273, 233, 400, 264
-0.996625, 65, 265, 192, 296
-0.996631, 397, 141, 412, 172
-0.996645, 273, 245, 288, 276
-0.996648, 65, 65, 192, 96
-0.996687, 1, 289, 128, 320
-0.99669, 195, 197, 210, 228
-0.996698, 273, 217, 400, 248
-0.996702, 173, 229, 188, 260
-0.996702, 65, 77, 192, 108
-0.99672, 201, 213, 216, 244
-0.996729, 17, 193, 144, 256
-0.996738, 267, 113, 282, 144
-0.99674, 195, 169, 210, 200
-0.996747, 189, 217, 204, 248
-0.996761, 201, 181, 216, 212
-0.996763, 185, 229, 200, 260
-0.996771, 1, 65, 500, 128
-0.996783, 153, 249, 168, 280
-0.996784, 285, 1, 316, 256
-0.996786, 387, 137, 402, 168
-0.996794, 369, 173, 384, 204
-0.996796, 155, 101, 170, 132
-0.996798, 267, 233, 282, 264
-0.996828, 369, 121, 496, 152
-0.996832, 181, 165, 196, 196
-0.996852, 159, 249, 174, 280
-0.996857, 185, 261, 200, 292
-0.996861, 187, 165, 202, 196
-0.996864, 189, 205, 204, 236
-0.996879, 441, 1, 472, 128
-0.996888, 141, 101, 156, 132
-0.996888, 113, 49, 240, 80
-0.996893, 279, 261, 294, 292
-0.996894, 167, 241, 182, 272
-0.99695, 257, 109, 384, 140
-0.996951, 193, 285, 208, 316
-0.996953, 49, 97, 176, 128
-0.996957, 181, 85, 196, 116
-0.997001, 431, 169, 446, 200
-0.997003, 177, 97, 192, 128
-0.997003, 243, 133, 258, 164
-0.997006, 269, 205, 284, 236
-0.997017, 337, 1, 368, 256
-0.997027, 253, 17, 284, 144
-0.997035, 395, 241, 410, 272
-0.997046, 1, 89, 128, 152
-0.997048, 239, 169, 254, 200
-0.997049, 149, 109, 164, 140
-0.997054, 83, 301, 98, 332
-0.997069, 267, 221, 282, 252
-0.997079, 445, 129, 476, 256
-0.997079, 139, 121, 154, 152
-0.99708, 267, 253, 282, 284
-0.997081, 1, 33, 500, 96
-0.997089, 353, 253, 480, 284
-0.997094, 153, 161, 168, 192
-0.997096, 255, 229, 270, 260
-0.997097, 147, 241, 162, 272
-0.997097, 273, 217, 288, 248
-0.997102, 395, 129, 410, 160
-0.997105, 133, 97, 148, 128
-0.997106, 191, 233, 206, 264
-0.997108, 171, 165, 186, 196
-0.997108, 187, 281, 202, 312
-0.997118, 193, 297, 320, 328
-0.997131, 375, 173, 390, 204
-0.997136, 177, 153, 192, 184
-0.99714, 409, 133, 424, 164
-0.997145, 211, 261, 226, 292
-0.997145, 233, 121, 248, 152
-0.997146, 49, 181, 176, 212
-0.997152, 243, 157, 258, 188
-0.997161, 279, 129, 294, 160
-0.997161, 177, 249, 192, 280
-0.997172, 239, 301, 254, 332
-0.997181, 239, 185, 254, 216
-0.997183, 155, 137, 170, 168
-0.997187, 203, 161, 218, 192
-0.99719, 225, 81, 352, 112
-0.997195, 33, 237, 160, 268
-0.997198, 201, 289, 216, 320
-0.997204, 259, 197, 274, 228
-0.997207, 185, 297, 200, 328
-0.997207, 149, 97, 164, 128
-0.997208, 243, 285, 258, 316
-0.997211, 209, 169, 224, 200
-0.997214, 173, 293, 188, 324
-0.997218, 153, 237, 168, 268
-0.997244, 325, 261, 340, 292
-0.997244, 201, 277, 216, 308
-0.997247, 257, 109, 272, 140
-0.99725, 163, 117, 178, 148
-0.99727, 375, 141, 390, 172
-0.997276, 177, 73, 192, 104
-0.997277, 187, 177, 202, 208
-0.997278, 283, 273, 298, 304
-0.997284, 237, 281, 252, 312
-0.997285, 167, 133, 182, 164
-0.99729, 253, 153, 268, 184
-0.997319, 127, 281, 142, 312
-0.99733, 261, 125, 276, 156
-0.997337, 133, 109, 148, 140
-0.997339, 153, 121, 168, 152
-0.997347, 183, 249, 198, 280
-0.99735, 255, 241, 270, 272
-0.997352, 277, 233, 292, 264
-0.997354, 237, 141, 252, 172
-0.997355, 423, 157, 438, 188
-0.997355, 217, 153, 232, 184
-0.997358, 229, 173, 244, 204
-0.997359, 239, 113, 254, 144
-0.997361, 241, 273, 368, 304
-0.997362, 395, 153, 410, 184
-0.997363, 149, 149, 164, 180
-0.997363, 319, 249, 334, 280
-0.997365, 135, 69, 150, 100
-0.997367, 183, 121, 198, 152
-0.997367, 273, 289, 400, 320
-0.997371, 267, 125, 282, 156
-0.997377, 185, 153, 200, 184
-0.997382, 285, 161, 300, 192
-0.997384, 109, 1, 140, 256
-0.997389, 305, 117, 432, 148
-0.99739, 157, 193, 172, 224
-0.997392, 417, 121, 432, 152
-0.997395, 171, 101, 186, 132
-0.997395, 181, 213, 196, 244
-0.997399, 383, 169, 398, 200
-0.997406, 205, 193, 220, 224
-0.997408, 431, 149, 446, 180
-0.997422, 181, 281, 196, 312
-0.997424, 171, 69, 186, 100
-0.997425, 369, 297, 496, 328
-0.997428, 297, 213, 312, 244
-0.997429, 277, 161, 292, 192
-0.997433, 161, 73, 288, 104
-0.997434, 207, 281, 222, 312
-0.99744, 237, 265, 252, 296
-0.997441, 273, 257, 288, 288
-0.997455, 381, 189, 396, 220
-0.997458, 143, 229, 158, 260
-0.99746, 171, 113, 186, 144
-0.997463, 403, 121, 418, 152
-0.997464, 249, 225, 264, 256
-0.997466, 229, 109, 244, 140
-0.997468, 369, 161, 384, 192
-0.997472, 101, 65, 132, 192
-0.997473, 381, 65, 412, 320
-0.997473, 281, 201, 296, 232
-0.997475, 385, 233, 400, 264
-0.997484, 195, 209, 210, 240
-0.997542, 353, 217, 480, 248
-0.997543, 65, 45, 192, 76
-0.997555, 369, 65, 400, 320
-0.997576, 61, 193, 92, 320
-0.997612, 113, 9, 240, 40
-0.997669, 241, 301, 368, 332
-0.997777, 97, 1, 128, 256
-0.997784, 393, 65, 424, 320
-0.997822, 65, 17, 192, 48
-0.99784, 257, 37, 384, 68
-0.997851, 289, 73, 416, 104
-0.997898, 33, 125, 160, 156
-0.99791, 1, 49, 256, 112
-0.997948, 1, 1, 32, 256
-0.997962, 433, 1, 496, 333
-0.998069, 273, 89, 400, 120
-0.998089, 1, 301, 128, 332
-0.99811, 33, 225, 160, 256
-0.998123, 357, 33, 388, 288
-0.998124, 17, 269, 144, 300
-0.998129, 409, 65, 440, 320
-0.99813, 1, 121, 128, 184
-0.998151, 337, 209, 368, 333
-0.998189, 369, 237, 496, 268
-0.99822, 175, 65, 190, 192
-0.998222, 321, 233, 448, 264
-0.99824, 157, 49, 172, 176
-0.998306, 151, 97, 166, 224
-0.998322, 257, 53, 384, 84
-0.998338, 217, 115, 280, 130
-0.998339, 369, 73, 496, 136
-0.998346, 145, 243, 208, 258
-0.998353, 137, 111, 200, 126
-0.998354, 145, 167, 208, 182
-0.998355, 151, 49, 166, 176
-0.998371, 377, 145, 440, 160
-0.998372, 257, 219, 320, 234
-0.998372, 241, 125, 304, 140
-0.998372, 171, 193, 186, 320
-0.998375, 265, 253, 328, 268
-0.998375, 185, 123, 248, 138
-0.998377, 165, 113, 180, 240
-0.998377, 161, 295, 224, 310
-0.998383, 177, 25, 304, 56
-0.998386, 145, 105, 208, 120
-0.998388, 257, 25, 384, 56
-0.998393, 145, 175, 208, 190
-0.998395, 233, 159, 296, 174
-0.998396, 169, 183, 232, 198
-0.998398, 177, 171, 240, 186
-0.998399, 353, 145, 416, 160
-0.9984, 233, 165, 296, 180
-0.9984, 145, 237, 208, 252
-0.998402, 193, 183, 256, 198
-0.998403, 225, 1, 480, 64
-0.998405, 161, 191, 224, 206
-0.998405, 241, 133, 304, 148
-0.998409, 217, 145, 280, 160
-0.998414, 361, 177, 424, 192
-0.998415, 225, 41, 480, 104
-0.998416, 145, 117, 208, 132
-0.998418, 389, 161, 404, 288
-0.998421, 377, 153, 440, 168
-0.998422, 377, 165, 440, 180
-0.998423, 201, 175, 264, 190
-0.998426, 161, 277, 224, 292
-0.998427, 163, 49, 178, 176
-0.998428, 225, 139, 288, 154
-0.998431, 209, 159, 272, 174
-0.998432, 177, 227, 240, 242
-0.998435, 377, 159, 440, 174
-0.998436, 137, 183, 200, 198
-0.998439, 177, 233, 240, 248
-0.998439, 129, 143, 192, 158
-0.998439, 241, 247, 304, 262
-0.998441, 217, 129, 280, 144
-0.998442, 177, 165, 240, 180
-0.998446, 225, 239, 288, 254
-0.998447, 105, 239, 168, 254
-0.998447, 241, 225, 304, 240
-0.998447, 145, 255, 208, 270
-0.998448, 145, 249, 208, 264
-0.998451, 121, 293, 184, 308
-0.998452, 143, 49, 158, 176
-0.998453, 233, 153, 296, 168
-0.998454, 185, 115, 248, 130
-0.998454, 153, 207, 216, 222
-0.998455, 161, 197, 224, 212
-0.998455, 139, 97, 154, 224
-0.998455, 161, 111, 224, 126
-0.998457, 201, 189, 264, 204
-0.998457, 121, 117, 184, 132
-0.998457, 185, 297, 248, 312
-0.998458, 305, 57, 432, 88
-0.998458, 177, 239, 240, 254
-0.998459, 145, 151, 208, 166
-0.998461, 241, 253, 304, 268
-0.998463, 121, 233, 184, 248
-0.998463, 353, 151, 416, 166
-0.998463, 201, 201, 264, 216
-0.998465, 161, 217, 224, 232
-0.998465, 249, 213, 312, 228
-0.998465, 193, 277, 256, 292
-0.998465, 193, 149, 256, 164
-0.998466, 249, 241, 312, 256
-0.998469, 145, 161, 208, 176
-0.998471, 145, 261, 208, 276
-0.998471, 201, 225, 264, 240
-0.998478, 129, 137, 192, 152
-0.998478, 177, 271, 240, 286
-0.998479, 241, 117, 304, 132
-0.99848, 121, 123, 184, 138
-0.998481, 209, 167, 272, 182
-0.998481, 33, 249, 160, 280
-0.998481, 169, 261, 232, 276
-0.998482, 361, 183, 424, 198
-0.998484, 217, 121, 280, 136
-0.998484, 361, 139, 424, 154
-0.998485, 121, 151, 184, 166
-0.998487, 265, 247, 328, 262
-0.998488, 345, 161, 408, 176
-0.998488, 273, 259, 336, 274
-0.998488, 233, 179, 296, 194
-0.998489, 159, 97, 174, 224
-0.998489, 121, 101, 184, 116
-0.998489, 161, 301, 224, 316
-0.99849, 145, 131, 208, 146
-0.99849, 249, 139, 312, 154
-0.998491, 201, 269, 264, 284
-0.998492, 233, 171, 296, 186
-0.998492, 121, 165, 184, 180
-0.998492, 241, 111, 304, 126
-0.998493, 401, 291, 464, 306
-0.998494, 161, 283, 224, 298
-0.998495, 169, 157, 232, 172
-0.998495, 185, 283, 248, 298
-0.998497, 169, 177, 232, 192
-0.998498, 155, 145, 170, 272
-0.998499, 145, 97, 208, 112
-0.998499, 377, 133, 440, 148
-0.9985, 233, 261, 296, 276
-0.998501, 153, 231, 216, 246
-0.998503, 217, 233, 280, 248
-0.998503, 113, 111, 176, 126
-0.998504, 129, 269, 192, 284
-0.998506, 169, 255, 232, 270
-0.998507, 169, 151, 232, 166
-0.998508, 185, 245, 248, 260
-0.998508, 385, 207, 448, 222
-0.998511, 233, 219, 296, 234
-0.998512, 121, 67, 184, 82
-0.998512, 129, 299, 192, 314
-0.998513, 193, 291, 256, 306
-0.998515, 361, 189, 424, 204
-0.998517, 361, 171, 424, 186
-0.998517, 137, 189, 200, 204
-0.998517, 121, 175, 184, 190
-0.998518, 217, 247, 280, 262
-0.998518, 393, 171, 456, 186
-0.998518, 233, 203, 296, 218
-0.998518, 305, 45, 432, 76
-0.998523, 265, 131, 328, 146
-0.998523, 209, 259, 272, 274
-0.998524, 201, 217, 264, 232
-0.998525, 129, 207, 192, 222
-0.998525, 241, 95, 304, 110
-0.998526, 225, 213, 288, 228
-0.998527, 201, 195, 264, 210
-0.998527, 361, 195, 424, 210
-0.998528, 113, 157, 176, 172
-0.998529, 137, 215, 200, 230
-0.998529, 137, 195, 200, 210
-0.998529, 379, 145, 394, 272
-0.998529, 153, 317, 216, 332
-0.998529, 153, 223, 216, 238
-0.99853, 249, 233, 312, 248
-0.998531, 185, 153, 216, 168
-0.998532, 169, 269, 200, 284
-0.998532, 121, 79, 152, 94
-0.998532, 201, 207, 264, 222
-0.998533, 165, 117, 196, 132
-0.998533, 205, 153, 236, 168
-0.998534, 425, 159, 456, 174
-0.998534, 269, 177, 284, 304
-0.998534, 245, 151, 276, 166
-0.998535, 141, 247, 172, 262
-0.998535, 141, 267, 172, 282
-0.998537, 197, 287, 228, 302
-0.998537, 249, 93, 280, 108
-0.998537, 181, 303, 212, 318
-0.998537, 137, 239, 168, 254
-0.998537, 361, 183, 392, 198
-0.998537, 177, 225, 208, 240
-0.998538, 197, 201, 228, 216
-0.998538, 381, 255, 412, 270
-0.998538, 177, 107, 208, 122
-0.998539, 213, 123, 244, 138
-0.998539, 273, 225, 304, 240
-0.99854, 265, 203, 296, 218
-0.99854, 197, 115, 228, 130
-0.99854, 177, 253, 208, 268
-0.998541, 233, 195, 264, 210
-0.998542, 237, 229, 268, 244
-0.998542, 165, 317, 196, 332
-0.998542, 197, 195, 228, 210
-0.998543, 133, 105, 164, 120
-0.998543, 165, 111, 196, 126
-0.998543, 141, 1, 156, 128
-0.998545, 265, 255, 296, 270
-0.998546, 377, 135, 408, 150
-0.998546, 249, 139, 280, 154
-0.998547, 133, 175, 164, 190
-0.998547, 239, 113, 254, 240
-0.998547, 237, 119, 268, 134
-0.998548, 185, 195, 216, 210
-0.998548, 153, 161, 184, 176
-0.998549, 161, 305, 192, 320
-0.99855, 377, 173, 408, 188
-0.99855, 283, 81, 298, 208
-0.99855, 189, 267, 220, 282
-0.99855, 249, 227, 280, 242
-0.99855, 261, 193, 276, 320
-0.998551, 253, 113, 284, 128
-0.998552, 129, 231, 160, 246
-0.998552, 377, 209, 408, 224
-0.998552, 225, 169, 256, 184
-0.998553, 261, 229, 292, 244
-0.998554, 385, 167, 416, 182
-0.998554, 393, 157, 424, 172
-0.998555, 185, 171, 216, 186
-0.998556, 217, 181, 248, 196
-0.998557, 205, 225, 236, 240
-0.998557, 225, 149, 256, 164
-0.998558, 253, 203, 284, 218
-0.998559, 273, 125, 304, 140
-0.998559, 205, 145, 220, 272
-0.998559, 69, 1, 100, 256
-0.998559, 149, 137, 180, 152
-0.998559, 281, 177, 312, 192
-0.998561, 165, 103, 196, 118
-0.998562, 137, 123, 168, 138
-0.998563, 157, 251, 188, 266
-0.998563, 185, 119, 216, 134
-0.998564, 149, 303, 180, 318
-0.998564, 201, 167, 232, 182
-0.998564, 253, 119, 284, 134
-0.998564, 197, 295, 228, 310
-0.998566, 157, 261, 188, 276
-0.998566, 409, 153, 440, 168
-0.998566, 233, 317, 264, 332
-0.998566, 125, 113, 156, 128
-0.998567, 165, 239, 196, 254
-0.998568, 241, 113, 272, 128
-0.998568, 217, 297, 248, 312
-0.998568, 241, 1, 272, 128
-0.998568, 205, 177, 236, 192
-0.998569, 177, 97, 208, 112
-0.998569, 361, 189, 392, 204
-0.998569, 133, 169, 164, 184
-0.99857, 193, 281, 224, 296
-0.99857, 255, 145, 270, 272
-0.998571, 149, 171, 180, 186
-0.998573, 173, 131, 204, 146
-0.998574, 293, 251, 324, 266
-0.998575, 189, 221, 220, 236
-0.998575, 269, 219, 300, 234
-0.998576, 137, 149, 168, 164
-0.998576, 425, 173, 456, 188
-0.998578, 257, 247, 288, 262
-0.998582, 469, 1, 500, 128
-0.998582, 193, 177, 208, 304
-0.998582, 157, 147, 188, 162
-0.998583, 285, 217, 316, 232
-0.998585, 297, 33, 328, 288
-0.998586, 37, 1, 68, 256
-0.998586, 193, 215, 224, 230
-0.998587, 389, 151, 420, 166
-0.998588, 257, 221, 288, 236
-0.998588, 193, 273, 224, 288
-0.998591, 273, 247, 304, 262
-0.998591, 365, 177, 396, 192
-0.998593, 389, 145, 420, 160
-0.998593, 397, 137, 428, 152
-0.998593, 169, 167, 200, 182
-0.998594, 173, 233, 204, 248
-0.998594, 185, 209, 216, 224
-0.998595, 401, 121, 432, 136
-0.998596, 153, 105, 184, 120
-0.998596, 149, 121, 180, 136
-0.998598, 257, 241, 288, 256
-0.998598, 265, 119, 296, 134
-0.998599, 145, 97, 160, 224
-0.998599, 389, 245, 420, 260
-0.998601, 189, 177, 220, 192
-0.998602, 177, 219, 208, 234
-0.998606, 253, 253, 284, 268
-0.998607, 125, 237, 156, 252
-0.99861, 189, 231, 220, 246
-0.998611, 217, 175, 248, 190
-0.998612, 237, 161, 252, 288
-0.998613, 197, 183, 228, 198
-0.998613, 269, 131, 300, 146
-0.998613, 189, 189, 220, 204
-0.998619, 185, 295, 216, 310
-0.998623, 365, 143, 396, 158
-0.998626, 245, 157, 276, 172
-0.998628, 405, 147, 436, 162
-0.998628, 249, 113, 264, 240
-0.99863, 121, 89, 152, 104
-0.998634, 137, 141, 168, 156
-0.998637, 169, 297, 200, 312
-0.998638, 129, 49, 144, 176
-0.998641, 229, 133, 260, 148
-0.998644, 185, 193, 200, 320
-0.998644, 149, 239, 180, 254
-0.998648, 395, 145, 410, 272
-0.998654, 261, 125, 292, 140
-0.998654, 199, 161, 214, 288
-0.998656, 371, 145, 386, 272
-0.998661, 261, 209, 292, 224
-0.998661, 197, 113, 212, 240
-0.998661, 225, 69, 352, 100
-0.998667, 17, 1, 48, 256
-0.998669, 177, 239, 208, 254
-0.99867, 149, 111, 180, 126
-0.99867, 157, 193, 172, 320
-0.99867, 229, 143, 260, 158
-0.998673, 377, 141, 408, 156
-0.998674, 227, 113, 242, 240
-0.998678, 249, 129, 280, 144
-0.998678, 137, 113, 168, 128
-0.99868, 169, 49, 184, 176
-0.998684, 269, 113, 284, 240
-0.998685, 305, 105, 432, 136
-0.998689, 147, 161, 162, 288
-0.99869, 231, 177, 246, 304
-0.998692, 275, 209, 290, 333
-0.998695, 275, 129, 290, 256
-0.998695, 17, 17, 144, 48
-0.998705, 161, 245, 192, 260
-0.998706, 257, 235, 288, 250
-0.99871, 135, 33, 150, 160
-0.998712, 125, 97, 140, 224
-0.998718, 261, 129, 276, 256
-0.99873, 49, 1, 80, 256
-0.998733, 255, 193, 270, 320
-0.998733, 179, 193, 194, 320
-0.998736, 175, 17, 190, 144
-0.998754, 81, 1, 112, 256
-0.998759, 177, 113, 192, 240
-0.998761, 283, 129, 298, 256
-0.998771, 289, 97, 304, 224
-0.998774, 211, 113, 226, 240
-0.998779, 211, 161, 226, 288
-0.99878, 233, 113, 248, 240
-0.998783, 219, 161, 234, 288
-0.998788, 201, 209, 216, 333
-0.998792, 427, 129, 442, 256
-0.998812, 249, 193, 264, 320
-0.998814, 243, 161, 258, 288
-0.998821, 383, 209, 398, 333
-0.998839, 205, 97, 220, 224
-0.998842, 171, 113, 186, 240
-0.998847, 257, 1, 384, 32
-0.998861, 317, 65, 348, 320
-0.998864, 183, 81, 198, 208
-0.99887, 181, 17, 196, 144
-0.99887, 435, 161, 450, 288
-0.998873, 33, 213, 160, 244
-0.998874, 147, 209, 162, 333
-0.998876, 277, 81, 292, 208
-0.998877, 163, 177, 178, 304
-0.998893, 147, 1, 162, 128
-0.998902, 271, 65, 286, 192
-0.998908, 219, 113, 234, 240
-0.998915, 17, 145, 144, 176
-0.99892, 237, 209, 252, 333
-0.998927, 133, 97, 148, 224
-0.998933, 123, 17, 138, 144
-0.998941, 285, 177, 300, 304
-0.998943, 261, 65, 276, 192
-0.998948, 405, 113, 420, 240
-0.998949, 401, 161, 416, 288
-0.99895, 421, 113, 436, 240
-0.998969, 253, 65, 268, 192
-0.998973, 365, 145, 380, 272
-0.99898, 57, 161, 120, 288
-0.998987, 391, 209, 406, 333
-0.998991, 225, 209, 240, 333
-0.998995, 357, 129, 372, 256
-0.998996, 429, 1, 460, 128
-0.999007, 297, 129, 312, 256
-0.999039, 183, 129, 198, 256
-0.999042, 225, 161, 240, 288
-0.999043, 389, 113, 404, 240
-0.999044, 167, 1, 182, 128
-0.999056, 375, 193, 390, 320
-0.999058, 195, 1, 210, 128
-0.999075, 133, 145, 148, 272
-0.999077, 411, 113, 426, 240
-0.999084, 379, 97, 394, 224
-0.999087, 337, 33, 464, 64
-0.999105, 191, 97, 206, 224
-0.999108, 309, 161, 340, 288
-0.999117, 243, 209, 258, 333
-0.99914, 161, 61, 288, 92
-0.999146, 189, 17, 204, 144
-0.999148, 305, 209, 320, 333
-0.999152, 289, 49, 304, 176
-0.999153, 399, 209, 414, 333
-0.999155, 129, 1, 144, 128
-0.999166, 1, 93, 128, 124
-0.999173, 407, 161, 422, 288
-0.999173, 297, 193, 312, 320
-0.999175, 217, 1, 232, 128
-0.999175, 141, 177, 156, 304
-0.999182, 407, 209, 422, 333
-0.999184, 289, 13, 416, 44
-0.999192, 435, 209, 450, 333
-0.999203, 209, 209, 224, 333
-0.999205, 247, 65, 262, 192
-0.999212, 117, 17, 132, 144
-0.999219, 279, 33, 294, 160
-0.999229, 201, 1, 216, 128
-0.999231, 291, 177, 306, 304
-0.99925, 433, 113, 448, 240
-0.999253, 201, 49, 216, 176
-0.999262, 369, 97, 384, 224
-0.999263, 219, 209, 234, 333
-0.999266, 195, 49, 210, 176
-0.999269, 325, 65, 340, 192
-0.999271, 1, 153, 128, 216
-0.999292, 83, 209, 98, 333
-0.999296, 155, 1, 170, 128
-0.999303, 441, 161, 456, 288
-0.999312, 413, 161, 428, 288
-0.999332, 429, 33, 460, 288
-0.999335, 441, 209, 456, 333
-0.999338, 127, 145, 142, 272
-0.999341, 161, 1, 176, 128
-0.999341, 397, 97, 412, 224
-0.999347, 83, 1, 98, 128
-0.999348, 27, 17, 42, 144
-0.999357, 5, 17, 20, 144
-0.999359, 303, 161, 318, 288
-0.999363, 111, 17, 126, 144
-0.999364, 337, 49, 352, 176
-0.999367, 119, 81, 134, 208
-0.999379, 161, 45, 288, 76
-0.99946, 209, 53, 336, 84
-0.9996, 441, 33, 472, 288
-0.99968, 453, 1, 484, 128
-0.999702, 203, 191, 218, 206
-0.999704, 419, 143, 434, 158
-0.999704, 75, 285, 90, 300
-0.999704, 209, 295, 224, 310
-0.999705, 367, 179, 382, 194
-0.999705, 403, 145, 418, 160
-0.999705, 187, 273, 202, 288
-0.999707, 241, 293, 256, 308
-0.999707, 297, 217, 312, 232
-0.999708, 179, 169, 194, 184
-0.999708, 213, 273, 228, 288
-0.999709, 389, 167, 404, 182
-0.99971, 373, 141, 388, 156
-0.99971, 297, 177, 312, 192
-0.99971, 215, 157, 230, 172
-0.999711, 181, 93, 196, 108
-0.999711, 277, 257, 292, 272
-0.999712, 185, 239, 200, 254
-0.999712, 133, 71, 148, 86
-0.999712, 187, 281, 202, 296
-0.999712, 255, 157, 270, 172
-0.999713, 203, 279, 218, 294
-0.999713, 239, 141, 254, 156
-0.999714, 281, 269, 296, 284
-0.999714, 381, 171, 396, 186
-0.999714, 161, 303, 176, 318
-0.999715, 273, 135, 288, 150
-0.999715, 197, 171, 212, 186
-0.999716, 267, 255, 282, 270
-0.999716, 251, 227, 266, 242
-0.999716, 279, 263, 294, 278
-0.999717, 151, 139, 166, 154
-0.999718, 155, 121, 170, 136
-0.999718, 175, 295, 190, 310
-0.999718, 181, 259, 196, 274
-0.999718, 259, 203, 274, 218
-0.999719, 191, 221, 206, 236
-0.999719, 277, 173, 292, 188
-0.999719, 237, 281, 252, 296
-0.999719, 225, 173, 240, 188
-0.999721, 187, 255, 202, 270
-0.999722, 193, 285, 208, 300
-0.999722, 205, 289, 220, 304
-0.999722, 411, 147, 426, 162
-0.999723, 233, 139, 248, 154
-0.999723, 161, 243, 176, 258
-0.999724, 125, 287, 140, 302
-0.999725, 139, 95, 154, 110
-0.999727, 127, 69, 142, 84
-0.999727, 239, 311, 254, 326
-0.999727, 275, 207, 290, 222
-0.999728, 393, 159, 408, 174
-0.999729, 381, 139, 396, 154
-0.999729, 139, 141, 154, 156
-0.999729, 185, 265, 200, 280
-0.99973, 243, 133, 258, 148
-0.99973, 193, 209, 208, 224
-0.99973, 137, 117, 152, 132
-0.999731, 277, 127, 292, 142
-0.999731, 261, 111, 276, 126
-0.999733, 131, 103, 146, 118
-0.999733, 433, 173, 448, 188
-0.999734, 247, 157, 262, 172
-0.999736, 187, 167, 202, 182
-0.999736, 149, 113, 164, 128
-0.999736, 197, 197, 212, 212
-0.999738, 197, 237, 212, 252
-0.999739, 391, 143, 406, 158
-0.999739, 241, 167, 256, 182
-0.99974, 389, 207, 404, 222
-0.99974, 181, 79, 196, 94
-0.999741, 193, 293, 208, 308
-0.999741, 207, 185, 222, 200
-0.999743, 127, 89, 142, 104
-0.999743, 203, 221, 218, 236
-0.999744, 145, 241, 160, 256
-0.999744, 167, 241, 182, 256
-0.999745, 155, 261, 170, 276
-0.999746, 243, 285, 258, 300
-0.999747, 245, 317, 260, 332
-0.999748, 161, 105, 176, 120
-0.999749, 263, 229, 278, 244
-0.999749, 131, 235, 146, 250
-0.99975, 77, 293, 92, 308
-0.99975, 187, 215, 202, 230
-0.999752, 369, 173, 384, 188
-0.999753, 139, 239, 154, 254
-0.999755, 175, 301, 190, 316
-0.999756, 313, 255, 328, 270
-0.999756, 199, 181, 214, 196
-0.999756, 155, 111, 170, 126
-0.999757, 149, 247, 164, 262
-0.999757, 139, 109, 154, 124
-0.999758, 137, 101, 152, 116
-0.999758, 299, 251, 314, 266
-0.999762, 163, 249, 178, 264
-0.999763, 231, 175, 246, 190
-0.999763, 189, 231, 204, 246
-0.999766, 179, 253, 194, 268
-0.999767, 445, 209, 476, 333
-0.999768, 257, 237, 272, 252
-0.999769, 273, 251, 288, 266
-0.99977, 245, 139, 260, 154
-0.99977, 181, 85, 196, 100
-0.99977, 181, 297, 196, 312
-0.99977, 259, 219, 274, 234
-0.999772, 307, 253, 322, 268
-0.999773, 167, 107, 182, 122
-0.999773, 271, 129, 286, 144
-0.999773, 125, 83, 140, 98
-0.999775, 83, 305, 98, 320
-0.999775, 269, 235, 284, 250
-0.999778, 143, 115, 158, 130
-0.999778, 397, 145, 412, 160
-0.999779, 397, 151, 412, 166
-0.99978, 367, 143, 382, 158
-0.999783, 239, 317, 254, 332
-0.999785, 249, 151, 264, 166
-0.999786, 155, 247, 170, 262
-0.999786, 391, 245, 406, 260
-0.999786, 319, 259, 334, 274
-0.99979, 387, 137, 402, 152
-0.999796, 79, 299, 94, 314
-0.999798, 145, 183, 160, 198
-0.999803, 269, 121, 284, 136
-0.999808, 133, 89, 148, 104
-0.999815, 133, 109, 148, 124
-0.999821, 173, 243, 188, 258
-0.999828, 157, 255, 172, 270
-0.99983, 195, 231, 210, 246
-0.999837, 265, 207, 280, 222
-0.9999, 401, 1, 432, 128
-0.99998, 433, 65, 464, 192
-1.00044, 369, 33, 496, 96
-1.00076, 457, 33, 488, 288
-1.00084, 413, 1, 444, 128
-1.00099, 469, 33, 500, 288
-1.00156, 369, 1, 400, 128
-1.00163, 85, 161, 116, 288
-1.00189, 389, 1, 420, 128
-1.00193, 1, 145, 128, 272
-1.00237, 373, 49, 404, 176
-1.00245, 329, 113, 360, 240
-1.00295, 73, 161, 104, 288
-1.00313, 1, 209, 32, 333
-1.00337, 457, 49, 488, 176
-1.00339, 1, 193, 64, 320
-1.00344, 345, 81, 376, 208
-1.00365, 445, 81, 476, 208
-1.00394, 29, 193, 60, 320
-1.00563, 33, 161, 96, 288
-1.00579, 433, 65, 496, 192
-1.00877, 41, 49, 104, 176
-1.00929, 17, 65, 80, 192
-1.01052, 1, 129, 64, 256
-1.01166, 41, 97, 104, 224
