1973
-0.304612, 1, 1, 500, 375
-0.331979, 1, 1, 500, 256
-0.412374, 1, 97, 500, 352
-0.438132, 65, 1, 320, 375
-0.454214, 161, 1, 416, 375
-0.53868, 257, 1, 500, 375
-0.538681, 33, 1, 288, 256
-0.590723, 193, 1, 448, 256
-0.622669, 33, 97, 288, 352
-0.639932, 193, 97, 448, 352
-0.827306, 97, 1, 224, 256
-0.828531, 193, 1, 320, 375
-0.832647, 369, 1, 496, 375
-0.840306, 81, 1, 208, 375
-0.841421, 193, 33, 320, 288
-0.844367, 241, 1, 368, 375
-0.845657, 129, 1, 256, 375
-0.863398, 145, 1, 272, 256
-0.866569, 49, 1, 176, 256
-0.869418, 1, 1, 128, 375
-0.869423, 241, 33, 368, 288
-0.871241, 145, 97, 272, 352
-0.873248, 369, 65, 496, 320
-0.874628, 209, 129, 336, 375
-0.883984, 1, 1, 128, 256
-0.887822, 289, 97, 416, 352
-0.891935, 1, 129, 500, 256
-0.893305, 1, 65, 500, 192
-0.90038, 305, 1, 432, 375
-0.90132, 17, 97, 144, 352
-0.901842, 1, 17, 500, 144
-0.90615, 97, 97, 224, 352
-0.906256, 289, 1, 416, 256
-0.907209, 33, 1, 288, 128
-0.912371, 1, 209, 500, 336
-0.913845, 65, 17, 192, 144
-0.916112, 129, 33, 384, 160
-0.916826, 225, 97, 480, 224
-0.920024, 161, 33, 288, 160
-0.923501, 225, 209, 480, 336
-0.923789, 113, 33, 240, 160
-0.926584, 65, 97, 320, 224
-0.929762, 257, 49, 500, 176
-0.930101, 73, 1, 136, 128
-0.931311, 121, 17, 184, 144
-0.931463, 161, 33, 224, 160
-0.932964, 33, 49, 288, 176
-0.934018, 17, 1, 144, 128
-0.936141, 209, 65, 336, 192
-0.936434, 353, 129, 416, 256
-0.937678, 209, 65, 272, 192
-0.937687, 97, 81, 224, 208
-0.937783, 161, 81, 288, 208
-0.938144, 185, 33, 248, 160
-0.941494, 353, 225, 480, 352
-0.941609, 161, 145, 288, 272
-0.941862, 225, 145, 288, 272
-0.942324, 265, 65, 328, 192
-0.943237, 33, 225, 288, 352
-0.943386, 177, 113, 240, 240
-0.943522, 97, 145, 352, 272
-0.943854, 209, 193, 336, 320
-0.943906, 369, 65, 496, 192
-0.944809, 305, 193, 432, 320
-0.945075, 433, 49, 496, 176
-0.945422, 377, 177, 440, 304
-0.945471, 193, 145, 448, 272
-0.946586, 361, 193, 424, 256
-0.947277, 353, 177, 480, 304
-0.947774, 209, 17, 336, 144
-0.947834, 25, 1, 88, 128
-0.948212, 201, 113, 264, 240
-0.948858, 129, 225, 256, 352
-0.949066, 401, 65, 464, 192
-0.949627, 257, 65, 384, 192
-0.950795, 97, 17, 160, 144
-0.951212, 121, 25, 184, 88
-0.951578, 49, 1, 112, 128
-0.95166, 217, 193, 280, 320
-0.951795, 345, 177, 408, 304
-0.95191, 161, 65, 224, 128
-0.952485, 265, 65, 328, 128
-0.953209, 57, 9, 120, 72
-0.953502, 209, 121, 272, 184
-0.953568, 153, 97, 216, 224
-0.953654, 233, 1, 296, 128
-0.954476, 369, 113, 496, 240
-0.954496, 97, 25, 160, 88
-0.95502, 321, 113, 448, 240
-0.955364, 249, 145, 312, 272
-0.955752, 209, 241, 336, 368
-0.955843, 209, 113, 336, 240
-0.956418, 361, 145, 424, 208
-0.957154, 185, 89, 248, 152
-0.957193, 249, 193, 312, 320
-0.957284, 73, 49, 136, 176
-0.957543, 393, 113, 456, 240
-0.957661, 225, 153, 288, 216
-0.9583, 193, 49, 256, 112
-0.958575, 161, 25, 224, 88
-0.959402, 17, 49, 144, 176
-0.959612, 129, 209, 384, 336
-0.959706, 225, 241, 288, 368
-0.960415, 185, 161, 248, 288
-0.961077, 273, 113, 400, 240
-0.961142, 225, 185, 288, 248
-0.961294, 1, 145, 256, 272
-0.961299, 1, 1, 64, 128
-0.961591, 185, 153, 248, 216
-0.961619, 257, 1, 500, 128
-0.962018, 321, 33, 448, 160
-0.962041, 233, 65, 296, 192
-0.962059, 57, 97, 120, 224
-0.962252, 217, 233, 280, 296
-0.96232, 393, 209, 456, 272
-0.963052, 169, 113, 232, 176
-0.963144, 337, 225, 400, 352
-0.9633, 289, 65, 352, 192
-0.964179, 353, 225, 416, 288
-0.964478, 25, 1, 88, 64
-0.964671, 337, 201, 400, 264
-0.964906, 233, 57, 296, 120
-0.965161, 217, 257, 280, 320
-0.965448, 225, 97, 288, 160
-0.965969, 393, 1, 456, 128
-0.96605, 73, 1, 136, 256
-0.966101, 241, 209, 304, 272
-0.966169, 217, 209, 280, 272
-0.966444, 393, 113, 456, 176
-0.96654, 57, 57, 120, 120
-0.966922, 97, 25, 224, 88
-0.96703, 1, 145, 128, 272
-0.967129, 209, 17, 272, 144
-0.967313, 401, 209, 464, 336
-0.967549, 205, 65, 236, 192
-0.967574, 353, 169, 416, 232
-0.967709, 153, 1, 216, 256
-0.968361, 257, 113, 320, 176
-0.968414, 73, 81, 136, 144
-0.968576, 33, 97, 160, 224
-0.968578, 81, 49, 144, 112
-0.968637, 225, 129, 288, 375
-0.968719, 209, 73, 272, 136
-0.968754, 185, 209, 248, 336
-0.969082, 193, 65, 320, 128
-0.969139, 121, 1, 184, 256
-0.969179, 1, 193, 128, 320
-0.969199, 273, 89, 336, 152
-0.969461, 217, 33, 280, 288
-0.969473, 369, 1, 432, 128
-0.969497, 185, 1, 248, 256
-0.969578, 121, 65, 184, 192
-0.969727, 113, 73, 240, 136
-0.969755, 377, 225, 440, 352
-0.969767, 361, 81, 424, 208
-0.969886, 49, 49, 112, 176
-0.969907, 97, 1, 160, 256
-0.969949, 257, 161, 384, 288
-0.970161, 97, 97, 160, 224
-0.970401, 389, 177, 420, 304
-0.970516, 433, 241, 496, 368
-0.9707, 169, 17, 200, 144
-0.970952, 145, 105, 208, 168
-0.971045, 1, 1, 64, 64
-0.971109, 121, 49, 184, 112
-0.971297, 385, 185, 448, 248
-0.971307, 53, 1, 84, 128
-0.971514, 313, 97, 376, 224
-0.97158, 201, 97, 232, 160
-0.971742, 233, 185, 264, 248
-0.97181, 9, 193, 72, 320
-0.971869, 113, 49, 240, 112
-0.97191, 201, 177, 264, 240
-0.971969, 121, 73, 184, 136
-0.972001, 1, 145, 64, 272
-0.97204, 105, 1, 136, 128
-0.972095, 305, 241, 432, 368
-0.972162, 321, 161, 384, 288
-0.972287, 277, 57, 308, 120
-0.972315, 249, 153, 312, 216
-0.972755, 49, 17, 176, 80
-0.972895, 65, 49, 192, 112
-0.972943, 209, 129, 240, 256
-0.972947, 73, 1, 104, 128
-0.973115, 177, 89, 304, 152
-0.973167, 149, 17, 180, 144
-0.9732, 209, 297, 272, 360
-0.973209, 393, 73, 456, 136
-0.973234, 353, 185, 384, 248
-0.973329, 185, 217, 248, 280
-0.973397, 121, 281, 184, 344
-0.973442, 177, 41, 304, 104
-0.973499, 433, 97, 496, 224
-0.97359, 401, 161, 464, 288
-0.973827, 409, 81, 440, 208
-0.973836, 129, 17, 160, 144
-0.973851, 241, 233, 304, 296
-0.973873, 401, 33, 464, 288
-0.973941, 257, 209, 384, 336
-0.974259, 417, 73, 480, 136
-0.974266, 393, 161, 456, 224
-0.97427, 253, 129, 284, 256
-0.974362, 393, 225, 424, 352
-0.974397, 249, 129, 312, 375
-0.974398, 105, 49, 136, 176
-0.974408, 433, 121, 496, 184
-0.974513, 405, 145, 436, 272
-0.974537, 433, 273, 496, 336
-0.974601, 221, 49, 252, 112
-0.974687, 205, 129, 236, 192
-0.974822, 265, 33, 328, 288
-0.974844, 217, 33, 248, 160
-0.974905, 249, 89, 312, 152
-0.974947, 93, 1, 124, 128
-0.975008, 57, 137, 120, 200
-0.975069, 297, 73, 360, 136
-0.975109, 189, 81, 220, 208
-0.975206, 109, 17, 140, 80
-0.975298, 313, 209, 376, 336
-0.975343, 109, 49, 140, 112
-0.975387, 297, 1, 360, 256
-0.975431, 189, 1, 220, 128
-0.975447, 53, 1, 84, 64
-0.975544, 41, 1, 104, 256
-0.975582, 209, 65, 240, 128
-0.975583, 393, 241, 456, 304
-0.975588, 193, 121, 320, 184
-0.975592, 185, 129, 248, 375
-0.975636, 393, 49, 456, 112
-0.975757, 73, 113, 136, 176
-0.975783, 329, 177, 392, 240
-0.976015, 125, 25, 156, 88
-0.976018, 385, 185, 416, 248
-0.976037, 269, 65, 300, 192
-0.976085, 233, 177, 264, 304
-0.976112, 161, 249, 288, 312
-0.97613, 113, 129, 240, 256
-0.976187, 149, 25, 180, 88
-0.976257, 33, 33, 96, 96
-0.976266, 289, 17, 352, 144
-0.976431, 161, 153, 288, 216
-0.976431, 289, 73, 320, 136
-0.976453, 321, 209, 448, 272
-0.976522, 1, 193, 64, 256
-0.976572, 353, 105, 480, 168
-0.97659, 369, 105, 432, 168
-0.976649, 181, 105, 212, 168
-0.976806, 209, 233, 336, 296
-0.976955, 113, 97, 240, 160
-0.976981, 389, 129, 420, 256
-0.977039, 33, 89, 96, 152
-0.977114, 369, 1, 432, 64
-0.977181, 129, 273, 256, 336
-0.977185, 329, 225, 392, 288
-0.977326, 233, 129, 296, 192
-0.977326, 385, 217, 416, 280
-0.977372, 57, 33, 120, 96
-0.977376, 177, 25, 208, 88
-0.97739, 49, 145, 112, 272
-0.977393, 257, 129, 288, 192
-0.977455, 313, 33, 376, 160
-0.977596, 209, 209, 336, 272
-0.977629, 105, 73, 136, 136
-0.977994, 169, 1, 232, 64
-0.978073, 185, 25, 248, 88
-0.97824, 225, 81, 256, 144
-0.978258, 65, 73, 192, 136
-0.978347, 433, 193, 496, 320
-0.978371, 241, 265, 304, 328
-0.978407, 41, 1, 72, 64
-0.978426, 285, 49, 316, 176
-0.978448, 1, 1, 128, 64
-0.978448, 209, 257, 336, 320
-0.97852, 369, 1, 496, 128
-0.978544, 97, 1, 160, 64
-0.978597, 97, 17, 128, 80
-0.978616, 17, 1, 80, 256
-0.978638, 9, 25, 72, 88
-0.978665, 289, 49, 352, 112
-0.978681, 97, 105, 160, 168
-0.978735, 117, 17, 148, 144
-0.978772, 169, 57, 200, 120
-0.978842, 185, 265, 248, 328
-0.978893, 425, 1, 488, 375
-0.978963, 249, 1, 312, 375
-0.978965, 409, 97, 440, 160
-0.979004, 233, 33, 296, 96
-0.979092, 241, 113, 368, 176
-0.979138, 353, 217, 384, 280
-0.97914, 113, 241, 176, 368
-0.979162, 201, 1, 264, 375
-0.979212, 377, 193, 408, 320
-0.979352, 297, 105, 360, 168
-0.979362, 193, 129, 224, 192
-0.979425, 249, 185, 312, 248
-0.979526, 469, 97, 500, 224
-0.979553, 409, 305, 472, 368
-0.979575, 1, 201, 32, 264
-0.979584, 369, 129, 400, 256
-0.979637, 389, 289, 420, 352
-0.979643, 225, 1, 288, 375
-0.979687, 145, 121, 272, 184
-0.979689, 209, 17, 336, 80
-0.979754, 465, 49, 496, 176
-0.97981, 217, 81, 248, 208
-0.979877, 345, 1, 408, 64
-0.979944, 161, 25, 192, 88
-0.979955, 345, 97, 408, 352
-0.979973, 209, 153, 240, 216
-0.979979, 229, 49, 260, 176
-0.980015, 369, 201, 400, 264
-0.980041, 233, 113, 264, 240
-0.980113, 401, 1, 464, 375
-0.980148, 353, 177, 384, 304
-0.980164, 393, 137, 456, 200
-0.98017, 141, 273, 172, 336
-0.980214, 145, 17, 272, 80
-0.98022, 153, 241, 216, 368
-0.980325, 265, 105, 296, 168
-0.980359, 205, 41, 236, 104
-0.980453, 241, 33, 304, 288
-0.980508, 241, 73, 368, 136
-0.980542, 185, 241, 248, 304
-0.980574, 161, 209, 288, 272
-0.980576, 241, 1, 272, 128
-0.980625, 425, 65, 456, 192
-0.980628, 105, 257, 168, 320
-0.980633, 189, 33, 220, 96
-0.980734, 369, 289, 496, 352
-0.980878, 377, 65, 440, 320
-0.980903, 433, 297, 496, 360
-0.981049, 409, 281, 472, 344
-0.981099, 81, 49, 112, 176
-0.981099, 229, 225, 260, 352
-0.981178, 9, 161, 72, 224
-0.981205, 193, 73, 224, 136
-0.981213, 145, 273, 208, 336
-0.981249, 417, 97, 480, 160
-0.981274, 433, 49, 496, 112
-0.981403, 65, 97, 192, 160
-0.981431, 17, 49, 144, 112
-0.981451, 337, 121, 400, 184
-0.981468, 205, 1, 236, 128
-0.981556, 33, 57, 96, 120
-0.98156, 425, 33, 488, 288
-0.981577, 353, 313, 480, 375
-0.981618, 241, 185, 368, 248
-0.981657, 65, 9, 96, 72
-0.98175, 321, 185, 448, 248
-0.981832, 137, 25, 168, 88
-0.981876, 257, 65, 288, 192
-0.981966, 177, 1, 240, 375
-0.982004, 249, 241, 312, 368
-0.982058, 265, 17, 328, 144
-0.982059, 301, 73, 332, 136
-0.982153, 225, 105, 256, 168
-0.982156, 405, 201, 436, 264
-0.982176, 93, 49, 124, 176
-0.98219, 97, 81, 160, 144
-0.982191, 397, 249, 428, 312
-0.982221, 301, 65, 332, 192
-0.982287, 33, 97, 96, 224
-0.982328, 177, 177, 240, 240
-0.982339, 253, 153, 284, 216
-0.982471, 5, 193, 36, 320
-0.982515, 233, 265, 264, 328
-0.982542, 353, 129, 480, 192
-0.982636, 49, 33, 80, 96
-0.982677, 169, 97, 200, 224
-0.982716, 33, 161, 96, 224
-0.982728, 305, 113, 432, 176
-0.982788, 369, 193, 496, 256
-0.982793, 353, 249, 480, 312
-0.982796, 29, 1, 60, 128
-0.982811, 213, 97, 244, 160
-0.982831, 161, 185, 288, 248
-0.983013, 305, 81, 432, 144
-0.983055, 393, 1, 424, 128
-0.983122, 269, 81, 300, 144
-0.98319, 273, 209, 400, 272
-0.983193, 469, 113, 500, 176
-0.983206, 57, 49, 88, 176
-0.983219, 305, 217, 368, 280
-0.983231, 121, 1, 184, 64
-0.983236, 1, 185, 128, 248
-0.983313, 405, 193, 436, 320
-0.983317, 453, 49, 484, 176
-0.983352, 245, 105, 276, 168
-0.983353, 209, 161, 336, 224
-0.983459, 369, 81, 496, 144
-0.983463, 145, 1, 208, 64
-0.983507, 49, 209, 176, 336
-0.983591, 469, 265, 500, 328
-0.983605, 421, 73, 452, 136
-0.983738, 89, 1, 152, 375
-0.983754, 377, 289, 440, 352
-0.983877, 361, 81, 424, 144
-0.983957, 469, 241, 500, 368
-0.984033, 17, 73, 144, 136
-0.98409, 129, 1, 192, 375
-0.984165, 161, 137, 224, 200
-0.98422, 237, 289, 268, 352
-0.984255, 1, 241, 64, 368
-0.984262, 157, 65, 188, 192
-0.984301, 33, 1, 96, 375
-0.98431, 169, 105, 200, 168
-0.984321, 1, 129, 64, 375
-0.984364, 289, 49, 416, 112
-0.984408, 233, 129, 264, 192
-0.984455, 433, 249, 496, 312
-0.98446, 209, 281, 336, 344
-0.984463, 273, 113, 336, 240
-0.984477, 73, 209, 136, 336
-0.984532, 233, 161, 264, 224
-0.984542, 113, 177, 240, 304
-0.984615, 405, 17, 436, 144
-0.984679, 369, 249, 432, 312
-0.984719, 121, 97, 184, 160
-0.984783, 437, 49, 468, 176
-0.984844, 217, 129, 248, 192
-0.984917, 389, 145, 420, 208
-0.984919, 321, 1, 384, 256
-0.984934, 273, 1, 336, 375
-0.98498, 57, 97, 120, 352
-0.985059, 233, 209, 264, 272
-0.985087, 1, 257, 64, 320
-0.985093, 65, 257, 128, 320
-0.985173, 193, 1, 256, 64
-0.985195, 241, 137, 368, 200
-0.985223, 93, 41, 124, 104
-0.985277, 5, 145, 36, 272
-0.985335, 41, 273, 104, 336
-0.985342, 105, 105, 136, 168
-0.985355, 153, 249, 216, 312
-0.985401, 405, 177, 436, 240
-0.985414, 369, 161, 496, 224
-0.98542, 229, 1, 260, 128
-0.985557, 193, 129, 224, 256
-0.985602, 229, 233, 260, 296
-0.985629, 81, 113, 112, 240
-0.985633, 365, 177, 396, 240
-0.98565, 273, 209, 336, 272
-0.985655, 233, 289, 296, 352
-0.985658, 405, 73, 436, 136
-0.98576, 97, 193, 160, 320
-0.985786, 241, 49, 368, 112
-0.985801, 17, 1, 48, 128
-0.985817, 101, 97, 132, 224
-0.985832, 393, 25, 456, 88
-0.985849, 277, 113, 308, 176
-0.985864, 153, 97, 216, 352
-0.985879, 41, 193, 104, 256
-0.985914, 25, 145, 88, 272
-0.985953, 57, 57, 88, 120
-0.98598, 369, 225, 400, 288
-0.985996, 233, 57, 264, 120
-0.986078, 273, 17, 400, 144
-0.986126, 257, 81, 288, 144
-0.986157, 401, 129, 464, 375
-0.986161, 81, 81, 112, 144
-0.986168, 417, 1, 480, 128
-0.986242, 85, 17, 116, 80
-0.986308, 425, 145, 488, 272
-0.986357, 185, 289, 248, 352
-0.986358, 181, 65, 212, 128
-0.986448, 1, 25, 128, 88
-0.986462, 281, 161, 344, 288
-0.986579, 289, 209, 352, 336
-0.986628, 321, 49, 352, 176
-0.986631, 365, 177, 396, 304
-0.986651, 157, 81, 188, 144
-0.986651, 57, 1, 120, 375
-0.986686, 369, 217, 496, 280
-0.986689, 457, 241, 488, 368
-0.986694, 49, 113, 112, 176
-0.986723, 17, 185, 48, 248
-0.986776, 97, 121, 224, 184
-0.986815, 97, 1, 224, 64
-0.986838, 29, 1, 60, 64
-0.98684, 469, 137, 500, 200
-0.986869, 389, 121, 420, 184
-0.986876, 17, 145, 144, 208
-0.986905, 113, 249, 240, 312
-0.986929, 409, 233, 440, 296
-0.98696, 49, 145, 176, 272
-0.986994, 433, 129, 496, 375
-0.987122, 153, 273, 184, 336
-0.987147, 17, 145, 48, 272
-0.987185, 397, 81, 428, 208
-0.987251, 341, 193, 372, 320
-0.987266, 313, 65, 344, 128
-0.98729, 273, 25, 336, 88
-0.987296, 93, 185, 124, 248
-0.987335, 93, 73, 124, 136
-0.987341, 81, 105, 112, 168
-0.987386, 57, 161, 120, 224
-0.987478, 297, 97, 360, 352
-0.987486, 169, 81, 200, 144
-0.987505, 161, 297, 288, 360
-0.987511, 289, 1, 416, 64
-0.987569, 305, 97, 336, 160
-0.98757, 25, 49, 88, 176
-0.987594, 405, 121, 436, 184
-0.98761, 81, 185, 144, 248
-0.987694, 1, 97, 128, 160
-0.987807, 341, 201, 372, 264
-0.987863, 469, 65, 500, 128
-0.987866, 1, 241, 128, 368
-0.987869, 49, 121, 176, 184
-0.987959, 1, 121, 128, 184
-0.987966, 153, 1, 216, 375
-0.988015, 361, 1, 424, 375
-0.988046, 1, 209, 128, 272
-0.988081, 225, 297, 256, 360
-0.988103, 357, 129, 388, 256
-0.988104, 457, 113, 488, 176
-0.988151, 81, 289, 208, 352
-0.988164, 97, 97, 160, 352
-0.988276, 305, 233, 432, 296
-0.988287, 289, 49, 320, 112
-0.988292, 253, 241, 284, 368
-0.988341, 277, 113, 308, 240
-0.988377, 297, 1, 360, 375
-0.988475, 441, 241, 472, 368
-0.988548, 33, 33, 288, 96
-0.988559, 41, 1, 72, 128
-0.988568, 1, 233, 64, 296
-0.988596, 345, 257, 408, 320
-0.988663, 305, 137, 432, 200
-0.988677, 417, 225, 448, 352
-0.988721, 253, 233, 284, 296
-0.988742, 1, 1, 64, 375
-0.988778, 13, 1, 44, 64
-0.988882, 397, 225, 428, 288
-0.988891, 361, 205, 424, 236
-0.988902, 1, 281, 64, 344
-0.988985, 321, 89, 384, 152
-0.989042, 197, 9, 228, 72
-0.989128, 113, 97, 144, 224
-0.989183, 265, 69, 328, 100
-0.989189, 369, 49, 432, 112
-0.989217, 365, 225, 396, 352
-0.989224, 5, 1, 36, 128
-0.989239, 417, 193, 480, 256
-0.989264, 241, 241, 272, 368
-0.989267, 353, 161, 384, 224
-0.989284, 393, 221, 456, 252
-0.989296, 233, 69, 296, 100
-0.989353, 253, 257, 284, 320
-0.989359, 81, 57, 112, 120
-0.989378, 321, 1, 384, 64
-0.989381, 393, 1, 456, 64
-0.989381, 369, 313, 432, 375
-0.989384, 253, 201, 284, 264
-0.989385, 141, 297, 172, 360
-0.989393, 405, 49, 436, 112
-0.989413, 209, 141, 272, 172
-0.989434, 81, 129, 112, 192
-0.989436, 93, 97, 124, 160
-0.989519, 193, 65, 256, 96
-0.989616, 373, 145, 404, 208
-0.989663, 225, 105, 480, 168
-0.989736, 161, 77, 224, 108
-0.989742, 145, 29, 208, 60
-0.989753, 253, 193, 284, 320
-0.989776, 353, 225, 416, 256
-0.989802, 37, 25, 68, 88
-0.989803, 209, 257, 240, 320
-0.98981, 185, 137, 248, 168
-0.989822, 225, 153, 288, 184
-0.989835, 241, 213, 304, 244
-0.989848, 81, 209, 112, 336
-0.989854, 265, 113, 296, 240
-0.989857, 273, 81, 336, 112
-0.989871, 209, 241, 240, 368
-0.9899, 65, 233, 128, 296
-0.989923, 369, 57, 496, 120
-0.989926, 129, 73, 384, 136
-0.989943, 41, 9, 104, 40
-0.989964, 405, 145, 436, 208
-0.989974, 217, 129, 280, 160
-0.989976, 225, 185, 288, 216
-0.989978, 177, 89, 240, 120
-0.98998, 33, 57, 288, 120
-0.989985, 245, 129, 276, 192
-0.990022, 161, 57, 224, 88
-0.990057, 217, 241, 280, 272
-0.990078, 217, 257, 280, 288
-0.990103, 225, 201, 288, 232
-0.990109, 217, 217, 280, 248
-0.990136, 113, 29, 176, 60
-0.990166, 217, 229, 280, 260
-0.990192, 241, 225, 304, 256
-0.990204, 145, 193, 208, 320
-0.990208, 217, 273, 280, 304
-0.990218, 361, 189, 424, 220
-0.990234, 225, 165, 288, 196
-0.990264, 185, 125, 248, 156
-0.990277, 241, 65, 272, 192
-0.990277, 125, 1, 156, 64
-0.990279, 1, 17, 64, 48
-0.990314, 417, 225, 480, 288
-0.990337, 93, 177, 124, 304
-0.990339, 237, 81, 268, 144
-0.99035, 185, 153, 248, 184
-0.990365, 457, 97, 488, 224
-0.990368, 185, 105, 248, 136
-0.990369, 217, 81, 280, 112
-0.990408, 213, 177, 244, 240
-0.990431, 193, 77, 256, 108
-0.990446, 337, 1, 464, 64
-0.990453, 121, 53, 184, 84
-0.990456, 217, 117, 280, 148
-0.990485, 433, 145, 496, 208
-0.990488, 41, 193, 104, 320
-0.990488, 465, 193, 496, 320
-0.990502, 321, 97, 384, 352
-0.990529, 305, 161, 432, 224
-0.990542, 209, 305, 336, 368
-0.990554, 57, 41, 120, 72
-0.990564, 137, 281, 200, 312
-0.990602, 125, 65, 156, 128
-0.990608, 329, 225, 392, 256
-0.99061, 193, 49, 256, 80
-0.990623, 217, 285, 280, 316
-0.990648, 97, 41, 160, 72
-0.99065, 361, 173, 424, 204
-0.990689, 361, 117, 424, 148
-0.990692, 81, 177, 208, 240
-0.990696, 361, 141, 424, 172
-0.990731, 145, 49, 176, 112
-0.990731, 89, 145, 152, 272
-0.990745, 401, 273, 432, 336
-0.990755, 89, 21, 152, 52
-0.990762, 273, 93, 336, 124
-0.990766, 337, 213, 400, 244
-0.990772, 341, 113, 372, 240
-0.990795, 437, 65, 468, 128
-0.990796, 1, 257, 128, 320
-0.990803, 401, 125, 464, 156
-0.99082, 393, 241, 456, 272
-0.990824, 113, 285, 176, 316
-0.990839, 457, 265, 488, 328
-0.990855, 129, 49, 384, 112
-0.990864, 361, 237, 424, 268
-0.990871, 305, 185, 368, 248
-0.990873, 73, 97, 136, 128
-0.99088, 241, 237, 304, 268
-0.990883, 257, 117, 320, 148
-0.990884, 65, 281, 128, 344
-0.99089, 69, 81, 100, 208
-0.990897, 1, 197, 64, 228
-0.990911, 257, 233, 384, 296
-0.990938, 305, 41, 336, 104
-0.990943, 337, 49, 400, 176
-0.990962, 61, 273, 92, 336
-0.990967, 313, 49, 376, 112
-0.990977, 369, 5, 432, 36
-0.991013, 393, 1, 424, 64
-0.991015, 249, 157, 312, 188
-0.991016, 161, 45, 224, 76
-0.991039, 81, 53, 144, 84
-0.991042, 353, 1, 416, 256
-0.991047, 185, 177, 248, 208
-0.991052, 145, 101, 208, 132
-0.99106, 121, 81, 184, 112
-0.991062, 17, 1, 80, 32
-0.991119, 305, 313, 432, 375
-0.991121, 277, 1, 308, 128
-0.991134, 361, 161, 424, 192
-0.991141, 257, 161, 384, 224
-0.991144, 289, 69, 352, 100
-0.991145, 213, 281, 244, 344
-0.991147, 393, 105, 456, 136
-0.991151, 9, 185, 72, 216
-0.991162, 361, 129, 392, 192
-0.991194, 233, 57, 296, 88
-0.991197, 209, 97, 272, 128
-0.991199, 201, 197, 264, 228
-0.991244, 161, 113, 224, 144
-0.991246, 265, 57, 296, 120
-0.991257, 321, 153, 384, 216
-0.991262, 233, 97, 296, 128
-0.991265, 57, 53, 120, 84
-0.991267, 57, 85, 120, 116
-0.991281, 393, 209, 456, 240
-0.991284, 73, 113, 136, 144
-0.991293, 393, 73, 456, 104
-0.991297, 113, 145, 240, 208
-0.991311, 393, 141, 456, 172
-0.991321, 201, 165, 264, 196
-0.991322, 141, 241, 172, 368
-0.991331, 209, 297, 272, 328
-0.991337, 289, 105, 352, 136
-0.99136, 249, 129, 312, 160
-0.991372, 153, 89, 216, 120
-0.991385, 185, 213, 248, 244
-0.991405, 161, 133, 224, 164
-0.991411, 117, 89, 148, 152
-0.991427, 433, 125, 496, 156
-0.991452, 49, 265, 176, 328
-0.991453, 337, 185, 400, 216
-0.991456, 185, 249, 248, 280
-0.99148, 393, 185, 456, 216
-0.991481, 301, 17, 332, 144
-0.991487, 121, 93, 184, 124
-0.991495, 185, 225, 248, 256
-0.99152, 121, 69, 184, 100
-0.991547, 425, 161, 456, 288
-0.991562, 185, 237, 248, 268
-0.991564, 121, 41, 184, 72
-0.991566, 73, 73, 136, 104
-0.99158, 169, 29, 232, 60
-0.991589, 393, 61, 456, 92
-0.991593, 241, 265, 304, 296
-0.991597, 385, 81, 416, 208
-0.991626, 65, 17, 128, 48
-0.991626, 65, 145, 128, 176
-0.991632, 73, 125, 136, 156
-0.991635, 241, 249, 304, 280
-0.991675, 217, 25, 248, 88
-0.991679, 17, 161, 48, 224
-0.991685, 41, 97, 104, 128
-0.991697, 249, 201, 312, 232
-0.991701, 57, 29, 120, 60
-0.991707, 229, 25, 260, 88
-0.991712, 425, 65, 488, 96
-0.991724, 393, 93, 456, 124
-0.991725, 65, 97, 320, 160
-0.991747, 361, 129, 424, 160
-0.99175, 61, 81, 92, 144
-0.991772, 257, 105, 320, 136
-0.991787, 401, 153, 464, 184
-0.991795, 113, 225, 240, 288
-0.991805, 185, 265, 248, 296
-0.991835, 157, 57, 188, 120
-0.991848, 361, 1, 392, 64
-0.991848, 321, 41, 352, 104
-0.991859, 249, 177, 312, 208
-0.99186, 369, 249, 432, 280
-0.991861, 433, 345, 496, 375
-0.991885, 393, 197, 456, 228
-0.991893, 273, 57, 336, 88
-0.991902, 45, 145, 76, 272
-0.991912, 405, 241, 436, 368
-0.991912, 97, 105, 160, 136
-0.991913, 185, 281, 248, 312
-0.991931, 329, 209, 360, 336
-0.991934, 1, 9, 256, 72
-0.991952, 249, 189, 312, 220
-0.991956, 321, 117, 384, 148
-0.991959, 249, 81, 312, 112
-0.99196, 241, 281, 304, 312
-0.99199, 25, 29, 88, 60
-0.991995, 353, 105, 416, 136
-0.992005, 273, 217, 336, 248
-0.992025, 1, 241, 32, 368
-0.992044, 409, 341, 472, 372
-0.992053, 249, 17, 312, 48
-0.992054, 433, 277, 496, 308
-0.992054, 417, 209, 480, 240
-0.992089, 353, 225, 384, 352
-0.992112, 225, 73, 480, 136
-0.992135, 305, 257, 432, 320
-0.992146, 321, 289, 448, 352
-0.992164, 205, 133, 236, 164
-0.992211, 281, 65, 312, 96
-0.992261, 321, 1, 384, 375
-0.992276, 141, 281, 172, 312
-0.992377, 405, 213, 436, 244
-0.992377, 233, 185, 264, 216
-0.992417, 385, 193, 416, 224
-0.992418, 205, 73, 236, 104
-0.992425, 109, 53, 140, 84
-0.992446, 225, 209, 480, 272
-0.992494, 385, 229, 416, 260
-0.992507, 209, 149, 240, 180
-0.992509, 269, 77, 300, 108
-0.99252, 357, 209, 388, 240
-0.992536, 405, 241, 436, 272
-0.992546, 9, 197, 40, 228
-0.992575, 233, 197, 264, 228
-0.992587, 281, 77, 312, 108
-0.992595, 217, 85, 248, 116
-0.992601, 413, 225, 444, 256
-0.99262, 225, 65, 256, 96
-0.992645, 105, 41, 136, 72
-0.992656, 205, 93, 236, 124
-0.992659, 409, 105, 440, 136
-0.99266, 1, 209, 32, 240
-0.992672, 105, 69, 136, 100
-0.992677, 41, 1, 72, 32
-0.992704, 197, 117, 228, 148
-0.992707, 293, 81, 324, 112
-0.992709, 21, 189, 52, 220
-0.992714, 293, 69, 324, 100
-0.992722, 121, 29, 152, 60
-0.992724, 233, 173, 264, 204
-0.992725, 345, 217, 376, 248
-0.992751, 197, 105, 228, 136
-0.992766, 149, 29, 180, 60
-0.992769, 453, 193, 484, 320
-0.992773, 257, 149, 288, 180
-0.992779, 253, 17, 284, 144
-0.992787, 225, 53, 256, 84
-0.992787, 233, 221, 264, 252
-0.992788, 209, 49, 240, 80
-0.992789, 217, 137, 248, 168
-0.992794, 273, 289, 400, 352
-0.992795, 269, 65, 300, 96
-0.992795, 405, 93, 436, 124
-0.992807, 245, 129, 276, 160
-0.992809, 185, 101, 216, 132
-0.992812, 173, 109, 204, 140
-0.992814, 229, 281, 260, 312
-0.992827, 193, 85, 224, 116
-0.992829, 133, 29, 164, 60
-0.992829, 85, 45, 116, 76
-0.992832, 177, 29, 208, 60
-0.99284, 109, 25, 140, 56
-0.992841, 105, 97, 136, 128
-0.992847, 193, 137, 224, 168
-0.992849, 277, 117, 308, 148
-0.992868, 257, 133, 288, 164
-0.992868, 389, 305, 420, 336
-0.992875, 389, 149, 420, 180
-0.992879, 169, 69, 200, 100
-0.992883, 81, 137, 112, 168
-0.992884, 257, 117, 288, 148
-0.992886, 233, 209, 264, 240
-0.99289, 401, 225, 432, 256
-0.992893, 357, 225, 388, 256
-0.992898, 345, 205, 376, 236
-0.992901, 33, 145, 64, 272
-0.992904, 113, 85, 144, 116
-0.992906, 353, 193, 384, 224
-0.992914, 169, 57, 200, 88
-0.992927, 125, 41, 156, 72
-0.99293, 33, 21, 64, 52
-0.992934, 229, 81, 260, 112
-0.992938, 225, 129, 480, 192
-0.992947, 233, 301, 264, 332
-0.992948, 65, 121, 320, 184
-0.992955, 257, 25, 384, 88
-0.992957, 209, 161, 240, 192
-0.99296, 185, 117, 216, 148
-0.992962, 65, 49, 192, 80
-0.992966, 369, 205, 400, 236
-0.992968, 85, 121, 116, 152
-0.992977, 233, 161, 264, 192
-0.992984, 393, 285, 424, 316
-0.992986, 145, 65, 272, 96
-0.992996, 217, 125, 248, 156
-0.993005, 413, 77, 444, 108
-0.993005, 393, 249, 424, 280
-0.993005, 245, 117, 276, 148
-0.99301, 221, 129, 252, 256
-0.99301, 81, 101, 112, 132
-0.993011, 405, 201, 436, 232
-0.993013, 49, 33, 80, 64
-0.993016, 305, 77, 336, 108
-0.993016, 357, 169, 388, 200
-0.993019, 29, 1, 60, 32
-0.993024, 229, 233, 260, 264
-0.993026, 225, 261, 256, 292
-0.993026, 97, 21, 128, 52
-0.993029, 57, 81, 88, 112
-0.993039, 157, 97, 188, 128
-0.993043, 53, 9, 84, 40
-0.993048, 457, 125, 488, 156
-0.99306, 385, 217, 416, 248
-0.993063, 393, 5, 424, 36
-0.993071, 237, 265, 268, 296
-0.993077, 161, 29, 192, 60
-0.993082, 261, 105, 292, 136
-0.993083, 405, 145, 436, 176
-0.993084, 205, 61, 236, 92
-0.993087, 213, 177, 244, 208
-0.9931, 197, 45, 228, 76
-0.993106, 105, 113, 136, 144
-0.993107, 57, 273, 88, 304
-0.993107, 217, 97, 248, 128
-0.993108, 185, 73, 216, 104
-0.993108, 305, 105, 336, 136
-0.993114, 229, 245, 260, 276
-0.993124, 189, 57, 220, 88
-0.993125, 1, 97, 64, 224
-0.993125, 149, 53, 180, 84
-0.99313, 253, 221, 284, 252
-0.993133, 369, 225, 400, 256
-0.993133, 417, 89, 448, 120
-0.993139, 305, 65, 336, 96
-0.993141, 85, 17, 116, 48
-0.993143, 225, 257, 480, 320
-0.993149, 37, 201, 68, 232
-0.993151, 401, 297, 432, 328
-0.993152, 425, 217, 456, 248
-0.993153, 389, 133, 420, 164
-0.993153, 93, 65, 124, 96
-0.993157, 425, 77, 456, 108
-0.993159, 253, 161, 284, 192
-0.993161, 405, 117, 436, 148
-0.993163, 153, 281, 184, 312
-0.993166, 93, 97, 124, 128
-0.99317, 273, 89, 304, 120
-0.993172, 313, 93, 344, 124
-0.993176, 89, 193, 120, 224
-0.993179, 253, 237, 284, 268
-0.993183, 357, 181, 388, 212
-0.993212, 65, 241, 320, 304
-0.993216, 145, 81, 272, 112
-0.993243, 425, 17, 456, 144
-0.993265, 65, 145, 192, 208
-0.993348, 153, 241, 184, 368
-0.993376, 113, 29, 240, 60
-0.993447, 193, 65, 320, 96
-0.993512, 1, 153, 500, 216
-0.99356, 97, 61, 224, 92
-0.993745, 145, 53, 272, 84
-0.993747, 33, 97, 96, 352
-0.993815, 1, 233, 128, 296
-0.993894, 33, 289, 160, 352
-0.993923, 209, 77, 336, 108
-0.993988, 153, 273, 168, 336
-0.993997, 81, 201, 208, 264
-0.994047, 125, 65, 156, 192
-0.994058, 97, 73, 224, 104
-0.994075, 145, 277, 272, 308
-0.994079, 129, 97, 192, 352
-0.994091, 129, 25, 384, 88
-0.994108, 429, 241, 460, 368
-0.994216, 337, 33, 464, 96
-0.994224, 421, 113, 452, 240
-0.994285, 229, 57, 244, 120
-0.994382, 69, 129, 100, 256
-0.994411, 33, 21, 160, 52
-0.994423, 225, 185, 480, 248
-0.994423, 97, 89, 224, 120
-0.994435, 121, 17, 136, 80
-0.994457, 219, 121, 234, 184
-0.994459, 55, 1, 70, 64
-0.994473, 1, 65, 500, 128
-0.994528, 257, 305, 500, 368
-0.994564, 277, 209, 308, 336
-0.994567, 177, 133, 304, 164
-0.994572, 161, 253, 288, 284
-0.994601, 257, 49, 500, 112
-0.994609, 369, 125, 496, 156
-0.99461, 1, 281, 500, 344
-0.99463, 367, 185, 382, 248
-0.994635, 235, 49, 250, 112
-0.994654, 203, 89, 218, 152
-0.994662, 275, 65, 290, 128
-0.994695, 3, 201, 18, 264
-0.994731, 359, 185, 374, 248
-0.994766, 161, 157, 288, 188
-0.994794, 403, 209, 418, 272
-0.994803, 337, 209, 464, 240
-0.994833, 113, 41, 240, 72
-0.994834, 1, 265, 256, 328
-0.994858, 107, 17, 122, 80
-0.994859, 163, 25, 178, 88
-0.994877, 179, 25, 194, 88
-0.994891, 209, 241, 336, 272
-0.99494, 129, 241, 160, 368
-0.994943, 107, 73, 122, 136
-0.994946, 49, 1, 64, 64
-0.994961, 1, 97, 500, 160
-0.994964, 33, 193, 64, 320
-0.994973, 205, 113, 220, 176
-0.994982, 115, 41, 130, 104
-0.995002, 469, 145, 500, 272
-0.995008, 129, 25, 144, 88
-0.995023, 395, 185, 410, 248
-0.995033, 177, 93, 304, 124
-0.995044, 369, 113, 496, 144
-0.995073, 69, 1, 84, 64
-0.995119, 171, 65, 186, 128
-0.995127, 177, 117, 304, 148
-0.995131, 173, 25, 188, 88
-0.995141, 199, 121, 214, 184
-0.995143, 97, 101, 224, 132
-0.995143, 195, 97, 210, 160
-0.99515, 305, 73, 320, 136
-0.995156, 211, 65, 226, 128
-0.995161, 281, 57, 296, 120
-0.995166, 97, 153, 352, 216
-0.995176, 217, 49, 232, 112
-0.99518, 261, 129, 276, 192
-0.995182, 299, 65, 314, 128
-0.995187, 407, 241, 422, 304
-0.995209, 427, 81, 442, 144
-0.995219, 209, 269, 336, 300
-0.995222, 219, 73, 234, 136
-0.995226, 437, 1, 468, 128
-0.995232, 293, 57, 308, 120
-0.995241, 363, 161, 378, 224
-0.99525, 57, 145, 88, 272
-0.995266, 193, 145, 320, 176
-0.995269, 289, 1, 320, 128
-0.995287, 337, 221, 464, 252
-0.995292, 351, 209, 366, 272
-0.995298, 113, 17, 128, 80
-0.995298, 145, 289, 272, 320
-0.995352, 445, 113, 476, 240
-0.995354, 61, 1, 76, 64
-0.995378, 271, 97, 286, 160
-0.995381, 397, 217, 412, 280
-0.995385, 273, 209, 400, 240
-0.995412, 209, 229, 336, 260
-0.995418, 241, 113, 368, 144
-0.995425, 145, 25, 160, 88
-0.995453, 379, 201, 394, 264
-0.995469, 161, 237, 288, 268
-0.995479, 193, 25, 208, 88
-0.995483, 209, 257, 336, 288
-0.995485, 401, 153, 416, 216
-0.995488, 161, 265, 288, 296
-0.995505, 193, 105, 320, 136
-0.995519, 185, 25, 200, 88
-0.995536, 49, 61, 176, 92
-0.995552, 225, 233, 480, 296
-0.995557, 441, 193, 472, 320
-0.995559, 1, 41, 500, 104
-0.995584, 17, 9, 144, 40
-0.995588, 49, 33, 176, 64
-0.995594, 17, 193, 48, 320
-0.995605, 393, 289, 408, 352
-0.995618, 239, 73, 254, 136
-0.995639, 353, 185, 368, 248
-0.99566, 81, 1, 112, 256
-0.995673, 225, 153, 480, 216
-0.995684, 113, 113, 240, 144
-0.995692, 485, 113, 500, 176
-0.995704, 369, 305, 496, 336
-0.995712, 135, 25, 150, 88
-0.995733, 33, 81, 160, 112
-0.99574, 211, 105, 226, 168
-0.995744, 317, 97, 348, 224
-0.995746, 225, 281, 480, 344
-0.995754, 151, 25, 166, 88
-0.995771, 211, 129, 226, 192
-0.995775, 373, 201, 388, 264
-0.995789, 1, 185, 500, 248
-0.9958, 409, 81, 424, 144
-0.995807, 193, 53, 320, 84
-0.995814, 161, 25, 288, 56
-0.995816, 329, 97, 360, 224
-0.99582, 115, 65, 130, 128
-0.995849, 181, 1, 212, 256
-0.995868, 357, 217, 372, 280
-0.995872, 97, 209, 352, 272
-0.99588, 41, 81, 72, 208
-0.995889, 209, 281, 336, 312
-0.995902, 257, 129, 288, 375
-0.99591, 101, 17, 116, 80
-0.995917, 223, 49, 238, 112
-0.995921, 287, 57, 302, 120
-0.995923, 233, 97, 264, 352
-0.995929, 209, 197, 336, 228
-0.99593, 147, 273, 162, 336
-0.99593, 227, 81, 242, 144
-0.995938, 107, 97, 122, 160
-0.995951, 11, 193, 26, 256
-0.99597, 121, 1, 152, 256
-0.995973, 257, 313, 384, 375
-0.995974, 101, 1, 132, 256
-0.99599, 161, 221, 288, 252
-0.995995, 209, 217, 336, 248
-0.996011, 157, 25, 172, 88
-0.996015, 401, 257, 416, 320
-0.996023, 107, 49, 122, 112
-0.996027, 63, 33, 78, 96
-0.996046, 369, 101, 496, 132
-0.99606, 479, 113, 494, 176
-0.996064, 385, 193, 400, 256
-0.996072, 71, 265, 86, 328
-0.99608, 353, 253, 480, 284
-0.996092, 333, 49, 364, 176
-0.996098, 231, 233, 246, 296
-0.996098, 161, 209, 288, 240
-0.99612, 163, 73, 178, 136
-0.996124, 97, 1, 352, 64
-0.996125, 49, 225, 176, 288
-0.996127, 211, 41, 226, 104
-0.99613, 375, 225, 390, 288
-0.996151, 225, 161, 240, 224
-0.996157, 265, 1, 296, 128
-0.996163, 185, 105, 200, 168
-0.996165, 209, 181, 336, 212
-0.996165, 255, 137, 270, 200
-0.996166, 161, 193, 288, 224
-0.996182, 257, 105, 272, 168
-0.996184, 105, 145, 136, 272
-0.99619, 129, 141, 256, 172
-0.996195, 209, 33, 240, 288
-0.996206, 1, 257, 500, 320
-0.996218, 305, 109, 432, 140
-0.996239, 43, 1, 58, 64
-0.996239, 405, 1, 420, 64
-0.996255, 161, 169, 288, 200
-0.996261, 205, 65, 220, 128
-0.996263, 1, 129, 500, 192
-0.996263, 159, 273, 174, 336
-0.996264, 177, 105, 192, 168
-0.996274, 203, 41, 218, 104
-0.996275, 171, 97, 186, 160
-0.996276, 401, 185, 416, 248
-0.996285, 231, 257, 246, 320
-0.996308, 415, 97, 430, 160
-0.996319, 381, 225, 396, 288
-0.99632, 161, 37, 288, 68
-0.996325, 281, 81, 296, 144
-0.996331, 305, 125, 432, 156
-0.996332, 93, 185, 108, 248
-0.996345, 241, 13, 368, 44
-0.996378, 209, 169, 336, 200
-0.99639, 91, 9, 106, 72
-0.99639, 277, 113, 292, 176
-0.996406, 337, 197, 464, 228
-0.996411, 399, 281, 414, 344
-0.996413, 353, 333, 480, 364
-0.996414, 409, 65, 440, 320
-0.996423, 305, 9, 432, 40
-0.996427, 57, 1, 88, 256
-0.996435, 65, 177, 320, 240
-0.996439, 17, 49, 144, 80
-0.996444, 1, 193, 128, 224
-0.996446, 161, 181, 288, 212
-0.996461, 257, 69, 384, 100
-0.996462, 133, 1, 164, 256
-0.996462, 75, 33, 90, 96
-0.996466, 413, 233, 428, 296
-0.996469, 311, 81, 326, 144
-0.996509, 209, 157, 336, 188
-0.996516, 423, 217, 438, 280
-0.996518, 233, 81, 248, 144
-0.996523, 193, 1, 448, 64
-0.996527, 257, 161, 272, 224
-0.996535, 241, 49, 256, 112
-0.996535, 193, 1, 224, 256
-0.996564, 249, 217, 264, 280
-0.996565, 485, 73, 500, 136
-0.996574, 247, 185, 262, 248
-0.996577, 239, 17, 254, 80
-0.996581, 369, 137, 496, 168
-0.996581, 353, 321, 480, 352
-0.996589, 305, 97, 432, 128
-0.996593, 267, 129, 282, 192
-0.996597, 1, 217, 256, 280
-0.996598, 145, 1, 176, 256
-0.996614, 231, 297, 246, 360
-0.996627, 233, 209, 248, 272
-0.996642, 249, 121, 264, 184
-0.996643, 453, 1, 484, 128
-0.996647, 97, 265, 352, 328
-0.996658, 433, 113, 464, 240
-0.996659, 249, 257, 264, 320
-0.996661, 1, 145, 256, 208
-0.996666, 321, 177, 448, 208
-0.996668, 257, 125, 384, 156
-0.99667, 161, 13, 288, 44
-0.996686, 121, 97, 136, 160
-0.996689, 289, 225, 416, 256
-0.996692, 145, 65, 176, 192
-0.9967, 361, 81, 392, 208
-0.996702, 269, 73, 284, 136
-0.996704, 49, 113, 176, 144
-0.996711, 367, 209, 382, 272
-0.996715, 49, 93, 176, 124
-0.996715, 485, 137, 500, 200
-0.996716, 391, 225, 406, 288
-0.99672, 409, 57, 424, 120
-0.99673, 409, 113, 424, 176
-0.99674, 1, 265, 16, 328
-0.996745, 353, 285, 480, 316
-0.996748, 209, 153, 224, 216
-0.996749, 121, 73, 136, 136
-0.996752, 209, 293, 336, 324
-0.996758, 169, 1, 200, 256
-0.99677, 477, 137, 492, 200
-0.996787, 485, 265, 500, 328
-0.996789, 195, 73, 210, 136
-0.996803, 49, 25, 64, 88
-0.996813, 209, 129, 240, 375
-0.996839, 113, 125, 240, 156
-0.996839, 273, 33, 304, 288
-0.99684, 473, 113, 488, 176
-0.99684, 345, 217, 360, 280
-0.996843, 99, 41, 114, 104
-0.996876, 257, 81, 384, 112
-0.99688, 209, 177, 240, 304
-0.996885, 1, 9, 500, 72
-0.996936, 229, 1, 260, 256
-0.996947, 97, 289, 352, 352
-0.996978, 321, 137, 448, 168
-0.996979, 157, 1, 188, 256
-0.997025, 381, 241, 412, 368
-0.99703, 289, 113, 320, 240
-0.997037, 405, 237, 420, 268
-0.997038, 469, 97, 500, 352
-0.997049, 161, 301, 288, 332
-0.997077, 273, 57, 400, 88
-0.997117, 241, 101, 368, 132
-0.997123, 273, 77, 288, 108
-0.99714, 321, 1, 352, 256
-0.997142, 241, 141, 368, 172
-0.997144, 219, 137, 234, 168
-0.997171, 113, 265, 240, 296
-0.997173, 155, 281, 170, 312
-0.99718, 273, 189, 400, 220
-0.997186, 321, 77, 448, 108
-0.997199, 45, 1, 76, 256
-0.997216, 17, 181, 144, 212
-0.997223, 353, 165, 480, 196
-0.997223, 469, 1, 500, 128
-0.997227, 365, 97, 396, 352
-0.997237, 17, 145, 144, 176
-0.997241, 369, 241, 496, 272
-0.99725, 369, 89, 496, 120
-0.997262, 393, 129, 424, 375
-0.997273, 353, 345, 480, 375
-0.997279, 65, 125, 192, 156
-0.997283, 209, 137, 224, 168
-0.997294, 303, 73, 318, 104
-0.9973, 113, 313, 240, 375
-0.997305, 49, 281, 176, 312
-0.997325, 309, 1, 340, 256
-0.997335, 113, 13, 240, 44
-0.997386, 355, 205, 370, 236
-0.997391, 279, 65, 294, 96
-0.997395, 1, 205, 128, 236
-0.997398, 257, 265, 384, 328
-0.99741, 261, 141, 276, 172
-0.997411, 195, 113, 210, 144
-0.997413, 1, 305, 500, 368
-0.99742, 369, 65, 496, 96
-0.99742, 201, 117, 216, 148
-0.997435, 5, 129, 36, 375
-0.997449, 147, 281, 162, 312
-0.997467, 305, 237, 432, 268
-0.997473, 65, 137, 192, 168
-0.997479, 71, 269, 86, 300
-0.997492, 29, 1, 60, 256
-0.997495, 121, 41, 136, 72
-0.997503, 209, 25, 336, 56
-0.997504, 369, 177, 496, 208
-0.997527, 437, 33, 468, 288
-0.99754, 369, 149, 496, 180
-0.997547, 1, 37, 128, 68
-0.997547, 3, 209, 18, 240
-0.99756, 1, 233, 500, 296
-0.99756, 295, 65, 310, 96
-0.997563, 241, 1, 272, 256
-0.997568, 353, 273, 480, 304
-0.997581, 363, 213, 378, 244
-0.997588, 11, 201, 26, 232
-0.997594, 407, 249, 422, 280
-0.997596, 353, 217, 368, 248
-0.997601, 97, 289, 224, 320
-0.997602, 353, 5, 480, 36
-0.997615, 125, 25, 140, 56
-0.997615, 257, 25, 500, 88
-0.997622, 423, 217, 438, 248
-0.997626, 113, 153, 240, 184
-0.997627, 135, 29, 150, 60
-0.997632, 17, 193, 32, 224
-0.997635, 235, 81, 250, 112
-0.997641, 207, 81, 222, 112
-0.997648, 305, 249, 432, 280
-0.997666, 147, 29, 162, 60
-0.997677, 385, 33, 416, 288
-0.99768, 425, 33, 456, 288
-0.997698, 47, 1, 62, 32
-0.997699, 461, 1, 492, 256
-0.997702, 409, 93, 424, 124
-0.997711, 1, 125, 128, 156
-0.997712, 17, 1, 48, 256
-0.997713, 397, 189, 412, 220
-0.997717, 113, 253, 240, 284
-0.997719, 453, 129, 484, 375
-0.997728, 411, 237, 426, 268
-0.997741, 235, 65, 250, 96
-0.997743, 1, 277, 128, 308
-0.997764, 107, 97, 122, 128
-0.997765, 399, 229, 414, 260
-0.997782, 365, 169, 380, 200
-0.99779, 205, 93, 220, 124
-0.997798, 77, 97, 108, 352
-0.997804, 229, 65, 244, 96
-0.997809, 305, 85, 320, 116
-0.997812, 369, 209, 384, 240
-0.997813, 41, 1, 56, 32
-0.997815, 241, 45, 368, 76
-0.997821, 369, 77, 496, 108
-0.997822, 101, 45, 116, 76
-0.99783, 197, 129, 212, 160
-0.99783, 107, 41, 122, 72
-0.997832, 141, 285, 156, 316
-0.997833, 193, 97, 224, 352
-0.997835, 1, 209, 500, 272
-0.997844, 285, 65, 300, 96
-0.997849, 227, 81, 242, 112
-0.997854, 345, 65, 376, 192
-0.997855, 273, 65, 288, 96
-0.997874, 285, 77, 300, 108
-0.997876, 1, 221, 16, 252
-0.997887, 259, 129, 274, 160
-0.997896, 61, 37, 76, 68
-0.997897, 257, 33, 288, 288
-0.997914, 213, 69, 228, 100
-0.997936, 277, 89, 292, 120
-0.99794, 273, 177, 400, 208
-0.997946, 405, 217, 420, 248
-0.99795, 349, 205, 364, 236
-0.997959, 401, 253, 416, 284
-0.997962, 333, 1, 364, 256
-0.997965, 221, 73, 236, 104
-0.99797, 115, 45, 130, 76
-0.997981, 219, 89, 234, 120
-0.997995, 245, 129, 276, 375
-0.997999, 221, 49, 236, 80
-0.998, 167, 97, 182, 128
-0.998013, 115, 21, 130, 52
-0.998016, 373, 225, 388, 256
-0.998017, 107, 85, 122, 116
-0.99802, 249, 269, 264, 300
-0.998022, 269, 161, 300, 288
-0.998022, 415, 225, 430, 256
-0.998022, 199, 77, 214, 108
-0.998025, 403, 157, 418, 188
-0.998032, 221, 177, 252, 304
-0.998037, 141, 29, 156, 60
-0.998046, 197, 101, 212, 132
-0.998047, 229, 133, 244, 164
-0.998049, 377, 129, 408, 375
-0.998056, 427, 77, 442, 108
-0.998066, 97, 97, 128, 352
-0.998093, 153, 29, 168, 60
-0.998097, 415, 101, 430, 132
-0.998097, 235, 53, 250, 84
-0.998102, 405, 1, 420, 32
-0.998106, 81, 161, 112, 288
-0.998107, 169, 73, 184, 104
-0.998115, 1, 217, 128, 248
-0.998117, 115, 77, 130, 108
-0.998121, 65, 313, 192, 375
-0.998129, 345, 97, 376, 352
-0.998131, 111, 57, 126, 88
-0.99814, 361, 225, 376, 256
-0.99814, 85, 137, 100, 168
-0.99814, 397, 285, 412, 316
-0.998141, 1, 113, 128, 144
-0.998154, 213, 49, 228, 80
-0.998154, 321, 309, 448, 340
-0.998157, 285, 33, 316, 288
-0.998162, 35, 1, 50, 32
-0.998162, 229, 53, 244, 84
-0.998166, 39, 193, 54, 224
-0.99817, 45, 21, 60, 52
-0.998177, 321, 149, 448, 180
-0.998178, 177, 53, 192, 84
-0.998181, 203, 133, 218, 164
-0.998186, 219, 125, 234, 156
-0.998186, 173, 105, 188, 136
-0.998187, 363, 193, 378, 224
-0.998187, 251, 129, 266, 160
-0.998188, 257, 161, 384, 192
-0.998189, 107, 21, 122, 52
-0.99819, 65, 181, 192, 212
-0.998192, 265, 121, 280, 152
-0.998192, 235, 193, 250, 224
-0.998193, 49, 89, 64, 120
-0.998193, 397, 301, 412, 332
-0.998204, 131, 41, 146, 72
-0.998209, 17, 157, 144, 188
-0.99821, 193, 25, 208, 56
-0.99821, 279, 77, 294, 108
-0.998211, 281, 117, 296, 148
-0.998213, 429, 217, 444, 248
-0.998213, 117, 93, 132, 124
-0.998216, 159, 29, 174, 60
-0.998221, 109, 69, 124, 100
-0.998222, 249, 221, 264, 252
-0.998226, 219, 149, 234, 180
-0.998231, 27, 185, 42, 216
-0.998238, 113, 241, 240, 272
-0.998238, 241, 345, 368, 375
-0.998244, 107, 109, 122, 140
-0.998245, 169, 61, 184, 92
-0.998246, 383, 229, 398, 260
-0.998251, 391, 285, 406, 316
-0.998259, 357, 193, 372, 224
-0.99826, 53, 5, 68, 36
-0.998262, 209, 305, 336, 336
-0.998264, 267, 133, 282, 164
-0.998271, 231, 281, 246, 312
-0.998274, 273, 105, 288, 136
-0.998275, 231, 241, 246, 272
-0.998277, 1, 281, 16, 312
-0.998282, 257, 117, 272, 148
-0.998287, 11, 189, 26, 220
-0.998288, 241, 77, 256, 108
-0.998291, 121, 105, 136, 136
-0.998291, 105, 57, 120, 88
-0.998296, 367, 225, 382, 256
-0.998297, 39, 17, 54, 48
-0.998302, 321, 65, 448, 96
-0.998305, 283, 213, 298, 244
-0.998305, 229, 253, 244, 284
-0.998305, 53, 29, 68, 60
-0.998315, 241, 333, 368, 364
-0.998317, 441, 129, 472, 375
-0.998328, 181, 97, 212, 352
-0.998344, 1, 1, 32, 256
-0.998353, 257, 237, 384, 268
-0.998371, 137, 145, 200, 272
-0.998373, 69, 1, 100, 256
-0.998377, 1, 69, 128, 100
-0.998398, 385, 223, 416, 238
-0.998398, 141, 289, 172, 304
-0.998398, 205, 117, 236, 132
-0.998399, 269, 19, 300, 34
-0.998399, 165, 79, 196, 94
-0.998399, 357, 173, 388, 188
-0.998399, 389, 313, 420, 328
-0.998399, 113, 91, 144, 106
-0.9984, 369, 53, 496, 84
-0.9984, 81, 115, 112, 130
-0.998401, 357, 211, 388, 226
-0.998402, 57, 87, 88, 102
-0.998402, 81, 135, 112, 150
-0.998403, 237, 279, 268, 294
-0.998403, 165, 29, 196, 44
-0.998403, 385, 249, 416, 264
-0.998403, 229, 241, 260, 256
-0.998403, 293, 15, 324, 30
-0.998404, 57, 95, 88, 110
-0.998404, 309, 13, 340, 28
-0.998404, 229, 293, 260, 308
-0.998405, 105, 115, 136, 130
-0.998405, 389, 139, 420, 154
-0.998406, 389, 191, 420, 206
-0.998406, 389, 295, 420, 310
-0.998407, 193, 119, 224, 134
-0.998409, 329, 11, 360, 26
-0.99841, 193, 89, 224, 104
-0.998412, 205, 75, 236, 90
-0.998413, 113, 99, 144, 114
-0.998414, 173, 113, 204, 128
-0.998414, 109, 41, 140, 56
-0.998414, 193, 97, 224, 112
-0.998415, 289, 69, 320, 84
-0.998415, 181, 105, 212, 120
-0.998415, 213, 101, 244, 116
-0.998415, 245, 133, 276, 148
-0.998416, 233, 235, 264, 250
-0.998418, 369, 229, 400, 244
-0.998419, 157, 103, 188, 118
-0.998421, 353, 9, 384, 24
-0.998421, 217, 135, 248, 150
-0.998423, 257, 151, 288, 166
-0.998423, 177, 55, 208, 70
-0.998425, 237, 273, 268, 288
-0.998425, 409, 119, 440, 134
-0.998427, 105, 23, 136, 38
-0.998427, 233, 211, 264, 226
-0.998429, 269, 85, 300, 100
-0.998429, 165, 73, 196, 88
-0.998429, 253, 127, 284, 142
-0.998429, 105, 81, 136, 96
-0.99843, 125, 31, 156, 46
-0.99843, 217, 91, 248, 106
-0.99843, 373, 7, 404, 22
-0.998431, 405, 93, 436, 108
-0.998432, 229, 83, 260, 98
-0.998432, 301, 77, 332, 92
-0.998433, 233, 205, 264, 220
-0.998434, 129, 47, 160, 62
-0.998435, 405, 151, 436, 166
-0.998437, 193, 105, 224, 120
-0.998438, 221, 97, 252, 352
-0.998439, 225, 275, 256, 290
-0.99844, 97, 43, 128, 58
-0.998441, 233, 229, 264, 244
-0.998442, 405, 109, 436, 124
-0.998442, 233, 167, 264, 182
-0.998443, 57, 277, 88, 292
-0.998447, 37, 3, 68, 18
-0.998447, 69, 273, 100, 288
-0.998447, 145, 31, 176, 46
-0.998447, 257, 157, 288, 172
-0.998448, 237, 301, 268, 316
-0.998449, 269, 73, 300, 88
-0.998449, 233, 217, 264, 232
-0.998451, 93, 49, 124, 64
-0.998451, 249, 21, 280, 36
-0.998454, 205, 89, 236, 104
-0.998455, 209, 147, 272, 162
-0.998455, 209, 67, 240, 82
-0.998456, 105, 105, 136, 120
-0.998457, 349, 217, 380, 232
-0.998457, 345, 211, 376, 226
-0.998457, 25, 21, 56, 36
-0.998459, 233, 75, 296, 90
-0.998462, 1, 209, 32, 224
-0.998462, 197, 147, 228, 162
-0.998463, 225, 71, 256, 86
-0.998465, 393, 241, 424, 256
-0.998465, 197, 127, 228, 142
-0.998467, 389, 233, 420, 248
-0.998467, 233, 223, 264, 238
-0.998468, 257, 79, 320, 94
-0.998468, 361, 205, 424, 220
-0.998471, 385, 203, 416, 218
-0.998471, 421, 221, 452, 236
-0.998472, 265, 71, 328, 86
-0.998472, 177, 29, 208, 44
-0.998473, 289, 75, 320, 90
-0.998476, 401, 211, 432, 226
-0.998476, 217, 85, 248, 100
-0.998477, 209, 159, 240, 174
-0.998478, 105, 75, 136, 90
-0.998479, 405, 245, 436, 260
-0.998479, 21, 195, 52, 210
-0.998479, 281, 121, 312, 136
-0.99848, 109, 47, 140, 62
-0.99848, 293, 85, 324, 100
-0.998484, 205, 95, 236, 110
-0.998485, 205, 81, 236, 96
-0.998485, 173, 17, 188, 144
-0.998486, 369, 7, 432, 22
-0.998488, 209, 141, 272, 156
-0.998489, 209, 153, 272, 168
-0.998494, 401, 225, 432, 240
-0.998494, 225, 65, 256, 80
-0.998494, 353, 225, 384, 240
-0.998495, 105, 69, 136, 84
-0.998498, 405, 99, 436, 114
-0.998498, 105, 63, 136, 78
-0.998499, 201, 65, 264, 80
-0.998505, 217, 243, 280, 258
-0.998506, 169, 105, 232, 120
-0.998506, 393, 225, 456, 240
-0.998509, 185, 127, 248, 142
-0.998509, 233, 199, 264, 214
-0.99851, 233, 81, 296, 96
-0.99851, 225, 187, 288, 202
-0.99851, 217, 237, 280, 252
-0.998511, 217, 227, 280, 242
-0.998513, 217, 275, 280, 290
-0.998515, 369, 221, 432, 236
-0.998515, 449, 33, 480, 288
-0.998515, 225, 215, 288, 230
-0.998516, 225, 193, 288, 208
-0.998516, 225, 133, 288, 148
-0.998516, 345, 9, 408, 24
-0.998516, 153, 29, 216, 44
-0.998517, 361, 199, 424, 214
-0.998517, 161, 57, 224, 72
-0.998518, 297, 65, 328, 320
-0.998518, 193, 87, 256, 102
-0.998518, 217, 283, 280, 298
-0.998519, 161, 87, 224, 102
-0.99852, 153, 81, 216, 96
-0.998521, 277, 79, 308, 94
-0.998521, 217, 249, 280, 264
-0.998521, 393, 7, 424, 22
-0.998521, 217, 199, 280, 214
-0.998521, 225, 179, 288, 194
-0.998521, 217, 269, 280, 284
-0.998522, 185, 137, 248, 152
-0.998522, 217, 141, 248, 156
-0.998522, 393, 219, 456, 234
-0.998523, 233, 173, 264, 188
-0.998523, 401, 251, 432, 266
-0.998524, 225, 173, 288, 188
-0.998525, 217, 221, 280, 236
-0.998525, 337, 227, 400, 242
-0.998527, 321, 11, 384, 26
-0.998527, 57, 51, 120, 66
-0.998527, 81, 47, 144, 62
-0.998528, 217, 255, 280, 270
-0.998528, 217, 263, 280, 278
-0.998528, 217, 167, 280, 182
-0.998529, 9, 201, 40, 216
-0.99853, 217, 205, 280, 220
-0.998531, 241, 221, 304, 236
-0.998531, 193, 75, 256, 90
-0.998531, 397, 33, 428, 288
-0.998531, 233, 69, 296, 84
-0.998534, 161, 71, 224, 86
-0.998534, 217, 159, 280, 174
-0.998534, 281, 15, 344, 30
-0.998535, 217, 289, 280, 304
-0.998535, 109, 53, 140, 68
-0.998538, 9, 21, 72, 36
-0.99854, 277, 67, 308, 82
-0.99854, 233, 193, 264, 208
-0.998542, 361, 189, 424, 204
-0.998543, 185, 155, 248, 170
-0.998545, 81, 141, 112, 156
-0.998545, 233, 181, 264, 196
-0.998545, 169, 97, 232, 112
-0.998546, 137, 285, 200, 300
-0.998547, 241, 227, 304, 242
-0.99855, 185, 149, 248, 164
-0.998552, 9, 197, 72, 212
-0.998553, 129, 31, 192, 46
-0.998553, 205, 133, 236, 148
-0.998555, 361, 231, 424, 246
-0.998555, 361, 213, 424, 228
-0.998555, 57, 45, 120, 60
-0.998555, 241, 19, 304, 34
-0.998556, 241, 235, 304, 250
-0.998557, 205, 81, 220, 208
-0.998557, 217, 295, 280, 310
-0.998565, 185, 143, 248, 158
-0.998568, 209, 153, 240, 168
-0.998571, 385, 197, 416, 212
-0.998571, 121, 55, 184, 70
-0.998572, 161, 63, 224, 78
-0.998573, 361, 127, 424, 142
-0.998574, 97, 41, 160, 56
-0.998575, 193, 81, 256, 96
-0.998575, 369, 239, 432, 254
-0.998577, 25, 7, 88, 22
-0.998577, 185, 121, 248, 136
-0.998577, 141, 283, 172, 298
-0.998579, 233, 187, 264, 202
-0.998579, 241, 243, 304, 258
-0.998581, 57, 39, 120, 54
-0.998581, 209, 115, 272, 130
-0.998582, 257, 85, 320, 100
-0.998583, 105, 27, 168, 42
-0.998583, 57, 95, 120, 110
-0.998584, 257, 119, 320, 134
-0.998585, 433, 319, 496, 334
-0.998586, 241, 209, 304, 224
-0.998586, 361, 183, 424, 198
-0.998588, 117, 17, 132, 144
-0.998589, 57, 57, 120, 72
-0.998589, 249, 215, 312, 230
-0.998589, 361, 149, 424, 164
-0.99859, 361, 133, 424, 148
-0.99859, 193, 101, 256, 116
-0.998591, 145, 103, 208, 118
-0.998591, 393, 249, 456, 264
-0.998591, 185, 111, 248, 126
-0.998592, 121, 83, 184, 98
-0.998592, 405, 217, 436, 232
-0.998592, 73, 107, 136, 122
-0.998592, 217, 87, 280, 102
-0.998595, 121, 73, 184, 88
-0.998595, 201, 181, 264, 196
-0.998596, 393, 71, 456, 86
-0.998596, 121, 295, 184, 310
-0.998596, 361, 143, 424, 158
-0.998596, 401, 125, 464, 140
-0.998597, 185, 49, 248, 64
-0.998599, 249, 157, 312, 172
-0.998599, 41, 13, 104, 28
-0.998599, 81, 137, 144, 152
-0.998599, 73, 113, 136, 128
-0.9986, 249, 125, 312, 140
-0.9986, 361, 175, 424, 190
-0.9986, 401, 137, 464, 152
-0.998601, 185, 243, 248, 258
-0.998602, 361, 121, 424, 136
-0.998602, 241, 163, 304, 178
-0.998602, 225, 127, 288, 142
-0.998602, 393, 239, 456, 254
-0.998602, 233, 61, 296, 76
-0.998603, 201, 173, 264, 188
-0.998603, 425, 67, 488, 82
-0.998604, 9, 27, 72, 42
-0.998604, 233, 93, 296, 108
-0.998604, 73, 143, 136, 158
-0.998606, 265, 65, 328, 80
-0.998606, 17, 189, 80, 204
-0.998606, 1, 203, 64, 218
-0.998608, 289, 73, 352, 88
-0.998608, 185, 209, 248, 224
-0.998609, 217, 301, 280, 316
-0.99861, 401, 209, 416, 336
-0.99861, 265, 93, 328, 108
-0.99861, 209, 147, 240, 162
-0.998657, 205, 139, 236, 154
-0.998669, 273, 65, 288, 192
-0.998693, 211, 65, 226, 192
-0.998711, 485, 81, 500, 208
-0.998725, 75, 1, 90, 128
-0.998732, 333, 97, 364, 352
-0.998735, 109, 97, 140, 352
-0.998737, 129, 17, 144, 144
-0.998746, 1, 289, 256, 352
-0.998749, 63, 1, 78, 128
-0.998768, 391, 209, 406, 336
-0.998768, 163, 17, 178, 144
-0.998775, 107, 1, 122, 128
-0.998779, 1, 193, 16, 320
-0.998815, 179, 17, 194, 144
-0.998825, 397, 161, 412, 288
-0.998831, 65, 97, 96, 352
-0.998833, 245, 1, 260, 128
-0.998845, 109, 49, 124, 176
-0.998845, 17, 129, 48, 375
-0.998851, 169, 97, 200, 352
-0.998852, 69, 1, 84, 128
-0.998878, 219, 65, 234, 192
-0.998884, 101, 1, 116, 128
-0.998897, 229, 33, 244, 160
-0.99891, 479, 97, 494, 224
-0.99892, 235, 33, 250, 160
-0.998926, 81, 1, 96, 128
-0.998927, 195, 33, 210, 160
-0.99895, 407, 225, 422, 352
-0.998952, 391, 129, 406, 256
-0.998954, 205, 1, 220, 128
-0.998955, 257, 129, 272, 256
-0.998968, 403, 129, 418, 256
-0.998971, 57, 1, 72, 128
-0.998987, 321, 97, 352, 352
-0.99899, 427, 65, 442, 192
-0.998992, 409, 81, 424, 208
-0.998995, 199, 97, 214, 224
-0.999, 363, 161, 378, 288
-0.999012, 45, 1, 60, 128
-0.99902, 223, 129, 238, 256
-0.999021, 279, 49, 294, 176
-0.999029, 135, 17, 150, 144
-0.999032, 153, 17, 168, 144
-0.999034, 479, 49, 494, 176
-0.999048, 91, 1, 106, 128
-0.999056, 121, 97, 152, 352
-0.999063, 353, 193, 368, 320
-0.999066, 231, 209, 246, 336
-0.999067, 267, 65, 282, 192
-0.999068, 385, 177, 400, 304
-0.999069, 297, 49, 312, 176
-0.999073, 211, 1, 226, 128
-0.999073, 473, 49, 488, 176
-0.999074, 305, 65, 320, 192
-0.999085, 147, 17, 162, 144
-0.999106, 385, 129, 400, 256
-0.999108, 289, 33, 304, 160
-0.999109, 435, 49, 450, 176
-0.999118, 183, 97, 198, 224
-0.999128, 399, 1, 414, 128
-0.999134, 189, 97, 204, 224
-0.999138, 75, 65, 90, 192
-0.999139, 185, 17, 200, 144
-0.999144, 231, 81, 246, 208
-0.999149, 123, 17, 138, 144
-0.999151, 415, 97, 430, 224
-0.999152, 173, 65, 188, 192
-0.999159, 405, 1, 420, 128
-0.999169, 217, 17, 232, 144
-0.999169, 407, 177, 422, 304
-0.999173, 421, 65, 436, 192
-0.999175, 363, 209, 378, 336
-0.999175, 11, 193, 26, 320
-0.999177, 281, 97, 296, 224
-0.999178, 141, 17, 156, 144
-0.999184, 225, 81, 240, 208
-0.999199, 167, 65, 182, 192
-0.999214, 379, 129, 394, 256
-0.999218, 473, 97, 488, 224
-0.999218, 211, 113, 226, 240
-0.99923, 83, 49, 98, 176
-0.999241, 241, 49, 256, 176
-0.999241, 249, 161, 264, 288
-0.999243, 25, 1, 40, 128
-0.999244, 153, 241, 168, 368
-0.999246, 485, 129, 500, 256
-0.999246, 373, 129, 388, 256
-0.999251, 377, 177, 392, 304
-0.999261, 267, 113, 282, 240
-0.999261, 357, 145, 372, 272
-0.999263, 217, 113, 232, 240
-0.999267, 257, 81, 272, 208
-0.999284, 69, 49, 84, 176
-0.999289, 95, 129, 110, 256
-0.999292, 485, 241, 500, 368
-0.999298, 415, 33, 430, 160
-0.9993, 9, 145, 24, 272
-0.999301, 231, 161, 246, 288
-0.999306, 249, 209, 264, 336
-0.999309, 31, 1, 46, 128
-0.999311, 39, 1, 54, 128
-0.999314, 223, 17, 238, 144
-0.999316, 19, 1, 34, 128
-0.999317, 457, 241, 472, 368
-0.999319, 447, 49, 462, 176
-0.999323, 103, 49, 118, 176
-0.999325, 467, 49, 482, 176
-0.999327, 423, 193, 438, 320
-0.999332, 455, 49, 470, 176
-0.999334, 323, 49, 338, 176
-0.999336, 479, 241, 494, 368
-0.999338, 83, 113, 98, 240
-0.999346, 121, 81, 136, 208
-0.999347, 115, 65, 130, 192
-0.999356, 469, 241, 484, 368
-0.999357, 365, 113, 380, 240
-0.999358, 369, 177, 384, 304
-0.999362, 273, 113, 288, 240
-0.999363, 347, 193, 362, 320
-0.999369, 429, 193, 444, 320
-0.999373, 309, 97, 340, 352
-0.999383, 247, 113, 262, 240
-0.999385, 311, 81, 326, 208
-0.999387, 463, 241, 478, 368
-0.999389, 1, 145, 16, 272
-0.999389, 51, 17, 66, 144
-0.999399, 225, 241, 240, 368
-0.9994, 147, 241, 162, 368
-0.999401, 401, 81, 416, 208
-0.999404, 441, 49, 456, 176
-0.999404, 3, 241, 18, 368
-0.999406, 421, 145, 436, 272
-0.999408, 431, 145, 446, 272
-0.999409, 257, 209, 272, 336
-0.999542, 37, 129, 68, 375
-0.999576, 161, 313, 416, 375
-0.999583, 1, 293, 16, 308
-0.999583, 195, 127, 210, 142
-0.999583, 167, 101, 182, 116
-0.999584, 345, 1, 376, 256
-0.999584, 219, 61, 234, 76
-0.999584, 239, 55, 254, 70
-0.999584, 355, 9, 370, 24
-0.999584, 257, 285, 272, 300
-0.999585, 153, 297, 168, 312
-0.999585, 181, 29, 196, 44
-0.999585, 115, 77, 130, 92
-0.999586, 417, 217, 432, 232
-0.999586, 239, 83, 254, 98
-0.999587, 401, 157, 416, 172
-0.999587, 43, 197, 58, 212
-0.999587, 111, 59, 126, 74
-0.999587, 177, 57, 192, 72
-0.999588, 349, 223, 364, 238
-0.999588, 119, 25, 134, 40
-0.999589, 11, 197, 26, 212
-0.999589, 201, 115, 216, 130
-0.999589, 163, 95, 178, 110
-0.999591, 205, 101, 220, 116
-0.999591, 377, 7, 392, 22
-0.999591, 111, 23, 126, 38
-0.999591, 219, 131, 234, 146
-0.999591, 47, 27, 62, 42
-0.999593, 401, 187, 416, 202
-0.999593, 229, 65, 244, 80
-0.999594, 229, 135, 244, 150
-0.999594, 149, 283, 164, 298
-0.999594, 213, 73, 228, 88
-0.999594, 213, 131, 228, 146
-0.999594, 365, 217, 380, 232
-0.999597, 423, 225, 438, 240
-0.999597, 371, 227, 386, 242
-0.999598, 195, 109, 210, 124
-0.999599, 135, 41, 150, 56
-0.999599, 249, 237, 264, 252
-0.999599, 1, 227, 16, 242
-0.9996, 249, 227, 264, 242
-0.9996, 235, 193, 250, 208
-0.999601, 409, 103, 424, 118
-0.999602, 229, 269, 244, 284
-0.999602, 125, 27, 140, 42
-0.999602, 197, 133, 212, 148
-0.999602, 303, 79, 318, 94
-0.999603, 129, 47, 144, 62
-0.999604, 199, 85, 214, 100
-0.999604, 203, 79, 218, 94
-0.999604, 111, 53, 126, 68
-0.999605, 61, 39, 76, 54
-0.999605, 41, 19, 56, 34
-0.999606, 217, 93, 232, 108
-0.999607, 261, 133, 276, 148
-0.999607, 3, 203, 18, 218
-0.999608, 283, 119, 298, 134
-0.999609, 107, 113, 122, 128
-0.999609, 367, 171, 382, 186
-0.99961, 147, 31, 162, 46
-0.999613, 219, 155, 234, 170
-0.999613, 117, 105, 132, 120
-0.999614, 399, 5, 414, 20
-0.999615, 297, 69, 312, 84
-0.999615, 93, 141, 108, 156
-0.999615, 303, 85, 318, 100
-0.999616, 233, 83, 248, 98
-0.999617, 209, 87, 224, 102
-0.999617, 157, 291, 172, 306
-0.99962, 107, 107, 122, 122
-0.999621, 135, 31, 150, 46
-0.999621, 411, 247, 426, 262
-0.999622, 107, 95, 122, 110
-0.999622, 73, 279, 88, 294
-0.999622, 281, 79, 296, 94
-0.999623, 245, 23, 260, 38
-0.999623, 355, 205, 370, 220
-0.999623, 249, 275, 264, 290
-0.999624, 349, 207, 364, 222
-0.999624, 193, 29, 208, 44
-0.999625, 229, 141, 244, 156
-0.999625, 219, 67, 234, 82
-0.999626, 37, 1, 52, 16
-0.999627, 227, 85, 242, 100
-0.999631, 107, 101, 122, 116
-0.999632, 119, 51, 134, 66
-0.999633, 53, 91, 68, 106
-0.999633, 427, 79, 442, 94
-0.999636, 349, 215, 364, 230
-0.999637, 409, 97, 424, 112
-0.999638, 1, 219, 16, 234
-0.999641, 113, 43, 128, 58
-0.999645, 405, 255, 420, 270
-0.999646, 213, 65, 228, 80
-0.999648, 277, 69, 292, 84
-0.999649, 303, 73, 318, 88
-0.999649, 205, 133, 220, 148
-0.99965, 273, 87, 288, 102
-0.999652, 3, 211, 18, 226
-0.999654, 195, 115, 210, 130
-0.999654, 197, 121, 212, 136
-0.999657, 397, 193, 412, 208
-0.999657, 87, 139, 102, 154
-0.999657, 401, 233, 416, 248
-0.999661, 359, 217, 374, 232
-0.999662, 405, 5, 420, 20
-0.999663, 207, 93, 222, 108
-0.999666, 219, 149, 234, 164
-0.999666, 259, 143, 274, 158
-0.999666, 107, 45, 122, 60
-0.999667, 143, 285, 158, 300
-0.99967, 355, 223, 370, 238
-0.999672, 11, 203, 26, 218
-0.999672, 101, 47, 116, 62
-0.999675, 209, 149, 224, 164
-0.999677, 273, 75, 288, 90
-0.999679, 421, 129, 452, 375
-0.999679, 357, 211, 372, 226
-0.999681, 157, 97, 188, 352
-0.999686, 399, 251, 414, 266
-0.999688, 219, 137, 234, 152
-0.999689, 207, 139, 222, 154
-0.99969, 269, 129, 300, 375
-0.999691, 125, 41, 140, 56
-0.999698, 119, 45, 134, 60
-0.999698, 155, 281, 170, 296
-0.999698, 201, 127, 216, 142
-0.9997, 219, 143, 234, 158
-0.999701, 273, 81, 288, 96
-0.999709, 17, 197, 32, 212
-0.999715, 357, 1, 388, 256
-0.999718, 65, 313, 320, 375
-0.999727, 405, 249, 420, 264
-0.999747, 407, 241, 422, 256
-0.999761, 71, 273, 86, 288
-0.999782, 423, 219, 438, 234
-0.999793, 49, 97, 80, 352
-0.999834, 281, 129, 312, 375
-0.999936, 141, 97, 172, 352
-1.00004, 17, 313, 144, 375
-1.0002, 273, 129, 336, 375
-1.00052, 373, 1, 404, 256
-1.00133, 25, 241, 88, 368
-1.00155, 337, 1, 400, 128
-1.00206, 121, 193, 184, 320
-1.00389, 49, 241, 112, 368
-1.00506, 113, 145, 176, 272
-1.00825, 1, 49, 64, 176
