2003
-0.480996, 1, 225, 365, 480
-0.62299, 97, 257, 352, 500
-0.647734, 1, 129, 365, 384
-0.729989, 97, 161, 352, 416
-0.757093, 1, 1, 365, 256
-0.764978, 1, 257, 256, 500
-0.77822, 1, 129, 256, 384
-0.790543, 1, 1, 365, 500
-0.837716, 1, 1, 256, 500
-0.847767, 97, 1, 352, 500
-0.852427, 129, 161, 256, 416
-0.853093, 145, 257, 272, 500
-0.885182, 1, 353, 365, 480
-0.894972, 209, 257, 336, 500
-0.907482, 97, 257, 224, 500
-0.908634, 177, 161, 304, 416
-0.91554, 1, 305, 365, 432
-0.915961, 81, 161, 208, 416
-0.917279, 97, 353, 352, 480
-0.921138, 145, 1, 272, 500
-0.923676, 97, 305, 352, 432
-0.925961, 1, 241, 365, 368
-0.929975, 257, 321, 320, 448
-0.931028, 193, 1, 320, 500
-0.932482, 129, 161, 256, 288
-0.934176, 289, 353, 352, 480
-0.935191, 241, 321, 365, 448
-0.935616, 145, 305, 272, 432
-0.93565, 177, 177, 240, 304
-0.938243, 145, 241, 272, 368
-0.93829, 129, 65, 256, 320
-0.938422, 193, 321, 320, 448
-0.93906, 1, 369, 256, 496
-0.940321, 177, 289, 240, 416
-0.940397, 113, 369, 240, 496
-0.941769, 33, 369, 96, 496
-0.942348, 161, 225, 224, 352
-0.943464, 97, 241, 352, 368
-0.943557, 49, 257, 176, 500
-0.946234, 193, 65, 320, 320
-0.946376, 201, 321, 264, 448
-0.947443, 169, 153, 232, 216
-0.947986, 241, 161, 365, 416
-0.948278, 153, 161, 216, 288
-0.949159, 241, 1, 365, 500
-0.950564, 129, 369, 192, 496
-0.950713, 65, 369, 192, 496
-0.951015, 33, 193, 288, 320
-0.952122, 153, 321, 216, 448
-0.953202, 1, 161, 365, 288
-0.953414, 193, 241, 256, 368
-0.953971, 65, 1, 192, 500
-0.95404, 289, 305, 352, 432
-0.954087, 177, 297, 240, 360
-0.954773, 161, 265, 224, 328
-0.954926, 1, 369, 128, 496
-0.955084, 193, 257, 320, 384
-0.955576, 297, 353, 360, 416
-0.955633, 33, 385, 96, 448
-0.955868, 153, 273, 216, 400
-0.955908, 185, 257, 248, 320
-0.955923, 257, 337, 320, 400
-0.957779, 57, 369, 120, 496
-0.957847, 225, 369, 352, 496
-0.957893, 137, 369, 200, 432
-0.958563, 81, 65, 208, 320
-0.958835, 177, 185, 240, 248
-0.959339, 225, 353, 288, 480
-0.959617, 265, 369, 328, 496
-0.959728, 25, 409, 88, 472
-0.959738, 1, 401, 64, 464
-0.960019, 161, 369, 288, 496
-0.960532, 265, 361, 328, 424
-0.961317, 297, 377, 360, 440
-0.96142, 65, 433, 128, 496
-0.962437, 153, 177, 216, 240
-0.962643, 177, 369, 240, 496
-0.962881, 97, 273, 224, 400
-0.963158, 169, 129, 232, 384
-0.963473, 1, 145, 256, 272
-0.963663, 1, 241, 256, 368
-0.964049, 1, 289, 256, 416
-0.964261, 129, 305, 192, 432
-0.964767, 185, 217, 248, 280
-0.965884, 105, 417, 168, 480
-0.966137, 169, 353, 232, 416
-0.966167, 97, 145, 352, 272
-0.966629, 201, 369, 264, 496
-0.966975, 209, 337, 272, 400
-0.96703, 97, 225, 224, 352
-0.967236, 265, 393, 328, 456
-0.967238, 1, 33, 256, 288
-0.967751, 297, 329, 360, 392
-0.967776, 185, 321, 248, 384
-0.968286, 217, 401, 280, 464
-0.968636, 209, 329, 336, 392
-0.968725, 305, 417, 365, 480
-0.969015, 277, 321, 308, 448
-0.969096, 217, 369, 280, 432
-0.969201, 193, 225, 256, 480
-0.969981, 129, 193, 192, 320
-0.970119, 177, 129, 240, 256
-0.97015, 297, 353, 328, 416
-0.97022, 129, 185, 256, 248
-0.970435, 185, 409, 248, 472
-0.970806, 49, 409, 112, 472
-0.971124, 269, 321, 300, 384
-0.971328, 233, 345, 296, 408
-0.971389, 145, 265, 272, 328
-0.971421, 81, 369, 144, 496
-0.971588, 293, 353, 324, 480
-0.971819, 169, 225, 232, 480
-0.971971, 73, 401, 136, 464
-0.972249, 153, 369, 216, 496
-0.972667, 193, 209, 320, 336
-0.972973, 177, 377, 240, 440
-0.972975, 1, 257, 128, 500
-0.972982, 209, 433, 272, 496
-0.972998, 193, 153, 224, 216
-0.973156, 241, 369, 304, 432
-0.973267, 153, 225, 216, 288
-0.973373, 189, 265, 220, 328
-0.973483, 313, 353, 344, 480
-0.973565, 281, 353, 312, 416
-0.973613, 177, 153, 208, 216
-0.973633, 193, 161, 256, 224
-0.973665, 173, 281, 204, 344
-0.973684, 1, 369, 64, 496
-0.973769, 201, 257, 232, 384
-0.973847, 157, 257, 188, 320
-0.974054, 217, 241, 280, 368
-0.974096, 49, 433, 176, 496
-0.974151, 129, 393, 192, 456
-0.974206, 161, 337, 288, 400
-0.974208, 201, 193, 264, 320
-0.974301, 181, 289, 212, 416
-0.974468, 265, 321, 296, 448
-0.9745, 301, 377, 332, 440
-0.974577, 33, 433, 96, 496
-0.974739, 49, 369, 80, 496
-0.974912, 153, 289, 216, 352
-0.974982, 213, 241, 244, 368
-0.975187, 145, 257, 208, 500
-0.975389, 49, 401, 176, 464
-0.975422, 53, 377, 84, 440
-0.975571, 105, 369, 168, 496
-0.975573, 129, 361, 256, 424
-0.975627, 129, 257, 192, 384
-0.975858, 49, 321, 176, 448
-0.975955, 209, 353, 336, 416
-0.976026, 129, 217, 256, 280
-0.976055, 205, 193, 236, 320
-0.9761, 213, 241, 244, 304
-0.976359, 173, 241, 204, 368
-0.976413, 289, 257, 352, 384
-0.976526, 265, 417, 328, 480
-0.976653, 161, 313, 288, 376
-0.97666, 129, 289, 256, 352
-0.976671, 161, 305, 192, 432
-0.97668, 153, 161, 184, 288
-0.976683, 161, 329, 224, 392
-0.976724, 145, 241, 272, 304
-0.976815, 173, 337, 204, 464
-0.976968, 61, 417, 92, 480
-0.976983, 189, 241, 220, 368
-0.977024, 137, 257, 200, 320
-0.977107, 97, 417, 224, 480
-0.97715, 185, 297, 216, 360
-0.977211, 177, 161, 304, 288
-0.977438, 109, 425, 140, 488
-0.97745, 113, 369, 176, 432
-0.977513, 145, 161, 208, 416
-0.97753, 5, 401, 36, 464
-0.977545, 241, 313, 304, 376
-0.977613, 333, 289, 364, 416
-0.977654, 205, 305, 236, 432
-0.977664, 309, 353, 340, 416
-0.977709, 145, 161, 272, 224
-0.977763, 225, 289, 288, 416
-0.977829, 281, 369, 312, 496
-0.977836, 241, 425, 304, 488
-0.978005, 229, 337, 260, 464
-0.97801, 165, 161, 196, 224
-0.978023, 161, 281, 192, 344
-0.978121, 209, 265, 272, 328
-0.978133, 289, 393, 320, 456
-0.978137, 133, 369, 164, 432
-0.978513, 177, 145, 208, 272
-0.978547, 273, 313, 336, 376
-0.97861, 1, 401, 128, 464
-0.978647, 97, 321, 224, 448
-0.978736, 241, 273, 365, 400
-0.978791, 137, 353, 168, 480
-0.978841, 197, 305, 228, 368
-0.978857, 137, 425, 200, 488
-0.97893, 149, 369, 180, 432
-0.978989, 49, 377, 176, 440
-0.979125, 241, 401, 304, 464
-0.979147, 217, 321, 248, 448
-0.979228, 145, 201, 208, 264
-0.97923, 297, 305, 360, 368
-0.979293, 153, 401, 216, 464
-0.979304, 161, 369, 192, 496
-0.979356, 241, 377, 365, 440
-0.979504, 73, 433, 104, 496
-0.979597, 213, 321, 244, 384
-0.979737, 81, 177, 208, 304
-0.979814, 113, 385, 240, 448
-0.979997, 225, 337, 256, 400
-0.980137, 193, 145, 224, 272
-0.980366, 61, 369, 92, 496
-0.980386, 137, 345, 200, 408
-0.980405, 149, 305, 180, 432
-0.98042, 17, 393, 48, 456
-0.980471, 169, 257, 200, 320
-0.9805, 161, 241, 192, 368
-0.980559, 201, 177, 232, 240
-0.980615, 9, 433, 72, 496
-0.980764, 209, 225, 272, 288
-0.980861, 177, 393, 304, 456
-0.980923, 133, 401, 164, 464
-0.981293, 1, 425, 128, 488
-0.981347, 217, 225, 280, 480
-0.981407, 145, 153, 208, 216
-0.981423, 129, 297, 192, 360
-0.98152, 185, 241, 216, 304
-0.981647, 9, 377, 72, 440
-0.981688, 177, 433, 240, 496
-0.981858, 153, 185, 184, 248
-0.98189, 17, 1, 144, 500
-0.982088, 249, 353, 280, 480
-0.982426, 157, 393, 188, 456
-0.982474, 209, 305, 336, 368
-0.982529, 333, 401, 364, 464
-0.982582, 325, 337, 356, 464
-0.982628, 209, 313, 272, 376
-0.982673, 201, 257, 232, 320
-0.982706, 213, 265, 244, 328
-0.982845, 193, 129, 256, 384
-0.982983, 165, 361, 196, 424
-0.983017, 137, 321, 200, 384
-0.983022, 193, 305, 224, 432
-0.983058, 181, 337, 212, 400
-0.983105, 213, 401, 244, 464
-0.983182, 153, 113, 216, 240
-0.983262, 209, 417, 336, 480
-0.983385, 313, 377, 344, 440
-0.9834, 293, 305, 324, 432
-0.983447, 193, 369, 224, 432
-0.983488, 153, 417, 184, 480
-0.983522, 45, 401, 76, 464
-0.983541, 161, 305, 192, 368
-0.983548, 85, 433, 116, 496
-0.983571, 193, 353, 224, 480
-0.983741, 57, 377, 120, 440
-0.983785, 217, 369, 248, 432
-0.98394, 29, 401, 60, 464
-0.984053, 81, 281, 208, 344
-0.984191, 201, 393, 232, 456
-0.984255, 149, 225, 180, 352
-0.984319, 149, 353, 180, 480
-0.98432, 145, 425, 272, 488
-0.984372, 165, 161, 196, 288
-0.984379, 17, 321, 80, 448
-0.984429, 173, 233, 204, 296
-0.984462, 281, 329, 312, 392
-0.98461, 277, 425, 308, 488
-0.984635, 193, 113, 320, 240
-0.984645, 209, 217, 240, 280
-0.984711, 217, 433, 248, 496
-0.984786, 113, 313, 240, 376
-0.984848, 121, 233, 184, 296
-0.98491, 277, 377, 308, 440
-0.984974, 249, 369, 280, 432
-0.98501, 265, 345, 296, 408
-0.985161, 233, 401, 264, 464
-0.985163, 97, 425, 128, 488
-0.985572, 217, 169, 280, 232
-0.985838, 169, 385, 200, 448
-0.985853, 181, 361, 212, 424
-0.985864, 313, 305, 344, 432
-0.986054, 205, 345, 236, 408
-0.986054, 325, 369, 356, 432
-0.986056, 97, 161, 224, 224
-0.986116, 185, 193, 216, 320
-0.986119, 97, 249, 224, 312
-0.986119, 193, 257, 320, 320
-0.986211, 317, 329, 348, 392
-0.986449, 293, 329, 324, 392
-0.986493, 205, 369, 236, 432
-0.986496, 121, 369, 152, 496
-0.98657, 225, 177, 288, 304
-0.986571, 9, 369, 40, 496
-0.986582, 249, 337, 280, 400
-0.986611, 209, 297, 240, 360
-0.986649, 257, 257, 320, 500
-0.986673, 121, 409, 152, 472
-0.98678, 105, 393, 168, 456
-0.986901, 49, 433, 80, 496
-0.986908, 233, 377, 264, 440
-0.986955, 177, 177, 208, 240
-0.98697, 165, 425, 196, 488
-0.987001, 333, 305, 364, 368
-0.987013, 113, 337, 240, 400
-0.987099, 149, 281, 180, 344
-0.987102, 161, 233, 192, 296
-0.987214, 141, 425, 172, 488
-0.987257, 73, 409, 104, 472
-0.987274, 201, 145, 264, 272
-0.987297, 177, 217, 304, 280
-0.987561, 321, 409, 352, 472
-0.987616, 169, 161, 232, 192
-0.987669, 193, 161, 320, 224
-0.987687, 17, 417, 48, 480
-0.987695, 245, 409, 276, 472
-0.987712, 193, 337, 224, 400
-0.9879, 289, 417, 320, 480
-0.98813, 201, 417, 232, 480
-0.988149, 237, 345, 268, 408
-0.988152, 205, 369, 236, 496
-0.988156, 289, 357, 352, 388
-0.988161, 301, 417, 332, 480
-0.988447, 97, 113, 224, 240
-0.988563, 333, 337, 364, 400
-0.988851, 169, 337, 200, 400
-0.988858, 269, 369, 300, 496
-0.988944, 289, 369, 352, 400
-0.989075, 33, 397, 96, 428
-0.989092, 333, 425, 364, 488
-0.98916, 1, 409, 64, 440
-0.989238, 265, 365, 328, 396
-0.989267, 173, 305, 204, 368
-0.989339, 305, 257, 365, 500
-0.989371, 25, 417, 88, 448
-0.989443, 253, 305, 284, 432
-0.989447, 121, 257, 184, 500
-0.989568, 153, 185, 216, 216
-0.989571, 73, 369, 104, 496
-0.989573, 297, 385, 360, 416
-0.989612, 265, 425, 296, 488
-0.989618, 257, 353, 320, 384
-0.98962, 81, 445, 144, 476
-0.989636, 153, 285, 216, 316
-0.989645, 177, 313, 240, 344
-0.989688, 33, 97, 160, 352
-0.989698, 249, 273, 312, 400
-0.989741, 281, 225, 344, 480
-0.989757, 289, 341, 352, 372
-0.989771, 113, 209, 176, 272
-0.989781, 193, 281, 320, 344
-0.989784, 257, 341, 320, 372
-0.989787, 49, 353, 176, 416
-0.989793, 217, 365, 280, 396
-0.98981, 177, 269, 240, 300
-0.98982, 25, 353, 56, 480
-0.989853, 217, 201, 280, 264
-0.989933, 169, 173, 232, 204
-0.989985, 169, 301, 232, 332
-0.990001, 17, 353, 80, 416
-0.990001, 1, 377, 128, 440
-0.990014, 29, 425, 60, 488
-0.990036, 225, 349, 288, 380
-0.990047, 81, 225, 208, 288
-0.990062, 177, 189, 240, 220
-0.990078, 233, 433, 264, 496
-0.99013, 185, 257, 248, 288
-0.990148, 41, 377, 72, 440
-0.990174, 241, 365, 304, 396
-0.990194, 129, 393, 192, 424
-0.990199, 33, 453, 96, 484
-0.990239, 29, 377, 60, 440
-0.99024, 57, 441, 120, 472
-0.990246, 205, 153, 236, 216
-0.990254, 161, 369, 224, 400
-0.990255, 145, 249, 176, 312
-0.990277, 169, 381, 232, 412
-0.990279, 1, 425, 32, 488
-0.990284, 165, 185, 196, 248
-0.990296, 129, 377, 192, 408
-0.990344, 257, 377, 320, 408
-0.990396, 185, 369, 248, 400
-0.990424, 65, 421, 128, 452
-0.990435, 57, 453, 120, 484
-0.990446, 289, 329, 352, 360
-0.990474, 125, 433, 156, 496
-0.990493, 1, 421, 64, 452
-0.9905, 201, 289, 264, 352
-0.990548, 273, 409, 336, 440
-0.99055, 9, 397, 72, 428
-0.990556, 177, 325, 240, 356
-0.99061, 197, 225, 228, 288
-0.990621, 105, 429, 168, 460
-0.990638, 189, 185, 220, 248
-0.990654, 89, 369, 152, 432
-0.990672, 25, 385, 88, 416
-0.990706, 225, 225, 256, 288
-0.990712, 169, 129, 232, 192
-0.990714, 305, 401, 365, 432
-0.990731, 217, 405, 280, 436
-0.990742, 177, 345, 240, 376
-0.990744, 273, 421, 336, 452
-0.990757, 185, 449, 248, 480
-0.990783, 217, 385, 280, 416
-0.990786, 137, 405, 200, 436
-0.990798, 161, 249, 224, 280
-0.990808, 201, 349, 264, 380
-0.990816, 257, 389, 320, 420
-0.990823, 177, 357, 240, 388
-0.990846, 57, 465, 120, 496
-0.990859, 185, 401, 248, 432
-0.990892, 305, 417, 365, 448
-0.990909, 177, 409, 208, 472
-0.990938, 65, 385, 96, 448
-0.990954, 129, 365, 192, 396
-0.990986, 41, 429, 104, 460
-0.991005, 217, 453, 280, 484
-0.991022, 185, 225, 248, 256
-0.991046, 33, 465, 96, 496
-0.991068, 33, 441, 96, 472
-0.991148, 205, 145, 236, 272
-0.991154, 177, 185, 304, 248
-0.991189, 261, 377, 292, 440
-0.99122, 333, 281, 364, 344
-0.991225, 193, 461, 256, 492
-0.99125, 265, 433, 328, 464
-0.991252, 225, 417, 288, 448
-0.991261, 73, 409, 136, 440
-0.991272, 145, 261, 208, 292
-0.991277, 201, 337, 264, 368
-0.991291, 49, 385, 112, 416
-0.991295, 81, 433, 144, 464
-0.991296, 161, 393, 224, 424
-0.991325, 9, 469, 72, 500
-0.991334, 193, 241, 256, 272
-0.991356, 137, 225, 168, 352
-0.991361, 49, 409, 112, 440
-0.991439, 153, 237, 216, 268
-0.991481, 145, 393, 176, 456
-0.991485, 9, 433, 72, 464
-0.991503, 257, 329, 320, 360
-0.991504, 249, 417, 312, 448
-0.991506, 97, 469, 160, 500
-0.991545, 181, 385, 212, 448
-0.991549, 145, 457, 208, 488
-0.991551, 137, 173, 200, 204
-0.991563, 105, 441, 168, 472
-0.991563, 233, 225, 296, 288
-0.991594, 153, 273, 216, 304
-0.9916, 233, 337, 296, 368
-0.991623, 201, 269, 264, 300
-0.991625, 249, 401, 312, 432
-0.991627, 185, 213, 248, 244
-0.991641, 185, 1, 248, 500
-0.991642, 113, 417, 176, 448
-0.991666, 241, 289, 272, 416
-0.991699, 1, 425, 256, 488
-0.99171, 81, 185, 208, 248
-0.991719, 97, 457, 160, 488
-0.991743, 233, 433, 296, 464
-0.991762, 305, 445, 365, 476
-0.991777, 241, 465, 304, 496
-0.991808, 321, 305, 352, 368
-0.99182, 225, 321, 288, 352
-0.99182, 177, 437, 240, 468
-0.991849, 153, 357, 216, 388
-0.991866, 277, 401, 308, 464
-0.991869, 193, 173, 256, 204
-0.991874, 185, 413, 248, 444
-0.991883, 1, 457, 64, 488
-0.991884, 177, 201, 240, 232
-0.991885, 249, 433, 280, 496
-0.991894, 1, 445, 64, 476
-0.991905, 305, 461, 365, 492
-0.991916, 261, 401, 292, 464
-0.991936, 209, 253, 272, 284
-0.991943, 137, 317, 200, 348
-0.99195, 145, 225, 208, 256
-0.991955, 217, 469, 280, 500
-0.991996, 137, 445, 200, 476
-0.991997, 145, 197, 208, 228
-0.991997, 97, 361, 352, 424
-0.992024, 189, 425, 220, 488
-0.992034, 209, 441, 272, 472
-0.992042, 105, 225, 168, 352
-0.992048, 129, 429, 192, 460
-0.992052, 1, 81, 365, 208
-0.992065, 273, 453, 336, 484
-0.99208, 145, 297, 208, 328
-0.992082, 153, 417, 216, 448
-0.992086, 289, 433, 352, 464
-0.992115, 153, 161, 184, 224
-0.99212, 289, 317, 352, 348
-0.992155, 297, 361, 328, 392
-0.992162, 193, 389, 256, 420
-0.992165, 129, 469, 192, 500
-0.992179, 121, 361, 152, 424
-0.992199, 105, 369, 168, 400
-0.992234, 217, 369, 248, 496
-0.992244, 281, 397, 344, 428
-0.99227, 145, 209, 208, 240
-0.992273, 33, 401, 288, 464
-0.99235, 161, 469, 224, 500
-0.992375, 277, 361, 308, 392
-0.99238, 121, 301, 184, 332
-0.992396, 217, 193, 248, 320
-0.992398, 153, 329, 216, 360
-0.992413, 185, 425, 248, 456
-0.992414, 225, 225, 352, 288
-0.992441, 209, 429, 272, 460
-0.992445, 305, 257, 365, 320
-0.992449, 313, 361, 344, 392
-0.99246, 201, 317, 264, 348
-0.992463, 213, 257, 244, 288
-0.992488, 273, 273, 304, 400
-0.992489, 193, 297, 256, 328
-0.992494, 305, 381, 336, 412
-0.992497, 129, 249, 192, 280
-0.992504, 225, 233, 288, 264
-0.992517, 217, 205, 280, 236
-0.99252, 121, 457, 184, 488
-0.99252, 161, 181, 192, 212
-0.992536, 173, 161, 204, 192
-0.992549, 293, 385, 324, 416
-0.992557, 197, 309, 228, 340
-0.992577, 37, 369, 68, 496
-0.992593, 153, 433, 216, 464
-0.992597, 201, 97, 264, 224
-0.9926, 69, 453, 100, 484
-0.992601, 209, 185, 272, 216
-0.992621, 265, 357, 296, 388
-0.992622, 281, 377, 312, 408
-0.992637, 301, 397, 332, 428
-0.992638, 273, 325, 304, 356
-0.99265, 289, 405, 320, 436
-0.992661, 57, 393, 88, 424
-0.992663, 121, 161, 184, 416
-0.992664, 289, 349, 320, 380
-0.992671, 317, 377, 348, 408
-0.992672, 165, 269, 196, 300
-0.992683, 249, 361, 280, 392
-0.992698, 185, 301, 216, 332
-0.992701, 185, 353, 216, 384
-0.992701, 245, 349, 276, 380
-0.992709, 81, 445, 112, 476
-0.992713, 157, 281, 188, 312
-0.992713, 53, 453, 84, 484
-0.992719, 193, 161, 224, 192
-0.992723, 57, 381, 88, 412
-0.99274, 281, 393, 312, 424
-0.992745, 13, 401, 44, 432
-0.992749, 145, 113, 272, 240
-0.992761, 209, 321, 240, 352
-0.992761, 185, 269, 216, 300
-0.992762, 137, 393, 168, 424
-0.992771, 29, 409, 60, 440
-0.992772, 213, 465, 244, 496
-0.992775, 205, 369, 236, 400
-0.992783, 61, 437, 92, 468
-0.992784, 129, 177, 192, 240
-0.992793, 293, 373, 324, 404
-0.992799, 225, 349, 256, 380
-0.992804, 173, 357, 204, 388
-0.992813, 57, 465, 88, 496
-0.992822, 277, 341, 308, 372
-0.992823, 285, 421, 316, 452
-0.992827, 173, 185, 204, 216
-0.992832, 169, 281, 200, 312
-0.992837, 333, 317, 364, 348
-0.992846, 225, 341, 352, 372
-0.992847, 177, 369, 208, 400
-0.992859, 233, 365, 264, 396
-0.992863, 197, 189, 228, 220
-0.992864, 93, 441, 124, 472
-0.992872, 217, 453, 248, 484
-0.992873, 149, 385, 180, 416
-0.992876, 173, 305, 204, 336
-0.992876, 133, 373, 164, 404
-0.992885, 189, 373, 220, 404
-0.99289, 333, 413, 364, 444
-0.992896, 161, 385, 192, 416
-0.992896, 5, 413, 36, 444
-0.992909, 117, 433, 148, 464
-0.992913, 193, 173, 224, 204
-0.992919, 205, 397, 236, 428
-0.99292, 213, 333, 244, 364
-0.99292, 17, 429, 48, 460
-0.992924, 17, 413, 48, 444
-0.992931, 197, 321, 228, 352
-0.992934, 229, 453, 260, 484
-0.992935, 313, 349, 344, 380
-0.992936, 333, 345, 364, 376
-0.992937, 61, 425, 92, 456
-0.992938, 37, 469, 68, 500
-0.99294, 105, 445, 136, 476
-0.992942, 173, 381, 204, 412
-0.992949, 301, 409, 332, 440
-0.99296, 149, 397, 180, 428
-0.99296, 173, 173, 204, 204
-0.992963, 157, 369, 188, 400
-0.99297, 221, 361, 252, 392
-0.992978, 1, 429, 32, 460
-0.99298, 185, 313, 216, 344
-0.992984, 201, 349, 232, 380
-0.992984, 229, 405, 260, 436
-0.992987, 257, 345, 288, 376
-0.992991, 177, 333, 208, 364
-0.992992, 209, 137, 272, 200
-0.992996, 165, 317, 196, 348
-0.992997, 245, 373, 276, 404
-0.993005, 169, 293, 200, 324
-0.993008, 217, 269, 248, 300
-0.993014, 161, 401, 192, 432
-0.993015, 173, 253, 204, 284
-0.993019, 133, 405, 164, 436
-0.993021, 49, 441, 80, 472
-0.993023, 297, 425, 328, 456
-0.993026, 157, 301, 188, 332
-0.993032, 325, 397, 356, 428
-0.993033, 49, 421, 80, 452
-0.993034, 217, 409, 248, 440
-0.993037, 189, 385, 220, 416
-0.993041, 117, 421, 148, 452
-0.993045, 329, 365, 360, 396
-0.993048, 149, 225, 180, 288
-0.993052, 29, 397, 60, 428
-0.993056, 197, 293, 228, 324
-0.993056, 277, 405, 308, 436
-0.993061, 221, 373, 252, 404
-0.993063, 181, 289, 212, 320
-0.993064, 57, 405, 88, 436
-0.993068, 217, 441, 248, 472
-0.993068, 201, 265, 232, 296
-0.993069, 229, 465, 260, 496
-0.993073, 333, 333, 364, 364
-0.993076, 41, 409, 72, 440
-0.993077, 241, 465, 272, 496
-0.993079, 213, 345, 244, 376
-0.99308, 201, 445, 232, 476
-0.993081, 161, 169, 192, 200
-0.993081, 329, 377, 360, 408
-0.993082, 157, 421, 188, 452
-0.993085, 209, 229, 240, 260
-0.993088, 161, 249, 192, 280
-0.99309, 201, 461, 232, 492
-0.993091, 213, 385, 244, 416
-0.993094, 33, 421, 64, 452
-0.993112, 97, 281, 352, 344
-0.993122, 193, 253, 224, 284
-0.993133, 189, 409, 220, 440
-0.993136, 265, 417, 296, 448
-0.993144, 97, 429, 128, 460
-0.993145, 209, 217, 240, 248
-0.993145, 209, 425, 240, 456
-0.993146, 73, 465, 104, 496
-0.993146, 285, 433, 316, 464
-0.993147, 201, 201, 232, 232
-0.993155, 225, 241, 256, 368
-0.993194, 177, 349, 304, 380
-0.99324, 177, 433, 208, 496
-0.993261, 121, 385, 152, 448
-0.993368, 225, 289, 288, 352
-0.993369, 177, 97, 208, 224
-0.993391, 1, 361, 365, 424
-0.99341, 141, 177, 172, 304
-0.993507, 153, 1, 216, 500
-0.993548, 113, 273, 176, 336
-0.993617, 321, 433, 352, 496
-0.993658, 129, 189, 256, 220
-0.993681, 1, 377, 256, 440
-0.993697, 241, 273, 365, 336
-0.993717, 193, 137, 320, 200
-0.993727, 137, 345, 168, 408
-0.993802, 121, 145, 184, 208
-0.993827, 241, 357, 365, 388
-0.993944, 177, 333, 304, 364
-0.993971, 295, 353, 310, 416
-0.99402, 179, 153, 194, 216
-0.994039, 305, 321, 336, 384
-0.994045, 301, 361, 316, 424
-0.994055, 105, 345, 168, 408
-0.994085, 97, 425, 352, 488
-0.994162, 225, 249, 256, 312
-0.994164, 145, 245, 272, 276
-0.994186, 205, 153, 220, 216
-0.994225, 97, 257, 352, 320
-0.994259, 311, 353, 326, 416
-0.994262, 1, 161, 256, 224
-0.994268, 241, 329, 365, 360
-0.994297, 49, 433, 176, 464
-0.994338, 1, 409, 365, 472
-0.994339, 33, 193, 288, 256
-0.994364, 189, 265, 204, 328
-0.994392, 81, 137, 208, 200
-0.994419, 167, 273, 182, 336
-0.994423, 65, 353, 128, 416
-0.994462, 149, 345, 180, 408
-0.994522, 73, 409, 88, 472
-0.994527, 129, 145, 192, 272
-0.99453, 207, 265, 222, 328
-0.994537, 97, 169, 352, 232
-0.994594, 193, 361, 320, 392
-0.994613, 181, 273, 196, 336
-0.994615, 225, 233, 240, 296
-0.994635, 217, 161, 248, 224
-0.994682, 65, 337, 320, 400
-0.994691, 193, 97, 224, 224
-0.994694, 241, 397, 365, 428
-0.994696, 129, 365, 256, 396
-0.994701, 129, 209, 256, 240
-0.994718, 97, 305, 352, 368
-0.994782, 209, 289, 224, 352
-0.9948, 225, 313, 256, 376
-0.994804, 173, 153, 188, 216
-0.994869, 69, 385, 84, 448
-0.994922, 185, 153, 200, 216
-0.994933, 229, 289, 260, 416
-0.994941, 65, 453, 192, 484
-0.994941, 49, 413, 176, 444
-0.994942, 297, 385, 312, 448
-0.994955, 129, 381, 256, 412
-0.994961, 283, 313, 298, 376
-0.994965, 345, 281, 360, 344
-0.994989, 67, 425, 82, 488
-0.995019, 157, 425, 172, 488
-0.995038, 113, 413, 240, 444
-0.995052, 173, 257, 188, 320
-0.995055, 191, 153, 206, 216
-0.99507, 215, 305, 230, 368
-0.995084, 161, 273, 176, 336
-0.995084, 225, 1, 288, 500
-0.995105, 59, 377, 74, 440
-0.995118, 289, 329, 304, 392
-0.995137, 199, 153, 214, 216
-0.995154, 129, 397, 256, 428
-0.995156, 65, 393, 192, 424
-0.99517, 201, 265, 216, 328
-0.995174, 195, 265, 210, 328
-0.995188, 187, 289, 202, 352
-0.995226, 145, 265, 272, 296
-0.995242, 225, 129, 288, 384
-0.995246, 175, 281, 190, 344
-0.995278, 319, 361, 334, 424
-0.995281, 289, 353, 304, 416
-0.995287, 129, 305, 256, 336
-0.995287, 177, 321, 304, 352
-0.995288, 229, 177, 260, 304
-0.995309, 93, 369, 124, 496
-0.995324, 193, 373, 320, 404
-0.995325, 225, 273, 256, 336
-0.995335, 89, 433, 104, 496
-0.995341, 121, 417, 136, 480
-0.99535, 213, 193, 244, 256
-0.995352, 161, 369, 176, 432
-0.995362, 205, 161, 236, 416
-0.995363, 137, 289, 168, 416
-0.995367, 1, 385, 365, 448
-0.99541, 129, 221, 256, 252
-0.995413, 307, 377, 322, 440
-0.995426, 97, 429, 224, 460
-0.995431, 33, 217, 288, 280
-0.995442, 339, 305, 354, 368
-0.995455, 29, 393, 44, 456
-0.995456, 79, 433, 94, 496
-0.995468, 217, 257, 232, 320
-0.995475, 129, 177, 256, 208
-0.995493, 241, 369, 365, 400
-0.995497, 233, 249, 296, 312
-0.995497, 129, 293, 256, 324
-0.995525, 97, 401, 128, 464
-0.995526, 111, 425, 126, 488
-0.995559, 171, 385, 186, 448
-0.995587, 21, 401, 36, 464
-0.995609, 213, 177, 228, 240
-0.995619, 1, 257, 256, 320
-0.995633, 147, 369, 162, 432
-0.99564, 1, 281, 256, 344
-0.995646, 209, 417, 336, 448
-0.995652, 167, 169, 182, 232
-0.995653, 167, 241, 182, 304
-0.995654, 179, 249, 194, 312
-0.995656, 145, 65, 208, 320
-0.995664, 221, 209, 236, 272
-0.995681, 137, 361, 152, 424
-0.995682, 213, 393, 228, 456
-0.995684, 155, 369, 170, 432
-0.995691, 1, 421, 128, 452
-0.995707, 301, 337, 316, 400
-0.995707, 161, 209, 192, 272
-0.995741, 241, 353, 256, 416
-0.995748, 193, 297, 208, 360
-0.995752, 129, 317, 256, 348
-0.995753, 211, 153, 226, 216
-0.995755, 129, 329, 256, 360
-0.995765, 105, 169, 168, 232
-0.99578, 155, 281, 170, 344
-0.995787, 229, 337, 244, 400
-0.995789, 113, 453, 240, 484
-0.99579, 173, 129, 204, 384
-0.99579, 73, 433, 88, 496
-0.995795, 145, 165, 272, 196
-0.995805, 1, 97, 256, 224
-0.995807, 171, 313, 186, 376
-0.995863, 145, 233, 272, 264
-0.995866, 181, 305, 196, 368
-0.995867, 245, 313, 276, 376
-0.995888, 339, 393, 354, 456
-0.99589, 113, 441, 240, 472
-0.995901, 145, 465, 272, 496
-0.995909, 167, 361, 182, 424
-0.995913, 173, 129, 204, 192
-0.995919, 131, 401, 146, 464
-0.995929, 1, 441, 128, 472
-0.995929, 17, 257, 80, 500
-0.995939, 183, 345, 198, 408
-0.995943, 27, 417, 42, 480
-0.995944, 175, 361, 190, 424
-0.995954, 1, 425, 16, 488
-0.995973, 201, 305, 216, 368
-0.99598, 59, 425, 74, 488
-0.995983, 101, 433, 116, 496
-0.996006, 15, 393, 30, 456
-0.996011, 95, 433, 110, 496
-0.996024, 235, 337, 250, 400
-0.996047, 163, 401, 178, 464
-0.996056, 129, 353, 256, 384
-0.996073, 193, 453, 320, 484
-0.996081, 205, 369, 220, 432
-0.996094, 225, 401, 240, 464
-0.996103, 291, 377, 306, 440
-0.996103, 177, 33, 240, 288
-0.996106, 213, 257, 244, 500
-0.996115, 223, 321, 238, 384
-0.996118, 273, 321, 288, 384
-0.996126, 145, 137, 272, 200
-0.996159, 211, 241, 226, 304
-0.996167, 155, 249, 170, 312
-0.996168, 241, 381, 365, 412
-0.996189, 9, 401, 24, 464
-0.996201, 229, 425, 244, 488
-0.996207, 247, 377, 262, 440
-0.996229, 65, 381, 192, 412
-0.996257, 231, 257, 246, 320
-0.996266, 153, 193, 168, 256
-0.996269, 345, 433, 360, 496
-0.996283, 217, 369, 232, 432
-0.996284, 253, 377, 268, 440
-0.996307, 53, 385, 68, 448
-0.996308, 207, 177, 222, 240
-0.99631, 193, 361, 208, 424
-0.99631, 313, 377, 328, 440
-0.996334, 193, 241, 208, 304
-0.996343, 127, 425, 142, 488
-0.996376, 185, 129, 216, 384
-0.996377, 209, 313, 224, 376
-0.996381, 193, 441, 320, 472
-0.996397, 33, 465, 160, 496
-0.996438, 177, 177, 192, 240
-0.996439, 305, 401, 320, 464
-0.996453, 329, 369, 344, 432
-0.996461, 171, 409, 186, 472
-0.996476, 219, 425, 234, 488
-0.996491, 1, 401, 128, 432
-0.996507, 191, 329, 206, 392
-0.996517, 193, 393, 320, 424
-0.996523, 201, 345, 216, 408
-0.996525, 161, 249, 176, 312
-0.996538, 235, 393, 250, 456
-0.996541, 1, 305, 256, 368
-0.996575, 249, 409, 264, 472
-0.996578, 163, 425, 178, 488
-0.99659, 157, 257, 188, 500
-0.996592, 321, 329, 336, 392
-0.996595, 63, 401, 78, 464
-0.996597, 41, 409, 56, 472
-0.996598, 17, 453, 144, 484
-0.996605, 289, 281, 352, 344
-0.996616, 347, 409, 362, 472
-0.996617, 283, 369, 298, 432
-0.996623, 291, 401, 306, 464
-0.996628, 177, 405, 304, 436
-0.996634, 155, 393, 170, 456
-0.996652, 185, 241, 200, 304
-0.99667, 183, 417, 198, 480
-0.996674, 225, 201, 352, 264
-0.99668, 129, 281, 256, 312
-0.996686, 225, 361, 240, 424
-0.996693, 1, 297, 365, 360
-0.996695, 65, 361, 80, 424
-0.996699, 251, 345, 266, 408
-0.996718, 321, 393, 336, 456
-0.996719, 175, 225, 190, 288
-0.996734, 179, 385, 194, 448
-0.996743, 269, 345, 284, 408
-0.996743, 291, 361, 306, 392
-0.996743, 217, 329, 232, 392
-0.996747, 349, 377, 364, 440
-0.996757, 35, 401, 50, 464
-0.996758, 165, 297, 180, 360
-0.99677, 177, 309, 304, 340
-0.996774, 213, 433, 228, 496
-0.996779, 173, 225, 204, 480
-0.996789, 97, 321, 160, 448
-0.996818, 225, 429, 352, 460
-0.996893, 225, 465, 352, 496
-0.996909, 281, 1, 344, 500
-0.996923, 193, 177, 320, 208
-0.996925, 157, 161, 188, 416
-0.996941, 73, 321, 136, 448
-0.996957, 81, 293, 208, 324
-0.996982, 145, 429, 272, 460
-0.997022, 1, 433, 365, 496
-0.997075, 189, 257, 220, 500
-0.997112, 241, 317, 365, 348
-0.997171, 209, 249, 336, 280
-0.997236, 165, 113, 196, 240
-0.997239, 81, 173, 208, 204
-0.997302, 333, 257, 364, 500
-0.997305, 175, 269, 190, 300
-0.997306, 297, 385, 312, 416
-0.997325, 97, 257, 224, 288
-0.997331, 229, 261, 244, 292
-0.99737, 299, 369, 314, 400
-0.99737, 65, 329, 192, 392
-0.997373, 49, 225, 176, 352
-0.997402, 173, 165, 188, 196
-0.997453, 193, 297, 208, 328
-0.99746, 81, 281, 208, 312
-0.997495, 313, 361, 328, 392
-0.997509, 323, 365, 338, 396
-0.997537, 29, 409, 44, 440
-0.997558, 65, 381, 80, 412
-0.997568, 241, 441, 365, 472
-0.997571, 129, 341, 256, 372
-0.9976, 65, 305, 192, 368
-0.99761, 297, 405, 312, 436
-0.99761, 169, 177, 184, 208
-0.997615, 1, 1, 128, 256
-0.997629, 185, 289, 200, 320
-0.997655, 81, 309, 208, 340
-0.997664, 333, 225, 364, 352
-0.997665, 229, 465, 244, 496
-0.99767, 77, 453, 92, 484
-0.997685, 65, 369, 192, 400
-0.997687, 193, 189, 320, 220
-0.997688, 177, 221, 304, 252
-0.997689, 175, 181, 190, 212
-0.997701, 305, 401, 320, 432
-0.997705, 221, 329, 236, 360
-0.997716, 311, 381, 326, 412
-0.997728, 161, 417, 288, 448
-0.997729, 301, 353, 316, 384
-0.997729, 305, 389, 320, 420
-0.997736, 307, 361, 322, 392
-0.997738, 293, 349, 308, 380
-0.997741, 169, 393, 184, 424
-0.997744, 283, 321, 298, 352
-0.997753, 225, 225, 256, 480
-0.997757, 211, 309, 226, 340
-0.997758, 49, 257, 176, 320
-0.99776, 277, 257, 308, 500
-0.997761, 67, 445, 82, 476
-0.997766, 177, 281, 192, 312
-0.997777, 215, 321, 230, 352
-0.997788, 225, 161, 352, 288
-0.997793, 81, 465, 208, 496
-0.997796, 129, 1, 192, 500
-0.997813, 145, 225, 176, 480
-0.997813, 335, 317, 350, 348
-0.997828, 137, 365, 152, 396
-0.997828, 71, 429, 86, 460
-0.99783, 217, 265, 232, 296
-0.997833, 17, 389, 144, 420
-0.997837, 201, 365, 216, 396
-0.997843, 177, 297, 304, 328
-0.997852, 209, 237, 336, 268
-0.997863, 221, 457, 236, 488
-0.997867, 211, 193, 226, 224
-0.997869, 93, 441, 108, 472
-0.997869, 207, 161, 222, 192
-0.99787, 169, 369, 184, 400
-0.997871, 67, 465, 82, 496
-0.997872, 231, 349, 246, 380
-0.997875, 87, 445, 102, 476
-0.997878, 25, 397, 40, 428
-0.997881, 207, 297, 222, 328
-0.997881, 291, 373, 306, 404
-0.997883, 325, 353, 340, 384
-0.997883, 171, 321, 186, 352
-0.997907, 223, 253, 238, 284
-0.997913, 201, 353, 216, 384
-0.99792, 169, 265, 184, 296
-0.997933, 179, 161, 194, 192
-0.997933, 59, 385, 74, 416
-0.997945, 185, 269, 200, 300
-0.99795, 163, 181, 178, 212
-0.99796, 179, 381, 194, 412
-0.997962, 79, 441, 94, 472
-0.997962, 241, 305, 365, 336
-0.99797, 207, 181, 222, 212
-0.997971, 291, 405, 306, 436
-0.997973, 181, 333, 196, 364
-0.997976, 193, 161, 320, 192
-0.997978, 121, 421, 136, 452
-0.997982, 191, 345, 206, 376
-0.997983, 193, 261, 320, 292
-0.997984, 105, 145, 168, 272
-0.997991, 327, 377, 342, 408
-0.997994, 225, 445, 240, 476
-0.997997, 345, 289, 360, 320
-0.997997, 25, 425, 40, 456
-0.997998, 163, 401, 178, 432
-0.997998, 199, 157, 214, 188
-0.998, 211, 397, 226, 428
-0.998007, 195, 357, 210, 388
-0.998008, 217, 201, 232, 232
-0.998016, 241, 361, 256, 392
-0.998026, 201, 377, 216, 408
-0.998031, 71, 405, 86, 436
-0.998031, 163, 281, 178, 312
-0.998039, 191, 369, 206, 400
-0.998041, 341, 309, 356, 340
-0.998045, 129, 417, 144, 448
-0.998047, 61, 441, 76, 472
-0.998049, 215, 445, 230, 476
-0.99805, 209, 209, 336, 240
-0.998052, 203, 309, 218, 340
-0.998062, 165, 313, 180, 344
-0.998064, 185, 157, 200, 188
-0.998067, 349, 457, 364, 488
-0.998075, 155, 393, 170, 424
-0.998077, 181, 309, 196, 340
-0.998078, 155, 285, 170, 316
-0.998078, 201, 257, 232, 500
-0.998083, 57, 453, 72, 484
-0.998087, 185, 181, 200, 212
-0.998093, 317, 377, 332, 408
-0.998094, 81, 161, 208, 192
-0.998096, 285, 369, 300, 400
-0.9981, 105, 369, 136, 496
-0.998104, 221, 317, 236, 348
-0.998105, 251, 373, 266, 404
-0.998105, 165, 381, 180, 412
-0.998107, 69, 393, 84, 424
-0.998109, 289, 333, 304, 364
-0.99811, 31, 397, 46, 428
-0.99811, 111, 445, 126, 476
-0.998117, 241, 349, 256, 380
-0.998117, 265, 461, 280, 492
-0.998118, 53, 397, 68, 428
-0.998124, 19, 421, 34, 452
-0.998127, 45, 321, 76, 448
-0.998142, 105, 453, 120, 484
-0.998144, 291, 417, 306, 448
-0.998148, 207, 369, 222, 400
-0.998148, 309, 425, 324, 456
-0.998151, 257, 1, 320, 500
-0.998159, 215, 169, 230, 200
-0.998161, 191, 157, 206, 188
-0.998162, 281, 357, 296, 388
-0.998165, 225, 349, 240, 380
-0.998167, 221, 369, 236, 400
-0.998167, 49, 161, 176, 224
-0.998168, 137, 397, 152, 428
-0.998169, 241, 453, 365, 484
-0.998169, 213, 377, 228, 408
-0.998171, 329, 365, 344, 396
-0.998176, 197, 309, 212, 340
-0.998177, 185, 357, 200, 388
-0.998179, 223, 229, 238, 260
-0.998183, 263, 349, 278, 380
-0.998186, 217, 393, 232, 424
-0.998191, 179, 257, 194, 288
-0.998194, 81, 189, 208, 220
-0.998195, 171, 281, 186, 312
-0.998196, 187, 333, 202, 364
-0.998199, 129, 433, 144, 464
-0.998199, 63, 421, 78, 452
-0.998203, 231, 453, 246, 484
-0.998208, 175, 393, 190, 424
-0.998208, 261, 369, 276, 400
-0.998209, 211, 269, 226, 300
-0.998213, 259, 453, 274, 484
-0.998215, 297, 421, 312, 452
-0.998221, 81, 345, 208, 376
-0.998222, 81, 321, 208, 352
-0.998407, 1, 137, 256, 200
-0.998408, 225, 371, 256, 386
-0.998409, 149, 291, 180, 306
-0.99841, 29, 429, 60, 444
-0.99841, 157, 191, 188, 206
-0.998411, 261, 473, 292, 488
-0.998411, 165, 325, 196, 340
-0.998411, 265, 355, 296, 370
-0.998411, 197, 163, 228, 178
-0.998412, 61, 421, 92, 436
-0.998412, 157, 307, 188, 322
-0.998413, 65, 443, 96, 458
-0.998413, 321, 377, 352, 392
-0.998413, 117, 423, 148, 438
-0.998414, 137, 407, 168, 422
-0.998414, 201, 313, 232, 328
-0.998414, 209, 321, 240, 336
-0.998414, 17, 431, 48, 446
-0.998417, 329, 347, 360, 362
-0.998417, 229, 407, 260, 422
-0.998418, 329, 325, 360, 340
-0.998418, 169, 177, 200, 192
-0.998419, 273, 327, 304, 342
-0.998419, 237, 365, 268, 380
-0.998419, 133, 395, 164, 410
-0.998419, 193, 187, 224, 202
-0.99842, 305, 405, 336, 420
-0.99842, 293, 389, 324, 404
-0.99842, 53, 401, 84, 416
-0.998421, 113, 429, 144, 444
-0.998422, 57, 407, 88, 422
-0.998422, 141, 375, 172, 390
-0.998423, 45, 467, 76, 482
-0.998423, 165, 419, 196, 434
-0.998423, 169, 169, 232, 184
-0.998424, 173, 291, 204, 306
-0.998424, 277, 349, 308, 364
-0.998424, 177, 335, 208, 350
-0.998424, 197, 407, 228, 422
-0.998426, 157, 389, 188, 404
-0.998426, 245, 371, 276, 386
-0.998429, 285, 383, 316, 398
-0.99843, 161, 301, 192, 316
-0.99843, 169, 317, 200, 332
-0.998432, 57, 457, 88, 472
-0.998433, 257, 371, 288, 386
-0.998434, 33, 405, 64, 420
-0.998435, 181, 371, 212, 386
-0.998435, 177, 347, 208, 362
-0.998436, 265, 353, 328, 368
-0.998436, 5, 417, 36, 432
-0.998437, 177, 329, 208, 344
-0.998437, 201, 459, 232, 474
-0.998439, 57, 481, 88, 496
-0.99844, 173, 185, 204, 200
-0.998442, 281, 373, 344, 388
-0.998443, 57, 385, 88, 400
-0.998444, 273, 343, 304, 358
-0.998444, 89, 441, 120, 456
-0.998444, 197, 195, 228, 210
-0.998444, 69, 463, 100, 478
-0.998446, 309, 383, 340, 398
-0.998447, 249, 365, 280, 380
-0.998447, 209, 401, 240, 416
-0.998447, 317, 365, 348, 380
-0.998449, 105, 485, 136, 500
-0.998449, 289, 379, 352, 394
-0.99845, 209, 371, 240, 386
-0.99845, 97, 447, 128, 462
-0.99845, 297, 411, 328, 426
-0.998451, 173, 165, 204, 180
-0.998451, 177, 323, 208, 338
-0.998451, 197, 297, 228, 312
-0.998451, 25, 423, 56, 438
-0.998451, 181, 361, 212, 376
-0.998452, 33, 407, 96, 422
-0.998453, 305, 425, 336, 440
-0.998453, 169, 163, 232, 178
-0.998453, 209, 369, 272, 384
-0.998454, 61, 415, 92, 430
-0.998454, 285, 427, 316, 442
-0.998455, 69, 449, 100, 464
-0.998455, 293, 355, 324, 370
-0.998456, 189, 347, 220, 362
-0.998456, 165, 399, 196, 414
-0.998456, 289, 359, 352, 374
-0.998456, 221, 459, 252, 474
-0.998457, 25, 417, 56, 432
-0.998458, 97, 233, 224, 264
-0.99846, 169, 309, 200, 324
-0.998462, 209, 327, 240, 342
-0.998462, 169, 369, 200, 384
-0.998465, 265, 363, 328, 378
-0.998465, 9, 425, 40, 440
-0.998465, 181, 353, 212, 368
-0.998465, 197, 169, 228, 184
-0.998465, 317, 371, 348, 386
-0.998466, 169, 171, 200, 186
-0.998466, 185, 159, 216, 174
-0.998467, 277, 371, 308, 386
-0.998467, 225, 365, 256, 380
-0.998468, 305, 399, 336, 414
-0.998469, 213, 467, 244, 482
-0.998469, 193, 319, 224, 334
-0.998471, 177, 341, 208, 356
-0.998472, 197, 371, 228, 386
-0.998473, 57, 463, 88, 478
-0.998475, 289, 345, 352, 360
-0.998475, 177, 297, 208, 312
-0.998476, 213, 261, 244, 276
-0.998476, 165, 281, 196, 296
-0.998477, 133, 401, 164, 416
-0.998478, 333, 333, 364, 348
-0.998478, 81, 447, 112, 462
-0.998479, 289, 351, 352, 366
-0.998479, 205, 365, 236, 380
-0.99848, 145, 287, 208, 302
-0.99848, 257, 345, 320, 360
-0.998481, 197, 65, 228, 320
-0.998482, 33, 417, 96, 432
-0.998483, 33, 401, 96, 416
-0.998483, 153, 191, 216, 206
-0.998484, 9, 403, 72, 418
-0.998487, 285, 421, 316, 436
-0.998488, 285, 361, 316, 376
-0.998488, 277, 403, 308, 418
-0.998488, 305, 389, 336, 404
-0.998488, 273, 333, 304, 348
-0.998488, 245, 359, 276, 374
-0.998488, 109, 447, 140, 462
-0.99849, 289, 367, 320, 382
-0.99849, 65, 447, 128, 462
-0.998492, 25, 423, 88, 438
-0.998492, 153, 295, 216, 310
-0.998496, 193, 267, 256, 282
-0.998497, 197, 303, 228, 318
-0.998497, 313, 359, 344, 374
-0.998497, 297, 367, 360, 382
-0.998501, 177, 331, 240, 346
-0.998501, 289, 337, 352, 352
-0.998503, 257, 369, 320, 384
-0.998504, 289, 385, 352, 400
-0.998504, 265, 379, 328, 394
-0.998504, 301, 361, 332, 376
-0.998505, 145, 397, 176, 412
-0.998507, 269, 361, 300, 376
-0.998508, 293, 405, 324, 420
-0.998508, 129, 393, 192, 408
-0.998508, 9, 409, 72, 424
-0.998509, 181, 303, 212, 318
-0.998515, 65, 441, 128, 456
-0.998515, 1, 415, 64, 430
-0.998515, 161, 309, 224, 324
-0.998516, 53, 395, 84, 410
-0.998516, 281, 377, 312, 392
-0.998517, 293, 395, 324, 410
-0.998517, 301, 367, 332, 382
-0.998518, 161, 185, 192, 200
-0.998519, 53, 447, 84, 462
-0.998522, 177, 361, 240, 376
-0.998525, 1, 425, 64, 440
-0.998526, 169, 185, 232, 200
-0.998526, 185, 371, 248, 386
-0.998527, 205, 269, 236, 284
-0.998528, 69, 455, 100, 470
-0.998529, 169, 177, 232, 192
-0.998529, 25, 429, 88, 444
-0.998531, 177, 319, 240, 334
-0.998534, 41, 465, 104, 480
-0.998534, 289, 329, 352, 344
-0.998535, 153, 301, 216, 316
-0.998536, 177, 285, 304, 316
-0.998536, 265, 423, 328, 438
-0.998536, 57, 455, 120, 470
-0.998539, 97, 97, 352, 224
-0.998539, 241, 361, 304, 376
-0.998544, 161, 371, 224, 386
-0.998545, 25, 435, 88, 450
-0.998545, 33, 395, 96, 410
-0.998546, 225, 351, 288, 366
-0.998548, 309, 377, 340, 392
-0.998549, 177, 195, 240, 210
-0.998551, 33, 459, 96, 474
-0.998551, 265, 339, 328, 354
-0.998551, 129, 387, 192, 402
-0.998552, 297, 407, 360, 422
-0.998552, 129, 413, 192, 428
-0.998553, 217, 267, 248, 282
-0.998556, 241, 375, 304, 390
-0.998557, 289, 393, 352, 408
-0.998558, 185, 407, 248, 422
-0.998563, 129, 375, 192, 390
-0.998563, 137, 399, 200, 414
-0.998563, 297, 381, 328, 396
-0.998564, 65, 435, 128, 450
-0.998566, 217, 363, 280, 378
-0.998567, 225, 345, 288, 360
-0.998568, 137, 407, 200, 422
-0.998569, 217, 375, 280, 390
-0.99857, 169, 325, 232, 340
-0.99857, 177, 397, 240, 412
-0.99857, 129, 419, 192, 434
-0.998571, 65, 429, 128, 444
-0.998572, 217, 407, 280, 422
-0.998573, 185, 337, 248, 352
-0.998573, 225, 469, 288, 484
-0.998574, 33, 453, 96, 468
-0.998577, 169, 261, 232, 276
-0.998579, 297, 373, 328, 388
-0.99858, 297, 413, 360, 428
-0.998581, 145, 281, 208, 296
-0.998581, 177, 379, 240, 394
-0.998582, 33, 473, 96, 488
-0.998582, 305, 423, 365, 438
-0.998582, 177, 301, 240, 316
-0.998583, 177, 389, 240, 404
-0.998588, 257, 413, 320, 428
-0.998588, 129, 97, 192, 224
-0.998588, 169, 349, 232, 364
-0.998589, 265, 385, 328, 400
-0.998589, 201, 351, 264, 366
-0.99859, 105, 441, 168, 456
-0.998591, 201, 401, 264, 416
-0.998592, 217, 417, 280, 432
-0.998592, 17, 467, 80, 482
-0.998594, 217, 383, 280, 398
-0.998594, 25, 447, 88, 462
-0.998595, 257, 407, 320, 422
-0.998598, 81, 453, 144, 468
-0.998599, 9, 475, 72, 490
-0.998601, 193, 261, 256, 276
-0.998601, 305, 373, 365, 388
-0.998601, 105, 479, 168, 494
-0.998603, 257, 401, 320, 416
-0.998603, 193, 449, 256, 464
-0.998604, 65, 421, 128, 436
-0.998606, 145, 183, 208, 198
-0.998607, 225, 339, 288, 354
-0.998608, 201, 343, 264, 358
-0.998608, 129, 381, 192, 396
-0.998609, 169, 271, 232, 286
-0.998609, 209, 481, 272, 496
-0.99861, 153, 453, 216, 468
-0.99861, 265, 395, 328, 410
-0.99861, 289, 401, 352, 416
-0.99861, 185, 245, 248, 260
-0.998611, 57, 479, 120, 494
-0.998611, 145, 365, 208, 380
-0.998613, 201, 357, 264, 372
-0.998613, 185, 465, 248, 480
-0.998613, 1, 337, 365, 400
-0.998613, 193, 473, 256, 488
-0.998613, 97, 447, 160, 462
-0.998614, 129, 477, 192, 492
-0.998615, 177, 413, 240, 428
-0.998615, 161, 407, 224, 422
-0.998615, 105, 431, 168, 446
-0.998617, 33, 389, 96, 404
-0.998617, 9, 461, 72, 476
-0.998619, 121, 369, 184, 384
-0.998619, 185, 253, 248, 268
-0.998621, 33, 483, 96, 498
-0.998622, 289, 429, 352, 444
-0.998623, 313, 257, 344, 500
-0.998623, 169, 481, 232, 496
-0.998623, 225, 461, 288, 476
-0.998625, 193, 459, 256, 474
-0.998626, 233, 369, 296, 384
-0.998632, 97, 145, 352, 208
-0.998636, 65, 245, 192, 276
-0.998649, 65, 205, 192, 236
-0.99865, 217, 257, 232, 384
-0.998651, 61, 369, 76, 496
-0.998685, 205, 257, 220, 384
-0.99869, 97, 269, 224, 300
-0.998713, 149, 113, 180, 240
-0.998723, 171, 305, 186, 432
-0.998764, 65, 217, 192, 248
-0.998771, 217, 193, 232, 320
-0.998784, 281, 305, 296, 432
-0.998784, 289, 321, 304, 448
-0.998794, 1, 193, 365, 256
-0.998795, 183, 273, 198, 400
-0.998799, 223, 209, 238, 336
-0.998803, 211, 257, 226, 384
-0.998821, 197, 289, 212, 416
-0.998825, 315, 337, 330, 464
-0.998833, 173, 353, 188, 480
-0.998846, 193, 149, 320, 180
-0.998847, 295, 337, 310, 464
-0.99885, 265, 257, 296, 500
-0.998854, 67, 369, 82, 496
-0.99886, 195, 241, 210, 368
-0.99886, 145, 153, 272, 184
-0.998864, 309, 353, 324, 480
-0.998869, 191, 289, 206, 416
-0.998875, 165, 305, 180, 432
-0.998885, 303, 353, 318, 480
-0.998906, 97, 257, 160, 500
-0.998908, 335, 305, 350, 432
-0.998918, 177, 273, 192, 400
-0.998931, 173, 225, 188, 352
-0.998934, 327, 353, 342, 480
-0.998958, 139, 353, 154, 480
-0.998958, 1, 33, 365, 160
-0.998961, 313, 257, 344, 384
-0.998964, 167, 369, 182, 496
-0.998973, 321, 337, 336, 464
-0.998975, 211, 305, 226, 432
-0.998981, 289, 257, 320, 500
-0.998982, 253, 369, 268, 496
-0.998986, 155, 177, 170, 304
-0.99899, 211, 177, 226, 304
-0.99899, 193, 145, 208, 272
-0.99899, 235, 337, 250, 464
-0.998992, 81, 149, 208, 180
-0.998998, 161, 353, 176, 480
-0.999, 349, 273, 364, 400
-0.999001, 245, 353, 260, 480
-0.999005, 185, 145, 200, 272
-0.999011, 159, 225, 174, 352
-0.999012, 219, 321, 234, 448
-0.999017, 223, 257, 238, 384
-0.99902, 267, 321, 282, 448
-0.999022, 189, 241, 204, 368
-0.999023, 225, 225, 352, 256
-0.999028, 165, 177, 180, 304
-0.999038, 341, 289, 356, 416
-0.999042, 273, 321, 288, 448
-0.999044, 241, 65, 365, 320
-0.99905, 167, 257, 182, 384
-0.999053, 179, 321, 194, 448
-0.999071, 261, 353, 276, 480
-0.999074, 73, 369, 88, 496
-0.99908, 175, 145, 190, 272
-0.99908, 225, 321, 240, 448
-0.999102, 199, 145, 214, 272
-0.999111, 249, 257, 280, 500
-0.999117, 287, 369, 302, 496
-0.99913, 55, 369, 70, 496
-0.999134, 81, 357, 208, 388
-0.999141, 1, 217, 365, 280
-0.999148, 159, 289, 174, 416
-0.999151, 179, 225, 194, 352
-0.999159, 81, 333, 208, 364
-0.999161, 241, 293, 365, 324
-0.999163, 205, 145, 220, 272
-0.999163, 133, 369, 148, 496
-0.999167, 161, 65, 192, 320
-0.999186, 203, 305, 218, 432
-0.99919, 217, 113, 248, 240
-0.999199, 153, 225, 168, 352
-0.999203, 349, 353, 364, 480
-0.999203, 195, 337, 210, 464
-0.999208, 145, 353, 160, 480
-0.99922, 181, 33, 212, 288
-0.999222, 185, 321, 200, 448
-0.999229, 229, 241, 244, 368
-0.999244, 333, 353, 348, 480
-0.99926, 197, 193, 212, 320
-0.999266, 205, 209, 220, 336
-0.99927, 305, 1, 365, 500
-0.999275, 201, 353, 216, 480
-0.999281, 155, 353, 170, 480
-0.999331, 209, 65, 240, 320
-0.999336, 327, 305, 342, 432
-0.999336, 23, 369, 38, 496
-0.99934, 179, 369, 194, 496
-0.99934, 17, 369, 32, 496
-0.999343, 207, 369, 222, 496
-0.999349, 153, 305, 168, 432
-0.999355, 229, 369, 244, 496
-0.999374, 253, 321, 268, 448
-0.999392, 79, 369, 94, 496
-0.9994, 49, 369, 64, 496
-0.999402, 169, 129, 184, 256
-0.999411, 301, 257, 332, 500
-0.999415, 189, 369, 204, 496
-0.999416, 217, 369, 232, 496
-0.999422, 309, 305, 324, 432
-0.999437, 189, 193, 204, 320
-0.999444, 237, 257, 268, 500
-0.999445, 245, 305, 260, 432
-0.999449, 279, 353, 294, 480
-0.999453, 133, 257, 164, 500
-0.999469, 295, 289, 310, 416
-0.999474, 241, 281, 365, 312
-0.999481, 33, 353, 48, 480
-0.999484, 273, 369, 288, 496
-0.999485, 267, 369, 282, 496
-0.999489, 127, 353, 142, 480
-0.999494, 241, 225, 365, 352
-0.999499, 147, 225, 162, 352
-0.999505, 343, 369, 358, 496
-0.999506, 321, 289, 336, 416
-0.999507, 11, 369, 26, 496
-0.999524, 287, 273, 302, 400
-0.999535, 191, 97, 206, 224
-0.999537, 303, 305, 318, 432
-0.999549, 43, 369, 58, 496
-0.999549, 235, 289, 250, 416
-0.999551, 149, 177, 164, 304
-0.999554, 223, 369, 238, 496
-0.999558, 185, 97, 200, 224
-0.999559, 119, 369, 134, 496
-0.999569, 147, 289, 162, 416
-0.999571, 347, 225, 362, 352
-0.999579, 197, 97, 212, 224
-0.999594, 205, 97, 220, 224
-0.999596, 85, 369, 100, 496
-0.999597, 215, 401, 230, 416
-0.999598, 287, 335, 302, 350
-0.999598, 57, 457, 72, 472
-0.999598, 179, 187, 194, 202
-0.999598, 257, 421, 272, 436
-0.999598, 231, 365, 246, 380
-0.999599, 221, 273, 236, 288
-0.999599, 261, 371, 276, 386
-0.999599, 111, 485, 126, 500
-0.9996, 299, 353, 314, 368
-0.999601, 33, 423, 48, 438
-0.999601, 159, 311, 174, 326
-0.999601, 221, 341, 236, 356
-0.999601, 333, 333, 348, 348
-0.999601, 185, 469, 200, 484
-0.999602, 195, 305, 210, 320
-0.999602, 71, 403, 86, 418
-0.999603, 267, 461, 282, 476
-0.999603, 191, 341, 206, 356
-0.999603, 139, 395, 154, 410
-0.999604, 113, 479, 128, 494
-0.999604, 283, 359, 298, 374
-0.999605, 69, 397, 84, 412
-0.999605, 67, 469, 82, 484
-0.999605, 185, 343, 200, 358
-0.999606, 79, 453, 94, 468
-0.999606, 209, 193, 224, 208
-0.999606, 127, 421, 142, 436
-0.999607, 299, 413, 314, 428
-0.999607, 209, 401, 224, 416
-0.999608, 251, 381, 266, 396
-0.999608, 123, 429, 138, 444
-0.999609, 265, 471, 280, 486
-0.99961, 173, 171, 188, 186
-0.99961, 179, 385, 194, 400
-0.99961, 97, 449, 112, 464
-0.999611, 57, 467, 72, 482
-0.999611, 179, 421, 194, 436
-0.999611, 179, 341, 194, 356
-0.999611, 283, 325, 298, 340
-0.999612, 307, 363, 322, 378
-0.999612, 25, 429, 40, 444
-0.999613, 159, 399, 174, 414
-0.999613, 307, 399, 322, 414
-0.999613, 261, 305, 276, 432
-0.999613, 295, 401, 310, 416
-0.999613, 317, 379, 332, 394
-0.999614, 89, 445, 104, 460
-0.999614, 301, 367, 316, 382
-0.999614, 303, 423, 318, 438
-0.999615, 171, 309, 186, 324
-0.999615, 199, 355, 214, 370
-0.999615, 183, 295, 198, 310
-0.999615, 77, 459, 92, 474
-0.999616, 167, 183, 182, 198
-0.999617, 213, 369, 228, 384
-0.999618, 341, 309, 356, 324
-0.999618, 65, 389, 80, 404
-0.99962, 223, 461, 238, 476
-0.99962, 95, 441, 110, 456
-0.999621, 291, 357, 306, 372
-0.999621, 185, 357, 200, 372
-0.999621, 123, 485, 138, 500
-0.999622, 165, 389, 180, 404
-0.999622, 111, 447, 126, 462
-0.999623, 209, 299, 224, 314
-0.999624, 219, 365, 234, 380
-0.999625, 71, 417, 86, 432
-0.999625, 207, 269, 222, 284
-0.999625, 211, 329, 226, 344
-0.999625, 177, 271, 192, 286
-0.999626, 69, 383, 84, 398
-0.999626, 197, 375, 212, 390
-0.999627, 23, 423, 38, 438
-0.999628, 209, 169, 224, 184
-0.999628, 167, 281, 182, 296
-0.999629, 229, 471, 244, 486
-0.999629, 189, 271, 204, 286
-0.99963, 291, 347, 306, 362
-0.999631, 181, 349, 196, 364
-0.999632, 29, 415, 44, 430
-0.999633, 83, 447, 98, 462
-0.999634, 141, 403, 156, 418
-0.999634, 297, 421, 312, 436
-0.999634, 295, 387, 310, 402
-0.999635, 323, 367, 338, 382
-0.999636, 253, 375, 268, 390
-0.999636, 5, 369, 20, 496
-0.999637, 63, 321, 78, 448
-0.999637, 73, 447, 88, 462
-0.999639, 61, 383, 76, 398
-0.999639, 271, 273, 286, 400
-0.999641, 31, 431, 46, 446
-0.999642, 181, 159, 196, 174
-0.999643, 171, 323, 186, 338
-0.999644, 181, 327, 196, 342
-0.999644, 217, 321, 232, 336
-0.999647, 67, 457, 82, 472
-0.999647, 105, 451, 120, 466
-0.999647, 217, 145, 232, 272
-0.999648, 323, 377, 338, 392
-0.999648, 223, 371, 238, 386
-0.999649, 231, 465, 246, 480
-0.999652, 205, 305, 220, 320
-0.999653, 175, 165, 190, 180
-0.999653, 223, 467, 238, 482
-0.999654, 137, 369, 152, 384
-0.999654, 323, 357, 338, 372
-0.999654, 63, 447, 78, 462
-0.999655, 73, 453, 88, 468
-0.999656, 301, 383, 316, 398
-0.999656, 341, 241, 356, 368
-0.999657, 117, 485, 132, 500
-0.999659, 305, 391, 320, 406
-0.999659, 291, 377, 306, 392
-0.99966, 171, 395, 186, 410
-0.999663, 169, 177, 184, 192
-0.999663, 195, 365, 210, 380
-0.999664, 309, 383, 324, 398
-0.999664, 297, 407, 312, 422
-0.999664, 193, 299, 208, 314
-0.999667, 173, 183, 188, 198
-0.999667, 301, 375, 316, 390
-0.999674, 175, 97, 190, 224
-0.999676, 211, 129, 226, 256
-0.999677, 67, 463, 82, 478
-0.999679, 223, 161, 238, 288
-0.999682, 145, 129, 176, 384
-0.999683, 221, 97, 252, 352
-0.99969, 185, 337, 200, 352
-0.999694, 229, 177, 244, 304
-0.999695, 231, 269, 246, 284
-0.9997, 55, 321, 70, 448
-0.9997, 221, 329, 236, 344
-0.999702, 305, 405, 320, 420
-0.999702, 315, 361, 330, 376
-0.999705, 227, 263, 242, 278
-0.999706, 217, 267, 232, 282
-0.99971, 297, 395, 312, 410
-0.99971, 211, 323, 226, 338
-0.999713, 177, 281, 192, 296
-0.999725, 145, 129, 208, 192
-0.999728, 99, 369, 114, 496
-0.99973, 291, 369, 306, 384
-0.99973, 163, 113, 178, 240
-0.999737, 335, 257, 350, 384
-0.999747, 281, 257, 296, 384
-0.999748, 155, 129, 170, 256
-0.999749, 113, 369, 128, 496
-0.999752, 293, 363, 308, 378
-0.999773, 315, 289, 330, 416
-0.999776, 93, 369, 108, 496
-0.999791, 141, 305, 156, 432
-0.999821, 1, 241, 365, 304
-0.999892, 33, 357, 160, 388
-0.999967, 41, 257, 72, 500
-0.999984, 105, 1, 168, 500
-0.99999, 1, 161, 365, 224
-1.0001, 69, 257, 100, 500
-1.00011, 29, 257, 60, 500
-1.00012, 193, 273, 320, 304
-1.00013, 49, 229, 176, 260
-1.00013, 69, 321, 100, 448
-1.00014, 201, 33, 264, 288
-1.00016, 57, 257, 88, 500
-1.00017, 17, 377, 144, 408
-1.0002, 329, 161, 360, 416
-1.00021, 113, 65, 176, 320
-1.00022, 177, 81, 240, 208
-1.00028, 125, 321, 156, 448
-1.00029, 121, 257, 152, 500
-1.00035, 49, 269, 176, 300
-1.00035, 285, 257, 316, 384
-1.00037, 1, 257, 32, 500
-1.00043, 149, 33, 180, 288
-1.00051, 269, 161, 300, 416
-1.00053, 133, 129, 164, 384
-1.00057, 17, 257, 48, 500
-1.00068, 129, 145, 160, 272
-1.00069, 145, 141, 272, 172
-1.00069, 49, 257, 176, 288
-1.00072, 33, 281, 160, 312
-1.00078, 25, 1, 88, 500
-1.00084, 33, 185, 160, 216
-1.00085, 97, 137, 224, 168
-1.00088, 73, 257, 136, 500
-1.0009, 49, 129, 176, 256
-1.0009, 237, 161, 268, 416
-1.00093, 249, 161, 280, 416
-1.00093, 105, 257, 136, 500
-1.00097, 33, 293, 160, 324
-1.00099, 145, 129, 272, 160
-1.00099, 193, 137, 320, 168
-1.00102, 93, 257, 124, 500
-1.00103, 33, 345, 160, 376
-1.00103, 241, 269, 365, 300
-1.00103, 293, 161, 324, 416
-1.00103, 33, 321, 160, 352
-1.00104, 317, 161, 348, 416
-1.00106, 97, 125, 224, 156
-1.00107, 133, 33, 164, 288
-1.00107, 1, 125, 128, 156
-1.00107, 49, 125, 176, 156
-1.00107, 241, 133, 365, 164
-1.00107, 33, 137, 160, 168
-1.00107, 241, 145, 365, 176
-1.00107, 33, 149, 160, 180
-1.00107, 241, 157, 365, 188
-1.00107, 17, 161, 144, 192
-1.00107, 241, 169, 365, 200
-1.00107, 17, 173, 144, 204
-1.00107, 241, 181, 365, 212
-1.00107, 17, 197, 144, 228
-1.00107, 17, 209, 144, 240
-1.00107, 1, 221, 128, 252
-1.00107, 1, 233, 128, 264
-1.00107, 17, 245, 144, 276
-1.00107, 1, 257, 128, 288
-1.00107, 1, 269, 128, 300
-1.00107, 17, 309, 144, 340
-1.00107, 17, 333, 144, 364
-1.00112, 97, 121, 352, 184
-1.00113, 221, 1, 252, 256
-1.00121, 281, 161, 312, 416
-1.00126, 113, 113, 240, 176
-1.00131, 81, 257, 112, 500
-1.00134, 1, 265, 365, 328
-1.00149, 233, 65, 264, 320
-1.00155, 161, 113, 288, 176
-1.00155, 49, 257, 112, 500
-1.00156, 57, 1, 120, 500
-1.00157, 1, 113, 256, 176
-1.00158, 57, 321, 88, 448
-1.0017, 265, 33, 296, 288
-1.00171, 305, 161, 336, 416
-1.00172, 305, 33, 336, 288
-1.00173, 253, 33, 284, 288
-1.00174, 285, 33, 316, 288
-1.00178, 57, 129, 88, 384
-1.00178, 329, 1, 360, 256
-1.00178, 5, 129, 36, 384
-1.00179, 121, 97, 152, 352
-1.00179, 33, 185, 160, 248
-1.0018, 1, 33, 32, 288
-1.00181, 57, 1, 88, 256
-1.00181, 81, 1, 112, 256
-1.00181, 109, 1, 140, 256
-1.00181, 17, 65, 48, 320
-1.00181, 77, 97, 108, 352
-1.00181, 109, 97, 140, 352
-1.00182, 317, 1, 348, 256
-1.00184, 45, 1, 76, 256
-1.00184, 33, 33, 64, 288
-1.00184, 97, 65, 128, 320
-1.00184, 45, 97, 76, 352
-1.00184, 29, 129, 60, 384
-1.00184, 93, 161, 124, 416
-1.00185, 69, 1, 100, 256
-1.00189, 121, 1, 152, 256
-1.00202, 261, 257, 292, 384
-1.00205, 241, 249, 365, 312
-1.0021, 1, 89, 256, 152
-1.0021, 33, 281, 160, 344
-1.00212, 13, 321, 44, 448
-1.00212, 97, 1, 352, 64
-1.00212, 1, 17, 256, 80
-1.00212, 97, 25, 352, 88
-1.00212, 1, 41, 256, 104
-1.00212, 97, 49, 352, 112
-1.00212, 1, 65, 256, 128
-1.00212, 97, 73, 352, 136
-1.00212, 97, 97, 352, 160
-1.00213, 17, 161, 48, 416
-1.00216, 1, 337, 128, 400
-1.00227, 33, 209, 160, 272
-1.00247, 205, 97, 236, 224
-1.00249, 1, 1, 64, 500
-1.0025, 113, 321, 144, 448
-1.00285, 17, 233, 144, 296
-1.00286, 49, 321, 112, 448
-1.00291, 241, 1, 365, 64
-1.00291, 1, 17, 128, 80
-1.00291, 49, 17, 176, 80
-1.00291, 97, 17, 224, 80
-1.00291, 145, 17, 272, 80
-1.00291, 193, 17, 320, 80
-1.00291, 241, 25, 365, 88
-1.00291, 1, 41, 128, 104
-1.00291, 49, 41, 176, 104
-1.00291, 97, 41, 224, 104
-1.00291, 145, 41, 272, 104
-1.00291, 193, 41, 320, 104
-1.00291, 241, 49, 365, 112
-1.00291, 1, 65, 128, 128
-1.00291, 49, 65, 176, 128
-1.00291, 97, 65, 224, 128
-1.00291, 145, 65, 272, 128
-1.00291, 193, 65, 320, 128
-1.00291, 241, 73, 365, 136
-1.00291, 1, 89, 128, 152
-1.00291, 49, 89, 176, 152
-1.00291, 97, 89, 224, 152
-1.00291, 145, 89, 272, 152
-1.00291, 193, 89, 320, 152
-1.00291, 241, 97, 365, 160
-1.00291, 33, 113, 160, 176
-1.00291, 241, 121, 365, 184
-1.00291, 17, 137, 144, 200
-1.00291, 241, 145, 365, 208
-1.00291, 1, 161, 128, 224
-1.00291, 1, 257, 128, 320
-1.00291, 1, 305, 128, 368
-1.00312, 105, 273, 168, 400
-1.00331, 305, 161, 365, 416
-1.00352, 1, 121, 365, 184
-1.00364, 81, 1, 144, 500
-1.00369, 297, 257, 328, 384
-1.00369, 1, 97, 365, 160
-1.00387, 1, 1, 365, 64
-1.00387, 1, 25, 365, 88
-1.00387, 1, 49, 365, 112
-1.00388, 241, 177, 365, 240
-1.00391, 1, 73, 365, 136
-1.00419, 249, 289, 312, 352
-1.00549, 193, 113, 256, 176
-1.00555, 125, 273, 156, 400
-1.00555, 113, 65, 240, 192
-1.00565, 161, 65, 288, 192
-1.00568, 33, 305, 64, 432
-1.00592, 225, 129, 288, 256
-1.00606, 321, 209, 352, 336
-1.00615, 1, 321, 128, 448
-1.00624, 1, 321, 32, 448
-1.00648, 137, 97, 168, 224
-1.00689, 41, 353, 104, 416
-1.00696, 225, 33, 288, 288
-1.00698, 113, 321, 176, 384
-1.00704, 97, 49, 352, 176
-1.00705, 49, 273, 176, 400
-1.00718, 249, 161, 312, 416
-1.00741, 49, 329, 112, 392
-1.00741, 305, 209, 365, 336
-1.0077, 161, 65, 192, 192
-1.00786, 89, 201, 152, 264
-1.00805, 153, 65, 216, 192
-1.00815, 229, 129, 260, 256
-1.00818, 281, 129, 344, 384
-1.00839, 89, 273, 152, 336
-1.00842, 249, 241, 280, 368
-1.0085, 89, 249, 152, 312
-1.0086, 125, 193, 156, 320
-1.0087, 89, 321, 152, 384
-1.00874, 149, 65, 180, 192
-1.00882, 257, 257, 320, 320
-1.00889, 105, 297, 168, 360
-1.00892, 81, 305, 112, 432
-1.00897, 97, 321, 128, 448
-1.00901, 233, 137, 296, 200
-1.00911, 53, 257, 84, 384
-1.00915, 105, 273, 136, 400
-1.0092, 169, 97, 232, 160
-1.00923, 25, 329, 88, 392
-1.00929, 9, 145, 72, 208
-1.00929, 33, 145, 96, 208
-1.00929, 57, 161, 120, 224
-1.00929, 81, 161, 144, 224
-1.00929, 257, 161, 320, 224
-1.00929, 281, 161, 344, 224
-1.00929, 305, 161, 365, 224
-1.00929, 17, 169, 80, 232
-1.00929, 41, 185, 104, 248
-1.00929, 65, 185, 128, 248
-1.00929, 257, 185, 320, 248
-1.00929, 281, 185, 344, 248
-1.00929, 305, 185, 365, 248
-1.00929, 17, 193, 80, 256
-1.00929, 41, 209, 104, 272
-1.00929, 65, 209, 128, 272
-1.00929, 257, 209, 320, 272
-1.00929, 281, 209, 344, 272
-1.00929, 305, 209, 365, 272
-1.00929, 17, 217, 80, 280
-1.00929, 41, 233, 104, 296
-1.00929, 65, 233, 128, 296
-1.00929, 257, 233, 320, 296
-1.00929, 281, 233, 344, 296
-1.00929, 17, 241, 80, 304
-1.00929, 41, 257, 104, 320
-1.00929, 65, 257, 128, 320
-1.00929, 17, 265, 80, 328
-1.00929, 41, 281, 104, 344
-1.00929, 65, 281, 128, 344
-1.00929, 17, 289, 80, 352
-1.00929, 41, 305, 104, 368
-1.00929, 65, 305, 128, 368
-1.00929, 1, 313, 64, 376
-1.00933, 33, 177, 160, 304
-1.00941, 309, 209, 340, 336
-1.00944, 333, 177, 364, 304
-1.00945, 281, 193, 312, 320
-1.00948, 13, 273, 44, 400
-1.0095, 249, 193, 280, 320
-1.00952, 181, 49, 212, 176
-1.00953, 69, 241, 100, 368
-1.00956, 21, 129, 52, 256
-1.00956, 117, 129, 148, 256
-1.00956, 273, 129, 304, 256
-1.00956, 301, 129, 332, 256
-1.00956, 333, 129, 364, 256
-1.00956, 53, 145, 84, 272
-1.00956, 77, 145, 108, 272
-1.00956, 245, 145, 276, 272
-1.00956, 257, 145, 288, 272
-1.00956, 285, 145, 316, 272
-1.00956, 5, 161, 36, 288
-1.00956, 33, 161, 64, 288
-1.00956, 65, 161, 96, 288
-1.00956, 89, 161, 120, 288
-1.00956, 101, 161, 132, 288
-1.00956, 313, 161, 344, 288
-1.00956, 17, 177, 48, 304
-1.00956, 113, 177, 144, 304
-1.00956, 269, 177, 300, 304
-1.00956, 297, 177, 328, 304
-1.00956, 45, 193, 76, 320
-1.00956, 77, 193, 108, 320
-1.00956, 5, 209, 36, 336
-1.00956, 29, 209, 60, 336
-1.00956, 57, 209, 88, 336
-1.00956, 89, 209, 120, 336
-1.00956, 101, 209, 132, 336
-1.00956, 17, 225, 48, 352
-1.00956, 113, 225, 144, 352
-1.00956, 41, 241, 72, 368
-1.00956, 1, 257, 32, 384
-1.00956, 29, 257, 60, 384
-1.00956, 81, 257, 112, 384
-1.00956, 93, 257, 124, 384
-1.00959, 1, 273, 128, 400
-1.01, 289, 1, 352, 256
-1.01004, 257, 33, 320, 288
-1.0102, 1, 97, 64, 352
-1.01025, 41, 129, 104, 384
-1.01038, 97, 17, 224, 144
-1.01038, 145, 17, 272, 144
-1.01038, 193, 17, 320, 144
-1.01038, 1, 33, 128, 160
-1.01038, 49, 33, 176, 160
-1.01038, 241, 33, 365, 160
-1.01038, 17, 81, 144, 208
-1.01038, 241, 81, 365, 208
-1.01038, 1, 129, 128, 256
-1.01038, 1, 225, 128, 352
-1.01047, 97, 1, 352, 128
-1.01052, 1, 1, 64, 256
-1.01055, 89, 33, 152, 288
-1.0107, 97, 161, 160, 416
-1.01085, 1, 17, 256, 144
-1.01086, 65, 1, 128, 256
-1.01086, 41, 33, 104, 288
-1.01086, 65, 97, 128, 352
-1.01206, 49, 273, 112, 400
-1.01343, 105, 97, 168, 224
-1.01406, 265, 193, 328, 320
-1.01471, 25, 241, 88, 368
-1.01478, 33, 1, 96, 128
-1.01478, 113, 1, 176, 128
-1.01478, 257, 1, 320, 128
-1.01478, 281, 1, 344, 128
-1.01478, 9, 17, 72, 144
-1.01478, 137, 17, 200, 144
-1.01478, 161, 17, 224, 144
-1.01478, 185, 17, 248, 144
-1.01478, 209, 17, 272, 144
-1.01478, 233, 17, 296, 144
-1.01478, 305, 17, 365, 144
-1.01478, 57, 33, 120, 160
-1.01478, 81, 33, 144, 160
-1.01478, 33, 49, 96, 176
-1.01478, 105, 49, 168, 176
-1.01478, 257, 49, 320, 176
-1.01478, 281, 49, 344, 176
-1.01478, 9, 65, 72, 192
-1.01478, 233, 65, 296, 192
-1.01478, 305, 65, 365, 192
-1.01478, 57, 81, 120, 208
-1.01478, 81, 81, 144, 208
-1.01478, 33, 97, 96, 224
-1.01478, 257, 97, 320, 224
-1.01478, 281, 97, 344, 224
-1.01478, 9, 113, 72, 240
-1.01478, 305, 113, 365, 240
-1.01478, 57, 129, 120, 256
-1.01478, 81, 129, 144, 256
-1.01478, 33, 145, 96, 272
-1.01478, 265, 145, 328, 272
-1.01478, 9, 161, 72, 288
-1.01478, 289, 161, 352, 288
-1.01478, 57, 177, 120, 304
-1.01478, 81, 177, 144, 304
-1.01478, 33, 193, 96, 320
-1.01478, 1, 209, 64, 336
-1.01478, 57, 225, 120, 352
-1.01478, 81, 225, 144, 352
-1.01478, 1, 257, 64, 384
-1.01699, 97, 33, 352, 288
-1.01941, 241, 225, 304, 352
-1.01947, 73, 273, 136, 400
