1936
-0.606227, 1, 97, 500, 351
-0.707295, 1, 1, 500, 256
-0.728108, 1, 1, 500, 351
-0.77129, 65, 1, 320, 351
-0.819238, 193, 1, 448, 351
-0.868229, 97, 97, 352, 351
-0.869926, 1, 65, 256, 320
-0.928548, 1, 193, 500, 320
-0.930137, 33, 1, 160, 351
-0.93638, 225, 97, 480, 351
-0.9368, 1, 129, 500, 256
-0.938704, 113, 65, 240, 320
-0.941849, 177, 97, 304, 351
-0.942361, 81, 1, 208, 351
-0.942654, 129, 1, 256, 351
-0.945224, 17, 65, 144, 320
-0.94632, 177, 1, 304, 351
-0.947487, 65, 65, 192, 320
-0.950442, 1, 161, 256, 288
-0.950992, 305, 1, 432, 351
-0.951924, 241, 97, 368, 351
-0.952053, 353, 1, 480, 351
-0.955125, 225, 1, 352, 351
-0.957875, 305, 97, 432, 351
-0.958386, 257, 209, 500, 336
-0.959477, 49, 161, 176, 288
-0.961594, 1, 209, 256, 336
-0.961901, 97, 177, 352, 304
-0.964196, 353, 97, 480, 351
-0.964234, 1, 161, 128, 288
-0.966129, 321, 201, 384, 264
-0.966457, 89, 161, 152, 288
-0.966678, 49, 161, 112, 288
-0.968131, 289, 193, 416, 320
-0.968673, 1, 193, 64, 320
-0.968751, 1, 113, 256, 240
-0.97111, 25, 193, 88, 320
-0.972358, 329, 193, 392, 320
-0.973373, 113, 161, 176, 288
-0.973589, 1, 81, 500, 208
-0.973835, 97, 129, 352, 256
-0.973952, 1, 145, 64, 272
-0.974111, 345, 209, 408, 272
-0.974525, 97, 193, 224, 320
-0.974739, 97, 209, 160, 272
-0.974837, 17, 209, 144, 336
-0.975118, 353, 1, 480, 256
-0.97525, 225, 217, 288, 280
-0.975633, 193, 209, 256, 272
-0.976038, 1, 113, 128, 240
-0.976228, 305, 193, 368, 320
-0.977253, 289, 225, 352, 288
-0.977831, 65, 209, 128, 272
-0.978113, 177, 1, 304, 256
-0.978134, 25, 145, 88, 272
-0.978646, 289, 209, 416, 272
-0.97911, 249, 217, 312, 280
-0.979249, 273, 193, 336, 320
-0.97951, 41, 209, 104, 272
-0.979555, 113, 209, 176, 336
-0.979731, 193, 161, 448, 288
-0.979785, 121, 209, 184, 272
-0.979887, 169, 217, 232, 280
-0.979944, 145, 193, 272, 320
-0.98053, 193, 193, 320, 320
-0.980573, 49, 113, 176, 240
-0.980592, 129, 185, 192, 248
-0.981105, 153, 193, 216, 256
-0.981379, 241, 209, 368, 336
-0.981438, 97, 177, 160, 240
-0.981475, 317, 209, 348, 272
-0.981659, 129, 225, 384, 351
-0.981804, 145, 209, 272, 272
-0.981988, 73, 209, 136, 336
-0.982285, 97, 129, 224, 256
-0.982443, 1, 17, 500, 144
-0.98273, 241, 217, 368, 280
-0.98274, 17, 209, 80, 272
-0.982919, 145, 193, 208, 320
-0.983012, 337, 209, 464, 336
-0.983094, 49, 209, 112, 336
-0.9831, 65, 209, 192, 272
-0.983306, 353, 209, 416, 336
-0.983444, 49, 113, 112, 240
-0.983667, 73, 169, 136, 232
-0.983871, 73, 113, 136, 240
-0.984007, 305, 1, 432, 256
-0.984112, 289, 201, 352, 264
-0.984272, 333, 209, 364, 272
-0.9845, 1, 65, 256, 192
-0.984531, 345, 201, 376, 264
-0.984729, 145, 217, 208, 280
-0.984911, 345, 233, 408, 296
-0.984947, 369, 217, 432, 280
-0.985163, 1, 209, 128, 272
-0.985204, 193, 217, 320, 280
-0.985879, 369, 161, 496, 288
-0.985943, 369, 217, 400, 280
-0.985986, 49, 177, 176, 240
-0.986094, 33, 169, 96, 232
-0.986106, 145, 129, 272, 256
-0.986201, 217, 193, 280, 320
-0.986206, 337, 217, 464, 280
-0.986282, 113, 185, 240, 248
-0.986292, 377, 193, 440, 320
-0.986327, 257, 1, 384, 256
-0.986557, 85, 161, 116, 288
-0.986692, 33, 193, 64, 320
-0.986817, 97, 81, 352, 208
-0.986886, 225, 193, 352, 256
-0.98689, 357, 209, 388, 272
-0.987115, 97, 161, 128, 288
-0.987297, 249, 193, 312, 320
-0.987346, 1, 169, 128, 232
-0.98735, 233, 193, 296, 256
-0.987504, 201, 185, 264, 248
-0.987739, 53, 161, 84, 288
-0.987745, 145, 129, 208, 256
-0.987799, 253, 217, 284, 280
-0.987818, 73, 161, 104, 288
-0.98851, 77, 209, 108, 272
-0.988818, 265, 193, 328, 256
-0.988837, 109, 161, 140, 288
-0.988849, 321, 225, 384, 288
-0.988976, 237, 217, 268, 280
-0.98919, 365, 193, 396, 320
-0.989224, 97, 113, 160, 240
-0.989313, 333, 193, 364, 320
-0.989352, 17, 193, 48, 320
-0.989376, 125, 209, 156, 272
-0.989405, 201, 209, 232, 272
-0.989446, 1, 185, 64, 248
-0.989446, 125, 161, 156, 288
-0.989486, 105, 209, 136, 272
-0.989513, 221, 209, 252, 272
-0.989539, 169, 193, 232, 320
-0.989674, 177, 185, 240, 248
-0.989683, 13, 145, 44, 272
-0.989708, 289, 233, 416, 296
-0.989759, 305, 217, 336, 280
-0.990028, 225, 145, 352, 272
-0.990131, 329, 209, 392, 240
-0.990444, 417, 209, 480, 336
-0.990445, 225, 241, 288, 304
-0.990488, 393, 217, 456, 280
-0.990488, 257, 241, 320, 304
-0.990493, 345, 193, 376, 320
-0.990513, 305, 217, 368, 248
-0.990514, 193, 193, 256, 320
-0.990616, 157, 217, 188, 280
-0.990685, 25, 145, 56, 272
-0.990703, 1, 145, 32, 272
-0.99084, 273, 221, 336, 252
-0.99085, 1, 193, 32, 320
-0.990864, 161, 185, 288, 248
-0.990982, 65, 209, 96, 272
-0.991021, 317, 193, 348, 320
-0.991092, 89, 209, 120, 272
-0.991154, 249, 225, 312, 256
-0.99121, 137, 209, 168, 272
-0.991231, 293, 225, 324, 288
-0.99126, 353, 185, 480, 248
-0.991265, 137, 161, 168, 288
-0.99127, 121, 113, 184, 240
-0.991298, 377, 241, 440, 304
-0.99137, 305, 205, 368, 236
-0.991399, 337, 241, 464, 304
-0.991461, 17, 201, 48, 264
-0.991491, 273, 209, 336, 240
-0.991606, 185, 217, 216, 280
-0.991631, 53, 209, 84, 272
-0.991652, 169, 217, 200, 280
-0.991752, 97, 81, 224, 208
-0.991782, 265, 217, 296, 280
-0.9918, 273, 185, 400, 248
-0.99182, 129, 65, 192, 320
-0.991901, 201, 217, 264, 248
-0.991937, 345, 221, 408, 252
-0.992018, 377, 229, 440, 260
-0.992153, 9, 161, 72, 224
-0.992203, 1, 65, 128, 192
-0.992205, 225, 221, 288, 252
-0.992217, 41, 209, 72, 272
-0.992225, 117, 169, 148, 232
-0.992311, 177, 213, 240, 244
-0.992324, 145, 209, 208, 240
-0.992325, 145, 185, 176, 248
-0.992329, 321, 229, 384, 260
-0.992409, 345, 233, 408, 264
-0.992437, 105, 217, 168, 248
-0.992492, 313, 217, 344, 248
-0.992498, 409, 241, 472, 304
-0.992513, 181, 193, 212, 256
-0.992528, 369, 193, 432, 256
-0.992534, 209, 245, 272, 276
-0.992546, 41, 145, 72, 272
-0.992549, 33, 213, 96, 244
-0.992566, 73, 205, 136, 236
-0.992569, 249, 213, 312, 244
-0.992573, 389, 217, 420, 280
-0.99258, 153, 225, 216, 256
-0.992581, 129, 221, 192, 252
-0.992589, 57, 217, 120, 248
-0.992598, 277, 217, 308, 280
-0.992599, 265, 253, 328, 284
-0.992628, 41, 201, 104, 232
-0.992644, 193, 241, 320, 304
-0.992661, 297, 229, 360, 260
-0.992709, 233, 249, 296, 280
-0.992723, 25, 97, 88, 224
-0.992745, 97, 205, 160, 236
-0.992746, 273, 233, 336, 264
-0.992747, 169, 201, 232, 232
-0.992747, 289, 249, 352, 280
-0.992751, 145, 197, 208, 228
-0.992767, 185, 237, 248, 268
-0.992782, 313, 145, 376, 272
-0.992783, 433, 225, 496, 256
-0.992841, 289, 249, 352, 312
-0.992851, 201, 201, 264, 232
-0.992889, 145, 237, 208, 268
-0.992889, 353, 209, 416, 240
-0.992893, 81, 217, 144, 248
-0.992923, 357, 209, 388, 240
-0.99294, 101, 209, 132, 336
-0.992951, 333, 229, 364, 260
-0.992963, 1, 209, 64, 240
-0.992994, 121, 205, 184, 236
-0.992995, 297, 221, 328, 252
-0.993001, 317, 205, 348, 236
-0.993004, 377, 213, 440, 244
-0.993007, 249, 237, 312, 268
-0.993011, 321, 233, 352, 296
-0.993012, 93, 169, 124, 232
-0.993017, 161, 249, 224, 280
-0.993021, 345, 245, 408, 276
-0.993028, 369, 221, 400, 252
-0.993031, 129, 177, 160, 240
-0.993037, 89, 209, 120, 336
-0.993045, 241, 201, 304, 232
-0.993046, 377, 241, 440, 272
-0.993065, 17, 197, 80, 228
-0.993081, 341, 205, 372, 236
-0.9931, 29, 209, 60, 272
-0.993108, 329, 209, 360, 240
-0.993122, 121, 237, 184, 268
-0.993132, 193, 209, 448, 272
-0.993133, 301, 209, 332, 240
-0.993145, 381, 229, 412, 260
-0.993185, 89, 177, 152, 208
-0.993222, 149, 193, 180, 320
-0.993229, 65, 209, 320, 272
-0.99323, 253, 225, 284, 256
-0.993234, 273, 225, 304, 256
-0.993239, 169, 193, 200, 256
-0.993251, 285, 225, 316, 256
-0.993275, 217, 233, 280, 264
-0.993293, 329, 197, 392, 228
-0.993302, 73, 233, 136, 264
-0.993308, 321, 249, 384, 312
-0.993315, 425, 237, 488, 268
-0.993324, 145, 81, 272, 208
-0.993327, 237, 221, 268, 252
-0.993333, 321, 229, 352, 260
-0.993335, 113, 193, 176, 224
-0.99335, 201, 213, 232, 244
-0.993352, 105, 169, 136, 232
-0.993352, 241, 241, 368, 304
-0.993391, 33, 233, 96, 264
-0.993391, 349, 221, 380, 252
-0.993396, 97, 233, 160, 264
-0.993396, 369, 209, 400, 240
-0.993409, 49, 173, 112, 204
-0.993409, 185, 249, 248, 280
-0.993418, 113, 177, 176, 208
-0.99342, 189, 217, 220, 248
-0.99344, 469, 229, 500, 260
-0.993442, 5, 201, 36, 264
-0.993455, 189, 201, 220, 232
-0.993462, 317, 241, 348, 272
-0.993462, 417, 217, 480, 280
-0.993463, 309, 229, 340, 260
-0.993472, 49, 249, 112, 280
-0.993473, 313, 241, 376, 272
-0.993476, 381, 209, 412, 240
-0.993478, 265, 249, 296, 280
-0.993478, 401, 229, 464, 260
-0.993487, 213, 213, 244, 244
-0.993488, 285, 213, 316, 244
-0.993489, 73, 217, 104, 248
-0.993489, 401, 245, 464, 276
-0.993492, 369, 237, 400, 268
-0.993496, 177, 209, 208, 240
-0.993505, 133, 217, 164, 248
-0.993509, 177, 225, 240, 256
-0.993511, 257, 237, 288, 268
-0.993512, 225, 217, 256, 248
-0.993516, 137, 249, 200, 280
-0.993517, 165, 221, 196, 252
-0.993518, 233, 237, 264, 268
-0.993525, 177, 221, 208, 252
-0.993525, 89, 217, 120, 248
-0.993535, 261, 213, 292, 244
-0.993537, 157, 209, 188, 240
-0.993537, 181, 237, 212, 268
-0.993538, 61, 217, 92, 248
-0.993539, 89, 205, 120, 236
-0.993544, 113, 217, 144, 248
-0.993547, 201, 237, 232, 268
-0.993556, 393, 229, 424, 260
-0.99356, 221, 237, 252, 268
-0.993562, 145, 221, 176, 252
-0.993563, 101, 205, 132, 236
-0.993565, 37, 213, 68, 244
-0.993568, 273, 213, 304, 244
-0.993578, 25, 173, 88, 204
-0.993581, 137, 205, 168, 236
-0.993586, 9, 249, 72, 280
-0.993586, 101, 217, 132, 248
-0.993588, 49, 213, 80, 244
-0.993589, 125, 205, 156, 236
-0.993595, 201, 201, 232, 232
-0.993596, 457, 229, 488, 260
-0.993596, 385, 241, 416, 272
-0.993603, 245, 249, 276, 280
-0.993609, 233, 201, 264, 232
-0.993609, 277, 257, 308, 288
-0.993611, 297, 249, 328, 280
-0.993612, 73, 201, 104, 232
-0.993616, 113, 205, 144, 236
-0.993617, 97, 245, 160, 276
-0.993621, 61, 201, 92, 232
-0.993631, 305, 193, 368, 224
-0.993637, 361, 197, 424, 228
-0.993639, 169, 237, 200, 268
-0.993641, 273, 197, 336, 228
-0.993641, 149, 197, 180, 228
-0.993641, 353, 233, 384, 264
-0.993646, 289, 261, 352, 292
-0.993647, 25, 209, 56, 240
-0.99365, 245, 237, 276, 268
-0.993654, 45, 201, 76, 232
-0.993662, 329, 241, 360, 272
-0.993664, 157, 237, 188, 268
-0.993671, 117, 177, 148, 208
-0.993672, 277, 245, 308, 276
-0.993684, 345, 185, 408, 248
-0.993686, 297, 233, 328, 264
-0.99369, 49, 209, 80, 336
-0.993692, 137, 185, 200, 216
-0.993695, 177, 249, 208, 280
-0.993699, 249, 213, 280, 244
-0.993706, 257, 265, 320, 296
-0.993707, 125, 233, 156, 264
-0.993708, 9, 209, 40, 240
-0.99371, 425, 245, 456, 276
-0.993713, 233, 261, 296, 292
-0.993714, 105, 173, 136, 204
-0.99372, 397, 245, 428, 276
-0.993722, 425, 249, 488, 280
-0.993722, 329, 197, 360, 228
-0.993723, 405, 229, 436, 260
-0.993726, 165, 249, 196, 280
-0.993726, 353, 161, 416, 288
-0.993727, 113, 233, 144, 264
-0.993727, 353, 197, 384, 228
-0.993728, 373, 249, 404, 280
-0.99373, 221, 201, 252, 232
-0.993733, 61, 233, 92, 264
-0.993736, 33, 197, 64, 228
-0.993738, 129, 181, 160, 212
-0.993738, 137, 233, 168, 264
-0.99374, 17, 193, 48, 224
-0.993744, 101, 233, 132, 264
-0.993745, 89, 173, 120, 204
-0.993745, 177, 197, 208, 228
-0.993745, 393, 217, 424, 248
-0.993746, 417, 229, 448, 260
-0.993747, 317, 253, 348, 284
-0.993757, 41, 233, 72, 264
-0.993758, 73, 173, 104, 204
-0.993764, 137, 193, 168, 224
-0.993765, 441, 245, 472, 276
-0.993766, 73, 233, 104, 264
-0.993766, 469, 245, 500, 276
-0.993767, 189, 249, 220, 280
-0.99377, 133, 245, 164, 276
-0.993774, 413, 245, 444, 276
-0.993789, 73, 249, 136, 280
-0.993789, 161, 197, 192, 228
-0.993793, 89, 193, 152, 224
-0.993794, 85, 233, 116, 264
-0.993794, 145, 245, 176, 276
-0.993795, 61, 173, 92, 204
-0.993796, 357, 245, 388, 276
-0.993797, 441, 225, 472, 256
-0.993806, 61, 249, 92, 280
-0.99381, 249, 201, 280, 232
-0.993817, 293, 261, 324, 292
-0.993825, 209, 117, 240, 148
-0.993828, 297, 197, 328, 228
-0.993831, 29, 233, 60, 264
-0.993831, 121, 245, 152, 276
-0.993832, 125, 193, 156, 224
-0.993833, 457, 241, 488, 272
-0.993833, 45, 249, 76, 280
-0.993834, 429, 229, 460, 260
-0.993836, 1, 189, 32, 220
-0.993838, 365, 197, 396, 228
-0.993843, 49, 173, 80, 204
-0.993846, 209, 249, 240, 280
-0.993851, 185, 121, 248, 152
-0.993859, 301, 193, 332, 320
-0.993877, 1, 233, 64, 264
-0.993884, 193, 113, 448, 240
-0.993887, 325, 185, 356, 248
-0.993888, 313, 253, 376, 284
-0.993893, 1, 157, 64, 188
-0.993903, 81, 165, 144, 196
-0.993966, 321, 277, 384, 308
-0.993967, 49, 65, 176, 192
-0.993974, 209, 257, 272, 288
-0.993994, 129, 209, 160, 336
-0.994015, 161, 129, 224, 160
-0.994028, 65, 185, 128, 216
-0.994033, 193, 189, 256, 220
-0.994041, 409, 217, 472, 248
-0.994041, 65, 233, 192, 296
-0.994046, 137, 169, 200, 200
-0.994072, 57, 101, 120, 132
-0.994083, 169, 321, 232, 351
-0.994085, 57, 161, 120, 192
-0.994101, 337, 257, 400, 288
-0.994112, 209, 125, 272, 156
-0.99413, 153, 113, 216, 144
-0.994135, 345, 281, 408, 312
-0.994148, 369, 253, 432, 284
-0.994151, 81, 113, 112, 240
-0.994182, 361, 317, 424, 348
-0.994188, 113, 137, 176, 168
-0.994198, 433, 185, 496, 216
-0.9942, 25, 161, 88, 192
-0.994203, 313, 265, 376, 296
-0.994205, 41, 185, 104, 216
-0.994205, 353, 269, 416, 300
-0.994217, 1, 185, 64, 216
-0.994217, 73, 1, 136, 351
-0.99422, 1, 169, 64, 200
-0.994234, 409, 1, 472, 32
-0.994234, 345, 29, 408, 60
-0.994241, 157, 193, 188, 256
-0.994247, 49, 117, 112, 148
-0.994253, 97, 257, 160, 288
-0.994255, 241, 185, 304, 216
-0.994255, 385, 321, 448, 351
-0.99426, 105, 165, 168, 196
-0.994271, 25, 113, 88, 144
-0.994276, 1, 221, 64, 252
-0.994309, 33, 97, 96, 128
-0.994315, 393, 261, 456, 292
-0.994316, 153, 65, 216, 320
-0.994318, 81, 129, 144, 160
-0.994318, 33, 261, 96, 292
-0.994336, 57, 261, 120, 292
-0.994343, 81, 105, 144, 136
-0.994345, 169, 189, 232, 220
-0.994357, 1, 261, 64, 292
-0.994366, 121, 321, 184, 351
-0.99438, 417, 265, 480, 296
-0.994383, 377, 273, 440, 304
-0.99439, 137, 129, 200, 160
-0.994398, 401, 301, 464, 332
-0.994401, 1, 105, 64, 136
-0.994402, 289, 209, 416, 240
-0.994405, 53, 113, 84, 240
-0.994406, 137, 141, 200, 172
-0.994481, 161, 193, 192, 320
-0.994612, 237, 193, 268, 256
-0.99464, 81, 233, 144, 296
-0.994682, 69, 169, 100, 232
-0.994713, 129, 185, 384, 248
-0.99473, 145, 241, 272, 304
-0.99479, 65, 113, 96, 240
-0.994838, 49, 1, 112, 351
-0.994847, 97, 1, 160, 351
-0.994848, 1, 177, 256, 240
-0.99485, 433, 241, 496, 304
-0.994898, 113, 145, 240, 208
-0.994913, 81, 105, 208, 168
-0.994926, 233, 97, 296, 351
-0.994979, 265, 145, 328, 272
-0.994981, 77, 209, 108, 336
-0.994993, 57, 169, 88, 232
-0.995014, 33, 185, 64, 248
-0.995045, 105, 65, 168, 320
-0.995058, 17, 233, 144, 296
-0.995084, 169, 129, 232, 256
-0.995104, 57, 241, 120, 304
-0.99525, 113, 209, 144, 336
-0.995297, 1, 201, 500, 264
-0.995313, 97, 113, 128, 240
-0.995324, 25, 1, 88, 351
-0.995422, 33, 129, 160, 192
-0.995429, 129, 1, 192, 351
-0.995564, 281, 193, 312, 320
-0.995575, 145, 113, 272, 176
-0.995584, 293, 193, 324, 256
-0.995603, 345, 225, 376, 288
-0.995603, 65, 209, 96, 336
-0.995708, 241, 265, 368, 328
-0.995849, 339, 209, 354, 272
-0.995872, 289, 221, 416, 252
-0.99594, 225, 225, 352, 256
-0.995956, 153, 169, 216, 232
-0.995982, 81, 169, 112, 232
-0.995982, 323, 201, 338, 264
-0.996004, 201, 241, 264, 304
-0.996023, 33, 97, 160, 160
-0.996028, 81, 65, 144, 320
-0.996042, 49, 153, 176, 216
-0.996124, 329, 209, 344, 272
-0.99613, 317, 209, 332, 272
-0.996148, 305, 177, 368, 240
-0.996183, 33, 241, 96, 304
-0.996184, 371, 209, 386, 272
-0.99623, 45, 169, 76, 232
-0.996288, 369, 193, 400, 256
-0.996302, 225, 205, 352, 236
-0.996305, 177, 217, 304, 248
-0.996314, 173, 193, 204, 320
-0.996336, 177, 1, 240, 351
-0.996357, 333, 145, 364, 272
-0.996442, 253, 193, 284, 320
-0.996486, 1, 233, 64, 296
-0.996509, 1, 1, 64, 351
-0.996527, 201, 185, 232, 248
-0.996543, 213, 185, 244, 248
-0.996565, 97, 153, 160, 216
-0.996566, 313, 185, 344, 248
-0.996577, 1, 65, 64, 192
-0.996639, 361, 201, 376, 264
-0.99666, 149, 129, 180, 256
-0.996688, 257, 1, 500, 128
-0.996709, 209, 97, 272, 351
-0.99672, 269, 249, 300, 312
-0.996747, 401, 225, 432, 288
-0.99676, 225, 169, 352, 232
-0.996788, 337, 265, 464, 328
-0.996793, 265, 193, 296, 320
-0.996844, 257, 217, 272, 280
-0.996922, 273, 97, 336, 351
-0.99696, 333, 233, 364, 296
-0.996962, 265, 217, 280, 280
-0.996968, 121, 97, 184, 160
-0.997025, 351, 201, 366, 264
-0.997068, 117, 113, 148, 240
-0.99709, 241, 217, 256, 280
-0.997096, 107, 209, 122, 272
-0.997127, 311, 209, 326, 272
-0.997144, 207, 209, 222, 272
-0.997158, 201, 193, 232, 320
-0.997172, 87, 209, 102, 272
-0.997174, 381, 217, 396, 280
-0.997181, 139, 209, 154, 272
-0.997185, 113, 221, 240, 252
-0.997205, 101, 209, 116, 272
-0.997206, 249, 193, 280, 256
-0.997227, 249, 1, 312, 351
-0.997233, 49, 217, 176, 248
-0.997248, 313, 145, 344, 272
-0.99725, 81, 97, 144, 160
-0.997266, 251, 217, 266, 280
-0.997267, 353, 145, 384, 272
-0.997273, 121, 161, 184, 224
-0.997308, 225, 233, 480, 296
-0.99734, 329, 1, 392, 351
-0.997344, 345, 201, 360, 264
-0.997347, 49, 205, 176, 236
-0.997369, 81, 209, 96, 272
-0.997385, 193, 121, 320, 184
-0.997387, 231, 209, 246, 272
-0.997391, 289, 145, 352, 272
-0.997391, 145, 205, 272, 236
-0.997406, 163, 217, 178, 280
-0.997408, 97, 205, 224, 236
-0.997412, 377, 209, 408, 336
-0.997429, 67, 209, 82, 272
-0.997437, 129, 201, 144, 264
-0.99746, 57, 97, 120, 160
-0.997461, 175, 217, 190, 280
-0.997462, 123, 201, 138, 264
-0.997481, 201, 209, 216, 272
-0.997501, 361, 1, 424, 351
-0.997506, 113, 209, 128, 272
-0.997506, 169, 217, 184, 280
-0.997508, 55, 209, 70, 272
-0.997509, 215, 209, 230, 272
-0.997515, 81, 129, 144, 192
-0.997521, 25, 201, 40, 264
-0.997522, 1, 225, 500, 288
-0.997548, 1, 213, 128, 244
-0.997552, 201, 129, 264, 256
-0.997561, 157, 217, 172, 280
-0.997566, 73, 209, 88, 272
-0.997582, 145, 81, 208, 208
-0.997585, 147, 217, 162, 280
-0.997603, 271, 217, 286, 280
-0.997604, 289, 245, 416, 276
-0.997611, 391, 217, 406, 280
-0.997616, 181, 217, 196, 280
-0.997618, 93, 209, 108, 272
-0.997619, 331, 233, 346, 296
-0.997624, 223, 209, 238, 272
-0.997659, 225, 237, 352, 268
-0.997659, 289, 265, 416, 328
-0.997671, 241, 209, 272, 336
-0.997679, 61, 209, 76, 272
-0.997688, 301, 225, 316, 288
-0.997718, 369, 225, 496, 256
-0.997723, 277, 217, 292, 280
-0.997728, 321, 97, 384, 351
-0.99773, 153, 1, 216, 351
-0.99773, 357, 185, 388, 248
-0.997732, 115, 169, 130, 232
-0.997739, 135, 177, 150, 240
-0.997742, 317, 209, 332, 240
-0.997747, 195, 217, 210, 280
-0.997749, 33, 209, 48, 272
-0.99775, 121, 137, 184, 200
-0.997753, 145, 105, 208, 168
-0.997765, 1, 177, 500, 240
-0.997767, 41, 209, 56, 272
-0.997778, 177, 249, 304, 280
-0.997785, 47, 209, 62, 272
-0.997795, 187, 217, 202, 280
-0.99781, 19, 201, 34, 264
-0.997826, 9, 177, 40, 240
-0.997827, 189, 193, 220, 320
-0.997835, 385, 1, 448, 351
-0.997864, 185, 65, 248, 320
-0.997871, 195, 193, 210, 256
-0.997872, 225, 185, 256, 248
-0.997876, 193, 265, 320, 328
-0.997878, 125, 169, 140, 232
-0.997889, 289, 145, 416, 272
-0.997901, 33, 233, 288, 296
-0.997903, 209, 1, 272, 351
-0.997932, 5, 201, 20, 264
-0.997943, 113, 245, 240, 276
-0.997945, 173, 185, 188, 248
-0.997954, 109, 169, 124, 232
-0.99796, 81, 81, 208, 144
-0.997964, 295, 225, 310, 288
-0.997969, 225, 65, 480, 192
-0.99797, 147, 185, 162, 248
-0.99797, 181, 193, 196, 256
-0.997985, 141, 185, 156, 248
-0.997989, 321, 289, 448, 351
-0.99799, 381, 225, 396, 256
-0.997997, 283, 217, 298, 280
-0.997999, 11, 201, 26, 264
-0.997999, 33, 173, 160, 204
-0.998001, 317, 185, 332, 248
-0.998002, 217, 193, 248, 320
-0.998003, 129, 33, 384, 160
-0.998009, 339, 185, 354, 248
-0.998018, 329, 185, 344, 248
-0.998019, 229, 193, 260, 320
-0.998043, 57, 65, 120, 320
-0.998048, 289, 217, 304, 280
-0.99805, 161, 237, 288, 268
-0.998055, 433, 1, 496, 351
-0.998057, 373, 209, 388, 240
-0.998069, 1, 201, 128, 232
-0.998071, 167, 193, 182, 256
-0.998071, 187, 193, 202, 256
-0.998095, 311, 221, 326, 252
-0.9981, 121, 233, 184, 296
-0.998103, 25, 89, 88, 152
-0.99811, 257, 249, 288, 312
-0.998136, 73, 169, 88, 232
-0.998137, 243, 193, 258, 256
-0.998142, 103, 169, 118, 232
-0.998147, 399, 225, 414, 288
-0.998152, 159, 185, 174, 248
-0.998162, 281, 1, 344, 351
-0.998169, 95, 169, 110, 232
-0.998182, 65, 169, 80, 232
-0.998192, 193, 113, 256, 176
-0.998197, 41, 249, 72, 264
-0.998197, 89, 177, 120, 192
-0.998197, 297, 265, 328, 280
-0.998197, 25, 205, 56, 220
-0.998197, 289, 241, 320, 256
-0.998198, 137, 113, 168, 240
-0.998199, 149, 215, 180, 230
-0.998199, 369, 249, 400, 264
-0.9982, 1, 209, 32, 224
-0.998201, 369, 205, 400, 220
-0.998201, 331, 217, 346, 248
-0.998201, 193, 207, 224, 222
-0.998201, 113, 247, 144, 262
-0.998201, 285, 269, 316, 284
-0.998201, 129, 209, 160, 224
-0.998203, 79, 169, 94, 232
-0.998203, 277, 241, 308, 256
-0.998204, 89, 259, 120, 274
-0.998204, 161, 249, 192, 264
-0.998205, 469, 239, 500, 254
-0.998205, 261, 263, 292, 278
-0.998205, 249, 213, 280, 228
-0.998206, 129, 191, 160, 206
-0.998207, 101, 177, 132, 192
-0.998207, 125, 179, 156, 194
-0.998207, 113, 189, 144, 204
-0.998207, 113, 253, 144, 268
-0.998208, 249, 251, 280, 266
-0.998208, 65, 249, 96, 264
-0.998209, 21, 255, 52, 270
-0.998209, 285, 261, 316, 276
-0.998209, 249, 239, 280, 254
-0.99821, 201, 249, 232, 264
-0.99821, 441, 247, 472, 262
-0.99821, 301, 245, 332, 260
-0.99821, 289, 233, 320, 248
-0.99821, 237, 215, 268, 230
-0.99821, 101, 247, 132, 262
-0.998211, 89, 213, 120, 228
-0.998212, 193, 129, 224, 144
-0.998212, 117, 209, 148, 224
-0.998213, 465, 249, 496, 264
-0.998214, 429, 247, 460, 262
-0.998214, 5, 259, 36, 274
-0.998215, 417, 249, 448, 264
-0.998217, 333, 251, 364, 266
-0.998217, 129, 247, 160, 262
-0.998218, 257, 245, 288, 260
-0.99822, 269, 233, 300, 248
-0.998222, 161, 217, 192, 232
-0.998223, 393, 225, 424, 240
-0.998224, 249, 265, 312, 328
-0.998224, 397, 249, 428, 264
-0.998224, 333, 245, 364, 260
-0.998224, 221, 249, 252, 264
-0.998225, 89, 247, 120, 262
-0.998226, 101, 255, 132, 270
-0.998226, 381, 249, 412, 264
-0.998227, 357, 205, 388, 220
-0.998227, 273, 253, 304, 268
-0.998229, 13, 209, 44, 224
-0.99823, 321, 255, 352, 270
-0.998231, 101, 217, 132, 232
-0.998232, 237, 249, 268, 264
-0.998233, 113, 177, 144, 192
-0.998233, 59, 169, 74, 232
-0.998234, 77, 249, 108, 264
-0.998235, 41, 215, 72, 230
-0.998235, 365, 237, 396, 252
-0.998235, 57, 145, 120, 208
-0.998236, 253, 233, 284, 248
-0.998238, 81, 219, 112, 234
-0.998238, 125, 185, 156, 200
-0.998238, 61, 217, 92, 232
-0.998239, 33, 255, 64, 270
-0.998239, 329, 239, 360, 254
-0.99824, 177, 251, 208, 266
-0.99824, 353, 233, 384, 248
-0.998241, 165, 223, 196, 238
-0.998243, 229, 239, 260, 254
-0.998244, 205, 211, 236, 226
-0.998244, 29, 213, 60, 228
-0.998246, 185, 213, 216, 228
-0.998246, 469, 231, 500, 246
-0.998247, 45, 255, 76, 270
-0.998251, 113, 217, 144, 232
-0.998252, 189, 249, 220, 264
-0.998253, 361, 225, 376, 288
-0.998254, 173, 217, 204, 232
-0.998255, 57, 255, 88, 270
-0.998256, 273, 259, 304, 274
-0.998256, 133, 219, 164, 234
-0.998258, 225, 217, 256, 232
-0.99826, 209, 217, 240, 232
-0.99826, 341, 219, 372, 234
-0.998263, 89, 253, 120, 268
-0.998264, 301, 237, 332, 252
-0.998267, 297, 209, 328, 224
-0.998269, 261, 255, 292, 270
-0.998269, 145, 221, 176, 236
-0.99827, 321, 9, 448, 72
-0.998275, 385, 241, 416, 256
-0.998276, 281, 241, 312, 304
-0.998277, 237, 193, 252, 256
-0.998278, 277, 221, 308, 236
-0.99828, 345, 203, 376, 218
-0.998281, 289, 227, 320, 242
-0.998284, 265, 225, 296, 240
-0.998285, 257, 219, 288, 234
-0.998287, 381, 229, 412, 244
-0.998287, 377, 215, 408, 230
-0.998287, 73, 255, 104, 270
-0.998288, 325, 213, 340, 244
-0.998288, 185, 221, 216, 236
-0.99829, 321, 245, 352, 260
-0.998291, 365, 243, 396, 258
-0.998293, 65, 233, 192, 264
-0.998295, 153, 185, 168, 248
-0.998301, 277, 227, 308, 242
-0.998303, 197, 217, 228, 232
-0.998304, 35, 185, 50, 248
-0.998306, 325, 205, 356, 220
-0.998309, 317, 235, 348, 250
-0.998309, 237, 221, 268, 236
-0.998312, 253, 225, 284, 240
-0.998318, 349, 227, 380, 242
-0.998321, 317, 229, 348, 244
-0.998324, 329, 221, 360, 236
-0.998324, 289, 221, 320, 236
-0.998328, 297, 215, 328, 230
-0.998332, 361, 217, 392, 232
-0.998332, 369, 229, 400, 244
-0.998333, 333, 233, 364, 248
-0.998335, 305, 1, 368, 351
-0.998336, 369, 213, 496, 244
-0.998338, 381, 221, 412, 236
-0.998339, 129, 241, 384, 304
-0.998339, 349, 225, 364, 288
-0.998359, 339, 233, 354, 296
-0.998369, 301, 227, 332, 242
-0.998377, 313, 209, 344, 224
-0.998378, 317, 221, 332, 252
-0.998381, 21, 177, 52, 240
-0.998384, 357, 211, 388, 226
-0.998388, 329, 227, 360, 242
-0.998395, 97, 193, 224, 224
-0.998397, 301, 221, 332, 236
-0.998403, 329, 211, 360, 226
-0.998407, 339, 209, 354, 240
-0.998407, 377, 193, 392, 256
-0.998408, 249, 193, 264, 256
-0.998412, 275, 249, 290, 312
-0.998412, 265, 193, 296, 256
-0.998413, 369, 223, 400, 238
-0.998416, 207, 185, 222, 248
-0.998417, 357, 233, 388, 296
-0.998434, 85, 169, 100, 232
-0.998436, 385, 241, 416, 304
-0.998438, 345, 209, 376, 224
-0.998459, 375, 221, 390, 252
-0.998463, 1, 73, 128, 136
-0.998465, 305, 201, 320, 264
-0.998466, 333, 229, 348, 260
-0.998473, 337, 245, 464, 276
-0.998474, 313, 223, 344, 238
-0.998481, 405, 225, 420, 288
-0.998482, 387, 229, 402, 260
-0.998488, 25, 33, 88, 288
-0.998503, 317, 215, 348, 230
-0.998507, 297, 225, 312, 256
-0.998509, 307, 209, 322, 240
-0.99851, 329, 211, 392, 226
-0.998523, 389, 225, 420, 351
-0.998526, 255, 193, 270, 256
-0.998526, 323, 225, 338, 288
-0.998543, 113, 233, 240, 264
-0.998547, 41, 185, 56, 248
-0.998551, 355, 225, 370, 288
-0.998553, 201, 185, 216, 248
-0.998553, 353, 205, 368, 236
-0.998555, 371, 185, 386, 248
-0.998564, 291, 225, 306, 256
-0.998568, 347, 205, 362, 236
-0.998572, 341, 221, 356, 252
-0.998578, 303, 225, 318, 256
-0.998582, 305, 211, 368, 226
-0.998582, 257, 225, 272, 256
-0.998585, 367, 209, 382, 240
-0.99859, 331, 205, 346, 236
-0.998595, 201, 217, 264, 232
-0.998599, 327, 233, 342, 264
-0.998602, 297, 223, 360, 238
-0.998606, 305, 217, 368, 232
-0.998607, 273, 223, 336, 238
-0.998626, 47, 185, 62, 248
-0.998626, 337, 221, 400, 236
-0.99863, 267, 241, 282, 304
-0.99863, 251, 221, 266, 252
-0.998636, 213, 185, 228, 248
-0.998649, 257, 257, 384, 288
-0.998651, 321, 229, 384, 244
-0.998652, 281, 217, 344, 232
-0.998652, 361, 225, 424, 240
-0.998655, 249, 227, 312, 242
-0.998658, 433, 193, 464, 320
-0.998662, 289, 233, 416, 264
-0.998664, 285, 225, 300, 256
-0.998666, 53, 185, 68, 248
-0.998669, 49, 193, 176, 224
-0.998672, 249, 219, 312, 234
-0.998678, 229, 185, 244, 248
-0.99868, 105, 217, 168, 232
-0.99868, 383, 213, 398, 244
-0.998682, 289, 233, 352, 248
-0.998683, 433, 161, 496, 288
-0.998684, 257, 185, 500, 248
-0.998688, 65, 137, 320, 200
-0.998689, 305, 205, 368, 220
-0.998691, 257, 259, 320, 274
-0.998691, 153, 213, 216, 228
-0.998692, 345, 243, 408, 258
-0.998695, 311, 185, 326, 248
-0.998699, 273, 211, 336, 226
-0.998703, 345, 231, 408, 246
-0.998703, 321, 273, 384, 336
-0.998703, 413, 225, 428, 288
-0.998703, 217, 249, 280, 264
-0.998703, 225, 221, 288, 236
-0.998705, 161, 221, 224, 236
-0.998707, 65, 251, 128, 266
-0.99871, 129, 221, 192, 236
-0.998711, 279, 225, 294, 256
-0.998712, 41, 255, 104, 270
-0.998712, 321, 237, 384, 252
-0.998712, 329, 205, 392, 220
-0.998713, 377, 219, 440, 234
-0.998714, 9, 211, 72, 226
-0.998715, 129, 89, 256, 152
-0.998716, 41, 217, 104, 232
-0.998718, 265, 233, 328, 248
-0.998721, 273, 225, 288, 256
-0.998725, 369, 239, 432, 254
-0.998728, 393, 241, 408, 304
-0.998728, 153, 251, 216, 266
-0.998729, 17, 233, 144, 264
-0.998729, 65, 219, 128, 234
-0.99873, 273, 249, 336, 264
-0.998732, 89, 249, 152, 264
-0.998734, 193, 249, 256, 264
-0.998735, 469, 209, 500, 336
-0.998735, 81, 177, 144, 192
-0.998736, 353, 213, 416, 228
-0.998737, 17, 255, 80, 270
-0.998737, 345, 249, 408, 264
-0.998737, 249, 245, 312, 260
-0.998738, 417, 247, 480, 262
-0.998738, 241, 213, 304, 228
-0.998739, 289, 239, 352, 254
-0.998742, 245, 241, 276, 304
-0.998744, 369, 249, 432, 264
-0.998747, 313, 243, 376, 258
-0.998748, 241, 233, 304, 248
-0.998748, 485, 229, 500, 260
-0.998749, 385, 225, 448, 240
-0.998749, 73, 207, 136, 222
-0.99875, 297, 249, 360, 264
-0.998751, 281, 265, 344, 280
-0.998751, 369, 231, 432, 246
-0.998752, 241, 253, 304, 268
-0.998752, 369, 207, 432, 222
-0.998754, 193, 337, 256, 351
-0.998754, 129, 247, 192, 262
-0.998756, 41, 249, 104, 264
-0.998756, 113, 255, 176, 270
-0.998757, 369, 1, 496, 128
-0.998757, 265, 205, 328, 220
-0.998757, 193, 211, 256, 226
-0.998757, 97, 209, 160, 224
-0.998758, 265, 239, 328, 254
-0.99876, 113, 185, 176, 200
-0.99876, 89, 255, 152, 270
-0.998761, 217, 255, 280, 270
-0.998762, 129, 209, 192, 224
-0.998762, 393, 247, 456, 262
-0.998763, 225, 239, 288, 254
-0.998763, 105, 179, 168, 194
-0.998765, 257, 269, 320, 284
-0.998765, 289, 255, 352, 270
-0.998767, 129, 197, 192, 212
-0.998767, 321, 249, 384, 264
-0.998768, 177, 239, 240, 254
-0.998769, 201, 239, 264, 254
-0.99877, 223, 185, 238, 248
-0.998771, 105, 191, 168, 206
-0.998771, 33, 203, 96, 218
-0.998772, 225, 227, 288, 242
-0.998773, 217, 261, 280, 276
-0.998773, 33, 209, 96, 224
-0.998774, 283, 249, 298, 312
-0.998774, 153, 201, 216, 216
-0.998774, 73, 213, 136, 228
-0.998774, 201, 217, 216, 248
-0.998775, 41, 175, 104, 190
-0.998776, 433, 227, 496, 242
-0.998776, 65, 245, 192, 276
-0.998777, 433, 239, 496, 254
-0.998777, 153, 243, 216, 258
-0.998778, 137, 187, 200, 202
-0.998778, 361, 325, 424, 340
-0.998778, 263, 193, 278, 256
-0.99878, 81, 243, 144, 258
-0.998781, 305, 261, 368, 276
-0.998782, 185, 129, 248, 144
-0.998782, 169, 207, 232, 222
-0.998783, 81, 261, 144, 276
-0.998783, 345, 237, 408, 252
-0.998783, 385, 329, 448, 344
-0.998784, 65, 235, 128, 250
-0.998785, 209, 201, 272, 216
-0.998787, 97, 237, 160, 252
-0.998787, 17, 249, 80, 264
-0.998788, 145, 335, 208, 350
-0.998788, 9, 233, 72, 248
-0.998788, 209, 233, 272, 248
-0.998788, 89, 199, 152, 214
-0.998789, 129, 215, 192, 230
-0.99879, 393, 239, 456, 254
-0.998791, 241, 203, 304, 218
-0.998792, 153, 237, 216, 252
-0.998792, 409, 227, 472, 242
-0.998793, 177, 259, 240, 274
-0.998793, 161, 129, 224, 144
-0.998794, 263, 225, 278, 256
-0.998794, 9, 199, 72, 214
-0.998795, 145, 241, 208, 304
-0.998796, 89, 185, 152, 200
-0.998796, 353, 201, 416, 216
-0.998796, 433, 189, 496, 204
-0.998797, 129, 237, 192, 252
-0.998798, 49, 243, 112, 258
-0.998798, 1, 205, 64, 220
-0.998799, 185, 123, 248, 138
-0.998802, 313, 255, 376, 270
-0.998802, 73, 171, 136, 186
-0.998803, 225, 267, 288, 282
-0.998803, 361, 311, 424, 326
-0.998803, 105, 337, 168, 351
-0.998804, 209, 129, 272, 144
-0.998804, 177, 331, 240, 346
-0.998804, 361, 319, 424, 334
-0.998805, 401, 321, 464, 336
-0.998806, 65, 199, 128, 214
-0.99881, 359, 205, 374, 236
-0.998815, 323, 201, 338, 232
-0.998817, 393, 229, 408, 260
-0.998821, 307, 233, 322, 296
-0.998822, 245, 217, 260, 248
-0.998839, 17, 177, 32, 240
-0.998844, 271, 253, 286, 284
-0.99885, 297, 213, 312, 244
-0.998853, 349, 229, 364, 260
-0.99886, 297, 201, 312, 264
-0.998865, 81, 181, 208, 212
-0.998867, 425, 241, 440, 304
-0.998868, 289, 249, 304, 312
-0.998875, 195, 217, 210, 248
-0.998878, 1, 257, 128, 320
-0.998882, 419, 225, 434, 288
-0.998886, 369, 289, 496, 351
-0.998887, 383, 193, 398, 256
-0.998888, 213, 213, 228, 244
-0.998894, 85, 217, 100, 248
-0.998895, 479, 229, 494, 260
-0.998897, 375, 233, 390, 264
-0.998913, 313, 233, 328, 296
-0.998919, 469, 229, 484, 260
-0.998925, 95, 217, 110, 248
-0.998925, 385, 245, 400, 276
-0.998928, 433, 225, 448, 288
-0.998928, 1, 17, 256, 144
-0.99893, 291, 213, 306, 244
-0.998935, 79, 217, 94, 248
-0.998945, 275, 193, 290, 256
-0.998946, 11, 177, 26, 240
-0.998947, 339, 233, 354, 264
-0.998947, 193, 201, 208, 232
-0.998958, 175, 221, 190, 252
-0.998961, 23, 177, 38, 240
-0.998967, 203, 201, 218, 232
-0.998972, 159, 221, 174, 252
-0.998973, 353, 197, 480, 228
-0.998974, 189, 221, 204, 252
-0.998976, 367, 233, 382, 296
-0.998978, 177, 241, 240, 304
-0.998979, 285, 213, 300, 244
-0.998979, 221, 237, 236, 268
-0.99898, 369, 1, 496, 64
-0.998982, 331, 245, 346, 276
-0.998988, 277, 249, 292, 280
-0.998988, 101, 217, 116, 248
-0.998991, 199, 237, 214, 268
-0.998993, 437, 241, 468, 304
-0.998993, 207, 217, 222, 248
-0.998996, 183, 221, 198, 252
-0.999002, 211, 237, 226, 268
-0.999003, 391, 217, 406, 248
-0.999005, 165, 221, 180, 252
-0.999005, 317, 233, 332, 264
-0.99901, 125, 217, 140, 248
-0.999015, 33, 97, 288, 160
-0.999015, 115, 217, 130, 248
-0.999016, 161, 153, 288, 216
-0.999018, 29, 177, 44, 240
-0.999019, 381, 161, 412, 288
-0.999019, 249, 237, 264, 268
-0.99902, 445, 241, 460, 304
-0.999021, 409, 209, 440, 336
-0.99903, 105, 205, 120, 236
-0.999031, 133, 205, 148, 236
-0.999032, 109, 217, 124, 248
-0.999034, 159, 209, 174, 240
-0.999038, 387, 241, 402, 304
-0.999039, 263, 213, 278, 244
-0.99904, 5, 177, 20, 240
-0.999042, 227, 237, 242, 268
-0.999044, 71, 217, 86, 248
-0.999045, 133, 217, 148, 248
-0.999046, 153, 221, 168, 252
-0.999051, 171, 209, 186, 240
-0.999053, 187, 209, 202, 240
-0.999054, 219, 213, 234, 244
-0.999055, 229, 217, 244, 248
-0.999056, 187, 237, 202, 268
-0.999056, 229, 241, 244, 304
-0.999058, 143, 217, 158, 248
-0.999059, 181, 205, 196, 236
-0.999065, 115, 205, 130, 236
-0.999066, 161, 129, 192, 256
-0.999067, 63, 213, 78, 244
-0.999067, 409, 1, 472, 351
-0.999068, 269, 241, 284, 272
-0.999074, 273, 213, 288, 244
-0.999075, 123, 205, 138, 236
-0.999076, 165, 209, 180, 240
-0.999081, 463, 229, 478, 260
-0.999084, 287, 257, 302, 288
-0.999085, 53, 213, 68, 244
-0.999086, 463, 217, 478, 280
-0.999091, 279, 209, 294, 240
-0.999092, 145, 129, 272, 160
-0.999093, 205, 237, 220, 268
-0.999095, 143, 205, 158, 236
-0.999096, 417, 225, 448, 288
-0.999097, 369, 233, 384, 264
-0.999099, 349, 249, 364, 312
-0.999099, 239, 217, 254, 248
-0.9991, 99, 205, 114, 236
-0.999102, 153, 205, 168, 236
-0.999102, 209, 201, 224, 232
-0.999104, 365, 221, 380, 252
-0.999105, 43, 213, 58, 244
-0.99911, 313, 245, 328, 276
-0.999112, 181, 237, 196, 268
-0.999113, 235, 237, 250, 268
-0.999113, 265, 257, 280, 288
-0.999114, 247, 241, 262, 304
-0.999115, 401, 229, 416, 260
-0.999118, 93, 205, 108, 236
-0.999121, 269, 193, 284, 256
-0.999122, 321, 249, 336, 280
-0.999123, 241, 237, 256, 268
-0.999127, 1, 189, 128, 220
-0.999135, 379, 245, 394, 276
-0.99914, 305, 197, 432, 228
-0.999146, 257, 213, 272, 244
-0.999146, 127, 177, 142, 208
-0.999153, 73, 201, 88, 232
-0.999154, 87, 201, 102, 232
-0.999156, 295, 257, 310, 288
-0.999156, 225, 193, 352, 224
-0.999157, 33, 209, 48, 240
-0.999159, 1, 249, 128, 280
-0.999168, 321, 41, 448, 104
-0.99917, 171, 237, 186, 268
-0.999173, 79, 201, 94, 232
-0.999177, 259, 237, 274, 268
-0.999177, 363, 233, 378, 264
-0.999181, 225, 97, 352, 160
-0.999189, 317, 197, 332, 228
-0.99919, 351, 217, 366, 248
-0.999196, 255, 249, 270, 280
-0.999197, 411, 229, 426, 260
-0.999197, 49, 65, 112, 192
-0.999199, 193, 237, 208, 268
-0.999204, 367, 197, 382, 228
-0.999206, 339, 197, 354, 228
-0.999214, 311, 233, 326, 264
-0.999244, 445, 225, 476, 351
-0.999261, 177, 193, 304, 224
-0.999268, 89, 161, 104, 288
-0.999269, 97, 161, 112, 288
-0.99927, 137, 65, 168, 320
-0.99927, 105, 161, 120, 288
-0.99927, 241, 269, 368, 300
-0.999274, 169, 105, 232, 168
-0.999293, 83, 161, 98, 288
-0.999293, 225, 257, 480, 320
-0.999302, 233, 145, 296, 272
-0.999308, 113, 117, 240, 148
-0.999326, 41, 193, 56, 320
-0.99933, 305, 257, 432, 288
-0.999336, 47, 193, 62, 320
-0.999338, 369, 25, 496, 88
-0.999349, 353, 269, 480, 300
-0.999356, 77, 161, 92, 288
-0.999386, 113, 161, 128, 288
-0.999387, 35, 193, 50, 320
-0.999391, 69, 161, 84, 288
-0.999404, 29, 193, 44, 320
-0.99941, 55, 161, 70, 288
-0.999416, 305, 277, 432, 308
-0.999417, 149, 65, 180, 320
-0.99942, 119, 161, 134, 288
-0.999423, 5, 193, 20, 320
-0.999428, 19, 145, 34, 272
-0.999432, 121, 65, 184, 192
-0.999437, 61, 161, 76, 288
-0.999438, 133, 161, 148, 288
-0.99944, 23, 193, 38, 320
-0.999443, 17, 193, 32, 320
-0.999444, 105, 219, 120, 234
-0.999444, 33, 161, 160, 192
-0.999444, 39, 213, 54, 228
-0.999444, 139, 185, 154, 200
-0.999444, 397, 249, 412, 264
-0.999444, 117, 177, 132, 192
-0.999445, 201, 249, 216, 264
-0.999445, 199, 213, 214, 228
-0.999445, 213, 211, 228, 226
-0.999446, 341, 217, 356, 232
-0.999446, 277, 253, 292, 268
-0.999447, 5, 145, 20, 272
-0.999447, 265, 263, 280, 278
-0.999447, 395, 223, 410, 238
-0.999447, 49, 215, 64, 230
-0.999447, 355, 203, 370, 218
-0.999448, 313, 249, 328, 264
-0.999448, 77, 217, 92, 232
-0.999448, 263, 253, 278, 268
-0.999448, 203, 129, 218, 144
-0.999449, 269, 219, 284, 234
-0.999449, 39, 255, 54, 270
-0.99945, 243, 239, 258, 254
-0.99945, 205, 211, 220, 226
-0.99945, 111, 255, 126, 270
-0.999451, 51, 255, 66, 270
-0.999451, 187, 217, 202, 232
-0.999451, 373, 207, 388, 222
-0.999451, 13, 145, 28, 272
-0.999452, 71, 255, 86, 270
-0.999452, 191, 249, 206, 264
-0.999452, 91, 219, 106, 234
-0.999452, 111, 217, 126, 232
-0.999453, 159, 221, 174, 236
-0.999453, 213, 217, 228, 232
-0.999454, 251, 217, 266, 232
-0.999454, 229, 217, 244, 232
-0.999455, 169, 221, 184, 236
-0.999455, 333, 203, 348, 218
-0.999455, 141, 219, 156, 234
-0.999455, 351, 193, 366, 320
-0.999455, 123, 177, 138, 192
-0.999456, 357, 223, 372, 238
-0.999456, 365, 229, 380, 244
-0.999456, 249, 249, 264, 264
-0.999457, 275, 219, 290, 234
-0.999457, 299, 233, 314, 248
-0.999458, 185, 223, 200, 238
-0.999458, 99, 249, 114, 264
-0.999459, 335, 245, 350, 260
-0.999459, 347, 219, 362, 234
-0.99946, 25, 145, 40, 272
-0.99946, 127, 161, 142, 288
-0.99946, 357, 229, 372, 244
-0.99946, 89, 247, 104, 262
-0.99946, 383, 249, 398, 264
-0.99946, 375, 193, 390, 320
-0.99946, 319, 245, 334, 260
-0.999461, 349, 203, 364, 218
-0.999461, 393, 229, 408, 244
-0.999461, 365, 223, 380, 238
-0.999461, 45, 255, 60, 270
-0.999462, 57, 255, 72, 270
-0.999463, 391, 249, 406, 264
-0.999463, 339, 177, 354, 304
-0.999463, 257, 233, 272, 248
-0.999463, 151, 221, 166, 236
-0.999464, 317, 239, 332, 254
-0.999464, 381, 233, 396, 248
-0.999465, 339, 235, 354, 250
-0.999466, 97, 255, 112, 270
-0.999468, 239, 219, 254, 234
-0.999468, 179, 223, 194, 238
-0.999468, 373, 233, 388, 248
-0.999469, 263, 219, 278, 234
-0.999474, 63, 255, 78, 270
-0.999474, 77, 255, 92, 270
-0.999474, 245, 219, 260, 234
-0.999474, 291, 219, 306, 234
-0.999476, 381, 243, 396, 258
-0.999476, 103, 255, 118, 270
-0.999477, 485, 231, 500, 246
-0.999477, 323, 205, 338, 220
-0.999478, 281, 219, 296, 234
-0.999478, 269, 257, 284, 272
-0.999479, 83, 255, 98, 270
-0.999479, 139, 161, 154, 288
-0.99948, 375, 241, 390, 256
-0.999481, 351, 227, 366, 242
-0.999481, 323, 231, 338, 246
-0.999482, 207, 217, 222, 232
-0.999482, 383, 215, 398, 230
-0.999483, 41, 145, 56, 272
-0.999483, 91, 255, 106, 270
-0.999485, 35, 145, 50, 272
-0.999487, 257, 217, 272, 232
-0.999488, 387, 229, 402, 244
-0.999491, 335, 221, 350, 236
-0.999492, 275, 225, 290, 240
-0.999492, 309, 213, 324, 228
-0.999492, 329, 227, 344, 242
-0.999493, 201, 219, 216, 234
-0.999493, 195, 221, 210, 236
-0.999495, 387, 241, 402, 256
-0.999497, 297, 227, 312, 242
-0.999497, 11, 193, 26, 320
-0.999503, 267, 225, 282, 240
-0.999505, 147, 161, 162, 288
-0.999507, 105, 209, 120, 336
-0.999508, 281, 225, 296, 240
-0.999509, 333, 215, 348, 230
-0.99951, 329, 193, 344, 320
-0.99951, 323, 225, 338, 240
-0.999511, 291, 225, 306, 240
-0.999511, 345, 193, 360, 320
-0.999514, 315, 227, 330, 242
-0.999515, 329, 243, 344, 258
-0.99952, 327, 237, 342, 252
-0.99952, 303, 227, 318, 242
-0.999521, 251, 223, 266, 238
-0.999522, 315, 193, 330, 320
-0.999524, 65, 109, 192, 140
-0.999524, 333, 235, 348, 250
-0.999525, 299, 221, 314, 236
-0.999525, 257, 225, 272, 240
-0.999529, 257, 97, 288, 351
-0.99953, 339, 205, 354, 220
-0.999532, 351, 209, 366, 224
-0.999533, 153, 161, 168, 288
-0.999536, 99, 209, 114, 336
-0.999537, 327, 217, 342, 232
-0.99954, 389, 223, 404, 238
-0.999543, 341, 223, 356, 238
-0.999544, 359, 209, 374, 224
-0.999546, 49, 145, 64, 272
-0.999547, 421, 209, 452, 336
-0.999551, 375, 227, 390, 242
-0.999552, 161, 65, 192, 320
-0.999555, 345, 209, 360, 224
-0.999555, 341, 229, 356, 244
-0.999557, 353, 161, 480, 224
-0.999562, 17, 65, 48, 192
-0.999563, 257, 9, 384, 72
-0.999567, 1, 249, 500, 312
-0.999569, 373, 221, 388, 236
-0.99957, 335, 227, 350, 242
-0.99957, 93, 113, 108, 240
-0.99957, 111, 209, 126, 336
-0.999575, 329, 209, 344, 224
-0.999576, 159, 193, 174, 320
-0.999577, 307, 209, 322, 336
-0.999578, 367, 211, 382, 226
-0.999579, 381, 209, 396, 336
-0.999579, 309, 227, 324, 242
-0.99958, 93, 209, 108, 336
-0.999587, 125, 65, 156, 320
-0.999589, 323, 211, 338, 226
-0.999589, 383, 221, 398, 236
-0.99959, 273, 129, 400, 192
-0.999604, 193, 261, 320, 292
-0.999604, 361, 193, 376, 320
-0.999605, 307, 219, 322, 234
-0.999605, 317, 209, 332, 224
-0.999607, 83, 113, 98, 240
-0.999608, 369, 193, 384, 320
-0.999611, 151, 209, 166, 336
-0.999611, 99, 113, 114, 240
-0.999614, 373, 213, 388, 228
-0.999614, 317, 221, 332, 236
-0.999618, 119, 209, 134, 336
-0.999619, 339, 211, 354, 226
-0.99962, 381, 227, 396, 242
-0.999624, 377, 145, 440, 272
-0.999625, 75, 113, 90, 240
-0.999628, 317, 215, 332, 230
-0.999628, 137, 209, 152, 336
-0.999628, 129, 181, 256, 212
-0.999633, 53, 209, 68, 336
-0.999635, 87, 209, 102, 336
-0.999635, 143, 209, 158, 336
-0.999636, 269, 97, 300, 351
-0.999638, 165, 193, 180, 320
-0.999639, 49, 121, 112, 184
-0.999649, 79, 209, 94, 336
-0.999653, 301, 209, 316, 336
-0.999655, 33, 161, 64, 224
-0.999658, 277, 193, 292, 320
-0.999665, 65, 209, 80, 336
-0.999672, 59, 209, 74, 336
-0.999673, 283, 193, 298, 320
-0.999674, 129, 209, 144, 336
-0.999674, 113, 165, 240, 196
-0.999674, 69, 113, 84, 240
-0.999678, 485, 209, 500, 336
-0.99968, 105, 113, 120, 240
-0.999686, 71, 209, 86, 336
-0.99969, 305, 161, 432, 224
-0.999691, 61, 113, 76, 240
-0.999693, 145, 33, 272, 160
-0.999702, 433, 217, 464, 280
-0.999703, 65, 133, 192, 164
-0.999703, 289, 193, 304, 320
-0.999705, 159, 129, 174, 256
-0.999707, 173, 65, 204, 320
-0.999709, 127, 113, 142, 240
-0.999709, 381, 193, 412, 256
-0.999712, 1, 93, 128, 124
-0.999713, 111, 113, 126, 240
-0.999717, 323, 193, 338, 320
-0.999718, 55, 113, 70, 240
-0.999719, 119, 113, 134, 240
-0.999722, 345, 177, 376, 240
-0.999722, 193, 125, 320, 156
-0.999722, 321, 289, 448, 320
-0.999722, 305, 317, 432, 348
-0.999724, 295, 193, 310, 320
-0.999728, 263, 193, 278, 320
-0.999731, 213, 193, 228, 320
-0.999734, 179, 193, 194, 320
-0.999734, 113, 65, 144, 320
-0.999735, 257, 209, 272, 336
-0.999736, 173, 193, 188, 320
-0.999736, 269, 193, 284, 320
-0.999738, 245, 97, 276, 351
-0.999742, 249, 209, 264, 336
-0.999744, 191, 193, 206, 320
-0.999749, 229, 241, 260, 304
-0.999752, 197, 193, 212, 320
-0.999753, 145, 145, 208, 208
-0.999757, 439, 209, 454, 336
-0.999759, 205, 193, 220, 320
-0.99976, 189, 65, 220, 320
-0.999761, 219, 193, 234, 320
-0.999767, 235, 193, 250, 320
-0.999769, 133, 113, 148, 240
-0.999773, 185, 161, 200, 288
-0.999774, 387, 193, 402, 320
-0.999776, 335, 225, 350, 351
-0.999778, 305, 161, 320, 288
-0.999783, 185, 209, 200, 336
-0.999783, 411, 209, 426, 336
-0.999784, 241, 193, 256, 320
-0.999785, 165, 129, 180, 256
-0.99979, 401, 225, 416, 351
-0.999792, 81, 257, 208, 288
-0.999794, 327, 145, 342, 272
-0.999803, 427, 209, 442, 336
-0.999803, 227, 209, 242, 336
-0.999805, 479, 209, 494, 336
-0.999808, 351, 145, 366, 272
-0.99981, 225, 161, 240, 288
-0.999813, 393, 209, 408, 336
-0.999816, 101, 65, 132, 320
-0.99982, 445, 193, 460, 320
-0.999823, 473, 209, 488, 336
-0.999823, 139, 113, 154, 240
-0.999823, 161, 121, 416, 184
-0.999827, 451, 193, 466, 320
-0.99983, 419, 193, 434, 320
-0.99983, 1, 121, 128, 152
-0.999835, 153, 113, 168, 240
-0.999836, 31, 65, 46, 192
-0.999836, 433, 209, 448, 336
-0.999837, 21, 65, 36, 192
-0.999846, 357, 145, 372, 272
-0.999849, 65, 121, 192, 152
-0.999852, 15, 65, 30, 192
-0.999857, 247, 161, 262, 288
-0.999859, 145, 113, 160, 240
-0.999861, 37, 65, 52, 192
-0.999863, 255, 161, 270, 288
-0.999865, 459, 209, 474, 336
-0.999871, 173, 129, 188, 256
-0.999871, 365, 145, 380, 272
-0.999872, 317, 145, 332, 272
-0.999874, 345, 145, 360, 272
-0.999878, 129, 65, 256, 128
-0.999881, 179, 129, 194, 256
-0.999881, 369, 305, 496, 336
-0.999882, 401, 177, 416, 304
-0.999883, 337, 129, 352, 256
-0.999884, 45, 65, 60, 192
-0.999884, 297, 97, 360, 351
-0.999888, 321, 17, 448, 48
-0.999899, 1, 81, 64, 144
-0.999903, 229, 97, 260, 351
-0.999917, 201, 65, 232, 320
-0.999931, 177, 89, 304, 152
-0.999936, 33, 261, 160, 292
-0.99995, 97, 161, 352, 224
-0.999956, 17, 17, 144, 144
-0.999964, 25, 113, 88, 176
-0.999989, 337, 97, 368, 351
-0.99999, 369, 33, 496, 64
-0.999996, 449, 217, 480, 280
-1, 49, 97, 176, 128
-1, 89, 65, 120, 320
-1.00001, 361, 265, 424, 328
-1.00001, 353, 257, 480, 288
-1.00002, 369, 317, 496, 348
-1.00002, 37, 65, 68, 192
-1.00002, 113, 321, 240, 351
-1.00004, 285, 97, 316, 351
-1.00004, 317, 97, 348, 351
-1.00004, 17, 145, 144, 176
-1.00006, 217, 97, 248, 351
-1.00006, 1, 109, 128, 140
-1.00008, 1, 281, 128, 344
-1.00008, 113, 105, 240, 136
-1.00008, 273, 293, 400, 324
-1.00009, 1, 73, 256, 136
-1.0001, 209, 321, 336, 351
-1.00011, 361, 97, 424, 351
-1.00012, 305, 305, 432, 336
-1.00012, 433, 177, 496, 240
-1.00013, 161, 321, 288, 351
-1.00013, 369, 45, 496, 76
-1.00014, 457, 209, 488, 336
-1.00017, 57, 65, 88, 320
-1.00017, 29, 65, 60, 320
-1.00018, 177, 181, 304, 212
-1.00018, 193, 113, 320, 144
-1.00018, 81, 145, 208, 176
-1.00018, 469, 225, 500, 288
-1.00023, 369, 285, 496, 316
-1.00023, 129, 257, 256, 288
-1.00023, 129, 265, 384, 328
-1.00024, 73, 65, 104, 320
-1.00025, 257, 17, 384, 48
-1.00026, 257, 1, 500, 64
-1.00026, 129, 145, 256, 176
-1.00026, 337, 5, 464, 36
-1.00027, 45, 65, 76, 320
-1.00028, 321, 45, 448, 76
-1.00029, 369, 17, 496, 48
-1.0003, 321, 29, 448, 60
-1.0003, 193, 141, 320, 172
-1.00032, 353, 97, 384, 351
-1.00032, 297, 97, 328, 351
-1.00033, 145, 89, 272, 120
-1.00034, 1, 137, 500, 200
-1.00035, 353, 185, 480, 216
-1.00036, 225, 281, 352, 312
-1.00037, 289, 1, 416, 32
-1.00037, 273, 185, 400, 216
-1.00037, 353, 57, 480, 88
-1.00038, 273, 133, 400, 164
-1.00038, 305, 61, 432, 92
-1.00039, 173, 129, 204, 256
-1.00039, 17, 133, 144, 164
-1.0004, 5, 225, 36, 288
-1.0004, 177, 101, 304, 132
-1.00041, 401, 161, 464, 288
-1.00042, 225, 161, 480, 224
-1.00042, 5, 65, 36, 192
-1.00043, 217, 241, 248, 304
-1.00043, 369, 25, 432, 88
-1.00043, 305, 145, 432, 176
-1.00044, 177, 25, 304, 88
-1.00044, 257, 305, 384, 336
-1.00046, 61, 241, 92, 304
-1.00048, 241, 29, 368, 60
-1.00048, 17, 33, 48, 288
-1.00049, 273, 41, 400, 72
-1.00049, 241, 145, 368, 176
-1.00049, 65, 317, 192, 348
-1.0005, 5, 33, 36, 288
-1.0005, 161, 157, 288, 188
-1.00051, 241, 121, 368, 152
-1.00051, 393, 193, 456, 256
-1.00051, 365, 97, 396, 351
-1.00052, 241, 1, 368, 32
-1.00053, 225, 145, 352, 208
-1.00055, 193, 17, 320, 48
-1.00056, 1, 105, 500, 168
-1.00056, 225, 293, 352, 324
-1.00056, 1, 321, 128, 351
-1.00056, 277, 193, 308, 256
-1.00056, 337, 113, 464, 240
-1.00056, 33, 145, 96, 208
-1.00057, 221, 129, 252, 256
-1.00057, 345, 1, 408, 64
-1.00057, 1, 81, 128, 112
-1.00058, 65, 85, 192, 116
-1.00058, 97, 257, 224, 320
-1.00058, 177, 29, 304, 60
-1.00059, 225, 177, 352, 208
-1.00062, 429, 97, 460, 351
-1.00062, 449, 97, 480, 351
-1.00063, 273, 161, 400, 192
-1.00063, 161, 309, 288, 340
-1.00063, 129, 97, 384, 160
-1.00064, 409, 265, 472, 328
-1.00065, 345, 249, 376, 312
-1.00065, 145, 1, 272, 64
-1.00065, 353, 69, 480, 100
-1.00065, 409, 97, 440, 351
-1.00066, 49, 289, 176, 351
-1.00066, 353, 81, 480, 112
-1.00066, 33, 257, 288, 320
-1.00066, 337, 173, 464, 204
-1.00067, 257, 317, 384, 348
-1.00067, 193, 5, 320, 36
-1.00068, 397, 97, 428, 351
-1.00068, 381, 97, 412, 351
-1.00069, 293, 249, 324, 312
-1.0007, 17, 41, 144, 104
-1.00071, 353, 149, 480, 180
-1.00071, 1, 293, 128, 324
-1.00072, 193, 45, 320, 76
-1.00072, 297, 145, 328, 272
-1.00072, 129, 77, 256, 108
-1.00072, 193, 289, 448, 351
-1.00074, 97, 33, 224, 160
-1.00075, 177, 169, 304, 200
-1.00075, 321, 133, 448, 164
-1.00075, 73, 241, 104, 304
-1.00075, 385, 289, 448, 351
-1.00075, 409, 1, 472, 128
-1.00075, 369, 129, 496, 160
-1.00076, 217, 121, 280, 184
-1.00076, 129, 29, 256, 60
-1.00076, 465, 97, 496, 351
-1.00076, 113, 17, 240, 48
-1.00076, 193, 25, 448, 88
-1.00077, 209, 85, 336, 116
-1.00077, 197, 129, 228, 256
-1.00079, 145, 41, 272, 72
-1.0008, 225, 101, 352, 132
-1.0008, 305, 73, 432, 104
-1.0008, 225, 157, 352, 188
-1.00081, 161, 1, 416, 64
-1.00081, 225, 97, 480, 160
-1.00083, 49, 257, 176, 320
-1.00084, 1, 137, 64, 200
-1.00085, 321, 137, 448, 200
-1.00088, 417, 1, 448, 256
-1.0009, 1, 65, 64, 320
-1.00091, 17, 225, 48, 288
-1.00091, 321, 65, 448, 128
-1.00092, 161, 81, 192, 208
-1.00092, 453, 241, 484, 304
-1.00093, 405, 1, 436, 256
-1.00094, 257, 33, 384, 96
-1.00095, 65, 57, 192, 120
-1.00095, 241, 161, 272, 288
-1.00095, 97, 1, 224, 64
-1.00098, 401, 201, 432, 264
-1.00098, 169, 129, 232, 192
-1.001, 257, 289, 384, 351
-1.00101, 237, 1, 268, 256
-1.00103, 365, 1, 396, 256
-1.00109, 1, 41, 256, 104
-1.00109, 225, 49, 480, 112
-1.0011, 377, 1, 408, 256
-1.0011, 225, 1, 256, 256
-1.00111, 85, 233, 116, 296
-1.00112, 49, 65, 80, 192
-1.00114, 213, 1, 244, 256
-1.00115, 177, 65, 304, 128
-1.00116, 265, 1, 296, 256
-1.00117, 249, 1, 280, 256
-1.00117, 1, 17, 256, 80
-1.00117, 225, 169, 288, 232
-1.00117, 393, 177, 424, 304
-1.00119, 209, 129, 240, 256
-1.0012, 129, 73, 384, 136
-1.0012, 205, 113, 236, 176
-1.00121, 73, 65, 136, 192
-1.00121, 33, 289, 288, 351
-1.00123, 369, 49, 496, 112
-1.00123, 337, 1, 368, 256
-1.00124, 257, 121, 500, 184
-1.00125, 209, 289, 336, 351
-1.00131, 389, 1, 420, 256
-1.00131, 209, 1, 336, 64
-1.00131, 129, 25, 256, 88
-1.00131, 89, 97, 120, 160
-1.00131, 97, 289, 224, 351
-1.00132, 225, 73, 480, 136
-1.00134, 145, 289, 272, 351
-1.00135, 349, 1, 380, 256
-1.00136, 69, 65, 100, 192
-1.00138, 285, 1, 316, 256
-1.00138, 437, 1, 468, 256
-1.00141, 13, 153, 44, 216
-1.00141, 369, 121, 496, 184
-1.00144, 321, 1, 448, 128
-1.00144, 273, 57, 400, 120
-1.00147, 149, 81, 180, 208
-1.00149, 49, 233, 80, 296
-1.00151, 1, 105, 64, 168
-1.00154, 309, 1, 340, 256
-1.00156, 273, 105, 400, 168
-1.00158, 449, 1, 480, 256
-1.00159, 129, 49, 384, 112
-1.0016, 137, 233, 168, 296
-1.0016, 185, 145, 216, 272
-1.0016, 97, 25, 352, 88
-1.0016, 321, 1, 352, 256
-1.00162, 305, 249, 336, 312
-1.00162, 1, 273, 500, 336
-1.00163, 297, 1, 328, 256
-1.00163, 469, 1, 500, 256
-1.00163, 397, 249, 428, 312
-1.00173, 53, 89, 84, 152
-1.00174, 65, 25, 192, 88
-1.00174, 321, 105, 448, 168
-1.00174, 185, 81, 248, 208
-1.00174, 401, 9, 464, 72
-1.00183, 373, 241, 404, 304
-1.00188, 409, 249, 440, 312
-1.00191, 137, 97, 168, 160
-1.00192, 1, 81, 500, 144
-1.00194, 413, 201, 444, 264
-1.00196, 353, 161, 416, 224
-1.00201, 149, 241, 180, 304
-1.00202, 385, 1, 448, 128
-1.00202, 273, 1, 400, 128
-1.00205, 73, 89, 104, 152
-1.00209, 369, 1, 432, 64
-1.00209, 285, 145, 316, 272
-1.0021, 445, 177, 476, 304
-1.0021, 33, 249, 64, 312
-1.0021, 17, 1, 144, 64
-1.00211, 385, 265, 448, 328
-1.00213, 421, 161, 452, 288
-1.00213, 145, 265, 272, 328
-1.00214, 129, 145, 160, 208
-1.00219, 369, 81, 496, 144
-1.00224, 225, 73, 352, 136
-1.00228, 345, 25, 408, 88
-1.00228, 225, 65, 352, 192
-1.00231, 393, 97, 456, 351
-1.00234, 109, 129, 140, 192
-1.00236, 49, 73, 112, 136
-1.00238, 433, 97, 496, 351
-1.00242, 205, 241, 236, 304
-1.00243, 137, 65, 168, 192
-1.00244, 161, 241, 192, 304
-1.00251, 97, 233, 128, 296
-1.00256, 189, 169, 220, 232
-1.0026, 225, 265, 288, 328
-1.00262, 225, 97, 288, 160
-1.00263, 89, 129, 120, 192
-1.00264, 465, 161, 496, 288
-1.00264, 1, 17, 500, 80
-1.0027, 233, 113, 264, 240
-1.0027, 9, 249, 40, 312
-1.00271, 169, 81, 232, 144
-1.00273, 469, 201, 500, 264
-1.00273, 97, 73, 160, 136
-1.00276, 153, 105, 184, 168
-1.00279, 125, 233, 156, 296
-1.0028, 365, 145, 396, 272
-1.00281, 177, 105, 208, 168
-1.00286, 41, 89, 72, 152
-1.00288, 389, 1, 420, 64
-1.0029, 369, 49, 432, 112
-1.00293, 273, 81, 400, 144
-1.00296, 409, 161, 440, 288
-1.00297, 81, 65, 112, 192
-1.00297, 9, 257, 72, 320
-1.00297, 409, 289, 472, 351
-1.00303, 161, 169, 192, 232
-1.00303, 413, 1, 444, 128
-1.00303, 1, 49, 500, 112
-1.00304, 73, 145, 104, 208
-1.00306, 329, 129, 392, 192
-1.00307, 25, 49, 88, 176
-1.0031, 109, 233, 140, 296
-1.0031, 345, 289, 408, 351
-1.0031, 25, 81, 56, 144
-1.00312, 73, 73, 136, 136
-1.00315, 381, 33, 412, 96
-1.00316, 305, 49, 432, 176
-1.00318, 393, 33, 456, 96
-1.00319, 469, 177, 500, 240
-1.00319, 97, 65, 160, 192
-1.0032, 421, 249, 452, 312
-1.00321, 349, 273, 380, 336
-1.00322, 193, 105, 224, 168
-1.00327, 45, 145, 76, 208
-1.00327, 173, 241, 204, 304
-1.00333, 185, 153, 248, 216
-1.00333, 333, 257, 364, 320
-1.00337, 101, 65, 132, 192
-1.00343, 261, 145, 292, 272
-1.00345, 193, 17, 320, 144
-1.00347, 465, 249, 496, 312
-1.00349, 225, 121, 256, 184
-1.0035, 181, 65, 212, 192
-1.00353, 273, 145, 304, 272
-1.00355, 101, 89, 132, 152
-1.00358, 173, 169, 204, 232
-1.00359, 141, 137, 172, 200
-1.00363, 397, 1, 428, 128
-1.00368, 145, 65, 208, 128
-1.00368, 433, 265, 496, 328
-1.00371, 245, 113, 276, 240
-1.00372, 25, 65, 88, 128
-1.00388, 205, 81, 236, 208
-1.00394, 305, 1, 368, 64
-1.00396, 241, 129, 304, 192
-1.00403, 193, 89, 256, 152
-1.00416, 121, 65, 152, 192
-1.00419, 217, 81, 248, 208
-1.00419, 337, 113, 400, 240
-1.00422, 273, 273, 336, 336
-1.00425, 169, 33, 232, 160
-1.00425, 209, 81, 272, 208
-1.00428, 321, 25, 384, 88
-1.00428, 281, 169, 344, 232
-1.00442, 297, 281, 360, 344
-1.00451, 361, 1, 424, 128
-1.00455, 1, 49, 64, 112
-1.00455, 121, 65, 184, 128
-1.00458, 425, 9, 488, 72
-1.00458, 1, 289, 64, 351
-1.0047, 349, 1, 380, 128
-1.00472, 417, 33, 480, 96
-1.00478, 53, 17, 84, 144
-1.00492, 177, 289, 240, 351
-1.00505, 153, 1, 216, 64
-1.00512, 369, 1, 400, 128
-1.00518, 445, 1, 476, 128
-1.00518, 289, 121, 352, 184
-1.00519, 157, 33, 188, 160
-1.00522, 193, 81, 224, 208
-1.00527, 233, 65, 264, 192
-1.00528, 193, 25, 256, 88
-1.00532, 145, 33, 208, 160
-1.00533, 65, 17, 96, 144
-1.00537, 121, 257, 184, 320
-1.00538, 217, 33, 248, 160
-1.0054, 233, 1, 296, 256
-1.00543, 209, 289, 272, 351
-1.00544, 337, 49, 400, 112
-1.00544, 265, 137, 328, 200
-1.00548, 177, 1, 240, 64
-1.00548, 281, 1, 344, 64
-1.00557, 353, 1, 416, 256
-1.00558, 225, 1, 288, 64
-1.00558, 353, 137, 416, 200
-1.00562, 93, 17, 124, 144
-1.00564, 433, 289, 496, 351
-1.00564, 57, 289, 120, 351
-1.00565, 201, 33, 232, 160
-1.00566, 25, 281, 88, 344
-1.00567, 81, 17, 112, 144
-1.00569, 409, 57, 472, 120
-1.00571, 353, 49, 480, 176
-1.00574, 465, 1, 496, 128
-1.00576, 249, 105, 312, 168
-1.00584, 41, 17, 72, 144
-1.00584, 169, 33, 200, 160
-1.00586, 289, 97, 416, 224
-1.00592, 21, 17, 52, 144
-1.00594, 57, 17, 120, 144
-1.00603, 181, 17, 212, 144
-1.00604, 433, 1, 496, 128
-1.0061, 381, 1, 412, 128
-1.00612, 337, 1, 368, 128
-1.00618, 425, 1, 456, 128
-1.00628, 377, 1, 440, 256
-1.0063, 209, 1, 272, 256
-1.00632, 145, 17, 176, 144
-1.00633, 377, 113, 408, 240
-1.0064, 9, 17, 40, 144
-1.00646, 401, 1, 464, 256
-1.0065, 117, 17, 148, 144
-1.00658, 245, 49, 276, 176
-1.00658, 257, 81, 288, 208
-1.00671, 129, 17, 160, 144
-1.00682, 389, 49, 420, 176
-1.00685, 233, 65, 296, 192
-1.00689, 337, 1, 400, 128
-1.00691, 209, 17, 272, 144
-1.00696, 257, 1, 320, 256
-1.00702, 105, 17, 136, 144
-1.00707, 229, 17, 260, 144
-1.00714, 377, 49, 408, 176
-1.0072, 281, 1, 312, 128
-1.00722, 265, 17, 296, 144
-1.00739, 1, 17, 64, 144
-1.00741, 353, 49, 384, 176
-1.00749, 245, 1, 276, 128
-1.00755, 293, 1, 324, 128
-1.00764, 317, 97, 348, 224
-1.00764, 433, 145, 464, 272
-1.00765, 401, 49, 432, 176
-1.00766, 25, 1, 88, 128
-1.00778, 329, 1, 392, 256
-1.00779, 81, 17, 144, 144
-1.00793, 305, 1, 368, 128
-1.00851, 425, 1, 488, 256
-1.00854, 305, 1, 368, 256
-1.00866, 121, 17, 184, 144
-1.00874, 281, 1, 344, 256
-1.00877, 361, 49, 424, 176
-1.00948, 329, 49, 392, 176
-1.00961, 257, 81, 320, 208
-1.00985, 289, 97, 352, 224
-1.0102, 385, 49, 448, 176
-1.01022, 233, 17, 296, 144
-1.01062, 257, 33, 320, 160
-1.01104, 281, 1, 344, 128
-1.01179, 281, 49, 344, 176
-1.01181, 417, 113, 480, 240
-1.01234, 305, 49, 368, 176
-1.01295, 393, 97, 456, 224
-1.01302, 433, 49, 496, 176
-1.01318, 409, 49, 472, 176
-1.01324, 361, 97, 424, 224
-1.01443, 313, 97, 376, 224
-1.02255, 97, 1, 352, 256
-1.0232, 225, 1, 480, 256
