1890
-0.494213, 1, 65, 500, 320
-0.563111, 1, 1, 500, 335
-0.74528, 225, 1, 480, 335
-0.77636, 129, 1, 384, 335
-0.807283, 1, 1, 256, 335
-0.844066, 1, 65, 256, 320
-0.844211, 225, 65, 480, 320
-0.886138, 1, 161, 500, 288
-0.897134, 1, 209, 500, 335
-0.900176, 129, 65, 384, 320
-0.902125, 225, 193, 480, 320
-0.909454, 369, 65, 496, 320
-0.912361, 305, 65, 432, 320
-0.915706, 305, 1, 432, 335
-0.92471, 369, 1, 496, 335
-0.924859, 345, 193, 408, 320
-0.927549, 337, 209, 464, 335
-0.929083, 1, 113, 500, 240
-0.932008, 257, 65, 384, 320
-0.932846, 385, 193, 448, 320
-0.933071, 33, 65, 160, 320
-0.934711, 17, 1, 144, 335
-0.935719, 289, 177, 416, 304
-0.936063, 225, 145, 480, 272
-0.936616, 377, 145, 440, 272
-0.936851, 65, 209, 320, 335
-0.938508, 353, 161, 480, 288
-0.940206, 321, 209, 384, 335
-0.942404, 1, 65, 500, 192
-0.943663, 289, 209, 352, 335
-0.944344, 1, 145, 256, 272
-0.944818, 377, 153, 440, 216
-0.946121, 129, 161, 384, 288
-0.946999, 65, 1, 192, 335
-0.947655, 209, 65, 336, 320
-0.947829, 361, 193, 424, 256
-0.947844, 241, 1, 368, 335
-0.949211, 345, 225, 408, 288
-0.950014, 385, 241, 448, 304
-0.95068, 353, 145, 416, 272
-0.951515, 225, 97, 480, 224
-0.951569, 409, 177, 472, 304
-0.951654, 129, 1, 256, 335
-0.95304, 289, 241, 352, 304
-0.953169, 329, 145, 392, 272
-0.954853, 113, 33, 240, 288
-0.956249, 241, 193, 368, 320
-0.956693, 313, 217, 376, 280
-0.956752, 409, 129, 472, 256
-0.957051, 385, 209, 448, 272
-0.95725, 377, 265, 440, 328
-0.957371, 305, 161, 368, 288
-0.957387, 193, 193, 320, 320
-0.957836, 193, 1, 320, 335
-0.95806, 97, 209, 224, 335
-0.958191, 337, 177, 400, 240
-0.958677, 105, 209, 168, 335
-0.959503, 225, 249, 288, 312
-0.95982, 33, 209, 160, 335
-0.963085, 337, 201, 400, 264
-0.963475, 325, 225, 356, 288
-0.964832, 129, 145, 256, 272
-0.964851, 241, 273, 304, 335
-0.965237, 73, 273, 136, 335
-0.965374, 273, 129, 400, 256
-0.965636, 129, 209, 192, 335
-0.965923, 337, 233, 464, 296
-0.965948, 337, 209, 368, 272
-0.966089, 409, 249, 472, 312
-0.96631, 1, 17, 500, 144
-0.966341, 369, 177, 400, 240
-0.96646, 365, 201, 396, 264
-0.966694, 49, 273, 112, 335
-0.966833, 1, 129, 128, 256
-0.96686, 305, 209, 432, 272
-0.966996, 377, 193, 408, 320
-0.967178, 161, 65, 288, 320
-0.967224, 33, 97, 288, 224
-0.967294, 41, 233, 104, 296
-0.967338, 161, 209, 224, 335
-0.967373, 1, 193, 64, 320
-0.96739, 193, 257, 256, 320
-0.967507, 225, 145, 352, 272
-0.967792, 381, 201, 412, 264
-0.967918, 393, 185, 456, 248
-0.967952, 369, 113, 496, 240
-0.968121, 353, 193, 384, 256
-0.968291, 313, 193, 376, 256
-0.968382, 353, 273, 416, 335
-0.96857, 377, 97, 440, 224
-0.968839, 417, 137, 480, 200
-0.968883, 25, 273, 88, 335
-0.968907, 321, 249, 384, 312
-0.969071, 105, 273, 168, 335
-0.969454, 225, 145, 288, 272
-0.969489, 265, 241, 328, 304
-0.969681, 393, 145, 424, 272
-0.969697, 81, 209, 144, 335
-0.969805, 49, 145, 176, 272
-0.96989, 145, 209, 272, 335
-0.969981, 65, 129, 128, 256
-0.970177, 9, 145, 72, 272
-0.970303, 249, 193, 312, 320
-0.97065, 1, 273, 64, 335
-0.97066, 289, 241, 416, 304
-0.970882, 357, 177, 388, 304
-0.971028, 65, 233, 128, 296
-0.971111, 49, 209, 112, 335
-0.971131, 417, 161, 480, 224
-0.971204, 89, 129, 152, 256
-0.971424, 145, 257, 208, 320
-0.971491, 185, 161, 248, 288
-0.971598, 417, 273, 480, 335
-0.971696, 433, 177, 496, 304
-0.971865, 397, 209, 428, 335
-0.972044, 217, 193, 280, 320
-0.972088, 129, 129, 192, 256
-0.972222, 321, 97, 448, 224
-0.972236, 217, 273, 280, 335
-0.972441, 393, 121, 456, 184
-0.972773, 41, 209, 104, 272
-0.972887, 329, 209, 360, 335
-0.973194, 433, 129, 496, 256
-0.97339, 33, 145, 96, 272
-0.973734, 353, 265, 480, 328
-0.973744, 177, 145, 304, 272
-0.973904, 337, 233, 368, 296
-0.974098, 413, 177, 444, 304
-0.974204, 397, 233, 428, 296
-0.974398, 345, 137, 408, 200
-0.974417, 353, 209, 480, 272
-0.974754, 281, 161, 344, 288
-0.974794, 349, 217, 380, 280
-0.974909, 321, 153, 384, 216
-0.975781, 25, 209, 88, 335
-0.976244, 257, 217, 320, 280
-0.976248, 161, 249, 288, 312
-0.976338, 185, 209, 248, 335
-0.976401, 161, 145, 224, 272
-0.976457, 377, 145, 408, 272
-0.976603, 377, 265, 408, 328
-0.976618, 305, 273, 368, 335
-0.9767, 341, 193, 372, 320
-0.976874, 313, 225, 344, 288
-0.976912, 169, 241, 232, 304
-0.976963, 225, 249, 352, 312
-0.977206, 257, 145, 320, 272
-0.977282, 337, 153, 464, 216
-0.977368, 289, 185, 416, 248
-0.977431, 241, 225, 368, 288
-0.977445, 169, 273, 232, 335
-0.977548, 345, 249, 408, 312
-0.977558, 73, 209, 136, 272
-0.977593, 33, 273, 160, 335
-0.977709, 317, 209, 348, 335
-0.977818, 145, 233, 208, 296
-0.97783, 409, 209, 472, 272
-0.977869, 253, 249, 284, 312
-0.978049, 129, 97, 384, 224
-0.978065, 417, 113, 480, 176
-0.97808, 409, 193, 440, 256
-0.978123, 369, 185, 496, 248
-0.978186, 1, 97, 64, 224
-0.978289, 393, 201, 424, 264
-0.9783, 433, 233, 496, 296
-0.978517, 169, 137, 232, 200
-0.978584, 425, 153, 456, 216
-0.978716, 289, 217, 352, 280
-0.978839, 333, 257, 364, 320
-0.978853, 17, 241, 80, 304
-0.978966, 193, 153, 256, 216
-0.979054, 373, 225, 404, 288
-0.979056, 193, 273, 320, 335
-0.97912, 49, 97, 176, 224
-0.979167, 281, 153, 344, 216
-0.97923, 253, 273, 284, 335
-0.979259, 65, 145, 128, 208
-0.979361, 229, 249, 260, 312
-0.979442, 73, 273, 104, 335
-0.97945, 1, 241, 128, 304
-0.979528, 217, 137, 280, 200
-0.979661, 49, 217, 176, 280
-0.97971, 105, 217, 168, 280
-0.979748, 53, 273, 84, 335
-0.979843, 437, 249, 468, 312
-0.979973, 389, 265, 420, 328
-0.979992, 241, 145, 304, 208
-0.980193, 193, 97, 320, 224
-0.980236, 417, 233, 448, 296
-0.980241, 397, 153, 428, 216
-0.980392, 241, 241, 272, 304
-0.980593, 217, 225, 280, 288
-0.98062, 325, 161, 356, 288
-0.980722, 361, 225, 392, 288
-0.980901, 345, 97, 408, 224
-0.981055, 1, 201, 64, 264
-0.981281, 41, 97, 104, 224
-0.981299, 417, 185, 480, 248
-0.981428, 89, 249, 152, 312
-0.981613, 337, 145, 368, 272
-0.981657, 385, 241, 416, 304
-0.981776, 321, 201, 352, 264
-0.981792, 81, 273, 208, 335
-0.981874, 113, 241, 240, 304
-0.982067, 269, 273, 300, 335
-0.982211, 233, 273, 264, 335
-0.982286, 145, 273, 272, 335
-0.982321, 193, 233, 256, 296
-0.982332, 69, 233, 100, 296
-0.98239, 85, 273, 116, 335
-0.982455, 1, 129, 64, 192
-0.982575, 417, 129, 448, 256
-0.982582, 137, 209, 168, 335
-0.982706, 301, 233, 332, 296
-0.982777, 289, 185, 352, 248
-0.98285, 265, 273, 328, 335
-0.98294, 49, 249, 80, 312
-0.982991, 217, 249, 248, 312
-0.983175, 357, 129, 388, 256
-0.983213, 265, 241, 296, 304
-0.983324, 381, 177, 412, 240
-0.983364, 393, 65, 456, 320
-0.983415, 97, 153, 160, 216
-0.983453, 81, 81, 144, 208
-0.983507, 137, 273, 168, 335
-0.983574, 417, 81, 480, 208
-0.983651, 49, 209, 80, 272
-0.983759, 153, 97, 216, 224
-0.983766, 125, 265, 156, 328
-0.983896, 297, 113, 360, 240
-0.983942, 337, 185, 368, 248
-0.984021, 417, 257, 448, 320
-0.984135, 33, 273, 64, 335
-0.984211, 289, 145, 416, 208
-0.984261, 157, 257, 188, 320
-0.984265, 121, 153, 184, 216
-0.984271, 241, 273, 368, 335
-0.984288, 101, 273, 132, 335
-0.984302, 425, 177, 456, 304
-0.984305, 33, 169, 96, 232
-0.984347, 117, 209, 148, 335
-0.984412, 33, 129, 96, 192
-0.984515, 413, 153, 444, 216
-0.984598, 105, 129, 168, 192
-0.984691, 145, 153, 272, 216
-0.984739, 345, 65, 408, 320
-0.984757, 97, 49, 352, 176
-0.984846, 121, 249, 184, 312
-0.984907, 429, 129, 460, 256
-0.984915, 305, 273, 432, 335
-0.984964, 145, 97, 272, 224
-0.985058, 193, 225, 320, 288
-0.985089, 349, 241, 380, 304
-0.985111, 257, 169, 320, 232
-0.985168, 257, 49, 500, 176
-0.985197, 97, 217, 224, 280
-0.985305, 405, 129, 436, 256
-0.985311, 289, 249, 320, 312
-0.985341, 113, 273, 144, 335
-0.98539, 1, 169, 64, 232
-0.985435, 125, 129, 156, 256
-0.985524, 241, 169, 368, 232
-0.985573, 165, 209, 196, 335
-0.985598, 37, 241, 68, 304
-0.985649, 369, 65, 496, 192
-0.985661, 317, 249, 348, 312
-0.985669, 129, 81, 192, 208
-0.985686, 97, 177, 160, 240
-0.985706, 193, 257, 224, 320
-0.985708, 353, 169, 384, 232
-0.985809, 329, 273, 392, 335
-0.98588, 437, 273, 468, 335
-0.985893, 437, 137, 468, 200
-0.985986, 49, 241, 176, 304
-0.986041, 421, 177, 452, 240
-0.986134, 369, 129, 432, 192
-0.9865, 97, 97, 224, 224
-0.986587, 1, 49, 256, 176
-0.986655, 397, 177, 428, 240
-0.986659, 81, 233, 112, 296
-0.986663, 181, 257, 212, 320
-0.986681, 5, 273, 36, 335
-0.986765, 73, 169, 136, 232
-0.986768, 309, 161, 340, 288
-0.986776, 369, 121, 496, 184
-0.986789, 21, 273, 52, 335
-0.986862, 425, 129, 456, 192
-0.986874, 1, 169, 128, 232
-0.986937, 361, 273, 392, 335
-0.986973, 105, 209, 136, 335
-0.986975, 1, 177, 32, 304
-0.986992, 81, 137, 208, 200
-0.986993, 305, 209, 336, 335
-0.987022, 145, 145, 208, 208
-0.987164, 129, 177, 192, 240
-0.987189, 193, 145, 320, 208
-0.987219, 169, 217, 232, 280
-0.98725, 313, 113, 376, 176
-0.987295, 405, 257, 436, 320
-0.987437, 169, 273, 200, 335
-0.98759, 345, 197, 408, 228
-0.987607, 177, 209, 208, 335
-0.98764, 241, 201, 368, 264
-0.987801, 205, 241, 236, 304
-0.98781, 257, 97, 320, 224
-0.987871, 193, 97, 256, 224
-0.987915, 33, 105, 96, 168
-0.987966, 385, 153, 416, 216
-0.988044, 33, 193, 160, 256
-0.988139, 353, 213, 416, 244
-0.988154, 453, 121, 484, 184
-0.988266, 437, 177, 468, 304
-0.988364, 81, 113, 144, 176
-0.988411, 245, 145, 276, 272
-0.988418, 241, 145, 368, 208
-0.988422, 289, 129, 352, 192
-0.988445, 345, 233, 408, 264
-0.988454, 297, 245, 360, 276
-0.988457, 289, 121, 416, 184
-0.988468, 273, 81, 400, 208
-0.988475, 405, 129, 436, 192
-0.988514, 369, 65, 432, 320
-0.988599, 321, 273, 352, 335
-0.988613, 165, 233, 196, 296
-0.988622, 225, 225, 480, 288
-0.98865, 329, 221, 392, 252
-0.98867, 221, 273, 252, 335
-0.988837, 429, 217, 460, 280
-0.988839, 129, 113, 192, 176
-0.988988, 277, 193, 308, 320
-0.989038, 93, 233, 124, 296
-0.989039, 265, 209, 296, 335
-0.989057, 313, 233, 376, 264
-0.989095, 33, 145, 160, 208
-0.989215, 393, 241, 456, 272
-0.989243, 69, 209, 100, 272
-0.989243, 177, 233, 208, 296
-0.989251, 393, 257, 456, 288
-0.989319, 233, 145, 264, 272
-0.989328, 233, 169, 296, 232
-0.989356, 245, 193, 276, 320
-0.989403, 369, 201, 432, 232
-0.98946, 189, 209, 220, 335
-0.989518, 329, 209, 392, 240
-0.98952, 169, 169, 232, 232
-0.989525, 377, 269, 440, 300
-0.989539, 1, 105, 64, 168
-0.989541, 209, 273, 240, 335
-0.989613, 225, 249, 480, 312
-0.989627, 353, 245, 416, 276
-0.989679, 129, 177, 256, 240
-0.989723, 273, 257, 336, 288
-0.989762, 401, 269, 464, 300
-0.989787, 1, 81, 128, 208
-0.989812, 17, 145, 48, 272
-0.989835, 325, 177, 356, 240
-0.98984, 345, 113, 408, 176
-0.989874, 337, 257, 400, 288
-0.9899, 137, 201, 200, 264
-0.990072, 217, 145, 248, 272
-0.990104, 233, 257, 296, 288
-0.990125, 433, 209, 496, 272
-0.990153, 345, 301, 408, 332
-0.990164, 33, 241, 288, 304
-0.99017, 201, 177, 264, 240
-0.990181, 17, 305, 80, 335
-0.990215, 209, 121, 336, 184
-0.990232, 113, 129, 144, 256
-0.990279, 369, 189, 432, 220
-0.990283, 65, 129, 96, 256
-0.990293, 49, 209, 80, 335
-0.990301, 81, 129, 112, 256
-0.990321, 49, 145, 80, 208
-0.990323, 1, 241, 500, 304
-0.990326, 41, 233, 104, 264
-0.990352, 157, 153, 188, 216
-0.990405, 105, 81, 168, 208
-0.990405, 393, 157, 456, 188
-0.990406, 85, 129, 116, 192
-0.990407, 365, 145, 396, 208
-0.990427, 393, 205, 456, 236
-0.990445, 369, 225, 432, 256
-0.990451, 465, 129, 496, 192
-0.990458, 17, 1, 144, 128
-0.990486, 321, 245, 384, 276
-0.990495, 105, 301, 168, 332
-0.990499, 25, 65, 88, 320
-0.990521, 289, 177, 320, 304
-0.990567, 313, 257, 376, 288
-0.990582, 321, 305, 384, 335
-0.990584, 197, 153, 228, 216
-0.990609, 457, 129, 488, 256
-0.99063, 81, 177, 208, 240
-0.990639, 273, 245, 336, 276
-0.990681, 141, 129, 172, 256
-0.990686, 305, 221, 368, 252
-0.990688, 337, 185, 400, 216
-0.990758, 209, 193, 240, 320
-0.990768, 177, 293, 240, 324
-0.990777, 25, 137, 56, 200
-0.990789, 217, 305, 280, 335
-0.990812, 273, 145, 304, 208
-0.99083, 377, 177, 440, 208
-0.990859, 217, 269, 280, 300
-0.990886, 145, 297, 208, 328
-0.990889, 153, 113, 216, 176
-0.990892, 377, 281, 440, 312
-0.990893, 233, 285, 296, 316
-0.990908, 49, 301, 112, 332
-0.990945, 393, 189, 456, 220
-0.990945, 1, 113, 32, 240
-0.990961, 417, 149, 480, 180
-0.990968, 293, 153, 324, 216
-0.990986, 369, 257, 432, 288
-0.990986, 1, 121, 128, 184
-0.990997, 1, 1, 256, 128
-0.991031, 277, 249, 308, 312
-0.991103, 281, 305, 344, 335
-0.991111, 145, 217, 272, 280
-0.991113, 81, 305, 144, 335
-0.991123, 225, 153, 256, 216
-0.991175, 1, 217, 128, 280
-0.991176, 393, 229, 456, 260
-0.991176, 5, 129, 36, 192
-0.991203, 105, 241, 136, 304
-0.991207, 441, 129, 472, 256
-0.991215, 225, 225, 256, 288
-0.991218, 81, 113, 208, 176
-0.991228, 393, 145, 456, 176
-0.991232, 241, 121, 304, 184
-0.991242, 305, 209, 368, 240
-0.991255, 249, 273, 312, 304
-0.991282, 57, 113, 120, 176
-0.991285, 321, 65, 384, 320
-0.991309, 313, 185, 376, 216
-0.991313, 225, 245, 288, 276
-0.991326, 209, 153, 240, 216
-0.991361, 309, 185, 340, 248
-0.991367, 49, 129, 80, 256
-0.991368, 417, 281, 480, 312
-0.99141, 217, 97, 280, 224
-0.991418, 145, 285, 208, 316
-0.991423, 37, 209, 68, 335
-0.991432, 353, 277, 416, 308
-0.991445, 201, 293, 264, 324
-0.991454, 37, 129, 68, 192
-0.991461, 161, 241, 224, 272
-0.991466, 417, 245, 480, 276
-0.991504, 433, 261, 496, 292
-0.991544, 121, 285, 184, 316
-0.991545, 89, 209, 120, 272
-0.991561, 337, 241, 368, 272
-0.991578, 385, 293, 448, 324
-0.991582, 249, 305, 312, 335
-0.991606, 1, 65, 64, 320
-0.991628, 265, 121, 328, 184
-0.991646, 289, 233, 352, 264
-0.991647, 249, 245, 312, 276
-0.991656, 185, 245, 248, 276
-0.991702, 369, 305, 432, 335
-0.991717, 333, 229, 364, 260
-0.99173, 101, 153, 132, 216
-0.991734, 65, 241, 128, 272
-0.991739, 97, 265, 352, 328
-0.991744, 17, 229, 80, 260
-0.991754, 417, 185, 480, 216
-0.991768, 337, 289, 400, 320
-0.99178, 365, 201, 396, 232
-0.991784, 97, 217, 160, 248
-0.991822, 153, 177, 184, 304
-0.991834, 201, 281, 264, 312
-0.991853, 357, 225, 388, 256
-0.991874, 365, 213, 396, 244
-0.991875, 137, 233, 168, 296
-0.991878, 321, 197, 384, 228
-0.991888, 33, 49, 96, 176
-0.991901, 257, 153, 500, 216
-0.991904, 237, 137, 268, 200
-0.991904, 193, 305, 256, 335
-0.991937, 65, 217, 128, 248
-0.991946, 89, 281, 152, 312
-0.99195, 417, 165, 480, 196
-0.991965, 345, 221, 376, 252
-0.991965, 265, 161, 328, 192
-0.991974, 457, 177, 488, 304
-0.991989, 257, 153, 288, 216
-0.992009, 369, 157, 432, 188
-0.992015, 65, 209, 96, 335
-0.992019, 389, 209, 420, 240
-0.992039, 353, 141, 416, 172
-0.992044, 265, 161, 296, 288
-0.992055, 353, 209, 384, 240
-0.992067, 41, 245, 104, 276
-0.992067, 217, 145, 280, 176
-0.992068, 57, 273, 120, 304
-0.992082, 85, 209, 116, 335
-0.992093, 189, 145, 220, 272
-0.992094, 1, 133, 64, 164
-0.992102, 73, 229, 136, 260
-0.99213, 469, 129, 500, 256
-0.992136, 381, 197, 412, 228
-0.992142, 409, 81, 440, 208
-0.992168, 441, 225, 472, 288
-0.992174, 321, 229, 352, 260
-0.992183, 129, 121, 256, 184
-0.992184, 337, 173, 400, 204
-0.992187, 389, 269, 420, 300
-0.992198, 449, 145, 480, 208
-0.9922, 173, 137, 204, 200
-0.992209, 193, 121, 256, 184
-0.992222, 349, 197, 380, 228
-0.99223, 33, 281, 96, 312
-0.992232, 169, 277, 232, 308
-0.992253, 241, 149, 304, 180
-0.992265, 73, 293, 136, 324
-0.992265, 105, 229, 168, 260
-0.992287, 325, 241, 356, 272
-0.992294, 433, 137, 496, 168
-0.992312, 153, 137, 216, 168
-0.992314, 281, 273, 312, 335
-0.99232, 169, 149, 232, 180
-0.992331, 105, 269, 168, 300
-0.992339, 185, 257, 248, 288
-0.992344, 333, 217, 364, 248
-0.992345, 193, 233, 224, 296
-0.99235, 1, 217, 500, 280
-0.992355, 313, 293, 376, 324
-0.992358, 73, 145, 104, 208
-0.992366, 61, 129, 92, 192
-0.992368, 377, 209, 408, 240
-0.992388, 393, 217, 456, 248
-0.992389, 417, 125, 480, 156
-0.992418, 145, 161, 208, 192
-0.992418, 33, 145, 64, 272
-0.992422, 25, 269, 88, 300
-0.992427, 357, 237, 388, 268
-0.992427, 25, 137, 88, 168
-0.992428, 305, 145, 336, 208
-0.992436, 433, 65, 496, 320
-0.99245, 361, 189, 392, 220
-0.992456, 13, 209, 44, 335
-0.992468, 333, 261, 364, 292
-0.992477, 397, 257, 428, 288
-0.992484, 321, 253, 352, 284
-0.992494, 225, 201, 480, 264
-0.992505, 297, 145, 360, 176
-0.992507, 1, 273, 500, 335
-0.99251, 241, 165, 304, 196
-0.992515, 345, 153, 408, 184
-0.992516, 385, 221, 416, 252
-0.992518, 273, 269, 336, 300
-0.992533, 81, 269, 144, 300
-0.992551, 129, 265, 192, 296
-0.992562, 305, 245, 336, 276
-0.992567, 321, 97, 384, 224
-0.992576, 41, 213, 104, 244
-0.992592, 201, 233, 264, 264
-0.992599, 369, 225, 400, 256
-0.992604, 433, 229, 496, 260
-0.992609, 137, 225, 200, 256
-0.992612, 353, 1, 416, 335
-0.99262, 401, 241, 432, 272
-0.992623, 97, 145, 128, 272
-0.992624, 81, 129, 144, 160
-0.992625, 81, 177, 144, 208
-0.992628, 257, 233, 320, 264
-0.992629, 421, 261, 452, 292
-0.992647, 193, 273, 448, 335
-0.992648, 97, 141, 160, 172
-0.992656, 137, 149, 200, 180
-0.992662, 393, 133, 456, 164
-0.992662, 265, 145, 328, 176
-0.992663, 377, 269, 408, 300
-0.992673, 73, 253, 136, 284
-0.992674, 385, 253, 416, 284
-0.992675, 393, 197, 424, 228
-0.992676, 201, 161, 264, 192
-0.992678, 49, 177, 112, 208
-0.992691, 281, 217, 344, 248
-0.992693, 409, 257, 440, 288
-0.992696, 153, 181, 216, 212
-0.992702, 57, 137, 120, 168
-0.992702, 1, 177, 64, 208
-0.992707, 441, 273, 472, 304
-0.992715, 1, 189, 64, 220
-0.992717, 373, 301, 404, 332
-0.99272, 169, 305, 232, 335
-0.992721, 261, 257, 292, 288
-0.992722, 49, 229, 80, 260
-0.992723, 297, 269, 360, 300
-0.992723, 305, 245, 432, 276
-0.992724, 169, 169, 232, 200
-0.992736, 137, 297, 168, 328
-0.992743, 369, 177, 400, 208
-0.992745, 285, 257, 316, 288
-0.992751, 201, 145, 232, 272
-0.992758, 17, 293, 80, 324
-0.99276, 273, 181, 336, 212
-0.992765, 113, 117, 176, 148
-0.992772, 229, 305, 260, 335
-0.992782, 273, 249, 304, 280
-0.992786, 165, 297, 196, 328
-0.992801, 333, 205, 364, 236
-0.992809, 305, 233, 432, 264
-0.992811, 401, 269, 432, 300
-0.992827, 405, 193, 436, 224
-0.992828, 233, 193, 264, 320
-0.99283, 433, 261, 464, 292
-0.992834, 429, 249, 460, 280
-0.992837, 341, 301, 372, 332
-0.992842, 357, 293, 388, 324
-0.992871, 381, 169, 412, 200
-0.992887, 377, 237, 408, 268
-0.992889, 225, 177, 480, 240
-0.992892, 273, 269, 304, 300
-0.9929, 9, 305, 40, 335
-0.9929, 377, 177, 392, 240
-0.992916, 335, 233, 350, 296
-0.992917, 361, 305, 392, 335
-0.992919, 345, 253, 376, 284
-0.992925, 329, 225, 344, 288
-0.992926, 417, 189, 448, 220
-0.992929, 41, 305, 72, 335
-0.992929, 401, 209, 432, 240
-0.992938, 253, 269, 284, 300
-0.992952, 209, 293, 240, 324
-0.992965, 313, 217, 344, 248
-0.992965, 367, 201, 382, 264
-0.992965, 349, 185, 380, 216
-0.992971, 329, 301, 360, 332
-0.992971, 129, 137, 160, 200
-0.992976, 21, 305, 52, 335
-0.992986, 257, 281, 288, 312
-0.992994, 241, 269, 272, 300
-0.992995, 429, 273, 460, 304
-0.992999, 109, 305, 140, 335
-0.993002, 417, 145, 448, 176
-0.993011, 433, 149, 464, 180
-0.993019, 309, 233, 340, 264
-0.993019, 245, 249, 276, 280
-0.993019, 397, 229, 428, 260
-0.993023, 169, 161, 200, 224
-0.993024, 345, 265, 376, 328
-0.993026, 305, 305, 336, 335
-0.993037, 229, 253, 260, 284
-0.993039, 389, 241, 420, 272
-0.993039, 229, 289, 260, 320
-0.993047, 389, 157, 420, 188
-0.993056, 389, 281, 420, 312
-0.993075, 53, 301, 84, 332
-0.993079, 125, 301, 156, 332
-0.993087, 377, 285, 408, 316
-0.993094, 409, 157, 440, 188
-0.993099, 337, 161, 368, 224
-0.9931, 413, 273, 444, 304
-0.9931, 65, 241, 96, 272
-0.993103, 153, 233, 184, 296
-0.993107, 145, 285, 176, 316
-0.993109, 245, 289, 276, 320
-0.993112, 209, 245, 240, 276
-0.993117, 165, 285, 196, 316
-0.99312, 353, 137, 384, 200
-0.993123, 305, 221, 432, 252
-0.993134, 397, 145, 428, 176
-0.993135, 421, 157, 452, 188
-0.99314, 81, 301, 112, 332
-0.993141, 185, 145, 216, 208
-0.993141, 97, 305, 128, 335
-0.993143, 409, 221, 440, 252
-0.993144, 421, 177, 452, 208
-0.993151, 449, 145, 480, 176
-0.993154, 445, 261, 476, 292
-0.993156, 229, 269, 260, 300
-0.993174, 193, 293, 224, 324
-0.993187, 441, 249, 472, 280
-0.993197, 1, 129, 32, 160
-0.993198, 429, 137, 460, 168
-0.993205, 65, 301, 96, 332
-0.993206, 25, 225, 56, 256
-0.993207, 357, 249, 388, 280
-0.993209, 329, 185, 360, 216
-0.993213, 317, 301, 348, 332
-0.993218, 77, 241, 108, 272
-0.99323, 217, 305, 248, 335
-0.99324, 129, 217, 160, 248
-0.993241, 383, 177, 398, 240
-0.993242, 245, 305, 276, 335
-0.993248, 417, 201, 448, 232
-0.993251, 453, 129, 484, 160
-0.993252, 321, 205, 352, 236
-0.993253, 149, 297, 180, 328
-0.993255, 285, 245, 316, 276
-0.993257, 417, 241, 448, 272
-0.993258, 97, 241, 128, 272
-0.99326, 177, 285, 208, 316
-0.993262, 217, 281, 248, 312
-0.993265, 375, 201, 390, 264
-0.993266, 277, 305, 308, 335
-0.993273, 261, 245, 292, 276
-0.993275, 133, 285, 164, 316
-0.993277, 401, 281, 432, 312
-0.99328, 401, 181, 432, 212
-0.993281, 165, 241, 196, 272
-0.993287, 177, 177, 304, 240
-0.993294, 453, 273, 484, 304
-0.993295, 197, 245, 228, 276
-0.993302, 45, 249, 76, 280
-0.993304, 329, 1, 392, 335
-0.993305, 273, 149, 304, 180
-0.993307, 317, 265, 348, 296
-0.993308, 33, 237, 64, 268
-0.993315, 381, 181, 412, 212
-0.993356, 393, 97, 456, 160
-0.993358, 457, 241, 488, 304
-0.993381, 377, 97, 408, 224
-0.993392, 369, 97, 496, 160
-0.99342, 391, 193, 406, 256
-0.993502, 109, 177, 140, 240
-0.993546, 165, 161, 196, 288
-0.993603, 449, 273, 480, 335
-0.993622, 1, 273, 256, 335
-0.993638, 29, 201, 60, 264
-0.993648, 393, 1, 456, 335
-0.993677, 153, 129, 184, 256
-0.993692, 117, 241, 148, 304
-0.993713, 353, 201, 368, 264
-0.993769, 345, 233, 360, 296
-0.993788, 353, 241, 480, 272
-0.993794, 161, 153, 416, 216
-0.993906, 381, 201, 396, 264
-0.99392, 257, 237, 384, 268
-0.993932, 49, 49, 176, 176
-0.993947, 317, 153, 348, 216
-0.993957, 33, 1, 96, 128
-0.994011, 297, 65, 360, 320
-0.994072, 1, 305, 128, 335
-0.994077, 289, 305, 416, 335
-0.994093, 241, 161, 272, 224
-0.994119, 177, 129, 208, 256
-0.994124, 89, 153, 120, 216
-0.99415, 129, 209, 160, 272
-0.994183, 33, 1, 96, 335
-0.994187, 129, 241, 384, 304
-0.994282, 369, 273, 496, 304
-0.994286, 469, 177, 500, 304
-0.994301, 49, 169, 80, 232
-0.994318, 265, 113, 296, 240
-0.994357, 437, 113, 468, 176
-0.994384, 1, 185, 500, 248
-0.994387, 117, 153, 148, 216
-0.994393, 221, 193, 252, 320
-0.994402, 281, 225, 312, 288
-0.994411, 401, 233, 416, 296
-0.994442, 77, 169, 108, 232
-0.994463, 397, 201, 412, 264
-0.994467, 25, 193, 56, 320
-0.994498, 371, 177, 386, 240
-0.994504, 33, 33, 96, 96
-0.994537, 427, 153, 442, 216
-0.99454, 341, 209, 356, 272
-0.994566, 335, 209, 350, 272
-0.994601, 359, 217, 374, 280
-0.994611, 257, 253, 384, 284
-0.994632, 33, 217, 288, 280
-0.994633, 105, 1, 168, 335
-0.994637, 337, 193, 464, 224
-0.994657, 353, 229, 480, 260
-0.994714, 347, 209, 362, 272
-0.994718, 9, 49, 72, 176
-0.994835, 231, 249, 246, 312
-0.994906, 29, 97, 60, 224
-0.994932, 353, 253, 480, 284
-0.994952, 261, 249, 276, 312
-0.994956, 417, 193, 432, 256
-0.994957, 351, 233, 366, 296
-0.994958, 441, 241, 456, 304
-0.994959, 225, 129, 480, 192
-0.99497, 105, 105, 168, 168
-0.994975, 289, 209, 416, 240
-0.994979, 417, 1, 480, 335
-0.995016, 193, 249, 320, 280
-0.995057, 409, 225, 424, 288
-0.99509, 1, 1, 64, 335
-0.995104, 49, 301, 176, 332
-0.995116, 417, 153, 432, 216
-0.995131, 193, 201, 320, 264
-0.995214, 319, 233, 334, 296
-0.995218, 335, 257, 350, 320
-0.995224, 325, 201, 340, 264
-0.99523, 385, 273, 400, 335
-0.995262, 129, 209, 384, 272
-0.995304, 77, 273, 92, 335
-0.995309, 17, 25, 144, 88
-0.995336, 389, 161, 404, 224
-0.995347, 391, 257, 406, 320
-0.995369, 69, 273, 84, 335
-0.995381, 257, 97, 384, 160
-0.995394, 209, 305, 336, 335
-0.995397, 273, 89, 336, 152
-0.995404, 63, 273, 78, 335
-0.995415, 237, 249, 252, 312
-0.995421, 87, 273, 102, 335
-0.995431, 113, 297, 240, 328
-0.995432, 393, 97, 424, 224
-0.995452, 369, 105, 432, 168
-0.995465, 403, 209, 418, 272
-0.995469, 429, 81, 460, 208
-0.995474, 33, 97, 160, 160
-0.995488, 267, 273, 282, 335
-0.99549, 361, 193, 376, 256
-0.995492, 1, 153, 256, 216
-0.9955, 429, 241, 444, 304
-0.995525, 249, 241, 264, 304
-0.995532, 329, 265, 344, 328
-0.995532, 281, 1, 344, 335
-0.995587, 343, 257, 358, 320
-0.995598, 81, 89, 144, 152
-0.995617, 161, 269, 288, 300
-0.995619, 433, 153, 448, 216
-0.99565, 129, 177, 384, 240
-0.99565, 161, 289, 288, 320
-0.995652, 257, 1, 500, 128
-0.99571, 411, 201, 426, 264
-0.995726, 353, 285, 480, 316
-0.995742, 33, 229, 160, 260
-0.995749, 381, 225, 396, 288
-0.995763, 73, 233, 88, 296
-0.995764, 289, 185, 416, 216
-0.995767, 257, 265, 384, 296
-0.995788, 375, 273, 390, 335
-0.995789, 243, 241, 258, 304
-0.995805, 305, 257, 432, 288
-0.995814, 53, 273, 68, 335
-0.995816, 151, 273, 166, 335
-0.99585, 255, 249, 270, 312
-0.995865, 41, 273, 56, 335
-0.995913, 193, 209, 256, 272
-0.995938, 275, 249, 290, 312
-0.995954, 65, 249, 80, 312
-0.99596, 435, 249, 450, 312
-0.995966, 391, 217, 406, 280
-0.995966, 353, 213, 480, 244
-0.995973, 423, 177, 438, 240
-0.995979, 225, 241, 240, 304
-0.995981, 249, 265, 264, 328
-0.995992, 95, 273, 110, 335
-0.996006, 49, 241, 64, 304
-0.996015, 81, 65, 144, 320
-0.996017, 375, 225, 390, 288
-0.996019, 13, 97, 44, 224
-0.996029, 119, 273, 134, 335
-0.99604, 285, 113, 316, 240
-0.996045, 243, 265, 258, 328
-0.996063, 1, 113, 500, 176
-0.996067, 439, 137, 454, 200
-0.996068, 267, 249, 282, 312
-0.996073, 49, 217, 176, 248
-0.996084, 157, 273, 172, 335
-0.996094, 385, 249, 400, 312
-0.996109, 337, 297, 464, 328
-0.996119, 423, 257, 438, 320
-0.996123, 113, 273, 128, 335
-0.996126, 273, 273, 288, 335
-0.996127, 241, 1, 304, 335
-0.996146, 225, 265, 240, 328
-0.996156, 131, 273, 146, 335
-0.99616, 371, 217, 386, 248
-0.996182, 59, 249, 74, 312
-0.996187, 125, 273, 140, 335
-0.996187, 47, 273, 62, 335
-0.996201, 419, 233, 434, 296
-0.996207, 309, 113, 340, 240
-0.996218, 447, 249, 462, 312
-0.996231, 65, 121, 320, 184
-0.996232, 319, 201, 334, 264
-0.996258, 117, 81, 148, 208
-0.996264, 381, 145, 396, 208
-0.99627, 85, 233, 100, 296
-0.996273, 167, 273, 182, 335
-0.996275, 105, 273, 120, 335
-0.996286, 285, 265, 300, 328
-0.996289, 1, 177, 256, 240
-0.996311, 369, 149, 496, 180
-0.996318, 379, 201, 394, 232
-0.996319, 97, 241, 224, 272
-0.996331, 321, 269, 448, 300
-0.996331, 255, 273, 270, 335
-0.996339, 139, 265, 154, 328
-0.996422, 209, 285, 336, 316
-0.996429, 31, 273, 46, 335
-0.996453, 193, 257, 208, 320
-0.996456, 401, 153, 416, 216
-0.996456, 57, 1, 120, 335
-0.99646, 369, 169, 496, 200
-0.996463, 145, 265, 160, 328
-0.996478, 219, 249, 234, 312
-0.996481, 237, 273, 252, 335
-0.996498, 331, 249, 346, 280
-0.996506, 349, 241, 364, 272
-0.99652, 273, 73, 400, 136
-0.996533, 357, 205, 372, 236
-0.996569, 441, 265, 456, 328
-0.996571, 91, 233, 106, 296
-0.996583, 1, 161, 500, 224
-0.996587, 331, 185, 346, 248
-0.996596, 411, 249, 426, 312
-0.996616, 179, 257, 194, 320
-0.996645, 261, 273, 276, 335
-0.996649, 397, 257, 412, 320
-0.996662, 177, 97, 304, 160
-0.996663, 411, 153, 426, 216
-0.996688, 199, 257, 214, 320
-0.99669, 365, 225, 380, 288
-0.99669, 321, 97, 448, 160
-0.996699, 289, 285, 416, 316
-0.996718, 231, 273, 246, 335
-0.99672, 305, 145, 432, 176
-0.996722, 353, 181, 480, 212
-0.996728, 79, 233, 94, 296
-0.996734, 357, 241, 372, 304
-0.996739, 465, 81, 496, 208
-0.996742, 23, 273, 38, 335
-0.99678, 97, 233, 112, 296
-0.996786, 17, 9, 80, 72
-0.996788, 349, 229, 364, 260
-0.996798, 361, 221, 376, 252
-0.996798, 279, 273, 294, 335
-0.996803, 93, 97, 124, 224
-0.996817, 65, 209, 80, 272
-0.996817, 81, 229, 208, 260
-0.99682, 325, 229, 340, 260
-0.99682, 165, 97, 196, 224
-0.996822, 413, 273, 428, 335
-0.996823, 53, 209, 68, 272
-0.996834, 343, 241, 358, 272
-0.996835, 339, 229, 354, 260
-0.996849, 389, 193, 404, 224
-0.996853, 17, 245, 144, 276
-0.996854, 427, 129, 442, 192
-0.996862, 193, 161, 320, 192
-0.996879, 293, 249, 308, 312
-0.996881, 449, 137, 464, 200
-0.996886, 355, 233, 370, 264
-0.996886, 173, 257, 188, 320
-0.996911, 55, 145, 70, 208
-0.996912, 187, 273, 202, 335
-0.99692, 257, 221, 384, 252
-0.996923, 65, 33, 192, 96
-0.996924, 211, 257, 226, 320
-0.996931, 345, 177, 360, 240
-0.996933, 373, 181, 388, 212
-0.996948, 75, 209, 90, 272
-0.996967, 367, 193, 382, 224
-0.996971, 209, 273, 336, 304
-0.996985, 363, 169, 378, 232
-0.99699, 345, 217, 360, 248
-0.996993, 323, 257, 338, 320
-0.997002, 369, 273, 384, 335
-0.997007, 167, 233, 182, 296
-0.997016, 301, 241, 316, 304
-0.997025, 137, 81, 168, 208
-0.997043, 17, 273, 32, 335
-0.997049, 313, 233, 328, 296
-0.997063, 145, 245, 272, 276
-0.997064, 447, 273, 462, 335
-0.997069, 289, 197, 416, 228
-0.997072, 59, 209, 74, 272
-0.997075, 245, 97, 276, 224
-0.997076, 325, 113, 356, 240
-0.997087, 351, 201, 366, 232
-0.997094, 65, 285, 192, 316
-0.997102, 395, 261, 410, 292
-0.997111, 113, 285, 240, 316
-0.997126, 193, 149, 320, 180
-0.997128, 331, 221, 346, 252
-0.997141, 373, 205, 388, 236
-0.997163, 383, 189, 398, 220
-0.997187, 355, 221, 370, 252
-0.997218, 97, 89, 224, 152
-0.99722, 333, 233, 348, 264
-0.997224, 367, 205, 382, 236
-0.997231, 273, 157, 400, 188
-0.997248, 289, 173, 416, 204
-0.99726, 397, 201, 412, 232
-0.997271, 337, 217, 352, 248
-0.997289, 333, 261, 348, 292
-0.99732, 361, 237, 376, 268
-0.997336, 339, 261, 354, 292
-0.997353, 257, 141, 384, 172
-0.997391, 391, 209, 406, 240
-0.997399, 275, 261, 290, 292
-0.9974, 315, 237, 330, 268
-0.997422, 193, 237, 320, 268
-0.99743, 129, 149, 256, 180
-0.997431, 401, 253, 416, 284
-0.997444, 81, 273, 208, 304
-0.997455, 379, 213, 394, 244
-0.997467, 137, 1, 200, 335
-0.997473, 257, 105, 500, 168
-0.997487, 449, 81, 480, 208
-0.997505, 209, 261, 336, 292
-0.997509, 33, 273, 160, 304
-0.997523, 443, 265, 458, 296
-0.997536, 403, 241, 418, 272
-0.997539, 369, 133, 496, 164
-0.997543, 73, 25, 136, 88
-0.99755, 281, 257, 296, 288
-0.997553, 405, 205, 420, 236
-0.99757, 381, 173, 396, 204
-0.997581, 1, 213, 128, 244
-0.997583, 77, 81, 108, 208
-0.997598, 233, 97, 264, 224
-0.997605, 361, 193, 376, 224
-0.997612, 321, 49, 448, 176
-0.997621, 355, 249, 370, 280
-0.997626, 97, 161, 224, 192
-0.997632, 41, 81, 72, 208
-0.997648, 451, 269, 466, 300
-0.997656, 161, 305, 288, 335
-0.997675, 249, 97, 312, 160
-0.997693, 391, 273, 406, 304
-0.997712, 381, 65, 412, 320
-0.997728, 287, 253, 302, 284
-0.997736, 81, 1, 144, 335
-0.99775, 321, 157, 448, 188
-0.997764, 17, 1, 144, 64
-0.997772, 425, 261, 440, 292
-0.997776, 385, 213, 400, 244
-0.997788, 379, 229, 394, 260
-0.997813, 337, 245, 352, 276
-0.997815, 113, 81, 176, 144
-0.997822, 65, 81, 96, 208
-0.997827, 1, 137, 500, 200
-0.997835, 343, 205, 358, 236
-0.997846, 145, 165, 272, 196
-0.997846, 49, 65, 112, 320
-0.997848, 241, 305, 256, 335
-0.997853, 385, 257, 400, 288
-0.997859, 49, 141, 176, 172
-0.997859, 269, 269, 284, 300
-0.997872, 65, 177, 192, 208
-0.997874, 325, 213, 340, 244
-0.997877, 443, 249, 458, 280
-0.997885, 385, 281, 400, 312
-0.997892, 113, 181, 240, 212
-0.997896, 1, 285, 128, 316
-0.997907, 327, 261, 342, 292
-0.997916, 283, 269, 298, 300
-0.997917, 1, 145, 128, 176
-0.997947, 325, 245, 340, 276
-0.997948, 129, 257, 256, 288
-0.997953, 239, 293, 254, 324
-0.997954, 433, 265, 448, 296
-0.997972, 407, 257, 422, 288
-0.997973, 373, 193, 388, 224
-0.997977, 167, 297, 182, 328
-0.997985, 105, 25, 168, 88
-0.997992, 419, 257, 434, 288
-0.997993, 351, 301, 366, 332
-0.997994, 381, 293, 396, 324
-0.997995, 297, 129, 328, 256
-0.997996, 403, 269, 418, 300
-0.998003, 17, 49, 144, 112
-0.998004, 263, 269, 278, 300
-0.998005, 413, 269, 428, 300
-0.998012, 151, 297, 166, 328
-0.998025, 15, 305, 30, 335
-0.998025, 389, 165, 404, 196
-0.998033, 413, 257, 428, 288
-0.99804, 33, 73, 160, 136
-0.99804, 235, 305, 250, 335
-0.998042, 295, 253, 310, 284
-0.998045, 449, 257, 464, 288
-0.998047, 373, 305, 388, 335
-0.998052, 113, 305, 128, 335
-0.998054, 161, 181, 288, 212
-0.998055, 381, 269, 396, 300
-0.998062, 277, 273, 292, 304
-0.998065, 1, 177, 128, 208
-0.998068, 361, 297, 376, 328
-0.998079, 131, 301, 146, 332
-0.998087, 355, 185, 370, 216
-0.998092, 367, 229, 382, 260
-0.998094, 269, 257, 284, 288
-0.9981, 25, 305, 40, 335
-0.998112, 49, 129, 176, 160
-0.998118, 401, 217, 416, 248
-0.998126, 435, 277, 450, 308
-0.998127, 339, 301, 354, 332
-0.998129, 9, 305, 24, 335
-0.998131, 65, 1, 192, 128
-0.998133, 49, 161, 176, 192
-0.998135, 241, 209, 368, 240
-0.998146, 443, 277, 458, 308
-0.998148, 153, 33, 216, 288
-0.998149, 41, 301, 56, 332
-0.99815, 65, 9, 192, 72
-0.99815, 121, 305, 136, 335
-0.998152, 353, 49, 416, 176
-0.998152, 49, 305, 64, 335
-0.998154, 407, 225, 422, 256
-0.998159, 395, 249, 410, 280
-0.998171, 371, 289, 386, 320
-0.998173, 305, 249, 320, 280
-0.998184, 161, 297, 176, 328
-0.998184, 427, 157, 442, 188
-0.998193, 421, 189, 436, 220
-0.998206, 367, 305, 382, 335
-0.99821, 345, 301, 360, 332
-0.99822, 397, 157, 412, 188
-0.998226, 129, 225, 256, 256
-0.998232, 229, 293, 244, 324
-0.998234, 385, 229, 400, 260
-0.998239, 229, 249, 244, 280
-0.998245, 225, 185, 352, 216
-0.99825, 229, 305, 244, 335
-0.998257, 331, 209, 346, 240
-0.998267, 49, 229, 64, 260
-0.998273, 333, 301, 348, 332
-0.998282, 57, 305, 72, 335
-0.998285, 265, 281, 280, 312
-0.998288, 247, 305, 262, 335
-0.998294, 257, 269, 272, 300
-0.998299, 349, 253, 364, 284
-0.9983, 365, 181, 380, 212
-0.998302, 305, 1, 368, 335
-0.998305, 273, 65, 336, 320
-0.998305, 401, 65, 432, 320
-0.998308, 161, 285, 176, 316
-0.998309, 161, 1, 224, 335
-0.998313, 429, 145, 444, 176
-0.998313, 3, 305, 18, 335
-0.998319, 423, 273, 438, 304
-0.998323, 107, 305, 122, 335
-0.998331, 209, 137, 336, 168
-0.99834, 75, 241, 90, 272
-0.998343, 401, 145, 416, 176
-0.998344, 319, 193, 334, 224
-0.998344, 289, 265, 304, 296
-0.998345, 1, 129, 128, 160
-0.998357, 225, 173, 352, 204
-0.998362, 369, 65, 400, 320
-0.998365, 97, 137, 224, 168
-0.998365, 409, 193, 424, 224
-0.998366, 393, 233, 408, 264
-0.99837, 33, 301, 48, 332
-0.998371, 237, 253, 252, 284
-0.998371, 275, 249, 290, 280
-0.998383, 289, 163, 320, 178
-0.998384, 421, 197, 452, 212
-0.998384, 409, 281, 440, 296
-0.998385, 253, 321, 284, 335
-0.998386, 429, 255, 460, 270
-0.998386, 1, 261, 128, 292
-0.998387, 1, 193, 128, 224
-0.998387, 381, 153, 412, 168
-0.998387, 397, 253, 428, 268
-0.998389, 209, 317, 240, 332
-0.998389, 213, 249, 244, 264
-0.998389, 329, 203, 360, 218
-0.99839, 369, 235, 400, 250
-0.99839, 253, 313, 284, 328
-0.99839, 309, 239, 340, 254
-0.998391, 341, 225, 372, 240
-0.998393, 405, 237, 436, 252
-0.998393, 357, 253, 388, 268
-0.998394, 429, 155, 460, 170
-0.998396, 245, 283, 276, 298
-0.998398, 289, 251, 320, 266
-0.998399, 237, 321, 268, 335
-0.998399, 269, 279, 300, 294
-0.998399, 377, 281, 408, 296
-0.998399, 421, 191, 452, 206
-0.998401, 225, 251, 256, 266
-0.998401, 401, 213, 432, 228
-0.998403, 357, 299, 388, 314
-0.998403, 245, 289, 276, 304
-0.998405, 329, 225, 392, 240
-0.998406, 293, 319, 324, 334
-0.998407, 349, 199, 380, 214
-0.998407, 377, 175, 408, 190
-0.998408, 89, 247, 120, 262
-0.998408, 401, 151, 432, 166
-0.998408, 201, 1, 264, 335
-0.998409, 125, 301, 156, 316
-0.998409, 413, 151, 444, 166
-0.998409, 409, 157, 440, 172
-0.998411, 209, 225, 336, 256
-0.998412, 353, 197, 416, 212
-0.998413, 385, 249, 416, 264
-0.998413, 297, 251, 360, 266
-0.998413, 105, 301, 136, 316
-0.998415, 329, 269, 360, 284
-0.998415, 381, 263, 412, 278
-0.998418, 317, 227, 348, 242
-0.99842, 393, 243, 456, 258
-0.998422, 229, 309, 260, 324
-0.998424, 305, 133, 432, 164
-0.998424, 73, 247, 104, 262
-0.998426, 5, 315, 36, 330
-0.998427, 329, 217, 392, 232
-0.998429, 289, 257, 320, 272
-0.998431, 265, 253, 296, 268
-0.998431, 49, 231, 80, 246
-0.998432, 281, 267, 312, 282
-0.998434, 89, 303, 120, 318
-0.998434, 381, 235, 412, 250
-0.998434, 225, 315, 256, 330
-0.998435, 345, 313, 376, 328
-0.998435, 25, 307, 88, 322
-0.998436, 401, 243, 432, 258
-0.998438, 377, 259, 440, 274
-0.998439, 377, 275, 408, 290
-0.99844, 357, 193, 388, 208
-0.998441, 237, 315, 268, 330
-0.998441, 165, 299, 196, 314
-0.998441, 433, 265, 464, 280
-0.998442, 269, 273, 300, 288
-0.998449, 361, 183, 392, 198
-0.99845, 281, 319, 312, 334
-0.998451, 401, 197, 432, 212
-0.998452, 321, 219, 352, 234
-0.998454, 385, 199, 416, 214
-0.998454, 389, 281, 420, 296
-0.998455, 325, 263, 356, 278
-0.998455, 369, 213, 432, 228
-0.998455, 313, 239, 376, 254
-0.998456, 425, 271, 456, 286
-0.998456, 21, 309, 52, 324
-0.998456, 353, 237, 416, 252
-0.998456, 357, 311, 388, 326
-0.998456, 405, 265, 436, 280
-0.998457, 65, 305, 96, 320
-0.998458, 385, 255, 416, 270
-0.998458, 345, 203, 408, 218
-0.998459, 317, 315, 348, 330
-0.998459, 237, 249, 268, 264
-0.998459, 49, 305, 112, 320
-0.998459, 1, 309, 64, 324
-0.998459, 329, 317, 360, 332
-0.99846, 401, 275, 432, 290
-0.998461, 269, 263, 300, 278
-0.998461, 313, 231, 376, 246
-0.998464, 137, 301, 168, 316
-0.998464, 389, 219, 420, 234
-0.998466, 241, 197, 368, 228
-0.998468, 377, 217, 408, 232
-0.998468, 385, 227, 416, 242
-0.998471, 253, 251, 284, 266
-0.998473, 385, 265, 448, 280
-0.998473, 377, 305, 408, 320
-0.998474, 273, 257, 336, 272
-0.998475, 297, 245, 360, 260
-0.998475, 393, 157, 456, 172
-0.998476, 321, 245, 352, 260
-0.998479, 377, 193, 440, 208
-0.99848, 361, 219, 424, 234
-0.998481, 77, 305, 108, 320
-0.998483, 421, 263, 452, 278
-0.998484, 9, 309, 40, 324
-0.998488, 387, 209, 402, 335
-0.998489, 377, 269, 408, 284
-0.998491, 385, 271, 448, 286
-0.998493, 53, 307, 84, 322
-0.998494, 441, 279, 472, 294
-0.998495, 33, 307, 64, 322
-0.998497, 105, 301, 168, 316
-0.998498, 297, 317, 360, 332
-0.998498, 337, 259, 400, 274
-0.998499, 429, 277, 460, 292
-0.9985, 353, 247, 416, 262
-0.998504, 353, 231, 416, 246
-0.998506, 305, 251, 336, 266
-0.998506, 341, 213, 372, 228
-0.998506, 257, 321, 320, 335
-0.998509, 337, 261, 368, 276
-0.99851, 257, 273, 288, 288
-0.99851, 305, 319, 336, 334
-0.998513, 257, 251, 320, 266
-0.998514, 313, 261, 376, 276
-0.998514, 409, 263, 472, 278
-0.998518, 321, 313, 384, 328
-0.998518, 257, 283, 288, 298
-0.998521, 329, 213, 360, 228
-0.998523, 217, 255, 280, 270
-0.998527, 389, 213, 420, 228
-0.998527, 441, 273, 472, 288
-0.998531, 353, 253, 416, 268
-0.998532, 337, 65, 464, 128
-0.998533, 401, 207, 432, 222
-0.998533, 289, 263, 352, 278
-0.998539, 401, 259, 432, 274
-0.998539, 357, 239, 388, 254
-0.998541, 337, 209, 400, 224
-0.998541, 217, 315, 280, 330
-0.998542, 393, 205, 456, 220
-0.998544, 369, 225, 432, 240
-0.998547, 397, 157, 428, 172
-0.998549, 337, 253, 368, 268
-0.998551, 345, 305, 408, 320
-0.998552, 81, 307, 144, 322
-0.998552, 385, 199, 448, 214
-0.998553, 33, 231, 96, 246
-0.998558, 361, 229, 392, 244
-0.998558, 401, 279, 464, 294
-0.998559, 345, 313, 408, 328
-0.99856, 389, 275, 420, 290
-0.998561, 337, 187, 400, 202
-0.998562, 225, 125, 352, 156
-0.998563, 357, 205, 388, 220
-0.998565, 393, 249, 456, 264
-0.998567, 369, 207, 432, 222
-0.998568, 373, 195, 404, 210
-0.998569, 349, 65, 380, 320
-0.99857, 321, 251, 352, 266
-0.998571, 277, 255, 308, 270
-0.998574, 345, 239, 376, 254
-0.998575, 145, 299, 208, 314
-0.998577, 409, 273, 472, 288
-0.998577, 273, 245, 336, 260
-0.998578, 377, 281, 440, 296
-0.998579, 377, 187, 440, 202
-0.998579, 305, 213, 368, 228
-0.998579, 73, 247, 136, 262
-0.998579, 393, 265, 424, 280
-0.99858, 241, 257, 304, 272
-0.99858, 209, 249, 272, 264
-0.998581, 329, 193, 344, 320
-0.998582, 337, 219, 368, 234
-0.998583, 233, 273, 296, 288
-0.998584, 361, 275, 424, 290
-0.998585, 321, 245, 384, 260
-0.998585, 305, 219, 368, 234
-0.998586, 309, 245, 340, 260
-0.998586, 377, 287, 440, 302
-0.998587, 161, 319, 224, 334
-0.998587, 353, 223, 384, 238
-0.998587, 1, 315, 64, 330
-0.998589, 273, 269, 336, 284
-0.998589, 321, 307, 384, 322
-0.998589, 369, 205, 400, 220
-0.99859, 49, 245, 112, 260
-0.998591, 369, 189, 400, 204
-0.998591, 433, 273, 496, 288
-0.998592, 249, 283, 312, 298
-0.998593, 49, 313, 112, 328
-0.9986, 73, 301, 136, 316
-0.998601, 329, 197, 392, 212
-0.998601, 369, 181, 432, 196
-0.998601, 433, 261, 496, 276
-0.998603, 217, 291, 280, 306
-0.998603, 33, 237, 96, 252
-0.998604, 265, 163, 328, 178
-0.998607, 381, 205, 412, 220
-0.998607, 289, 233, 352, 248
-0.998609, 225, 285, 288, 300
-0.99861, 361, 267, 424, 282
-0.998611, 217, 279, 280, 294
-0.998612, 329, 299, 392, 314
-0.998612, 1, 321, 64, 335
-0.998614, 393, 237, 456, 252
-0.998614, 249, 313, 312, 328
-0.998614, 401, 255, 464, 270
-0.998615, 217, 113, 280, 176
-0.998615, 409, 199, 472, 214
-0.998616, 193, 317, 256, 332
-0.998617, 401, 285, 464, 300
-0.998618, 81, 261, 208, 292
-0.998621, 185, 245, 248, 260
-0.998621, 425, 283, 488, 298
-0.998621, 297, 309, 360, 324
-0.998622, 321, 235, 352, 250
-0.998623, 313, 267, 376, 282
-0.998623, 25, 317, 88, 332
-0.998624, 433, 255, 496, 270
-0.998626, 369, 307, 432, 322
-0.998627, 241, 263, 304, 278
-0.998628, 325, 257, 356, 272
-0.998629, 233, 249, 296, 264
-0.998629, 321, 251, 384, 266
-0.998629, 353, 213, 384, 228
-0.99863, 393, 151, 456, 166
-0.99863, 145, 137, 272, 168
-0.998631, 329, 227, 360, 242
-0.998632, 313, 187, 376, 202
-0.998632, 177, 159, 240, 174
-0.998632, 257, 277, 320, 292
-0.998633, 137, 321, 200, 335
-0.998633, 345, 153, 408, 168
-0.998633, 417, 153, 480, 168
-0.998633, 289, 239, 352, 254
-0.998634, 433, 241, 496, 256
-0.998635, 305, 225, 368, 240
-0.998635, 371, 177, 386, 304
-0.998635, 185, 295, 248, 310
-0.998636, 393, 145, 456, 160
-0.998637, 249, 157, 312, 172
-0.998638, 425, 147, 488, 162
-0.998638, 97, 155, 160, 170
-0.99864, 321, 319, 384, 334
-0.99864, 341, 247, 372, 262
-0.998641, 273, 311, 336, 326
-0.998641, 377, 231, 440, 246
-0.998643, 193, 287, 256, 302
-0.998643, 333, 241, 364, 256
-0.998644, 225, 163, 288, 178
-0.998645, 417, 189, 480, 204
-0.998646, 233, 321, 296, 335
-0.998646, 393, 211, 456, 226
-0.998648, 369, 157, 432, 172
-0.998649, 337, 265, 400, 280
-0.998649, 369, 175, 432, 190
-0.998652, 97, 219, 160, 234
-0.998654, 417, 183, 480, 198
-0.998654, 217, 309, 280, 324
-0.998654, 213, 97, 244, 224
-0.998654, 401, 225, 464, 240
-0.998655, 377, 163, 440, 178
-0.998657, 313, 207, 376, 222
-0.998659, 345, 207, 376, 222
-0.998661, 381, 161, 396, 288
-0.998667, 369, 211, 400, 226
-0.99867, 341, 233, 372, 248
-0.998679, 361, 199, 392, 214
-0.998704, 425, 89, 488, 152
-0.998709, 81, 33, 144, 160
-0.998711, 405, 209, 420, 335
-0.998723, 365, 219, 396, 234
-0.998729, 347, 209, 362, 335
-0.998741, 193, 73, 320, 136
-0.998753, 129, 213, 256, 244
-0.998764, 417, 177, 432, 304
-0.998778, 335, 193, 350, 320
-0.998808, 33, 65, 64, 320
-0.998817, 381, 209, 396, 335
-0.998818, 411, 209, 426, 335
-0.998834, 359, 193, 374, 320
-0.998838, 393, 193, 408, 320
-0.998878, 341, 209, 356, 335
-0.998882, 9, 65, 40, 320
-0.998886, 399, 209, 414, 335
-0.998895, 161, 49, 288, 176
-0.998912, 387, 161, 402, 288
-0.998918, 1, 117, 128, 148
-0.998921, 417, 65, 448, 320
-0.998924, 423, 129, 438, 256
-0.998928, 1, 97, 256, 160
-0.998937, 397, 145, 412, 272
-0.998948, 423, 177, 438, 304
-0.998955, 257, 81, 500, 144
-0.998955, 365, 193, 380, 320
-0.998955, 369, 121, 496, 152
-0.998961, 405, 145, 420, 272
-0.998995, 113, 33, 240, 96
-0.998995, 257, 49, 384, 112
-0.998997, 49, 205, 176, 236
-0.999021, 121, 33, 184, 288
-0.999023, 323, 209, 338, 335
-0.999031, 97, 49, 224, 176
-0.999048, 411, 145, 426, 272
-0.999049, 429, 65, 460, 320
-0.999059, 161, 105, 416, 168
-0.999065, 1, 165, 128, 196
-0.999094, 343, 161, 358, 288
-0.999106, 365, 145, 380, 272
-0.999107, 417, 129, 432, 256
-0.999111, 353, 161, 368, 288
-0.999146, 429, 177, 444, 304
-0.999154, 127, 209, 142, 335
-0.999163, 429, 129, 444, 256
-0.999173, 329, 65, 360, 320
-0.999174, 21, 65, 52, 320
-0.999187, 117, 209, 132, 335
-0.999192, 81, 113, 208, 144
-0.999205, 113, 57, 240, 120
-0.999212, 135, 129, 150, 256
-0.99922, 133, 209, 148, 335
-0.999246, 309, 65, 340, 320
-0.999256, 141, 209, 156, 335
-0.999279, 317, 193, 332, 320
-0.999284, 17, 177, 32, 304
-0.999285, 249, 65, 312, 320
-0.999286, 353, 209, 368, 335
-0.999286, 371, 129, 386, 256
-0.999288, 129, 129, 144, 256
-0.99929, 441, 177, 456, 304
-0.999297, 179, 209, 194, 335
-0.999299, 17, 37, 144, 68
-0.999311, 105, 17, 168, 144
-0.999316, 185, 209, 200, 335
-0.999317, 97, 125, 224, 156
-0.999327, 21, 129, 36, 256
-0.999335, 167, 209, 182, 335
-0.999338, 323, 161, 338, 288
-0.999343, 341, 97, 372, 224
-0.999349, 229, 161, 244, 288
-0.99935, 9, 129, 24, 256
-0.999358, 173, 209, 188, 335
-0.999365, 435, 129, 450, 256
-0.999365, 359, 145, 374, 272
-0.999368, 191, 209, 206, 335
-0.999371, 261, 145, 276, 272
-0.999371, 109, 209, 124, 335
-0.999372, 9, 1, 72, 128
-0.999377, 141, 129, 156, 256
-0.999378, 3, 145, 18, 272
-0.999393, 11, 177, 26, 304
-0.999401, 151, 209, 166, 335
-0.999404, 271, 209, 286, 335
-0.999405, 251, 145, 266, 272
-0.999408, 443, 129, 458, 256
-0.999416, 235, 145, 250, 272
-0.999418, 203, 193, 218, 320
-0.999418, 27, 129, 42, 256
-0.999422, 281, 209, 296, 335
-0.999423, 245, 145, 260, 272
-0.999427, 287, 209, 302, 335
-0.999429, 435, 177, 450, 304
-0.999433, 385, 113, 400, 240
-0.999437, 467, 129, 482, 256
-0.999444, 193, 113, 320, 144
-0.999444, 91, 129, 106, 256
-0.999447, 379, 113, 394, 240
-0.999448, 197, 209, 212, 335
-0.999451, 333, 129, 348, 256
-0.999452, 123, 129, 138, 256
-0.999458, 65, 209, 80, 335
-0.999465, 449, 129, 464, 256
-0.99947, 257, 193, 272, 320
-0.999475, 223, 145, 238, 272
-0.999476, 265, 193, 280, 320
-0.999482, 461, 129, 476, 256
-0.999483, 17, 21, 144, 52
-0.999491, 485, 161, 500, 288
-0.999492, 59, 209, 74, 335
-0.999495, 33, 105, 160, 136
-0.999496, 65, 129, 80, 256
-0.999504, 43, 145, 58, 272
-0.999505, 83, 129, 98, 256
-0.999505, 451, 177, 466, 304
-0.999507, 103, 209, 118, 335
-0.999508, 27, 177, 42, 304
-0.999522, 219, 193, 234, 320
-0.999523, 117, 129, 132, 256
-0.999524, 209, 193, 224, 320
-0.999524, 33, 93, 160, 124
-0.999524, 53, 209, 68, 335
-0.999541, 289, 121, 416, 152
-0.999545, 351, 113, 366, 240
-0.999545, 249, 193, 264, 320
-0.999548, 3, 97, 18, 224
-0.999549, 97, 209, 112, 335
-0.99955, 65, 33, 192, 64
-0.999553, 297, 209, 312, 335
-0.999555, 461, 177, 476, 304
-0.999555, 161, 209, 176, 335
-0.999558, 47, 209, 62, 335
-0.999564, 183, 129, 198, 256
-0.999566, 15, 129, 30, 256
-0.999567, 445, 65, 476, 320
-0.999568, 467, 177, 482, 304
-0.999568, 411, 97, 426, 224
-0.999569, 207, 145, 222, 272
-0.999571, 147, 129, 162, 256
-0.999573, 303, 193, 318, 320
-0.999576, 37, 145, 52, 272
-0.999576, 59, 145, 74, 272
-0.999577, 177, 125, 304, 156
-0.999578, 419, 81, 434, 208
-0.999579, 167, 161, 182, 288
-0.99958, 213, 145, 228, 272
-0.99958, 1, 209, 16, 335
-0.999586, 73, 145, 88, 272
-0.999586, 97, 129, 112, 256
-0.999587, 267, 145, 282, 272
-0.999592, 455, 129, 470, 256
-0.999602, 175, 161, 190, 288
-0.999604, 273, 25, 400, 88
-0.999604, 53, 129, 68, 256
-0.999604, 263, 251, 278, 266
-0.999605, 235, 315, 250, 330
-0.999605, 357, 313, 372, 328
-0.999605, 167, 299, 182, 314
-0.999606, 409, 259, 424, 274
-0.999606, 77, 303, 92, 318
-0.999606, 57, 305, 72, 320
-0.999607, 437, 273, 452, 288
-0.999607, 291, 263, 306, 278
-0.999608, 27, 307, 42, 322
-0.999609, 403, 151, 418, 166
-0.999609, 275, 257, 290, 272
-0.999609, 243, 193, 258, 320
-0.999609, 159, 129, 174, 256
-0.999609, 405, 241, 420, 256
-0.999609, 271, 251, 286, 266
-0.99961, 355, 213, 370, 228
-0.99961, 245, 321, 260, 335
-0.99961, 385, 261, 400, 276
-0.99961, 85, 303, 100, 318
-0.99961, 399, 275, 414, 290
-0.99961, 297, 257, 312, 272
-0.99961, 473, 177, 488, 304
-0.999611, 71, 209, 86, 335
-0.999611, 65, 305, 80, 320
-0.999611, 313, 319, 328, 334
-0.999612, 311, 193, 326, 320
-0.999613, 479, 177, 494, 304
-0.999613, 335, 315, 350, 330
-0.999613, 353, 239, 368, 254
-0.999614, 275, 263, 290, 278
-0.999614, 71, 305, 86, 320
-0.999614, 241, 249, 256, 264
-0.999615, 199, 145, 214, 272
-0.999615, 295, 319, 310, 334
-0.999615, 39, 307, 54, 322
-0.999616, 249, 249, 264, 264
-0.999616, 33, 209, 48, 335
-0.999616, 431, 263, 446, 278
-0.999617, 245, 315, 260, 330
-0.999617, 443, 265, 458, 280
-0.999618, 375, 237, 390, 252
-0.999619, 379, 187, 394, 202
-0.999619, 259, 283, 274, 298
-0.99962, 125, 81, 140, 208
-0.999621, 309, 245, 324, 260
-0.999622, 33, 307, 48, 322
-0.999622, 367, 211, 382, 226
-0.999622, 359, 219, 374, 234
-0.999624, 311, 145, 326, 272
-0.999624, 369, 191, 384, 206
-0.999625, 47, 307, 62, 322
-0.999625, 325, 241, 340, 256
-0.999625, 369, 231, 384, 246
-0.999625, 433, 279, 448, 294
-0.999625, 401, 97, 416, 224
-0.999626, 355, 255, 370, 270
-0.999627, 279, 273, 294, 288
-0.999627, 303, 251, 318, 266
-0.999627, 21, 309, 36, 324
-0.999628, 273, 281, 288, 296
-0.999629, 339, 265, 354, 280
-0.999629, 333, 219, 348, 234
-0.99963, 281, 161, 296, 288
-0.999631, 369, 311, 384, 326
-0.999633, 393, 163, 408, 178
-0.999634, 385, 193, 400, 208
-0.999638, 355, 231, 370, 246
-0.99964, 345, 263, 360, 278
-0.99964, 5, 309, 20, 324
-0.999641, 319, 317, 334, 332
-0.999642, 269, 273, 284, 288
-0.999642, 325, 227, 340, 242
-0.999644, 331, 235, 346, 250
-0.999646, 407, 209, 422, 224
-0.999647, 387, 169, 402, 184
-0.999647, 393, 271, 408, 286
-0.999648, 329, 315, 344, 330
-0.999648, 365, 199, 380, 214
-0.999648, 97, 81, 352, 144
-0.999648, 381, 229, 396, 244
-0.999648, 361, 213, 376, 228
-0.999648, 15, 309, 30, 324
-0.999649, 337, 241, 352, 256
-0.99965, 443, 281, 458, 296
-0.99965, 1, 33, 256, 96
-0.99965, 379, 209, 394, 224
-0.999652, 401, 255, 416, 270
-0.999653, 385, 271, 400, 286
-0.999655, 265, 285, 280, 300
-0.999655, 389, 213, 404, 228
-0.999655, 333, 271, 348, 286
-0.999655, 425, 261, 440, 276
-0.999655, 281, 263, 296, 278
-0.999658, 395, 213, 410, 228
-0.999659, 327, 217, 342, 232
-0.99966, 397, 203, 412, 218
-0.999661, 361, 205, 376, 220
-0.999662, 251, 319, 266, 334
-0.999662, 273, 17, 400, 144
-0.999663, 385, 207, 400, 222
-0.999663, 353, 221, 368, 236
-0.999665, 287, 257, 302, 272
-0.999668, 281, 257, 296, 272
-0.999669, 285, 269, 300, 284
-0.99967, 307, 319, 322, 334
-0.999671, 257, 93, 384, 124
-0.999671, 391, 277, 406, 292
-0.999672, 345, 211, 360, 226
-0.999674, 341, 233, 356, 248
-0.999674, 453, 271, 468, 286
-0.999674, 17, 49, 144, 80
-0.999674, 335, 257, 350, 272
-0.999677, 415, 259, 430, 274
-0.999679, 399, 157, 414, 172
-0.999683, 113, 197, 240, 228
-0.999684, 381, 175, 396, 190
-0.999684, 391, 197, 406, 212
-0.999685, 373, 207, 388, 222
-0.999691, 341, 219, 356, 234
-0.999693, 349, 251, 364, 266
-0.999693, 337, 89, 464, 120
-0.999694, 329, 257, 344, 272
-0.999694, 325, 233, 340, 248
-0.999698, 375, 179, 390, 194
-0.999699, 45, 65, 76, 320
-0.999701, 359, 237, 374, 252
-0.999706, 365, 219, 380, 234
-0.999713, 161, 1, 416, 128
-0.999718, 105, 81, 136, 208
-0.99972, 381, 221, 396, 236
-0.99972, 375, 199, 390, 214
-0.999722, 363, 227, 378, 242
-0.999723, 333, 249, 348, 264
-0.999725, 355, 201, 370, 216
-0.999727, 343, 245, 358, 260
-0.999732, 49, 193, 176, 224
-0.999733, 153, 81, 184, 208
-0.999735, 327, 247, 342, 262
-0.999738, 349, 231, 364, 246
-0.999738, 381, 201, 396, 216
-0.999747, 469, 65, 500, 320
-0.999748, 395, 265, 410, 280
-0.999752, 443, 275, 458, 290
-0.999754, 347, 237, 362, 252
-0.999754, 315, 241, 330, 256
-0.999757, 353, 245, 368, 260
-0.999757, 457, 65, 488, 320
-0.999759, 289, 105, 416, 136
-0.999764, 373, 223, 388, 238
-0.999764, 379, 215, 394, 230
-0.99977, 373, 185, 388, 200
-0.999779, 363, 193, 378, 208
-0.999786, 351, 207, 366, 222
-0.999786, 371, 217, 386, 232
-0.99979, 331, 263, 346, 278
-0.999815, 297, 65, 360, 192
-0.999821, 17, 61, 144, 92
-0.999824, 29, 49, 60, 176
-0.999827, 333, 225, 348, 240
-0.999827, 65, 45, 192, 76
-0.999828, 257, 57, 500, 120
-0.999841, 225, 17, 352, 80
-0.999849, 57, 33, 88, 288
-0.999858, 241, 113, 368, 144
-0.999871, 65, 17, 192, 48
-0.999895, 189, 97, 220, 224
-0.999906, 81, 101, 208, 132
-0.999917, 345, 73, 408, 136
-0.999919, 353, 105, 480, 136
-0.999938, 113, 45, 240, 76
-0.999945, 57, 49, 120, 176
-0.999957, 1, 81, 64, 144
-0.999967, 209, 97, 336, 128
-0.99999, 65, 57, 192, 88
-0.999998, 157, 33, 188, 288
-1.00002, 285, 65, 316, 320
-1.00004, 289, 77, 416, 108
-1.00004, 177, 193, 304, 224
-1.00005, 185, 33, 216, 288
-1.00005, 313, 89, 376, 152
-1.00007, 1, 89, 500, 152
-1.00007, 129, 33, 160, 288
-1.00008, 337, 77, 464, 108
-1.0001, 193, 49, 320, 112
-1.00013, 17, 81, 144, 112
-1.00015, 77, 65, 108, 320
-1.00016, 65, 57, 320, 120
-1.00017, 37, 1, 68, 128
-1.00018, 113, 9, 240, 72
-1.0002, 129, 113, 256, 144
-1.0002, 201, 97, 232, 224
-1.00021, 113, 57, 240, 88
-1.00022, 113, 65, 144, 320
-1.00023, 193, 85, 320, 116
-1.00025, 177, 209, 304, 240
-1.00028, 257, 61, 384, 92
-1.00029, 273, 65, 304, 320
-1.0003, 97, 89, 224, 120
-1.00032, 169, 193, 232, 256
-1.00033, 97, 77, 224, 108
-1.00034, 49, 5, 176, 36
-1.00037, 177, 45, 304, 76
-1.00038, 297, 65, 328, 320
-1.00039, 113, 33, 240, 64
-1.0004, 101, 1, 132, 256
-1.00041, 273, 21, 400, 52
-1.00043, 225, 21, 352, 52
-1.00043, 209, 33, 240, 288
-1.00045, 81, 65, 144, 128
-1.00047, 401, 73, 464, 136
-1.00047, 145, 33, 176, 288
-1.0005, 33, 9, 288, 72
-1.00051, 1, 65, 500, 128
-1.00054, 89, 65, 120, 320
-1.00055, 1, 65, 32, 192
-1.00055, 289, 1, 352, 128
-1.00055, 253, 65, 284, 320
-1.00058, 225, 33, 256, 288
-1.00063, 173, 65, 204, 320
-1.00063, 197, 33, 228, 288
-1.00074, 161, 49, 416, 112
-1.00074, 177, 33, 240, 288
-1.00075, 237, 65, 268, 320
-1.00077, 1, 17, 500, 80
-1.00079, 257, 25, 500, 88
-1.0009, 177, 17, 304, 80
-1.00092, 9, 33, 72, 96
-1.00093, 393, 49, 456, 176
-1.00101, 53, 81, 84, 208
-1.00113, 257, 1, 500, 64
-1.00113, 321, 41, 448, 104
-1.00114, 249, 73, 312, 136
-1.00119, 129, 17, 384, 80
-1.00123, 217, 201, 280, 264
-1.00129, 201, 33, 264, 288
-1.0013, 1, 41, 500, 104
-1.00133, 305, 1, 432, 64
-1.0014, 369, 41, 496, 104
-1.00141, 57, 1, 88, 128
-1.00144, 105, 57, 168, 120
-1.00146, 193, 97, 256, 160
-1.00146, 145, 89, 208, 152
-1.0016, 285, 65, 316, 192
-1.0016, 297, 65, 360, 128
-1.00163, 129, 33, 192, 160
-1.00188, 353, 81, 384, 208
-1.0019, 169, 89, 232, 152
-1.00191, 289, 17, 352, 80
-1.00195, 113, 1, 240, 128
-1.00197, 49, 9, 112, 72
-1.00198, 297, 81, 328, 208
-1.002, 265, 193, 328, 256
-1.00204, 57, 57, 120, 120
-1.00207, 121, 1, 152, 128
-1.00209, 369, 1, 496, 64
-1.00223, 33, 57, 96, 120
-1.00223, 13, 49, 44, 176
-1.00232, 21, 1, 52, 128
-1.00236, 225, 65, 288, 320
-1.00238, 33, 81, 96, 144
-1.00242, 365, 65, 396, 192
-1.00255, 177, 81, 208, 208
-1.00266, 1, 57, 64, 120
-1.00289, 273, 65, 304, 192
-1.0029, 145, 33, 208, 96
-1.00291, 321, 49, 384, 176
-1.00298, 209, 49, 336, 176
-1.00317, 57, 1, 120, 128
-1.00344, 93, 49, 124, 176
-1.00345, 309, 65, 340, 192
-1.00361, 165, 49, 196, 176
-1.00365, 329, 65, 360, 192
-1.00371, 369, 17, 496, 144
-1.00382, 225, 1, 352, 128
-1.00388, 133, 17, 164, 144
-1.0039, 321, 1, 448, 128
-1.00427, 9, 1, 40, 128
-1.00446, 293, 1, 324, 128
-1.0045, 109, 33, 140, 160
-1.00455, 341, 49, 372, 176
-1.00462, 81, 17, 112, 144
-1.00494, 153, 49, 216, 176
-1.00498, 417, 33, 480, 160
-1.00505, 261, 65, 292, 192
-1.00512, 69, 33, 100, 160
-1.00514, 465, 33, 496, 160
-1.00514, 97, 1, 128, 128
-1.00523, 377, 49, 408, 176
-1.00537, 177, 49, 240, 176
-1.0055, 305, 1, 336, 128
-1.00602, 317, 1, 348, 128
-1.00634, 257, 49, 320, 176
-1.00643, 281, 17, 312, 144
-1.00661, 189, 49, 220, 176
-1.00668, 149, 1, 180, 128
-1.00678, 453, 33, 484, 160
-1.00679, 393, 49, 424, 176
-1.00695, 177, 1, 304, 128
-1.00702, 441, 33, 472, 160
-1.00734, 365, 17, 396, 144
-1.00818, 265, 1, 328, 128
-1.0087, 313, 1, 376, 128
-1.00967, 153, 1, 216, 128
-1.01068, 241, 1, 304, 128
-1.01084, 377, 1, 440, 128
-1.01134, 201, 49, 264, 176
-1.01155, 353, 1, 416, 128
-1.01186, 233, 49, 296, 176
-1.01257, 193, 1, 256, 128
-1.01432, 217, 1, 280, 128
