1899
-0.298922, 1, 1, 333, 500
-0.342726, 1, 193, 333, 448
-0.423715, 1, 97, 333, 352
-0.43301, 1, 1, 256, 500
-0.546479, 65, 257, 320, 500
-0.548568, 1, 1, 333, 256
-0.572613, 1, 161, 256, 416
-0.606768, 1, 65, 256, 320
-0.820758, 1, 1, 128, 500
-0.828514, 81, 225, 208, 480
-0.833084, 17, 161, 144, 416
-0.850755, 129, 225, 256, 480
-0.858095, 177, 129, 304, 384
-0.858624, 1, 241, 333, 368
-0.858638, 97, 129, 224, 384
-0.86147, 81, 1, 208, 256
-0.864326, 49, 1, 176, 500
-0.872881, 17, 65, 144, 320
-0.875118, 1, 257, 128, 500
-0.876542, 113, 1, 240, 500
-0.88345, 177, 257, 304, 500
-0.895286, 1, 289, 333, 416
-0.897778, 145, 33, 272, 288
-0.903043, 1, 193, 333, 320
-0.905663, 161, 1, 288, 500
-0.90647, 1, 145, 333, 272
-0.908631, 1, 161, 256, 288
-0.908727, 1, 1, 333, 128
-0.910491, 209, 1, 333, 500
-0.916032, 33, 241, 288, 368
-0.920128, 1, 337, 333, 464
-0.922306, 1, 1, 256, 128
-0.925039, 1, 113, 256, 240
-0.925943, 1, 321, 256, 448
-0.928572, 1, 177, 128, 304
-0.930572, 41, 33, 104, 160
-0.931997, 185, 177, 248, 304
-0.933685, 65, 17, 192, 144
-0.934834, 73, 33, 136, 160
-0.938601, 25, 177, 88, 304
-0.939537, 1, 1, 64, 128
-0.939783, 65, 369, 320, 496
-0.939868, 153, 241, 216, 368
-0.939911, 1, 17, 128, 144
-0.940372, 1, 49, 256, 176
-0.940885, 1, 49, 333, 176
-0.941501, 129, 337, 192, 464
-0.941706, 129, 337, 256, 464
-0.941818, 81, 193, 208, 320
-0.942355, 153, 321, 216, 448
-0.942481, 233, 145, 296, 272
-0.944251, 129, 257, 256, 384
-0.944557, 137, 193, 200, 320
-0.944587, 113, 33, 176, 160
-0.945356, 1, 97, 333, 224
-0.945492, 81, 177, 144, 304
-0.945865, 217, 153, 280, 216
-0.946073, 97, 129, 224, 256
-0.946554, 129, 273, 192, 400
-0.946673, 201, 129, 264, 256
-0.946702, 81, 241, 208, 368
-0.947291, 81, 353, 208, 480
-0.947535, 209, 209, 333, 336
-0.948042, 65, 305, 192, 432
-0.948895, 177, 273, 304, 400
-0.948921, 185, 169, 248, 232
-0.949136, 113, 193, 176, 320
-0.949584, 177, 241, 240, 368
-0.949944, 161, 161, 288, 288
-0.950393, 209, 193, 272, 320
-0.950826, 1, 305, 128, 432
-0.950992, 73, 25, 136, 88
-0.951289, 161, 177, 224, 304
-0.951403, 105, 337, 168, 464
-0.952751, 1, 9, 64, 72
-0.952766, 169, 241, 232, 304
-0.953348, 17, 225, 144, 352
-0.953464, 193, 225, 256, 288
-0.953986, 9, 273, 72, 400
-0.954059, 33, 185, 96, 248
-0.954511, 1, 177, 64, 304
-0.954898, 57, 177, 120, 304
-0.955126, 137, 329, 200, 392
-0.95516, 9, 65, 72, 128
-0.955475, 169, 337, 232, 400
-0.956186, 41, 17, 104, 80
-0.95634, 105, 17, 168, 80
-0.956756, 161, 113, 288, 240
-0.956791, 49, 113, 176, 240
-0.957132, 41, 73, 104, 136
-0.95719, 209, 145, 333, 272
-0.957214, 177, 129, 240, 256
-0.957564, 233, 185, 296, 248
-0.958004, 9, 289, 72, 352
-0.958075, 105, 337, 168, 400
-0.95864, 161, 209, 288, 336
-0.958647, 1, 225, 64, 352
-0.958862, 145, 241, 208, 304
-0.959748, 105, 289, 168, 416
-0.960095, 121, 113, 184, 240
-0.960758, 49, 241, 112, 368
-0.960772, 17, 49, 80, 176
-0.96081, 201, 201, 264, 264
-0.961479, 81, 97, 144, 224
-0.96181, 233, 193, 296, 320
-0.962358, 153, 113, 216, 240
-0.962447, 265, 209, 328, 336
-0.962749, 217, 233, 280, 296
-0.962785, 65, 65, 192, 192
-0.962904, 233, 273, 296, 400
-0.963366, 145, 65, 272, 192
-0.963377, 49, 97, 112, 224
-0.963402, 193, 33, 320, 288
-0.96347, 65, 185, 128, 248
-0.963612, 9, 185, 72, 248
-0.963803, 225, 129, 288, 192
-0.963892, 153, 201, 216, 264
-0.964237, 113, 193, 176, 256
-0.964638, 177, 369, 304, 496
-0.964653, 65, 321, 128, 448
-0.964694, 177, 265, 240, 328
-0.965015, 41, 305, 104, 432
-0.965027, 97, 313, 160, 376
-0.965267, 73, 257, 136, 384
-0.965597, 113, 41, 176, 104
-0.965806, 25, 97, 88, 224
-0.965847, 41, 297, 104, 360
-0.965857, 89, 193, 152, 256
-0.965864, 137, 361, 200, 424
-0.965948, 177, 193, 240, 256
-0.965993, 97, 241, 160, 368
-0.96605, 9, 161, 72, 416
-0.966072, 137, 265, 200, 328
-0.966185, 81, 345, 144, 408
-0.966342, 201, 257, 264, 384
-0.966389, 49, 321, 112, 384
-0.96643, 193, 145, 256, 208
-0.966669, 33, 273, 96, 336
-0.966672, 233, 209, 296, 272
-0.966709, 49, 41, 112, 104
-0.966787, 73, 73, 136, 136
-0.966852, 145, 225, 208, 480
-0.966922, 161, 169, 224, 232
-0.966934, 209, 177, 272, 240
-0.966939, 113, 113, 176, 176
-0.967313, 177, 289, 240, 416
-0.96749, 113, 1, 240, 128
-0.967771, 89, 105, 152, 168
-0.967787, 41, 161, 104, 416
-0.967875, 137, 1, 200, 128
-0.967936, 257, 145, 320, 272
-0.96799, 1, 65, 128, 192
-0.96814, 1, 257, 64, 320
-0.968187, 25, 41, 88, 104
-0.968193, 129, 217, 192, 280
-0.96833, 89, 161, 152, 416
-0.968375, 209, 321, 333, 448
-0.968384, 121, 305, 184, 368
-0.968419, 73, 313, 136, 376
-0.968482, 177, 233, 208, 296
-0.968528, 233, 257, 296, 320
-0.968611, 129, 9, 192, 72
-0.968793, 81, 1, 144, 256
-0.968907, 257, 193, 320, 256
-0.969018, 193, 177, 224, 304
-0.969051, 257, 289, 320, 416
-0.96926, 201, 265, 264, 328
-0.969326, 1, 1, 64, 256
-0.969361, 49, 65, 112, 320
-0.969373, 177, 225, 240, 480
-0.969375, 113, 89, 176, 152
-0.969549, 113, 1, 144, 128
-0.96978, 129, 249, 256, 312
-0.970072, 185, 337, 248, 464
-0.970091, 161, 369, 224, 496
-0.970159, 209, 201, 333, 264
-0.970226, 33, 25, 160, 88
-0.97036, 241, 153, 304, 216
-0.97036, 161, 297, 224, 360
-0.970521, 205, 193, 236, 256
-0.970527, 121, 193, 184, 448
-0.97059, 113, 65, 176, 320
-0.970612, 17, 321, 80, 384
-0.970652, 137, 33, 200, 96
-0.970772, 81, 329, 208, 392
-0.970967, 245, 193, 276, 256
-0.971195, 217, 129, 280, 384
-0.971203, 233, 201, 264, 264
-0.971281, 33, 353, 160, 480
-0.971316, 1, 321, 128, 384
-0.971449, 17, 321, 80, 448
-0.971473, 1, 1, 32, 64
-0.971593, 177, 225, 304, 288
-0.971606, 145, 97, 208, 352
-0.97163, 185, 161, 216, 224
-0.971641, 17, 193, 144, 256
-0.971756, 57, 97, 120, 160
-0.971866, 9, 233, 72, 296
-0.971934, 225, 177, 256, 240
-0.971949, 177, 241, 208, 368
-0.972034, 65, 305, 192, 368
-0.972333, 149, 337, 180, 464
-0.972362, 257, 225, 320, 288
-0.972447, 33, 9, 64, 72
-0.972506, 13, 177, 44, 304
-0.97251, 137, 49, 200, 176
-0.972606, 1, 97, 64, 224
-0.972872, 1, 41, 64, 104
-0.972971, 1, 297, 128, 360
-0.973021, 73, 369, 136, 496
-0.973057, 45, 1, 76, 128
-0.973172, 157, 329, 188, 392
-0.973183, 65, 161, 128, 416
-0.97321, 25, 225, 88, 352
-0.973358, 9, 89, 72, 152
-0.973431, 177, 257, 208, 320
-0.97345, 61, 33, 92, 96
-0.973672, 89, 49, 152, 112
-0.973948, 177, 129, 240, 384
-0.973989, 189, 225, 220, 288
-0.974069, 133, 193, 164, 256
-0.974156, 33, 249, 96, 312
-0.974216, 205, 153, 236, 216
-0.974271, 225, 97, 288, 224
-0.974327, 125, 193, 156, 320
-0.974577, 25, 65, 88, 320
-0.974794, 153, 97, 216, 160
-0.974809, 21, 297, 52, 360
-0.97484, 129, 345, 256, 408
-0.97485, 177, 249, 304, 312
-0.974854, 13, 9, 44, 72
-0.974995, 73, 1, 136, 64
-0.975225, 33, 97, 96, 160
-0.975275, 101, 25, 132, 88
-0.975421, 145, 177, 272, 240
-0.975599, 97, 257, 160, 500
-0.975618, 69, 33, 100, 160
-0.975623, 189, 249, 220, 312
-0.975697, 101, 1, 132, 128
-0.975824, 17, 185, 48, 248
-0.976056, 85, 25, 116, 88
-0.976095, 17, 1, 48, 128
-0.976115, 249, 281, 312, 344
-0.976126, 25, 209, 88, 272
-0.976146, 145, 1, 208, 256
-0.976267, 145, 329, 176, 392
-0.9763, 177, 361, 240, 424
-0.976322, 153, 129, 216, 192
-0.976442, 169, 193, 200, 320
-0.976452, 85, 33, 116, 160
-0.976486, 89, 241, 152, 304
-0.976529, 33, 1, 96, 500
-0.976605, 265, 161, 328, 224
-0.976754, 81, 33, 208, 96
-0.976842, 137, 337, 168, 464
-0.976847, 153, 193, 184, 320
-0.976955, 37, 185, 68, 248
-0.977088, 33, 57, 64, 120
-0.977114, 37, 177, 68, 304
-0.977137, 177, 153, 304, 216
-0.977305, 185, 201, 216, 264
-0.977409, 97, 225, 224, 288
-0.977465, 253, 217, 284, 280
-0.977502, 141, 257, 172, 384
-0.977547, 45, 17, 76, 80
-0.977558, 113, 281, 176, 344
-0.977611, 97, 369, 160, 432
-0.977613, 113, 25, 144, 88
-0.977638, 221, 153, 252, 216
-0.977649, 217, 209, 248, 272
-0.977652, 113, 177, 144, 304
-0.977684, 181, 193, 212, 320
-0.977697, 73, 265, 136, 328
-0.977701, 205, 129, 236, 256
-0.977815, 257, 129, 320, 192
-0.977886, 69, 185, 100, 248
-0.977939, 257, 185, 288, 248
-0.977944, 73, 17, 104, 80
-0.978037, 73, 289, 136, 352
-0.978083, 65, 65, 96, 128
-0.978105, 153, 1, 216, 64
-0.97812, 33, 33, 64, 96
-0.978143, 97, 1, 224, 64
-0.978146, 33, 265, 160, 328
-0.978187, 33, 313, 64, 376
-0.978213, 153, 9, 184, 72
-0.978394, 33, 17, 64, 144
-0.978435, 173, 161, 204, 224
-0.978435, 9, 1, 72, 500
-0.978451, 125, 337, 156, 400
-0.978535, 49, 225, 112, 288
-0.978567, 229, 145, 260, 272
-0.978603, 201, 353, 264, 416
-0.978616, 1, 129, 128, 256
-0.978626, 53, 289, 84, 352
-0.978667, 33, 289, 64, 352
-0.978713, 165, 257, 196, 384
-0.97872, 97, 193, 224, 256
-0.978738, 17, 65, 48, 128
-0.97877, 217, 193, 248, 320
-0.978774, 1, 305, 32, 368
-0.978793, 241, 97, 304, 352
-0.97882, 25, 257, 88, 500
-0.978823, 217, 225, 280, 480
-0.978826, 81, 265, 208, 328
-0.978829, 57, 345, 120, 408
-0.978847, 237, 153, 268, 216
-0.978913, 125, 33, 156, 160
-0.978915, 89, 177, 120, 304
-0.978958, 77, 97, 108, 160
-0.978959, 145, 193, 176, 256
-0.978974, 189, 273, 220, 336
-0.97903, 97, 337, 128, 400
-0.979049, 273, 297, 333, 360
-0.979078, 153, 105, 184, 168
-0.979083, 1, 241, 32, 368
-0.979092, 17, 225, 144, 288
-0.979131, 165, 257, 196, 320
-0.979162, 177, 121, 240, 184
-0.979171, 169, 337, 200, 400
-0.979293, 141, 33, 172, 96
-0.979406, 205, 177, 236, 304
-0.979411, 149, 233, 180, 296
-0.979527, 161, 1, 224, 128
-0.979533, 177, 273, 304, 336
-0.979552, 69, 177, 100, 304
-0.979582, 57, 257, 120, 500
-0.979599, 73, 369, 136, 432
-0.979689, 17, 353, 144, 416
-0.979805, 109, 345, 140, 408
-0.979828, 161, 337, 192, 464
-0.97987, 53, 177, 84, 304
-0.979873, 205, 217, 236, 280
-0.979981, 173, 305, 204, 432
-0.979983, 169, 201, 200, 264
-0.980036, 253, 161, 284, 224
-0.980054, 125, 25, 156, 88
-0.980071, 53, 73, 84, 136
-0.980109, 253, 129, 284, 256
-0.980174, 81, 361, 208, 424
-0.980217, 105, 49, 136, 176
-0.980404, 273, 249, 333, 312
-0.980426, 57, 1, 120, 500
-0.980428, 1, 177, 32, 304
-0.98043, 201, 241, 232, 304
-0.980432, 57, 17, 88, 144
-0.980537, 193, 177, 320, 240
-0.980557, 137, 177, 200, 240
-0.980564, 153, 289, 184, 416
-0.980579, 1, 257, 64, 500
-0.980603, 189, 257, 220, 384
-0.980684, 113, 241, 176, 304
-0.980759, 237, 193, 268, 320
-0.980814, 25, 161, 88, 224
-0.98083, 157, 201, 188, 264
-0.980847, 125, 289, 156, 416
-0.9809, 141, 193, 172, 320
-0.980913, 17, 97, 144, 160
-0.980939, 253, 249, 284, 312
-0.98094, 181, 145, 212, 272
-0.981045, 193, 137, 224, 200
-0.981242, 65, 57, 192, 120
-0.981352, 97, 121, 224, 184
-0.981461, 145, 129, 272, 192
-0.981525, 41, 81, 72, 144
-0.981531, 113, 193, 144, 256
-0.981713, 161, 49, 192, 176
-0.981755, 265, 97, 328, 224
-0.981811, 177, 81, 240, 208
-0.981829, 1, 65, 32, 128
-0.981921, 17, 1, 144, 64
-0.981925, 5, 185, 36, 248
-0.981928, 101, 177, 132, 304
-0.981983, 73, 41, 104, 104
-0.982014, 129, 273, 160, 336
-0.982035, 1, 161, 64, 224
-0.98227, 73, 113, 104, 240
-0.982273, 225, 281, 288, 344
-0.98229, 65, 81, 192, 144
-0.982294, 97, 169, 224, 232
-0.982316, 5, 1, 36, 128
-0.982354, 53, 185, 84, 248
-0.982392, 1, 249, 32, 312
-0.982435, 105, 105, 136, 168
-0.982468, 241, 193, 304, 448
-0.982487, 17, 65, 144, 128
-0.982505, 153, 41, 184, 104
-0.982587, 1, 273, 32, 336
-0.982595, 241, 129, 272, 256
-0.982611, 201, 121, 264, 184
-0.982629, 13, 33, 44, 96
-0.982727, 45, 313, 76, 376
-0.982734, 273, 209, 304, 272
-0.982797, 65, 297, 96, 360
-0.982834, 133, 113, 164, 176
-0.982836, 217, 145, 248, 272
-0.982859, 169, 145, 200, 272
-0.982904, 109, 321, 140, 384
-0.982933, 77, 73, 108, 136
-0.982952, 173, 137, 204, 200
-0.983002, 105, 217, 168, 280
-0.983019, 125, 113, 156, 240
-0.983145, 113, 65, 176, 128
-0.983173, 201, 81, 264, 208
-0.983182, 217, 233, 248, 296
-0.983185, 185, 289, 248, 352
-0.983203, 237, 241, 268, 304
-0.983204, 121, 305, 152, 368
-0.983255, 153, 129, 184, 192
-0.983437, 89, 193, 120, 256
-0.983451, 161, 33, 224, 96
-0.983475, 17, 273, 48, 400
-0.983484, 57, 9, 88, 72
-0.983599, 193, 329, 256, 392
-0.983654, 165, 233, 196, 296
-0.983673, 145, 105, 272, 168
-0.983679, 149, 353, 180, 416
-0.983685, 25, 177, 56, 304
-0.983781, 145, 49, 176, 176
-0.98379, 129, 297, 256, 360
-0.983808, 13, 225, 44, 352
-0.983857, 161, 201, 288, 264
-0.983868, 193, 129, 320, 192
-0.9839, 141, 1, 172, 64
-0.983924, 125, 337, 156, 464
-0.983938, 137, 241, 168, 304
-0.983984, 177, 345, 304, 408
-0.98408, 153, 97, 184, 224
-0.984108, 85, 321, 116, 384
-0.984156, 173, 297, 204, 360
-0.984219, 49, 169, 176, 232
-0.984239, 181, 337, 212, 400
-0.984292, 161, 1, 192, 128
-0.984311, 133, 217, 164, 280
-0.984356, 137, 153, 200, 216
-0.984364, 77, 241, 108, 368
-0.984379, 113, 113, 144, 240
-0.9844, 121, 225, 152, 288
-0.984403, 53, 257, 84, 384
-0.984473, 129, 321, 256, 384
-0.984553, 257, 137, 288, 200
-0.984563, 49, 265, 80, 328
-0.984586, 285, 201, 316, 264
-0.984661, 153, 81, 184, 144
-0.984699, 1, 369, 64, 496
-0.984753, 33, 257, 64, 384
-0.98496, 237, 257, 268, 384
-0.984969, 105, 169, 168, 232
-0.985014, 105, 49, 136, 112
-0.985043, 85, 345, 116, 408
-0.985072, 209, 97, 333, 224
-0.985086, 1, 25, 32, 88
-0.985108, 129, 25, 256, 88
-0.985121, 61, 305, 92, 432
-0.985146, 161, 1, 224, 500
-0.98517, 129, 49, 160, 112
-0.985186, 65, 89, 96, 152
-0.985211, 101, 193, 132, 256
-0.985262, 217, 273, 248, 400
-0.985319, 249, 321, 312, 384
-0.985481, 129, 273, 256, 336
-0.985506, 21, 49, 52, 176
-0.985558, 81, 385, 208, 448
-0.985578, 217, 353, 280, 480
-0.985627, 1, 209, 64, 272
-0.985667, 29, 81, 60, 144
-0.98567, 73, 217, 136, 280
-0.985704, 141, 265, 172, 328
-0.985725, 21, 321, 52, 384
-0.985776, 129, 241, 160, 368
-0.985943, 121, 385, 184, 448
-0.985988, 209, 345, 240, 408
-0.986, 301, 209, 332, 272
-0.986, 61, 97, 92, 224
-0.986056, 161, 297, 192, 360
-0.986135, 233, 369, 296, 432
-0.986166, 89, 1, 152, 500
-0.986168, 105, 241, 136, 368
-0.98618, 1, 289, 32, 416
-0.986193, 49, 161, 112, 224
-0.986247, 77, 297, 108, 360
-0.986319, 13, 233, 44, 296
-0.986323, 17, 273, 48, 336
-0.9864, 193, 129, 224, 256
-0.986425, 137, 57, 200, 120
-0.986483, 117, 89, 148, 152
-0.986497, 57, 401, 120, 464
-0.986513, 33, 257, 64, 320
-0.986551, 133, 313, 164, 376
-0.986589, 25, 385, 88, 448
-0.98661, 145, 1, 272, 64
-0.986659, 201, 257, 232, 384
-0.986663, 169, 33, 232, 288
-0.986708, 97, 313, 128, 376
-0.986774, 205, 129, 236, 192
-0.986792, 97, 361, 128, 424
-0.986796, 257, 377, 320, 440
-0.986831, 125, 249, 156, 312
-0.986881, 165, 113, 196, 176
-0.986939, 177, 305, 304, 368
-0.986998, 49, 121, 176, 184
-0.987021, 269, 145, 300, 272
-0.987046, 221, 129, 252, 192
-0.987053, 205, 273, 236, 336
-0.987084, 273, 289, 304, 352
-0.987096, 1, 169, 128, 232
-0.987103, 137, 1, 168, 128
-0.98711, 301, 177, 332, 304
-0.987121, 97, 401, 160, 464
-0.987151, 137, 1, 200, 500
-0.987169, 141, 89, 172, 152
-0.987176, 217, 329, 280, 392
-0.98721, 45, 41, 76, 104
-0.987223, 193, 337, 224, 400
-0.987262, 273, 273, 333, 336
-0.987301, 193, 369, 320, 432
-0.98731, 265, 433, 328, 496
-0.98732, 89, 321, 120, 448
-0.987362, 9, 329, 40, 392
-0.987391, 145, 369, 272, 432
-0.987455, 273, 161, 333, 416
-0.987531, 225, 105, 288, 168
-0.987557, 273, 289, 304, 416
-0.987595, 85, 97, 116, 224
-0.987629, 161, 17, 288, 144
-0.987631, 21, 97, 52, 224
-0.987654, 49, 369, 112, 496
-0.987768, 1, 81, 64, 112
-0.987814, 153, 241, 184, 368
-0.987878, 177, 1, 240, 64
-0.987961, 105, 353, 136, 480
-0.988085, 285, 289, 316, 416
-0.988208, 113, 289, 144, 416
-0.988223, 101, 113, 132, 240
-0.988247, 225, 165, 288, 196
-0.988291, 1, 393, 128, 456
-0.988405, 137, 341, 200, 372
-0.988459, 25, 321, 56, 448
-0.988499, 73, 321, 104, 448
-0.988553, 225, 185, 288, 216
-0.988558, 73, 161, 136, 224
-0.988573, 169, 249, 232, 280
-0.988672, 25, 97, 88, 128
-0.988705, 105, 357, 168, 388
-0.988719, 173, 17, 204, 144
-0.988782, 73, 29, 136, 60
-0.988847, 285, 209, 316, 336
-0.988858, 141, 145, 172, 272
-0.988931, 201, 321, 232, 448
-0.988946, 113, 37, 176, 68
-0.988975, 193, 161, 256, 192
-0.988979, 225, 153, 288, 184
-0.988986, 193, 181, 256, 212
-0.989004, 13, 321, 44, 448
-0.989026, 57, 105, 120, 136
-0.989036, 145, 245, 208, 276
-0.989066, 113, 1, 176, 500
-0.989072, 25, 17, 88, 48
-0.989076, 1, 189, 64, 220
-0.989097, 97, 117, 160, 148
-0.989102, 65, 257, 96, 384
-0.989275, 149, 1, 180, 128
-0.98933, 153, 261, 216, 292
-0.989343, 253, 273, 284, 400
-0.98936, 41, 37, 104, 68
-0.989366, 201, 205, 264, 236
-0.989391, 81, 417, 208, 480
-0.989401, 273, 209, 304, 336
-0.989405, 113, 341, 176, 372
-0.989414, 9, 49, 40, 176
-0.989415, 173, 97, 204, 224
-0.989479, 1, 13, 64, 44
-0.989499, 25, 85, 88, 116
-0.989504, 217, 225, 280, 256
-0.989526, 193, 193, 256, 224
-0.989546, 249, 177, 280, 304
-0.989548, 49, 93, 112, 124
-0.989607, 33, 193, 96, 224
-0.989624, 81, 349, 144, 380
-0.98965, 193, 33, 256, 288
-0.989657, 89, 273, 120, 400
-0.989672, 73, 41, 136, 72
-0.989691, 49, 25, 112, 56
-0.989696, 113, 81, 240, 144
-0.9897, 273, 337, 333, 464
-0.989724, 145, 357, 208, 388
-0.989784, 193, 237, 256, 268
-0.989857, 201, 149, 264, 180
-0.989865, 185, 261, 248, 292
-0.989872, 233, 213, 296, 244
-0.989936, 65, 197, 128, 228
-0.98995, 81, 105, 144, 136
-0.989997, 193, 273, 256, 304
-0.99003, 233, 197, 296, 228
-0.990056, 9, 309, 72, 340
-0.990084, 117, 241, 148, 368
-0.990086, 121, 369, 184, 400
-0.990095, 121, 329, 184, 360
-0.990107, 185, 225, 248, 256
-0.990118, 49, 81, 112, 112
-0.990146, 89, 197, 152, 228
-0.990146, 113, 201, 176, 232
-0.990153, 65, 345, 320, 408
-0.990167, 1, 93, 64, 124
-0.990205, 169, 169, 232, 200
-0.990222, 169, 237, 232, 268
-0.990235, 161, 197, 224, 228
-0.990296, 265, 65, 328, 320
-0.990336, 225, 97, 256, 224
-0.990341, 169, 157, 232, 188
-0.990354, 177, 285, 240, 316
-0.990357, 129, 25, 192, 56
-0.990359, 249, 173, 312, 204
-0.990366, 129, 393, 256, 456
-0.990375, 121, 121, 184, 152
-0.990376, 169, 349, 232, 380
-0.99039, 193, 249, 256, 280
-0.990397, 297, 225, 328, 352
-0.990414, 97, 21, 160, 52
-0.990421, 145, 373, 208, 404
-0.990428, 241, 369, 304, 496
-0.990433, 113, 49, 176, 80
-0.990442, 1, 69, 64, 100
-0.990457, 233, 137, 296, 168
-0.990479, 161, 273, 224, 304
-0.99049, 169, 373, 232, 404
-0.990514, 137, 41, 200, 72
-0.990515, 25, 73, 88, 104
-0.990564, 33, 317, 96, 348
-0.990581, 217, 241, 280, 272
-0.990601, 137, 273, 200, 304
-0.990624, 1, 29, 64, 60
-0.990634, 41, 61, 104, 92
-0.990637, 161, 337, 224, 368
-0.990651, 177, 353, 208, 480
-0.990651, 169, 185, 232, 216
-0.990713, 209, 261, 272, 292
-0.990713, 145, 385, 208, 448
-0.990728, 129, 261, 192, 292
-0.990762, 233, 265, 296, 296
-0.990778, 33, 285, 96, 316
-0.990785, 113, 105, 176, 136
-0.99079, 49, 305, 80, 432
-0.990817, 17, 297, 80, 328
-0.99087, 49, 305, 112, 336
-0.990873, 257, 209, 320, 240
-0.990874, 81, 309, 144, 340
-0.990889, 1, 249, 256, 312
-0.990907, 249, 153, 312, 184
-0.990955, 45, 49, 76, 176
-0.990966, 73, 17, 136, 48
-0.990977, 1, 313, 256, 376
-0.990985, 153, 217, 216, 248
-0.991007, 105, 253, 168, 284
-0.99101, 209, 365, 272, 396
-0.991014, 65, 145, 192, 208
-0.991054, 209, 137, 272, 168
-0.991057, 241, 237, 304, 268
-0.991061, 73, 361, 136, 392
-0.991074, 129, 233, 192, 264
-0.991085, 137, 205, 200, 236
-0.991098, 9, 281, 72, 312
-0.991101, 257, 225, 320, 256
-0.991103, 9, 97, 40, 224
-0.99111, 73, 65, 136, 96
-0.991117, 41, 329, 104, 360
-0.991118, 25, 205, 88, 236
-0.991135, 1, 321, 64, 352
-0.991145, 41, 49, 104, 80
-0.991162, 17, 333, 80, 364
-0.991164, 225, 277, 288, 308
-0.99117, 73, 93, 136, 124
-0.991183, 1, 53, 64, 84
-0.991185, 73, 53, 136, 84
-0.991199, 1, 261, 64, 292
-0.991205, 241, 345, 304, 408
-0.991207, 25, 217, 88, 248
-0.991214, 121, 13, 184, 44
-0.991245, 189, 321, 220, 448
-0.991254, 153, 293, 216, 324
-0.991272, 153, 29, 216, 60
-0.991274, 1, 185, 256, 248
-0.991288, 145, 125, 208, 156
-0.991289, 169, 361, 232, 392
-0.991293, 233, 253, 296, 284
-0.991298, 265, 257, 328, 500
-0.991312, 57, 317, 120, 348
-0.991315, 177, 209, 240, 240
-0.991322, 177, 145, 240, 176
-0.991345, 33, 249, 96, 280
-0.991355, 121, 309, 184, 340
-0.991391, 201, 285, 264, 316
-0.991445, 73, 117, 136, 148
-0.99145, 65, 253, 128, 284
-0.991455, 1, 369, 256, 432
-0.991457, 257, 185, 320, 216
-0.991495, 25, 361, 88, 424
-0.991497, 1, 201, 64, 232
-0.99151, 209, 305, 272, 432
-0.991527, 265, 353, 328, 416
-0.991585, 97, 265, 160, 296
-0.991591, 137, 109, 200, 140
-0.991592, 33, 109, 96, 140
-0.991625, 1, 41, 64, 72
-0.99163, 185, 1, 248, 500
-0.99166, 9, 245, 72, 276
-0.991683, 121, 289, 184, 320
-0.991707, 129, 217, 192, 248
-0.991731, 1, 345, 64, 408
-0.991733, 257, 197, 320, 228
-0.991785, 65, 281, 320, 344
-0.991916, 45, 129, 76, 256
-0.991939, 17, 433, 144, 496
-0.991941, 105, 425, 168, 488
-0.991983, 45, 93, 76, 124
-0.992019, 5, 81, 36, 112
-0.992044, 57, 97, 88, 128
-0.99206, 85, 369, 116, 496
-0.992067, 173, 245, 204, 276
-0.992076, 1, 161, 256, 224
-0.992082, 113, 57, 240, 120
-0.992089, 149, 349, 180, 380
-0.992132, 253, 157, 284, 188
-0.992135, 217, 305, 280, 368
-0.992135, 257, 1, 320, 500
-0.992135, 241, 193, 272, 224
-0.992194, 1, 193, 333, 256
-0.992201, 33, 129, 64, 256
-0.992207, 245, 205, 276, 236
-0.992216, 193, 105, 320, 168
-0.992225, 73, 101, 104, 132
-0.992263, 121, 37, 152, 68
-0.992283, 145, 361, 176, 392
-0.992283, 149, 337, 180, 368
-0.992287, 85, 105, 116, 136
-0.99229, 97, 109, 128, 140
-0.992298, 229, 185, 260, 216
-0.992303, 29, 89, 60, 120
-0.992303, 85, 41, 116, 72
-0.992305, 233, 1, 296, 500
-0.992313, 101, 33, 132, 64
-0.992318, 17, 85, 48, 116
-0.992334, 165, 337, 196, 368
-0.992337, 217, 33, 280, 288
-0.992341, 193, 237, 224, 268
-0.992346, 85, 29, 116, 60
-0.992351, 225, 201, 256, 232
-0.992362, 221, 173, 252, 204
-0.992368, 169, 265, 200, 296
-0.992376, 13, 189, 44, 220
-0.992377, 49, 377, 112, 440
-0.992378, 105, 45, 136, 76
-0.992383, 189, 273, 220, 304
-0.992386, 157, 361, 188, 392
-0.992391, 201, 157, 232, 188
-0.992413, 189, 165, 220, 196
-0.992424, 141, 41, 172, 72
-0.992425, 73, 25, 104, 56
-0.992425, 225, 221, 256, 252
-0.992426, 53, 21, 84, 52
-0.992427, 133, 201, 164, 232
-0.992429, 237, 161, 268, 192
-0.992445, 117, 117, 148, 148
-0.992477, 13, 13, 44, 44
-0.992479, 1, 9, 32, 40
-0.992485, 1, 57, 256, 120
-0.992485, 205, 225, 236, 256
-0.992488, 1, 225, 256, 288
-0.992489, 189, 205, 220, 236
-0.99249, 33, 17, 64, 48
-0.99249, 189, 261, 220, 292
-0.992503, 221, 161, 252, 192
-0.992504, 145, 121, 176, 152
-0.992504, 209, 173, 240, 204
-0.992514, 213, 337, 244, 464
-0.992516, 169, 385, 232, 448
-0.992518, 201, 209, 232, 240
-0.99252, 125, 349, 156, 380
-0.992532, 189, 185, 220, 216
-0.992542, 65, 37, 96, 68
-0.992544, 69, 193, 100, 224
-0.992544, 1, 369, 64, 432
-0.992546, 253, 193, 284, 224
-0.992549, 93, 349, 124, 380
-0.992552, 133, 121, 164, 152
-0.992555, 205, 197, 236, 228
-0.992565, 217, 189, 248, 220
-0.992567, 253, 145, 284, 176
-0.992568, 33, 189, 64, 220
-0.992573, 189, 153, 220, 184
-0.99258, 189, 225, 220, 256
-0.992582, 33, 317, 64, 348
-0.9926, 13, 309, 44, 340
-0.992606, 205, 185, 236, 216
-0.992607, 261, 225, 292, 256
-0.992611, 149, 201, 180, 232
-0.992623, 257, 209, 288, 240
-0.992625, 109, 353, 140, 384
-0.992625, 105, 197, 136, 228
-0.992629, 137, 337, 168, 368
-0.992629, 213, 209, 244, 240
-0.992633, 257, 81, 288, 208
-0.992648, 245, 181, 276, 212
-0.992651, 25, 369, 88, 496
-0.992661, 237, 217, 268, 248
-0.992664, 1, 17, 256, 80
-0.992665, 13, 25, 44, 56
-0.992675, 149, 241, 180, 272
-0.992681, 49, 313, 80, 344
-0.992684, 273, 213, 304, 244
-0.992685, 173, 169, 204, 200
-0.992687, 217, 233, 248, 264
-0.992712, 249, 241, 280, 272
-0.992717, 173, 157, 204, 188
-0.992722, 169, 201, 200, 232
-0.992722, 125, 49, 156, 80
-0.992724, 53, 193, 84, 224
-0.992738, 41, 33, 72, 64
-0.992741, 181, 293, 212, 324
-0.992753, 193, 249, 224, 280
-0.992768, 157, 121, 188, 152
-0.992777, 1, 189, 32, 220
-0.992779, 205, 269, 236, 300
-0.992783, 249, 221, 280, 252
-0.992783, 177, 277, 208, 308
-0.992786, 157, 45, 188, 76
-0.992787, 233, 173, 264, 204
-0.992787, 93, 197, 124, 228
-0.992796, 261, 209, 292, 336
-0.992797, 209, 145, 240, 176
-0.992806, 109, 105, 140, 136
-0.992807, 133, 213, 164, 244
-0.992808, 169, 225, 200, 256
-0.992817, 157, 253, 188, 284
-0.992821, 33, 37, 160, 68
-0.992826, 145, 373, 176, 404
-0.992829, 241, 265, 272, 296
-0.992833, 257, 181, 288, 212
-0.992834, 61, 313, 92, 344
-0.992835, 109, 341, 140, 372
-0.992842, 29, 77, 60, 108
-0.992844, 265, 197, 296, 228
-0.992845, 169, 213, 200, 244
-0.992846, 221, 149, 252, 180
-0.992855, 121, 201, 152, 232
-0.992859, 93, 369, 124, 400
-0.992861, 237, 253, 268, 284
-0.992864, 157, 229, 188, 260
-0.992864, 133, 249, 164, 280
-0.992869, 1, 317, 32, 348
-0.992875, 61, 109, 92, 140
-0.992881, 153, 109, 184, 140
-0.992882, 141, 261, 172, 292
-0.992884, 73, 89, 104, 120
-0.992885, 137, 349, 168, 380
-0.99289, 153, 133, 184, 164
-0.992891, 101, 21, 132, 52
-0.992891, 85, 309, 116, 340
-0.992894, 173, 145, 204, 176
-0.992894, 169, 189, 200, 220
-0.992897, 9, 1, 24, 64
-0.9929, 285, 209, 316, 240
-0.992901, 213, 245, 244, 276
-0.992901, 169, 349, 200, 380
-0.992904, 253, 257, 284, 288
-0.992905, 165, 1, 196, 32
-0.992911, 1, 249, 333, 312
-0.992944, 33, 65, 64, 192
-0.992976, 281, 145, 312, 272
-0.992984, 237, 81, 268, 208
-0.993016, 157, 145, 188, 272
-0.993052, 145, 161, 272, 192
-0.993059, 1, 337, 32, 464
-0.993102, 1, 353, 333, 416
-0.993151, 209, 1, 272, 500
-0.993153, 209, 209, 333, 240
-0.99326, 301, 273, 332, 400
-0.993282, 1, 169, 333, 232
-0.993301, 37, 321, 68, 448
-0.993309, 177, 257, 304, 288
-0.993389, 81, 349, 208, 380
-0.993413, 171, 329, 186, 392
-0.993414, 181, 233, 196, 296
-0.993462, 225, 417, 288, 480
-0.993465, 101, 289, 132, 416
-0.993527, 3, 1, 18, 64
-0.993533, 137, 409, 200, 472
-0.993598, 249, 225, 280, 352
-0.993653, 265, 105, 328, 168
-0.993666, 255, 153, 270, 216
-0.993674, 177, 245, 304, 276
-0.993723, 233, 177, 248, 240
-0.993727, 273, 321, 333, 384
-0.993747, 195, 153, 210, 216
-0.993788, 1, 297, 333, 360
-0.99382, 205, 177, 220, 240
-0.993843, 181, 257, 196, 320
-0.993876, 221, 169, 236, 232
-0.993896, 97, 361, 224, 392
-0.99391, 17, 193, 144, 224
-0.993922, 93, 225, 124, 352
-0.993926, 113, 265, 240, 296
-0.993949, 191, 241, 206, 304
-0.993989, 33, 25, 160, 56
-0.994032, 135, 193, 150, 256
-0.99405, 83, 17, 98, 80
-0.994072, 111, 25, 126, 88
-0.994094, 247, 193, 262, 256
-0.994124, 189, 161, 204, 224
-0.994131, 199, 185, 214, 248
-0.994166, 81, 249, 208, 280
-0.99419, 1, 81, 256, 144
-0.994215, 229, 153, 244, 216
-0.994229, 45, 9, 60, 72
-0.994242, 161, 73, 288, 136
-0.994255, 199, 241, 214, 304
-0.994266, 207, 145, 222, 208
-0.994283, 141, 97, 172, 224
-0.994285, 161, 49, 176, 112
-0.994312, 81, 337, 208, 368
-0.994317, 83, 73, 98, 136
-0.994327, 15, 1, 30, 64
-0.994372, 49, 317, 176, 348
-0.994386, 77, 17, 92, 80
-0.994391, 207, 249, 222, 312
-0.994401, 81, 25, 208, 56
-0.994406, 101, 25, 116, 88
-0.994413, 249, 161, 264, 224
-0.994417, 13, 305, 28, 368
-0.994441, 239, 177, 254, 240
-0.994453, 129, 201, 256, 232
-0.994498, 201, 145, 216, 208
-0.994509, 129, 349, 256, 380
-0.994513, 113, 337, 128, 400
-0.99452, 189, 201, 204, 264
-0.994554, 119, 193, 134, 256
-0.99456, 9, 185, 24, 248
-0.994564, 39, 9, 54, 72
-0.994567, 187, 265, 202, 328
-0.994568, 265, 169, 280, 232
-0.994571, 177, 285, 304, 316
-0.994574, 223, 193, 238, 256
-0.994596, 269, 193, 284, 256
-0.994609, 1, 305, 128, 336
-0.994634, 257, 177, 272, 240
-0.994643, 1, 333, 128, 364
-0.99467, 65, 49, 192, 80
-0.994685, 33, 9, 48, 72
-0.994716, 261, 145, 276, 208
-0.994717, 81, 373, 208, 404
-0.994725, 25, 9, 40, 72
-0.994743, 151, 33, 166, 96
-0.99477, 25, 297, 40, 360
-0.994775, 211, 185, 226, 248
-0.994818, 69, 17, 84, 80
-0.99483, 155, 193, 170, 256
-0.994859, 177, 177, 304, 208
-0.994878, 161, 49, 288, 112
-0.994886, 117, 25, 132, 88
-0.994894, 1, 273, 333, 336
-0.994901, 165, 1, 180, 64
-0.994916, 207, 225, 222, 288
-0.994919, 1, 113, 256, 176
-0.994928, 1, 13, 128, 44
-0.994957, 1, 89, 128, 120
-0.994957, 177, 197, 304, 228
-0.994967, 17, 205, 144, 236
-0.994987, 161, 105, 176, 168
-0.994997, 77, 73, 92, 136
-0.995028, 157, 321, 172, 384
-0.995028, 1, 177, 16, 240
-0.995045, 57, 17, 72, 80
-0.995051, 143, 273, 158, 336
-0.995057, 163, 201, 178, 264
-0.99506, 81, 37, 208, 68
-0.995068, 145, 365, 272, 396
-0.99508, 51, 297, 66, 360
-0.995088, 237, 201, 252, 264
-0.99509, 73, 369, 104, 496
-0.995131, 165, 329, 180, 392
-0.995149, 225, 353, 256, 480
-0.995155, 173, 241, 188, 304
-0.995171, 239, 153, 254, 216
-0.995182, 35, 305, 50, 368
-0.995201, 197, 369, 228, 496
-0.995237, 217, 193, 232, 256
-0.995238, 37, 185, 52, 248
-0.995244, 17, 229, 144, 260
-0.995246, 171, 217, 186, 280
-0.995262, 17, 101, 144, 132
-0.995268, 221, 217, 236, 280
-0.995277, 147, 193, 162, 256
-0.995309, 83, 49, 98, 112
-0.995319, 265, 217, 280, 280
-0.995329, 129, 253, 256, 284
-0.995336, 147, 337, 162, 400
-0.99534, 231, 201, 246, 264
-0.995342, 123, 25, 138, 88
-0.995348, 177, 417, 304, 480
-0.995348, 19, 313, 34, 376
-0.995368, 45, 289, 60, 352
-0.995376, 123, 89, 138, 152
-0.995379, 57, 305, 72, 368
-0.995381, 161, 273, 288, 304
-0.99539, 193, 221, 320, 252
-0.995396, 145, 145, 272, 176
-0.995397, 213, 161, 228, 224
-0.995404, 1, 77, 128, 108
-0.995405, 51, 9, 66, 72
-0.995421, 143, 25, 158, 88
-0.995424, 201, 217, 216, 280
-0.995431, 129, 377, 256, 408
-0.995434, 19, 185, 34, 248
-0.995436, 93, 41, 108, 104
-0.995483, 1, 257, 128, 288
-0.995483, 45, 33, 60, 96
-0.995511, 193, 265, 208, 328
-0.995515, 11, 65, 26, 128
-0.99553, 77, 185, 92, 248
-0.995542, 107, 337, 122, 400
-0.995549, 265, 249, 280, 312
-0.995551, 97, 213, 224, 244
-0.995552, 133, 25, 148, 88
-0.995552, 53, 65, 68, 128
-0.995556, 179, 161, 194, 224
-0.99556, 17, 365, 144, 396
-0.995563, 43, 65, 58, 128
-0.995566, 181, 201, 196, 264
-0.995572, 135, 257, 150, 320
-0.995572, 5, 249, 20, 312
-0.995585, 175, 265, 190, 328
-0.995592, 1, 305, 16, 368
-0.995595, 81, 201, 208, 232
-0.9956, 181, 337, 196, 400
-0.995603, 17, 217, 144, 248
-0.995611, 17, 161, 48, 416
-0.995623, 13, 25, 28, 88
-0.995629, 93, 17, 108, 80
-0.995632, 1, 317, 128, 348
-0.995633, 119, 337, 134, 400
-0.995657, 213, 241, 228, 304
-0.995657, 69, 281, 84, 344
-0.995678, 169, 25, 184, 88
-0.995689, 69, 81, 84, 144
-0.995689, 177, 225, 208, 480
-0.995697, 161, 81, 176, 144
-0.995699, 193, 145, 320, 176
-0.995699, 77, 41, 92, 104
-0.995706, 97, 189, 224, 220
-0.99571, 173, 1, 188, 64
-0.995714, 3, 65, 18, 128
-0.995733, 65, 185, 80, 248
-0.995734, 141, 193, 156, 256
-0.995736, 195, 217, 210, 280
-0.995737, 57, 281, 72, 344
-0.995738, 63, 17, 78, 80
-0.995769, 81, 13, 208, 44
-0.995789, 49, 265, 176, 296
-0.995791, 9, 281, 24, 344
-0.995793, 63, 281, 78, 344
-0.995808, 161, 225, 192, 480
-0.995829, 245, 225, 260, 288
-0.995829, 157, 17, 172, 80
-0.99583, 129, 89, 144, 152
-0.995832, 189, 81, 220, 208
-0.995839, 125, 193, 140, 256
-0.995842, 89, 321, 104, 384
-0.995857, 77, 65, 108, 320
-0.995876, 135, 297, 150, 360
-0.995888, 201, 265, 216, 328
-0.99589, 113, 109, 240, 140
-0.995898, 79, 305, 94, 368
-0.995899, 145, 249, 160, 312
-0.995907, 33, 97, 64, 352
-0.995914, 177, 233, 304, 264
-0.995922, 81, 97, 208, 128
-0.995938, 79, 97, 94, 160
-0.995938, 45, 313, 60, 376
-0.995938, 193, 165, 320, 196
-0.995944, 1, 65, 333, 128
-0.995944, 129, 337, 256, 368
-0.995967, 21, 1, 52, 256
-0.995973, 149, 225, 180, 480
-0.995997, 301, 129, 332, 256
-0.996008, 97, 233, 224, 264
-0.996009, 129, 417, 256, 480
-0.996058, 113, 277, 240, 308
-0.99606, 1, 225, 333, 288
-0.996085, 177, 393, 304, 456
-0.996139, 149, 97, 180, 352
-0.9962, 17, 241, 144, 272
-0.996216, 1, 161, 32, 416
-0.996233, 201, 161, 232, 416
-0.996233, 65, 85, 192, 116
-0.996235, 145, 129, 272, 160
-0.996239, 189, 161, 220, 416
-0.996239, 33, 137, 288, 200
-0.996263, 269, 337, 300, 464
-0.996267, 97, 293, 224, 324
-0.99628, 153, 1, 184, 256
-0.996312, 65, 161, 96, 416
-0.996323, 49, 161, 80, 416
-0.996349, 105, 161, 136, 416
-0.996363, 113, 65, 144, 320
-0.99641, 33, 349, 160, 380
-0.996437, 133, 193, 164, 448
-0.996449, 193, 373, 320, 404
-0.996456, 33, 113, 160, 144
-0.996457, 113, 305, 240, 336
-0.996469, 1, 377, 333, 440
-0.996517, 1, 1, 32, 256
-0.996562, 117, 161, 148, 416
-0.996601, 1, 1, 333, 64
-0.996648, 1, 65, 128, 96
-0.996654, 77, 161, 108, 416
-0.996678, 201, 81, 232, 208
-0.996689, 205, 257, 220, 288
-0.996698, 137, 65, 168, 320
-0.996711, 121, 257, 152, 500
-0.996733, 65, 129, 192, 160
-0.996754, 49, 305, 176, 336
-0.996761, 245, 161, 260, 192
-0.996773, 89, 161, 120, 416
-0.996777, 129, 37, 256, 68
-0.996777, 1, 129, 333, 192
-0.996787, 209, 269, 333, 300
-0.996844, 17, 293, 144, 324
-0.996851, 195, 261, 210, 292
-0.996852, 173, 129, 204, 384
-0.996889, 65, 65, 96, 320
-0.996899, 1, 25, 333, 88
-0.996912, 147, 361, 162, 392
-0.996912, 33, 277, 160, 308
-0.996943, 233, 129, 264, 384
-0.996955, 65, 393, 320, 456
-0.996957, 259, 157, 274, 188
-0.996971, 85, 257, 116, 500
-0.996974, 17, 377, 144, 408
-0.996975, 43, 89, 58, 120
-0.996998, 169, 361, 184, 392
-0.997006, 93, 41, 108, 72
-0.997022, 83, 101, 98, 132
-0.99704, 55, 93, 70, 124
-0.997069, 97, 141, 224, 172
-0.997072, 85, 25, 100, 56
-0.997098, 91, 105, 106, 136
-0.997122, 253, 161, 284, 416
-0.997124, 13, 369, 44, 496
-0.997125, 33, 1, 64, 256
-0.997127, 151, 349, 166, 380
-0.997129, 269, 169, 284, 200
-0.997129, 253, 161, 268, 192
-0.997137, 221, 129, 252, 384
-0.99714, 203, 185, 218, 216
-0.997142, 189, 185, 204, 216
-0.997146, 65, 397, 192, 428
-0.99715, 199, 245, 214, 276
-0.997162, 125, 33, 156, 288
-0.997178, 161, 329, 176, 360
-0.997178, 161, 129, 192, 384
-0.997183, 129, 173, 256, 204
-0.997184, 1, 49, 128, 80
-0.997188, 123, 37, 138, 68
-0.997194, 11, 81, 26, 112
-0.9972, 67, 97, 82, 128
-0.997202, 61, 93, 76, 124
-0.997213, 135, 201, 150, 232
-0.997214, 3, 77, 18, 108
-0.997229, 77, 101, 92, 132
-0.997229, 255, 189, 270, 220
-0.997234, 109, 109, 124, 140
-0.997235, 187, 225, 202, 256
-0.997235, 169, 337, 184, 368
-0.997241, 209, 245, 224, 276
-0.997265, 245, 177, 260, 208
-0.997269, 231, 177, 246, 208
-0.997272, 113, 33, 128, 64
-0.99728, 93, 29, 108, 60
-0.997283, 89, 1, 120, 256
-0.997286, 253, 173, 268, 204
-0.997289, 197, 169, 212, 200
-0.997291, 123, 113, 138, 144
-0.997292, 81, 385, 208, 416
-0.997294, 225, 225, 240, 256
-0.997298, 145, 221, 272, 252
-0.997302, 25, 85, 40, 116
-0.997307, 161, 349, 176, 380
-0.997309, 75, 25, 90, 56
-0.997312, 109, 257, 140, 500
-0.99732, 65, 61, 192, 92
-0.997324, 237, 173, 252, 204
-0.997331, 145, 5, 272, 36
-0.997333, 105, 29, 120, 60
-0.997341, 69, 21, 84, 52
-0.997351, 267, 213, 282, 244
-0.997353, 215, 241, 230, 272
-0.997354, 49, 89, 64, 120
-0.997358, 133, 37, 148, 68
-0.997365, 33, 193, 64, 448
-0.997367, 247, 205, 262, 236
-0.997372, 37, 89, 52, 120
-0.997372, 193, 333, 320, 364
-0.997375, 209, 297, 333, 328
-0.997381, 221, 161, 236, 192
-0.997388, 203, 225, 218, 256
-0.997391, 221, 209, 236, 240
-0.997399, 197, 181, 212, 212
-0.997401, 181, 265, 196, 296
-0.997408, 1, 329, 333, 392
-0.997429, 9, 9, 24, 40
-0.997429, 49, 181, 176, 212
-0.997438, 57, 21, 72, 52
-0.997444, 161, 45, 176, 76
-0.997448, 45, 65, 76, 320
-0.99745, 199, 273, 214, 304
-0.997451, 121, 197, 136, 228
-0.997451, 193, 205, 208, 236
-0.997452, 165, 1, 196, 256
-0.997458, 111, 349, 126, 380
-0.997464, 115, 45, 130, 76
-0.997478, 173, 5, 188, 36
-0.997484, 269, 201, 284, 232
-0.997489, 63, 21, 78, 52
-0.997497, 17, 9, 32, 40
-0.997497, 241, 1, 304, 256
-0.997499, 155, 333, 170, 364
-0.997502, 37, 189, 52, 220
-0.997506, 19, 81, 34, 112
-0.99751, 211, 265, 226, 296
-0.997515, 231, 165, 246, 196
-0.997515, 155, 361, 170, 392
-0.997522, 1, 185, 16, 216
-0.997523, 189, 145, 204, 176
-0.997529, 187, 245, 202, 276
-0.997533, 263, 177, 278, 208
-0.997538, 151, 41, 166, 72
-0.997539, 133, 117, 148, 148
-0.997542, 87, 41, 102, 72
-0.997546, 29, 13, 44, 44
-0.997549, 139, 37, 154, 68
-0.99755, 247, 193, 262, 224
-0.997553, 161, 361, 176, 392
-0.997558, 77, 37, 92, 68
-0.997563, 213, 209, 228, 240
-0.997568, 229, 193, 244, 224
-0.997568, 265, 153, 280, 184
-0.997581, 209, 153, 224, 184
-0.997583, 161, 57, 176, 88
-0.997586, 201, 197, 216, 228
-0.997593, 133, 49, 148, 80
-0.997595, 189, 157, 204, 188
-0.997598, 193, 225, 208, 256
-0.997606, 39, 17, 54, 48
-0.997606, 263, 141, 278, 172
-0.997607, 237, 189, 252, 220
-0.997607, 49, 17, 64, 48
-0.997618, 209, 133, 333, 164
-0.997625, 255, 201, 270, 232
-0.997627, 145, 41, 160, 72
-0.997628, 205, 273, 220, 304
-0.997629, 263, 201, 278, 232
-0.997631, 1, 5, 16, 36
-0.997635, 203, 153, 218, 184
-0.99764, 145, 321, 272, 352
-0.997646, 97, 109, 112, 140
-0.997647, 15, 309, 30, 340
-0.997652, 31, 93, 46, 124
-0.997656, 1, 401, 128, 432
-0.997666, 99, 29, 114, 60
-0.997666, 129, 25, 256, 56
-0.99767, 101, 65, 132, 320
-0.997671, 239, 205, 254, 236
-0.997676, 239, 161, 254, 192
-0.997682, 63, 193, 78, 224
-0.997682, 211, 225, 226, 256
-0.997692, 221, 189, 236, 220
-0.997694, 97, 325, 224, 356
-0.997697, 261, 225, 276, 256
-0.9977, 227, 209, 242, 240
-0.997704, 151, 121, 166, 152
-0.997707, 209, 177, 224, 208
-0.997711, 3, 21, 18, 52
-0.997714, 149, 337, 164, 368
-0.997715, 59, 313, 74, 344
-0.997717, 223, 173, 238, 204
-0.997718, 211, 165, 226, 196
-0.997719, 139, 121, 154, 152
-0.997728, 201, 213, 216, 244
-0.997728, 231, 221, 246, 252
-0.997729, 195, 145, 210, 176
-0.99773, 189, 257, 220, 500
-0.997732, 211, 197, 226, 228
-0.997732, 207, 209, 222, 240
-0.997736, 119, 25, 134, 56
-0.997777, 193, 361, 320, 392
-0.997796, 33, 417, 288, 480
-0.99782, 17, 389, 144, 420
-0.997864, 97, 257, 128, 500
-0.997864, 1, 105, 333, 168
-0.997878, 97, 153, 224, 184
-0.997921, 217, 225, 248, 480
-0.997977, 53, 257, 84, 500
-0.997978, 65, 73, 192, 104
-0.997992, 73, 257, 104, 500
-0.998001, 193, 309, 320, 340
-0.998065, 17, 257, 48, 500
-0.998073, 201, 65, 232, 320
-0.998076, 145, 389, 272, 420
-0.998091, 1, 417, 333, 480
-0.998111, 209, 385, 333, 416
-0.998214, 201, 257, 232, 500
-0.998221, 177, 345, 304, 376
-0.99824, 145, 97, 272, 128
-0.998289, 113, 53, 240, 84
-0.998312, 185, 65, 216, 320
-0.998317, 17, 145, 144, 208
-0.998333, 33, 1, 160, 32
-0.998369, 57, 109, 120, 124
-0.998377, 33, 101, 96, 116
-0.998385, 129, 351, 192, 366
-0.998388, 5, 257, 36, 500
-0.998396, 81, 353, 144, 368
-0.998407, 105, 355, 168, 370
-0.998407, 217, 169, 280, 184
-0.998412, 81, 115, 144, 130
-0.998417, 1, 93, 64, 108
-0.998417, 113, 123, 176, 138
-0.998425, 65, 409, 192, 440
-0.99843, 121, 345, 184, 360
-0.998431, 209, 159, 272, 174
-0.998447, 97, 1, 224, 32
-0.998449, 217, 189, 280, 204
-0.998454, 153, 265, 216, 280
-0.998458, 153, 247, 216, 262
-0.998458, 1, 85, 64, 100
-0.998459, 97, 347, 160, 362
-0.998461, 233, 155, 296, 170
-0.998463, 33, 95, 96, 110
-0.998466, 169, 349, 232, 364
-0.998468, 169, 257, 232, 272
-0.998468, 221, 213, 252, 228
-0.998469, 173, 169, 204, 184
-0.998469, 25, 309, 56, 324
-0.99847, 9, 101, 40, 116
-0.998471, 85, 51, 116, 66
-0.998471, 13, 29, 44, 44
-0.998472, 217, 175, 280, 190
-0.998472, 93, 109, 124, 124
-0.998472, 233, 181, 296, 196
-0.998472, 57, 93, 88, 108
-0.998472, 81, 43, 112, 58
-0.998473, 41, 325, 72, 340
-0.998473, 81, 29, 112, 44
-0.998474, 201, 207, 232, 222
-0.998474, 177, 293, 208, 308
-0.998475, 253, 181, 284, 196
-0.998475, 249, 65, 280, 320
-0.998475, 169, 201, 200, 216
-0.998476, 125, 51, 156, 66
-0.998476, 173, 183, 204, 198
-0.998476, 109, 347, 140, 362
-0.998477, 69, 97, 100, 112
-0.998477, 5, 317, 36, 332
-0.998478, 1, 79, 64, 94
-0.998479, 137, 129, 200, 144
-0.99848, 41, 39, 104, 54
-0.99848, 221, 195, 252, 210
-0.99848, 97, 361, 160, 376
-0.998481, 173, 163, 204, 178
-0.998481, 187, 177, 202, 304
-0.998482, 177, 195, 208, 210
-0.998483, 57, 103, 120, 118
-0.998483, 193, 191, 256, 206
-0.998483, 209, 183, 272, 198
-0.998483, 37, 193, 68, 208
-0.998483, 217, 199, 280, 214
-0.998484, 33, 91, 64, 106
-0.998485, 177, 237, 240, 252
-0.998485, 65, 321, 96, 336
-0.998486, 189, 211, 220, 226
-0.998486, 185, 165, 248, 180
-0.998488, 173, 189, 204, 204
-0.998488, 181, 265, 212, 280
-0.998489, 29, 85, 60, 100
-0.998489, 145, 375, 208, 390
-0.998489, 209, 179, 240, 194
-0.99849, 185, 177, 248, 192
-0.998491, 249, 213, 280, 228
-0.998491, 201, 215, 232, 230
-0.998493, 73, 31, 136, 46
-0.998494, 193, 261, 224, 276
-0.998495, 145, 341, 208, 356
-0.998495, 249, 171, 280, 186
-0.998495, 253, 187, 284, 202
-0.998495, 73, 43, 136, 58
-0.998496, 249, 223, 280, 238
-0.998496, 241, 215, 304, 230
-0.998496, 209, 163, 240, 178
-0.998496, 105, 121, 136, 136
-0.998497, 173, 257, 204, 272
-0.998498, 225, 157, 256, 172
-0.998498, 157, 135, 188, 150
-0.998498, 65, 197, 128, 212
-0.998499, 193, 201, 256, 216
-0.9985, 173, 157, 204, 172
-0.9985, 185, 243, 248, 258
-0.998502, 133, 131, 164, 146
-0.998502, 69, 111, 100, 126
-0.998503, 185, 205, 216, 220
-0.998504, 129, 347, 160, 362
-0.998505, 169, 265, 200, 280
-0.998506, 249, 229, 280, 244
-0.998506, 233, 237, 264, 252
-0.998507, 49, 313, 80, 328
-0.998507, 189, 239, 220, 254
-0.99851, 145, 45, 176, 60
-0.998511, 25, 315, 56, 330
-0.998511, 25, 89, 88, 104
-0.998512, 193, 275, 256, 290
-0.998512, 225, 163, 256, 178
-0.998512, 137, 365, 200, 380
-0.998512, 225, 231, 256, 246
-0.998513, 133, 217, 164, 232
-0.998513, 5, 91, 36, 106
-0.998513, 221, 169, 252, 184
-0.998514, 253, 149, 284, 164
-0.998514, 233, 223, 264, 238
-0.998514, 97, 37, 160, 52
-0.998515, 57, 99, 88, 114
-0.998515, 69, 313, 100, 328
-0.998515, 173, 351, 204, 366
-0.998518, 201, 189, 232, 204
-0.998518, 157, 369, 188, 384
-0.998519, 237, 159, 268, 174
-0.998519, 253, 235, 284, 250
-0.998519, 201, 237, 232, 252
-0.998519, 241, 165, 304, 180
-0.99852, 193, 207, 256, 222
-0.998521, 153, 125, 184, 140
-0.998521, 121, 41, 184, 56
-0.998521, 185, 251, 248, 266
-0.998522, 115, 1, 130, 128
-0.998522, 201, 217, 264, 232
-0.998522, 197, 255, 228, 270
-0.998523, 225, 179, 256, 194
-0.998523, 173, 175, 204, 190
-0.998524, 177, 267, 240, 282
-0.998524, 133, 203, 164, 218
-0.998524, 189, 179, 220, 194
-0.998525, 89, 121, 152, 136
-0.998525, 189, 187, 220, 202
-0.998527, 105, 199, 136, 214
-0.998527, 45, 95, 76, 110
-0.998527, 141, 351, 172, 366
-0.998527, 157, 341, 188, 356
-0.998528, 145, 339, 176, 354
-0.998528, 97, 47, 160, 62
-0.998529, 145, 255, 208, 270
-0.998531, 225, 221, 288, 236
-0.998532, 241, 187, 304, 202
-0.998532, 129, 335, 192, 350
-0.998532, 49, 89, 112, 104
-0.998533, 225, 189, 256, 204
-0.998533, 141, 125, 172, 140
-0.998533, 77, 105, 108, 120
-0.998533, 189, 165, 220, 180
-0.998535, 161, 199, 224, 214
-0.998535, 137, 357, 200, 372
-0.998536, 193, 257, 256, 272
-0.998537, 241, 171, 304, 186
-0.998537, 177, 185, 240, 200
-0.998537, 217, 211, 280, 226
-0.998537, 189, 153, 220, 168
-0.998538, 201, 157, 232, 172
-0.998538, 177, 155, 240, 170
-0.998538, 237, 179, 268, 194
-0.998538, 33, 195, 96, 210
-0.998538, 209, 231, 272, 246
-0.998539, 225, 281, 288, 296
-0.998539, 13, 85, 44, 100
-0.998539, 237, 215, 268, 230
-0.99854, 241, 185, 272, 200
-0.998541, 265, 213, 328, 228
-0.998541, 217, 243, 280, 258
-0.998542, 189, 277, 220, 292
-0.998542, 61, 37, 92, 52
-0.998542, 229, 207, 260, 222
-0.998543, 161, 369, 224, 384
-0.998544, 249, 237, 312, 252
-0.998545, 25, 33, 88, 48
-0.998545, 121, 203, 184, 218
-0.998545, 1, 191, 64, 206
-0.998546, 233, 227, 296, 242
-0.998546, 9, 17, 72, 32
-0.998546, 33, 107, 96, 122
-0.998547, 129, 249, 192, 264
-0.998547, 257, 203, 288, 218
-0.998548, 201, 153, 264, 168
-0.99855, 221, 201, 252, 216
-0.99855, 161, 209, 224, 224
-0.99855, 97, 429, 224, 460
-0.99855, 89, 199, 152, 214
-0.998551, 189, 199, 220, 214
-0.998551, 113, 133, 176, 148
-0.998552, 265, 129, 296, 384
-0.998552, 209, 145, 272, 160
-0.998553, 217, 267, 280, 282
-0.998554, 113, 53, 176, 68
-0.998555, 129, 261, 192, 276
-0.998556, 85, 351, 116, 366
-0.998556, 169, 191, 232, 206
-0.998556, 181, 225, 196, 352
-0.998556, 193, 171, 256, 186
-0.998557, 121, 377, 184, 392
-0.998557, 209, 369, 272, 384
-0.998557, 21, 95, 52, 110
-0.99856, 193, 247, 224, 262
-0.99856, 217, 259, 280, 274
-0.998561, 93, 43, 124, 58
-0.998561, 161, 117, 288, 148
-0.998561, 169, 375, 232, 390
-0.998562, 41, 319, 104, 334
-0.998562, 137, 123, 200, 138
-0.998562, 1, 73, 64, 88
-0.998563, 113, 371, 176, 386
-0.998563, 233, 141, 296, 156
-0.998564, 209, 173, 240, 188
-0.998564, 153, 235, 216, 250
-0.998565, 201, 223, 264, 238
-0.998566, 141, 371, 172, 386
-0.998566, 189, 193, 220, 208
-0.998567, 193, 287, 256, 302
-0.998567, 113, 113, 176, 128
-0.998567, 81, 109, 144, 124
-0.998567, 173, 251, 204, 266
-0.998569, 169, 171, 232, 186
-0.998569, 25, 203, 88, 218
-0.998569, 113, 49, 144, 64
-0.99857, 41, 79, 104, 94
-0.99857, 41, 25, 104, 40
-0.998571, 33, 303, 96, 318
-0.998571, 33, 97, 64, 112
-0.998573, 153, 285, 216, 300
-0.998575, 57, 97, 120, 112
-0.998575, 45, 101, 76, 116
-0.998575, 201, 281, 264, 296
-0.998575, 9, 105, 72, 120
-0.998576, 257, 231, 320, 246
-0.998576, 65, 207, 128, 222
-0.998576, 9, 291, 72, 306
-0.998576, 225, 275, 288, 290
-0.998576, 265, 225, 328, 240
-0.998577, 177, 217, 240, 232
-0.99858, 209, 237, 272, 252
-0.99858, 1, 203, 64, 218
-0.99858, 201, 177, 216, 304
-0.998581, 241, 197, 304, 212
-0.998582, 17, 309, 80, 324
-0.998582, 253, 165, 284, 180
-0.998583, 233, 253, 296, 268
-0.998584, 241, 149, 304, 164
-0.998584, 145, 85, 272, 116
-0.998584, 81, 313, 144, 328
-0.998585, 237, 169, 268, 184
-0.998586, 41, 47, 104, 62
-0.998587, 41, 53, 104, 68
-0.998587, 25, 325, 88, 340
-0.998587, 169, 277, 232, 292
-0.998588, 1, 85, 32, 100
-0.998588, 41, 71, 104, 86
-0.99859, 153, 351, 184, 366
-0.998593, 129, 125, 160, 140
-0.998593, 193, 193, 208, 320
-0.998594, 205, 199, 236, 214
-0.998596, 249, 155, 280, 170
-0.998597, 173, 245, 204, 260
-0.998598, 81, 33, 96, 160
-0.998601, 135, 193, 150, 320
-0.998601, 49, 433, 176, 464
-0.998602, 109, 115, 140, 130
-0.998607, 145, 73, 272, 104
-0.998608, 149, 363, 180, 378
-0.998611, 237, 199, 268, 214
-0.998613, 145, 131, 176, 146
-0.998618, 129, 355, 160, 370
-0.998619, 237, 225, 268, 480
-0.998626, 153, 333, 184, 348
-0.998626, 97, 115, 128, 130
-0.998629, 61, 105, 92, 120
-0.99863, 81, 111, 112, 126
-0.998631, 169, 343, 200, 358
-0.998632, 123, 1, 138, 128
-0.998634, 245, 205, 276, 220
-0.998647, 117, 121, 148, 136
-0.998659, 17, 453, 144, 484
-0.998665, 221, 221, 252, 236
-0.998669, 109, 353, 140, 368
-0.998682, 159, 337, 174, 464
-0.998687, 17, 413, 144, 444
-0.998703, 161, 297, 288, 328
-0.998723, 33, 17, 48, 144
-0.998732, 145, 337, 160, 464
-0.998754, 119, 177, 134, 304
-0.99877, 87, 33, 102, 160
-0.998774, 265, 257, 296, 500
-0.99879, 301, 161, 332, 416
-0.998794, 153, 321, 168, 448
-0.998801, 1, 181, 128, 212
-0.998816, 9, 177, 24, 304
-0.998817, 129, 401, 256, 432
-0.998818, 143, 273, 158, 400
-0.998821, 187, 241, 202, 368
-0.998825, 277, 193, 308, 448
-0.998832, 167, 321, 182, 448
-0.99884, 221, 33, 252, 288
-0.998849, 169, 33, 184, 160
-0.998853, 133, 33, 148, 160
-0.998862, 161, 49, 176, 176
-0.998877, 39, 17, 54, 144
-0.99888, 215, 193, 230, 320
-0.998885, 177, 25, 304, 88
-0.998898, 143, 193, 158, 320
-0.9989, 207, 193, 222, 320
-0.998908, 239, 145, 254, 272
-0.998908, 127, 49, 142, 176
-0.998919, 83, 97, 98, 224
-0.99892, 93, 49, 108, 176
-0.998928, 135, 289, 150, 416
-0.998936, 161, 193, 176, 320
-0.998955, 181, 177, 196, 304
-0.998964, 21, 17, 36, 144
-0.998965, 27, 1, 42, 128
-0.998972, 133, 241, 148, 368
-0.998973, 67, 177, 82, 304
-0.998973, 171, 177, 186, 304
-0.998978, 193, 321, 320, 352
-0.99898, 109, 1, 124, 128
-0.998983, 45, 1, 60, 128
-0.998986, 211, 241, 226, 368
-0.998989, 113, 413, 240, 444
-0.998993, 193, 241, 208, 368
-0.998995, 223, 145, 238, 272
-0.998996, 37, 177, 52, 304
-0.999, 245, 129, 260, 256
-0.999002, 15, 177, 30, 304
-0.999011, 59, 1, 74, 128
-0.999011, 27, 177, 42, 304
-0.999013, 121, 49, 136, 176
-0.99902, 79, 177, 94, 304
-0.999022, 1, 1, 16, 128
-0.999023, 13, 1, 28, 128
-0.999026, 153, 273, 168, 400
-0.99903, 175, 241, 190, 368
-0.999031, 153, 193, 168, 320
-0.999032, 129, 193, 144, 320
-0.999033, 205, 241, 220, 368
-0.999035, 9, 257, 24, 384
-0.999044, 75, 33, 90, 160
-0.999047, 7, 1, 22, 128
-0.999052, 195, 129, 210, 256
-0.999066, 233, 193, 248, 320
-0.999074, 229, 145, 244, 272
-0.999076, 97, 441, 224, 472
-0.999089, 3, 177, 18, 304
-0.999096, 209, 145, 224, 272
-0.999096, 139, 337, 154, 464
-0.9991, 57, 177, 72, 304
-0.9991, 151, 369, 166, 496
-0.9991, 89, 97, 104, 224
-0.999101, 169, 273, 184, 400
-0.999106, 189, 129, 204, 256
-0.999114, 17, 465, 144, 496
-0.999115, 93, 177, 108, 304
-0.999117, 93, 1, 108, 128
-0.999119, 127, 113, 142, 240
-0.999119, 179, 129, 194, 256
-0.999123, 221, 209, 236, 336
-0.999124, 21, 177, 36, 304
-0.999129, 215, 145, 230, 272
-0.999131, 179, 305, 194, 432
-0.999133, 51, 1, 66, 128
-0.999135, 113, 177, 128, 304
-0.999143, 43, 177, 58, 304
-0.999145, 15, 257, 30, 384
-0.999148, 251, 113, 266, 240
-0.999159, 199, 273, 214, 400
-0.999165, 97, 457, 224, 488
-0.999173, 51, 177, 66, 304
-0.999174, 1, 433, 128, 464
-0.999174, 237, 33, 268, 288
-0.999175, 161, 1, 176, 128
-0.999176, 253, 257, 284, 500
-0.999176, 301, 257, 332, 500
-0.999181, 103, 17, 118, 144
-0.999182, 27, 49, 42, 176
-0.999184, 35, 97, 50, 224
-0.999188, 159, 289, 174, 416
-0.999192, 61, 257, 76, 384
-0.999192, 27, 97, 42, 224
-0.999193, 127, 257, 142, 384
-0.999195, 3, 273, 18, 400
-0.999201, 73, 177, 88, 304
-0.999202, 115, 49, 130, 176
-0.999206, 65, 17, 80, 144
-0.999213, 119, 113, 134, 240
-0.999222, 247, 193, 262, 320
-0.999226, 55, 257, 70, 384
-0.999228, 77, 97, 92, 224
-0.999231, 19, 321, 34, 448
-0.999232, 141, 129, 156, 256
-0.999233, 161, 49, 288, 80
-0.999235, 33, 257, 48, 384
-0.999236, 105, 177, 120, 304
-0.999243, 165, 369, 180, 496
-0.999252, 227, 193, 242, 320
-0.999258, 171, 369, 186, 496
-0.999259, 109, 49, 124, 176
-0.999265, 203, 129, 218, 256
-0.999272, 23, 273, 38, 400
-0.999272, 277, 289, 292, 416
-0.999272, 69, 65, 84, 192
-0.999274, 187, 289, 202, 416
-0.999276, 71, 241, 86, 368
-0.999278, 153, 49, 168, 176
-0.999279, 267, 113, 282, 240
-0.999279, 163, 241, 178, 368
-0.999287, 99, 177, 114, 304
-0.999288, 239, 193, 254, 320
-0.999301, 179, 1, 194, 128
-0.999302, 21, 97, 36, 224
-0.999308, 131, 337, 146, 464
-0.999314, 113, 113, 128, 240
-0.999316, 49, 257, 64, 384
-0.999321, 93, 273, 108, 400
-0.999322, 85, 177, 100, 304
-0.999328, 271, 177, 286, 304
-0.999329, 209, 113, 333, 144
-0.999345, 71, 305, 86, 432
-0.999355, 277, 161, 292, 288
-0.999376, 289, 225, 320, 480
-0.999417, 81, 169, 208, 200
-0.999432, 97, 469, 224, 500
-0.999435, 193, 421, 320, 452
-0.999614, 193, 433, 320, 464
-0.999623, 209, 401, 333, 432
-0.999664, 145, 465, 272, 496
-0.99967, 75, 103, 90, 118
-0.999671, 193, 179, 208, 194
-0.999672, 249, 237, 264, 252
-0.999672, 195, 275, 210, 290
-0.999672, 79, 117, 94, 132
-0.999673, 263, 203, 278, 218
-0.999673, 99, 109, 114, 124
-0.999673, 161, 61, 288, 92
-0.999673, 147, 353, 162, 368
-0.999674, 193, 157, 208, 172
-0.999674, 123, 47, 138, 62
-0.999675, 165, 345, 180, 360
-0.999675, 211, 207, 226, 222
-0.999676, 247, 199, 262, 214
-0.999677, 205, 179, 220, 194
-0.999677, 21, 101, 36, 116
-0.999677, 189, 165, 204, 180
-0.999677, 175, 351, 190, 366
-0.999679, 161, 59, 176, 74
-0.999679, 163, 339, 178, 354
-0.999681, 221, 201, 236, 216
-0.999681, 207, 243, 222, 258
-0.999681, 63, 99, 78, 114
-0.999681, 145, 425, 272, 456
-0.999681, 253, 199, 268, 214
-0.999682, 1, 81, 16, 96
-0.999682, 267, 173, 282, 188
-0.999682, 189, 203, 204, 218
-0.999683, 121, 201, 136, 216
-0.999683, 195, 193, 210, 208
-0.999683, 153, 371, 168, 386
-0.999683, 255, 189, 270, 204
-0.999684, 247, 183, 262, 198
-0.999684, 269, 167, 284, 182
-0.999685, 199, 255, 214, 270
-0.999685, 9, 89, 24, 104
-0.999685, 157, 365, 172, 380
-0.999685, 135, 201, 150, 216
-0.999686, 267, 213, 282, 228
-0.999688, 171, 367, 186, 382
-0.999688, 3, 95, 18, 110
-0.999689, 249, 173, 264, 188
-0.999689, 117, 115, 132, 130
-0.99969, 205, 187, 220, 202
-0.99969, 205, 199, 220, 214
-0.999691, 15, 91, 30, 106
-0.999691, 87, 41, 102, 56
-0.999692, 255, 179, 270, 194
-0.999692, 195, 281, 210, 296
-0.999692, 35, 105, 50, 120
-0.999693, 265, 227, 280, 242
-0.999693, 183, 243, 198, 258
-0.999693, 217, 237, 232, 252
-0.999693, 23, 93, 38, 108
-0.999695, 201, 281, 216, 296
-0.999695, 259, 157, 274, 172
-0.999695, 201, 193, 216, 208
-0.999696, 227, 163, 242, 178
-0.999698, 235, 221, 250, 236
-0.999698, 191, 235, 206, 250
-0.999699, 195, 199, 210, 214
-0.999699, 221, 165, 236, 180
-0.999699, 123, 115, 138, 130
-0.999701, 267, 179, 282, 194
-0.999701, 57, 97, 72, 112
-0.999702, 205, 257, 220, 272
-0.999703, 245, 161, 260, 176
-0.999703, 143, 125, 158, 140
-0.999703, 49, 95, 64, 110
-0.999704, 199, 181, 214, 196
-0.999705, 123, 351, 138, 366
-0.999705, 203, 155, 218, 170
-0.999705, 231, 171, 246, 186
-0.999705, 199, 249, 214, 264
-0.999705, 201, 275, 216, 290
-0.999706, 255, 173, 270, 188
-0.999707, 221, 207, 236, 222
-0.999707, 243, 215, 258, 230
-0.999709, 169, 373, 184, 388
-0.999709, 169, 361, 184, 376
-0.99971, 91, 107, 106, 122
-0.99971, 69, 107, 84, 122
-0.999711, 171, 337, 186, 352
-0.999712, 177, 445, 304, 476
-0.999713, 151, 131, 166, 146
-0.999713, 113, 353, 128, 368
-0.999714, 57, 103, 72, 118
-0.999715, 261, 171, 276, 186
-0.999716, 129, 125, 144, 140
-0.999716, 157, 333, 172, 348
-0.999716, 195, 265, 210, 280
-0.999717, 229, 199, 244, 214
-0.999717, 93, 43, 108, 58
-0.999717, 191, 209, 206, 224
-0.999719, 197, 187, 212, 202
-0.999719, 167, 355, 182, 370
-0.999721, 51, 101, 66, 116
-0.999721, 221, 171, 236, 186
-0.999721, 63, 105, 78, 120
-0.999721, 1, 87, 16, 102
-0.999721, 37, 97, 52, 112
-0.999723, 83, 103, 98, 118
-0.999723, 121, 123, 136, 138
-0.999724, 251, 159, 266, 174
-0.999727, 95, 115, 110, 130
-0.999728, 163, 333, 178, 348
-0.999729, 247, 205, 262, 220
-0.99973, 171, 343, 186, 358
-0.999731, 193, 215, 208, 230
-0.999732, 31, 95, 46, 110
-0.999732, 261, 165, 276, 180
-0.999733, 245, 167, 260, 182
-0.999734, 231, 177, 246, 192
-0.999734, 133, 51, 148, 66
-0.999735, 233, 185, 248, 200
-0.999737, 103, 117, 118, 132
-0.999737, 147, 363, 162, 378
-0.999739, 161, 133, 176, 148
-0.999741, 147, 371, 162, 386
-0.999744, 255, 167, 270, 182
-0.999746, 135, 351, 150, 366
-0.999748, 189, 193, 204, 208
-0.999748, 241, 177, 256, 192
-0.999758, 211, 249, 226, 264
-0.999759, 43, 99, 58, 114
-0.999761, 109, 119, 124, 134
-0.999761, 89, 113, 104, 128
-0.999762, 75, 109, 90, 124
-0.999763, 115, 121, 130, 136
-0.999763, 135, 127, 150, 142
-0.999765, 117, 47, 132, 62
-0.999778, 145, 131, 160, 146
-0.999788, 83, 111, 98, 126
-0.999833, 209, 469, 333, 500
-0.99989, 177, 21, 304, 52
-0.999999, 17, 125, 144, 156
-1.00001, 17, 169, 144, 200
-1.00005, 265, 33, 296, 288
-1.00011, 193, 457, 320, 488
-1.00021, 209, 57, 333, 120
-1.00022, 185, 1, 248, 128
-1.00025, 277, 97, 308, 352
-1.00039, 289, 129, 320, 384
-1.00051, 301, 65, 332, 320
-1.00069, 209, 81, 333, 144
-1.00085, 233, 49, 296, 176
-1.0011, 281, 1, 312, 256
-1.00134, 209, 1, 333, 64
-1.00234, 1, 121, 128, 184
-1.00275, 209, 49, 333, 176
-1.00616, 209, 1, 333, 128
-1.00635, 257, 33, 320, 160
-1.01162, 217, 1, 280, 128
