1998
-0.562244, 1, 1, 500, 381
-0.562794, 1, 97, 500, 352
-0.604839, 1, 1, 500, 256
-0.726505, 129, 1, 384, 381
-0.776411, 225, 1, 480, 381
-0.776639, 33, 1, 288, 381
-0.921168, 129, 97, 384, 352
-0.929891, 177, 1, 304, 381
-0.930312, 129, 1, 384, 256
-0.934843, 1, 145, 500, 272
-0.936748, 225, 1, 352, 381
-0.938374, 1, 193, 500, 320
-0.938933, 129, 1, 256, 381
-0.94252, 1, 241, 500, 368
-0.942718, 81, 1, 208, 381
-0.943248, 273, 1, 400, 381
-0.943283, 1, 97, 500, 224
-0.949944, 33, 97, 288, 352
-0.952634, 257, 33, 500, 288
-0.954198, 1, 49, 500, 176
-0.954951, 321, 1, 448, 381
-0.957136, 33, 1, 160, 381
-0.95892, 177, 1, 304, 256
-0.959167, 225, 1, 352, 256
-0.960432, 1, 1, 256, 256
-0.961497, 129, 33, 256, 288
-0.962402, 369, 1, 496, 381
-0.964509, 273, 1, 400, 256
-0.965974, 225, 97, 352, 352
-0.966838, 81, 1, 208, 256
-0.967334, 225, 129, 480, 381
-0.967511, 1, 1, 500, 128
-0.967999, 177, 97, 304, 352
-0.969044, 81, 97, 208, 352
-0.969168, 129, 129, 256, 381
-0.969357, 273, 97, 400, 352
-0.971999, 321, 33, 448, 288
-0.972123, 33, 33, 160, 288
-0.976724, 321, 129, 448, 381
-0.977893, 33, 129, 160, 381
-0.980107, 369, 1, 496, 256
-0.981333, 369, 97, 496, 352
-0.983151, 129, 145, 384, 272
-0.983838, 129, 257, 384, 381
-0.983878, 129, 193, 384, 320
-0.984003, 161, 97, 416, 224
-0.985033, 257, 177, 500, 304
-0.985205, 257, 113, 500, 240
-0.985845, 1, 193, 256, 320
-0.986142, 1, 113, 256, 240
-0.986657, 257, 257, 500, 381
-0.987252, 1, 257, 256, 381
-0.987972, 129, 49, 384, 176
-0.988698, 1, 65, 256, 192
-0.98951, 257, 65, 500, 192
-0.992935, 145, 245, 208, 276
-0.993222, 257, 17, 500, 144
-0.9935, 97, 241, 224, 368
-0.993605, 1, 17, 256, 144
-0.993613, 169, 245, 200, 276
-0.993815, 169, 249, 232, 280
-0.993838, 157, 245, 188, 276
-0.993838, 177, 237, 240, 268
-0.993876, 181, 249, 212, 280
-0.993877, 145, 233, 208, 264
-0.993889, 145, 253, 176, 284
-0.993919, 165, 233, 196, 264
-0.993923, 185, 237, 216, 268
-0.994047, 145, 241, 176, 272
-0.994086, 133, 249, 164, 280
-0.994096, 185, 225, 216, 256
-0.994101, 197, 201, 228, 232
-0.994101, 165, 257, 196, 288
-0.994106, 197, 245, 228, 276
-0.994113, 185, 201, 216, 232
-0.994124, 169, 201, 200, 232
-0.994127, 113, 249, 176, 280
-0.994129, 153, 229, 184, 260
-0.994137, 133, 237, 164, 268
-0.994138, 253, 201, 284, 232
-0.99414, 209, 201, 240, 232
-0.99414, 233, 201, 264, 232
-0.994143, 137, 257, 200, 288
-0.994145, 213, 277, 244, 308
-0.994154, 221, 201, 252, 232
-0.994155, 153, 201, 184, 232
-0.994156, 273, 201, 304, 232
-0.994162, 141, 201, 172, 232
-0.994177, 129, 201, 160, 232
-0.99418, 165, 213, 196, 244
-0.994182, 285, 201, 316, 232
-0.994186, 305, 201, 336, 232
-0.994189, 113, 201, 144, 232
-0.99419, 185, 261, 216, 292
-0.994192, 325, 201, 356, 232
-0.994193, 177, 213, 208, 244
-0.994207, 345, 201, 376, 232
-0.99421, 225, 265, 256, 296
-0.994211, 177, 189, 208, 220
-0.994211, 253, 213, 284, 244
-0.994215, 197, 189, 228, 220
-0.994218, 273, 217, 304, 248
-0.994218, 309, 233, 340, 264
-0.99422, 133, 213, 164, 244
-0.994222, 197, 233, 228, 264
-0.994222, 237, 189, 268, 220
-0.994223, 365, 201, 396, 232
-0.994224, 237, 269, 268, 300
-0.994226, 261, 233, 292, 264
-0.994227, 221, 189, 252, 220
-0.994227, 217, 237, 248, 268
-0.994229, 277, 261, 308, 292
-0.99423, 209, 189, 240, 220
-0.99423, 389, 201, 420, 232
-0.994231, 217, 289, 248, 320
-0.994231, 265, 189, 296, 220
-0.994233, 205, 265, 236, 296
-0.994234, 261, 257, 292, 288
-0.994236, 317, 213, 348, 244
-0.994236, 261, 273, 292, 304
-0.994236, 177, 277, 208, 308
-0.994236, 149, 213, 180, 244
-0.994237, 297, 241, 328, 272
-0.994238, 205, 213, 236, 244
-0.994238, 245, 229, 276, 260
-0.994239, 165, 189, 196, 220
-0.994239, 225, 277, 256, 308
-0.994241, 153, 189, 184, 220
-0.994241, 213, 253, 244, 284
-0.994242, 157, 281, 188, 312
-0.994242, 141, 189, 172, 220
-0.994244, 121, 189, 152, 220
-0.994244, 193, 213, 224, 244
-0.994245, 289, 221, 320, 252
-0.994246, 233, 233, 264, 264
-0.994246, 329, 237, 360, 268
-0.994246, 201, 277, 232, 308
-0.994246, 141, 225, 172, 256
-0.994247, 401, 201, 432, 232
-0.994248, 253, 189, 284, 220
-0.99425, 225, 253, 256, 284
-0.994251, 121, 213, 152, 244
-0.994251, 249, 261, 280, 292
-0.994252, 377, 197, 408, 228
-0.994254, 237, 281, 268, 312
-0.994255, 121, 237, 152, 268
-0.994256, 197, 293, 228, 324
-0.994257, 297, 189, 328, 220
-0.994257, 325, 189, 356, 220
-0.994257, 241, 213, 272, 244
-0.994258, 289, 273, 320, 304
-0.994259, 305, 213, 336, 244
-0.994259, 133, 261, 164, 292
-0.99426, 285, 189, 316, 220
-0.99426, 309, 189, 340, 220
-0.99426, 345, 189, 376, 220
-0.99426, 333, 225, 364, 256
-0.99426, 293, 253, 324, 284
-0.994262, 97, 201, 128, 232
-0.994262, 109, 225, 140, 256
-0.994262, 317, 249, 348, 280
-0.994264, 357, 189, 388, 220
-0.994264, 113, 277, 144, 308
-0.994265, 397, 189, 428, 220
-0.994267, 165, 269, 196, 300
-0.994267, 305, 273, 336, 304
-0.994268, 249, 249, 280, 280
-0.994268, 277, 249, 308, 280
-0.994269, 233, 293, 264, 324
-0.99427, 337, 213, 368, 244
-0.994271, 285, 237, 316, 268
-0.994271, 305, 253, 336, 284
-0.994273, 101, 189, 132, 220
-0.994273, 109, 213, 140, 244
-0.994273, 225, 213, 256, 244
-0.994273, 189, 281, 220, 312
-0.994274, 377, 185, 408, 216
-0.994275, 261, 245, 292, 276
-0.994276, 321, 273, 352, 304
-0.994276, 269, 289, 300, 320
-0.994277, 121, 265, 152, 296
-0.994277, 249, 277, 280, 308
-0.994277, 185, 297, 216, 328
-0.994278, 165, 297, 196, 328
-0.994278, 205, 309, 236, 340
-0.994278, 113, 237, 176, 268
-0.994279, 349, 225, 380, 256
-0.994279, 145, 277, 176, 308
-0.994281, 329, 253, 360, 284
-0.994281, 145, 265, 176, 296
-0.994281, 273, 273, 304, 304
-0.994281, 237, 245, 268, 276
-0.994282, 273, 229, 304, 260
-0.994282, 341, 257, 372, 288
-0.994282, 325, 285, 356, 316
-0.994371, 161, 1, 416, 128
-0.994396, 289, 201, 352, 232
-0.994401, 161, 201, 224, 232
-0.994487, 129, 201, 192, 232
-0.994513, 265, 201, 328, 232
-0.994538, 169, 225, 232, 256
-0.994575, 185, 201, 248, 232
-0.994586, 313, 193, 376, 224
-0.994609, 209, 201, 272, 232
-0.994643, 121, 185, 184, 216
-0.994653, 153, 189, 216, 220
-0.994654, 137, 213, 200, 244
-0.994661, 241, 201, 304, 232
-0.994664, 105, 201, 168, 232
-0.994669, 113, 261, 176, 292
-0.994679, 257, 221, 320, 252
-0.994682, 297, 225, 360, 256
-0.994687, 321, 241, 384, 272
-0.9947, 337, 197, 400, 228
-0.994705, 113, 225, 176, 256
-0.994713, 153, 153, 216, 184
-0.994716, 289, 189, 352, 220
-0.994726, 113, 273, 176, 304
-0.994729, 289, 157, 352, 188
-0.994729, 129, 161, 192, 192
-0.994731, 329, 209, 392, 240
-0.994732, 193, 277, 256, 308
-0.994734, 281, 249, 344, 280
-0.994737, 289, 213, 352, 244
-0.994739, 297, 177, 360, 208
-0.994739, 289, 237, 352, 268
-0.994755, 169, 277, 232, 308
-0.994758, 305, 269, 368, 300
-0.99476, 265, 269, 328, 300
-0.994762, 81, 197, 144, 228
-0.994765, 321, 157, 384, 188
-0.994768, 177, 261, 240, 292
-0.994776, 105, 213, 168, 244
-0.994796, 249, 189, 312, 220
-0.994797, 121, 141, 184, 172
-0.994804, 137, 173, 200, 204
-0.994807, 145, 297, 208, 328
-0.99481, 225, 269, 288, 300
-0.994818, 385, 201, 448, 232
-0.99482, 297, 281, 360, 312
-0.994825, 305, 257, 368, 288
-0.994828, 345, 273, 408, 304
-0.994831, 129, 285, 192, 316
-0.994833, 201, 189, 264, 220
-0.994833, 273, 285, 336, 316
-0.994838, 145, 273, 208, 304
-0.994843, 305, 145, 368, 176
-0.994846, 113, 173, 176, 204
-0.994846, 89, 237, 152, 268
-0.994849, 81, 213, 144, 244
-0.994851, 177, 189, 240, 220
-0.994854, 81, 261, 144, 292
-0.994854, 81, 277, 144, 308
-0.994856, 129, 129, 192, 160
-0.994859, 65, 229, 128, 260
-0.994862, 89, 225, 152, 256
-0.994867, 265, 233, 328, 264
-0.99487, 345, 229, 408, 260
-0.99487, 297, 305, 360, 336
-0.994883, 321, 229, 384, 260
-0.994883, 329, 253, 392, 284
-0.994885, 193, 249, 256, 280
-0.994888, 57, 201, 120, 232
-0.994893, 281, 145, 344, 176
-0.994898, 329, 181, 392, 212
-0.994901, 97, 129, 160, 160
-0.994901, 265, 157, 328, 188
-0.994906, 105, 153, 168, 184
-0.994906, 257, 249, 320, 280
-0.994911, 161, 169, 224, 200
-0.994914, 361, 201, 424, 232
-0.994914, 201, 213, 264, 244
-0.994919, 97, 185, 160, 216
-0.994922, 161, 213, 224, 244
-0.994935, 321, 117, 384, 148
-0.994935, 145, 141, 208, 172
-0.994935, 345, 241, 408, 272
-0.99494, 305, 129, 368, 160
-0.99494, 233, 257, 296, 288
-0.994943, 225, 281, 288, 312
-0.994943, 121, 305, 184, 336
-0.99495, 57, 213, 120, 244
-0.99495, 73, 249, 136, 280
-0.994961, 97, 141, 160, 172
-0.994961, 345, 157, 408, 188
-0.994963, 321, 281, 384, 312
-0.994966, 273, 177, 336, 208
-0.994966, 169, 293, 232, 324
-0.994966, 249, 293, 312, 324
-0.994971, 193, 81, 256, 112
-0.994971, 161, 89, 224, 120
-0.994971, 353, 285, 416, 316
-0.994971, 193, 289, 256, 320
-0.994974, 329, 169, 392, 200
-0.994974, 377, 189, 440, 220
-0.994976, 225, 213, 288, 244
-0.994979, 105, 293, 168, 324
-0.994981, 353, 257, 416, 288
-0.994982, 33, 201, 96, 232
-0.994984, 273, 305, 336, 336
-0.994987, 177, 145, 240, 176
-0.994987, 409, 201, 472, 232
-0.994989, 361, 213, 424, 244
-0.994989, 217, 225, 280, 256
-0.994989, 161, 309, 224, 340
-0.994992, 225, 189, 288, 220
-0.994997, 153, 129, 216, 160
-0.995005, 201, 261, 264, 292
-0.995005, 81, 289, 144, 320
-0.995005, 137, 321, 200, 352
-0.995013, 345, 129, 408, 160
-0.995018, 137, 117, 200, 148
-0.995026, 329, 141, 392, 172
-0.995028, 377, 277, 440, 308
-0.995028, 289, 317, 352, 348
-0.995031, 89, 169, 152, 200
-0.995033, 353, 185, 416, 216
-0.995034, 329, 301, 392, 332
-0.995036, 217, 237, 280, 268
-0.995062, 113, 65, 240, 192
-0.995304, 193, 1, 256, 381
-0.995677, 217, 1, 280, 381
-0.99578, 257, 97, 384, 224
-0.995811, 81, 193, 208, 320
-0.995858, 249, 1, 312, 381
-0.996043, 97, 113, 224, 240
-0.996043, 145, 257, 272, 381
-0.996129, 97, 249, 224, 312
-0.996163, 169, 1, 232, 381
-0.996509, 137, 1, 200, 381
-0.996556, 281, 1, 344, 381
-0.996629, 241, 257, 368, 381
-0.996892, 289, 257, 416, 381
-0.996958, 257, 209, 384, 336
-0.996988, 177, 49, 304, 176
-0.997102, 113, 1, 176, 381
-0.997181, 145, 209, 272, 336
-0.997251, 273, 145, 400, 272
-0.997281, 177, 97, 304, 224
-0.997289, 113, 201, 240, 264
-0.997395, 145, 241, 272, 304
-0.997487, 65, 217, 192, 280
-0.997673, 257, 193, 384, 256
-0.997693, 305, 1, 368, 381
-0.997771, 1, 169, 500, 232
-0.997819, 305, 201, 432, 264
-0.997849, 145, 249, 208, 312
-0.997875, 1, 201, 500, 264
-0.998015, 65, 193, 192, 256
-0.99808, 257, 211, 288, 226
-0.99808, 329, 211, 360, 226
-0.99808, 169, 217, 200, 232
-0.99808, 213, 239, 244, 254
-0.99808, 333, 219, 364, 234
-0.99808, 297, 225, 328, 240
-0.99808, 205, 229, 236, 244
-0.99808, 309, 245, 340, 260
-0.99808, 149, 271, 180, 286
-0.99808, 125, 227, 156, 242
-0.99808, 177, 225, 208, 240
-0.99808, 145, 233, 176, 248
-0.99808, 289, 239, 320, 254
-0.99808, 245, 243, 276, 258
-0.99808, 253, 253, 284, 268
-0.998081, 141, 195, 172, 210
-0.998081, 289, 273, 320, 288
-0.998081, 333, 197, 364, 212
-0.998081, 357, 197, 388, 212
-0.998081, 141, 219, 172, 234
-0.998081, 241, 263, 272, 278
-0.998082, 333, 225, 364, 240
-0.998082, 285, 257, 316, 272
-0.998082, 129, 281, 160, 296
-0.998082, 125, 195, 156, 210
-0.998082, 345, 197, 376, 212
-0.998082, 293, 247, 324, 262
-0.998082, 169, 271, 200, 286
-0.998082, 137, 207, 168, 222
-0.998083, 201, 195, 232, 210
-0.998083, 213, 195, 244, 210
-0.998083, 209, 213, 240, 228
-0.998083, 261, 259, 292, 274
-0.998083, 189, 195, 220, 210
-0.998083, 297, 233, 328, 248
-0.998083, 257, 231, 288, 246
-0.998083, 221, 209, 252, 224
-0.998084, 241, 197, 272, 212
-0.998084, 277, 227, 308, 242
-0.998084, 225, 235, 256, 250
-0.998084, 305, 251, 336, 266
-0.998084, 213, 219, 244, 234
-0.998084, 257, 197, 288, 212
-0.998084, 241, 227, 272, 242
-0.998084, 253, 265, 284, 280
-0.998084, 185, 275, 216, 290
-0.998084, 273, 243, 304, 258
-0.998084, 273, 197, 304, 212
-0.998084, 301, 197, 332, 212
-0.998084, 161, 209, 192, 224
-0.998084, 297, 209, 328, 224
-0.998084, 141, 227, 172, 242
-0.998084, 197, 275, 228, 290
-0.998085, 173, 195, 204, 210
-0.998085, 321, 197, 352, 212
-0.998085, 257, 237, 288, 252
-0.998085, 145, 263, 176, 278
-0.998085, 301, 281, 332, 296
-0.998085, 185, 209, 216, 224
-0.998085, 245, 211, 276, 226
-0.998085, 249, 217, 280, 232
-0.998085, 277, 235, 308, 250
-0.998086, 253, 279, 284, 294
-0.998086, 153, 195, 184, 210
-0.998086, 229, 197, 260, 212
-0.998086, 261, 243, 292, 258
-0.998086, 233, 219, 264, 234
-0.998087, 285, 213, 316, 228
-0.998087, 361, 229, 392, 244
-0.998087, 189, 219, 220, 234
-0.998087, 201, 223, 232, 238
-0.998087, 297, 215, 328, 230
-0.998087, 245, 271, 276, 286
-0.998087, 265, 249, 296, 264
-0.998087, 129, 241, 160, 256
-0.998088, 229, 265, 260, 280
-0.998088, 217, 201, 248, 216
-0.998088, 217, 229, 248, 244
-0.998089, 333, 203, 364, 218
-0.998089, 257, 225, 288, 240
-0.998089, 109, 201, 140, 216
-0.998089, 233, 211, 264, 226
-0.998089, 189, 229, 220, 244
-0.998089, 245, 233, 276, 248
-0.99809, 273, 211, 304, 226
-0.99809, 177, 231, 208, 246
-0.99809, 317, 213, 348, 228
-0.99809, 189, 261, 220, 276
-0.99809, 173, 211, 204, 226
-0.998091, 197, 211, 228, 226
-0.998091, 277, 249, 308, 264
-0.998091, 361, 203, 392, 218
-0.998092, 233, 273, 264, 288
-0.998094, 165, 227, 196, 242
-0.998094, 125, 201, 156, 216
-0.998094, 201, 235, 232, 250
-0.998095, 149, 207, 180, 222
-0.998095, 345, 203, 376, 218
-0.998096, 145, 239, 176, 254
-0.998096, 265, 203, 296, 218
-0.998097, 201, 249, 232, 264
-0.998098, 309, 203, 340, 218
-0.998098, 165, 261, 196, 276
-0.998099, 297, 203, 328, 218
-0.998099, 173, 201, 204, 216
-0.9981, 125, 255, 156, 270
-0.9981, 205, 201, 236, 216
-0.9981, 229, 203, 260, 218
-0.9981, 321, 203, 352, 218
-0.998101, 249, 203, 280, 218
-0.998101, 137, 201, 168, 216
-0.998102, 193, 201, 224, 216
-0.998102, 277, 203, 308, 218
-0.998104, 157, 201, 188, 216
-0.998118, 125, 249, 156, 264
-0.998123, 113, 177, 240, 240
-0.998134, 161, 237, 192, 252
-0.998138, 189, 245, 220, 260
-0.998143, 193, 255, 224, 270
-0.998146, 181, 237, 212, 252
-0.998147, 137, 257, 168, 272
-0.998157, 145, 245, 176, 260
-0.998176, 137, 251, 168, 266
-0.998177, 177, 257, 208, 272
-0.998185, 181, 251, 212, 266
-0.99819, 177, 243, 208, 258
-0.998193, 149, 257, 180, 272
-0.998194, 1, 249, 500, 312
-0.99821, 161, 255, 192, 270
-0.998214, 49, 241, 176, 304
-0.998229, 149, 251, 180, 266
-0.998236, 165, 243, 196, 258
-0.998253, 1, 145, 500, 208
-0.998257, 145, 161, 272, 288
-0.998267, 305, 161, 432, 224
-0.998286, 169, 249, 200, 264
-0.998344, 329, 1, 392, 381
-0.998555, 193, 257, 320, 381
-0.998559, 257, 225, 384, 288
-0.998559, 97, 273, 224, 336
-0.998571, 241, 169, 368, 232
-0.998584, 177, 193, 304, 256
-0.998604, 1, 225, 500, 288
-0.998636, 129, 201, 384, 264
-0.998689, 145, 251, 208, 266
-0.998752, 65, 49, 192, 176
-0.998753, 145, 257, 208, 272
-0.998762, 137, 245, 200, 260
-0.998777, 169, 249, 232, 264
-0.998782, 161, 217, 288, 280
-0.998792, 121, 255, 184, 270
-0.998794, 113, 249, 176, 264
-0.998794, 177, 243, 240, 258
-0.998804, 137, 239, 200, 254
-0.998819, 185, 255, 248, 270
-0.998834, 177, 237, 240, 252
-0.99884, 121, 261, 184, 276
-0.998845, 145, 201, 208, 216
-0.998845, 265, 201, 328, 216
-0.998845, 313, 221, 376, 236
-0.998845, 121, 201, 184, 216
-0.998846, 113, 211, 176, 226
-0.998847, 121, 195, 184, 210
-0.998847, 297, 211, 360, 226
-0.998848, 337, 201, 400, 216
-0.998848, 297, 231, 360, 246
-0.998848, 185, 201, 248, 216
-0.998849, 297, 199, 360, 214
-0.998849, 121, 225, 184, 240
-0.998849, 97, 255, 160, 270
-0.99885, 241, 203, 304, 218
-0.99885, 321, 215, 384, 230
-0.99885, 113, 217, 176, 232
-0.99885, 289, 217, 352, 232
-0.998851, 297, 239, 360, 254
-0.998851, 145, 195, 208, 210
-0.998851, 289, 251, 352, 266
-0.998851, 169, 261, 232, 276
-0.998851, 137, 233, 200, 248
-0.998852, 97, 201, 160, 216
-0.998852, 153, 207, 216, 222
-0.998852, 313, 263, 376, 278
-0.998853, 129, 269, 192, 284
-0.998853, 289, 205, 352, 220
-0.998853, 97, 241, 160, 256
-0.998854, 329, 227, 392, 242
-0.998854, 313, 193, 376, 208
-0.998854, 137, 217, 200, 232
-0.998854, 249, 211, 312, 226
-0.998855, 265, 217, 328, 232
-0.998855, 153, 223, 216, 238
-0.998855, 329, 233, 392, 248
-0.998855, 193, 249, 256, 264
-0.998855, 289, 245, 352, 260
-0.998855, 297, 277, 360, 292
-0.998856, 145, 281, 208, 296
-0.998857, 1, 121, 500, 184
-0.998857, 265, 245, 328, 260
-0.998857, 161, 231, 224, 246
-0.998857, 65, 201, 128, 216
-0.998857, 385, 203, 448, 218
-0.998857, 313, 205, 376, 220
-0.998858, 121, 189, 184, 204
-0.998858, 265, 235, 328, 250
-0.998858, 321, 245, 384, 260
-0.998858, 105, 277, 168, 292
-0.998858, 113, 283, 176, 298
-0.998859, 161, 273, 224, 288
-0.998859, 145, 263, 208, 278
-0.998859, 321, 283, 384, 298
-0.998859, 81, 207, 144, 222
-0.998859, 201, 209, 264, 224
-0.998859, 169, 217, 232, 232
-0.998859, 297, 257, 360, 272
-0.99886, 281, 193, 344, 208
-0.99886, 249, 227, 312, 242
-0.99886, 121, 183, 184, 198
-0.99886, 345, 255, 408, 270
-0.99886, 177, 195, 240, 210
-0.998861, 73, 213, 136, 228
-0.998861, 81, 249, 144, 264
-0.998861, 273, 225, 336, 240
-0.998861, 113, 235, 176, 250
-0.998861, 217, 203, 280, 218
-0.998861, 281, 271, 344, 286
-0.998861, 81, 193, 144, 208
-0.998861, 305, 271, 368, 286
-0.998862, 81, 229, 144, 244
-0.998862, 273, 211, 336, 226
-0.998862, 353, 275, 416, 290
-0.998862, 137, 175, 200, 190
-0.998862, 353, 195, 416, 210
-0.998862, 337, 207, 400, 222
-0.998862, 177, 211, 240, 226
-0.998862, 193, 227, 256, 242
-0.998862, 273, 263, 336, 278
-0.998862, 137, 275, 200, 290
-0.998863, 353, 225, 416, 240
-0.998863, 249, 253, 312, 268
-0.998863, 297, 177, 360, 192
-0.998863, 313, 185, 376, 200
-0.998863, 209, 221, 272, 236
-0.998863, 65, 235, 128, 250
-0.998864, 81, 219, 144, 234
-0.998864, 361, 203, 424, 218
-0.998864, 329, 239, 392, 254
-0.998864, 297, 285, 360, 300
-0.998864, 65, 257, 128, 272
-0.998865, 321, 277, 384, 292
-0.998865, 353, 239, 416, 254
-0.998865, 305, 171, 368, 186
-0.998865, 57, 227, 120, 242
-0.998866, 241, 197, 304, 212
-0.998866, 313, 251, 376, 266
-0.998866, 41, 201, 104, 216
-0.998866, 105, 271, 168, 286
-0.998867, 329, 271, 392, 286
-0.998867, 257, 277, 320, 292
-0.998867, 345, 215, 408, 230
-0.998867, 89, 265, 152, 280
-0.998867, 169, 267, 232, 282
-0.998867, 185, 279, 248, 294
-0.998867, 329, 173, 392, 188
-0.998867, 233, 233, 296, 248
-0.998868, 377, 197, 440, 212
-0.998868, 209, 233, 272, 248
-0.998868, 73, 279, 136, 294
-0.998868, 345, 261, 408, 276
-0.998868, 145, 289, 208, 304
-0.998868, 121, 291, 184, 306
-0.998868, 217, 195, 280, 210
-0.998869, 73, 285, 136, 300
-0.998869, 321, 159, 384, 174
-0.998869, 273, 257, 336, 272
-0.998869, 241, 265, 304, 280
-0.998869, 257, 283, 320, 298
-0.998869, 273, 177, 336, 192
-0.998876, 49, 281, 176, 344
-0.998901, 65, 161, 192, 224
-0.998945, 89, 1, 152, 381
-0.998946, 129, 177, 384, 240
-0.998968, 145, 273, 272, 336
-0.998973, 1, 273, 500, 336
-0.998978, 257, 193, 500, 256
-0.999021, 273, 249, 400, 312
-0.999045, 49, 145, 176, 272
-0.99908, 353, 1, 416, 381
-0.999087, 353, 185, 480, 248
-0.999094, 1, 193, 256, 256
-0.999111, 241, 49, 368, 176
-0.999139, 129, 153, 384, 216
-0.99914, 305, 225, 432, 288
-0.999153, 1, 97, 500, 160
-0.999162, 1, 217, 256, 280
-0.999162, 179, 245, 194, 276
-0.999177, 1, 169, 256, 232
-0.999203, 257, 169, 500, 232
-0.999214, 161, 249, 416, 312
-0.999244, 129, 153, 256, 216
-0.999254, 97, 249, 224, 280
-0.999255, 129, 225, 384, 288
-0.999262, 257, 233, 500, 296
-0.999273, 305, 97, 432, 224
-0.999282, 1, 145, 256, 208
-0.999285, 65, 137, 192, 200
-0.999288, 1, 265, 256, 328
-0.999306, 185, 245, 200, 276
-0.999312, 225, 265, 352, 328
-0.999328, 225, 249, 240, 264
-0.999328, 191, 273, 206, 288
-0.999328, 207, 209, 222, 224
-0.999328, 177, 227, 192, 242
-0.999328, 177, 195, 192, 210
-0.999328, 201, 195, 216, 210
-0.999328, 215, 195, 230, 210
-0.999328, 273, 197, 288, 212
-0.999328, 287, 197, 302, 212
-0.999328, 303, 197, 318, 212
-0.999328, 215, 225, 230, 240
-0.999328, 163, 239, 178, 254
-0.999328, 193, 195, 208, 210
-0.999328, 247, 197, 262, 212
-0.999328, 309, 197, 324, 212
-0.999328, 331, 197, 346, 212
-0.999328, 341, 197, 356, 212
-0.999328, 351, 197, 366, 212
-0.999328, 159, 207, 174, 222
-0.999328, 183, 225, 198, 240
-0.999328, 259, 247, 274, 262
-0.999328, 301, 247, 316, 262
-0.999329, 157, 239, 172, 254
-0.999329, 267, 223, 282, 238
-0.999329, 227, 229, 242, 244
-0.999329, 287, 247, 302, 262
-0.999329, 279, 259, 294, 274
-0.999329, 215, 241, 230, 256
-0.999329, 259, 277, 274, 292
-0.999329, 229, 197, 244, 212
-0.999329, 257, 223, 272, 238
-0.999329, 231, 265, 246, 280
-0.999329, 279, 197, 294, 212
-0.999329, 315, 197, 330, 212
-0.999329, 289, 213, 304, 228
-0.999329, 183, 301, 198, 316
-0.999329, 243, 211, 258, 226
-0.99933, 301, 227, 316, 242
-0.99933, 247, 229, 262, 244
-0.99933, 267, 197, 282, 212
-0.99933, 197, 211, 212, 226
-0.99933, 229, 219, 244, 234
-0.99933, 223, 237, 238, 252
-0.999331, 297, 213, 312, 228
-0.999331, 311, 213, 326, 228
-0.999331, 243, 265, 258, 280
-0.999331, 193, 243, 208, 258
-0.999331, 227, 211, 242, 226
-0.999331, 259, 241, 274, 256
-0.999331, 213, 211, 228, 226
-0.999331, 249, 223, 264, 238
-0.999331, 139, 243, 154, 258
-0.999332, 155, 201, 170, 216
-0.999332, 169, 213, 184, 228
-0.999332, 235, 209, 250, 224
-0.999332, 257, 197, 272, 212
-0.999332, 249, 235, 264, 250
-0.999332, 175, 201, 190, 216
-0.999333, 239, 237, 254, 252
-0.999333, 211, 201, 226, 216
-0.999333, 339, 203, 354, 218
-0.999333, 211, 233, 226, 248
-0.999334, 347, 203, 362, 218
-0.999334, 353, 203, 368, 218
-0.999334, 331, 203, 346, 218
-0.999334, 255, 235, 270, 250
-0.999334, 273, 203, 288, 218
-0.999335, 321, 211, 336, 226
-0.999335, 169, 201, 184, 216
-0.999335, 217, 231, 232, 246
-0.999336, 247, 203, 262, 218
-0.999336, 261, 203, 276, 218
-0.999337, 197, 275, 212, 290
-0.999337, 205, 201, 220, 216
-0.999337, 265, 233, 280, 248
-0.999337, 217, 201, 232, 216
-0.999337, 201, 255, 216, 270
-0.999337, 187, 233, 202, 248
-0.999338, 195, 261, 210, 276
-0.999338, 235, 203, 250, 218
-0.999338, 267, 203, 282, 218
-0.999338, 279, 203, 294, 218
-0.999339, 161, 201, 176, 216
-0.999339, 223, 201, 238, 216
-0.999339, 241, 201, 256, 216
-0.99934, 317, 203, 332, 218
-0.99934, 229, 203, 244, 218
-0.99934, 151, 239, 166, 254
-0.999341, 289, 203, 304, 218
-0.999341, 299, 203, 314, 218
-0.999341, 259, 229, 274, 244
-0.999341, 265, 239, 280, 254
-0.999342, 195, 201, 210, 216
-0.999342, 253, 203, 268, 218
-0.999342, 323, 203, 338, 218
-0.999343, 309, 203, 324, 218
-0.999343, 185, 201, 200, 216
-0.999343, 171, 233, 186, 248
-0.999344, 139, 255, 154, 270
-0.999346, 145, 243, 160, 258
-0.999352, 147, 261, 162, 276
-0.999354, 181, 233, 196, 248
-0.999361, 199, 249, 214, 264
-0.999365, 193, 249, 208, 264
-0.999367, 139, 249, 154, 264
-0.999371, 169, 239, 184, 254
-0.999372, 151, 245, 166, 260
-0.999379, 173, 257, 188, 272
-0.999379, 145, 249, 160, 264
-0.99938, 195, 255, 210, 270
-0.99938, 165, 245, 180, 260
-0.999381, 181, 241, 196, 304
-0.999386, 145, 255, 160, 270
-0.999387, 159, 245, 174, 260
-0.99939, 175, 239, 190, 254
-0.999393, 183, 257, 198, 272
-0.999397, 187, 239, 202, 254
-0.999397, 129, 121, 384, 184
-0.999397, 165, 257, 180, 272
-0.999397, 153, 257, 168, 272
-0.999398, 159, 257, 174, 272
-0.999407, 181, 239, 196, 254
-0.999412, 187, 245, 202, 260
-0.999413, 189, 257, 204, 272
-0.999418, 113, 297, 240, 360
-0.999419, 1, 241, 256, 304
-0.999419, 175, 251, 190, 266
-0.99942, 173, 245, 188, 260
-0.999438, 169, 251, 184, 266
-0.999439, 209, 209, 336, 336
-0.999445, 187, 251, 202, 266
-0.999447, 161, 251, 176, 266
-0.999451, 153, 249, 168, 280
-0.999452, 151, 251, 166, 266
-0.999455, 257, 137, 500, 200
-0.999456, 181, 251, 196, 266
-0.999457, 289, 137, 416, 200
-0.99947, 49, 97, 176, 224
-0.9995, 1, 305, 500, 368
-0.999503, 179, 245, 194, 260
-0.99951, 289, 289, 416, 352
-0.999526, 159, 249, 174, 280
-0.999529, 1, 121, 256, 184
-0.999532, 187, 233, 202, 264
-0.999536, 173, 237, 188, 268
-0.999538, 147, 249, 162, 280
-0.999549, 321, 249, 448, 312
-0.999563, 129, 89, 256, 152
-0.999573, 191, 249, 206, 280
-0.99959, 241, 289, 368, 352
-0.999609, 181, 233, 196, 264
-0.99961, 81, 237, 208, 268
-0.999616, 17, 177, 144, 240
-0.999629, 353, 209, 480, 272
-0.999639, 145, 241, 272, 272
-0.999643, 65, 1, 128, 381
-0.999655, 337, 281, 464, 344
-0.999677, 153, 241, 216, 368
-0.999682, 369, 137, 496, 200
-0.999692, 97, 273, 352, 336
-0.999694, 65, 113, 192, 176
-0.999694, 353, 161, 480, 224
-0.999701, 151, 237, 166, 268
-0.999708, 241, 89, 368, 152
-0.999708, 241, 121, 368, 184
-0.999721, 17, 153, 144, 216
-0.999724, 165, 241, 180, 272
-0.999728, 113, 17, 240, 144
-0.999729, 185, 257, 200, 288
-0.999729, 257, 273, 500, 336
-0.999733, 177, 169, 304, 232
-0.999735, 129, 121, 256, 184
-0.999735, 17, 305, 144, 368
-0.999747, 289, 113, 416, 176
-0.999753, 157, 237, 172, 268
-0.999763, 305, 193, 432, 320
-0.999766, 1, 289, 256, 352
-0.999774, 193, 129, 320, 192
-0.999796, 257, 1, 320, 256
-0.999797, 257, 113, 500, 176
-0.999797, 175, 241, 190, 304
-0.999798, 257, 201, 384, 232
-0.9998, 193, 41, 320, 104
-0.9998, 33, 57, 160, 120
-0.9998, 97, 65, 224, 128
-0.9998, 321, 65, 448, 128
-0.9998, 353, 113, 480, 176
-0.9998, 17, 129, 144, 192
-0.9998, 65, 305, 192, 368
-0.9998, 305, 321, 432, 381
-0.999801, 49, 249, 176, 280
-0.999809, 173, 249, 188, 280
-0.999815, 141, 249, 156, 280
-0.999827, 81, 201, 208, 232
-0.999827, 321, 201, 448, 232
-0.999827, 305, 41, 432, 104
-0.999827, 257, 65, 384, 128
-0.999827, 337, 89, 464, 152
-0.999827, 17, 97, 144, 160
-0.999838, 193, 237, 208, 268
-0.999849, 197, 249, 212, 280
-0.999852, 187, 201, 202, 232
-0.999852, 197, 201, 212, 232
-0.999852, 237, 201, 252, 232
-0.999854, 1, 265, 128, 328
-0.999854, 257, 313, 384, 376
-0.999862, 179, 257, 194, 288
-0.999865, 1, 97, 256, 160
-0.999868, 213, 201, 228, 232
-0.999871, 203, 201, 218, 232
-0.999874, 251, 201, 266, 232
-0.999875, 165, 253, 180, 284
-0.999879, 187, 241, 202, 304
-0.999881, 245, 201, 260, 232
-0.999882, 145, 237, 160, 268
-0.999883, 377, 1, 440, 381
-0.999885, 227, 201, 242, 232
-0.99989, 81, 221, 208, 252
-0.999894, 161, 201, 288, 232
-0.999899, 199, 237, 214, 268
-0.9999, 173, 201, 188, 232
-0.999902, 219, 201, 234, 232
-0.999905, 259, 201, 274, 232
-0.999907, 177, 313, 304, 376
-0.999907, 369, 321, 496, 381
-0.999909, 151, 261, 166, 292
-0.999909, 145, 229, 272, 260
-0.999915, 181, 221, 196, 252
-0.999919, 179, 201, 194, 232
-0.99992, 193, 1, 256, 256
-0.999925, 227, 273, 242, 304
-0.99993, 181, 225, 196, 352
-0.999933, 265, 201, 280, 232
-0.999938, 159, 201, 174, 232
-0.999945, 145, 257, 272, 288
-0.999946, 65, 89, 192, 152
-0.999946, 289, 89, 416, 152
-0.999946, 275, 201, 290, 232
-0.999947, 289, 201, 304, 232
-0.999952, 175, 225, 190, 256
-0.999955, 143, 201, 158, 232
-0.999956, 221, 273, 236, 304
-0.999958, 139, 237, 154, 268
-0.999962, 165, 201, 180, 232
-0.999969, 191, 213, 206, 244
-0.999972, 165, 229, 180, 260
-0.999972, 281, 201, 296, 232
-0.999972, 193, 105, 320, 168
-0.999975, 161, 97, 416, 160
-0.999977, 325, 201, 340, 232
-0.999977, 157, 261, 172, 292
-0.999977, 193, 261, 208, 292
-0.999979, 131, 201, 146, 232
-0.999979, 151, 249, 166, 312
-0.99998, 193, 241, 320, 272
-0.99998, 331, 201, 346, 232
-0.999981, 313, 201, 328, 232
-0.999986, 237, 289, 252, 320
-0.999989, 153, 201, 168, 232
-0.99999, 305, 201, 320, 232
-0.999992, 341, 201, 356, 232
-0.999992, 233, 1, 296, 256
-0.999994, 347, 201, 362, 232
-0.999999, 257, 33, 384, 96
-0.999999, 113, 321, 240, 381
-1, 299, 201, 314, 232
-1, 319, 201, 334, 232
-1, 227, 189, 242, 220
-1, 175, 209, 190, 336
-1, 237, 189, 252, 220
-1, 265, 229, 280, 260
-1.00001, 215, 277, 230, 308
-1.00001, 223, 285, 238, 316
-1.00001, 97, 261, 224, 292
-1.00001, 183, 81, 198, 208
-1.00001, 215, 189, 230, 220
-1.00001, 251, 189, 266, 220
-1.00001, 267, 261, 282, 292
-1.00002, 245, 189, 260, 220
-1.00002, 221, 233, 236, 264
-1.00002, 271, 273, 286, 304
-1.00002, 199, 217, 214, 248
-1.00002, 201, 81, 216, 208
-1.00002, 137, 201, 152, 232
-1.00002, 353, 201, 368, 232
-1.00002, 113, 189, 240, 220
-1.00002, 257, 189, 384, 220
-1.00002, 271, 213, 286, 244
-1.00002, 245, 269, 260, 300
-1.00002, 235, 257, 250, 381
-1.00003, 17, 201, 144, 264
-1.00003, 321, 145, 448, 272
-1.00003, 197, 189, 212, 220
-1.00003, 163, 213, 178, 244
-1.00003, 261, 189, 276, 220
-1.00003, 305, 189, 432, 220
-1.00003, 257, 233, 272, 264
-1.00003, 199, 261, 214, 292
-1.00003, 195, 257, 210, 381
-1.00003, 209, 189, 224, 220
-1.00003, 239, 221, 254, 252
-1.00003, 193, 225, 208, 256
-1.00003, 117, 201, 132, 232
-1.00003, 187, 209, 202, 336
-1.00004, 221, 189, 236, 220
-1.00004, 221, 257, 236, 288
-1.00004, 181, 189, 196, 220
-1.00004, 273, 237, 400, 268
-1.00004, 245, 257, 260, 381
-1.00004, 241, 145, 368, 208
-1.00004, 313, 189, 328, 220
-1.00004, 175, 217, 190, 280
-1.00004, 125, 201, 140, 232
-1.00004, 223, 257, 238, 381
-1.00004, 247, 213, 262, 244
-1.00004, 167, 189, 182, 220
-1.00004, 187, 189, 202, 220
-1.00005, 213, 237, 228, 268
-1.00005, 273, 261, 288, 292
-1.00005, 243, 281, 258, 312
-1.00005, 189, 81, 204, 208
-1.00005, 229, 257, 244, 288
-1.00005, 239, 269, 254, 300
-1.00005, 363, 201, 378, 232
-1.00005, 289, 265, 304, 296
-1.00005, 157, 189, 172, 220
-1.00005, 203, 189, 218, 220
-1.00005, 259, 213, 274, 244
-1.00005, 265, 213, 280, 244
-1.00005, 279, 273, 294, 304
-1.00005, 229, 285, 244, 316
-1.00005, 211, 49, 226, 176
-1.00005, 377, 201, 392, 232
-1.00005, 229, 257, 244, 381
-1.00005, 141, 189, 156, 220
-1.00005, 269, 189, 284, 220
-1.00005, 323, 189, 338, 220
-1.00005, 211, 221, 226, 252
-1.00005, 239, 237, 254, 268
-1.00005, 283, 261, 298, 292
-1.00005, 215, 265, 230, 296
-1.00005, 233, 269, 248, 300
-1.00005, 195, 81, 210, 208
-1.00005, 193, 33, 208, 160
-1.00006, 213, 257, 228, 381
-1.00006, 305, 273, 320, 304
-1.00006, 271, 257, 286, 381
-1.00006, 149, 189, 164, 220
-1.00006, 227, 233, 242, 264
-1.00006, 185, 277, 200, 308
-1.00006, 313, 233, 328, 264
-1.00006, 171, 213, 186, 244
-1.00006, 279, 213, 294, 244
-1.00006, 221, 221, 236, 252
-1.00006, 251, 269, 266, 300
-1.00006, 217, 293, 232, 324
-1.00006, 259, 257, 274, 381
-1.00006, 131, 189, 146, 220
-1.00006, 257, 261, 272, 292
-1.00006, 81, 41, 208, 104
-1.00006, 177, 81, 192, 208
-1.00006, 253, 113, 268, 240
-1.00006, 277, 257, 292, 381
-1.00007, 245, 233, 260, 264
-1.00007, 145, 261, 160, 292
-1.00007, 223, 65, 238, 192
-1.00007, 199, 33, 214, 160
-1.00007, 257, 33, 272, 160
-1.00007, 185, 33, 200, 160
-1.00007, 175, 257, 190, 381
-1.00007, 201, 257, 216, 381
-1.00007, 207, 257, 222, 381
-1.00007, 33, 237, 160, 268
-1.00008, 245, 65, 260, 192
-1.00008, 175, 17, 190, 144
-1.00008, 251, 33, 266, 160
-1.00008, 253, 257, 268, 381
-1.00008, 291, 257, 306, 381
-1.00008, 263, 65, 278, 192
-1.00008, 265, 257, 280, 381
-1.00008, 205, 33, 220, 160
-1.00008, 235, 65, 250, 192
-1.00008, 187, 257, 202, 381
-1.00008, 211, 1, 226, 128
-1.00008, 225, 113, 240, 240
-1.00008, 269, 65, 284, 192
-1.00008, 169, 193, 184, 320
-1.00009, 171, 65, 186, 192
-1.00009, 169, 241, 184, 368
-1.00009, 297, 257, 312, 381
-1.00009, 305, 217, 432, 248
-1.00009, 217, 81, 232, 208
-1.00009, 259, 113, 274, 240
-1.00009, 181, 161, 196, 288
-1.00009, 287, 65, 302, 192
-1.00009, 297, 65, 312, 192
-1.00009, 311, 65, 326, 192
-1.00009, 333, 49, 348, 176
-1.00009, 339, 49, 354, 176
-1.00009, 281, 65, 296, 192
-1.00009, 317, 65, 332, 192
-1.00009, 223, 17, 238, 144
-1.00009, 263, 17, 278, 144
-1.00009, 81, 277, 208, 308
-1.00009, 143, 49, 158, 176
-1.00009, 151, 49, 166, 176
-1.00009, 303, 65, 318, 192
-1.00009, 325, 65, 340, 192
-1.00009, 233, 113, 248, 240
-1.00009, 283, 257, 298, 381
-1.00009, 357, 33, 372, 160
-1.00009, 347, 49, 362, 176
-1.00009, 157, 65, 172, 192
-1.00009, 165, 65, 180, 192
-1.00009, 207, 97, 222, 224
-1.00009, 163, 257, 178, 381
-1.00009, 321, 257, 336, 381
-1.00009, 125, 33, 140, 160
-1.00009, 363, 33, 378, 160
-1.00009, 137, 49, 152, 176
-1.00009, 187, 217, 202, 280
-1.0001, 217, 33, 232, 160
-1.0001, 131, 49, 146, 176
-1.0001, 297, 1, 312, 128
-1.0001, 311, 1, 326, 128
-1.0001, 161, 17, 176, 144
-1.0001, 307, 257, 322, 381
-1.0001, 275, 65, 290, 192
-1.0001, 279, 113, 294, 240
-1.0001, 289, 113, 304, 240
-1.0001, 235, 17, 250, 144
-1.0001, 245, 17, 260, 144
-1.0001, 231, 209, 246, 336
-1.0001, 117, 49, 132, 176
-1.0001, 229, 65, 244, 192
-1.0001, 267, 113, 282, 240
-1.0001, 257, 209, 272, 336
-1.0001, 257, 89, 500, 152
-1.0001, 1, 73, 500, 136
-1.0001, 311, 113, 326, 240
-1.0001, 169, 17, 184, 144
-1.0001, 229, 17, 244, 144
-1.0001, 269, 17, 284, 144
-1.0001, 303, 113, 318, 240
-1.0001, 333, 1, 348, 128
-1.0001, 339, 1, 354, 128
-1.0001, 345, 1, 360, 128
-1.0001, 351, 1, 366, 128
-1.0001, 279, 17, 294, 144
-1.0001, 285, 17, 300, 144
-1.0001, 291, 17, 306, 144
-1.0001, 305, 17, 320, 144
-1.0001, 321, 17, 336, 144
-1.0001, 327, 17, 342, 144
-1.0001, 187, 161, 202, 288
-1.0001, 247, 113, 262, 240
-1.00011, 243, 209, 258, 336
-1.00011, 293, 209, 308, 336
-1.00011, 321, 229, 448, 260
-1.00011, 273, 113, 288, 240
-1.00011, 239, 113, 254, 240
-1.00011, 323, 113, 338, 240
-1.00011, 297, 113, 312, 240
-1.00011, 263, 193, 278, 320
-1.00011, 315, 257, 330, 381
-1.00011, 165, 113, 180, 240
-1.00011, 317, 113, 332, 240
-1.00011, 197, 129, 212, 256
-1.00011, 333, 257, 348, 381
-1.00011, 257, 225, 384, 256
-1.00011, 281, 209, 296, 336
-1.00012, 105, 33, 120, 160
-1.00012, 97, 305, 352, 368
-1.00012, 369, 33, 384, 160
-1.00012, 369, 257, 496, 320
-1.00012, 221, 209, 236, 336
-1.00012, 139, 257, 154, 381
-1.00012, 203, 193, 218, 320
-1.00012, 215, 129, 230, 256
-1.00012, 287, 193, 302, 320
-1.00012, 175, 145, 190, 272
-1.00012, 197, 193, 212, 320
-1.00012, 213, 209, 228, 336
-1.00012, 269, 209, 284, 336
-1.00012, 157, 113, 172, 240
-1.00012, 65, 189, 192, 220
-1.00012, 257, 269, 384, 300
-1.00014, 353, 25, 480, 88
-1.00014, 177, 81, 304, 144
-1.00016, 1, 241, 128, 304
-1.00016, 225, 145, 352, 272
-1.00016, 209, 201, 336, 232
-1.00016, 273, 249, 400, 280
-1.00016, 1, 73, 256, 136
-1.00016, 33, 209, 160, 240
-1.00017, 257, 213, 384, 244
-1.00019, 289, 49, 416, 176
-1.00019, 49, 261, 176, 292
-1.00019, 305, 269, 432, 300
-1.0002, 145, 241, 160, 304
-1.0002, 257, 297, 500, 360
-1.0002, 129, 217, 256, 248
-1.00021, 193, 241, 320, 304
-1.00022, 81, 293, 208, 324
-1.00022, 157, 241, 172, 304
-1.00022, 321, 241, 448, 272
-1.00022, 33, 273, 160, 304
-1.00023, 353, 189, 480, 220
-1.00024, 237, 1, 268, 256
-1.00025, 305, 177, 432, 208
-1.00025, 269, 1, 300, 256
-1.00026, 369, 233, 496, 296
-1.00027, 17, 193, 144, 224
-1.00027, 161, 73, 416, 136
-1.00027, 281, 1, 312, 256
-1.00027, 17, 181, 144, 212
-1.00027, 177, 189, 304, 220
-1.00027, 289, 293, 416, 324
-1.00028, 305, 165, 432, 196
-1.00028, 225, 1, 256, 256
-1.00029, 321, 257, 448, 288
-1.00029, 353, 161, 480, 192
-1.0003, 289, 305, 416, 336
-1.0003, 81, 309, 208, 340
-1.0003, 257, 1, 288, 256
-1.0003, 65, 177, 192, 208
-1.0003, 181, 209, 196, 272
-1.0003, 49, 53, 176, 84
-1.0003, 33, 293, 160, 324
-1.0003, 81, 341, 208, 372
-1.00031, 17, 225, 144, 256
-1.00031, 257, 169, 384, 200
-1.00031, 97, 69, 224, 100
-1.00031, 305, 153, 432, 184
-1.00031, 65, 165, 192, 196
-1.00031, 289, 281, 416, 312
-1.00032, 209, 1, 240, 256
-1.00032, 113, 133, 240, 164
-1.00032, 151, 217, 166, 280
-1.00032, 321, 97, 448, 128
-1.00032, 49, 101, 176, 132
-1.00032, 33, 113, 160, 144
-1.00032, 337, 121, 464, 152
-1.00032, 273, 129, 400, 160
-1.00032, 17, 153, 144, 184
-1.00032, 193, 265, 320, 296
-1.00032, 321, 337, 448, 368
-1.00033, 305, 73, 432, 104
-1.00033, 97, 121, 224, 152
-1.00033, 1, 169, 128, 200
-1.00033, 369, 225, 496, 256
-1.00033, 65, 325, 192, 356
-1.00033, 321, 325, 448, 356
-1.00033, 113, 177, 240, 208
-1.00033, 129, 49, 384, 112
-1.00033, 97, 97, 224, 128
-1.00033, 273, 113, 400, 144
-1.00033, 129, 277, 256, 308
-1.00034, 257, 321, 500, 381
-1.00034, 49, 85, 176, 116
-1.00034, 257, 157, 384, 188
-1.00035, 17, 125, 144, 156
-1.00035, 353, 137, 480, 168
-1.00035, 257, 141, 384, 172
-1.00035, 113, 157, 240, 188
-1.00035, 33, 313, 160, 344
-1.00035, 65, 153, 192, 184
-1.00035, 1, 261, 128, 292
-1.00036, 305, 85, 432, 116
-1.00036, 321, 109, 448, 140
-1.00036, 65, 141, 192, 172
-1.00036, 305, 141, 432, 172
-1.00036, 193, 213, 320, 244
-1.00036, 273, 341, 400, 372
-1.00036, 1, 313, 256, 376
-1.00036, 41, 1, 104, 381
-1.00036, 97, 81, 224, 112
-1.00036, 273, 101, 400, 132
-1.00036, 33, 49, 288, 112
-1.00037, 337, 301, 464, 332
-1.00037, 97, 109, 224, 140
-1.00037, 17, 141, 144, 172
-1.00037, 49, 65, 176, 96
-1.00038, 227, 193, 242, 256
-1.00039, 185, 265, 200, 328
-1.00039, 113, 145, 240, 176
-1.00039, 241, 281, 368, 312
-1.00039, 239, 193, 254, 256
-1.00039, 243, 273, 258, 336
-1.0004, 369, 65, 496, 128
-1.0004, 113, 57, 240, 88
-1.0004, 251, 201, 266, 264
-1.0004, 353, 149, 480, 180
-1.0004, 369, 245, 496, 276
-1.00041, 273, 281, 288, 344
-1.00041, 353, 177, 480, 208
-1.00041, 337, 285, 464, 316
-1.00041, 321, 349, 448, 380
-1.00041, 209, 193, 224, 256
-1.00041, 353, 213, 480, 244
-1.00041, 369, 257, 496, 288
-1.00041, 207, 97, 222, 160
-1.00041, 219, 193, 234, 256
-1.00041, 197, 257, 212, 320
-1.00042, 273, 317, 400, 348
-1.00042, 197, 1, 228, 256
-1.00042, 237, 281, 252, 344
-1.00043, 369, 201, 496, 232
-1.00043, 129, 297, 256, 328
-1.00043, 245, 193, 260, 256
-1.00043, 17, 325, 144, 356
-1.00043, 273, 329, 400, 360
-1.00043, 179, 265, 194, 328
-1.00043, 289, 57, 416, 88
-1.00043, 257, 89, 384, 120
-1.00044, 225, 253, 352, 284
-1.00044, 33, 345, 160, 376
-1.00044, 165, 209, 180, 272
-1.00044, 337, 313, 464, 344
-1.00045, 293, 1, 324, 256
-1.00045, 203, 193, 218, 256
-1.00045, 193, 229, 320, 260
-1.00045, 233, 201, 248, 264
-1.00045, 231, 273, 246, 336
-1.00045, 261, 273, 276, 336
-1.00046, 353, 273, 480, 304
-1.00047, 257, 193, 272, 256
-1.00047, 257, 65, 500, 128
-1.00047, 181, 1, 212, 256
-1.00047, 177, 289, 304, 320
-1.00048, 241, 305, 368, 336
-1.00048, 195, 281, 210, 344
-1.00049, 217, 273, 232, 336
-1.00049, 255, 289, 270, 352
-1.0005, 169, 249, 184, 312
-1.0005, 157, 217, 172, 280
-1.0005, 235, 105, 250, 168
-1.0005, 287, 265, 302, 328
-1.0005, 1, 249, 128, 280
-1.0005, 321, 1, 448, 64
-1.0005, 225, 293, 352, 324
-1.0005, 193, 145, 320, 176
-1.00051, 171, 193, 186, 256
-1.00051, 195, 193, 210, 256
-1.00051, 207, 281, 222, 344
-1.00051, 129, 41, 256, 104
-1.00052, 163, 249, 178, 312
-1.00052, 225, 105, 240, 168
-1.00052, 281, 289, 296, 352
-1.00052, 249, 265, 264, 328
-1.00053, 199, 81, 214, 144
-1.00054, 129, 313, 256, 344
-1.00054, 251, 105, 266, 168
-1.00054, 193, 133, 320, 164
-1.00054, 193, 277, 320, 308
-1.00054, 193, 289, 320, 352
-1.00055, 225, 273, 240, 336
-1.00055, 267, 281, 282, 344
-1.00057, 233, 177, 248, 240
-1.00057, 263, 201, 278, 264
-1.00057, 207, 49, 222, 112
-1.00057, 193, 157, 320, 188
-1.00057, 193, 169, 320, 200
-1.00057, 303, 193, 318, 256
-1.00058, 113, 325, 240, 356
-1.00058, 251, 177, 266, 240
-1.00058, 279, 193, 294, 256
-1.00059, 1, 101, 128, 132
-1.00059, 189, 89, 204, 152
-1.00059, 269, 193, 284, 256
-1.00059, 145, 81, 272, 112
-1.0006, 401, 1, 464, 381
-1.0006, 269, 257, 284, 320
-1.00061, 181, 89, 196, 152
-1.00061, 217, 105, 232, 168
-1.00061, 241, 105, 256, 168
-1.00061, 285, 193, 300, 256
-1.00061, 327, 201, 342, 264
-1.00061, 281, 265, 296, 328
-1.00061, 1, 49, 500, 112
-1.00061, 193, 217, 208, 280
-1.00061, 145, 265, 160, 328
-1.00061, 259, 105, 274, 168
-1.00061, 249, 289, 264, 352
-1.00061, 169, 241, 232, 304
-1.00061, 203, 257, 218, 320
-1.00062, 169, 1, 200, 256
-1.00062, 185, 177, 200, 240
-1.00062, 297, 201, 312, 264
-1.00063, 313, 193, 328, 256
-1.00063, 145, 217, 160, 280
-1.00063, 139, 241, 154, 304
-1.00063, 291, 193, 306, 256
-1.00065, 175, 81, 190, 144
-1.00065, 207, 73, 222, 136
-1.00065, 297, 265, 312, 328
-1.00065, 281, 1, 344, 256
-1.00066, 261, 297, 276, 360
-1.00066, 253, 97, 284, 352
-1.00066, 181, 65, 196, 128
-1.00066, 239, 305, 254, 368
-1.00067, 271, 97, 286, 160
-1.00067, 201, 281, 216, 344
-1.00067, 237, 257, 252, 320
-1.00067, 263, 41, 278, 104
-1.00067, 229, 97, 260, 352
-1.00067, 213, 49, 228, 112
-1.00067, 139, 217, 154, 280
-1.00067, 267, 305, 282, 368
-1.00068, 255, 265, 270, 328
-1.00068, 151, 281, 166, 344
-1.00068, 33, 225, 160, 352
-1.00068, 173, 281, 188, 344
-1.00068, 293, 305, 308, 368
-1.00068, 243, 33, 258, 96
-1.00068, 269, 121, 284, 184
-1.00068, 189, 297, 204, 360
-1.00068, 233, 305, 248, 368
-1.00068, 189, 97, 220, 352
-1.00069, 153, 1, 184, 256
-1.00069, 307, 289, 322, 352
-1.00069, 159, 177, 174, 240
-1.0007, 229, 129, 244, 192
-1.0007, 211, 249, 226, 312
-1.0007, 197, 313, 212, 376
-1.0007, 217, 97, 248, 352
-1.00071, 217, 129, 232, 192
-1.00071, 337, 201, 352, 264
-1.00072, 191, 65, 206, 128
-1.00072, 325, 177, 340, 240
-1.00072, 299, 289, 314, 352
-1.00072, 201, 97, 232, 352
-1.00072, 225, 249, 240, 312
-1.00072, 237, 33, 252, 96
-1.00072, 177, 177, 192, 240
-1.00072, 321, 201, 336, 264
-1.00072, 317, 265, 332, 328
-1.00073, 239, 169, 254, 232
-1.00073, 245, 169, 260, 232
-1.00073, 263, 249, 278, 312
-1.00073, 201, 105, 216, 168
-1.00073, 243, 129, 258, 192
-1.00073, 281, 97, 312, 352
-1.00074, 177, 97, 208, 352
-1.00074, 227, 169, 242, 232
-1.00074, 257, 169, 272, 232
-1.00074, 229, 41, 244, 104
-1.00074, 165, 177, 180, 240
-1.00074, 125, 193, 140, 256
-1.00074, 217, 305, 232, 368
-1.00074, 221, 41, 236, 104
-1.00074, 215, 81, 230, 144
-1.00074, 167, 273, 182, 336
-1.00074, 209, 169, 224, 232
-1.00074, 215, 169, 230, 232
-1.00074, 221, 169, 236, 232
-1.00074, 241, 97, 272, 352
-1.00075, 259, 321, 274, 381
-1.00075, 313, 1, 344, 256
-1.00075, 201, 49, 216, 112
-1.00075, 203, 169, 218, 232
-1.00075, 329, 249, 344, 312
-1.00075, 33, 25, 288, 88
-1.00077, 133, 1, 164, 256
-1.00077, 225, 41, 480, 104
-1.00078, 265, 97, 296, 352
-1.0008, 325, 1, 356, 256
-1.00081, 345, 1, 376, 256
-1.00083, 161, 97, 192, 352
-1.00087, 257, 9, 500, 72
-1.00088, 209, 217, 336, 280
-1.00088, 273, 1, 400, 64
-1.00093, 1, 1, 256, 64
-1.00093, 145, 209, 208, 272
-1.00094, 337, 241, 464, 368
-1.00095, 357, 1, 388, 256
-1.00096, 121, 1, 152, 256
-1.00097, 109, 1, 140, 256
-1.00097, 149, 97, 180, 352
-1.00099, 293, 97, 324, 352
-1.001, 17, 1, 80, 381
-1.00101, 129, 25, 384, 88
-1.00101, 309, 97, 340, 352
-1.00105, 425, 1, 488, 381
-1.00106, 137, 97, 168, 352
-1.00112, 325, 97, 356, 352
-1.00112, 345, 97, 376, 352
-1.00117, 17, 33, 144, 160
-1.00117, 125, 97, 156, 352
-1.00119, 97, 1, 128, 256
-1.00119, 33, 33, 160, 96
-1.0012, 369, 33, 400, 288
-1.0012, 169, 33, 232, 288
-1.00123, 337, 49, 464, 176
-1.00125, 85, 1, 116, 256
-1.00129, 381, 1, 412, 256
-1.0013, 113, 97, 144, 352
-1.0013, 1, 25, 500, 88
-1.00131, 45, 1, 76, 256
-1.00131, 357, 97, 388, 352
-1.00132, 161, 1, 416, 64
-1.00132, 73, 1, 104, 256
-1.00133, 393, 1, 424, 256
-1.00133, 61, 1, 92, 256
-1.00133, 413, 1, 444, 256
-1.00136, 433, 1, 464, 256
-1.00137, 129, 17, 256, 80
-1.00139, 101, 97, 132, 352
-1.00139, 29, 1, 60, 256
-1.00143, 453, 1, 484, 256
-1.00144, 209, 17, 336, 80
-1.00146, 17, 1, 48, 256
-1.00147, 89, 97, 120, 352
-1.00149, 385, 97, 416, 352
-1.00149, 369, 1, 496, 64
-1.0015, 73, 97, 104, 352
-1.00152, 401, 97, 432, 352
-1.00153, 5, 1, 36, 256
-1.00153, 353, 97, 480, 224
-1.00153, 57, 97, 88, 352
-1.00153, 417, 97, 448, 352
-1.00156, 41, 97, 72, 352
-1.0016, 465, 33, 496, 288
-1.00162, 373, 129, 404, 381
-1.00162, 193, 1, 320, 128
-1.00164, 1, 1, 500, 64
-1.00167, 25, 97, 56, 352
-1.00169, 241, 1, 368, 128
-1.00172, 429, 97, 460, 352
-1.00172, 1, 145, 128, 272
-1.00174, 441, 97, 472, 352
-1.00178, 13, 97, 44, 352
-1.00181, 453, 97, 484, 352
-1.00183, 145, 1, 208, 256
-1.00185, 1, 97, 32, 352
-1.00188, 469, 129, 500, 381
-1.00189, 49, 9, 176, 72
-1.00193, 121, 257, 184, 320
-1.00195, 65, 1, 192, 128
-1.00208, 353, 193, 480, 320
-1.00218, 289, 1, 416, 128
-1.00222, 121, 1, 184, 256
-1.00223, 177, 209, 240, 272
-1.00228, 321, 1, 384, 256
-1.00228, 129, 177, 192, 240
-1.00231, 169, 81, 232, 208
-1.00231, 209, 97, 272, 352
-1.00231, 1, 97, 128, 224
-1.00252, 173, 249, 204, 312
-1.00254, 265, 97, 328, 352
-1.00258, 1, 9, 128, 72
-1.00259, 177, 225, 208, 352
-1.00269, 321, 193, 384, 256
-1.00272, 241, 97, 304, 352
-1.0028, 337, 1, 464, 128
-1.0028, 289, 193, 352, 256
-1.0028, 105, 233, 168, 296
-1.00294, 161, 177, 224, 240
-1.00306, 369, 145, 496, 272
-1.0032, 145, 97, 208, 352
-1.00329, 305, 161, 368, 224
-1.00336, 165, 225, 196, 352
-1.0034, 105, 209, 168, 272
-1.00341, 177, 193, 240, 320
-1.00341, 177, 257, 240, 381
-1.00343, 105, 177, 168, 240
-1.00354, 289, 97, 352, 352
-1.00354, 129, 153, 192, 216
-1.0037, 265, 257, 328, 381
-1.0037, 257, 89, 320, 152
-1.0037, 169, 121, 232, 184
-1.00376, 201, 49, 264, 176
-1.00377, 153, 273, 216, 336
-1.00378, 257, 201, 320, 264
-1.00382, 185, 81, 216, 208
-1.00384, 329, 169, 392, 232
-1.00384, 201, 193, 264, 256
-1.00387, 161, 81, 224, 144
-1.00387, 137, 89, 200, 152
-1.00387, 265, 113, 328, 176
-1.00387, 145, 129, 208, 192
-1.00387, 289, 129, 352, 192
-1.00389, 129, 241, 192, 368
-1.00391, 121, 129, 184, 192
-1.00391, 313, 137, 376, 200
-1.00391, 313, 265, 376, 328
-1.00395, 157, 241, 188, 304
-1.00399, 97, 33, 160, 288
-1.004, 329, 113, 392, 176
-1.00406, 121, 97, 184, 352
-1.00412, 281, 169, 344, 232
-1.00414, 209, 49, 240, 176
-1.00416, 241, 113, 304, 240
-1.00417, 297, 89, 360, 152
-1.00418, 169, 129, 232, 381
-1.00421, 113, 105, 176, 168
-1.00424, 225, 105, 288, 168
-1.00424, 113, 305, 176, 368
-1.0043, 185, 97, 248, 160
-1.00433, 289, 265, 352, 328
-1.00433, 257, 257, 320, 320
-1.00437, 129, 57, 192, 120
-1.00438, 173, 81, 204, 208
-1.0044, 329, 241, 392, 304
-1.0044, 305, 321, 368, 381
-1.00441, 177, 33, 240, 160
-1.00447, 105, 73, 168, 136
-1.00447, 313, 97, 376, 352
-1.00449, 265, 137, 328, 200
-1.00451, 297, 241, 360, 304
-1.00452, 345, 1, 408, 256
-1.00456, 289, 217, 352, 280
-1.00457, 161, 177, 192, 304
-1.00457, 229, 257, 260, 381
-1.00458, 193, 273, 256, 336
-1.0046, 153, 153, 216, 216
-1.0046, 193, 257, 224, 381
-1.00463, 257, 161, 320, 224
-1.00463, 137, 321, 200, 381
-1.00464, 265, 129, 328, 256
-1.00465, 209, 257, 240, 381
-1.00467, 181, 177, 212, 304
-1.00467, 197, 49, 228, 176
-1.00467, 145, 81, 208, 208
-1.00469, 141, 249, 172, 312
-1.0047, 241, 257, 304, 381
-1.00471, 161, 217, 192, 280
-1.00474, 129, 177, 192, 304
-1.00474, 113, 281, 176, 344
-1.00475, 265, 257, 296, 381
-1.00479, 217, 273, 280, 336
-1.00479, 265, 281, 328, 344
-1.00481, 321, 89, 384, 152
-1.00481, 105, 153, 168, 216
-1.00486, 337, 137, 400, 200
-1.00486, 337, 265, 400, 328
-1.00486, 185, 217, 216, 280
-1.00487, 201, 97, 264, 224
-1.00487, 181, 33, 212, 160
-1.00488, 89, 265, 152, 328
-1.0049, 185, 73, 248, 136
-1.00492, 245, 257, 276, 381
-1.00493, 161, 57, 224, 120
-1.00493, 233, 193, 296, 256
-1.00493, 209, 257, 272, 381
-1.00495, 329, 305, 392, 368
-1.00499, 177, 153, 240, 216
-1.005, 313, 217, 376, 280
-1.005, 289, 289, 352, 352
-1.005, 153, 297, 216, 360
-1.00503, 225, 49, 288, 176
-1.00505, 229, 81, 260, 208
-1.00506, 197, 1, 228, 128
-1.00511, 185, 249, 216, 312
-1.00511, 245, 49, 276, 176
-1.00514, 201, 129, 264, 192
-1.00515, 249, 113, 280, 240
-1.00516, 273, 65, 336, 128
-1.00518, 353, 161, 416, 224
-1.00518, 81, 193, 144, 256
-1.00519, 285, 257, 316, 381
-1.0052, 89, 113, 152, 176
-1.00523, 249, 49, 312, 176
-1.00524, 73, 33, 136, 288
-1.00529, 289, 225, 352, 352
-1.0053, 97, 49, 160, 112
-1.0053, 233, 33, 264, 160
-1.00531, 213, 113, 244, 240
-1.00534, 161, 1, 192, 128
-1.00534, 353, 193, 416, 256
-1.00535, 201, 97, 232, 224
-1.00536, 169, 321, 232, 381
-1.00537, 353, 241, 416, 304
-1.00537, 161, 65, 192, 192
-1.00538, 345, 97, 408, 352
-1.00541, 241, 281, 304, 344
-1.00541, 273, 321, 336, 381
-1.00542, 153, 193, 216, 320
-1.00546, 265, 65, 296, 192
-1.00548, 221, 1, 252, 128
-1.0055, 225, 129, 256, 256
-1.00551, 209, 1, 240, 128
-1.00555, 201, 41, 264, 104
-1.00555, 313, 57, 376, 120
-1.00557, 193, 241, 256, 304
-1.00558, 289, 113, 320, 240
-1.00561, 321, 257, 352, 381
-1.00562, 257, 17, 288, 144
-1.00564, 309, 65, 340, 192
-1.00564, 301, 257, 332, 381
-1.00564, 241, 129, 304, 192
-1.00567, 349, 49, 380, 176
-1.00568, 369, 33, 432, 288
-1.0057, 113, 49, 144, 176
-1.0057, 133, 65, 164, 192
-1.0057, 337, 65, 368, 192
-1.00571, 169, 145, 232, 272
-1.00571, 353, 113, 416, 176
-1.00574, 317, 113, 348, 240
-1.00574, 289, 209, 320, 336
-1.00576, 89, 289, 152, 352
-1.00577, 369, 49, 400, 176
-1.00578, 177, 297, 240, 360
-1.00578, 277, 65, 308, 192
-1.0058, 261, 129, 292, 256
-1.0058, 269, 209, 300, 336
-1.0058, 181, 193, 212, 256
-1.0058, 337, 217, 400, 280
-1.00581, 297, 1, 328, 128
-1.00581, 341, 1, 372, 128
-1.00581, 321, 49, 352, 176
-1.00581, 145, 65, 176, 192
-1.00584, 289, 129, 352, 256
-1.00585, 277, 113, 308, 240
-1.00585, 241, 209, 272, 336
-1.00585, 257, 33, 320, 96
-1.00588, 273, 65, 336, 192
-1.00591, 201, 1, 264, 128
-1.00591, 101, 33, 132, 160
-1.00591, 149, 113, 180, 240
-1.00591, 301, 113, 332, 240
-1.00591, 201, 193, 232, 320
-1.00592, 81, 169, 144, 232
-1.00592, 177, 129, 208, 256
-1.00594, 129, 33, 192, 160
-1.00595, 89, 129, 152, 381
-1.00596, 289, 65, 320, 192
-1.00599, 89, 321, 152, 381
-1.00599, 329, 1, 360, 128
-1.00599, 273, 17, 304, 144
-1.00599, 285, 17, 316, 144
-1.00599, 309, 17, 340, 144
-1.00601, 233, 81, 296, 144
-1.00601, 65, 265, 128, 328
-1.00602, 333, 113, 364, 240
-1.00602, 153, 241, 184, 368
-1.00602, 205, 193, 236, 256
-1.00606, 81, 81, 144, 144
-1.00606, 209, 297, 272, 360
-1.00607, 217, 209, 248, 336
-1.00607, 149, 193, 180, 320
-1.00615, 49, 1, 112, 256
-1.00617, 149, 17, 180, 144
-1.00617, 229, 209, 260, 336
-1.0062, 257, 177, 320, 304
-1.00621, 149, 217, 180, 280
-1.00621, 133, 113, 164, 240
-1.00623, 109, 257, 140, 381
-1.00624, 309, 177, 340, 304
-1.00627, 193, 89, 224, 152
-1.00629, 161, 265, 192, 328
-1.00629, 353, 305, 416, 368
-1.00633, 133, 241, 164, 368
-1.00633, 201, 209, 264, 336
-1.00634, 65, 105, 128, 168
-1.00634, 333, 257, 364, 381
-1.00636, 257, 225, 320, 288
-1.00636, 253, 209, 284, 336
-1.00637, 289, 161, 320, 288
-1.00637, 349, 257, 380, 381
-1.00639, 153, 17, 216, 144
-1.00639, 213, 273, 244, 336
-1.0064, 165, 129, 196, 256
-1.0064, 345, 81, 408, 144
-1.0064, 361, 217, 424, 280
-1.0064, 241, 305, 304, 368
-1.00642, 193, 145, 224, 272
-1.00643, 173, 81, 204, 144
-1.00644, 369, 257, 400, 381
-1.00644, 85, 49, 116, 176
-1.00645, 357, 113, 388, 240
-1.00646, 177, 273, 208, 336
-1.00647, 169, 193, 200, 256
-1.00647, 209, 81, 272, 144
-1.0065, 377, 193, 440, 256
-1.00652, 245, 201, 276, 264
-1.00655, 273, 105, 304, 168
-1.00656, 225, 209, 288, 336
-1.00656, 217, 201, 248, 264
-1.00656, 245, 265, 276, 328
-1.00658, 273, 265, 304, 328
-1.00658, 121, 97, 152, 224
-1.00661, 137, 33, 200, 96
-1.00661, 289, 41, 352, 104
-1.00661, 81, 137, 144, 200
-1.00661, 73, 241, 136, 304
-1.00661, 369, 1, 400, 128
-1.00663, 245, 1, 276, 128
-1.00663, 237, 129, 268, 256
-1.00664, 225, 41, 288, 104
-1.00664, 361, 273, 424, 336
-1.00664, 173, 225, 204, 288
-1.00664, 193, 281, 224, 344
-1.00666, 233, 193, 264, 256
-1.00669, 281, 201, 312, 264
-1.00669, 125, 17, 156, 144
-1.00669, 137, 17, 168, 144
-1.00669, 121, 257, 152, 381
-1.00669, 101, 81, 132, 208
-1.0067, 353, 57, 416, 120
-1.00671, 345, 113, 376, 240
-1.00672, 353, 1, 384, 128
-1.00675, 73, 57, 136, 120
-1.00675, 233, 249, 296, 312
-1.00675, 173, 105, 204, 168
-1.00677, 233, 169, 296, 232
-1.00677, 389, 1, 420, 128
-1.00679, 297, 81, 360, 208
-1.0068, 65, 289, 128, 352
-1.0068, 209, 105, 240, 168
-1.0068, 233, 265, 264, 328
-1.00682, 249, 161, 280, 288
-1.00682, 337, 193, 368, 320
-1.00684, 393, 1, 456, 256
-1.00684, 189, 129, 220, 192
-1.00685, 353, 113, 416, 240
-1.00686, 9, 1, 72, 256
-1.00687, 389, 49, 420, 176
-1.00687, 129, 241, 160, 304
-1.00689, 201, 169, 264, 232
-1.00689, 193, 321, 256, 381
-1.00689, 205, 129, 236, 192
-1.0069, 277, 161, 308, 288
-1.0069, 193, 65, 224, 128
-1.00691, 145, 129, 208, 256
-1.00692, 321, 129, 384, 256
-1.00694, 201, 217, 264, 280
-1.00696, 361, 137, 424, 200
-1.00697, 265, 193, 296, 256
-1.00701, 265, 1, 328, 128
-1.00701, 213, 161, 244, 288
-1.00702, 417, 1, 480, 256
-1.00703, 169, 33, 232, 96
-1.00703, 321, 193, 352, 320
-1.00703, 245, 105, 276, 168
-1.00704, 129, 217, 160, 280
-1.00707, 401, 201, 464, 264
-1.00709, 269, 289, 300, 352
-1.00711, 205, 73, 236, 136
-1.00711, 73, 49, 104, 176
-1.00711, 81, 97, 144, 224
-1.00712, 289, 17, 352, 80
-1.00712, 81, 217, 144, 280
-1.00712, 229, 105, 260, 168
-1.00712, 301, 193, 332, 256
-1.00712, 369, 97, 400, 224
-1.00714, 97, 257, 128, 381
-1.00714, 313, 1, 376, 128
-1.00714, 81, 49, 144, 176
-1.00714, 337, 65, 400, 192
-1.00714, 321, 257, 384, 381
-1.00714, 345, 257, 408, 381
-1.00714, 377, 105, 440, 168
-1.00717, 197, 257, 228, 320
-1.00719, 57, 201, 120, 264
-1.0072, 49, 97, 112, 352
-1.00721, 105, 65, 168, 192
-1.00721, 97, 25, 160, 88
-1.00721, 313, 33, 376, 96
-1.00723, 261, 105, 292, 168
-1.00723, 193, 177, 224, 240
-1.00724, 377, 249, 440, 312
-1.00725, 153, 57, 184, 120
-1.00725, 241, 289, 272, 352
-1.00728, 225, 17, 288, 80
-1.00728, 49, 41, 112, 104
-1.00729, 257, 273, 288, 336
-1.00731, 209, 49, 240, 112
-1.00731, 161, 81, 192, 144
-1.00734, 113, 1, 144, 128
-1.00735, 217, 177, 248, 240
-1.00735, 321, 201, 352, 264
-1.00737, 289, 17, 352, 144
-1.00737, 257, 249, 288, 312
-1.0074, 269, 129, 300, 192
-1.00741, 149, 193, 180, 256
-1.00742, 313, 281, 344, 344
-1.00743, 377, 65, 440, 192
-1.00746, 85, 257, 116, 381
-1.00748, 105, 129, 136, 256
-1.00749, 337, 33, 400, 96
-1.0075, 345, 17, 408, 144
-1.00751, 377, 161, 440, 224
-1.00753, 57, 65, 120, 192
-1.00754, 141, 273, 172, 336
-1.00756, 281, 129, 312, 192
-1.00756, 73, 33, 136, 96
-1.00756, 89, 257, 152, 381
-1.00757, 349, 193, 380, 320
-1.00757, 137, 193, 168, 256
-1.00757, 197, 233, 228, 296
-1.00758, 249, 57, 312, 120
-1.00758, 121, 209, 152, 336
-1.00759, 325, 249, 356, 312
-1.00761, 293, 249, 324, 312
-1.00763, 113, 113, 176, 240
-1.00766, 321, 177, 384, 304
-1.00766, 181, 169, 212, 232
-1.00766, 229, 33, 260, 96
-1.00766, 245, 177, 276, 240
-1.00767, 217, 321, 280, 381
-1.00767, 25, 193, 88, 256
-1.00769, 117, 273, 148, 336
-1.00769, 105, 177, 168, 304
-1.00771, 265, 313, 296, 376
-1.00771, 381, 257, 412, 381
-1.00772, 289, 177, 320, 240
-1.00773, 289, 177, 352, 304
-1.00774, 333, 193, 364, 256
-1.00775, 181, 57, 212, 120
-1.00776, 237, 241, 268, 304
-1.00778, 137, 193, 168, 320
-1.00782, 153, 289, 184, 352
-1.00783, 345, 201, 376, 264
-1.00783, 229, 305, 260, 368
-1.00784, 369, 129, 432, 381
-1.00785, 261, 41, 292, 104
-1.00785, 113, 193, 144, 256
-1.00786, 97, 209, 128, 336
-1.00786, 293, 97, 324, 160
-1.00786, 257, 129, 288, 192
-1.00786, 225, 241, 256, 304
-1.00787, 89, 97, 120, 224
-1.00789, 361, 193, 392, 320
-1.00789, 293, 137, 324, 200
-1.00789, 293, 281, 324, 344
-1.00789, 201, 305, 232, 368
-1.00789, 213, 313, 244, 376
-1.00791, 161, 169, 192, 232
-1.00791, 213, 241, 244, 304
-1.00794, 61, 33, 92, 160
-1.00794, 373, 209, 404, 336
-1.00794, 281, 305, 312, 368
-1.00795, 225, 1, 288, 128
-1.00796, 353, 209, 416, 336
-1.00797, 241, 33, 272, 96
-1.00797, 165, 289, 196, 352
-1.008, 217, 129, 248, 192
-1.008, 301, 305, 332, 368
-1.00802, 109, 209, 140, 336
-1.00802, 313, 177, 344, 240
-1.00802, 253, 297, 284, 360
-1.00805, 81, 1, 144, 128
-1.00806, 205, 169, 236, 232
-1.00809, 233, 169, 264, 232
-1.00811, 313, 257, 344, 320
-1.00811, 117, 145, 148, 272
-1.00812, 353, 161, 416, 288
-1.00814, 389, 113, 420, 240
-1.00815, 201, 161, 264, 288
-1.00816, 161, 129, 192, 192
-1.00816, 229, 137, 260, 200
-1.00817, 269, 233, 300, 296
-1.00818, 401, 65, 432, 192
-1.00819, 161, 105, 192, 168
-1.00819, 81, 1, 112, 128
-1.0082, 277, 33, 308, 96
-1.0082, 369, 193, 400, 256
-1.0082, 285, 225, 316, 288
-1.00822, 353, 177, 384, 240
-1.00823, 193, 153, 224, 216
-1.00823, 265, 81, 296, 144
-1.00823, 309, 105, 340, 168
-1.00823, 177, 129, 208, 192
-1.00823, 241, 129, 272, 192
-1.00823, 125, 193, 156, 256
-1.00825, 265, 169, 296, 232
-1.00826, 193, 41, 224, 104
-1.00827, 357, 201, 388, 264
-1.00827, 309, 217, 340, 280
-1.00827, 65, 97, 96, 224
-1.00828, 181, 297, 212, 360
-1.00828, 165, 321, 196, 381
-1.0083, 289, 33, 320, 96
-1.0083, 277, 177, 308, 240
-1.0083, 49, 49, 80, 176
-1.00832, 385, 209, 416, 336
-1.00833, 101, 281, 132, 344
-1.00834, 205, 25, 236, 88
-1.00837, 185, 321, 216, 381
-1.00839, 333, 169, 364, 232
-1.0084, 393, 257, 424, 381
-1.0084, 325, 81, 356, 144
-1.0084, 117, 297, 148, 360
-1.0084, 149, 321, 180, 381
-1.00841, 369, 1, 432, 128
-1.00842, 77, 97, 108, 224
-1.00843, 417, 97, 480, 352
-1.00844, 253, 9, 284, 72
-1.00845, 137, 169, 168, 232
-1.00847, 141, 33, 172, 96
-1.00847, 101, 193, 132, 256
-1.00847, 333, 281, 364, 344
-1.00848, 221, 81, 252, 144
-1.00848, 301, 169, 332, 232
-1.00848, 253, 225, 284, 288
-1.0085, 393, 193, 424, 256
-1.0085, 129, 281, 160, 344
-1.00857, 105, 17, 168, 144
-1.00858, 369, 145, 400, 272
-1.00859, 17, 97, 80, 352
-1.00859, 393, 97, 456, 352
-1.00859, 409, 17, 440, 144
-1.0086, 225, 161, 288, 288
-1.00867, 77, 209, 108, 336
-1.00874, 49, 113, 112, 240
-1.00877, 369, 257, 432, 381
-1.0088, 73, 257, 104, 381
-1.00883, 377, 113, 440, 240
-1.00886, 53, 97, 84, 224
-1.00899, 65, 257, 128, 381
-1.00903, 393, 1, 456, 128
-1.00903, 81, 193, 144, 320
-1.00906, 81, 145, 144, 272
-1.00907, 93, 145, 124, 272
-1.00908, 61, 257, 92, 381
-1.00915, 49, 1, 80, 128
-1.00915, 389, 161, 420, 288
-1.00915, 57, 209, 88, 336
-1.00955, 25, 65, 88, 192
-1.00984, 401, 113, 464, 240
-1.0099, 57, 17, 120, 144
-1.0101, 57, 193, 120, 320
-1.01013, 393, 177, 456, 304
-1.01082, 1, 65, 64, 192
-1.01097, 41, 257, 104, 381
-1.01143, 33, 17, 96, 144
-1.01143, 393, 257, 456, 381
-1.01143, 25, 129, 88, 256
-1.01185, 417, 17, 480, 144
-1.01185, 401, 65, 464, 192
-1.01237, 425, 65, 488, 192
-1.0124, 33, 193, 96, 320
-1.01263, 17, 257, 80, 381
-1.0128, 425, 113, 488, 240
-1.01315, 417, 193, 480, 320
-1.01338, 9, 1, 72, 128
-1.01364, 1, 209, 64, 336
-1.01387, 417, 241, 480, 368
-1.01422, 1, 113, 64, 240
-1.01471, 1, 161, 64, 288
