1885
-0.255245, 1, 1, 500, 333
-0.338128, 1, 65, 500, 320
-0.352024, 225, 1, 480, 333
-0.519381, 97, 1, 352, 333
-0.542524, 193, 65, 448, 320
-0.597238, 1, 1, 256, 333
-0.631604, 97, 1, 352, 256
-0.760926, 1, 1, 256, 256
-0.82565, 305, 1, 432, 333
-0.835157, 321, 1, 448, 256
-0.854771, 369, 1, 496, 333
-0.855109, 369, 65, 496, 320
-0.858453, 113, 1, 240, 256
-0.861776, 225, 1, 352, 333
-0.866382, 1, 17, 500, 144
-0.868642, 225, 33, 352, 288
-0.872061, 113, 1, 240, 333
-0.87488, 177, 65, 304, 320
-0.880575, 273, 1, 400, 256
-0.890159, 177, 1, 304, 333
-0.891083, 1, 113, 500, 240
-0.894157, 1, 65, 500, 192
-0.896722, 225, 49, 480, 176
-0.89686, 1, 161, 500, 288
-0.921625, 65, 1, 192, 333
-0.92651, 65, 129, 320, 256
-0.928328, 161, 97, 416, 224
-0.928596, 1, 209, 500, 333
-0.930065, 225, 1, 480, 128
-0.93066, 97, 177, 352, 304
-0.932217, 97, 1, 352, 128
-0.932334, 305, 1, 432, 128
-0.932692, 329, 1, 392, 128
-0.932868, 369, 33, 432, 160
-0.934703, 65, 65, 192, 320
-0.936354, 257, 113, 500, 240
-0.937415, 289, 49, 416, 176
-0.938527, 353, 65, 480, 192
-0.939027, 321, 113, 448, 240
-0.939376, 401, 49, 464, 176
-0.94164, 225, 161, 480, 288
-0.942285, 345, 49, 408, 176
-0.942394, 65, 81, 320, 208
-0.943268, 161, 177, 288, 304
-0.94618, 401, 97, 464, 224
-0.946756, 97, 97, 224, 224
-0.948371, 201, 113, 264, 240
-0.948616, 193, 209, 448, 333
-0.950103, 353, 17, 480, 144
-0.950425, 369, 129, 496, 256
-0.95053, 17, 1, 144, 333
-0.951389, 1, 177, 256, 304
-0.951655, 137, 209, 200, 333
-0.952183, 169, 177, 232, 304
-0.952371, 305, 1, 368, 128
-0.952695, 225, 49, 352, 176
-0.954075, 257, 1, 384, 128
-0.954804, 97, 209, 224, 333
-0.955434, 321, 49, 384, 176
-0.955857, 353, 97, 416, 224
-0.955926, 161, 113, 288, 240
-0.956343, 353, 57, 416, 120
-0.957851, 113, 145, 240, 272
-0.958128, 369, 193, 496, 320
-0.958281, 113, 49, 240, 176
-0.958325, 409, 145, 472, 272
-0.958529, 209, 97, 336, 224
-0.958637, 377, 81, 440, 208
-0.958978, 121, 1, 184, 128
-0.959463, 305, 161, 432, 288
-0.960196, 433, 49, 496, 176
-0.960239, 393, 65, 456, 128
-0.961311, 297, 49, 360, 176
-0.96218, 385, 41, 448, 104
-0.962409, 241, 145, 368, 272
-0.9631, 233, 65, 296, 192
-0.963584, 401, 89, 464, 152
-0.963613, 177, 129, 240, 256
-0.963782, 17, 65, 144, 320
-0.963805, 177, 17, 304, 144
-0.964236, 273, 49, 336, 176
-0.964645, 113, 1, 240, 128
-0.964969, 401, 121, 464, 184
-0.965125, 433, 177, 496, 304
-0.965463, 161, 65, 224, 192
-0.966564, 137, 113, 200, 240
-0.966874, 329, 97, 392, 224
-0.967325, 409, 169, 472, 232
-0.967548, 121, 49, 184, 176
-0.967696, 185, 161, 248, 224
-0.967817, 313, 57, 376, 120
-0.967922, 433, 113, 496, 240
-0.968414, 313, 129, 376, 192
-0.968528, 113, 193, 176, 320
-0.968574, 345, 1, 408, 256
-0.968763, 361, 121, 424, 184
-0.968818, 353, 25, 416, 88
-0.969568, 289, 145, 352, 272
-0.969655, 1, 33, 256, 160
-0.969868, 401, 65, 464, 320
-0.970032, 377, 1, 440, 256
-0.970324, 137, 233, 200, 296
-0.970349, 153, 257, 216, 320
-0.970395, 401, 145, 464, 208
-0.970478, 369, 145, 432, 272
-0.970534, 209, 113, 272, 176
-0.9708, 349, 1, 380, 128
-0.970877, 193, 137, 256, 200
-0.970977, 289, 57, 352, 120
-0.971419, 265, 57, 328, 120
-0.971659, 169, 89, 232, 152
-0.971801, 185, 33, 248, 160
-0.971941, 169, 201, 232, 264
-0.972123, 145, 1, 208, 128
-0.972186, 257, 97, 384, 224
-0.972226, 241, 73, 304, 136
-0.972396, 289, 57, 416, 120
-0.97272, 393, 193, 456, 320
-0.972753, 329, 17, 392, 80
-0.973059, 137, 209, 200, 272
-0.97321, 377, 49, 408, 176
-0.973221, 361, 1, 392, 128
-0.973324, 233, 17, 296, 144
-0.973464, 313, 145, 376, 272
-0.973478, 337, 57, 464, 120
-0.974108, 121, 33, 184, 96
-0.9746, 113, 145, 176, 272
-0.974695, 353, 97, 416, 160
-0.974822, 409, 193, 472, 256
-0.974847, 337, 1, 368, 128
-0.974922, 281, 1, 344, 128
-0.975099, 209, 1, 272, 128
-0.975162, 137, 1, 200, 64
-0.975248, 65, 33, 192, 160
-0.975272, 321, 121, 448, 184
-0.975304, 417, 57, 480, 120
-0.975348, 377, 97, 440, 160
-0.97567, 321, 1, 384, 256
-0.975805, 249, 33, 312, 288
-0.975855, 217, 89, 280, 152
-0.975899, 425, 65, 488, 320
-0.975979, 433, 193, 496, 256
-0.976043, 353, 273, 416, 333
-0.976135, 365, 49, 396, 176
-0.976216, 433, 89, 496, 152
-0.97643, 193, 65, 256, 320
-0.976515, 241, 145, 304, 272
-0.976625, 209, 161, 272, 224
-0.976696, 241, 33, 304, 96
-0.976786, 345, 145, 408, 208
-0.976788, 393, 1, 456, 128
-0.976907, 217, 161, 280, 288
-0.977178, 113, 209, 176, 272
-0.977202, 177, 161, 304, 224
-0.977216, 49, 193, 176, 320
-0.977219, 369, 81, 496, 144
-0.977422, 121, 73, 184, 136
-0.977448, 161, 65, 288, 192
-0.977602, 193, 193, 256, 320
-0.977639, 397, 65, 428, 128
-0.977744, 337, 33, 464, 96
-0.97775, 385, 169, 448, 232
-0.9778, 373, 1, 404, 128
-0.977859, 373, 57, 404, 120
-0.977898, 273, 209, 400, 333
-0.978037, 337, 121, 400, 184
-0.978118, 193, 65, 256, 128
-0.978173, 397, 33, 428, 160
-0.978206, 97, 257, 224, 320
-0.978472, 433, 145, 496, 208
-0.978586, 209, 193, 336, 320
-0.978774, 305, 161, 368, 224
-0.978874, 145, 161, 208, 288
-0.978895, 321, 145, 448, 208
-0.978906, 113, 97, 240, 160
-0.979092, 425, 113, 488, 176
-0.979118, 429, 65, 460, 192
-0.979225, 433, 169, 496, 232
-0.979231, 153, 113, 216, 176
-0.979317, 273, 33, 336, 288
-0.979347, 161, 185, 288, 248
-0.979439, 121, 1, 184, 256
-0.979556, 305, 33, 368, 96
-0.979578, 205, 113, 236, 240
-0.979586, 353, 49, 384, 176
-0.979658, 113, 97, 176, 224
-0.979707, 153, 41, 216, 104
-0.979735, 305, 1, 368, 64
-0.979765, 241, 65, 368, 128
-0.979823, 257, 1, 320, 128
-0.979892, 377, 145, 440, 208
-0.97997, 421, 57, 452, 120
-0.980004, 177, 137, 304, 200
-0.980007, 289, 17, 416, 80
-0.980077, 369, 169, 496, 232
-0.980203, 181, 161, 212, 288
-0.980348, 369, 129, 496, 192
-0.980408, 393, 33, 424, 96
-0.98098, 217, 113, 248, 240
-0.98109, 209, 121, 240, 184
-0.981095, 177, 273, 240, 333
-0.981151, 345, 145, 408, 272
-0.981269, 321, 209, 448, 333
-0.981286, 325, 1, 356, 128
-0.981441, 169, 225, 232, 288
-0.981457, 297, 33, 360, 288
-0.981537, 401, 113, 432, 240
-0.981609, 113, 137, 176, 200
-0.981616, 345, 57, 376, 120
-0.981701, 385, 1, 448, 333
-0.981798, 197, 137, 228, 200
-0.981816, 97, 193, 224, 256
-0.981849, 225, 33, 288, 288
-0.981871, 145, 185, 208, 248
-0.981886, 321, 97, 448, 160
-0.981918, 433, 129, 464, 256
-0.981967, 281, 25, 344, 88
-0.982057, 257, 153, 384, 216
-0.982091, 281, 153, 344, 216
-0.982106, 113, 25, 240, 88
-0.982117, 113, 169, 240, 232
-0.982179, 209, 113, 336, 176
-0.982181, 169, 33, 232, 288
-0.982182, 409, 65, 440, 192
-0.982219, 441, 177, 472, 240
-0.982226, 369, 209, 432, 333
-0.982306, 329, 97, 392, 160
-0.982471, 341, 49, 372, 176
-0.982632, 97, 137, 224, 200
-0.982638, 241, 169, 304, 232
-0.982651, 217, 185, 280, 248
-0.982684, 337, 1, 400, 333
-0.982804, 229, 97, 260, 224
-0.982811, 313, 1, 376, 333
-0.98287, 145, 137, 208, 200
-0.982975, 305, 97, 368, 224
-0.983004, 97, 233, 224, 296
-0.983012, 153, 65, 216, 128
-0.983082, 209, 49, 272, 176
-0.983094, 129, 1, 256, 64
-0.983192, 273, 97, 336, 224
-0.983198, 377, 265, 440, 328
-0.983256, 193, 33, 320, 96
-0.98332, 185, 249, 248, 312
-0.983327, 381, 25, 412, 88
-0.983402, 97, 49, 160, 176
-0.983458, 169, 137, 232, 200
-0.983521, 369, 105, 496, 168
-0.983535, 361, 57, 392, 120
-0.983541, 393, 105, 424, 168
-0.983626, 329, 57, 360, 120
-0.983667, 145, 65, 272, 128
-0.983677, 429, 81, 460, 144
-0.983803, 193, 129, 224, 256
-0.983882, 65, 145, 192, 272
-0.983922, 389, 81, 420, 208
-0.98401, 361, 17, 392, 80
-0.984063, 137, 161, 200, 224
-0.984178, 97, 49, 224, 112
-0.984183, 141, 1, 172, 128
-0.984332, 221, 113, 252, 176
-0.984336, 225, 89, 352, 152
-0.984342, 185, 273, 216, 333
-0.984445, 149, 1, 180, 64
-0.984561, 177, 209, 208, 333
-0.984639, 145, 1, 208, 256
-0.984851, 97, 73, 224, 136
-0.984855, 113, 233, 176, 296
-0.984867, 161, 89, 288, 152
-0.984876, 89, 209, 152, 333
-0.984923, 89, 273, 152, 333
-0.98495, 441, 177, 472, 304
-0.984971, 329, 49, 360, 176
-0.984996, 161, 209, 288, 272
-0.985072, 125, 161, 156, 288
-0.985117, 361, 1, 424, 333
-0.985272, 385, 241, 448, 304
-0.985299, 317, 137, 348, 200
-0.98531, 121, 1, 184, 333
-0.985313, 409, 177, 440, 304
-0.985327, 297, 57, 328, 120
-0.985344, 233, 97, 264, 160
-0.985349, 409, 1, 472, 333
-0.985366, 433, 153, 464, 216
-0.98538, 305, 105, 368, 168
-0.985386, 113, 161, 176, 224
-0.985447, 409, 41, 440, 104
-0.985451, 217, 33, 280, 96
-0.985452, 325, 129, 356, 256
-0.985619, 285, 49, 316, 176
-0.985676, 121, 97, 184, 160
-0.985711, 129, 17, 160, 144
-0.985737, 185, 161, 216, 224
-0.985776, 273, 129, 336, 192
-0.985781, 121, 185, 184, 248
-0.985794, 257, 129, 384, 192
-0.985873, 369, 193, 496, 256
-0.985897, 289, 1, 352, 333
-0.985922, 377, 193, 440, 256
-0.985972, 125, 129, 156, 192
-0.985998, 129, 257, 192, 320
-0.986004, 353, 265, 480, 328
-0.986036, 401, 169, 432, 232
-0.986058, 329, 129, 360, 192
-0.986115, 317, 57, 348, 120
-0.986153, 241, 81, 272, 208
-0.98619, 185, 113, 248, 176
-0.986247, 393, 137, 424, 200
-0.986268, 161, 233, 288, 296
-0.986328, 173, 257, 204, 320
-0.986437, 413, 113, 444, 240
-0.986546, 433, 1, 496, 333
-0.986693, 313, 49, 344, 176
-0.986788, 145, 273, 272, 333
-0.98687, 241, 25, 368, 88
-0.986919, 321, 265, 384, 328
-0.98698, 449, 113, 480, 240
-0.986999, 389, 129, 420, 256
-0.987, 113, 9, 176, 72
-0.98704, 373, 113, 404, 240
-0.987048, 449, 49, 480, 176
-0.987093, 401, 217, 464, 280
-0.987135, 177, 217, 208, 280
-0.987139, 321, 177, 448, 240
-0.987192, 385, 57, 416, 120
-0.987221, 125, 113, 156, 240
-0.987222, 241, 1, 304, 333
-0.987233, 33, 273, 160, 333
-0.98725, 409, 89, 440, 152
-0.987317, 161, 209, 192, 333
-0.987436, 433, 105, 464, 168
-0.987481, 289, 249, 416, 312
-0.987589, 125, 65, 156, 192
-0.987699, 409, 193, 440, 256
-0.987801, 417, 1, 480, 128
-0.987922, 225, 177, 352, 240
-0.987967, 285, 57, 316, 120
-0.988027, 413, 121, 444, 184
-0.988077, 313, 1, 344, 128
-0.988085, 181, 81, 212, 208
-0.988089, 329, 1, 360, 64
-0.988168, 177, 33, 240, 96
-0.988175, 257, 273, 384, 333
-0.988235, 137, 129, 168, 192
-0.988318, 453, 193, 484, 320
-0.988414, 349, 17, 380, 80
-0.988435, 137, 129, 168, 256
-0.988551, 161, 113, 288, 176
-0.988564, 241, 193, 304, 320
-0.988613, 157, 225, 188, 288
-0.988636, 177, 185, 208, 248
-0.988646, 385, 17, 448, 80
-0.988676, 137, 17, 168, 80
-0.988724, 33, 97, 160, 224
-0.988749, 321, 201, 448, 264
-0.988798, 185, 1, 248, 333
-0.988829, 457, 193, 488, 256
-0.988861, 217, 137, 280, 200
-0.988898, 249, 81, 280, 144
-0.989022, 425, 33, 488, 96
-0.989057, 301, 49, 332, 176
-0.989159, 373, 273, 404, 333
-0.989161, 385, 1, 416, 128
-0.989196, 161, 161, 224, 224
-0.989214, 281, 105, 344, 168
-0.989253, 209, 1, 272, 333
-0.989279, 257, 65, 288, 192
-0.989336, 441, 49, 472, 112
-0.989344, 369, 233, 496, 296
-0.989484, 337, 129, 368, 256
-0.989498, 341, 137, 372, 200
-0.989585, 229, 161, 260, 224
-0.989602, 397, 209, 428, 333
-0.989636, 353, 61, 416, 92
-0.989639, 273, 65, 304, 128
-0.989663, 97, 57, 160, 120
-0.989686, 297, 273, 360, 333
-0.989788, 129, 41, 160, 104
-0.989796, 89, 161, 152, 288
-0.989857, 325, 33, 356, 96
-0.989912, 313, 161, 344, 288
-0.989923, 273, 89, 400, 152
-0.989958, 17, 145, 144, 272
-0.989997, 153, 1, 184, 128
-0.990002, 145, 81, 176, 208
-0.990011, 413, 17, 444, 144
-0.990011, 193, 273, 320, 333
-0.990018, 409, 145, 440, 208
-0.990021, 265, 1, 328, 333
-0.990037, 193, 65, 224, 192
-0.990061, 205, 65, 236, 192
-0.990155, 385, 65, 448, 96
-0.990171, 381, 97, 412, 160
-0.990178, 385, 49, 448, 80
-0.990182, 301, 1, 332, 128
-0.990229, 401, 125, 464, 156
-0.990241, 393, 77, 456, 108
-0.990269, 241, 169, 272, 232
-0.990299, 361, 169, 424, 232
-0.990315, 125, 161, 156, 224
-0.990393, 313, 161, 344, 224
-0.990399, 197, 273, 228, 333
-0.990408, 257, 57, 500, 120
-0.990414, 273, 49, 304, 176
-0.990432, 413, 169, 444, 232
-0.990455, 313, 17, 344, 80
-0.990505, 433, 129, 464, 192
-0.990516, 329, 301, 392, 332
-0.990543, 401, 113, 464, 144
-0.990564, 201, 273, 264, 333
-0.99057, 465, 177, 496, 304
-0.990596, 217, 57, 280, 120
-0.990604, 289, 57, 352, 88
-0.990661, 337, 33, 368, 96
-0.990672, 185, 249, 216, 312
-0.99068, 409, 189, 472, 220
-0.990682, 313, 141, 376, 172
-0.990731, 305, 225, 432, 288
-0.990735, 245, 17, 276, 144
-0.990749, 401, 137, 464, 168
-0.990763, 193, 9, 256, 72
-0.990809, 393, 89, 456, 120
-0.990813, 209, 125, 272, 156
-0.990821, 145, 1, 208, 333
-0.990838, 17, 1, 144, 128
-0.990864, 129, 221, 192, 252
-0.990919, 345, 289, 408, 320
-0.990925, 241, 161, 272, 288
-0.990943, 401, 101, 464, 132
-0.990971, 329, 57, 392, 88
-0.990995, 241, 1, 368, 64
-0.99101, 209, 169, 272, 200
-0.991019, 449, 137, 480, 200
-0.991023, 401, 161, 464, 192
-0.991023, 349, 97, 380, 224
-0.991029, 329, 13, 392, 44
-0.991035, 409, 177, 472, 208
-0.99104, 121, 209, 152, 272
-0.991042, 261, 73, 292, 136
-0.99106, 89, 225, 152, 288
-0.991062, 137, 237, 200, 268
-0.991097, 401, 149, 464, 180
-0.991099, 361, 125, 424, 156
-0.991119, 261, 17, 292, 144
-0.991203, 409, 61, 472, 92
-0.991211, 185, 161, 248, 192
-0.991215, 65, 161, 320, 224
-0.991216, 353, 97, 416, 128
-0.991226, 177, 173, 240, 204
-0.991254, 193, 137, 256, 168
-0.991257, 257, 9, 320, 72
-0.991305, 373, 121, 404, 184
-0.991333, 161, 281, 224, 312
-0.991339, 265, 65, 328, 96
-0.991394, 301, 25, 332, 88
-0.991401, 305, 209, 368, 333
-0.991401, 185, 293, 248, 324
-0.991418, 421, 177, 452, 304
-0.991421, 337, 241, 400, 304
-0.991434, 137, 249, 200, 280
-0.991437, 345, 141, 408, 172
-0.991453, 177, 185, 240, 216
-0.991478, 157, 161, 188, 288
-0.991487, 313, 153, 376, 184
-0.991492, 377, 109, 440, 140
-0.991503, 33, 73, 160, 136
-0.99151, 305, 5, 368, 36
-0.991514, 125, 105, 156, 168
-0.991516, 33, 49, 160, 112
-0.991599, 425, 117, 488, 148
-0.991603, 129, 205, 192, 236
-0.991606, 89, 113, 152, 240
-0.991609, 121, 45, 184, 76
-0.991617, 417, 85, 480, 116
-0.991627, 361, 277, 424, 308
-0.991631, 433, 193, 496, 224
-0.991649, 161, 1, 224, 64
-0.991659, 241, 129, 304, 192
-0.991708, 217, 113, 280, 144
-0.991708, 65, 9, 192, 72
-0.991727, 193, 185, 256, 248
-0.991733, 433, 173, 496, 204
-0.991739, 353, 1, 416, 64
-0.99176, 113, 297, 176, 328
-0.991763, 193, 65, 320, 128
-0.991769, 425, 129, 488, 160
-0.991785, 433, 97, 496, 128
-0.991802, 89, 129, 152, 192
-0.99181, 433, 157, 496, 188
-0.99182, 249, 77, 312, 108
-0.991836, 145, 1, 208, 32
-0.991838, 225, 101, 288, 132
-0.991848, 169, 213, 232, 244
-0.991859, 169, 201, 232, 232
-0.991866, 353, 109, 416, 140
-0.99187, 457, 169, 488, 232
-0.991875, 161, 161, 416, 224
-0.991887, 153, 261, 216, 292
-0.991907, 221, 33, 252, 160
-0.99191, 433, 61, 496, 92
-0.991911, 369, 77, 432, 108
-0.991914, 229, 145, 260, 272
-0.991919, 209, 301, 272, 332
-0.991929, 385, 177, 448, 208
-0.991932, 265, 145, 328, 272
-0.991947, 161, 121, 224, 152
-0.991955, 121, 61, 184, 92
-0.991955, 137, 193, 200, 224
-0.991958, 305, 273, 432, 333
-0.99196, 161, 225, 224, 256
-0.991961, 313, 113, 344, 240
-0.991966, 217, 161, 248, 224
-0.991969, 169, 237, 232, 268
-0.991971, 345, 153, 408, 184
-0.991993, 369, 37, 432, 68
-0.992009, 121, 33, 184, 64
-0.992055, 113, 141, 176, 172
-0.992056, 113, 233, 176, 264
-0.992076, 169, 81, 200, 144
-0.99208, 113, 73, 176, 104
-0.99209, 193, 149, 256, 180
-0.992095, 121, 85, 184, 116
-0.992097, 353, 49, 416, 80
-0.992099, 177, 257, 240, 288
-0.992101, 273, 153, 336, 184
-0.992127, 353, 21, 416, 52
-0.992127, 233, 173, 296, 204
-0.992129, 185, 93, 248, 124
-0.99213, 425, 141, 488, 172
-0.99213, 65, 137, 320, 200
-0.992134, 225, 81, 480, 144
-0.992138, 1, 25, 500, 88
-0.992156, 145, 81, 208, 112
-0.99216, 225, 201, 352, 264
-0.992167, 161, 137, 416, 200
-0.992175, 185, 37, 248, 68
-0.992185, 257, 25, 320, 56
-0.992194, 329, 109, 392, 140
-0.992204, 169, 109, 232, 140
-0.992206, 129, 209, 160, 333
-0.992219, 241, 89, 304, 120
-0.992227, 305, 17, 368, 48
-0.992238, 273, 193, 336, 320
-0.992276, 369, 145, 432, 176
-0.992276, 425, 205, 488, 236
-0.992286, 201, 77, 264, 108
-0.992298, 397, 241, 428, 304
-0.992298, 377, 157, 440, 188
-0.992307, 193, 105, 448, 168
-0.992308, 313, 129, 376, 160
-0.992309, 241, 193, 304, 256
-0.992309, 97, 33, 352, 96
-0.992324, 425, 49, 488, 80
-0.992326, 201, 281, 264, 312
-0.992335, 113, 125, 176, 156
-0.992346, 113, 153, 176, 184
-0.992373, 417, 73, 480, 104
-0.992376, 297, 165, 360, 196
-0.992393, 361, 97, 392, 224
-0.99241, 137, 177, 200, 208
-0.992416, 145, 13, 208, 44
-0.992416, 393, 201, 456, 232
-0.992426, 217, 1, 280, 64
-0.992428, 193, 209, 224, 333
-0.992431, 241, 161, 304, 192
-0.992436, 153, 69, 216, 100
-0.992448, 337, 121, 400, 152
-0.992478, 1, 73, 500, 136
-0.992489, 161, 49, 224, 80
-0.992508, 305, 301, 368, 332
-0.992517, 89, 297, 152, 328
-0.99253, 105, 213, 168, 244
-0.992531, 81, 249, 144, 312
-0.992537, 345, 85, 408, 116
-0.992543, 377, 265, 440, 296
-0.992559, 105, 201, 168, 232
-0.992569, 193, 269, 256, 300
-0.992577, 209, 25, 272, 56
-0.99258, 113, 97, 176, 128
-0.992595, 329, 45, 392, 76
-0.992604, 117, 273, 148, 333
-0.992611, 233, 29, 296, 60
-0.992612, 281, 21, 344, 52
-0.992624, 161, 293, 224, 324
-0.99263, 113, 245, 176, 276
-0.992637, 169, 133, 232, 164
-0.992655, 297, 233, 360, 296
-0.99266, 141, 193, 172, 320
-0.992666, 209, 181, 272, 212
-0.992666, 393, 245, 456, 276
-0.992676, 121, 109, 184, 140
-0.992699, 289, 141, 352, 172
-0.992705, 233, 185, 296, 216
-0.992712, 313, 289, 376, 320
-0.99272, 97, 185, 160, 248
-0.992726, 153, 157, 216, 188
-0.992745, 185, 121, 248, 152
-0.992757, 33, 169, 160, 232
-0.99276, 265, 41, 296, 104
-0.992767, 169, 81, 232, 112
-0.992774, 285, 33, 316, 96
-0.992792, 425, 17, 456, 144
-0.992811, 397, 69, 428, 100
-0.992816, 97, 89, 160, 152
-0.992835, 273, 1, 304, 128
-0.992848, 385, 193, 416, 320
-0.992848, 345, 301, 376, 332
-0.992859, 97, 33, 160, 96
-0.992865, 337, 9, 368, 40
-0.992873, 65, 185, 320, 248
-0.99288, 325, 161, 356, 224
-0.992883, 213, 125, 244, 156
-0.992899, 377, 61, 408, 92
-0.992913, 393, 133, 424, 164
-0.992922, 421, 69, 452, 100
-0.992944, 125, 65, 156, 128
-0.992947, 397, 209, 428, 272
-0.992948, 321, 57, 352, 88
-0.992963, 293, 61, 324, 92
-0.992968, 161, 265, 416, 328
-0.992995, 193, 281, 224, 312
-0.993, 305, 57, 336, 88
-0.993008, 365, 57, 396, 88
-0.993014, 221, 113, 252, 144
-0.993016, 205, 285, 236, 316
-0.993024, 413, 57, 444, 88
-0.993027, 205, 137, 236, 168
-0.993028, 377, 277, 408, 308
-0.993031, 281, 65, 312, 96
-0.99304, 461, 129, 492, 256
-0.993049, 65, 57, 320, 120
-0.99305, 337, 209, 400, 333
-0.99305, 425, 81, 456, 112
-0.993052, 389, 57, 420, 88
-0.993056, 357, 285, 388, 316
-0.99306, 357, 105, 388, 168
-0.993063, 345, 57, 376, 88
-0.993069, 389, 113, 420, 144
-0.993076, 265, 73, 296, 104
-0.993077, 433, 165, 464, 196
-0.993087, 337, 133, 368, 164
-0.99309, 33, 97, 160, 160
-0.993092, 433, 113, 464, 144
-0.993096, 253, 81, 284, 112
-0.9931, 173, 233, 204, 264
-0.993105, 441, 185, 472, 216
-0.993106, 181, 277, 212, 308
-0.993106, 325, 1, 356, 32
-0.99311, 125, 137, 156, 168
-0.993113, 401, 177, 432, 208
-0.993133, 237, 173, 268, 204
-0.993145, 161, 249, 192, 312
-0.993149, 349, 141, 380, 172
-0.993155, 413, 129, 444, 160
-0.993158, 321, 145, 352, 176
-0.993158, 349, 13, 380, 44
-0.993164, 229, 101, 260, 132
-0.993167, 225, 25, 480, 88
-0.99317, 241, 89, 272, 120
-0.993173, 333, 57, 364, 88
-0.993175, 193, 165, 224, 196
-0.993179, 433, 125, 464, 156
-0.993181, 153, 1, 184, 32
-0.993186, 213, 297, 244, 328
-0.993188, 393, 145, 424, 176
-0.993195, 429, 93, 460, 124
-0.993201, 125, 125, 156, 156
-0.993202, 289, 201, 352, 264
-0.993203, 189, 265, 220, 296
-0.993205, 189, 41, 220, 104
-0.993206, 157, 241, 188, 272
-0.993209, 97, 1, 160, 256
-0.99322, 345, 289, 376, 320
-0.993222, 333, 301, 364, 332
-0.993228, 173, 265, 204, 296
-0.99323, 201, 149, 232, 180
-0.993235, 337, 145, 368, 176
-0.993237, 133, 293, 164, 324
-0.993238, 417, 189, 448, 220
-0.993247, 165, 253, 196, 284
-0.993248, 157, 221, 188, 252
-0.993248, 177, 245, 208, 276
-0.993249, 173, 221, 204, 252
-0.993249, 381, 97, 412, 128
-0.99325, 125, 153, 156, 184
-0.993261, 357, 297, 388, 328
-0.993271, 185, 185, 216, 216
-0.993292, 433, 153, 464, 184
-0.993295, 189, 293, 220, 324
-0.993301, 137, 25, 168, 56
-0.993301, 233, 33, 264, 160
-0.993302, 401, 189, 432, 220
-0.993308, 405, 45, 436, 76
-0.993309, 433, 137, 464, 168
-0.993311, 437, 57, 468, 88
-0.993311, 409, 201, 440, 232
-0.993314, 421, 177, 452, 208
-0.993318, 177, 209, 208, 240
-0.993319, 237, 161, 268, 192
-0.99332, 181, 197, 212, 228
-0.99332, 317, 133, 348, 164
-0.993321, 249, 173, 280, 204
-0.993322, 361, 17, 392, 48
-0.993324, 409, 117, 440, 148
-0.993327, 397, 81, 428, 112
-0.993329, 229, 301, 260, 332
-0.993331, 121, 297, 152, 328
-0.993336, 137, 129, 168, 160
-0.993336, 405, 93, 436, 124
-0.993341, 225, 173, 256, 204
-0.993348, 177, 1, 304, 64
-0.993355, 149, 13, 180, 44
-0.993357, 201, 297, 232, 328
-0.993358, 337, 157, 368, 188
-0.99336, 349, 153, 380, 184
-0.99336, 309, 161, 340, 192
-0.993365, 409, 161, 440, 192
-0.993373, 381, 265, 412, 296
-0.993381, 369, 289, 400, 320
-0.993381, 325, 17, 356, 48
-0.993383, 265, 25, 296, 56
-0.993384, 145, 89, 208, 152
-0.993384, 137, 149, 168, 180
-0.993385, 129, 37, 160, 68
-0.993392, 353, 137, 384, 200
-0.9934, 177, 81, 208, 112
-0.9934, 33, 241, 160, 304
-0.993405, 409, 105, 440, 136
-0.993406, 377, 49, 408, 80
-0.993412, 165, 97, 196, 128
-0.993414, 121, 213, 152, 244
-0.993416, 145, 117, 176, 148
-0.993431, 453, 193, 484, 224
-0.993435, 137, 13, 168, 44
-0.993436, 253, 29, 284, 60
-0.993444, 449, 153, 480, 184
-0.993447, 129, 49, 160, 80
-0.993455, 413, 149, 444, 180
-0.993455, 321, 301, 352, 332
-0.993461, 125, 165, 156, 196
-0.993462, 193, 33, 224, 64
-0.993462, 393, 165, 424, 196
-0.993465, 441, 197, 472, 228
-0.993469, 321, 165, 352, 196
-0.993472, 125, 281, 156, 312
-0.993473, 393, 33, 424, 64
-0.993473, 125, 65, 156, 96
-0.993473, 441, 69, 472, 100
-0.993473, 369, 121, 400, 152
-0.993475, 449, 133, 480, 164
-0.993475, 241, 185, 272, 216
-0.993478, 449, 101, 480, 132
-0.993479, 397, 205, 428, 236
-0.993482, 453, 173, 484, 204
-0.99349, 125, 241, 156, 272
-0.99349, 157, 209, 188, 240
-0.993525, 65, 113, 320, 176
-0.993557, 129, 273, 160, 333
-0.993688, 285, 193, 316, 320
-0.993765, 469, 49, 500, 176
-0.993771, 157, 185, 188, 248
-0.993784, 289, 57, 416, 88
-0.993803, 169, 97, 200, 224
-0.993823, 125, 233, 156, 296
-0.993854, 181, 73, 212, 136
-0.993883, 145, 89, 176, 152
-0.993899, 137, 153, 168, 216
-0.9939, 193, 89, 256, 152
-0.993901, 257, 153, 500, 216
-0.993912, 361, 273, 392, 333
-0.993942, 33, 273, 288, 333
-0.993948, 65, 81, 320, 144
-0.993964, 469, 201, 500, 264
-0.993968, 209, 241, 336, 304
-0.993995, 97, 1, 160, 333
-0.994003, 333, 105, 364, 168
-0.994021, 153, 57, 184, 120
-0.994089, 197, 17, 228, 144
-0.994103, 17, 49, 144, 176
-0.994109, 337, 61, 464, 92
-0.994152, 305, 137, 336, 200
-0.994154, 49, 217, 176, 280
-0.994179, 265, 217, 328, 280
-0.994188, 337, 9, 464, 72
-0.994208, 249, 33, 280, 96
-0.994224, 285, 1, 316, 128
-0.994275, 49, 193, 176, 256
-0.99429, 1, 49, 500, 112
-0.994301, 197, 161, 228, 224
-0.994302, 1, 113, 500, 176
-0.99432, 413, 225, 444, 288
-0.994352, 349, 145, 380, 272
-0.994392, 361, 241, 424, 304
-0.994395, 33, 145, 160, 208
-0.994438, 389, 161, 420, 224
-0.994451, 273, 257, 336, 320
-0.994471, 149, 113, 180, 176
-0.994473, 161, 57, 416, 120
-0.994492, 337, 161, 368, 224
-0.994562, 449, 97, 480, 160
-0.994596, 421, 193, 452, 256
-0.994609, 353, 77, 480, 108
-0.994632, 1, 1, 500, 64
-0.994648, 305, 81, 368, 144
-0.994672, 385, 265, 416, 328
-0.994703, 349, 81, 380, 144
-0.99487, 161, 169, 288, 200
-0.994898, 33, 121, 160, 184
-0.994904, 449, 73, 480, 136
-0.994952, 133, 193, 164, 256
-0.994973, 221, 193, 252, 256
-0.995018, 209, 273, 240, 333
-0.995066, 301, 145, 332, 272
-0.995072, 241, 97, 304, 160
-0.995091, 201, 33, 232, 96
-0.995136, 109, 209, 140, 333
-0.995162, 353, 89, 480, 120
-0.995165, 1, 273, 500, 333
-0.995168, 321, 149, 448, 180
-0.995193, 1, 161, 500, 224
-0.995199, 165, 33, 196, 160
-0.995217, 253, 177, 284, 240
-0.995277, 273, 177, 400, 240
-0.995279, 321, 121, 448, 152
-0.995309, 129, 1, 384, 64
-0.995319, 165, 57, 196, 120
-0.995394, 41, 273, 104, 333
-0.995397, 265, 193, 328, 256
-0.995397, 425, 217, 488, 280
-0.995438, 225, 185, 480, 248
-0.995456, 209, 17, 240, 144
-0.995474, 193, 89, 224, 152
-0.995476, 65, 209, 320, 272
-0.995526, 1, 249, 256, 312
-0.995534, 121, 185, 152, 248
-0.995582, 113, 285, 240, 316
-0.995599, 353, 105, 480, 136
-0.995609, 179, 201, 194, 264
-0.995611, 257, 129, 500, 192
-0.995616, 389, 57, 404, 120
-0.995625, 177, 49, 208, 112
-0.99564, 217, 121, 232, 184
-0.995641, 217, 161, 248, 288
-0.995679, 177, 157, 304, 188
-0.995717, 355, 57, 370, 120
-0.99572, 97, 169, 224, 200
-0.995743, 161, 189, 288, 220
-0.995758, 369, 49, 496, 80
-0.995788, 229, 193, 260, 320
-0.995806, 289, 21, 416, 52
-0.995843, 399, 57, 414, 120
-0.995859, 113, 117, 240, 148
-0.995861, 369, 185, 496, 216
-0.995872, 193, 241, 448, 304
-0.995883, 81, 153, 144, 216
-0.995883, 321, 133, 448, 164
-0.995922, 369, 125, 496, 156
-0.995923, 365, 57, 380, 120
-0.995926, 97, 257, 224, 288
-0.995954, 257, 225, 384, 288
-0.995961, 169, 105, 200, 168
-0.995975, 361, 217, 424, 280
-0.995981, 257, 69, 384, 100
-0.996009, 1, 185, 500, 248
-0.996041, 193, 129, 320, 160
-0.996046, 227, 113, 242, 176
-0.99605, 369, 153, 496, 184
-0.996053, 185, 1, 216, 128
-0.996059, 139, 121, 154, 184
-0.996061, 1, 137, 500, 200
-0.996089, 209, 129, 224, 192
-0.996094, 81, 1, 144, 128
-0.996111, 343, 57, 358, 120
-0.99612, 369, 165, 496, 196
-0.996132, 273, 201, 400, 264
-0.996151, 375, 57, 390, 120
-0.996151, 137, 249, 168, 312
-0.996169, 349, 57, 364, 120
-0.996174, 385, 65, 416, 320
-0.996176, 217, 209, 280, 333
-0.996181, 113, 33, 240, 64
-0.996184, 369, 141, 496, 172
-0.996188, 273, 193, 304, 320
-0.99619, 397, 105, 412, 168
-0.996197, 305, 301, 432, 332
-0.996231, 393, 25, 408, 88
-0.996233, 97, 181, 224, 212
-0.996237, 193, 65, 224, 128
-0.996241, 447, 169, 462, 232
-0.996251, 433, 201, 464, 264
-0.996263, 113, 81, 144, 208
-0.996268, 177, 225, 192, 288
-0.996271, 257, 161, 384, 192
-0.996282, 265, 145, 296, 272
-0.996284, 203, 137, 218, 200
-0.996286, 97, 149, 224, 180
-0.996288, 113, 297, 240, 328
-0.996314, 445, 201, 476, 264
-0.996322, 369, 1, 400, 256
-0.996326, 149, 33, 180, 96
-0.996331, 383, 57, 398, 120
-0.996332, 401, 1, 432, 256
-0.99635, 407, 33, 422, 96
-0.996357, 375, 17, 390, 80
-0.996364, 97, 241, 352, 304
-0.996369, 437, 17, 468, 144
-0.996376, 389, 185, 420, 248
-0.996408, 65, 273, 128, 333
-0.996409, 117, 41, 148, 104
-0.996419, 321, 161, 448, 192
-0.996425, 327, 137, 342, 200
-0.996452, 357, 1, 388, 256
-0.996457, 305, 109, 432, 140
-0.996458, 129, 17, 256, 48
-0.996461, 305, 73, 432, 104
-0.996464, 113, 137, 240, 168
-0.996467, 185, 185, 200, 248
-0.996468, 187, 241, 202, 304
-0.996475, 1, 209, 128, 333
-0.996485, 155, 1, 170, 64
-0.996502, 383, 25, 398, 88
-0.99651, 97, 229, 224, 260
-0.996512, 225, 1, 480, 64
-0.996513, 193, 161, 208, 224
-0.996521, 319, 57, 334, 120
-0.996522, 179, 257, 194, 320
-0.996522, 233, 137, 264, 200
-0.996525, 177, 141, 304, 172
-0.996529, 377, 145, 408, 208
-0.996531, 369, 17, 384, 80
-0.996531, 335, 57, 350, 120
-0.99657, 97, 81, 224, 112
-0.99657, 97, 201, 224, 232
-0.996576, 113, 269, 240, 300
-0.996578, 405, 145, 420, 208
-0.996581, 241, 149, 368, 180
-0.996599, 407, 169, 422, 232
-0.996608, 161, 205, 288, 236
-0.99661, 299, 57, 314, 120
-0.996622, 309, 57, 324, 120
-0.996623, 321, 45, 448, 76
-0.99663, 195, 257, 210, 320
-0.996641, 237, 193, 268, 256
-0.996647, 349, 273, 380, 333
-0.996656, 97, 245, 224, 276
-0.996665, 241, 97, 256, 160
-0.996674, 201, 273, 216, 333
-0.996677, 305, 93, 432, 124
-0.996681, 405, 65, 420, 128
-0.996692, 325, 57, 340, 120
-0.996713, 161, 1, 192, 64
-0.996723, 265, 17, 296, 80
-0.996724, 233, 105, 248, 168
-0.996728, 413, 41, 428, 104
-0.996729, 17, 17, 144, 80
-0.996732, 97, 217, 224, 248
-0.996733, 1, 249, 500, 312
-0.996747, 165, 161, 196, 224
-0.996771, 369, 97, 400, 160
-0.996788, 189, 273, 204, 333
-0.996795, 241, 81, 368, 112
-0.996812, 317, 113, 348, 176
-0.996816, 453, 177, 468, 240
-0.996822, 145, 101, 272, 132
-0.996825, 351, 137, 366, 200
-0.996837, 253, 161, 284, 288
-0.996856, 257, 273, 500, 333
-0.996861, 343, 129, 358, 192
-0.99688, 363, 17, 378, 80
-0.996883, 193, 301, 320, 332
-0.996896, 209, 113, 336, 144
-0.996897, 405, 121, 420, 184
-0.996903, 413, 169, 428, 232
-0.996928, 399, 33, 414, 96
-0.996933, 281, 1, 344, 64
-0.99694, 193, 209, 256, 272
-0.996953, 369, 197, 496, 228
-0.996958, 429, 57, 444, 120
-0.996958, 113, 45, 240, 76
-0.996964, 251, 169, 266, 232
-0.996974, 257, 137, 384, 168
-0.99698, 161, 1, 176, 64
-0.996986, 241, 1, 368, 32
-0.996993, 285, 65, 300, 128
-0.996999, 97, 97, 224, 128
-0.997034, 129, 5, 256, 36
-0.997048, 225, 209, 480, 272
-0.997049, 145, 77, 272, 108
-0.99705, 433, 65, 464, 320
-0.997054, 411, 193, 426, 256
-0.997066, 319, 137, 334, 200
-0.997069, 293, 57, 308, 120
-0.997081, 351, 33, 366, 96
-0.997083, 423, 49, 438, 112
-0.997101, 337, 289, 464, 320
-0.997104, 1, 265, 64, 328
-0.997116, 445, 145, 460, 208
-0.997117, 341, 1, 356, 64
-0.997125, 241, 57, 368, 88
-0.997154, 161, 65, 288, 96
-0.997155, 245, 161, 260, 224
-0.997172, 129, 1, 160, 256
-0.997178, 113, 61, 240, 92
-0.997188, 345, 1, 376, 256
-0.997193, 1, 33, 256, 96
-0.997193, 321, 33, 336, 96
-0.997199, 229, 65, 260, 320
-0.997205, 161, 89, 288, 120
-0.997236, 329, 1, 360, 256
-0.997238, 251, 89, 266, 152
-0.997258, 89, 9, 152, 72
-0.99726, 279, 65, 294, 128
-0.997261, 193, 29, 320, 60
-0.997271, 435, 65, 450, 128
-0.997274, 379, 273, 394, 333
-0.997276, 337, 129, 352, 192
-0.99728, 417, 193, 432, 256
-0.997282, 289, 145, 320, 272
-0.997286, 145, 229, 272, 260
-0.997292, 225, 93, 352, 124
-0.997293, 329, 169, 392, 232
-0.997293, 357, 17, 372, 80
-0.997311, 161, 241, 288, 272
-0.997311, 147, 9, 162, 72
-0.997317, 415, 73, 430, 136
-0.997344, 225, 273, 288, 333
-0.997365, 459, 193, 474, 256
-0.997366, 241, 301, 368, 332
-0.997388, 361, 209, 392, 333
-0.9974, 345, 33, 360, 96
-0.997401, 305, 249, 432, 280
-0.997405, 169, 225, 184, 288
-0.997413, 225, 173, 352, 204
-0.997417, 321, 177, 448, 208
-0.997418, 389, 129, 404, 192
-0.99742, 441, 81, 456, 144
-0.99742, 129, 273, 144, 333
-0.997432, 421, 81, 436, 144
-0.997436, 323, 161, 338, 224
-0.997438, 261, 33, 292, 288
-0.997447, 413, 33, 444, 288
-0.997449, 311, 33, 326, 96
-0.99745, 265, 81, 328, 144
-0.997457, 309, 33, 340, 288
-0.997462, 131, 33, 146, 96
-0.997472, 33, 1, 288, 64
-0.997484, 161, 265, 288, 296
-0.997506, 467, 201, 482, 264
-0.997511, 373, 273, 388, 333
-0.997522, 1, 209, 500, 272
-0.997524, 289, 9, 416, 40
-0.997547, 321, 197, 448, 228
-0.997554, 137, 161, 152, 224
-0.997557, 137, 25, 152, 88
-0.997564, 339, 33, 354, 96
-0.997566, 161, 253, 288, 284
-0.997582, 369, 265, 496, 296
-0.997585, 193, 53, 320, 84
-0.997588, 327, 33, 342, 96
-0.997599, 335, 1, 350, 64
-0.997612, 241, 25, 368, 56
-0.997616, 415, 145, 430, 208
-0.99762, 229, 161, 244, 224
-0.997621, 225, 185, 352, 216
-0.997658, 207, 273, 222, 333
-0.997667, 173, 249, 188, 312
-0.997669, 423, 177, 438, 240
-0.997671, 213, 129, 228, 160
-0.997673, 473, 201, 488, 264
-0.997676, 257, 81, 272, 144
-0.997679, 73, 81, 136, 144
-0.99768, 353, 277, 480, 308
-0.997686, 193, 277, 320, 308
-0.997699, 273, 65, 288, 128
-0.997715, 173, 89, 188, 152
-0.99772, 453, 33, 484, 288
-0.997721, 333, 161, 348, 224
-0.997729, 451, 145, 466, 208
-0.99773, 345, 153, 360, 216
-0.99773, 405, 209, 420, 272
-0.997733, 317, 161, 332, 224
-0.997763, 289, 265, 416, 296
-0.997776, 145, 217, 272, 248
-0.997797, 285, 33, 316, 288
-0.997805, 333, 25, 348, 88
-0.997813, 73, 65, 136, 192
-0.997816, 219, 121, 234, 152
-0.997827, 195, 41, 210, 104
-0.997827, 339, 153, 354, 216
-0.997837, 265, 73, 280, 136
-0.997842, 33, 289, 160, 320
-0.997852, 287, 41, 302, 104
-0.997853, 393, 81, 408, 144
-0.997859, 189, 1, 220, 256
-0.99786, 161, 117, 288, 148
-0.997867, 273, 281, 400, 312
-0.997874, 349, 9, 364, 72
-0.997877, 177, 225, 192, 256
-0.997881, 297, 33, 328, 288
-0.997887, 177, 289, 304, 320
-0.997891, 337, 209, 464, 240
-0.997892, 207, 281, 222, 312
-0.997894, 425, 105, 440, 168
-0.997895, 305, 33, 320, 96
-0.997909, 387, 273, 402, 333
-0.99791, 191, 73, 206, 136
-0.997918, 441, 169, 456, 232
-0.997929, 225, 117, 240, 148
-0.99793, 431, 169, 446, 232
-0.997945, 357, 129, 372, 192
-0.997966, 235, 161, 250, 224
-0.997979, 73, 201, 136, 264
-0.997985, 147, 129, 162, 192
-0.997986, 369, 249, 496, 280
-0.997995, 199, 65, 214, 128
-0.997995, 205, 193, 236, 320
-0.998, 461, 169, 476, 232
-0.998019, 145, 193, 160, 256
-0.99804, 443, 49, 458, 112
-0.998042, 299, 25, 314, 88
-0.998044, 243, 185, 258, 248
-0.998051, 275, 33, 290, 96
-0.998052, 193, 17, 320, 48
-0.998055, 193, 77, 320, 108
-0.998056, 273, 33, 304, 288
-0.998071, 231, 109, 246, 140
-0.998072, 65, 301, 192, 332
-0.99808, 199, 161, 214, 224
-0.998083, 237, 185, 252, 248
-0.998085, 207, 137, 222, 168
-0.998091, 347, 105, 362, 168
-0.998091, 135, 273, 150, 333
-0.998115, 217, 65, 248, 320
-0.998123, 383, 121, 398, 184
-0.998138, 181, 261, 196, 292
-0.998139, 447, 173, 462, 204
-0.998141, 369, 233, 496, 264
-0.998157, 385, 57, 400, 88
-0.998159, 197, 285, 212, 316
-0.99817, 241, 125, 368, 156
-0.998171, 33, 277, 160, 308
-0.998173, 323, 57, 338, 88
-0.998182, 325, 177, 356, 304
-0.998208, 201, 273, 216, 304
-0.998213, 249, 33, 280, 288
-0.998216, 253, 173, 268, 204
-0.998217, 187, 269, 202, 300
-0.998242, 345, 9, 360, 40
-0.99825, 351, 57, 366, 88
-0.998268, 321, 33, 448, 64
-0.998268, 353, 297, 368, 328
-0.998272, 363, 57, 378, 88
-0.998274, 141, 1, 172, 256
-0.99828, 213, 289, 228, 320
-0.998283, 317, 57, 332, 88
-0.998288, 397, 61, 412, 92
-0.99829, 33, 77, 160, 108
-0.998292, 347, 301, 362, 332
-0.998299, 375, 57, 390, 88
-0.998301, 409, 143, 440, 158
-0.998301, 237, 307, 268, 322
-0.998302, 137, 29, 168, 44
-0.998303, 197, 157, 228, 172
-0.998303, 349, 139, 380, 154
-0.998303, 329, 5, 360, 20
-0.998304, 137, 149, 168, 164
-0.998305, 433, 159, 464, 174
-0.998306, 421, 187, 452, 202
-0.998306, 417, 201, 448, 216
-0.998307, 137, 157, 168, 172
-0.998307, 433, 151, 464, 166
-0.998308, 381, 57, 412, 72
-0.998308, 185, 291, 216, 306
-0.998308, 233, 105, 264, 120
-0.998311, 369, 55, 400, 70
-0.998311, 325, 303, 356, 318
-0.998311, 393, 151, 424, 166
-0.998312, 421, 193, 452, 208
-0.998313, 337, 149, 368, 164
-0.998313, 229, 111, 260, 126
-0.998314, 413, 137, 444, 152
-0.998314, 209, 197, 336, 228
-0.998314, 433, 145, 464, 160
-0.998316, 1, 209, 128, 272
-0.998317, 133, 295, 164, 310
-0.998317, 381, 105, 412, 120
-0.998317, 237, 167, 268, 182
-0.998318, 169, 271, 200, 286
-0.998318, 377, 275, 408, 290
-0.998318, 401, 201, 432, 216
-0.998319, 401, 181, 432, 196
-0.998319, 181, 199, 212, 214
-0.998319, 413, 63, 444, 78
-0.99832, 429, 103, 460, 118
-0.998321, 325, 59, 356, 74
-0.998321, 437, 191, 468, 206
-0.998321, 329, 19, 360, 34
-0.998321, 173, 277, 204, 292
-0.998322, 233, 313, 264, 328
-0.998322, 245, 95, 276, 110
-0.998323, 401, 187, 432, 202
-0.998323, 253, 89, 284, 104
-0.998324, 197, 35, 228, 50
-0.998325, 289, 315, 320, 330
-0.998325, 365, 285, 396, 300
-0.998325, 189, 177, 220, 192
-0.998325, 157, 233, 188, 248
-0.998326, 185, 183, 216, 198
-0.998327, 433, 113, 464, 128
-0.998327, 325, 143, 356, 158
-0.998328, 305, 61, 320, 92
-0.998329, 125, 127, 156, 142
-0.998329, 433, 137, 464, 152
-0.998329, 361, 21, 392, 36
-0.998329, 265, 29, 296, 44
-0.99833, 125, 161, 156, 176
-0.998331, 193, 171, 224, 186
-0.998332, 165, 261, 196, 276
-0.998334, 429, 169, 460, 184
-0.998334, 429, 95, 460, 110
-0.998335, 385, 111, 416, 126
-0.998335, 401, 193, 432, 208
-0.998335, 221, 307, 252, 322
-0.998337, 181, 285, 212, 300
-0.998337, 49, 21, 176, 52
-0.998339, 433, 175, 464, 190
-0.998339, 409, 175, 440, 190
-0.998339, 357, 291, 388, 306
-0.99834, 345, 61, 376, 76
-0.998341, 389, 121, 420, 136
-0.998342, 157, 223, 188, 238
-0.998342, 205, 143, 236, 158
-0.998343, 125, 133, 156, 148
-0.998344, 333, 137, 364, 152
-0.998344, 405, 131, 436, 146
-0.998344, 349, 145, 380, 160
-0.998345, 161, 255, 192, 270
-0.998345, 433, 119, 464, 134
-0.998347, 125, 155, 156, 170
-0.998349, 345, 295, 376, 310
-0.998349, 257, 83, 288, 98
-0.99835, 337, 11, 368, 26
-0.99835, 357, 59, 388, 74
-0.99835, 413, 125, 444, 140
-0.99835, 141, 125, 156, 156
-0.998351, 189, 273, 220, 288
-0.998352, 157, 239, 188, 254
-0.998352, 157, 249, 188, 264
-0.998352, 239, 101, 254, 132
-0.998353, 173, 227, 204, 242
-0.998353, 421, 81, 452, 96
-0.998354, 225, 117, 256, 132
-0.998355, 125, 139, 156, 154
-0.998356, 273, 71, 304, 86
-0.998356, 337, 309, 368, 324
-0.998357, 391, 61, 406, 92
-0.998359, 349, 17, 380, 32
-0.998361, 265, 77, 296, 92
-0.998363, 433, 131, 464, 146
-0.998363, 339, 5, 354, 36
-0.998364, 181, 259, 212, 274
-0.998364, 177, 247, 208, 262
-0.998364, 185, 265, 216, 280
-0.998365, 209, 299, 240, 314
-0.998365, 437, 185, 468, 200
-0.998365, 425, 89, 456, 104
-0.998366, 125, 149, 156, 164
-0.998367, 173, 233, 204, 248
-0.998368, 217, 125, 248, 140
-0.998368, 209, 137, 240, 152
-0.998368, 173, 241, 204, 256
-0.998369, 417, 69, 448, 84
-0.99837, 397, 75, 428, 90
-0.99837, 393, 145, 424, 160
-0.998371, 421, 75, 452, 90
-0.998374, 337, 143, 368, 158
-0.998376, 177, 253, 208, 268
-0.998376, 393, 127, 424, 142
-0.998378, 433, 125, 464, 140
-0.998379, 377, 281, 408, 296
-0.998379, 317, 309, 348, 324
-0.998383, 311, 61, 326, 92
-0.998385, 193, 279, 224, 294
-0.998385, 357, 299, 388, 314
-0.998387, 193, 41, 320, 72
-0.998388, 381, 273, 396, 304
-0.998392, 407, 129, 422, 160
-0.998393, 313, 59, 344, 74
-0.998396, 309, 315, 340, 330
-0.998396, 321, 237, 448, 268
-0.998397, 295, 61, 310, 92
-0.998399, 353, 137, 368, 168
-0.998401, 407, 193, 422, 224
-0.998401, 351, 13, 366, 44
-0.998404, 389, 63, 420, 78
-0.998407, 345, 57, 360, 88
-0.998408, 177, 33, 208, 288
-0.998409, 285, 67, 316, 82
-0.99841, 175, 249, 190, 280
-0.998411, 369, 61, 400, 76
-0.998413, 393, 133, 424, 148
-0.998416, 241, 173, 272, 188
-0.998416, 337, 57, 352, 88
-0.998416, 393, 69, 424, 84
-0.998418, 213, 131, 244, 146
-0.998418, 201, 293, 232, 308
-0.998424, 297, 63, 328, 78
-0.998427, 393, 139, 424, 154
-0.998431, 329, 57, 344, 88
-0.998449, 197, 285, 228, 300
-0.99845, 369, 57, 384, 88
-0.998451, 141, 25, 156, 56
-0.998453, 359, 289, 374, 320
-0.998456, 251, 89, 266, 120
-0.998457, 191, 253, 206, 284
-0.998461, 33, 45, 160, 76
-0.998462, 373, 281, 388, 312
-0.998467, 219, 293, 234, 324
-0.998469, 201, 65, 232, 320
-0.998477, 357, 57, 372, 88
-0.998477, 345, 303, 376, 318
-0.998477, 139, 137, 154, 168
-0.998478, 289, 65, 304, 96
-0.998489, 195, 265, 210, 296
-0.998492, 337, 221, 464, 252
-0.998494, 203, 293, 218, 324
-0.998496, 191, 281, 206, 312
-0.998501, 183, 241, 198, 272
-0.998502, 245, 93, 260, 124
-0.998506, 33, 101, 160, 132
-0.998509, 33, 65, 160, 96
-0.99851, 191, 169, 206, 200
-0.998511, 253, 113, 284, 240
-0.998512, 187, 181, 202, 212
-0.998516, 413, 173, 428, 204
-0.998516, 405, 65, 420, 96
-0.998524, 353, 61, 416, 76
-0.998528, 81, 1, 208, 32
-0.998529, 177, 213, 192, 244
-0.99853, 181, 201, 196, 232
-0.998533, 385, 67, 448, 82
-0.998538, 401, 125, 464, 140
-0.998539, 385, 57, 448, 72
-0.998543, 359, 301, 374, 332
-0.998547, 149, 13, 164, 44
-0.998548, 259, 81, 274, 112
-0.998549, 401, 133, 464, 148
-0.998552, 281, 69, 296, 100
-0.998554, 297, 61, 360, 76
-0.998555, 257, 109, 384, 140
-0.998561, 247, 169, 262, 200
-0.998563, 385, 73, 448, 88
-0.998563, 201, 145, 216, 176
-0.998567, 393, 83, 456, 98
-0.998569, 401, 133, 416, 164
-0.998569, 337, 301, 400, 316
-0.998571, 401, 119, 464, 134
-0.998573, 401, 143, 464, 158
-0.998573, 185, 169, 248, 184
-0.998574, 411, 69, 426, 100
-0.998577, 209, 127, 272, 142
-0.998578, 129, 233, 192, 248
-0.998582, 341, 145, 356, 176
-0.998585, 329, 1, 344, 32
-0.998585, 401, 113, 464, 128
-0.998586, 209, 173, 272, 188
-0.998587, 137, 253, 200, 268
-0.998589, 401, 171, 464, 186
-0.998594, 393, 103, 456, 118
-0.998594, 401, 149, 464, 164
-0.998601, 305, 153, 368, 168
-0.998601, 129, 227, 192, 242
-0.998602, 129, 239, 192, 254
-0.998602, 353, 105, 416, 120
-0.998604, 409, 77, 472, 92
-0.998605, 393, 89, 456, 104
-0.998605, 297, 315, 360, 330
-0.998605, 201, 137, 264, 152
-0.998606, 401, 157, 464, 172
-0.998606, 409, 191, 472, 206
-0.998607, 413, 129, 428, 160
-0.998607, 321, 19, 384, 34
-0.998614, 321, 307, 384, 322
-0.998614, 393, 97, 456, 112
-0.998617, 305, 143, 368, 158
-0.998617, 409, 197, 472, 212
-0.99862, 401, 177, 464, 192
-0.998621, 405, 117, 420, 148
-0.998621, 129, 245, 192, 260
-0.998622, 241, 13, 368, 44
-0.998623, 401, 163, 464, 178
-0.998624, 197, 157, 212, 188
-0.998624, 113, 145, 144, 272
-0.998625, 409, 71, 472, 86
-0.998626, 129, 221, 192, 236
-0.998628, 425, 127, 488, 142
-0.998628, 137, 203, 200, 218
-0.998629, 329, 61, 392, 76
-0.998632, 425, 133, 488, 148
-0.998632, 209, 121, 272, 136
-0.998633, 353, 111, 416, 126
-0.998634, 361, 67, 424, 82
-0.998635, 409, 183, 472, 198
-0.998636, 129, 211, 192, 226
-0.998636, 177, 191, 240, 206
-0.998636, 313, 159, 376, 174
-0.998636, 425, 61, 488, 76
-0.998638, 209, 179, 272, 194
-0.998638, 17, 301, 144, 332
-0.99864, 425, 119, 488, 134
-0.99864, 433, 97, 496, 112
-0.99864, 405, 177, 420, 208
-0.998641, 257, 29, 320, 44
-0.998642, 185, 175, 248, 190
-0.998643, 137, 259, 200, 274
-0.998643, 121, 49, 184, 64
-0.998643, 417, 87, 480, 102
-0.998643, 273, 69, 336, 84
-0.998644, 361, 135, 424, 150
-0.998644, 377, 117, 440, 132
-0.998645, 377, 123, 440, 138
-0.998645, 233, 173, 296, 188
-0.998645, 169, 285, 232, 300
-0.998646, 273, 313, 336, 328
-0.998646, 209, 309, 272, 324
-0.998647, 355, 1, 370, 128
-0.998647, 177, 259, 240, 274
-0.998648, 273, 73, 288, 104
-0.998648, 345, 149, 408, 164
-0.998648, 313, 137, 376, 152
-0.998649, 177, 185, 240, 200
-0.99865, 209, 315, 272, 330
-0.99865, 161, 1, 176, 32
-0.99865, 153, 277, 216, 292
-0.998651, 185, 163, 248, 178
-0.998651, 361, 281, 424, 296
-0.998652, 341, 133, 356, 164
-0.998652, 361, 129, 424, 144
-0.998652, 361, 141, 424, 156
-0.998652, 425, 139, 488, 154
-0.998653, 161, 237, 224, 252
-0.998653, 433, 103, 496, 118
-0.998653, 321, 13, 384, 28
-0.998653, 425, 113, 488, 128
-0.998654, 169, 245, 232, 260
-0.998655, 161, 227, 224, 242
-0.998655, 177, 293, 240, 308
-0.998657, 233, 317, 296, 332
-0.998658, 433, 169, 496, 184
-0.998658, 155, 9, 170, 40
-0.998658, 407, 141, 422, 172
-0.998658, 273, 63, 336, 78
-0.998658, 193, 285, 256, 300
-0.998659, 409, 203, 472, 218
-0.998659, 169, 253, 232, 268
-0.998659, 377, 51, 440, 66
-0.998659, 377, 111, 440, 126
-0.99866, 353, 99, 416, 114
-0.998661, 193, 157, 256, 172
-0.998661, 185, 273, 248, 288
-0.998662, 361, 293, 424, 308
-0.998663, 225, 105, 288, 120
-0.998664, 137, 197, 200, 212
-0.998664, 113, 81, 176, 96
-0.998665, 193, 143, 256, 158
-0.998666, 313, 165, 376, 180
-0.998666, 121, 61, 184, 76
-0.998667, 361, 287, 424, 302
-0.998667, 297, 309, 360, 324
-0.998668, 113, 75, 176, 90
-0.998668, 337, 55, 400, 70
-0.998668, 145, 265, 208, 280
-0.998669, 297, 21, 360, 36
-0.998669, 121, 55, 184, 70
-0.998669, 113, 141, 176, 156
-0.998669, 113, 203, 176, 218
-0.998669, 425, 145, 488, 160
-0.99867, 433, 163, 496, 178
-0.998671, 265, 77, 280, 108
-0.998671, 257, 79, 320, 94
-0.998671, 49, 197, 176, 228
-0.998671, 177, 265, 240, 280
-0.998672, 433, 183, 496, 198
-0.998672, 169, 215, 232, 230
-0.998672, 169, 201, 232, 216
-0.998672, 169, 241, 184, 272
-0.998672, 433, 155, 496, 170
-0.998673, 169, 123, 232, 138
-0.998673, 425, 177, 488, 192
-0.998674, 433, 191, 496, 206
-0.998674, 201, 303, 264, 318
-0.998674, 121, 43, 184, 58
-0.998674, 225, 111, 288, 126
-0.998675, 113, 67, 176, 82
-0.998676, 249, 85, 312, 100
-0.998676, 145, 9, 208, 24
-0.998677, 361, 1, 376, 128
-0.998677, 65, 33, 192, 64
-0.998684, 465, 65, 496, 320
-0.998684, 257, 245, 384, 276
-0.998693, 413, 185, 428, 216
-0.998696, 367, 289, 382, 320
-0.998703, 231, 301, 246, 332
-0.998705, 241, 173, 256, 204
-0.998705, 341, 301, 356, 332
-0.998708, 367, 1, 382, 128
-0.998721, 357, 13, 372, 44
-0.998725, 181, 193, 196, 320
-0.998732, 33, 89, 160, 120
-0.998739, 387, 269, 402, 300
-0.99874, 411, 205, 426, 236
-0.998744, 449, 185, 464, 216
-0.998747, 225, 289, 352, 320
-0.998748, 373, 209, 404, 333
-0.998756, 137, 293, 152, 324
-0.998757, 419, 189, 434, 220
-0.998758, 337, 5, 464, 36
-0.99876, 349, 1, 364, 128
-0.998764, 387, 49, 402, 176
-0.998765, 399, 109, 414, 140
-0.998767, 33, 113, 160, 144
-0.998772, 49, 265, 176, 296
-0.998777, 437, 77, 452, 108
-0.998778, 225, 297, 240, 328
-0.998778, 373, 1, 388, 128
-0.99878, 347, 133, 362, 164
-0.998786, 247, 181, 262, 212
-0.998788, 443, 161, 458, 192
-0.998788, 431, 61, 446, 92
-0.998788, 425, 185, 440, 216
-0.998792, 391, 49, 406, 80
-0.998794, 437, 189, 452, 220
-0.998795, 315, 201, 330, 232
-0.998796, 133, 45, 148, 76
-0.998796, 319, 153, 334, 184
-0.998806, 351, 149, 366, 180
-0.998808, 383, 45, 398, 76
-0.998808, 457, 189, 472, 220
-0.99881, 139, 149, 154, 180
-0.998815, 363, 17, 378, 48
-0.998819, 273, 173, 400, 204
-0.998823, 381, 49, 396, 176
-0.998827, 417, 81, 432, 112
-0.998828, 131, 293, 146, 324
-0.998831, 273, 45, 400, 76
-0.998831, 237, 301, 252, 332
-0.998837, 337, 17, 352, 48
-0.998848, 403, 165, 418, 196
-0.998853, 331, 133, 346, 164
-0.998867, 399, 77, 414, 108
-0.998868, 33, 185, 160, 216
-0.998881, 241, 161, 256, 192
-0.998882, 369, 49, 384, 176
-0.998886, 311, 49, 326, 80
-0.998888, 253, 161, 268, 192
-0.998891, 375, 49, 390, 176
-0.998892, 145, 197, 160, 228
-0.998895, 377, 45, 392, 76
-0.998895, 395, 97, 410, 128
-0.998896, 359, 137, 374, 168
-0.998897, 429, 173, 444, 204
-0.998902, 329, 165, 344, 196
-0.998904, 269, 25, 284, 56
-0.998905, 331, 17, 346, 48
-0.998909, 135, 281, 150, 312
-0.998929, 337, 17, 464, 48
-0.998936, 157, 65, 188, 320
-0.998937, 343, 1, 358, 128
-0.998939, 225, 257, 352, 288
-0.99894, 219, 113, 234, 240
-0.998966, 393, 49, 408, 176
-0.998987, 337, 1, 352, 128
-0.999, 361, 49, 376, 176
-0.999008, 403, 113, 418, 240
-0.999014, 33, 253, 160, 284
-0.999025, 225, 213, 352, 244
-0.999039, 379, 1, 394, 128
-0.99906, 33, 153, 160, 184
-0.999064, 117, 1, 148, 256
-0.999066, 33, 129, 160, 160
-0.999067, 401, 17, 416, 144
-0.999069, 33, 173, 160, 204
-0.999082, 213, 113, 228, 240
-0.999083, 351, 49, 366, 176
-0.999101, 387, 1, 402, 128
-0.999101, 33, 141, 160, 172
-0.999104, 175, 209, 190, 333
-0.999105, 229, 97, 244, 224
-0.999107, 17, 213, 144, 244
-0.999107, 49, 241, 176, 272
-0.999116, 209, 233, 336, 264
-0.999123, 187, 177, 202, 304
-0.999139, 207, 129, 222, 256
-0.999146, 331, 1, 346, 128
-0.999159, 343, 49, 358, 176
-0.999175, 413, 65, 428, 192
-0.999181, 201, 129, 216, 256
-0.999188, 407, 17, 422, 144
-0.99919, 443, 81, 458, 208
-0.999192, 301, 97, 332, 224
-0.999211, 149, 1, 164, 128
-0.999241, 141, 113, 156, 240
-0.999241, 331, 129, 346, 256
-0.999242, 407, 161, 422, 288
-0.999247, 397, 97, 412, 224
-0.999248, 437, 65, 452, 192
-0.99925, 405, 65, 420, 192
-0.999254, 237, 97, 252, 224
-0.999257, 421, 33, 436, 160
-0.999264, 453, 177, 468, 304
-0.999267, 155, 1, 170, 128
-0.999274, 337, 49, 352, 176
-0.999292, 325, 129, 340, 256
-0.999303, 327, 49, 342, 176
-0.999311, 195, 145, 210, 272
-0.999313, 245, 81, 260, 208
-0.999315, 395, 1, 410, 128
-0.999316, 451, 113, 466, 240
-0.999323, 413, 145, 428, 272
-0.999328, 431, 49, 446, 176
-0.999329, 343, 129, 358, 256
-0.99933, 445, 129, 460, 256
-0.999333, 423, 81, 438, 208
-0.999341, 289, 49, 304, 176
-0.999345, 299, 49, 314, 176
-0.999348, 129, 33, 144, 160
-0.999355, 147, 193, 162, 320
-0.999357, 137, 161, 152, 288
-0.99936, 321, 49, 336, 176
-0.999362, 401, 193, 416, 320
-0.999363, 325, 1, 340, 128
-0.999373, 135, 113, 150, 240
-0.999377, 459, 177, 474, 304
-0.999382, 391, 129, 406, 256
-0.999391, 315, 49, 330, 176
-0.999394, 143, 1, 158, 128
-0.999403, 305, 49, 320, 176
-0.999407, 337, 129, 352, 256
-0.999411, 319, 1, 334, 128
-0.999421, 397, 145, 412, 272
-0.999431, 117, 17, 148, 144
-0.999433, 135, 17, 150, 144
-0.999443, 385, 113, 400, 240
-0.999443, 207, 65, 222, 192
-0.999448, 465, 193, 480, 320
-0.999448, 283, 49, 298, 176
-0.999448, 201, 81, 216, 208
-0.999458, 429, 113, 444, 240
-0.999464, 313, 1, 328, 128
-0.999472, 419, 177, 434, 304
-0.999475, 413, 17, 428, 144
-0.999479, 471, 177, 486, 304
-0.999482, 195, 97, 210, 224
-0.999487, 231, 145, 246, 272
-0.99949, 265, 65, 280, 192
-0.999493, 303, 1, 318, 128
-0.999494, 393, 277, 408, 292
-0.999494, 335, 145, 350, 160
-0.999495, 245, 165, 260, 180
-0.999495, 189, 183, 204, 198
-0.999495, 371, 285, 386, 300
-0.999495, 325, 141, 340, 156
-0.999495, 359, 17, 374, 32
-0.999496, 215, 297, 230, 312
-0.999496, 413, 181, 428, 196
-0.999496, 193, 173, 208, 188
-0.999496, 397, 107, 412, 122
-0.999497, 139, 159, 154, 174
-0.999498, 243, 307, 258, 322
-0.999499, 385, 55, 400, 70
-0.9995, 319, 157, 334, 172
-0.999501, 265, 31, 280, 46
-0.999502, 343, 135, 358, 150
-0.999502, 293, 315, 308, 330
-0.999502, 253, 185, 268, 200
-0.999502, 361, 289, 376, 304
-0.999503, 259, 177, 274, 192
-0.999503, 387, 279, 402, 294
-0.999503, 239, 315, 254, 330
-0.999504, 405, 189, 420, 204
-0.999504, 167, 1, 182, 16
-0.999505, 263, 17, 278, 144
-0.999505, 179, 243, 194, 258
-0.999505, 209, 295, 224, 310
-0.999505, 259, 83, 274, 98
-0.999505, 351, 97, 366, 224
-0.999505, 337, 19, 352, 34
-0.999505, 411, 191, 426, 206
-0.999506, 161, 5, 176, 20
-0.999506, 221, 297, 236, 312
-0.999507, 387, 273, 402, 288
-0.999507, 341, 141, 356, 156
-0.999507, 409, 71, 424, 86
-0.999509, 407, 209, 422, 333
-0.999511, 257, 81, 272, 208
-0.999511, 241, 145, 256, 272
-0.999511, 169, 245, 184, 260
-0.999512, 407, 199, 422, 214
-0.999513, 333, 59, 348, 74
-0.999515, 305, 313, 320, 328
-0.999515, 185, 255, 200, 270
-0.999516, 139, 151, 154, 166
-0.999516, 251, 81, 266, 208
-0.999517, 405, 125, 420, 140
-0.999517, 217, 65, 232, 192
-0.999517, 253, 179, 268, 194
-0.999518, 413, 137, 428, 152
-0.999518, 287, 211, 302, 226
-0.999518, 367, 293, 382, 308
-0.999518, 399, 137, 414, 152
-0.999518, 139, 145, 154, 160
-0.999519, 177, 219, 192, 234
-0.999519, 275, 17, 290, 144
-0.999519, 243, 177, 258, 192
-0.99952, 445, 175, 460, 190
-0.99952, 201, 291, 216, 306
-0.99952, 257, 17, 272, 144
-0.999521, 319, 113, 334, 240
-0.999521, 351, 137, 366, 152
-0.999522, 405, 141, 420, 156
-0.999522, 313, 203, 328, 218
-0.999523, 339, 61, 354, 76
-0.999523, 299, 315, 314, 330
-0.999523, 345, 11, 360, 26
-0.999523, 353, 61, 368, 76
-0.999525, 191, 267, 206, 282
-0.999525, 353, 15, 368, 30
-0.999525, 129, 81, 144, 208
-0.999527, 447, 177, 462, 304
-0.999527, 325, 59, 340, 74
-0.999527, 139, 139, 154, 154
-0.999527, 361, 61, 376, 76
-0.999527, 177, 237, 192, 252
-0.999527, 311, 313, 326, 328
-0.999527, 141, 27, 156, 42
-0.999528, 271, 77, 286, 92
-0.999528, 321, 313, 336, 328
-0.999528, 327, 311, 342, 326
-0.999529, 367, 59, 382, 74
-0.99953, 197, 273, 212, 288
-0.99953, 339, 303, 354, 318
-0.99953, 403, 67, 418, 82
-0.999531, 295, 1, 310, 128
-0.999531, 247, 161, 262, 288
-0.999531, 195, 289, 210, 304
-0.999532, 237, 307, 252, 322
-0.999532, 277, 75, 292, 90
-0.999534, 215, 291, 230, 306
-0.999535, 125, 161, 140, 288
-0.999536, 365, 299, 380, 314
-0.999536, 341, 311, 356, 326
-0.999537, 225, 145, 240, 272
-0.999537, 451, 49, 466, 176
-0.999537, 391, 59, 406, 74
-0.999537, 373, 59, 388, 74
-0.999539, 171, 251, 186, 266
-0.999539, 237, 33, 252, 160
-0.99954, 265, 81, 280, 96
-0.999541, 207, 143, 222, 158
-0.999541, 147, 23, 162, 38
-0.999542, 375, 97, 390, 224
-0.999542, 447, 181, 462, 196
-0.999544, 347, 61, 362, 76
-0.999544, 229, 113, 244, 128
-0.999544, 353, 143, 368, 158
-0.999545, 297, 65, 312, 80
-0.999545, 275, 65, 290, 192
-0.999545, 189, 261, 204, 276
-0.999546, 289, 193, 304, 320
-0.999547, 343, 147, 358, 162
-0.999548, 303, 63, 318, 78
-0.999548, 377, 283, 392, 298
-0.999548, 319, 59, 334, 74
-0.999549, 235, 107, 250, 122
-0.999549, 283, 71, 298, 86
-0.999551, 255, 89, 270, 104
-0.999552, 379, 59, 394, 74
-0.999552, 397, 63, 412, 78
-0.999553, 243, 99, 258, 114
-0.999553, 209, 289, 224, 304
-0.999555, 141, 129, 156, 144
-0.999556, 249, 93, 264, 108
-0.999558, 177, 231, 192, 246
-0.999559, 445, 33, 460, 160
-0.999559, 191, 283, 206, 298
-0.999559, 243, 171, 258, 186
-0.99956, 345, 305, 360, 320
-0.99956, 319, 161, 334, 288
-0.999561, 427, 161, 442, 288
-0.999563, 291, 67, 306, 82
-0.999564, 309, 61, 324, 76
-0.999565, 481, 49, 496, 176
-0.999565, 351, 305, 366, 320
-0.999567, 435, 129, 450, 256
-0.999568, 175, 257, 190, 272
-0.999568, 225, 119, 240, 134
-0.999569, 199, 279, 214, 294
-0.99957, 183, 269, 198, 284
-0.99957, 253, 161, 268, 288
-0.999572, 359, 295, 374, 310
-0.999572, 465, 145, 480, 272
-0.999574, 177, 225, 192, 240
-0.999575, 185, 113, 200, 240
-0.999576, 385, 61, 400, 76
-0.999576, 147, 145, 162, 272
-0.999576, 187, 277, 202, 292
-0.999577, 161, 1, 176, 128
-0.999577, 269, 17, 284, 144
-0.999582, 359, 301, 374, 316
-0.999586, 73, 1, 136, 333
-0.999589, 203, 285, 218, 300
-0.999591, 381, 277, 396, 292
-0.999593, 351, 299, 366, 314
-0.999594, 253, 173, 268, 188
-0.999594, 407, 131, 422, 146
-0.999594, 179, 263, 194, 278
-0.999595, 413, 193, 428, 320
-0.999597, 477, 193, 492, 320
-0.999598, 211, 137, 226, 152
-0.999599, 223, 65, 238, 192
-0.999599, 219, 125, 234, 140
-0.999603, 285, 1, 300, 128
-0.999604, 139, 65, 154, 192
-0.99961, 349, 161, 364, 288
-0.999618, 251, 33, 266, 160
-0.999621, 119, 209, 134, 333
-0.999622, 457, 129, 472, 256
-0.999627, 193, 209, 208, 333
-0.999627, 147, 81, 162, 208
-0.999629, 215, 131, 230, 146
-0.999635, 369, 97, 384, 224
-0.999836, 361, 145, 392, 272
-0.999868, 297, 193, 328, 320
-1.00006, 341, 209, 372, 333
-1.00037, 9, 1, 72, 333
-1.0005, 277, 113, 308, 240
-1.0006, 105, 65, 136, 320
-1.0009, 449, 1, 480, 128
-1.00102, 9, 1, 40, 256
-1.00107, 21, 1, 52, 256
-1.00124, 105, 17, 136, 144
-1.00131, 157, 113, 188, 240
-1.00145, 33, 33, 64, 288
-1.00152, 289, 97, 320, 224
-1.00162, 469, 1, 500, 128
-1.00164, 45, 1, 76, 256
-1.00175, 101, 161, 132, 288
-1.00178, 57, 1, 88, 256
-1.0018, 93, 1, 124, 256
-1.0018, 217, 209, 248, 333
-1.00187, 81, 1, 112, 256
-1.00188, 69, 1, 100, 256
-1.00202, 101, 113, 132, 240
-1.00216, 17, 209, 80, 333
-1.00266, 33, 1, 96, 333
-1.00295, 169, 145, 200, 272
-1.00316, 73, 1, 136, 256
-1.00339, 49, 209, 112, 333
-1.00405, 89, 209, 120, 333
-1.00412, 309, 209, 340, 333
-1.00423, 101, 65, 132, 192
-1.00431, 241, 209, 272, 333
-1.00444, 9, 177, 40, 304
-1.00445, 29, 209, 60, 333
-1.00482, 57, 209, 88, 333
-1.00505, 45, 209, 76, 333
-1.00519, 73, 209, 104, 333
-1.00576, 253, 209, 284, 333
-1.00598, 1, 129, 32, 256
-1.00632, 373, 161, 404, 288
-1.00642, 17, 65, 80, 320
-1.00679, 13, 129, 44, 256
-1.00689, 25, 33, 56, 160
-1.00706, 45, 1, 76, 128
-1.0076, 17, 129, 80, 256
-1.00823, 65, 161, 128, 288
-1.00874, 1, 33, 64, 160
-1.00879, 41, 1, 104, 256
-1.00935, 25, 1, 88, 128
-1.01098, 25, 49, 88, 176
-1.0112, 49, 17, 112, 144
-1.01122, 65, 113, 128, 240
-1.01244, 49, 65, 112, 192
-1.01247, 1, 81, 64, 208
-1.0139, 41, 129, 104, 256
