1919
-0.317246, 1, 1, 480, 360
-0.408545, 1, 1, 480, 256
-0.468605, 1, 97, 480, 352
-0.527142, 193, 1, 448, 360
-0.545147, 1, 1, 256, 360
-0.672262, 33, 1, 288, 256
-0.672566, 225, 97, 480, 352
-0.684544, 33, 97, 288, 352
-0.698869, 97, 1, 352, 360
-0.743376, 129, 97, 384, 352
-0.751414, 225, 1, 480, 256
-0.852553, 129, 1, 384, 256
-0.860075, 17, 1, 144, 360
-0.861448, 1, 33, 128, 288
-0.868595, 241, 1, 368, 360
-0.889392, 257, 33, 384, 288
-0.892732, 337, 97, 464, 352
-0.893519, 65, 1, 192, 360
-0.893812, 65, 65, 192, 320
-0.895828, 193, 97, 320, 352
-0.895988, 193, 1, 320, 360
-0.897399, 1, 81, 480, 208
-0.897527, 1, 145, 480, 272
-0.909707, 289, 1, 416, 360
-0.914187, 353, 1, 480, 360
-0.914249, 193, 1, 320, 256
-0.914602, 321, 1, 448, 256
-0.917834, 1, 209, 480, 336
-0.919578, 1, 33, 480, 160
-0.925303, 129, 97, 256, 352
-0.928877, 129, 1, 256, 360
-0.93074, 1, 49, 64, 176
-0.935526, 33, 17, 288, 144
-0.937718, 161, 81, 416, 208
-0.938457, 129, 1, 256, 256
-0.939124, 33, 129, 288, 256
-0.94244, 33, 81, 288, 208
-0.943542, 1, 129, 128, 256
-0.94669, 1, 177, 128, 304
-0.946803, 1, 81, 128, 208
-0.947544, 65, 129, 192, 256
-0.94796, 129, 145, 384, 272
-0.948329, 1, 1, 64, 128
-0.949127, 73, 145, 136, 272
-0.950881, 17, 129, 80, 256
-0.951303, 41, 209, 104, 336
-0.952617, 9, 193, 72, 320
-0.953253, 225, 193, 480, 320
-0.955147, 241, 65, 368, 192
-0.955169, 1, 49, 64, 112
-0.955175, 1, 33, 128, 160
-0.955927, 281, 97, 344, 224
-0.956652, 41, 97, 104, 224
-0.957109, 41, 161, 104, 288
-0.957301, 1, 25, 64, 88
-0.957366, 33, 225, 160, 352
-0.957522, 41, 49, 104, 176
-0.957629, 305, 129, 432, 256
-0.957667, 25, 1, 88, 128
-0.95818, 281, 49, 344, 176
-0.958251, 129, 225, 384, 352
-0.958551, 81, 225, 144, 352
-0.958731, 193, 49, 320, 176
-0.958852, 225, 33, 480, 160
-0.959155, 225, 145, 480, 272
-0.959339, 33, 177, 288, 304
-0.960333, 289, 193, 416, 320
-0.960697, 353, 209, 480, 336
-0.961079, 193, 145, 320, 272
-0.961763, 1, 73, 64, 136
-0.962379, 1, 225, 256, 352
-0.962964, 297, 193, 360, 320
-0.963701, 25, 193, 88, 256
-0.96377, 49, 177, 176, 304
-0.964371, 321, 129, 384, 256
-0.964779, 65, 97, 128, 224
-0.965179, 57, 225, 120, 288
-0.965951, 9, 33, 72, 288
-0.966391, 233, 145, 296, 272
-0.966505, 65, 81, 192, 208
-0.967389, 353, 161, 480, 288
-0.967551, 129, 129, 256, 256
-0.967714, 249, 49, 312, 176
-0.96788, 113, 81, 240, 208
-0.968125, 273, 49, 336, 112
-0.968239, 417, 209, 480, 336
-0.968573, 129, 33, 384, 160
-0.968593, 361, 129, 424, 256
-0.968732, 25, 265, 88, 328
-0.968891, 241, 193, 368, 320
-0.968985, 385, 209, 448, 336
-0.969486, 25, 41, 88, 104
-0.969583, 353, 113, 480, 240
-0.969628, 297, 297, 360, 360
-0.969663, 25, 289, 88, 352
-0.969846, 305, 65, 368, 192
-0.97021, 329, 297, 392, 360
-0.970313, 257, 97, 320, 224
-0.970448, 209, 129, 272, 256
-0.970607, 57, 177, 120, 240
-0.970624, 193, 97, 320, 224
-0.970952, 97, 145, 160, 272
-0.97101, 89, 137, 152, 200
-0.971075, 289, 65, 416, 192
-0.971148, 273, 145, 336, 272
-0.971225, 1, 1, 64, 64
-0.971277, 273, 97, 336, 160
-0.971363, 193, 1, 320, 128
-0.971887, 89, 97, 152, 224
-0.972009, 49, 129, 112, 192
-0.972206, 41, 105, 104, 168
-0.972296, 73, 49, 136, 176
-0.972322, 257, 113, 384, 240
-0.972587, 33, 217, 96, 280
-0.972769, 25, 17, 88, 80
-0.973214, 9, 153, 72, 216
-0.97323, 257, 281, 320, 344
-0.973534, 17, 41, 48, 104
-0.973535, 97, 177, 224, 304
-0.973561, 81, 225, 208, 352
-0.973777, 273, 209, 336, 336
-0.974011, 33, 33, 64, 160
-0.974238, 65, 153, 128, 216
-0.974298, 337, 1, 464, 128
-0.974404, 353, 193, 416, 320
-0.974537, 1, 273, 64, 336
-0.974759, 57, 201, 120, 264
-0.974879, 33, 33, 96, 288
-0.974986, 361, 273, 424, 336
-0.975084, 1, 105, 64, 168
-0.975099, 321, 177, 384, 304
-0.975233, 33, 65, 96, 128
-0.975332, 49, 81, 80, 208
-0.975375, 385, 161, 448, 288
-0.975582, 53, 217, 84, 280
-0.975802, 385, 97, 448, 224
-0.976049, 105, 209, 168, 336
-0.976061, 329, 225, 392, 352
-0.976115, 89, 169, 152, 232
-0.976126, 273, 73, 336, 136
-0.976333, 337, 273, 400, 336
-0.976366, 65, 65, 128, 320
-0.976625, 401, 265, 464, 328
-0.976733, 233, 153, 296, 216
-0.976787, 273, 161, 336, 224
-0.976874, 1, 33, 32, 160
-0.97694, 49, 265, 112, 328
-0.977036, 81, 217, 144, 280
-0.977068, 225, 1, 288, 128
-0.977068, 409, 161, 472, 288
-0.977072, 289, 273, 352, 336
-0.977096, 65, 209, 96, 336
-0.977577, 1, 153, 128, 216
-0.977664, 209, 145, 272, 208
-0.977671, 45, 225, 76, 352
-0.977738, 345, 137, 408, 200
-0.977969, 249, 225, 312, 352
-0.977969, 25, 241, 88, 304
-0.978026, 17, 1, 48, 128
-0.978189, 1, 201, 64, 264
-0.9783, 417, 1, 480, 128
-0.978375, 121, 145, 184, 208
-0.978575, 313, 161, 376, 224
-0.978677, 9, 1, 72, 360
-0.978702, 273, 33, 336, 288
-0.978798, 29, 49, 60, 112
-0.978861, 1, 233, 128, 296
-0.978862, 177, 225, 304, 352
-0.978873, 257, 57, 384, 120
-0.97903, 225, 65, 288, 192
-0.97921, 297, 57, 360, 120
-0.979239, 5, 41, 36, 104
-0.979351, 49, 97, 80, 160
-0.979527, 121, 161, 184, 288
-0.979553, 297, 193, 360, 256
-0.979577, 33, 185, 160, 248
-0.97974, 321, 297, 448, 360
-0.979854, 297, 145, 360, 272
-0.980075, 1, 297, 64, 360
-0.980094, 65, 137, 192, 200
-0.980159, 65, 161, 96, 288
-0.980162, 241, 297, 368, 360
-0.980171, 417, 81, 480, 208
-0.980373, 273, 33, 304, 160
-0.980528, 201, 81, 264, 208
-0.980612, 257, 17, 384, 144
-0.980663, 249, 97, 312, 352
-0.980704, 49, 161, 176, 224
-0.980849, 1, 289, 128, 352
-0.980915, 49, 1, 112, 128
-0.981012, 305, 81, 368, 144
-0.981047, 17, 57, 144, 120
-0.981095, 193, 65, 320, 128
-0.98113, 1, 129, 128, 192
-0.981154, 25, 177, 56, 304
-0.981259, 169, 145, 232, 208
-0.981277, 321, 137, 384, 200
-0.9815, 249, 257, 312, 320
-0.981584, 417, 73, 480, 136
-0.981594, 97, 49, 160, 176
-0.981606, 121, 169, 184, 232
-0.981629, 81, 161, 112, 288
-0.981741, 89, 289, 152, 352
-0.98175, 73, 105, 136, 168
-0.98175, 1, 73, 32, 136
-0.981771, 53, 193, 84, 256
-0.981827, 37, 73, 68, 136
-0.981872, 65, 33, 192, 160
-0.981881, 81, 241, 144, 304
-0.981917, 273, 185, 336, 248
-0.98193, 385, 129, 448, 192
-0.98218, 289, 265, 416, 328
-0.982276, 377, 97, 440, 352
-0.982313, 1, 177, 64, 240
-0.982331, 9, 129, 72, 192
-0.982391, 57, 289, 120, 352
-0.982415, 45, 129, 76, 256
-0.982457, 169, 97, 232, 224
-0.982537, 305, 97, 368, 352
-0.982553, 1, 233, 64, 296
-0.982616, 297, 49, 328, 176
-0.982624, 29, 17, 60, 80
-0.982961, 281, 1, 344, 128
-0.982984, 57, 65, 120, 128
-0.983078, 1, 257, 128, 320
-0.983113, 81, 193, 144, 256
-0.983113, 41, 1, 104, 360
-0.983127, 145, 161, 208, 224
-0.98313, 417, 289, 480, 352
-0.983191, 249, 65, 312, 128
-0.983238, 33, 153, 96, 216
-0.983238, 273, 217, 336, 280
-0.983251, 337, 65, 464, 192
-0.983252, 273, 137, 336, 200
-0.98327, 193, 89, 320, 152
-0.983281, 297, 249, 360, 312
-0.98336, 81, 113, 112, 240
-0.983537, 385, 217, 448, 280
-0.983597, 49, 233, 176, 296
-0.983601, 41, 49, 72, 112
-0.983655, 105, 241, 168, 304
-0.983765, 353, 265, 480, 328
-0.983971, 429, 1, 460, 128
-0.98399, 33, 193, 64, 256
-0.984065, 65, 217, 96, 280
-0.98408, 185, 145, 248, 272
-0.984174, 417, 217, 480, 280
-0.984197, 45, 17, 76, 144
-0.984219, 17, 209, 144, 272
-0.984237, 121, 113, 184, 240
-0.984276, 345, 297, 376, 360
-0.984311, 305, 137, 432, 200
-0.984312, 37, 177, 68, 304
-0.984321, 81, 225, 112, 352
-0.984332, 285, 273, 316, 336
-0.984361, 21, 281, 52, 344
-0.98444, 409, 33, 472, 288
-0.984447, 305, 105, 368, 168
-0.984559, 217, 225, 280, 352
-0.98458, 385, 193, 448, 256
-0.984616, 49, 289, 176, 352
-0.984651, 1, 9, 128, 72
-0.984709, 273, 81, 304, 208
-0.984767, 145, 177, 272, 304
-0.984784, 289, 97, 320, 160
-0.984811, 309, 193, 340, 256
-0.984851, 233, 289, 296, 352
-0.984894, 13, 193, 44, 320
-0.984899, 17, 33, 144, 96
-0.984904, 53, 177, 84, 304
-0.984914, 281, 1, 344, 360
-0.985013, 1, 161, 32, 288
-0.985017, 89, 33, 152, 288
-0.985019, 65, 1, 128, 360
-0.985056, 385, 1, 448, 128
-0.985068, 209, 169, 272, 232
-0.985136, 409, 153, 472, 216
-0.985146, 273, 49, 304, 112
-0.985194, 225, 65, 288, 320
-0.985292, 269, 73, 300, 136
-0.985294, 85, 217, 116, 280
-0.985326, 309, 49, 340, 176
-0.985331, 81, 209, 208, 272
-0.985354, 201, 97, 264, 352
-0.985436, 417, 105, 480, 168
-0.985437, 445, 225, 476, 352
-0.985474, 33, 289, 64, 352
-0.985479, 33, 225, 64, 352
-0.985542, 193, 145, 320, 208
-0.985566, 345, 97, 408, 352
-0.985569, 313, 273, 376, 336
-0.985657, 285, 33, 316, 160
-0.985676, 145, 137, 208, 200
-0.985694, 433, 257, 464, 320
-0.985762, 41, 225, 72, 288
-0.985768, 101, 145, 132, 272
-0.985772, 325, 297, 356, 360
-0.985772, 241, 273, 368, 336
-0.985812, 301, 49, 332, 112
-0.985853, 17, 105, 144, 168
-0.985873, 449, 1, 480, 128
-0.985944, 1, 81, 128, 144
-0.986046, 101, 225, 132, 352
-0.986128, 53, 73, 84, 136
-0.986164, 69, 177, 100, 240
-0.98624, 257, 137, 384, 200
-0.986311, 305, 193, 336, 320
-0.986315, 313, 145, 344, 272
-0.98633, 205, 113, 236, 240
-0.986399, 305, 161, 432, 224
-0.986425, 169, 169, 232, 232
-0.986452, 353, 297, 416, 360
-0.986471, 257, 1, 320, 360
-0.986525, 97, 33, 160, 96
-0.986597, 93, 65, 124, 192
-0.986604, 353, 249, 416, 312
-0.98664, 305, 185, 432, 248
-0.986715, 97, 265, 160, 328
-0.986718, 113, 1, 240, 128
-0.986727, 49, 41, 112, 104
-0.986757, 69, 49, 100, 176
-0.986765, 121, 65, 184, 192
-0.986791, 17, 17, 48, 80
-0.9868, 321, 193, 384, 256
-0.986808, 249, 177, 312, 240
-0.986833, 353, 217, 480, 280
-0.986848, 81, 129, 112, 192
-0.986852, 81, 153, 112, 216
-0.986871, 17, 193, 48, 256
-0.986919, 401, 241, 464, 304
-0.986945, 45, 121, 76, 184
-0.987005, 245, 145, 276, 208
-0.987032, 313, 289, 344, 352
-0.987037, 113, 121, 176, 184
-0.987057, 73, 1, 136, 128
-0.987078, 5, 81, 36, 208
-0.98708, 285, 97, 316, 224
-0.987132, 49, 265, 80, 328
-0.987143, 5, 17, 36, 80
-0.987154, 73, 265, 136, 328
-0.987202, 33, 129, 64, 256
-0.987233, 373, 265, 404, 328
-0.98726, 257, 97, 384, 160
-0.987295, 25, 73, 56, 136
-0.987386, 413, 209, 444, 336
-0.987425, 289, 57, 320, 120
-0.987484, 145, 97, 208, 224
-0.987527, 361, 129, 392, 256
-0.987566, 145, 161, 272, 224
-0.987567, 113, 121, 240, 184
-0.987573, 49, 257, 176, 320
-0.987614, 69, 97, 100, 224
-0.987618, 249, 1, 312, 256
-0.987633, 433, 193, 464, 320
-0.987668, 121, 297, 184, 360
-0.987745, 257, 233, 384, 296
-0.987817, 409, 17, 472, 80
-0.987828, 221, 113, 252, 240
-0.987836, 97, 1, 160, 128
-0.987853, 97, 161, 224, 224
-0.987872, 417, 193, 480, 256
-0.987922, 305, 97, 336, 224
-0.98794, 113, 201, 176, 264
-0.987986, 257, 161, 384, 224
-0.9881, 249, 121, 312, 184
-0.988107, 89, 57, 152, 120
-0.988149, 385, 209, 416, 336
-0.988176, 113, 225, 144, 352
-0.988204, 305, 1, 368, 256
-0.988228, 425, 65, 456, 192
-0.988248, 425, 1, 456, 64
-0.98825, 377, 297, 440, 360
-0.988261, 385, 169, 448, 232
-0.988307, 281, 225, 312, 352
-0.988337, 321, 49, 352, 176
-0.988337, 17, 129, 48, 256
-0.98835, 193, 121, 320, 184
-0.988369, 353, 153, 480, 216
-0.988379, 73, 241, 104, 304
-0.988408, 201, 137, 232, 200
-0.988433, 121, 169, 152, 232
-0.988489, 353, 137, 384, 200
-0.98849, 57, 33, 88, 160
-0.988499, 273, 249, 304, 312
-0.988499, 261, 145, 292, 272
-0.988539, 449, 273, 480, 336
-0.988561, 121, 145, 152, 272
-0.988569, 81, 65, 112, 192
-0.988571, 361, 185, 424, 248
-0.988599, 217, 1, 280, 64
-0.988609, 317, 57, 348, 120
-0.98863, 193, 257, 320, 320
-0.988688, 61, 241, 92, 304
-0.988692, 101, 145, 132, 208
-0.988747, 193, 41, 320, 104
-0.988771, 349, 129, 380, 256
-0.988771, 209, 121, 272, 184
-0.98881, 449, 297, 480, 360
-0.988836, 341, 225, 372, 352
-0.988839, 377, 249, 440, 312
-0.988839, 209, 297, 272, 360
-0.988842, 329, 65, 392, 192
-0.988858, 81, 105, 112, 168
-0.988858, 321, 225, 352, 352
-0.988887, 309, 169, 340, 232
-0.988907, 217, 49, 280, 112
-0.988931, 353, 129, 480, 192
-0.988933, 245, 145, 276, 272
-0.988962, 385, 1, 448, 256
-0.988982, 81, 81, 144, 144
-0.989047, 329, 241, 392, 304
-0.98908, 209, 169, 336, 232
-0.989139, 217, 73, 280, 136
-0.98916, 321, 73, 448, 136
-0.989163, 293, 209, 324, 336
-0.989187, 305, 73, 336, 136
-0.989191, 65, 113, 192, 176
-0.9892, 337, 129, 368, 256
-0.989278, 385, 105, 448, 168
-0.989291, 321, 193, 352, 256
-0.989297, 1, 177, 32, 240
-0.989367, 1, 49, 64, 80
-0.989374, 301, 105, 332, 168
-0.989388, 437, 225, 468, 288
-0.98939, 261, 81, 292, 208
-0.989411, 445, 249, 476, 312
-0.989439, 297, 145, 328, 272
-0.98946, 21, 49, 52, 176
-0.98948, 89, 1, 152, 360
-0.9895, 9, 273, 40, 336
-0.989504, 209, 177, 272, 304
-0.98956, 1, 33, 64, 64
-0.989567, 377, 1, 440, 64
-0.989576, 385, 1, 448, 360
-0.989618, 305, 1, 368, 360
-0.98963, 325, 145, 356, 272
-0.989649, 301, 289, 332, 352
-0.989782, 169, 121, 232, 184
-0.989784, 241, 209, 368, 272
-0.989805, 373, 129, 404, 256
-0.989836, 389, 273, 420, 336
-0.989857, 241, 89, 304, 152
-0.989877, 33, 221, 96, 252
-0.989898, 221, 145, 252, 208
-0.9899, 1, 65, 64, 96
-0.98994, 1, 81, 64, 112
-0.989965, 49, 241, 112, 272
-0.990001, 5, 297, 36, 360
-0.990014, 233, 129, 264, 256
-0.990032, 49, 17, 112, 80
-0.990033, 113, 297, 240, 360
-0.990042, 305, 97, 432, 160
-0.990044, 409, 1, 472, 360
-0.990049, 401, 209, 432, 336
-0.99007, 353, 177, 480, 240
-0.990092, 273, 241, 336, 304
-0.990111, 433, 41, 464, 104
-0.99012, 441, 73, 472, 136
-0.990124, 121, 137, 152, 200
-0.990177, 321, 241, 448, 304
-0.990177, 193, 289, 320, 352
-0.990265, 353, 265, 384, 328
-0.990326, 361, 193, 392, 320
-0.990339, 361, 81, 424, 208
-0.990374, 161, 145, 224, 272
-0.990391, 105, 241, 136, 304
-0.990435, 249, 233, 312, 296
-0.990436, 25, 193, 88, 224
-0.990451, 45, 289, 76, 352
-0.990499, 65, 57, 192, 120
-0.990534, 429, 73, 460, 136
-0.990547, 73, 221, 136, 252
-0.99062, 129, 273, 192, 336
-0.990624, 17, 205, 80, 236
-0.990645, 297, 217, 360, 280
-0.990683, 285, 145, 316, 272
-0.990707, 33, 61, 96, 92
-0.99071, 361, 217, 424, 280
-0.990758, 65, 73, 96, 136
-0.990765, 25, 301, 88, 332
-0.990778, 361, 161, 424, 224
-0.990778, 321, 49, 448, 112
-0.990782, 41, 209, 104, 240
-0.990791, 17, 261, 80, 292
-0.990808, 321, 169, 352, 232
-0.990818, 61, 97, 92, 160
-0.990867, 297, 129, 360, 192
-0.990879, 73, 169, 136, 200
-0.990882, 13, 169, 44, 232
-0.99089, 361, 289, 424, 320
-0.990905, 377, 137, 408, 200
-0.99093, 65, 281, 96, 344
-0.990933, 113, 185, 240, 248
-0.990942, 209, 273, 272, 336
-0.990942, 93, 241, 124, 304
-0.990971, 37, 257, 68, 320
-0.990982, 305, 209, 432, 272
-0.990984, 129, 273, 256, 336
-0.990988, 393, 49, 456, 176
-0.990989, 57, 253, 120, 284
-0.99102, 9, 289, 72, 320
-0.991031, 1, 21, 64, 52
-0.991033, 337, 297, 400, 328
-0.991036, 281, 297, 344, 328
-0.991071, 233, 1, 296, 360
-0.99108, 25, 41, 88, 72
-0.99108, 73, 133, 136, 164
-0.991083, 73, 233, 136, 264
-0.991091, 193, 233, 320, 296
-0.991102, 205, 105, 236, 168
-0.99114, 1, 313, 64, 344
-0.991144, 417, 41, 480, 104
-0.991145, 1, 145, 32, 208
-0.991148, 281, 277, 344, 308
-0.991156, 273, 105, 336, 136
-0.991195, 417, 217, 448, 280
-0.991221, 409, 289, 472, 320
-0.991229, 65, 181, 128, 212
-0.991241, 89, 153, 152, 184
-0.991253, 417, 1, 448, 128
-0.991258, 33, 145, 96, 176
-0.9913, 193, 157, 256, 188
-0.991313, 73, 41, 104, 104
-0.991314, 297, 309, 360, 340
-0.991324, 33, 73, 96, 104
-0.991328, 265, 53, 328, 84
-0.99134, 257, 185, 384, 248
-0.991343, 9, 153, 72, 184
-0.991378, 81, 253, 144, 284
-0.991396, 121, 289, 152, 352
-0.991403, 373, 209, 404, 336
-0.991422, 41, 93, 104, 124
-0.991446, 221, 169, 252, 232
-0.991452, 305, 289, 368, 320
-0.991492, 285, 145, 316, 208
-0.991494, 17, 249, 80, 280
-0.991494, 121, 165, 184, 196
-0.991496, 217, 161, 280, 192
-0.991499, 9, 181, 72, 212
-0.991525, 253, 225, 284, 352
-0.991546, 209, 145, 272, 176
-0.991555, 225, 173, 288, 204
-0.991556, 257, 293, 320, 324
-0.99157, 1, 101, 64, 132
-0.99159, 25, 29, 88, 60
-0.991594, 137, 129, 168, 256
-0.991594, 305, 325, 368, 356
-0.9916, 113, 97, 240, 160
-0.991616, 273, 97, 304, 160
-0.991675, 33, 133, 96, 164
-0.991683, 25, 273, 88, 304
-0.991683, 281, 81, 344, 112
-0.991698, 65, 81, 192, 144
-0.991703, 385, 297, 448, 328
-0.991707, 261, 49, 292, 112
-0.991709, 361, 1, 424, 256
-0.991727, 321, 57, 384, 120
-0.991728, 1, 301, 64, 332
-0.991729, 389, 249, 420, 312
-0.991731, 265, 65, 328, 96
-0.991734, 81, 9, 144, 72
-0.991758, 1, 97, 32, 160
-0.991767, 17, 233, 80, 264
-0.991768, 337, 309, 400, 340
-0.991773, 345, 145, 408, 176
-0.991776, 185, 225, 248, 352
-0.991806, 401, 277, 464, 308
-0.991831, 57, 197, 120, 228
-0.991832, 289, 297, 320, 360
-0.991833, 417, 161, 448, 288
-0.991836, 129, 65, 192, 320
-0.991865, 25, 17, 88, 48
-0.991872, 145, 165, 208, 196
-0.991881, 205, 81, 236, 144
-0.991882, 265, 157, 328, 188
-0.991887, 57, 149, 120, 180
-0.991892, 89, 289, 120, 352
-0.991903, 265, 93, 328, 124
-0.991903, 49, 117, 112, 148
-0.991904, 401, 257, 432, 320
-0.991907, 325, 273, 356, 336
-0.991907, 121, 97, 152, 224
-0.991923, 425, 193, 456, 256
-0.991926, 1, 141, 64, 172
-0.991929, 305, 205, 368, 236
-0.991933, 257, 281, 320, 312
-0.991945, 57, 81, 120, 112
-0.991947, 341, 265, 372, 328
-0.991948, 105, 177, 168, 208
-0.99197, 365, 145, 396, 208
-0.99198, 169, 153, 232, 184
-0.991986, 65, 57, 128, 88
-0.991992, 25, 5, 88, 36
-0.991994, 297, 165, 360, 196
-0.991995, 1, 5, 64, 36
-0.99201, 129, 225, 256, 352
-0.992013, 385, 257, 448, 288
-0.992018, 373, 289, 404, 352
-0.992027, 217, 97, 280, 160
-0.992031, 317, 97, 348, 224
-0.992041, 113, 241, 176, 272
-0.992051, 57, 293, 120, 324
-0.992062, 81, 305, 144, 336
-0.992065, 1, 209, 32, 336
-0.99207, 305, 93, 368, 124
-0.992074, 293, 209, 324, 272
-0.992076, 361, 277, 424, 308
-0.992077, 241, 201, 304, 264
-0.992079, 113, 145, 176, 176
-0.992082, 41, 181, 104, 212
-0.9921, 273, 145, 304, 272
-0.992102, 1, 193, 64, 224
-0.992104, 257, 305, 320, 336
-0.992112, 33, 289, 96, 320
-0.992113, 225, 25, 288, 88
-0.992119, 297, 265, 328, 328
-0.992122, 185, 169, 248, 200
-0.99213, 417, 301, 480, 332
-0.992136, 333, 145, 364, 208
-0.992146, 1, 129, 64, 160
-0.992157, 241, 161, 304, 192
-0.992169, 265, 173, 328, 204
-0.992189, 281, 193, 344, 224
-0.992194, 277, 225, 308, 288
-0.992203, 289, 217, 352, 248
-0.992212, 241, 261, 304, 292
-0.992215, 33, 97, 64, 160
-0.992228, 377, 141, 440, 172
-0.992238, 233, 149, 296, 180
-0.992243, 81, 285, 144, 316
-0.992244, 9, 217, 72, 248
-0.99225, 41, 105, 104, 136
-0.992251, 37, 81, 68, 208
-0.992256, 1, 249, 32, 312
-0.992258, 337, 321, 400, 352
-0.992263, 305, 73, 368, 104
-0.992275, 117, 241, 148, 304
-0.992282, 137, 153, 200, 184
-0.992296, 225, 61, 288, 92
-0.992298, 97, 165, 160, 196
-0.992301, 25, 313, 88, 344
-0.992304, 133, 297, 164, 360
-0.992306, 289, 57, 352, 88
-0.992314, 297, 261, 360, 292
-0.992314, 65, 209, 128, 240
-0.99232, 249, 41, 312, 104
-0.992324, 169, 97, 232, 160
-0.992329, 413, 97, 444, 224
-0.99233, 337, 269, 400, 300
-0.992331, 257, 77, 320, 108
-0.992331, 361, 305, 424, 336
-0.992332, 353, 105, 480, 168
-0.99235, 97, 129, 160, 160
-0.992351, 373, 241, 404, 304
-0.992353, 421, 97, 452, 160
-0.992354, 49, 305, 112, 336
-0.992372, 65, 105, 128, 136
-0.992376, 437, 49, 468, 176
-0.992381, 329, 285, 392, 316
-0.992385, 321, 157, 384, 188
-0.992392, 225, 77, 288, 108
-0.992406, 209, 65, 240, 192
-0.992412, 1, 277, 64, 308
-0.992431, 57, 69, 120, 100
-0.992435, 417, 109, 480, 140
-0.992441, 161, 97, 224, 352
-0.992445, 105, 305, 168, 336
-0.992453, 97, 57, 160, 88
-0.992467, 65, 33, 192, 96
-0.992468, 5, 33, 36, 64
-0.992471, 225, 313, 288, 344
-0.992482, 9, 169, 72, 200
-0.992487, 65, 93, 128, 124
-0.99249, 417, 265, 480, 296
-0.992496, 409, 25, 472, 56
-0.992497, 133, 145, 164, 208
-0.992509, 33, 153, 288, 216
-0.99251, 97, 205, 160, 236
-0.992513, 265, 161, 296, 224
-0.992516, 193, 17, 320, 80
-0.992525, 49, 277, 112, 308
-0.992526, 265, 297, 296, 360
-0.992536, 65, 237, 96, 268
-0.992556, 233, 289, 296, 320
-0.992582, 113, 49, 240, 112
-0.992587, 345, 113, 408, 176
-0.992588, 313, 97, 344, 160
-0.99259, 57, 217, 88, 248
-0.992593, 261, 33, 292, 160
-0.992604, 49, 105, 80, 136
-0.99264, 45, 253, 76, 284
-0.992653, 5, 49, 36, 80
-0.992658, 5, 61, 36, 92
-0.99267, 353, 1, 416, 128
-0.992672, 49, 89, 80, 120
-0.992673, 21, 49, 52, 80
-0.992674, 69, 137, 100, 200
-0.992712, 57, 249, 88, 280
-0.992777, 85, 57, 116, 120
-0.99278, 97, 249, 224, 312
-0.992782, 385, 217, 416, 280
-0.992796, 193, 193, 320, 256
-0.992846, 1, 265, 32, 296
-0.992857, 45, 145, 76, 208
-0.992862, 81, 165, 112, 196
-0.992877, 21, 309, 52, 340
-0.992878, 309, 209, 340, 240
-0.992879, 21, 65, 52, 96
-0.992889, 329, 329, 360, 360
-0.992894, 169, 161, 200, 224
-0.992896, 33, 69, 64, 100
-0.992899, 33, 289, 64, 320
-0.992917, 21, 289, 52, 320
-0.992918, 109, 245, 140, 276
-0.99292, 321, 313, 352, 344
-0.992924, 29, 37, 60, 68
-0.992929, 193, 97, 224, 224
-0.992938, 41, 237, 72, 268
-0.992954, 349, 177, 380, 304
-0.992965, 17, 37, 48, 68
-0.992968, 53, 237, 84, 268
-0.992972, 33, 49, 64, 80
-0.992976, 49, 201, 80, 232
-0.992984, 445, 177, 476, 304
-0.992991, 61, 93, 92, 124
-0.993, 97, 153, 128, 184
-0.993007, 221, 149, 252, 180
-0.993011, 77, 241, 108, 272
-0.993019, 93, 265, 124, 328
-0.993033, 285, 289, 316, 320
-0.993033, 5, 81, 36, 112
-0.993035, 37, 81, 68, 112
-0.99304, 45, 221, 76, 252
-0.993043, 285, 277, 316, 308
-0.993045, 33, 301, 64, 332
-0.993051, 309, 197, 340, 228
-0.993056, 85, 221, 116, 252
-0.993063, 17, 189, 48, 220
-0.993074, 293, 213, 324, 244
-0.993074, 177, 165, 208, 196
-0.993077, 17, 201, 48, 232
-0.993081, 29, 25, 60, 56
-0.993083, 9, 313, 40, 344
-0.993087, 69, 209, 100, 240
-0.993089, 45, 169, 76, 232
-0.993092, 1, 189, 32, 220
-0.993093, 93, 165, 124, 196
-0.993099, 81, 137, 112, 168
-0.993109, 433, 261, 464, 292
-0.993111, 421, 9, 452, 40
-0.993119, 313, 293, 344, 324
-0.993119, 269, 93, 300, 124
-0.993121, 13, 273, 44, 304
-0.993132, 265, 165, 296, 196
-0.993136, 73, 97, 104, 128
-0.993136, 437, 185, 468, 248
-0.993139, 73, 177, 104, 208
-0.99314, 129, 209, 256, 272
-0.99314, 81, 149, 112, 180
-0.99314, 73, 253, 104, 284
-0.993145, 45, 117, 76, 148
-0.993146, 5, 301, 36, 332
-0.993148, 289, 105, 320, 136
-0.993155, 385, 285, 416, 316
-0.993155, 269, 61, 300, 92
-0.993156, 33, 205, 64, 236
-0.993163, 1, 169, 32, 200
-0.993165, 449, 301, 480, 332
-0.993167, 389, 261, 420, 292
-0.993173, 53, 77, 84, 108
-0.993178, 425, 37, 456, 68
-0.993181, 305, 101, 336, 132
-0.993185, 313, 57, 344, 88
-0.993189, 205, 145, 236, 176
-0.993191, 425, 53, 456, 84
-0.993197, 25, 265, 56, 296
-0.993197, 77, 113, 108, 144
-0.993199, 117, 265, 148, 328
-0.993205, 245, 157, 276, 188
-0.993207, 297, 277, 328, 308
-0.993208, 273, 49, 304, 80
-0.993209, 121, 301, 152, 332
-0.993212, 433, 289, 464, 320
-0.993212, 29, 13, 60, 44
-0.993213, 229, 169, 260, 200
-0.993213, 449, 277, 480, 308
-0.993215, 73, 53, 104, 84
-0.993217, 33, 33, 288, 96
-0.993222, 45, 129, 76, 160
-0.99323, 269, 225, 300, 352
-0.99323, 57, 261, 88, 292
-0.993231, 13, 177, 44, 208
-0.993235, 37, 193, 68, 224
-0.993237, 369, 145, 400, 176
-0.993239, 205, 161, 236, 288
-0.99324, 269, 297, 300, 328
-0.993241, 29, 1, 60, 32
-0.993243, 333, 289, 364, 320
-0.993243, 333, 317, 364, 348
-0.993244, 289, 265, 320, 296
-0.993246, 313, 169, 344, 200
-0.993246, 337, 301, 368, 332
-0.993252, 321, 93, 352, 124
-0.993253, 257, 33, 384, 96
-0.993253, 121, 289, 152, 320
-0.993254, 57, 189, 88, 220
-0.993257, 321, 81, 352, 112
-0.993259, 73, 225, 104, 256
-0.993259, 81, 125, 112, 156
-0.993261, 21, 81, 52, 112
-0.993262, 5, 149, 36, 180
-0.993263, 73, 81, 104, 112
-0.993263, 405, 281, 436, 312
-0.993264, 157, 157, 188, 188
-0.993266, 133, 305, 164, 336
-0.99327, 57, 117, 88, 148
-0.99327, 89, 301, 120, 332
-0.993272, 93, 253, 124, 284
-0.993273, 349, 293, 380, 324
-0.993273, 429, 65, 460, 96
-0.993278, 69, 65, 100, 96
-0.99328, 429, 25, 460, 56
-0.993281, 369, 297, 400, 328
-0.993283, 97, 57, 128, 88
-0.993287, 449, 217, 480, 280
-0.993289, 449, 265, 480, 296
-0.993289, 121, 237, 152, 268
-0.993292, 389, 297, 420, 328
-0.993293, 349, 141, 380, 172
-0.993294, 385, 273, 416, 304
-0.993295, 9, 289, 40, 320
-0.993298, 357, 281, 388, 312
-0.993299, 269, 73, 300, 104
-0.993304, 89, 241, 120, 272
-0.993304, 105, 173, 136, 204
-0.99331, 13, 81, 44, 144
-0.993312, 201, 161, 232, 192
-0.993316, 313, 281, 344, 312
-0.993352, 105, 201, 136, 264
-0.993445, 45, 25, 76, 88
-0.993471, 205, 161, 236, 224
-0.993482, 1, 97, 480, 160
-0.993485, 129, 17, 256, 80
-0.993495, 305, 129, 336, 192
-0.993581, 129, 169, 384, 232
-0.993586, 93, 121, 124, 184
-0.993603, 293, 233, 324, 296
-0.993615, 125, 193, 156, 320
-0.993657, 277, 297, 308, 360
-0.993677, 1, 153, 480, 216
-0.993697, 225, 65, 480, 128
-0.993756, 193, 1, 256, 256
-0.993773, 389, 129, 420, 256
-0.99379, 209, 1, 272, 360
-0.993825, 33, 129, 288, 192
-0.99395, 137, 177, 168, 304
-0.993967, 225, 289, 480, 352
-0.994062, 109, 65, 140, 192
-0.994158, 1, 121, 480, 184
-0.99419, 401, 161, 432, 288
-0.994206, 337, 1, 400, 360
-0.99422, 329, 1, 392, 256
-0.994235, 321, 17, 384, 144
-0.994288, 33, 41, 48, 104
-0.994291, 129, 225, 192, 352
-0.994307, 433, 145, 464, 272
-0.994319, 33, 9, 288, 72
-0.994333, 77, 1, 108, 128
-0.99434, 129, 137, 384, 200
-0.994352, 33, 105, 288, 168
-0.994438, 241, 1, 272, 128
-0.99444, 33, 81, 288, 144
-0.99447, 193, 97, 448, 160
-0.994484, 337, 177, 368, 304
-0.994593, 221, 65, 252, 192
-0.994691, 1, 189, 128, 220
-0.994718, 221, 161, 252, 288
-0.994724, 225, 137, 480, 200
-0.994792, 353, 1, 480, 64
-0.99484, 129, 57, 384, 120
-0.994908, 413, 49, 444, 176
-0.994911, 1, 289, 256, 352
-0.994919, 49, 9, 176, 72
-0.994925, 129, 73, 256, 136
-0.994933, 129, 281, 384, 344
-0.994971, 1, 185, 256, 248
-0.995113, 249, 97, 280, 224
-0.99518, 161, 209, 224, 336
-0.995198, 7, 49, 22, 112
-0.995201, 43, 49, 58, 112
-0.995209, 1, 265, 256, 328
-0.995315, 33, 57, 288, 120
-0.995318, 241, 77, 368, 108
-0.995352, 97, 17, 128, 144
-0.995362, 1, 141, 128, 172
-0.995365, 305, 1, 336, 128
-0.995411, 49, 149, 176, 180
-0.995448, 133, 65, 164, 192
-0.995459, 1, 57, 128, 88
-0.995511, 225, 161, 480, 224
-0.995551, 53, 81, 68, 144
-0.995551, 185, 1, 248, 360
-0.995615, 241, 65, 368, 96
-0.995621, 337, 25, 464, 88
-0.995632, 49, 129, 64, 192
-0.995635, 145, 249, 272, 312
-0.995647, 1, 169, 128, 200
-0.995666, 225, 265, 480, 328
-0.995708, 1, 153, 128, 184
-0.995713, 289, 293, 416, 324
-0.995731, 57, 217, 72, 280
-0.995742, 113, 1, 176, 360
-0.995742, 33, 225, 160, 256
-0.995777, 335, 297, 350, 360
-0.995786, 27, 49, 42, 112
-0.99579, 13, 1, 44, 256
-0.995807, 29, 1, 60, 256
-0.995811, 1, 297, 480, 360
-0.995828, 17, 241, 144, 272
-0.99583, 353, 289, 480, 320
-0.995837, 1, 289, 128, 320
-0.995858, 333, 65, 364, 192
-0.995861, 47, 201, 62, 264
-0.995866, 5, 25, 20, 88
-0.995878, 75, 225, 90, 288
-0.995879, 51, 225, 66, 288
-0.995907, 257, 305, 384, 336
-0.995921, 35, 281, 50, 344
-0.995933, 49, 185, 176, 216
-0.995962, 21, 41, 36, 104
-0.995981, 13, 41, 28, 104
-0.996008, 279, 89, 294, 152
-0.996008, 1, 45, 128, 76
-0.996045, 67, 217, 82, 280
-0.996065, 1, 65, 16, 128
-0.996065, 17, 213, 144, 244
-0.996109, 1, 265, 128, 296
-0.99611, 33, 217, 288, 280
-0.996113, 1, 1, 32, 256
-0.996113, 1, 69, 128, 100
-0.996134, 153, 97, 184, 224
-0.996137, 275, 49, 290, 112
-0.996163, 7, 73, 22, 136
-0.996174, 1, 305, 128, 336
-0.996175, 193, 193, 448, 256
-0.996211, 1, 249, 480, 312
-0.996229, 1, 137, 16, 200
-0.996256, 51, 105, 66, 168
-0.996308, 81, 233, 96, 296
-0.996369, 49, 173, 176, 204
-0.996374, 1, 201, 128, 232
-0.996432, 49, 161, 176, 192
-0.996435, 287, 265, 302, 328
-0.996436, 49, 137, 176, 168
-0.996464, 299, 281, 314, 344
-0.996474, 241, 321, 368, 352
-0.996484, 293, 273, 308, 336
-0.996514, 215, 105, 230, 168
-0.996518, 273, 73, 288, 136
-0.996522, 1, 9, 480, 72
-0.996525, 193, 89, 320, 120
-0.996543, 289, 277, 416, 308
-0.996547, 241, 225, 272, 352
-0.996562, 161, 1, 224, 360
-0.996563, 381, 1, 412, 128
-0.996567, 241, 89, 368, 120
-0.996581, 41, 289, 56, 352
-0.996619, 295, 57, 310, 120
-0.996619, 341, 297, 356, 360
-0.996639, 439, 241, 454, 304
-0.996657, 41, 193, 56, 256
-0.996667, 287, 97, 302, 160
-0.996674, 31, 17, 46, 80
-0.996687, 201, 1, 264, 128
-0.996703, 7, 145, 22, 208
-0.996708, 13, 177, 28, 240
-0.996713, 41, 17, 56, 80
-0.996714, 277, 161, 292, 224
-0.996716, 57, 265, 72, 328
-0.996736, 41, 65, 72, 320
-0.996744, 241, 101, 368, 132
-0.996745, 87, 225, 102, 288
-0.996762, 63, 193, 78, 256
-0.996768, 1, 241, 256, 304
-0.996769, 445, 113, 476, 240
-0.99677, 77, 65, 108, 320
-0.996779, 97, 257, 352, 320
-0.996782, 319, 169, 334, 232
-0.996784, 401, 113, 432, 240
-0.996793, 329, 289, 344, 352
-0.996805, 361, 1, 424, 360
-0.996813, 129, 161, 256, 192
-0.996819, 55, 193, 70, 256
-0.996834, 177, 49, 240, 176
-0.996846, 91, 153, 106, 216
-0.996851, 33, 193, 48, 256
-0.996852, 233, 177, 264, 304
-0.996857, 97, 153, 112, 216
-0.996861, 41, 73, 56, 136
-0.996864, 23, 193, 38, 256
-0.996883, 461, 273, 476, 336
-0.99689, 63, 241, 78, 304
-0.996895, 321, 145, 448, 176
-0.996916, 289, 265, 416, 296
-0.996918, 1, 277, 128, 308
-0.996919, 129, 137, 256, 168
-0.996931, 17, 117, 144, 148
-0.996933, 17, 101, 144, 132
-0.996933, 45, 153, 60, 216
-0.996945, 321, 313, 448, 344
-0.996952, 311, 193, 326, 256
-0.996958, 325, 193, 340, 256
-0.996962, 285, 57, 300, 120
-0.996965, 443, 73, 458, 136
-0.996966, 87, 129, 102, 192
-0.996977, 365, 273, 380, 336
-0.996978, 49, 293, 176, 324
-0.996985, 83, 153, 98, 216
-0.996994, 313, 169, 328, 232
-0.997007, 315, 49, 330, 112
-0.997035, 193, 73, 320, 104
-0.997043, 193, 145, 224, 272
-0.997043, 225, 225, 480, 288
-0.997048, 241, 293, 368, 324
-0.997052, 99, 217, 114, 280
-0.99706, 209, 149, 336, 180
-0.997068, 301, 49, 316, 112
-0.99707, 193, 1, 448, 64
-0.997089, 325, 169, 340, 232
-0.997102, 57, 105, 72, 168
-0.997103, 129, 137, 144, 200
-0.997113, 1, 317, 128, 348
-0.997122, 77, 57, 92, 120
-0.997123, 49, 201, 176, 232
-0.997127, 71, 193, 86, 256
-0.997128, 209, 137, 224, 200
-0.997146, 49, 253, 176, 284
-0.99715, 319, 201, 334, 264
-0.99716, 33, 33, 160, 64
-0.997162, 243, 145, 258, 208
-0.997165, 309, 289, 324, 352
-0.997173, 25, 281, 40, 344
-0.997174, 301, 97, 316, 160
-0.997181, 13, 73, 28, 136
-0.997189, 161, 149, 288, 180
-0.997192, 1, 89, 128, 120
-0.997198, 359, 265, 374, 328
-0.997199, 375, 145, 390, 208
-0.9972, 241, 53, 368, 84
-0.997204, 385, 265, 400, 328
-0.997235, 325, 57, 340, 120
-0.997238, 193, 101, 320, 132
-0.997249, 431, 217, 446, 280
-0.997252, 225, 33, 480, 96
-0.997262, 331, 169, 346, 232
-0.997265, 33, 1, 160, 32
-0.997266, 21, 17, 36, 80
-0.997268, 89, 57, 104, 120
-0.997268, 131, 161, 146, 224
-0.99727, 445, 257, 460, 320
-0.997275, 43, 113, 58, 176
-0.997282, 273, 97, 304, 352
-0.99729, 1, 129, 128, 160
-0.997291, 75, 169, 90, 232
-0.997303, 65, 305, 192, 336
-0.997306, 353, 265, 480, 296
-0.99731, 77, 201, 92, 264
-0.997325, 39, 169, 54, 232
-0.997332, 315, 105, 330, 168
-0.997337, 289, 165, 416, 196
-0.997339, 65, 241, 192, 272
-0.997341, 93, 225, 108, 288
-0.997349, 379, 257, 394, 320
-0.997358, 17, 201, 32, 264
-0.997361, 59, 249, 74, 280
-0.997363, 269, 169, 284, 232
-0.997368, 1, 177, 480, 240
-0.99737, 453, 257, 468, 320
-0.99737, 47, 289, 62, 352
-0.997391, 1, 97, 32, 352
-0.997393, 265, 145, 280, 208
-0.997393, 281, 1, 312, 256
-0.997394, 1, 273, 480, 336
-0.997397, 257, 249, 384, 280
-0.997397, 337, 325, 464, 356
-0.9974, 19, 161, 34, 224
-0.997402, 65, 65, 96, 320
-0.997404, 307, 49, 322, 112
-0.997405, 71, 57, 86, 120
-0.997405, 215, 153, 230, 216
-0.997408, 73, 97, 88, 160
-0.997408, 401, 265, 416, 328
-0.997422, 107, 241, 122, 304
-0.997426, 293, 97, 308, 160
-0.997435, 305, 209, 432, 240
-0.997438, 447, 49, 462, 112
-0.997439, 121, 137, 136, 200
-0.997448, 381, 137, 396, 200
-0.99745, 281, 129, 296, 192
-0.99745, 81, 225, 208, 256
-0.997453, 353, 277, 480, 308
-0.997454, 367, 137, 382, 200
-0.99746, 387, 137, 402, 200
-0.997468, 447, 225, 462, 288
-0.997475, 437, 73, 452, 136
-0.997481, 97, 193, 352, 256
-0.997483, 177, 165, 304, 196
-0.997492, 1, 273, 16, 336
-0.997495, 45, 225, 60, 288
-0.997496, 309, 105, 324, 168
-0.997499, 63, 265, 78, 328
-0.997499, 35, 65, 50, 128
-0.997499, 115, 153, 130, 216
-0.997505, 29, 97, 60, 352
-0.997506, 149, 177, 180, 304
-0.997507, 373, 265, 388, 328
-0.997507, 69, 241, 84, 304
-0.997507, 279, 257, 294, 320
-0.997512, 97, 173, 224, 204
-0.997513, 5, 97, 20, 160
-0.997526, 73, 121, 88, 184
-0.997527, 321, 77, 448, 108
-0.99754, 339, 265, 354, 328
-0.997549, 293, 241, 308, 304
-0.997554, 297, 97, 328, 352
-0.997554, 217, 81, 232, 144
-0.997555, 53, 89, 68, 120
-0.997563, 95, 49, 110, 112
-0.997567, 289, 325, 416, 356
-0.997574, 285, 225, 300, 288
-0.997588, 5, 33, 20, 64
-0.997597, 193, 53, 320, 84
-0.9976, 209, 305, 336, 336
-0.997633, 79, 233, 94, 264
-0.997643, 261, 65, 292, 320
-0.997644, 373, 97, 404, 352
-0.997646, 305, 193, 432, 224
-0.997649, 321, 97, 448, 128
-0.99767, 49, 273, 176, 304
-0.997671, 1, 13, 128, 44
-0.997685, 333, 309, 348, 340
-0.997693, 337, 133, 464, 164
-0.997699, 285, 97, 316, 352
-0.99772, 1, 253, 128, 284
-0.997743, 449, 65, 480, 192
-0.997751, 65, 97, 192, 128
-0.997778, 257, 145, 384, 176
-0.997781, 241, 281, 368, 312
-0.997785, 35, 49, 50, 80
-0.997802, 193, 121, 320, 152
-0.997807, 113, 309, 240, 340
-0.997828, 353, 97, 384, 352
-0.997829, 1, 217, 480, 280
-0.997862, 221, 97, 252, 352
-0.997862, 353, 161, 480, 192
-0.997872, 409, 97, 440, 352
-0.997875, 313, 205, 328, 236
-0.997885, 193, 321, 320, 352
-0.997895, 79, 245, 94, 276
-0.9979, 137, 1, 200, 360
-0.997909, 193, 133, 320, 164
-0.997914, 33, 65, 48, 96
-0.99792, 209, 257, 336, 288
-0.997921, 357, 81, 388, 208
-0.997922, 49, 317, 176, 348
-0.997968, 291, 273, 306, 304
-0.997969, 5, 45, 20, 76
-0.997973, 7, 65, 22, 96
-0.997975, 113, 125, 240, 156
-0.997999, 225, 205, 352, 236
-0.998009, 209, 245, 336, 276
-0.998013, 27, 305, 42, 336
-0.998019, 313, 33, 344, 288
-0.99802, 51, 109, 66, 140
-0.998023, 339, 321, 354, 352
-0.998027, 37, 289, 52, 320
-0.998032, 53, 33, 84, 288
-0.998033, 51, 237, 66, 268
-0.998033, 193, 293, 320, 324
-0.99804, 67, 217, 82, 248
-0.998046, 353, 225, 480, 256
-0.998061, 65, 213, 192, 244
-0.998066, 89, 33, 120, 288
-0.998068, 69, 237, 84, 268
-0.998074, 353, 301, 480, 332
-0.998081, 109, 17, 140, 144
-0.998094, 209, 269, 336, 300
-0.998098, 317, 101, 332, 132
-0.998101, 257, 229, 384, 260
-0.998108, 129, 33, 384, 96
-0.998119, 43, 49, 58, 80
-0.998119, 337, 253, 464, 284
-0.998123, 341, 97, 372, 352
-0.998126, 97, 149, 224, 180
-0.998132, 1, 41, 480, 104
-0.998133, 421, 1, 452, 256
-0.998136, 241, 161, 368, 192
-0.998137, 81, 57, 208, 88
-0.99815, 17, 97, 48, 352
-0.998165, 29, 37, 44, 68
-0.998165, 225, 177, 352, 208
-0.998165, 281, 113, 296, 144
-0.998177, 59, 217, 74, 248
-0.9982, 129, 189, 256, 220
-0.998205, 49, 121, 64, 152
-0.998206, 49, 141, 64, 172
-0.998212, 65, 109, 192, 140
-0.998213, 321, 65, 448, 96
-0.998218, 161, 305, 288, 336
-0.99822, 129, 217, 384, 280
-0.998225, 17, 45, 32, 76
-0.998229, 13, 33, 28, 64
-0.998234, 91, 169, 106, 200
-0.998235, 23, 37, 38, 68
-0.998235, 113, 205, 240, 236
-0.998243, 23, 49, 38, 80
-0.998255, 121, 245, 136, 276
-0.998257, 129, 253, 256, 284
-0.99826, 353, 185, 480, 216
-0.998262, 287, 101, 302, 132
-0.998263, 61, 97, 76, 128
-0.998271, 219, 145, 234, 176
-0.998282, 401, 285, 416, 316
-0.998282, 1, 65, 480, 128
-0.998286, 57, 233, 72, 264
-0.998286, 225, 193, 352, 224
-0.998292, 19, 265, 34, 296
-0.998303, 65, 253, 80, 284
-0.998305, 129, 321, 256, 352
-0.998314, 29, 49, 44, 80
-0.998316, 407, 285, 422, 316
-0.998323, 305, 213, 320, 244
-0.998325, 277, 101, 292, 132
-0.998326, 17, 205, 32, 236
-0.998327, 439, 261, 454, 292
-0.998334, 11, 45, 26, 76
-0.998335, 443, 77, 458, 108
-0.998337, 345, 329, 360, 360
-0.998339, 33, 329, 160, 360
-0.998343, 29, 23, 60, 38
-0.998343, 211, 141, 226, 172
-0.998343, 73, 181, 104, 196
-0.998343, 307, 193, 322, 224
-0.998343, 17, 283, 48, 298
-0.998344, 117, 303, 148, 318
-0.998344, 265, 93, 296, 108
-0.998344, 285, 291, 316, 306
-0.998345, 277, 103, 308, 118
-0.998345, 385, 283, 416, 298
-0.998345, 389, 261, 420, 276
-0.998345, 53, 79, 84, 94
-0.998346, 421, 9, 452, 24
-0.998346, 93, 167, 124, 182
-0.998346, 265, 175, 296, 190
-0.998346, 17, 181, 48, 196
-0.998347, 9, 303, 40, 318
-0.998347, 37, 221, 68, 236
-0.998347, 1, 281, 32, 296
-0.998347, 17, 41, 48, 56
-0.998348, 81, 143, 112, 158
-0.998348, 33, 301, 64, 316
-0.998348, 269, 63, 300, 78
-0.998349, 21, 55, 52, 70
-0.99835, 301, 55, 332, 70
-0.99835, 9, 165, 40, 180
-0.99835, 177, 175, 208, 190
-0.998351, 265, 299, 296, 314
-0.998351, 321, 99, 352, 114
-0.998351, 433, 265, 464, 280
-0.998351, 425, 65, 456, 80
-0.998351, 113, 241, 240, 272
-0.998352, 417, 3, 448, 18
-0.998352, 421, 31, 452, 46
-0.998352, 61, 91, 92, 106
-0.998352, 81, 149, 112, 164
-0.998352, 241, 133, 368, 164
-0.998352, 425, 59, 456, 74
-0.998353, 43, 73, 58, 104
-0.998353, 29, 11, 60, 26
-0.998353, 289, 107, 320, 122
-0.998354, 21, 83, 52, 98
-0.998355, 17, 195, 48, 210
-0.998356, 45, 129, 76, 144
-0.998356, 121, 241, 152, 256
-0.998356, 65, 259, 96, 274
-0.998357, 305, 215, 336, 230
-0.998357, 317, 293, 348, 308
-0.998357, 273, 55, 304, 70
-0.998358, 173, 165, 204, 180
-0.998358, 45, 241, 76, 256
-0.998358, 29, 1, 60, 16
-0.998359, 47, 221, 62, 252
-0.998359, 101, 287, 132, 302
-0.99836, 81, 175, 112, 190
-0.998361, 37, 263, 68, 278
-0.998361, 1, 173, 32, 188
-0.998362, 1, 185, 32, 200
-0.998362, 29, 313, 60, 328
-0.998362, 341, 297, 356, 328
-0.998364, 33, 213, 64, 228
-0.998365, 5, 145, 20, 176
-0.998365, 217, 151, 248, 166
-0.998365, 73, 97, 104, 112
-0.998365, 445, 301, 476, 316
-0.998366, 33, 203, 64, 218
-0.998366, 45, 269, 76, 284
-0.998366, 65, 221, 96, 236
-0.998366, 349, 295, 380, 310
-0.998367, 205, 151, 236, 166
-0.998367, 117, 297, 148, 312
-0.998368, 257, 217, 384, 248
-0.998368, 89, 113, 104, 144
-0.998369, 33, 295, 64, 310
-0.998369, 25, 31, 56, 46
-0.99837, 21, 75, 52, 90
-0.998371, 17, 289, 48, 304
-0.998372, 301, 107, 332, 122
-0.998372, 377, 149, 392, 180
-0.998372, 57, 231, 88, 246
-0.998374, 1, 265, 16, 296
-0.998374, 289, 177, 416, 208
-0.998374, 315, 189, 330, 220
-0.998374, 77, 63, 108, 78
-0.998374, 77, 237, 108, 252
-0.998375, 79, 221, 94, 252
-0.998375, 85, 241, 100, 272
-0.998377, 5, 55, 36, 70
-0.998381, 61, 97, 92, 112
-0.998382, 265, 305, 296, 320
-0.998383, 249, 1, 312, 128
-0.998383, 97, 59, 128, 74
-0.998384, 17, 189, 48, 204
-0.998385, 313, 203, 344, 218
-0.998385, 5, 83, 36, 98
-0.998385, 29, 39, 60, 54
-0.998386, 97, 247, 128, 262
-0.998387, 5, 43, 36, 58
-0.998388, 13, 309, 44, 324
-0.998391, 21, 67, 52, 82
-0.998391, 1, 77, 16, 108
-0.998392, 447, 65, 462, 96
-0.998392, 45, 201, 76, 216
-0.998394, 37, 247, 68, 262
-0.998394, 1, 261, 32, 276
-0.998395, 49, 87, 80, 102
-0.998396, 81, 167, 112, 182
-0.998398, 89, 157, 104, 188
-0.998398, 401, 257, 416, 288
-0.998398, 81, 157, 112, 172
-0.998398, 285, 297, 316, 312
-0.998401, 41, 253, 72, 268
-0.998401, 41, 75, 72, 90
-0.998401, 449, 277, 480, 292
-0.998402, 333, 341, 364, 356
-0.998402, 49, 123, 80, 138
-0.998404, 305, 209, 336, 224
-0.998406, 29, 307, 60, 322
-0.998407, 329, 331, 360, 346
-0.998409, 325, 321, 356, 336
-0.99841, 105, 253, 136, 268
-0.998414, 65, 125, 192, 156
-0.998415, 9, 267, 40, 282
-0.998415, 53, 259, 84, 274
-0.998415, 45, 61, 60, 92
-0.998416, 17, 201, 48, 216
-0.998417, 393, 97, 424, 352
-0.998419, 89, 253, 120, 268
-0.99842, 325, 201, 340, 232
-0.998421, 7, 81, 22, 112
-0.998421, 33, 309, 48, 340
-0.998422, 45, 211, 76, 226
-0.998422, 49, 115, 80, 130
-0.998423, 41, 227, 72, 242
-0.998423, 285, 277, 316, 292
-0.998423, 321, 315, 352, 330
-0.998426, 57, 265, 88, 280
-0.998427, 115, 245, 130, 276
-0.998428, 77, 255, 108, 270
-0.998428, 317, 57, 332, 88
-0.998428, 33, 81, 64, 96
-0.99843, 39, 197, 54, 228
-0.998433, 29, 45, 60, 60
-0.998433, 177, 161, 192, 192
-0.998436, 73, 221, 88, 252
-0.998439, 5, 65, 36, 80
-0.99844, 17, 317, 48, 332
-0.99844, 17, 49, 48, 64
-0.998441, 49, 107, 80, 122
-0.998443, 321, 121, 448, 152
-0.998446, 273, 53, 288, 84
-0.998449, 71, 61, 86, 92
-0.99845, 97, 153, 112, 184
-0.99845, 47, 153, 62, 184
-0.998454, 53, 249, 68, 280
-0.998455, 85, 247, 116, 262
-0.998459, 25, 69, 40, 100
-0.998459, 317, 1, 348, 128
-0.998459, 141, 225, 172, 352
-0.998461, 83, 161, 98, 192
-0.998462, 33, 51, 64, 66
-0.998464, 87, 89, 102, 120
-0.998464, 65, 253, 96, 268
-0.998464, 133, 297, 148, 328
-0.998468, 109, 247, 140, 262
-0.998471, 325, 93, 340, 124
-0.998472, 21, 313, 36, 344
-0.998473, 49, 101, 80, 116
-0.998474, 217, 77, 232, 108
-0.998477, 285, 269, 300, 300
-0.99848, 19, 65, 34, 96
-0.998481, 65, 237, 96, 252
-0.998482, 5, 37, 36, 52
-0.998484, 63, 85, 78, 116
-0.998485, 71, 253, 86, 284
-0.998486, 49, 93, 80, 108
-0.998487, 53, 219, 84, 234
-0.99849, 17, 185, 32, 216
-0.998491, 5, 49, 36, 64
-0.998492, 225, 149, 240, 180
-0.998493, 1, 273, 32, 288
-0.998493, 141, 305, 156, 336
-0.998496, 53, 77, 68, 108
-0.998498, 411, 297, 426, 328
-0.998499, 437, 1, 468, 256
-0.998504, 329, 33, 360, 288
-0.998505, 439, 53, 454, 84
-0.998507, 13, 65, 28, 96
-0.998508, 217, 133, 232, 164
-0.998509, 65, 45, 192, 76
-0.998511, 407, 257, 422, 288
-0.998511, 59, 205, 74, 236
-0.998512, 97, 265, 224, 296
-0.998512, 11, 157, 26, 188
-0.998512, 75, 177, 90, 208
-0.998515, 305, 221, 432, 252
-0.998515, 393, 277, 408, 308
-0.998517, 1, 39, 64, 54
-0.998519, 1, 67, 64, 82
-0.998523, 1, 109, 16, 140
-0.998523, 287, 121, 302, 152
-0.998528, 75, 49, 90, 80
-0.998528, 1, 47, 64, 62
-0.998529, 109, 245, 124, 276
-0.99853, 119, 233, 134, 264
-0.998532, 65, 247, 96, 262
-0.998533, 9, 197, 72, 212
-0.998534, 53, 217, 68, 248
-0.998537, 267, 153, 282, 184
-0.998537, 337, 173, 464, 204
-0.998539, 65, 205, 80, 236
-0.998541, 1, 61, 64, 76
-0.998541, 45, 197, 60, 228
-0.998542, 13, 305, 28, 336
-0.998542, 1, 33, 64, 48
-0.998543, 53, 253, 84, 268
-0.998543, 439, 249, 454, 280
-0.998544, 1, 83, 64, 98
-0.998544, 49, 221, 112, 236
-0.998545, 1, 73, 64, 88
-0.998546, 9, 263, 72, 278
-0.998547, 249, 65, 280, 320
-0.998548, 49, 253, 112, 268
-0.99855, 25, 215, 88, 230
-0.99855, 57, 247, 120, 262
-0.998551, 115, 153, 130, 184
-0.998552, 41, 237, 104, 252
-0.998554, 129, 49, 256, 80
-0.998557, 389, 141, 404, 172
-0.998558, 81, 239, 144, 254
-0.998558, 227, 165, 242, 196
-0.998559, 1, 53, 64, 68
-0.998559, 273, 73, 288, 104
-0.998559, 27, 285, 42, 316
-0.99856, 299, 213, 314, 244
-0.99856, 307, 285, 322, 316
-0.998564, 113, 173, 128, 204
-0.998565, 25, 203, 88, 218
-0.998565, 193, 41, 320, 72
-0.998566, 401, 297, 416, 328
-0.99857, 293, 105, 308, 136
-0.998571, 297, 277, 312, 308
-0.998572, 59, 109, 74, 140
-0.998575, 33, 227, 96, 242
-0.998575, 81, 253, 144, 268
-0.998577, 299, 265, 314, 296
-0.998578, 97, 165, 112, 196
-0.99858, 431, 1, 446, 32
-0.998581, 17, 209, 80, 224
-0.998581, 377, 305, 392, 336
-0.998583, 63, 237, 78, 268
-0.998589, 33, 75, 96, 90
-0.998593, 73, 149, 136, 164
-0.998593, 305, 297, 368, 312
-0.998595, 33, 147, 96, 162
-0.998596, 81, 245, 144, 260
-0.998597, 301, 1, 332, 256
-0.998597, 25, 57, 88, 72
-0.998601, 421, 97, 452, 352
-0.998603, 73, 143, 136, 158
-0.998604, 265, 301, 328, 316
-0.998605, 217, 225, 248, 352
-0.998605, 1, 107, 64, 122
-0.998607, 25, 51, 88, 66
-0.998608, 17, 311, 80, 326
-0.998608, 41, 101, 104, 116
-0.998609, 113, 285, 240, 316
-0.99861, 17, 269, 80, 284
-0.998611, 73, 227, 136, 242
-0.998613, 81, 173, 144, 188
-0.998614, 25, 45, 88, 60
-0.998615, 265, 79, 328, 94
-0.998615, 57, 215, 120, 230
-0.998615, 329, 297, 392, 312
-0.998619, 73, 221, 136, 236
-0.998619, 25, 305, 88, 320
-0.99862, 209, 153, 272, 168
-0.998621, 17, 255, 80, 270
-0.998622, 257, 309, 320, 324
-0.998622, 281, 307, 344, 322
-0.998623, 321, 109, 448, 140
-0.998624, 33, 141, 96, 156
-0.998624, 1, 27, 64, 42
-0.998624, 25, 221, 88, 236
-0.998624, 281, 295, 344, 310
-0.998625, 281, 107, 344, 122
-0.998626, 361, 305, 424, 320
-0.998626, 49, 263, 112, 278
-0.998626, 329, 309, 392, 324
-0.998626, 81, 233, 144, 248
-0.998628, 9, 317, 72, 332
-0.998628, 361, 295, 424, 310
-0.998628, 33, 63, 96, 78
-0.998629, 265, 55, 328, 70
-0.998633, 25, 299, 88, 314
-0.998635, 113, 297, 240, 328
-0.998635, 25, 291, 88, 306
-0.998635, 1, 203, 64, 218
-0.998636, 329, 303, 392, 318
-0.998636, 41, 111, 104, 126
-0.998636, 205, 65, 236, 320
-0.998637, 305, 327, 368, 342
-0.998638, 25, 285, 88, 300
-0.998639, 337, 315, 400, 330
-0.998639, 49, 133, 112, 148
-0.998639, 297, 207, 360, 222
-0.99864, 297, 319, 360, 334
-0.998641, 33, 69, 96, 84
-0.998641, 33, 197, 96, 212
-0.998641, 65, 59, 128, 74
-0.998642, 1, 101, 64, 116
-0.998642, 1, 157, 64, 172
-0.998642, 297, 313, 360, 328
-0.998643, 377, 289, 440, 304
-0.998644, 73, 179, 136, 194
-0.998644, 41, 91, 104, 106
-0.998644, 73, 155, 136, 170
-0.998644, 137, 159, 200, 174
-0.998645, 25, 23, 88, 38
-0.998645, 265, 65, 328, 80
-0.998646, 1, 151, 64, 166
-0.998646, 241, 271, 304, 286
-0.998647, 1, 19, 64, 34
-0.998647, 105, 245, 168, 260
-0.998648, 265, 277, 328, 292
-0.998648, 209, 159, 272, 174
-0.998649, 369, 311, 432, 326
-0.998649, 409, 1, 440, 256
-0.998649, 25, 81, 88, 96
-0.998649, 57, 191, 120, 206
-0.99865, 337, 147, 400, 162
-0.998651, 121, 167, 184, 182
-0.998651, 257, 103, 320, 118
-0.998652, 265, 73, 328, 88
-0.998652, 193, 169, 256, 184
-0.998652, 1, 217, 64, 232
-0.998653, 65, 185, 128, 200
-0.998653, 41, 209, 104, 224
-0.998653, 97, 167, 160, 182
-0.998653, 241, 293, 304, 308
-0.998655, 313, 99, 376, 114
-0.998656, 97, 153, 160, 168
-0.998656, 1, 303, 64, 318
-0.998656, 409, 295, 472, 310
-0.998657, 49, 153, 112, 168
-0.998657, 169, 165, 232, 180
-0.998657, 57, 203, 120, 218
-0.998657, 25, 29, 88, 44
-0.998658, 1, 163, 64, 178
-0.998658, 9, 191, 72, 206
-0.998659, 313, 345, 376, 360
-0.998659, 417, 111, 480, 126
-0.998659, 1, 323, 64, 338
-0.998659, 25, 15, 88, 30
-0.99866, 337, 321, 400, 336
-0.99866, 217, 165, 280, 180
-0.998661, 97, 161, 160, 176
-0.998661, 9, 275, 72, 290
-0.998661, 1, 141, 64, 156
-0.998661, 353, 289, 416, 304
-0.998662, 1, 289, 64, 304
-0.998663, 25, 35, 88, 50
-0.998663, 57, 165, 120, 180
-0.998663, 305, 79, 368, 94
-0.998663, 233, 151, 296, 166
-0.998664, 49, 127, 112, 142
-0.998664, 225, 177, 288, 192
-0.998664, 305, 303, 368, 318
-0.998664, 81, 313, 144, 328
-0.998672, 353, 1, 480, 32
-0.998674, 209, 221, 336, 252
-0.998681, 257, 113, 384, 144
-0.998698, 233, 81, 264, 208
-0.998703, 129, 37, 256, 68
-0.998714, 233, 97, 264, 352
-0.998725, 289, 9, 416, 72
-0.998733, 169, 145, 200, 272
-0.998733, 193, 281, 320, 312
-0.998747, 177, 233, 304, 264
-0.998762, 65, 85, 192, 116
-0.998804, 449, 65, 480, 320
-0.998811, 81, 329, 208, 360
-0.998821, 101, 33, 132, 288
-0.998836, 433, 97, 464, 352
-0.998855, 177, 205, 304, 236
-0.998922, 47, 129, 62, 256
-0.998937, 41, 49, 56, 176
-0.998971, 47, 33, 62, 160
-0.998978, 51, 81, 66, 208
-0.998981, 49, 209, 64, 336
-0.998983, 277, 33, 292, 160
-0.998987, 149, 49, 180, 176
-0.99902, 89, 97, 104, 224
-0.999027, 221, 1, 252, 256
-0.999035, 7, 1, 22, 128
-0.999058, 287, 49, 302, 176
-0.999073, 17, 33, 32, 160
-0.999084, 299, 49, 314, 176
-0.999087, 27, 1, 42, 128
-0.999089, 79, 145, 94, 272
-0.999091, 1, 33, 16, 160
-0.999111, 41, 145, 56, 272
-0.999138, 7, 49, 22, 176
-0.999138, 57, 209, 72, 336
-0.99915, 373, 1, 404, 256
-0.999154, 275, 81, 290, 208
-0.999159, 93, 161, 108, 288
-0.999159, 21, 193, 36, 320
-0.999162, 169, 1, 232, 256
-0.999167, 161, 193, 192, 320
-0.999176, 177, 1, 240, 128
-0.999177, 205, 225, 236, 352
-0.999183, 385, 1, 416, 256
-0.999188, 1, 113, 16, 240
-0.999188, 313, 145, 328, 272
-0.999192, 33, 177, 48, 304
-0.999195, 65, 209, 80, 336
-0.999199, 85, 225, 100, 352
-0.999199, 73, 161, 88, 288
-0.999204, 35, 17, 50, 144
-0.999211, 7, 113, 22, 240
-0.999213, 433, 1, 448, 128
-0.999217, 13, 177, 28, 304
-0.999223, 325, 145, 340, 272
-0.999224, 305, 49, 320, 176
-0.999227, 293, 33, 308, 160
-0.999231, 321, 49, 336, 176
-0.999249, 39, 193, 54, 320
-0.999249, 315, 49, 330, 176
-0.999249, 363, 129, 378, 256
-0.999276, 129, 17, 160, 144
-0.999276, 293, 81, 308, 208
-0.99928, 277, 145, 292, 272
-0.999284, 115, 225, 130, 352
-0.999286, 67, 161, 82, 288
-0.999288, 447, 193, 462, 320
-0.999294, 309, 193, 324, 320
-0.999294, 281, 97, 296, 224
-0.999298, 117, 97, 148, 352
-0.999301, 75, 49, 90, 176
-0.999302, 243, 129, 258, 256
-0.99931, 373, 129, 388, 256
-0.999312, 441, 193, 456, 320
-0.999313, 393, 209, 408, 336
-0.999315, 271, 145, 286, 272
-0.999318, 315, 193, 330, 320
-0.999319, 427, 209, 442, 336
-0.999322, 79, 209, 94, 336
-0.999324, 327, 65, 342, 192
-0.999325, 73, 97, 88, 224
-0.999334, 443, 33, 458, 160
-0.999336, 97, 65, 112, 192
-0.999339, 215, 81, 230, 208
-0.999343, 27, 177, 42, 304
-0.999345, 85, 161, 100, 288
-0.999349, 101, 225, 116, 352
-0.999352, 83, 97, 98, 224
-0.99936, 453, 225, 468, 352
-0.999363, 41, 1, 56, 128
-0.999364, 357, 129, 372, 256
-0.999366, 57, 161, 72, 288
-0.999368, 209, 129, 224, 256
-0.999373, 287, 97, 302, 224
-0.999382, 91, 225, 106, 352
-0.999384, 17, 129, 32, 256
-0.999391, 455, 1, 470, 128
-0.9994, 305, 97, 320, 224
-0.999406, 303, 209, 318, 336
-0.999407, 411, 209, 426, 336
-0.999409, 321, 97, 336, 224
-0.999409, 383, 129, 398, 256
-0.999409, 435, 225, 450, 352
-0.999411, 115, 145, 130, 272
-0.999412, 425, 33, 440, 160
-0.999414, 461, 193, 476, 320
-0.999418, 421, 209, 436, 336
-0.99942, 221, 113, 236, 240
-0.99942, 401, 209, 416, 336
-0.999427, 267, 65, 282, 192
-0.999427, 215, 145, 230, 272
-0.999428, 331, 129, 346, 256
-0.999428, 7, 161, 22, 288
-0.999437, 87, 49, 102, 176
-0.999437, 73, 209, 88, 336
-0.999446, 249, 145, 264, 272
-0.99945, 431, 65, 446, 192
-0.999451, 233, 129, 248, 256
-0.999451, 449, 1, 464, 128
-0.999452, 127, 129, 142, 256
-0.999453, 337, 225, 352, 352
-0.999454, 291, 225, 306, 352
-0.999456, 349, 129, 364, 256
-0.999456, 109, 225, 124, 352
-0.999465, 385, 209, 400, 336
-0.999466, 321, 193, 336, 320
-0.999467, 121, 225, 136, 352
-0.999467, 97, 113, 112, 240
-0.999467, 389, 1, 404, 128
-0.999478, 13, 81, 28, 208
-0.999484, 355, 193, 370, 320
-0.999486, 227, 129, 242, 256
-0.999486, 379, 209, 394, 336
-0.999486, 299, 145, 314, 272
-0.999488, 435, 177, 450, 304
-0.999495, 99, 161, 114, 288
-0.999498, 121, 17, 184, 144
-0.999498, 139, 129, 154, 256
-0.999498, 29, 49, 44, 176
-0.999502, 319, 145, 334, 272
-0.99951, 425, 97, 440, 224
-0.99951, 331, 209, 346, 336
-0.999513, 107, 145, 122, 272
-0.999514, 209, 65, 224, 192
-0.999516, 361, 193, 376, 320
-0.999519, 349, 225, 364, 352
-0.999521, 57, 81, 72, 208
-0.999525, 333, 49, 348, 176
-0.999527, 23, 49, 38, 176
-0.999528, 129, 1, 160, 256
-0.999529, 247, 1, 262, 128
-0.99953, 437, 65, 452, 192
-0.999533, 465, 1, 480, 128
-0.999534, 391, 129, 406, 256
-0.999539, 367, 193, 382, 320
-0.999539, 279, 303, 294, 318
-0.99954, 37, 199, 52, 214
-0.99954, 275, 109, 290, 124
-0.99954, 311, 97, 326, 224
-0.99954, 11, 185, 26, 200
-0.99954, 315, 219, 330, 234
-0.99954, 397, 289, 412, 304
-0.999541, 47, 147, 62, 162
-0.999541, 75, 57, 90, 72
-0.999541, 61, 213, 76, 228
-0.999541, 269, 305, 284, 320
-0.999541, 33, 57, 48, 72
-0.999542, 9, 169, 24, 184
-0.999543, 125, 179, 140, 194
-0.999543, 91, 161, 106, 176
-0.999543, 273, 89, 288, 104
-0.999544, 323, 207, 338, 222
-0.999544, 85, 241, 100, 256
-0.999544, 29, 285, 44, 300
-0.999544, 23, 129, 38, 256
-0.999544, 281, 209, 296, 336
-0.999544, 323, 291, 338, 306
-0.999544, 297, 277, 312, 292
-0.999545, 43, 45, 58, 60
-0.999545, 319, 109, 334, 124
-0.999546, 47, 153, 62, 168
-0.999546, 45, 201, 60, 216
-0.999547, 63, 93, 78, 108
-0.999547, 305, 213, 320, 228
-0.999547, 405, 261, 420, 276
-0.999547, 269, 115, 284, 130
-0.999547, 45, 51, 60, 66
-0.999548, 349, 295, 364, 310
-0.999548, 315, 193, 330, 208
-0.999549, 275, 55, 290, 70
-0.999549, 439, 65, 454, 80
-0.999549, 173, 173, 188, 188
-0.999549, 53, 227, 68, 242
-0.999549, 343, 295, 358, 310
-0.99955, 433, 83, 448, 98
-0.99955, 21, 203, 36, 218
-0.99955, 19, 309, 34, 324
-0.999551, 231, 185, 246, 200
-0.999551, 25, 49, 40, 64
-0.999551, 217, 143, 232, 158
-0.999551, 3, 81, 18, 96
-0.999552, 401, 283, 416, 298
-0.999552, 89, 103, 104, 118
-0.999553, 439, 261, 454, 276
-0.999553, 85, 161, 100, 176
-0.999553, 53, 263, 68, 278
-0.999554, 439, 267, 454, 282
-0.999554, 317, 201, 332, 216
-0.999554, 1, 265, 16, 280
-0.999555, 49, 135, 64, 150
-0.999557, 47, 141, 62, 156
-0.999558, 59, 247, 74, 262
-0.999558, 87, 253, 102, 268
-0.999558, 37, 207, 52, 222
-0.999559, 343, 339, 358, 354
-0.999559, 47, 247, 62, 262
-0.99956, 275, 69, 290, 84
-0.99956, 45, 227, 60, 242
-0.99956, 11, 163, 26, 178
-0.999561, 283, 123, 298, 138
-0.999562, 49, 129, 64, 144
-0.999562, 43, 75, 58, 90
-0.999562, 117, 241, 132, 256
-0.999563, 15, 261, 30, 276
-0.999563, 209, 149, 224, 164
-0.999564, 31, 307, 46, 322
-0.999565, 17, 317, 32, 332
-0.999565, 51, 97, 66, 112
-0.999566, 71, 237, 86, 252
-0.999567, 43, 207, 58, 222
-0.999568, 403, 289, 418, 304
-0.999569, 101, 255, 116, 270
-0.999569, 7, 63, 22, 78
-0.999569, 337, 325, 352, 340
-0.99957, 123, 237, 138, 252
-0.99957, 5, 147, 20, 162
-0.999573, 67, 249, 82, 264
-0.999573, 59, 265, 74, 280
-0.999574, 369, 297, 384, 312
-0.999575, 447, 75, 462, 90
-0.999575, 49, 123, 64, 138
-0.999575, 335, 319, 350, 334
-0.999577, 341, 331, 356, 346
-0.999577, 283, 97, 298, 112
-0.999579, 67, 263, 82, 278
-0.999581, 69, 257, 84, 272
-0.999581, 287, 103, 302, 118
-0.999581, 37, 289, 52, 304
-0.999581, 29, 315, 44, 330
-0.999582, 61, 101, 76, 116
-0.999584, 59, 259, 74, 274
-0.999585, 91, 167, 106, 182
-0.999586, 57, 219, 72, 234
-0.999586, 29, 43, 44, 58
-0.999587, 51, 117, 66, 132
-0.99959, 123, 245, 138, 260
-0.99959, 107, 249, 122, 264
-0.99959, 93, 249, 108, 264
-0.999591, 5, 35, 20, 50
-0.999591, 19, 47, 34, 62
-0.999592, 317, 207, 332, 222
-0.999593, 3, 273, 18, 288
-0.999594, 327, 201, 342, 216
-0.999595, 11, 271, 26, 286
-0.999597, 219, 149, 234, 164
-0.999598, 25, 309, 40, 324
-0.999598, 51, 105, 66, 120
-0.999598, 79, 231, 94, 246
-0.999599, 33, 51, 48, 66
-0.9996, 149, 65, 180, 320
-0.999608, 51, 111, 66, 126
-0.999609, 17, 269, 32, 284
-0.999609, 443, 81, 458, 96
-0.99961, 279, 115, 294, 130
-0.99961, 5, 49, 20, 64
-0.99961, 81, 253, 96, 268
-0.999612, 35, 67, 50, 82
-0.999613, 67, 217, 82, 232
-0.999613, 333, 313, 348, 328
-0.99962, 23, 315, 38, 330
-0.999624, 39, 51, 54, 66
-0.999624, 85, 247, 100, 262
-0.999625, 289, 273, 304, 288
-0.99963, 77, 247, 92, 262
-0.999639, 117, 247, 132, 262
-0.999646, 205, 1, 236, 128
-0.999648, 313, 213, 328, 228
-0.999658, 185, 97, 216, 352
-0.999675, 79, 237, 94, 252
-0.999689, 53, 91, 68, 106
-0.999698, 237, 1, 268, 256
-0.999757, 113, 1, 144, 256
-0.999762, 59, 253, 74, 268
-0.999769, 345, 81, 376, 208
-0.999772, 369, 81, 400, 208
-0.99979, 161, 97, 192, 352
-0.999924, 345, 1, 376, 256
-0.999945, 133, 97, 164, 352
-0.999962, 381, 81, 412, 208
-1.00005, 153, 49, 216, 176
-1.00018, 173, 97, 204, 352
-1.00021, 361, 1, 392, 256
-1.00035, 181, 1, 212, 256
-1.00054, 397, 1, 428, 256
-1.00056, 161, 1, 192, 256
-1.00072, 193, 1, 224, 256
-1.00072, 181, 145, 212, 272
-1.00078, 229, 225, 260, 352
-1.00085, 193, 209, 224, 336
-1.00104, 241, 9, 368, 72
-1.00603, 153, 1, 216, 128
