1876
-0.376496, 1, 1, 256, 333
-0.413869, 193, 1, 448, 333
-0.417841, 1, 1, 500, 333
-0.45268, 1, 1, 500, 256
-0.542612, 97, 1, 352, 333
-0.570291, 1, 1, 256, 256
-0.650068, 193, 33, 448, 288
-0.741583, 97, 1, 352, 256
-0.848652, 321, 1, 448, 333
-0.852272, 81, 33, 208, 288
-0.856956, 1, 1, 128, 333
-0.860028, 241, 1, 368, 333
-0.864033, 1, 1, 128, 256
-0.866227, 49, 1, 176, 333
-0.868281, 337, 33, 464, 288
-0.870923, 129, 33, 256, 288
-0.87367, 129, 1, 256, 333
-0.883164, 289, 33, 416, 288
-0.883204, 177, 1, 304, 333
-0.896226, 369, 1, 496, 333
-0.899706, 209, 1, 336, 256
-0.906293, 1, 33, 256, 160
-0.916272, 1, 65, 500, 192
-0.916657, 1, 129, 500, 256
-0.920352, 81, 33, 208, 160
-0.923832, 193, 81, 448, 208
-0.924085, 121, 17, 184, 144
-0.924959, 225, 129, 480, 256
-0.928998, 1, 17, 500, 144
-0.929918, 17, 65, 144, 192
-0.932456, 161, 1, 416, 128
-0.934365, 1, 209, 500, 333
-0.934452, 321, 65, 448, 192
-0.935615, 345, 49, 408, 176
-0.93598, 1, 129, 256, 256
-0.937739, 161, 97, 288, 224
-0.939421, 81, 81, 208, 208
-0.940617, 65, 81, 320, 208
-0.940636, 17, 17, 144, 144
-0.940761, 329, 97, 392, 224
-0.940939, 129, 177, 384, 304
-0.940967, 9, 17, 72, 144
-0.941305, 153, 49, 216, 176
-0.942415, 217, 81, 280, 208
-0.942751, 97, 1, 160, 128
-0.943925, 241, 129, 368, 256
-0.943995, 97, 49, 160, 176
-0.944713, 425, 113, 488, 240
-0.94598, 137, 113, 200, 240
-0.946287, 273, 1, 400, 128
-0.946383, 129, 33, 256, 160
-0.947776, 97, 129, 352, 256
-0.947816, 81, 129, 208, 256
-0.948314, 169, 73, 232, 136
-0.948484, 257, 1, 500, 128
-0.949045, 9, 81, 72, 208
-0.949238, 273, 81, 400, 208
-0.949253, 121, 65, 184, 192
-0.950023, 177, 97, 240, 224
-0.950082, 121, 49, 184, 112
-0.950123, 73, 1, 136, 128
-0.950197, 33, 33, 96, 160
-0.950298, 353, 97, 416, 224
-0.950657, 121, 25, 184, 88
-0.950908, 369, 33, 496, 160
-0.952192, 233, 129, 296, 256
-0.952384, 225, 49, 352, 176
-0.952576, 369, 81, 496, 208
-0.952876, 305, 145, 432, 272
-0.953132, 177, 145, 240, 272
-0.953233, 121, 73, 184, 136
-0.953799, 113, 129, 176, 256
-0.95412, 345, 57, 408, 120
-0.954273, 321, 145, 384, 272
-0.954506, 345, 81, 408, 144
-0.955099, 73, 65, 136, 192
-0.955385, 353, 1, 416, 128
-0.955419, 433, 145, 496, 208
-0.955434, 305, 65, 368, 192
-0.955871, 185, 185, 248, 248
-0.956216, 257, 177, 500, 304
-0.956223, 201, 129, 264, 256
-0.95631, 217, 89, 280, 152
-0.956363, 9, 33, 72, 96
-0.956374, 289, 129, 352, 256
-0.956531, 177, 33, 240, 160
-0.956591, 313, 1, 376, 128
-0.956877, 113, 1, 176, 64
-0.957284, 241, 81, 304, 208
-0.957314, 345, 145, 408, 208
-0.957652, 17, 113, 144, 240
-0.957786, 369, 129, 496, 256
-0.958035, 321, 17, 448, 144
-0.958211, 145, 41, 208, 104
-0.958699, 345, 113, 408, 176
-0.959265, 433, 161, 496, 288
-0.959491, 409, 49, 472, 176
-0.959535, 345, 145, 408, 272
-0.959985, 305, 73, 368, 136
-0.96007, 97, 25, 160, 88
-0.960316, 161, 177, 224, 240
-0.960347, 161, 145, 288, 272
-0.960703, 377, 41, 440, 104
-0.961398, 25, 65, 88, 128
-0.961587, 97, 49, 160, 112
-0.961971, 369, 193, 496, 320
-0.961973, 153, 161, 216, 288
-0.962023, 425, 97, 488, 160
-0.962855, 153, 113, 216, 176
-0.963034, 385, 81, 448, 208
-0.963909, 73, 17, 136, 80
-0.963915, 209, 177, 336, 304
-0.964455, 329, 193, 392, 320
-0.96473, 145, 1, 208, 64
-0.964767, 109, 65, 140, 192
-0.964828, 49, 81, 112, 208
-0.965343, 145, 65, 208, 128
-0.965348, 321, 105, 384, 168
-0.965486, 201, 177, 264, 304
-0.965489, 153, 1, 216, 128
-0.965587, 65, 41, 128, 104
-0.965598, 337, 33, 400, 288
-0.9656, 329, 193, 392, 256
-0.965837, 425, 121, 488, 184
-0.966037, 217, 33, 280, 160
-0.966065, 81, 49, 208, 112
-0.966431, 257, 161, 320, 288
-0.966479, 121, 1, 184, 256
-0.966515, 33, 33, 96, 96
-0.966746, 385, 1, 448, 128
-0.96678, 161, 153, 224, 216
-0.966843, 129, 1, 160, 128
-0.967062, 425, 177, 488, 240
-0.967237, 345, 33, 408, 96
-0.967579, 161, 193, 288, 320
-0.9676, 281, 65, 344, 192
-0.967628, 145, 89, 208, 152
-0.967724, 217, 193, 280, 256
-0.96786, 249, 177, 312, 240
-0.967918, 73, 65, 136, 128
-0.968107, 33, 177, 288, 304
-0.96815, 193, 81, 256, 144
-0.968166, 121, 25, 152, 88
-0.968448, 33, 129, 96, 192
-0.968617, 461, 97, 492, 160
-0.968849, 361, 9, 424, 72
-0.968879, 169, 49, 232, 112
-0.968997, 161, 49, 192, 176
-0.969028, 121, 97, 184, 160
-0.969135, 141, 17, 172, 80
-0.969158, 313, 17, 376, 80
-0.969337, 65, 25, 192, 88
-0.969467, 385, 129, 448, 192
-0.96982, 89, 113, 152, 240
-0.96997, 225, 177, 288, 304
-0.9701, 129, 49, 160, 176
-0.970126, 17, 105, 144, 168
-0.970134, 17, 73, 144, 136
-0.970153, 385, 1, 448, 64
-0.970228, 305, 161, 368, 224
-0.970275, 109, 41, 140, 104
-0.970289, 337, 9, 400, 72
-0.970432, 201, 161, 264, 224
-0.970483, 369, 161, 432, 288
-0.970581, 17, 1, 80, 256
-0.971014, 97, 1, 160, 256
-0.971038, 321, 129, 384, 192
-0.971128, 345, 169, 408, 232
-0.971245, 369, 97, 432, 160
-0.971437, 121, 129, 184, 192
-0.971453, 33, 129, 96, 256
-0.971504, 97, 121, 224, 184
-0.971547, 141, 1, 172, 128
-0.971684, 321, 193, 448, 320
-0.971842, 369, 65, 432, 128
-0.971956, 401, 177, 464, 240
-0.972142, 321, 49, 384, 112
-0.972186, 81, 81, 208, 144
-0.972259, 457, 113, 488, 240
-0.972269, 129, 73, 256, 136
-0.972319, 1, 145, 64, 208
-0.97244, 113, 17, 144, 144
-0.972468, 393, 161, 456, 288
-0.972488, 109, 65, 140, 128
-0.972536, 257, 33, 320, 160
-0.97255, 353, 49, 384, 112
-0.972567, 109, 89, 140, 152
-0.972599, 17, 105, 80, 168
-0.97278, 225, 1, 352, 128
-0.972796, 273, 193, 400, 320
-0.972819, 409, 25, 472, 88
-0.972902, 433, 49, 496, 176
-0.972945, 161, 73, 192, 136
-0.972947, 17, 41, 144, 104
-0.973205, 57, 89, 120, 152
-0.973237, 81, 89, 144, 152
-0.973291, 217, 65, 280, 128
-0.97331, 409, 1, 472, 128
-0.973466, 353, 81, 384, 208
-0.973515, 321, 73, 448, 136
-0.973521, 109, 113, 140, 176
-0.973527, 241, 97, 304, 160
-0.973577, 73, 1, 136, 256
-0.973851, 177, 33, 240, 288
-0.974002, 425, 57, 488, 120
-0.974033, 17, 129, 144, 192
-0.974038, 9, 129, 72, 256
-0.974069, 13, 25, 44, 88
-0.974145, 57, 121, 120, 184
-0.974155, 177, 105, 240, 168
-0.974201, 113, 177, 240, 304
-0.974247, 385, 153, 448, 216
-0.974287, 297, 97, 360, 160
-0.974378, 157, 49, 188, 112
-0.974413, 193, 57, 256, 120
-0.974587, 97, 113, 160, 176
-0.974762, 1, 1, 32, 128
-0.974842, 457, 121, 488, 184
-0.974862, 241, 129, 304, 192
-0.974902, 33, 17, 64, 144
-0.975009, 341, 65, 372, 192
-0.975028, 225, 65, 256, 192
-0.97522, 297, 137, 360, 200
-0.975292, 129, 97, 256, 160
-0.975314, 425, 209, 488, 333
-0.975351, 289, 1, 352, 128
-0.975473, 177, 49, 304, 176
-0.975474, 141, 49, 172, 112
-0.97557, 469, 81, 500, 208
-0.975673, 153, 33, 216, 288
-0.975675, 13, 1, 44, 128
-0.97572, 289, 209, 352, 333
-0.975761, 341, 145, 372, 272
-0.975806, 177, 193, 240, 320
-0.975886, 305, 201, 368, 264
-0.9759, 353, 33, 384, 160
-0.975915, 229, 89, 260, 152
-0.975958, 469, 121, 500, 184
-0.976034, 81, 145, 208, 208
-0.976035, 369, 113, 496, 176
-0.976106, 453, 145, 484, 208
-0.976186, 273, 1, 336, 64
-0.9762, 13, 81, 44, 208
-0.976207, 217, 121, 280, 184
-0.97621, 265, 113, 296, 240
-0.976398, 393, 73, 456, 136
-0.976442, 225, 113, 256, 240
-0.976462, 217, 81, 248, 144
-0.976602, 289, 113, 416, 176
-0.976615, 265, 81, 328, 144
-0.977029, 433, 9, 496, 72
-0.977057, 433, 209, 496, 272
-0.977159, 129, 49, 160, 112
-0.977269, 369, 49, 400, 176
-0.977382, 345, 161, 376, 224
-0.977425, 177, 129, 240, 192
-0.977606, 1, 1, 32, 64
-0.977764, 225, 185, 256, 248
-0.977769, 145, 129, 272, 192
-0.978006, 353, 113, 384, 176
-0.978128, 373, 17, 404, 80
-0.978259, 1, 49, 32, 176
-0.978263, 201, 33, 264, 288
-0.978309, 369, 25, 496, 88
-0.978309, 369, 137, 496, 200
-0.978346, 209, 177, 240, 240
-0.978391, 129, 49, 256, 112
-0.978561, 401, 209, 464, 333
-0.978576, 109, 113, 140, 240
-0.978634, 9, 129, 40, 192
-0.97864, 225, 169, 288, 232
-0.978673, 161, 97, 192, 160
-0.978737, 141, 49, 172, 176
-0.978761, 245, 129, 276, 256
-0.978763, 153, 1, 184, 128
-0.978827, 1, 57, 64, 120
-0.97905, 365, 41, 396, 104
-0.979075, 433, 1, 496, 256
-0.979186, 101, 1, 132, 128
-0.979285, 289, 17, 416, 80
-0.979493, 33, 1, 160, 64
-0.979521, 9, 9, 72, 72
-0.979535, 189, 177, 220, 240
-0.97954, 341, 65, 372, 128
-0.97963, 433, 1, 496, 128
-0.979672, 57, 129, 120, 256
-0.979692, 225, 89, 352, 152
-0.979702, 25, 153, 88, 216
-0.979712, 113, 25, 240, 88
-0.97987, 213, 57, 244, 120
-0.979917, 49, 65, 112, 128
-0.979919, 345, 1, 408, 333
-0.979985, 61, 33, 92, 96
-0.980105, 241, 89, 272, 152
-0.980106, 265, 113, 328, 240
-0.980133, 273, 57, 400, 120
-0.980159, 249, 81, 280, 208
-0.980215, 161, 145, 192, 272
-0.980359, 153, 25, 184, 88
-0.980392, 145, 185, 272, 248
-0.980398, 361, 217, 424, 280
-0.980424, 225, 113, 352, 176
-0.980425, 321, 49, 448, 112
-0.980631, 409, 145, 472, 208
-0.98065, 33, 57, 64, 120
-0.980681, 121, 153, 184, 216
-0.98072, 305, 65, 368, 320
-0.980743, 181, 73, 212, 136
-0.980754, 297, 49, 360, 112
-0.980817, 365, 1, 396, 128
-0.980994, 465, 145, 496, 208
-0.981052, 193, 65, 224, 128
-0.981074, 109, 1, 140, 64
-0.981124, 1, 65, 32, 128
-0.981141, 337, 129, 368, 192
-0.981217, 145, 161, 272, 224
-0.981305, 121, 1, 184, 333
-0.981321, 61, 49, 92, 176
-0.981325, 185, 153, 216, 216
-0.98133, 89, 145, 152, 208
-0.98137, 409, 1, 472, 64
-0.981409, 465, 161, 496, 288
-0.981428, 289, 137, 416, 200
-0.981436, 129, 193, 192, 256
-0.981458, 41, 33, 72, 96
-0.981501, 57, 153, 120, 216
-0.98151, 1, 89, 32, 152
-0.981559, 257, 57, 320, 120
-0.981582, 97, 65, 128, 192
-0.981614, 381, 65, 412, 128
-0.981687, 1, 81, 64, 144
-0.981721, 381, 17, 412, 144
-0.981821, 169, 49, 200, 112
-0.981836, 329, 81, 360, 208
-0.981843, 393, 97, 456, 160
-0.981865, 241, 137, 368, 200
-0.981873, 141, 129, 172, 256
-0.982009, 353, 81, 384, 144
-0.982026, 173, 129, 204, 256
-0.982056, 13, 1, 44, 64
-0.982117, 233, 33, 296, 288
-0.982146, 1, 41, 32, 104
-0.982246, 353, 129, 384, 256
-0.982246, 185, 145, 216, 272
-0.98227, 353, 193, 416, 256
-0.982301, 297, 1, 360, 333
-0.982328, 25, 1, 88, 333
-0.98234, 445, 97, 476, 224
-0.982365, 109, 137, 140, 200
-0.982442, 441, 121, 472, 184
-0.982501, 369, 217, 496, 280
-0.982561, 49, 81, 80, 208
-0.982592, 377, 1, 440, 256
-0.982605, 45, 33, 76, 160
-0.982613, 273, 105, 336, 168
-0.982616, 409, 217, 472, 280
-0.982624, 13, 65, 44, 128
-0.982727, 241, 201, 304, 264
-0.982729, 237, 185, 268, 248
-0.982733, 213, 97, 244, 224
-0.982763, 41, 33, 104, 288
-0.98277, 369, 49, 496, 112
-0.982814, 321, 1, 384, 333
-0.982834, 161, 97, 192, 224
-0.982962, 385, 201, 448, 264
-0.982988, 345, 185, 376, 248
-0.983037, 157, 1, 188, 64
-0.983043, 225, 177, 352, 240
-0.983066, 337, 1, 464, 64
-0.983203, 233, 65, 264, 128
-0.983223, 233, 1, 296, 64
-0.983245, 229, 177, 260, 304
-0.983257, 369, 73, 496, 136
-0.983375, 45, 65, 76, 128
-0.98339, 57, 65, 88, 128
-0.983426, 13, 89, 44, 152
-0.983436, 321, 129, 352, 256
-0.983441, 169, 1, 232, 64
-0.983475, 273, 89, 400, 152
-0.983526, 421, 17, 452, 80
-0.983569, 241, 9, 368, 72
-0.983581, 333, 185, 364, 248
-0.983581, 177, 105, 304, 168
-0.983601, 353, 137, 384, 200
-0.983633, 365, 97, 396, 224
-0.983659, 97, 129, 128, 192
-0.983687, 361, 17, 392, 80
-0.983698, 97, 1, 160, 333
-0.983705, 37, 129, 68, 192
-0.983712, 237, 65, 268, 192
-0.983783, 333, 153, 364, 216
-0.983791, 33, 65, 64, 192
-0.983813, 321, 1, 352, 128
-0.98385, 125, 113, 156, 240
-0.983885, 29, 33, 60, 96
-0.983895, 173, 169, 204, 232
-0.983896, 265, 65, 296, 192
-0.983902, 21, 129, 52, 192
-0.983915, 417, 1, 480, 333
-0.983934, 181, 81, 212, 208
-0.983947, 229, 121, 260, 184
-0.983964, 261, 105, 292, 168
-0.984044, 145, 1, 208, 333
-0.98405, 441, 145, 472, 208
-0.984078, 337, 193, 464, 256
-0.98408, 265, 1, 328, 256
-0.984156, 325, 121, 356, 184
-0.984184, 289, 161, 416, 224
-0.984295, 333, 89, 364, 152
-0.984305, 281, 177, 344, 240
-0.984307, 437, 49, 468, 176
-0.984314, 357, 161, 388, 224
-0.98444, 365, 81, 396, 144
-0.984447, 173, 17, 204, 144
-0.984505, 409, 33, 472, 288
-0.984573, 129, 1, 160, 64
-0.984755, 317, 9, 348, 72
-0.984759, 373, 129, 404, 192
-0.984773, 369, 145, 400, 272
-0.98478, 129, 73, 160, 136
-0.984798, 277, 81, 308, 208
-0.984831, 201, 1, 264, 333
-0.984858, 177, 65, 304, 128
-0.984925, 385, 1, 448, 333
-0.98504, 205, 145, 236, 272
-0.985063, 17, 153, 144, 216
-0.985115, 265, 217, 328, 280
-0.985204, 1, 97, 32, 224
-0.985278, 209, 201, 336, 264
-0.985294, 381, 97, 412, 160
-0.985441, 433, 33, 496, 96
-0.985491, 281, 145, 312, 272
-0.985572, 193, 209, 256, 272
-0.985602, 241, 177, 272, 304
-0.985612, 193, 137, 320, 200
-0.985661, 381, 65, 412, 192
-0.985666, 253, 81, 284, 144
-0.985852, 217, 105, 248, 168
-0.985917, 97, 9, 128, 72
-0.985955, 429, 185, 460, 248
-0.985956, 257, 1, 320, 333
-0.986056, 449, 97, 480, 160
-0.986099, 205, 49, 236, 176
-0.986123, 289, 193, 416, 256
-0.98616, 401, 1, 432, 64
-0.98624, 205, 81, 236, 144
-0.986279, 337, 169, 464, 232
-0.986291, 377, 177, 440, 240
-0.986338, 225, 57, 352, 120
-0.986367, 57, 89, 88, 152
-0.986386, 249, 113, 280, 176
-0.986407, 305, 217, 432, 280
-0.986412, 337, 1, 368, 128
-0.986431, 141, 73, 172, 136
-0.986523, 57, 129, 88, 192
-0.986525, 193, 1, 256, 64
-0.986545, 129, 1, 256, 64
-0.986603, 169, 137, 200, 200
-0.986617, 73, 1, 136, 333
-0.986659, 305, 1, 336, 128
-0.986744, 461, 25, 492, 88
-0.986775, 129, 177, 192, 304
-0.986784, 97, 113, 128, 240
-0.986793, 289, 25, 352, 88
-0.9868, 385, 17, 416, 80
-0.986808, 377, 41, 408, 104
-0.986887, 345, 17, 376, 80
-0.986905, 81, 1, 208, 64
-0.986917, 469, 33, 500, 160
-0.986934, 201, 153, 232, 216
-0.986948, 421, 41, 452, 104
-0.986965, 181, 49, 212, 112
-0.986988, 177, 1, 240, 333
-0.987019, 225, 1, 288, 333
-0.987051, 469, 177, 500, 240
-0.98706, 1, 1, 64, 333
-0.987123, 209, 1, 240, 128
-0.987181, 169, 25, 232, 88
-0.987405, 129, 105, 160, 168
-0.987546, 121, 33, 184, 64
-0.987617, 49, 1, 112, 333
-0.987639, 293, 81, 324, 144
-0.987693, 457, 65, 488, 192
-0.987981, 353, 209, 416, 333
-0.988004, 313, 81, 344, 144
-0.988035, 29, 105, 60, 168
-0.988042, 261, 161, 292, 288
-0.98805, 293, 1, 324, 128
-0.988174, 249, 33, 280, 160
-0.988204, 97, 193, 224, 256
-0.98825, 325, 193, 356, 320
-0.988371, 157, 185, 188, 248
-0.988374, 33, 161, 160, 288
-0.988393, 45, 105, 76, 168
-0.988435, 457, 73, 488, 136
-0.988472, 157, 153, 188, 216
-0.988506, 173, 177, 204, 304
-0.988515, 177, 77, 240, 108
-0.988534, 425, 257, 488, 320
-0.988578, 337, 217, 400, 280
-0.988593, 193, 1, 320, 64
-0.988612, 185, 185, 248, 216
-0.988634, 281, 177, 312, 240
-0.988644, 93, 41, 124, 104
-0.98867, 309, 65, 340, 192
-0.988678, 313, 121, 344, 184
-0.988697, 249, 153, 312, 216
-0.9887, 273, 129, 336, 192
-0.988752, 305, 1, 336, 64
-0.988788, 113, 21, 176, 52
-0.988802, 369, 161, 400, 224
-0.988817, 97, 105, 128, 168
-0.988874, 61, 113, 92, 240
-0.9889, 129, 49, 192, 80
-0.988901, 341, 193, 372, 320
-0.988922, 357, 185, 388, 248
-0.988934, 217, 41, 280, 104
-0.988944, 153, 173, 216, 204
-0.988955, 345, 57, 408, 88
-0.988963, 425, 1, 456, 128
-0.988988, 293, 129, 324, 256
-0.989107, 1, 33, 256, 96
-0.989125, 229, 209, 260, 272
-0.989126, 153, 209, 216, 333
-0.989137, 161, 209, 288, 272
-0.989156, 97, 65, 128, 128
-0.98916, 437, 89, 468, 152
-0.989173, 121, 77, 184, 108
-0.98921, 249, 177, 280, 240
-0.98923, 453, 161, 484, 288
-0.989262, 381, 113, 412, 240
-0.989309, 153, 73, 216, 104
-0.98932, 33, 113, 64, 240
-0.989388, 289, 225, 352, 288
-0.989444, 201, 197, 264, 228
-0.989502, 433, 169, 496, 200
-0.98955, 409, 25, 440, 88
-0.989554, 397, 105, 428, 168
-0.989577, 241, 225, 368, 288
-0.989591, 153, 189, 216, 220
-0.989609, 97, 37, 160, 68
-0.989614, 469, 73, 500, 136
-0.989625, 345, 149, 408, 180
-0.989626, 265, 81, 296, 144
-0.989628, 449, 169, 480, 232
-0.989646, 353, 97, 416, 128
-0.98965, 337, 73, 400, 104
-0.989655, 193, 81, 224, 208
-0.9897, 377, 209, 440, 333
-0.989711, 105, 49, 168, 80
-0.989711, 393, 1, 424, 128
-0.989727, 449, 17, 480, 144
-0.989728, 153, 89, 216, 120
-0.989762, 121, 89, 184, 120
-0.989771, 425, 121, 488, 152
-0.98978, 329, 89, 392, 120
-0.98978, 345, 117, 408, 148
-0.989781, 217, 93, 280, 124
-0.98979, 141, 113, 172, 176
-0.989854, 121, 101, 184, 132
-0.989879, 29, 81, 60, 144
-0.989887, 401, 49, 464, 112
-0.989898, 329, 129, 392, 160
-0.989903, 145, 133, 208, 164
-0.989935, 217, 217, 280, 280
-0.989954, 433, 25, 464, 88
-0.989977, 157, 129, 188, 192
-0.989983, 417, 133, 480, 164
-0.989988, 81, 169, 208, 232
-0.989993, 289, 81, 320, 208
-0.989998, 29, 153, 60, 216
-0.990003, 297, 81, 360, 112
-0.990005, 9, 33, 72, 64
-0.990021, 385, 225, 448, 288
-0.990027, 9, 61, 72, 92
-0.990028, 129, 61, 192, 92
-0.990044, 1, 141, 64, 172
-0.990055, 425, 157, 488, 188
-0.990095, 417, 185, 448, 248
-0.990108, 241, 185, 304, 216
-0.990117, 97, 61, 160, 92
-0.990125, 469, 209, 500, 333
-0.990179, 193, 193, 224, 320
-0.990196, 241, 33, 368, 96
-0.990203, 329, 101, 392, 132
-0.990213, 241, 113, 304, 144
-0.990225, 353, 241, 480, 304
-0.990269, 73, 41, 136, 72
-0.990279, 153, 109, 216, 140
-0.990297, 113, 145, 176, 176
-0.990302, 105, 9, 168, 40
-0.990342, 381, 161, 412, 288
-0.990346, 425, 181, 488, 212
-0.990373, 217, 177, 280, 208
-0.9904, 425, 101, 488, 132
-0.990406, 353, 85, 416, 116
-0.990407, 81, 21, 144, 52
-0.990407, 225, 197, 288, 228
-0.990408, 73, 65, 136, 96
-0.990424, 89, 1, 120, 128
-0.990426, 241, 125, 304, 156
-0.99045, 217, 121, 280, 152
-0.990476, 273, 9, 336, 40
-0.990499, 25, 137, 88, 168
-0.990566, 145, 33, 208, 64
-0.99057, 321, 17, 384, 48
-0.990629, 177, 89, 240, 120
-0.99063, 369, 117, 432, 148
-0.990643, 257, 173, 320, 204
-0.990663, 401, 33, 464, 64
-0.990666, 9, 45, 72, 76
-0.990666, 177, 197, 240, 228
-0.990689, 217, 109, 280, 140
-0.990715, 13, 129, 44, 256
-0.990773, 377, 25, 440, 56
-0.990784, 421, 193, 452, 320
-0.990812, 9, 73, 72, 104
-0.990827, 225, 97, 480, 160
-0.99083, 177, 109, 240, 140
-0.990875, 129, 189, 192, 220
-0.990883, 297, 17, 360, 48
-0.990892, 217, 81, 280, 112
-0.9909, 81, 81, 144, 112
-0.990903, 297, 97, 360, 128
-0.99091, 321, 145, 384, 176
-0.990913, 153, 53, 216, 84
-0.990925, 385, 133, 448, 164
-0.990946, 353, 193, 384, 320
-0.990954, 153, 121, 216, 152
-0.99096, 433, 257, 496, 288
-0.990961, 137, 21, 200, 52
-0.990973, 1, 57, 256, 120
-0.990979, 9, 93, 72, 124
-0.991006, 249, 209, 312, 333
-0.99103, 385, 169, 448, 200
-0.991057, 257, 93, 320, 124
-0.991059, 33, 41, 96, 72
-0.991063, 9, 109, 72, 140
-0.991074, 345, 17, 408, 48
-0.991074, 121, 129, 184, 160
-0.991089, 305, 133, 368, 164
-0.991114, 297, 65, 360, 96
-0.991116, 425, 145, 488, 176
-0.991119, 337, 189, 400, 220
-0.991136, 185, 33, 216, 160
-0.99114, 385, 97, 448, 128
-0.991153, 385, 65, 448, 96
-0.991166, 89, 141, 152, 172
-0.991192, 9, 121, 72, 152
-0.991227, 113, 113, 176, 144
-0.991234, 177, 125, 240, 156
-0.991235, 33, 9, 96, 72
-0.991238, 129, 9, 192, 40
-0.991239, 177, 173, 240, 204
-0.991261, 81, 93, 144, 124
-0.991273, 385, 77, 448, 108
-0.991294, 401, 181, 464, 212
-0.991296, 57, 77, 120, 108
-0.991301, 81, 109, 144, 140
-0.991344, 321, 117, 384, 148
-0.991349, 425, 33, 488, 64
-0.991371, 209, 193, 240, 320
-0.991378, 33, 61, 96, 92
-0.991414, 321, 157, 384, 188
-0.991416, 361, 37, 424, 68
-0.991438, 177, 149, 240, 180
-0.991444, 33, 105, 96, 136
-0.991496, 73, 53, 136, 84
-0.991527, 353, 137, 416, 168
-0.991548, 61, 1, 92, 128
-0.991549, 313, 193, 376, 224
-0.991561, 201, 69, 264, 100
-0.991565, 361, 161, 424, 192
-0.991577, 257, 77, 320, 108
-0.991581, 289, 177, 352, 208
-0.991586, 17, 153, 80, 184
-0.991594, 297, 109, 360, 140
-0.991595, 57, 89, 120, 120
-0.9916, 369, 221, 432, 252
-0.991623, 377, 53, 440, 84
-0.991637, 57, 117, 120, 148
-0.991654, 97, 125, 160, 156
-0.99168, 137, 149, 200, 180
-0.991704, 161, 73, 416, 136
-0.991712, 297, 1, 360, 32
-0.991717, 33, 77, 96, 108
-0.991738, 209, 209, 272, 240
-0.991742, 177, 65, 240, 96
-0.991744, 273, 121, 336, 152
-0.99175, 169, 161, 232, 192
-0.991814, 305, 49, 368, 80
-0.991827, 337, 33, 400, 64
-0.991835, 289, 149, 352, 180
-0.991898, 221, 17, 252, 144
-0.991984, 309, 129, 340, 256
-0.99201, 77, 81, 108, 208
-0.992077, 193, 33, 320, 96
-0.992085, 457, 101, 488, 132
-0.992105, 153, 209, 216, 272
-0.992109, 409, 193, 440, 320
-0.99213, 129, 169, 384, 232
-0.992132, 109, 113, 140, 144
-0.992183, 161, 137, 416, 200
-0.992191, 109, 85, 140, 116
-0.992209, 109, 65, 140, 96
-0.992241, 225, 249, 288, 312
-0.992247, 257, 153, 500, 216
-0.992255, 129, 21, 160, 52
-0.992256, 109, 133, 140, 164
-0.992259, 113, 53, 144, 84
-0.992263, 457, 113, 488, 144
-0.992265, 149, 41, 180, 72
-0.992267, 233, 121, 264, 152
-0.992281, 461, 153, 492, 184
-0.992322, 173, 173, 204, 204
-0.99238, 453, 141, 484, 172
-0.992387, 9, 141, 40, 172
-0.992388, 189, 181, 220, 212
-0.992397, 129, 9, 384, 72
-0.992405, 161, 77, 192, 108
-0.992413, 457, 125, 488, 156
-0.992414, 201, 181, 232, 212
-0.992419, 1, 89, 256, 152
-0.99244, 413, 1, 444, 128
-0.992456, 213, 73, 244, 104
-0.992473, 193, 73, 224, 104
-0.992476, 229, 89, 260, 120
-0.992495, 161, 89, 192, 120
-0.992503, 465, 169, 496, 200
-0.992511, 113, 41, 144, 72
-0.992522, 229, 193, 260, 224
-0.992527, 141, 21, 172, 52
-0.992538, 109, 17, 140, 48
-0.992542, 13, 29, 44, 60
-0.992585, 313, 209, 344, 333
-0.992589, 213, 185, 244, 216
-0.9926, 469, 133, 500, 164
-0.992602, 265, 25, 328, 88
-0.992615, 305, 9, 336, 40
-0.992616, 109, 97, 140, 128
-0.992617, 361, 49, 392, 80
-0.992617, 393, 161, 424, 288
-0.992631, 257, 129, 500, 192
-0.992633, 249, 85, 280, 116
-0.992637, 153, 29, 184, 60
-0.992663, 165, 53, 196, 84
-0.99267, 21, 133, 52, 164
-0.992674, 181, 69, 212, 100
-0.992675, 469, 105, 500, 136
-0.992681, 341, 93, 372, 124
-0.992683, 221, 105, 252, 136
-0.992689, 469, 121, 500, 152
-0.992705, 213, 85, 244, 116
-0.992712, 157, 189, 188, 220
-0.992719, 1, 117, 32, 148
-0.992724, 161, 109, 192, 140
-0.992729, 265, 101, 296, 132
-0.992731, 125, 33, 156, 64
-0.992732, 189, 193, 220, 224
-0.992741, 257, 73, 500, 136
-0.992746, 161, 41, 192, 72
-0.992747, 453, 209, 484, 333
-0.992753, 249, 181, 280, 212
-0.992756, 333, 149, 364, 180
-0.992766, 441, 137, 472, 168
-0.992767, 337, 189, 368, 220
-0.992767, 249, 121, 280, 152
-0.99277, 9, 129, 40, 160
-0.992784, 129, 41, 384, 104
-0.992789, 237, 17, 268, 144
-0.992792, 325, 17, 356, 48
-0.992794, 449, 153, 480, 184
-0.992796, 113, 29, 144, 60
-0.9928, 353, 113, 384, 144
-0.992805, 449, 169, 480, 200
-0.99281, 169, 65, 200, 96
-0.992815, 33, 133, 64, 164
-0.992818, 349, 57, 380, 88
-0.992826, 125, 141, 156, 172
-0.99283, 341, 81, 372, 112
-0.992835, 153, 53, 184, 84
-0.992836, 121, 73, 152, 104
-0.992839, 325, 117, 356, 148
-0.992846, 369, 37, 400, 68
-0.992852, 201, 85, 232, 116
-0.992855, 13, 101, 44, 132
-0.992856, 57, 109, 88, 140
-0.99287, 349, 157, 380, 188
-0.992876, 13, 65, 44, 96
-0.992881, 433, 185, 464, 216
-0.992883, 121, 9, 152, 40
-0.992884, 169, 189, 200, 220
-0.992897, 161, 173, 192, 204
-0.992899, 333, 137, 364, 168
-0.992903, 1, 29, 32, 60
-0.992905, 245, 109, 276, 140
-0.992909, 137, 49, 168, 80
-0.992909, 1, 41, 32, 72
-0.992911, 189, 85, 220, 116
-0.992911, 13, 89, 44, 120
-0.992913, 1, 65, 32, 96
-0.992917, 137, 9, 168, 40
-0.992918, 13, 1, 44, 32
-0.99292, 353, 101, 384, 132
-0.992921, 345, 145, 376, 176
-0.992922, 33, 61, 64, 92
-0.992925, 337, 161, 368, 192
-0.992926, 109, 1, 140, 32
-0.992927, 129, 61, 160, 92
-0.992927, 53, 121, 84, 152
-0.99293, 21, 145, 52, 176
-0.992932, 161, 121, 192, 152
-0.992932, 157, 65, 188, 96
-0.992935, 189, 161, 220, 192
-0.992938, 277, 173, 308, 204
-0.99294, 381, 25, 412, 56
-0.99294, 169, 141, 200, 172
-0.992943, 217, 125, 248, 156
-0.992946, 229, 205, 260, 236
-0.992948, 229, 181, 260, 212
-0.992949, 1, 97, 32, 128
-0.992957, 101, 41, 132, 72
-0.992959, 217, 201, 248, 232
-0.99296, 157, 17, 188, 48
-0.99296, 229, 77, 260, 108
-0.992963, 341, 113, 372, 144
-0.992968, 353, 129, 384, 160
-0.992974, 233, 109, 264, 140
-0.992987, 45, 65, 76, 96
-0.992989, 361, 89, 392, 120
-0.99299, 41, 121, 72, 152
-0.992993, 1, 53, 32, 84
-0.993, 61, 77, 92, 108
-0.993, 321, 129, 352, 160
-0.993001, 137, 37, 168, 68
-0.993005, 329, 77, 360, 108
-0.993006, 349, 69, 380, 100
-0.993015, 349, 169, 380, 200
-0.993015, 1, 1, 32, 32
-0.993017, 209, 113, 240, 144
-0.993018, 377, 53, 408, 84
-0.993021, 13, 53, 44, 84
-0.993024, 1, 85, 32, 116
-0.993028, 201, 197, 232, 228
-0.993029, 177, 1, 304, 128
-0.993153, 433, 193, 464, 320
-0.993213, 1, 25, 500, 88
-0.993232, 429, 145, 460, 272
-0.993282, 129, 109, 256, 140
-0.993286, 65, 45, 192, 76
-0.993293, 81, 81, 208, 112
-0.993318, 1, 145, 32, 272
-0.993364, 1, 145, 256, 208
-0.993458, 17, 109, 144, 140
-0.993477, 33, 9, 288, 72
-0.993546, 123, 33, 138, 96
-0.993549, 17, 89, 144, 120
-0.99358, 257, 185, 500, 248
-0.993625, 17, 69, 144, 100
-0.993627, 65, 25, 192, 56
-0.993667, 97, 121, 224, 152
-0.993691, 153, 1, 168, 64
-0.993692, 193, 33, 256, 96
-0.993696, 397, 49, 428, 176
-0.993701, 1, 113, 500, 176
-0.993817, 17, 133, 144, 164
-0.993825, 461, 97, 476, 160
-0.993855, 81, 61, 208, 92
-0.993892, 369, 141, 496, 172
-0.993898, 145, 17, 160, 80
-0.99392, 171, 49, 186, 112
-0.993925, 369, 193, 400, 320
-0.993931, 321, 65, 448, 96
-0.993995, 203, 177, 218, 240
-0.99403, 225, 25, 480, 88
-0.994048, 237, 185, 252, 248
-0.994079, 157, 41, 172, 104
-0.994099, 129, 89, 256, 120
-0.994204, 475, 105, 490, 168
-0.994236, 289, 121, 416, 152
-0.994244, 365, 49, 380, 112
-0.994246, 129, 77, 256, 108
-0.994266, 433, 233, 496, 296
-0.99432, 81, 101, 208, 132
-0.994333, 1, 113, 256, 176
-0.994358, 177, 249, 304, 312
-0.994391, 97, 141, 224, 172
-0.994393, 73, 33, 104, 160
-0.994394, 349, 169, 364, 232
-0.994435, 215, 73, 230, 136
-0.994483, 15, 129, 30, 192
-0.994486, 1, 169, 64, 232
-0.99449, 21, 1, 36, 64
-0.994494, 369, 121, 496, 152
-0.994496, 45, 129, 76, 256
-0.994516, 347, 145, 362, 208
-0.994524, 161, 121, 288, 152
-0.994602, 229, 81, 244, 144
-0.994668, 17, 25, 32, 88
-0.994687, 111, 65, 126, 128
-0.994718, 209, 177, 224, 240
-0.994739, 77, 145, 108, 272
-0.994741, 441, 145, 472, 272
-0.994757, 467, 137, 482, 200
-0.994762, 137, 17, 152, 80
-0.994787, 49, 121, 176, 152
-0.994816, 129, 17, 144, 80
-0.994818, 301, 209, 332, 333
-0.994858, 1, 81, 500, 144
-0.994859, 113, 217, 240, 280
-0.994886, 321, 77, 448, 108
-0.994906, 359, 49, 374, 112
-0.994918, 115, 41, 130, 104
-0.99495, 367, 81, 382, 144
-0.994959, 305, 137, 432, 168
-0.994978, 437, 1, 468, 128
-0.994986, 133, 57, 148, 120
-0.995009, 121, 65, 136, 128
-0.995016, 321, 89, 448, 120
-0.995018, 113, 33, 240, 64
-0.995021, 225, 1, 480, 64
-0.995026, 15, 1, 30, 64
-0.995028, 17, 37, 144, 68
-0.99503, 97, 153, 224, 184
-0.995032, 373, 9, 388, 72
-0.995055, 111, 97, 126, 160
-0.995065, 165, 25, 180, 88
-0.995078, 251, 89, 266, 152
-0.995122, 17, 57, 144, 88
-0.995144, 145, 189, 272, 220
-0.995164, 151, 41, 166, 104
-0.995168, 203, 65, 218, 128
-0.995169, 455, 145, 470, 208
-0.995173, 119, 113, 134, 176
-0.995174, 369, 25, 496, 56
-0.99518, 109, 121, 124, 184
-0.995183, 377, 57, 392, 120
-0.9952, 461, 145, 476, 208
-0.99522, 241, 117, 368, 148
-0.995259, 23, 25, 38, 88
-0.99526, 113, 49, 240, 80
-0.99527, 165, 65, 180, 128
-0.995285, 225, 49, 480, 112
-0.995309, 145, 49, 160, 112
-0.995322, 357, 161, 372, 224
-0.995326, 459, 121, 474, 184
-0.995329, 313, 225, 376, 288
-0.995345, 241, 177, 368, 208
-0.995351, 483, 105, 498, 168
-0.99536, 37, 129, 52, 192
-0.995361, 129, 105, 384, 168
-0.995396, 485, 129, 500, 192
-0.995398, 385, 17, 400, 80
-0.995401, 305, 21, 432, 52
-0.995406, 145, 173, 272, 204
-0.995407, 379, 1, 394, 64
-0.99541, 467, 97, 482, 160
-0.995439, 157, 33, 188, 288
-0.995448, 425, 49, 456, 176
-0.99547, 257, 225, 500, 288
-0.995474, 241, 81, 368, 112
-0.995477, 383, 41, 398, 104
-0.995481, 237, 89, 252, 152
-0.995488, 341, 161, 356, 224
-0.995528, 113, 17, 128, 80
-0.995552, 33, 65, 48, 128
-0.99557, 243, 185, 258, 248
-0.995601, 369, 45, 496, 76
-0.995609, 1, 121, 128, 152
-0.995626, 161, 193, 416, 256
-0.995627, 393, 65, 408, 128
-0.995628, 437, 177, 452, 240
-0.995632, 245, 89, 260, 152
-0.995637, 475, 153, 490, 216
-0.995651, 209, 105, 336, 136
-0.995655, 193, 189, 320, 220
-0.995673, 321, 101, 448, 132
-0.995675, 357, 1, 388, 256
-0.995677, 345, 1, 376, 256
-0.995681, 13, 1, 44, 256
-0.995691, 349, 57, 364, 120
-0.995702, 305, 81, 320, 144
-0.995715, 65, 65, 80, 128
-0.995723, 49, 33, 64, 96
-0.995732, 361, 241, 424, 304
-0.995785, 477, 177, 492, 240
-0.995787, 177, 77, 304, 108
-0.995793, 23, 105, 38, 168
-0.995795, 31, 129, 46, 192
-0.9958, 367, 17, 382, 80
-0.995801, 39, 33, 54, 96
-0.995805, 7, 33, 22, 96
-0.995817, 369, 1, 400, 256
-0.995819, 239, 121, 254, 184
-0.99582, 113, 21, 240, 52
-0.995836, 69, 33, 84, 96
-0.99584, 119, 89, 134, 152
-0.995844, 357, 105, 372, 168
-0.995851, 161, 133, 288, 164
-0.995852, 159, 17, 174, 80
-0.995854, 331, 89, 346, 152
-0.995854, 1, 137, 500, 200
-0.99586, 389, 41, 404, 104
-0.995871, 321, 53, 448, 84
-0.995873, 139, 49, 154, 112
-0.995874, 423, 17, 438, 80
-0.995877, 241, 13, 368, 44
-0.995887, 273, 65, 400, 96
-0.995889, 231, 185, 246, 248
-0.995889, 371, 49, 386, 112
-0.995894, 15, 105, 30, 168
-0.995912, 203, 153, 218, 216
-0.995936, 23, 129, 38, 192
-0.995944, 353, 221, 480, 252
-0.995954, 177, 49, 192, 112
-0.99596, 343, 185, 358, 248
-0.995972, 225, 177, 240, 240
-0.995975, 197, 177, 212, 240
-0.995978, 105, 1, 136, 256
-0.995978, 257, 81, 272, 144
-0.995989, 401, 113, 432, 240
-0.995993, 171, 25, 186, 88
-0.995995, 257, 25, 384, 56
-0.996025, 475, 17, 490, 80
-0.996026, 473, 129, 488, 192
-0.996029, 209, 65, 224, 128
-0.996034, 221, 105, 236, 168
-0.996043, 137, 1, 168, 256
-0.996044, 361, 17, 376, 80
-0.996056, 245, 121, 260, 184
-0.996091, 185, 73, 200, 136
-0.996095, 193, 177, 320, 208
-0.996107, 241, 93, 368, 124
-0.996123, 197, 1, 228, 128
-0.996128, 369, 105, 496, 136
-0.996143, 385, 73, 400, 136
-0.996143, 241, 133, 368, 164
-0.996148, 369, 153, 496, 184
-0.99615, 55, 33, 70, 96
-0.996153, 373, 81, 388, 144
-0.996162, 33, 33, 48, 96
-0.996162, 191, 153, 206, 216
-0.996175, 319, 9, 334, 72
-0.996189, 63, 33, 78, 96
-0.99622, 305, 153, 432, 184
-0.996227, 35, 153, 50, 216
-0.996233, 119, 1, 134, 64
-0.996253, 195, 65, 210, 128
-0.996263, 45, 129, 60, 192
-0.996279, 201, 241, 264, 304
-0.996281, 377, 33, 392, 96
-0.996286, 345, 97, 360, 160
-0.996286, 367, 145, 382, 208
-0.996298, 369, 61, 496, 92
-0.996301, 7, 1, 22, 64
-0.996307, 429, 177, 444, 240
-0.99631, 17, 21, 144, 52
-0.996314, 173, 73, 188, 136
-0.996321, 165, 177, 180, 240
-0.996322, 361, 73, 376, 136
-0.996332, 355, 137, 370, 200
-0.996335, 251, 113, 266, 176
-0.996341, 453, 121, 468, 184
-0.996347, 217, 177, 232, 240
-0.996382, 349, 121, 364, 184
-0.996398, 125, 1, 156, 256
-0.996402, 71, 65, 86, 128
-0.996402, 59, 65, 74, 128
-0.996414, 265, 17, 296, 144
-0.996415, 105, 185, 168, 248
-0.996421, 305, 221, 432, 252
-0.996425, 129, 61, 256, 92
-0.996451, 105, 9, 120, 72
-0.996462, 305, 241, 432, 304
-0.996463, 97, 193, 224, 224
-0.996478, 325, 1, 340, 64
-0.996479, 473, 81, 488, 144
-0.996479, 467, 33, 482, 96
-0.996483, 337, 165, 464, 196
-0.9965, 129, 113, 144, 176
-0.996501, 227, 57, 242, 120
-0.996508, 129, 89, 144, 152
-0.996516, 81, 1, 208, 32
-0.99653, 305, 9, 432, 40
-0.996568, 149, 177, 180, 304
-0.996597, 169, 33, 200, 288
-0.996671, 257, 105, 384, 136
-0.996726, 463, 149, 478, 180
-0.996726, 241, 145, 368, 176
-0.996729, 241, 189, 368, 220
-0.996737, 225, 249, 352, 312
-0.996738, 177, 157, 304, 188
-0.996754, 209, 33, 240, 288
-0.996759, 369, 265, 496, 328
-0.996797, 369, 73, 496, 104
-0.996806, 305, 33, 432, 64
-0.996811, 15, 137, 30, 168
-0.996842, 27, 141, 42, 172
-0.996865, 413, 145, 444, 272
-0.996885, 167, 53, 182, 84
-0.996902, 209, 213, 336, 244
-0.996912, 153, 33, 168, 64
-0.996949, 97, 173, 224, 204
-0.996953, 461, 65, 492, 320
-0.996956, 241, 201, 368, 232
-0.996962, 33, 1, 64, 256
-0.996969, 193, 65, 320, 96
-0.996972, 161, 49, 288, 80
-0.996995, 17, 157, 144, 188
-0.997016, 1, 1, 500, 64
-0.997041, 173, 49, 188, 80
-0.997061, 177, 201, 304, 232
-0.997063, 65, 193, 320, 256
-0.997068, 239, 189, 254, 220
-0.997071, 193, 93, 320, 124
-0.99709, 1, 1, 32, 256
-0.997096, 471, 153, 486, 184
-0.997102, 203, 181, 218, 212
-0.99711, 273, 165, 400, 196
-0.997143, 469, 141, 484, 172
-0.997176, 33, 9, 160, 40
-0.997188, 281, 193, 312, 320
-0.997194, 15, 125, 30, 156
-0.997206, 145, 145, 272, 176
-0.997245, 161, 217, 416, 280
-0.997252, 17, 145, 144, 176
-0.997253, 257, 53, 384, 84
-0.997256, 163, 33, 178, 64
-0.997262, 145, 21, 160, 52
-0.997272, 337, 181, 464, 212
-0.997273, 173, 65, 188, 96
-0.997286, 241, 1, 368, 32
-0.997293, 113, 69, 128, 100
-0.997302, 109, 121, 124, 152
-0.997309, 21, 129, 36, 160
-0.997323, 113, 49, 128, 80
-0.997325, 461, 101, 476, 132
-0.997327, 169, 37, 184, 68
-0.997328, 161, 37, 288, 68
-0.99733, 239, 121, 254, 152
-0.997346, 111, 81, 126, 112
-0.99736, 121, 65, 136, 96
-0.99736, 123, 53, 138, 84
-0.997367, 457, 141, 472, 172
-0.997383, 215, 85, 230, 116
-0.997391, 337, 193, 464, 224
-0.997404, 209, 73, 224, 104
-0.997417, 349, 189, 364, 220
-0.997418, 443, 169, 458, 200
-0.997423, 1, 169, 256, 232
-0.997453, 251, 113, 266, 144
-0.997455, 229, 105, 244, 136
-0.997476, 193, 1, 320, 32
-0.997486, 157, 49, 172, 80
-0.997495, 193, 181, 208, 212
-0.997495, 181, 169, 196, 200
-0.997496, 441, 1, 472, 256
-0.997496, 163, 177, 178, 208
-0.9975, 49, 193, 176, 256
-0.997506, 235, 85, 250, 116
-0.997508, 477, 113, 492, 144
-0.997527, 281, 33, 312, 160
-0.997528, 119, 133, 134, 164
-0.997542, 111, 93, 126, 124
-0.997555, 353, 209, 480, 240
-0.997558, 121, 85, 136, 116
-0.997559, 153, 13, 168, 44
-0.997561, 45, 1, 76, 256
-0.997565, 477, 169, 492, 200
-0.997567, 193, 13, 320, 44
-0.997579, 133, 13, 148, 44
-0.997598, 425, 97, 456, 224
-0.997603, 221, 33, 252, 288
-0.997604, 119, 113, 134, 144
-0.997607, 167, 69, 182, 100
-0.997615, 115, 33, 130, 64
-0.997621, 333, 33, 364, 288
-0.997636, 227, 89, 242, 120
-0.997644, 15, 29, 30, 60
-0.99766, 145, 49, 160, 80
-0.997662, 197, 33, 228, 288
-0.997669, 353, 13, 480, 44
-0.997672, 369, 85, 496, 116
-0.997682, 193, 169, 208, 200
-0.997688, 203, 69, 218, 100
-0.997689, 345, 145, 360, 176
-0.997695, 125, 29, 140, 60
-0.997701, 21, 29, 36, 60
-0.99771, 473, 101, 488, 132
-0.997714, 367, 89, 382, 120
-0.997721, 477, 157, 492, 188
-0.997746, 335, 17, 350, 48
-0.997751, 251, 125, 266, 156
-0.997765, 289, 233, 416, 264
-0.997768, 325, 17, 340, 48
-0.997769, 35, 133, 50, 164
-0.99777, 227, 193, 242, 224
-0.997774, 467, 101, 482, 132
-0.997775, 345, 77, 360, 108
-0.99778, 151, 45, 166, 76
-0.997781, 253, 85, 268, 116
-0.997785, 443, 181, 458, 212
-0.997794, 175, 173, 190, 204
-0.9978, 203, 193, 218, 224
-0.997809, 261, 93, 276, 124
-0.997818, 223, 101, 238, 132
-0.997835, 257, 1, 288, 256
-0.997836, 245, 121, 260, 152
-0.997842, 183, 121, 198, 152
-0.997846, 133, 61, 148, 92
-0.997853, 381, 33, 412, 288
-0.997854, 471, 165, 486, 196
-0.997855, 61, 1, 92, 256
-0.997859, 213, 97, 228, 128
-0.997859, 123, 41, 138, 72
-0.997864, 239, 201, 254, 232
-0.997875, 1, 1, 16, 32
-0.997879, 463, 161, 478, 192
-0.997882, 195, 69, 210, 100
-0.997885, 129, 9, 256, 40
-0.997891, 475, 129, 490, 160
-0.997891, 93, 1, 124, 256
-0.997891, 351, 73, 366, 104
-0.997895, 203, 81, 218, 112
-0.997909, 209, 181, 224, 212
-0.997912, 345, 165, 360, 196
-0.997915, 121, 97, 136, 128
-0.997921, 369, 257, 496, 288
-0.997922, 183, 109, 198, 140
-0.997924, 167, 189, 182, 220
-0.997925, 109, 105, 124, 136
-0.997927, 127, 141, 142, 172
-0.997928, 319, 13, 334, 44
-0.997929, 157, 177, 172, 208
-0.99793, 131, 25, 146, 56
-0.997939, 361, 45, 376, 76
-0.997939, 153, 1, 168, 32
-0.997944, 233, 121, 248, 152
-0.997949, 353, 61, 368, 92
-0.997954, 175, 37, 190, 68
-0.997968, 241, 229, 368, 260
-0.997979, 289, 209, 416, 240
-0.99798, 389, 65, 404, 96
-0.997981, 261, 113, 276, 144
-0.997981, 265, 181, 280, 212
-0.997992, 341, 121, 356, 152
-0.998005, 237, 33, 268, 288
-0.998006, 373, 45, 388, 76
-0.99801, 185, 157, 200, 188
-0.998014, 111, 137, 126, 168
-0.998021, 247, 89, 262, 120
-0.99804, 343, 89, 358, 120
-0.998042, 291, 173, 306, 204
-0.998043, 483, 109, 498, 140
-0.998045, 257, 41, 384, 72
-0.998054, 437, 181, 452, 212
-0.998055, 109, 5, 124, 36
-0.998057, 55, 121, 70, 152
-0.998057, 387, 53, 402, 84
-0.998071, 453, 153, 468, 184
-0.998073, 233, 197, 248, 228
-0.998076, 187, 173, 202, 204
-0.998076, 67, 73, 82, 104
-0.998083, 147, 33, 162, 64
-0.998086, 459, 129, 474, 160
-0.998089, 345, 61, 360, 92
-0.998092, 355, 149, 370, 180
-0.998097, 161, 189, 176, 220
-0.998098, 183, 93, 198, 124
-0.998101, 287, 161, 302, 192
-0.998108, 185, 73, 200, 104
-0.998109, 361, 97, 376, 128
-0.998118, 483, 173, 498, 204
-0.998119, 339, 149, 354, 180
-0.998119, 197, 193, 212, 224
-0.998127, 129, 209, 256, 240
-0.998143, 1, 185, 500, 248
-0.998168, 1, 49, 500, 112
-0.998228, 289, 181, 416, 212
-0.998249, 89, 161, 152, 288
-0.998268, 181, 33, 212, 288
-0.998274, 135, 1, 150, 128
-0.998278, 33, 161, 64, 288
-0.998307, 289, 197, 416, 228
-0.998343, 65, 217, 320, 280
-0.99835, 113, 43, 176, 58
-0.998377, 201, 197, 264, 212
-0.998389, 265, 209, 296, 333
-0.998418, 257, 179, 320, 194
-0.998424, 121, 35, 184, 50
-0.998424, 433, 181, 496, 196
-0.99843, 425, 135, 488, 150
-0.998432, 229, 129, 260, 144
-0.998432, 141, 147, 172, 162
-0.998432, 121, 27, 184, 42
-0.998433, 249, 91, 280, 106
-0.998433, 109, 147, 140, 162
-0.998433, 221, 105, 252, 120
-0.998434, 469, 123, 500, 138
-0.998436, 469, 117, 500, 132
-0.998437, 113, 15, 144, 30
-0.998437, 381, 27, 412, 42
-0.998437, 233, 209, 264, 224
-0.998438, 169, 75, 232, 90
-0.998438, 301, 11, 332, 26
-0.998438, 321, 121, 352, 136
-0.998438, 113, 49, 176, 64
-0.998439, 245, 121, 276, 136
-0.99844, 463, 97, 478, 224
-0.998441, 5, 47, 36, 62
-0.998441, 161, 97, 192, 112
-0.998441, 9, 129, 40, 144
-0.998441, 357, 53, 388, 68
-0.998441, 213, 89, 244, 104
-0.998442, 445, 105, 476, 120
-0.998442, 121, 83, 152, 98
-0.998442, 169, 169, 200, 184
-0.998443, 213, 77, 244, 92
-0.998443, 417, 141, 448, 156
-0.998444, 161, 67, 192, 82
-0.998446, 169, 185, 232, 200
-0.998447, 109, 47, 140, 62
-0.998447, 137, 39, 168, 54
-0.998447, 1, 123, 32, 138
-0.998447, 185, 191, 248, 206
-0.998448, 13, 1, 44, 16
-0.99845, 13, 35, 44, 50
-0.99845, 429, 35, 460, 50
-0.998452, 161, 41, 192, 56
-0.998454, 153, 81, 216, 96
-0.998454, 229, 117, 260, 132
-0.998455, 365, 91, 396, 106
-0.998456, 145, 57, 176, 72
-0.998456, 141, 17, 172, 32
-0.998456, 225, 189, 256, 204
-0.998457, 109, 97, 140, 112
-0.998457, 109, 103, 140, 118
-0.998458, 209, 99, 240, 114
-0.998458, 245, 129, 276, 144
-0.998459, 13, 105, 44, 120
-0.998459, 333, 149, 364, 164
-0.998459, 209, 53, 336, 84
-0.99846, 161, 111, 192, 126
-0.998461, 357, 59, 388, 74
-0.998462, 433, 183, 464, 198
-0.998464, 201, 83, 232, 98
-0.998464, 153, 175, 216, 190
-0.998464, 13, 151, 44, 166
-0.998465, 457, 157, 488, 172
-0.998466, 133, 29, 164, 44
-0.998466, 437, 135, 468, 150
-0.998467, 181, 171, 212, 186
-0.998469, 321, 21, 352, 36
-0.99847, 289, 1, 320, 256
-0.99847, 113, 55, 176, 70
-0.99847, 9, 37, 72, 52
-0.998473, 113, 21, 144, 36
-0.998473, 153, 29, 184, 44
-0.998474, 165, 57, 196, 72
-0.998475, 469, 129, 500, 144
-0.998476, 469, 111, 500, 126
-0.998476, 349, 89, 380, 104
-0.998476, 213, 189, 244, 204
-0.998476, 109, 41, 140, 56
-0.998476, 113, 33, 144, 48
-0.998476, 153, 193, 216, 208
-0.99848, 177, 83, 240, 98
-0.99848, 337, 75, 400, 90
-0.998482, 165, 175, 196, 190
-0.998482, 181, 197, 212, 212
-0.998482, 125, 147, 156, 162
-0.998483, 53, 125, 84, 140
-0.998483, 409, 141, 472, 156
-0.998484, 289, 17, 320, 32
-0.998485, 433, 175, 496, 190
-0.998486, 177, 185, 208, 200
-0.998488, 145, 143, 208, 158
-0.998488, 9, 135, 40, 150
-0.998492, 181, 81, 212, 96
-0.998492, 349, 163, 380, 178
-0.998492, 337, 61, 400, 76
-0.998493, 205, 183, 236, 198
-0.998495, 137, 51, 200, 66
-0.998495, 453, 137, 484, 152
-0.998497, 441, 145, 472, 160
-0.998497, 453, 145, 484, 160
-0.998497, 213, 197, 244, 212
-0.998497, 353, 97, 416, 112
-0.998498, 289, 229, 352, 244
-0.998499, 345, 69, 408, 84
-0.9985, 73, 45, 136, 60
-0.998502, 345, 191, 376, 206
-0.998503, 121, 89, 184, 104
-0.998503, 121, 81, 184, 96
-0.998504, 113, 63, 176, 78
-0.998504, 137, 43, 200, 58
-0.998505, 13, 145, 44, 160
-0.998506, 201, 191, 232, 206
-0.998507, 109, 123, 140, 138
-0.998507, 121, 95, 184, 110
-0.998509, 329, 107, 392, 122
-0.998509, 469, 137, 500, 152
-0.99851, 401, 35, 464, 50
-0.998511, 261, 179, 292, 194
-0.998513, 353, 103, 416, 118
-0.998513, 281, 177, 312, 192
-0.998514, 97, 37, 160, 52
-0.998514, 109, 79, 140, 94
-0.998515, 217, 93, 280, 108
-0.998515, 129, 15, 160, 30
-0.998515, 353, 109, 416, 124
-0.998516, 329, 93, 392, 108
-0.998516, 425, 109, 488, 124
-0.998517, 165, 73, 196, 88
-0.998517, 353, 89, 416, 104
-0.998518, 161, 51, 192, 66
-0.998518, 193, 183, 224, 198
-0.998518, 345, 117, 408, 132
-0.998519, 217, 123, 280, 138
-0.99852, 225, 201, 288, 216
-0.99852, 177, 89, 240, 104
-0.99852, 1, 1, 32, 16
-0.99852, 113, 55, 144, 70
-0.99852, 153, 93, 216, 108
-0.998521, 233, 203, 264, 218
-0.998521, 161, 91, 192, 106
-0.998521, 217, 119, 248, 134
-0.998521, 129, 69, 192, 84
-0.998521, 149, 43, 180, 58
-0.998522, 181, 71, 212, 86
-0.998522, 313, 21, 376, 36
-0.998522, 297, 85, 360, 100
-0.998522, 121, 63, 152, 78
-0.998523, 165, 189, 196, 204
-0.998525, 273, 15, 336, 30
-0.998526, 193, 197, 224, 212
-0.998528, 453, 151, 484, 166
-0.998528, 121, 105, 184, 120
-0.998528, 329, 149, 392, 164
-0.99853, 241, 127, 304, 142
-0.998532, 145, 187, 208, 202
-0.998532, 337, 23, 400, 38
-0.998533, 201, 203, 264, 218
-0.998534, 433, 129, 496, 144
-0.998535, 153, 99, 216, 114
-0.998535, 329, 99, 392, 114
-0.998535, 161, 69, 224, 84
-0.998535, 121, 111, 184, 126
-0.998535, 73, 39, 136, 54
-0.998536, 161, 81, 192, 96
-0.998536, 97, 27, 160, 42
-0.998537, 9, 63, 72, 78
-0.998538, 121, 47, 152, 62
-0.998539, 177, 199, 240, 214
-0.998539, 217, 181, 280, 196
-0.998539, 193, 183, 256, 198
-0.99854, 425, 123, 488, 138
-0.998541, 109, 73, 140, 88
-0.998542, 385, 141, 448, 156
-0.998544, 109, 91, 140, 106
-0.998544, 217, 83, 248, 98
-0.998545, 73, 61, 136, 76
-0.998546, 401, 185, 464, 200
-0.998547, 345, 159, 408, 174
-0.998547, 129, 161, 160, 288
-0.998547, 425, 115, 488, 130
-0.998547, 309, 17, 340, 32
-0.998547, 345, 135, 408, 150
-0.998548, 109, 135, 140, 150
-0.998549, 5, 29, 36, 44
-0.998549, 33, 41, 96, 56
-0.99855, 233, 85, 264, 100
-0.99855, 73, 51, 136, 66
-0.998551, 329, 129, 392, 144
-0.998551, 329, 143, 392, 158
-0.998553, 9, 31, 72, 46
-0.998553, 25, 79, 88, 94
-0.998553, 153, 111, 216, 126
-0.998556, 433, 141, 496, 156
-0.998556, 113, 149, 176, 164
-0.998557, 1, 177, 128, 240
-0.998557, 329, 193, 392, 208
-0.998558, 361, 27, 424, 42
-0.998559, 321, 227, 384, 242
-0.99856, 153, 121, 216, 136
-0.99856, 1, 151, 64, 166
-0.99856, 397, 209, 428, 333
-0.99856, 337, 81, 400, 96
-0.998561, 97, 19, 160, 34
-0.998563, 145, 75, 208, 90
-0.998563, 465, 173, 496, 188
-0.998564, 305, 63, 368, 78
-0.998566, 121, 187, 184, 202
-0.998566, 433, 161, 496, 176
-0.998566, 233, 195, 264, 210
-0.998567, 457, 125, 488, 140
-0.998569, 229, 91, 260, 106
-0.998569, 25, 135, 88, 150
-0.998569, 109, 115, 140, 130
-0.998572, 369, 135, 432, 150
-0.998572, 109, 61, 140, 76
-0.998573, 1, 145, 64, 160
-0.998573, 1, 137, 64, 152
-0.998574, 121, 137, 184, 152
-0.998575, 109, 141, 140, 156
-0.998575, 25, 73, 88, 88
-0.998576, 385, 97, 448, 112
-0.998576, 337, 17, 400, 32
-0.998577, 113, 9, 176, 24
-0.998577, 57, 79, 120, 94
-0.998577, 57, 85, 120, 100
-0.998578, 121, 117, 184, 132
-0.998578, 9, 45, 72, 60
-0.99858, 153, 87, 216, 102
-0.99858, 129, 193, 192, 208
-0.998581, 457, 131, 488, 146
-0.998581, 217, 187, 280, 202
-0.998581, 433, 37, 496, 52
-0.998582, 433, 261, 496, 276
-0.998583, 153, 187, 184, 202
-0.998583, 345, 123, 408, 138
-0.998584, 121, 75, 184, 90
-0.998584, 9, 105, 72, 120
-0.998585, 9, 111, 72, 126
-0.998585, 417, 103, 480, 118
-0.998585, 177, 115, 240, 130
-0.998586, 145, 37, 208, 52
-0.998586, 125, 17, 140, 144
-0.998587, 425, 153, 488, 168
-0.998588, 145, 133, 208, 148
-0.998589, 201, 79, 264, 94
-0.998589, 169, 169, 232, 184
-0.99859, 97, 85, 160, 100
-0.99859, 189, 191, 220, 206
-0.998591, 433, 225, 496, 240
-0.998591, 17, 127, 80, 142
-0.998591, 321, 137, 384, 152
-0.998592, 241, 117, 304, 132
-0.998593, 33, 105, 96, 120
-0.998593, 225, 195, 288, 210
-0.998594, 353, 233, 480, 264
-0.998599, 109, 109, 140, 124
-0.9986, 197, 75, 228, 90
-0.998609, 153, 35, 184, 50
-0.998613, 109, 67, 140, 82
-0.998615, 457, 117, 488, 132
-0.998618, 137, 23, 168, 38
-0.998622, 413, 65, 444, 192
-0.998626, 233, 123, 264, 138
-0.998636, 457, 105, 488, 120
-0.998637, 129, 241, 256, 304
-0.998638, 469, 113, 484, 240
-0.99864, 109, 129, 140, 144
-0.998641, 145, 49, 176, 64
-0.998649, 109, 85, 140, 100
-0.99865, 429, 33, 460, 288
-0.998665, 143, 1, 158, 128
-0.998666, 269, 65, 300, 320
-0.998673, 457, 111, 488, 126
-0.998692, 131, 49, 146, 176
-0.998694, 121, 81, 136, 208
-0.998695, 49, 185, 176, 216
-0.998697, 469, 105, 500, 120
-0.9987, 119, 33, 134, 160
-0.998703, 169, 33, 184, 160
-0.998711, 151, 1, 166, 128
-0.998745, 225, 157, 352, 188
-0.998763, 233, 65, 248, 192
-0.998782, 73, 1, 104, 256
-0.998796, 157, 1, 172, 128
-0.998805, 111, 65, 126, 192
-0.99881, 343, 81, 358, 208
-0.998812, 355, 49, 370, 176
-0.998815, 367, 49, 382, 176
-0.998816, 35, 17, 50, 144
-0.998823, 375, 49, 390, 176
-0.998831, 113, 1, 128, 128
-0.998834, 361, 49, 376, 176
-0.998837, 17, 257, 144, 320
-0.998844, 353, 1, 480, 32
-0.998847, 7, 1, 22, 128
-0.998863, 371, 1, 386, 128
-0.998869, 153, 49, 168, 176
-0.998879, 161, 25, 288, 56
-0.998899, 345, 145, 360, 272
-0.998902, 23, 17, 38, 144
-0.998921, 357, 97, 372, 224
-0.998923, 1, 217, 500, 280
-0.998925, 223, 97, 238, 224
-0.998942, 81, 205, 208, 236
-0.99896, 243, 65, 258, 192
-0.998963, 363, 97, 378, 224
-0.998972, 239, 113, 254, 240
-0.998974, 253, 113, 268, 240
-0.998982, 15, 1, 30, 128
-0.998989, 227, 49, 242, 176
-0.99899, 483, 113, 498, 240
-0.998995, 137, 49, 152, 176
-0.998996, 175, 49, 190, 176
-0.998998, 259, 81, 274, 208
-0.999012, 457, 97, 472, 224
-0.999013, 281, 97, 296, 224
-0.999013, 393, 33, 424, 288
-0.999015, 465, 49, 480, 176
-0.999018, 163, 81, 178, 208
-0.999021, 363, 1, 378, 128
-0.999023, 247, 129, 262, 256
-0.999029, 193, 145, 320, 176
-0.999034, 301, 1, 332, 256
-0.999045, 143, 49, 158, 176
-0.999049, 349, 65, 364, 192
-0.99905, 265, 97, 280, 224
-0.99905, 253, 65, 268, 192
-0.999055, 475, 113, 490, 240
-0.999058, 41, 17, 56, 144
-0.999062, 479, 161, 494, 288
-0.99907, 193, 253, 320, 284
-0.999079, 57, 65, 72, 192
-0.999084, 15, 97, 30, 224
-0.999086, 157, 97, 172, 224
-0.999106, 5, 49, 20, 176
-0.999106, 179, 113, 194, 240
-0.999109, 185, 161, 200, 288
-0.999115, 477, 65, 492, 192
-0.999116, 127, 113, 142, 240
-0.999119, 377, 1, 392, 128
-0.999122, 229, 113, 244, 240
-0.999123, 203, 177, 218, 304
-0.99913, 381, 49, 396, 176
-0.999133, 339, 145, 354, 272
-0.999136, 67, 33, 82, 160
-0.999143, 195, 161, 210, 288
-0.999144, 461, 145, 476, 272
-0.999148, 243, 177, 258, 304
-0.999155, 181, 49, 196, 176
-0.999156, 105, 1, 120, 128
-0.999165, 351, 145, 366, 272
-0.99918, 47, 17, 62, 144
-0.999184, 385, 1, 400, 128
-0.999188, 271, 65, 286, 192
-0.999191, 109, 113, 124, 240
-0.999196, 31, 81, 46, 208
-0.999202, 163, 33, 178, 160
-0.999202, 471, 65, 486, 192
-0.999212, 167, 145, 182, 272
-0.999213, 1, 161, 500, 224
-0.999214, 29, 1, 44, 128
-0.999228, 307, 1, 322, 128
-0.999229, 213, 81, 228, 208
-0.999231, 147, 129, 162, 256
-0.999232, 371, 97, 386, 224
-0.999237, 53, 17, 68, 144
-0.999238, 357, 1, 372, 128
-0.999241, 287, 145, 302, 272
-0.999244, 213, 129, 228, 256
-0.999248, 173, 145, 188, 272
-0.99925, 203, 129, 218, 256
-0.999251, 139, 113, 154, 240
-0.999253, 323, 1, 338, 128
-0.999263, 331, 65, 346, 192
-0.999268, 473, 161, 488, 288
-0.999268, 341, 1, 356, 128
-0.999269, 321, 33, 352, 288
-0.999274, 51, 65, 66, 192
-0.999275, 219, 1, 234, 128
-0.999285, 187, 81, 202, 208
-0.999286, 177, 1, 192, 128
-0.999288, 17, 49, 32, 176
-0.999298, 281, 145, 296, 272
-0.999298, 225, 249, 480, 312
-0.999299, 317, 65, 332, 192
-0.999301, 287, 81, 302, 208
-0.999306, 485, 209, 500, 333
-0.99931, 485, 161, 500, 288
-0.999312, 209, 177, 224, 304
-0.999314, 1, 1, 16, 128
-0.999315, 377, 97, 392, 224
-0.999317, 441, 1, 456, 128
-0.99932, 25, 81, 40, 208
-0.999324, 31, 145, 46, 272
-0.999324, 337, 193, 352, 320
-0.999329, 271, 113, 286, 240
-0.99933, 365, 145, 380, 272
-0.999331, 43, 81, 58, 208
-0.999333, 237, 161, 252, 288
-0.999333, 133, 113, 148, 240
-0.999335, 73, 33, 88, 160
-0.999336, 179, 161, 194, 288
-0.999341, 337, 97, 352, 224
-0.999347, 335, 1, 350, 128
-0.999348, 63, 81, 78, 208
-0.999349, 383, 145, 398, 272
-0.999359, 485, 1, 500, 128
-0.999359, 173, 97, 188, 224
-0.999364, 393, 1, 408, 128
-0.999365, 467, 161, 482, 288
-0.999365, 333, 145, 348, 272
-0.999366, 349, 1, 364, 128
-0.999368, 391, 81, 406, 208
-0.999371, 221, 49, 236, 176
-0.99941, 1, 197, 128, 228
-0.999441, 353, 245, 480, 276
-0.999446, 49, 173, 176, 204
-0.999469, 17, 233, 144, 296
-0.999478, 97, 249, 352, 312
-0.999488, 253, 209, 284, 333
-0.9995, 417, 33, 448, 288
-0.999518, 113, 241, 240, 272
-0.999552, 193, 225, 320, 256
-0.999583, 209, 41, 336, 72
-0.99963, 173, 75, 188, 90
-0.99963, 241, 241, 368, 272
-0.99963, 473, 161, 488, 176
-0.99963, 215, 95, 230, 110
-0.999631, 195, 183, 210, 198
-0.999634, 353, 165, 368, 180
-0.999634, 341, 161, 356, 176
-0.999634, 347, 159, 362, 174
-0.999635, 15, 149, 30, 164
-0.999635, 253, 117, 268, 132
-0.999636, 153, 7, 168, 22
-0.999636, 119, 115, 134, 130
-0.999636, 113, 71, 128, 86
-0.999636, 153, 147, 168, 162
-0.999638, 161, 27, 176, 42
-0.999638, 305, 13, 320, 28
-0.999639, 121, 81, 136, 96
-0.999639, 225, 199, 240, 214
-0.99964, 465, 147, 480, 162
-0.99964, 241, 205, 256, 220
-0.99964, 175, 169, 190, 184
-0.999641, 371, 89, 386, 104
-0.999642, 159, 179, 174, 194
-0.999645, 261, 117, 276, 132
-0.999645, 209, 183, 224, 198
-0.999645, 259, 179, 274, 194
-0.999646, 221, 121, 236, 136
-0.999646, 243, 193, 258, 208
-0.999646, 247, 89, 262, 104
-0.999648, 185, 169, 200, 184
-0.999648, 453, 151, 468, 166
-0.999649, 121, 73, 136, 88
-0.999649, 235, 205, 250, 220
-0.999652, 243, 83, 258, 98
-0.999652, 471, 177, 486, 192
-0.999652, 13, 1, 28, 16
-0.999652, 135, 27, 150, 42
-0.999652, 111, 107, 126, 122
-0.999653, 463, 161, 478, 176
-0.999654, 345, 79, 360, 94
-0.999655, 123, 55, 138, 70
-0.999656, 121, 87, 136, 102
-0.999656, 349, 59, 364, 74
-0.999657, 237, 211, 252, 226
-0.999657, 69, 79, 84, 94
-0.999657, 157, 55, 172, 70
-0.999658, 119, 31, 134, 46
-0.999658, 169, 41, 184, 56
-0.999659, 173, 61, 188, 76
-0.99966, 191, 195, 206, 210
-0.99966, 469, 171, 484, 186
-0.999661, 475, 135, 490, 150
-0.999661, 229, 117, 244, 132
-0.999662, 465, 155, 480, 170
-0.999662, 183, 175, 198, 190
-0.999662, 347, 165, 362, 180
-0.999662, 167, 73, 182, 88
-0.999662, 265, 179, 280, 194
-0.999663, 295, 177, 310, 192
-0.999665, 133, 13, 148, 28
-0.999666, 225, 103, 240, 118
-0.999666, 119, 131, 134, 146
-0.999667, 167, 175, 182, 190
-0.999667, 23, 135, 38, 150
-0.999667, 175, 51, 190, 66
-0.999667, 335, 21, 350, 36
-0.999668, 477, 111, 492, 126
-0.999668, 477, 129, 492, 144
-0.999669, 119, 141, 134, 156
-0.99967, 241, 123, 256, 138
-0.99967, 15, 143, 30, 158
-0.999673, 27, 153, 42, 168
-0.999674, 29, 137, 44, 152
-0.999674, 1, 185, 128, 216
-0.999675, 15, 123, 30, 138
-0.999676, 485, 135, 500, 150
-0.999677, 15, 135, 30, 150
-0.999679, 161, 33, 176, 48
-0.99968, 5, 3, 20, 18
-0.999681, 155, 25, 170, 40
-0.999682, 113, 55, 128, 70
-0.999682, 361, 89, 376, 104
-0.999684, 445, 183, 460, 198
-0.999684, 167, 59, 182, 74
-0.999687, 205, 197, 220, 212
-0.999687, 175, 45, 190, 60
-0.999688, 457, 105, 472, 120
-0.99969, 467, 111, 482, 126
-0.999692, 471, 155, 486, 170
-0.999693, 115, 41, 130, 56
-0.999694, 167, 35, 182, 50
-0.999694, 231, 85, 246, 100
-0.999694, 347, 191, 362, 206
-0.999698, 197, 193, 212, 208
-0.999699, 15, 129, 30, 144
-0.999699, 251, 123, 266, 138
-0.9997, 477, 177, 492, 192
-0.999701, 19, 29, 34, 44
-0.999702, 325, 19, 340, 34
-0.999702, 145, 23, 160, 38
-0.999706, 237, 85, 252, 100
-0.999707, 145, 257, 272, 288
-0.999708, 159, 185, 174, 200
-0.999708, 167, 47, 182, 62
-0.999713, 201, 75, 216, 90
-0.999715, 167, 67, 182, 82
-0.999722, 1, 173, 128, 204
-0.999725, 477, 171, 492, 186
-0.999726, 23, 141, 38, 156
-0.999726, 151, 47, 166, 62
-0.999726, 461, 111, 476, 126
-0.999727, 167, 187, 182, 202
-0.999727, 145, 51, 160, 66
-0.999727, 123, 63, 138, 78
-0.999728, 437, 183, 452, 198
-0.99973, 111, 83, 126, 98
-0.999733, 1, 209, 128, 333
-0.999734, 203, 191, 218, 206
-0.999736, 159, 39, 174, 54
-0.999736, 109, 129, 124, 144
-0.999738, 483, 105, 498, 120
-0.999741, 239, 199, 254, 214
-0.999741, 459, 147, 474, 162
-0.999744, 173, 69, 188, 84
-0.999748, 203, 181, 218, 196
-0.999748, 113, 61, 128, 76
-0.999757, 155, 31, 170, 46
-0.99976, 211, 77, 226, 92
-0.999768, 25, 147, 40, 162
-0.999771, 167, 53, 182, 68
-0.999773, 159, 49, 174, 64
-0.99979, 237, 193, 252, 208
-0.999817, 153, 41, 168, 56
-0.99983, 369, 273, 496, 304
-0.999859, 463, 105, 478, 120
-0.999865, 473, 105, 488, 120
-0.999874, 405, 33, 436, 288
-0.999888, 161, 237, 288, 268
-0.999889, 369, 301, 496, 332
-0.99993, 65, 209, 192, 333
-0.99997, 1, 209, 128, 240
-0.999982, 209, 25, 336, 56
-1.00017, 1, 253, 128, 284
-1.00018, 97, 265, 224, 328
-1.00023, 193, 289, 320, 320
-1.00023, 321, 257, 448, 288
-1.00024, 1, 241, 500, 304
-1.00027, 1, 277, 128, 308
-1.00027, 209, 301, 336, 332
-1.00034, 1, 241, 256, 304
-1.00037, 145, 297, 272, 328
-1.00038, 49, 245, 176, 276
-1.00043, 1, 177, 64, 304
-1.00049, 65, 233, 192, 296
-1.00066, 177, 273, 304, 333
-1.00086, 257, 273, 384, 333
-1.00099, 1, 209, 128, 272
-1.00117, 257, 273, 500, 333
-1.00131, 1, 273, 256, 333
-1.00148, 97, 273, 352, 333
-1.00196, 305, 273, 432, 333
-1.0032, 1, 265, 500, 328
-1.00376, 25, 209, 88, 333
-1.00522, 81, 209, 144, 333
-1.0063, 49, 209, 112, 333
-1.00704, 105, 209, 168, 333
