1962
-0.231728, 1, 1, 500, 375
-0.314827, 1, 65, 500, 320
-0.328041, 225, 1, 480, 375
-0.331414, 129, 1, 384, 375
-0.391267, 33, 1, 288, 375
-0.483131, 257, 97, 500, 352
-0.484268, 97, 1, 352, 256
-0.603437, 97, 129, 352, 375
-0.63697, 193, 1, 448, 256
-0.689236, 1, 33, 256, 288
-0.780798, 1, 129, 256, 375
-0.831535, 177, 1, 304, 375
-0.841621, 225, 1, 352, 375
-0.843922, 177, 1, 304, 256
-0.845207, 369, 1, 496, 375
-0.847931, 97, 1, 224, 375
-0.852352, 305, 65, 432, 320
-0.852674, 257, 65, 384, 320
-0.860715, 321, 1, 448, 375
-0.864619, 161, 129, 288, 375
-0.866287, 353, 65, 480, 320
-0.866622, 273, 1, 400, 375
-0.870848, 129, 33, 256, 288
-0.870969, 1, 1, 500, 128
-0.876256, 1, 1, 128, 256
-0.882085, 1, 81, 500, 208
-0.882975, 49, 1, 176, 375
-0.886909, 81, 97, 208, 352
-0.888025, 65, 1, 192, 256
-0.89107, 129, 65, 384, 192
-0.892555, 209, 129, 336, 375
-0.903227, 1, 1, 128, 375
-0.907283, 65, 1, 320, 128
-0.908793, 225, 81, 480, 208
-0.908944, 1, 177, 500, 304
-0.914111, 257, 209, 500, 336
-0.916288, 1, 129, 500, 256
-0.925128, 225, 145, 480, 272
-0.927773, 1, 65, 256, 192
-0.928312, 161, 17, 416, 144
-0.928949, 81, 1, 208, 128
-0.930065, 97, 113, 352, 240
-0.933252, 161, 209, 416, 336
-0.935126, 193, 33, 320, 160
-0.936878, 1, 113, 256, 240
-0.937739, 113, 65, 240, 192
-0.93776, 145, 17, 272, 144
-0.938408, 409, 209, 472, 336
-0.938536, 273, 97, 400, 224
-0.940491, 65, 161, 320, 288
-0.940557, 33, 97, 160, 352
-0.940795, 369, 225, 496, 352
-0.942303, 1, 225, 500, 352
-0.942441, 81, 17, 144, 144
-0.94313, 409, 225, 472, 288
-0.943215, 345, 65, 408, 192
-0.943295, 241, 33, 304, 160
-0.944187, 257, 33, 500, 160
-0.944606, 433, 209, 496, 336
-0.945508, 241, 49, 368, 176
-0.946217, 321, 65, 448, 192
-0.947028, 193, 81, 320, 208
-0.948021, 153, 1, 216, 128
-0.948161, 97, 113, 224, 240
-0.948268, 433, 225, 496, 288
-0.948415, 145, 113, 272, 240
-0.948445, 65, 49, 192, 176
-0.94863, 241, 81, 304, 208
-0.948677, 337, 161, 464, 288
-0.950058, 113, 1, 176, 128
-0.950221, 129, 65, 192, 192
-0.95093, 281, 81, 344, 208
-0.951329, 233, 129, 296, 256
-0.951333, 217, 17, 280, 144
-0.951448, 177, 65, 240, 192
-0.951525, 153, 49, 216, 176
-0.95224, 225, 177, 352, 304
-0.952287, 233, 177, 296, 304
-0.952374, 273, 17, 336, 144
-0.952462, 161, 113, 224, 240
-0.953448, 17, 17, 144, 144
-0.953479, 369, 113, 496, 240
-0.953746, 17, 65, 144, 192
-0.954207, 409, 161, 472, 288
-0.954469, 145, 161, 272, 288
-0.954711, 177, 17, 240, 144
-0.955117, 433, 249, 496, 312
-0.955147, 321, 81, 384, 208
-0.955626, 217, 65, 280, 192
-0.955661, 433, 161, 496, 288
-0.955992, 105, 65, 168, 192
-0.956288, 369, 113, 432, 240
-0.956568, 257, 1, 384, 128
-0.956636, 65, 209, 320, 336
-0.956995, 177, 209, 304, 336
-0.957554, 321, 113, 448, 240
-0.957706, 113, 113, 176, 240
-0.958631, 321, 97, 384, 160
-0.958957, 57, 33, 120, 160
-0.95899, 377, 49, 440, 176
-0.959069, 185, 113, 248, 240
-0.959273, 225, 129, 352, 256
-0.959435, 265, 65, 328, 128
-0.959964, 289, 73, 352, 136
-0.961035, 273, 209, 400, 336
-0.961148, 113, 81, 176, 144
-0.96137, 369, 49, 496, 176
-0.961476, 377, 137, 440, 200
-0.961506, 393, 113, 456, 176
-0.962262, 57, 57, 120, 120
-0.962691, 417, 137, 480, 200
-0.962691, 413, 225, 444, 288
-0.962848, 265, 217, 328, 280
-0.962913, 385, 249, 448, 312
-0.963259, 345, 105, 408, 168
-0.963287, 233, 185, 296, 248
-0.963618, 265, 161, 328, 288
-0.963802, 209, 161, 272, 288
-0.964079, 265, 209, 328, 336
-0.964315, 377, 225, 440, 352
-0.964358, 353, 129, 416, 192
-0.964452, 385, 225, 448, 288
-0.964805, 233, 41, 296, 104
-0.965189, 49, 129, 176, 256
-0.96525, 385, 161, 448, 288
-0.965715, 233, 209, 296, 272
-0.966336, 225, 225, 352, 352
-0.966408, 81, 65, 144, 192
-0.966777, 369, 105, 432, 168
-0.967112, 393, 113, 456, 240
-0.967257, 81, 25, 144, 88
-0.967467, 225, 1, 288, 256
-0.967589, 185, 1, 248, 256
-0.967671, 369, 249, 496, 312
-0.967714, 425, 225, 456, 288
-0.967805, 273, 145, 400, 272
-0.968022, 209, 113, 272, 240
-0.968242, 281, 65, 344, 320
-0.968321, 137, 105, 200, 168
-0.968692, 17, 73, 80, 136
-0.969081, 121, 177, 184, 304
-0.969214, 321, 209, 448, 336
-0.969282, 409, 249, 472, 312
-0.9693, 225, 225, 288, 352
-0.969389, 297, 17, 360, 144
-0.96939, 161, 9, 224, 72
-0.969628, 413, 209, 444, 336
-0.969756, 73, 89, 136, 152
-0.969921, 137, 113, 200, 240
-0.970203, 233, 145, 296, 208
-0.970383, 305, 17, 432, 144
-0.970402, 469, 217, 500, 280
-0.970549, 453, 225, 484, 288
-0.970698, 385, 57, 448, 120
-0.970785, 81, 57, 144, 120
-0.971565, 425, 33, 488, 160
-0.97162, 281, 105, 344, 168
-0.971635, 289, 225, 352, 288
-0.971712, 417, 113, 480, 240
-0.971765, 441, 233, 472, 296
-0.971794, 433, 41, 496, 104
-0.97181, 437, 209, 468, 336
-0.971821, 161, 33, 224, 288
-0.972049, 241, 81, 304, 144
-0.972441, 161, 57, 224, 120
-0.972462, 421, 161, 452, 288
-0.97247, 201, 81, 264, 144
-0.972541, 409, 97, 472, 352
-0.972567, 337, 73, 400, 136
-0.972581, 49, 25, 112, 88
-0.972589, 289, 209, 352, 336
-0.972602, 265, 193, 328, 256
-0.972739, 89, 1, 120, 128
-0.97278, 361, 65, 424, 320
-0.973168, 1, 81, 64, 208
-0.973229, 425, 201, 488, 264
-0.973428, 249, 33, 312, 288
-0.973434, 393, 1, 456, 128
-0.973644, 209, 25, 272, 88
-0.97365, 81, 177, 208, 304
-0.973816, 261, 33, 292, 160
-0.974126, 129, 9, 192, 72
-0.974163, 85, 25, 116, 88
-0.974163, 273, 57, 304, 120
-0.974193, 305, 65, 368, 320
-0.974267, 337, 65, 400, 320
-0.97436, 361, 161, 424, 288
-0.974395, 145, 73, 272, 136
-0.974583, 369, 225, 496, 288
-0.97464, 105, 137, 168, 200
-0.974717, 345, 113, 408, 240
-0.974867, 469, 241, 500, 304
-0.974877, 241, 89, 368, 152
-0.974954, 65, 81, 192, 144
-0.975003, 457, 209, 488, 336
-0.975043, 33, 1, 96, 128
-0.975118, 353, 137, 480, 200
-0.975125, 273, 25, 336, 88
-0.975381, 285, 65, 316, 128
-0.975384, 361, 81, 424, 144
-0.975466, 401, 49, 464, 176
-0.975512, 137, 81, 200, 144
-0.975571, 89, 113, 152, 240
-0.975637, 409, 161, 440, 288
-0.975775, 393, 33, 456, 96
-0.975873, 193, 49, 320, 112
-0.976143, 129, 113, 256, 176
-0.976229, 217, 121, 280, 184
-0.976239, 289, 121, 416, 184
-0.976279, 249, 1, 312, 64
-0.97639, 177, 129, 240, 192
-0.976726, 209, 169, 272, 232
-0.976744, 33, 49, 96, 112
-0.976758, 185, 97, 248, 352
-0.976817, 369, 1, 496, 128
-0.976864, 425, 209, 456, 336
-0.976874, 365, 65, 396, 192
-0.976891, 273, 49, 304, 176
-0.976928, 193, 81, 320, 144
-0.976946, 321, 121, 384, 184
-0.977018, 1, 137, 64, 200
-0.977112, 313, 241, 376, 368
-0.977123, 289, 97, 416, 160
-0.977166, 225, 129, 288, 375
-0.977235, 385, 161, 448, 224
-0.977277, 161, 1, 224, 375
-0.977342, 65, 49, 192, 112
-0.977518, 385, 33, 448, 288
-0.977781, 65, 25, 192, 88
-0.97784, 297, 73, 328, 136
-0.977868, 97, 1, 160, 64
-0.978019, 249, 129, 312, 375
-0.978077, 337, 105, 464, 168
-0.978104, 57, 81, 120, 208
-0.978214, 269, 217, 300, 280
-0.978274, 101, 1, 132, 128
-0.978319, 85, 57, 116, 120
-0.978346, 129, 209, 256, 336
-0.978423, 313, 73, 376, 136
-0.978424, 469, 193, 500, 320
-0.978535, 377, 65, 408, 192
-0.978594, 257, 193, 288, 256
-0.978603, 241, 217, 368, 280
-0.978638, 313, 257, 376, 320
-0.978717, 353, 81, 384, 208
-0.978769, 353, 97, 384, 160
-0.978774, 237, 17, 268, 144
-0.97886, 389, 129, 420, 192
-0.978954, 17, 57, 144, 120
-0.978975, 409, 249, 440, 312
-0.979024, 249, 33, 280, 160
-0.979044, 25, 65, 88, 192
-0.979253, 445, 161, 476, 288
-0.979259, 225, 233, 288, 296
-0.979272, 273, 161, 304, 288
-0.979374, 73, 57, 104, 120
-0.979383, 201, 65, 232, 192
-0.979477, 369, 105, 400, 168
-0.97949, 221, 65, 252, 192
-0.979493, 33, 177, 160, 304
-0.97957, 249, 1, 312, 375
-0.979601, 425, 257, 456, 320
-0.979606, 201, 209, 264, 336
-0.97965, 261, 193, 292, 320
-0.979653, 177, 25, 304, 88
-0.979722, 113, 57, 176, 120
-0.979795, 161, 153, 288, 216
-0.979856, 97, 105, 160, 168
-0.979927, 81, 225, 208, 352
-0.979941, 289, 81, 320, 208
-0.979958, 161, 177, 224, 304
-0.980018, 289, 49, 352, 112
-0.98003, 429, 129, 460, 192
-0.980062, 97, 49, 128, 176
-0.980134, 261, 41, 292, 104
-0.980144, 225, 185, 352, 248
-0.980166, 457, 249, 488, 312
-0.980176, 241, 57, 368, 120
-0.980179, 273, 1, 336, 375
-0.980303, 161, 81, 224, 144
-0.980325, 369, 57, 496, 120
-0.980358, 377, 129, 408, 192
-0.980362, 185, 1, 248, 375
-0.980464, 289, 73, 416, 136
-0.980507, 9, 1, 72, 128
-0.98052, 321, 217, 448, 280
-0.980521, 113, 9, 240, 72
-0.980646, 185, 17, 248, 80
-0.980649, 289, 129, 352, 256
-0.980749, 265, 241, 328, 304
-0.98077, 153, 129, 216, 192
-0.980784, 145, 177, 208, 240
-0.980861, 65, 1, 128, 256
-0.980866, 325, 81, 356, 208
-0.98088, 225, 1, 288, 375
-0.980893, 393, 9, 456, 72
-0.980931, 121, 193, 184, 256
-0.980959, 401, 1, 464, 375
-0.981016, 257, 257, 384, 320
-0.981042, 257, 145, 320, 208
-0.981042, 361, 241, 424, 304
-0.981088, 409, 137, 440, 200
-0.981194, 385, 129, 448, 375
-0.981212, 109, 65, 140, 192
-0.981215, 137, 1, 200, 256
-0.981219, 305, 81, 336, 208
-0.981274, 177, 1, 208, 128
-0.981314, 129, 97, 192, 352
-0.981366, 153, 65, 184, 192
-0.981407, 161, 129, 224, 375
-0.981441, 361, 33, 424, 96
-0.981533, 297, 217, 328, 280
-0.981567, 257, 169, 320, 232
-0.981579, 397, 257, 428, 320
-0.981713, 289, 41, 416, 104
-0.981757, 277, 209, 308, 336
-0.981788, 257, 105, 320, 168
-0.981802, 173, 49, 204, 176
-0.981995, 105, 1, 168, 375
-0.982033, 49, 89, 112, 152
-0.982051, 17, 81, 144, 144
-0.982081, 361, 57, 424, 120
-0.982094, 81, 105, 208, 168
-0.982106, 161, 209, 288, 272
-0.98212, 289, 17, 320, 144
-0.98213, 217, 145, 248, 272
-0.982215, 129, 1, 192, 375
-0.982227, 41, 1, 104, 64
-0.98223, 289, 257, 352, 320
-0.982263, 209, 145, 272, 208
-0.98231, 417, 17, 480, 80
-0.982329, 369, 161, 496, 224
-0.982332, 133, 65, 164, 192
-0.982375, 377, 1, 440, 375
-0.982439, 397, 161, 428, 288
-0.982462, 257, 17, 384, 80
-0.982507, 401, 209, 432, 336
-0.982527, 337, 257, 400, 320
-0.982553, 425, 1, 488, 375
-0.982571, 393, 57, 424, 120
-0.982614, 401, 225, 432, 288
-0.982644, 113, 17, 144, 144
-0.982644, 185, 161, 248, 224
-0.98265, 329, 89, 360, 152
-0.982691, 209, 1, 272, 64
-0.982725, 77, 17, 108, 144
-0.982757, 457, 161, 488, 288
-0.982772, 189, 49, 220, 176
-0.982809, 381, 105, 412, 168
-0.982838, 229, 113, 260, 240
-0.982851, 129, 153, 192, 216
-0.982891, 121, 217, 184, 280
-0.982944, 97, 161, 160, 288
-0.983024, 193, 105, 256, 168
-0.983044, 433, 273, 496, 336
-0.98316, 353, 217, 416, 280
-0.983185, 73, 1, 136, 64
-0.983186, 317, 89, 348, 152
-0.983251, 409, 57, 472, 120
-0.983254, 273, 185, 304, 248
-0.983265, 433, 129, 496, 375
-0.983275, 177, 177, 304, 240
-0.983284, 313, 225, 376, 288
-0.983288, 113, 1, 176, 256
-0.983291, 1, 113, 128, 240
-0.983325, 249, 273, 312, 336
-0.983419, 157, 1, 188, 128
-0.983422, 321, 249, 448, 312
-0.9835, 357, 121, 388, 184
-0.983508, 129, 249, 192, 312
-0.983553, 313, 129, 376, 256
-0.983562, 217, 153, 248, 216
-0.983726, 17, 33, 144, 96
-0.983729, 341, 81, 372, 208
-0.983742, 313, 217, 344, 280
-0.98383, 205, 113, 236, 240
-0.983863, 193, 121, 320, 184
-0.983897, 285, 89, 316, 152
-0.983912, 1, 97, 64, 160
-0.983997, 321, 33, 384, 160
-0.984088, 273, 1, 304, 128
-0.984137, 137, 49, 200, 112
-0.984152, 285, 217, 316, 280
-0.984237, 185, 161, 248, 288
-0.984243, 105, 97, 168, 352
-0.984301, 113, 81, 144, 144
-0.984301, 341, 97, 372, 160
-0.984368, 165, 97, 196, 224
-0.984459, 97, 73, 128, 136
-0.984491, 229, 161, 260, 288
-0.984509, 393, 49, 424, 176
-0.984512, 301, 17, 332, 144
-0.984533, 241, 185, 272, 248
-0.984649, 1, 1, 64, 256
-0.984669, 241, 113, 368, 176
-0.984697, 145, 1, 176, 128
-0.984796, 237, 65, 268, 192
-0.984813, 125, 81, 156, 144
-0.984826, 81, 1, 144, 375
-0.984839, 97, 137, 224, 200
-0.984843, 433, 161, 464, 288
-0.984855, 281, 145, 344, 208
-0.984882, 353, 1, 416, 375
-0.984967, 305, 97, 336, 160
-0.984976, 433, 33, 496, 288
-0.985099, 401, 113, 432, 176
-0.985099, 241, 113, 272, 240
-0.985104, 117, 113, 148, 240
-0.985112, 261, 129, 292, 256
-0.985121, 121, 65, 152, 192
-0.98518, 441, 137, 472, 200
-0.985199, 253, 217, 284, 280
-0.985229, 297, 1, 360, 375
-0.985239, 305, 145, 432, 208
-0.985241, 161, 105, 224, 168
-0.985288, 193, 113, 224, 240
-0.985294, 377, 113, 408, 240
-0.985307, 361, 161, 424, 224
-0.985356, 217, 17, 248, 144
-0.98545, 261, 81, 292, 208
-0.985494, 65, 1, 192, 64
-0.985507, 81, 177, 208, 240
-0.985522, 1, 9, 128, 72
-0.985624, 241, 209, 272, 272
-0.985627, 337, 49, 400, 112
-0.985752, 337, 81, 464, 144
-0.985768, 277, 161, 308, 224
-0.985783, 273, 81, 304, 144
-0.985785, 241, 177, 272, 304
-0.985802, 417, 113, 480, 176
-0.985868, 5, 137, 36, 200
-0.985872, 433, 161, 496, 224
-0.985974, 177, 233, 304, 296
-0.985986, 137, 81, 168, 144
-0.986036, 209, 209, 272, 272
-0.986048, 145, 49, 272, 112
-0.986052, 133, 1, 164, 128
-0.986054, 365, 81, 396, 144
-0.986074, 389, 113, 420, 240
-0.986156, 157, 9, 188, 72
-0.986187, 225, 81, 256, 144
-0.986187, 313, 193, 376, 320
-0.986232, 401, 113, 432, 240
-0.986248, 161, 33, 224, 96
-0.986296, 1, 161, 64, 224
-0.986336, 245, 33, 276, 96
-0.986345, 21, 73, 52, 136
-0.986362, 285, 161, 316, 288
-0.986392, 5, 81, 36, 208
-0.986392, 289, 281, 352, 344
-0.986392, 137, 225, 200, 352
-0.986438, 409, 49, 440, 112
-0.986465, 257, 161, 384, 224
-0.98649, 209, 49, 272, 112
-0.986564, 129, 73, 384, 136
-0.986639, 353, 209, 416, 336
-0.986644, 189, 1, 220, 128
-0.986645, 229, 121, 260, 184
-0.986671, 413, 113, 444, 176
-0.986687, 377, 201, 440, 264
-0.986689, 425, 33, 456, 96
-0.986691, 469, 265, 500, 328
-0.986731, 265, 145, 296, 208
-0.986742, 145, 145, 176, 272
-0.986818, 181, 113, 212, 240
-0.986915, 277, 97, 308, 224
-0.986935, 369, 33, 496, 96
-0.986951, 209, 113, 240, 176
-0.986964, 193, 1, 320, 64
-0.987029, 205, 17, 236, 144
-0.98707, 309, 225, 340, 352
-0.987153, 321, 281, 384, 344
-0.987173, 229, 145, 260, 208
-0.987175, 169, 9, 200, 72
-0.987246, 429, 153, 460, 216
-0.98725, 321, 1, 384, 375
-0.987304, 153, 81, 184, 144
-0.987306, 437, 257, 468, 320
-0.987319, 89, 1, 152, 256
-0.987329, 273, 241, 304, 304
-0.987353, 425, 113, 456, 240
-0.98752, 65, 1, 96, 128
-0.987567, 409, 1, 472, 256
-0.987577, 61, 57, 92, 120
-0.987603, 41, 57, 72, 120
-0.987642, 237, 81, 268, 144
-0.987646, 369, 273, 496, 336
-0.987679, 469, 241, 500, 368
-0.98769, 209, 145, 336, 208
-0.987693, 89, 185, 152, 248
-0.987752, 441, 209, 472, 272
-0.987799, 113, 105, 144, 168
-0.987824, 5, 113, 36, 176
-0.987862, 353, 17, 416, 144
-0.98788, 409, 161, 440, 224
-0.988018, 285, 33, 316, 96
-0.988018, 229, 169, 260, 232
-0.988025, 393, 153, 424, 216
-0.988086, 185, 57, 248, 120
-0.988094, 401, 241, 464, 272
-0.98813, 201, 17, 232, 80
-0.988164, 49, 137, 176, 200
-0.988209, 105, 17, 136, 80
-0.988215, 101, 41, 132, 104
-0.988284, 65, 33, 96, 96
-0.988311, 229, 209, 260, 272
-0.988337, 257, 281, 384, 344
-0.98836, 209, 265, 336, 328
-0.988408, 469, 1, 500, 64
-0.988477, 465, 25, 496, 88
-0.988515, 337, 161, 400, 288
-0.988573, 1, 129, 64, 256
-0.988613, 397, 33, 428, 96
-0.988617, 401, 229, 464, 260
-0.988632, 461, 1, 492, 128
-0.988644, 145, 153, 176, 216
-0.988647, 213, 81, 244, 144
-0.988666, 329, 113, 360, 176
-0.988713, 341, 257, 372, 320
-0.98872, 81, 233, 208, 296
-0.988796, 457, 145, 488, 208
-0.988916, 129, 113, 160, 240
-0.988927, 377, 273, 440, 336
-0.988957, 9, 25, 72, 88
-0.98897, 85, 81, 116, 144
-0.988997, 105, 25, 168, 88
-0.989001, 249, 81, 280, 144
-0.989025, 321, 209, 352, 336
-0.9891, 409, 161, 472, 224
-0.98914, 165, 169, 196, 232
-0.989166, 433, 225, 496, 256
-0.989171, 225, 257, 288, 320
-0.989201, 425, 241, 488, 272
-0.98922, 289, 1, 352, 64
-0.989222, 129, 177, 256, 240
-0.989272, 325, 217, 356, 280
-0.989273, 469, 145, 500, 272
-0.989289, 113, 57, 144, 120
-0.989305, 5, 81, 36, 144
-0.989387, 469, 185, 500, 248
-0.989461, 409, 25, 440, 88
-0.989499, 413, 97, 444, 224
-0.989541, 409, 153, 472, 184
-0.989554, 273, 221, 336, 252
-0.989558, 1, 129, 128, 192
-0.989566, 389, 233, 420, 296
-0.989597, 369, 201, 496, 264
-0.989628, 313, 201, 376, 264
-0.989636, 309, 65, 340, 128
-0.989642, 409, 49, 440, 176
-0.989661, 241, 217, 304, 248
-0.9897, 257, 73, 320, 104
-0.989757, 9, 49, 72, 112
-0.989766, 273, 281, 304, 344
-0.989813, 337, 101, 400, 132
-0.989814, 265, 85, 328, 116
-0.989835, 257, 225, 500, 288
-0.989847, 421, 201, 452, 264
-0.989855, 305, 273, 432, 336
-0.989865, 61, 81, 92, 144
-0.989886, 417, 53, 480, 84
-0.989887, 293, 193, 324, 256
-0.98989, 25, 1, 88, 256
-0.98993, 377, 81, 408, 144
-0.989933, 81, 97, 144, 352
-0.989949, 73, 29, 136, 60
-0.989975, 381, 153, 412, 216
-0.990002, 17, 81, 48, 208
-0.990014, 297, 193, 328, 320
-0.990015, 437, 49, 468, 112
-0.99006, 113, 201, 240, 264
-0.990097, 125, 121, 156, 184
-0.990101, 361, 129, 424, 160
-0.990111, 73, 85, 136, 116
-0.990123, 1, 153, 128, 216
-0.99013, 105, 85, 168, 116
-0.990132, 289, 81, 352, 112
-0.990133, 153, 13, 216, 44
-0.990174, 193, 113, 224, 176
-0.990193, 161, 225, 416, 288
-0.990194, 377, 249, 440, 280
-0.990224, 321, 193, 448, 256
-0.990237, 313, 33, 344, 160
-0.990241, 229, 209, 260, 336
-0.990242, 425, 253, 488, 284
-0.99025, 97, 21, 160, 52
-0.990266, 257, 169, 288, 232
-0.990331, 105, 241, 168, 304
-0.99037, 193, 97, 448, 160
-0.990385, 289, 201, 352, 264
-0.990403, 281, 233, 344, 264
-0.990416, 17, 77, 80, 108
-0.99044, 33, 105, 160, 168
-0.990454, 225, 129, 480, 192
-0.990489, 153, 233, 184, 296
-0.990496, 385, 145, 448, 176
-0.990515, 257, 249, 500, 312
-0.99057, 73, 161, 136, 288
-0.990573, 57, 1, 120, 375
-0.990634, 393, 133, 456, 164
-0.990653, 313, 97, 376, 128
-0.99067, 225, 85, 288, 116
-0.990687, 401, 253, 464, 284
-0.990699, 193, 25, 256, 56
-0.990708, 121, 13, 184, 44
-0.990729, 361, 113, 424, 144
-0.990732, 437, 49, 468, 176
-0.990746, 369, 9, 496, 72
-0.990748, 393, 121, 456, 152
-0.990772, 377, 261, 440, 292
-0.99079, 385, 61, 448, 92
-0.990801, 261, 81, 292, 144
-0.990812, 289, 93, 352, 124
-0.99082, 149, 105, 180, 168
-0.990868, 217, 213, 280, 244
-0.990885, 65, 17, 320, 80
-0.990902, 153, 265, 216, 328
-0.990992, 49, 85, 112, 116
-0.990996, 345, 121, 376, 184
-0.991024, 97, 49, 352, 112
-0.991027, 349, 73, 380, 136
-0.991041, 337, 121, 400, 152
-0.991042, 225, 37, 288, 68
-0.991083, 305, 241, 336, 304
-0.991109, 329, 145, 392, 208
-0.991156, 49, 201, 176, 264
-0.991158, 241, 233, 304, 264
-0.991162, 297, 109, 360, 140
-0.991192, 113, 69, 176, 100
-0.991204, 433, 273, 496, 304
-0.991218, 417, 137, 480, 168
-0.991225, 453, 201, 484, 264
-0.991232, 129, 129, 192, 192
-0.99124, 49, 53, 112, 84
-0.991241, 73, 45, 136, 76
-0.991248, 153, 177, 216, 208
-0.991274, 377, 165, 440, 196
-0.9913, 249, 181, 312, 212
-0.991301, 233, 25, 264, 88
-0.991307, 121, 1, 152, 64
-0.991316, 185, 201, 248, 264
-0.99133, 177, 161, 240, 192
-0.991339, 65, 97, 128, 128
-0.991341, 129, 85, 192, 116
-0.991366, 73, 17, 136, 48
-0.991367, 85, 65, 116, 192
-0.991395, 241, 53, 304, 84
-0.991396, 65, 73, 128, 104
-0.991396, 165, 81, 196, 144
-0.991439, 273, 193, 400, 256
-0.991443, 217, 177, 280, 208
-0.991458, 169, 69, 232, 100
-0.991465, 177, 281, 240, 344
-0.991476, 265, 253, 328, 284
-0.991481, 297, 221, 360, 252
-0.991494, 317, 113, 348, 176
-0.991559, 265, 33, 328, 64
-0.991578, 337, 85, 400, 116
-0.991589, 89, 69, 152, 100
-0.991594, 105, 145, 136, 272
-0.991594, 157, 177, 188, 304
-0.991595, 129, 165, 192, 196
-0.991601, 193, 289, 320, 352
-0.991624, 113, 265, 240, 328
-0.991629, 209, 289, 272, 352
-0.991632, 129, 109, 192, 140
-0.991639, 217, 225, 280, 256
-0.991646, 25, 89, 88, 120
-0.991656, 41, 69, 104, 100
-0.991659, 265, 101, 328, 132
-0.99166, 49, 33, 112, 64
-0.991673, 241, 169, 304, 200
-0.991676, 201, 117, 264, 148
-0.991678, 361, 101, 424, 132
-0.991685, 425, 165, 488, 196
-0.99171, 241, 149, 304, 180
-0.991714, 193, 41, 448, 104
-0.991719, 1, 73, 500, 136
-0.991733, 249, 21, 312, 52
-0.991734, 73, 81, 104, 144
-0.991737, 121, 25, 184, 56
-0.991747, 457, 225, 488, 256
-0.991748, 201, 81, 232, 144
-0.991753, 361, 149, 424, 180
-0.991754, 365, 129, 396, 256
-0.991758, 201, 157, 264, 188
-0.991786, 409, 41, 472, 72
-0.991804, 409, 245, 440, 276
-0.991811, 177, 9, 240, 40
-0.991817, 105, 133, 168, 164
-0.991819, 121, 97, 184, 128
-0.991838, 121, 217, 184, 248
-0.991864, 273, 289, 336, 320
-0.991879, 305, 233, 368, 264
-0.99189, 393, 89, 456, 152
-0.99189, 421, 49, 452, 176
-0.9919, 81, 57, 144, 88
-0.991902, 433, 153, 496, 184
-0.991905, 349, 33, 380, 160
-0.99191, 453, 41, 484, 104
-0.991925, 433, 213, 496, 244
-0.991929, 169, 25, 232, 56
-0.991936, 305, 245, 368, 276
-0.99194, 469, 221, 500, 252
-0.991944, 437, 237, 468, 268
-0.99195, 1, 25, 500, 88
-0.99197, 377, 237, 440, 268
-0.991981, 273, 177, 336, 208
-0.991984, 217, 141, 280, 172
-0.991993, 401, 217, 464, 248
-0.991999, 265, 265, 328, 296
-0.992023, 37, 17, 68, 144
-0.992051, 17, 65, 80, 96
-0.992052, 97, 9, 160, 40
-0.992055, 169, 145, 200, 272
-0.992061, 353, 245, 416, 276
-0.992062, 435, 225, 450, 288
-0.992073, 281, 5, 344, 36
-0.992075, 249, 281, 312, 312
-0.992082, 257, 65, 500, 128
-0.992095, 453, 237, 484, 268
-0.992098, 41, 13, 104, 44
-0.992112, 401, 165, 464, 196
-0.992116, 121, 201, 184, 232
-0.992138, 137, 73, 200, 104
-0.992145, 137, 121, 200, 152
-0.992152, 433, 41, 496, 72
-0.992158, 421, 229, 452, 260
-0.992163, 201, 81, 264, 112
-0.992196, 415, 225, 430, 288
-0.992198, 353, 281, 416, 312
-0.992205, 105, 145, 168, 176
-0.992212, 313, 289, 376, 320
-0.992213, 161, 117, 224, 148
-0.992221, 421, 245, 452, 276
-0.992244, 409, 229, 440, 260
-0.992244, 225, 189, 288, 220
-0.99225, 1, 165, 64, 196
-0.992255, 469, 241, 500, 272
-0.992265, 101, 97, 132, 160
-0.992267, 433, 29, 496, 60
-0.992272, 217, 129, 280, 160
-0.992276, 313, 121, 376, 152
-0.992279, 385, 49, 448, 80
-0.99228, 425, 1, 456, 128
-0.992289, 241, 225, 272, 352
-0.992296, 281, 277, 344, 308
-0.992308, 453, 17, 484, 80
-0.992319, 145, 61, 208, 92
-0.992325, 261, 17, 292, 80
-0.992339, 129, 261, 192, 292
-0.992347, 441, 225, 472, 256
-0.992362, 285, 281, 316, 344
-0.992388, 265, 157, 328, 188
-0.992396, 249, 205, 312, 236
-0.992399, 257, 201, 500, 264
-0.992406, 33, 73, 288, 136
-0.992438, 161, 257, 288, 320
-0.992455, 345, 265, 408, 296
-0.992461, 145, 25, 208, 56
-0.992464, 385, 109, 448, 140
-0.992473, 313, 269, 376, 300
-0.992476, 121, 233, 184, 264
-0.992476, 393, 25, 456, 56
-0.992477, 433, 285, 496, 316
-0.992491, 161, 201, 224, 264
-0.992495, 449, 33, 480, 160
-0.992499, 297, 85, 328, 116
-0.992514, 417, 177, 480, 208
-0.992518, 277, 89, 308, 120
-0.992519, 273, 45, 336, 76
-0.992522, 93, 85, 124, 116
-0.992576, 405, 145, 436, 176
-0.992583, 129, 161, 384, 224
-0.992592, 85, 29, 116, 60
-0.992598, 133, 193, 164, 320
-0.99262, 281, 169, 344, 232
-0.992634, 289, 73, 320, 104
-0.992648, 437, 57, 468, 88
-0.992662, 241, 221, 272, 252
-0.992666, 425, 157, 456, 188
-0.992671, 277, 221, 308, 252
-0.99268, 113, 85, 144, 116
-0.992704, 257, 217, 288, 248
-0.992706, 465, 45, 496, 76
-0.992715, 241, 297, 304, 360
-0.992721, 353, 105, 384, 136
-0.992732, 309, 233, 340, 264
-0.992733, 423, 225, 438, 288
-0.992734, 1, 105, 500, 168
-0.992759, 449, 53, 480, 84
-0.992761, 369, 89, 400, 120
-0.992764, 457, 249, 488, 280
-0.992769, 1, 97, 64, 352
-0.992769, 373, 117, 404, 148
-0.99277, 277, 237, 308, 268
-0.992775, 65, 49, 96, 176
-0.992777, 169, 13, 200, 44
-0.992781, 325, 33, 356, 160
-0.992782, 73, 85, 104, 116
-0.992793, 441, 249, 472, 280
-0.992796, 229, 209, 260, 240
-0.992797, 365, 101, 396, 132
-0.992798, 269, 181, 300, 212
-0.99281, 101, 13, 132, 44
-0.992816, 93, 73, 124, 104
-0.992842, 293, 221, 324, 252
-0.992847, 385, 133, 416, 164
-0.992857, 165, 173, 196, 204
-0.992866, 277, 65, 308, 96
-0.992882, 401, 201, 464, 264
-0.992891, 1, 49, 500, 112
-0.992891, 467, 217, 482, 280
-0.992892, 373, 129, 404, 160
-0.992914, 249, 37, 280, 68
-0.992916, 321, 225, 352, 256
-0.992922, 265, 233, 296, 264
-0.992925, 405, 165, 436, 196
-0.992933, 357, 125, 388, 156
-0.992945, 269, 53, 300, 84
-0.99295, 397, 249, 428, 280
-0.992969, 157, 13, 188, 44
-0.99297, 297, 233, 328, 264
-0.992971, 465, 273, 496, 304
-0.992979, 385, 121, 416, 152
-0.99298, 405, 261, 436, 292
-0.992989, 397, 129, 428, 160
-0.992996, 425, 57, 456, 88
-0.99301, 317, 93, 348, 124
-0.99301, 253, 85, 284, 116
-0.993012, 429, 141, 460, 172
-0.993031, 61, 85, 92, 116
-0.993033, 421, 257, 452, 288
-0.99304, 437, 157, 468, 188
-0.993041, 81, 69, 112, 100
-0.993045, 417, 145, 448, 176
-0.993046, 333, 117, 364, 148
-0.993048, 89, 17, 120, 48
-0.993048, 17, 1, 80, 375
-0.993051, 121, 13, 152, 44
-0.993053, 459, 225, 474, 288
-0.993055, 185, 21, 216, 52
-0.993063, 421, 217, 452, 248
-0.993066, 17, 77, 48, 108
-0.993068, 441, 225, 456, 288
-0.99307, 321, 113, 352, 144
-0.993072, 393, 153, 424, 184
-0.993078, 153, 165, 184, 196
-0.993088, 429, 45, 460, 76
-0.993088, 429, 225, 444, 288
-0.993094, 273, 253, 304, 284
-0.993098, 297, 105, 328, 136
-0.993103, 345, 121, 376, 152
-0.993103, 85, 41, 116, 72
-0.993106, 213, 157, 244, 188
-0.993107, 225, 29, 256, 60
-0.993115, 305, 221, 336, 252
-0.993116, 421, 125, 452, 156
-0.993122, 81, 209, 144, 336
-0.993124, 145, 13, 176, 44
-0.993124, 49, 85, 80, 116
-0.993132, 37, 73, 68, 104
-0.993138, 285, 173, 316, 204
-0.993139, 269, 149, 300, 180
-0.993145, 329, 97, 360, 128
-0.993147, 237, 33, 268, 64
-0.993147, 409, 61, 440, 92
-0.993147, 277, 77, 308, 108
-0.993149, 449, 161, 480, 192
-0.993152, 133, 13, 164, 44
-0.993155, 465, 29, 496, 60
-0.993157, 65, 41, 96, 72
-0.993164, 377, 105, 408, 136
-0.993164, 101, 97, 132, 128
-0.993165, 341, 101, 372, 132
-0.99317, 381, 149, 412, 180
-0.993171, 109, 73, 140, 104
-0.993173, 257, 177, 288, 208
-0.993185, 69, 53, 100, 84
-0.993187, 309, 109, 340, 140
-0.993187, 417, 45, 448, 76
-0.993187, 209, 25, 240, 56
-0.993188, 441, 145, 472, 176
-0.993188, 221, 169, 252, 200
-0.993189, 257, 49, 288, 80
-0.99319, 133, 85, 164, 116
-0.993192, 21, 89, 52, 120
-0.993195, 285, 153, 316, 184
-0.993199, 401, 117, 432, 148
-0.993201, 81, 57, 112, 88
-0.993205, 153, 253, 184, 284
-0.993207, 145, 85, 176, 116
-0.993209, 25, 1, 56, 32
-0.99321, 197, 21, 228, 52
-0.993214, 229, 153, 260, 184
-0.993217, 301, 73, 332, 104
-0.993231, 461, 165, 492, 196
-0.993231, 137, 73, 168, 104
-0.993231, 397, 233, 428, 264
-0.993231, 393, 65, 424, 96
-0.993232, 469, 253, 500, 284
-0.993237, 393, 165, 424, 196
-0.99324, 409, 133, 440, 164
-0.99324, 233, 177, 264, 208
-0.993241, 209, 121, 240, 152
-0.993243, 125, 129, 156, 160
-0.993247, 477, 217, 492, 280
-0.993264, 1, 97, 256, 160
-0.993373, 121, 161, 152, 288
-0.993571, 447, 225, 462, 288
-0.993585, 49, 65, 80, 192
-0.993636, 65, 121, 320, 184
-0.993652, 257, 17, 500, 80
-0.993676, 65, 25, 192, 56
-0.993705, 485, 225, 500, 288
-0.99372, 265, 241, 296, 368
-0.993751, 373, 17, 404, 144
-0.993772, 97, 97, 352, 160
-0.993804, 473, 241, 488, 304
-0.993904, 369, 233, 496, 264
-0.993908, 345, 241, 376, 368
-0.993995, 21, 1, 52, 128
-0.993997, 5, 33, 36, 160
-0.994021, 437, 1, 468, 128
-0.994066, 65, 85, 192, 116
-0.994091, 325, 161, 356, 288
-0.994118, 369, 257, 496, 288
-0.994199, 295, 65, 310, 128
-0.994205, 65, 193, 320, 256
-0.994221, 287, 57, 302, 120
-0.994336, 305, 17, 432, 80
-0.994362, 97, 13, 224, 44
-0.994372, 257, 153, 500, 216
-0.994483, 289, 93, 416, 124
-0.994501, 161, 241, 224, 368
-0.994559, 375, 105, 390, 168
-0.994604, 305, 169, 432, 232
-0.99465, 129, 73, 256, 104
-0.994652, 1, 49, 256, 112
-0.994664, 439, 249, 454, 312
-0.99474, 225, 221, 352, 252
-0.994755, 301, 73, 316, 136
-0.994767, 85, 57, 100, 120
-0.994779, 209, 73, 336, 104
-0.994797, 29, 81, 60, 208
-0.994808, 383, 105, 398, 168
-0.994845, 17, 177, 144, 240
-0.994869, 217, 193, 248, 320
-0.994879, 209, 85, 336, 116
-0.99489, 305, 297, 432, 360
-0.994931, 337, 33, 368, 160
-0.994932, 389, 241, 420, 368
-0.994934, 431, 257, 446, 320
-0.994945, 1, 225, 500, 288
-0.994969, 437, 113, 468, 240
-0.994975, 161, 249, 416, 312
-0.994993, 353, 145, 480, 176
-0.994998, 25, 145, 88, 272
-0.995034, 1, 145, 256, 208
-0.995052, 461, 249, 476, 312
-0.99508, 369, 61, 496, 92
-0.995082, 193, 61, 320, 92
-0.995123, 391, 129, 406, 192
-0.995129, 411, 257, 426, 320
-0.995131, 453, 225, 468, 288
-0.995138, 337, 245, 464, 276
-0.995144, 315, 217, 330, 280
-0.995152, 277, 193, 292, 256
-0.995152, 425, 257, 440, 320
-0.995153, 287, 217, 302, 280
-0.995162, 275, 217, 290, 280
-0.995168, 281, 153, 296, 216
-0.995186, 417, 257, 432, 320
-0.995209, 1, 129, 500, 192
-0.995232, 87, 25, 102, 88
-0.995252, 145, 25, 272, 56
-0.99531, 273, 81, 400, 112
-0.995311, 33, 65, 160, 96
-0.995313, 467, 249, 482, 312
-0.995333, 363, 97, 378, 160
-0.995355, 65, 217, 320, 280
-0.995373, 411, 137, 426, 200
-0.995383, 269, 41, 284, 104
-0.995388, 417, 137, 432, 200
-0.995389, 93, 65, 108, 128
-0.995395, 309, 129, 340, 256
-0.99541, 129, 233, 256, 296
-0.995414, 393, 1, 424, 128
-0.995445, 399, 129, 414, 192
-0.995477, 405, 129, 420, 192
-0.99548, 241, 233, 368, 264
-0.995487, 293, 241, 324, 368
-0.995496, 479, 241, 494, 304
-0.995505, 385, 129, 400, 192
-0.995517, 185, 1, 216, 256
-0.995536, 17, 89, 144, 120
-0.995546, 49, 13, 176, 44
-0.995555, 321, 233, 448, 264
-0.995569, 279, 49, 294, 112
-0.99559, 369, 97, 384, 160
-0.995611, 289, 121, 416, 152
-0.99562, 321, 105, 448, 136
-0.995624, 145, 173, 272, 204
-0.99563, 281, 217, 296, 280
-0.995646, 113, 225, 176, 352
-0.995651, 297, 65, 328, 320
-0.995676, 257, 253, 384, 284
-0.995708, 453, 249, 468, 312
-0.995723, 409, 233, 424, 296
-0.99573, 171, 9, 186, 72
-0.995749, 145, 289, 272, 352
-0.995775, 337, 125, 464, 156
-0.995815, 483, 265, 498, 328
-0.99582, 375, 81, 390, 144
-0.995838, 427, 145, 442, 208
-0.995846, 95, 25, 110, 88
-0.995857, 259, 185, 274, 248
-0.995867, 325, 89, 340, 152
-0.995867, 197, 1, 228, 256
-0.99588, 345, 129, 376, 256
-0.995927, 375, 129, 390, 192
-0.99594, 145, 85, 272, 116
-0.995945, 65, 53, 192, 84
-0.995979, 385, 193, 416, 320
-0.995983, 123, 81, 138, 144
-0.995987, 241, 97, 368, 128
-0.995997, 361, 17, 392, 144
-0.996009, 271, 193, 286, 256
-0.996036, 249, 209, 264, 272
-0.996037, 347, 97, 362, 160
-0.996038, 49, 129, 112, 256
-0.996045, 5, 129, 36, 256
-0.996047, 335, 89, 350, 152
-0.996055, 309, 217, 324, 280
-0.996068, 357, 97, 372, 160
-0.996093, 259, 209, 274, 272
-0.996119, 269, 217, 284, 280
-0.996134, 333, 209, 364, 336
-0.996136, 353, 161, 480, 192
-0.996136, 161, 221, 288, 252
-0.996141, 121, 209, 152, 336
-0.996143, 241, 109, 368, 140
-0.996153, 1, 137, 16, 200
-0.996156, 373, 65, 404, 320
-0.996163, 117, 81, 132, 144
-0.996166, 49, 17, 80, 144
-0.996169, 307, 97, 322, 160
-0.996174, 367, 121, 382, 184
-0.99621, 99, 57, 114, 120
-0.996215, 449, 113, 480, 240
-0.996224, 1, 33, 128, 64
-0.996235, 447, 249, 462, 312
-0.996241, 433, 121, 448, 184
-0.996251, 297, 145, 328, 272
-0.996258, 1, 45, 128, 76
-0.99627, 263, 41, 278, 104
-0.996271, 319, 81, 334, 144
-0.996274, 49, 177, 112, 304
-0.996283, 265, 193, 280, 256
-0.996287, 225, 17, 352, 48
-0.996292, 313, 81, 328, 144
-0.996297, 409, 1, 440, 128
-0.996299, 79, 49, 94, 112
-0.996307, 161, 281, 416, 344
-0.996308, 289, 81, 304, 144
-0.996312, 93, 145, 124, 272
-0.996329, 229, 153, 244, 216
-0.996338, 129, 81, 144, 144
-0.996342, 113, 125, 240, 156
-0.996357, 341, 89, 356, 152
-0.996366, 161, 1, 416, 64
-0.996374, 105, 57, 120, 120
-0.996386, 321, 217, 336, 280
-0.996418, 395, 57, 410, 120
-0.99643, 113, 113, 240, 144
-0.996442, 413, 49, 428, 112
-0.996457, 249, 185, 264, 248
-0.996457, 407, 49, 422, 112
-0.996476, 481, 221, 496, 252
-0.996497, 257, 265, 384, 296
-0.996498, 309, 65, 340, 320
-0.9965, 257, 273, 500, 336
-0.996507, 283, 193, 298, 256
-0.996508, 129, 141, 256, 172
-0.996513, 461, 225, 476, 256
-0.996515, 417, 97, 448, 352
-0.99653, 209, 1, 240, 256
-0.996533, 241, 81, 256, 144
-0.996537, 177, 49, 304, 80
-0.996537, 145, 209, 272, 240
-0.996538, 269, 33, 300, 288
-0.996544, 307, 65, 322, 128
-0.996551, 473, 225, 488, 256
-0.996554, 305, 137, 432, 168
-0.996556, 65, 37, 192, 68
-0.996581, 97, 97, 128, 224
-0.996583, 65, 105, 192, 136
-0.996586, 423, 121, 438, 184
-0.996589, 477, 265, 492, 328
-0.996596, 441, 129, 456, 192
-0.996597, 249, 81, 264, 144
-0.996602, 249, 1, 280, 256
-0.996611, 469, 25, 484, 88
-0.996614, 405, 257, 420, 320
-0.996617, 459, 137, 474, 200
-0.996633, 105, 33, 120, 96
-0.996633, 213, 121, 228, 184
-0.996636, 231, 81, 246, 144
-0.996647, 221, 121, 236, 184
-0.996657, 353, 41, 480, 72
-0.996662, 415, 229, 430, 260
-0.996671, 257, 33, 384, 64
-0.996688, 287, 153, 302, 216
-0.996688, 297, 217, 312, 280
-0.99669, 467, 233, 482, 264
-0.996693, 177, 37, 304, 68
-0.996694, 471, 1, 486, 64
-0.996708, 447, 137, 462, 200
-0.99671, 257, 277, 384, 308
-0.99671, 455, 233, 470, 264
-0.996717, 321, 221, 448, 252
-0.996725, 257, 289, 384, 320
-0.996727, 401, 49, 416, 112
-0.99674, 25, 81, 40, 144
-0.996744, 161, 201, 416, 264
-0.996744, 453, 129, 468, 192
-0.99675, 419, 33, 434, 96
-0.996755, 173, 97, 204, 352
-0.996757, 225, 81, 240, 144
-0.99676, 327, 217, 342, 280
-0.996762, 385, 81, 400, 144
-0.996764, 173, 1, 204, 256
-0.996775, 229, 1, 260, 256
-0.996776, 109, 193, 140, 320
-0.996778, 431, 241, 446, 272
-0.996779, 81, 25, 96, 88
-0.996787, 461, 237, 476, 268
-0.996791, 69, 57, 84, 120
-0.996792, 389, 105, 404, 168
-0.996802, 119, 105, 134, 168
-0.996802, 453, 153, 468, 216
-0.996803, 81, 65, 208, 96
-0.996807, 33, 169, 288, 232
-0.996814, 293, 41, 308, 104
-0.996814, 105, 9, 120, 72
-0.996837, 81, 81, 96, 144
-0.996843, 17, 77, 144, 108
-0.996844, 145, 13, 272, 44
-0.996847, 443, 229, 458, 260
-0.996852, 111, 81, 126, 144
-0.996867, 445, 241, 460, 272
-0.99688, 433, 229, 448, 260
-0.996886, 439, 241, 454, 272
-0.996891, 217, 81, 232, 144
-0.996896, 285, 65, 316, 320
-0.996899, 415, 161, 430, 224
-0.99691, 289, 69, 416, 100
-0.996914, 305, 281, 432, 312
-0.996914, 481, 193, 496, 256
-0.996919, 369, 269, 496, 300
-0.996925, 209, 209, 336, 240
-0.996926, 157, 81, 172, 144
-0.996943, 177, 9, 192, 72
-0.996945, 257, 33, 272, 96
-0.996955, 193, 233, 320, 264
-0.996957, 209, 17, 224, 80
-0.99696, 65, 257, 192, 320
-0.996963, 9, 129, 24, 192
-0.996967, 295, 89, 310, 152
-0.996969, 439, 201, 454, 264
-0.996969, 393, 65, 424, 320
-0.996975, 369, 173, 496, 204
-0.996992, 225, 177, 480, 240
-0.997003, 289, 193, 304, 256
-0.997006, 309, 177, 340, 304
-0.997007, 413, 241, 428, 272
-0.997017, 353, 297, 480, 360
-0.997025, 33, 233, 160, 296
-0.997026, 193, 185, 320, 216
-0.997028, 423, 245, 438, 276
-0.997033, 297, 73, 312, 104
-0.997044, 361, 65, 392, 320
-0.997054, 97, 1, 224, 32
-0.997073, 193, 149, 320, 180
-0.997079, 321, 65, 352, 320
-0.9971, 1, 9, 128, 40
-0.997113, 145, 161, 272, 192
-0.997121, 217, 129, 248, 375
-0.997122, 1, 21, 128, 52
-0.997139, 321, 257, 448, 288
-0.997149, 449, 229, 464, 260
-0.997156, 305, 165, 432, 196
-0.997159, 425, 225, 440, 256
-0.99716, 477, 237, 492, 268
-0.997162, 65, 273, 320, 336
-0.997184, 209, 281, 336, 312
-0.997226, 369, 281, 496, 312
-0.99723, 301, 85, 316, 116
-0.997259, 369, 29, 496, 60
-0.997273, 193, 165, 320, 196
-0.99728, 455, 245, 470, 276
-0.997308, 161, 121, 288, 152
-0.997312, 429, 97, 460, 352
-0.997329, 467, 221, 482, 252
-0.997329, 269, 129, 300, 375
-0.99734, 257, 173, 384, 204
-0.997351, 85, 1, 116, 256
-0.997375, 17, 101, 144, 132
-0.997388, 161, 1, 192, 256
-0.997391, 273, 221, 400, 252
-0.997409, 349, 65, 380, 320
-0.997415, 189, 97, 220, 352
-0.997422, 113, 101, 240, 132
-0.997458, 145, 185, 272, 216
-0.997465, 81, 217, 208, 248
-0.997473, 445, 97, 476, 352
-0.997477, 289, 53, 416, 84
-0.997493, 455, 221, 470, 252
-0.997494, 1, 201, 500, 264
-0.997511, 205, 97, 236, 352
-0.997516, 81, 197, 208, 228
-0.997519, 81, 161, 208, 192
-0.997525, 257, 129, 288, 375
-0.997536, 477, 273, 492, 304
-0.99755, 319, 233, 334, 264
-0.997551, 291, 69, 306, 100
-0.997558, 457, 53, 472, 84
-0.997578, 177, 265, 304, 296
-0.99758, 49, 141, 176, 172
-0.997593, 427, 153, 442, 184
-0.997604, 333, 65, 364, 320
-0.99762, 129, 61, 256, 92
-0.997621, 377, 113, 392, 144
-0.997624, 485, 237, 500, 268
-0.997639, 161, 109, 288, 140
-0.997649, 97, 173, 224, 204
-0.997655, 469, 129, 500, 375
-0.997658, 193, 137, 320, 168
-0.99766, 287, 221, 302, 252
-0.997662, 405, 33, 436, 288
-0.997685, 229, 129, 260, 375
-0.997715, 193, 5, 320, 36
-0.997716, 421, 149, 436, 180
-0.997728, 461, 249, 476, 280
-0.99773, 105, 17, 120, 48
-0.99773, 287, 85, 302, 116
-0.997735, 317, 221, 332, 252
-0.997739, 409, 145, 424, 176
-0.997757, 279, 221, 294, 252
-0.997763, 305, 153, 432, 184
-0.997767, 1, 209, 128, 272
-0.997779, 87, 29, 102, 60
-0.997783, 295, 85, 310, 116
-0.997784, 1, 157, 128, 188
-0.997785, 369, 221, 496, 252
-0.997796, 241, 129, 272, 375
-0.997804, 313, 233, 328, 264
-0.997805, 367, 101, 382, 132
-0.997808, 483, 269, 498, 300
-0.99781, 81, 233, 208, 264
-0.997817, 441, 57, 456, 88
-0.997833, 81, 185, 208, 216
-0.997844, 403, 141, 418, 172
-0.997846, 465, 49, 480, 80
-0.997872, 251, 221, 266, 252
-0.997886, 471, 245, 486, 276
-0.997894, 65, 241, 320, 304
-0.997896, 377, 129, 392, 160
-0.997898, 379, 93, 394, 124
-0.997912, 113, 85, 128, 116
-0.99792, 395, 137, 410, 168
-0.997931, 401, 129, 416, 160
-0.997933, 89, 65, 104, 96
-0.997935, 149, 97, 180, 352
-0.997936, 405, 129, 436, 375
-0.997941, 389, 133, 404, 164
-0.997941, 435, 253, 450, 284
-0.997957, 289, 233, 304, 264
-0.997976, 281, 237, 296, 268
-0.998, 283, 157, 298, 188
-0.998008, 33, 225, 160, 352
-0.998024, 85, 81, 100, 112
-0.998029, 245, 217, 260, 248
-0.998037, 99, 73, 114, 104
-0.998038, 25, 77, 40, 108
-0.998042, 369, 125, 384, 156
-0.998044, 321, 81, 448, 112
-0.998047, 257, 305, 384, 368
-0.99805, 161, 97, 192, 352
-0.998055, 1, 129, 128, 160
-0.998056, 387, 117, 402, 148
-0.99806, 113, 273, 240, 304
-0.998063, 451, 57, 466, 88
-0.998072, 137, 129, 168, 375
-0.998075, 305, 73, 320, 104
-0.998084, 415, 261, 430, 292
-0.998087, 261, 217, 276, 248
-0.998091, 415, 157, 430, 188
-0.998093, 193, 97, 320, 128
-0.998095, 279, 181, 294, 212
-0.998103, 61, 85, 76, 116
-0.998106, 1, 1, 500, 64
-0.998107, 279, 53, 294, 84
-0.998111, 369, 73, 496, 104
-0.998112, 115, 13, 130, 44
-0.998114, 275, 85, 290, 116
-0.998117, 421, 1, 452, 256
-0.998118, 275, 233, 290, 264
-0.998121, 95, 85, 110, 116
-0.998126, 395, 125, 410, 156
-0.998127, 1, 153, 500, 216
-0.998137, 319, 93, 334, 124
-0.998138, 279, 145, 294, 176
-0.998138, 267, 45, 282, 76
-0.998139, 309, 85, 324, 116
-0.99814, 235, 213, 250, 244
-0.998143, 405, 249, 420, 280
-0.998147, 285, 61, 300, 92
-0.998148, 171, 13, 186, 44
-0.998149, 325, 233, 340, 264
-0.998153, 433, 57, 448, 88
-0.998161, 415, 145, 430, 176
-0.998162, 421, 261, 436, 292
-0.998179, 409, 261, 424, 292
-0.998179, 471, 45, 486, 76
-0.998181, 373, 101, 388, 132
-0.998183, 457, 129, 488, 375
-0.998185, 285, 181, 300, 212
-0.998188, 361, 105, 376, 136
-0.998194, 423, 61, 438, 92
-0.998198, 67, 85, 82, 116
-0.9982, 179, 169, 194, 200
-0.998202, 447, 253, 462, 284
-0.998205, 383, 129, 398, 160
-0.998205, 321, 269, 448, 300
-0.998205, 1, 249, 500, 312
-0.998208, 433, 153, 448, 184
-0.998211, 261, 41, 276, 72
-0.998211, 477, 249, 492, 280
-0.998212, 289, 21, 416, 52
-0.998213, 227, 157, 242, 188
-0.99822, 179, 17, 194, 48
-0.998222, 223, 25, 238, 56
-0.998223, 81, 245, 208, 276
-0.998226, 85, 53, 100, 84
-0.99825, 429, 253, 444, 284
-0.99825, 167, 169, 182, 200
-0.998256, 3, 161, 18, 192
-0.998261, 273, 49, 288, 80
-0.998268, 441, 253, 456, 284
-0.998271, 145, 285, 272, 316
-0.998271, 145, 1, 272, 32
-0.998275, 145, 233, 272, 264
-0.998276, 453, 257, 468, 288
-0.998277, 359, 121, 374, 152
-0.998285, 271, 181, 286, 212
-0.998286, 471, 29, 486, 60
-0.998287, 253, 37, 268, 68
-0.99829, 383, 105, 398, 136
-0.998291, 329, 93, 344, 124
-0.998291, 127, 13, 142, 44
-0.998294, 241, 45, 368, 76
-0.998295, 5, 1, 36, 256
-0.998296, 459, 161, 474, 192
-0.998299, 79, 49, 94, 80
-0.998302, 49, 129, 176, 160
-0.998308, 319, 109, 334, 140
-0.99832, 65, 117, 192, 148
-0.998321, 281, 89, 296, 120
-0.998323, 401, 233, 464, 248
-0.998324, 369, 89, 496, 120
-0.998332, 369, 113, 496, 144
-0.998332, 483, 209, 498, 240
-0.998334, 371, 113, 386, 144
-0.998334, 97, 1, 128, 256
-0.998339, 329, 221, 344, 252
-0.99834, 189, 17, 204, 48
-0.998342, 173, 169, 188, 200
-0.998344, 311, 105, 326, 136
-0.998348, 331, 113, 346, 144
-0.998362, 401, 251, 464, 266
-0.998366, 401, 241, 464, 256
-0.998368, 393, 165, 424, 180
-0.998369, 385, 111, 416, 126
-0.99837, 73, 101, 104, 116
-0.998371, 389, 129, 420, 144
-0.998372, 305, 87, 336, 102
-0.998372, 65, 55, 96, 70
-0.998372, 469, 173, 500, 188
-0.998372, 405, 161, 436, 176
-0.998373, 153, 171, 184, 186
-0.998373, 217, 153, 248, 168
-0.998374, 177, 175, 208, 190
-0.998376, 293, 221, 324, 236
-0.998376, 133, 87, 164, 102
-0.998377, 229, 159, 260, 174
-0.998379, 325, 115, 356, 130
-0.99838, 441, 155, 472, 170
-0.99838, 37, 85, 68, 100
-0.998381, 389, 253, 420, 268
-0.998382, 281, 85, 312, 100
-0.998383, 389, 259, 420, 274
-0.998384, 253, 45, 284, 60
-0.998386, 241, 231, 272, 246
-0.998386, 25, 75, 56, 90
-0.998387, 301, 107, 332, 122
-0.998388, 301, 229, 332, 244
-0.998388, 257, 231, 288, 246
-0.998389, 381, 139, 412, 154
-0.998391, 461, 63, 492, 78
-0.998391, 401, 133, 432, 148
-0.998391, 269, 181, 300, 196
-0.998393, 313, 111, 344, 126
-0.998393, 245, 37, 276, 52
-0.998393, 417, 151, 448, 166
-0.998393, 269, 59, 300, 74
-0.998394, 149, 1, 180, 256
-0.998394, 397, 243, 428, 258
-0.998395, 277, 227, 308, 242
-0.998395, 285, 75, 316, 90
-0.998397, 369, 115, 400, 130
-0.998397, 165, 181, 196, 196
-0.998399, 89, 23, 120, 38
-0.998399, 461, 51, 492, 66
-0.998399, 429, 145, 460, 160
-0.9984, 81, 55, 112, 70
-0.998401, 261, 53, 292, 68
-0.998401, 461, 283, 492, 298
-0.998402, 433, 229, 496, 244
-0.998402, 277, 67, 308, 82
-0.998403, 253, 187, 284, 202
-0.998404, 469, 45, 500, 60
-0.998404, 297, 93, 328, 108
-0.998405, 309, 235, 340, 250
-0.998405, 57, 61, 88, 76
-0.998406, 337, 119, 368, 134
-0.998406, 93, 99, 124, 114
-0.998406, 469, 277, 500, 292
-0.998406, 433, 235, 496, 250
-0.998407, 97, 81, 128, 96
-0.998408, 233, 219, 264, 234
-0.998408, 425, 243, 488, 258
-0.998409, 433, 257, 464, 272
-0.998409, 345, 101, 376, 116
-0.998409, 325, 227, 356, 242
-0.998412, 233, 33, 264, 48
-0.998412, 393, 141, 424, 156
-0.998414, 297, 235, 328, 250
-0.998419, 249, 217, 280, 232
-0.998419, 349, 123, 380, 138
-0.998419, 461, 253, 492, 268
-0.99842, 81, 61, 112, 76
-0.998421, 337, 293, 464, 324
-0.998421, 381, 123, 412, 138
-0.998422, 469, 219, 500, 234
-0.998424, 417, 261, 448, 276
-0.998425, 361, 127, 392, 142
-0.998427, 421, 255, 452, 270
-0.998427, 209, 197, 336, 228
-0.998429, 313, 225, 344, 240
-0.99843, 229, 213, 260, 228
-0.99843, 305, 81, 336, 96
-0.998433, 377, 133, 408, 148
-0.998433, 193, 293, 320, 324
-0.998434, 237, 225, 268, 240
-0.998434, 145, 19, 176, 34
-0.998436, 133, 19, 164, 34
-0.998438, 221, 29, 252, 44
-0.99844, 277, 237, 308, 252
-0.998443, 165, 171, 196, 186
-0.998443, 241, 121, 368, 152
-0.998444, 373, 105, 404, 120
-0.998445, 405, 167, 436, 182
-0.998446, 197, 25, 228, 40
-0.998448, 417, 163, 448, 178
-0.998448, 405, 257, 436, 272
-0.998452, 69, 89, 100, 104
-0.998454, 17, 81, 48, 96
-0.998455, 415, 209, 430, 336
-0.998456, 445, 255, 476, 270
-0.998457, 209, 27, 240, 42
-0.998457, 265, 187, 296, 202
-0.99846, 405, 145, 436, 160
-0.998461, 81, 31, 112, 46
-0.998463, 357, 105, 388, 120
-0.998463, 33, 177, 160, 208
-0.998464, 293, 81, 324, 96
-0.998465, 265, 237, 296, 252
-0.998466, 409, 65, 440, 80
-0.998468, 397, 65, 428, 80
-0.998469, 277, 97, 308, 112
-0.99847, 69, 61, 100, 76
-0.998471, 165, 17, 196, 32
-0.998472, 441, 57, 472, 72
-0.998473, 93, 87, 124, 102
-0.998473, 461, 1, 492, 256
-0.998473, 153, 19, 216, 34
-0.998474, 117, 1, 148, 256
-0.998479, 429, 61, 460, 76
-0.998479, 121, 17, 152, 32
-0.998481, 129, 197, 256, 228
-0.998482, 117, 97, 148, 352
-0.998482, 1, 177, 500, 240
-0.998485, 425, 251, 488, 266
-0.998487, 417, 61, 480, 76
-0.998487, 385, 65, 448, 80
-0.998491, 109, 87, 140, 102
-0.998495, 97, 19, 160, 34
-0.998501, 57, 89, 120, 104
-0.998502, 93, 93, 124, 108
-0.998502, 449, 249, 480, 264
-0.998502, 181, 23, 212, 38
-0.998505, 273, 89, 336, 104
-0.99851, 101, 19, 132, 34
-0.99851, 417, 257, 480, 272
-0.998515, 89, 87, 152, 102
-0.998527, 177, 25, 240, 40
-0.998533, 273, 91, 304, 106
-0.998536, 377, 255, 440, 270
-0.998536, 321, 105, 384, 120
-0.998537, 461, 209, 476, 336
-0.998538, 435, 209, 450, 336
-0.998542, 233, 229, 296, 244
-0.99855, 469, 247, 500, 262
-0.998551, 393, 155, 456, 170
-0.998552, 41, 63, 104, 78
-0.998552, 409, 141, 472, 156
-0.998553, 265, 227, 328, 242
-0.998553, 281, 233, 344, 248
-0.998554, 129, 17, 192, 32
-0.998555, 241, 219, 304, 234
-0.998555, 289, 95, 352, 110
-0.998556, 377, 261, 440, 276
-0.998558, 257, 83, 320, 98
-0.99856, 421, 249, 452, 264
-0.99856, 377, 245, 440, 260
-0.99856, 385, 145, 448, 160
-0.998563, 73, 57, 136, 72
-0.998565, 461, 241, 492, 256
-0.998567, 433, 223, 496, 238
-0.998567, 409, 161, 472, 176
-0.998567, 393, 131, 456, 146
-0.998567, 433, 283, 496, 298
-0.998569, 353, 209, 480, 240
-0.998571, 337, 113, 400, 128
-0.998571, 409, 227, 472, 242
-0.998572, 257, 77, 320, 92
-0.998574, 113, 25, 176, 40
-0.998574, 113, 87, 176, 102
-0.998575, 289, 83, 352, 98
-0.998575, 81, 93, 144, 108
-0.998578, 249, 237, 312, 252
-0.998578, 441, 235, 472, 250
-0.998578, 161, 245, 288, 276
-0.99858, 73, 35, 136, 50
-0.99858, 273, 221, 336, 236
-0.998582, 433, 251, 464, 266
-0.998582, 9, 85, 72, 100
-0.998584, 437, 1, 468, 256
-0.998587, 233, 87, 296, 102
-0.998587, 217, 217, 280, 232
-0.998589, 89, 25, 152, 40
-0.99859, 437, 241, 468, 256
-0.998592, 353, 253, 416, 268
-0.998596, 73, 43, 136, 58
-0.998597, 249, 97, 312, 112
-0.998597, 17, 79, 80, 94
-0.998599, 257, 185, 320, 200
-0.998599, 353, 135, 416, 150
-0.998601, 281, 109, 344, 124
-0.998601, 441, 229, 472, 244
-0.998601, 421, 239, 452, 254
-0.998602, 25, 91, 88, 106
-0.998602, 425, 161, 440, 288
-0.998604, 409, 149, 472, 164
-0.998604, 201, 27, 264, 42
-0.998605, 293, 87, 324, 102
-0.998607, 469, 233, 500, 248
-0.998608, 305, 231, 368, 246
-0.998608, 65, 99, 128, 114
-0.99861, 329, 125, 392, 140
-0.998611, 273, 239, 336, 254
-0.998611, 209, 253, 336, 284
-0.998613, 313, 99, 376, 114
-0.998613, 469, 225, 500, 240
-0.998614, 337, 91, 400, 106
-0.998614, 453, 235, 484, 250
-0.998618, 417, 155, 480, 170
-0.998618, 425, 169, 488, 184
-0.998618, 113, 49, 240, 80
-0.998619, 425, 55, 488, 70
-0.998621, 105, 93, 168, 108
-0.998623, 209, 87, 272, 102
-0.998623, 81, 81, 144, 96
-0.998623, 73, 51, 136, 66
-0.998624, 369, 123, 432, 138
-0.998625, 449, 243, 480, 258
-0.998625, 313, 119, 376, 134
-0.998626, 57, 83, 120, 98
-0.998626, 233, 53, 296, 68
-0.998627, 209, 81, 272, 96
-0.998628, 353, 129, 416, 144
-0.998629, 249, 61, 312, 76
-0.99863, 137, 175, 200, 190
-0.998632, 73, 19, 136, 34
-0.998633, 169, 77, 232, 92
-0.998636, 225, 41, 288, 56
-0.998636, 361, 141, 424, 156
-0.998636, 369, 165, 432, 180
-0.998637, 241, 179, 304, 194
-0.998638, 249, 31, 312, 46
-0.998638, 209, 35, 272, 50
-0.998639, 249, 67, 312, 82
-0.998639, 137, 85, 200, 100
-0.998641, 441, 209, 456, 336
-0.998642, 385, 139, 448, 154
-0.998642, 265, 103, 328, 118
-0.998643, 225, 47, 288, 62
-0.998644, 361, 105, 424, 120
-0.998645, 425, 231, 456, 246
-0.998645, 185, 171, 248, 186
-0.998645, 121, 203, 184, 218
-0.998646, 453, 227, 484, 242
-0.998646, 393, 175, 456, 190
-0.998647, 113, 81, 176, 96
-0.998647, 41, 97, 104, 112
-0.998648, 433, 149, 496, 164
-0.998648, 409, 237, 440, 252
-0.998649, 89, 99, 152, 114
-0.99865, 409, 245, 440, 260
-0.998651, 233, 187, 296, 202
-0.998652, 297, 225, 360, 240
-0.998652, 425, 175, 488, 190
-0.998653, 377, 231, 440, 246
-0.998653, 153, 25, 216, 40
-0.998654, 121, 225, 184, 240
-0.998654, 105, 13, 168, 28
-0.998655, 265, 255, 328, 270
-0.998655, 217, 223, 280, 238
-0.998656, 1, 173, 64, 188
-0.998657, 161, 173, 224, 188
-0.998658, 265, 275, 328, 290
-0.998658, 345, 119, 408, 134
-0.99866, 413, 231, 444, 246
-0.99866, 49, 57, 112, 72
-0.99866, 257, 37, 320, 52
-0.998661, 137, 169, 200, 184
-0.998662, 241, 151, 304, 166
-0.998662, 433, 277, 496, 292
-0.998663, 297, 239, 360, 254
-0.998663, 41, 49, 104, 64
-0.998664, 121, 113, 184, 128
-0.998665, 105, 145, 168, 160
-0.998665, 419, 161, 434, 288
-0.998666, 409, 251, 440, 266
-0.998666, 273, 53, 336, 68
-0.998667, 225, 235, 288, 250
-0.998667, 129, 11, 192, 26
-0.998667, 217, 157, 280, 172
-0.998668, 121, 219, 184, 234
-0.998668, 49, 33, 112, 48
-0.998683, 455, 209, 470, 336
-0.998685, 257, 161, 384, 192
-0.998695, 289, 9, 416, 40
-0.998702, 257, 149, 384, 180
-0.998713, 81, 261, 208, 292
-0.998722, 105, 1, 120, 128
-0.998727, 257, 209, 384, 240
-0.998728, 49, 1, 176, 32
-0.998729, 447, 209, 462, 336
-0.998743, 257, 137, 384, 168
-0.99875, 33, 213, 160, 244
-0.998753, 467, 209, 482, 336
-0.998762, 241, 61, 368, 92
-0.998769, 33, 197, 160, 228
-0.998782, 459, 161, 474, 288
-0.998808, 421, 209, 436, 336
-0.998833, 99, 1, 114, 128
-0.998839, 273, 33, 288, 160
-0.998846, 73, 33, 104, 288
-0.998865, 253, 17, 268, 144
-0.998873, 413, 161, 428, 288
-0.998874, 429, 209, 444, 336
-0.998876, 21, 1, 52, 256
-0.998881, 449, 1, 480, 256
-0.998902, 381, 65, 396, 192
-0.998904, 281, 161, 296, 288
-0.998907, 241, 185, 368, 216
-0.998911, 129, 1, 160, 256
-0.998916, 87, 17, 102, 144
-0.99893, 105, 97, 136, 352
-0.998947, 261, 33, 276, 160
-0.998962, 93, 1, 108, 128
-0.998974, 469, 161, 484, 288
-0.998984, 485, 209, 500, 336
-0.998988, 437, 161, 452, 288
-0.99899, 215, 65, 230, 192
-0.999012, 267, 33, 282, 160
-0.999019, 449, 161, 464, 288
-0.999026, 287, 161, 302, 288
-0.999031, 375, 65, 390, 192
-0.999035, 479, 193, 494, 320
-0.999038, 209, 65, 224, 192
-0.999047, 273, 193, 288, 320
-0.999047, 113, 1, 128, 128
-0.99905, 287, 49, 302, 176
-0.999052, 229, 65, 244, 192
-0.999063, 223, 65, 238, 192
-0.999064, 231, 145, 246, 272
-0.999064, 113, 65, 128, 192
-0.99907, 279, 33, 294, 160
-0.999072, 317, 81, 332, 208
-0.999075, 389, 65, 404, 192
-0.999076, 341, 81, 356, 208
-0.999079, 247, 17, 262, 144
-0.999088, 409, 209, 424, 336
-0.999088, 365, 81, 380, 208
-0.999091, 329, 81, 344, 208
-0.999092, 299, 81, 314, 208
-0.999099, 335, 81, 350, 208
-0.999103, 187, 1, 202, 128
-0.999117, 221, 113, 236, 240
-0.999118, 181, 33, 196, 160
-0.999122, 239, 113, 254, 240
-0.999125, 323, 81, 338, 208
-0.999128, 203, 49, 218, 176
-0.99913, 135, 65, 150, 192
-0.999135, 121, 33, 136, 160
-0.999141, 293, 81, 308, 208
-0.999143, 347, 81, 362, 208
-0.999146, 305, 81, 320, 208
-0.999155, 293, 17, 308, 144
-0.999155, 283, 97, 298, 224
-0.999158, 353, 65, 368, 192
-0.999167, 473, 209, 488, 336
-0.99917, 281, 209, 296, 336
-0.999174, 407, 161, 422, 288
-0.999175, 299, 17, 314, 144
-0.999177, 147, 65, 162, 192
-0.999182, 195, 49, 210, 176
-0.999184, 431, 161, 446, 288
-0.999184, 155, 1, 170, 128
-0.999185, 189, 49, 204, 176
-0.999192, 247, 65, 262, 192
-0.999193, 167, 97, 182, 224
-0.999199, 443, 161, 458, 288
-0.999201, 161, 65, 176, 192
-0.999206, 395, 65, 410, 192
-0.999207, 359, 81, 374, 208
-0.999208, 219, 17, 234, 144
-0.999208, 105, 49, 120, 176
-0.999214, 311, 81, 326, 208
-0.999221, 253, 113, 268, 240
-0.999223, 245, 161, 260, 288
-0.999225, 119, 81, 134, 208
-0.999226, 161, 1, 176, 128
-0.999229, 173, 49, 188, 176
-0.999229, 193, 1, 208, 128
-0.999235, 289, 209, 304, 336
-0.999237, 169, 1, 184, 128
-0.999244, 239, 65, 254, 192
-0.999246, 99, 49, 114, 176
-0.999247, 305, 17, 320, 144
-0.999249, 277, 81, 292, 208
-0.99926, 213, 113, 228, 240
-0.99926, 269, 129, 284, 256
-0.999262, 239, 17, 254, 144
-0.999262, 321, 209, 336, 336
-0.999266, 285, 1, 300, 128
-0.999271, 225, 17, 240, 144
-0.999274, 417, 113, 432, 240
-0.999278, 391, 113, 406, 240
-0.999278, 411, 113, 426, 240
-0.999279, 311, 33, 326, 160
-0.999279, 155, 81, 170, 208
-0.999286, 81, 1, 96, 128
-0.999289, 175, 1, 190, 128
-0.999294, 253, 65, 268, 192
-0.999301, 263, 177, 278, 304
-0.999309, 211, 17, 226, 144
-0.99931, 139, 113, 154, 240
-0.999311, 233, 17, 248, 144
-0.999313, 241, 209, 256, 336
-0.999316, 141, 65, 156, 192
-0.999316, 201, 113, 216, 240
-0.999318, 179, 113, 194, 240
-0.999318, 173, 97, 188, 224
-0.999322, 149, 1, 164, 128
-0.999326, 207, 113, 222, 240
-0.999333, 385, 113, 400, 240
-0.999333, 125, 113, 140, 240
-0.999334, 5, 97, 36, 352
-0.999334, 129, 65, 144, 192
-0.999335, 263, 81, 278, 208
-0.99934, 245, 113, 260, 240
-0.999341, 127, 1, 142, 128
-0.999341, 317, 33, 332, 160
-0.999342, 161, 161, 176, 288
-0.999346, 167, 49, 182, 176
-0.999352, 189, 113, 204, 240
-0.999356, 237, 161, 252, 288
-0.999361, 143, 1, 158, 128
-0.999584, 365, 127, 380, 142
-0.999584, 189, 23, 204, 38
-0.999586, 329, 227, 344, 242
-0.999586, 229, 29, 244, 44
-0.999587, 289, 233, 304, 248
-0.999587, 281, 191, 296, 206
-0.999587, 139, 17, 154, 32
-0.999588, 217, 23, 232, 38
-0.999588, 411, 159, 426, 174
-0.999588, 183, 21, 198, 36
-0.999588, 391, 135, 406, 150
-0.999588, 277, 231, 292, 246
-0.999589, 475, 251, 490, 266
-0.999592, 259, 41, 274, 56
-0.999592, 425, 65, 440, 80
-0.999593, 95, 89, 110, 104
-0.999593, 291, 85, 306, 100
-0.999593, 279, 149, 294, 164
-0.999594, 465, 49, 480, 64
-0.999594, 245, 219, 260, 234
-0.999595, 67, 89, 82, 104
-0.999595, 173, 171, 188, 186
-0.999596, 443, 259, 458, 274
-0.999597, 443, 59, 458, 74
-0.999597, 153, 19, 168, 34
-0.999597, 405, 135, 420, 150
-0.999598, 311, 83, 326, 98
-0.999598, 211, 25, 226, 40
-0.999599, 453, 57, 468, 72
-0.999599, 403, 253, 418, 268
-0.9996, 431, 61, 446, 76
-0.9996, 133, 17, 148, 32
-0.9996, 291, 69, 306, 84
-0.999601, 253, 37, 268, 52
-0.999601, 397, 139, 412, 154
-0.999601, 433, 155, 448, 170
-0.999603, 281, 89, 296, 104
-0.999603, 33, 1, 64, 256
-0.999603, 417, 147, 432, 162
-0.999603, 421, 261, 436, 276
-0.999603, 383, 133, 398, 148
-0.999604, 147, 19, 162, 34
-0.999604, 411, 145, 426, 160
-0.999605, 111, 87, 126, 102
-0.999605, 407, 65, 422, 80
-0.999606, 1, 273, 500, 336
-0.999606, 87, 31, 102, 46
-0.999606, 81, 57, 96, 72
-0.999608, 419, 245, 434, 260
-0.999608, 371, 129, 386, 144
-0.999608, 375, 105, 390, 120
-0.999608, 95, 25, 110, 40
-0.999608, 281, 155, 296, 170
-0.999609, 427, 261, 442, 276
-0.999612, 453, 257, 468, 272
-0.999613, 75, 61, 90, 76
-0.999614, 485, 217, 500, 232
-0.999615, 265, 45, 280, 60
-0.999615, 259, 217, 274, 232
-0.999617, 437, 255, 452, 270
-0.999617, 195, 23, 210, 38
-0.999617, 287, 63, 302, 78
-0.999618, 437, 61, 452, 76
-0.999618, 273, 51, 288, 66
-0.999622, 413, 65, 428, 80
-0.999623, 127, 17, 142, 32
-0.999623, 179, 173, 194, 188
-0.999624, 377, 131, 392, 146
-0.999626, 279, 237, 294, 252
-0.999627, 275, 89, 290, 104
-0.99963, 83, 63, 98, 78
-0.99963, 469, 251, 484, 266
-0.999631, 275, 95, 290, 110
-0.999631, 111, 19, 126, 34
-0.999633, 463, 253, 478, 268
-0.999633, 269, 187, 284, 202
-0.999635, 281, 59, 296, 74
-0.999635, 459, 53, 474, 68
-0.999638, 483, 239, 498, 254
-0.999638, 363, 103, 378, 118
-0.999638, 419, 65, 434, 80
-0.999639, 419, 255, 434, 270
-0.999639, 475, 275, 490, 290
-0.999641, 417, 165, 432, 180
-0.999643, 317, 229, 332, 244
-0.999643, 303, 87, 318, 102
-0.999644, 413, 239, 428, 254
-0.999646, 369, 105, 384, 120
-0.999646, 279, 185, 294, 200
-0.999652, 121, 17, 136, 32
-0.999656, 467, 233, 482, 248
-0.999676, 411, 253, 426, 268
-0.999678, 105, 21, 120, 36
-0.999681, 483, 229, 498, 244
-0.999684, 437, 237, 452, 252
-0.999686, 459, 247, 474, 262
-0.999687, 301, 81, 316, 96
-0.999693, 481, 245, 496, 260
-0.999701, 287, 91, 302, 106
-0.999709, 477, 225, 492, 240
-0.999709, 413, 245, 428, 260
-0.999717, 471, 225, 486, 240
-0.999723, 425, 253, 440, 268
-0.999724, 471, 245, 486, 260
-0.999726, 477, 239, 492, 254
-0.99973, 473, 233, 488, 248
-0.999733, 437, 249, 452, 264
-0.999744, 297, 87, 312, 102
-0.999747, 465, 245, 480, 260
-0.999749, 453, 249, 468, 264
-0.99975, 463, 227, 478, 242
-0.999755, 471, 239, 486, 254
-0.999761, 423, 231, 438, 246
-0.999762, 483, 223, 498, 238
-0.999764, 431, 251, 446, 266
-0.999766, 455, 235, 470, 250
-0.999767, 423, 237, 438, 252
-0.999773, 431, 243, 446, 258
-0.999774, 443, 235, 458, 250
-0.999775, 445, 241, 460, 256
-0.999775, 425, 245, 440, 260
-0.999779, 435, 231, 450, 246
-0.999788, 445, 251, 460, 266
-0.999788, 445, 229, 460, 244
-0.99979, 415, 231, 430, 246
-0.999793, 453, 243, 468, 258
-0.999806, 439, 243, 454, 258
-0.999809, 461, 237, 476, 252
-0.999814, 431, 237, 446, 252
-0.999831, 449, 235, 464, 250
-0.999839, 429, 231, 444, 246
-0.999852, 453, 229, 468, 244
-0.999901, 57, 97, 120, 352
-0.999954, 17, 97, 48, 352
-0.999999, 61, 33, 92, 288
-1.00001, 93, 97, 124, 352
-1.00003, 257, 297, 500, 360
-1.0001, 45, 33, 76, 288
-1.00044, 61, 129, 92, 375
-1.00052, 29, 97, 60, 352
-1.00057, 49, 129, 80, 375
-1.00065, 73, 129, 104, 375
-1.0007, 65, 297, 320, 360
-1.00079, 25, 97, 88, 352
-1.00095, 161, 305, 416, 368
-1.00097, 49, 281, 176, 344
-1.00108, 17, 257, 144, 320
-1.00108, 1, 297, 500, 360
-1.00185, 97, 289, 224, 352
-1.00222, 161, 313, 288, 375
-1.00258, 49, 313, 176, 375
-1.00264, 113, 313, 240, 375
-1.00266, 1, 281, 128, 344
-1.00266, 209, 313, 336, 375
-1.003, 1, 305, 128, 368
-1.01043, 1, 177, 64, 304
-1.01195, 25, 193, 88, 320
-1.01214, 57, 225, 120, 352
-1.01377, 33, 241, 96, 368
-1.01507, 1, 225, 64, 352
