1880
-0.310107, 1, 1, 500, 333
-0.316027, 1, 33, 500, 288
-0.429846, 33, 1, 288, 333
-0.443377, 129, 1, 384, 333
-0.487007, 193, 1, 448, 256
-0.557452, 257, 1, 500, 333
-0.588898, 1, 33, 256, 288
-0.64038, 97, 1, 352, 256
-0.830852, 305, 1, 432, 333
-0.840689, 113, 1, 240, 256
-0.844756, 161, 33, 288, 288
-0.846829, 305, 1, 432, 256
-0.850154, 129, 1, 256, 333
-0.852933, 1, 1, 128, 333
-0.853111, 241, 65, 368, 320
-0.861089, 49, 1, 176, 333
-0.861665, 1, 49, 500, 176
-0.864611, 193, 1, 320, 333
-0.866459, 49, 1, 176, 256
-0.867076, 369, 1, 496, 333
-0.871285, 353, 1, 480, 256
-0.875123, 1, 129, 500, 256
-0.877064, 257, 1, 384, 333
-0.904377, 33, 49, 288, 176
-0.90439, 193, 129, 448, 256
-0.90579, 257, 49, 500, 176
-0.907235, 1, 1, 128, 256
-0.908466, 161, 65, 416, 192
-0.91114, 369, 65, 496, 192
-0.913532, 1, 177, 500, 304
-0.913682, 65, 161, 320, 288
-0.918421, 1, 1, 500, 128
-0.921792, 297, 49, 360, 176
-0.921842, 273, 65, 400, 192
-0.925536, 225, 81, 288, 208
-0.925869, 209, 97, 336, 224
-0.92701, 337, 33, 400, 160
-0.927185, 145, 145, 272, 272
-0.928176, 433, 49, 496, 176
-0.931187, 97, 113, 352, 240
-0.931419, 41, 33, 104, 160
-0.931592, 161, 17, 416, 144
-0.931619, 209, 49, 336, 176
-0.933378, 321, 33, 448, 160
-0.934675, 81, 17, 144, 144
-0.936203, 249, 49, 312, 176
-0.936521, 129, 17, 256, 144
-0.936756, 113, 17, 176, 144
-0.937815, 425, 97, 488, 224
-0.937927, 265, 97, 328, 224
-0.938522, 369, 49, 432, 176
-0.939051, 329, 81, 392, 208
-0.93907, 217, 33, 280, 160
-0.93916, 49, 17, 176, 144
-0.940045, 409, 49, 472, 176
-0.940404, 129, 177, 192, 304
-0.941082, 369, 17, 496, 144
-0.9411, 169, 97, 232, 224
-0.941296, 145, 17, 208, 144
-0.941844, 273, 113, 336, 176
-0.94214, 17, 17, 80, 144
-0.942292, 113, 33, 176, 96
-0.942976, 225, 49, 288, 112
-0.943004, 305, 105, 368, 168
-0.943602, 161, 177, 416, 304
-0.943881, 1, 97, 256, 224
-0.94409, 169, 145, 232, 272
-0.94427, 209, 129, 272, 256
-0.944739, 257, 145, 384, 272
-0.945123, 73, 41, 136, 104
-0.945196, 377, 97, 440, 224
-0.945435, 1, 1, 256, 128
-0.94594, 193, 33, 256, 160
-0.945973, 321, 97, 448, 224
-0.946414, 1, 33, 128, 160
-0.946693, 161, 97, 288, 224
-0.947428, 169, 33, 232, 160
-0.947603, 433, 49, 496, 112
-0.947722, 97, 81, 224, 208
-0.947816, 201, 81, 264, 208
-0.947884, 329, 57, 392, 120
-0.948268, 145, 129, 208, 256
-0.948475, 345, 97, 408, 160
-0.949015, 289, 65, 352, 128
-0.949672, 401, 129, 464, 256
-0.949817, 113, 57, 176, 120
-0.950289, 145, 193, 272, 320
-0.950321, 393, 113, 456, 176
-0.950481, 33, 41, 96, 104
-0.950491, 49, 65, 112, 128
-0.950673, 369, 129, 496, 256
-0.950791, 49, 65, 176, 192
-0.95135, 201, 49, 264, 112
-0.951963, 201, 137, 264, 200
-0.952089, 433, 105, 496, 168
-0.953112, 137, 161, 200, 224
-0.953121, 369, 57, 432, 120
-0.953388, 177, 57, 240, 120
-0.953462, 241, 145, 304, 208
-0.953676, 161, 153, 224, 216
-0.954658, 153, 57, 216, 120
-0.9551, 225, 193, 352, 320
-0.955131, 409, 49, 472, 112
-0.955171, 273, 49, 336, 176
-0.955255, 265, 145, 328, 272
-0.955361, 257, 1, 500, 128
-0.955388, 97, 193, 224, 320
-0.955497, 433, 145, 496, 208
-0.955868, 433, 1, 496, 128
-0.956241, 369, 81, 432, 144
-0.956619, 153, 193, 216, 320
-0.956776, 169, 33, 232, 96
-0.956792, 57, 81, 120, 208
-0.956853, 233, 129, 296, 256
-0.956915, 265, 73, 328, 136
-0.957228, 73, 73, 136, 136
-0.957263, 353, 129, 416, 256
-0.95741, 265, 49, 328, 112
-0.957433, 233, 209, 296, 333
-0.957632, 433, 81, 496, 144
-0.957719, 137, 33, 200, 96
-0.957846, 289, 97, 352, 224
-0.957854, 273, 17, 400, 144
-0.957905, 257, 193, 500, 320
-0.958236, 241, 121, 304, 184
-0.95825, 17, 65, 80, 192
-0.9584, 17, 65, 80, 128
-0.958414, 401, 89, 464, 152
-0.958467, 369, 113, 432, 176
-0.958529, 345, 33, 408, 96
-0.958575, 161, 129, 224, 192
-0.958663, 121, 113, 184, 240
-0.959125, 81, 65, 144, 192
-0.959276, 113, 65, 176, 192
-0.960301, 1, 209, 256, 333
-0.960312, 97, 129, 224, 256
-0.96042, 49, 145, 176, 272
-0.960832, 409, 137, 472, 200
-0.960898, 201, 169, 264, 232
-0.961034, 201, 73, 264, 136
-0.961496, 305, 41, 368, 104
-0.961525, 137, 1, 200, 256
-0.961531, 241, 89, 304, 152
-0.961672, 297, 145, 360, 272
-0.96175, 193, 145, 320, 272
-0.961752, 57, 33, 88, 96
-0.961828, 469, 49, 500, 176
-0.961889, 265, 65, 328, 320
-0.961947, 121, 201, 184, 264
-0.962001, 145, 81, 208, 208
-0.962036, 1, 81, 128, 208
-0.962079, 233, 225, 296, 288
-0.962515, 161, 185, 224, 248
-0.962523, 265, 137, 328, 200
-0.963226, 225, 1, 352, 128
-0.963259, 113, 169, 176, 232
-0.963405, 425, 145, 488, 272
-0.963561, 433, 25, 496, 88
-0.963776, 273, 105, 400, 168
-0.964243, 321, 129, 384, 192
-0.964401, 201, 177, 264, 304
-0.96452, 201, 113, 264, 176
-0.964641, 9, 41, 72, 104
-0.964846, 33, 161, 96, 224
-0.96488, 297, 129, 360, 192
-0.964943, 317, 49, 348, 176
-0.964971, 333, 105, 364, 168
-0.965138, 401, 177, 464, 304
-0.965225, 393, 1, 456, 256
-0.965281, 385, 33, 448, 96
-0.965358, 233, 201, 296, 264
-0.96602, 57, 17, 120, 80
-0.966438, 105, 177, 168, 304
-0.966709, 313, 81, 376, 144
-0.966719, 345, 1, 408, 256
-0.966786, 349, 49, 380, 176
-0.966867, 49, 33, 80, 160
-0.966878, 321, 145, 448, 272
-0.966896, 89, 17, 152, 80
-0.967024, 313, 1, 376, 128
-0.967109, 237, 81, 268, 208
-0.967336, 353, 121, 480, 184
-0.967561, 317, 105, 348, 168
-0.967619, 145, 153, 272, 216
-0.967789, 241, 49, 272, 112
-0.967891, 165, 33, 196, 160
-0.967908, 369, 177, 496, 304
-0.968008, 377, 33, 408, 160
-0.968106, 305, 49, 432, 112
-0.968125, 201, 1, 264, 256
-0.96816, 217, 97, 248, 224
-0.968162, 201, 25, 264, 88
-0.968422, 353, 41, 384, 104
-0.968646, 73, 153, 136, 216
-0.968738, 137, 233, 200, 296
-0.968777, 141, 41, 172, 104
-0.968894, 253, 49, 284, 176
-0.968994, 213, 57, 244, 120
-0.9692, 361, 1, 424, 128
-0.96932, 453, 65, 484, 192
-0.96953, 277, 113, 308, 176
-0.969541, 165, 153, 196, 216
-0.969663, 69, 41, 100, 104
-0.969679, 217, 49, 248, 176
-0.969737, 265, 1, 328, 128
-0.969746, 145, 57, 272, 120
-0.969812, 113, 33, 176, 288
-0.96983, 377, 145, 440, 272
-0.969835, 297, 105, 328, 168
-0.969983, 273, 81, 304, 208
-0.970052, 161, 1, 224, 256
-0.970059, 417, 1, 480, 256
-0.970191, 433, 169, 496, 232
-0.970197, 305, 209, 432, 333
-0.970257, 41, 177, 104, 304
-0.970293, 321, 81, 352, 144
-0.970428, 353, 97, 384, 160
-0.97051, 345, 121, 408, 184
-0.970628, 141, 17, 172, 144
-0.970737, 313, 33, 376, 288
-0.97076, 465, 49, 496, 112
-0.970773, 353, 97, 480, 160
-0.970777, 185, 153, 216, 216
-0.970886, 137, 129, 200, 192
-0.9709, 249, 193, 280, 256
-0.970938, 49, 33, 176, 96
-0.970947, 161, 145, 192, 272
-0.970968, 225, 129, 352, 192
-0.971006, 289, 65, 352, 320
-0.971031, 257, 193, 320, 320
-0.97136, 241, 1, 304, 128
-0.971369, 293, 65, 324, 192
-0.97137, 353, 65, 480, 128
-0.971403, 161, 97, 224, 160
-0.971442, 21, 33, 52, 160
-0.971619, 57, 57, 88, 120
-0.971641, 365, 33, 396, 160
-0.971703, 409, 1, 472, 128
-0.971926, 129, 33, 256, 96
-0.971945, 45, 65, 76, 128
-0.972091, 341, 57, 372, 120
-0.972103, 305, 81, 432, 144
-0.972227, 429, 41, 460, 104
-0.972307, 377, 57, 408, 120
-0.972318, 137, 169, 168, 232
-0.972332, 225, 73, 352, 136
-0.972337, 149, 177, 180, 240
-0.97239, 25, 1, 88, 256
-0.972409, 453, 17, 484, 144
-0.972529, 81, 113, 144, 240
-0.972566, 389, 49, 420, 176
-0.972627, 385, 1, 448, 128
-0.972649, 49, 89, 112, 152
-0.97288, 97, 81, 160, 144
-0.972975, 377, 105, 408, 168
-0.972977, 129, 177, 256, 240
-0.973077, 401, 49, 432, 176
-0.973149, 441, 49, 472, 176
-0.973239, 121, 17, 152, 144
-0.97324, 465, 97, 496, 224
-0.97329, 425, 49, 456, 176
-0.973333, 337, 33, 368, 160
-0.973347, 365, 41, 396, 104
-0.973381, 197, 129, 228, 192
-0.973382, 401, 177, 464, 240
-0.973421, 225, 73, 256, 136
-0.973525, 97, 65, 224, 128
-0.97354, 393, 65, 424, 128
-0.973584, 17, 33, 48, 96
-0.973595, 205, 33, 236, 160
-0.973646, 125, 33, 156, 96
-0.973653, 109, 33, 140, 96
-0.973852, 305, 49, 336, 176
-0.974062, 249, 145, 280, 208
-0.974081, 157, 57, 188, 120
-0.974092, 469, 145, 500, 208
-0.974127, 253, 49, 284, 112
-0.974199, 81, 1, 144, 256
-0.974206, 165, 33, 196, 96
-0.974319, 257, 217, 320, 280
-0.974382, 177, 1, 304, 128
-0.974429, 61, 17, 92, 144
-0.974483, 413, 49, 444, 176
-0.974515, 37, 41, 68, 104
-0.974571, 257, 193, 320, 256
-0.974657, 257, 241, 320, 304
-0.974657, 225, 33, 288, 288
-0.974719, 305, 65, 336, 128
-0.974744, 121, 57, 152, 120
-0.974885, 461, 81, 492, 144
-0.974898, 249, 161, 280, 288
-0.974904, 157, 193, 188, 320
-0.975028, 441, 97, 472, 224
-0.975188, 177, 97, 304, 160
-0.975313, 257, 25, 320, 88
-0.975325, 445, 145, 476, 208
-0.975371, 145, 9, 208, 72
-0.975453, 245, 217, 276, 280
-0.975527, 17, 57, 144, 120
-0.975562, 209, 145, 240, 208
-0.975626, 37, 33, 68, 160
-0.975893, 125, 169, 156, 232
-0.975915, 353, 65, 384, 128
-0.975932, 389, 89, 420, 152
-0.975981, 173, 145, 204, 272
-0.97602, 249, 121, 280, 184
-0.976051, 205, 81, 236, 208
-0.976084, 149, 145, 180, 272
-0.976098, 229, 33, 260, 160
-0.97612, 173, 97, 204, 224
-0.976124, 193, 153, 320, 216
-0.976166, 441, 49, 472, 112
-0.976214, 289, 129, 416, 192
-0.976237, 369, 33, 432, 288
-0.976266, 97, 153, 224, 216
-0.976272, 209, 225, 272, 288
-0.976357, 77, 17, 108, 144
-0.976402, 49, 193, 176, 320
-0.976448, 401, 113, 432, 176
-0.976508, 417, 161, 448, 224
-0.976564, 33, 17, 96, 80
-0.976862, 177, 49, 208, 176
-0.976959, 333, 81, 364, 144
-0.976965, 421, 129, 452, 256
-0.976982, 153, 33, 184, 96
-0.976982, 373, 81, 404, 144
-0.976984, 465, 105, 496, 168
-0.977061, 137, 97, 200, 160
-0.977065, 417, 89, 448, 152
-0.977092, 193, 97, 224, 224
-0.97713, 225, 25, 288, 88
-0.977149, 309, 129, 340, 192
-0.977159, 77, 65, 108, 128
-0.977173, 153, 17, 184, 144
-0.977179, 225, 105, 352, 168
-0.977389, 369, 41, 496, 104
-0.977535, 289, 1, 352, 128
-0.977709, 185, 57, 216, 120
-0.977739, 61, 153, 92, 216
-0.97777, 9, 33, 40, 160
-0.977868, 385, 153, 448, 216
-0.977891, 229, 41, 260, 104
-0.97791, 237, 193, 268, 256
-0.977929, 161, 225, 224, 288
-0.978043, 33, 113, 96, 240
-0.978066, 445, 105, 476, 168
-0.97809, 185, 129, 216, 192
-0.978114, 249, 89, 280, 152
-0.978188, 329, 209, 392, 333
-0.9782, 57, 1, 120, 256
-0.978217, 413, 65, 444, 128
-0.978336, 241, 49, 368, 112
-0.978347, 69, 17, 100, 80
-0.978368, 257, 97, 288, 224
-0.978421, 365, 105, 396, 168
-0.978429, 61, 65, 92, 192
-0.978458, 169, 57, 200, 120
-0.978492, 49, 81, 176, 144
-0.97851, 369, 193, 432, 320
-0.97854, 97, 49, 128, 112
-0.978659, 277, 49, 308, 112
-0.978688, 401, 89, 432, 152
-0.978725, 457, 145, 488, 208
-0.978751, 289, 73, 320, 136
-0.978792, 353, 121, 384, 184
-0.978819, 261, 217, 292, 280
-0.978918, 261, 129, 292, 192
-0.978952, 209, 33, 240, 96
-0.978965, 229, 137, 260, 200
-0.978978, 57, 177, 120, 240
-0.978986, 321, 129, 384, 256
-0.979043, 225, 201, 352, 264
-0.979043, 189, 49, 220, 176
-0.979123, 329, 217, 392, 280
-0.979129, 85, 25, 116, 88
-0.979157, 145, 193, 176, 320
-0.979284, 17, 57, 48, 120
-0.979306, 193, 49, 320, 112
-0.979398, 157, 201, 188, 264
-0.979441, 177, 193, 240, 320
-0.979444, 293, 49, 324, 112
-0.979467, 177, 121, 304, 184
-0.979634, 321, 41, 352, 104
-0.97973, 297, 129, 328, 192
-0.979738, 377, 177, 440, 240
-0.979764, 321, 97, 352, 224
-0.979806, 149, 153, 180, 216
-0.979807, 137, 1, 200, 333
-0.979854, 337, 81, 368, 208
-0.979854, 205, 129, 236, 256
-0.979966, 373, 81, 404, 208
-0.98, 233, 1, 296, 333
-0.980049, 289, 209, 352, 333
-0.980098, 9, 113, 72, 240
-0.980124, 225, 177, 288, 240
-0.980146, 33, 65, 64, 128
-0.980185, 17, 161, 80, 288
-0.980212, 233, 249, 296, 312
-0.980251, 465, 1, 496, 128
-0.980289, 81, 97, 112, 224
-0.980291, 145, 225, 272, 288
-0.980323, 313, 17, 376, 80
-0.980351, 197, 33, 228, 96
-0.980428, 417, 41, 448, 104
-0.980472, 281, 25, 344, 88
-0.980492, 257, 233, 384, 296
-0.9805, 65, 129, 128, 192
-0.980517, 89, 177, 152, 240
-0.980537, 297, 233, 360, 296
-0.980672, 1, 1, 64, 333
-0.980793, 265, 161, 296, 288
-0.980843, 25, 1, 88, 333
-0.980861, 197, 57, 228, 120
-0.980948, 305, 145, 336, 272
-0.980956, 25, 89, 88, 152
-0.981087, 361, 209, 424, 272
-0.981102, 197, 153, 228, 216
-0.981107, 9, 17, 72, 80
-0.981114, 165, 225, 196, 288
-0.981225, 81, 177, 208, 240
-0.981238, 377, 33, 408, 96
-0.98131, 209, 241, 336, 304
-0.981352, 73, 97, 136, 160
-0.981444, 305, 97, 336, 224
-0.981495, 5, 57, 36, 120
-0.981506, 353, 1, 384, 128
-0.981534, 49, 137, 176, 200
-0.981541, 185, 161, 216, 288
-0.981655, 241, 25, 368, 88
-0.981681, 57, 81, 88, 144
-0.981729, 425, 65, 456, 128
-0.981731, 113, 137, 176, 200
-0.981765, 449, 81, 480, 144
-0.981782, 233, 225, 264, 288
-0.981786, 265, 33, 296, 160
-0.981824, 217, 161, 248, 288
-0.981856, 337, 1, 400, 333
-0.981918, 433, 137, 464, 200
-0.981962, 261, 73, 292, 136
-0.982028, 273, 137, 304, 200
-0.982069, 177, 97, 208, 160
-0.982081, 209, 201, 272, 264
-0.982163, 169, 185, 200, 248
-0.982262, 113, 9, 176, 72
-0.982341, 321, 209, 448, 272
-0.982353, 177, 1, 208, 128
-0.982396, 57, 129, 120, 256
-0.982498, 81, 201, 208, 264
-0.982536, 177, 193, 304, 256
-0.982537, 289, 113, 320, 240
-0.982579, 201, 89, 232, 152
-0.98259, 425, 1, 488, 333
-0.982609, 157, 81, 188, 208
-0.982671, 145, 65, 176, 192
-0.982706, 261, 153, 292, 216
-0.982812, 129, 129, 256, 192
-0.98286, 109, 17, 140, 144
-0.98288, 369, 145, 496, 208
-0.982896, 237, 129, 268, 256
-0.983061, 49, 1, 112, 333
-0.983101, 237, 73, 268, 136
-0.983156, 333, 33, 364, 96
-0.983169, 97, 33, 128, 160
-0.983202, 137, 145, 168, 272
-0.983213, 41, 97, 72, 224
-0.983268, 129, 89, 256, 152
-0.983337, 65, 113, 96, 240
-0.983398, 1, 97, 64, 160
-0.983424, 237, 161, 268, 224
-0.983443, 37, 17, 68, 80
-0.983503, 453, 57, 484, 120
-0.983511, 305, 41, 336, 104
-0.983529, 385, 201, 448, 264
-0.983619, 177, 33, 208, 96
-0.983801, 281, 209, 344, 272
-0.983866, 1, 209, 128, 333
-0.983898, 397, 41, 428, 104
-0.984087, 1, 33, 128, 96
-0.984102, 245, 209, 276, 333
-0.98412, 169, 129, 200, 192
-0.984123, 441, 145, 472, 272
-0.984151, 417, 113, 448, 176
-0.984187, 437, 81, 468, 144
-0.984199, 261, 185, 292, 248
-0.984202, 273, 1, 336, 333
-0.984206, 97, 73, 128, 136
-0.984268, 209, 257, 272, 320
-0.984277, 185, 1, 248, 333
-0.984299, 145, 201, 176, 264
-0.984315, 81, 233, 208, 296
-0.984339, 57, 161, 88, 288
-0.984359, 145, 65, 176, 128
-0.984363, 241, 33, 272, 160
-0.984434, 1, 81, 128, 144
-0.984467, 213, 89, 244, 152
-0.984467, 345, 9, 408, 72
-0.984523, 285, 137, 316, 200
-0.984538, 57, 9, 88, 72
-0.984614, 329, 129, 360, 192
-0.984632, 233, 193, 264, 320
-0.984655, 117, 65, 148, 192
-0.984669, 33, 161, 160, 224
-0.984723, 433, 105, 464, 168
-0.984741, 289, 25, 416, 88
-0.984747, 161, 1, 224, 333
-0.984913, 33, 9, 160, 72
-0.984976, 81, 177, 144, 304
-0.985027, 169, 193, 200, 320
-0.985088, 253, 1, 284, 128
-0.9851, 369, 1, 432, 333
-0.985161, 97, 201, 160, 264
-0.985166, 229, 113, 260, 176
-0.985197, 405, 185, 436, 248
-0.985269, 81, 1, 144, 333
-0.985283, 149, 233, 180, 296
-0.985392, 453, 113, 484, 240
-0.985427, 137, 17, 168, 80
-0.985434, 129, 201, 256, 264
-0.985454, 385, 129, 416, 256
-0.985471, 185, 265, 248, 328
-0.985474, 361, 81, 392, 208
-0.985536, 1, 1, 64, 256
-0.985554, 329, 193, 392, 256
-0.985579, 409, 25, 472, 88
-0.98565, 325, 1, 356, 128
-0.98572, 25, 137, 88, 200
-0.985721, 177, 9, 240, 72
-0.985754, 189, 97, 220, 160
-0.985889, 21, 81, 52, 144
-0.986101, 129, 81, 160, 208
-0.986143, 313, 1, 376, 333
-0.986153, 25, 81, 56, 208
-0.986223, 369, 193, 496, 256
-0.986272, 425, 1, 456, 128
-0.986359, 177, 25, 304, 88
-0.986375, 397, 97, 428, 224
-0.986429, 305, 201, 368, 264
-0.98655, 105, 241, 168, 304
-0.98655, 5, 81, 36, 208
-0.986639, 393, 1, 456, 333
-0.986731, 217, 1, 248, 128
-0.986735, 289, 153, 352, 216
-0.98674, 113, 1, 176, 333
-0.986891, 437, 1, 468, 128
-0.987, 113, 105, 176, 168
-0.987043, 265, 169, 328, 232
-0.9871, 409, 145, 440, 272
-0.987339, 73, 177, 104, 304
-0.987349, 369, 129, 400, 256
-0.98744, 433, 49, 496, 80
-0.987453, 241, 153, 368, 216
-0.987457, 277, 33, 308, 160
-0.987496, 161, 265, 224, 328
-0.987517, 161, 257, 288, 320
-0.98769, 273, 209, 400, 272
-0.987715, 161, 157, 224, 188
-0.987833, 349, 97, 380, 224
-0.987847, 257, 113, 500, 176
-0.987878, 1, 201, 64, 264
-0.987912, 265, 137, 328, 168
-0.98801, 257, 209, 288, 333
-0.988015, 209, 145, 272, 176
-0.988022, 369, 17, 496, 80
-0.988052, 209, 1, 272, 333
-0.988056, 129, 45, 192, 76
-0.988059, 33, 49, 96, 80
-0.988127, 129, 9, 256, 72
-0.988132, 121, 177, 184, 208
-0.988201, 241, 145, 304, 176
-0.988216, 353, 53, 416, 84
-0.988264, 305, 125, 368, 156
-0.988286, 257, 49, 500, 112
-0.98834, 329, 97, 392, 128
-0.988354, 393, 121, 456, 152
-0.988389, 113, 33, 176, 64
-0.988468, 389, 1, 420, 128
-0.988473, 137, 165, 200, 196
-0.988495, 273, 113, 336, 144
-0.988512, 277, 129, 308, 256
-0.988541, 337, 85, 400, 116
-0.988569, 425, 1, 488, 64
-0.988624, 169, 53, 232, 84
-0.988653, 345, 121, 408, 152
-0.988687, 393, 49, 456, 80
-0.988696, 321, 65, 384, 96
-0.988722, 33, 57, 288, 120
-0.988793, 185, 153, 248, 184
-0.988811, 209, 49, 272, 80
-0.988812, 33, 61, 96, 92
-0.988828, 153, 37, 216, 68
-0.988864, 225, 61, 288, 92
-0.988877, 1, 145, 128, 272
-0.988901, 361, 69, 424, 100
-0.988921, 81, 33, 144, 64
-0.988941, 433, 61, 496, 92
-0.988955, 305, 105, 368, 136
-0.988964, 161, 73, 416, 136
-0.988996, 17, 105, 144, 168
-0.989014, 401, 69, 464, 100
-0.989022, 361, 109, 424, 140
-0.989059, 433, 129, 496, 160
-0.989123, 281, 85, 344, 116
-0.989128, 9, 57, 72, 88
-0.98913, 417, 145, 480, 176
-0.98914, 369, 121, 432, 152
-0.989168, 57, 33, 120, 64
-0.989176, 401, 1, 432, 128
-0.9892, 197, 177, 228, 304
-0.989202, 97, 81, 128, 208
-0.989217, 353, 185, 416, 248
-0.989236, 321, 161, 448, 224
-0.989253, 193, 169, 256, 200
-0.989256, 177, 41, 240, 72
-0.989263, 73, 45, 136, 76
-0.989264, 289, 69, 352, 100
-0.989293, 433, 109, 496, 140
-0.989325, 345, 41, 408, 72
-0.989357, 369, 169, 496, 232
-0.989428, 257, 137, 500, 200
-0.989452, 185, 133, 248, 164
-0.989477, 321, 53, 384, 84
-0.989478, 305, 89, 368, 120
-0.989505, 57, 85, 120, 116
-0.989614, 193, 1, 224, 128
-0.989629, 289, 141, 352, 172
-0.989631, 57, 65, 120, 96
-0.989699, 137, 193, 200, 224
-0.989704, 121, 57, 184, 88
-0.989717, 377, 89, 440, 120
-0.989721, 145, 177, 208, 208
-0.989735, 217, 157, 280, 188
-0.989745, 145, 57, 208, 88
-0.989757, 233, 129, 296, 160
-0.98978, 233, 209, 296, 240
-0.989812, 233, 225, 296, 256
-0.98982, 313, 141, 376, 172
-0.98984, 257, 81, 500, 144
-0.989864, 125, 145, 156, 272
-0.989887, 265, 57, 328, 88
-0.989901, 401, 109, 464, 140
-0.989923, 433, 37, 496, 68
-0.989925, 113, 189, 176, 220
-0.989926, 305, 1, 336, 128
-0.989941, 265, 73, 328, 104
-0.989977, 161, 137, 224, 168
-0.989995, 257, 177, 384, 240
-0.990009, 97, 45, 160, 76
-0.990031, 33, 185, 160, 248
-0.990063, 225, 85, 288, 116
-0.990066, 273, 125, 336, 156
-0.990121, 265, 149, 328, 180
-0.990157, 89, 89, 152, 120
-0.990171, 241, 73, 304, 104
-0.990187, 129, 193, 160, 320
-0.990188, 137, 265, 200, 328
-0.990213, 209, 125, 272, 156
-0.990213, 433, 161, 496, 192
-0.99024, 81, 61, 144, 92
-0.990281, 33, 185, 96, 248
-0.990292, 33, 73, 96, 104
-0.990322, 1, 97, 500, 160
-0.990342, 337, 133, 400, 164
-0.990365, 169, 169, 232, 200
-0.990392, 201, 73, 264, 104
-0.990398, 49, 233, 112, 296
-0.990399, 57, 153, 120, 184
-0.990431, 137, 229, 200, 260
-0.990444, 1, 41, 500, 104
-0.990445, 337, 109, 400, 140
-0.990471, 325, 145, 356, 272
-0.990494, 225, 197, 288, 228
-0.990496, 105, 77, 168, 108
-0.990548, 385, 9, 448, 72
-0.990572, 161, 41, 416, 104
-0.990579, 401, 165, 464, 196
-0.990599, 193, 61, 256, 92
-0.990652, 161, 189, 224, 220
-0.990694, 321, 185, 448, 248
-0.990718, 281, 101, 344, 132
-0.990794, 297, 57, 360, 88
-0.990814, 409, 177, 472, 208
-0.990817, 9, 45, 72, 76
-0.990864, 97, 177, 160, 208
-0.990892, 425, 73, 488, 104
-0.990943, 169, 121, 232, 152
-0.990954, 257, 85, 320, 116
-0.990992, 401, 97, 464, 128
-0.991006, 161, 105, 416, 168
-0.991009, 385, 37, 448, 68
-0.99101, 257, 225, 320, 256
-0.991012, 81, 77, 144, 108
-0.991013, 321, 41, 384, 72
-0.991021, 97, 169, 352, 232
-0.991023, 313, 77, 376, 108
-0.991084, 249, 117, 312, 148
-0.991141, 257, 241, 320, 272
-0.991149, 185, 193, 248, 256
-0.99116, 33, 173, 96, 204
-0.991161, 201, 93, 264, 124
-0.991163, 225, 181, 288, 212
-0.991199, 137, 77, 200, 108
-0.991213, 9, 69, 72, 100
-0.991244, 65, 177, 128, 208
-0.99126, 137, 205, 200, 236
-0.991283, 353, 97, 416, 128
-0.991289, 361, 133, 424, 164
-0.991289, 433, 177, 496, 208
-0.991305, 233, 49, 296, 80
-0.991323, 89, 265, 152, 328
-0.991345, 161, 77, 224, 108
-0.991346, 225, 241, 288, 272
-0.99136, 409, 133, 472, 164
-0.991367, 33, 157, 96, 188
-0.991368, 33, 37, 96, 68
-0.991397, 81, 165, 144, 196
-0.991403, 89, 21, 152, 52
-0.991432, 161, 225, 224, 256
-0.991439, 369, 209, 432, 240
-0.99145, 33, 89, 96, 120
-0.991458, 161, 145, 416, 208
-0.991469, 25, 101, 88, 132
-0.991479, 137, 125, 200, 156
-0.991484, 377, 181, 440, 212
-0.991485, 65, 97, 128, 128
-0.991485, 129, 241, 192, 272
-0.991491, 345, 217, 408, 248
-0.991491, 249, 197, 312, 228
-0.991524, 9, 209, 72, 333
-0.991562, 353, 125, 480, 156
-0.991587, 53, 113, 84, 240
-0.991619, 409, 97, 440, 224
-0.991734, 113, 265, 176, 328
-0.991751, 33, 81, 288, 144
-0.991769, 269, 209, 300, 333
-0.991769, 65, 265, 192, 328
-0.991774, 1, 65, 500, 128
-0.991823, 289, 109, 416, 140
-0.991894, 189, 157, 220, 188
-0.991914, 349, 121, 380, 152
-0.991928, 273, 141, 304, 172
-0.991966, 345, 209, 376, 333
-0.991977, 381, 61, 412, 92
-0.991999, 125, 45, 156, 76
-0.992008, 65, 45, 96, 76
-0.992011, 89, 129, 152, 192
-0.992012, 309, 129, 340, 160
-0.992036, 297, 133, 328, 164
-0.992038, 165, 49, 196, 80
-0.992048, 137, 37, 168, 68
-0.992139, 113, 265, 240, 328
-0.992141, 221, 141, 252, 172
-0.992143, 369, 49, 400, 80
-0.992145, 249, 141, 280, 172
-0.992152, 117, 33, 148, 64
-0.992165, 45, 53, 76, 84
-0.992172, 469, 145, 500, 176
-0.992173, 153, 37, 184, 68
-0.992176, 205, 149, 236, 180
-0.992178, 429, 41, 460, 72
-0.992179, 233, 141, 264, 172
-0.992182, 61, 161, 92, 192
-0.992188, 133, 173, 164, 204
-0.992201, 289, 113, 320, 144
-0.992204, 465, 53, 496, 84
-0.992205, 285, 137, 316, 168
-0.99221, 293, 17, 324, 144
-0.992218, 209, 49, 240, 80
-0.992239, 361, 125, 392, 156
-0.99224, 165, 157, 196, 188
-0.992249, 257, 121, 384, 152
-0.992253, 217, 153, 248, 184
-0.992254, 257, 53, 288, 84
-0.992254, 309, 105, 340, 136
-0.992266, 337, 125, 368, 156
-0.992269, 333, 105, 364, 136
-0.992274, 317, 117, 348, 148
-0.992274, 353, 61, 384, 92
-0.992278, 357, 49, 388, 80
-0.992281, 53, 41, 84, 72
-0.992308, 325, 129, 356, 160
-0.992311, 137, 49, 168, 80
-0.992329, 249, 189, 280, 220
-0.992336, 1, 233, 128, 296
-0.992338, 377, 121, 408, 152
-0.992343, 33, 41, 64, 72
-0.992352, 177, 161, 208, 192
-0.99237, 389, 73, 420, 104
-0.992375, 245, 53, 276, 84
-0.992377, 345, 89, 376, 120
-0.992377, 321, 85, 352, 116
-0.992392, 165, 37, 196, 68
-0.992411, 345, 145, 408, 208
-0.992416, 265, 125, 296, 156
-0.992419, 413, 109, 444, 140
-0.992421, 1, 169, 500, 232
-0.992422, 297, 57, 328, 88
-0.992423, 389, 117, 420, 148
-0.992423, 25, 217, 88, 280
-0.992425, 345, 49, 376, 80
-0.992426, 369, 81, 400, 112
-0.992431, 57, 57, 88, 88
-0.992433, 149, 49, 180, 80
-0.992444, 17, 49, 144, 80
-0.992456, 77, 29, 108, 60
-0.992456, 445, 145, 476, 176
-0.992458, 73, 57, 104, 88
-0.99246, 321, 101, 352, 132
-0.992468, 65, 129, 320, 192
-0.992468, 169, 61, 200, 92
-0.992472, 245, 205, 276, 236
-0.992473, 441, 49, 472, 80
-0.992474, 397, 57, 428, 88
-0.992475, 169, 141, 200, 172
-0.992481, 277, 117, 308, 148
-0.992482, 149, 169, 180, 200
-0.992491, 289, 69, 320, 100
-0.992494, 277, 65, 308, 96
-0.992496, 213, 129, 244, 160
-0.992498, 189, 41, 220, 72
-0.9925, 417, 45, 448, 76
-0.992506, 385, 105, 416, 136
-0.992507, 401, 121, 432, 152
-0.992512, 165, 173, 196, 204
-0.992515, 97, 25, 128, 56
-0.992521, 221, 45, 252, 76
-0.99253, 33, 57, 64, 88
-0.992534, 157, 61, 188, 92
-0.992536, 81, 41, 112, 72
-0.992541, 249, 217, 280, 248
-0.992545, 177, 41, 208, 72
-0.992549, 449, 37, 480, 68
-0.99255, 309, 69, 340, 100
-0.99255, 193, 137, 224, 168
-0.992552, 201, 169, 232, 200
-0.992555, 425, 57, 456, 88
-0.992561, 185, 57, 216, 88
-0.992561, 357, 89, 388, 120
-0.992561, 333, 89, 364, 120
-0.992561, 381, 49, 412, 80
-0.992564, 161, 229, 192, 260
-0.992566, 229, 57, 260, 88
-0.992567, 225, 77, 256, 108
-0.992569, 197, 53, 228, 84
-0.992573, 217, 61, 248, 92
-0.992582, 21, 49, 52, 80
-0.992588, 321, 65, 352, 96
-0.992597, 373, 109, 404, 140
-0.992608, 237, 153, 268, 184
-0.992612, 77, 81, 108, 112
-0.992614, 249, 229, 280, 260
-0.992616, 349, 37, 380, 68
-0.992616, 309, 145, 340, 176
-0.992617, 113, 45, 240, 76
-0.992622, 145, 189, 176, 220
-0.992624, 261, 137, 292, 168
-0.992634, 329, 81, 344, 144
-0.992634, 417, 173, 448, 204
-0.992636, 189, 125, 220, 156
-0.992642, 441, 61, 472, 92
-0.992652, 77, 177, 108, 208
-0.992654, 357, 209, 388, 333
-0.992658, 65, 257, 128, 320
-0.992659, 369, 69, 400, 100
-0.99266, 225, 129, 256, 160
-0.99268, 93, 41, 124, 72
-0.992685, 181, 173, 212, 204
-0.992685, 45, 69, 76, 100
-0.992685, 253, 69, 284, 100
-0.992687, 117, 77, 148, 108
-0.992691, 225, 133, 352, 164
-0.992695, 465, 129, 496, 160
-0.992697, 133, 185, 164, 216
-0.992699, 273, 77, 304, 108
-0.9927, 181, 137, 212, 168
-0.992701, 465, 65, 496, 96
-0.992716, 429, 129, 460, 160
-0.992717, 409, 61, 440, 92
-0.992717, 333, 53, 364, 84
-0.992719, 149, 157, 180, 188
-0.99272, 113, 181, 144, 212
-0.992722, 337, 69, 368, 100
-0.992724, 21, 61, 52, 92
-0.992727, 465, 157, 496, 188
-0.992746, 397, 161, 428, 288
-0.992761, 45, 177, 76, 304
-0.992881, 81, 105, 208, 168
-0.992888, 1, 169, 256, 232
-0.99291, 81, 9, 208, 72
-0.992918, 17, 257, 144, 320
-0.992923, 319, 105, 334, 168
-0.992949, 433, 41, 448, 104
-0.992978, 129, 57, 256, 88
-0.993017, 71, 41, 86, 104
-0.993022, 177, 1, 304, 64
-0.993063, 289, 1, 416, 64
-0.99307, 113, 169, 240, 200
-0.993076, 65, 57, 192, 88
-0.993092, 57, 57, 72, 120
-0.993098, 289, 137, 416, 168
-0.993155, 41, 113, 104, 176
-0.99317, 173, 41, 188, 104
-0.99321, 201, 1, 264, 64
-0.993252, 335, 89, 350, 152
-0.993256, 311, 105, 326, 168
-0.993265, 265, 49, 280, 112
-0.993326, 263, 201, 278, 264
-0.993337, 291, 113, 306, 176
-0.993346, 305, 97, 432, 128
-0.993371, 337, 49, 464, 80
-0.993376, 161, 181, 288, 212
-0.993383, 213, 145, 228, 208
-0.993395, 81, 41, 96, 104
-0.993413, 245, 49, 260, 112
-0.993486, 369, 41, 384, 104
-0.99349, 149, 33, 164, 96
-0.993491, 33, 193, 288, 256
-0.993506, 139, 33, 154, 96
-0.993515, 481, 145, 496, 208
-0.993576, 73, 233, 136, 296
-0.993591, 351, 41, 366, 104
-0.993595, 251, 49, 266, 112
-0.993597, 319, 65, 334, 128
-0.993602, 399, 65, 414, 128
-0.993653, 129, 193, 384, 256
-0.993655, 225, 149, 352, 180
-0.993696, 297, 113, 312, 176
-0.993709, 189, 153, 204, 216
-0.993757, 325, 57, 340, 120
-0.99384, 241, 85, 368, 116
-0.993843, 375, 41, 390, 104
-0.993863, 257, 49, 272, 112
-0.993864, 475, 49, 490, 112
-0.993878, 369, 69, 496, 100
-0.993879, 209, 117, 336, 148
-0.993886, 221, 49, 236, 112
-0.993887, 71, 153, 86, 216
-0.993896, 163, 161, 178, 224
-0.99391, 305, 121, 432, 152
-0.99392, 113, 33, 240, 64
-0.993932, 391, 49, 406, 112
-0.99394, 227, 57, 242, 120
-0.993977, 235, 73, 250, 136
-0.993981, 447, 41, 462, 104
-0.993982, 131, 41, 146, 104
-0.993984, 235, 41, 250, 104
-0.993994, 65, 41, 192, 72
-0.994007, 345, 97, 360, 160
-0.994015, 113, 113, 144, 240
-0.994019, 281, 177, 312, 304
-0.994021, 425, 177, 456, 304
-0.994039, 257, 201, 272, 264
-0.994053, 65, 33, 80, 96
-0.994054, 353, 89, 480, 120
-0.994057, 139, 169, 154, 232
-0.994061, 477, 105, 492, 168
-0.994076, 179, 153, 194, 216
-0.994082, 177, 57, 304, 88
-0.994084, 335, 65, 350, 128
-0.994098, 357, 41, 372, 104
-0.994104, 65, 25, 320, 88
-0.994106, 33, 233, 288, 296
-0.994136, 289, 49, 416, 80
-0.994148, 345, 49, 360, 112
-0.994152, 305, 65, 432, 96
-0.994157, 161, 157, 288, 188
-0.994164, 157, 161, 172, 224
-0.994196, 183, 33, 198, 96
-0.99421, 393, 97, 408, 160
-0.99422, 269, 185, 284, 248
-0.994233, 225, 169, 480, 232
-0.994236, 125, 33, 140, 96
-0.994241, 169, 161, 184, 224
-0.994242, 193, 69, 320, 100
-0.994255, 483, 105, 498, 168
-0.994257, 467, 65, 482, 128
-0.99426, 413, 1, 444, 128
-0.994284, 1, 137, 500, 200
-0.994303, 271, 129, 286, 192
-0.994316, 475, 145, 490, 208
-0.994325, 329, 105, 344, 168
-0.994339, 63, 65, 78, 128
-0.994367, 333, 209, 364, 333
-0.994369, 225, 225, 480, 288
-0.994371, 263, 177, 278, 240
-0.994388, 87, 33, 102, 96
-0.994391, 201, 129, 216, 192
-0.994403, 161, 169, 288, 200
-0.994408, 113, 181, 240, 212
-0.994408, 369, 209, 400, 333
-0.994414, 171, 201, 186, 264
-0.994416, 413, 57, 428, 120
-0.994425, 161, 41, 176, 104
-0.994447, 167, 49, 182, 112
-0.994454, 313, 65, 328, 128
-0.994464, 17, 61, 144, 92
-0.994469, 89, 65, 104, 128
-0.99447, 355, 105, 370, 168
-0.9945, 481, 49, 496, 112
-0.994503, 195, 153, 210, 216
-0.994506, 293, 209, 324, 333
-0.994512, 363, 41, 378, 104
-0.994519, 413, 89, 428, 152
-0.994545, 385, 193, 416, 320
-0.994545, 77, 65, 92, 128
-0.994548, 177, 137, 304, 168
-0.994553, 151, 169, 166, 232
-0.994561, 241, 69, 368, 100
-0.994562, 353, 113, 480, 144
-0.994585, 305, 233, 432, 296
-0.994586, 247, 209, 262, 272
-0.994607, 285, 113, 300, 176
-0.994616, 269, 209, 284, 272
-0.99463, 155, 33, 170, 96
-0.994645, 379, 65, 394, 128
-0.99465, 303, 105, 318, 168
-0.994681, 425, 65, 440, 128
-0.994693, 257, 25, 500, 88
-0.994696, 1, 209, 128, 272
-0.994703, 65, 145, 80, 208
-0.994708, 51, 41, 66, 104
-0.99472, 347, 73, 362, 136
-0.994731, 17, 37, 144, 68
-0.994733, 65, 105, 320, 168
-0.994739, 71, 65, 86, 128
-0.994755, 479, 81, 494, 144
-0.994757, 293, 73, 308, 136
-0.994764, 381, 41, 396, 104
-0.99477, 119, 65, 134, 128
-0.994782, 369, 97, 384, 160
-0.994784, 419, 65, 434, 128
-0.994793, 269, 153, 284, 216
-0.99481, 203, 153, 218, 216
-0.994819, 211, 65, 226, 128
-0.994845, 251, 185, 266, 248
-0.994855, 41, 41, 56, 104
-0.99486, 399, 89, 414, 152
-0.994863, 251, 137, 266, 200
-0.994872, 441, 41, 456, 104
-0.994903, 439, 65, 454, 128
-0.994918, 225, 221, 352, 252
-0.994922, 263, 153, 278, 216
-0.994924, 449, 105, 464, 168
-0.994937, 77, 17, 92, 80
-0.99494, 7, 41, 22, 104
-0.994951, 205, 49, 220, 112
-0.994957, 161, 45, 288, 76
-0.994971, 405, 73, 420, 136
-0.994975, 145, 169, 160, 232
-0.994977, 133, 169, 148, 232
-0.994978, 293, 49, 308, 112
-0.994993, 255, 225, 270, 288
-0.994997, 449, 65, 464, 128
-0.995001, 299, 65, 314, 128
-0.995017, 81, 157, 208, 188
-0.995026, 239, 201, 254, 264
-0.995031, 145, 193, 272, 224
-0.995038, 469, 145, 484, 208
-0.995071, 421, 1, 452, 256
-0.995082, 219, 145, 234, 208
-0.995093, 245, 153, 260, 216
-0.995105, 177, 1, 208, 256
-0.995115, 461, 145, 476, 208
-0.995136, 305, 33, 336, 288
-0.995137, 469, 41, 484, 104
-0.99514, 461, 49, 476, 112
-0.995163, 253, 161, 268, 224
-0.995166, 335, 113, 350, 176
-0.995168, 337, 137, 464, 168
-0.995169, 97, 33, 112, 96
-0.995176, 459, 105, 474, 168
-0.99518, 161, 201, 176, 264
-0.995183, 353, 65, 368, 128
-0.995185, 31, 33, 46, 96
-0.995188, 115, 33, 130, 96
-0.995195, 145, 225, 272, 256
-0.995201, 125, 1, 156, 256
-0.995204, 263, 121, 278, 184
-0.995222, 455, 145, 470, 208
-0.995224, 43, 65, 58, 128
-0.995261, 357, 145, 388, 272
-0.995267, 129, 69, 256, 100
-0.995271, 305, 209, 336, 333
-0.99528, 33, 193, 64, 320
-0.995289, 49, 81, 176, 112
-0.995319, 241, 57, 368, 88
-0.995335, 321, 209, 352, 333
-0.995349, 161, 17, 416, 80
-0.995377, 369, 101, 496, 132
-0.995437, 141, 1, 172, 256
-0.995446, 129, 249, 384, 312
-0.995521, 65, 177, 192, 208
-0.995525, 289, 77, 416, 108
-0.995565, 369, 37, 496, 68
-0.995569, 465, 145, 496, 272
-0.9956, 317, 33, 348, 288
-0.995613, 181, 209, 212, 333
-0.995616, 161, 125, 288, 156
-0.995734, 209, 265, 336, 328
-0.995737, 161, 1, 192, 256
-0.995755, 433, 1, 464, 256
-0.995768, 65, 29, 192, 60
-0.995808, 225, 105, 352, 136
-0.995809, 129, 137, 256, 168
-0.995811, 293, 33, 324, 288
-0.995863, 113, 177, 144, 304
-0.995887, 193, 93, 320, 124
-0.995953, 1, 193, 500, 256
-0.995982, 129, 81, 256, 112
-0.996009, 57, 1, 88, 256
-0.996056, 129, 217, 384, 280
-0.99607, 161, 237, 288, 268
-0.996098, 209, 45, 336, 76
-0.996103, 369, 1, 400, 256
-0.996131, 241, 209, 368, 240
-0.996146, 225, 193, 352, 224
-0.996168, 213, 1, 244, 256
-0.996186, 221, 209, 252, 333
-0.996203, 349, 1, 380, 256
-0.996255, 241, 237, 368, 268
-0.996296, 17, 25, 144, 56
-0.99639, 327, 101, 342, 132
-0.996444, 253, 1, 284, 256
-0.996456, 17, 97, 144, 128
-0.996459, 337, 1, 368, 256
-0.996464, 65, 69, 192, 100
-0.996474, 397, 1, 428, 256
-0.996498, 129, 97, 256, 128
-0.996519, 113, 1, 144, 256
-0.996542, 243, 221, 258, 252
-0.996554, 33, 1, 288, 64
-0.99656, 321, 189, 448, 220
-0.996576, 1, 225, 500, 288
-0.996599, 65, 93, 192, 124
-0.996612, 1, 137, 128, 200
-0.996634, 321, 217, 448, 248
-0.996646, 363, 121, 378, 152
-0.996649, 83, 53, 98, 84
-0.996674, 71, 45, 86, 76
-0.996684, 169, 45, 184, 76
-0.996685, 141, 41, 156, 72
-0.996687, 97, 193, 224, 224
-0.996693, 241, 1, 368, 64
-0.996707, 57, 45, 72, 76
-0.996708, 197, 1, 228, 256
-0.996721, 225, 1, 256, 256
-0.996725, 209, 161, 336, 192
-0.996742, 445, 1, 476, 256
-0.996742, 353, 125, 368, 156
-0.996755, 251, 145, 266, 176
-0.996768, 327, 121, 342, 152
-0.996769, 65, 141, 192, 172
-0.996785, 369, 149, 496, 180
-0.996787, 1, 169, 128, 200
-0.9968, 161, 209, 288, 240
-0.996807, 33, 157, 160, 188
-0.996815, 123, 33, 138, 64
-0.996816, 91, 33, 106, 64
-0.996818, 409, 1, 440, 256
-0.996826, 245, 141, 260, 172
-0.996834, 321, 105, 336, 136
-0.996846, 263, 189, 278, 220
-0.996857, 353, 205, 480, 236
-0.996865, 369, 161, 496, 192
-0.996872, 333, 105, 348, 136
-0.99689, 155, 41, 170, 72
-0.996892, 445, 53, 460, 84
-0.996894, 85, 37, 100, 68
-0.996901, 337, 89, 352, 120
-0.996901, 261, 49, 276, 80
-0.996903, 395, 117, 410, 148
-0.996909, 433, 41, 448, 72
-0.99691, 221, 45, 236, 76
-0.996913, 389, 53, 404, 84
-0.996919, 345, 89, 360, 120
-0.996927, 357, 49, 372, 80
-0.996929, 483, 145, 498, 176
-0.996936, 235, 149, 250, 180
-0.996945, 179, 157, 194, 188
-0.996959, 161, 33, 288, 64
-0.996983, 125, 45, 140, 76
-0.996984, 267, 53, 282, 84
-0.996994, 313, 129, 328, 160
-0.996995, 321, 129, 336, 160
-0.997003, 365, 45, 380, 76
-0.997009, 369, 125, 384, 156
-0.997009, 279, 121, 294, 152
-0.997018, 51, 49, 66, 80
-0.99702, 273, 37, 400, 68
-0.99703, 205, 157, 220, 188
-0.997034, 267, 205, 282, 236
-0.997042, 225, 193, 480, 256
-0.997051, 33, 189, 160, 220
-0.997055, 163, 49, 178, 80
-0.997079, 285, 121, 300, 152
-0.997093, 257, 137, 272, 168
-0.997093, 63, 41, 78, 72
-0.997096, 445, 41, 460, 72
-0.997109, 155, 169, 170, 200
-0.997109, 59, 61, 74, 92
-0.99711, 379, 69, 394, 100
-0.997113, 241, 1, 272, 256
-0.997116, 189, 153, 204, 184
-0.99712, 77, 53, 92, 84
-0.997123, 117, 41, 132, 72
-0.997126, 1, 73, 128, 104
-0.997129, 175, 37, 190, 68
-0.99713, 131, 45, 146, 76
-0.997131, 281, 33, 312, 288
-0.997138, 277, 137, 292, 168
-0.997141, 301, 137, 316, 168
-0.997142, 267, 145, 282, 176
-0.997143, 347, 53, 362, 84
-0.997149, 169, 157, 184, 188
-0.997152, 73, 1, 104, 256
-0.997157, 193, 81, 320, 112
-0.997158, 219, 153, 234, 184
-0.997162, 1, 17, 500, 80
-0.997173, 31, 45, 46, 76
-0.997178, 405, 117, 420, 148
-0.99718, 139, 173, 154, 204
-0.997192, 375, 45, 390, 76
-0.997197, 315, 105, 330, 136
-0.997198, 161, 37, 176, 68
-0.997199, 77, 153, 92, 184
-0.997199, 293, 69, 308, 100
-0.997214, 97, 125, 224, 156
-0.997216, 385, 65, 416, 320
-0.997223, 243, 201, 258, 232
-0.997225, 395, 61, 410, 92
-0.997228, 307, 133, 322, 164
-0.997233, 147, 169, 162, 200
-0.997233, 69, 165, 84, 196
-0.997239, 257, 189, 272, 220
-0.997243, 289, 229, 416, 260
-0.997245, 171, 57, 186, 88
-0.997245, 473, 145, 488, 176
-0.997264, 321, 37, 448, 68
-0.997271, 383, 101, 398, 132
-0.997271, 407, 57, 422, 88
-0.997274, 151, 53, 166, 84
-0.997275, 101, 25, 116, 56
-0.997276, 339, 101, 354, 132
-0.997277, 391, 105, 406, 136
-0.997281, 219, 57, 234, 88
-0.997284, 225, 249, 480, 312
-0.997287, 185, 169, 200, 200
-0.997287, 93, 45, 108, 76
-0.997289, 229, 57, 244, 88
-0.997303, 431, 53, 446, 84
-0.997305, 211, 157, 226, 188
-0.997306, 213, 145, 228, 176
-0.99731, 293, 137, 308, 168
-0.997318, 331, 89, 346, 120
-0.997325, 177, 257, 304, 288
-0.997327, 201, 41, 216, 72
-0.99733, 49, 233, 176, 264
-0.997333, 475, 49, 490, 80
-0.997341, 37, 57, 52, 88
-0.997348, 149, 33, 164, 64
-0.997355, 249, 225, 264, 256
-0.997361, 75, 69, 90, 100
-0.997372, 163, 165, 178, 196
-0.997377, 383, 49, 398, 80
-0.997377, 81, 173, 96, 204
-0.997378, 213, 45, 228, 76
-0.997378, 269, 65, 300, 320
-0.997378, 129, 177, 144, 208
-0.99738, 193, 165, 208, 196
-0.997382, 225, 153, 240, 184
-0.997383, 79, 25, 94, 56
-0.997389, 229, 41, 244, 72
-0.997389, 385, 121, 400, 152
-0.99739, 209, 133, 224, 164
-0.997392, 181, 49, 196, 80
-0.997394, 249, 189, 264, 220
-0.997398, 437, 53, 452, 84
-0.997399, 225, 249, 352, 280
-0.997399, 251, 53, 266, 84
-0.997401, 237, 77, 252, 108
-0.997402, 375, 125, 390, 156
-0.997406, 269, 185, 284, 216
-0.997407, 167, 225, 182, 256
-0.997407, 353, 89, 368, 120
-0.997413, 71, 153, 86, 184
-0.997414, 273, 149, 400, 180
-0.997419, 469, 53, 484, 84
-0.997427, 111, 41, 126, 72
-0.997428, 129, 33, 144, 64
-0.997428, 191, 49, 206, 80
-0.997439, 25, 49, 40, 80
-0.997442, 63, 157, 78, 188
-0.997445, 181, 137, 196, 168
-0.997448, 261, 217, 276, 248
-0.99745, 351, 41, 366, 72
-0.997455, 49, 61, 64, 92
-0.997455, 175, 169, 190, 200
-0.997456, 177, 105, 304, 136
-0.997456, 347, 125, 362, 156
-0.997479, 209, 33, 336, 64
-0.997662, 33, 265, 288, 328
-0.997697, 97, 1, 128, 256
-0.997741, 21, 1, 52, 256
-0.997745, 225, 181, 352, 212
-0.997754, 85, 1, 116, 256
-0.997828, 1, 85, 128, 116
-0.99783, 1, 249, 500, 312
-0.997845, 369, 173, 496, 204
-0.997875, 469, 33, 500, 288
-0.997913, 161, 21, 288, 52
-0.997938, 113, 241, 240, 272
-0.998034, 37, 1, 68, 256
-0.998059, 289, 201, 416, 232
-0.998139, 113, 17, 240, 48
-0.998162, 129, 265, 256, 296
-0.998186, 81, 221, 208, 252
-0.998187, 369, 25, 496, 56
-0.998259, 257, 1, 500, 64
-0.998279, 457, 33, 488, 288
-0.998294, 481, 49, 496, 176
-0.998315, 33, 49, 96, 64
-0.998325, 289, 133, 352, 148
-0.998332, 321, 161, 448, 192
-0.998334, 225, 143, 288, 158
-0.998335, 1, 1, 32, 256
-0.998338, 329, 99, 392, 114
-0.998341, 97, 205, 224, 236
-0.998349, 257, 141, 320, 156
-0.998351, 113, 39, 176, 54
-0.998352, 345, 125, 408, 140
-0.998356, 393, 127, 456, 142
-0.998358, 65, 43, 128, 58
-0.998367, 377, 121, 440, 136
-0.99837, 89, 35, 152, 50
-0.998377, 81, 51, 144, 66
-0.998377, 201, 155, 264, 170
-0.998381, 475, 49, 490, 176
-0.998383, 121, 179, 184, 194
-0.998385, 65, 245, 192, 276
-0.998386, 129, 113, 256, 144
-0.998386, 105, 185, 168, 200
-0.998387, 209, 53, 272, 68
-0.998393, 121, 57, 184, 72
-0.998394, 65, 17, 192, 48
-0.998397, 137, 49, 200, 64
-0.998399, 313, 121, 376, 136
-0.998401, 433, 51, 496, 66
-0.998402, 337, 131, 400, 146
-0.998404, 321, 59, 384, 74
-0.998408, 225, 59, 288, 74
-0.99841, 113, 253, 240, 284
-0.998411, 17, 55, 80, 70
-0.998412, 137, 39, 200, 54
-0.998412, 369, 185, 496, 216
-0.998413, 185, 47, 248, 62
-0.998414, 281, 139, 344, 154
-0.998415, 337, 49, 400, 64
-0.998415, 305, 105, 368, 120
-0.998416, 177, 161, 240, 176
-0.998416, 361, 65, 424, 80
-0.998417, 105, 45, 168, 60
-0.99842, 241, 149, 304, 164
-0.998422, 241, 135, 304, 150
-0.998422, 289, 21, 416, 52
-0.998425, 201, 143, 264, 158
-0.998425, 33, 69, 96, 84
-0.998425, 217, 149, 280, 164
-0.998429, 145, 173, 208, 188
-0.99843, 145, 167, 208, 182
-0.998432, 313, 131, 376, 146
-0.998436, 145, 181, 208, 196
-0.998439, 33, 63, 96, 78
-0.99844, 385, 67, 448, 82
-0.99844, 289, 111, 352, 126
-0.998444, 401, 49, 464, 64
-0.998445, 345, 55, 408, 70
-0.998448, 305, 65, 368, 80
-0.99845, 265, 149, 328, 164
-0.998451, 467, 65, 482, 192
-0.998452, 225, 69, 288, 84
-0.998452, 321, 141, 384, 156
-0.998453, 273, 121, 336, 136
-0.998453, 233, 125, 296, 140
-0.998454, 193, 149, 256, 164
-0.998456, 401, 61, 464, 76
-0.998458, 177, 155, 240, 170
-0.99846, 433, 69, 496, 84
-0.99846, 265, 155, 328, 170
-0.99846, 73, 81, 136, 96
-0.998461, 433, 59, 496, 74
-0.998463, 81, 179, 144, 194
-0.998463, 267, 49, 282, 176
-0.998465, 169, 53, 232, 68
-0.998466, 209, 133, 272, 148
-0.998469, 289, 149, 352, 164
-0.99847, 265, 59, 328, 74
-0.998474, 329, 65, 392, 80
-0.998475, 65, 35, 128, 50
-0.998476, 161, 41, 224, 56
-0.998477, 445, 33, 460, 160
-0.998478, 177, 139, 240, 154
-0.99848, 361, 131, 424, 146
-0.998481, 169, 59, 232, 74
-0.998482, 41, 57, 104, 72
-0.998483, 265, 129, 328, 144
-0.998485, 265, 73, 328, 88
-0.998485, 361, 79, 424, 94
-0.998486, 345, 85, 408, 100
-0.998487, 337, 105, 400, 120
-0.998488, 233, 221, 296, 236
-0.998491, 113, 33, 176, 48
-0.998491, 145, 55, 208, 70
-0.998491, 89, 91, 152, 106
-0.998491, 129, 187, 192, 202
-0.998492, 193, 67, 256, 82
-0.998492, 345, 137, 408, 152
-0.998493, 233, 211, 296, 226
-0.998496, 379, 65, 394, 192
-0.998496, 265, 81, 328, 96
-0.9985, 225, 201, 288, 216
-0.9985, 73, 75, 136, 90
-0.998501, 57, 87, 120, 102
-0.998503, 241, 159, 304, 174
-0.998504, 433, 125, 496, 140
-0.998506, 145, 63, 208, 78
-0.998507, 417, 43, 480, 58
-0.998508, 289, 89, 352, 104
-0.998508, 273, 65, 336, 80
-0.998511, 209, 47, 272, 62
-0.998511, 417, 159, 480, 174
-0.998512, 57, 51, 120, 66
-0.998512, 289, 71, 352, 86
-0.998512, 401, 73, 464, 88
-0.998512, 391, 49, 406, 176
-0.998513, 81, 29, 144, 44
-0.998513, 249, 65, 312, 80
-0.998514, 9, 61, 72, 76
-0.998516, 361, 71, 424, 86
-0.998517, 73, 67, 136, 82
-0.998519, 185, 41, 248, 56
-0.998522, 221, 97, 236, 224
-0.998522, 33, 75, 96, 90
-0.998522, 153, 159, 216, 174
-0.998523, 121, 63, 184, 78
-0.998523, 233, 227, 296, 242
-0.998523, 289, 127, 352, 142
-0.998524, 177, 173, 240, 188
-0.998525, 257, 87, 320, 102
-0.998526, 49, 183, 112, 198
-0.99853, 41, 175, 104, 190
-0.99853, 81, 59, 144, 74
-0.99853, 193, 95, 256, 110
-0.998531, 321, 65, 336, 192
-0.998532, 377, 111, 440, 126
-0.998532, 169, 167, 232, 182
-0.998533, 161, 35, 224, 50
-0.998533, 121, 173, 184, 188
-0.998533, 377, 47, 440, 62
-0.998534, 65, 31, 96, 46
-0.998534, 65, 177, 96, 192
-0.998535, 105, 51, 168, 66
-0.998535, 357, 59, 388, 74
-0.998535, 229, 59, 260, 74
-0.998535, 53, 65, 84, 80
-0.998536, 377, 59, 440, 74
-0.998536, 189, 51, 220, 66
-0.998536, 337, 61, 368, 76
-0.998537, 357, 133, 388, 148
-0.998537, 353, 119, 416, 134
-0.998537, 361, 91, 424, 106
-0.998538, 101, 49, 132, 64
-0.998538, 197, 45, 228, 60
-0.99854, 369, 17, 384, 144
-0.998542, 165, 169, 196, 184
-0.998542, 297, 55, 360, 70
-0.998542, 321, 65, 352, 80
-0.998543, 121, 193, 184, 208
-0.998543, 265, 133, 296, 148
-0.998543, 433, 137, 496, 152
-0.998543, 433, 151, 496, 166
-0.998544, 333, 103, 364, 118
-0.998545, 273, 85, 304, 100
-0.998546, 417, 181, 448, 196
-0.998546, 169, 61, 200, 76
-0.998546, 365, 85, 396, 100
-0.998547, 329, 93, 392, 108
-0.998548, 253, 227, 284, 242
-0.998548, 177, 131, 208, 146
-0.998548, 297, 59, 328, 74
-0.998548, 449, 53, 480, 68
-0.998548, 197, 127, 228, 142
-0.998549, 365, 49, 396, 64
-0.998549, 61, 159, 92, 174
-0.998549, 253, 209, 284, 224
-0.998551, 449, 151, 480, 166
-0.998552, 373, 65, 404, 80
-0.998552, 465, 61, 496, 76
-0.998553, 249, 191, 280, 206
-0.998553, 123, 17, 138, 144
-0.998556, 169, 47, 200, 62
-0.998556, 125, 181, 156, 196
-0.998557, 253, 151, 284, 166
-0.998558, 61, 57, 92, 72
-0.998559, 305, 107, 336, 122
-0.99856, 73, 49, 104, 64
-0.998561, 45, 71, 76, 86
-0.998561, 225, 131, 256, 146
-0.998562, 301, 65, 332, 80
-0.998562, 301, 147, 332, 162
-0.998563, 165, 145, 180, 272
-0.998563, 37, 59, 68, 74
-0.998564, 137, 49, 168, 64
-0.998564, 49, 51, 80, 66
-0.998566, 437, 59, 468, 74
-0.998566, 321, 119, 352, 134
-0.998568, 141, 239, 172, 254
-0.998568, 349, 45, 380, 60
-0.998569, 225, 155, 256, 170
-0.998569, 157, 187, 188, 202
-0.998569, 73, 37, 104, 52
-0.998569, 249, 183, 280, 198
-0.998569, 369, 59, 400, 74
-0.99857, 277, 143, 308, 158
-0.998571, 357, 65, 388, 80
-0.998571, 249, 49, 264, 176
-0.998571, 349, 89, 380, 104
-0.998572, 57, 171, 88, 186
-0.998572, 65, 33, 80, 160
-0.998572, 377, 105, 408, 120
-0.998573, 393, 57, 424, 72
-0.998573, 33, 47, 64, 62
-0.998574, 253, 145, 284, 160
-0.998576, 177, 157, 208, 172
-0.998577, 213, 155, 244, 170
-0.998581, 173, 181, 204, 196
-0.998581, 149, 17, 164, 144
-0.998583, 189, 163, 220, 178
-0.998583, 321, 177, 448, 208
-0.998586, 433, 49, 464, 64
-0.998586, 289, 81, 320, 96
-0.998587, 301, 133, 332, 148
-0.998587, 245, 233, 276, 248
-0.998587, 17, 13, 144, 44
-0.998588, 137, 43, 168, 58
-0.998589, 217, 47, 248, 62
-0.998591, 353, 121, 384, 136
-0.998593, 313, 145, 344, 160
-0.998594, 257, 61, 288, 76
-0.998595, 181, 175, 212, 190
-0.998595, 17, 141, 144, 172
-0.998595, 177, 55, 208, 70
-0.998596, 333, 97, 364, 112
-0.998596, 381, 125, 412, 140
-0.998596, 97, 39, 128, 54
-0.998597, 469, 55, 500, 70
-0.998597, 289, 139, 320, 154
-0.998597, 345, 137, 376, 152
-0.998598, 249, 197, 280, 212
-0.998599, 149, 53, 180, 68
-0.998599, 157, 37, 188, 52
-0.998599, 385, 65, 416, 80
-0.998601, 273, 149, 304, 164
-0.998602, 257, 139, 288, 154
-0.998602, 57, 33, 72, 160
-0.998602, 289, 131, 320, 146
-0.998605, 389, 75, 420, 90
-0.998605, 401, 63, 432, 78
-0.998605, 261, 161, 276, 288
-0.998606, 253, 203, 284, 218
-0.998607, 21, 55, 52, 70
-0.998608, 73, 59, 104, 74
-0.998608, 37, 53, 68, 68
-0.998608, 241, 139, 272, 154
-0.998609, 321, 125, 352, 140
-0.99861, 461, 33, 476, 160
-0.998612, 369, 131, 400, 146
-0.998612, 219, 49, 234, 176
-0.998619, 75, 33, 90, 160
-0.998619, 369, 125, 400, 140
-0.998621, 345, 55, 376, 70
-0.998623, 393, 119, 424, 134
-0.998623, 189, 153, 220, 168
-0.998625, 321, 103, 352, 118
-0.998625, 329, 137, 360, 152
-0.998626, 221, 147, 252, 162
-0.998629, 121, 47, 152, 62
-0.99863, 381, 59, 412, 74
-0.998632, 413, 121, 444, 136
-0.998635, 149, 175, 180, 190
-0.998635, 201, 149, 232, 164
-0.998637, 117, 37, 148, 52
-0.998638, 45, 33, 60, 160
-0.99864, 337, 49, 352, 176
-0.998641, 137, 175, 168, 190
-0.998642, 141, 37, 172, 52
-0.998642, 397, 49, 412, 176
-0.998642, 429, 43, 460, 58
-0.998644, 57, 43, 88, 58
-0.998647, 121, 53, 152, 68
-0.998647, 83, 33, 98, 160
-0.998649, 205, 135, 236, 150
-0.998649, 155, 17, 170, 144
-0.998649, 233, 145, 264, 160
-0.99865, 201, 159, 232, 174
-0.99865, 349, 95, 380, 110
-0.99865, 137, 181, 168, 196
-0.99865, 77, 43, 108, 58
-0.998652, 327, 49, 342, 176
-0.998653, 269, 161, 284, 288
-0.998654, 109, 43, 140, 58
-0.998655, 259, 49, 274, 176
-0.998665, 379, 17, 394, 144
-0.998671, 253, 55, 284, 70
-0.998671, 309, 127, 340, 142
-0.998671, 351, 33, 366, 160
-0.998672, 277, 133, 308, 148
-0.998672, 227, 97, 242, 224
-0.998678, 61, 51, 92, 66
-0.998678, 159, 145, 174, 272
-0.998686, 353, 127, 384, 142
-0.998698, 165, 55, 196, 70
-0.9987, 341, 131, 372, 146
-0.998701, 469, 17, 484, 144
-0.998704, 143, 33, 158, 160
-0.998704, 157, 45, 188, 60
-0.99871, 357, 33, 372, 160
-0.998725, 89, 33, 104, 160
-0.998727, 27, 33, 42, 160
-0.998732, 33, 49, 48, 176
-0.998735, 251, 193, 266, 320
-0.998739, 363, 33, 378, 160
-0.998743, 385, 65, 400, 192
-0.998746, 473, 97, 488, 224
-0.998747, 51, 17, 66, 144
-0.998751, 161, 17, 176, 144
-0.998754, 183, 33, 198, 160
-0.998758, 65, 265, 192, 296
-0.998774, 451, 97, 466, 224
-0.998776, 151, 161, 166, 288
-0.998779, 229, 33, 244, 160
-0.998779, 373, 65, 388, 192
-0.99878, 273, 81, 288, 208
-0.998788, 169, 193, 184, 320
-0.998798, 69, 97, 84, 224
-0.9988, 445, 97, 460, 224
-0.998815, 451, 49, 466, 176
-0.99882, 33, 1, 160, 32
-0.998824, 211, 97, 226, 224
-0.998825, 175, 17, 190, 144
-0.998829, 49, 129, 176, 160
-0.99883, 15, 65, 30, 192
-0.998833, 435, 49, 450, 176
-0.998833, 177, 145, 192, 272
-0.998837, 311, 97, 326, 224
-0.998839, 299, 65, 314, 192
-0.998848, 403, 49, 418, 176
-0.998848, 39, 49, 54, 176
-0.998854, 85, 97, 100, 224
-0.998856, 33, 201, 160, 232
-0.99886, 187, 97, 202, 224
-0.998865, 457, 97, 472, 224
-0.998876, 75, 81, 90, 208
-0.99888, 437, 113, 452, 240
-0.998885, 201, 33, 216, 160
-0.998887, 169, 33, 184, 160
-0.998895, 159, 193, 174, 320
-0.998896, 239, 49, 254, 176
-0.998901, 201, 97, 216, 224
-0.998905, 259, 113, 274, 240
-0.99891, 415, 49, 430, 176
-0.99891, 267, 97, 282, 224
-0.99891, 345, 49, 360, 176
-0.998923, 133, 33, 148, 160
-0.998925, 213, 33, 228, 160
-0.998929, 427, 49, 442, 176
-0.998937, 311, 145, 326, 272
-0.998953, 479, 97, 494, 224
-0.998978, 159, 65, 174, 192
-0.99898, 385, 17, 400, 144
-0.998981, 191, 49, 206, 176
-0.998985, 423, 145, 438, 272
-0.998986, 233, 81, 248, 208
-0.998993, 475, 1, 490, 128
-0.998995, 171, 145, 186, 272
-0.99902, 305, 65, 320, 192
-0.999022, 115, 1, 130, 128
-0.999024, 37, 1, 52, 128
-0.999036, 293, 49, 308, 176
-0.999038, 9, 49, 24, 176
-0.999039, 81, 109, 208, 140
-0.999051, 63, 81, 78, 208
-0.999053, 1, 229, 128, 260
-0.999054, 485, 97, 500, 224
-0.999057, 315, 49, 330, 176
-0.999063, 117, 81, 132, 208
-0.999063, 193, 97, 208, 224
-0.999065, 179, 209, 194, 333
-0.999067, 183, 145, 198, 272
-0.99907, 169, 81, 184, 208
-0.999072, 21, 33, 36, 160
-0.999075, 253, 129, 268, 256
-0.999077, 145, 161, 160, 288
-0.999081, 285, 65, 300, 192
-0.999081, 391, 97, 406, 224
-0.999087, 329, 97, 344, 224
-0.99909, 51, 65, 66, 192
-0.999094, 421, 49, 436, 176
-0.999096, 391, 1, 406, 128
-0.9991, 191, 145, 206, 272
-0.9991, 317, 145, 332, 272
-0.999104, 409, 49, 424, 176
-0.999105, 359, 81, 374, 208
-0.999109, 369, 13, 496, 44
-0.999116, 269, 209, 284, 333
-0.999117, 279, 65, 294, 192
-0.99912, 1, 109, 128, 140
-0.999131, 249, 1, 264, 128
-0.999132, 241, 209, 256, 333
-0.999132, 431, 97, 446, 224
-0.999134, 417, 145, 432, 272
-0.999139, 261, 1, 276, 128
-0.999139, 3, 33, 18, 160
-0.999144, 109, 17, 124, 144
-0.999151, 57, 97, 72, 224
-0.999155, 17, 253, 144, 284
-0.999159, 367, 81, 382, 208
-0.999161, 465, 113, 480, 240
-0.999166, 275, 129, 290, 256
-0.999169, 233, 129, 248, 256
-0.999171, 175, 97, 190, 224
-0.999235, 273, 1, 400, 32
-0.999283, 177, 269, 304, 300
-0.999303, 209, 21, 336, 52
-0.999432, 1, 241, 128, 272
-0.999571, 1, 121, 128, 152
-0.999573, 129, 273, 384, 333
-0.999655, 321, 1, 448, 32
-0.9997, 321, 149, 448, 180
-0.999715, 1, 217, 128, 248
-0.999728, 267, 201, 282, 216
-0.999728, 445, 45, 460, 60
-0.999728, 269, 67, 284, 82
-0.99973, 383, 131, 398, 146
-0.999732, 393, 57, 408, 72
-0.999732, 95, 49, 110, 64
-0.999732, 401, 65, 416, 80
-0.999733, 171, 227, 186, 242
-0.999733, 61, 55, 76, 70
-0.999733, 477, 51, 492, 66
-0.999733, 257, 165, 384, 196
-0.999734, 57, 67, 72, 82
-0.999734, 437, 47, 452, 62
-0.999734, 423, 119, 438, 134
-0.999735, 415, 121, 430, 136
-0.999736, 345, 55, 360, 70
-0.999736, 103, 45, 118, 60
-0.999737, 161, 55, 176, 70
-0.999737, 73, 43, 88, 58
-0.999737, 371, 131, 386, 146
-0.999737, 123, 181, 138, 196
-0.999738, 293, 79, 308, 94
-0.999739, 85, 31, 100, 46
-0.999739, 269, 137, 284, 152
-0.99974, 257, 139, 272, 154
-0.999741, 173, 165, 188, 180
-0.999741, 163, 61, 178, 76
-0.999741, 25, 55, 40, 70
-0.999741, 319, 143, 334, 158
-0.999742, 389, 63, 404, 78
-0.999743, 251, 55, 266, 70
-0.999743, 257, 197, 272, 212
-0.999743, 361, 127, 376, 142
-0.999744, 307, 147, 322, 162
-0.999744, 325, 127, 340, 142
-0.999744, 117, 183, 132, 198
-0.999744, 359, 135, 374, 150
-0.999744, 381, 103, 396, 118
-0.999746, 327, 121, 342, 136
-0.999747, 197, 43, 212, 58
-0.999747, 263, 189, 278, 204
-0.999748, 167, 171, 182, 186
-0.99975, 229, 147, 244, 162
-0.99975, 347, 93, 362, 108
-0.999751, 355, 127, 370, 142
-0.999752, 185, 157, 200, 172
-0.999752, 259, 53, 274, 68
-0.999753, 65, 157, 80, 172
-0.999753, 267, 61, 282, 76
-0.999754, 409, 119, 424, 134
-0.999755, 167, 55, 182, 70
-0.999756, 159, 173, 174, 188
-0.999757, 67, 51, 82, 66
-0.999757, 361, 89, 376, 104
-0.999758, 191, 53, 206, 68
-0.999759, 165, 165, 180, 180
-0.99976, 197, 153, 212, 168
-0.99976, 359, 121, 374, 136
-0.999761, 47, 71, 62, 86
-0.999761, 241, 227, 256, 242
-0.999761, 313, 145, 328, 160
-0.999762, 431, 45, 446, 60
-0.999762, 193, 175, 208, 190
-0.999763, 249, 203, 264, 218
-0.999763, 365, 133, 380, 148
-0.999763, 225, 261, 352, 292
-0.999763, 317, 59, 332, 74
-0.999764, 369, 45, 384, 60
-0.999764, 217, 149, 232, 164
-0.999764, 147, 37, 162, 52
-0.999765, 347, 131, 362, 146
-0.999766, 241, 143, 256, 158
-0.999766, 49, 51, 64, 66
-0.999766, 179, 37, 194, 52
-0.999767, 209, 149, 224, 164
-0.999768, 235, 145, 250, 160
-0.999769, 353, 93, 368, 108
-0.99977, 223, 147, 238, 162
-0.99977, 327, 103, 342, 118
-0.99977, 225, 47, 240, 62
-0.999771, 73, 57, 88, 72
-0.999771, 245, 233, 260, 248
-0.999773, 191, 155, 206, 170
-0.999774, 203, 153, 218, 168
-0.999774, 81, 177, 96, 192
-0.999774, 133, 53, 148, 68
-0.999774, 111, 39, 126, 54
-0.999774, 91, 33, 106, 48
-0.999774, 253, 209, 268, 224
-0.999775, 145, 181, 160, 196
-0.999775, 125, 49, 140, 64
-0.999775, 79, 55, 94, 70
-0.999775, 325, 143, 340, 158
-0.999779, 317, 127, 332, 142
-0.999779, 179, 53, 194, 68
-0.999782, 249, 141, 264, 156
-0.999784, 131, 45, 146, 60
-0.999785, 351, 137, 366, 152
-0.999785, 91, 41, 106, 56
-0.999786, 327, 113, 342, 128
-0.999787, 241, 219, 256, 234
-0.999788, 57, 49, 72, 64
-0.999789, 337, 133, 352, 148
-0.99979, 161, 37, 176, 52
-0.999791, 333, 105, 348, 120
-0.999791, 265, 195, 280, 210
-0.999791, 281, 133, 296, 148
-0.999792, 125, 35, 140, 50
-0.999794, 171, 45, 186, 60
-0.999794, 119, 37, 134, 52
-0.999799, 207, 45, 222, 60
-0.9998, 73, 51, 88, 66
-0.999805, 321, 121, 336, 136
-0.999805, 311, 129, 326, 144
-0.999806, 305, 131, 320, 146
-0.999808, 121, 43, 136, 58
-0.999809, 67, 43, 82, 58
-0.99981, 273, 181, 400, 212
-0.999812, 153, 171, 168, 186
-0.999814, 151, 177, 166, 192
-0.999815, 129, 183, 144, 198
-0.999816, 259, 59, 274, 74
-0.999823, 85, 55, 100, 70
-0.999829, 135, 183, 150, 198
-0.999831, 125, 55, 140, 70
-0.999834, 267, 55, 282, 70
-0.999836, 289, 135, 304, 150
-0.999842, 135, 177, 150, 192
-0.999844, 297, 133, 312, 148
-0.999844, 261, 203, 276, 218
-0.999845, 145, 173, 160, 188
-0.999846, 247, 227, 262, 242
-0.999849, 159, 167, 174, 182
-0.999875, 17, 265, 144, 296
-0.999897, 161, 1, 288, 32
-0.999986, 369, 217, 496, 280
-1.00066, 425, 193, 488, 320
-1.00077, 257, 257, 384, 320
-1.00166, 1, 273, 500, 333
-1.00219, 353, 257, 480, 320
-1.00231, 305, 265, 432, 328
-1.00246, 257, 273, 500, 333
