1890
-0.469523, 1, 1, 500, 332
-0.510163, 1, 1, 500, 256
-0.590456, 129, 1, 384, 332
-0.651777, 257, 1, 500, 332
-0.69658, 1, 1, 256, 332
-0.737707, 129, 65, 384, 320
-0.781934, 225, 1, 480, 256
-0.838718, 1, 65, 256, 320
-0.86223, 289, 1, 416, 332
-0.869211, 241, 1, 368, 256
-0.87109, 225, 1, 352, 332
-0.888276, 289, 1, 416, 256
-0.915244, 177, 1, 304, 332
-0.919505, 1, 209, 500, 332
-0.921956, 33, 1, 160, 332
-0.922595, 65, 65, 192, 320
-0.92328, 337, 1, 464, 332
-0.924999, 145, 65, 272, 320
-0.926335, 113, 1, 240, 332
-0.926415, 193, 1, 320, 256
-0.929102, 1, 17, 500, 144
-0.930729, 337, 1, 464, 256
-0.934323, 281, 65, 344, 192
-0.934396, 257, 33, 384, 160
-0.935197, 17, 65, 144, 320
-0.936139, 161, 65, 416, 192
-0.938781, 1, 209, 256, 332
-0.94193, 281, 89, 344, 152
-0.944546, 257, 65, 500, 192
-0.945583, 297, 17, 360, 144
-0.948251, 129, 17, 384, 144
-0.948527, 225, 17, 480, 144
-0.948658, 321, 33, 384, 160
-0.951149, 1, 97, 500, 224
-0.951417, 209, 17, 336, 144
-0.951874, 257, 81, 384, 208
-0.952069, 305, 1, 432, 128
-0.953182, 161, 113, 416, 240
-0.953489, 137, 209, 200, 332
-0.954466, 25, 209, 88, 332
-0.955994, 265, 17, 328, 144
-0.956018, 1, 161, 500, 288
-0.956995, 281, 145, 344, 272
-0.957144, 257, 65, 320, 192
-0.959057, 33, 249, 96, 312
-0.960053, 297, 65, 360, 128
-0.961016, 281, 113, 344, 176
-0.961411, 113, 209, 176, 332
-0.962034, 305, 97, 368, 224
-0.962073, 1, 161, 256, 288
-0.962652, 257, 113, 500, 240
-0.963044, 97, 177, 352, 304
-0.963921, 49, 209, 112, 332
-0.964142, 297, 1, 360, 256
-0.964685, 209, 81, 336, 208
-0.964962, 293, 89, 324, 152
-0.965503, 113, 209, 240, 332
-0.966137, 273, 65, 336, 128
-0.966247, 305, 49, 432, 176
-0.966373, 1, 193, 64, 320
-0.966629, 297, 41, 360, 104
-0.966896, 305, 105, 368, 168
-0.967289, 257, 105, 320, 168
-0.967517, 17, 273, 80, 332
-0.968346, 73, 265, 136, 328
-0.968357, 273, 25, 336, 88
-0.968692, 321, 25, 384, 88
-0.96883, 49, 177, 176, 304
-0.969743, 257, 89, 384, 152
-0.969837, 113, 161, 176, 288
-0.970024, 317, 49, 348, 176
-0.970565, 257, 113, 320, 240
-0.970731, 77, 265, 108, 328
-0.971438, 129, 161, 256, 288
-0.971462, 53, 265, 84, 328
-0.971509, 337, 1, 400, 64
-0.97154, 233, 1, 296, 128
-0.971872, 1, 209, 128, 332
-0.971888, 25, 217, 88, 280
-0.971921, 297, 17, 360, 80
-0.97209, 281, 177, 344, 240
-0.972308, 281, 89, 312, 152
-0.972603, 305, 73, 336, 136
-0.972943, 145, 209, 208, 272
-0.973063, 137, 161, 200, 288
-0.973152, 257, 17, 384, 80
-0.973162, 121, 225, 184, 288
-0.973271, 73, 209, 136, 332
-0.973273, 57, 233, 120, 296
-0.973319, 301, 129, 332, 256
-0.973474, 321, 1, 384, 256
-0.973664, 329, 17, 360, 144
-0.973713, 149, 201, 180, 264
-0.973742, 145, 209, 176, 332
-0.974, 305, 97, 432, 224
-0.974715, 73, 241, 104, 304
-0.974839, 281, 137, 344, 200
-0.974854, 129, 177, 192, 240
-0.974868, 241, 129, 368, 256
-0.975296, 301, 113, 332, 176
-0.975457, 41, 265, 72, 328
-0.975532, 305, 65, 336, 192
-0.975802, 325, 41, 356, 104
-0.97583, 265, 1, 328, 64
-0.975869, 149, 177, 180, 240
-0.976027, 337, 9, 368, 72
-0.976084, 257, 1, 320, 256
-0.976102, 329, 105, 360, 168
-0.9764, 153, 161, 184, 288
-0.976587, 193, 161, 448, 288
-0.976898, 345, 1, 408, 128
-0.977023, 81, 241, 144, 304
-0.977086, 273, 57, 400, 120
-0.978177, 329, 105, 392, 168
-0.978199, 293, 65, 324, 192
-0.978284, 29, 273, 60, 332
-0.978438, 65, 81, 320, 208
-0.978447, 309, 49, 340, 112
-0.978546, 225, 65, 352, 128
-0.978605, 289, 201, 352, 264
-0.978739, 285, 65, 316, 128
-0.9789, 105, 201, 168, 264
-0.979032, 281, 193, 344, 320
-0.979171, 273, 113, 400, 176
-0.979268, 241, 73, 304, 136
-0.979373, 57, 209, 88, 332
-0.979443, 41, 273, 104, 332
-0.979643, 41, 209, 72, 332
-0.979737, 317, 73, 348, 136
-0.979814, 309, 25, 340, 88
-0.980089, 321, 113, 352, 240
-0.980103, 1, 201, 64, 264
-0.980451, 289, 113, 320, 176
-0.980838, 321, 49, 384, 112
-0.980945, 281, 81, 312, 208
-0.981185, 233, 81, 296, 208
-0.981185, 329, 81, 392, 208
-0.981382, 89, 249, 120, 312
-0.981535, 157, 209, 188, 332
-0.981559, 49, 193, 176, 256
-0.981987, 317, 105, 348, 168
-0.982048, 289, 1, 352, 332
-0.982106, 305, 25, 432, 88
-0.982558, 129, 201, 256, 264
-0.982681, 341, 89, 372, 152
-0.982733, 341, 1, 372, 128
-0.982748, 309, 1, 340, 128
-0.982799, 141, 225, 172, 288
-0.982861, 69, 209, 100, 332
-0.982997, 209, 105, 336, 168
-0.983289, 29, 209, 60, 332
-0.983655, 329, 65, 360, 192
-0.983677, 321, 1, 384, 332
-0.983686, 209, 17, 336, 80
-0.983773, 137, 201, 168, 264
-0.983869, 233, 1, 296, 64
-0.983956, 261, 1, 292, 128
-0.983958, 293, 177, 324, 240
-0.984014, 273, 113, 304, 176
-0.984063, 293, 17, 324, 144
-0.984115, 353, 1, 480, 128
-0.984126, 257, 137, 320, 200
-0.984152, 233, 1, 296, 256
-0.984187, 61, 233, 92, 296
-0.984317, 297, 49, 328, 112
-0.98434, 81, 217, 208, 280
-0.984406, 1, 177, 64, 240
-0.984439, 9, 249, 72, 312
-0.984455, 49, 129, 176, 256
-0.984521, 161, 201, 192, 264
-0.984525, 49, 225, 80, 288
-0.98455, 225, 41, 352, 104
-0.984601, 153, 177, 216, 240
-0.984924, 141, 161, 172, 288
-0.984972, 305, 89, 432, 152
-0.985155, 305, 129, 368, 192
-0.985204, 113, 265, 176, 328
-0.985207, 161, 177, 224, 304
-0.985294, 133, 209, 164, 332
-0.985366, 257, 1, 320, 332
-0.985401, 281, 129, 312, 256
-0.985781, 329, 81, 392, 144
-0.985886, 129, 97, 192, 224
-0.986068, 17, 273, 48, 332
-0.986183, 269, 89, 300, 152
-0.986311, 129, 177, 256, 240
-0.986397, 233, 97, 296, 160
-0.9864, 89, 209, 120, 332
-0.986492, 321, 145, 384, 272
-0.986627, 129, 97, 256, 224
-0.986638, 321, 1, 448, 64
-0.986682, 233, 25, 296, 88
-0.986684, 249, 49, 312, 112
-0.987003, 33, 233, 64, 296
-0.98715, 21, 249, 52, 312
-0.98728, 273, 33, 304, 160
-0.987315, 25, 193, 88, 256
-0.987411, 137, 161, 168, 224
-0.98749, 257, 177, 384, 304
-0.987522, 309, 177, 340, 240
-0.987582, 321, 185, 384, 248
-0.98761, 257, 161, 320, 224
-0.987639, 65, 169, 192, 232
-0.987694, 1, 161, 128, 288
-0.987762, 301, 145, 332, 208
-0.987818, 321, 129, 352, 192
-0.987852, 293, 177, 324, 304
-0.987855, 1, 217, 128, 280
-0.987913, 353, 89, 416, 152
-0.988009, 57, 161, 120, 288
-0.988053, 81, 265, 208, 328
-0.988285, 321, 185, 352, 248
-0.988309, 33, 33, 288, 160
-0.988324, 257, 185, 320, 248
-0.988351, 281, 113, 344, 144
-0.988404, 105, 161, 168, 224
-0.988662, 33, 161, 96, 288
-0.988695, 257, 161, 320, 288
-0.988846, 289, 93, 352, 124
-0.988958, 269, 81, 300, 208
-0.98899, 309, 1, 340, 64
-0.989004, 325, 17, 356, 80
-0.989034, 41, 253, 104, 284
-0.989151, 65, 265, 96, 328
-0.989153, 49, 241, 176, 304
-0.9892, 161, 177, 192, 240
-0.989241, 113, 65, 176, 320
-0.989245, 129, 233, 160, 296
-0.989665, 265, 101, 328, 132
-0.989666, 281, 137, 312, 200
-0.989692, 297, 45, 360, 76
-0.989703, 341, 81, 372, 208
-0.98971, 1, 257, 256, 320
-0.989721, 1, 113, 128, 240
-0.989781, 25, 65, 88, 320
-0.989842, 345, 1, 408, 256
-0.989882, 321, 65, 448, 128
-0.989884, 305, 113, 368, 144
-0.989942, 273, 65, 336, 96
-0.989954, 17, 193, 48, 320
-0.989975, 153, 225, 184, 288
-0.989991, 257, 1, 288, 64
-0.989996, 281, 177, 312, 240
-0.990012, 281, 193, 344, 224
-0.990017, 305, 29, 368, 60
-0.990042, 145, 233, 208, 296
-0.990044, 49, 201, 112, 264
-0.990068, 25, 209, 56, 272
-0.990085, 273, 49, 336, 80
-0.990146, 273, 77, 336, 108
-0.990163, 297, 81, 360, 112
-0.99042, 17, 281, 80, 312
-0.990539, 1, 225, 64, 288
-0.990586, 293, 25, 324, 88
-0.990588, 33, 269, 96, 300
-0.990606, 329, 21, 392, 52
-0.99063, 225, 129, 352, 192
-0.990641, 273, 37, 336, 68
-0.990642, 265, 25, 296, 88
-0.990712, 97, 241, 224, 304
-0.990726, 281, 137, 344, 168
-0.990743, 281, 181, 344, 212
-0.990764, 297, 57, 360, 88
-0.990776, 257, 113, 320, 144
-0.990852, 177, 129, 304, 256
-0.990856, 297, 69, 360, 100
-0.990864, 89, 257, 152, 288
-0.990869, 297, 9, 360, 40
-0.990884, 161, 65, 224, 320
-0.990896, 321, 113, 448, 176
-0.990929, 337, 1, 400, 32
-0.990937, 1, 193, 32, 256
-0.990949, 345, 25, 408, 88
-0.990957, 273, 65, 304, 128
-0.990957, 297, 125, 360, 156
-0.990974, 73, 273, 136, 304
-0.990983, 1, 145, 64, 272
-0.990999, 13, 201, 44, 264
-0.991016, 265, 1, 328, 32
-0.991035, 145, 265, 208, 328
-0.991075, 233, 1, 296, 332
-0.99109, 321, 41, 384, 72
-0.9911, 353, 17, 384, 144
-0.991106, 129, 161, 160, 288
-0.991136, 129, 273, 256, 332
-0.991177, 265, 13, 328, 44
-0.991184, 129, 193, 192, 224
-0.991205, 129, 209, 192, 240
-0.991214, 113, 221, 176, 252
-0.991268, 313, 101, 376, 132
-0.991272, 337, 33, 368, 96
-0.991286, 273, 177, 400, 240
-0.991379, 81, 217, 144, 280
-0.991386, 1, 193, 32, 320
-0.991451, 17, 257, 80, 288
-0.991452, 25, 293, 88, 324
-0.991456, 361, 1, 424, 64
-0.991456, 273, 25, 336, 56
-0.991461, 65, 241, 128, 272
-0.991468, 225, 177, 352, 240
-0.991484, 129, 177, 192, 208
-0.991561, 369, 1, 400, 64
-0.991562, 241, 101, 304, 132
-0.991578, 321, 53, 384, 84
-0.9916, 345, 1, 408, 332
-0.991615, 1, 269, 64, 300
-0.991625, 329, 117, 392, 148
-0.991663, 329, 81, 360, 144
-0.991726, 153, 209, 216, 240
-0.991802, 265, 89, 328, 120
-0.991807, 169, 273, 232, 332
-0.991813, 341, 113, 372, 176
-0.991817, 105, 233, 168, 264
-0.991821, 137, 225, 200, 256
-0.991859, 281, 149, 344, 180
-0.991949, 89, 273, 120, 332
-0.991967, 257, 137, 320, 168
-0.99201, 65, 81, 192, 208
-0.992041, 113, 165, 176, 196
-0.992051, 41, 281, 104, 312
-0.992064, 69, 257, 100, 288
-0.992075, 129, 153, 192, 216
-0.992084, 337, 93, 400, 124
-0.992089, 161, 129, 224, 256
-0.992096, 73, 285, 136, 316
-0.992098, 97, 269, 160, 300
-0.992103, 369, 1, 432, 128
-0.992111, 1, 201, 64, 232
-0.992148, 1, 189, 64, 220
-0.992179, 41, 237, 104, 268
-0.992194, 273, 125, 336, 156
-0.992199, 309, 113, 340, 144
-0.992213, 313, 193, 376, 224
-0.992235, 65, 253, 128, 284
-0.992279, 241, 89, 304, 120
-0.992282, 37, 209, 68, 272
-0.992303, 305, 193, 368, 320
-0.992303, 77, 273, 108, 304
-0.992309, 337, 113, 368, 144
-0.99231, 257, 177, 320, 208
-0.992314, 281, 177, 312, 304
-0.992315, 25, 217, 88, 248
-0.992324, 41, 285, 72, 316
-0.992346, 277, 101, 308, 132
-0.992346, 329, 41, 360, 72
-0.992356, 153, 197, 216, 228
-0.992394, 305, 73, 336, 104
-0.992406, 177, 81, 304, 144
-0.992424, 113, 245, 176, 276
-0.992431, 293, 113, 324, 144
-0.99244, 53, 293, 84, 324
-0.992468, 281, 169, 344, 200
-0.992475, 249, 77, 312, 108
-0.992478, 293, 93, 324, 124
-0.992494, 41, 297, 72, 328
-0.992494, 257, 189, 320, 220
-0.992513, 105, 205, 168, 236
-0.99252, 77, 217, 108, 280
-0.992526, 369, 1, 432, 32
-0.992529, 325, 113, 356, 144
-0.992531, 49, 273, 80, 304
-0.992531, 333, 29, 364, 60
-0.992535, 29, 293, 60, 324
-0.992538, 149, 205, 180, 236
-0.99254, 141, 221, 172, 252
-0.992546, 53, 257, 84, 288
-0.992594, 309, 37, 340, 68
-0.992611, 145, 49, 272, 176
-0.992635, 41, 257, 72, 288
-0.992635, 49, 293, 112, 324
-0.992651, 281, 113, 312, 144
-0.99266, 289, 205, 352, 236
-0.992664, 61, 281, 92, 312
-0.992679, 65, 65, 128, 320
-0.992685, 121, 273, 184, 304
-0.992688, 153, 153, 216, 216
-0.992692, 321, 101, 352, 132
-0.992694, 73, 301, 104, 332
-0.992697, 337, 17, 368, 48
-0.992697, 313, 57, 344, 88
-0.99271, 1, 293, 64, 324
-0.992714, 353, 25, 384, 88
-0.992726, 325, 53, 356, 84
-0.992727, 149, 177, 180, 208
-0.992741, 29, 281, 60, 312
-0.992747, 233, 17, 296, 48
-0.992755, 317, 73, 348, 104
-0.992755, 241, 41, 304, 72
-0.992762, 303, 89, 318, 152
-0.992776, 225, 5, 288, 36
-0.992781, 153, 293, 216, 324
-0.992782, 369, 81, 496, 208
-0.992789, 61, 269, 92, 300
-0.99279, 153, 185, 216, 216
-0.992797, 49, 1, 112, 332
-0.992801, 285, 77, 316, 108
-0.992803, 1, 169, 128, 232
-0.992827, 285, 177, 316, 208
-0.992838, 281, 89, 312, 120
-0.992885, 309, 185, 340, 216
-0.992896, 305, 93, 336, 124
-0.992901, 233, 29, 296, 60
-0.992902, 77, 241, 108, 272
-0.992914, 329, 125, 360, 156
-0.992923, 345, 5, 376, 36
-0.992923, 89, 265, 120, 296
-0.992933, 161, 97, 416, 160
-0.992938, 321, 129, 384, 160
-0.992941, 89, 221, 152, 252
-0.992941, 25, 193, 88, 224
-0.992942, 93, 249, 124, 280
-0.992944, 145, 193, 176, 224
-0.992946, 17, 245, 80, 276
-0.992948, 145, 233, 176, 264
-0.992953, 89, 245, 152, 276
-0.992954, 141, 165, 172, 196
-0.992956, 309, 25, 340, 56
-0.992961, 157, 193, 188, 224
-0.992963, 257, 165, 320, 196
-0.992985, 65, 225, 128, 256
-0.992986, 141, 113, 172, 240
-0.992988, 301, 61, 332, 92
-0.993007, 297, 89, 312, 152
-0.993017, 89, 97, 152, 224
-0.993024, 241, 125, 304, 156
-0.993026, 137, 261, 200, 292
-0.993037, 121, 285, 184, 316
-0.993039, 1, 213, 64, 244
-0.99304, 33, 269, 64, 300
-0.993045, 57, 245, 88, 276
-0.993055, 241, 201, 368, 264
-0.993056, 301, 141, 332, 172
-0.993075, 337, 105, 400, 136
-0.993077, 97, 293, 160, 324
-0.993081, 313, 161, 376, 224
-0.993089, 301, 125, 332, 156
-0.99309, 161, 213, 192, 244
-0.9931, 321, 73, 384, 104
-0.993102, 17, 301, 48, 332
-0.993105, 257, 109, 384, 140
-0.993119, 129, 229, 160, 260
-0.993126, 153, 173, 216, 204
-0.99313, 269, 113, 300, 144
-0.993133, 1, 197, 32, 228
-0.993135, 77, 285, 108, 316
-0.993159, 333, 101, 364, 132
-0.993159, 297, 181, 328, 212
-0.993159, 305, 181, 368, 212
-0.993165, 57, 213, 120, 244
-0.993166, 317, 125, 348, 156
-0.993168, 9, 285, 40, 316
-0.993173, 265, 97, 296, 128
-0.993179, 233, 113, 296, 144
-0.993186, 301, 169, 332, 200
-0.993189, 301, 197, 332, 228
-0.993194, 321, 193, 352, 224
-0.993207, 41, 245, 72, 276
-0.993216, 241, 53, 304, 84
-0.993216, 281, 133, 312, 164
-0.993222, 157, 229, 188, 260
-0.993224, 289, 41, 320, 72
-0.993225, 313, 73, 328, 136
-0.993231, 21, 269, 52, 300
-0.993236, 33, 205, 96, 236
-0.993238, 285, 57, 316, 88
-0.993256, 151, 201, 166, 264
-0.993263, 257, 149, 320, 180
-0.993265, 25, 257, 56, 288
-0.993265, 145, 237, 208, 268
-0.993276, 345, 41, 408, 72
-0.993279, 313, 205, 376, 236
-0.99328, 161, 177, 192, 208
-0.993295, 105, 189, 168, 220
-0.993302, 289, 193, 320, 224
-0.993307, 317, 85, 348, 116
-0.993308, 137, 205, 168, 236
-0.993312, 129, 217, 160, 248
-0.993314, 373, 1, 404, 32
-0.99332, 17, 205, 48, 236
-0.993325, 37, 217, 68, 248
-0.993334, 321, 137, 352, 168
-0.99334, 57, 233, 88, 264
-0.993342, 353, 89, 480, 152
-0.993344, 257, 89, 500, 152
-0.993348, 321, 29, 352, 60
-0.993352, 9, 1, 72, 332
-0.993362, 361, 1, 392, 32
-0.993366, 357, 17, 388, 48
-0.993367, 169, 273, 232, 304
-0.993367, 409, 1, 472, 32
-0.993385, 321, 181, 352, 212
-0.993396, 177, 273, 304, 332
-0.993405, 293, 17, 324, 48
-0.993416, 317, 205, 348, 236
-0.993417, 349, 117, 380, 148
-0.993421, 145, 161, 208, 192
-0.993428, 301, 49, 332, 80
-0.993433, 293, 1, 324, 32
-0.993439, 353, 17, 416, 48
-0.993442, 321, 17, 352, 48
-0.993447, 97, 301, 128, 332
-0.993451, 345, 101, 376, 132
-0.993455, 137, 177, 168, 208
-0.993465, 269, 85, 300, 116
-0.993468, 9, 273, 40, 304
-0.993469, 1, 241, 128, 304
-0.993471, 341, 89, 372, 120
-0.993475, 253, 5, 284, 36
-0.993478, 129, 153, 256, 216
-0.993482, 129, 165, 160, 196
-0.99349, 349, 29, 380, 60
-0.993491, 137, 273, 168, 304
-0.993491, 169, 197, 200, 228
-0.993493, 149, 281, 180, 312
-0.993493, 313, 177, 344, 304
-0.993498, 133, 189, 164, 220
-0.993501, 5, 185, 36, 216
-0.993509, 241, 65, 304, 96
-0.993519, 285, 29, 316, 60
-0.993521, 49, 221, 80, 252
-0.993529, 261, 25, 292, 56
-0.993529, 265, 57, 296, 88
-0.99353, 89, 277, 120, 308
-0.993541, 185, 285, 248, 316
-0.993545, 273, 1, 304, 32
-0.993554, 17, 189, 48, 220
-0.993557, 141, 245, 172, 276
-0.993557, 277, 13, 308, 44
-0.99356, 25, 217, 56, 248
-0.993563, 333, 5, 364, 36
-0.993566, 121, 265, 152, 296
-0.99357, 109, 257, 140, 288
-0.993576, 301, 157, 332, 188
-0.993579, 337, 53, 368, 84
-0.99358, 185, 301, 216, 332
-0.993589, 17, 233, 80, 264
-0.993593, 273, 185, 304, 216
-0.993594, 157, 165, 188, 196
-0.993594, 281, 165, 312, 196
-0.993598, 89, 237, 120, 268
-0.993601, 169, 293, 200, 324
-0.993607, 309, 13, 340, 44
-0.993608, 265, 41, 296, 72
-0.99365, 73, 301, 136, 332
-0.993681, 161, 221, 224, 252
-0.993685, 241, 297, 304, 328
-0.993702, 1, 193, 128, 256
-0.99371, 105, 177, 168, 208
-0.993711, 217, 101, 280, 132
-0.993754, 145, 281, 208, 312
-0.993785, 335, 25, 350, 88
-0.993812, 89, 225, 120, 288
-0.993815, 217, 285, 280, 316
-0.993822, 291, 105, 306, 168
-0.993827, 377, 297, 440, 328
-0.993833, 433, 1, 496, 32
-0.993841, 353, 29, 416, 60
-0.993857, 105, 1, 168, 332
-0.993864, 97, 281, 160, 312
-0.993879, 409, 301, 472, 332
-0.993896, 313, 141, 376, 172
-0.993904, 257, 17, 384, 48
-0.993915, 177, 301, 240, 332
-0.993921, 209, 301, 272, 332
-0.99394, 193, 273, 256, 304
-0.993953, 1, 177, 64, 208
-0.993961, 1, 13, 64, 44
-0.993972, 113, 257, 176, 288
-0.993987, 257, 97, 384, 128
-0.994002, 89, 65, 152, 320
-0.994024, 349, 1, 380, 64
-0.994031, 5, 273, 36, 332
-0.99405, 177, 161, 304, 224
-0.994076, 165, 161, 196, 288
-0.994114, 257, 209, 500, 332
-0.994153, 319, 105, 334, 168
-0.994177, 101, 249, 132, 312
-0.994221, 305, 65, 320, 128
-0.994247, 91, 265, 106, 328
-0.994248, 39, 273, 54, 332
-0.994305, 329, 41, 344, 104
-0.99431, 177, 41, 304, 104
-0.994314, 409, 1, 472, 128
-0.994328, 225, 65, 480, 128
-0.99433, 257, 29, 384, 60
-0.994331, 285, 89, 300, 152
-0.994353, 145, 249, 176, 312
-0.994371, 273, 137, 400, 200
-0.994375, 1, 65, 64, 320
-0.994376, 281, 9, 312, 72
-0.994405, 321, 65, 336, 128
-0.994448, 73, 249, 88, 312
-0.994564, 257, 113, 500, 176
-0.994602, 129, 1, 192, 332
-0.994614, 225, 1, 480, 64
-0.994626, 313, 209, 344, 272
-0.994662, 297, 161, 312, 224
-0.994744, 125, 201, 156, 264
-0.99476, 27, 265, 42, 328
-0.994794, 299, 113, 314, 176
-0.994807, 161, 1, 288, 128
-0.994809, 323, 185, 338, 248
-0.994828, 241, 5, 368, 36
-0.994836, 341, 9, 356, 72
-0.994848, 339, 105, 354, 168
-0.994865, 161, 185, 416, 248
-0.994871, 311, 49, 326, 112
-0.994879, 137, 65, 200, 320
-0.994909, 257, 57, 384, 88
-0.99492, 145, 217, 160, 280
-0.994927, 269, 129, 300, 256
-0.994931, 305, 177, 432, 304
-0.994947, 49, 265, 64, 328
-0.995013, 157, 209, 172, 272
-0.995022, 193, 177, 320, 304
-0.995026, 329, 113, 344, 176
-0.995031, 293, 1, 324, 64
-0.995052, 133, 273, 164, 332
-0.995058, 433, 1, 496, 128
-0.995089, 157, 169, 172, 232
-0.9951, 57, 257, 72, 320
-0.99512, 257, 85, 384, 116
-0.995145, 121, 265, 152, 328
-0.995148, 281, 41, 312, 104
-0.995158, 35, 249, 50, 312
-0.995177, 163, 201, 178, 264
-0.995187, 49, 241, 64, 304
-0.99519, 337, 57, 368, 120
-0.995195, 153, 1, 216, 332
-0.995203, 63, 265, 78, 328
-0.99523, 81, 1, 144, 332
-0.995291, 129, 73, 384, 136
-0.99533, 145, 249, 272, 312
-0.995339, 1, 233, 256, 296
-0.995339, 289, 1, 416, 32
-0.995361, 325, 1, 356, 256
-0.995378, 273, 73, 400, 104
-0.995437, 293, 137, 308, 200
-0.99544, 33, 265, 160, 328
-0.99544, 333, 129, 364, 256
-0.995484, 41, 161, 72, 288
-0.995485, 1, 201, 256, 264
-0.995487, 65, 33, 192, 160
-0.995501, 79, 241, 94, 304
-0.995516, 301, 201, 332, 264
-0.995527, 121, 209, 152, 332
-0.995536, 225, 25, 480, 88
-0.995593, 91, 241, 106, 304
-0.995594, 365, 1, 396, 128
-0.995594, 347, 1, 362, 64
-0.995601, 385, 1, 448, 332
-0.995653, 309, 97, 324, 160
-0.995657, 73, 273, 88, 332
-0.99566, 149, 153, 180, 216
-0.995692, 33, 185, 64, 248
-0.995698, 63, 225, 78, 288
-0.995754, 33, 273, 48, 332
-0.995766, 151, 177, 166, 240
-0.99578, 225, 69, 352, 100
-0.995821, 151, 225, 166, 288
-0.99583, 163, 177, 178, 240
-0.995833, 129, 161, 384, 224
-0.995901, 287, 65, 302, 128
-0.995913, 301, 33, 332, 288
-0.995925, 257, 41, 384, 72
-0.99594, 117, 233, 148, 296
-0.995943, 1, 177, 256, 240
-0.995948, 329, 89, 344, 152
-0.99595, 65, 225, 192, 256
-0.995954, 161, 129, 416, 192
-0.996068, 97, 249, 112, 312
-0.996081, 145, 193, 160, 256
-0.996085, 49, 201, 80, 264
-0.996098, 257, 169, 500, 232
-0.996217, 313, 25, 328, 88
-0.99626, 47, 217, 62, 280
-0.996274, 129, 25, 384, 88
-0.996276, 273, 121, 400, 152
-0.99629, 145, 161, 160, 224
-0.996305, 169, 209, 200, 332
-0.996372, 323, 129, 338, 192
-0.996439, 209, 21, 336, 52
-0.996444, 101, 209, 132, 332
-0.996458, 89, 161, 152, 288
-0.996469, 285, 113, 300, 176
-0.996502, 279, 89, 294, 152
-0.996538, 17, 273, 32, 332
-0.996549, 305, 41, 320, 104
-0.996552, 353, 89, 384, 152
-0.996559, 1, 241, 500, 304
-0.996572, 323, 41, 338, 104
-0.996578, 299, 137, 314, 200
-0.996589, 343, 81, 358, 144
-0.996611, 85, 241, 100, 304
-0.996637, 5, 169, 36, 232
-0.996639, 57, 225, 72, 288
-0.996661, 327, 65, 342, 128
-0.996672, 193, 101, 320, 132
-0.996683, 225, 121, 352, 152
-0.996684, 299, 65, 314, 128
-0.996699, 321, 161, 352, 224
-0.996704, 337, 81, 352, 144
-0.996741, 345, 105, 360, 168
-0.996746, 313, 209, 376, 272
-0.996761, 321, 161, 448, 224
-0.99677, 305, 17, 432, 48
-0.996786, 79, 265, 94, 328
-0.996797, 217, 273, 280, 332
-0.996803, 285, 201, 316, 264
-0.996808, 65, 197, 192, 228
-0.996814, 273, 17, 288, 80
-0.996822, 313, 121, 328, 184
-0.996825, 313, 1, 344, 256
-0.996846, 361, 1, 376, 64
-0.996854, 23, 241, 38, 304
-0.996861, 339, 113, 354, 144
-0.996868, 337, 1, 464, 32
-0.996883, 333, 41, 348, 72
-0.996886, 65, 213, 192, 244
-0.996892, 145, 241, 160, 304
-0.996892, 369, 1, 496, 64
-0.996905, 335, 49, 350, 112
-0.996925, 161, 81, 224, 208
-0.996929, 145, 225, 272, 288
-0.996951, 209, 41, 336, 72
-0.996954, 209, 81, 336, 112
-0.996954, 369, 273, 496, 332
-0.996954, 289, 101, 304, 132
-0.996967, 149, 221, 164, 252
-0.996981, 49, 145, 176, 208
-0.996989, 305, 57, 432, 88
-0.996999, 73, 225, 88, 288
-0.997013, 209, 53, 336, 84
-0.997015, 129, 177, 256, 208
-0.997016, 89, 257, 104, 288
-0.997017, 129, 49, 384, 112
-0.99702, 267, 1, 282, 64
-0.997029, 3, 193, 18, 256
-0.997042, 9, 193, 24, 256
-0.997047, 305, 105, 432, 136
-0.997048, 325, 113, 340, 144
-0.997054, 319, 73, 334, 104
-0.997056, 313, 77, 328, 108
-0.997068, 323, 161, 338, 224
-0.997089, 257, 145, 500, 208
-0.997091, 321, 93, 448, 124
-0.997112, 139, 201, 154, 264
-0.997118, 289, 113, 304, 144
-0.997131, 295, 185, 310, 248
-0.997145, 17, 17, 144, 144
-0.997165, 49, 293, 64, 324
-0.997173, 177, 1, 240, 332
-0.99719, 329, 53, 344, 84
-0.997195, 155, 225, 170, 256
-0.997202, 307, 73, 322, 104
-0.99721, 353, 81, 384, 208
-0.997212, 273, 1, 304, 256
-0.997222, 85, 273, 100, 332
-0.997223, 169, 185, 184, 248
-0.997237, 297, 93, 312, 124
-0.997266, 113, 97, 240, 160
-0.997282, 351, 89, 366, 152
-0.997292, 365, 89, 396, 152
-0.997295, 303, 177, 318, 240
-0.997301, 241, 265, 368, 328
-0.997305, 65, 97, 192, 160
-0.997323, 305, 1, 320, 64
-0.997328, 225, 153, 352, 216
-0.997344, 49, 269, 64, 300
-0.997356, 297, 113, 312, 144
-0.997356, 337, 29, 352, 60
-0.997357, 101, 225, 132, 288
-0.997359, 65, 97, 320, 160
-0.997364, 33, 225, 48, 288
-0.997367, 63, 273, 78, 304
-0.997377, 425, 1, 488, 332
-0.997389, 73, 253, 88, 284
-0.99739, 279, 33, 294, 96
-0.997395, 323, 61, 338, 92
-0.997398, 293, 65, 308, 128
-0.997405, 23, 201, 38, 264
-0.997407, 63, 261, 78, 292
-0.997414, 313, 57, 328, 88
-0.997415, 319, 113, 334, 144
-0.99742, 297, 177, 312, 208
-0.99742, 129, 197, 256, 228
-0.997421, 323, 185, 338, 216
-0.997426, 283, 105, 298, 136
-0.997453, 61, 201, 92, 264
-0.997475, 39, 301, 54, 332
-0.997487, 97, 241, 352, 304
-0.997488, 65, 285, 80, 316
-0.997489, 321, 185, 448, 248
-0.997493, 49, 281, 64, 312
-0.9975, 35, 261, 50, 292
-0.997512, 329, 193, 344, 256
-0.997512, 331, 113, 346, 144
-0.997514, 161, 105, 288, 168
-0.997517, 313, 113, 328, 144
-0.997535, 73, 269, 88, 300
-0.997538, 257, 81, 288, 208
-0.997549, 113, 221, 240, 252
-0.997556, 49, 257, 64, 288
-0.997559, 305, 41, 432, 72
-0.997574, 57, 161, 88, 288
-0.997575, 341, 33, 356, 96
-0.997577, 381, 1, 396, 64
-0.997586, 129, 1, 384, 64
-0.997598, 209, 1, 272, 332
-0.997625, 139, 225, 154, 288
-0.997625, 149, 205, 164, 236
-0.997627, 329, 137, 344, 200
-0.997632, 307, 109, 322, 140
-0.997635, 157, 233, 172, 296
-0.997641, 81, 185, 208, 216
-0.997643, 1, 217, 500, 280
-0.997646, 357, 89, 372, 152
-0.997648, 27, 273, 42, 304
-0.997654, 445, 1, 476, 128
-0.997656, 27, 285, 42, 316
-0.997685, 357, 25, 372, 88
-0.997686, 57, 277, 72, 308
-0.997687, 81, 237, 208, 268
-0.997688, 113, 209, 240, 240
-0.997695, 97, 209, 352, 272
-0.997696, 343, 17, 358, 48
-0.997707, 161, 213, 176, 244
-0.997708, 57, 257, 72, 288
-0.997716, 193, 201, 320, 264
-0.99772, 305, 121, 320, 184
-0.997724, 345, 113, 360, 144
-0.997726, 5, 113, 36, 240
-0.997729, 159, 173, 174, 204
-0.997729, 289, 177, 304, 240
-0.997729, 27, 297, 42, 328
-0.99773, 303, 93, 318, 124
-0.997742, 91, 269, 106, 300
-0.997755, 159, 197, 174, 228
-0.997755, 15, 201, 30, 264
-0.997756, 281, 65, 296, 128
-0.997758, 337, 1, 368, 256
-0.99776, 329, 17, 344, 80
-0.997763, 1, 17, 500, 80
-0.997771, 257, 181, 384, 212
-0.997784, 337, 101, 352, 132
-0.997794, 5, 169, 20, 232
-0.997801, 155, 209, 170, 240
-0.997818, 37, 289, 52, 320
-0.997818, 281, 93, 296, 124
-0.997832, 39, 277, 54, 308
-0.997839, 1, 189, 128, 220
-0.997849, 347, 1, 362, 32
-0.997852, 73, 289, 88, 320
-0.997854, 161, 1, 288, 64
-0.997858, 1, 97, 128, 160
-0.997868, 17, 65, 144, 192
-0.997881, 153, 169, 168, 200
-0.997883, 43, 249, 58, 312
-0.99789, 75, 301, 90, 332
-0.997894, 305, 29, 432, 60
-0.9979, 325, 137, 340, 168
-0.997909, 321, 209, 336, 272
-0.997913, 331, 125, 346, 156
-0.997913, 33, 273, 48, 304
-0.997916, 393, 65, 456, 320
-0.997917, 309, 89, 324, 120
-0.997927, 149, 233, 164, 264
-0.99793, 53, 201, 68, 264
-0.997936, 169, 265, 200, 328
-0.99794, 405, 1, 436, 128
-0.997952, 129, 273, 384, 332
-0.997979, 233, 129, 296, 256
-0.997982, 25, 261, 40, 292
-0.997988, 353, 81, 416, 208
-0.997988, 165, 197, 180, 228
-0.998001, 79, 257, 94, 288
-0.998005, 81, 269, 96, 300
-0.99801, 261, 1, 292, 256
-0.99801, 17, 177, 48, 240
-0.998015, 47, 245, 62, 276
-0.998017, 59, 289, 74, 320
-0.998028, 315, 145, 330, 208
-0.998038, 277, 109, 292, 140
-0.99804, 63, 249, 78, 280
-0.998053, 401, 81, 464, 208
-0.99806, 1, 193, 500, 256
-0.998062, 317, 185, 332, 248
-0.998072, 65, 173, 192, 204
-0.998072, 157, 97, 188, 224
-0.998075, 257, 193, 500, 256
-0.998075, 277, 113, 292, 176
-0.998081, 129, 265, 256, 296
-0.998091, 47, 193, 62, 256
-0.998107, 353, 25, 480, 88
-0.998132, 351, 25, 366, 88
-0.998132, 165, 177, 180, 208
-0.998132, 1, 1, 16, 64
-0.998134, 35, 249, 50, 280
-0.998138, 343, 57, 358, 120
-0.998147, 15, 177, 30, 240
-0.998147, 337, 17, 352, 48
-0.998153, 103, 249, 118, 312
-0.998153, 43, 261, 58, 292
-0.998154, 313, 1, 328, 64
-0.998159, 149, 273, 180, 332
-0.998165, 1, 265, 500, 328
-0.998165, 97, 225, 112, 288
-0.998167, 1, 193, 16, 224
-0.998167, 287, 137, 302, 200
-0.99817, 37, 193, 52, 256
-0.99817, 41, 217, 56, 280
-0.998171, 143, 217, 158, 248
-0.998183, 169, 209, 184, 272
-0.998184, 65, 97, 128, 224
-0.998187, 17, 293, 32, 324
-0.998195, 17, 281, 32, 312
-0.998196, 325, 125, 340, 156
-0.998206, 7, 273, 22, 332
-0.998209, 321, 117, 448, 148
-0.998226, 331, 101, 346, 132
-0.998233, 153, 189, 168, 220
-0.998233, 305, 61, 320, 92
-0.998234, 291, 133, 306, 164
-0.998234, 297, 137, 312, 168
-0.998235, 287, 85, 302, 116
-0.998242, 55, 301, 70, 332
-0.998252, 151, 153, 166, 216
-0.998252, 359, 17, 374, 48
-0.998252, 353, 1, 384, 256
-0.99826, 327, 41, 342, 72
-0.998268, 329, 169, 344, 232
-0.998269, 145, 281, 272, 312
-0.998274, 97, 273, 112, 332
-0.998277, 81, 265, 208, 296
-0.998281, 343, 93, 358, 124
-0.9983, 193, 273, 256, 332
-0.998305, 209, 65, 272, 192
-0.998308, 317, 101, 332, 132
-0.998309, 363, 25, 378, 88
-0.998318, 331, 29, 346, 60
-0.998322, 97, 265, 112, 296
-0.998323, 131, 233, 146, 296
-0.998329, 159, 185, 174, 216
-0.998331, 293, 137, 324, 152
-0.998332, 321, 27, 352, 42
-0.998333, 17, 297, 48, 312
-0.998336, 17, 279, 48, 294
-0.998336, 305, 45, 320, 76
-0.998337, 289, 197, 320, 212
-0.998338, 281, 83, 312, 98
-0.998339, 33, 253, 64, 268
-0.998339, 317, 201, 348, 216
-0.998339, 357, 21, 388, 36
-0.998341, 337, 125, 352, 156
-0.998342, 53, 215, 84, 230
-0.998343, 305, 123, 336, 138
-0.998343, 147, 165, 162, 196
-0.998346, 269, 121, 300, 136
-0.998349, 137, 243, 168, 258
-0.998352, 137, 165, 168, 180
-0.998354, 89, 275, 120, 290
-0.998354, 9, 287, 40, 302
-0.998354, 345, 7, 376, 22
-0.998355, 305, 109, 336, 124
-0.998359, 303, 121, 318, 152
-0.99836, 17, 315, 48, 330
-0.998361, 325, 59, 356, 74
-0.998363, 161, 197, 192, 212
-0.998364, 31, 201, 46, 264
-0.998364, 269, 97, 300, 112
-0.998364, 299, 81, 314, 112
-0.998365, 281, 137, 312, 152
-0.998365, 81, 309, 112, 324
-0.998367, 17, 303, 48, 318
-0.998369, 33, 279, 64, 294
-0.998369, 321, 39, 352, 54
-0.998369, 289, 123, 320, 138
-0.998369, 93, 255, 124, 270
-0.998371, 337, 111, 368, 126
-0.998372, 285, 179, 316, 194
-0.998373, 99, 249, 114, 280
-0.998374, 33, 273, 64, 288
-0.998374, 33, 265, 64, 280
-0.998374, 151, 249, 166, 312
-0.998375, 313, 85, 344, 100
-0.998376, 69, 251, 100, 266
-0.998378, 147, 273, 162, 332
-0.998379, 153, 217, 184, 232
-0.99838, 275, 97, 290, 128
-0.998382, 345, 1, 376, 16
-0.998383, 325, 197, 340, 228
-0.998383, 369, 241, 496, 304
-0.998384, 133, 235, 164, 250
-0.998384, 289, 191, 320, 206
-0.998385, 153, 183, 184, 198
-0.998387, 301, 177, 332, 192
-0.998388, 317, 79, 348, 94
-0.998388, 355, 1, 370, 64
-0.998389, 293, 67, 324, 82
-0.99839, 241, 137, 368, 168
-0.998392, 17, 309, 48, 324
-0.998392, 69, 287, 100, 302
-0.998392, 53, 251, 84, 266
-0.998394, 89, 317, 120, 332
-0.998395, 309, 183, 340, 198
-0.998398, 141, 205, 172, 220
-0.998399, 91, 245, 106, 276
-0.998399, 273, 107, 304, 122
-0.998399, 49, 317, 80, 332
-0.998399, 313, 33, 344, 48
-0.9984, 297, 125, 312, 156
-0.998405, 285, 73, 316, 88
-0.998405, 325, 53, 356, 68
-0.998409, 317, 195, 348, 210
-0.998409, 317, 125, 348, 140
-0.998409, 89, 263, 120, 278
-0.998411, 283, 117, 298, 148
-0.998412, 293, 95, 324, 110
-0.998413, 77, 303, 108, 318
-0.998416, 301, 195, 332, 210
-0.998416, 141, 221, 172, 236
-0.998417, 383, 1, 398, 32
-0.998419, 337, 125, 368, 140
-0.998424, 29, 285, 60, 300
-0.998424, 321, 67, 352, 82
-0.998425, 273, 115, 336, 130
-0.998425, 341, 13, 372, 28
-0.998427, 141, 171, 172, 186
-0.998428, 149, 197, 180, 212
-0.998431, 125, 265, 140, 328
-0.998431, 9, 197, 24, 228
-0.998433, 281, 95, 312, 110
-0.998433, 149, 211, 180, 226
-0.998433, 301, 83, 332, 98
-0.998434, 313, 55, 344, 70
-0.998436, 295, 165, 310, 196
-0.998438, 281, 89, 312, 104
-0.998438, 77, 281, 108, 296
-0.998439, 79, 285, 94, 316
-0.998439, 305, 115, 368, 130
-0.998439, 315, 89, 330, 120
-0.998442, 41, 259, 72, 274
-0.998443, 161, 229, 176, 260
-0.998444, 309, 189, 340, 204
-0.998445, 301, 143, 332, 158
-0.998445, 375, 1, 390, 64
-0.998446, 89, 269, 120, 284
-0.998447, 305, 65, 336, 80
-0.998447, 61, 273, 92, 288
-0.998448, 149, 177, 180, 192
-0.99845, 17, 217, 144, 248
-0.99845, 153, 205, 184, 220
-0.998451, 345, 119, 376, 134
-0.998452, 65, 297, 80, 328
-0.998456, 329, 47, 360, 62
-0.998456, 301, 89, 332, 104
-0.998456, 93, 301, 108, 332
-0.998459, 341, 25, 372, 40
-0.99846, 61, 267, 92, 282
-0.99846, 49, 267, 80, 282
-0.998462, 305, 77, 336, 92
-0.998462, 351, 113, 366, 144
-0.998465, 317, 73, 348, 88
-0.998466, 61, 317, 92, 332
-0.998467, 145, 233, 176, 248
-0.998468, 309, 39, 340, 54
-0.998472, 325, 107, 356, 122
-0.998476, 377, 81, 440, 208
-0.998476, 309, 47, 340, 62
-0.998477, 61, 281, 92, 296
-0.998478, 289, 185, 320, 200
-0.998478, 49, 311, 80, 326
-0.998481, 41, 257, 104, 272
-0.998481, 61, 293, 92, 308
-0.998481, 333, 35, 364, 50
-0.998482, 287, 73, 302, 104
-0.998482, 345, 49, 408, 112
-0.998485, 53, 299, 84, 314
-0.998486, 167, 213, 182, 244
-0.998488, 29, 315, 60, 330
-0.99849, 341, 19, 372, 34
-0.998491, 289, 1, 320, 256
-0.998493, 29, 291, 60, 306
-0.998494, 1, 113, 500, 176
-0.998496, 285, 105, 316, 120
-0.998499, 49, 273, 80, 288
-0.998499, 269, 113, 300, 128
-0.9985, 311, 33, 326, 64
-0.998504, 273, 79, 336, 94
-0.998505, 79, 245, 94, 276
-0.998505, 319, 125, 334, 156
-0.998506, 297, 53, 360, 68
-0.998506, 297, 47, 360, 62
-0.998507, 297, 115, 328, 130
-0.998507, 33, 301, 48, 332
-0.99851, 273, 85, 336, 100
-0.998513, 273, 69, 336, 84
-0.998515, 321, 117, 352, 132
-0.998519, 333, 41, 364, 56
-0.998519, 49, 279, 80, 294
-0.998519, 33, 277, 96, 292
-0.998523, 297, 29, 360, 44
-0.998528, 289, 95, 352, 110
-0.998529, 171, 193, 186, 224
-0.998529, 33, 283, 96, 298
-0.998529, 69, 309, 100, 324
-0.99853, 53, 257, 84, 272
-0.998532, 305, 17, 320, 48
-0.998532, 281, 195, 344, 210
-0.998532, 53, 287, 84, 302
-0.998533, 267, 9, 282, 40
-0.998542, 41, 285, 72, 300
-0.998545, 273, 51, 336, 66
-0.998545, 73, 233, 88, 264
-0.998546, 29, 297, 60, 312
-0.998546, 303, 185, 318, 216
-0.998546, 281, 189, 344, 204
-0.998551, 309, 115, 340, 130
-0.998553, 155, 237, 170, 268
-0.998555, 29, 309, 60, 324
-0.998556, 29, 303, 60, 318
-0.998557, 81, 301, 96, 332
-0.998558, 321, 29, 384, 44
-0.998559, 305, 71, 336, 86
-0.998559, 143, 201, 158, 232
-0.998559, 329, 23, 392, 38
-0.998561, 49, 305, 80, 320
-0.998561, 273, 45, 336, 60
-0.998562, 337, 1, 400, 16
-0.998563, 273, 63, 336, 78
-0.998563, 77, 315, 108, 330
-0.998565, 297, 89, 360, 104
-0.998565, 1, 237, 128, 268
-0.998565, 113, 227, 176, 242
-0.998566, 33, 271, 96, 286
-0.998567, 305, 35, 368, 50
-0.99857, 297, 109, 360, 124
-0.998572, 41, 291, 72, 306
-0.998572, 77, 275, 108, 290
-0.998574, 319, 145, 334, 176
-0.998574, 299, 197, 314, 228
-0.998574, 281, 141, 344, 156
-0.998576, 281, 123, 344, 138
-0.998577, 281, 115, 312, 130
-0.998581, 297, 73, 360, 88
-0.998582, 321, 45, 384, 60
-0.998582, 273, 109, 336, 124
-0.998582, 349, 49, 380, 112
-0.998584, 145, 185, 160, 216
-0.998584, 33, 265, 96, 280
-0.998585, 265, 17, 328, 32
-0.998585, 273, 39, 336, 54
-0.998585, 81, 265, 144, 280
-0.998586, 17, 289, 80, 304
-0.99859, 265, 11, 328, 26
-0.998594, 141, 227, 172, 242
-0.998594, 333, 117, 364, 132
-0.998594, 297, 23, 360, 38
-0.998594, 297, 1, 360, 16
-0.998595, 81, 277, 208, 308
-0.998599, 297, 67, 360, 82
-0.998599, 265, 23, 328, 38
-0.998601, 69, 257, 100, 272
-0.998601, 41, 297, 72, 312
-0.998604, 77, 161, 108, 288
-0.998604, 265, 29, 328, 44
-0.998604, 297, 59, 360, 74
-0.998607, 297, 11, 360, 26
-0.998607, 129, 205, 192, 220
-0.998607, 265, 93, 328, 108
-0.998607, 73, 273, 136, 288
-0.998607, 129, 233, 256, 264
-0.998608, 281, 183, 344, 198
-0.99861, 335, 17, 350, 144
-0.99861, 249, 115, 312, 130
-0.998617, 297, 79, 360, 94
-0.998617, 273, 57, 336, 72
-0.998618, 77, 269, 108, 284
-0.998618, 257, 1, 320, 16
-0.998618, 305, 17, 368, 32
-0.998619, 193, 301, 320, 332
-0.99862, 289, 101, 352, 116
-0.998623, 337, 7, 400, 22
-0.998623, 313, 125, 376, 140
-0.998623, 177, 1, 304, 32
-0.998624, 129, 195, 192, 210
-0.998626, 1, 263, 64, 278
-0.998626, 329, 17, 392, 32
-0.998627, 281, 147, 344, 162
-0.998629, 329, 119, 392, 134
-0.998629, 281, 135, 344, 150
-0.99863, 1, 271, 64, 286
-0.998631, 329, 37, 392, 52
-0.998632, 121, 233, 184, 248
-0.998636, 25, 169, 88, 232
-0.998637, 129, 211, 192, 226
-0.998639, 1, 277, 64, 292
-0.998639, 33, 295, 96, 310
-0.998643, 73, 259, 136, 274
-0.998646, 297, 41, 360, 56
-0.998648, 57, 265, 120, 280
-0.998648, 9, 313, 72, 328
-0.998649, 121, 173, 184, 188
-0.998649, 137, 227, 200, 242
-0.998649, 257, 189, 320, 204
-0.998652, 73, 287, 136, 302
-0.998653, 9, 283, 72, 298
-0.998654, 321, 81, 448, 112
-0.998654, 325, 49, 340, 176
-0.998655, 17, 301, 80, 316
-0.998655, 281, 129, 344, 144
-0.998655, 97, 271, 160, 286
-0.998655, 329, 107, 392, 122
-0.998656, 321, 51, 384, 66
-0.998656, 9, 307, 72, 322
-0.998657, 249, 109, 312, 124
-0.998661, 289, 201, 352, 216
-0.998664, 129, 179, 192, 194
-0.998664, 305, 195, 368, 210
-0.998665, 77, 263, 108, 278
-0.998665, 97, 293, 224, 324
-0.998666, 149, 65, 180, 320
-0.998666, 73, 279, 136, 294
-0.998667, 257, 137, 320, 152
-0.998668, 241, 99, 304, 114
-0.998669, 249, 121, 312, 136
-0.998669, 265, 101, 328, 116
-0.998674, 65, 253, 128, 268
-0.998675, 281, 177, 344, 192
-0.998676, 1, 191, 64, 206
-0.998677, 113, 221, 176, 236
-0.998678, 145, 235, 208, 250
-0.998679, 41, 289, 104, 304
-0.998681, 1, 199, 64, 214
-0.998681, 17, 257, 80, 272
-0.998681, 57, 313, 120, 328
-0.998681, 9, 295, 72, 310
-0.998682, 129, 185, 192, 200
-0.998683, 153, 207, 216, 222
-0.998683, 281, 153, 344, 168
-0.998683, 145, 217, 208, 232
-0.998684, 81, 317, 144, 332
-0.998685, 257, 181, 320, 196
-0.998686, 313, 201, 376, 216
-0.99869, 73, 247, 136, 262
-0.998691, 329, 97, 392, 112
-0.998692, 241, 93, 304, 108
-0.998692, 257, 143, 320, 158
-0.998696, 329, 113, 392, 128
-0.998697, 249, 87, 312, 102
-0.998698, 49, 215, 112, 230
-0.998699, 153, 201, 216, 216
-0.9987, 17, 249, 144, 280
-0.998701, 1, 209, 64, 224
-0.998701, 89, 253, 152, 268
-0.998702, 105, 167, 168, 182
-0.998702, 305, 207, 368, 222
-0.998703, 105, 97, 168, 160
-0.998704, 41, 237, 104, 252
-0.998705, 321, 59, 384, 74
-0.998708, 25, 231, 88, 246
-0.998708, 305, 137, 368, 152
-0.998709, 9, 97, 72, 224
-0.99871, 281, 171, 344, 186
-0.998711, 321, 65, 384, 80
-0.998712, 41, 251, 104, 266
-0.998714, 57, 307, 120, 322
-0.998714, 105, 241, 168, 256
-0.998714, 225, 13, 288, 28
-0.998727, 193, 241, 320, 304
-0.998749, 151, 193, 166, 320
-0.998753, 313, 65, 328, 192
-0.998759, 241, 201, 368, 232
-0.998776, 1, 205, 128, 236
-0.998792, 305, 273, 432, 332
-0.998797, 33, 209, 48, 332
-0.998798, 129, 165, 256, 196
-0.998803, 341, 1, 356, 128
-0.998807, 47, 209, 62, 332
-0.998817, 321, 137, 448, 200
-0.998835, 289, 241, 416, 304
-0.998842, 319, 49, 334, 176
-0.998843, 65, 253, 192, 284
-0.998845, 161, 161, 176, 288
-0.998851, 295, 129, 310, 256
-0.998864, 305, 209, 432, 272
-0.998872, 1, 89, 500, 152
-0.998898, 121, 49, 184, 176
-0.998909, 41, 65, 72, 320
-0.99891, 325, 97, 340, 224
-0.998914, 307, 65, 322, 192
-0.998922, 145, 209, 160, 332
-0.998934, 157, 209, 172, 332
-0.998942, 63, 209, 78, 332
-0.998959, 89, 49, 152, 176
-0.998968, 369, 57, 496, 120
-0.998977, 121, 97, 152, 224
-0.998981, 329, 129, 392, 192
-0.999017, 353, 13, 480, 44
-0.999018, 275, 17, 290, 144
-0.999026, 177, 65, 304, 96
-0.999036, 177, 113, 304, 144
-0.999041, 33, 265, 160, 296
-0.999043, 301, 65, 316, 192
-0.999046, 285, 49, 300, 176
-0.999052, 129, 253, 256, 284
-0.999057, 331, 113, 346, 240
-0.999066, 61, 65, 92, 320
-0.999068, 169, 97, 200, 224
-0.999071, 313, 1, 328, 128
-0.999075, 293, 81, 308, 208
-0.999089, 81, 73, 208, 136
-0.999089, 321, 185, 448, 216
-0.999091, 177, 189, 304, 220
-0.999119, 289, 301, 416, 332
-0.999119, 57, 209, 72, 332
-0.99912, 417, 1, 480, 64
-0.999121, 65, 161, 192, 192
-0.999128, 339, 81, 354, 208
-0.99913, 319, 97, 334, 224
-0.999133, 325, 177, 356, 304
-0.999136, 81, 209, 96, 332
-0.99915, 201, 1, 264, 256
-0.999154, 17, 73, 144, 136
-0.999161, 353, 113, 384, 176
-0.999165, 305, 113, 320, 240
-0.99918, 23, 209, 38, 332
-0.999183, 193, 289, 320, 320
-0.999193, 307, 1, 322, 128
-0.999195, 269, 1, 284, 128
-0.999197, 321, 69, 448, 100
-0.999199, 277, 81, 292, 208
-0.99922, 167, 161, 182, 288
-0.999222, 137, 65, 168, 320
-0.999238, 1, 65, 500, 128
-0.999241, 289, 133, 416, 164
-0.999242, 345, 49, 360, 176
-0.999246, 73, 209, 88, 332
-0.999257, 1, 65, 32, 320
-0.999259, 161, 65, 192, 320
-0.999266, 289, 129, 304, 256
-0.99928, 295, 177, 310, 304
-0.999283, 173, 193, 204, 256
-0.999286, 153, 145, 168, 272
-0.999288, 145, 161, 160, 288
-0.999292, 163, 209, 178, 332
-0.999296, 313, 113, 328, 240
-0.99931, 93, 209, 108, 332
-0.999313, 129, 73, 256, 136
-0.999316, 129, 129, 256, 192
-0.999317, 321, 145, 336, 272
-0.99932, 425, 81, 488, 208
-0.999342, 433, 273, 496, 332
-0.999364, 21, 65, 52, 320
-0.999365, 25, 145, 56, 272
-0.999368, 337, 281, 464, 312
-0.999376, 327, 1, 342, 128
-0.999377, 5, 193, 20, 320
-0.999381, 257, 285, 384, 316
-0.99939, 331, 65, 346, 192
-0.9994, 209, 273, 336, 304
-0.999415, 205, 273, 236, 332
-0.999423, 139, 193, 154, 320
-0.999431, 13, 193, 28, 320
-0.999435, 357, 17, 372, 144
-0.999442, 153, 97, 216, 160
-0.999442, 351, 33, 366, 160
-0.999473, 1, 285, 128, 316
-0.999478, 273, 273, 336, 332
-0.99948, 321, 173, 448, 204
-0.999487, 171, 209, 186, 332
-0.999494, 39, 209, 54, 332
-0.999504, 365, 1, 396, 256
-0.999508, 173, 65, 204, 320
-0.999515, 337, 297, 464, 328
-0.999515, 49, 177, 112, 240
-0.999518, 303, 177, 318, 304
-0.99952, 283, 113, 298, 240
-0.999525, 321, 197, 448, 228
-0.999525, 121, 65, 152, 320
-0.999537, 1, 25, 128, 88
-0.99955, 287, 1, 302, 128
-0.999552, 145, 301, 272, 332
-0.999559, 289, 177, 304, 304
-0.999581, 377, 89, 440, 152
-0.999581, 209, 97, 272, 160
-0.999583, 155, 203, 170, 218
-0.999583, 147, 241, 162, 256
-0.999584, 43, 275, 58, 290
-0.999584, 47, 251, 62, 266
-0.999585, 65, 297, 80, 312
-0.999585, 33, 287, 48, 302
-0.999589, 325, 47, 340, 62
-0.99959, 271, 81, 286, 208
-0.99959, 327, 41, 342, 56
-0.999591, 97, 269, 112, 284
-0.999591, 311, 91, 326, 106
-0.999591, 81, 275, 96, 290
-0.999592, 59, 303, 74, 318
-0.999592, 163, 179, 178, 194
-0.999592, 17, 291, 32, 306
-0.999593, 25, 269, 40, 284
-0.999593, 73, 293, 88, 308
-0.999593, 43, 269, 58, 284
-0.999594, 93, 311, 108, 326
-0.999597, 301, 17, 316, 144
-0.999597, 49, 309, 64, 324
-0.999599, 305, 67, 320, 82
-0.999599, 3, 195, 18, 210
-0.999599, 149, 207, 164, 222
-0.9996, 39, 291, 54, 306
-0.9996, 79, 253, 94, 268
-0.999601, 273, 115, 288, 130
-0.999602, 25, 261, 40, 276
-0.999602, 349, 1, 364, 16
-0.999606, 339, 125, 354, 140
-0.999606, 291, 105, 306, 120
-0.999606, 319, 69, 334, 84
-0.999607, 161, 207, 176, 222
-0.999608, 163, 197, 178, 212
-0.999609, 61, 251, 76, 266
-0.999609, 147, 235, 162, 250
-0.99961, 345, 11, 360, 26
-0.999611, 381, 1, 412, 64
-0.999612, 293, 97, 308, 112
-0.999613, 325, 137, 340, 152
-0.999613, 357, 27, 372, 42
-0.999616, 327, 125, 342, 140
-0.999617, 153, 171, 168, 186
-0.999618, 65, 291, 80, 306
-0.999618, 363, 1, 378, 128
-0.999619, 345, 97, 360, 224
-0.999621, 79, 259, 94, 274
-0.999621, 79, 269, 94, 284
-0.999622, 27, 275, 42, 290
-0.999622, 343, 17, 358, 32
-0.999624, 37, 281, 52, 296
-0.999624, 29, 317, 44, 332
-0.999626, 73, 287, 88, 302
-0.999627, 293, 137, 308, 152
-0.999628, 323, 189, 338, 204
-0.999629, 75, 313, 90, 328
-0.999629, 59, 297, 74, 312
-0.999629, 305, 91, 320, 106
-0.999631, 305, 73, 320, 88
-0.999632, 155, 235, 170, 250
-0.999635, 27, 309, 42, 324
-0.999635, 57, 257, 72, 272
-0.999636, 37, 297, 52, 312
-0.999638, 339, 27, 354, 42
-0.99964, 57, 263, 72, 278
-0.99964, 331, 35, 346, 50
-0.999642, 375, 1, 390, 128
-0.999642, 241, 169, 368, 200
-0.999644, 35, 257, 50, 272
-0.999646, 145, 221, 160, 236
-0.999646, 361, 21, 376, 36
-0.999649, 327, 61, 342, 76
-0.99965, 139, 145, 154, 272
-0.999651, 57, 287, 72, 302
-0.999651, 27, 281, 42, 296
-0.999653, 27, 293, 42, 308
-0.999654, 37, 275, 52, 290
-0.999654, 313, 65, 328, 80
-0.999654, 27, 303, 42, 318
-0.999654, 169, 249, 232, 312
-0.999654, 113, 209, 128, 332
-0.999655, 39, 315, 54, 330
-0.999656, 57, 269, 72, 284
-0.999657, 315, 77, 330, 92
-0.999658, 285, 95, 300, 110
-0.999658, 1, 145, 16, 272
-0.999659, 37, 269, 52, 284
-0.999659, 57, 281, 72, 296
-0.99966, 37, 303, 52, 318
-0.999662, 331, 47, 346, 62
-0.999662, 27, 287, 42, 302
-0.999663, 159, 173, 174, 188
-0.999663, 57, 275, 72, 290
-0.999663, 75, 307, 90, 322
-0.999664, 73, 269, 88, 284
-0.999665, 71, 263, 86, 278
-0.999665, 47, 257, 62, 272
-0.999665, 1, 41, 500, 104
-0.999666, 313, 83, 328, 98
-0.999666, 91, 275, 106, 290
-0.999667, 299, 95, 314, 110
-0.999668, 157, 229, 172, 244
-0.99967, 35, 263, 50, 278
-0.99967, 297, 179, 312, 194
-0.999673, 63, 261, 78, 276
-0.999673, 73, 275, 88, 290
-0.999673, 295, 33, 310, 160
-0.999674, 319, 1, 334, 128
-0.999674, 167, 113, 182, 240
-0.999676, 319, 115, 334, 130
-0.999676, 355, 119, 370, 134
-0.999676, 305, 115, 320, 130
-0.999679, 49, 303, 64, 318
-0.999681, 339, 109, 354, 124
-0.999681, 1, 177, 128, 208
-0.999684, 159, 97, 174, 224
-0.999685, 73, 281, 88, 296
-0.999686, 369, 1, 432, 256
-0.999686, 39, 309, 54, 324
-0.999687, 285, 107, 300, 122
-0.999689, 329, 53, 344, 68
-0.99969, 285, 115, 300, 130
-0.999691, 63, 285, 78, 300
-0.999691, 327, 177, 342, 304
-0.999692, 49, 273, 64, 288
-0.999692, 295, 115, 310, 130
-0.999693, 63, 267, 78, 282
-0.999695, 91, 267, 106, 282
-0.999695, 71, 255, 86, 270
-0.999696, 337, 33, 352, 48
-0.999697, 129, 153, 256, 184
-0.999698, 347, 117, 362, 132
-0.999699, 279, 111, 294, 126
-0.999699, 177, 169, 304, 200
-0.999699, 47, 263, 62, 278
-0.9997, 369, 1, 384, 128
-0.9997, 313, 115, 328, 130
-0.999701, 63, 279, 78, 294
-0.999702, 249, 1, 280, 256
-0.999707, 325, 67, 340, 82
-0.999707, 329, 117, 344, 132
-0.999708, 151, 225, 166, 240
-0.999708, 63, 273, 78, 288
-0.99971, 49, 279, 64, 294
-0.999712, 49, 285, 64, 300
-0.999715, 265, 81, 280, 208
-0.999715, 351, 81, 366, 208
-0.999718, 25, 161, 40, 288
-0.99972, 49, 291, 64, 306
-0.999721, 321, 75, 336, 90
-0.999724, 337, 117, 352, 132
-0.999726, 333, 41, 348, 56
-0.999738, 135, 97, 150, 224
-0.999739, 31, 161, 46, 288
-0.99974, 99, 209, 114, 332
-0.999741, 145, 101, 272, 132
-0.999741, 93, 317, 108, 332
-0.999742, 313, 71, 328, 86
-0.999744, 149, 97, 164, 224
-0.999745, 455, 1, 470, 128
-0.999747, 49, 297, 64, 312
-0.999747, 319, 193, 334, 320
-0.999747, 107, 209, 122, 332
-0.999747, 193, 133, 320, 164
-0.999749, 161, 13, 288, 44
-0.999753, 13, 145, 28, 272
-0.999758, 87, 209, 102, 332
-0.999762, 263, 1, 278, 128
-0.999763, 225, 273, 480, 332
-0.999766, 417, 1, 432, 128
-0.999779, 89, 65, 120, 320
-0.999784, 43, 161, 58, 288
-0.999784, 89, 261, 104, 276
-0.999786, 57, 161, 72, 288
-0.999794, 281, 1, 296, 128
-0.999794, 177, 193, 192, 320
-0.999795, 369, 269, 496, 300
-0.999797, 121, 209, 136, 332
-0.999798, 133, 209, 148, 332
-0.999802, 7, 145, 22, 272
-0.999803, 357, 81, 372, 208
-0.999808, 185, 97, 248, 224
-0.99981, 143, 97, 158, 224
-0.999811, 161, 153, 192, 216
-0.999821, 63, 161, 78, 288
-0.999821, 73, 65, 104, 320
-0.999822, 173, 145, 188, 272
-0.999824, 37, 161, 52, 288
-0.999825, 109, 65, 140, 320
-0.999827, 381, 1, 396, 128
-0.999829, 1, 153, 64, 216
-0.999829, 177, 257, 304, 288
-0.99983, 369, 89, 496, 120
-0.999837, 73, 161, 88, 288
-0.999846, 173, 97, 188, 224
-0.999846, 425, 1, 488, 256
-0.999848, 127, 209, 142, 332
-0.999854, 449, 1, 464, 128
-0.999867, 411, 1, 426, 128
-0.999877, 19, 161, 34, 288
-0.999882, 337, 129, 352, 256
-0.999884, 129, 97, 144, 224
-0.999886, 49, 161, 64, 288
-0.999887, 1, 97, 16, 224
-0.999888, 121, 97, 136, 224
-0.999889, 93, 97, 108, 224
-0.999891, 193, 201, 320, 232
-0.999893, 113, 97, 128, 224
-0.999896, 79, 97, 94, 224
-0.999898, 433, 81, 448, 208
-0.9999, 91, 161, 106, 288
-0.999902, 129, 97, 192, 160
-0.999903, 19, 113, 34, 240
-0.999905, 365, 81, 380, 208
-0.999906, 1, 301, 128, 332
-0.999907, 439, 81, 454, 208
-0.999907, 475, 81, 490, 208
-0.999911, 461, 1, 476, 128
-0.999912, 27, 113, 42, 240
-0.999912, 353, 105, 480, 136
-0.999913, 375, 81, 390, 208
-0.999913, 125, 49, 140, 176
-0.999914, 471, 33, 486, 160
-0.999915, 99, 97, 114, 224
-0.999917, 257, 81, 272, 208
-0.999917, 391, 81, 406, 208
-0.999917, 105, 161, 120, 288
-0.999918, 87, 97, 102, 224
-0.999918, 201, 97, 216, 224
-0.999921, 423, 1, 438, 128
-0.999922, 381, 81, 396, 208
-0.999922, 191, 97, 206, 224
-0.999923, 125, 169, 156, 232
-0.999924, 9, 97, 24, 224
-0.999933, 89, 161, 120, 288
-0.999938, 237, 1, 268, 256
-0.99996, 241, 297, 368, 328
-0.999967, 97, 101, 224, 132
-0.999969, 353, 25, 480, 56
-0.999973, 417, 89, 480, 152
-0.999996, 225, 249, 480, 312
-1.00002, 1, 1, 128, 64
-1.00003, 353, 209, 480, 272
-1.00003, 161, 217, 288, 248
-1.00003, 377, 65, 408, 320
-1.00004, 185, 97, 248, 160
-1.00005, 49, 101, 176, 132
-1.00007, 353, 121, 416, 184
-1.00009, 305, 245, 432, 276
-1.00011, 389, 65, 420, 320
-1.00013, 321, 233, 448, 264
-1.00014, 221, 65, 252, 320
-1.00014, 1, 1, 128, 32
-1.00015, 1, 9, 64, 72
-1.00016, 1, 105, 128, 136
-1.00016, 289, 209, 416, 240
-1.00017, 257, 269, 384, 300
-1.00017, 181, 265, 212, 328
-1.00018, 1, 153, 256, 216
-1.00018, 465, 65, 496, 320
-1.00019, 353, 249, 480, 280
-1.0002, 9, 249, 40, 312
-1.00021, 49, 297, 176, 328
-1.00022, 197, 1, 228, 256
-1.00023, 305, 269, 432, 300
-1.00024, 257, 237, 384, 268
-1.00024, 169, 201, 232, 264
-1.00027, 369, 229, 496, 260
-1.00027, 185, 1, 216, 256
-1.00028, 209, 65, 240, 320
-1.00028, 261, 57, 292, 120
-1.00028, 1, 17, 128, 48
-1.00031, 353, 37, 480, 68
-1.00031, 305, 161, 432, 192
-1.00031, 81, 89, 208, 120
-1.00032, 429, 65, 460, 320
-1.00033, 289, 145, 416, 176
-1.00033, 241, 149, 368, 180
-1.00033, 401, 65, 432, 320
-1.00034, 321, 221, 448, 252
-1.00035, 129, 89, 256, 120
-1.00035, 209, 237, 336, 268
-1.00036, 413, 1, 444, 256
-1.00036, 441, 65, 472, 320
-1.00037, 369, 77, 496, 108
-1.00038, 113, 1, 240, 128
-1.00038, 377, 1, 408, 128
-1.00038, 273, 225, 400, 256
-1.00038, 273, 257, 400, 288
-1.00038, 33, 89, 160, 120
-1.00039, 33, 73, 288, 136
-1.0004, 453, 65, 484, 320
-1.0004, 377, 265, 440, 328
-1.00044, 369, 213, 496, 244
-1.00047, 209, 221, 336, 252
-1.00049, 185, 33, 248, 160
-1.00049, 225, 257, 352, 288
-1.0005, 177, 161, 208, 288
-1.0005, 161, 25, 288, 56
-1.00053, 157, 249, 188, 312
-1.00053, 1, 49, 128, 80
-1.00053, 1, 1, 32, 64
-1.00054, 241, 265, 304, 328
-1.00054, 129, 53, 256, 84
-1.00055, 193, 157, 320, 188
-1.00055, 1, 29, 128, 60
-1.00056, 81, 121, 208, 184
-1.00061, 17, 157, 144, 188
-1.00061, 353, 209, 480, 332
-1.00061, 257, 217, 500, 280
-1.00062, 1, 1, 256, 64
-1.00063, 369, 57, 496, 88
-1.00065, 113, 141, 240, 172
-1.00069, 241, 225, 368, 288
-1.0007, 65, 149, 192, 180
-1.00074, 113, 65, 240, 96
-1.00078, 369, 185, 496, 248
-1.00083, 109, 97, 140, 224
-1.00084, 173, 169, 204, 232
-1.00084, 13, 225, 44, 288
-1.00086, 1, 25, 256, 88
-1.00087, 65, 121, 320, 184
-1.00094, 81, 97, 144, 160
-1.00095, 49, 33, 176, 96
-1.001, 401, 273, 464, 332
-1.00103, 257, 97, 288, 160
-1.00103, 17, 105, 80, 168
-1.00103, 429, 81, 460, 208
-1.00104, 193, 273, 224, 332
-1.00105, 97, 137, 160, 200
-1.00113, 41, 81, 104, 208
-1.00114, 49, 9, 176, 72
-1.00114, 417, 1, 448, 128
-1.00114, 57, 97, 120, 160
-1.00115, 73, 97, 104, 224
-1.00118, 333, 169, 364, 232
-1.00119, 369, 113, 496, 176
-1.00119, 369, 161, 496, 224
-1.00119, 217, 273, 248, 332
-1.00121, 97, 97, 128, 224
-1.00125, 1, 169, 500, 232
-1.00134, 1, 49, 256, 112
-1.00135, 81, 193, 144, 256
-1.00137, 177, 177, 240, 240
-1.00138, 269, 1, 300, 64
-1.00141, 97, 33, 224, 96
-1.00142, 353, 273, 416, 332
-1.00142, 409, 81, 440, 208
-1.00151, 245, 65, 276, 192
-1.00158, 125, 49, 156, 176
-1.00164, 233, 81, 264, 208
-1.00164, 381, 81, 412, 208
-1.00169, 249, 1, 280, 128
-1.00174, 85, 97, 116, 224
-1.00174, 113, 9, 240, 72
-1.00174, 449, 1, 480, 64
-1.00175, 177, 137, 304, 200
-1.00175, 469, 81, 500, 208
-1.00178, 1, 121, 128, 184
-1.00178, 161, 33, 224, 160
-1.00179, 369, 161, 496, 288
-1.00181, 1, 49, 128, 112
-1.00181, 209, 249, 272, 312
-1.00186, 329, 273, 392, 332
-1.00186, 365, 81, 396, 208
-1.00187, 457, 1, 488, 128
-1.00189, 209, 17, 240, 144
-1.0019, 141, 65, 172, 192
-1.00198, 145, 129, 208, 192
-1.002, 269, 161, 300, 224
-1.00202, 273, 273, 304, 332
-1.00202, 201, 81, 232, 208
-1.00202, 469, 33, 500, 160
-1.00209, 397, 81, 428, 208
-1.00214, 121, 73, 184, 136
-1.00215, 457, 81, 488, 208
-1.00216, 305, 233, 368, 296
-1.00217, 65, 17, 128, 144
-1.00221, 1, 145, 128, 208
-1.00228, 109, 49, 140, 176
-1.00229, 441, 81, 472, 208
-1.00234, 369, 137, 496, 200
-1.00237, 1, 1, 64, 128
-1.00239, 209, 73, 272, 136
-1.0024, 185, 97, 216, 224
-1.00246, 17, 97, 48, 224
-1.00249, 209, 17, 272, 144
-1.0025, 221, 81, 252, 208
-1.00253, 369, 57, 432, 120
-1.00257, 117, 161, 148, 288
-1.00257, 233, 121, 296, 184
-1.00259, 25, 33, 88, 160
-1.00259, 433, 249, 496, 312
-1.00261, 137, 137, 168, 200
-1.00267, 169, 73, 232, 136
-1.00267, 49, 97, 80, 224
-1.00271, 97, 49, 128, 176
-1.00274, 81, 73, 144, 136
-1.00275, 249, 209, 312, 332
-1.00276, 401, 217, 464, 280
-1.0028, 177, 97, 208, 160
-1.00282, 325, 209, 356, 272
-1.00284, 429, 33, 460, 160
-1.00284, 253, 273, 284, 332
-1.00287, 1, 1, 32, 128
-1.00288, 33, 97, 64, 224
-1.0029, 265, 225, 328, 288
-1.00293, 1, 145, 500, 208
-1.00293, 165, 97, 196, 160
-1.00298, 193, 33, 224, 160
-1.00299, 121, 97, 152, 160
-1.00299, 221, 33, 252, 160
-1.00301, 61, 97, 92, 224
-1.00304, 157, 49, 188, 176
-1.0031, 425, 217, 488, 280
-1.00313, 109, 97, 140, 160
-1.00315, 393, 241, 456, 304
-1.00315, 417, 65, 480, 128
-1.00318, 141, 17, 172, 144
-1.00318, 385, 89, 416, 152
-1.0032, 393, 65, 456, 128
-1.00321, 201, 97, 232, 160
-1.00327, 397, 89, 428, 152
-1.00331, 409, 1, 440, 64
-1.00331, 433, 89, 464, 152
-1.00333, 389, 33, 420, 160
-1.00333, 177, 49, 208, 176
-1.00335, 413, 89, 444, 152
-1.00336, 77, 49, 108, 176
-1.00341, 241, 97, 272, 160
-1.00342, 297, 273, 360, 332
-1.00342, 233, 33, 264, 160
-1.00345, 337, 249, 400, 312
-1.00348, 189, 97, 220, 160
-1.00349, 361, 233, 424, 296
-1.0035, 17, 49, 48, 176
-1.00354, 365, 25, 396, 88
-1.00355, 137, 97, 168, 160
-1.00355, 213, 97, 244, 160
-1.00357, 61, 49, 92, 176
-1.00358, 193, 209, 256, 332
-1.00368, 393, 1, 456, 64
-1.00382, 37, 49, 68, 176
-1.00396, 57, 73, 120, 136
-1.00396, 25, 1, 56, 128
-1.00398, 145, 73, 208, 136
-1.00406, 13, 1, 44, 128
-1.00415, 105, 161, 136, 288
-1.00418, 193, 209, 224, 332
-1.00419, 49, 33, 80, 160
-1.00419, 377, 209, 440, 272
-1.00421, 17, 73, 80, 136
-1.00423, 233, 153, 296, 216
-1.00437, 393, 185, 456, 248
-1.00439, 241, 217, 304, 280
-1.00445, 5, 49, 36, 176
-1.00446, 245, 113, 276, 240
-1.00451, 1, 49, 64, 176
-1.00454, 257, 193, 288, 320
-1.00455, 241, 241, 304, 304
-1.00467, 345, 193, 408, 320
-1.00467, 369, 209, 432, 332
-1.00472, 353, 193, 384, 320
-1.00473, 425, 209, 488, 332
-1.00477, 213, 209, 244, 332
-1.00491, 257, 129, 288, 256
-1.00493, 469, 209, 500, 332
-1.00497, 265, 249, 328, 312
-1.00502, 337, 225, 400, 288
-1.00502, 25, 17, 88, 80
-1.00506, 417, 209, 448, 332
-1.00507, 1, 33, 64, 96
-1.00508, 193, 225, 256, 288
-1.00514, 269, 193, 300, 320
-1.00515, 349, 129, 380, 256
-1.0052, 425, 193, 488, 256
-1.00523, 429, 209, 460, 332
-1.00524, 377, 193, 408, 320
-1.0053, 397, 177, 428, 304
-1.00537, 233, 145, 264, 272
-1.00542, 401, 209, 464, 332
-1.00543, 457, 209, 488, 332
-1.00546, 353, 201, 416, 264
-1.00546, 341, 193, 372, 320
-1.00548, 237, 209, 268, 332
-1.0055, 417, 145, 448, 272
-1.0055, 201, 177, 264, 240
-1.0056, 193, 145, 256, 208
-1.00561, 245, 161, 276, 288
-1.00562, 361, 153, 424, 216
-1.00566, 365, 145, 396, 272
-1.00567, 109, 1, 140, 128
-1.00571, 125, 1, 156, 128
-1.00573, 217, 161, 248, 288
-1.00574, 129, 1, 192, 128
-1.00575, 89, 1, 120, 128
-1.0058, 193, 201, 256, 264
-1.00581, 185, 161, 248, 288
-1.00646, 209, 145, 272, 272
-1.00675, 385, 161, 448, 288
-1.00688, 353, 145, 416, 272
-1.00723, 89, 1, 152, 128
-1.00727, 225, 193, 288, 320
-1.00802, 425, 161, 488, 288
