1969
-0.432141, 1, 1, 375, 500
-0.501376, 1, 1, 256, 500
-0.519845, 1, 1, 375, 256
-0.534112, 1, 97, 375, 352
-0.552751, 129, 1, 375, 500
-0.58267, 1, 193, 375, 448
-0.603373, 33, 1, 288, 256
-0.645856, 129, 33, 375, 288
-0.698539, 33, 129, 288, 384
-0.765218, 33, 257, 288, 500
-0.78043, 129, 257, 375, 500
-0.807235, 129, 129, 375, 384
-0.839504, 129, 1, 256, 500
-0.841439, 129, 33, 256, 288
-0.864222, 129, 161, 256, 416
-0.873233, 81, 1, 208, 500
-0.877094, 81, 1, 208, 256
-0.878898, 177, 33, 304, 288
-0.887037, 129, 257, 256, 500
-0.898603, 81, 97, 208, 352
-0.901394, 177, 1, 304, 500
-0.90579, 33, 1, 160, 500
-0.909137, 81, 257, 208, 500
-0.914102, 1, 369, 375, 496
-0.91514, 97, 49, 352, 176
-0.915564, 1, 49, 375, 176
-0.916153, 161, 49, 224, 176
-0.917156, 33, 1, 160, 256
-0.920795, 129, 81, 256, 208
-0.922129, 1, 289, 375, 416
-0.926531, 1, 161, 375, 288
-0.928004, 185, 81, 248, 208
-0.928193, 177, 257, 304, 500
-0.928934, 145, 113, 208, 240
-0.930192, 225, 1, 352, 500
-0.931501, 177, 129, 304, 384
-0.932511, 33, 225, 160, 480
-0.933577, 129, 129, 256, 256
-0.934582, 1, 113, 375, 240
-0.935935, 145, 33, 272, 160
-0.936168, 113, 321, 176, 448
-0.937165, 225, 65, 352, 320
-0.93744, 137, 65, 200, 192
-0.937586, 1, 113, 256, 240
-0.93782, 97, 369, 160, 496
-0.938318, 97, 97, 352, 224
-0.938769, 1, 17, 256, 144
-0.942791, 161, 353, 224, 480
-0.943207, 129, 369, 375, 496
-0.943565, 177, 129, 240, 256
-0.943782, 225, 225, 352, 480
-0.943985, 113, 273, 176, 400
-0.94403, 161, 425, 224, 488
-0.944202, 185, 33, 248, 160
-0.944402, 1, 65, 256, 192
-0.944435, 121, 369, 184, 496
-0.944861, 33, 161, 288, 288
-0.944922, 81, 33, 208, 160
-0.946421, 97, 273, 352, 400
-0.946627, 33, 321, 288, 448
-0.946818, 209, 49, 272, 112
-0.946979, 113, 353, 240, 480
-0.947115, 185, 425, 248, 488
-0.947368, 217, 33, 280, 160
-0.94803, 65, 321, 192, 448
-0.948275, 161, 1, 224, 128
-0.948656, 193, 33, 320, 160
-0.949386, 113, 273, 240, 400
-0.949391, 137, 433, 200, 496
-0.94953, 177, 73, 240, 136
-0.94955, 1, 241, 375, 368
-0.949857, 137, 17, 200, 144
-0.949968, 161, 41, 224, 104
-0.950832, 1, 1, 375, 128
-0.952123, 129, 177, 256, 304
-0.952253, 129, 145, 375, 272
-0.952887, 185, 353, 248, 480
-0.953007, 97, 1, 352, 128
-0.953465, 145, 73, 208, 136
-0.95365, 65, 369, 192, 496
-0.954486, 97, 377, 160, 440
-0.95519, 121, 33, 184, 96
-0.955339, 121, 113, 184, 240
-0.955731, 33, 129, 160, 384
-0.956421, 81, 113, 208, 240
-0.95692, 201, 129, 264, 256
-0.956982, 129, 321, 375, 448
-0.957065, 113, 33, 176, 160
-0.957136, 33, 369, 288, 496
-0.957615, 161, 177, 224, 304
-0.958677, 137, 289, 200, 416
-0.959139, 33, 33, 160, 160
-0.959387, 185, 41, 248, 104
-0.959766, 81, 25, 144, 88
-0.959771, 137, 401, 200, 464
-0.959949, 113, 297, 176, 360
-0.960416, 189, 425, 220, 488
-0.960952, 177, 425, 208, 488
-0.961306, 177, 17, 240, 80
-0.9615, 185, 97, 248, 160
-0.961848, 137, 33, 200, 288
-0.9619, 177, 97, 304, 224
-0.961943, 161, 1, 224, 256
-0.962321, 129, 193, 192, 320
-0.962529, 97, 225, 352, 352
-0.962533, 81, 289, 144, 416
-0.963009, 209, 425, 272, 488
-0.963041, 185, 1, 248, 256
-0.963443, 209, 369, 272, 496
-0.963648, 137, 97, 200, 160
-0.963785, 165, 425, 196, 488
-0.963942, 105, 353, 168, 416
-0.96419, 185, 145, 248, 208
-0.964515, 201, 433, 232, 496
-0.964555, 145, 129, 208, 192
-0.965217, 1, 273, 256, 400
-0.965269, 105, 321, 168, 384
-0.965297, 97, 401, 160, 464
-0.96596, 217, 81, 280, 208
-0.966255, 145, 41, 272, 104
-0.966293, 49, 33, 112, 96
-0.966296, 177, 145, 304, 272
-0.966338, 181, 49, 212, 176
-0.966373, 161, 49, 192, 176
-0.966671, 169, 401, 232, 464
-0.967152, 169, 97, 232, 352
-0.96731, 161, 353, 288, 480
-0.967574, 137, 241, 200, 368
-0.967749, 81, 33, 144, 160
-0.967928, 161, 185, 224, 248
-0.968432, 233, 57, 296, 120
-0.968776, 193, 49, 224, 176
-0.968789, 257, 33, 320, 160
-0.96889, 149, 369, 180, 496
-0.968926, 65, 273, 192, 400
-0.969169, 129, 433, 256, 496
-0.969346, 193, 401, 256, 464
-0.969371, 121, 289, 152, 352
-0.969481, 169, 41, 200, 104
-0.969823, 189, 57, 220, 120
-0.969882, 201, 65, 232, 128
-0.970209, 81, 177, 208, 304
-0.970292, 185, 177, 248, 304
-0.970326, 157, 97, 188, 224
-0.970641, 129, 225, 256, 352
-0.970724, 97, 33, 224, 96
-0.970728, 117, 305, 148, 432
-0.971171, 209, 369, 336, 496
-0.97135, 105, 1, 168, 256
-0.971792, 213, 433, 244, 496
-0.971852, 113, 113, 176, 176
-0.972027, 129, 321, 192, 384
-0.972095, 205, 65, 236, 192
-0.972106, 193, 57, 320, 120
-0.972345, 121, 57, 184, 120
-0.972418, 173, 1, 204, 128
-0.972559, 57, 17, 120, 144
-0.972619, 129, 137, 256, 200
-0.97272, 129, 81, 256, 144
-0.972814, 137, 377, 200, 440
-0.972862, 89, 297, 152, 360
-0.972908, 157, 41, 188, 104
-0.972939, 185, 1, 216, 128
-0.973089, 165, 65, 196, 128
-0.973126, 149, 49, 180, 176
-0.973473, 205, 129, 236, 256
-0.973476, 81, 241, 144, 368
-0.973565, 149, 425, 180, 488
-0.97374, 217, 129, 280, 192
-0.973774, 213, 49, 244, 112
-0.97392, 113, 257, 176, 500
-0.974046, 173, 369, 204, 496
-0.974098, 153, 73, 184, 136
-0.974317, 145, 17, 208, 80
-0.974337, 193, 121, 256, 184
-0.974489, 141, 97, 172, 224
-0.974518, 145, 33, 176, 96
-0.9746, 73, 353, 136, 480
-0.975112, 113, 409, 240, 472
-0.975261, 265, 57, 328, 120
-0.975269, 177, 65, 208, 128
-0.975304, 121, 153, 184, 216
-0.975314, 137, 161, 200, 416
-0.975442, 241, 25, 304, 88
-0.975449, 161, 97, 224, 160
-0.97553, 137, 177, 200, 240
-0.975555, 121, 9, 184, 72
-0.97575, 193, 305, 320, 432
-0.975811, 17, 305, 144, 432
-0.975823, 109, 353, 140, 480
-0.975861, 181, 33, 212, 96
-0.975962, 201, 305, 264, 432
-0.975972, 81, 321, 144, 384
-0.97598, 193, 369, 224, 496
-0.976081, 137, 113, 168, 176
-0.976328, 105, 393, 136, 456
-0.976386, 97, 49, 160, 112
-0.976398, 129, 321, 160, 448
-0.976508, 129, 105, 256, 168
-0.976523, 193, 97, 256, 352
-0.97686, 153, 1, 216, 500
-0.976908, 105, 369, 136, 432
-0.976946, 217, 153, 280, 216
-0.977036, 177, 129, 208, 256
-0.977046, 189, 129, 220, 256
-0.977168, 121, 273, 184, 336
-0.977558, 121, 329, 152, 392
-0.977689, 49, 33, 176, 96
-0.977736, 137, 257, 200, 500
-0.977789, 201, 33, 232, 96
-0.977972, 205, 409, 236, 472
-0.978053, 161, 1, 192, 128
-0.978146, 105, 225, 168, 352
-0.978307, 201, 73, 264, 136
-0.978323, 217, 97, 248, 224
-0.978363, 205, 17, 236, 144
-0.978447, 213, 369, 244, 496
-0.978545, 129, 185, 256, 248
-0.978563, 145, 393, 176, 456
-0.978609, 217, 49, 248, 176
-0.978696, 57, 393, 120, 456
-0.978778, 105, 161, 168, 288
-0.978794, 145, 145, 176, 272
-0.978886, 169, 401, 200, 464
-0.97892, 177, 425, 304, 488
-0.978953, 1, 225, 256, 352
-0.979096, 237, 49, 268, 112
-0.979175, 161, 353, 192, 480
-0.979198, 225, 425, 256, 488
-0.97929, 65, 425, 192, 488
-0.97931, 81, 329, 208, 392
-0.979407, 121, 209, 184, 272
-0.979427, 225, 129, 288, 256
-0.979515, 241, 49, 368, 176
-0.979521, 105, 425, 168, 488
-0.979644, 121, 249, 184, 312
-0.979669, 125, 257, 156, 384
-0.979769, 145, 305, 176, 432
-0.979854, 217, 177, 280, 304
-0.979985, 105, 89, 168, 152
-0.980115, 113, 385, 240, 448
-0.980131, 81, 57, 208, 120
-0.980181, 205, 145, 236, 208
-0.98025, 129, 345, 192, 408
-0.980356, 217, 105, 280, 168
-0.980375, 73, 361, 136, 424
-0.980381, 109, 25, 140, 88
-0.98058, 153, 105, 184, 168
-0.980582, 161, 161, 224, 224
-0.980588, 145, 17, 272, 80
-0.980665, 113, 97, 176, 352
-0.980706, 225, 57, 256, 120
-0.980746, 137, 297, 200, 360
-0.980824, 165, 97, 196, 160
-0.980967, 161, 17, 192, 80
-0.981105, 201, 177, 264, 240
-0.981135, 217, 401, 280, 464
-0.981158, 133, 41, 164, 104
-0.981164, 145, 145, 176, 208
-0.981292, 125, 265, 156, 328
-0.981317, 217, 25, 280, 88
-0.98133, 177, 1, 240, 500
-0.981468, 97, 97, 160, 224
-0.981498, 209, 33, 336, 96
-0.981663, 17, 241, 144, 368
-0.981704, 129, 353, 256, 416
-0.981712, 217, 65, 280, 320
-0.98185, 137, 33, 168, 160
-0.981898, 273, 57, 304, 120
-0.981906, 65, 385, 192, 448
-0.982069, 109, 289, 140, 352
-0.982186, 133, 297, 164, 360
-0.982215, 65, 25, 96, 88
-0.982235, 129, 305, 256, 368
-0.982285, 169, 361, 232, 424
-0.982315, 129, 161, 256, 224
-0.982498, 141, 73, 172, 136
-0.982548, 17, 353, 144, 480
-0.982691, 261, 49, 292, 112
-0.982868, 189, 401, 220, 464
-0.982927, 193, 225, 256, 480
-0.982938, 97, 273, 160, 336
-0.982998, 157, 129, 188, 192
-0.9833, 217, 25, 248, 88
-0.983305, 209, 177, 240, 304
-0.983432, 105, 305, 136, 432
-0.983473, 225, 369, 256, 496
-0.983604, 293, 57, 324, 120
-0.983743, 129, 1, 192, 500
-0.983766, 81, 1, 144, 64
-0.983831, 113, 177, 176, 240
-0.983857, 177, 193, 304, 320
-0.984038, 121, 33, 152, 96
-0.984044, 217, 377, 280, 440
-0.984118, 209, 81, 336, 144
-0.984301, 89, 41, 120, 104
-0.984332, 233, 353, 296, 480
-0.984342, 113, 281, 240, 344
-0.984345, 217, 105, 248, 168
-0.984367, 109, 313, 140, 376
-0.984372, 281, 49, 344, 176
-0.984382, 65, 225, 192, 352
-0.984383, 145, 193, 176, 320
-0.984462, 57, 9, 120, 72
-0.984477, 225, 81, 288, 144
-0.984566, 193, 113, 320, 176
-0.984589, 81, 353, 208, 416
-0.984618, 137, 257, 168, 384
-0.984901, 261, 33, 292, 160
-0.984933, 249, 33, 280, 160
-0.984943, 93, 353, 124, 480
-0.98496, 205, 89, 236, 152
-0.984969, 77, 33, 108, 96
-0.984986, 81, 129, 208, 192
-0.985055, 149, 169, 180, 232
-0.985155, 161, 193, 224, 448
-0.985259, 233, 49, 264, 176
-0.985282, 73, 417, 136, 480
-0.985307, 217, 401, 248, 464
-0.985319, 217, 129, 248, 192
-0.98537, 81, 169, 208, 232
-0.985406, 93, 401, 124, 464
-0.985501, 93, 377, 124, 440
-0.985522, 133, 137, 164, 200
-0.985548, 137, 369, 168, 496
-0.985569, 177, 153, 304, 216
-0.985636, 65, 97, 192, 160
-0.985664, 217, 225, 280, 352
-0.985713, 249, 57, 280, 120
-0.985713, 225, 145, 256, 272
-0.985756, 149, 193, 180, 256
-0.985782, 65, 9, 192, 72
-0.985814, 189, 81, 220, 144
-0.985903, 125, 369, 156, 432
-0.985952, 161, 401, 288, 464
-0.985979, 109, 345, 140, 408
-0.986078, 125, 33, 156, 160
-0.986098, 157, 177, 188, 304
-0.986106, 209, 241, 336, 368
-0.986145, 149, 369, 180, 432
-0.986256, 113, 209, 240, 272
-0.986363, 65, 1, 128, 256
-0.986438, 33, 329, 160, 392
-0.98645, 201, 345, 264, 408
-0.986459, 193, 369, 256, 432
-0.9865, 73, 49, 136, 112
-0.986517, 133, 393, 164, 456
-0.986591, 89, 33, 120, 160
-0.986631, 49, 289, 176, 352
-0.986666, 265, 33, 328, 96
-0.986754, 129, 233, 160, 296
-0.98676, 177, 9, 208, 72
-0.986879, 161, 445, 224, 476
-0.986881, 193, 145, 224, 208
-0.986918, 281, 33, 312, 96
-0.986972, 177, 97, 208, 160
-0.986992, 193, 257, 256, 384
-0.987066, 129, 329, 256, 392
-0.987082, 221, 161, 252, 224
-0.987162, 197, 177, 228, 304
-0.987215, 205, 193, 236, 256
-0.987244, 113, 257, 240, 320
-0.987318, 233, 305, 296, 432
-0.987431, 257, 81, 320, 144
-0.987446, 133, 161, 164, 288
-0.987486, 161, 305, 224, 432
-0.987527, 145, 281, 176, 344
-0.987606, 177, 129, 208, 192
-0.987607, 225, 97, 352, 224
-0.987609, 129, 209, 160, 336
-0.98761, 193, 9, 224, 72
-0.987613, 161, 433, 224, 464
-0.98769, 89, 257, 152, 500
-0.987714, 209, 321, 272, 384
-0.987765, 177, 185, 304, 248
-0.987779, 149, 9, 180, 72
-0.98781, 233, 313, 296, 376
-0.987836, 133, 321, 164, 384
-0.987845, 189, 185, 220, 248
-0.987907, 145, 209, 208, 272
-0.988013, 165, 169, 196, 232
-0.988041, 205, 121, 236, 184
-0.988094, 177, 85, 240, 116
-0.988128, 149, 1, 180, 128
-0.988138, 169, 177, 200, 304
-0.988152, 169, 121, 232, 184
-0.988227, 1, 41, 128, 104
-0.988339, 97, 145, 160, 208
-0.988361, 193, 445, 256, 476
-0.988426, 157, 393, 188, 456
-0.988451, 113, 257, 144, 384
-0.98847, 137, 169, 168, 232
-0.988594, 209, 49, 272, 80
-0.988624, 153, 77, 216, 108
-0.988659, 185, 433, 248, 464
-0.988693, 137, 433, 200, 464
-0.988694, 241, 1, 368, 128
-0.988715, 33, 145, 160, 272
-0.988759, 161, 41, 224, 72
-0.988763, 33, 353, 160, 416
-0.988782, 169, 57, 232, 88
-0.988785, 209, 225, 272, 288
-0.988833, 209, 313, 336, 376
-0.988906, 137, 445, 200, 476
-0.988962, 209, 61, 272, 92
-0.988988, 49, 57, 112, 120
-0.989011, 221, 81, 252, 144
-0.989022, 25, 25, 88, 88
-0.989117, 33, 1, 96, 128
-0.989125, 137, 37, 200, 68
-0.989253, 125, 9, 156, 72
-0.989287, 241, 81, 304, 208
-0.989297, 145, 233, 272, 296
-0.989305, 185, 177, 216, 304
-0.98936, 73, 41, 136, 72
-0.989369, 233, 49, 296, 80
-0.989377, 169, 29, 232, 60
-0.989386, 193, 457, 256, 488
-0.989396, 89, 249, 152, 312
-0.989403, 153, 137, 216, 168
-0.989493, 33, 97, 160, 224
-0.98951, 225, 353, 288, 416
-0.989527, 97, 385, 160, 416
-0.989535, 217, 273, 280, 336
-0.989546, 241, 57, 368, 120
-0.989552, 121, 297, 184, 328
-0.989618, 201, 1, 264, 500
-0.989662, 233, 129, 264, 192
-0.989683, 105, 417, 136, 480
-0.989693, 137, 433, 168, 496
-0.98973, 257, 33, 320, 288
-0.989739, 97, 397, 160, 428
-0.989762, 285, 49, 316, 176
-0.989775, 113, 309, 176, 340
-0.989784, 185, 45, 248, 76
-0.989822, 105, 1, 168, 500
-0.989878, 137, 457, 200, 488
-0.989886, 177, 97, 240, 128
-0.989895, 97, 417, 160, 448
-0.989902, 1, 17, 128, 80
-0.989913, 177, 73, 240, 104
-0.989937, 217, 161, 280, 416
-0.989965, 221, 305, 252, 432
-0.989995, 113, 37, 176, 68
-0.990054, 153, 337, 216, 400
-0.990065, 137, 89, 200, 120
-0.99008, 169, 457, 232, 488
-0.990123, 233, 61, 296, 92
-0.990154, 145, 53, 208, 84
-0.990154, 105, 329, 168, 360
-0.990238, 185, 201, 248, 264
-0.990255, 137, 397, 200, 428
-0.990263, 209, 433, 272, 464
-0.990356, 229, 97, 260, 224
-0.990389, 137, 421, 200, 452
-0.990405, 225, 1, 256, 128
-0.99043, 153, 101, 216, 132
-0.990484, 257, 69, 320, 100
-0.9905, 161, 193, 224, 224
-0.99051, 145, 65, 208, 96
-0.990543, 121, 49, 184, 80
-0.990566, 113, 373, 176, 404
-0.990587, 209, 73, 272, 104
-0.990634, 81, 29, 144, 60
-0.990638, 161, 361, 192, 424
-0.990665, 65, 257, 192, 320
-0.990666, 121, 341, 184, 372
-0.990676, 193, 129, 256, 160
-0.990694, 33, 41, 288, 104
-0.990704, 157, 305, 188, 432
-0.990718, 193, 9, 320, 72
-0.990743, 185, 149, 248, 180
-0.990752, 129, 133, 192, 164
-0.990768, 109, 265, 140, 328
-0.990779, 145, 305, 176, 368
-0.990787, 145, 257, 176, 320
-0.990795, 209, 169, 240, 232
-0.990817, 129, 97, 160, 224
-0.990832, 97, 17, 128, 80
-0.990897, 161, 377, 288, 440
-0.990912, 137, 409, 200, 440
-0.990913, 161, 421, 224, 452
-0.990946, 233, 73, 296, 104
-0.990976, 97, 297, 160, 328
-0.990988, 81, 57, 144, 88
-0.990992, 121, 121, 184, 152
-0.991008, 65, 1, 128, 500
-0.99101, 161, 181, 224, 212
-0.991048, 209, 37, 272, 68
-0.991049, 41, 37, 104, 68
-0.991076, 145, 345, 176, 408
-0.991096, 257, 53, 320, 84
-0.991103, 129, 77, 192, 108
-0.99114, 97, 349, 160, 380
-0.991177, 129, 181, 192, 212
-0.991196, 105, 361, 168, 392
-0.991248, 289, 57, 352, 120
-0.991277, 193, 421, 256, 452
-0.99132, 113, 429, 176, 460
-0.991373, 169, 441, 200, 472
-0.991374, 77, 17, 108, 144
-0.991378, 57, 53, 120, 84
-0.991384, 65, 225, 128, 480
-0.991393, 185, 445, 216, 476
-0.991403, 197, 445, 228, 476
-0.991433, 201, 85, 264, 116
-0.99145, 209, 345, 336, 408
-0.991464, 129, 329, 192, 360
-0.991485, 313, 273, 375, 400
-0.991486, 93, 433, 124, 496
-0.991491, 121, 65, 184, 96
-0.99154, 193, 425, 208, 488
-0.991544, 145, 469, 208, 500
-0.991561, 81, 329, 144, 360
-0.991586, 189, 433, 220, 464
-0.991621, 233, 305, 264, 432
-0.991624, 73, 377, 136, 408
-0.991638, 209, 249, 272, 312
-0.99164, 185, 469, 248, 500
-0.99164, 121, 385, 184, 416
-0.991674, 93, 305, 124, 368
-0.991683, 217, 445, 280, 476
-0.991695, 281, 69, 344, 100
-0.991701, 121, 285, 184, 316
-0.991704, 89, 313, 152, 344
-0.991711, 217, 141, 280, 172
-0.991712, 171, 425, 186, 488
-0.991731, 205, 433, 236, 464
-0.991733, 113, 445, 176, 476
-0.991738, 41, 1, 104, 500
-0.991782, 209, 445, 240, 476
-0.991782, 213, 425, 228, 488
-0.991812, 137, 193, 200, 224
-0.991823, 193, 289, 256, 352
-0.991852, 145, 121, 208, 152
-0.991853, 165, 425, 180, 488
-0.991871, 73, 405, 136, 436
-0.991872, 137, 25, 200, 56
-0.991872, 169, 453, 200, 484
-0.991883, 113, 257, 176, 288
-0.991887, 129, 89, 160, 152
-0.991896, 117, 145, 148, 208
-0.991924, 73, 389, 136, 420
-0.991928, 121, 245, 184, 276
-0.991941, 161, 17, 224, 48
-0.991962, 85, 9, 116, 72
-0.991966, 137, 317, 200, 348
-0.991972, 253, 25, 284, 88
-0.991974, 257, 81, 320, 112
-0.991974, 73, 273, 136, 336
-0.99198, 241, 305, 368, 432
-0.992002, 281, 1, 344, 128
-0.992002, 49, 337, 112, 464
-0.992005, 97, 77, 160, 108
-0.992014, 249, 37, 312, 68
-0.992015, 17, 409, 144, 472
-0.992018, 65, 417, 128, 448
-0.992031, 217, 461, 280, 492
-0.992033, 129, 161, 192, 192
-0.99204, 217, 53, 248, 84
-0.992042, 201, 189, 264, 220
-0.992048, 197, 53, 228, 84
-0.992078, 149, 257, 180, 384
-0.992082, 105, 101, 168, 132
-0.992091, 57, 69, 120, 100
-0.992093, 129, 109, 192, 140
-0.992119, 17, 265, 144, 328
-0.992133, 57, 25, 120, 56
-0.992139, 273, 1, 336, 500
-0.992151, 197, 81, 228, 112
-0.992162, 97, 65, 352, 128
-0.992163, 153, 45, 184, 76
-0.992169, 129, 217, 192, 248
-0.99217, 177, 73, 208, 104
-0.992171, 121, 269, 184, 300
-0.992172, 209, 289, 336, 352
-0.992181, 141, 217, 172, 280
-0.992184, 113, 25, 176, 56
-0.992186, 97, 285, 160, 316
-0.992194, 153, 57, 184, 88
-0.992204, 101, 257, 132, 384
-0.992206, 161, 233, 224, 296
-0.992223, 129, 353, 192, 384
-0.992224, 113, 89, 176, 120
-0.992225, 105, 133, 168, 164
-0.992226, 113, 33, 144, 160
-0.992229, 125, 293, 156, 324
-0.992231, 185, 85, 216, 116
-0.992234, 209, 201, 272, 264
-0.992239, 165, 73, 196, 104
-0.99224, 193, 25, 256, 56
-0.992252, 149, 445, 180, 476
-0.992255, 129, 149, 192, 180
-0.992261, 129, 41, 375, 104
-0.992264, 177, 429, 208, 460
-0.992273, 121, 333, 152, 364
-0.992279, 183, 433, 198, 496
-0.992288, 185, 173, 248, 204
-0.992291, 217, 161, 280, 192
-0.992293, 165, 429, 196, 460
-0.992293, 161, 281, 288, 344
-0.992294, 201, 433, 216, 496
-0.9923, 305, 65, 368, 96
-0.992321, 141, 37, 172, 68
-0.992324, 137, 369, 200, 400
-0.992325, 189, 457, 220, 488
-0.992333, 285, 81, 316, 144
-0.992349, 97, 217, 160, 280
-0.992354, 121, 321, 152, 352
-0.992367, 33, 65, 96, 96
-0.99237, 217, 109, 280, 140
-0.992377, 97, 129, 352, 192
-0.992387, 217, 129, 280, 160
-0.99241, 149, 433, 180, 464
-0.992415, 193, 233, 320, 296
-0.992416, 201, 457, 232, 488
-0.99243, 25, 417, 88, 480
-0.992439, 93, 305, 124, 432
-0.992449, 157, 33, 188, 64
-0.992454, 177, 29, 208, 60
-0.992461, 237, 53, 268, 84
-0.992462, 177, 53, 208, 84
-0.992462, 97, 329, 128, 392
-0.992465, 237, 1, 268, 128
-0.992476, 177, 117, 240, 148
-0.992484, 193, 401, 256, 432
-0.992504, 125, 305, 156, 336
-0.992511, 129, 37, 160, 68
-0.992511, 145, 57, 272, 88
-0.992512, 105, 469, 168, 500
-0.992516, 221, 445, 252, 476
-0.992523, 173, 85, 204, 116
-0.992525, 217, 433, 248, 464
-0.99253, 89, 429, 152, 460
-0.992535, 33, 49, 96, 80
-0.992538, 193, 105, 224, 168
-0.992547, 213, 41, 244, 72
-0.99255, 89, 41, 120, 72
-0.99256, 197, 41, 228, 72
-0.992563, 193, 65, 224, 96
-0.992574, 145, 273, 208, 336
-0.992579, 217, 421, 280, 452
-0.992585, 97, 153, 160, 184
-0.992586, 137, 369, 168, 432
-0.992599, 65, 29, 96, 60
-0.992606, 161, 205, 224, 236
-0.992609, 213, 457, 244, 488
-0.992613, 145, 393, 176, 424
-0.992614, 137, 193, 168, 256
-0.992618, 249, 25, 312, 56
-0.992619, 153, 77, 184, 108
-0.99263, 93, 353, 124, 416
-0.992643, 161, 33, 176, 96
-0.992648, 169, 41, 200, 72
-0.99265, 125, 169, 156, 232
-0.992651, 277, 73, 308, 104
-0.992653, 137, 9, 168, 72
-0.992658, 113, 345, 144, 376
-0.992662, 109, 33, 140, 64
-0.99267, 265, 69, 296, 100
-0.992671, 225, 313, 288, 344
-0.992677, 219, 433, 234, 496
-0.992681, 177, 169, 208, 232
-0.992683, 157, 133, 188, 164
-0.992684, 105, 401, 136, 432
-0.992686, 253, 65, 284, 96
-0.992689, 113, 457, 176, 488
-0.992689, 217, 97, 280, 128
-0.992704, 169, 397, 232, 428
-0.992707, 109, 373, 140, 404
-0.99271, 197, 25, 228, 56
-0.992712, 201, 201, 264, 232
-0.99272, 181, 97, 212, 128
-0.992727, 109, 301, 140, 332
-0.992729, 65, 209, 192, 272
-0.992731, 149, 457, 180, 488
-0.992732, 145, 437, 272, 468
-0.992733, 137, 49, 168, 80
-0.992737, 117, 393, 148, 456
-0.992744, 217, 177, 280, 208
-0.992751, 205, 65, 236, 96
-0.992753, 265, 57, 296, 88
-0.992757, 105, 385, 136, 416
-0.992758, 185, 41, 216, 72
-0.992763, 165, 61, 196, 92
-0.992766, 181, 17, 212, 48
-0.992767, 137, 133, 168, 164
-0.992772, 197, 93, 228, 124
-0.992773, 289, 69, 320, 100
-0.99278, 33, 433, 288, 496
-0.992786, 209, 85, 240, 116
-0.992788, 177, 425, 192, 488
-0.99279, 145, 421, 176, 452
-0.992795, 165, 193, 196, 256
-0.992812, 101, 413, 132, 444
-0.992836, 133, 333, 164, 364
-0.992843, 73, 45, 104, 76
-0.992852, 113, 41, 240, 72
-0.992855, 137, 149, 168, 180
-0.992872, 207, 425, 222, 488
-0.992877, 113, 361, 144, 392
-0.992879, 109, 317, 140, 348
-0.992892, 161, 21, 192, 52
-0.992892, 209, 97, 240, 128
-0.992894, 101, 45, 132, 76
-0.992897, 253, 53, 284, 84
-0.992898, 113, 449, 240, 480
-0.992912, 273, 1, 304, 128
-0.992913, 237, 73, 268, 136
-0.992918, 137, 121, 168, 152
-0.992933, 93, 397, 124, 428
-0.992937, 229, 41, 260, 72
-0.992939, 129, 465, 256, 496
-0.992942, 153, 177, 184, 208
-0.992952, 161, 465, 192, 496
-0.992964, 89, 29, 120, 60
-0.99297, 189, 421, 220, 452
-0.992971, 225, 457, 256, 488
-0.992974, 85, 53, 116, 84
-0.992977, 169, 97, 200, 128
-0.992978, 101, 337, 132, 368
-0.992983, 105, 425, 136, 456
-0.992989, 173, 465, 204, 496
-0.992993, 93, 425, 124, 456
-0.992996, 137, 317, 168, 348
-0.992998, 221, 109, 252, 140
-0.993011, 149, 121, 180, 152
-0.993016, 177, 137, 208, 168
-0.993021, 77, 33, 108, 64
-0.993022, 237, 25, 268, 88
-0.993023, 49, 417, 112, 480
-0.993025, 229, 69, 260, 100
-0.993037, 137, 101, 168, 132
-0.993041, 97, 373, 128, 404
-0.993047, 289, 337, 352, 464
-0.993048, 217, 69, 248, 100
-0.993053, 205, 421, 236, 452
-0.993054, 113, 45, 144, 76
-0.993055, 89, 161, 152, 416
-0.993062, 129, 281, 160, 312
-0.993065, 253, 77, 284, 108
-0.99307, 137, 65, 168, 96
-0.99307, 141, 89, 172, 120
-0.993073, 205, 197, 236, 228
-0.993077, 221, 225, 252, 352
-0.993081, 225, 121, 256, 152
-0.993082, 161, 397, 192, 428
-0.993094, 117, 389, 148, 420
-0.993094, 149, 197, 180, 228
-0.993103, 193, 193, 224, 224
-0.993106, 221, 145, 252, 176
-0.99311, 193, 13, 224, 44
-0.993111, 113, 413, 144, 444
-0.993114, 201, 149, 232, 180
-0.993119, 205, 181, 236, 212
-0.993126, 245, 305, 276, 432
-0.993127, 145, 409, 176, 440
-0.993129, 125, 369, 156, 496
-0.993134, 145, 297, 176, 328
-0.993135, 133, 377, 164, 408
-0.993139, 133, 345, 164, 408
-0.993142, 129, 245, 160, 276
-0.993143, 221, 133, 252, 164
-0.993147, 241, 65, 272, 96
-0.993151, 277, 61, 308, 92
-0.993154, 221, 93, 252, 124
-0.993162, 233, 469, 264, 500
-0.993164, 169, 225, 232, 352
-0.993176, 217, 421, 248, 452
-0.99318, 137, 189, 168, 220
-0.993181, 141, 25, 172, 56
-0.993186, 61, 45, 92, 76
-0.993191, 33, 169, 160, 232
-0.993193, 171, 57, 186, 120
-0.993233, 281, 65, 344, 320
-0.993259, 125, 289, 140, 352
-0.99326, 205, 385, 236, 448
-0.993301, 185, 249, 248, 312
-0.993405, 193, 257, 320, 320
-0.993407, 97, 105, 352, 168
-0.993417, 249, 1, 312, 500
-0.993437, 237, 305, 268, 368
-0.993452, 89, 121, 152, 184
-0.99346, 211, 57, 226, 120
-0.993468, 177, 73, 304, 104
-0.993595, 249, 345, 312, 408
-0.993615, 121, 145, 152, 272
-0.993631, 233, 425, 296, 488
-0.993636, 167, 33, 182, 96
-0.993692, 65, 45, 192, 76
-0.993702, 33, 145, 160, 208
-0.993732, 261, 73, 292, 136
-0.993746, 225, 369, 256, 432
-0.993762, 129, 425, 375, 488
-0.993793, 33, 121, 160, 184
-0.993799, 41, 1, 104, 256
-0.993827, 173, 321, 204, 448
-0.993839, 65, 1, 96, 128
-0.993851, 65, 233, 192, 296
-0.993858, 217, 49, 232, 112
-0.99388, 217, 257, 280, 500
-0.993888, 1, 305, 128, 368
-0.993908, 225, 1, 288, 500
-0.993913, 1, 129, 256, 192
-0.993917, 225, 433, 352, 496
-0.993951, 101, 49, 132, 112
-0.993981, 129, 141, 256, 172
-0.993993, 17, 385, 144, 448
-0.994021, 221, 185, 252, 248
-0.994023, 125, 313, 140, 376
-0.994034, 101, 33, 132, 160
-0.99404, 185, 225, 248, 288
-0.994079, 293, 33, 324, 96
-0.994167, 1, 65, 256, 128
-0.994188, 1, 153, 256, 216
-0.994219, 205, 57, 220, 120
-0.994221, 65, 289, 320, 352
-0.994256, 1, 57, 375, 120
-0.994259, 117, 329, 132, 392
-0.99426, 65, 49, 96, 112
-0.994262, 149, 33, 164, 96
-0.994284, 25, 1, 88, 64
-0.994309, 313, 353, 375, 480
-0.994345, 205, 361, 236, 424
-0.994349, 1, 409, 256, 472
-0.994367, 241, 153, 368, 216
-0.994388, 197, 57, 212, 120
-0.994404, 129, 153, 375, 216
-0.994404, 209, 377, 336, 440
-0.994417, 155, 49, 170, 112
-0.994423, 137, 289, 152, 352
-0.994428, 201, 409, 216, 472
-0.994442, 97, 433, 224, 464
-0.994443, 185, 73, 200, 136
-0.994445, 65, 297, 128, 360
-0.994451, 65, 33, 192, 64
-0.994486, 105, 385, 120, 448
-0.994498, 227, 425, 242, 488
-0.9945, 177, 209, 304, 272
-0.994545, 297, 129, 360, 256
-0.994548, 129, 89, 256, 120
-0.99456, 157, 73, 172, 136
-0.994579, 229, 281, 260, 344
-0.994592, 209, 225, 240, 352
-0.994601, 169, 1, 200, 256
-0.994605, 289, 33, 352, 96
-0.994627, 157, 33, 188, 288
-0.994635, 165, 57, 180, 120
-0.994651, 159, 425, 174, 488
-0.994665, 33, 145, 96, 208
-0.994686, 313, 417, 375, 480
-0.994689, 141, 1, 172, 256
-0.994731, 201, 1, 264, 64
-0.994741, 129, 29, 256, 60
-0.994743, 151, 385, 166, 448
-0.994769, 181, 49, 196, 112
-0.994776, 1, 369, 375, 432
-0.994776, 157, 105, 172, 168
-0.994796, 197, 33, 228, 288
-0.994811, 217, 225, 248, 288
-0.994813, 33, 65, 160, 128
-0.994834, 33, 385, 288, 448
-0.994847, 183, 409, 198, 472
-0.994856, 225, 145, 352, 272
-0.994874, 1, 33, 375, 96
-0.994882, 273, 81, 304, 144
-0.994912, 241, 377, 304, 440
-0.994915, 249, 137, 312, 200
-0.994926, 197, 33, 212, 96
-0.994969, 241, 41, 256, 104
-0.995074, 191, 65, 206, 128
-0.995076, 125, 113, 156, 176
-0.995077, 113, 421, 240, 452
-0.995081, 111, 361, 126, 424
-0.99511, 113, 77, 240, 108
-0.995115, 129, 401, 375, 464
-0.995139, 245, 81, 276, 208
-0.995141, 53, 17, 84, 80
-0.995169, 185, 33, 216, 288
-0.995204, 205, 33, 220, 96
-0.995218, 127, 265, 142, 328
-0.995226, 209, 1, 240, 256
-0.995227, 177, 85, 304, 116
-0.995228, 173, 33, 188, 96
-0.995242, 1, 105, 256, 168
-0.995243, 131, 289, 146, 352
-0.995262, 145, 101, 272, 132
-0.995273, 89, 33, 104, 96
-0.995319, 119, 289, 134, 352
-0.995333, 281, 353, 344, 416
-0.995379, 9, 393, 72, 456
-0.995393, 151, 113, 166, 176
-0.995397, 313, 305, 375, 368
-0.995412, 81, 33, 96, 96
-0.995418, 177, 45, 304, 76
-0.995439, 191, 33, 206, 96
-0.995457, 1, 137, 375, 200
-0.995463, 225, 409, 352, 472
-0.995466, 129, 153, 256, 184
-0.99549, 281, 137, 344, 200
-0.995518, 129, 17, 375, 80
-0.99553, 65, 1, 96, 64
-0.995541, 209, 321, 240, 448
-0.995548, 57, 337, 120, 400
-0.995551, 185, 313, 248, 376
-0.995553, 227, 41, 242, 104
-0.995577, 193, 61, 320, 92
-0.995577, 1, 17, 256, 80
-0.99559, 143, 41, 158, 104
-0.995594, 145, 121, 272, 152
-0.995611, 313, 65, 375, 192
-0.995619, 277, 49, 292, 112
-0.995639, 217, 25, 232, 88
-0.995649, 209, 273, 240, 400
-0.995676, 143, 289, 158, 352
-0.995691, 213, 81, 228, 144
-0.995694, 191, 97, 206, 160
-0.995694, 313, 345, 375, 408
-0.995711, 97, 313, 352, 376
-0.995714, 129, 189, 256, 220
-0.995719, 17, 1, 80, 500
-0.995721, 139, 321, 154, 384
-0.995722, 179, 73, 194, 136
-0.995723, 97, 177, 352, 240
-0.995732, 219, 409, 234, 472
-0.99574, 89, 169, 152, 232
-0.995742, 33, 49, 96, 176
-0.995742, 17, 37, 144, 68
-0.99575, 251, 49, 266, 112
-0.995758, 107, 409, 122, 472
-0.995763, 225, 81, 240, 144
-0.995782, 133, 265, 148, 328
-0.995795, 297, 1, 360, 500
-0.995815, 157, 137, 172, 200
-0.995821, 217, 145, 232, 208
-0.99583, 211, 33, 226, 96
-0.995843, 163, 129, 178, 192
-0.995844, 219, 445, 234, 476
-0.995848, 341, 321, 372, 448
-0.995854, 219, 73, 234, 136
-0.995865, 81, 337, 208, 368
-0.99587, 189, 321, 220, 448
-0.995879, 131, 313, 146, 376
-0.995888, 17, 193, 144, 320
-0.995894, 129, 177, 256, 208
-0.995899, 211, 445, 226, 476
-0.995901, 225, 177, 288, 240
-0.995915, 173, 445, 188, 476
-0.995928, 179, 25, 194, 88
-0.995939, 65, 57, 192, 88
-0.995948, 139, 265, 154, 328
-0.995951, 143, 217, 158, 280
-0.995951, 173, 401, 188, 464
-0.995954, 249, 289, 312, 352
-0.995959, 305, 33, 336, 160
-0.995984, 151, 73, 166, 136
-0.996013, 113, 401, 128, 464
-0.996014, 183, 445, 198, 476
-0.996026, 201, 445, 216, 476
-0.99603, 191, 445, 206, 476
-0.996037, 161, 449, 288, 480
-0.996073, 233, 241, 264, 368
-0.996101, 165, 97, 180, 160
-0.996112, 229, 105, 244, 168
-0.996112, 193, 433, 208, 464
-0.996122, 81, 393, 208, 424
-0.996128, 165, 445, 180, 476
-0.996128, 155, 25, 170, 88
-0.996131, 121, 353, 136, 416
-0.996132, 33, 337, 288, 400
-0.996165, 173, 433, 188, 464
-0.996177, 235, 49, 250, 112
-0.996198, 149, 193, 164, 256
-0.996202, 297, 57, 312, 120
-0.996205, 303, 65, 318, 128
-0.99621, 201, 145, 216, 208
-0.996214, 191, 401, 206, 464
-0.996244, 153, 433, 168, 496
-0.996248, 151, 409, 166, 472
-0.996251, 211, 433, 226, 464
-0.996253, 81, 349, 208, 380
-0.99626, 207, 401, 222, 464
-0.996289, 217, 97, 248, 352
-0.99629, 173, 89, 188, 152
-0.996291, 145, 385, 160, 448
-0.996308, 165, 433, 180, 464
-0.996311, 241, 61, 368, 92
-0.996316, 143, 97, 158, 160
-0.996322, 173, 9, 188, 72
-0.996331, 1, 33, 64, 288
-0.996339, 1, 393, 375, 456
-0.996372, 33, 329, 160, 360
-0.996375, 121, 25, 136, 88
-0.996387, 199, 81, 214, 144
-0.99639, 281, 81, 344, 144
-0.996393, 187, 81, 202, 112
-0.996402, 131, 241, 146, 304
-0.996407, 167, 401, 182, 464
-0.996424, 65, 449, 192, 480
-0.99643, 1, 201, 128, 264
-0.996438, 185, 97, 200, 160
-0.996456, 145, 97, 176, 352
-0.996467, 33, 361, 288, 424
-0.99647, 345, 369, 375, 496
-0.996471, 97, 297, 224, 328
-0.996473, 265, 57, 280, 120
-0.996476, 291, 57, 306, 120
-0.996488, 145, 137, 160, 200
-0.996489, 103, 33, 118, 96
-0.996494, 205, 81, 220, 144
-0.996512, 227, 401, 242, 464
-0.996516, 115, 25, 130, 88
-0.996516, 225, 137, 240, 200
-0.996521, 161, 385, 176, 448
-0.996521, 169, 169, 184, 232
-0.996532, 73, 73, 136, 136
-0.996532, 119, 377, 134, 440
-0.996533, 241, 105, 368, 168
-0.996552, 183, 433, 198, 464
-0.996554, 101, 409, 116, 472
-0.996571, 191, 9, 206, 72
-0.996579, 73, 225, 136, 288
-0.996579, 145, 397, 272, 428
-0.996586, 1, 313, 375, 376
-0.996586, 213, 401, 228, 464
-0.996594, 203, 433, 218, 464
-0.996598, 65, 265, 320, 328
-0.996624, 185, 25, 200, 88
-0.996626, 1, 185, 256, 248
-0.996627, 227, 161, 242, 224
-0.996628, 113, 409, 240, 440
-0.996629, 159, 41, 174, 72
-0.996633, 219, 433, 234, 464
-0.996638, 189, 129, 204, 192
-0.996648, 131, 25, 146, 88
-0.996648, 179, 97, 194, 160
-0.996659, 167, 9, 182, 72
-0.99666, 129, 325, 256, 356
-0.99666, 273, 49, 304, 176
-0.996668, 65, 421, 192, 452
-0.996673, 95, 33, 110, 96
-0.996688, 81, 89, 208, 120
-0.996711, 149, 281, 164, 344
-0.996713, 117, 193, 148, 320
-0.996714, 219, 105, 234, 168
-0.996729, 155, 361, 170, 424
-0.996741, 281, 73, 296, 136
-0.996755, 81, 361, 208, 392
-0.99676, 209, 145, 224, 208
-0.99677, 169, 97, 200, 352
-0.996776, 195, 73, 210, 104
-0.996788, 271, 49, 286, 112
-0.996794, 137, 25, 152, 88
-0.996814, 129, 257, 160, 500
-0.996826, 105, 433, 120, 496
-0.996831, 163, 169, 178, 232
-0.996843, 193, 437, 320, 468
-0.996852, 9, 353, 72, 480
-0.996853, 81, 133, 208, 164
-0.99686, 129, 165, 256, 196
-0.996867, 195, 85, 210, 116
-0.996882, 169, 129, 184, 192
-0.996884, 211, 53, 226, 84
-0.996899, 195, 137, 210, 200
-0.996906, 155, 193, 170, 256
-0.996922, 129, 309, 256, 340
-0.996922, 49, 69, 176, 100
-0.996923, 193, 133, 320, 164
-0.996926, 109, 25, 124, 88
-0.996932, 149, 361, 164, 424
-0.996937, 217, 193, 232, 256
-0.996968, 33, 341, 160, 372
-0.996974, 81, 325, 208, 356
-0.996989, 129, 373, 256, 404
-0.99699, 125, 297, 140, 328
-0.996996, 129, 201, 256, 232
-0.997003, 177, 29, 304, 60
-0.99701, 237, 369, 268, 496
-0.997011, 57, 153, 120, 216
-0.997017, 129, 369, 375, 432
-0.997019, 203, 81, 218, 112
-0.997036, 65, 381, 192, 412
-0.997043, 49, 177, 112, 304
-0.997047, 81, 21, 208, 52
-0.99705, 1, 313, 256, 376
-0.997059, 123, 317, 138, 348
-0.997065, 173, 69, 188, 100
-0.997088, 49, 405, 176, 436
-0.997107, 121, 1, 152, 256
-0.997114, 151, 41, 166, 72
-0.997117, 49, 433, 176, 464
-0.997145, 129, 337, 256, 368
-0.997148, 113, 281, 240, 312
-0.997154, 241, 77, 368, 108
-0.997158, 17, 49, 144, 80
-0.997161, 219, 457, 234, 488
-0.997165, 181, 85, 196, 116
-0.997173, 171, 41, 186, 72
-0.997175, 179, 73, 194, 104
-0.997176, 201, 41, 216, 72
-0.997181, 241, 257, 368, 320
-0.997181, 117, 257, 148, 500
-0.997186, 57, 273, 120, 400
-0.997196, 129, 337, 375, 400
-0.997207, 65, 309, 192, 340
-0.997208, 225, 445, 240, 476
-0.997213, 187, 93, 202, 124
-0.997219, 165, 457, 180, 488
-0.997227, 1, 337, 375, 400
-0.99725, 65, 241, 320, 304
-0.997257, 253, 257, 284, 384
-0.997266, 133, 97, 164, 352
-0.997269, 211, 41, 226, 72
-0.99727, 177, 461, 304, 492
-0.997285, 159, 441, 174, 472
-0.997302, 225, 433, 240, 464
-0.997304, 163, 57, 178, 88
-0.997307, 145, 193, 176, 448
-0.997339, 25, 65, 88, 128
-0.997344, 247, 53, 262, 84
-0.997353, 49, 297, 176, 328
-0.99736, 165, 37, 180, 68
-0.997361, 117, 81, 148, 208
-0.997363, 81, 181, 208, 212
-0.997369, 81, 37, 96, 68
-0.997382, 89, 41, 104, 72
-0.997407, 57, 129, 120, 192
-0.99741, 219, 41, 234, 72
-0.997411, 1, 169, 375, 232
-0.997418, 203, 53, 218, 84
-0.997432, 237, 57, 252, 88
-0.997443, 183, 457, 198, 488
-0.997463, 129, 349, 256, 380
-0.99747, 273, 97, 336, 224
-0.997487, 177, 181, 304, 212
-0.997495, 157, 129, 188, 384
-0.9975, 281, 161, 344, 224
-0.997502, 129, 213, 256, 244
-0.99751, 189, 69, 204, 100
-0.997521, 97, 101, 224, 132
-0.997533, 203, 457, 218, 488
-0.997535, 173, 457, 188, 488
-0.997541, 173, 57, 188, 88
-0.997546, 119, 329, 134, 360
-0.997562, 231, 49, 246, 80
-0.997571, 9, 161, 72, 224
-0.997576, 223, 89, 238, 120
-0.997581, 145, 385, 272, 416
-0.997587, 179, 61, 194, 92
-0.997591, 197, 57, 212, 88
-0.997592, 73, 29, 88, 60
-0.997598, 193, 457, 208, 488
-0.997598, 149, 389, 164, 420
-0.9976, 81, 353, 112, 480
-0.997602, 105, 413, 120, 444
-0.997608, 137, 329, 152, 360
-0.99761, 213, 457, 228, 488
-0.997622, 135, 37, 150, 68
-0.997627, 145, 37, 160, 68
-0.997627, 113, 265, 240, 296
-0.997633, 205, 129, 236, 384
-0.997649, 211, 81, 226, 112
-0.997657, 265, 353, 328, 480
-0.997663, 137, 301, 152, 332
-0.997663, 117, 345, 132, 376
-0.99767, 287, 69, 302, 100
-0.997676, 129, 317, 144, 348
-0.997678, 125, 329, 140, 360
-0.997679, 171, 29, 186, 60
-0.997686, 77, 65, 108, 192
-0.997697, 225, 53, 240, 84
-0.997698, 241, 177, 368, 240
-0.997706, 241, 193, 368, 320
-0.997707, 1, 81, 375, 144
-0.997712, 177, 37, 192, 68
-0.997722, 65, 169, 192, 200
-0.997734, 65, 121, 192, 152
-0.997749, 219, 53, 234, 84
-0.997753, 145, 297, 272, 328
-0.997754, 113, 369, 128, 400
-0.99777, 113, 225, 240, 256
-0.997771, 131, 337, 146, 368
-0.997778, 209, 65, 224, 96
-0.997781, 123, 345, 138, 376
-0.997787, 1, 69, 128, 100
-0.997792, 225, 49, 352, 80
-0.997794, 191, 17, 206, 48
-0.997795, 157, 53, 172, 84
-0.997795, 119, 305, 134, 336
-0.997798, 17, 317, 144, 348
-0.997798, 161, 425, 288, 456
-0.997808, 65, 157, 192, 188
-0.997817, 225, 41, 240, 72
-0.997825, 105, 425, 120, 456
-0.997834, 277, 73, 292, 104
-0.997836, 169, 273, 232, 336
-0.997839, 101, 37, 116, 68
-0.99784, 49, 469, 176, 500
-0.99784, 129, 41, 144, 72
-0.997841, 217, 193, 248, 448
-0.997845, 159, 453, 174, 484
-0.997854, 271, 69, 286, 100
-0.997859, 107, 41, 122, 72
-0.997863, 167, 73, 182, 104
-0.997867, 227, 101, 242, 132
-0.997868, 305, 377, 368, 440
-0.997874, 203, 69, 218, 100
-0.997883, 241, 225, 304, 480
-0.997886, 143, 229, 158, 260
-0.997888, 193, 97, 208, 128
-0.997888, 193, 29, 208, 60
-0.997892, 1, 433, 375, 496
-0.997893, 57, 65, 120, 192
-0.9979, 177, 145, 304, 176
-0.9979, 209, 313, 336, 344
-0.997904, 115, 41, 130, 72
-0.997904, 257, 61, 272, 92
-0.997907, 135, 313, 150, 344
-0.997924, 295, 61, 310, 92
-0.997928, 81, 193, 208, 224
-0.997929, 253, 49, 268, 80
-0.997932, 111, 381, 126, 412
-0.997938, 159, 69, 174, 100
-0.997955, 193, 109, 320, 140
-0.997961, 225, 461, 240, 492
-0.997961, 113, 253, 240, 284
-0.997962, 123, 41, 138, 72
-0.997969, 125, 285, 140, 316
-0.997975, 107, 393, 122, 424
-0.997976, 89, 57, 104, 88
-0.99799, 173, 81, 188, 112
-0.997991, 265, 65, 280, 96
-0.997993, 213, 93, 228, 124
-0.997999, 153, 145, 168, 176
-0.998004, 177, 17, 304, 48
-0.998008, 237, 41, 252, 72
-0.998017, 193, 121, 320, 152
-0.998022, 167, 177, 182, 208
-0.998028, 131, 249, 146, 280
-0.998044, 217, 73, 232, 104
-0.998047, 151, 29, 166, 60
-0.998047, 177, 193, 304, 224
-0.998047, 209, 325, 336, 356
-0.998049, 109, 437, 124, 468
-0.998049, 305, 65, 320, 96
-0.998056, 159, 29, 174, 60
-0.998059, 159, 81, 174, 112
-0.998061, 163, 133, 178, 164
-0.998065, 149, 421, 164, 452
-0.998069, 309, 81, 340, 208
-0.998075, 153, 125, 168, 156
-0.998076, 179, 49, 194, 80
-0.998078, 195, 41, 210, 72
-0.998082, 209, 157, 336, 188
-0.998101, 143, 321, 158, 352
-0.998102, 151, 61, 166, 92
-0.998103, 129, 361, 256, 392
-0.998109, 131, 281, 146, 312
-0.99811, 1, 113, 375, 176
-0.998121, 273, 105, 336, 168
-0.998127, 113, 329, 128, 360
-0.998131, 141, 285, 156, 316
-0.998132, 17, 89, 144, 152
-0.99814, 209, 29, 224, 60
-0.998141, 115, 357, 130, 388
-0.998143, 225, 1, 256, 256
-0.998145, 193, 169, 320, 200
-0.998145, 189, 57, 204, 88
-0.998158, 49, 145, 176, 176
-0.998167, 249, 161, 312, 224
-0.998173, 285, 1, 316, 128
-0.998177, 65, 49, 96, 176
-0.998196, 17, 417, 144, 448
-0.998198, 193, 129, 224, 384
-0.998226, 105, 257, 136, 500
-0.998234, 33, 369, 160, 400
-0.998256, 33, 357, 160, 388
-0.998258, 1, 225, 64, 480
-0.998279, 1, 233, 128, 296
-0.9983, 33, 209, 288, 272
-0.99831, 65, 1, 96, 256
-0.998317, 121, 161, 152, 416
-0.998334, 165, 257, 196, 500
-0.998361, 65, 277, 192, 308
-0.998362, 129, 241, 256, 272
-0.998378, 161, 457, 224, 472
-0.998379, 161, 437, 224, 452
-0.998382, 193, 55, 256, 70
-0.998394, 209, 337, 336, 368
-0.9984, 193, 439, 256, 454
-0.998406, 225, 53, 288, 68
-0.99841, 153, 79, 216, 94
-0.998414, 169, 55, 232, 70
-0.99842, 121, 47, 184, 62
-0.99842, 181, 101, 212, 116
-0.998422, 137, 113, 168, 128
-0.998422, 85, 57, 116, 72
-0.998422, 281, 27, 312, 42
-0.998422, 129, 289, 160, 304
-0.998423, 253, 65, 284, 80
-0.998423, 153, 445, 216, 460
-0.998426, 209, 47, 272, 62
-0.998427, 133, 331, 164, 346
-0.998427, 201, 89, 232, 104
-0.998427, 149, 33, 180, 48
-0.998427, 197, 25, 228, 40
-0.998428, 193, 97, 320, 128
-0.998428, 137, 151, 168, 166
-0.99843, 273, 79, 304, 94
-0.998431, 85, 45, 116, 60
-0.998435, 17, 433, 144, 496
-0.998436, 169, 31, 200, 46
-0.998438, 121, 369, 152, 384
-0.998438, 157, 63, 188, 78
-0.998438, 241, 225, 368, 288
-0.998441, 109, 315, 140, 330
-0.998442, 177, 25, 208, 40
-0.998442, 65, 45, 96, 60
-0.998443, 209, 97, 240, 112
-0.998443, 101, 415, 132, 430
-0.998443, 209, 61, 272, 76
-0.998443, 225, 463, 256, 478
-0.998444, 145, 137, 208, 152
-0.998444, 113, 353, 144, 368
-0.998445, 165, 57, 196, 72
-0.998446, 221, 439, 252, 454
-0.998446, 137, 143, 168, 158
-0.998448, 221, 449, 252, 464
-0.998448, 65, 257, 192, 288
-0.998449, 193, 445, 256, 460
-0.998449, 209, 449, 336, 480
-0.998449, 177, 85, 240, 100
-0.99845, 149, 139, 180, 154
-0.998451, 185, 431, 216, 446
-0.998453, 209, 465, 240, 480
-0.998453, 177, 49, 240, 64
-0.998453, 97, 399, 128, 414
-0.998454, 93, 423, 124, 438
-0.998454, 285, 73, 316, 88
-0.998454, 105, 387, 136, 402
-0.998455, 157, 463, 188, 478
-0.998456, 109, 371, 140, 386
-0.998456, 233, 71, 264, 86
-0.998457, 141, 75, 172, 90
-0.998459, 133, 45, 164, 60
-0.998461, 165, 99, 196, 114
-0.998462, 109, 377, 140, 392
-0.998462, 181, 47, 212, 62
-0.998463, 89, 33, 120, 48
-0.998463, 121, 323, 152, 338
-0.998463, 217, 67, 248, 82
-0.998465, 165, 89, 196, 104
-0.998465, 245, 49, 276, 64
-0.998466, 105, 55, 136, 70
-0.998467, 105, 393, 136, 408
-0.998469, 159, 65, 174, 192
-0.99847, 109, 309, 140, 324
-0.998471, 285, 81, 316, 96
-0.998471, 181, 61, 212, 76
-0.998471, 137, 137, 168, 152
-0.998474, 113, 305, 176, 320
-0.998477, 65, 37, 96, 52
-0.998479, 265, 73, 296, 88
-0.99848, 145, 395, 176, 410
-0.99848, 177, 91, 240, 106
-0.99848, 145, 431, 176, 446
-0.998481, 193, 459, 256, 474
-0.998482, 237, 59, 268, 74
-0.998484, 145, 39, 176, 54
-0.998484, 197, 95, 228, 110
-0.998487, 233, 47, 264, 62
-0.998488, 101, 407, 132, 422
-0.998488, 153, 81, 184, 96
-0.998489, 193, 357, 320, 388
-0.99849, 101, 33, 132, 48
-0.99849, 149, 443, 180, 458
-0.998491, 185, 55, 216, 70
-0.998492, 177, 97, 240, 112
-0.998492, 169, 43, 232, 58
-0.998493, 73, 33, 136, 48
-0.998493, 153, 71, 216, 86
-0.998493, 145, 57, 208, 72
-0.998494, 125, 273, 140, 400
-0.998494, 185, 463, 216, 478
-0.998495, 97, 395, 160, 410
-0.998496, 137, 439, 200, 454
-0.998496, 193, 465, 256, 480
-0.998497, 189, 89, 220, 104
-0.998499, 121, 45, 152, 60
-0.998501, 257, 71, 320, 86
-0.998501, 81, 47, 144, 62
-0.998502, 225, 201, 352, 264
-0.998504, 177, 89, 208, 104
-0.998505, 153, 85, 216, 100
-0.998505, 205, 257, 236, 500
-0.998505, 161, 137, 192, 152
-0.998506, 137, 465, 200, 480
-0.998507, 293, 67, 324, 82
-0.998507, 177, 79, 240, 94
-0.998509, 177, 71, 240, 86
-0.998509, 193, 451, 256, 466
-0.99851, 121, 297, 184, 312
-0.99851, 97, 401, 160, 416
-0.998511, 137, 41, 200, 56
-0.998512, 197, 63, 228, 78
-0.998512, 97, 37, 160, 52
-0.998512, 153, 51, 184, 66
-0.998515, 153, 63, 216, 78
-0.998516, 97, 419, 160, 434
-0.998517, 125, 295, 156, 310
-0.998518, 97, 389, 160, 404
-0.998519, 97, 407, 160, 422
-0.998519, 181, 31, 212, 46
-0.99852, 209, 425, 336, 456
-0.998521, 137, 459, 200, 474
-0.998522, 157, 69, 188, 84
-0.998522, 197, 433, 228, 448
-0.998522, 205, 47, 236, 62
-0.998523, 153, 49, 216, 64
-0.998523, 105, 331, 168, 346
-0.998524, 129, 35, 192, 50
-0.998524, 125, 305, 156, 320
-0.998525, 125, 317, 156, 332
-0.998527, 161, 193, 224, 208
-0.998527, 113, 311, 176, 326
-0.998528, 193, 71, 224, 86
-0.998529, 105, 339, 168, 354
-0.998529, 209, 71, 272, 86
-0.99853, 169, 433, 200, 448
-0.998531, 113, 347, 144, 362
-0.998531, 61, 31, 92, 46
-0.998534, 161, 451, 224, 466
-0.998534, 161, 31, 224, 46
-0.998535, 125, 311, 156, 326
-0.998536, 161, 39, 192, 54
-0.998536, 129, 73, 192, 88
-0.998536, 153, 143, 216, 158
-0.998541, 155, 113, 170, 240
-0.998541, 185, 63, 248, 78
-0.998546, 153, 103, 216, 118
-0.998547, 149, 437, 180, 452
-0.998547, 113, 35, 144, 50
-0.998547, 137, 93, 200, 108
-0.998548, 177, 49, 192, 176
-0.998548, 97, 383, 160, 398
-0.99855, 193, 265, 320, 296
-0.998551, 217, 457, 248, 472
-0.998551, 97, 413, 160, 428
-0.998553, 201, 83, 232, 98
-0.998553, 253, 55, 284, 70
-0.998554, 233, 53, 264, 68
-0.998557, 153, 49, 168, 176
-0.998557, 129, 81, 192, 96
-0.998558, 137, 397, 200, 412
-0.998558, 193, 141, 256, 156
-0.998558, 137, 427, 200, 442
-0.998559, 161, 463, 224, 478
-0.998559, 173, 69, 204, 84
-0.998559, 133, 51, 164, 66
-0.99856, 57, 39, 120, 54
-0.99856, 97, 425, 160, 440
-0.99856, 157, 45, 188, 60
-0.998562, 233, 59, 296, 74
-0.998564, 197, 463, 228, 478
-0.998565, 161, 431, 224, 446
-0.998565, 105, 345, 168, 360
-0.998565, 149, 457, 180, 472
-0.998566, 121, 131, 184, 146
-0.998567, 149, 449, 180, 464
-0.998567, 265, 77, 328, 92
-0.998568, 241, 65, 304, 80
-0.998569, 153, 57, 184, 72
-0.998573, 97, 375, 160, 390
-0.998574, 121, 337, 152, 352
-0.998574, 121, 329, 152, 344
-0.998578, 177, 37, 240, 52
-0.998579, 121, 53, 184, 68
-0.998579, 113, 317, 176, 332
-0.99858, 49, 101, 176, 132
-0.998581, 137, 405, 200, 420
-0.998583, 221, 53, 252, 68
-0.998584, 137, 451, 200, 466
-0.998584, 217, 61, 248, 76
-0.998585, 81, 213, 208, 244
-0.998586, 137, 307, 200, 322
-0.998587, 257, 57, 320, 72
-0.998587, 105, 79, 168, 94
-0.998588, 137, 411, 200, 426
-0.998589, 177, 103, 240, 118
-0.99859, 97, 431, 160, 446
-0.99859, 119, 305, 134, 432
-0.998591, 137, 433, 200, 448
-0.998592, 193, 135, 256, 150
-0.998593, 113, 325, 176, 340
-0.998595, 193, 433, 256, 448
-0.998597, 273, 289, 336, 416
-0.998598, 209, 451, 240, 466
-0.998599, 217, 77, 280, 92
-0.9986, 133, 39, 164, 54
-0.998601, 181, 75, 212, 90
-0.998603, 105, 351, 168, 366
-0.998604, 81, 311, 144, 326
-0.998606, 137, 417, 200, 432
-0.998608, 33, 45, 96, 60
-0.998609, 97, 299, 160, 314
-0.99861, 73, 391, 136, 406
-0.998611, 113, 137, 176, 152
-0.998611, 73, 55, 136, 70
-0.998611, 281, 69, 344, 84
-0.998613, 97, 53, 160, 68
-0.998614, 217, 47, 248, 62
-0.998615, 81, 343, 144, 358
-0.998615, 193, 77, 224, 92
-0.998616, 177, 205, 304, 236
-0.998617, 181, 95, 212, 110
-0.998619, 57, 27, 120, 42
-0.998621, 113, 369, 176, 384
-0.998622, 165, 77, 196, 92
-0.998623, 129, 67, 192, 82
-0.998624, 145, 131, 208, 146
-0.998624, 183, 49, 198, 176
-0.998625, 169, 463, 200, 478
-0.998625, 121, 391, 184, 406
-0.998625, 129, 445, 192, 460
-0.998625, 185, 147, 248, 162
-0.998626, 145, 45, 176, 60
-0.998626, 73, 383, 136, 398
-0.998627, 73, 399, 136, 414
-0.998627, 49, 33, 112, 48
-0.998628, 165, 51, 196, 66
-0.998629, 17, 285, 144, 316
-0.998633, 137, 181, 200, 196
-0.998634, 197, 55, 228, 70
-0.998635, 113, 439, 176, 454
-0.998636, 81, 337, 144, 352
-0.998636, 129, 101, 192, 116
-0.998636, 217, 437, 280, 452
-0.998638, 105, 121, 168, 136
-0.998638, 137, 291, 200, 306
-0.998638, 217, 461, 280, 476
-0.998641, 153, 187, 216, 202
-0.998644, 97, 293, 160, 308
-0.998644, 49, 71, 112, 86
-0.998644, 129, 143, 192, 158
-0.998645, 129, 331, 192, 346
-0.998645, 241, 47, 304, 62
-0.998645, 177, 187, 240, 202
-0.998646, 73, 405, 136, 420
-0.998647, 265, 85, 328, 100
-0.998647, 265, 63, 328, 78
-0.998648, 57, 47, 120, 62
-0.998648, 113, 113, 176, 128
-0.998648, 97, 363, 160, 378
-0.998653, 181, 83, 212, 98
-0.998657, 193, 49, 208, 176
-0.998657, 209, 53, 240, 68
-0.998659, 169, 49, 184, 176
-0.998664, 185, 451, 216, 466
-0.998664, 209, 445, 240, 460
-0.998667, 281, 193, 344, 448
-0.998675, 163, 17, 178, 144
-0.998677, 199, 49, 214, 176
-0.998677, 209, 437, 240, 452
-0.998686, 169, 369, 184, 496
-0.998697, 181, 129, 212, 384
-0.998711, 169, 451, 200, 466
-0.99872, 185, 445, 216, 460
-0.998724, 165, 457, 196, 472
-0.998725, 211, 49, 226, 176
-0.998726, 77, 1, 108, 256
-0.998729, 217, 65, 232, 192
-0.998739, 205, 457, 236, 472
-0.998741, 173, 1, 188, 128
-0.998741, 185, 437, 216, 452
-0.998744, 215, 129, 230, 256
-0.99875, 33, 81, 160, 112
-0.99875, 225, 465, 352, 496
-0.998755, 197, 447, 228, 462
-0.998763, 17, 209, 80, 336
-0.99877, 185, 457, 216, 472
-0.998773, 193, 285, 320, 316
-0.998774, 81, 177, 144, 304
-0.998775, 197, 439, 228, 454
-0.998777, 161, 409, 288, 440
-0.998778, 169, 439, 200, 454
-0.998782, 165, 445, 196, 460
-0.998799, 161, 113, 176, 240
-0.9988, 111, 369, 126, 496
-0.998813, 167, 97, 182, 224
-0.998816, 201, 369, 216, 496
-0.998816, 187, 1, 202, 128
-0.998817, 109, 1, 140, 256
-0.998821, 193, 129, 208, 256
-0.998829, 209, 301, 336, 332
-0.998831, 135, 241, 150, 368
-0.998831, 205, 65, 220, 192
-0.998832, 1, 25, 128, 56
-0.998841, 187, 113, 202, 240
-0.998842, 217, 369, 232, 496
-0.998843, 225, 389, 352, 420
-0.998846, 163, 369, 178, 496
-0.998847, 313, 225, 375, 480
-0.998853, 297, 81, 328, 208
-0.998857, 157, 369, 172, 496
-0.998864, 181, 369, 196, 496
-0.998868, 237, 1, 268, 256
-0.998868, 1, 385, 128, 416
-0.998869, 141, 289, 156, 416
-0.99887, 207, 129, 222, 256
-0.998872, 113, 321, 128, 448
-0.998873, 129, 17, 256, 48
-0.998877, 225, 29, 352, 60
-0.998878, 229, 97, 244, 224
-0.998884, 89, 1, 120, 256
-0.998888, 229, 97, 260, 352
-0.998921, 151, 369, 166, 496
-0.998926, 193, 1, 208, 128
-0.998931, 1, 9, 375, 72
-0.998932, 179, 129, 194, 256
-0.998939, 177, 217, 304, 248
-0.998939, 201, 129, 216, 256
-0.998947, 223, 81, 238, 208
-0.998962, 201, 1, 216, 128
-0.998966, 149, 129, 164, 256
-0.998969, 173, 113, 188, 240
-0.998974, 193, 241, 320, 272
-0.998978, 135, 321, 150, 448
-0.999008, 129, 217, 375, 280
-0.999015, 233, 257, 264, 500
-0.999019, 191, 353, 206, 480
-0.999021, 53, 1, 84, 256
-0.999023, 209, 1, 224, 128
-0.999029, 147, 81, 162, 208
-0.999034, 175, 353, 190, 480
-0.999034, 227, 369, 242, 496
-0.999037, 263, 33, 278, 160
-0.999044, 33, 201, 160, 232
-0.999047, 89, 257, 120, 500
-0.999048, 227, 33, 242, 160
-0.99905, 1, 193, 375, 256
-0.999052, 225, 369, 352, 400
-0.999057, 105, 369, 120, 496
-0.999063, 177, 229, 304, 260
-0.999072, 239, 49, 254, 176
-0.99908, 141, 97, 156, 224
-0.999092, 221, 129, 236, 256
-0.999095, 227, 145, 242, 272
-0.999101, 211, 369, 226, 496
-0.999101, 147, 289, 162, 416
-0.999111, 129, 321, 144, 448
-0.999112, 85, 17, 100, 144
-0.999116, 143, 193, 158, 320
-0.999135, 293, 33, 324, 288
-0.999147, 219, 177, 234, 304
-0.999148, 181, 1, 196, 128
-0.999157, 181, 257, 212, 500
-0.999184, 119, 353, 134, 480
-0.999185, 141, 241, 156, 368
-0.999202, 123, 225, 138, 352
-0.999204, 233, 49, 248, 176
-0.999209, 193, 253, 320, 284
-0.999209, 253, 1, 284, 256
-0.999223, 33, 133, 160, 164
-0.999228, 143, 145, 158, 272
-0.999235, 221, 17, 236, 144
-0.999236, 155, 161, 170, 288
-0.999252, 169, 273, 200, 400
-0.999252, 225, 145, 352, 176
-0.999255, 253, 33, 268, 160
-0.999259, 147, 241, 162, 368
-0.999261, 133, 193, 148, 320
-0.999275, 91, 17, 106, 144
-0.99928, 141, 369, 156, 496
-0.999301, 147, 33, 162, 160
-0.999308, 135, 17, 150, 144
-0.999327, 247, 33, 262, 160
-0.999327, 291, 33, 306, 160
-0.999357, 105, 305, 120, 432
-0.999364, 105, 161, 136, 416
-0.999382, 165, 321, 180, 448
-0.999384, 137, 145, 152, 272
-0.999385, 215, 1, 230, 128
-0.99939, 113, 273, 128, 400
-0.999405, 1, 297, 128, 328
-0.999412, 65, 245, 192, 276
-0.999416, 163, 177, 178, 304
-0.999416, 283, 33, 298, 160
-0.999418, 209, 177, 224, 304
-0.999419, 203, 177, 218, 304
-0.999419, 175, 177, 190, 304
-0.99942, 155, 1, 170, 128
-0.99942, 157, 321, 172, 448
-0.999424, 97, 17, 112, 144
-0.999445, 149, 177, 164, 304
-0.999447, 241, 353, 368, 384
-0.999454, 141, 33, 156, 160
-0.99946, 197, 177, 212, 304
-0.999462, 269, 33, 284, 160
-0.999467, 169, 177, 184, 304
-0.999469, 33, 181, 160, 212
-0.999478, 305, 65, 336, 320
-0.99948, 241, 89, 368, 120
-0.999483, 235, 321, 250, 448
-0.99949, 233, 1, 248, 128
-0.999491, 1, 405, 128, 436
-0.999499, 183, 177, 198, 304
-0.999502, 241, 305, 256, 432
-0.999502, 297, 49, 312, 176
-0.999507, 191, 177, 206, 304
-0.999509, 235, 97, 250, 224
-0.999512, 127, 33, 142, 160
-0.999515, 225, 225, 240, 352
-0.999516, 79, 17, 94, 144
-0.999519, 225, 321, 240, 448
-0.999522, 103, 17, 118, 144
-0.999523, 241, 9, 368, 72
-0.999533, 247, 289, 262, 416
-0.999543, 233, 145, 248, 272
-0.999552, 265, 1, 296, 256
-0.999554, 117, 225, 132, 352
-0.99956, 153, 225, 168, 352
-0.999567, 235, 369, 250, 496
-0.999581, 345, 257, 375, 384
-0.999585, 105, 209, 136, 336
-0.99959, 125, 369, 140, 496
-0.999594, 131, 145, 146, 272
-0.999601, 239, 1, 254, 128
-0.999608, 135, 97, 150, 224
-0.999608, 231, 225, 246, 352
-0.999608, 99, 369, 114, 496
-0.999609, 181, 321, 196, 448
-0.999616, 359, 289, 374, 416
-0.999619, 241, 129, 368, 192
-0.999622, 65, 17, 80, 144
-0.999626, 197, 321, 212, 448
-0.999632, 89, 45, 104, 60
-0.999632, 239, 51, 254, 66
-0.999633, 117, 353, 132, 368
-0.999634, 293, 27, 308, 42
-0.999635, 133, 47, 148, 62
-0.999635, 125, 313, 140, 328
-0.999636, 289, 71, 304, 86
-0.999636, 109, 443, 124, 458
-0.999636, 203, 463, 218, 478
-0.999636, 307, 69, 322, 84
-0.999636, 303, 65, 318, 192
-0.999637, 167, 135, 182, 150
-0.999637, 233, 47, 248, 62
-0.999637, 75, 35, 90, 50
-0.999637, 187, 445, 202, 460
-0.999638, 115, 35, 130, 50
-0.999638, 219, 433, 234, 448
-0.999638, 181, 31, 196, 46
-0.999638, 209, 83, 224, 98
-0.999639, 275, 1, 290, 128
-0.999641, 189, 71, 204, 86
-0.999641, 131, 333, 146, 348
-0.999641, 225, 99, 240, 114
-0.999642, 1, 257, 64, 384
-0.999643, 87, 39, 102, 54
-0.999644, 157, 457, 172, 472
-0.999647, 127, 45, 142, 60
-0.999647, 353, 337, 368, 464
-0.999647, 79, 45, 94, 60
-0.999647, 129, 319, 144, 334
-0.999647, 211, 95, 226, 110
-0.999648, 113, 375, 128, 390
-0.999648, 185, 101, 200, 116
-0.999648, 201, 89, 216, 104
-0.999649, 139, 35, 154, 50
-0.999649, 195, 95, 210, 110
-0.99965, 361, 369, 375, 496
-0.999651, 123, 349, 138, 364
-0.999651, 73, 29, 88, 44
-0.999652, 279, 75, 294, 90
-0.999652, 211, 321, 226, 448
-0.999652, 159, 57, 174, 72
-0.999653, 221, 93, 236, 108
-0.999653, 105, 427, 120, 442
-0.999653, 121, 35, 136, 50
-0.999653, 171, 305, 186, 432
-0.999655, 173, 463, 188, 478
-0.999655, 105, 415, 120, 430
-0.999656, 109, 33, 124, 160
-0.999657, 237, 57, 252, 72
-0.999659, 195, 69, 210, 84
-0.999659, 127, 37, 142, 52
-0.99966, 227, 273, 242, 400
-0.999661, 203, 81, 218, 96
-0.999661, 129, 295, 144, 310
-0.999662, 223, 59, 238, 74
-0.999662, 191, 101, 206, 116
-0.999663, 125, 307, 140, 322
-0.999664, 171, 67, 186, 82
-0.999664, 125, 329, 140, 344
-0.999665, 169, 55, 184, 70
-0.999666, 227, 47, 242, 62
-0.999668, 141, 43, 156, 58
-0.999668, 289, 81, 304, 96
-0.999671, 147, 37, 162, 52
-0.999671, 149, 393, 164, 408
-0.999671, 107, 409, 122, 424
-0.999672, 227, 459, 242, 474
-0.999674, 179, 73, 194, 88
-0.999675, 231, 53, 246, 68
-0.999679, 217, 87, 232, 102
-0.999679, 131, 339, 146, 354
-0.999681, 227, 449, 242, 464
-0.999683, 173, 79, 188, 94
-0.999684, 165, 463, 180, 478
-0.999685, 189, 29, 204, 44
-0.999686, 211, 461, 226, 476
-0.999687, 119, 341, 134, 356
-0.999687, 183, 451, 198, 466
-0.99969, 251, 49, 266, 64
-0.99969, 117, 347, 132, 362
-0.999692, 169, 41, 184, 56
-0.999696, 245, 53, 260, 68
-0.999698, 219, 463, 234, 478
-0.999699, 137, 329, 152, 344
-0.9997, 159, 439, 174, 454
-0.999707, 217, 57, 232, 72
-0.999709, 173, 73, 188, 88
-0.999709, 81, 39, 96, 54
-0.999709, 119, 331, 134, 346
-0.99971, 225, 441, 240, 456
-0.999714, 125, 339, 140, 354
-0.999715, 177, 53, 192, 68
-0.999716, 183, 93, 198, 108
-0.999716, 211, 59, 226, 74
-0.999717, 159, 39, 174, 54
-0.999721, 151, 43, 166, 58
-0.999722, 221, 45, 236, 60
-0.999725, 193, 451, 208, 466
-0.999727, 203, 451, 218, 466
-0.999735, 201, 53, 216, 68
-0.999737, 189, 77, 204, 92
-0.999739, 325, 49, 356, 176
-0.999741, 165, 449, 180, 464
-0.999743, 159, 51, 174, 66
-0.999747, 211, 53, 226, 68
-0.999748, 189, 95, 204, 110
-0.999752, 179, 79, 194, 94
-0.999752, 183, 85, 198, 100
-0.999754, 151, 49, 166, 64
-0.999757, 173, 445, 188, 460
-0.999759, 49, 17, 80, 144
-0.999759, 203, 437, 218, 452
-0.999764, 165, 49, 180, 64
-0.999764, 183, 435, 198, 450
-0.999773, 133, 41, 148, 56
-0.999774, 25, 193, 88, 448
-0.999778, 171, 49, 186, 64
-0.999781, 159, 45, 174, 60
-0.999783, 1, 289, 375, 352
-0.999784, 165, 443, 180, 458
-0.999784, 217, 51, 232, 66
-0.999789, 191, 85, 206, 100
-0.99979, 173, 451, 188, 466
-0.999795, 183, 457, 198, 472
-0.999802, 203, 457, 218, 472
-0.999811, 225, 53, 240, 68
-0.999813, 191, 457, 206, 472
-0.999816, 277, 1, 308, 256
-0.999816, 219, 447, 234, 462
-0.999817, 173, 437, 188, 452
-0.99982, 181, 445, 196, 460
-0.999823, 211, 437, 226, 452
-0.999825, 211, 445, 226, 460
-0.999827, 165, 457, 180, 472
-0.999827, 193, 445, 208, 460
-0.999829, 219, 439, 234, 454
-0.999829, 191, 435, 206, 450
-0.999832, 195, 75, 210, 90
-0.999832, 173, 457, 188, 472
-0.999835, 203, 445, 218, 460
-0.999837, 211, 455, 226, 470
-0.999841, 165, 437, 180, 452
-0.999849, 1, 65, 32, 320
-0.999855, 257, 81, 288, 208
-0.999866, 219, 457, 234, 472
-0.999885, 33, 225, 64, 480
-0.999905, 253, 225, 284, 480
-0.999961, 13, 33, 44, 288
-0.999962, 261, 97, 292, 352
-0.999971, 33, 33, 64, 288
-0.999976, 1, 257, 375, 320
-1.00002, 333, 225, 364, 480
-1.00002, 241, 241, 304, 368
-1.00006, 25, 257, 88, 384
-1.00007, 329, 305, 360, 432
-1.0001, 53, 257, 84, 500
-1.00012, 313, 17, 375, 144
-1.00013, 305, 65, 368, 320
-1.00014, 273, 97, 304, 352
-1.00016, 297, 177, 360, 304
-1.00016, 193, 257, 224, 500
-1.00019, 9, 33, 72, 160
-1.00019, 345, 225, 375, 480
-1.00021, 9, 225, 40, 480
-1.00023, 321, 193, 352, 448
-1.00023, 293, 193, 324, 448
-1.0003, 9, 257, 40, 384
-1.00033, 77, 97, 108, 352
-1.00033, 305, 225, 336, 480
-1.00035, 321, 97, 352, 352
-1.00036, 21, 193, 52, 448
-1.0004, 241, 129, 272, 384
-1.00041, 89, 161, 120, 416
-1.00042, 53, 129, 84, 384
-1.00044, 265, 225, 296, 480
-1.00047, 65, 193, 96, 448
-1.00047, 277, 193, 308, 448
-1.0005, 77, 257, 108, 500
-1.00055, 337, 129, 368, 384
-1.00056, 317, 337, 348, 464
-1.00058, 65, 97, 96, 352
-1.00059, 237, 193, 268, 320
-1.0006, 65, 177, 96, 304
-1.00062, 41, 129, 72, 384
-1.00063, 329, 257, 360, 384
-1.00071, 317, 1, 348, 256
-1.00075, 25, 97, 88, 352
-1.00076, 1, 233, 375, 296
-1.00084, 49, 225, 112, 352
-1.00087, 265, 193, 328, 320
-1.00094, 197, 273, 228, 400
-1.00096, 313, 225, 375, 352
-1.00101, 277, 369, 308, 496
-1.00103, 197, 225, 228, 352
-1.00104, 345, 1, 375, 256
-1.00106, 333, 33, 364, 288
-1.00112, 237, 145, 268, 272
-1.00121, 301, 369, 332, 496
-1.00144, 5, 193, 36, 320
-1.00146, 65, 353, 96, 480
-1.00146, 313, 129, 344, 256
-1.00158, 49, 65, 80, 192
-1.00161, 77, 161, 108, 288
-1.00166, 65, 129, 128, 384
-1.00167, 17, 209, 48, 336
-1.0017, 329, 1, 360, 128
-1.00193, 33, 225, 64, 352
-1.00194, 17, 65, 48, 192
-1.00197, 257, 369, 288, 496
-1.00197, 9, 161, 72, 288
-1.00197, 33, 17, 64, 144
-1.00201, 301, 321, 332, 448
-1.00205, 329, 369, 360, 496
-1.00208, 61, 113, 92, 240
-1.00209, 249, 209, 280, 336
-1.0021, 9, 305, 72, 432
-1.00213, 269, 209, 300, 336
-1.00228, 185, 273, 216, 400
-1.00231, 329, 209, 360, 336
-1.00232, 45, 337, 76, 464
-1.00239, 9, 337, 40, 464
-1.0024, 1, 129, 32, 256
-1.00243, 289, 241, 352, 368
-1.00247, 21, 273, 52, 400
-1.00255, 281, 241, 312, 368
-1.00256, 257, 145, 320, 272
-1.00266, 73, 113, 136, 240
-1.00373, 33, 129, 96, 256
-1.00394, 1, 129, 64, 384
-1.00428, 241, 193, 304, 320
-1.0047, 1, 113, 64, 240
-1.005, 241, 129, 304, 384
-1.00581, 265, 241, 328, 368
