1883
-0.204646, 1, 1, 500, 333
-0.301127, 1, 1, 500, 256
-0.313008, 33, 1, 288, 333
-0.336747, 225, 1, 480, 333
-0.438675, 129, 1, 384, 333
-0.515846, 33, 1, 288, 256
-0.540907, 257, 1, 500, 256
-0.566336, 161, 65, 416, 320
-0.817911, 353, 1, 480, 333
-0.81937, 353, 1, 480, 256
-0.822625, 1, 1, 128, 333
-0.831523, 305, 1, 432, 333
-0.844615, 33, 65, 160, 320
-0.846448, 1, 1, 500, 128
-0.849256, 305, 65, 432, 320
-0.851567, 257, 1, 384, 333
-0.85198, 1, 97, 500, 224
-0.857412, 129, 65, 256, 320
-0.858391, 81, 1, 208, 256
-0.86139, 49, 1, 176, 333
-0.862044, 177, 1, 304, 333
-0.862467, 177, 65, 304, 320
-0.863478, 129, 1, 256, 333
-0.873931, 257, 65, 384, 320
-0.8808, 1, 49, 500, 176
-0.88233, 1, 177, 500, 304
-0.902097, 1, 49, 256, 176
-0.904381, 161, 209, 416, 333
-0.905257, 193, 1, 448, 128
-0.911006, 257, 81, 500, 208
-0.913486, 1, 65, 128, 192
-0.913878, 97, 33, 352, 160
-0.914469, 257, 209, 500, 333
-0.916189, 33, 209, 288, 333
-0.916272, 17, 1, 80, 128
-0.917369, 361, 33, 424, 160
-0.918997, 417, 1, 480, 128
-0.922057, 1, 1, 256, 128
-0.92251, 369, 1, 496, 128
-0.922581, 353, 49, 480, 176
-0.922681, 1, 1, 128, 128
-0.92521, 353, 209, 480, 333
-0.925643, 1, 97, 256, 224
-0.927311, 385, 49, 448, 176
-0.928058, 257, 129, 500, 256
-0.929665, 393, 1, 456, 128
-0.930179, 225, 193, 352, 320
-0.93118, 1, 209, 128, 333
-0.931298, 97, 209, 160, 333
-0.931671, 249, 193, 312, 320
-0.933322, 97, 17, 224, 144
-0.933639, 33, 161, 288, 288
-0.933965, 81, 209, 208, 333
-0.935109, 49, 33, 112, 160
-0.935183, 161, 81, 416, 208
-0.935886, 17, 65, 80, 192
-0.936127, 353, 97, 480, 224
-0.936434, 369, 177, 432, 304
-0.936658, 17, 113, 144, 240
-0.936712, 337, 49, 400, 176
-0.938002, 305, 209, 368, 333
-0.938515, 49, 177, 112, 304
-0.939071, 177, 209, 304, 333
-0.939432, 337, 1, 400, 128
-0.939449, 145, 1, 272, 128
-0.939861, 161, 209, 224, 333
-0.940477, 273, 209, 400, 333
-0.940794, 9, 209, 72, 333
-0.94089, 409, 209, 472, 333
-0.940981, 129, 209, 256, 333
-0.941201, 81, 81, 208, 208
-0.941613, 209, 209, 272, 333
-0.941842, 145, 49, 272, 176
-0.942431, 217, 81, 280, 144
-0.942461, 257, 1, 384, 128
-0.942495, 209, 233, 272, 296
-0.94286, 305, 33, 432, 160
-0.943451, 369, 57, 432, 120
-0.943633, 337, 113, 400, 240
-0.943997, 49, 17, 176, 144
-0.944077, 209, 17, 336, 144
-0.944125, 313, 33, 376, 160
-0.944694, 353, 161, 480, 288
-0.945, 33, 129, 96, 256
-0.945, 73, 177, 136, 304
-0.945926, 89, 49, 152, 176
-0.946015, 1, 161, 128, 288
-0.946191, 273, 81, 400, 208
-0.946442, 57, 113, 120, 240
-0.946724, 425, 129, 488, 256
-0.946736, 393, 97, 456, 224
-0.946799, 281, 49, 344, 176
-0.947133, 409, 217, 472, 280
-0.947172, 393, 161, 456, 288
-0.947322, 361, 225, 424, 288
-0.948194, 273, 193, 336, 320
-0.948311, 297, 9, 360, 72
-0.948704, 273, 81, 336, 144
-0.948818, 73, 265, 136, 328
-0.948987, 73, 1, 136, 128
-0.949, 377, 17, 440, 80
-0.949297, 353, 17, 416, 80
-0.94984, 417, 49, 480, 176
-0.95006, 113, 49, 176, 176
-0.950083, 89, 97, 152, 224
-0.950099, 73, 241, 136, 304
-0.950153, 9, 161, 72, 288
-0.950482, 345, 209, 408, 333
-0.950556, 297, 225, 360, 288
-0.950599, 33, 225, 96, 288
-0.950839, 209, 257, 272, 320
-0.950988, 9, 9, 72, 72
-0.951096, 257, 225, 320, 288
-0.951161, 409, 17, 472, 80
-0.951196, 121, 209, 184, 333
-0.951534, 361, 81, 424, 208
-0.951873, 121, 273, 184, 333
-0.951876, 129, 105, 192, 168
-0.951969, 289, 105, 352, 168
-0.952138, 41, 273, 104, 333
-0.952173, 289, 1, 352, 128
-0.952181, 161, 241, 224, 304
-0.952309, 169, 1, 232, 128
-0.952521, 97, 233, 160, 296
-0.952664, 249, 81, 312, 144
-0.95281, 249, 49, 312, 176
-0.952843, 329, 81, 392, 144
-0.952861, 217, 17, 280, 144
-0.952928, 273, 129, 400, 256
-0.953146, 129, 97, 256, 224
-0.953199, 49, 193, 112, 256
-0.95328, 161, 161, 416, 288
-0.953492, 377, 193, 440, 256
-0.953623, 17, 73, 80, 136
-0.95375, 161, 273, 224, 333
-0.953969, 17, 201, 80, 264
-0.954484, 409, 241, 472, 304
-0.954572, 145, 81, 208, 144
-0.95471, 217, 209, 280, 272
-0.954993, 385, 105, 448, 168
-0.95523, 49, 81, 112, 144
-0.955266, 353, 201, 416, 264
-0.95556, 209, 65, 336, 192
-0.955636, 9, 121, 72, 184
-0.955843, 337, 49, 400, 112
-0.955954, 233, 241, 296, 304
-0.956019, 329, 201, 392, 264
-0.956251, 241, 273, 304, 333
-0.956254, 297, 257, 360, 320
-0.956275, 89, 97, 152, 160
-0.956454, 305, 81, 368, 208
-0.956585, 329, 241, 392, 304
-0.95663, 41, 105, 104, 168
-0.956829, 345, 161, 408, 288
-0.95722, 401, 193, 464, 256
-0.957255, 113, 81, 176, 144
-0.957314, 345, 105, 408, 168
-0.957545, 297, 201, 360, 264
-0.957793, 9, 241, 72, 304
-0.957811, 369, 81, 432, 144
-0.957819, 265, 1, 328, 128
-0.95809, 17, 265, 80, 328
-0.958216, 73, 209, 136, 272
-0.958301, 433, 177, 496, 304
-0.958723, 121, 233, 184, 296
-0.958726, 185, 209, 248, 333
-0.958747, 177, 49, 240, 176
-0.958989, 49, 249, 112, 312
-0.959221, 337, 273, 400, 333
-0.95923, 369, 129, 432, 256
-0.959233, 81, 161, 208, 288
-0.959361, 33, 33, 96, 288
-0.959745, 249, 105, 312, 168
-0.959775, 169, 81, 232, 144
-0.959995, 249, 97, 312, 224
-0.96, 305, 73, 368, 136
-0.96005, 185, 257, 248, 320
-0.960057, 177, 113, 304, 240
-0.960085, 393, 49, 456, 112
-0.960171, 401, 49, 432, 112
-0.960334, 393, 1, 456, 256
-0.960508, 297, 161, 360, 288
-0.960777, 177, 105, 240, 168
-0.960935, 409, 273, 472, 333
-0.961178, 177, 161, 304, 288
-0.961617, 161, 217, 224, 280
-0.961831, 9, 113, 72, 240
-0.962151, 81, 121, 144, 184
-0.962328, 417, 41, 480, 104
-0.962344, 337, 1, 400, 256
-0.962366, 425, 97, 488, 160
-0.962399, 249, 9, 312, 72
-0.9625, 73, 185, 136, 248
-0.9626, 417, 65, 480, 128
-0.962681, 185, 233, 248, 296
-0.962697, 81, 1, 144, 256
-0.962731, 129, 161, 256, 288
-0.962764, 273, 249, 336, 312
-0.962787, 217, 65, 280, 192
-0.963095, 17, 97, 80, 160
-0.963102, 225, 9, 288, 72
-0.963107, 241, 193, 304, 256
-0.963263, 145, 1, 208, 128
-0.963271, 17, 49, 80, 112
-0.963501, 49, 1, 112, 64
-0.963637, 49, 57, 112, 120
-0.963681, 1, 241, 128, 304
-0.963809, 113, 209, 176, 272
-0.963821, 177, 97, 240, 224
-0.964031, 329, 17, 392, 80
-0.964059, 33, 169, 96, 232
-0.964759, 113, 33, 176, 96
-0.964911, 377, 33, 408, 160
-0.964975, 397, 33, 428, 160
-0.964981, 369, 265, 432, 328
-0.964991, 353, 89, 480, 152
-0.964994, 313, 105, 376, 168
-0.964996, 241, 1, 304, 128
-0.965121, 217, 105, 280, 168
-0.965141, 89, 73, 152, 136
-0.965194, 113, 57, 176, 120
-0.96543, 97, 265, 160, 328
-0.965617, 193, 209, 256, 272
-0.965871, 225, 161, 288, 288
-0.966029, 81, 225, 208, 288
-0.966122, 177, 9, 240, 72
-0.966126, 385, 9, 416, 72
-0.966502, 425, 193, 488, 256
-0.966688, 225, 273, 352, 333
-0.966706, 281, 97, 344, 224
-0.966778, 297, 65, 360, 320
-0.966841, 273, 201, 336, 264
-0.966957, 353, 129, 416, 192
-0.967148, 381, 57, 412, 120
-0.967149, 117, 209, 148, 333
-0.967226, 209, 89, 336, 152
-0.967235, 353, 65, 480, 128
-0.967318, 289, 49, 352, 112
-0.967507, 17, 145, 80, 208
-0.96755, 361, 1, 424, 256
-0.967645, 249, 57, 312, 120
-0.967866, 225, 113, 352, 240
-0.968021, 273, 17, 336, 80
-0.968067, 353, 9, 480, 72
-0.968095, 225, 65, 288, 320
-0.968108, 353, 225, 480, 288
-0.968153, 313, 49, 376, 112
-0.96825, 433, 273, 496, 333
-0.968344, 345, 177, 408, 240
-0.968552, 257, 81, 384, 144
-0.968584, 1, 217, 128, 280
-0.968687, 257, 241, 384, 304
-0.968694, 433, 17, 496, 80
-0.968697, 73, 1, 136, 64
-0.968753, 33, 25, 96, 88
-0.968873, 169, 161, 232, 288
-0.968875, 129, 225, 256, 288
-0.968876, 393, 81, 456, 144
-0.968945, 417, 137, 480, 200
-0.968957, 113, 1, 176, 128
-0.969057, 257, 217, 384, 280
-0.969102, 221, 225, 252, 288
-0.969158, 193, 81, 256, 144
-0.969174, 177, 217, 304, 280
-0.969191, 389, 33, 420, 96
-0.969239, 89, 41, 152, 104
-0.969282, 1, 89, 128, 152
-0.969312, 433, 217, 496, 280
-0.969393, 137, 49, 200, 176
-0.969545, 289, 193, 320, 320
-0.969638, 153, 25, 216, 88
-0.969724, 65, 33, 96, 160
-0.969735, 269, 193, 300, 320
-0.969772, 121, 97, 184, 224
-0.969844, 97, 81, 224, 144
-0.969893, 193, 1, 256, 128
-0.969958, 21, 1, 52, 64
-0.970278, 81, 265, 208, 328
-0.970293, 41, 129, 104, 192
-0.970419, 1, 273, 128, 333
-0.970421, 357, 65, 388, 192
-0.970502, 113, 49, 144, 176
-0.970549, 385, 225, 448, 288
-0.970629, 137, 209, 200, 272
-0.97066, 117, 225, 148, 288
-0.970672, 321, 225, 352, 288
-0.970692, 417, 1, 480, 256
-0.970748, 329, 9, 360, 72
-0.97083, 285, 217, 316, 280
-0.971002, 373, 97, 404, 224
-0.971002, 173, 273, 204, 333
-0.971115, 417, 1, 448, 128
-0.971116, 429, 9, 460, 72
-0.971154, 161, 81, 288, 144
-0.971167, 1, 9, 128, 72
-0.971204, 9, 1, 72, 256
-0.971241, 341, 241, 372, 304
-0.971273, 105, 9, 168, 72
-0.971373, 129, 105, 256, 168
-0.971381, 369, 41, 496, 104
-0.971402, 129, 161, 192, 288
-0.971487, 385, 81, 416, 208
-0.97154, 105, 121, 168, 184
-0.971568, 1, 193, 128, 256
-0.971606, 305, 89, 432, 152
-0.971639, 177, 241, 304, 304
-0.971685, 321, 209, 352, 333
-0.971725, 257, 105, 384, 168
-0.97175, 49, 89, 176, 152
-0.971786, 445, 1, 476, 128
-0.971813, 137, 57, 200, 120
-0.971817, 353, 113, 480, 176
-0.971912, 161, 273, 288, 333
-0.971986, 337, 217, 368, 280
-0.972002, 433, 241, 496, 304
-0.972151, 441, 209, 472, 333
-0.972171, 89, 81, 120, 208
-0.972322, 337, 193, 368, 320
-0.972332, 281, 81, 312, 144
-0.972348, 25, 1, 56, 128
-0.972376, 121, 65, 152, 128
-0.972425, 65, 25, 128, 88
-0.972438, 321, 161, 384, 288
-0.972442, 169, 233, 200, 296
-0.972467, 41, 1, 72, 128
-0.972521, 353, 201, 480, 264
-0.972528, 177, 57, 240, 120
-0.972529, 237, 241, 268, 304
-0.972548, 173, 81, 204, 144
-0.972608, 377, 33, 408, 96
-0.972647, 169, 193, 232, 256
-0.972658, 369, 273, 496, 333
-0.972702, 153, 105, 216, 168
-0.97278, 237, 73, 268, 136
-0.972784, 25, 193, 56, 256
-0.972814, 137, 65, 200, 320
-0.972843, 285, 33, 316, 160
-0.97285, 373, 97, 404, 160
-0.972893, 33, 65, 160, 128
-0.972899, 273, 273, 336, 333
-0.972944, 185, 33, 248, 288
-0.973002, 409, 49, 440, 176
-0.973113, 341, 65, 372, 192
-0.973118, 81, 17, 208, 80
-0.97313, 429, 177, 460, 304
-0.973282, 273, 273, 400, 333
-0.973326, 69, 209, 100, 333
-0.9734, 65, 225, 96, 288
-0.973433, 393, 73, 424, 136
-0.973499, 425, 169, 488, 232
-0.973521, 385, 177, 416, 304
-0.973556, 1, 121, 128, 184
-0.973732, 185, 9, 216, 72
-0.973736, 321, 273, 448, 333
-0.973755, 201, 17, 264, 80
-0.973758, 237, 97, 268, 160
-0.973759, 81, 57, 208, 120
-0.973767, 305, 17, 432, 80
-0.973771, 129, 249, 256, 312
-0.973773, 109, 73, 140, 136
-0.973777, 129, 201, 256, 264
-0.973793, 409, 17, 440, 80
-0.97385, 105, 209, 136, 333
-0.97388, 85, 209, 116, 333
-0.973884, 249, 1, 312, 256
-0.973909, 305, 217, 336, 280
-0.973974, 209, 57, 272, 120
-0.974043, 209, 113, 272, 240
-0.97418, 389, 201, 420, 264
-0.974278, 345, 73, 376, 136
-0.974303, 53, 49, 84, 176
-0.974331, 233, 217, 264, 280
-0.97437, 1, 241, 32, 304
-0.974392, 249, 33, 312, 96
-0.974427, 185, 257, 216, 320
-0.974471, 209, 193, 336, 256
-0.974479, 77, 185, 108, 248
-0.974537, 257, 81, 288, 144
-0.97455, 237, 273, 268, 333
-0.974707, 17, 217, 48, 280
-0.974816, 1, 169, 64, 232
-0.974854, 57, 65, 120, 320
-0.974887, 385, 129, 448, 192
-0.975058, 225, 97, 256, 160
-0.975069, 253, 233, 284, 296
-0.975089, 293, 81, 324, 144
-0.975111, 209, 113, 336, 176
-0.975125, 341, 265, 372, 328
-0.975134, 153, 97, 216, 224
-0.975186, 193, 161, 256, 288
-0.975189, 401, 169, 464, 232
-0.975194, 133, 209, 164, 333
-0.975196, 305, 217, 432, 280
-0.975248, 429, 1, 460, 128
-0.975268, 393, 1, 456, 333
-0.975274, 409, 73, 440, 136
-0.975316, 237, 209, 268, 333
-0.975415, 305, 249, 432, 312
-0.975456, 273, 145, 336, 272
-0.975467, 97, 225, 128, 288
-0.975522, 101, 49, 132, 176
-0.97566, 361, 1, 424, 333
-0.975692, 465, 65, 496, 192
-0.975716, 409, 241, 440, 304
-0.975726, 153, 249, 184, 312
-0.975809, 433, 193, 464, 256
-0.975811, 53, 1, 84, 128
-0.97583, 285, 9, 316, 72
-0.975856, 221, 209, 252, 333
-0.975881, 33, 1, 96, 333
-0.975914, 1, 145, 128, 208
-0.975934, 109, 97, 140, 160
-0.975943, 153, 273, 184, 333
-0.976068, 233, 1, 264, 128
-0.976107, 449, 49, 480, 176
-0.976186, 81, 1, 112, 128
-0.97619, 365, 57, 396, 120
-0.976231, 169, 209, 200, 333
-0.976265, 221, 249, 252, 312
-0.976336, 305, 257, 336, 320
-0.976375, 81, 201, 208, 264
-0.976472, 441, 17, 472, 80
-0.976477, 361, 105, 392, 168
-0.976492, 17, 193, 48, 320
-0.976537, 233, 9, 264, 72
-0.976547, 185, 1, 216, 128
-0.976565, 129, 57, 256, 120
-0.976616, 161, 1, 288, 64
-0.976655, 337, 1, 368, 128
-0.976694, 153, 89, 184, 152
-0.9767, 97, 161, 160, 288
-0.976738, 413, 49, 444, 112
-0.976758, 105, 65, 168, 320
-0.976852, 157, 209, 188, 333
-0.976875, 369, 137, 496, 200
-0.976907, 321, 129, 384, 192
-0.97697, 41, 65, 72, 192
-0.976976, 257, 209, 288, 333
-0.977015, 45, 241, 76, 304
-0.977106, 441, 273, 472, 333
-0.977154, 273, 65, 336, 320
-0.977197, 153, 1, 216, 64
-0.977206, 49, 113, 176, 176
-0.977218, 77, 145, 108, 272
-0.97726, 49, 97, 80, 160
-0.977297, 201, 273, 232, 333
-0.977351, 205, 89, 236, 152
-0.97737, 441, 225, 472, 288
-0.977575, 129, 25, 256, 88
-0.977657, 117, 201, 148, 264
-0.977794, 181, 217, 212, 280
-0.97781, 449, 113, 480, 240
-0.977822, 49, 273, 80, 333
-0.977873, 229, 193, 260, 256
-0.977925, 397, 129, 428, 256
-0.97796, 17, 65, 48, 192
-0.977963, 409, 273, 440, 333
-0.978027, 353, 241, 384, 304
-0.978074, 149, 225, 180, 288
-0.978095, 181, 209, 212, 333
-0.978126, 49, 193, 80, 256
-0.978126, 61, 113, 92, 240
-0.978133, 257, 265, 288, 328
-0.978171, 357, 265, 388, 328
-0.978214, 385, 113, 416, 176
-0.97825, 65, 1, 128, 333
-0.978255, 117, 249, 148, 312
-0.978265, 69, 81, 100, 144
-0.978295, 177, 57, 304, 120
-0.978302, 329, 81, 360, 208
-0.978351, 133, 233, 164, 296
-0.978375, 253, 9, 284, 72
-0.978381, 49, 65, 80, 128
-0.978385, 305, 193, 432, 256
-0.978402, 397, 81, 428, 208
-0.978428, 281, 185, 312, 248
-0.978445, 465, 105, 496, 168
-0.978493, 449, 49, 480, 112
-0.978496, 5, 145, 36, 272
-0.978519, 57, 209, 88, 333
-0.978553, 373, 225, 404, 288
-0.978584, 237, 49, 268, 176
-0.978619, 209, 17, 336, 80
-0.978623, 449, 121, 480, 184
-0.978679, 381, 177, 412, 240
-0.978679, 85, 225, 116, 288
-0.978688, 61, 57, 92, 120
-0.978723, 409, 177, 440, 304
-0.978724, 305, 113, 432, 176
-0.978743, 269, 201, 300, 264
-0.978791, 325, 257, 356, 320
-0.978813, 257, 193, 384, 256
-0.978849, 33, 41, 160, 104
-0.978851, 77, 65, 108, 192
-0.978889, 89, 89, 120, 152
-0.97894, 373, 209, 404, 333
-0.978949, 173, 33, 204, 160
-0.978979, 29, 177, 60, 304
-0.979066, 337, 33, 368, 96
-0.97907, 117, 273, 148, 333
-0.979098, 105, 97, 136, 224
-0.97919, 1, 273, 32, 333
-0.979214, 309, 97, 340, 160
-0.979253, 273, 241, 304, 304
-0.97931, 357, 113, 388, 240
-0.979334, 421, 225, 452, 288
-0.979461, 105, 265, 136, 328
-0.979468, 433, 129, 464, 256
-0.97949, 177, 33, 208, 96
-0.979501, 277, 105, 308, 168
-0.979513, 385, 129, 416, 256
-0.979522, 357, 25, 388, 88
-0.979537, 305, 65, 432, 128
-0.979546, 401, 113, 432, 176
-0.979555, 5, 201, 36, 264
-0.97959, 89, 1, 152, 333
-0.979681, 309, 209, 340, 333
-0.979686, 373, 9, 404, 72
-0.979729, 357, 81, 388, 144
-0.979738, 137, 81, 168, 208
-0.979794, 17, 73, 48, 136
-0.979809, 357, 1, 388, 128
-0.979831, 409, 217, 440, 280
-0.979847, 369, 249, 496, 312
-0.979853, 189, 97, 220, 160
-0.979945, 49, 161, 80, 288
-0.97996, 81, 1, 112, 64
-0.980009, 353, 177, 480, 240
-0.98008, 289, 257, 320, 320
-0.980189, 321, 41, 448, 104
-0.980219, 141, 89, 172, 152
-0.980253, 249, 145, 312, 272
-0.980332, 21, 121, 52, 184
-0.980351, 289, 49, 320, 112
-0.980354, 37, 217, 68, 280
-0.980413, 449, 97, 480, 160
-0.980446, 329, 121, 360, 184
-0.980471, 225, 73, 256, 136
-0.9806, 9, 169, 40, 232
-0.980619, 337, 1, 400, 333
-0.980669, 1, 81, 32, 208
-0.980797, 325, 201, 356, 264
-0.980872, 329, 129, 360, 256
-0.980903, 449, 145, 480, 208
-0.980908, 269, 9, 300, 72
-0.980921, 209, 225, 240, 288
-0.980926, 177, 1, 240, 333
-0.980996, 121, 105, 152, 168
-0.981095, 125, 33, 156, 160
-0.981183, 89, 113, 120, 176
-0.981205, 57, 249, 88, 312
-0.981255, 373, 145, 404, 272
-0.981312, 9, 1, 72, 333
-0.981315, 421, 249, 452, 312
-0.981323, 405, 193, 436, 256
-0.981335, 173, 193, 204, 256
-0.981339, 421, 273, 452, 333
-0.981346, 21, 113, 52, 240
-0.981349, 249, 1, 312, 333
-0.981521, 5, 209, 36, 333
-0.981603, 257, 17, 384, 80
-0.981714, 49, 113, 80, 240
-0.981723, 1, 169, 128, 232
-0.981803, 145, 209, 176, 333
-0.98183, 89, 129, 120, 256
-0.981885, 325, 1, 356, 128
-0.981912, 361, 209, 392, 333
-0.98195, 313, 1, 376, 333
-0.981997, 257, 49, 288, 176
-0.982052, 437, 65, 468, 192
-0.982204, 225, 1, 288, 333
-0.98231, 209, 49, 240, 176
-0.982562, 13, 1, 44, 128
-0.982607, 469, 1, 500, 128
-0.982632, 93, 1, 124, 128
-0.982698, 225, 49, 256, 176
-0.982716, 349, 193, 380, 320
-0.982745, 285, 81, 316, 208
-0.982806, 157, 81, 188, 208
-0.982847, 161, 65, 224, 320
-0.983019, 421, 49, 452, 176
-0.983029, 185, 65, 216, 192
-0.983145, 33, 129, 64, 256
-0.983361, 301, 49, 332, 176
-0.983376, 209, 209, 240, 333
-0.983711, 45, 209, 76, 333
-0.983747, 141, 33, 172, 160
-0.983917, 417, 97, 448, 224
-0.983926, 129, 129, 256, 192
-0.98398, 193, 209, 224, 333
-0.984154, 177, 161, 208, 288
-0.984244, 101, 161, 132, 288
-0.984245, 125, 81, 156, 208
-0.984639, 281, 1, 344, 333
-0.984804, 65, 161, 96, 288
-0.984872, 241, 57, 368, 120
-0.984885, 229, 161, 260, 288
-0.984907, 305, 161, 336, 288
-0.984959, 229, 97, 260, 224
-0.985003, 1, 33, 32, 160
-0.985129, 457, 161, 488, 288
-0.985629, 417, 1, 480, 333
-0.985701, 273, 169, 400, 232
-0.985743, 49, 177, 176, 240
-0.985842, 345, 113, 376, 240
-0.985842, 397, 193, 428, 320
-0.985877, 205, 1, 236, 128
-0.98624, 257, 1, 288, 128
-0.986615, 249, 161, 280, 288
-0.986625, 277, 129, 308, 256
-0.986654, 153, 33, 184, 160
-0.986663, 465, 113, 496, 240
-0.986865, 289, 129, 320, 256
-0.986963, 121, 1, 184, 333
-0.987217, 309, 1, 340, 128
-0.987311, 273, 17, 304, 144
-0.987362, 289, 137, 416, 200
-0.987372, 297, 1, 328, 128
-0.987415, 369, 65, 432, 96
-0.98748, 209, 97, 240, 224
-0.98749, 201, 1, 264, 333
-0.987532, 161, 81, 416, 144
-0.987557, 173, 81, 204, 208
-0.987839, 33, 273, 288, 333
-0.987848, 129, 177, 256, 240
-0.987902, 209, 249, 272, 280
-0.98795, 321, 85, 384, 116
-0.98795, 457, 1, 488, 128
-0.987977, 1, 97, 256, 160
-0.987998, 461, 209, 492, 333
-0.988001, 265, 97, 328, 128
-0.988073, 1, 65, 256, 128
-0.988127, 49, 145, 176, 208
-0.988204, 313, 237, 376, 268
-0.988221, 249, 229, 312, 260
-0.988234, 209, 229, 272, 260
-0.988273, 129, 89, 192, 120
-0.988365, 393, 25, 456, 56
-0.98837, 361, 221, 424, 252
-0.988508, 369, 77, 432, 108
-0.988512, 17, 209, 80, 240
-0.988517, 73, 265, 136, 296
-0.988522, 117, 129, 148, 256
-0.98853, 161, 237, 224, 268
-0.988535, 321, 97, 384, 128
-0.988565, 409, 241, 472, 272
-0.988574, 345, 17, 408, 48
-0.98867, 393, 205, 456, 236
-0.988672, 361, 233, 424, 264
-0.988672, 385, 121, 448, 152
-0.988683, 121, 109, 184, 140
-0.988694, 361, 109, 424, 140
-0.988743, 249, 85, 312, 116
-0.988764, 1, 113, 500, 176
-0.988767, 145, 101, 208, 132
-0.988782, 337, 73, 400, 104
-0.988806, 241, 21, 304, 52
-0.98882, 317, 81, 348, 208
-0.988834, 409, 221, 472, 252
-0.98887, 217, 81, 280, 112
-0.9889, 445, 161, 476, 288
-0.988924, 9, 69, 72, 100
-0.988935, 257, 209, 320, 240
-0.988939, 361, 121, 424, 152
-0.988947, 313, 249, 376, 280
-0.98896, 393, 61, 456, 92
-0.988966, 169, 89, 232, 120
-0.988981, 289, 113, 352, 144
-0.988986, 153, 1, 216, 333
-0.988989, 425, 17, 488, 48
-0.989006, 161, 249, 224, 280
-0.98901, 185, 265, 248, 296
-0.989012, 209, 261, 272, 292
-0.989027, 193, 225, 448, 288
-0.989034, 17, 21, 80, 52
-0.989037, 369, 45, 432, 76
-0.989039, 89, 81, 152, 112
-0.989067, 169, 293, 232, 324
-0.989085, 249, 241, 312, 272
-0.989087, 281, 85, 344, 116
-0.98909, 49, 81, 112, 112
-0.989094, 169, 105, 232, 136
-0.989095, 29, 65, 60, 192
-0.9891, 89, 253, 152, 284
-0.989121, 129, 261, 192, 292
-0.989121, 297, 101, 360, 132
-0.989155, 217, 105, 280, 136
-0.989167, 129, 161, 160, 288
-0.989173, 161, 261, 224, 292
-0.989181, 121, 229, 184, 260
-0.98919, 185, 281, 248, 312
-0.989192, 337, 117, 400, 148
-0.989197, 109, 1, 140, 128
-0.989209, 393, 9, 456, 40
-0.989214, 297, 213, 360, 244
-0.989215, 1, 17, 500, 80
-0.989225, 337, 217, 400, 248
-0.989225, 337, 61, 400, 92
-0.98926, 17, 293, 80, 324
-0.989287, 161, 265, 416, 328
-0.989294, 241, 97, 272, 224
-0.989297, 201, 21, 264, 52
-0.989305, 225, 49, 480, 112
-0.989307, 249, 109, 312, 140
-0.989314, 177, 13, 240, 44
-0.989322, 161, 281, 224, 312
-0.989338, 17, 85, 80, 116
-0.989339, 97, 237, 160, 268
-0.989363, 297, 13, 360, 44
-0.989368, 385, 105, 448, 136
-0.989381, 417, 41, 480, 72
-0.989394, 97, 221, 160, 252
-0.989408, 9, 9, 72, 40
-0.989411, 225, 169, 352, 232
-0.989412, 249, 257, 312, 288
-0.989414, 385, 89, 448, 120
-0.989415, 273, 225, 336, 256
-0.989424, 217, 93, 280, 124
-0.989445, 25, 189, 88, 220
-0.989446, 273, 245, 336, 276
-0.989458, 161, 221, 224, 252
-0.989471, 209, 281, 272, 312
-0.989479, 9, 249, 72, 280
-0.989497, 105, 265, 168, 296
-0.98951, 81, 293, 144, 324
-0.989559, 345, 201, 408, 232
-0.989577, 401, 77, 464, 108
-0.989582, 57, 93, 120, 124
-0.989591, 273, 17, 336, 48
-0.989596, 105, 97, 168, 128
-0.989601, 1, 217, 256, 280
-0.989637, 81, 113, 144, 144
-0.98964, 49, 189, 112, 220
-0.98964, 201, 293, 264, 324
-0.989645, 17, 109, 80, 140
-0.989649, 297, 225, 360, 256
-0.98966, 417, 29, 480, 60
-0.989663, 17, 225, 80, 256
-0.989664, 369, 21, 432, 52
-0.989666, 361, 249, 424, 280
-0.989697, 417, 117, 480, 148
-0.989701, 369, 33, 432, 64
-0.989711, 57, 249, 120, 280
-0.989718, 49, 261, 112, 292
-0.989724, 401, 189, 464, 220
-0.989725, 121, 249, 184, 280
-0.989731, 417, 297, 480, 328
-0.989745, 17, 273, 80, 304
-0.98975, 217, 217, 280, 248
-0.989759, 321, 17, 384, 48
-0.989769, 41, 201, 104, 232
-0.989804, 177, 117, 240, 148
-0.989817, 41, 273, 104, 304
-0.989818, 337, 297, 400, 328
-0.989819, 41, 225, 104, 256
-0.98983, 129, 293, 192, 324
-0.989833, 177, 137, 304, 200
-0.98985, 409, 253, 472, 284
-0.989851, 33, 65, 96, 96
-0.989882, 393, 301, 456, 332
-0.989895, 17, 97, 80, 128
-0.9899, 289, 289, 352, 320
-0.98991, 17, 125, 80, 156
-0.989911, 361, 89, 424, 120
-0.989917, 1, 185, 500, 248
-0.989919, 73, 217, 136, 248
-0.989926, 41, 301, 104, 332
-0.989944, 185, 245, 248, 276
-0.989951, 393, 49, 456, 80
-0.989952, 425, 65, 488, 96
-0.989962, 345, 29, 408, 60
-0.989966, 73, 237, 136, 268
-0.989967, 41, 285, 104, 316
-0.989969, 9, 145, 72, 176
-0.989972, 417, 105, 480, 136
-0.98998, 9, 49, 72, 80
-0.99025, 193, 201, 448, 264
-0.99054, 225, 105, 480, 168
-0.990644, 97, 233, 352, 296
-0.990709, 177, 161, 304, 224
-0.990739, 193, 17, 448, 80
-0.99107, 1, 89, 500, 152
-0.991075, 257, 73, 500, 136
-0.991125, 1, 209, 500, 272
-0.99126, 1, 241, 256, 304
-0.991282, 1, 41, 256, 104
-0.991322, 1, 57, 500, 120
-0.99151, 97, 25, 352, 88
-0.991533, 97, 105, 352, 168
-0.991664, 1, 121, 256, 184
-0.991722, 33, 193, 288, 256
-0.991792, 1, 241, 128, 272
-0.991813, 257, 265, 500, 328
-0.991916, 401, 53, 432, 84
-0.991939, 401, 65, 432, 96
-0.991955, 225, 229, 352, 260
-0.99202, 185, 13, 216, 44
-0.992028, 389, 69, 420, 100
-0.992063, 441, 17, 472, 48
-0.992095, 1, 1, 256, 64
-0.99214, 353, 89, 480, 120
-0.992151, 389, 213, 420, 244
-0.992172, 337, 217, 368, 248
-0.992201, 285, 205, 316, 236
-0.992218, 409, 49, 424, 112
-0.992221, 415, 49, 430, 112
-0.992222, 117, 221, 148, 252
-0.992224, 1, 137, 500, 200
-0.99223, 381, 57, 412, 88
-0.992233, 129, 229, 256, 260
-0.992241, 233, 221, 264, 252
-0.992245, 273, 85, 400, 116
-0.992254, 289, 241, 320, 272
-0.992263, 173, 81, 204, 112
-0.992267, 169, 221, 200, 252
-0.992276, 285, 17, 316, 48
-0.992276, 389, 17, 420, 48
-0.992276, 197, 293, 228, 324
-0.992277, 25, 5, 56, 36
-0.992278, 121, 81, 152, 112
-0.992292, 381, 29, 412, 60
-0.992297, 337, 17, 368, 48
-0.992303, 321, 229, 352, 260
-0.992305, 121, 93, 152, 124
-0.992309, 277, 85, 308, 116
-0.992317, 1, 237, 32, 268
-0.992338, 141, 85, 172, 116
-0.992341, 385, 125, 416, 156
-0.992347, 409, 229, 440, 260
-0.992353, 409, 25, 440, 56
-0.992355, 101, 261, 132, 292
-0.992356, 341, 237, 372, 268
-0.992357, 221, 225, 252, 256
-0.992359, 293, 81, 324, 112
-0.99236, 117, 253, 148, 284
-0.992366, 153, 89, 184, 120
-0.992373, 225, 81, 256, 112
-0.992374, 377, 77, 408, 108
-0.992376, 365, 73, 396, 104
-0.992379, 101, 225, 132, 256
-0.992379, 149, 261, 180, 292
-0.992383, 177, 81, 304, 112
-0.992383, 333, 293, 364, 324
-0.992384, 101, 89, 132, 120
-0.992391, 285, 101, 316, 132
-0.992392, 305, 241, 336, 272
-0.992395, 409, 81, 440, 112
-0.992409, 229, 17, 260, 48
-0.992412, 389, 81, 420, 112
-0.992417, 441, 217, 472, 248
-0.992421, 261, 89, 292, 120
-0.992423, 265, 17, 296, 48
-0.992424, 285, 225, 316, 256
-0.992428, 309, 85, 340, 116
-0.992432, 241, 81, 272, 112
-0.992432, 253, 13, 284, 44
-0.992433, 89, 249, 120, 280
-0.992439, 149, 233, 180, 264
-0.99244, 345, 77, 376, 108
-0.992442, 1, 221, 32, 252
-0.992453, 109, 73, 140, 104
-0.992453, 125, 209, 156, 240
-0.992454, 197, 273, 228, 304
-0.99246, 397, 121, 428, 152
-0.992462, 369, 57, 496, 88
-0.992464, 401, 41, 432, 72
-0.992465, 305, 217, 336, 248
-0.992467, 21, 217, 52, 248
-0.992471, 229, 209, 260, 240
-0.992474, 253, 233, 284, 264
-0.992476, 97, 57, 352, 120
-0.992477, 357, 97, 388, 128
-0.992478, 121, 69, 152, 100
-0.992481, 109, 101, 140, 132
-0.992481, 101, 249, 132, 280
-0.992481, 117, 237, 148, 268
-0.992482, 273, 205, 304, 236
-0.992483, 181, 293, 212, 324
-0.992486, 149, 249, 180, 280
-0.992489, 341, 249, 372, 280
-0.992491, 365, 85, 396, 116
-0.992498, 237, 105, 268, 136
-0.992499, 329, 121, 360, 152
-0.992501, 53, 69, 84, 100
-0.992504, 429, 13, 460, 44
-0.992509, 173, 97, 204, 128
-0.992511, 253, 245, 284, 276
-0.992513, 373, 105, 404, 136
-0.992513, 153, 101, 184, 132
-0.992514, 465, 125, 496, 156
-0.992515, 353, 245, 384, 276
-0.992524, 321, 249, 352, 280
-0.992526, 73, 77, 104, 108
-0.992533, 77, 185, 108, 216
-0.992534, 69, 217, 100, 248
-0.992535, 5, 201, 36, 232
-0.99254, 49, 81, 80, 112
-0.992543, 1, 249, 32, 280
-0.992546, 177, 277, 208, 308
-0.992547, 81, 249, 208, 280
-0.992548, 369, 73, 496, 104
-0.99255, 357, 125, 388, 156
-0.992553, 269, 241, 300, 272
-0.992553, 353, 261, 384, 292
-0.992553, 257, 105, 288, 136
-0.992559, 25, 201, 56, 232
-0.992563, 65, 249, 96, 280
-0.99257, 49, 205, 80, 236
-0.992572, 413, 121, 444, 152
-0.992573, 133, 265, 164, 296
-0.992575, 165, 253, 196, 284
-0.992577, 305, 261, 336, 292
-0.99258, 205, 89, 236, 120
-0.99258, 409, 293, 440, 324
-0.992583, 241, 93, 272, 124
-0.992588, 237, 269, 268, 300
-0.992589, 321, 217, 352, 248
-0.992599, 225, 93, 256, 124
-0.992599, 205, 117, 236, 148
-0.9926, 89, 85, 120, 116
-0.992601, 409, 5, 440, 36
-0.992603, 257, 177, 500, 240
-0.992609, 449, 73, 480, 104
-0.992611, 373, 117, 404, 148
-0.992613, 201, 233, 232, 264
-0.992617, 353, 225, 384, 256
-0.992618, 373, 221, 404, 252
-0.99262, 129, 221, 160, 252
-0.992622, 69, 205, 100, 236
-0.992624, 205, 245, 236, 276
-0.992626, 181, 221, 212, 252
-0.992626, 441, 205, 472, 236
-0.992626, 193, 261, 224, 292
-0.99263, 225, 293, 256, 324
-0.992634, 257, 261, 288, 292
-0.992634, 1, 265, 500, 328
-0.992635, 137, 249, 168, 280
-0.992638, 461, 21, 492, 52
-0.992644, 353, 109, 480, 140
-0.992697, 353, 229, 480, 260
-0.992783, 225, 97, 352, 128
-0.99281, 353, 17, 480, 48
-0.992892, 273, 245, 400, 276
-0.992933, 305, 21, 432, 52
-0.992939, 81, 89, 208, 120
-0.992941, 177, 217, 304, 248
-0.992955, 81, 237, 208, 268
-0.992979, 177, 93, 304, 124
-0.99299, 401, 33, 416, 96
-0.993048, 353, 289, 480, 320
-0.993057, 1, 253, 128, 284
-0.993058, 225, 257, 352, 288
-0.993098, 145, 109, 272, 140
-0.993101, 353, 121, 480, 152
-0.993105, 177, 237, 304, 268
-0.993119, 297, 201, 312, 264
-0.993119, 1, 129, 128, 160
-0.993162, 369, 29, 496, 60
-0.993165, 129, 249, 256, 280
-0.993216, 273, 221, 400, 252
-0.993235, 1, 89, 128, 120
-0.993241, 81, 261, 208, 292
-0.993285, 121, 217, 136, 280
-0.993292, 1, 217, 128, 248
-0.99335, 273, 101, 400, 132
-0.993402, 405, 73, 420, 136
-0.993417, 225, 289, 352, 320
-0.993424, 347, 9, 362, 72
-0.993496, 129, 85, 256, 116
-0.993503, 251, 73, 266, 136
-0.993519, 209, 201, 336, 232
-0.99352, 129, 217, 256, 248
-0.993521, 1, 241, 500, 304
-0.993531, 397, 9, 412, 72
-0.993544, 281, 73, 296, 136
-0.993554, 305, 113, 432, 144
-0.99356, 81, 225, 208, 256
-0.993565, 389, 25, 404, 88
-0.993577, 33, 73, 160, 104
-0.993585, 225, 245, 352, 276
-0.993598, 161, 21, 288, 52
-0.993599, 81, 17, 208, 48
-0.993601, 171, 217, 186, 280
-0.99362, 161, 289, 288, 320
-0.993629, 353, 49, 368, 112
-0.993636, 321, 73, 448, 104
-0.99364, 383, 57, 398, 120
-0.993642, 351, 225, 366, 288
-0.993656, 81, 77, 208, 108
-0.993675, 225, 109, 352, 140
-0.993687, 395, 65, 410, 128
-0.99369, 25, 1, 40, 64
-0.993742, 161, 269, 288, 300
-0.993781, 33, 13, 160, 44
-0.993793, 353, 217, 480, 248
-0.99384, 175, 73, 190, 136
-0.99385, 225, 17, 352, 48
-0.993869, 369, 45, 496, 76
-0.993886, 97, 105, 224, 136
-0.994067, 123, 57, 138, 120
-0.99408, 1, 265, 128, 296
-0.994083, 225, 225, 240, 288
-0.994086, 353, 205, 480, 236
-0.994098, 177, 249, 304, 280
-0.9941, 303, 73, 318, 136
-0.994124, 191, 1, 206, 64
-0.994136, 385, 1, 400, 64
-0.99416, 447, 193, 462, 256
-0.994181, 247, 225, 262, 288
-0.994204, 321, 61, 448, 92
-0.994207, 1, 25, 128, 56
-0.994212, 443, 9, 458, 72
-0.994232, 1, 289, 128, 320
-0.99424, 391, 105, 406, 168
-0.994248, 213, 265, 228, 328
-0.994255, 341, 9, 356, 72
-0.994259, 257, 137, 500, 200
-0.994272, 63, 65, 78, 128
-0.99428, 1, 277, 128, 308
-0.994307, 129, 201, 256, 232
-0.994316, 27, 193, 42, 256
-0.994318, 225, 269, 352, 300
-0.994322, 199, 73, 214, 136
-0.994322, 249, 257, 264, 320
-0.994327, 299, 9, 314, 72
-0.99434, 197, 233, 212, 296
-0.994347, 273, 273, 400, 304
-0.994377, 445, 1, 476, 256
-0.994389, 375, 89, 390, 152
-0.994391, 435, 9, 450, 72
-0.994392, 305, 289, 432, 320
-0.994396, 189, 217, 204, 280
-0.994419, 183, 273, 198, 333
-0.994446, 1, 205, 128, 236
-0.994451, 295, 81, 310, 144
-0.994467, 225, 85, 352, 116
-0.994485, 457, 249, 472, 312
-0.994494, 273, 233, 400, 264
-0.994501, 225, 213, 352, 244
-0.994507, 71, 209, 86, 272
-0.994525, 301, 257, 316, 320
-0.994526, 175, 273, 190, 333
-0.994539, 1, 117, 128, 148
-0.99454, 401, 97, 416, 160
-0.994572, 179, 233, 194, 296
-0.994575, 289, 185, 304, 248
-0.994587, 423, 225, 438, 288
-0.994588, 77, 185, 92, 248
-0.994595, 181, 9, 196, 72
-0.994598, 79, 1, 94, 64
-0.994598, 13, 249, 28, 312
-0.994599, 239, 249, 254, 312
-0.994601, 33, 61, 160, 92
-0.994607, 369, 269, 496, 300
-0.994614, 369, 253, 496, 284
-0.994614, 407, 25, 422, 88
-0.994623, 175, 105, 190, 168
-0.994629, 369, 89, 384, 152
-0.994631, 369, 133, 496, 164
-0.994645, 113, 89, 128, 152
-0.994645, 121, 105, 136, 168
-0.994693, 51, 225, 66, 288
-0.994694, 111, 233, 126, 296
-0.994696, 227, 73, 242, 136
-0.994696, 209, 29, 336, 60
-0.994722, 129, 1, 144, 64
-0.994725, 129, 73, 256, 104
-0.994735, 171, 249, 186, 312
-0.994735, 397, 193, 412, 256
-0.994735, 417, 81, 432, 144
-0.994738, 129, 121, 256, 152
-0.99474, 429, 1, 444, 64
-0.994743, 449, 9, 464, 72
-0.994766, 241, 273, 256, 333
-0.994769, 7, 241, 22, 304
-0.994791, 197, 9, 212, 72
-0.994793, 287, 81, 302, 144
-0.994801, 459, 25, 474, 88
-0.994817, 43, 105, 58, 168
-0.994822, 209, 121, 336, 152
-0.994822, 81, 273, 208, 304
-0.994824, 339, 273, 354, 333
-0.994825, 151, 81, 166, 144
-0.994842, 29, 169, 44, 232
-0.994842, 81, 117, 208, 148
-0.994857, 379, 25, 394, 88
-0.994859, 355, 73, 370, 136
-0.994859, 229, 193, 244, 256
-0.994859, 1, 145, 128, 176
-0.994866, 33, 229, 160, 260
-0.994867, 101, 89, 116, 152
-0.994868, 401, 217, 416, 280
-0.994882, 161, 177, 416, 240
-0.994894, 231, 9, 246, 72
-0.994896, 395, 33, 410, 96
-0.994899, 125, 193, 140, 256
-0.994904, 129, 9, 256, 40
-0.99491, 451, 217, 466, 280
-0.994925, 199, 97, 214, 160
-0.994947, 235, 217, 250, 280
-0.99495, 121, 249, 136, 312
-0.994956, 49, 101, 176, 132
-0.994962, 333, 1, 348, 64
-0.994963, 203, 249, 218, 312
-0.994972, 289, 125, 416, 156
-0.994975, 125, 33, 140, 96
-0.994975, 189, 257, 204, 320
-0.994976, 463, 129, 478, 192
-0.994982, 369, 241, 496, 272
-0.995012, 177, 189, 304, 220
-0.995012, 225, 301, 352, 332
-0.995019, 203, 17, 218, 80
-0.995028, 21, 217, 36, 280
-0.99503, 129, 61, 256, 92
-0.995031, 61, 265, 76, 328
-0.995032, 95, 89, 110, 152
-0.995046, 351, 249, 366, 312
-0.995048, 369, 301, 496, 332
-0.995055, 457, 273, 472, 333
-0.995077, 353, 193, 480, 224
-0.995079, 275, 193, 290, 256
-0.995088, 413, 265, 428, 328
-0.995106, 345, 225, 360, 288
-0.995106, 1, 301, 128, 332
-0.995108, 289, 9, 416, 40
-0.995112, 31, 1, 46, 64
-0.995119, 271, 217, 286, 280
-0.995124, 321, 277, 448, 308
-0.995126, 273, 201, 400, 232
-0.995129, 305, 301, 432, 332
-0.995157, 197, 273, 212, 333
-0.995158, 183, 81, 198, 144
-0.995162, 397, 1, 428, 256
-0.995176, 55, 89, 70, 152
-0.995179, 245, 9, 260, 72
-0.995191, 411, 233, 426, 296
-0.995205, 207, 273, 222, 333
-0.995206, 379, 1, 394, 64
-0.995225, 61, 225, 76, 288
-0.995228, 147, 225, 162, 288
-0.99523, 347, 33, 362, 96
-0.995234, 353, 177, 480, 208
-0.995235, 255, 273, 270, 333
-0.995256, 161, 301, 288, 332
-0.995261, 81, 29, 208, 60
-0.995261, 69, 65, 100, 320
-0.99528, 273, 9, 288, 72
-0.995281, 247, 33, 262, 96
-0.995287, 241, 73, 256, 136
-0.995288, 177, 9, 304, 40
-0.99529, 121, 273, 136, 333
-0.995305, 341, 33, 372, 288
-0.99531, 1, 169, 256, 232
-0.995313, 9, 273, 24, 333
-0.995316, 19, 241, 34, 304
-0.995329, 391, 1, 406, 64
-0.995333, 377, 65, 392, 128
-0.995334, 241, 217, 256, 280
-0.995339, 389, 65, 404, 128
-0.995349, 305, 105, 320, 168
-0.995359, 1, 37, 128, 68
-0.995375, 121, 81, 136, 144
-0.995391, 273, 261, 400, 292
-0.995396, 63, 97, 78, 160
-0.995405, 341, 201, 356, 264
-0.995406, 339, 81, 354, 144
-0.995432, 225, 185, 352, 216
-0.99545, 1, 101, 128, 132
-0.995489, 97, 1, 352, 64
-0.99552, 57, 33, 88, 288
-0.995569, 1, 189, 128, 220
-0.995582, 337, 5, 464, 36
-0.995644, 81, 197, 208, 228
-0.995677, 321, 241, 448, 272
-0.995678, 369, 1, 400, 256
-0.995702, 97, 285, 224, 316
-0.99576, 369, 145, 496, 176
-0.995807, 421, 1, 452, 256
-0.995814, 145, 33, 272, 64
-0.995829, 321, 253, 448, 284
-0.995846, 49, 293, 176, 324
-0.995857, 273, 189, 400, 220
-0.995873, 81, 129, 208, 160
-0.995922, 225, 73, 352, 104
-0.995925, 273, 73, 400, 104
-0.995929, 353, 65, 384, 320
-0.995957, 81, 65, 208, 96
-0.995972, 321, 265, 448, 296
-0.995976, 257, 29, 384, 60
-0.996029, 169, 65, 200, 320
-0.996037, 433, 1, 464, 256
-0.996069, 385, 1, 416, 256
-0.996116, 113, 301, 240, 332
-0.996134, 145, 45, 272, 76
-0.996136, 161, 129, 416, 192
-0.99614, 289, 65, 320, 320
-0.996192, 81, 5, 208, 36
-0.996197, 37, 1, 68, 256
-0.996231, 81, 53, 208, 84
-0.996292, 33, 49, 160, 80
-0.996304, 81, 213, 208, 244
-0.99632, 237, 65, 268, 320
-0.996394, 145, 133, 272, 164
-0.996403, 105, 1, 136, 256
-0.996409, 321, 33, 448, 64
-0.99646, 409, 1, 440, 256
-0.996461, 5, 33, 36, 288
-0.99649, 33, 1, 160, 32
-0.99651, 457, 33, 488, 288
-0.996519, 21, 1, 52, 256
-0.996537, 249, 65, 280, 320
-0.996547, 189, 65, 220, 320
-0.996581, 117, 65, 148, 320
-0.996592, 225, 33, 256, 288
-0.996623, 225, 137, 352, 200
-0.996627, 297, 205, 312, 236
-0.996641, 401, 17, 416, 48
-0.996665, 399, 65, 414, 96
-0.996677, 225, 5, 352, 36
-0.996678, 413, 53, 428, 84
-0.9967, 177, 65, 304, 96
-0.996721, 351, 217, 366, 248
-0.996751, 285, 85, 300, 116
-0.996801, 329, 33, 360, 288
-0.996828, 273, 65, 304, 320
-0.996848, 405, 81, 420, 112
-0.996852, 201, 17, 216, 48
-0.996865, 181, 17, 196, 48
-0.996891, 81, 65, 112, 320
-0.996898, 301, 101, 316, 132
-0.996916, 93, 1, 124, 256
-0.996923, 301, 65, 332, 320
-0.996927, 189, 9, 204, 40
-0.996974, 129, 65, 160, 320
-0.996978, 405, 41, 420, 72
-0.996986, 349, 17, 364, 48
-0.997021, 405, 29, 420, 60
-0.997061, 285, 101, 300, 132
-0.997072, 291, 97, 306, 128
-0.997073, 405, 57, 420, 88
-0.997095, 367, 97, 382, 128
-0.997109, 177, 73, 192, 104
-0.997113, 27, 193, 42, 224
-0.997115, 451, 217, 466, 248
-0.997118, 121, 217, 136, 248
-0.997121, 393, 69, 408, 100
-0.997124, 71, 217, 86, 248
-0.997127, 261, 1, 292, 256
-0.997133, 239, 217, 254, 248
-0.997135, 253, 81, 268, 112
-0.997147, 143, 81, 158, 112
-0.997153, 453, 17, 468, 48
-0.997163, 355, 73, 370, 104
-0.997164, 279, 81, 294, 112
-0.997168, 301, 17, 316, 48
-0.99717, 173, 289, 188, 320
-0.997176, 395, 17, 410, 48
-0.997176, 289, 205, 304, 236
-0.997187, 27, 5, 42, 36
-0.997199, 401, 117, 416, 148
-0.997206, 123, 113, 138, 144
-0.99721, 247, 17, 262, 48
-0.997238, 103, 89, 118, 120
-0.997248, 229, 17, 244, 48
-0.997251, 411, 125, 426, 156
-0.997251, 249, 221, 264, 252
-0.997275, 291, 85, 306, 116
-0.997285, 199, 81, 214, 112
-0.997286, 447, 193, 462, 224
-0.997292, 401, 217, 416, 248
-0.997296, 151, 93, 166, 124
-0.997301, 417, 65, 432, 96
-0.997302, 445, 205, 460, 236
-0.997306, 387, 69, 402, 100
-0.997306, 33, 145, 288, 208
-0.997314, 305, 81, 320, 112
-0.997329, 97, 93, 112, 124
-0.997331, 299, 237, 314, 268
-0.997333, 271, 13, 286, 44
-0.997337, 123, 73, 138, 104
-0.997352, 423, 73, 438, 104
-0.997353, 297, 85, 312, 116
-0.997363, 413, 81, 428, 112
-0.997367, 363, 113, 378, 144
-0.997367, 111, 253, 126, 284
-0.997373, 373, 97, 388, 128
-0.997374, 175, 85, 190, 116
-0.997382, 279, 97, 294, 128
-0.997388, 13, 229, 28, 260
-0.997394, 111, 233, 126, 264
-0.997399, 213, 269, 228, 300
-0.997405, 171, 217, 186, 248
-0.997409, 417, 121, 432, 152
-0.997413, 397, 205, 412, 236
-0.997415, 393, 81, 408, 112
-0.997416, 195, 13, 210, 44
-0.997417, 377, 77, 392, 108
-0.997418, 175, 113, 190, 144
-0.997421, 183, 81, 198, 112
-0.997422, 411, 233, 426, 264
-0.997425, 157, 33, 188, 288
-0.997431, 229, 213, 244, 244
-0.997432, 123, 205, 138, 236
-0.997433, 303, 113, 318, 144
-0.997444, 385, 81, 400, 112
-0.997451, 177, 101, 192, 132
-0.997465, 291, 193, 306, 224
-0.997465, 113, 93, 128, 124
-0.997468, 21, 213, 36, 244
-0.997468, 407, 69, 422, 100
-0.997469, 139, 101, 154, 132
-0.997471, 199, 105, 214, 136
-0.997489, 393, 105, 408, 136
-0.997489, 395, 53, 410, 84
-0.997492, 383, 57, 398, 88
-0.997497, 9, 261, 24, 292
-0.997501, 9, 289, 24, 320
-0.997503, 61, 61, 76, 92
-0.997511, 373, 109, 388, 140
-0.997515, 301, 249, 316, 280
-0.997518, 121, 257, 136, 288
-0.997519, 395, 29, 410, 60
-0.997526, 75, 205, 90, 236
-0.997542, 77, 185, 92, 216
-0.997551, 283, 21, 298, 52
-0.997552, 279, 117, 294, 148
-0.997558, 135, 81, 150, 112
-0.997565, 411, 261, 426, 292
-0.997566, 195, 293, 210, 324
-0.99757, 277, 197, 292, 228
-0.997571, 439, 17, 454, 48
-0.997573, 385, 9, 400, 40
-0.997584, 63, 77, 78, 108
-0.997585, 189, 217, 204, 248
-0.997591, 395, 193, 410, 224
-0.997595, 129, 93, 144, 124
-0.997595, 387, 97, 402, 128
-0.9976, 249, 265, 264, 296
-0.997602, 99, 109, 114, 140
-0.99762, 151, 81, 166, 112
-0.99762, 343, 13, 358, 44
-0.997623, 347, 205, 362, 236
-0.99763, 121, 229, 136, 260
-0.997632, 241, 205, 256, 236
-0.997633, 299, 217, 314, 248
-0.997642, 221, 249, 236, 280
-0.997644, 201, 93, 216, 124
-0.997646, 225, 225, 240, 256
-0.997647, 61, 249, 76, 280
-0.997659, 181, 301, 196, 332
-0.997662, 5, 241, 20, 272
-0.997666, 151, 105, 166, 136
-0.997674, 379, 209, 394, 240
-0.997674, 351, 249, 366, 280
-0.997676, 97, 153, 224, 216
-0.997681, 203, 29, 218, 60
-0.997681, 61, 261, 76, 292
-0.997683, 205, 33, 236, 288
-0.997941, 469, 1, 500, 256
-0.997972, 1, 161, 500, 224
-0.998343, 169, 21, 232, 36
-0.99836, 169, 259, 232, 274
-0.998372, 305, 21, 368, 36
-0.998373, 377, 71, 440, 86
-0.998376, 257, 21, 320, 36
-0.998385, 209, 253, 272, 268
-0.998386, 209, 239, 272, 254
-0.998389, 209, 261, 272, 276
-0.998389, 369, 65, 432, 80
-0.998393, 377, 21, 440, 36
-0.998395, 225, 21, 288, 36
-0.998397, 257, 89, 320, 104
-0.998398, 9, 81, 72, 96
-0.998401, 145, 105, 208, 120
-0.998401, 409, 239, 472, 254
-0.998403, 217, 89, 280, 104
-0.998405, 209, 225, 272, 240
-0.998407, 353, 23, 416, 38
-0.99841, 361, 237, 424, 252
-0.99841, 153, 85, 216, 100
-0.99841, 201, 23, 264, 38
-0.99841, 377, 85, 440, 100
-0.998411, 281, 89, 344, 104
-0.998412, 353, 83, 416, 98
-0.998413, 353, 53, 416, 68
-0.998413, 273, 111, 336, 126
-0.998414, 369, 59, 432, 74
-0.998415, 265, 99, 328, 114
-0.998416, 297, 215, 360, 230
-0.998417, 249, 251, 312, 266
-0.998418, 257, 211, 320, 226
-0.998418, 337, 73, 400, 88
-0.99842, 161, 239, 224, 254
-0.998422, 153, 93, 216, 108
-0.998422, 17, 223, 80, 238
-0.998424, 377, 79, 440, 94
-0.998425, 393, 27, 456, 42
-0.998427, 393, 217, 456, 232
-0.998427, 73, 267, 136, 282
-0.998428, 17, 91, 80, 106
-0.998428, 161, 299, 224, 314
-0.998429, 145, 111, 208, 126
-0.998429, 257, 223, 320, 238
-0.998429, 265, 105, 328, 120
-0.998429, 249, 245, 312, 260
-0.998432, 161, 293, 224, 308
-0.998432, 403, 1, 418, 128
-0.998433, 353, 217, 416, 232
-0.998434, 129, 91, 192, 106
-0.998434, 185, 253, 248, 268
-0.998435, 185, 89, 248, 104
-0.998435, 113, 85, 176, 100
-0.998436, 209, 231, 272, 246
-0.998438, 209, 247, 272, 262
-0.998438, 385, 131, 448, 146
-0.998439, 97, 91, 160, 106
-0.998441, 9, 69, 72, 84
-0.998441, 353, 123, 416, 138
-0.998442, 217, 111, 280, 126
-0.998442, 313, 241, 376, 256
-0.998445, 401, 81, 464, 96
-0.998446, 249, 239, 312, 254
-0.998446, 313, 251, 376, 266
-0.998447, 249, 113, 312, 128
-0.998449, 417, 19, 480, 34
-0.99845, 169, 265, 232, 280
-0.99845, 97, 259, 160, 274
-0.998452, 121, 107, 184, 122
-0.998453, 313, 235, 376, 250
-0.998454, 49, 85, 112, 100
-0.998455, 393, 61, 456, 76
-0.998456, 281, 249, 344, 264
-0.998457, 145, 257, 208, 272
-0.998457, 281, 23, 344, 38
-0.998457, 17, 215, 80, 230
-0.998459, 297, 95, 360, 110
-0.998459, 329, 23, 392, 38
-0.99846, 361, 227, 424, 242
-0.99846, 169, 107, 232, 122
-0.99846, 249, 231, 312, 246
-0.99846, 17, 199, 80, 214
-0.998461, 329, 89, 392, 104
-0.998461, 345, 29, 408, 44
-0.998461, 57, 93, 120, 108
-0.998461, 353, 17, 416, 32
-0.998462, 409, 33, 424, 160
-0.998462, 409, 233, 472, 248
-0.998463, 121, 261, 184, 276
-0.998464, 41, 199, 104, 214
-0.998464, 209, 295, 272, 310
-0.998465, 353, 243, 416, 258
-0.998466, 361, 251, 424, 266
-0.998466, 305, 87, 368, 102
-0.998466, 401, 199, 464, 214
-0.998468, 89, 85, 152, 100
-0.998469, 385, 91, 448, 106
-0.99847, 209, 267, 272, 282
-0.998471, 249, 259, 312, 274
-0.998471, 89, 253, 152, 268
-0.998472, 289, 229, 352, 244
-0.998473, 9, 75, 72, 90
-0.998473, 377, 245, 440, 260
-0.998474, 217, 97, 280, 112
-0.998474, 97, 239, 160, 254
-0.998475, 81, 299, 144, 314
-0.998476, 385, 53, 448, 68
-0.998477, 329, 221, 392, 236
-0.998477, 33, 67, 96, 82
-0.998478, 241, 29, 304, 44
-0.99848, 433, 219, 496, 234
-0.99848, 161, 245, 224, 260
-0.99848, 185, 293, 248, 308
-0.99848, 41, 209, 104, 224
-0.998481, 9, 11, 72, 26
-0.998482, 177, 123, 240, 138
-0.998482, 417, 251, 480, 266
-0.998482, 145, 99, 208, 114
-0.998485, 281, 117, 344, 132
-0.998485, 217, 105, 280, 120
-0.998486, 17, 113, 80, 128
-0.998487, 321, 101, 384, 116
-0.998487, 273, 217, 336, 232
-0.998487, 345, 211, 408, 226
-0.998488, 297, 209, 360, 224
-0.998488, 177, 95, 240, 110
-0.998488, 297, 221, 360, 236
-0.998489, 121, 269, 184, 284
-0.99849, 25, 189, 88, 204
-0.99849, 49, 269, 112, 284
-0.99849, 273, 261, 336, 276
-0.998491, 17, 23, 80, 38
-0.998491, 129, 123, 192, 138
-0.99853, 351, 209, 366, 333
-0.998531, 337, 227, 368, 242
-0.998531, 385, 55, 416, 70
-0.998532, 37, 69, 68, 84
-0.998532, 185, 97, 216, 112
-0.998533, 205, 249, 236, 264
-0.998534, 413, 255, 444, 270
-0.998534, 221, 231, 252, 246
-0.998534, 389, 1, 404, 128
-0.998535, 185, 265, 216, 280
-0.998536, 153, 85, 184, 100
-0.998536, 165, 265, 196, 280
-0.998536, 465, 133, 496, 148
-0.998537, 277, 101, 308, 116
-0.998537, 121, 69, 152, 84
-0.998537, 61, 79, 92, 94
-0.998537, 357, 261, 388, 276
-0.998537, 161, 101, 192, 116
-0.998537, 129, 269, 160, 284
-0.998538, 145, 259, 176, 274
-0.998538, 441, 19, 472, 34
-0.998539, 129, 87, 160, 102
-0.99854, 409, 81, 440, 96
-0.99854, 397, 75, 428, 90
-0.998541, 289, 101, 320, 116
-0.998541, 305, 235, 336, 250
-0.998542, 357, 235, 388, 250
-0.998543, 241, 83, 272, 98
-0.998544, 117, 77, 148, 92
-0.998544, 49, 67, 80, 82
-0.998545, 169, 221, 200, 236
-0.998545, 123, 49, 138, 176
-0.998545, 409, 25, 440, 40
-0.998545, 101, 105, 132, 120
-0.998546, 273, 203, 304, 218
-0.998546, 237, 263, 268, 278
-0.998546, 189, 107, 220, 122
-0.998546, 237, 93, 268, 108
-0.998546, 269, 255, 300, 270
-0.998548, 189, 19, 220, 34
-0.998548, 389, 223, 420, 238
-0.998548, 221, 225, 252, 240
-0.998548, 105, 253, 136, 268
-0.998549, 405, 131, 436, 146
-0.99855, 5, 203, 36, 218
-0.99855, 149, 97, 180, 112
-0.99855, 201, 295, 232, 310
-0.998551, 337, 21, 368, 36
-0.998552, 85, 255, 116, 270
-0.998553, 409, 229, 440, 244
-0.998553, 49, 121, 80, 136
-0.998553, 365, 89, 396, 104
-0.998554, 409, 125, 440, 140
-0.998554, 201, 89, 232, 104
-0.998554, 25, 9, 56, 24
-0.998555, 225, 219, 256, 234
-0.998555, 89, 115, 120, 130
-0.998556, 253, 261, 284, 276
-0.998556, 149, 233, 180, 248
-0.998559, 441, 217, 472, 232
-0.998559, 123, 193, 138, 320
-0.998562, 305, 261, 336, 276
-0.998563, 289, 111, 320, 126
-0.998563, 385, 77, 416, 92
-0.998564, 21, 217, 52, 232
-0.998564, 117, 225, 148, 240
-0.998565, 117, 231, 148, 246
-0.998566, 289, 205, 320, 220
-0.998566, 205, 23, 236, 38
-0.998567, 385, 33, 416, 48
-0.998567, 97, 261, 128, 276
-0.998567, 381, 125, 412, 140
-0.998567, 97, 233, 128, 248
-0.998568, 257, 101, 288, 116
-0.998568, 403, 49, 418, 176
-0.998568, 233, 225, 264, 240
-0.998568, 361, 121, 392, 136
-0.998569, 397, 33, 412, 160
-0.998569, 277, 245, 308, 260
-0.998571, 281, 89, 312, 104
-0.998571, 253, 229, 284, 244
-0.998571, 321, 231, 352, 246
-0.998572, 289, 245, 320, 260
-0.998572, 229, 21, 260, 36
-0.998572, 253, 243, 284, 258
-0.998573, 1, 233, 32, 248
-0.998573, 173, 85, 204, 100
-0.998573, 117, 85, 148, 100
-0.998573, 173, 95, 204, 110
-0.998573, 49, 75, 80, 90
-0.998573, 101, 89, 132, 104
-0.998575, 381, 83, 412, 98
-0.998575, 409, 87, 440, 102
-0.998577, 117, 255, 148, 270
-0.998577, 305, 247, 336, 262
-0.998578, 285, 215, 316, 230
-0.998579, 321, 253, 352, 268
-0.99858, 389, 61, 420, 76
-0.998581, 341, 253, 372, 268
-0.998581, 409, 75, 440, 90
-0.998581, 141, 91, 172, 106
-0.998585, 257, 87, 288, 102
-0.998585, 157, 257, 188, 272
-0.998586, 277, 209, 308, 224
-0.998588, 149, 265, 180, 280
-0.998589, 401, 51, 432, 66
-0.998589, 197, 261, 228, 276
-0.99859, 37, 75, 68, 90
-0.99859, 401, 63, 432, 78
-0.998591, 1, 245, 32, 260
-0.998597, 329, 123, 360, 138
-0.998597, 377, 117, 408, 132
-0.998598, 393, 87, 424, 102
-0.998601, 169, 259, 200, 274
-0.998602, 173, 101, 204, 116
-0.998602, 397, 123, 428, 138
-0.998602, 49, 85, 80, 100
-0.998602, 173, 109, 204, 124
-0.998604, 257, 17, 288, 32
-0.998605, 277, 107, 308, 122
-0.998607, 185, 255, 216, 270
-0.998607, 237, 257, 268, 272
-0.998607, 385, 217, 416, 232
-0.998608, 433, 211, 464, 226
-0.99861, 397, 81, 412, 208
-0.998611, 305, 223, 336, 238
-0.998613, 253, 25, 284, 40
-0.998615, 217, 255, 248, 270
-0.998624, 365, 65, 380, 192
-0.998624, 405, 69, 436, 84
-0.998628, 289, 251, 320, 266
-0.99863, 177, 21, 208, 36
-0.998639, 153, 91, 184, 106
-0.998645, 371, 65, 386, 192
-0.998645, 385, 71, 416, 86
-0.998647, 377, 65, 408, 80
-0.998652, 55, 1, 70, 128
-0.998654, 169, 209, 184, 333
-0.998662, 1, 239, 32, 254
-0.998673, 401, 57, 432, 72
-0.998676, 95, 81, 110, 208
-0.998682, 351, 33, 366, 160
-0.998687, 397, 81, 428, 96
-0.9987, 379, 33, 394, 160
-0.9987, 63, 65, 78, 192
-0.998714, 25, 1, 40, 128
-0.998715, 301, 209, 316, 333
-0.99872, 45, 1, 60, 128
-0.998725, 421, 1, 436, 128
-0.998727, 19, 209, 34, 333
-0.998729, 391, 65, 406, 192
-0.998743, 359, 65, 374, 192
-0.998746, 19, 33, 34, 160
-0.998753, 457, 1, 472, 128
-0.998755, 117, 49, 132, 176
-0.998757, 377, 81, 392, 208
-0.998768, 71, 209, 86, 333
-0.998772, 177, 49, 192, 176
-0.998772, 129, 209, 144, 333
-0.998772, 273, 193, 288, 320
-0.998781, 249, 209, 264, 333
-0.998791, 73, 33, 88, 160
-0.998794, 129, 49, 144, 176
-0.998808, 143, 209, 158, 333
-0.998809, 83, 1, 98, 128
-0.998809, 251, 49, 266, 176
-0.998816, 303, 49, 318, 176
-0.998818, 291, 193, 306, 320
-0.998818, 415, 49, 430, 176
-0.998829, 93, 209, 108, 333
-0.998833, 103, 81, 118, 208
-0.998838, 443, 1, 458, 128
-0.99885, 11, 81, 26, 208
-0.99885, 471, 65, 486, 192
-0.998856, 61, 1, 76, 128
-0.998858, 51, 65, 66, 192
-0.99886, 445, 177, 460, 304
-0.998863, 395, 129, 410, 256
-0.998864, 183, 33, 198, 160
-0.998865, 77, 129, 92, 256
-0.998872, 295, 33, 310, 160
-0.998872, 395, 177, 410, 304
-0.998874, 339, 81, 354, 208
-0.998875, 281, 49, 296, 176
-0.998875, 87, 65, 102, 192
-0.998882, 317, 1, 348, 256
-0.998888, 229, 33, 244, 160
-0.998901, 175, 209, 190, 333
-0.998901, 381, 129, 396, 256
-0.998901, 85, 113, 100, 240
-0.998907, 141, 65, 172, 320
-0.998911, 77, 177, 92, 304
-0.998913, 345, 81, 360, 208
-0.998916, 343, 1, 358, 128
-0.998922, 447, 129, 462, 256
-0.998922, 99, 193, 114, 320
-0.998928, 401, 209, 416, 333
-0.998933, 403, 129, 418, 256
-0.998938, 333, 81, 348, 208
-0.998939, 85, 209, 100, 333
-0.998945, 225, 209, 240, 333
-0.998946, 439, 129, 454, 256
-0.998947, 199, 33, 214, 160
-0.998952, 385, 49, 400, 176
-0.998953, 67, 129, 82, 256
-0.998956, 449, 1, 464, 128
-0.998957, 463, 49, 478, 176
-0.998973, 57, 65, 72, 192
-0.998977, 297, 81, 312, 208
-0.998979, 117, 209, 132, 333
-0.99898, 7, 209, 22, 333
-0.99898, 451, 193, 466, 320
-0.998981, 345, 177, 360, 304
-0.998985, 435, 1, 450, 128
-0.998988, 79, 49, 94, 176
-0.99899, 247, 1, 262, 128
-0.998994, 37, 1, 52, 128
-0.999002, 389, 113, 404, 240
-0.999004, 371, 113, 386, 240
-0.999004, 327, 209, 342, 333
-0.999008, 377, 209, 392, 333
-0.999009, 303, 1, 318, 128
-0.999016, 27, 145, 42, 272
-0.999019, 415, 1, 430, 128
-0.99902, 111, 193, 126, 320
-0.999021, 463, 97, 478, 224
-0.999024, 411, 193, 426, 320
-0.999025, 285, 1, 300, 128
-0.999026, 91, 129, 106, 256
-0.999027, 387, 161, 402, 288
-0.999032, 47, 145, 62, 272
-0.999033, 119, 97, 134, 224
-0.999038, 149, 209, 164, 333
-0.99905, 287, 81, 302, 208
-0.999051, 25, 193, 40, 320
-0.999052, 197, 209, 212, 333
-0.999057, 429, 1, 444, 128
-0.999058, 181, 193, 196, 320
-0.99906, 111, 33, 126, 160
-0.999067, 35, 129, 50, 256
-0.999072, 191, 1, 206, 128
-0.999082, 31, 1, 46, 128
-0.999083, 205, 1, 220, 128
-0.999084, 15, 145, 30, 272
-0.999085, 353, 81, 368, 208
-0.999089, 135, 209, 150, 333
-0.999091, 109, 81, 124, 208
-0.999092, 57, 145, 72, 272
-0.999097, 439, 177, 454, 304
-0.999104, 21, 81, 36, 208
-0.999105, 253, 1, 268, 128
-0.999108, 59, 193, 74, 320
-0.999113, 431, 177, 446, 304
-0.999117, 105, 17, 120, 144
-0.999119, 281, 113, 296, 240
-0.99913, 85, 161, 100, 288
-0.999132, 45, 97, 60, 224
-0.999133, 409, 81, 424, 208
-0.999135, 97, 129, 112, 256
-0.999137, 227, 81, 242, 208
-0.999681, 55, 89, 70, 104
-0.999682, 397, 53, 412, 68
-0.999682, 83, 9, 98, 24
-0.999682, 365, 113, 380, 128
-0.999683, 389, 65, 404, 80
-0.999683, 301, 89, 316, 104
-0.999683, 297, 99, 312, 114
-0.999683, 225, 231, 240, 246
-0.999684, 421, 79, 436, 94
-0.999684, 355, 81, 370, 96
-0.999686, 411, 255, 426, 270
-0.999686, 279, 125, 294, 140
-0.999686, 113, 103, 128, 118
-0.999687, 197, 295, 212, 310
-0.999687, 285, 89, 300, 104
-0.999688, 191, 221, 206, 236
-0.999688, 229, 215, 244, 230
-0.999688, 251, 93, 266, 108
-0.999688, 205, 81, 220, 96
-0.999688, 381, 93, 396, 108
-0.999688, 151, 99, 166, 114
-0.99969, 301, 239, 316, 254
-0.99969, 351, 21, 366, 36
-0.999691, 419, 121, 434, 136
-0.999691, 171, 223, 186, 238
-0.999691, 123, 67, 138, 82
-0.999692, 171, 263, 186, 278
-0.999692, 325, 229, 340, 244
-0.999693, 383, 71, 398, 86
-0.999694, 175, 121, 190, 136
-0.999694, 301, 245, 316, 260
-0.999694, 143, 85, 158, 100
-0.999694, 241, 285, 256, 300
-0.999694, 251, 77, 266, 92
-0.999695, 409, 131, 424, 146
-0.999695, 103, 255, 118, 270
-0.999696, 347, 213, 362, 228
-0.999696, 119, 229, 134, 244
-0.999696, 455, 19, 470, 34
-0.999696, 277, 201, 292, 216
-0.999697, 113, 89, 128, 104
-0.999697, 361, 261, 376, 276
-0.999698, 289, 213, 304, 228
-0.999699, 311, 259, 326, 274
-0.999699, 247, 21, 262, 36
-0.9997, 387, 95, 402, 110
-0.9997, 383, 79, 398, 94
-0.9997, 199, 81, 214, 96
-0.999701, 403, 125, 418, 140
-0.999701, 143, 91, 158, 106
-0.999701, 367, 121, 382, 136
-0.999701, 421, 249, 436, 264
-0.999702, 161, 257, 176, 272
-0.999702, 241, 259, 256, 274
-0.999703, 391, 77, 406, 92
-0.999703, 305, 119, 320, 134
-0.999704, 111, 255, 126, 270
-0.999704, 119, 251, 134, 266
-0.999704, 175, 81, 190, 96
-0.999706, 291, 99, 306, 114
-0.999706, 139, 103, 154, 118
-0.999706, 447, 215, 462, 230
-0.999707, 99, 111, 114, 126
-0.999707, 301, 21, 316, 36
-0.999708, 305, 97, 320, 112
-0.999708, 411, 261, 426, 276
-0.999708, 125, 209, 140, 224
-0.999709, 63, 65, 78, 80
-0.999709, 389, 119, 404, 134
-0.999709, 199, 95, 214, 110
-0.999711, 27, 193, 42, 208
-0.999711, 151, 93, 166, 108
-0.999711, 231, 221, 246, 236
-0.999711, 399, 63, 414, 78
-0.999711, 403, 131, 418, 146
-0.999712, 185, 257, 200, 272
-0.999712, 337, 123, 352, 138
-0.999713, 403, 33, 418, 48
-0.999713, 305, 81, 320, 96
-0.999714, 175, 87, 190, 102
-0.999714, 169, 253, 184, 268
-0.999715, 295, 201, 310, 216
-0.999719, 191, 97, 206, 112
-0.99972, 45, 219, 60, 234
-0.999721, 229, 21, 244, 36
-0.999721, 375, 117, 390, 132
-0.999722, 253, 85, 268, 100
-0.999723, 395, 87, 410, 102
-0.999724, 13, 237, 28, 252
-0.999726, 191, 13, 206, 28
-0.999726, 201, 19, 216, 34
-0.999728, 405, 49, 420, 64
-0.999728, 409, 83, 424, 98
-0.999728, 397, 115, 412, 130
-0.999728, 273, 15, 288, 30
-0.999731, 175, 99, 190, 114
-0.999732, 113, 111, 128, 126
-0.999733, 119, 223, 134, 238
-0.999737, 151, 85, 166, 100
-0.999738, 209, 261, 224, 276
-0.999739, 279, 95, 294, 110
-0.999739, 179, 21, 194, 36
-0.999739, 251, 255, 266, 270
-0.999742, 267, 19, 282, 34
-0.999743, 257, 23, 272, 38
-0.999744, 351, 227, 366, 242
-0.999744, 405, 89, 420, 104
-0.999749, 371, 111, 386, 126
-0.99975, 301, 105, 316, 120
-0.999751, 249, 229, 264, 244
-0.999751, 305, 125, 320, 140
-0.999751, 111, 261, 126, 276
-0.999752, 285, 99, 300, 114
-0.999758, 405, 59, 420, 74
-0.999759, 25, 9, 40, 24
-0.999764, 395, 211, 410, 226
-0.999765, 415, 85, 430, 100
-0.999765, 383, 65, 398, 80
-0.999766, 409, 125, 424, 140
-0.999767, 171, 291, 186, 306
-0.999768, 299, 207, 314, 222
-0.999769, 389, 71, 404, 86
-0.999771, 241, 219, 256, 234
-0.999783, 415, 55, 430, 70
-0.999784, 403, 79, 418, 94
-0.999794, 399, 69, 414, 84
-0.999795, 351, 221, 366, 236
-0.999804, 63, 85, 78, 100
-0.999813, 299, 213, 314, 228
-0.999838, 289, 205, 304, 220
-0.99992, 161, 153, 416, 216
