1960
-0.0763363, 1, 1, 500, 375
-0.249887, 33, 1, 288, 375
-0.292928, 1, 65, 500, 320
-0.299724, 161, 1, 416, 375
-0.426474, 257, 1, 500, 375
-0.515511, 161, 33, 416, 288
-0.5517, 65, 1, 320, 256
-0.565087, 1, 97, 256, 352
-0.670324, 225, 129, 480, 375
-0.682175, 257, 33, 500, 288
-0.692151, 97, 129, 352, 375
-0.82058, 129, 1, 256, 375
-0.822591, 81, 1, 208, 375
-0.823083, 369, 1, 496, 375
-0.828094, 241, 1, 368, 375
-0.828333, 97, 1, 224, 256
-0.834642, 33, 1, 160, 375
-0.840993, 193, 1, 320, 375
-0.841126, 33, 33, 160, 288
-0.843477, 209, 33, 336, 288
-0.846432, 129, 97, 256, 352
-0.855709, 17, 129, 144, 375
-0.865474, 1, 145, 500, 272
-0.865527, 321, 1, 448, 375
-0.866097, 369, 1, 496, 256
-0.866847, 305, 65, 432, 320
-0.869017, 369, 129, 496, 375
-0.872352, 257, 129, 384, 375
-0.875103, 1, 65, 500, 192
-0.876684, 65, 129, 192, 375
-0.880804, 257, 33, 384, 288
-0.884925, 1, 225, 500, 352
-0.88994, 145, 1, 272, 256
-0.897007, 1, 33, 256, 160
-0.897378, 1, 129, 256, 256
-0.900854, 1, 17, 500, 144
-0.902456, 161, 49, 416, 176
-0.906584, 257, 241, 500, 368
-0.906936, 65, 193, 320, 320
-0.912771, 225, 177, 480, 304
-0.917381, 161, 225, 416, 352
-0.919743, 257, 33, 500, 160
-0.923231, 161, 113, 416, 240
-0.924258, 49, 145, 176, 272
-0.925815, 97, 129, 224, 256
-0.927922, 193, 49, 320, 176
-0.930845, 105, 129, 168, 256
-0.931201, 177, 129, 304, 375
-0.932009, 25, 17, 88, 144
-0.93218, 65, 241, 320, 368
-0.932578, 369, 225, 496, 352
-0.933406, 257, 81, 500, 208
-0.935954, 321, 241, 448, 368
-0.936758, 241, 49, 368, 176
-0.936986, 1, 193, 128, 320
-0.937531, 81, 129, 144, 256
-0.937997, 321, 65, 448, 192
-0.939003, 161, 113, 224, 240
-0.9392, 17, 33, 144, 160
-0.939896, 97, 193, 160, 320
-0.939957, 369, 225, 432, 352
-0.940199, 201, 49, 264, 176
-0.940321, 289, 49, 352, 176
-0.940833, 257, 225, 384, 352
-0.940934, 145, 177, 272, 304
-0.941953, 345, 177, 408, 304
-0.941971, 369, 161, 496, 288
-0.942015, 97, 17, 224, 144
-0.944537, 369, 33, 496, 160
-0.946019, 161, 33, 224, 160
-0.946789, 265, 33, 328, 160
-0.946985, 129, 129, 192, 256
-0.947064, 233, 49, 296, 176
-0.947547, 145, 113, 272, 240
-0.947782, 161, 145, 224, 208
-0.948, 321, 225, 384, 352
-0.948931, 321, 161, 448, 288
-0.949578, 17, 97, 144, 224
-0.950372, 41, 113, 104, 240
-0.950509, 145, 33, 272, 160
-0.950611, 33, 81, 288, 208
-0.950764, 401, 33, 464, 160
-0.950977, 433, 17, 496, 144
-0.951443, 81, 193, 208, 320
-0.951614, 17, 241, 144, 368
-0.951844, 25, 177, 88, 304
-0.952175, 193, 97, 320, 224
-0.952318, 345, 241, 408, 368
-0.952705, 81, 241, 208, 368
-0.95271, 201, 97, 264, 224
-0.953491, 289, 17, 416, 144
-0.95365, 409, 177, 472, 304
-0.953927, 161, 1, 416, 128
-0.954051, 241, 177, 368, 304
-0.954056, 209, 241, 336, 368
-0.954126, 257, 129, 500, 256
-0.954172, 201, 177, 264, 304
-0.954781, 145, 177, 208, 304
-0.954795, 321, 113, 448, 240
-0.954809, 161, 225, 288, 352
-0.954862, 17, 25, 80, 88
-0.954912, 369, 177, 432, 304
-0.954973, 57, 161, 120, 288
-0.955042, 337, 81, 400, 208
-0.955082, 121, 241, 184, 368
-0.955091, 105, 145, 168, 208
-0.955669, 369, 225, 432, 288
-0.955768, 337, 233, 400, 296
-0.956465, 49, 33, 112, 160
-0.956573, 273, 97, 400, 224
-0.956706, 225, 225, 288, 352
-0.956787, 81, 33, 144, 160
-0.956879, 169, 169, 232, 232
-0.956948, 97, 81, 224, 208
-0.957228, 313, 81, 376, 208
-0.957231, 97, 233, 160, 296
-0.95807, 1, 145, 128, 272
-0.958096, 145, 169, 208, 232
-0.958265, 345, 201, 408, 264
-0.958514, 97, 193, 160, 256
-0.958848, 217, 57, 280, 120
-0.959003, 41, 177, 104, 240
-0.959155, 337, 129, 400, 256
-0.959748, 305, 145, 368, 272
-0.960156, 289, 49, 352, 112
-0.96038, 409, 225, 472, 352
-0.960699, 369, 201, 432, 264
-0.960974, 161, 121, 224, 184
-0.96132, 433, 209, 496, 336
-0.961889, 113, 81, 176, 208
-0.962149, 25, 1, 88, 256
-0.96222, 177, 161, 240, 288
-0.962248, 409, 185, 472, 248
-0.962329, 201, 33, 264, 288
-0.962623, 337, 97, 400, 160
-0.962694, 1, 209, 64, 336
-0.962792, 369, 113, 496, 240
-0.962934, 17, 81, 80, 208
-0.963181, 137, 145, 200, 208
-0.963503, 145, 1, 208, 256
-0.9637, 113, 129, 144, 256
-0.963779, 393, 49, 456, 112
-0.963823, 113, 1, 176, 256
-0.964035, 361, 49, 424, 176
-0.964096, 105, 17, 168, 144
-0.964117, 73, 81, 136, 208
-0.96417, 313, 33, 376, 160
-0.964239, 113, 129, 176, 375
-0.964329, 265, 57, 328, 120
-0.964715, 73, 161, 136, 224
-0.965203, 241, 1, 368, 128
-0.965524, 137, 33, 200, 160
-0.96559, 369, 249, 432, 312
-0.96591, 185, 193, 248, 256
-0.965993, 289, 1, 352, 128
-0.96629, 137, 313, 200, 375
-0.966291, 337, 177, 400, 240
-0.966327, 81, 33, 144, 288
-0.966344, 193, 121, 256, 184
-0.966429, 121, 193, 184, 320
-0.966477, 289, 25, 352, 88
-0.966493, 17, 49, 80, 112
-0.966626, 113, 257, 176, 320
-0.966715, 409, 209, 472, 272
-0.966908, 185, 137, 216, 200
-0.967287, 369, 177, 432, 240
-0.967304, 409, 233, 472, 296
-0.967671, 137, 289, 200, 352
-0.967751, 401, 129, 464, 256
-0.967935, 353, 305, 416, 368
-0.968077, 369, 273, 432, 336
-0.968108, 433, 1, 496, 256
-0.968117, 425, 25, 488, 88
-0.968178, 433, 217, 496, 280
-0.968182, 265, 33, 328, 96
-0.968253, 89, 41, 152, 104
-0.968437, 97, 169, 160, 232
-0.968472, 409, 161, 472, 224
-0.968493, 313, 57, 376, 120
-0.968605, 369, 129, 432, 256
-0.968669, 97, 145, 224, 208
-0.968698, 209, 57, 336, 120
-0.968825, 433, 185, 496, 248
-0.968894, 73, 209, 136, 336
-0.969002, 177, 33, 240, 288
-0.969051, 1, 17, 64, 144
-0.969159, 225, 225, 288, 288
-0.969228, 433, 161, 496, 288
-0.969242, 177, 41, 240, 104
-0.969375, 121, 193, 184, 256
-0.969452, 161, 145, 192, 208
-0.969643, 201, 313, 264, 375
-0.969724, 41, 57, 104, 120
-0.96982, 49, 33, 112, 288
-0.970224, 137, 129, 168, 256
-0.970398, 177, 313, 240, 375
-0.970404, 241, 145, 304, 272
-0.970425, 433, 161, 496, 224
-0.970499, 289, 97, 352, 224
-0.970506, 329, 281, 392, 344
-0.970606, 313, 89, 376, 152
-0.970654, 193, 153, 256, 216
-0.970821, 113, 121, 176, 184
-0.970867, 297, 1, 360, 256
-0.97098, 1, 81, 64, 144
-0.97099, 193, 1, 320, 128
-0.971039, 353, 209, 480, 272
-0.971048, 241, 33, 304, 96
-0.971134, 289, 73, 352, 136
-0.971143, 193, 161, 224, 224
-0.97132, 241, 57, 304, 120
-0.971436, 97, 169, 224, 232
-0.971452, 173, 137, 204, 200
-0.971465, 1, 161, 64, 288
-0.971578, 385, 153, 448, 216
-0.97161, 337, 137, 400, 200
-0.971749, 225, 33, 288, 288
-0.971842, 137, 121, 200, 184
-0.971919, 65, 49, 128, 112
-0.971936, 73, 137, 136, 200
-0.972019, 109, 185, 140, 248
-0.972023, 97, 241, 160, 368
-0.972092, 29, 1, 60, 128
-0.972139, 265, 241, 328, 368
-0.972228, 337, 257, 400, 320
-0.972308, 469, 17, 500, 144
-0.972433, 1, 33, 128, 96
-0.972435, 49, 185, 176, 248
-0.972509, 137, 25, 200, 88
-0.972515, 177, 161, 208, 224
-0.972795, 17, 209, 144, 272
-0.972799, 361, 153, 424, 216
-0.972819, 189, 113, 220, 240
-0.972937, 217, 1, 280, 128
-0.972978, 257, 33, 320, 288
-0.973078, 409, 1, 472, 256
-0.973248, 41, 33, 104, 96
-0.97332, 33, 153, 96, 216
-0.973406, 233, 313, 296, 375
-0.973419, 313, 17, 344, 144
-0.973502, 305, 313, 368, 375
-0.973533, 321, 241, 448, 304
-0.973624, 101, 161, 132, 288
-0.973787, 73, 185, 136, 248
-0.973911, 313, 217, 376, 280
-0.973944, 377, 73, 440, 136
-0.973989, 385, 1, 448, 256
-0.97403, 1, 177, 64, 240
-0.974086, 161, 113, 192, 240
-0.974158, 209, 193, 272, 256
-0.974168, 33, 153, 160, 216
-0.974325, 385, 81, 448, 208
-0.974574, 193, 97, 256, 160
-0.974597, 329, 65, 392, 320
-0.974599, 137, 97, 200, 352
-0.974712, 433, 65, 496, 192
-0.974789, 129, 313, 256, 375
-0.974873, 137, 81, 200, 208
-0.974916, 145, 145, 272, 208
-0.974931, 361, 65, 424, 320
-0.974958, 161, 65, 224, 128
-0.974976, 193, 145, 320, 272
-0.974993, 25, 209, 88, 272
-0.975078, 193, 1, 256, 128
-0.975122, 353, 73, 416, 136
-0.975125, 169, 129, 232, 375
-0.975151, 349, 225, 380, 352
-0.975231, 205, 65, 236, 192
-0.975283, 401, 25, 464, 88
-0.975295, 385, 129, 448, 192
-0.97534, 125, 193, 156, 320
-0.975371, 337, 185, 464, 248
-0.975392, 409, 257, 472, 320
-0.975415, 305, 57, 432, 120
-0.975502, 241, 33, 368, 96
-0.975531, 17, 57, 144, 120
-0.975545, 205, 185, 236, 248
-0.975697, 297, 121, 360, 184
-0.975783, 169, 241, 232, 368
-0.975818, 225, 97, 288, 224
-0.975853, 341, 129, 372, 256
-0.975883, 193, 73, 256, 136
-0.975923, 113, 25, 176, 88
-0.976043, 361, 97, 424, 160
-0.976049, 265, 193, 328, 320
-0.976144, 241, 1, 304, 128
-0.976241, 121, 169, 184, 232
-0.976266, 337, 17, 400, 144
-0.976267, 81, 33, 208, 96
-0.976319, 305, 89, 432, 152
-0.976325, 73, 209, 136, 272
-0.976454, 373, 241, 404, 368
-0.976487, 369, 241, 496, 304
-0.97655, 89, 129, 152, 375
-0.976565, 305, 97, 368, 352
-0.976576, 297, 193, 360, 320
-0.976589, 29, 17, 60, 80
-0.976597, 113, 145, 144, 208
-0.976613, 97, 161, 128, 224
-0.976673, 125, 129, 156, 256
-0.976741, 273, 233, 400, 296
-0.976969, 113, 1, 176, 375
-0.976983, 277, 33, 308, 160
-0.976985, 109, 209, 140, 336
-0.977034, 129, 201, 256, 264
-0.977082, 97, 289, 160, 352
-0.977236, 257, 281, 384, 344
-0.977261, 81, 241, 208, 304
-0.977384, 321, 49, 352, 112
-0.977433, 305, 289, 432, 352
-0.977436, 357, 233, 388, 296
-0.977462, 313, 169, 376, 232
-0.977471, 253, 225, 284, 352
-0.977527, 157, 169, 188, 232
-0.977553, 273, 33, 304, 96
-0.977619, 241, 49, 272, 176
-0.977632, 25, 1, 88, 64
-0.977636, 41, 81, 104, 144
-0.977637, 189, 33, 220, 160
-0.977675, 233, 289, 296, 352
-0.977705, 17, 273, 144, 336
-0.97771, 1, 65, 64, 320
-0.977757, 153, 193, 216, 256
-0.977763, 289, 33, 416, 96
-0.977874, 121, 201, 152, 264
-0.977902, 161, 1, 224, 375
-0.977914, 1, 1, 64, 64
-0.977969, 257, 49, 288, 176
-0.977986, 65, 1, 128, 375
-0.978117, 209, 1, 272, 375
-0.978137, 45, 113, 76, 240
-0.978204, 421, 177, 452, 304
-0.978209, 357, 177, 388, 304
-0.978219, 353, 265, 480, 328
-0.978234, 385, 1, 448, 375
-0.978277, 209, 313, 336, 375
-0.97831, 421, 193, 452, 256
-0.97833, 41, 17, 72, 144
-0.978421, 257, 241, 320, 304
-0.978479, 241, 209, 368, 272
-0.9785, 9, 241, 40, 368
-0.978532, 221, 33, 252, 160
-0.978671, 25, 129, 88, 375
-0.978722, 89, 1, 152, 375
-0.978729, 29, 177, 60, 304
-0.97883, 433, 113, 496, 240
-0.97886, 401, 225, 432, 288
-0.978905, 341, 89, 372, 152
-0.978913, 409, 17, 440, 144
-0.978961, 217, 161, 280, 224
-0.97898, 105, 233, 136, 296
-0.979011, 377, 201, 408, 264
-0.979139, 113, 121, 240, 184
-0.979172, 169, 289, 232, 352
-0.979182, 325, 33, 356, 160
-0.979204, 385, 209, 416, 336
-0.979235, 145, 177, 272, 240
-0.979347, 173, 113, 204, 240
-0.979375, 1, 265, 64, 328
-0.979415, 25, 313, 88, 375
-0.97947, 33, 1, 96, 375
-0.979473, 41, 169, 72, 232
-0.979562, 93, 113, 124, 240
-0.979574, 353, 209, 384, 272
-0.979601, 201, 289, 264, 352
-0.979607, 305, 209, 432, 272
-0.979611, 257, 65, 384, 128
-0.97965, 305, 313, 432, 375
-0.97966, 305, 145, 368, 208
-0.979707, 81, 113, 144, 176
-0.979841, 65, 121, 192, 184
-0.979843, 321, 121, 448, 184
-0.979864, 1, 289, 64, 352
-0.979867, 289, 49, 320, 176
-0.979902, 365, 201, 396, 264
-0.980088, 341, 81, 372, 208
-0.98021, 313, 193, 376, 256
-0.980223, 329, 97, 360, 224
-0.980302, 89, 33, 120, 160
-0.980307, 257, 209, 320, 272
-0.98031, 225, 49, 256, 112
-0.980317, 389, 49, 420, 176
-0.980341, 137, 1, 200, 375
-0.98036, 185, 1, 248, 375
-0.980362, 249, 233, 280, 296
-0.980366, 153, 97, 216, 160
-0.980369, 73, 273, 136, 336
-0.980385, 73, 129, 104, 256
-0.980401, 337, 217, 368, 280
-0.98046, 193, 129, 256, 375
-0.980473, 9, 281, 40, 344
-0.980495, 441, 177, 472, 240
-0.980505, 369, 41, 496, 104
-0.980524, 437, 17, 468, 144
-0.98054, 109, 209, 140, 272
-0.980592, 393, 281, 456, 344
-0.980617, 81, 313, 208, 375
-0.980706, 313, 25, 344, 88
-0.980716, 161, 121, 288, 184
-0.980727, 233, 257, 296, 320
-0.980733, 25, 81, 56, 144
-0.980739, 201, 33, 264, 96
-0.980742, 305, 289, 368, 352
-0.980742, 113, 289, 240, 352
-0.980845, 73, 49, 104, 176
-0.980879, 217, 129, 280, 375
-0.980921, 401, 185, 432, 248
-0.980953, 161, 289, 288, 352
-0.980985, 145, 73, 272, 136
-0.981029, 289, 185, 416, 248
-0.981042, 57, 113, 88, 240
-0.981043, 305, 265, 432, 328
-0.981044, 285, 41, 316, 104
-0.981079, 57, 33, 88, 160
-0.981097, 145, 241, 176, 368
-0.981166, 297, 1, 360, 375
-0.981214, 193, 185, 224, 248
-0.981237, 409, 1, 472, 375
-0.981257, 401, 41, 432, 104
-0.981323, 33, 97, 64, 224
-0.981336, 433, 1, 496, 375
-0.981338, 441, 161, 472, 288
-0.981341, 125, 305, 156, 368
-0.981416, 265, 97, 328, 224
-0.981435, 5, 241, 36, 304
-0.981451, 17, 1, 144, 64
-0.981462, 129, 41, 256, 104
-0.981475, 177, 185, 208, 248
-0.981555, 13, 313, 44, 375
-0.981574, 205, 177, 236, 304
-0.981645, 433, 241, 496, 304
-0.981657, 149, 113, 180, 240
-0.981691, 465, 185, 496, 248
-0.981706, 17, 249, 144, 312
-0.98178, 337, 153, 464, 216
-0.981854, 237, 209, 268, 336
-0.981884, 105, 313, 168, 375
-0.981902, 149, 145, 180, 208
-0.981914, 437, 201, 468, 264
-0.981917, 289, 97, 352, 160
-0.981985, 461, 17, 492, 80
-0.982026, 385, 225, 416, 288
-0.982041, 137, 217, 200, 280
-0.982088, 301, 49, 332, 176
-0.982156, 241, 257, 368, 320
-0.982171, 377, 265, 408, 328
-0.982262, 17, 105, 80, 168
-0.982283, 449, 17, 480, 144
-0.982293, 177, 33, 208, 160
-0.982334, 421, 33, 452, 160
-0.982343, 409, 81, 472, 208
-0.982345, 85, 177, 116, 240
-0.982378, 1, 313, 64, 375
-0.982404, 157, 161, 188, 288
-0.982429, 377, 1, 440, 128
-0.982441, 85, 177, 116, 304
-0.982487, 241, 89, 368, 152
-0.982525, 97, 209, 128, 336
-0.982527, 25, 289, 88, 352
-0.982563, 49, 129, 112, 192
-0.982572, 257, 305, 384, 368
-0.982595, 17, 121, 144, 184
-0.982657, 193, 97, 320, 160
-0.982673, 65, 249, 128, 312
-0.982676, 401, 177, 432, 304
-0.982683, 49, 129, 112, 375
-0.982714, 345, 49, 408, 112
-0.982729, 245, 57, 276, 120
-0.982834, 301, 65, 332, 128
-0.982878, 1, 185, 128, 248
-0.982885, 433, 89, 496, 152
-0.982902, 137, 145, 168, 208
-0.982923, 81, 265, 208, 328
-0.982968, 409, 137, 472, 200
-0.982993, 421, 169, 452, 232
-0.98307, 25, 225, 88, 352
-0.983077, 193, 241, 256, 368
-0.983082, 161, 121, 192, 184
-0.983143, 197, 49, 228, 112
-0.983144, 369, 105, 496, 168
-0.983225, 177, 33, 304, 96
-0.983232, 89, 201, 120, 264
-0.9833, 353, 185, 384, 248
-0.983334, 369, 65, 496, 128
-0.983373, 13, 65, 44, 128
-0.983387, 385, 73, 416, 136
-0.983425, 445, 25, 476, 88
-0.983514, 1, 1, 64, 375
-0.983516, 57, 33, 88, 96
-0.983531, 369, 49, 432, 112
-0.98354, 353, 289, 480, 352
-0.983585, 161, 225, 288, 288
-0.983624, 37, 193, 68, 256
-0.98365, 337, 241, 368, 368
-0.983667, 433, 129, 496, 192
-0.983725, 333, 121, 364, 184
-0.983759, 65, 17, 128, 80
-0.983765, 73, 177, 104, 240
-0.983776, 433, 265, 496, 328
-0.983798, 41, 161, 72, 288
-0.983821, 249, 1, 312, 375
-0.983838, 81, 217, 208, 280
-0.983858, 257, 57, 288, 120
-0.98388, 213, 65, 244, 128
-0.983895, 313, 33, 376, 96
-0.983897, 113, 121, 144, 184
-0.983898, 193, 145, 320, 208
-0.983929, 17, 17, 48, 144
-0.983948, 361, 121, 424, 184
-0.983956, 317, 81, 348, 208
-0.983964, 433, 25, 464, 88
-0.984013, 189, 113, 220, 176
-0.984013, 101, 33, 132, 160
-0.984046, 389, 201, 420, 264
-0.984048, 421, 217, 452, 280
-0.984119, 361, 1, 424, 375
-0.984146, 93, 41, 124, 104
-0.984175, 53, 161, 84, 224
-0.984176, 357, 81, 388, 208
-0.984222, 125, 225, 156, 288
-0.984238, 401, 225, 432, 352
-0.98424, 377, 65, 408, 192
-0.984257, 453, 177, 484, 304
-0.984319, 361, 225, 392, 352
-0.984351, 313, 313, 344, 375
-0.984417, 433, 97, 496, 352
-0.984462, 337, 177, 368, 304
-0.984481, 177, 249, 304, 312
-0.984499, 321, 1, 384, 375
-0.984621, 129, 97, 256, 160
-0.984699, 453, 209, 484, 272
-0.984811, 333, 65, 364, 128
-0.984821, 65, 289, 192, 352
-0.984857, 201, 113, 232, 240
-0.984933, 229, 313, 260, 375
-0.985016, 269, 257, 300, 320
-0.985072, 17, 297, 144, 360
-0.985175, 341, 185, 372, 248
-0.98519, 301, 25, 332, 88
-0.985246, 313, 81, 344, 144
-0.985276, 257, 121, 384, 184
-0.985276, 193, 177, 320, 240
-0.985358, 21, 65, 52, 192
-0.98542, 397, 161, 428, 224
-0.985422, 33, 81, 160, 144
-0.985505, 385, 161, 416, 224
-0.985553, 421, 241, 452, 304
-0.985569, 65, 153, 96, 216
-0.985614, 177, 161, 208, 288
-0.985652, 21, 41, 52, 104
-0.985668, 85, 145, 116, 208
-0.985684, 117, 81, 148, 208
-0.985693, 193, 161, 224, 288
-0.985729, 289, 65, 320, 128
-0.985731, 165, 33, 196, 160
-0.985766, 369, 89, 400, 152
-0.985805, 221, 177, 252, 304
-0.985806, 37, 97, 68, 160
-0.98583, 129, 65, 160, 192
-0.985849, 25, 217, 56, 280
-0.985862, 141, 193, 172, 256
-0.985868, 181, 41, 212, 104
-0.985876, 217, 185, 248, 248
-0.985925, 393, 129, 456, 375
-0.985965, 369, 225, 400, 288
-0.986027, 465, 129, 496, 256
-0.98606, 205, 105, 236, 168
-0.986224, 205, 161, 236, 224
-0.986261, 389, 49, 420, 112
-0.986501, 369, 161, 400, 288
-0.986543, 357, 97, 388, 160
-0.98656, 389, 161, 420, 288
-0.986583, 273, 161, 400, 224
-0.986641, 105, 281, 136, 344
-0.986672, 357, 129, 388, 256
-0.986694, 73, 49, 104, 112
-0.986768, 121, 177, 152, 240
-0.986826, 265, 145, 328, 272
-0.986871, 361, 297, 392, 360
-0.98691, 125, 145, 156, 208
-0.986953, 273, 1, 336, 375
-0.986974, 53, 161, 84, 288
-0.986991, 45, 25, 76, 88
-0.987121, 201, 313, 232, 375
-0.987125, 337, 153, 368, 216
-0.987204, 249, 177, 280, 304
-0.987229, 337, 33, 368, 160
-0.987236, 365, 177, 396, 240
-0.987276, 349, 161, 380, 224
-0.987344, 353, 313, 480, 375
-0.98736, 241, 313, 272, 375
-0.987364, 237, 145, 268, 272
-0.987377, 117, 17, 148, 144
-0.987394, 145, 17, 176, 144
-0.98742, 209, 289, 336, 352
-0.987445, 81, 97, 208, 160
-0.987449, 369, 129, 496, 192
-0.987467, 157, 25, 188, 88
-0.987494, 141, 169, 172, 232
-0.987542, 149, 121, 180, 184
-0.987574, 265, 241, 296, 368
-0.987608, 25, 177, 56, 240
-0.987611, 273, 57, 304, 120
-0.987618, 93, 121, 124, 184
-0.987639, 345, 241, 376, 304
-0.987681, 41, 65, 72, 128
-0.987848, 413, 225, 444, 352
-0.987875, 173, 113, 204, 176
-0.987898, 421, 129, 452, 256
-0.987927, 253, 281, 284, 344
-0.988145, 321, 105, 352, 168
-0.988223, 225, 129, 256, 256
-0.988255, 209, 41, 240, 104
-0.988314, 241, 185, 368, 248
-0.98833, 93, 249, 124, 312
-0.988342, 405, 265, 436, 328
-0.988396, 145, 65, 176, 192
-0.988448, 129, 17, 160, 144
-0.988506, 189, 73, 220, 136
-0.988512, 405, 97, 436, 224
-0.98854, 181, 305, 212, 368
-0.988589, 261, 33, 292, 96
-0.988599, 417, 41, 448, 104
-0.988606, 165, 193, 196, 256
-0.988618, 145, 177, 176, 304
-0.988637, 1, 161, 256, 224
-0.988651, 97, 65, 224, 128
-0.988663, 237, 217, 268, 280
-0.988686, 337, 241, 400, 272
-0.988709, 145, 241, 208, 368
-0.988755, 225, 217, 480, 280
-0.988756, 29, 225, 60, 352
-0.988796, 297, 1, 328, 128
-0.988798, 113, 41, 144, 104
-0.988868, 433, 145, 464, 208
-0.988979, 161, 141, 224, 172
-0.988984, 105, 149, 168, 180
-0.988999, 177, 201, 304, 264
-0.989021, 161, 169, 224, 200
-0.989022, 225, 241, 480, 304
-0.989044, 193, 65, 448, 128
-0.989097, 265, 1, 296, 128
-0.989119, 269, 193, 300, 320
-0.989283, 65, 169, 128, 200
-0.989284, 289, 53, 352, 84
-0.989425, 441, 209, 472, 336
-0.989462, 65, 225, 320, 288
-0.989462, 97, 205, 160, 236
-0.989521, 137, 333, 200, 364
-0.98953, 1, 41, 256, 104
-0.989566, 41, 185, 104, 216
-0.98961, 321, 9, 448, 72
-0.989653, 97, 237, 160, 268
-0.989702, 65, 181, 128, 212
-0.989722, 177, 193, 240, 224
-0.989739, 369, 225, 432, 256
-0.989778, 5, 193, 36, 320
-0.989818, 337, 229, 400, 260
-0.989821, 65, 157, 128, 188
-0.98983, 89, 193, 152, 224
-0.989861, 97, 305, 352, 368
-0.989903, 377, 253, 440, 284
-0.989905, 41, 169, 104, 200
-0.989998, 393, 49, 456, 80
-0.990026, 249, 57, 312, 88
-0.990029, 233, 321, 296, 352
-0.990101, 17, 25, 80, 56
-0.990164, 209, 321, 272, 352
-0.990172, 305, 65, 368, 96
-0.99018, 177, 337, 240, 368
-0.990203, 321, 89, 384, 120
-0.990204, 125, 241, 156, 368
-0.990221, 393, 37, 456, 68
-0.990281, 193, 49, 256, 80
-0.990281, 217, 61, 280, 92
-0.990291, 137, 321, 200, 352
-0.990313, 377, 237, 440, 268
-0.990332, 305, 325, 368, 356
-0.990345, 385, 157, 448, 188
-0.990376, 337, 213, 400, 244
-0.990377, 201, 1, 232, 128
-0.990381, 25, 37, 88, 68
-0.990391, 409, 241, 472, 272
-0.990392, 409, 177, 472, 208
-0.990399, 145, 345, 208, 375
-0.990435, 353, 81, 416, 112
-0.990457, 433, 29, 496, 60
-0.990499, 193, 133, 256, 164
-0.99051, 369, 185, 432, 216
-0.990512, 193, 157, 256, 188
-0.990512, 129, 297, 192, 328
-0.990519, 105, 165, 168, 196
-0.99053, 17, 61, 80, 92
-0.990544, 129, 149, 192, 180
-0.990548, 1, 177, 500, 240
-0.990556, 257, 33, 500, 96
-0.990557, 409, 217, 472, 248
-0.990569, 177, 181, 240, 212
-0.990571, 337, 253, 400, 284
-0.990632, 409, 201, 472, 232
-0.990634, 65, 249, 320, 312
-0.990653, 97, 225, 160, 256
-0.990654, 161, 153, 224, 184
-0.990703, 329, 281, 392, 312
-0.990713, 369, 265, 432, 296
-0.990729, 225, 265, 480, 328
-0.990741, 225, 193, 480, 256
-0.990751, 265, 45, 328, 76
-0.990783, 97, 253, 160, 284
-0.990809, 313, 313, 376, 344
-0.990815, 1, 185, 256, 248
-0.990825, 137, 309, 200, 340
-0.990832, 25, 329, 88, 360
-0.990852, 241, 45, 304, 76
-0.990861, 121, 201, 184, 232
-0.990863, 153, 181, 216, 212
-0.990872, 33, 197, 96, 228
-0.990887, 321, 297, 384, 328
-0.990888, 193, 205, 256, 236
-0.990905, 69, 1, 100, 128
-0.990908, 25, 73, 88, 104
-0.990916, 361, 285, 424, 316
-0.990918, 177, 325, 240, 356
-0.990921, 409, 229, 472, 260
-0.990928, 289, 41, 352, 72
-0.990941, 137, 169, 200, 200
-0.990973, 369, 17, 496, 80
-0.990987, 345, 189, 408, 220
-0.990988, 121, 285, 184, 316
-0.99099, 129, 181, 192, 212
-0.99101, 345, 145, 408, 176
-0.991015, 161, 129, 224, 160
-0.991016, 1, 329, 64, 360
-0.991037, 329, 269, 392, 300
-0.991038, 65, 49, 128, 80
-0.991044, 433, 221, 496, 252
-0.991053, 409, 161, 472, 192
-0.991062, 153, 193, 216, 224
-0.991066, 25, 341, 88, 372
-0.991072, 105, 137, 168, 168
-0.991079, 433, 193, 496, 224
-0.991093, 393, 97, 424, 224
-0.991093, 377, 85, 440, 116
-0.991097, 73, 137, 136, 168
-0.991109, 345, 97, 408, 128
-0.991119, 361, 165, 424, 196
-0.991127, 409, 189, 472, 220
-0.991135, 89, 45, 152, 76
-0.991151, 353, 317, 416, 348
-0.991155, 89, 177, 152, 208
-0.991181, 385, 145, 448, 176
-0.991189, 217, 333, 280, 364
-0.991192, 213, 129, 244, 256
-0.991208, 137, 33, 200, 64
-0.991211, 97, 149, 224, 180
-0.991227, 1, 153, 500, 216
-0.991235, 193, 121, 256, 152
-0.991248, 305, 345, 368, 375
-0.991253, 369, 213, 432, 244
-0.991259, 201, 217, 264, 248
-0.991259, 433, 181, 496, 212
-0.991267, 169, 313, 232, 344
-0.991268, 225, 237, 288, 268
-0.991275, 317, 129, 348, 256
-0.991278, 65, 9, 192, 72
-0.991281, 297, 81, 360, 112
-0.991283, 97, 265, 160, 296
-0.991289, 313, 225, 376, 256
-0.991289, 273, 65, 336, 96
-0.991306, 41, 93, 104, 124
-0.991312, 353, 301, 416, 332
-0.99132, 169, 205, 232, 236
-0.991324, 209, 121, 336, 184
-0.99136, 1, 81, 64, 112
-0.99137, 65, 61, 128, 92
-0.991377, 169, 69, 232, 100
-0.99138, 409, 257, 472, 288
-0.991387, 377, 73, 440, 104
-0.991387, 1, 345, 64, 375
-0.991395, 65, 193, 128, 224
-0.991409, 337, 201, 400, 232
-0.991414, 137, 133, 200, 164
-0.991425, 25, 1, 88, 32
-0.991452, 201, 145, 264, 176
-0.991455, 201, 193, 264, 224
-0.991477, 33, 209, 96, 240
-0.991489, 1, 193, 64, 224
-0.991499, 185, 169, 248, 200
-0.991502, 425, 41, 488, 72
-0.991513, 321, 77, 384, 108
-0.991515, 33, 137, 288, 200
-0.991531, 161, 117, 224, 148
-0.991541, 161, 121, 416, 184
-0.991543, 433, 241, 496, 272
-0.991576, 245, 1, 276, 128
-0.991582, 161, 9, 288, 72
-0.991749, 265, 129, 328, 375
-0.991754, 241, 129, 304, 375
-0.991865, 233, 1, 264, 128
-0.99194, 1, 57, 500, 120
-0.991949, 97, 281, 352, 344
-0.992058, 1, 201, 500, 264
-0.992147, 129, 265, 256, 328
-0.992206, 237, 97, 268, 224
-0.992238, 185, 137, 216, 168
-0.992345, 257, 89, 500, 152
-0.992366, 173, 169, 204, 200
-0.99241, 117, 193, 148, 224
-0.992447, 113, 149, 144, 180
-0.992475, 1, 73, 256, 136
-0.992483, 109, 205, 140, 236
-0.992492, 97, 57, 352, 120
-0.992501, 101, 193, 132, 224
-0.992507, 161, 169, 192, 200
-0.992513, 237, 321, 268, 352
-0.992528, 193, 169, 224, 200
-0.992539, 213, 193, 244, 224
-0.99255, 109, 221, 140, 252
-0.992568, 353, 237, 384, 268
-0.992576, 257, 313, 500, 375
-0.992587, 29, 21, 60, 52
-0.992599, 353, 221, 384, 252
-0.992605, 365, 237, 396, 268
-0.992606, 17, 81, 48, 112
-0.992621, 97, 153, 128, 184
-0.992631, 105, 81, 136, 208
-0.992633, 193, 181, 224, 212
-0.99264, 453, 225, 484, 352
-0.9927, 97, 177, 128, 208
-0.992725, 161, 145, 416, 208
-0.992727, 17, 145, 48, 272
-0.992728, 129, 193, 160, 224
-0.992733, 409, 37, 440, 68
-0.992733, 17, 329, 48, 360
-0.992734, 41, 181, 72, 212
-0.992743, 25, 93, 56, 124
-0.99276, 313, 61, 344, 92
-0.992765, 161, 97, 416, 160
-0.992778, 425, 41, 456, 72
-0.992783, 441, 209, 472, 240
-0.992785, 333, 85, 364, 116
-0.992786, 5, 241, 36, 272
-0.992808, 389, 81, 420, 112
-0.992818, 177, 185, 208, 216
-0.992822, 225, 233, 352, 296
-0.992822, 73, 165, 104, 196
-0.992823, 201, 193, 232, 224
-0.992826, 89, 189, 120, 220
-0.992826, 109, 233, 140, 264
-0.992828, 17, 193, 48, 320
-0.992832, 157, 149, 188, 180
-0.992835, 341, 225, 372, 256
-0.992837, 113, 137, 144, 168
-0.992841, 273, 45, 304, 76
-0.992841, 317, 45, 348, 76
-0.992842, 377, 225, 408, 256
-0.992844, 13, 345, 44, 375
-0.992849, 89, 205, 120, 236
-0.992851, 421, 193, 452, 224
-0.992852, 237, 61, 268, 92
-0.992854, 253, 237, 284, 268
-0.992856, 313, 33, 344, 64
-0.992858, 41, 29, 72, 60
-0.99286, 9, 293, 40, 324
-0.99286, 441, 29, 472, 60
-0.992864, 429, 161, 460, 192
-0.992864, 129, 237, 160, 268
-0.99287, 365, 225, 396, 256
-0.992877, 141, 149, 172, 180
-0.992888, 9, 309, 40, 340
-0.992892, 325, 73, 356, 104
-0.992894, 421, 181, 452, 212
-0.992896, 189, 193, 220, 224
-0.992901, 397, 157, 428, 188
-0.992908, 109, 177, 140, 208
-0.992912, 401, 185, 432, 216
-0.992912, 225, 205, 256, 236
-0.992916, 121, 217, 152, 248
-0.992926, 297, 69, 328, 100
-0.992928, 225, 49, 256, 80
-0.992931, 121, 205, 152, 236
-0.992932, 69, 53, 100, 84
-0.992941, 125, 149, 156, 180
-0.992942, 93, 49, 124, 80
-0.992945, 421, 245, 452, 276
-0.992954, 45, 193, 76, 224
-0.992958, 413, 161, 444, 192
-0.992959, 293, 333, 324, 364
-0.992959, 341, 213, 372, 244
-0.992967, 33, 329, 64, 360
-0.992971, 189, 157, 220, 188
-0.992975, 209, 205, 240, 236
-0.992978, 33, 9, 64, 40
-0.992979, 93, 217, 124, 248
-0.992979, 385, 249, 416, 280
-0.99298, 17, 69, 48, 100
-0.992983, 397, 221, 428, 252
-0.992987, 169, 149, 200, 180
-0.992988, 85, 165, 116, 196
-0.99299, 465, 25, 496, 56
-0.992991, 57, 169, 88, 200
-0.992992, 193, 289, 448, 352
-0.992994, 249, 61, 280, 92
-0.992994, 73, 185, 104, 216
-0.992996, 37, 169, 68, 200
-0.993, 9, 281, 40, 312
-0.993002, 297, 49, 328, 80
-0.993005, 437, 177, 468, 208
-0.993005, 5, 257, 36, 288
-0.993006, 333, 53, 364, 84
-0.993009, 421, 229, 452, 260
-0.993019, 101, 257, 132, 288
-0.993021, 365, 189, 396, 220
-0.993023, 409, 149, 440, 180
-0.99303, 205, 181, 236, 212
-0.99303, 33, 105, 64, 136
-0.993031, 441, 189, 472, 220
-0.993032, 37, 209, 68, 240
-0.993033, 161, 181, 192, 212
-0.993035, 33, 341, 64, 372
-0.993036, 205, 157, 236, 188
-0.993044, 269, 265, 300, 296
-0.993048, 5, 269, 36, 300
-0.993049, 313, 329, 344, 360
-0.99305, 57, 41, 88, 72
-0.993051, 421, 257, 452, 288
-0.993053, 269, 57, 300, 88
-0.993055, 429, 81, 460, 208
-0.993057, 445, 41, 476, 72
-0.993059, 97, 165, 128, 196
-0.993062, 353, 193, 384, 224
-0.993063, 281, 57, 312, 88
-0.993064, 453, 25, 484, 56
-0.993068, 377, 277, 408, 308
-0.993069, 41, 85, 72, 116
-0.993074, 133, 345, 164, 375
-0.993075, 185, 337, 216, 368
-0.993078, 189, 125, 220, 156
-0.993079, 217, 73, 248, 104
-0.993082, 57, 189, 88, 220
-0.993083, 269, 253, 300, 284
-0.993085, 93, 273, 124, 304
-0.993085, 461, 201, 492, 232
-0.993087, 437, 237, 468, 268
-0.993093, 129, 333, 160, 364
-0.993093, 125, 309, 156, 340
-0.993097, 397, 45, 428, 76
-0.9931, 175, 145, 190, 208
-0.9931, 209, 65, 336, 96
-0.993189, 129, 201, 384, 264
-0.993207, 1, 273, 256, 336
-0.993298, 1, 81, 500, 144
-0.9933, 193, 169, 448, 232
-0.993305, 441, 113, 472, 240
-0.993353, 165, 145, 180, 208
-0.993355, 97, 33, 352, 96
-0.993481, 113, 173, 240, 204
-0.993502, 209, 9, 336, 72
-0.993552, 253, 129, 284, 256
-0.993589, 187, 137, 202, 200
-0.993593, 325, 177, 356, 304
-0.99361, 417, 81, 448, 208
-0.993621, 33, 189, 160, 220
-0.993646, 113, 185, 240, 216
-0.993667, 1, 297, 256, 360
-0.993681, 73, 177, 104, 304
-0.993745, 1, 105, 256, 168
-0.993773, 1, 249, 500, 312
-0.993828, 199, 137, 214, 200
-0.993852, 453, 113, 484, 240
-0.993855, 45, 65, 76, 192
-0.993882, 217, 241, 248, 368
-0.993893, 181, 145, 196, 208
-0.993937, 181, 241, 212, 368
-0.993971, 289, 61, 416, 92
-0.993979, 1, 61, 128, 92
-0.994115, 105, 177, 120, 240
-0.994123, 305, 73, 432, 104
-0.994172, 397, 1, 428, 128
-0.994199, 1, 113, 500, 176
-0.994256, 269, 81, 300, 208
-0.994267, 213, 185, 228, 248
-0.99428, 369, 249, 496, 280
-0.994294, 33, 177, 160, 208
-0.994313, 425, 225, 456, 352
-0.994315, 369, 221, 496, 252
-0.994338, 129, 329, 256, 360
-0.994362, 257, 317, 384, 348
-0.994362, 203, 161, 218, 224
-0.994393, 1, 17, 256, 80
-0.994414, 1, 33, 500, 96
-0.994426, 131, 193, 146, 256
-0.994451, 321, 249, 448, 280
-0.994495, 49, 161, 176, 192
-0.994504, 17, 221, 144, 252
-0.994599, 187, 161, 202, 224
-0.994614, 129, 313, 256, 344
-0.994652, 35, 1, 50, 64
-0.994678, 369, 237, 496, 268
-0.994696, 469, 65, 500, 192
-0.994696, 353, 217, 368, 280
-0.994709, 121, 129, 152, 375
-0.994787, 1, 225, 500, 288
-0.994807, 145, 161, 272, 192
-0.994818, 1, 33, 128, 64
-0.99484, 111, 161, 126, 224
-0.994868, 193, 137, 208, 200
-0.994883, 97, 37, 224, 68
-0.994885, 209, 333, 336, 364
-0.994904, 321, 225, 448, 256
-0.99491, 113, 137, 240, 168
-0.994914, 1, 45, 128, 76
-0.994979, 257, 113, 500, 176
-0.994988, 129, 345, 256, 375
-0.994994, 197, 169, 212, 232
-0.995009, 17, 209, 144, 240
-0.995026, 377, 217, 392, 280
-0.995026, 321, 265, 448, 296
-0.995062, 49, 1, 80, 256
-0.995068, 305, 93, 432, 124
-0.99508, 129, 197, 256, 228
-0.995084, 49, 209, 112, 336
-0.995088, 209, 33, 240, 288
-0.995113, 81, 253, 208, 284
-0.995116, 181, 169, 196, 232
-0.995118, 21, 49, 36, 112
-0.995134, 241, 49, 368, 80
-0.995142, 121, 1, 152, 256
-0.995143, 465, 177, 496, 304
-0.995156, 263, 233, 278, 296
-0.995156, 29, 1, 60, 256
-0.995182, 17, 261, 144, 292
-0.995183, 387, 201, 402, 264
-0.995188, 321, 277, 448, 308
-0.995191, 337, 189, 464, 220
-0.995207, 17, 285, 144, 316
-0.995209, 1, 313, 500, 375
-0.995221, 485, 25, 500, 88
-0.995223, 17, 273, 144, 304
-0.995241, 163, 169, 178, 232
-0.995245, 31, 225, 46, 288
-0.995263, 241, 213, 368, 244
-0.995265, 173, 169, 188, 232
-0.995266, 31, 73, 46, 136
-0.995272, 177, 137, 304, 168
-0.995273, 241, 225, 368, 256
-0.99534, 369, 153, 496, 184
-0.99534, 173, 1, 204, 256
-0.995347, 241, 237, 368, 268
-0.995355, 369, 261, 496, 292
-0.995362, 111, 201, 126, 264
-0.995378, 37, 81, 52, 144
-0.995401, 81, 273, 208, 304
-0.99541, 141, 1, 172, 256
-0.995483, 369, 209, 496, 240
-0.995487, 345, 209, 360, 272
-0.995499, 381, 113, 412, 240
-0.995515, 281, 97, 312, 224
-0.995515, 305, 213, 432, 244
-0.995521, 369, 113, 400, 240
-0.995529, 413, 177, 428, 240
-0.99553, 353, 177, 480, 208
-0.995531, 1, 289, 500, 352
-0.995532, 155, 145, 170, 208
-0.995563, 121, 201, 136, 264
-0.995567, 321, 237, 448, 268
-0.995573, 189, 33, 220, 288
-0.995584, 355, 241, 370, 304
-0.995584, 321, 201, 448, 232
-0.995586, 257, 145, 500, 208
-0.995595, 17, 233, 144, 264
-0.995602, 335, 57, 350, 120
-0.995603, 257, 281, 384, 312
-0.995612, 305, 321, 432, 352
-0.995633, 247, 313, 262, 375
-0.995638, 141, 129, 172, 375
-0.995645, 97, 177, 352, 240
-0.99565, 283, 33, 298, 96
-0.995658, 221, 33, 252, 288
-0.995659, 49, 37, 176, 68
-0.995669, 27, 33, 42, 96
-0.995672, 313, 1, 344, 256
-0.995688, 43, 89, 58, 152
-0.995691, 305, 301, 432, 332
-0.995694, 57, 161, 72, 224
-0.995706, 65, 133, 192, 164
-0.995707, 81, 201, 208, 232
-0.995709, 105, 33, 136, 288
-0.995726, 121, 145, 136, 208
-0.995742, 49, 149, 176, 180
-0.995743, 349, 257, 364, 320
-0.995748, 99, 177, 114, 240
-0.99575, 115, 137, 130, 200
-0.995755, 233, 33, 264, 288
-0.995761, 345, 89, 360, 152
-0.995766, 153, 1, 184, 256
-0.995767, 289, 341, 416, 372
-0.995773, 177, 121, 192, 184
-0.995777, 17, 77, 144, 108
-0.995782, 367, 201, 382, 264
-0.99579, 113, 301, 240, 332
-0.995793, 105, 129, 136, 375
-0.995796, 269, 57, 284, 120
-0.995804, 377, 193, 392, 256
-0.995807, 255, 57, 270, 120
-0.99581, 167, 121, 182, 184
-0.995812, 99, 209, 114, 272
-0.995816, 81, 325, 208, 356
-0.995816, 49, 49, 176, 80
-0.99582, 413, 225, 428, 288
-0.995825, 241, 77, 368, 108
-0.995829, 1, 1, 500, 64
-0.995829, 257, 249, 384, 280
-0.995831, 207, 185, 222, 248
-0.995835, 241, 313, 256, 375
-0.995841, 261, 57, 276, 120
-0.995855, 443, 217, 458, 280
-0.995867, 433, 33, 448, 96
-0.995881, 359, 209, 374, 272
-0.995891, 337, 113, 352, 176
-0.995892, 7, 233, 22, 296
-0.995893, 209, 321, 336, 352
-0.995895, 129, 209, 256, 240
-0.9959, 241, 37, 368, 68
-0.995902, 303, 65, 318, 128
-0.99591, 325, 33, 340, 96
-0.99592, 417, 1, 448, 256
-0.995922, 219, 185, 234, 248
-0.995929, 357, 185, 372, 248
-0.995935, 277, 33, 292, 96
-0.995937, 289, 41, 304, 104
-0.995948, 193, 149, 320, 180
-0.99595, 387, 225, 402, 288
-0.995951, 337, 133, 464, 164
-0.995956, 249, 57, 264, 120
-0.995958, 395, 201, 410, 264
-0.995959, 305, 289, 432, 320
-0.995973, 177, 49, 304, 80
-0.995981, 241, 89, 368, 120
-0.995982, 25, 313, 40, 375
-0.995989, 473, 17, 488, 80
-0.995995, 35, 185, 50, 248
-0.99606, 241, 345, 368, 375
-0.996061, 45, 169, 60, 232
-0.996065, 239, 49, 254, 112
-0.99607, 61, 1, 92, 256
-0.996074, 81, 313, 208, 344
-0.996077, 467, 17, 482, 80
-0.996084, 233, 41, 248, 104
-0.996087, 141, 313, 156, 375
-0.996095, 321, 149, 448, 180
-0.9961, 375, 273, 390, 336
-0.996103, 41, 1, 56, 64
-0.996107, 241, 261, 368, 292
-0.996117, 361, 65, 392, 320
-0.996118, 101, 249, 116, 312
-0.996123, 51, 25, 66, 88
-0.99614, 295, 49, 310, 112
-0.996141, 411, 201, 426, 264
-0.99615, 369, 273, 496, 304
-0.996157, 145, 149, 272, 180
-0.996158, 465, 1, 496, 256
-0.99616, 209, 161, 224, 224
-0.996161, 1, 165, 128, 196
-0.996175, 105, 209, 120, 272
-0.996184, 401, 201, 416, 264
-0.996185, 381, 257, 396, 320
-0.99619, 381, 97, 396, 160
-0.996198, 93, 33, 124, 288
-0.996212, 113, 9, 240, 72
-0.996219, 397, 161, 412, 224
-0.996219, 321, 121, 448, 152
-0.996227, 177, 193, 192, 256
-0.996231, 445, 169, 460, 232
-0.996234, 207, 105, 222, 168
-0.996244, 77, 161, 92, 224
-0.996246, 161, 301, 288, 332
-0.996251, 109, 137, 124, 200
-0.996253, 401, 41, 416, 104
-0.996254, 321, 45, 448, 76
-0.996257, 227, 41, 242, 104
-0.996259, 219, 57, 234, 120
-0.996264, 369, 77, 496, 108
-0.996266, 447, 25, 462, 88
-0.996266, 119, 177, 134, 240
-0.996271, 257, 305, 384, 336
-0.996284, 73, 41, 88, 104
-0.996285, 371, 89, 386, 152
-0.996294, 213, 81, 228, 144
-0.996297, 445, 1, 476, 256
-0.996304, 21, 265, 36, 328
-0.996309, 383, 177, 398, 240
-0.996309, 453, 233, 468, 296
-0.996312, 305, 41, 320, 104
-0.99632, 1, 341, 128, 372
-0.996321, 353, 289, 480, 320
-0.996331, 347, 185, 362, 248
-0.996343, 97, 161, 224, 192
-0.996353, 257, 329, 384, 360
-0.996363, 25, 73, 40, 136
-0.996365, 23, 289, 38, 352
-0.996366, 449, 209, 464, 272
-0.996375, 121, 121, 136, 184
-0.996375, 189, 185, 204, 248
-0.996376, 63, 33, 78, 96
-0.996381, 339, 281, 354, 344
-0.996384, 309, 65, 324, 128
-0.996388, 81, 241, 208, 272
-0.996393, 405, 1, 436, 256
-0.996394, 273, 1, 304, 256
-0.996397, 341, 49, 356, 112
-0.996406, 391, 177, 406, 240
-0.996426, 1, 245, 128, 276
-0.996428, 323, 313, 338, 375
-0.996436, 275, 57, 290, 120
-0.99644, 177, 125, 304, 156
-0.996442, 107, 249, 122, 312
-0.996443, 369, 289, 384, 352
-0.996451, 417, 33, 432, 96
-0.996454, 193, 345, 320, 375
-0.996465, 257, 293, 384, 324
-0.996467, 41, 201, 56, 264
-0.996499, 331, 297, 346, 360
-0.996505, 423, 161, 438, 224
-0.996507, 71, 145, 86, 208
-0.996511, 439, 193, 454, 256
-0.996521, 369, 45, 496, 76
-0.996523, 133, 305, 148, 368
-0.99653, 417, 201, 432, 264
-0.996533, 83, 153, 98, 216
-0.996538, 39, 161, 54, 224
-0.996554, 113, 81, 240, 112
-0.996562, 73, 33, 104, 288
-0.996571, 433, 1, 464, 256
-0.99658, 145, 101, 272, 132
-0.996589, 81, 337, 208, 368
-0.996646, 129, 57, 256, 88
-0.996646, 81, 285, 208, 316
-0.996651, 321, 161, 448, 192
-0.996653, 17, 137, 144, 168
-0.996658, 177, 201, 304, 232
-0.996662, 113, 125, 240, 156
-0.996681, 321, 109, 448, 140
-0.996685, 253, 33, 284, 288
-0.996688, 209, 309, 336, 340
-0.9967, 257, 125, 384, 156
-0.99671, 33, 101, 160, 132
-0.996731, 341, 129, 372, 375
-0.996736, 273, 173, 400, 204
-0.996739, 177, 241, 304, 272
-0.996742, 17, 9, 144, 40
-0.996747, 193, 185, 320, 216
-0.996798, 131, 193, 146, 224
-0.996833, 1, 329, 128, 360
-0.996842, 293, 33, 324, 288
-0.996843, 369, 65, 496, 96
-0.996889, 325, 1, 356, 256
-0.99691, 17, 89, 144, 120
-0.996924, 193, 77, 320, 108
-0.996926, 289, 137, 416, 168
-0.99693, 161, 289, 288, 320
-0.996971, 177, 253, 304, 284
-0.996975, 17, 297, 144, 328
-0.996986, 113, 113, 240, 144
-0.997015, 337, 333, 464, 364
-0.997025, 129, 69, 256, 100
-0.997063, 193, 97, 320, 128
-0.997095, 97, 221, 224, 252
-0.997107, 161, 173, 288, 204
-0.997116, 1, 153, 128, 184
-0.99712, 193, 161, 320, 192
-0.997129, 177, 273, 304, 304
-0.997145, 353, 309, 480, 340
-0.997151, 305, 29, 432, 60
-0.997214, 219, 193, 234, 224
-0.997265, 153, 129, 184, 375
-0.997315, 199, 137, 214, 168
-0.997315, 345, 33, 376, 288
-0.997377, 33, 81, 48, 112
-0.997382, 45, 97, 76, 352
-0.997404, 77, 165, 92, 196
-0.997451, 97, 9, 352, 72
-0.997466, 117, 149, 132, 180
-0.997479, 175, 169, 190, 200
-0.997561, 181, 169, 196, 200
-0.997575, 27, 73, 42, 104
-0.9976, 243, 321, 258, 352
-0.997612, 355, 221, 370, 252
-0.997617, 249, 321, 264, 352
-0.997628, 381, 65, 412, 320
-0.997638, 35, 17, 50, 48
-0.99764, 17, 33, 48, 288
-0.997665, 33, 129, 64, 375
-0.997666, 213, 189, 228, 220
-0.997677, 107, 209, 122, 240
-0.99768, 265, 241, 280, 272
-0.99769, 165, 97, 196, 352
-0.997694, 39, 5, 54, 36
-0.997698, 187, 169, 202, 200
-0.997705, 163, 169, 178, 200
-0.997712, 257, 9, 500, 72
-0.997724, 329, 97, 360, 352
-0.997729, 201, 165, 216, 196
-0.997742, 111, 153, 126, 184
-0.997742, 393, 33, 424, 288
-0.99775, 237, 129, 268, 375
-0.997761, 353, 249, 368, 280
-0.997774, 435, 37, 450, 68
-0.997774, 39, 93, 54, 124
-0.997785, 93, 129, 124, 375
-0.997792, 99, 189, 114, 220
-0.997825, 205, 129, 236, 375
-0.997835, 111, 193, 126, 224
-0.997846, 379, 241, 394, 272
-0.997858, 29, 229, 44, 260
-0.99786, 339, 285, 354, 316
-0.997861, 321, 325, 336, 356
-0.997865, 167, 149, 182, 180
-0.997868, 227, 201, 242, 232
-0.99788, 449, 29, 464, 60
-0.997882, 195, 169, 210, 200
-0.997883, 173, 149, 188, 180
-0.997896, 103, 177, 118, 208
-0.997897, 131, 205, 146, 236
-0.997899, 91, 169, 106, 200
-0.997909, 443, 237, 458, 268
-0.997913, 113, 225, 128, 256
-0.997919, 207, 185, 222, 216
-0.997926, 349, 261, 364, 292
-0.997929, 71, 169, 86, 200
-0.997957, 395, 153, 410, 184
-0.99796, 21, 73, 36, 104
-0.997962, 363, 229, 378, 260
-0.997964, 123, 149, 138, 180
-0.997975, 45, 105, 60, 136
-0.997978, 421, 129, 452, 375
-0.997979, 335, 57, 350, 88
-0.997981, 101, 201, 116, 232
-0.997981, 345, 209, 360, 240
-0.997981, 189, 129, 220, 375
-0.997993, 417, 37, 432, 68
-0.997993, 249, 129, 280, 375
-0.997994, 421, 173, 436, 204
-0.998001, 71, 45, 86, 76
-0.998007, 351, 233, 366, 264
-0.998009, 201, 153, 216, 184
-0.998009, 273, 245, 288, 276
-0.998009, 381, 229, 396, 260
-0.998025, 177, 185, 192, 216
-0.998035, 311, 329, 326, 360
-0.998037, 169, 169, 184, 200
-0.998037, 239, 53, 254, 84
-0.998041, 415, 161, 430, 192
-0.998052, 157, 149, 172, 180
-0.998055, 105, 245, 120, 276
-0.998055, 311, 65, 326, 96
-0.998066, 109, 177, 124, 208
-0.998077, 121, 185, 136, 216
-0.998077, 137, 313, 152, 344
-0.998079, 129, 145, 144, 176
-0.998084, 179, 149, 194, 180
-0.998087, 343, 273, 358, 304
-0.998089, 79, 153, 94, 184
-0.99809, 85, 165, 100, 196
-0.998096, 401, 149, 416, 180
-0.998107, 387, 225, 402, 256
-0.998113, 253, 61, 268, 92
-0.998117, 415, 185, 430, 216
-0.998126, 437, 197, 452, 228
-0.998141, 137, 149, 152, 180
-0.998143, 459, 25, 474, 56
-0.998147, 213, 201, 228, 232
-0.998152, 117, 137, 132, 168
-0.998155, 333, 297, 348, 328
-0.998158, 343, 73, 358, 104
-0.998159, 395, 81, 410, 112
-0.998159, 65, 173, 80, 204
-0.998166, 75, 57, 90, 88
-0.998171, 429, 157, 444, 188
-0.998173, 311, 345, 326, 375
-0.998173, 441, 29, 456, 60
-0.998175, 189, 189, 204, 220
-0.998177, 103, 273, 118, 304
-0.998178, 325, 313, 340, 344
-0.998179, 7, 237, 22, 268
-0.998181, 145, 149, 160, 180
-0.998183, 463, 37, 478, 68
-0.998186, 411, 221, 426, 252
-0.998189, 485, 25, 500, 56
-0.998193, 93, 185, 108, 216
-0.998193, 183, 185, 198, 216
-0.9982, 335, 85, 350, 116
-0.998203, 293, 53, 308, 84
-0.998205, 201, 193, 216, 224
-0.998208, 469, 25, 484, 56
-0.99821, 375, 229, 390, 260
-0.998213, 265, 61, 280, 92
-0.99822, 257, 233, 272, 264
-0.998222, 357, 237, 372, 268
-0.998224, 51, 29, 66, 60
-0.998228, 303, 69, 318, 100
-0.998228, 95, 201, 110, 232
-0.998229, 127, 133, 142, 164
-0.998236, 233, 197, 248, 228
-0.998241, 247, 61, 262, 92
-0.998241, 83, 177, 98, 208
-0.998243, 297, 241, 360, 368
-0.998243, 237, 325, 252, 356
-0.998243, 45, 181, 60, 212
-0.998245, 45, 93, 60, 124
-0.998254, 207, 197, 222, 228
-0.998254, 387, 249, 402, 280
-0.998254, 37, 337, 52, 368
-0.998256, 41, 205, 56, 236
-0.998263, 197, 125, 212, 156
-0.998263, 103, 257, 118, 288
-0.998266, 151, 149, 166, 180
-0.998267, 117, 205, 132, 236
-0.998272, 355, 209, 370, 240
-0.998272, 109, 281, 124, 312
-0.998284, 453, 213, 468, 244
-0.998338, 217, 129, 248, 375
-0.998392, 81, 129, 112, 375
-0.998394, 357, 243, 388, 258
-0.998394, 33, 11, 64, 26
-0.998395, 369, 91, 400, 106
-0.998395, 393, 153, 424, 168
-0.998395, 5, 251, 36, 266
-0.998395, 57, 97, 88, 352
-0.998396, 257, 59, 288, 74
-0.998397, 89, 213, 120, 228
-0.998397, 85, 183, 116, 198
-0.998397, 221, 211, 252, 226
-0.998397, 189, 357, 220, 372
-0.998398, 237, 331, 268, 346
-0.998398, 401, 77, 432, 92
-0.998398, 37, 191, 68, 206
-0.998398, 77, 161, 108, 176
-0.998399, 269, 263, 300, 278
-0.998399, 121, 231, 152, 246
-0.998399, 173, 199, 204, 214
-0.998401, 461, 25, 492, 40
-0.998401, 41, 171, 72, 186
-0.998401, 81, 205, 112, 220
-0.998402, 177, 129, 208, 375
-0.998402, 205, 155, 236, 170
-0.998402, 237, 63, 268, 78
-0.998403, 5, 259, 36, 274
-0.998403, 97, 261, 128, 276
-0.998404, 161, 181, 192, 196
-0.998404, 5, 269, 36, 284
-0.998404, 341, 219, 372, 234
-0.998404, 41, 31, 72, 46
-0.998406, 173, 209, 204, 224
-0.998407, 309, 35, 340, 50
-0.998408, 33, 83, 64, 98
-0.998408, 221, 331, 252, 346
-0.998408, 293, 343, 324, 358
-0.998408, 85, 177, 116, 192
-0.998409, 253, 243, 284, 258
-0.998409, 389, 81, 420, 96
-0.99841, 401, 165, 432, 180
-0.998411, 437, 179, 468, 194
-0.998411, 329, 91, 360, 106
-0.998411, 109, 241, 140, 256
-0.998412, 445, 45, 476, 60
-0.998413, 105, 217, 136, 232
-0.998414, 73, 167, 104, 182
-0.998414, 5, 245, 36, 260
-0.998414, 17, 71, 48, 86
-0.998414, 317, 49, 348, 64
-0.998414, 349, 237, 380, 252
-0.998415, 97, 165, 128, 180
-0.998415, 73, 57, 104, 72
-0.998415, 25, 77, 56, 92
-0.998416, 369, 243, 400, 258
-0.998416, 413, 179, 444, 194
-0.998416, 397, 225, 428, 240
-0.998417, 73, 179, 104, 194
-0.998417, 21, 361, 52, 375
-0.998417, 445, 31, 476, 46
-0.998419, 9, 297, 40, 312
-0.998419, 173, 183, 204, 198
-0.99842, 9, 291, 40, 306
-0.998421, 17, 331, 48, 346
-0.998422, 397, 129, 428, 375
-0.998422, 9, 315, 40, 330
-0.998422, 141, 199, 172, 214
-0.998423, 185, 197, 216, 212
-0.998423, 109, 211, 140, 226
-0.998423, 321, 79, 352, 94
-0.998424, 161, 145, 224, 160
-0.998424, 305, 65, 336, 80
-0.998425, 425, 39, 456, 54
-0.998426, 437, 97, 468, 352
-0.998426, 9, 321, 40, 336
-0.998427, 441, 215, 472, 230
-0.998427, 441, 39, 472, 54
-0.998429, 389, 87, 420, 102
-0.998431, 9, 305, 40, 320
-0.998432, 185, 351, 216, 366
-0.998433, 337, 211, 368, 226
-0.998433, 409, 155, 440, 170
-0.998434, 53, 169, 84, 184
-0.998434, 109, 223, 140, 238
-0.998436, 345, 225, 376, 240
-0.998436, 49, 181, 80, 196
-0.998437, 17, 337, 48, 352
-0.998437, 409, 45, 440, 60
-0.998437, 105, 151, 168, 166
-0.998439, 185, 147, 216, 162
-0.99844, 189, 163, 220, 178
-0.998441, 297, 59, 328, 74
-0.998443, 21, 89, 52, 104
-0.998444, 17, 349, 48, 364
-0.998444, 421, 255, 452, 270
-0.998445, 325, 85, 356, 100
-0.998445, 105, 195, 136, 210
-0.99845, 13, 77, 44, 92
-0.99845, 97, 207, 128, 222
-0.998457, 121, 205, 152, 220
-0.998457, 173, 171, 204, 186
-0.998457, 17, 83, 48, 98
-0.998458, 189, 181, 220, 196
-0.998458, 193, 187, 224, 202
-0.998461, 33, 343, 64, 358
-0.998462, 37, 185, 68, 200
-0.998463, 109, 229, 140, 244
-0.998464, 161, 169, 192, 184
-0.998464, 297, 61, 360, 76
-0.99847, 397, 159, 428, 174
-0.998472, 5, 239, 36, 254
-0.998473, 377, 253, 440, 268
-0.998474, 361, 237, 392, 252
-0.998475, 469, 97, 500, 352
-0.998476, 69, 185, 100, 200
-0.998476, 337, 243, 400, 258
-0.998477, 193, 205, 224, 220
-0.998477, 97, 185, 128, 200
-0.998478, 317, 97, 348, 352
-0.99848, 193, 171, 224, 186
-0.99848, 421, 195, 452, 210
-0.998481, 65, 185, 128, 200
-0.998484, 205, 189, 236, 204
-0.998484, 109, 235, 140, 250
-0.998486, 213, 205, 244, 220
-0.998486, 129, 199, 160, 214
-0.998487, 17, 343, 48, 358
-0.998489, 185, 199, 248, 214
-0.998493, 413, 39, 444, 54
-0.998493, 233, 325, 296, 340
-0.998494, 353, 231, 384, 246
-0.998495, 289, 55, 352, 70
-0.998497, 73, 159, 136, 174
-0.998501, 161, 171, 224, 186
-0.998501, 425, 45, 456, 60
-0.998501, 137, 347, 200, 362
-0.998506, 385, 155, 448, 170
-0.998506, 129, 193, 160, 208
-0.998511, 201, 197, 232, 212
-0.998511, 97, 179, 128, 194
-0.998514, 337, 249, 400, 264
-0.998515, 121, 129, 136, 256
-0.998518, 297, 67, 360, 82
-0.998521, 97, 245, 160, 260
-0.998527, 213, 199, 244, 214
-0.998528, 393, 51, 456, 66
-0.998529, 97, 159, 128, 174
-0.99853, 41, 179, 104, 194
-0.998531, 137, 333, 200, 348
-0.998532, 97, 193, 160, 208
-0.998532, 185, 141, 248, 156
-0.998532, 161, 181, 224, 196
-0.998533, 105, 165, 168, 180
-0.998533, 265, 59, 328, 74
-0.998533, 73, 167, 136, 182
-0.998534, 73, 179, 136, 194
-0.998537, 97, 201, 128, 216
-0.998538, 185, 205, 248, 220
-0.998539, 377, 259, 440, 274
-0.99854, 161, 151, 224, 166
-0.99854, 137, 327, 200, 342
-0.998541, 29, 25, 60, 40
-0.998542, 17, 31, 80, 46
-0.998542, 209, 325, 272, 340
-0.998543, 109, 187, 140, 202
-0.998545, 129, 309, 192, 324
-0.998545, 105, 203, 168, 218
-0.998545, 33, 1, 48, 128
-0.998546, 41, 187, 104, 202
-0.998547, 137, 321, 200, 336
-0.998548, 185, 193, 248, 208
-0.99855, 257, 65, 320, 80
-0.998552, 137, 341, 200, 356
-0.998552, 137, 315, 200, 330
-0.998555, 401, 37, 464, 52
-0.998555, 109, 205, 140, 220
-0.998555, 313, 91, 376, 106
-0.998558, 97, 239, 160, 254
-0.998559, 17, 37, 80, 52
-0.998559, 25, 343, 88, 358
-0.998562, 337, 237, 400, 252
-0.998563, 137, 207, 200, 222
-0.998564, 177, 341, 240, 356
-0.998564, 369, 189, 432, 204
-0.998564, 377, 247, 440, 262
-0.998565, 313, 325, 376, 340
-0.998565, 321, 97, 384, 112
-0.998565, 17, 73, 80, 88
-0.998565, 153, 195, 216, 210
-0.998566, 105, 173, 168, 188
-0.998566, 97, 187, 160, 202
-0.998567, 337, 221, 400, 236
-0.998568, 129, 303, 192, 318
-0.998569, 177, 357, 240, 372
-0.99857, 369, 267, 432, 282
-0.99857, 337, 267, 400, 282
-0.998571, 117, 199, 148, 214
-0.998571, 193, 135, 256, 150
-0.998572, 33, 193, 96, 208
-0.998572, 329, 287, 392, 302
-0.998573, 337, 229, 400, 244
-0.998573, 73, 153, 136, 168
-0.998573, 337, 255, 400, 270
-0.998574, 401, 181, 464, 196
-0.998576, 305, 333, 368, 348
-0.998576, 369, 237, 432, 252
-0.998577, 161, 139, 224, 154
-0.998577, 193, 331, 256, 346
-0.998579, 161, 165, 224, 180
-0.998579, 65, 145, 128, 160
-0.998579, 337, 261, 400, 276
-0.998579, 369, 225, 432, 240
-0.99858, 177, 187, 240, 202
-0.99858, 1, 343, 64, 358
-0.99858, 89, 209, 152, 224
-0.998581, 193, 153, 256, 168
-0.998581, 345, 89, 408, 104
-0.998583, 409, 219, 472, 234
-0.998583, 305, 343, 368, 358
-0.998584, 177, 351, 240, 366
-0.998584, 409, 241, 472, 256
-0.998584, 113, 151, 144, 166
-0.998585, 385, 161, 448, 176
-0.998585, 49, 57, 112, 72
-0.998587, 113, 179, 176, 194
-0.998587, 97, 217, 160, 232
-0.998588, 425, 37, 488, 52
-0.998591, 193, 165, 256, 180
-0.998591, 337, 83, 400, 98
-0.998591, 225, 65, 288, 80
-0.998592, 97, 223, 160, 238
-0.998593, 409, 235, 472, 250
-0.998593, 369, 275, 432, 290
-0.998593, 33, 201, 96, 216
-0.998594, 321, 307, 384, 322
-0.998595, 193, 159, 256, 174
-0.998596, 113, 209, 176, 224
-0.998596, 193, 147, 256, 162
-0.998596, 329, 273, 392, 288
-0.998597, 161, 205, 224, 220
-0.998597, 401, 43, 464, 58
-0.998598, 161, 159, 224, 174
-0.998598, 25, 79, 88, 94
-0.998598, 433, 29, 496, 44
-0.998598, 329, 281, 392, 296
-0.998599, 129, 201, 192, 216
-0.998599, 361, 297, 424, 312
-0.998599, 273, 325, 336, 340
-0.9986, 233, 59, 296, 74
-0.998601, 25, 49, 88, 64
-0.998601, 105, 159, 168, 174
-0.998601, 33, 207, 96, 222
-0.998602, 345, 95, 408, 110
-0.998603, 9, 25, 72, 40
-0.998603, 273, 335, 336, 350
-0.998603, 137, 353, 200, 368
-0.998604, 237, 325, 268, 340
-0.998604, 233, 319, 296, 334
-0.998604, 321, 301, 384, 316
-0.998604, 409, 255, 472, 270
-0.998605, 169, 331, 232, 346
-0.998605, 185, 141, 216, 156
-0.998605, 89, 49, 152, 64
-0.998605, 17, 349, 80, 364
-0.998606, 281, 35, 344, 50
-0.998607, 337, 211, 400, 226
-0.998608, 89, 261, 152, 276
-0.998608, 409, 171, 472, 186
-0.998608, 145, 361, 208, 375
-0.998616, 117, 193, 148, 208
-0.998686, 133, 129, 148, 256
-0.998754, 31, 209, 46, 336
-0.99876, 201, 113, 216, 240
-0.998783, 165, 113, 180, 240
-0.998812, 337, 49, 352, 176
-0.998824, 355, 161, 370, 288
-0.99883, 109, 145, 124, 272
-0.998838, 39, 1, 54, 128
-0.998851, 115, 129, 130, 256
-0.998853, 113, 193, 128, 320
-0.998853, 483, 17, 498, 144
-0.998877, 409, 97, 440, 352
-0.998879, 127, 129, 142, 256
-0.998882, 349, 145, 364, 272
-0.998884, 255, 49, 270, 176
-0.998891, 141, 129, 156, 256
-0.998906, 245, 49, 260, 176
-0.998908, 9, 129, 40, 375
-0.998922, 269, 49, 284, 176
-0.998925, 27, 17, 42, 144
-0.998937, 177, 113, 192, 240
-0.998938, 155, 113, 170, 240
-0.998938, 209, 81, 224, 208
-0.998939, 261, 49, 276, 176
-0.998949, 103, 177, 118, 304
-0.998951, 281, 17, 296, 144
-0.998958, 323, 17, 338, 144
-0.998958, 45, 17, 60, 144
-0.998973, 289, 33, 304, 160
-0.998974, 351, 225, 366, 352
-0.998974, 69, 129, 100, 375
-0.998979, 9, 225, 24, 352
-0.99898, 301, 49, 316, 176
-0.998981, 275, 33, 290, 160
-0.998983, 133, 177, 148, 304
-0.99899, 51, 17, 66, 144
-0.998993, 41, 161, 56, 288
-0.998998, 375, 241, 390, 368
-0.999, 343, 177, 358, 304
-0.999005, 337, 97, 352, 224
-0.999011, 343, 129, 358, 256
-0.999021, 265, 225, 280, 352
-0.999021, 123, 225, 138, 352
-0.999022, 51, 97, 66, 224
-0.999027, 171, 113, 186, 240
-0.999028, 295, 49, 310, 176
-0.999042, 417, 17, 432, 144
-0.999042, 183, 113, 198, 240
-0.999043, 81, 65, 96, 192
-0.999047, 233, 33, 248, 160
-0.999048, 259, 225, 274, 352
-0.999048, 239, 49, 254, 176
-0.999049, 65, 113, 80, 240
-0.999052, 329, 17, 344, 144
-0.999056, 201, 33, 216, 160
-0.999057, 149, 129, 164, 256
-0.999061, 405, 33, 420, 160
-0.999063, 351, 81, 366, 208
-0.99907, 445, 17, 460, 144
-0.999074, 23, 241, 38, 368
-0.999081, 451, 17, 466, 144
-0.999087, 469, 17, 484, 144
-0.999087, 75, 145, 90, 272
-0.99909, 357, 209, 372, 336
-0.999093, 225, 33, 240, 160
-0.999095, 189, 113, 204, 240
-0.999097, 93, 33, 108, 160
-0.999101, 457, 129, 488, 375
-0.999102, 113, 33, 128, 160
-0.999103, 219, 49, 234, 176
-0.999109, 393, 65, 408, 192
-0.999111, 413, 209, 428, 336
-0.999114, 327, 81, 342, 208
-0.999116, 427, 33, 442, 160
-0.999118, 41, 81, 56, 208
-0.999119, 439, 17, 454, 144
-0.99912, 57, 113, 72, 240
-0.999122, 463, 17, 478, 144
-0.999123, 71, 33, 86, 160
-0.999126, 253, 209, 268, 336
-0.99913, 207, 33, 222, 160
-0.999132, 191, 33, 206, 160
-0.999133, 383, 177, 398, 304
-0.999137, 195, 113, 210, 240
-0.999139, 317, 17, 332, 144
-0.999144, 105, 225, 120, 352
-0.999146, 477, 17, 492, 144
-0.999146, 411, 33, 426, 160
-0.999147, 219, 177, 234, 304
-0.999152, 433, 33, 448, 160
-0.999155, 245, 209, 260, 336
-0.99916, 105, 33, 120, 160
-0.999161, 361, 161, 376, 288
-0.999162, 443, 193, 458, 320
-0.999166, 367, 225, 382, 352
-0.999166, 449, 161, 464, 288
-0.999166, 185, 33, 200, 160
-0.999183, 87, 113, 102, 240
-0.999184, 59, 17, 74, 144
-0.999187, 211, 177, 226, 304
-0.999188, 397, 177, 412, 304
-0.999192, 455, 177, 470, 304
-0.999194, 35, 81, 50, 208
-0.999196, 343, 65, 358, 192
-0.999196, 115, 81, 130, 208
-0.9992, 391, 209, 406, 336
-0.999201, 381, 241, 396, 368
-0.999207, 405, 209, 420, 336
-0.99921, 97, 193, 112, 320
-0.999219, 273, 9, 400, 72
-0.999221, 123, 81, 138, 208
-0.999221, 457, 17, 472, 144
-0.999221, 35, 145, 50, 272
-0.999229, 345, 241, 360, 368
-0.999231, 357, 81, 372, 208
-0.999232, 139, 225, 154, 352
-0.999236, 307, 65, 322, 192
-0.99924, 373, 193, 388, 320
-0.999244, 119, 33, 134, 160
-0.999246, 29, 65, 44, 192
-0.999248, 161, 161, 176, 288
-0.999251, 65, 17, 80, 144
-0.999255, 311, 17, 326, 144
-0.999258, 87, 33, 102, 160
-0.999261, 81, 145, 96, 272
-0.999269, 385, 65, 400, 192
-0.999273, 271, 225, 286, 352
-0.999273, 399, 225, 414, 352
-0.999286, 127, 177, 142, 304
-0.999286, 371, 81, 386, 208
-0.999287, 399, 49, 414, 176
-0.999292, 129, 65, 144, 192
-0.999294, 313, 65, 328, 192
-0.999558, 265, 129, 296, 375
-0.999576, 445, 45, 460, 60
-0.999576, 211, 209, 226, 224
-0.999576, 347, 223, 362, 238
-0.999577, 105, 153, 120, 168
-0.999577, 325, 321, 340, 336
-0.999577, 17, 79, 32, 94
-0.999577, 469, 27, 484, 42
-0.999577, 485, 27, 500, 42
-0.999577, 255, 233, 270, 248
-0.999578, 177, 197, 192, 212
-0.999578, 295, 65, 310, 80
-0.999578, 121, 207, 136, 222
-0.999578, 445, 31, 460, 46
-0.999578, 235, 209, 250, 224
-0.999579, 339, 211, 354, 226
-0.999579, 173, 169, 188, 184
-0.999579, 43, 187, 58, 202
-0.999579, 179, 147, 194, 162
-0.999579, 353, 255, 368, 270
-0.99958, 217, 205, 232, 220
-0.99958, 97, 181, 112, 196
-0.99958, 395, 71, 410, 86
-0.999581, 69, 143, 84, 158
-0.999581, 79, 179, 94, 194
-0.999581, 363, 241, 378, 256
-0.999581, 127, 305, 142, 320
-0.999581, 39, 97, 54, 112
-0.999581, 475, 25, 490, 40
-0.999582, 107, 243, 122, 258
-0.999582, 335, 65, 350, 80
-0.999583, 249, 63, 264, 78
-0.999583, 111, 191, 126, 206
-0.999583, 317, 329, 332, 344
-0.999583, 415, 175, 430, 190
-0.999584, 111, 173, 126, 188
-0.999584, 31, 91, 46, 106
-0.999585, 413, 159, 428, 174
-0.999585, 229, 199, 244, 214
-0.999586, 71, 167, 86, 182
-0.999587, 181, 203, 196, 218
-0.999588, 51, 31, 66, 46
-0.999588, 31, 19, 46, 34
-0.999589, 43, 25, 58, 40
-0.999589, 437, 195, 452, 210
-0.999589, 353, 247, 368, 262
-0.99959, 345, 67, 360, 82
-0.99959, 103, 185, 118, 200
-0.99959, 199, 133, 214, 148
-0.999591, 77, 61, 92, 76
-0.999592, 191, 357, 206, 372
-0.999592, 39, 5, 54, 20
-0.999592, 459, 31, 474, 46
-0.999593, 401, 153, 416, 168
-0.999593, 73, 185, 88, 200
-0.999594, 223, 187, 238, 202
-0.999594, 139, 191, 154, 206
-0.999595, 399, 159, 414, 174
-0.999595, 311, 65, 326, 80
-0.999595, 441, 37, 456, 52
-0.999595, 47, 113, 62, 128
-0.999596, 353, 237, 368, 252
-0.999596, 135, 313, 150, 328
-0.999596, 311, 331, 326, 346
-0.999597, 189, 169, 204, 184
-0.999597, 23, 83, 38, 98
-0.999598, 201, 161, 216, 176
-0.999599, 199, 205, 214, 220
-0.9996, 427, 43, 442, 58
-0.999602, 383, 243, 398, 258
-0.999604, 455, 217, 470, 232
-0.999604, 429, 191, 444, 206
-0.999604, 395, 83, 410, 98
-0.999604, 111, 203, 126, 218
-0.999605, 37, 15, 52, 30
-0.999605, 29, 233, 44, 248
-0.999605, 303, 71, 318, 86
-0.999608, 45, 97, 60, 112
-0.99961, 85, 177, 100, 192
-0.99961, 195, 171, 210, 186
-0.999612, 121, 187, 136, 202
-0.999613, 49, 103, 64, 118
-0.999613, 141, 199, 156, 214
-0.999614, 189, 351, 204, 366
-0.999617, 191, 141, 206, 156
-0.999617, 109, 221, 124, 236
-0.999618, 229, 205, 244, 220
-0.999619, 185, 145, 200, 160
-0.999619, 249, 323, 264, 338
-0.999619, 77, 167, 92, 182
-0.99962, 439, 47, 454, 62
-0.99962, 101, 261, 116, 276
-0.99962, 201, 197, 216, 212
-0.99962, 365, 235, 380, 250
-0.999625, 105, 213, 120, 228
-0.999627, 347, 213, 362, 228
-0.999627, 417, 37, 432, 52
-0.999627, 309, 337, 324, 352
-0.999627, 37, 343, 52, 358
-0.999627, 355, 219, 370, 234
-0.999628, 121, 197, 136, 212
-0.999631, 111, 185, 126, 200
-0.999634, 273, 255, 288, 270
-0.999634, 217, 199, 232, 214
-0.999635, 41, 91, 56, 106
-0.999636, 241, 325, 256, 340
-0.999636, 57, 171, 72, 186
-0.999637, 211, 189, 226, 204
-0.999638, 163, 169, 178, 184
-0.999639, 103, 179, 118, 194
-0.999643, 407, 159, 422, 174
-0.999645, 101, 205, 116, 220
-0.999647, 433, 47, 448, 62
-0.999649, 267, 243, 282, 258
-0.999651, 109, 159, 124, 174
-0.999651, 131, 205, 146, 220
-0.99966, 435, 41, 450, 56
-0.999661, 35, 85, 50, 100
-0.999661, 25, 73, 40, 88
-0.999661, 357, 229, 372, 244
-0.999662, 111, 179, 126, 194
-0.999665, 223, 201, 238, 216
-0.999665, 37, 23, 52, 38
-0.999668, 223, 195, 238, 210
-0.99967, 201, 171, 216, 186
-0.999672, 29, 79, 44, 94
-0.99968, 131, 199, 146, 214
-0.999688, 217, 191, 232, 206
-0.999717, 115, 151, 130, 166
-0.999722, 199, 139, 214, 154
-0.999751, 131, 193, 146, 208
-0.999783, 305, 97, 336, 352
-0.999947, 21, 129, 52, 375
-1.00024, 277, 97, 308, 352
-1.00025, 5, 33, 36, 288
-1.0008, 293, 129, 324, 375
