1917
-0.429593, 1, 161, 328, 416
-0.479258, 1, 1, 328, 500
-0.48248, 1, 65, 328, 320
-0.564042, 33, 1, 288, 500
-0.587349, 1, 257, 328, 500
-0.730452, 33, 97, 288, 352
-0.768964, 33, 193, 288, 448
-0.795578, 65, 1, 320, 256
-0.848576, 97, 1, 224, 256
-0.864954, 113, 1, 240, 500
-0.884999, 97, 97, 224, 352
-0.892935, 1, 177, 328, 304
-0.89424, 161, 1, 288, 500
-0.9048, 145, 161, 272, 416
-0.907024, 145, 33, 272, 288
-0.910217, 49, 129, 176, 384
-0.911053, 1, 129, 328, 256
-0.912224, 49, 1, 176, 256
-0.912694, 65, 1, 192, 500
-0.921487, 97, 193, 224, 448
-0.929004, 17, 1, 144, 500
-0.929984, 97, 113, 224, 240
-0.93228, 97, 65, 224, 192
-0.933314, 161, 257, 288, 500
-0.935518, 1, 81, 328, 208
-0.940439, 1, 177, 256, 304
-0.940844, 1, 225, 128, 480
-0.943402, 193, 65, 320, 320
-0.943621, 1, 273, 328, 400
-0.943985, 33, 113, 288, 240
-0.944209, 169, 129, 232, 256
-0.946276, 113, 97, 176, 224
-0.947887, 1, 225, 328, 352
-0.948018, 49, 145, 176, 272
-0.949658, 97, 17, 224, 144
-0.950055, 137, 145, 200, 272
-0.950133, 65, 65, 320, 192
-0.95106, 97, 161, 224, 288
-0.951531, 1, 33, 328, 160
-0.95253, 129, 1, 192, 128
-0.952555, 1, 97, 128, 352
-0.952847, 129, 49, 192, 176
-0.955066, 1, 321, 328, 448
-0.955994, 137, 97, 200, 224
-0.957704, 145, 113, 272, 240
-0.958637, 105, 49, 168, 176
-0.959767, 49, 257, 176, 500
-0.959932, 145, 193, 272, 320
-0.959958, 185, 177, 248, 304
-0.960169, 1, 1, 128, 256
-0.960724, 65, 225, 320, 352
-0.961003, 1, 369, 328, 496
-0.961856, 129, 161, 192, 224
-0.96306, 169, 33, 232, 160
-0.963406, 33, 17, 288, 144
-0.963531, 177, 137, 240, 200
-0.964516, 113, 145, 176, 272
-0.964698, 89, 145, 152, 272
-0.964883, 121, 73, 184, 136
-0.96569, 185, 201, 248, 264
-0.965844, 49, 65, 176, 192
-0.965908, 193, 161, 320, 416
-0.966167, 161, 81, 224, 208
-0.966666, 145, 137, 208, 200
-0.967786, 113, 137, 176, 200
-0.96786, 97, 161, 160, 224
-0.968934, 65, 337, 320, 464
-0.9699, 169, 113, 232, 176
-0.970182, 73, 97, 136, 224
-0.970311, 113, 113, 176, 176
-0.970565, 65, 273, 320, 400
-0.970835, 153, 193, 216, 320
-0.971335, 125, 97, 156, 224
-0.971347, 145, 49, 272, 176
-0.971552, 153, 185, 216, 248
-0.971898, 97, 129, 224, 192
-0.971928, 49, 17, 176, 144
-0.97238, 89, 137, 152, 200
-0.973311, 105, 185, 168, 248
-0.973794, 185, 97, 248, 352
-0.97394, 97, 161, 224, 224
-0.973994, 117, 137, 148, 200
-0.974326, 113, 1, 176, 256
-0.974926, 145, 1, 272, 128
-0.975095, 97, 209, 224, 336
-0.975855, 145, 89, 208, 152
-0.975961, 49, 193, 176, 320
-0.976206, 145, 1, 208, 256
-0.976219, 177, 321, 304, 448
-0.976411, 161, 49, 224, 112
-0.976747, 97, 105, 224, 168
-0.976801, 113, 33, 176, 96
-0.977151, 97, 81, 224, 144
-0.977302, 193, 113, 256, 240
-0.977624, 129, 193, 192, 256
-0.977891, 177, 177, 240, 240
-0.977985, 105, 1, 168, 128
-0.978152, 169, 1, 232, 256
-0.978197, 173, 161, 204, 224
-0.97821, 177, 369, 304, 496
-0.97857, 129, 193, 192, 320
-0.978729, 173, 145, 204, 272
-0.978814, 97, 73, 160, 136
-0.978976, 137, 177, 168, 240
-0.978994, 49, 153, 176, 216
-0.979075, 173, 185, 204, 248
-0.979238, 145, 217, 208, 280
-0.979248, 157, 129, 188, 256
-0.979258, 169, 89, 232, 152
-0.979375, 17, 177, 80, 304
-0.97938, 133, 65, 164, 128
-0.979391, 137, 49, 168, 176
-0.979413, 153, 73, 184, 136
-0.979585, 105, 193, 168, 320
-0.979595, 133, 105, 164, 168
-0.980043, 113, 65, 144, 192
-0.980124, 145, 97, 176, 224
-0.980312, 125, 161, 156, 224
-0.980385, 137, 145, 168, 272
-0.980397, 81, 49, 144, 176
-0.980465, 1, 193, 128, 320
-0.980479, 145, 113, 208, 176
-0.98052, 73, 161, 136, 224
-0.980693, 153, 169, 184, 232
-0.980781, 137, 97, 200, 352
-0.980804, 145, 25, 208, 88
-0.980878, 153, 137, 184, 200
-0.981, 113, 113, 144, 240
-0.981055, 97, 185, 224, 248
-0.981203, 165, 81, 196, 208
-0.981242, 189, 129, 220, 256
-0.981255, 129, 217, 256, 280
-0.981304, 1, 145, 128, 272
-0.981554, 201, 137, 232, 200
-0.981723, 157, 17, 188, 144
-0.982126, 125, 49, 156, 176
-0.98232, 161, 273, 288, 400
-0.982466, 209, 225, 272, 352
-0.982531, 169, 137, 200, 200
-0.982554, 185, 145, 216, 208
-0.982658, 113, 97, 176, 352
-0.982688, 17, 353, 80, 480
-0.982751, 193, 113, 224, 176
-0.982753, 1, 225, 64, 352
-0.982901, 209, 113, 272, 176
-0.982981, 81, 105, 144, 168
-0.983054, 193, 161, 320, 288
-0.983127, 145, 145, 272, 208
-0.983132, 153, 161, 216, 224
-0.983382, 137, 1, 168, 128
-0.983573, 33, 177, 160, 240
-0.983689, 125, 145, 156, 272
-0.983895, 145, 193, 272, 256
-0.984297, 193, 49, 256, 176
-0.984367, 233, 177, 296, 304
-0.984411, 153, 193, 216, 448
-0.98455, 109, 161, 140, 288
-0.984625, 89, 33, 152, 288
-0.98474, 117, 105, 148, 168
-0.984833, 81, 185, 144, 248
-0.984857, 145, 105, 176, 168
-0.984919, 193, 113, 320, 240
-0.98495, 117, 81, 148, 144
-0.98509, 193, 225, 256, 288
-0.985232, 109, 169, 140, 232
-0.98544, 177, 1, 240, 500
-0.985483, 49, 169, 112, 232
-0.985485, 81, 353, 208, 480
-0.985721, 121, 1, 184, 500
-0.985746, 125, 193, 156, 256
-0.985865, 1, 97, 128, 224
-0.986101, 41, 161, 104, 288
-0.986112, 145, 89, 272, 152
-0.986155, 137, 49, 200, 112
-0.986252, 137, 153, 168, 216
-0.986273, 65, 137, 128, 200
-0.986289, 25, 193, 88, 256
-0.986297, 173, 209, 204, 336
-0.986311, 173, 33, 204, 160
-0.986328, 49, 129, 176, 192
-0.986521, 125, 193, 156, 320
-0.98653, 97, 25, 224, 88
-0.986642, 201, 113, 232, 240
-0.986653, 185, 193, 216, 256
-0.986684, 233, 321, 296, 448
-0.986688, 97, 49, 224, 112
-0.986744, 145, 1, 208, 500
-0.986811, 113, 9, 176, 72
-0.986823, 169, 209, 200, 272
-0.98686, 157, 97, 188, 160
-0.98687, 137, 129, 168, 192
-0.987017, 125, 1, 156, 128
-0.987072, 17, 337, 80, 400
-0.987139, 145, 57, 272, 120
-0.987178, 145, 169, 272, 232
-0.987338, 145, 121, 272, 184
-0.987396, 113, 17, 144, 144
-0.987486, 205, 113, 236, 176
-0.987503, 101, 145, 132, 208
-0.987931, 1, 337, 128, 464
-0.988004, 89, 129, 152, 384
-0.988039, 225, 193, 288, 256
-0.988048, 185, 217, 216, 280
-0.988093, 141, 33, 172, 96
-0.988128, 193, 65, 320, 192
-0.988186, 161, 97, 224, 352
-0.988277, 217, 273, 280, 400
-0.988289, 65, 145, 128, 272
-0.988455, 157, 177, 188, 304
-0.988578, 173, 113, 204, 176
-0.988894, 97, 97, 128, 224
-0.988898, 1, 217, 128, 280
-0.989012, 217, 113, 280, 240
-0.989021, 121, 33, 152, 96
-0.989082, 157, 193, 188, 256
-0.989111, 145, 1, 208, 64
-0.989416, 225, 209, 256, 336
-0.989421, 129, 369, 256, 496
-0.989469, 193, 65, 224, 192
-0.989486, 209, 193, 272, 448
-0.989512, 49, 105, 176, 168
-0.989631, 89, 49, 152, 112
-0.989688, 49, 65, 176, 128
-0.989716, 81, 209, 208, 272
-0.98974, 241, 369, 304, 496
-0.989813, 177, 81, 208, 208
-0.989916, 17, 217, 80, 280
-0.989916, 185, 217, 248, 248
-0.990028, 17, 289, 144, 416
-0.990078, 157, 17, 188, 80
-0.990117, 193, 89, 224, 152
-0.990118, 209, 193, 240, 256
-0.990138, 185, 57, 248, 120
-0.990299, 105, 161, 168, 192
-0.990299, 1, 361, 64, 424
-0.990324, 217, 169, 280, 232
-0.990381, 177, 361, 304, 424
-0.990383, 193, 185, 320, 248
-0.990418, 177, 337, 304, 400
-0.990447, 165, 73, 196, 136
-0.990463, 177, 145, 240, 176
-0.990566, 129, 185, 192, 216
-0.990593, 105, 149, 168, 180
-0.990655, 129, 165, 192, 196
-0.990688, 113, 137, 176, 168
-0.990713, 153, 205, 216, 236
-0.990778, 145, 153, 208, 184
-0.990856, 201, 137, 264, 200
-0.990877, 169, 133, 232, 164
-0.990879, 185, 205, 248, 236
-0.990898, 1, 417, 128, 480
-0.990929, 129, 73, 192, 104
-0.990993, 137, 193, 168, 320
-0.991, 97, 173, 160, 204
-0.991009, 137, 93, 200, 124
-0.99105, 145, 221, 208, 252
-0.991052, 9, 193, 72, 448
-0.991079, 17, 241, 144, 368
-0.991161, 89, 185, 152, 216
-0.991183, 121, 117, 184, 148
-0.991184, 209, 257, 272, 320
-0.991267, 169, 121, 232, 152
-0.991317, 177, 385, 304, 448
-0.99133, 169, 225, 232, 288
-0.991345, 145, 141, 208, 172
-0.991359, 1, 297, 64, 360
-0.991363, 1, 241, 64, 304
-0.991481, 161, 81, 224, 112
-0.991481, 145, 109, 208, 140
-0.991487, 237, 241, 268, 368
-0.991533, 113, 101, 176, 132
-0.991543, 73, 149, 136, 180
-0.991603, 185, 193, 248, 224
-0.991606, 193, 121, 320, 184
-0.991626, 133, 9, 164, 72
-0.991665, 169, 177, 232, 208
-0.991699, 145, 125, 208, 156
-0.991717, 185, 193, 216, 320
-0.991739, 17, 337, 48, 464
-0.991759, 153, 345, 216, 408
-0.991759, 113, 193, 144, 256
-0.991785, 81, 161, 144, 192
-0.991804, 1, 145, 128, 208
-0.991831, 113, 201, 176, 232
-0.99184, 97, 113, 160, 144
-0.991856, 161, 65, 224, 96
-0.991873, 129, 17, 192, 48
-0.991876, 233, 353, 296, 416
-0.991884, 137, 201, 168, 264
-0.991888, 201, 81, 264, 144
-0.991932, 209, 161, 272, 288
-0.991937, 169, 161, 232, 192
-0.991952, 73, 173, 136, 204
-0.991963, 209, 161, 240, 288
-0.991966, 225, 321, 288, 384
-0.992042, 113, 193, 176, 448
-0.992055, 193, 229, 256, 260
-0.992099, 209, 97, 272, 352
-0.992103, 265, 289, 328, 416
-0.99212, 17, 409, 80, 472
-0.992142, 221, 217, 252, 280
-0.992145, 81, 125, 144, 156
-0.992149, 161, 193, 224, 224
-0.992167, 193, 49, 224, 112
-0.992181, 169, 101, 232, 132
-0.992186, 65, 289, 192, 416
-0.992246, 89, 137, 152, 168
-0.992254, 73, 1, 136, 128
-0.992272, 173, 33, 204, 96
-0.992277, 193, 97, 320, 160
-0.992342, 105, 105, 136, 168
-0.992348, 89, 197, 152, 228
-0.99236, 209, 137, 272, 168
-0.992508, 145, 241, 272, 304
-0.992529, 153, 49, 184, 112
-0.992541, 113, 41, 176, 72
-0.992555, 125, 177, 156, 208
-0.992583, 1, 373, 64, 404
-0.992636, 129, 109, 160, 140
-0.992637, 113, 61, 176, 92
-0.992649, 117, 157, 148, 188
-0.992653, 25, 205, 88, 236
-0.992668, 185, 221, 216, 252
-0.992669, 145, 29, 208, 60
-0.992682, 49, 177, 112, 208
-0.992686, 145, 353, 208, 480
-0.992694, 17, 349, 80, 380
-0.992694, 153, 49, 216, 80
-0.9927, 173, 217, 204, 248
-0.992701, 265, 345, 328, 408
-0.992707, 29, 353, 60, 480
-0.992747, 17, 221, 80, 252
-0.992768, 49, 401, 176, 464
-0.992769, 177, 193, 240, 448
-0.992818, 153, 177, 184, 208
-0.992821, 33, 41, 160, 104
-0.992824, 113, 145, 144, 176
-0.992842, 105, 85, 168, 116
-0.992844, 113, 29, 176, 60
-0.992847, 201, 121, 264, 152
-0.992859, 185, 145, 216, 176
-0.992859, 169, 157, 200, 188
-0.992863, 201, 145, 232, 176
-0.992865, 89, 101, 152, 132
-0.992874, 141, 181, 172, 212
-0.992889, 133, 121, 164, 152
-0.9929, 121, 213, 184, 244
-0.992901, 173, 177, 204, 208
-0.992919, 225, 205, 288, 236
-0.992929, 197, 133, 228, 164
-0.992931, 97, 145, 128, 272
-0.992938, 97, 1, 160, 500
-0.992952, 173, 205, 204, 236
-0.992954, 145, 69, 176, 100
-0.992978, 141, 169, 172, 200
-0.992981, 113, 117, 144, 148
-0.992997, 173, 145, 204, 176
-0.99301, 41, 189, 104, 220
-0.993023, 137, 193, 168, 224
-0.993024, 129, 97, 160, 128
-0.993051, 157, 157, 188, 188
-0.993052, 217, 193, 280, 224
-0.993066, 25, 385, 88, 448
-0.99307, 125, 197, 156, 228
-0.993077, 153, 85, 184, 116
-0.993085, 25, 361, 88, 392
-0.993089, 197, 121, 228, 152
-0.993091, 173, 189, 204, 220
-0.993097, 141, 157, 172, 188
-0.993101, 109, 181, 140, 212
-0.993106, 157, 145, 188, 176
-0.993108, 153, 189, 184, 220
-0.993113, 97, 149, 128, 180
-0.993118, 57, 161, 120, 192
-0.993126, 145, 97, 176, 128
-0.993147, 181, 133, 212, 164
-0.993155, 209, 205, 240, 236
-0.993158, 149, 109, 180, 140
-0.993164, 201, 241, 264, 272
-0.993164, 17, 337, 80, 368
-0.993168, 97, 165, 128, 196
-0.993175, 169, 73, 200, 104
-0.993177, 169, 133, 200, 164
-0.993183, 133, 69, 164, 100
-0.993183, 169, 229, 232, 260
-0.993227, 113, 133, 144, 164
-0.993231, 89, 65, 152, 96
-0.993232, 173, 229, 204, 260
-0.993238, 165, 85, 196, 116
-0.993242, 225, 217, 288, 248
-0.993244, 137, 61, 200, 92
-0.993246, 209, 133, 240, 164
-0.993257, 157, 97, 188, 128
-0.993259, 201, 1, 264, 256
-0.993263, 65, 137, 128, 168
-0.993267, 129, 133, 160, 164
-0.993268, 113, 193, 144, 224
-0.993275, 9, 237, 72, 268
-0.993281, 105, 17, 168, 48
-0.993287, 145, 121, 176, 152
-0.993299, 265, 349, 328, 380
-0.993304, 181, 157, 212, 188
-0.993313, 129, 81, 160, 112
-0.993315, 129, 17, 160, 48
-0.993319, 121, 57, 152, 120
-0.993319, 113, 169, 144, 200
-0.993322, 13, 357, 44, 388
-0.993327, 185, 61, 248, 92
-0.99333, 153, 13, 216, 44
-0.993331, 153, 133, 184, 164
-0.993338, 153, 17, 184, 48
-0.993341, 201, 253, 264, 284
-0.993343, 185, 205, 216, 236
-0.993344, 17, 353, 48, 416
-0.993345, 157, 205, 188, 236
-0.993347, 105, 457, 168, 488
-0.993349, 157, 69, 188, 100
-0.993351, 49, 205, 112, 236
-0.993353, 185, 85, 248, 116
-0.99336, 193, 109, 256, 140
-0.993364, 193, 101, 224, 132
-0.993366, 141, 133, 172, 164
-0.993366, 185, 17, 216, 144
-0.993367, 161, 217, 192, 248
-0.993372, 41, 249, 104, 312
-0.993376, 137, 145, 168, 176
-0.993386, 141, 17, 172, 48
-0.993386, 21, 377, 52, 408
-0.993393, 1, 257, 64, 288
-0.993394, 169, 101, 200, 132
-0.993398, 217, 181, 280, 212
-0.993398, 225, 353, 288, 384
-0.993399, 105, 105, 136, 136
-0.993401, 197, 217, 228, 248
-0.993401, 73, 213, 136, 244
-0.993402, 129, 165, 160, 196
-0.993403, 13, 405, 44, 436
-0.993405, 117, 85, 148, 116
-0.993407, 117, 25, 148, 56
-0.993411, 233, 241, 296, 272
-0.993424, 137, 205, 168, 236
-0.993431, 201, 97, 264, 128
-0.993434, 97, 177, 128, 208
-0.993435, 193, 57, 224, 88
-0.993439, 25, 365, 56, 396
-0.993442, 97, 137, 128, 168
-0.993445, 1, 409, 64, 440
-0.99345, 121, 65, 152, 96
-0.99345, 177, 217, 304, 280
-0.993451, 9, 385, 72, 416
-0.993456, 165, 17, 196, 48
-0.993461, 157, 29, 188, 60
-0.993469, 161, 313, 288, 376
-0.993471, 213, 117, 244, 148
-0.993474, 265, 365, 328, 396
-0.993476, 189, 169, 220, 232
-0.993478, 157, 121, 188, 152
-0.993483, 213, 145, 244, 176
-0.993497, 25, 413, 56, 444
-0.993498, 185, 173, 216, 204
-0.9935, 233, 229, 296, 260
-0.9935, 217, 225, 248, 256
-0.993501, 13, 341, 44, 372
-0.993505, 209, 265, 272, 296
-0.993506, 177, 85, 208, 116
-0.993508, 161, 353, 224, 384
-0.993509, 173, 29, 204, 60
-0.99351, 41, 249, 104, 280
-0.993512, 25, 373, 88, 404
-0.993515, 145, 437, 208, 468
-0.993524, 117, 105, 148, 136
-0.993526, 25, 397, 88, 428
-0.993526, 209, 281, 272, 312
-0.993534, 13, 393, 44, 424
-0.993536, 65, 249, 128, 280
-0.993538, 173, 117, 204, 148
-0.993541, 181, 101, 212, 132
-0.993543, 193, 73, 224, 104
-0.993544, 141, 81, 172, 112
-0.993544, 101, 125, 132, 156
-0.993548, 125, 145, 156, 176
-0.993548, 9, 369, 40, 400
-0.993551, 193, 85, 224, 116
-0.993556, 17, 325, 80, 356
-0.993558, 185, 121, 216, 152
-0.993563, 33, 401, 64, 432
-0.993567, 141, 29, 172, 60
-0.993571, 153, 57, 184, 88
-0.993573, 233, 377, 296, 408
-0.993576, 25, 345, 56, 376
-0.993576, 185, 233, 216, 264
-0.993578, 29, 205, 60, 236
-0.993578, 241, 265, 304, 296
-0.993578, 17, 425, 80, 456
-0.993578, 141, 57, 172, 88
-0.993584, 173, 41, 204, 72
-0.993586, 169, 25, 232, 56
-0.993588, 5, 329, 36, 360
-0.993589, 25, 217, 56, 248
-0.99359, 89, 53, 152, 84
-0.993594, 241, 253, 304, 284
-0.993595, 181, 65, 212, 96
-0.993601, 201, 149, 264, 180
-0.993612, 61, 233, 92, 264
-0.993613, 221, 237, 252, 268
-0.993614, 61, 169, 92, 200
-0.993617, 81, 189, 112, 220
-0.993617, 257, 337, 320, 368
-0.993619, 41, 237, 104, 268
-0.993625, 233, 365, 296, 396
-0.993627, 189, 193, 220, 224
-0.993628, 109, 69, 140, 100
-0.993634, 185, 73, 248, 104
-0.993642, 97, 197, 128, 228
-0.993646, 225, 189, 256, 220
-0.99365, 221, 129, 252, 160
-0.993653, 225, 341, 288, 372
-0.993654, 213, 105, 244, 136
-0.993655, 41, 197, 72, 228
-0.993657, 69, 193, 100, 224
-0.993658, 185, 49, 248, 80
-0.993659, 121, 37, 152, 68
-0.993659, 17, 233, 48, 264
-0.993661, 17, 441, 80, 472
-0.993661, 249, 225, 312, 352
-0.993661, 225, 329, 288, 360
-0.993666, 149, 5, 180, 36
-0.993668, 129, 5, 192, 36
-0.993672, 229, 205, 260, 236
-0.993673, 41, 185, 72, 216
-0.993676, 161, 229, 192, 260
-0.993677, 57, 221, 88, 252
-0.99368, 85, 209, 116, 240
-0.993683, 1, 177, 256, 240
-0.993687, 81, 457, 144, 488
-0.993692, 1, 361, 64, 392
-0.993699, 37, 437, 68, 468
-0.9937, 153, 365, 216, 396
-0.993703, 81, 261, 144, 292
-0.993705, 153, 425, 216, 456
-0.993706, 249, 281, 312, 312
-0.993711, 241, 393, 304, 424
-0.993722, 97, 409, 224, 472
-0.993727, 217, 113, 248, 176
-0.993729, 97, 169, 128, 232
-0.993731, 217, 317, 280, 348
-0.993734, 209, 85, 272, 116
-0.993762, 169, 25, 232, 88
-0.993763, 241, 409, 304, 440
-0.993765, 1, 269, 64, 300
-0.993766, 217, 293, 280, 324
-0.993773, 9, 453, 72, 484
-0.993778, 41, 261, 104, 292
-0.993797, 249, 297, 312, 328
-0.993807, 49, 273, 112, 304
-0.993812, 17, 193, 80, 224
-0.993814, 25, 409, 88, 440
-0.993828, 89, 29, 152, 60
-0.993836, 241, 377, 304, 440
-0.993856, 201, 1, 264, 500
-0.993876, 1, 377, 128, 440
-0.993879, 233, 257, 296, 500
-0.993896, 97, 165, 224, 196
-0.993923, 265, 353, 296, 480
-0.993949, 161, 265, 288, 328
-0.994, 17, 257, 144, 320
-0.994046, 177, 81, 208, 144
-0.994065, 217, 281, 280, 344
-0.994093, 97, 345, 224, 408
-0.994142, 225, 1, 288, 500
-0.994162, 185, 25, 216, 88
-0.994169, 33, 137, 288, 200
-0.994174, 17, 305, 80, 432
-0.994275, 29, 193, 60, 256
-0.994313, 1, 177, 328, 240
-0.994378, 9, 225, 40, 288
-0.994383, 97, 369, 224, 432
-0.994383, 25, 433, 88, 496
-0.994393, 13, 289, 44, 416
-0.994395, 97, 433, 224, 496
-0.994457, 249, 161, 312, 416
-0.994466, 193, 1, 320, 128
-0.994473, 81, 209, 112, 272
-0.994492, 137, 169, 152, 232
-0.994507, 29, 377, 60, 440
-0.994655, 97, 129, 224, 160
-0.994762, 1, 345, 128, 408
-0.994776, 73, 209, 136, 272
-0.994787, 157, 217, 188, 280
-0.994822, 249, 281, 312, 344
-0.994856, 1, 201, 328, 264
-0.994882, 49, 377, 176, 440
-0.994888, 221, 113, 252, 240
-0.99489, 49, 201, 112, 264
-0.994905, 25, 361, 88, 424
-0.994913, 73, 1, 136, 500
-0.994956, 97, 153, 224, 184
-0.994958, 41, 321, 104, 448
-0.994963, 97, 141, 224, 172
-0.994969, 17, 377, 48, 440
-0.994977, 33, 113, 288, 176
-0.995015, 193, 417, 320, 480
-0.995088, 249, 289, 280, 416
-0.995113, 33, 217, 288, 280
-0.995115, 33, 305, 64, 432
-0.995124, 33, 73, 288, 136
-0.995125, 49, 233, 176, 296
-0.995141, 213, 137, 244, 200
-0.995155, 45, 177, 76, 240
-0.99518, 157, 65, 172, 128
-0.995199, 37, 409, 68, 472
-0.995263, 193, 73, 320, 136
-0.995274, 213, 113, 228, 176
-0.99528, 89, 257, 120, 384
-0.995308, 97, 193, 224, 224
-0.995309, 121, 137, 136, 200
-0.995347, 233, 217, 296, 280
-0.995348, 101, 49, 132, 176
-0.995357, 49, 433, 176, 496
-0.995365, 163, 73, 178, 136
-0.995369, 205, 49, 236, 176
-0.995372, 49, 161, 176, 192
-0.995389, 97, 177, 224, 208
-0.995412, 147, 177, 162, 240
-0.995446, 173, 233, 204, 296
-0.995457, 97, 117, 224, 148
-0.995477, 17, 305, 144, 368
-0.995517, 145, 153, 160, 216
-0.995543, 229, 241, 260, 304
-0.995549, 97, 205, 224, 236
-0.995551, 49, 209, 112, 336
-0.995553, 13, 329, 44, 392
-0.995567, 233, 193, 264, 256
-0.995579, 13, 209, 44, 336
-0.995605, 65, 233, 96, 296
-0.995617, 1, 121, 128, 184
-0.995654, 65, 417, 128, 480
-0.99566, 65, 193, 96, 320
-0.995679, 187, 193, 202, 256
-0.995686, 181, 137, 196, 200
-0.995689, 93, 121, 124, 184
-0.995722, 257, 313, 320, 376
-0.995732, 193, 1, 256, 128
-0.995739, 145, 9, 272, 72
-0.99579, 129, 221, 256, 252
-0.995802, 73, 241, 136, 368
-0.995819, 207, 113, 222, 176
-0.995858, 33, 313, 96, 376
-0.995874, 161, 289, 288, 352
-0.995926, 97, 105, 224, 136
-0.995933, 131, 161, 146, 224
-0.995953, 119, 177, 134, 240
-0.995959, 49, 173, 176, 204
-0.995963, 145, 205, 272, 236
-0.995968, 49, 273, 112, 400
-0.99597, 65, 65, 128, 320
-0.995973, 193, 145, 320, 208
-0.995979, 153, 401, 216, 464
-0.995983, 191, 145, 206, 208
-0.996008, 179, 217, 194, 280
-0.996013, 113, 85, 240, 116
-0.996022, 215, 137, 230, 200
-0.996026, 89, 193, 120, 320
-0.996026, 145, 33, 272, 96
-0.996032, 175, 153, 190, 216
-0.996044, 65, 1, 192, 64
-0.996063, 133, 97, 148, 160
-0.996065, 209, 57, 272, 120
-0.996069, 147, 65, 162, 128
-0.996072, 161, 97, 176, 160
-0.99608, 1, 49, 128, 176
-0.996094, 29, 353, 60, 416
-0.996102, 1, 153, 328, 216
-0.996175, 131, 193, 146, 256
-0.996186, 221, 161, 252, 288
-0.996187, 127, 137, 142, 200
-0.99621, 197, 209, 228, 272
-0.996235, 29, 193, 60, 320
-0.996241, 149, 89, 164, 152
-0.996275, 57, 297, 120, 360
-0.996288, 133, 73, 148, 136
-0.996295, 265, 369, 328, 496
-0.996396, 177, 57, 208, 120
-0.996423, 123, 81, 138, 144
-0.996431, 109, 57, 140, 120
-0.996442, 257, 1, 320, 500
-0.996458, 241, 249, 304, 312
-0.996481, 157, 169, 172, 232
-0.996482, 81, 241, 144, 304
-0.996497, 181, 185, 196, 248
-0.996503, 65, 353, 320, 416
-0.996511, 81, 273, 144, 336
-0.996529, 123, 113, 138, 176
-0.996535, 49, 353, 176, 416
-0.996553, 49, 149, 176, 180
-0.996556, 173, 1, 204, 64
-0.996558, 137, 193, 152, 256
-0.996572, 41, 337, 104, 400
-0.996573, 139, 65, 154, 128
-0.996577, 155, 137, 170, 200
-0.996594, 1, 33, 256, 96
-0.996597, 113, 417, 176, 480
-0.996668, 17, 401, 48, 464
-0.996683, 167, 129, 182, 192
-0.996684, 121, 1, 152, 256
-0.996697, 169, 81, 184, 144
-0.996711, 273, 337, 304, 400
-0.996718, 257, 353, 288, 416
-0.996718, 241, 401, 304, 464
-0.996721, 29, 353, 44, 416
-0.996723, 33, 193, 96, 448
-0.996736, 153, 433, 216, 496
-0.996747, 181, 161, 196, 224
-0.996765, 133, 129, 148, 192
-0.996769, 155, 33, 170, 96
-0.99678, 145, 149, 272, 180
-0.9968, 125, 185, 140, 248
-0.996803, 245, 177, 276, 304
-0.996804, 193, 33, 256, 96
-0.996807, 1, 121, 328, 184
-0.996821, 1, 257, 32, 320
-0.996866, 17, 281, 144, 344
-0.996881, 1, 1, 64, 500
-0.996915, 155, 113, 170, 176
-0.996918, 105, 209, 168, 272
-0.996922, 49, 201, 176, 232
-0.996924, 1, 97, 128, 160
-0.996941, 65, 241, 320, 304
-0.996968, 177, 1, 208, 256
-0.996976, 163, 49, 178, 112
-0.996983, 97, 321, 224, 384
-0.996983, 1, 225, 328, 288
-0.996992, 65, 329, 320, 392
-0.996994, 125, 161, 140, 224
-0.996994, 115, 145, 130, 208
-0.997012, 145, 69, 272, 100
-0.997015, 17, 185, 144, 216
-0.99703, 143, 113, 158, 176
-0.997034, 81, 193, 144, 320
-0.997046, 197, 113, 212, 176
-0.997077, 113, 169, 128, 232
-0.997082, 155, 89, 170, 152
-0.997082, 145, 193, 272, 224
-0.997086, 175, 113, 190, 176
-0.99711, 1, 1, 128, 128
-0.997116, 135, 41, 150, 104
-0.997116, 191, 121, 206, 184
-0.997126, 49, 177, 80, 304
-0.997129, 191, 217, 206, 280
-0.997139, 169, 337, 232, 464
-0.997144, 73, 73, 136, 136
-0.997144, 205, 137, 220, 200
-0.99715, 49, 225, 112, 288
-0.997152, 97, 53, 224, 84
-0.997156, 145, 161, 272, 192
-0.997159, 49, 1, 112, 500
-0.997161, 97, 65, 224, 96
-0.997164, 23, 353, 38, 416
-0.997171, 49, 125, 176, 156
-0.997178, 49, 109, 176, 140
-0.997187, 65, 77, 192, 108
-0.997193, 97, 41, 224, 72
-0.997195, 165, 1, 196, 256
-0.9972, 149, 113, 164, 176
-0.997205, 5, 337, 36, 464
-0.997213, 143, 9, 158, 72
-0.997215, 171, 57, 186, 120
-0.997222, 149, 33, 164, 96
-0.997225, 53, 209, 84, 272
-0.997231, 213, 89, 244, 152
-0.997253, 153, 193, 168, 256
-0.997268, 175, 193, 190, 256
-0.997272, 29, 329, 44, 392
-0.997279, 1, 273, 64, 336
-0.997286, 219, 113, 234, 176
-0.997287, 77, 233, 108, 296
-0.997293, 193, 97, 224, 352
-0.9973, 235, 225, 250, 288
-0.997317, 139, 145, 154, 208
-0.997319, 89, 249, 120, 312
-0.997336, 73, 369, 136, 432
-0.997353, 35, 353, 50, 416
-0.997362, 25, 329, 56, 392
-0.997377, 193, 41, 320, 104
-0.997381, 49, 137, 176, 168
-0.997381, 167, 185, 182, 248
-0.997395, 145, 425, 272, 488
-0.997407, 133, 1, 164, 256
-0.997409, 187, 217, 202, 248
-0.997423, 145, 101, 272, 132
-0.997425, 1, 241, 32, 368
-0.997453, 193, 225, 320, 352
-0.997476, 265, 377, 296, 440
-0.997487, 145, 113, 272, 144
-0.99749, 117, 97, 148, 352
-0.997492, 185, 113, 200, 176
-0.997496, 89, 409, 152, 472
-0.997508, 109, 137, 124, 200
-0.997509, 77, 257, 108, 384
-0.997511, 187, 25, 202, 88
-0.997526, 145, 117, 160, 148
-0.997528, 225, 201, 240, 264
-0.99753, 253, 337, 284, 464
-0.997532, 165, 9, 180, 72
-0.997538, 81, 113, 112, 240
-0.997547, 139, 89, 154, 152
-0.997557, 31, 377, 46, 440
-0.997562, 185, 217, 200, 280
-0.997566, 161, 81, 288, 112
-0.997567, 237, 265, 268, 328
-0.997568, 123, 57, 138, 120
-0.997575, 115, 121, 130, 184
-0.997575, 1, 321, 32, 384
-0.997593, 153, 369, 216, 432
-0.997601, 173, 217, 188, 280
-0.997604, 225, 169, 256, 232
-0.997622, 177, 217, 304, 248
-0.997625, 167, 105, 182, 168
-0.99763, 145, 177, 272, 208
-0.997645, 17, 9, 144, 72
-0.997649, 209, 89, 224, 152
-0.997654, 65, 297, 320, 360
-0.997655, 173, 193, 204, 448
-0.997666, 105, 81, 136, 144
-0.997668, 119, 141, 134, 172
-0.997675, 21, 217, 52, 280
-0.997675, 65, 273, 320, 336
-0.997685, 141, 97, 172, 352
-0.997686, 145, 1, 176, 256
-0.997695, 179, 225, 194, 256
-0.9977, 169, 1, 232, 64
-0.997707, 181, 157, 196, 188
-0.997711, 193, 225, 208, 256
-0.997715, 233, 65, 296, 320
-0.99772, 25, 1, 88, 500
-0.997728, 1, 433, 64, 496
-0.997732, 113, 377, 176, 440
-0.997772, 161, 145, 176, 208
-0.997778, 177, 345, 240, 408
-0.997793, 65, 329, 128, 392
-0.997795, 1, 205, 128, 236
-0.997797, 249, 321, 280, 384
-0.997808, 241, 241, 256, 304
-0.997808, 173, 33, 188, 96
-0.997808, 193, 193, 208, 256
-0.997809, 205, 169, 236, 232
-0.997818, 213, 137, 228, 168
-0.997839, 65, 209, 80, 272
-0.99786, 21, 329, 36, 392
-0.997864, 33, 401, 48, 464
-0.997868, 1, 193, 64, 256
-0.997889, 189, 1, 220, 256
-0.99789, 35, 329, 50, 392
-0.997894, 221, 137, 236, 200
-0.997909, 123, 25, 138, 88
-0.997914, 161, 97, 192, 352
-0.997916, 141, 33, 156, 96
-0.997917, 151, 117, 166, 148
-0.997922, 119, 157, 134, 188
-0.997936, 273, 289, 304, 416
-0.997947, 181, 145, 196, 176
-0.997947, 117, 97, 132, 160
-0.997961, 197, 137, 212, 200
-0.99798, 143, 201, 158, 264
-0.997982, 129, 353, 192, 416
-0.998, 41, 433, 72, 496
-0.998003, 1, 385, 64, 448
-0.998025, 129, 321, 256, 448
-0.998033, 37, 377, 52, 440
-0.998034, 157, 73, 172, 104
-0.998035, 65, 217, 192, 248
-0.998042, 129, 49, 144, 112
-0.998051, 145, 9, 176, 72
-0.998053, 81, 29, 208, 60
-0.998066, 175, 81, 190, 144
-0.998067, 131, 109, 146, 140
-0.99807, 147, 181, 162, 212
-0.998078, 145, 133, 272, 164
-0.998081, 161, 121, 176, 184
-0.998081, 1, 65, 328, 128
-0.998088, 65, 377, 320, 440
-0.99809, 163, 81, 178, 112
-0.998093, 21, 217, 36, 280
-0.998101, 169, 89, 184, 120
-0.998102, 117, 181, 132, 212
-0.998105, 217, 65, 280, 192
-0.998116, 25, 377, 40, 440
-0.99813, 109, 97, 124, 160
-0.998143, 125, 193, 140, 224
-0.998144, 187, 141, 202, 172
-0.998148, 97, 297, 224, 360
-0.998152, 197, 57, 212, 120
-0.998153, 247, 257, 262, 320
-0.998155, 177, 97, 208, 352
-0.998158, 205, 129, 236, 384
-0.998167, 117, 73, 132, 136
-0.998168, 219, 177, 234, 240
-0.99818, 1, 245, 128, 276
-0.998186, 155, 177, 170, 208
-0.998187, 1, 217, 128, 248
-0.99819, 141, 101, 156, 132
-0.998193, 1, 229, 128, 260
-0.998196, 175, 173, 190, 204
-0.998196, 197, 217, 212, 280
-0.9982, 203, 49, 218, 112
-0.998202, 137, 177, 152, 208
-0.998203, 167, 153, 182, 216
-0.998205, 113, 369, 176, 496
-0.998216, 59, 177, 74, 240
-0.998217, 137, 189, 152, 220
-0.99822, 207, 129, 222, 160
-0.998222, 179, 41, 194, 104
-0.998223, 57, 257, 120, 500
-0.998226, 193, 205, 320, 236
-0.998226, 151, 105, 166, 136
-0.998233, 271, 361, 286, 424
-0.998237, 145, 165, 160, 196
-0.998237, 31, 361, 46, 392
-0.99824, 97, 249, 224, 312
-0.99824, 219, 141, 234, 172
-0.99825, 187, 233, 202, 264
-0.998264, 125, 141, 140, 172
-0.998273, 181, 73, 196, 136
-0.998274, 209, 137, 240, 152
-0.998274, 121, 191, 152, 206
-0.998274, 49, 213, 80, 228
-0.998275, 157, 215, 188, 230
-0.998275, 121, 129, 152, 144
-0.998276, 157, 123, 188, 138
-0.998276, 97, 139, 128, 154
-0.998277, 141, 23, 172, 38
-0.998277, 165, 91, 196, 106
-0.998278, 169, 105, 200, 120
-0.998278, 17, 409, 48, 424
-0.998279, 69, 161, 84, 224
-0.99828, 125, 141, 156, 156
-0.99828, 121, 69, 152, 84
-0.99828, 129, 21, 160, 36
-0.998281, 193, 105, 224, 120
-0.998284, 137, 213, 168, 228
-0.998285, 133, 29, 164, 44
-0.998285, 157, 203, 188, 218
-0.998285, 17, 355, 48, 370
-0.998286, 149, 17, 180, 32
-0.998288, 133, 69, 164, 84
-0.998288, 173, 29, 204, 44
-0.998289, 137, 149, 168, 164
-0.998289, 157, 31, 188, 46
-0.99829, 165, 69, 196, 84
-0.998291, 25, 367, 56, 382
-0.998292, 169, 119, 200, 134
-0.998292, 61, 153, 92, 216
-0.998292, 13, 363, 44, 378
-0.998292, 189, 215, 220, 230
-0.998293, 13, 233, 28, 296
-0.998293, 189, 209, 220, 224
-0.998293, 209, 121, 240, 136
-0.998294, 29, 377, 60, 392
-0.998295, 33, 411, 64, 426
-0.998296, 177, 373, 304, 404
-0.998296, 13, 371, 44, 386
-0.998298, 137, 107, 168, 122
-0.9983, 25, 169, 88, 232
-0.998301, 153, 139, 184, 154
-0.998301, 147, 69, 162, 100
-0.998303, 193, 115, 224, 130
-0.998303, 113, 185, 144, 200
-0.998304, 129, 135, 160, 150
-0.998304, 173, 233, 204, 248
-0.998306, 145, 67, 176, 82
-0.998308, 109, 1, 140, 256
-0.998311, 101, 185, 132, 200
-0.998312, 109, 175, 140, 190
-0.998312, 157, 103, 188, 118
-0.998313, 209, 205, 240, 220
-0.998315, 153, 25, 184, 40
-0.998316, 157, 159, 188, 174
-0.998316, 181, 139, 212, 154
-0.998316, 27, 373, 42, 404
-0.998316, 157, 145, 188, 160
-0.998317, 165, 221, 196, 236
-0.998318, 49, 329, 176, 392
-0.998318, 161, 227, 192, 242
-0.99832, 109, 129, 140, 144
-0.998324, 157, 209, 188, 224
-0.998324, 153, 85, 184, 100
-0.998325, 117, 117, 148, 132
-0.998326, 165, 137, 196, 152
-0.998327, 97, 177, 128, 192
-0.998329, 157, 97, 188, 112
-0.99833, 129, 81, 160, 96
-0.998332, 185, 151, 216, 166
-0.998333, 17, 379, 48, 394
-0.998333, 165, 81, 196, 96
-0.998335, 193, 131, 224, 146
-0.998335, 157, 151, 188, 166
-0.998336, 181, 121, 212, 136
-0.99834, 133, 75, 164, 90
-0.99834, 177, 361, 304, 392
-0.99834, 129, 171, 160, 186
-0.998341, 97, 171, 128, 186
-0.998341, 173, 97, 204, 112
-0.998342, 193, 221, 224, 236
-0.998343, 113, 197, 144, 212
-0.998343, 137, 161, 168, 176
-0.998344, 157, 167, 188, 182
-0.998345, 213, 117, 228, 148
-0.998345, 209, 211, 240, 226
-0.998345, 153, 197, 184, 212
-0.998346, 153, 129, 184, 144
-0.998348, 203, 89, 218, 152
-0.99835, 97, 149, 128, 164
-0.998351, 153, 91, 184, 106
-0.998351, 129, 153, 144, 184
-0.998353, 133, 129, 164, 144
-0.998353, 193, 121, 224, 136
-0.998355, 137, 199, 168, 214
-0.998355, 185, 233, 216, 248
-0.998357, 173, 209, 204, 224
-0.998357, 137, 165, 152, 196
-0.998358, 165, 75, 196, 90
-0.998358, 177, 167, 208, 182
-0.998359, 97, 163, 128, 178
-0.998361, 125, 107, 156, 122
-0.998363, 145, 79, 176, 94
-0.998364, 177, 161, 208, 176
-0.998364, 125, 201, 156, 216
-0.998365, 213, 65, 244, 128
-0.998366, 213, 145, 244, 160
-0.998369, 173, 203, 204, 218
-0.998372, 97, 157, 128, 172
-0.998373, 137, 101, 168, 116
-0.998375, 145, 123, 176, 138
-0.998376, 109, 191, 140, 206
-0.998377, 141, 185, 172, 200
-0.998377, 1, 157, 128, 188
-0.998381, 145, 113, 176, 128
-0.998384, 145, 193, 160, 224
-0.998384, 197, 137, 228, 152
-0.998386, 169, 187, 200, 202
-0.998387, 193, 241, 320, 304
-0.998388, 153, 191, 184, 206
-0.99839, 171, 153, 186, 184
-0.998391, 213, 149, 228, 180
-0.998392, 145, 233, 272, 264
-0.998392, 131, 185, 146, 216
-0.998392, 87, 201, 102, 264
-0.998394, 113, 149, 144, 164
-0.998394, 173, 197, 204, 212
-0.998396, 141, 167, 172, 182
-0.998396, 133, 201, 148, 232
-0.998396, 113, 123, 144, 138
-0.998399, 113, 143, 144, 158
-0.9984, 97, 273, 224, 336
-0.998402, 89, 233, 104, 296
-0.998402, 171, 69, 186, 100
-0.998404, 169, 173, 200, 188
-0.998405, 185, 145, 216, 160
-0.998406, 169, 179, 200, 194
-0.998408, 169, 155, 200, 170
-0.998408, 31, 201, 46, 264
-0.99841, 145, 73, 176, 88
-0.998412, 153, 173, 184, 188
-0.998413, 133, 193, 164, 208
-0.998414, 153, 185, 184, 200
-0.998417, 123, 121, 138, 152
-0.998418, 169, 147, 200, 162
-0.998419, 159, 121, 174, 152
-0.998421, 177, 425, 240, 488
-0.998422, 185, 227, 216, 242
-0.998422, 75, 209, 90, 272
-0.998423, 65, 89, 192, 120
-0.998426, 125, 185, 156, 200
-0.998428, 201, 143, 232, 158
-0.998429, 201, 149, 232, 164
-0.998432, 141, 179, 172, 194
-0.998433, 265, 337, 280, 400
-0.998437, 189, 169, 204, 232
-0.998437, 133, 123, 164, 138
-0.998437, 117, 155, 148, 170
-0.998443, 265, 369, 328, 432
-0.998445, 175, 133, 190, 164
-0.998456, 121, 179, 152, 194
-0.998459, 191, 49, 206, 112
-0.998462, 165, 345, 196, 408
-0.998463, 27, 345, 42, 376
-0.998464, 177, 389, 304, 420
-0.998466, 7, 257, 22, 320
-0.99847, 137, 9, 152, 72
-0.998471, 129, 321, 192, 384
-0.998472, 173, 227, 204, 242
-0.998474, 141, 173, 172, 188
-0.998474, 153, 179, 184, 194
-0.998479, 195, 81, 210, 144
-0.998483, 177, 341, 304, 372
-0.998484, 205, 33, 236, 288
-0.998489, 81, 185, 112, 248
-0.99849, 71, 233, 86, 296
-0.998491, 117, 163, 148, 178
-0.998492, 129, 115, 160, 130
-0.9985, 279, 385, 294, 448
-0.998503, 177, 219, 208, 234
-0.998505, 129, 129, 160, 384
-0.998511, 69, 145, 100, 272
-0.998513, 177, 337, 208, 464
-0.998513, 145, 57, 272, 88
-0.998517, 153, 129, 168, 160
-0.998521, 117, 169, 148, 184
-0.998521, 33, 373, 48, 404
-0.998525, 129, 25, 144, 88
-0.998528, 141, 69, 156, 100
-0.99853, 207, 117, 222, 148
-0.998533, 193, 205, 208, 236
-0.998536, 105, 163, 168, 178
-0.998539, 133, 129, 148, 160
-0.998545, 179, 9, 194, 72
-0.998545, 1, 97, 328, 160
-0.998546, 197, 133, 212, 164
-0.998546, 185, 223, 248, 238
-0.998546, 153, 219, 216, 234
-0.998548, 177, 213, 192, 244
-0.99855, 143, 17, 158, 48
-0.998554, 193, 193, 320, 224
-0.998555, 105, 155, 168, 170
-0.998558, 153, 225, 216, 240
-0.998558, 185, 217, 248, 232
-0.998559, 109, 149, 124, 180
-0.998563, 105, 171, 168, 186
-0.998569, 23, 357, 38, 388
-0.99857, 185, 211, 248, 226
-0.998571, 169, 145, 232, 160
-0.998572, 155, 1, 170, 64
-0.998572, 95, 201, 110, 264
-0.998574, 131, 165, 146, 196
-0.998575, 145, 157, 208, 172
-0.998577, 129, 193, 192, 208
-0.998579, 113, 177, 176, 192
-0.99858, 123, 177, 138, 208
-0.998582, 57, 273, 120, 336
-0.998583, 113, 121, 176, 136
-0.998584, 7, 313, 22, 376
-0.998584, 1, 417, 256, 480
-0.998585, 113, 169, 128, 200
-0.998585, 129, 169, 192, 184
-0.998585, 265, 409, 328, 472
-0.998586, 137, 177, 200, 192
-0.998587, 233, 201, 248, 264
-0.99859, 137, 101, 200, 116
-0.99859, 169, 139, 232, 154
-0.998591, 153, 213, 216, 228
-0.998592, 39, 401, 54, 464
-0.998596, 137, 183, 200, 198
-0.998596, 177, 151, 240, 166
-0.998597, 139, 113, 154, 144
-0.998599, 113, 115, 176, 130
-0.9986, 129, 199, 192, 214
-0.998601, 137, 95, 200, 110
-0.998603, 49, 65, 176, 96
-0.998603, 113, 185, 176, 200
-0.998606, 129, 163, 192, 178
-0.998607, 125, 85, 140, 116
-0.998609, 129, 135, 192, 150
-0.99861, 199, 217, 214, 248
-0.998611, 121, 81, 184, 96
-0.998612, 219, 129, 234, 160
-0.998613, 157, 61, 172, 92
-0.998615, 185, 205, 248, 220
-0.998616, 167, 101, 182, 132
-0.998616, 167, 13, 182, 44
-0.998616, 73, 179, 136, 194
-0.998617, 113, 143, 176, 158
-0.998618, 105, 149, 168, 164
-0.998622, 135, 65, 150, 96
-0.998623, 193, 229, 256, 244
-0.998623, 147, 57, 162, 88
-0.998625, 169, 133, 232, 148
-0.998626, 93, 97, 124, 160
-0.998626, 161, 83, 224, 98
-0.998626, 185, 199, 248, 214
-0.998627, 65, 217, 80, 248
-0.998628, 29, 409, 44, 440
-0.99863, 89, 197, 152, 212
-0.998631, 157, 109, 172, 140
-0.998632, 113, 71, 176, 86
-0.998633, 129, 129, 192, 144
-0.998637, 121, 87, 184, 102
-0.998638, 145, 205, 208, 220
-0.998638, 73, 151, 136, 166
-0.998639, 129, 151, 192, 166
-0.998639, 97, 449, 224, 480
-0.99864, 147, 93, 162, 124
-0.998641, 137, 109, 200, 124
-0.998641, 97, 191, 160, 206
-0.998642, 193, 141, 320, 172
-0.998642, 153, 119, 216, 134
-0.998642, 161, 89, 224, 104
-0.998644, 169, 193, 232, 208
-0.998645, 145, 145, 208, 160
-0.998645, 97, 107, 160, 122
-0.998648, 1, 169, 128, 200
-0.998649, 231, 225, 246, 256
-0.998649, 125, 109, 140, 140
-0.998652, 169, 175, 232, 190
-0.998652, 131, 81, 146, 112
-0.998654, 169, 95, 232, 110
-0.998657, 169, 127, 232, 142
-0.998658, 177, 183, 240, 198
-0.998659, 161, 77, 224, 92
-0.998662, 193, 149, 208, 180
-0.998662, 105, 137, 168, 152
-0.998662, 73, 165, 136, 180
-0.998664, 73, 173, 136, 188
-0.998665, 155, 165, 170, 196
-0.998666, 73, 157, 136, 172
-0.998667, 89, 123, 152, 138
-0.998668, 185, 125, 200, 156
-0.99867, 81, 145, 144, 160
-0.998671, 169, 157, 232, 172
-0.998673, 169, 163, 232, 178
-0.998674, 169, 169, 232, 184
-0.998675, 113, 101, 176, 116
-0.998676, 169, 101, 232, 116
-0.998677, 169, 111, 232, 126
-0.998678, 213, 209, 244, 336
-0.998678, 129, 17, 192, 32
-0.998681, 161, 199, 224, 214
-0.998682, 81, 185, 144, 200
-0.998683, 201, 143, 264, 158
-0.998683, 97, 203, 160, 218
-0.998683, 159, 141, 174, 172
-0.998684, 205, 141, 220, 172
-0.998685, 89, 129, 152, 144
-0.998688, 89, 115, 152, 130
-0.998689, 123, 25, 138, 56
-0.99869, 129, 223, 192, 238
-0.998695, 129, 23, 192, 38
-0.998699, 193, 235, 256, 250
-0.998699, 177, 119, 240, 134
-0.998699, 137, 71, 200, 86
-0.998699, 153, 151, 216, 166
-0.998701, 25, 211, 88, 226
-0.998705, 129, 217, 192, 232
-0.998707, 17, 227, 80, 242
-0.998708, 1, 9, 256, 72
-0.99871, 129, 211, 192, 226
-0.99871, 81, 135, 144, 150
-0.99871, 113, 65, 176, 80
-0.998711, 49, 183, 112, 198
-0.998712, 17, 373, 80, 388
-0.998713, 17, 219, 80, 234
-0.998713, 153, 231, 216, 246
-0.998716, 139, 201, 154, 232
-0.998716, 161, 71, 224, 86
-0.998719, 219, 197, 234, 228
-0.998719, 129, 35, 192, 50
-0.998719, 135, 153, 150, 184
-0.998719, 33, 203, 96, 218
-0.99872, 161, 65, 224, 80
-0.99872, 129, 29, 192, 44
-0.998721, 113, 95, 176, 110
-0.998721, 101, 97, 132, 352
-0.998723, 9, 357, 72, 372
-0.998723, 57, 205, 120, 220
-0.998727, 17, 349, 80, 364
-0.998728, 157, 97, 172, 128
-0.998729, 73, 191, 136, 206
-0.99873, 169, 137, 184, 168
-0.998731, 41, 195, 104, 210
-0.998731, 27, 389, 42, 420
-0.998732, 193, 125, 256, 140
-0.998733, 17, 379, 80, 394
-0.998734, 113, 59, 176, 74
-0.998735, 121, 205, 184, 220
-0.998736, 209, 137, 272, 152
-0.998737, 113, 41, 176, 56
-0.998739, 201, 119, 264, 134
-0.998739, 89, 25, 152, 88
-0.998739, 225, 219, 288, 234
-0.99874, 117, 193, 148, 448
-0.998741, 105, 459, 168, 474
-0.998741, 113, 125, 128, 156
-0.998743, 225, 227, 288, 242
-0.998743, 89, 77, 152, 92
-0.998743, 49, 211, 112, 226
-0.998744, 49, 177, 112, 192
-0.998744, 203, 57, 218, 88
-0.998746, 73, 219, 136, 234
-0.998747, 181, 169, 196, 200
-0.998747, 97, 209, 160, 224
-0.998748, 17, 343, 80, 358
-0.998748, 201, 241, 264, 256
-0.998749, 217, 209, 280, 224
-0.99875, 113, 47, 176, 62
-0.99875, 105, 53, 168, 68
-0.998751, 161, 53, 224, 68
-0.998751, 9, 235, 72, 250
-0.998751, 41, 255, 104, 270
-0.998751, 89, 67, 152, 82
-0.998752, 9, 241, 72, 256
-0.998752, 233, 233, 296, 248
-0.998752, 137, 65, 200, 80
-0.998754, 265, 357, 328, 372
-0.998755, 145, 47, 208, 62
-0.998755, 185, 57, 248, 72
-0.998755, 175, 97, 190, 128
-0.998761, 177, 81, 192, 112
-0.998762, 37, 357, 52, 388
-0.998766, 125, 165, 140, 196
-0.998773, 217, 97, 248, 352
-0.998774, 165, 121, 180, 152
-0.998776, 151, 201, 166, 232
-0.998784, 225, 209, 240, 240
-0.998784, 233, 161, 264, 288
-0.998792, 135, 97, 150, 128
-0.998792, 141, 149, 156, 180
-0.998792, 145, 257, 272, 288
-0.998798, 241, 273, 304, 400
-0.998799, 187, 205, 202, 236
-0.99881, 173, 225, 188, 256
-0.998824, 81, 13, 208, 44
-0.998824, 149, 145, 164, 176
-0.998829, 1, 313, 328, 376
-0.998833, 181, 337, 212, 400
-0.998834, 189, 161, 204, 192
-0.998841, 117, 9, 148, 72
-0.998845, 191, 125, 206, 156
-0.998847, 127, 113, 142, 240
-0.998857, 211, 105, 226, 136
-0.998859, 235, 237, 250, 268
-0.998861, 119, 105, 134, 136
-0.998863, 189, 173, 204, 204
-0.998864, 163, 169, 178, 200
-0.998865, 17, 409, 144, 440
-0.998866, 161, 269, 288, 300
-0.99887, 165, 61, 180, 92
-0.998874, 1, 297, 32, 360
-0.998875, 177, 401, 304, 432
-0.998875, 119, 129, 134, 256
-0.998876, 77, 209, 108, 336
-0.998878, 147, 129, 162, 256
-0.998882, 189, 29, 204, 60
-0.998891, 183, 193, 198, 224
-0.998896, 1, 329, 16, 360
-0.998898, 37, 401, 52, 432
-0.998899, 177, 109, 192, 140
-0.998904, 129, 21, 256, 52
-0.998904, 7, 325, 22, 356
-0.998907, 1, 437, 128, 468
-0.998919, 157, 97, 172, 224
-0.998919, 199, 145, 214, 176
-0.998927, 75, 233, 90, 264
-0.998928, 35, 413, 50, 444
-0.998938, 183, 101, 198, 132
-0.99894, 185, 193, 216, 448
-0.99894, 1, 265, 328, 328
-0.99894, 141, 133, 156, 164
-0.99894, 1, 289, 32, 416
-0.99894, 169, 213, 184, 244
-0.998941, 129, 65, 144, 192
-0.998941, 133, 129, 148, 256
-0.998944, 177, 145, 192, 272
-0.998949, 119, 193, 134, 224
-0.99895, 165, 181, 180, 212
-0.998951, 191, 101, 206, 132
-0.998953, 155, 49, 170, 176
-0.998954, 105, 125, 120, 156
-0.998955, 151, 81, 166, 112
-0.998958, 1, 457, 128, 488
-0.998963, 37, 341, 52, 372
-0.998966, 155, 153, 170, 184
-0.998969, 113, 449, 128, 480
-0.998986, 165, 1, 180, 128
-0.998986, 101, 209, 132, 272
-0.99899, 1, 41, 328, 104
-0.998995, 165, 65, 180, 192
-0.999006, 97, 361, 224, 392
-0.999009, 135, 49, 150, 176
-0.999009, 33, 257, 160, 288
-0.999009, 129, 437, 256, 468
-0.999011, 193, 117, 320, 148
-0.999017, 1, 353, 128, 384
-0.999029, 149, 17, 164, 144
-0.999032, 1, 145, 128, 176
-0.999037, 139, 97, 154, 224
-0.999041, 183, 161, 198, 288
-0.999047, 145, 245, 272, 276
-0.999047, 1, 409, 328, 472
-0.999055, 171, 81, 186, 208
-0.999056, 281, 337, 312, 464
-0.999072, 49, 421, 176, 452
-0.999075, 161, 329, 288, 360
-0.999079, 1, 421, 128, 452
-0.99908, 161, 193, 192, 448
-0.99909, 121, 81, 136, 208
-0.999097, 1, 133, 128, 164
-0.999109, 65, 209, 96, 272
-0.999114, 113, 461, 240, 492
-0.999118, 171, 17, 186, 144
-0.999135, 105, 337, 168, 400
-0.999135, 177, 385, 240, 448
-0.999139, 193, 449, 320, 480
-0.999145, 143, 1, 158, 128
-0.999145, 73, 369, 136, 496
-0.999154, 189, 129, 204, 256
-0.999155, 165, 129, 180, 256
-0.999157, 1, 377, 128, 408
-0.999157, 229, 225, 260, 480
-0.999182, 125, 17, 140, 144
-0.999185, 97, 297, 160, 360
-0.999187, 145, 65, 160, 192
-0.999199, 177, 469, 304, 500
-0.999221, 113, 129, 128, 256
-0.999224, 193, 101, 320, 132
-0.999225, 65, 373, 192, 404
-0.999226, 177, 209, 192, 336
-0.99923, 125, 161, 140, 288
-0.999237, 161, 45, 288, 76
-0.999237, 159, 1, 174, 128
-0.99924, 1, 73, 128, 136
-0.999241, 17, 53, 144, 84
-0.999244, 49, 453, 176, 484
-0.999246, 89, 1, 152, 64
-0.999247, 49, 245, 176, 276
-0.999261, 161, 281, 288, 312
-0.999272, 119, 177, 134, 304
-0.99928, 193, 181, 320, 212
-0.999281, 193, 129, 320, 160
-0.999281, 49, 433, 176, 464
-0.999283, 241, 297, 272, 360
-0.999284, 101, 1, 132, 128
-0.999286, 97, 393, 224, 424
-0.999288, 177, 33, 192, 160
-0.99929, 139, 177, 154, 304
-0.999292, 137, 1, 152, 128
-0.999295, 97, 425, 224, 456
-0.999299, 131, 193, 146, 320
-0.999311, 73, 321, 136, 448
-0.999321, 161, 297, 288, 328
-0.999322, 241, 257, 272, 500
-0.999326, 17, 97, 144, 128
-0.999326, 1, 397, 128, 428
-0.999327, 101, 209, 132, 336
-0.999332, 217, 193, 248, 448
-0.999333, 119, 17, 134, 144
-0.999339, 97, 349, 224, 380
-0.999339, 49, 393, 176, 424
-0.999341, 183, 209, 198, 336
-0.99935, 21, 193, 52, 448
-0.999353, 171, 177, 186, 304
-0.999357, 171, 129, 186, 256
-0.999357, 111, 81, 126, 208
-0.999359, 197, 193, 228, 320
-0.99936, 153, 177, 168, 304
-0.99936, 217, 1, 248, 256
-0.999365, 97, 1, 128, 256
-0.999373, 25, 353, 40, 480
-0.999374, 187, 81, 202, 208
-0.999374, 211, 113, 226, 240
-0.99939, 177, 97, 192, 224
-0.999392, 197, 49, 212, 176
-0.999394, 49, 41, 176, 72
-0.999398, 189, 177, 204, 304
-0.999398, 65, 177, 96, 240
-0.999401, 159, 145, 174, 272
-0.999415, 203, 49, 218, 176
-0.999416, 81, 405, 208, 436
-0.999416, 17, 321, 144, 352
-0.999418, 195, 129, 210, 256
-0.999422, 185, 17, 200, 144
-0.999429, 129, 9, 256, 40
-0.999429, 81, 229, 208, 260
-0.999429, 31, 353, 46, 480
-0.999432, 193, 69, 320, 100
-0.999432, 17, 341, 144, 372
-0.999435, 193, 425, 320, 456
-0.999438, 201, 113, 216, 240
-0.999448, 209, 65, 224, 192
-0.999454, 17, 297, 144, 328
-0.999456, 131, 1, 146, 128
-0.999457, 161, 313, 288, 344
-0.999463, 147, 177, 162, 304
-0.999466, 217, 145, 232, 272
-0.999468, 229, 97, 260, 352
-0.99947, 1, 289, 328, 352
-0.999489, 193, 437, 320, 468
-0.999506, 23, 373, 38, 388
-0.999507, 219, 203, 234, 218
-0.999507, 151, 107, 166, 122
-0.999507, 165, 81, 180, 96
-0.999507, 163, 129, 178, 144
-0.999507, 139, 169, 154, 184
-0.999507, 121, 117, 136, 132
-0.999508, 193, 213, 208, 228
-0.999508, 125, 85, 140, 100
-0.999509, 113, 145, 128, 160
-0.999509, 183, 103, 198, 118
-0.999509, 131, 81, 146, 96
-0.99951, 167, 15, 182, 30
-0.99951, 167, 147, 182, 162
-0.99951, 29, 361, 44, 376
-0.999511, 237, 225, 252, 352
-0.999513, 129, 139, 144, 154
-0.999513, 169, 75, 184, 90
-0.999513, 155, 67, 170, 82
-0.999513, 109, 171, 124, 186
-0.999514, 125, 147, 140, 162
-0.999515, 171, 157, 186, 172
-0.999516, 179, 145, 194, 160
-0.999516, 169, 89, 184, 104
-0.999517, 33, 415, 48, 430
-0.999517, 195, 141, 210, 156
-0.999517, 123, 183, 138, 198
-0.999518, 7, 325, 22, 340
-0.999519, 151, 99, 166, 114
-0.99952, 35, 365, 50, 380
-0.99952, 133, 153, 148, 168
-0.99952, 191, 151, 206, 166
-0.999521, 129, 175, 144, 190
-0.999521, 135, 129, 150, 144
-0.999523, 151, 131, 166, 146
-0.999524, 27, 409, 42, 424
-0.999524, 139, 69, 154, 84
-0.999525, 207, 137, 222, 152
-0.999525, 67, 229, 82, 244
-0.999525, 115, 189, 130, 204
-0.999525, 143, 17, 158, 32
-0.999526, 169, 135, 184, 150
-0.999526, 167, 69, 182, 84
-0.999526, 137, 205, 152, 220
-0.999526, 201, 145, 216, 160
-0.999527, 155, 187, 170, 202
-0.999527, 139, 101, 154, 116
-0.999528, 207, 143, 222, 158
-0.999528, 129, 381, 256, 412
-0.99953, 161, 33, 288, 64
-0.999531, 205, 127, 220, 142
-0.999531, 141, 161, 156, 176
-0.999533, 171, 81, 186, 96
-0.999533, 37, 321, 52, 448
-0.999533, 157, 131, 172, 146
-0.999534, 131, 203, 146, 218
-0.999534, 193, 121, 208, 136
-0.999537, 167, 95, 182, 110
-0.999537, 131, 163, 146, 178
-0.999537, 129, 409, 256, 440
-0.999538, 133, 123, 148, 138
-0.999538, 109, 161, 124, 176
-0.99954, 25, 305, 40, 432
-0.99954, 119, 149, 134, 164
-0.99954, 147, 77, 162, 92
-0.99954, 109, 153, 124, 168
-0.999542, 113, 177, 128, 192
-0.999542, 5, 225, 36, 480
-0.999543, 179, 135, 194, 150
-0.999543, 139, 187, 154, 202
-0.999544, 27, 355, 42, 370
-0.999544, 139, 75, 154, 90
-0.999546, 229, 209, 244, 336
-0.999546, 123, 123, 138, 138
-0.999546, 145, 195, 160, 210
-0.999547, 193, 219, 208, 234
-0.999547, 201, 221, 216, 236
-0.999547, 31, 379, 46, 394
-0.999548, 137, 117, 152, 132
-0.999549, 127, 157, 142, 172
-0.99955, 181, 151, 196, 166
-0.999552, 221, 147, 236, 162
-0.999553, 27, 347, 42, 362
-0.999554, 195, 231, 210, 246
-0.999557, 181, 171, 196, 186
-0.999557, 133, 107, 148, 122
-0.999558, 143, 123, 158, 138
-0.999559, 187, 237, 202, 252
-0.999559, 145, 103, 160, 118
-0.999559, 163, 87, 178, 102
-0.99956, 175, 179, 190, 194
-0.99956, 137, 175, 152, 190
-0.999562, 29, 367, 44, 382
-0.999562, 147, 169, 162, 184
-0.999563, 137, 199, 152, 214
-0.999564, 191, 33, 206, 160
-0.999566, 29, 373, 44, 388
-0.999567, 211, 151, 226, 166
-0.99957, 119, 155, 134, 170
-0.99957, 121, 191, 136, 206
-0.999572, 189, 225, 204, 352
-0.999573, 179, 223, 194, 238
-0.999574, 173, 145, 188, 160
-0.999578, 67, 161, 82, 288
-0.999578, 119, 143, 134, 158
-0.999578, 155, 117, 170, 132
-0.999578, 211, 121, 226, 136
-0.99958, 129, 187, 144, 202
-0.999584, 177, 413, 304, 444
-0.999585, 155, 181, 170, 196
-0.999586, 145, 189, 160, 204
-0.999587, 183, 231, 198, 246
-0.999587, 115, 183, 130, 198
-0.999587, 131, 115, 146, 130
-0.999588, 213, 139, 228, 154
-0.999588, 223, 129, 238, 256
-0.999588, 73, 145, 88, 272
-0.99959, 133, 169, 148, 184
-0.99959, 217, 97, 232, 224
-0.999591, 157, 175, 172, 190
-0.999591, 127, 197, 142, 212
-0.999591, 147, 71, 162, 86
-0.999593, 181, 165, 196, 180
-0.999594, 157, 125, 172, 140
-0.999594, 119, 163, 134, 178
-0.999596, 187, 219, 202, 234
-0.999597, 17, 309, 144, 340
-0.999598, 139, 181, 154, 196
-0.999599, 149, 125, 164, 140
-0.999602, 139, 111, 154, 126
-0.999602, 147, 179, 162, 194
-0.999604, 159, 81, 174, 96
-0.999604, 239, 177, 254, 304
-0.999609, 123, 177, 138, 192
-0.999609, 135, 193, 150, 208
-0.999612, 193, 153, 320, 184
-0.999616, 177, 229, 192, 244
-0.999616, 187, 145, 202, 160
-0.999618, 31, 289, 46, 416
-0.999618, 245, 161, 276, 416
-0.999619, 195, 177, 210, 304
-0.999619, 149, 113, 164, 128
-0.999622, 79, 193, 94, 320
-0.999624, 267, 337, 282, 464
-0.999624, 243, 241, 258, 368
-0.999627, 215, 145, 230, 160
-0.999633, 245, 225, 276, 288
-0.999637, 249, 257, 264, 384
-0.999647, 157, 73, 172, 88
-0.999649, 195, 225, 210, 240
-0.999652, 19, 321, 34, 448
-0.999652, 119, 169, 134, 184
-0.999653, 181, 157, 196, 172
-0.999654, 25, 209, 40, 336
-0.999654, 89, 273, 120, 336
-0.999654, 49, 385, 80, 448
-0.999656, 257, 289, 272, 416
-0.999658, 143, 117, 158, 132
-0.999662, 189, 231, 204, 246
-0.999664, 245, 193, 260, 320
-0.999667, 149, 119, 164, 134
-0.999676, 275, 369, 290, 496
-0.999683, 17, 285, 144, 316
-0.999686, 193, 229, 320, 260
-0.999689, 7, 241, 22, 368
-0.99969, 95, 193, 110, 320
-0.999692, 85, 193, 100, 320
-0.999699, 233, 161, 248, 288
-0.999705, 215, 49, 230, 176
-0.999708, 67, 209, 82, 336
-0.99971, 223, 177, 238, 304
-0.999713, 1, 257, 16, 384
-0.999714, 105, 81, 120, 208
-0.999714, 93, 257, 108, 384
-0.999723, 187, 225, 202, 240
-0.999729, 37, 369, 52, 496
-0.999731, 17, 225, 32, 352
-0.999731, 145, 449, 272, 480
-0.999739, 1, 365, 128, 396
-0.999745, 65, 301, 192, 332
-0.999746, 31, 193, 46, 320
-0.99975, 65, 469, 192, 500
-0.999755, 197, 1, 212, 128
-0.999756, 97, 337, 224, 368
-0.999759, 55, 161, 70, 288
-0.999759, 97, 433, 128, 496
-0.999762, 113, 33, 128, 160
-0.999763, 87, 129, 102, 256
-0.999766, 33, 21, 160, 52
-0.999768, 165, 177, 180, 304
-0.999771, 1, 337, 328, 400
-0.999773, 33, 193, 64, 448
-0.999775, 73, 209, 88, 336
-0.999781, 159, 193, 174, 320
-0.999786, 99, 97, 114, 224
-0.999788, 277, 321, 292, 448
-0.999793, 101, 177, 116, 304
-0.999796, 105, 129, 120, 256
-0.9998, 79, 145, 94, 272
-0.9998, 109, 193, 124, 320
-0.999802, 203, 1, 218, 128
-0.999802, 9, 289, 24, 416
-0.999803, 37, 273, 52, 400
-0.999804, 93, 113, 108, 240
-0.999806, 61, 145, 76, 272
-0.999806, 81, 257, 112, 500
-0.999807, 117, 425, 148, 488
-0.999808, 281, 369, 296, 496
-0.999813, 187, 337, 202, 464
-0.999815, 209, 17, 224, 144
-0.999818, 37, 193, 52, 320
-0.999819, 181, 337, 196, 464
-0.999824, 43, 177, 58, 304
-0.999834, 19, 273, 34, 400
-0.999834, 5, 353, 36, 416
-0.999834, 145, 193, 176, 448
-0.999839, 271, 289, 286, 416
-0.99984, 87, 241, 102, 368
-0.999841, 1, 109, 128, 140
-0.999842, 61, 209, 76, 336
-0.999844, 223, 81, 238, 208
-0.999848, 217, 65, 248, 192
-0.99985, 193, 169, 320, 200
-0.999852, 251, 209, 266, 336
-0.999853, 1, 385, 328, 448
-0.999854, 45, 369, 60, 496
-0.999861, 49, 1, 176, 32
-0.999865, 265, 273, 280, 400
-0.999867, 193, 241, 320, 272
-0.999868, 101, 241, 116, 368
-0.999871, 195, 369, 210, 496
-0.999877, 193, 57, 320, 88
-0.999889, 49, 177, 64, 304
-0.99989, 1, 305, 16, 432
-0.99989, 17, 269, 144, 300
-0.999893, 261, 241, 292, 368
-0.999895, 43, 321, 58, 448
-0.999895, 59, 353, 74, 480
-0.999895, 47, 273, 62, 400
-0.999896, 97, 241, 224, 272
-0.999898, 81, 241, 96, 368
-0.999899, 19, 369, 34, 496
-0.999902, 159, 353, 174, 480
-0.999909, 49, 361, 176, 392
-0.999913, 73, 129, 104, 384
-0.999917, 101, 241, 132, 304
-0.999932, 97, 257, 224, 288
-0.999945, 97, 313, 224, 344
-0.999948, 1, 121, 128, 152
-0.999989, 13, 297, 44, 360
-0.999994, 97, 241, 160, 368
-1.00001, 105, 233, 168, 296
-1.00002, 89, 97, 120, 352
-1.00003, 49, 161, 80, 416
-1.00003, 105, 193, 136, 448
-1.00006, 193, 17, 320, 80
-1.0001, 69, 225, 100, 480
-1.00015, 45, 257, 76, 500
-1.00015, 269, 401, 300, 464
-1.00019, 193, 9, 256, 72
-1.00023, 61, 129, 92, 384
-1.00024, 41, 97, 104, 352
-1.00025, 265, 161, 296, 416
-1.00025, 61, 353, 92, 480
-1.0003, 269, 257, 300, 500
-1.0003, 281, 361, 312, 424
-1.0003, 253, 257, 284, 500
-1.00032, 1, 433, 328, 496
-1.00033, 241, 433, 304, 496
-1.00034, 113, 273, 240, 400
-1.00035, 5, 385, 36, 448
-1.00036, 229, 1, 260, 256
-1.00036, 93, 257, 124, 500
-1.00038, 41, 145, 104, 208
-1.00038, 89, 225, 152, 480
-1.00038, 133, 225, 164, 480
-1.00041, 241, 65, 272, 320
-1.00041, 165, 337, 196, 464
-1.00042, 97, 409, 128, 472
-1.00046, 49, 65, 80, 320
-1.00051, 49, 369, 112, 496
-1.00052, 185, 433, 216, 496
-1.00053, 5, 129, 36, 384
-1.00053, 269, 313, 300, 376
-1.00054, 265, 257, 328, 500
-1.00055, 69, 1, 100, 256
-1.00056, 81, 1, 112, 256
-1.00057, 281, 257, 312, 500
-1.0006, 25, 241, 88, 368
-1.00064, 49, 377, 112, 440
-1.00064, 17, 97, 48, 352
-1.00065, 141, 369, 172, 496
-1.00067, 1, 169, 64, 232
-1.00068, 37, 329, 68, 392
-1.0007, 33, 97, 64, 352
-1.0007, 65, 409, 96, 472
-1.00078, 109, 33, 140, 96
-1.0008, 73, 273, 104, 336
-1.00081, 21, 433, 52, 496
-1.00082, 17, 129, 80, 256
-1.00083, 297, 161, 328, 416
-1.00084, 81, 113, 112, 176
-1.00089, 253, 249, 284, 312
-1.0009, 1, 361, 328, 424
-1.00092, 57, 257, 88, 500
-1.00092, 53, 249, 84, 312
-1.00094, 197, 225, 228, 480
-1.00096, 41, 369, 72, 496
-1.00097, 253, 1, 284, 256
-1.00099, 277, 161, 308, 416
-1.00102, 105, 257, 168, 320
-1.00104, 85, 161, 116, 224
-1.00104, 57, 433, 88, 496
-1.00106, 33, 257, 64, 384
-1.00106, 269, 1, 300, 256
-1.0011, 37, 1, 68, 256
-1.00111, 281, 1, 312, 256
-1.00113, 53, 225, 84, 352
-1.00114, 5, 33, 36, 288
-1.00115, 297, 1, 328, 256
-1.00116, 213, 41, 244, 104
-1.0012, 113, 321, 176, 448
-1.0012, 297, 257, 328, 500
-1.00125, 17, 1, 48, 256
-1.00127, 65, 241, 96, 368
-1.00135, 25, 281, 88, 344
-1.00138, 285, 417, 316, 480
-1.00143, 197, 17, 228, 80
-1.00148, 9, 97, 72, 352
-1.00149, 97, 57, 128, 120
-1.00153, 169, 321, 232, 384
-1.00154, 197, 425, 228, 488
-1.00156, 265, 433, 328, 496
-1.00162, 209, 1, 240, 128
-1.00167, 45, 289, 76, 416
-1.00167, 65, 25, 128, 88
-1.00169, 89, 433, 152, 496
-1.00175, 65, 161, 128, 416
-1.00176, 197, 1, 228, 128
-1.00185, 1, 17, 328, 80
-1.00199, 101, 321, 132, 448
-1.002, 193, 369, 224, 496
-1.00203, 189, 321, 220, 448
-1.00205, 57, 129, 88, 256
-1.00221, 49, 49, 112, 176
-1.00221, 9, 161, 40, 288
-1.00223, 217, 1, 280, 128
-1.00229, 69, 305, 100, 432
-1.00232, 37, 145, 68, 272
-1.00232, 145, 241, 208, 304
-1.00234, 193, 321, 256, 384
-1.00248, 41, 409, 104, 472
-1.00248, 89, 353, 120, 480
-1.00253, 113, 209, 144, 336
-1.00267, 121, 369, 152, 496
-1.00275, 57, 113, 120, 176
-1.00279, 125, 241, 156, 368
-1.00282, 21, 145, 52, 272
-1.00282, 65, 1, 128, 64
-1.00291, 101, 369, 132, 496
-1.00301, 89, 305, 120, 432
-1.0031, 49, 89, 112, 152
-1.00314, 73, 353, 104, 480
-1.00321, 137, 305, 200, 432
-1.00333, 57, 305, 88, 432
-1.00335, 89, 49, 120, 176
-1.00336, 153, 353, 184, 480
-1.00347, 105, 273, 136, 400
-1.00351, 9, 145, 72, 208
-1.00359, 201, 353, 264, 416
-1.00368, 237, 289, 268, 416
-1.00372, 261, 289, 292, 416
-1.00373, 121, 281, 184, 344
-1.00376, 249, 225, 280, 352
-1.00383, 65, 49, 128, 112
-1.00387, 41, 1, 104, 256
-1.00392, 141, 305, 172, 432
-1.00396, 233, 113, 264, 240
-1.00401, 49, 97, 112, 224
-1.00403, 201, 425, 264, 488
-1.00412, 121, 321, 152, 448
-1.00427, 77, 65, 108, 192
-1.00435, 161, 225, 192, 352
-1.00448, 149, 225, 180, 352
-1.00455, 85, 1, 116, 128
-1.00471, 165, 289, 196, 416
-1.00472, 265, 1, 328, 256
-1.00476, 61, 81, 92, 208
-1.00478, 185, 273, 216, 400
-1.00481, 269, 177, 300, 304
-1.00484, 233, 49, 296, 112
-1.00484, 257, 185, 320, 248
-1.0049, 193, 305, 256, 432
-1.00492, 257, 177, 288, 304
-1.00492, 293, 369, 324, 496
-1.00494, 73, 17, 104, 144
-1.00499, 25, 81, 88, 208
-1.00509, 233, 73, 296, 136
-1.00516, 233, 1, 296, 64
-1.00516, 193, 353, 256, 480
-1.00519, 265, 161, 328, 288
-1.00532, 229, 65, 260, 192
-1.00535, 169, 289, 232, 416
-1.00554, 225, 17, 256, 144
-1.00559, 1, 1, 64, 256
-1.00559, 137, 241, 168, 368
-1.00572, 285, 1, 316, 128
-1.0058, 293, 193, 324, 320
-1.00584, 241, 1, 304, 128
-1.00587, 273, 1, 304, 128
-1.00588, 57, 1, 88, 128
-1.00601, 153, 241, 216, 368
-1.00604, 297, 289, 328, 416
-1.00607, 253, 129, 284, 256
-1.00607, 153, 289, 184, 416
-1.00609, 237, 1, 268, 128
-1.0061, 281, 177, 312, 304
-1.00615, 261, 1, 292, 128
-1.00616, 285, 289, 316, 416
-1.00618, 297, 1, 328, 128
-1.0062, 185, 225, 248, 352
-1.00637, 201, 305, 232, 432
-1.00637, 5, 1, 36, 128
-1.00666, 265, 1, 328, 128
-1.00717, 49, 1, 112, 128
-1.00727, 129, 257, 192, 384
-1.0074, 17, 1, 80, 128
-1.0078, 241, 49, 304, 176
-1.0088, 249, 113, 312, 240
-1.00984, 1, 49, 64, 176
-1.01124, 265, 49, 328, 176
-1.01526, 217, 369, 280, 496
