1972
-0.294358, 1, 1, 500, 375
-0.353568, 1, 129, 500, 375
-0.438535, 1, 33, 500, 288
-0.465594, 33, 1, 288, 375
-0.544553, 129, 1, 384, 375
-0.561708, 129, 129, 384, 375
-0.63386, 257, 1, 500, 375
-0.656425, 129, 33, 384, 288
-0.70408, 1, 129, 256, 375
-0.752279, 33, 1, 288, 256
-0.753127, 225, 97, 480, 352
-0.806819, 225, 1, 480, 256
-0.849666, 1, 193, 500, 320
-0.854665, 193, 1, 320, 375
-0.855158, 241, 129, 368, 375
-0.862978, 177, 129, 304, 375
-0.864205, 129, 97, 256, 352
-0.8754, 81, 129, 208, 375
-0.876675, 177, 33, 304, 288
-0.87765, 129, 1, 256, 375
-0.87975, 33, 1, 160, 375
-0.888263, 33, 129, 160, 375
-0.88881, 1, 145, 500, 272
-0.888881, 1, 1, 128, 256
-0.889935, 225, 33, 352, 288
-0.889939, 1, 97, 500, 224
-0.890706, 81, 1, 208, 375
-0.892615, 337, 1, 464, 375
-0.893646, 1, 241, 500, 368
-0.899944, 321, 33, 448, 288
-0.901752, 49, 33, 176, 288
-0.902741, 129, 1, 256, 256
-0.906219, 161, 193, 416, 320
-0.908417, 241, 1, 368, 375
-0.912785, 289, 129, 416, 375
-0.913793, 1, 49, 500, 176
-0.915775, 129, 113, 384, 240
-0.918111, 1, 1, 500, 128
-0.922275, 1, 161, 256, 288
-0.924405, 33, 241, 288, 368
-0.930025, 33, 113, 288, 240
-0.931461, 369, 1, 496, 256
-0.931945, 97, 225, 224, 352
-0.93346, 289, 1, 416, 375
-0.933577, 129, 241, 384, 368
-0.933831, 1, 241, 128, 368
-0.934333, 337, 129, 464, 375
-0.936805, 129, 113, 256, 240
-0.938499, 1, 65, 256, 192
-0.940575, 49, 193, 176, 320
-0.941267, 225, 113, 352, 240
-0.941853, 241, 161, 368, 288
-0.942489, 177, 97, 304, 224
-0.942546, 17, 161, 80, 288
-0.94312, 145, 145, 208, 272
-0.943875, 129, 49, 384, 176
-0.944135, 273, 1, 400, 256
-0.946334, 153, 225, 216, 352
-0.946383, 177, 193, 304, 320
-0.94706, 265, 129, 328, 256
-0.947956, 41, 225, 104, 352
-0.948738, 225, 129, 480, 256
-0.948931, 113, 193, 176, 320
-0.949976, 65, 1, 320, 128
-0.950113, 97, 161, 224, 288
-0.950133, 193, 1, 448, 128
-0.951091, 201, 33, 264, 160
-0.951413, 297, 209, 360, 336
-0.951564, 17, 225, 80, 352
-0.952187, 17, 113, 144, 240
-0.952341, 225, 161, 288, 288
-0.95243, 105, 145, 168, 272
-0.9525, 81, 193, 144, 320
-0.9527, 185, 209, 248, 336
-0.952927, 297, 97, 360, 224
-0.95365, 297, 161, 360, 288
-0.953957, 225, 65, 480, 192
-0.954091, 225, 113, 288, 240
-0.954261, 257, 241, 500, 368
-0.955155, 1, 81, 64, 208
-0.955203, 177, 49, 304, 176
-0.955562, 1, 177, 128, 304
-0.9563, 97, 177, 160, 240
-0.956683, 257, 209, 384, 336
-0.956836, 49, 241, 176, 368
-0.957149, 201, 113, 264, 240
-0.957668, 225, 1, 352, 128
-0.957697, 121, 97, 184, 224
-0.957832, 73, 1, 136, 128
-0.959503, 161, 241, 288, 368
-0.95958, 65, 81, 192, 208
-0.959591, 121, 1, 184, 128
-0.959748, 49, 177, 112, 304
-0.96001, 129, 1, 256, 128
-0.960023, 17, 161, 80, 224
-0.960181, 17, 1, 144, 128
-0.9608, 97, 97, 160, 224
-0.961117, 273, 81, 400, 208
-0.96201, 145, 65, 208, 192
-0.962694, 73, 241, 136, 368
-0.962772, 185, 273, 248, 336
-0.963037, 57, 249, 120, 312
-0.963128, 1, 137, 64, 200
-0.963226, 305, 105, 368, 168
-0.963754, 41, 161, 104, 224
-0.963795, 81, 145, 144, 272
-0.964765, 193, 113, 256, 176
-0.964917, 177, 145, 304, 272
-0.965293, 97, 1, 160, 128
-0.965377, 337, 49, 464, 176
-0.965503, 65, 1, 192, 128
-0.965827, 321, 145, 448, 272
-0.965928, 121, 209, 184, 272
-0.966338, 57, 129, 120, 256
-0.966478, 225, 185, 288, 248
-0.966654, 81, 25, 144, 88
-0.9668, 41, 129, 104, 192
-0.966869, 321, 129, 384, 256
-0.967214, 97, 225, 160, 288
-0.967978, 97, 49, 160, 176
-0.96802, 321, 225, 448, 352
-0.968046, 121, 161, 184, 224
-0.96816, 257, 81, 320, 208
-0.968188, 129, 241, 192, 368
-0.968483, 129, 65, 256, 192
-0.968605, 169, 17, 232, 144
-0.968635, 49, 81, 112, 208
-0.968645, 321, 81, 384, 208
-0.968932, 169, 129, 232, 256
-0.969017, 193, 41, 256, 104
-0.969214, 97, 145, 160, 208
-0.969434, 185, 209, 248, 272
-0.969485, 25, 81, 88, 208
-0.969625, 273, 161, 336, 224
-0.969727, 25, 241, 88, 304
-0.969876, 225, 33, 288, 160
-0.969906, 193, 1, 256, 64
-0.970063, 289, 129, 352, 375
-0.970183, 97, 289, 160, 352
-0.970209, 273, 1, 400, 128
-0.970264, 105, 241, 168, 368
-0.970602, 65, 273, 128, 336
-0.970652, 17, 185, 80, 248
-0.970816, 241, 1, 304, 64
-0.971045, 225, 169, 352, 232
-0.971117, 17, 65, 144, 192
-0.971241, 225, 49, 352, 176
-0.971389, 233, 161, 296, 224
-0.971641, 5, 161, 36, 224
-0.971815, 185, 305, 248, 368
-0.971816, 201, 1, 264, 256
-0.971832, 297, 137, 360, 200
-0.9719, 145, 113, 208, 176
-0.971934, 5, 113, 36, 240
-0.972085, 273, 137, 336, 200
-0.972358, 49, 33, 112, 160
-0.972441, 105, 249, 168, 312
-0.972601, 233, 209, 296, 336
-0.972677, 297, 217, 360, 280
-0.972726, 297, 185, 360, 248
-0.972916, 337, 241, 400, 368
-0.973025, 5, 161, 36, 288
-0.973171, 97, 81, 160, 144
-0.973308, 161, 273, 224, 336
-0.973309, 41, 145, 72, 272
-0.973382, 353, 65, 416, 192
-0.973572, 209, 209, 272, 336
-0.973631, 161, 233, 224, 296
-0.973638, 1, 233, 64, 296
-0.973646, 201, 161, 264, 288
-0.973678, 137, 241, 200, 304
-0.973756, 177, 113, 304, 176
-0.973854, 177, 1, 304, 128
-0.973894, 209, 241, 336, 368
-0.973976, 265, 297, 328, 360
-0.974126, 257, 177, 500, 304
-0.974173, 225, 105, 288, 168
-0.974188, 185, 129, 248, 375
-0.974241, 1, 97, 64, 160
-0.974244, 145, 153, 208, 216
-0.974262, 81, 1, 144, 64
-0.974348, 129, 193, 160, 320
-0.974349, 81, 241, 208, 304
-0.974433, 185, 89, 248, 152
-0.974476, 121, 9, 184, 72
-0.974521, 177, 81, 240, 208
-0.974531, 1, 65, 64, 320
-0.974574, 297, 257, 360, 320
-0.974617, 125, 145, 156, 272
-0.974625, 25, 97, 88, 160
-0.974627, 73, 161, 136, 224
-0.97463, 73, 89, 136, 152
-0.974652, 145, 1, 208, 128
-0.974749, 41, 153, 72, 216
-0.974959, 17, 145, 48, 272
-0.975035, 177, 225, 208, 352
-0.975119, 161, 9, 224, 72
-0.975129, 305, 281, 368, 344
-0.975199, 225, 129, 288, 375
-0.975295, 49, 225, 112, 288
-0.975533, 297, 161, 360, 224
-0.97558, 289, 1, 352, 128
-0.975616, 41, 225, 72, 352
-0.975654, 385, 49, 448, 176
-0.976331, 265, 209, 328, 336
-0.976358, 145, 201, 208, 264
-0.976539, 189, 209, 220, 336
-0.976603, 225, 305, 288, 368
-0.976773, 137, 145, 168, 272
-0.976875, 17, 265, 144, 328
-0.976924, 41, 129, 104, 375
-0.976959, 1, 121, 32, 184
-0.977008, 17, 169, 48, 232
-0.977026, 97, 201, 160, 264
-0.977036, 41, 305, 104, 368
-0.977101, 57, 1, 120, 64
-0.977135, 125, 177, 156, 240
-0.977206, 73, 81, 136, 208
-0.977221, 281, 113, 344, 176
-0.977326, 49, 89, 112, 152
-0.977341, 25, 1, 88, 128
-0.977358, 97, 97, 160, 352
-0.977493, 217, 25, 280, 88
-0.977509, 145, 129, 208, 375
-0.977969, 121, 121, 184, 184
-0.977996, 113, 185, 240, 248
-0.978026, 81, 289, 208, 352
-0.978047, 33, 177, 160, 240
-0.978071, 73, 57, 136, 120
-0.978272, 97, 121, 160, 184
-0.978403, 1, 241, 128, 304
-0.978421, 161, 89, 224, 152
-0.978503, 121, 49, 184, 176
-0.978523, 145, 145, 272, 208
-0.978781, 241, 161, 272, 288
-0.978803, 145, 225, 176, 352
-0.978804, 73, 201, 136, 264
-0.978832, 49, 185, 112, 248
-0.978885, 329, 89, 392, 152
-0.978955, 89, 161, 120, 224
-0.978968, 245, 177, 276, 240
-0.978985, 225, 1, 352, 64
-0.979054, 125, 201, 156, 264
-0.979102, 225, 145, 352, 208
-0.979132, 161, 33, 224, 96
-0.979161, 81, 209, 208, 272
-0.979233, 245, 97, 276, 224
-0.979331, 137, 217, 168, 280
-0.979468, 257, 105, 384, 168
-0.979495, 385, 57, 448, 120
-0.979503, 125, 225, 156, 288
-0.979508, 121, 129, 184, 375
-0.979534, 121, 89, 184, 152
-0.979564, 25, 217, 88, 280
-0.979568, 73, 225, 136, 288
-0.979583, 225, 137, 288, 200
-0.979653, 1, 145, 128, 208
-0.979684, 321, 97, 448, 224
-0.979685, 17, 265, 80, 328
-0.979707, 25, 225, 56, 352
-0.979763, 73, 305, 136, 368
-0.979819, 209, 193, 240, 320
-0.97986, 197, 265, 228, 328
-0.979884, 161, 297, 224, 360
-0.97996, 201, 161, 264, 224
-0.979982, 337, 257, 400, 320
-0.979988, 177, 265, 304, 328
-0.979999, 253, 161, 284, 288
-0.980018, 5, 241, 36, 368
-0.98016, 113, 81, 240, 144
-0.980202, 185, 137, 248, 200
-0.980296, 53, 241, 84, 368
-0.980347, 149, 145, 180, 272
-0.98035, 217, 65, 280, 128
-0.980431, 9, 305, 72, 368
-0.980492, 265, 89, 328, 152
-0.980505, 217, 1, 280, 64
-0.980681, 165, 225, 196, 352
-0.980684, 233, 113, 264, 240
-0.980685, 257, 289, 384, 352
-0.980853, 321, 97, 352, 224
-0.980904, 49, 1, 112, 256
-0.980918, 249, 113, 312, 176
-0.98098, 313, 105, 344, 168
-0.980984, 209, 89, 336, 152
-0.981067, 49, 49, 112, 112
-0.981177, 145, 33, 208, 288
-0.981205, 85, 1, 116, 64
-0.981295, 369, 1, 496, 128
-0.981352, 1, 121, 128, 184
-0.981372, 177, 209, 304, 272
-0.981391, 417, 1, 480, 128
-0.981407, 129, 121, 256, 184
-0.981445, 265, 185, 328, 248
-0.981491, 329, 281, 392, 344
-0.981637, 321, 145, 352, 272
-0.981735, 121, 57, 184, 120
-0.981825, 117, 193, 148, 320
-0.981828, 257, 265, 384, 328
-0.981915, 69, 225, 100, 352
-0.98193, 45, 241, 76, 304
-0.981956, 197, 113, 228, 176
-0.981973, 65, 249, 96, 312
-0.981997, 209, 265, 272, 328
-0.982005, 121, 289, 184, 352
-0.982037, 325, 193, 356, 320
-0.982037, 49, 89, 176, 152
-0.982079, 137, 97, 168, 224
-0.982083, 273, 1, 336, 64
-0.982096, 73, 129, 136, 192
-0.982221, 177, 33, 240, 288
-0.982252, 97, 153, 224, 216
-0.982255, 249, 273, 312, 336
-0.982275, 269, 161, 300, 224
-0.982281, 257, 97, 288, 224
-0.982318, 89, 273, 120, 336
-0.982366, 129, 217, 256, 280
-0.982395, 33, 201, 160, 264
-0.982409, 49, 25, 112, 88
-0.98244, 29, 161, 60, 288
-0.982471, 193, 113, 224, 240
-0.982492, 97, 57, 160, 120
-0.982501, 353, 1, 416, 128
-0.982553, 249, 1, 280, 64
-0.982556, 257, 217, 384, 280
-0.982596, 249, 129, 312, 375
-0.982618, 225, 1, 288, 256
-0.982712, 329, 177, 392, 240
-0.982726, 257, 241, 384, 304
-0.982745, 89, 1, 152, 256
-0.982897, 257, 177, 288, 240
-0.982973, 129, 273, 256, 336
-0.982999, 81, 145, 112, 272
-0.983048, 25, 241, 56, 304
-0.983108, 77, 241, 108, 304
-0.983209, 17, 145, 48, 208
-0.983226, 237, 1, 268, 128
-0.983275, 109, 33, 140, 160
-0.983293, 53, 161, 84, 288
-0.983324, 265, 33, 328, 288
-0.983384, 81, 1, 144, 375
-0.983423, 201, 185, 264, 248
-0.983424, 57, 81, 88, 208
-0.983539, 273, 145, 304, 272
-0.983542, 93, 145, 124, 272
-0.983582, 209, 265, 240, 328
-0.983601, 41, 177, 72, 240
-0.983637, 273, 273, 336, 336
-0.983644, 245, 153, 276, 216
-0.983703, 17, 97, 48, 224
-0.98374, 81, 225, 112, 352
-0.983769, 1, 97, 128, 160
-0.983775, 369, 57, 496, 120
-0.983895, 137, 161, 168, 224
-0.983957, 37, 97, 68, 224
-0.983997, 1, 17, 64, 144
-0.984012, 257, 193, 384, 256
-0.984032, 177, 305, 304, 368
-0.984048, 137, 1, 168, 128
-0.984099, 153, 65, 216, 128
-0.984166, 197, 65, 228, 192
-0.984223, 225, 33, 256, 160
-0.984241, 125, 97, 156, 224
-0.984278, 125, 153, 156, 216
-0.984287, 5, 185, 36, 248
-0.984332, 333, 97, 364, 224
-0.984347, 201, 241, 232, 368
-0.984349, 309, 97, 340, 224
-0.98439, 325, 177, 356, 240
-0.984396, 13, 121, 44, 184
-0.984476, 1, 313, 128, 375
-0.98456, 109, 17, 140, 80
-0.984569, 81, 113, 208, 176
-0.984661, 129, 9, 256, 72
-0.984663, 161, 89, 288, 152
-0.984671, 289, 129, 416, 192
-0.984706, 145, 41, 272, 104
-0.984713, 1, 249, 32, 312
-0.984722, 225, 209, 288, 272
-0.984743, 81, 265, 208, 328
-0.98475, 361, 65, 424, 128
-0.984805, 409, 49, 472, 112
-0.98494, 77, 313, 108, 375
-0.984997, 337, 193, 400, 320
-0.985058, 169, 113, 232, 176
-0.985065, 377, 1, 440, 128
-0.985105, 173, 233, 204, 296
-0.985114, 33, 129, 64, 192
-0.985121, 177, 185, 304, 248
-0.985142, 89, 25, 120, 88
-0.985166, 201, 1, 264, 375
-0.985168, 57, 225, 88, 288
-0.985179, 209, 241, 272, 304
-0.98518, 105, 1, 168, 375
-0.985183, 425, 1, 488, 64
-0.985199, 201, 81, 232, 144
-0.985226, 409, 49, 472, 176
-0.985246, 221, 41, 252, 104
-0.985262, 41, 273, 104, 336
-0.985309, 249, 137, 312, 200
-0.985354, 313, 129, 376, 375
-0.98538, 105, 33, 168, 96
-0.98538, 329, 153, 392, 216
-0.985385, 49, 25, 176, 88
-0.985404, 105, 289, 136, 352
-0.985411, 137, 265, 200, 328
-0.985436, 65, 1, 192, 64
-0.985484, 145, 177, 208, 240
-0.985486, 77, 153, 108, 216
-0.985488, 113, 169, 144, 232
-0.985489, 177, 1, 304, 64
-0.985513, 125, 121, 156, 184
-0.985517, 53, 137, 84, 200
-0.985567, 125, 249, 156, 312
-0.985569, 337, 233, 400, 296
-0.985575, 85, 1, 116, 128
-0.985587, 121, 185, 184, 248
-0.985658, 245, 105, 276, 168
-0.985702, 257, 145, 288, 208
-0.985705, 241, 73, 304, 136
-0.985716, 193, 65, 256, 128
-0.985759, 81, 249, 144, 312
-0.985779, 337, 201, 400, 264
-0.985816, 301, 129, 332, 192
-0.985847, 93, 97, 124, 224
-0.98587, 177, 1, 240, 375
-0.985878, 185, 273, 216, 336
-0.985905, 233, 145, 264, 208
-0.98593, 233, 185, 264, 248
-0.985978, 337, 97, 400, 352
-0.985981, 33, 289, 160, 352
-0.985984, 205, 41, 236, 104
-0.985984, 177, 65, 304, 128
-0.986063, 197, 209, 228, 272
-0.986149, 29, 177, 60, 240
-0.98615, 121, 49, 152, 176
-0.986175, 61, 305, 92, 368
-0.98624, 433, 33, 496, 96
-0.986243, 193, 25, 320, 88
-0.986248, 49, 1, 112, 375
-0.986264, 117, 241, 148, 368
-0.986271, 217, 17, 248, 80
-0.986272, 105, 193, 136, 320
-0.986462, 325, 201, 356, 264
-0.986531, 217, 113, 248, 240
-0.98655, 309, 145, 340, 272
-0.986581, 305, 89, 432, 152
-0.986587, 269, 97, 300, 224
-0.986592, 137, 129, 168, 192
-0.986686, 281, 49, 344, 176
-0.986706, 321, 193, 448, 256
-0.986771, 89, 89, 120, 152
-0.986798, 321, 65, 448, 128
-0.986833, 97, 57, 224, 120
-0.986837, 321, 225, 448, 288
-0.98692, 137, 241, 168, 304
-0.986924, 81, 57, 112, 120
-0.986927, 77, 33, 108, 96
-0.98694, 265, 1, 328, 128
-0.986941, 185, 249, 248, 312
-0.986947, 213, 33, 244, 160
-0.986965, 97, 1, 128, 128
-0.98717, 201, 305, 232, 368
-0.987185, 65, 97, 128, 352
-0.987202, 225, 193, 256, 320
-0.987251, 177, 145, 208, 272
-0.987283, 321, 257, 448, 320
-0.987294, 225, 1, 288, 375
-0.98731, 89, 249, 120, 312
-0.987329, 325, 97, 356, 160
-0.987347, 297, 129, 328, 256
-0.987378, 229, 121, 260, 184
-0.98741, 321, 1, 448, 128
-0.987482, 321, 129, 384, 192
-0.987497, 305, 281, 432, 344
-0.987498, 237, 25, 268, 88
-0.987572, 133, 241, 164, 368
-0.987575, 45, 265, 76, 328
-0.987585, 1, 49, 128, 112
-0.987589, 113, 113, 144, 240
-0.987608, 329, 233, 360, 296
-0.987615, 433, 49, 496, 176
-0.987627, 189, 297, 220, 360
-0.987642, 301, 169, 332, 232
-0.987671, 13, 97, 44, 160
-0.987699, 1, 305, 32, 368
-0.987734, 73, 97, 104, 224
-0.987737, 313, 169, 344, 232
-0.987859, 173, 273, 204, 336
-0.987871, 121, 1, 152, 128
-0.987875, 257, 209, 320, 272
-0.987888, 153, 1, 216, 375
-0.987929, 313, 33, 376, 288
-0.98794, 297, 297, 328, 360
-0.987958, 77, 129, 108, 192
-0.987972, 17, 1, 144, 64
-0.987976, 129, 297, 256, 360
-0.987989, 97, 1, 128, 64
-0.988022, 5, 65, 36, 192
-0.988035, 341, 145, 372, 272
-0.988046, 213, 113, 244, 176
-0.988054, 129, 33, 192, 96
-0.988085, 197, 17, 228, 80
-0.988106, 261, 209, 292, 272
-0.988135, 173, 121, 204, 184
-0.98814, 121, 33, 184, 288
-0.988154, 237, 305, 268, 368
-0.988177, 129, 1, 192, 375
-0.988182, 49, 49, 176, 112
-0.988219, 49, 137, 176, 200
-0.988232, 209, 209, 240, 272
-0.98824, 157, 65, 188, 192
-0.988251, 1, 209, 64, 272
-0.988279, 225, 65, 352, 128
-0.988314, 337, 225, 368, 352
-0.988349, 321, 169, 448, 232
-0.98836, 353, 1, 480, 64
-0.988393, 97, 57, 128, 120
-0.988393, 33, 97, 64, 160
-0.98847, 61, 161, 92, 224
-0.988485, 289, 129, 320, 192
-0.988489, 125, 89, 156, 152
-0.988506, 13, 249, 44, 312
-0.988527, 117, 289, 148, 352
-0.988536, 273, 1, 400, 64
-0.988556, 17, 305, 48, 368
-0.988558, 285, 297, 316, 360
-0.988578, 329, 257, 360, 320
-0.988737, 277, 1, 308, 64
-0.98874, 153, 1, 184, 64
-0.988816, 297, 1, 360, 64
-0.988918, 273, 1, 336, 375
-0.989059, 53, 185, 84, 248
-0.989065, 333, 289, 364, 352
-0.989066, 77, 217, 108, 280
-0.989111, 269, 185, 300, 248
-0.989125, 93, 241, 124, 368
-0.989144, 161, 145, 192, 272
-0.9892, 177, 65, 208, 192
-0.989204, 221, 201, 252, 264
-0.989212, 149, 161, 180, 224
-0.989228, 257, 209, 288, 336
-0.989234, 37, 217, 68, 280
-0.989243, 13, 225, 44, 288
-0.98925, 217, 305, 248, 368
-0.98927, 1, 97, 32, 160
-0.989371, 93, 193, 124, 320
-0.989383, 201, 1, 232, 128
-0.989428, 65, 313, 192, 375
-0.989438, 249, 305, 280, 368
-0.989518, 73, 1, 104, 128
-0.989544, 41, 253, 104, 284
-0.989607, 25, 1, 88, 375
-0.989618, 149, 209, 180, 272
-0.989627, 245, 49, 276, 176
-0.989633, 77, 177, 108, 240
-0.989635, 433, 65, 496, 128
-0.989638, 281, 81, 312, 208
-0.989649, 229, 241, 260, 368
-0.989657, 17, 177, 80, 208
-0.989707, 129, 241, 256, 304
-0.989748, 313, 129, 344, 192
-0.989762, 29, 305, 60, 368
-0.989797, 17, 165, 80, 196
-0.98984, 1, 129, 64, 160
-0.989852, 1, 225, 500, 288
-0.98986, 113, 145, 144, 208
-0.989864, 1, 201, 500, 264
-0.989879, 189, 81, 220, 144
-0.989885, 105, 241, 136, 368
-0.9899, 105, 89, 136, 152
-0.989923, 185, 121, 248, 152
-0.990008, 41, 305, 72, 368
-0.990009, 121, 225, 184, 256
-0.990016, 161, 201, 416, 264
-0.990034, 185, 277, 248, 308
-0.990049, 137, 9, 168, 72
-0.99007, 273, 169, 400, 232
-0.990083, 345, 89, 376, 152
-0.990092, 41, 173, 104, 204
-0.990093, 221, 169, 252, 232
-0.990128, 413, 49, 444, 112
-0.990138, 101, 161, 132, 224
-0.990139, 265, 169, 328, 200
-0.990171, 97, 33, 224, 96
-0.990171, 233, 165, 296, 196
-0.990267, 285, 265, 316, 328
-0.990284, 125, 1, 156, 64
-0.990293, 81, 29, 144, 60
-0.990333, 9, 249, 72, 280
-0.990379, 97, 177, 160, 208
-0.990401, 41, 125, 104, 156
-0.990403, 117, 49, 148, 112
-0.990406, 233, 181, 296, 212
-0.990435, 193, 41, 224, 104
-0.990435, 77, 89, 108, 152
-0.990445, 289, 105, 320, 168
-0.990451, 185, 45, 248, 76
-0.990456, 97, 237, 160, 268
-0.990466, 41, 241, 104, 272
-0.990468, 9, 273, 40, 336
-0.990497, 281, 153, 312, 216
-0.990501, 145, 49, 176, 176
-0.990505, 65, 277, 128, 308
-0.990526, 325, 145, 356, 208
-0.990543, 113, 273, 176, 304
-0.990627, 129, 169, 384, 232
-0.990635, 209, 205, 272, 236
-0.990671, 97, 189, 160, 220
-0.99069, 145, 289, 208, 320
-0.990773, 297, 213, 360, 244
-0.990782, 193, 241, 320, 304
-0.990822, 321, 1, 384, 128
-0.990823, 97, 165, 160, 196
-0.990848, 33, 281, 288, 344
-0.990851, 273, 49, 400, 112
-0.990856, 337, 305, 400, 368
-0.990861, 269, 241, 300, 368
-0.99091, 193, 109, 256, 140
-0.990914, 313, 1, 376, 375
-0.990932, 25, 49, 88, 112
-0.990951, 401, 1, 464, 375
-0.990963, 81, 41, 144, 72
-0.99098, 225, 193, 288, 224
-0.990988, 305, 113, 368, 144
-0.991008, 1, 117, 64, 148
-0.991016, 1, 145, 64, 176
-0.991082, 105, 293, 168, 324
-0.991095, 65, 253, 128, 284
-0.991112, 97, 205, 160, 236
-0.991135, 57, 265, 120, 296
-0.991154, 97, 93, 160, 124
-0.991171, 57, 157, 120, 188
-0.991177, 345, 129, 408, 192
-0.991207, 1, 1, 32, 128
-0.991213, 169, 265, 232, 296
-0.991214, 89, 17, 152, 48
-0.991229, 169, 109, 232, 140
-0.991237, 241, 305, 304, 336
-0.991263, 357, 65, 388, 192
-0.991268, 313, 101, 376, 132
-0.991268, 121, 169, 184, 200
-0.991281, 305, 285, 368, 316
-0.991285, 73, 237, 136, 268
-0.991295, 273, 301, 336, 332
-0.991325, 225, 109, 288, 140
-0.991326, 1, 249, 500, 312
-0.991337, 217, 241, 248, 368
-0.991341, 49, 33, 112, 64
-0.991364, 185, 213, 248, 244
-0.991367, 297, 201, 360, 232
-0.991368, 369, 241, 496, 368
-0.991374, 289, 189, 352, 220
-0.99139, 1, 25, 128, 88
-0.991398, 305, 129, 368, 160
-0.991416, 121, 245, 184, 276
-0.991416, 41, 305, 104, 336
-0.991435, 297, 225, 360, 256
-0.991442, 209, 169, 272, 200
-0.991452, 265, 129, 328, 160
-0.991475, 289, 173, 352, 204
-0.991483, 145, 213, 208, 244
-0.991492, 33, 325, 96, 356
-0.991497, 81, 81, 144, 112
-0.991499, 1, 169, 500, 232
-0.991502, 249, 153, 312, 184
-0.991504, 273, 65, 336, 128
-0.991536, 201, 29, 264, 60
-0.991546, 265, 117, 328, 148
-0.991563, 433, 1, 496, 256
-0.991595, 145, 113, 208, 144
-0.991597, 393, 61, 456, 92
-0.991598, 361, 305, 424, 368
-0.991603, 73, 173, 136, 204
-0.991611, 1, 73, 128, 136
-0.991614, 41, 137, 104, 168
-0.991616, 265, 205, 328, 236
-0.991622, 145, 161, 208, 192
-0.991624, 129, 113, 384, 176
-0.991638, 193, 309, 256, 340
-0.991641, 57, 185, 120, 216
-0.991641, 161, 17, 192, 144
-0.991649, 137, 193, 200, 224
-0.991654, 145, 237, 208, 268
-0.991654, 97, 149, 160, 180
-0.991672, 249, 1, 312, 32
-0.991674, 297, 297, 360, 328
-0.991684, 305, 153, 368, 184
-0.991696, 89, 49, 120, 176
-0.991716, 337, 1, 400, 375
-0.991719, 9, 193, 72, 224
-0.991739, 185, 57, 248, 88
-0.991753, 241, 293, 304, 324
-0.991766, 193, 265, 256, 296
-0.99177, 1, 1, 64, 375
-0.991775, 137, 277, 200, 308
-0.991797, 305, 269, 368, 300
-0.991805, 273, 157, 336, 188
-0.991824, 65, 13, 128, 44
-0.991827, 121, 21, 184, 52
-0.991828, 169, 229, 232, 260
-0.991834, 121, 149, 184, 180
-0.991837, 201, 1, 264, 32
-0.991856, 209, 41, 272, 72
-0.991856, 217, 53, 280, 84
-0.99188, 177, 97, 240, 128
-0.991884, 105, 81, 168, 112
-0.991886, 209, 121, 272, 152
-0.991891, 233, 217, 296, 248
-0.991894, 161, 265, 416, 328
-0.991896, 361, 33, 424, 288
-0.991908, 81, 121, 144, 152
-0.991909, 209, 297, 272, 328
-0.991919, 413, 49, 444, 176
-0.991925, 49, 229, 112, 260
-0.991942, 49, 97, 112, 128
-0.991949, 81, 65, 144, 96
-0.991959, 97, 261, 160, 292
-0.991963, 305, 141, 368, 172
-0.991965, 185, 289, 248, 320
-0.99197, 57, 85, 120, 116
-0.991973, 129, 101, 192, 132
-0.991976, 161, 37, 224, 68
-0.991988, 105, 1, 168, 32
-0.991996, 265, 101, 328, 132
-0.992006, 305, 305, 432, 368
-0.992012, 81, 289, 144, 320
-0.992016, 305, 241, 368, 272
-0.99202, 185, 141, 248, 172
-0.99202, 57, 45, 120, 76
-0.992028, 185, 153, 248, 184
-0.992032, 217, 313, 280, 344
-0.992034, 313, 177, 376, 208
-0.992047, 73, 225, 136, 256
-0.992051, 17, 261, 80, 292
-0.992052, 161, 277, 224, 308
-0.992059, 225, 137, 288, 168
-0.992071, 145, 261, 208, 292
-0.992079, 209, 153, 272, 184
-0.992091, 73, 325, 136, 356
-0.992104, 201, 181, 264, 212
-0.992121, 329, 197, 392, 228
-0.992121, 337, 281, 400, 312
-0.992138, 209, 69, 272, 100
-0.99214, 33, 337, 96, 368
-0.992141, 369, 69, 432, 100
-0.992146, 169, 301, 232, 332
-0.992155, 245, 209, 276, 336
-0.992209, 33, 225, 288, 288
-0.992322, 5, 169, 36, 200
-0.99234, 197, 265, 228, 296
-0.992406, 161, 225, 416, 288
-0.992459, 89, 173, 120, 204
-0.992484, 41, 173, 72, 204
-0.992495, 21, 177, 52, 208
-0.992529, 65, 145, 320, 208
-0.992546, 249, 1, 312, 375
-0.992588, 1, 253, 32, 284
-0.992603, 49, 245, 80, 276
-0.992606, 253, 173, 284, 204
-0.99261, 289, 33, 352, 288
-0.992611, 37, 1, 68, 128
-0.992628, 65, 253, 96, 284
-0.992635, 129, 233, 160, 264
-0.992655, 249, 1, 280, 128
-0.99268, 185, 273, 216, 304
-0.992695, 125, 181, 156, 212
-0.992703, 1, 125, 32, 156
-0.992713, 117, 237, 148, 268
-0.992716, 125, 169, 156, 200
-0.992726, 101, 285, 132, 316
-0.992738, 1, 141, 32, 172
-0.992747, 309, 113, 340, 144
-0.992753, 93, 29, 124, 60
-0.992773, 189, 285, 220, 316
-0.992781, 213, 37, 244, 68
-0.992786, 81, 37, 112, 68
-0.992787, 29, 249, 60, 280
-0.992801, 289, 225, 320, 352
-0.992824, 17, 125, 48, 156
-0.992826, 321, 209, 352, 240
-0.992841, 193, 121, 224, 152
-0.992844, 321, 105, 352, 136
-0.992844, 77, 165, 108, 196
-0.992846, 125, 193, 156, 224
-0.992858, 33, 169, 288, 232
-0.992863, 89, 161, 120, 192
-0.992872, 125, 205, 156, 236
-0.992878, 25, 1, 88, 256
-0.992906, 177, 109, 208, 140
-0.992908, 137, 169, 168, 200
-0.992914, 77, 253, 108, 284
-0.992917, 225, 33, 256, 64
-0.992925, 61, 173, 92, 204
-0.992926, 41, 185, 72, 216
-0.992929, 209, 49, 240, 80
-0.992935, 49, 261, 80, 292
-0.992936, 293, 1, 324, 128
-0.992942, 325, 197, 356, 228
-0.992944, 113, 169, 144, 200
-0.992947, 377, 1, 440, 375
-0.992949, 265, 165, 296, 196
-0.992951, 209, 213, 240, 244
-0.992958, 1, 297, 500, 360
-0.99296, 333, 97, 364, 128
-0.992962, 245, 161, 276, 192
-0.992967, 1, 153, 32, 184
-0.992967, 209, 269, 240, 300
-0.992969, 81, 25, 112, 56
-0.992972, 33, 129, 64, 160
-0.992974, 17, 165, 48, 196
-0.992975, 177, 285, 208, 316
-0.992978, 37, 141, 68, 172
-0.992986, 85, 81, 116, 112
-0.992996, 253, 209, 284, 240
-0.993001, 61, 241, 92, 272
-0.993001, 189, 17, 220, 144
-0.993003, 325, 181, 356, 212
-0.993005, 109, 17, 140, 48
-0.993008, 85, 265, 116, 296
-0.993012, 201, 281, 232, 312
-0.993013, 141, 229, 172, 260
-0.993023, 53, 185, 84, 216
-0.993035, 177, 233, 208, 264
-0.99304, 285, 145, 316, 272
-0.993041, 197, 41, 228, 72
-0.993042, 73, 125, 104, 156
-0.993045, 221, 113, 252, 144
-0.993049, 13, 245, 44, 276
-0.99305, 241, 193, 272, 224
-0.993051, 69, 325, 100, 356
-0.993057, 265, 177, 296, 208
-0.993059, 301, 129, 332, 160
-0.99306, 53, 141, 84, 172
-0.993061, 193, 109, 224, 140
-0.993062, 221, 17, 252, 48
-0.993064, 113, 293, 144, 324
-0.993078, 81, 317, 112, 348
-0.993083, 81, 49, 112, 80
-0.993085, 133, 249, 164, 280
-0.993086, 249, 309, 280, 340
-0.99309, 85, 93, 116, 124
-0.993095, 109, 37, 140, 68
-0.993097, 265, 209, 296, 240
-0.993101, 25, 189, 56, 220
-0.993102, 101, 85, 132, 116
-0.993104, 77, 241, 108, 272
-0.993106, 205, 25, 236, 56
-0.993107, 5, 185, 36, 216
-0.993109, 125, 157, 156, 188
-0.993117, 269, 305, 300, 336
-0.993118, 297, 117, 328, 148
-0.993123, 113, 189, 144, 220
-0.993123, 125, 217, 156, 248
-0.993124, 221, 205, 252, 236
-0.993125, 69, 37, 100, 68
-0.993127, 41, 161, 72, 192
-0.993127, 89, 277, 120, 308
-0.993128, 257, 153, 288, 184
-0.993135, 277, 165, 308, 196
-0.993138, 57, 321, 88, 352
-0.993138, 197, 81, 228, 112
-0.993139, 85, 65, 116, 96
-0.993141, 137, 81, 168, 112
-0.993141, 237, 113, 268, 144
-0.993146, 81, 13, 112, 44
-0.993154, 197, 69, 228, 100
-0.993154, 77, 153, 108, 184
-0.993154, 65, 265, 96, 296
-0.993156, 337, 129, 464, 192
-0.993158, 221, 49, 252, 80
-0.993158, 329, 297, 360, 328
-0.99316, 13, 137, 44, 168
-0.993163, 281, 305, 312, 336
-0.993164, 305, 209, 336, 336
-0.993166, 125, 125, 156, 156
-0.993168, 233, 161, 264, 192
-0.993169, 253, 221, 284, 252
-0.993176, 421, 61, 452, 92
-0.993176, 73, 177, 104, 208
-0.993176, 205, 113, 236, 240
-0.993176, 125, 293, 156, 324
-0.993177, 69, 305, 100, 336
-0.993185, 225, 101, 256, 132
-0.993188, 177, 121, 208, 152
-0.993191, 409, 49, 440, 80
-0.993191, 165, 237, 196, 268
-0.993191, 293, 81, 324, 208
-0.993196, 297, 301, 328, 332
-0.993202, 233, 53, 264, 84
-0.993203, 253, 185, 284, 216
-0.993204, 145, 245, 176, 276
-0.993206, 101, 173, 132, 204
-0.993207, 57, 129, 88, 160
-0.99321, 301, 173, 332, 204
-0.993216, 209, 109, 240, 140
-0.993218, 309, 213, 340, 244
-0.993283, 385, 1, 448, 256
-0.993378, 317, 1, 348, 128
-0.993378, 317, 241, 348, 368
-0.993467, 269, 49, 300, 176
-0.993484, 21, 1, 52, 128
-0.993493, 425, 49, 456, 176
-0.993497, 225, 313, 352, 375
-0.993564, 1, 253, 128, 284
-0.993574, 225, 169, 480, 232
-0.993592, 1, 97, 500, 160
-0.99364, 65, 177, 96, 304
-0.993701, 225, 177, 352, 208
-0.993735, 369, 289, 496, 352
-0.993768, 57, 1, 88, 128
-0.993804, 129, 65, 384, 128
-0.993822, 425, 1, 488, 375
-0.99388, 225, 97, 480, 160
-0.993895, 17, 169, 32, 232
-0.993938, 193, 297, 448, 360
-0.993951, 1, 97, 256, 160
-0.993985, 349, 241, 380, 368
-0.993997, 149, 1, 180, 128
-0.994004, 421, 1, 452, 128
-0.994015, 81, 269, 208, 300
-0.994047, 469, 17, 500, 144
-0.994052, 65, 1, 320, 64
-0.994067, 133, 49, 164, 176
-0.994072, 73, 49, 104, 176
-0.994107, 1, 273, 500, 336
-0.994284, 137, 161, 152, 224
-0.994301, 345, 81, 376, 208
-0.994323, 397, 49, 428, 176
-0.994362, 189, 161, 220, 288
-0.99438, 1, 257, 256, 320
-0.994416, 15, 145, 30, 208
-0.994419, 433, 1, 464, 128
-0.994425, 257, 49, 288, 176
-0.994557, 33, 305, 288, 368
-0.994594, 397, 1, 428, 128
-0.994631, 353, 313, 480, 375
-0.994681, 65, 245, 192, 276
-0.99469, 81, 289, 208, 320
-0.994692, 345, 129, 408, 256
-0.994715, 1, 201, 256, 264
-0.994744, 7, 145, 22, 208
-0.994752, 23, 169, 38, 232
-0.994765, 409, 33, 472, 288
-0.994767, 177, 117, 304, 148
-0.994799, 369, 33, 496, 96
-0.994835, 193, 41, 448, 104
-0.994836, 5, 129, 36, 375
-0.994841, 1, 265, 128, 296
-0.994881, 1, 121, 16, 184
-0.994882, 139, 137, 154, 200
-0.994905, 207, 273, 222, 336
-0.994923, 17, 177, 144, 208
-0.994977, 373, 1, 404, 128
-0.994988, 1, 145, 500, 208
-0.99499, 141, 217, 156, 280
-0.994993, 107, 273, 122, 336
-0.995074, 11, 169, 26, 232
-0.995125, 209, 145, 336, 176
-0.995165, 1, 145, 16, 208
-0.995166, 225, 1, 480, 64
-0.995178, 113, 217, 240, 248
-0.995239, 17, 277, 144, 308
-0.995259, 257, 129, 384, 160
-0.995295, 95, 161, 110, 224
-0.995296, 113, 201, 240, 232
-0.995302, 65, 41, 320, 104
-0.995302, 207, 33, 222, 96
-0.995315, 1, 125, 128, 156
-0.995336, 1, 1, 500, 64
-0.995338, 55, 153, 70, 216
-0.995355, 369, 97, 496, 224
-0.995359, 209, 101, 336, 132
-0.995367, 7, 121, 22, 184
-0.995383, 265, 185, 280, 248
-0.99543, 217, 49, 232, 112
-0.995459, 225, 189, 352, 220
-0.995461, 1, 121, 256, 184
-0.995468, 225, 145, 480, 208
-0.995485, 129, 121, 256, 152
-0.995509, 249, 153, 264, 216
-0.995519, 101, 273, 116, 336
-0.995523, 209, 157, 336, 188
-0.995548, 147, 209, 162, 272
-0.995557, 321, 25, 448, 88
-0.995567, 271, 177, 286, 240
-0.995571, 65, 229, 192, 260
-0.9956, 31, 169, 46, 232
-0.995603, 131, 225, 146, 288
-0.995603, 65, 173, 192, 204
-0.995648, 161, 277, 288, 308
-0.995648, 133, 129, 148, 192
-0.995658, 33, 73, 288, 136
-0.99567, 125, 161, 140, 224
-0.995685, 97, 109, 224, 140
-0.995695, 409, 1, 440, 128
-0.995697, 139, 249, 154, 312
-0.995711, 87, 1, 102, 64
-0.995738, 257, 301, 384, 332
-0.995743, 57, 241, 72, 304
-0.995747, 241, 213, 368, 244
-0.995755, 53, 129, 68, 192
-0.995765, 129, 89, 384, 152
-0.995765, 193, 209, 320, 240
-0.995767, 113, 233, 240, 264
-0.995767, 213, 265, 228, 328
-0.995777, 129, 157, 256, 188
-0.995801, 305, 1, 336, 128
-0.995807, 269, 209, 284, 272
-0.995818, 361, 1, 392, 128
-0.995843, 325, 169, 340, 232
-0.995846, 199, 113, 214, 176
-0.995848, 213, 25, 228, 88
-0.995872, 91, 41, 106, 104
-0.995887, 201, 265, 216, 328
-0.995895, 39, 241, 54, 304
-0.995931, 131, 153, 146, 216
-0.995958, 67, 225, 82, 288
-0.99596, 33, 49, 64, 176
-0.995961, 259, 177, 274, 240
-0.995964, 21, 145, 36, 208
-0.995966, 239, 33, 254, 96
-0.995981, 225, 113, 352, 144
-0.996009, 193, 289, 320, 320
-0.996012, 93, 1, 108, 64
-0.996013, 205, 81, 220, 144
-0.996037, 149, 169, 164, 232
-0.996047, 81, 233, 96, 296
-0.99605, 377, 65, 408, 192
-0.996074, 57, 185, 72, 248
-0.996074, 215, 81, 230, 144
-0.996124, 209, 133, 336, 164
-0.996132, 257, 141, 384, 172
-0.996147, 17, 165, 144, 196
-0.996154, 281, 1, 312, 128
-0.996158, 85, 305, 100, 368
-0.996174, 193, 289, 208, 352
-0.996185, 257, 161, 384, 192
-0.996195, 257, 229, 384, 260
-0.996206, 33, 209, 160, 240
-0.996209, 83, 33, 98, 96
-0.996214, 187, 265, 202, 328
-0.996222, 309, 129, 324, 192
-0.996229, 321, 105, 336, 168
-0.99623, 1, 257, 16, 320
-0.996244, 353, 105, 480, 168
-0.99625, 93, 249, 108, 312
-0.996254, 49, 161, 64, 224
-0.996271, 1, 241, 128, 272
-0.996275, 65, 185, 192, 216
-0.996294, 5, 177, 20, 240
-0.996301, 161, 105, 288, 136
-0.996306, 71, 249, 86, 312
-0.996318, 75, 305, 90, 368
-0.996323, 29, 249, 44, 312
-0.996341, 369, 61, 496, 92
-0.996354, 257, 201, 384, 232
-0.996368, 89, 65, 104, 128
-0.996369, 17, 121, 32, 184
-0.996375, 1, 73, 500, 136
-0.996391, 145, 17, 272, 48
-0.996394, 49, 257, 176, 288
-0.996403, 257, 265, 500, 328
-0.996432, 325, 129, 356, 375
-0.996443, 239, 113, 254, 176
-0.996456, 195, 265, 210, 328
-0.996469, 17, 49, 48, 176
-0.996472, 225, 73, 480, 136
-0.996477, 1, 321, 128, 352
-0.996495, 253, 1, 268, 64
-0.996505, 1, 309, 128, 340
-0.996506, 1, 137, 128, 168
-0.99651, 129, 293, 256, 324
-0.996519, 225, 33, 240, 96
-0.99652, 13, 305, 28, 368
-0.99656, 303, 129, 318, 192
-0.996566, 15, 241, 30, 304
-0.996572, 193, 309, 320, 340
-0.996574, 267, 153, 282, 216
-0.996576, 217, 305, 232, 368
-0.996591, 155, 1, 170, 64
-0.996593, 85, 153, 100, 216
-0.996594, 293, 297, 308, 360
-0.996595, 65, 37, 192, 68
-0.996598, 187, 113, 202, 176
-0.996599, 113, 189, 240, 220
-0.996603, 91, 137, 106, 200
-0.996606, 247, 305, 262, 368
-0.996606, 225, 9, 352, 40
-0.996607, 263, 209, 278, 272
-0.996608, 257, 289, 384, 320
-0.99661, 249, 105, 264, 168
-0.996615, 145, 121, 160, 184
-0.996625, 119, 17, 134, 80
-0.996627, 289, 105, 416, 136
-0.99663, 125, 137, 140, 200
-0.99663, 237, 305, 252, 368
-0.996633, 177, 173, 304, 204
-0.996646, 129, 137, 256, 168
-0.99666, 199, 297, 214, 360
-0.99666, 51, 241, 66, 304
-0.996665, 437, 49, 468, 176
-0.996669, 221, 33, 252, 288
-0.996671, 241, 153, 256, 216
-0.996675, 81, 125, 208, 156
-0.996679, 177, 221, 304, 252
-0.996686, 177, 1, 304, 32
-0.996687, 17, 289, 144, 320
-0.996692, 235, 201, 250, 264
-0.996695, 207, 305, 222, 368
-0.996702, 87, 89, 102, 152
-0.996706, 129, 49, 256, 80
-0.996707, 261, 145, 276, 208
-0.99672, 257, 257, 384, 288
-0.996725, 315, 169, 330, 232
-0.996733, 213, 1, 228, 64
-0.996736, 45, 225, 60, 288
-0.996742, 197, 89, 212, 152
-0.996757, 37, 177, 52, 240
-0.996759, 227, 305, 242, 368
-0.996765, 127, 185, 142, 248
-0.99677, 241, 185, 256, 248
-0.996777, 123, 289, 138, 352
-0.996779, 63, 265, 78, 328
-0.996782, 23, 249, 38, 312
-0.996785, 213, 209, 228, 272
-0.996788, 5, 233, 20, 296
-0.996795, 299, 297, 314, 360
-0.996802, 95, 273, 110, 336
-0.996811, 219, 25, 234, 88
-0.996821, 145, 37, 272, 68
-0.996835, 257, 277, 384, 308
-0.996838, 257, 245, 384, 276
-0.996845, 113, 169, 240, 200
-0.996848, 313, 105, 328, 168
-0.996855, 41, 265, 56, 328
-0.996857, 145, 249, 160, 312
-0.996864, 23, 305, 38, 368
-0.996869, 49, 89, 176, 120
-0.996872, 15, 97, 30, 160
-0.996881, 83, 121, 98, 184
-0.996883, 215, 113, 230, 176
-0.996896, 275, 145, 290, 208
-0.996897, 131, 49, 146, 112
-0.996904, 177, 65, 304, 96
-0.996908, 133, 89, 148, 152
-0.99691, 349, 193, 380, 320
-0.996915, 1, 25, 500, 88
-0.996916, 27, 145, 42, 208
-0.996932, 327, 105, 342, 168
-0.996934, 3, 305, 18, 368
-0.996942, 133, 249, 148, 312
-0.996945, 193, 225, 208, 288
-0.996949, 277, 177, 292, 240
-0.996954, 95, 73, 110, 136
-0.996957, 343, 257, 358, 320
-0.996961, 95, 193, 110, 256
-0.996961, 335, 97, 350, 160
-0.996967, 235, 169, 250, 232
-0.996969, 1, 1, 32, 256
-0.996987, 57, 209, 72, 272
-0.997002, 261, 129, 292, 375
-0.997003, 65, 321, 192, 352
-0.99702, 209, 1, 240, 256
-0.997026, 257, 193, 500, 256
-0.997044, 133, 129, 164, 375
-0.997079, 65, 49, 192, 80
-0.997092, 81, 129, 112, 375
-0.997096, 197, 33, 228, 288
-0.997114, 1, 337, 128, 368
-0.99714, 321, 205, 448, 236
-0.99714, 129, 93, 256, 124
-0.99715, 289, 117, 416, 148
-0.997159, 321, 225, 448, 256
-0.997161, 65, 21, 192, 52
-0.997164, 257, 241, 500, 304
-0.997191, 333, 49, 364, 176
-0.997195, 385, 1, 416, 128
-0.997196, 1, 193, 128, 224
-0.997202, 265, 209, 280, 240
-0.997206, 321, 281, 448, 312
-0.997206, 17, 129, 48, 375
-0.99721, 237, 129, 268, 375
-0.997216, 161, 233, 288, 264
-0.997223, 65, 197, 192, 228
-0.997247, 1, 33, 128, 64
-0.997253, 105, 277, 120, 308
-0.997254, 305, 293, 432, 324
-0.997254, 209, 97, 240, 352
-0.997255, 273, 177, 400, 208
-0.997257, 321, 237, 448, 268
-0.997268, 193, 129, 224, 375
-0.997272, 177, 197, 304, 228
-0.997276, 49, 109, 176, 140
-0.997289, 237, 1, 268, 256
-0.997319, 457, 49, 488, 176
-0.997332, 21, 173, 36, 204
-0.997338, 225, 121, 480, 184
-0.997347, 193, 21, 320, 52
-0.997356, 129, 261, 256, 292
-0.997372, 137, 165, 152, 196
-0.997381, 321, 265, 448, 296
-0.997387, 97, 81, 224, 112
-0.997389, 121, 129, 152, 375
-0.997417, 129, 61, 256, 92
-0.997422, 193, 261, 320, 292
-0.997431, 313, 129, 344, 375
-0.997438, 313, 49, 344, 176
-0.997454, 225, 129, 256, 375
-0.997456, 249, 129, 280, 375
-0.997472, 205, 265, 220, 296
-0.997494, 55, 169, 70, 200
-0.997502, 29, 177, 44, 208
-0.997504, 129, 233, 144, 264
-0.997505, 1, 153, 128, 184
-0.997506, 257, 217, 500, 280
-0.997511, 311, 113, 326, 144
-0.997521, 81, 141, 208, 172
-0.99753, 3, 129, 18, 160
-0.997536, 127, 169, 142, 200
-0.997536, 3, 257, 18, 288
-0.997541, 1, 121, 500, 184
-0.997559, 1, 61, 128, 92
-0.997562, 113, 1, 240, 32
-0.997563, 321, 253, 448, 284
-0.997571, 93, 169, 108, 200
-0.997583, 85, 33, 100, 64
-0.997584, 11, 169, 26, 200
-0.997586, 193, 37, 320, 68
-0.997587, 417, 241, 480, 368
-0.997594, 189, 281, 204, 312
-0.997595, 1, 93, 128, 124
-0.997631, 149, 129, 180, 375
-0.997652, 257, 169, 272, 200
-0.997661, 321, 193, 448, 224
-0.997672, 139, 229, 154, 260
-0.997686, 17, 17, 144, 48
-0.997689, 1, 77, 128, 108
-0.99769, 1, 153, 16, 184
-0.997691, 249, 33, 280, 288
-0.997696, 1, 49, 128, 80
-0.997699, 111, 285, 126, 316
-0.997702, 305, 93, 432, 124
-0.997703, 73, 1, 104, 256
-0.997716, 177, 49, 304, 80
-0.997743, 1, 113, 128, 144
-0.997743, 135, 133, 150, 164
-0.997745, 17, 229, 144, 260
-0.997755, 13, 125, 28, 156
-0.997758, 9, 253, 24, 284
-0.99778, 129, 33, 160, 288
-0.997796, 7, 141, 22, 172
-0.997798, 113, 245, 240, 276
-0.997806, 49, 77, 176, 108
-0.99781, 1, 169, 16, 200
-0.997811, 93, 81, 108, 112
-0.997823, 53, 129, 84, 375
-0.997825, 197, 273, 212, 304
-0.997829, 65, 309, 192, 340
-0.997835, 1, 49, 500, 112
-0.997838, 269, 169, 284, 200
-0.99784, 211, 33, 226, 64
-0.997841, 93, 129, 124, 375
-0.997858, 55, 157, 70, 188
-0.997863, 97, 269, 112, 300
-0.997864, 173, 129, 204, 375
-0.997871, 65, 9, 192, 40
-0.997875, 67, 257, 82, 288
-0.997899, 257, 93, 384, 124
-0.997899, 73, 249, 88, 280
-0.997901, 353, 77, 480, 108
-0.997903, 241, 25, 368, 88
-0.997903, 145, 305, 272, 336
-0.997906, 41, 129, 72, 375
-0.997912, 53, 125, 68, 156
-0.99792, 261, 33, 292, 288
-0.997938, 91, 29, 106, 60
-0.997941, 57, 245, 72, 276
-0.997949, 321, 109, 336, 140
-0.99796, 1, 141, 16, 172
-0.997963, 321, 181, 448, 212
-0.997966, 35, 177, 50, 208
-0.997967, 57, 181, 72, 212
-0.99797, 17, 1, 48, 256
-0.997972, 91, 257, 106, 288
-0.997972, 305, 1, 432, 32
-0.997977, 197, 121, 212, 152
-0.997977, 325, 177, 340, 208
-0.997986, 219, 45, 234, 76
-0.997988, 141, 33, 172, 288
-0.99799, 135, 153, 150, 184
-0.99799, 369, 161, 496, 224
-0.997995, 215, 273, 230, 304
-0.998003, 225, 49, 352, 80
-0.99801, 177, 89, 304, 120
-0.998022, 53, 145, 68, 176
-0.998026, 21, 185, 36, 216
-0.998026, 79, 249, 94, 280
-0.998038, 213, 73, 228, 104
-0.998038, 353, 1, 480, 32
-0.998039, 177, 185, 304, 216
-0.998055, 113, 21, 128, 52
-0.998063, 87, 45, 102, 76
-0.99807, 195, 289, 210, 320
-0.998071, 315, 129, 330, 160
-0.998085, 93, 61, 108, 92
-0.998095, 49, 333, 176, 364
-0.998112, 11, 185, 26, 216
-0.998118, 225, 45, 240, 76
-0.99812, 297, 129, 328, 375
-0.998122, 51, 249, 66, 280
-0.998124, 275, 177, 290, 208
-0.998124, 235, 201, 250, 232
-0.998129, 335, 101, 350, 132
-0.998131, 99, 281, 114, 312
-0.998132, 81, 121, 96, 152
-0.998145, 277, 129, 308, 375
-0.998146, 203, 77, 218, 108
-0.998147, 93, 157, 108, 188
-0.998152, 337, 133, 464, 164
-0.998162, 87, 77, 102, 108
-0.99817, 73, 321, 88, 352
-0.998171, 341, 97, 356, 128
-0.998171, 251, 161, 266, 192
-0.998172, 197, 109, 212, 140
-0.998178, 29, 249, 44, 280
-0.998178, 189, 109, 204, 140
-0.998179, 65, 161, 192, 192
-0.998184, 263, 173, 278, 204
-0.998185, 29, 97, 60, 352
-0.998188, 259, 213, 274, 244
-0.998192, 205, 285, 220, 316
-0.998192, 95, 93, 110, 124
-0.998192, 145, 233, 160, 264
-0.998195, 23, 121, 38, 152
-0.998195, 85, 173, 100, 204
-0.998197, 39, 241, 54, 272
-0.998197, 213, 49, 228, 80
-0.998199, 127, 189, 142, 220
-0.998203, 15, 153, 30, 184
-0.998204, 327, 105, 342, 136
-0.998206, 19, 197, 34, 228
-0.998211, 89, 245, 104, 276
-0.998214, 141, 153, 156, 184
-0.998217, 137, 177, 152, 208
-0.998218, 325, 33, 356, 288
-0.998222, 305, 165, 432, 196
-0.998222, 217, 29, 232, 60
-0.998241, 123, 241, 138, 272
-0.998245, 243, 193, 258, 224
-0.998245, 117, 281, 132, 312
-0.998253, 87, 93, 102, 124
-0.998257, 85, 21, 100, 52
-0.998258, 89, 125, 104, 156
-0.99826, 139, 249, 154, 280
-0.998261, 229, 33, 244, 64
-0.998272, 215, 85, 230, 116
-0.998282, 253, 309, 268, 340
-0.998285, 211, 213, 226, 244
-0.998285, 269, 181, 284, 212
-0.998292, 147, 169, 162, 200
-0.998301, 65, 241, 80, 272
-0.998302, 65, 61, 192, 92
-0.998309, 183, 281, 198, 312
-0.998311, 83, 325, 98, 356
-0.998326, 27, 165, 42, 196
-0.998327, 237, 49, 252, 80
-0.998327, 19, 245, 34, 276
-0.99834, 95, 181, 110, 212
-0.998344, 317, 169, 332, 200
-0.998346, 81, 305, 96, 336
-0.99836, 81, 45, 96, 76
-0.99836, 217, 101, 232, 132
-0.998369, 251, 141, 266, 172
-0.998372, 121, 13, 136, 44
-0.998372, 233, 307, 264, 322
-0.998373, 233, 161, 264, 176
-0.998373, 113, 35, 144, 50
-0.998373, 409, 65, 440, 80
-0.998373, 53, 191, 84, 206
-0.998374, 179, 109, 194, 140
-0.998374, 125, 131, 156, 146
-0.998374, 309, 129, 324, 160
-0.998375, 97, 13, 128, 28
-0.998375, 417, 113, 480, 240
-0.998378, 265, 167, 296, 182
-0.998379, 221, 29, 252, 44
-0.998379, 257, 207, 288, 222
-0.99838, 469, 1, 500, 256
-0.998381, 325, 195, 356, 210
-0.998381, 213, 61, 244, 76
-0.998381, 1, 153, 32, 168
-0.998382, 285, 305, 300, 336
-0.998382, 77, 279, 108, 294
-0.998382, 103, 85, 118, 116
-0.998383, 141, 271, 172, 286
-0.998384, 17, 251, 48, 266
-0.998384, 239, 121, 254, 152
-0.998384, 17, 175, 48, 190
-0.998386, 125, 295, 156, 310
-0.998386, 161, 119, 192, 134
-0.998387, 97, 95, 128, 110
-0.998387, 141, 125, 156, 156
-0.998387, 225, 115, 256, 130
-0.998387, 33, 129, 64, 144
-0.998388, 157, 243, 188, 258
-0.998388, 91, 13, 106, 44
-0.998388, 265, 225, 280, 256
-0.998389, 249, 309, 280, 324
-0.99839, 125, 209, 156, 224
-0.99839, 137, 173, 168, 188
-0.99839, 269, 1, 300, 16
-0.99839, 81, 53, 112, 68
-0.998391, 49, 153, 80, 168
-0.998392, 221, 41, 252, 56
-0.998392, 201, 47, 232, 62
-0.998392, 113, 295, 144, 310
-0.998393, 305, 131, 336, 146
-0.998395, 113, 181, 144, 196
-0.998395, 37, 151, 68, 166
-0.998396, 77, 133, 108, 148
-0.998396, 49, 141, 80, 156
-0.998397, 81, 237, 96, 268
-0.998397, 257, 5, 288, 20
-0.998397, 313, 109, 344, 124
-0.998397, 225, 213, 240, 244
-0.998398, 5, 185, 20, 216
-0.9984, 103, 265, 118, 296
-0.998401, 197, 263, 228, 278
-0.998402, 1, 133, 32, 148
-0.998402, 85, 257, 100, 288
-0.998403, 77, 179, 108, 194
-0.998403, 123, 25, 138, 56
-0.998404, 173, 237, 204, 252
-0.998404, 169, 113, 200, 128
-0.998406, 15, 141, 30, 172
-0.998406, 73, 97, 104, 112
-0.998408, 141, 125, 172, 140
-0.998408, 189, 291, 220, 306
-0.998408, 209, 31, 240, 46
-0.998411, 169, 293, 200, 308
-0.998411, 93, 285, 124, 300
-0.998412, 85, 101, 116, 116
-0.998412, 125, 203, 156, 218
-0.998412, 217, 121, 248, 136
-0.998414, 185, 267, 216, 282
-0.998414, 77, 33, 108, 48
-0.998415, 41, 247, 72, 262
-0.998416, 137, 167, 168, 182
-0.998418, 145, 247, 176, 262
-0.99842, 53, 185, 84, 200
-0.99842, 253, 187, 284, 202
-0.99842, 89, 277, 120, 292
-0.998421, 193, 121, 224, 136
-0.998423, 1, 261, 32, 276
-0.998423, 177, 119, 208, 134
-0.998424, 93, 89, 124, 104
-0.998424, 65, 251, 96, 266
-0.998426, 37, 145, 68, 160
-0.998427, 49, 259, 80, 274
-0.998427, 113, 173, 144, 188
-0.998428, 241, 81, 368, 112
-0.998428, 101, 37, 132, 52
-0.998429, 125, 193, 156, 208
-0.998429, 105, 289, 136, 304
-0.998431, 77, 167, 108, 182
-0.998433, 49, 147, 80, 162
-0.998434, 125, 167, 156, 182
-0.998434, 77, 257, 108, 272
-0.998435, 61, 179, 92, 194
-0.998435, 1, 165, 32, 180
-0.998436, 253, 179, 284, 194
-0.998438, 137, 241, 168, 256
-0.99844, 41, 175, 72, 190
-0.99844, 77, 125, 108, 140
-0.998441, 53, 247, 84, 262
-0.998443, 89, 179, 120, 194
-0.998444, 161, 129, 192, 375
-0.998444, 213, 55, 244, 70
-0.998447, 245, 171, 276, 186
-0.998447, 81, 43, 112, 58
-0.998448, 209, 215, 240, 230
-0.998449, 257, 173, 288, 188
-0.99845, 93, 173, 124, 188
-0.998451, 305, 305, 432, 336
-0.998454, 201, 275, 232, 290
-0.998455, 181, 285, 212, 300
-0.998456, 321, 211, 352, 226
-0.998457, 305, 115, 336, 130
-0.998457, 17, 133, 48, 148
-0.998457, 9, 183, 40, 198
-0.998459, 65, 257, 96, 272
-0.99846, 1, 133, 64, 148
-0.99846, 49, 251, 112, 266
-0.998461, 1, 125, 64, 140
-0.998461, 205, 41, 236, 56
-0.998464, 25, 187, 56, 202
-0.998464, 121, 241, 152, 256
-0.998465, 89, 167, 120, 182
-0.998466, 29, 251, 60, 266
-0.99847, 1, 177, 64, 192
-0.998471, 345, 129, 376, 375
-0.998474, 1, 143, 32, 158
-0.998475, 125, 181, 156, 196
-0.998484, 125, 235, 156, 250
-0.998484, 113, 1, 144, 256
-0.998486, 337, 99, 368, 114
-0.998487, 265, 179, 296, 194
-0.998492, 217, 47, 248, 62
-0.998493, 109, 29, 140, 44
-0.998494, 25, 181, 88, 196
-0.9985, 125, 187, 156, 202
-0.998502, 1, 183, 64, 198
-0.998503, 233, 173, 296, 188
-0.998504, 169, 269, 232, 284
-0.998506, 41, 187, 72, 202
-0.998506, 25, 257, 56, 272
-0.998507, 177, 249, 304, 280
-0.998508, 1, 253, 64, 268
-0.99851, 221, 35, 252, 50
-0.998511, 273, 189, 400, 220
-0.998511, 41, 127, 104, 142
-0.998512, 5, 177, 36, 192
-0.998512, 125, 173, 156, 188
-0.998515, 89, 33, 120, 48
-0.998517, 13, 125, 44, 140
-0.998517, 105, 173, 168, 188
-0.998517, 89, 245, 152, 260
-0.998517, 25, 251, 88, 266
-0.99852, 17, 169, 80, 184
-0.99852, 77, 251, 108, 266
-0.998522, 325, 105, 356, 120
-0.998522, 49, 253, 80, 268
-0.998522, 261, 213, 292, 228
-0.998526, 81, 27, 144, 42
-0.998531, 189, 277, 220, 292
-0.998533, 41, 133, 104, 148
-0.998533, 65, 33, 128, 48
-0.998534, 97, 189, 160, 204
-0.998534, 81, 173, 112, 188
-0.998536, 185, 277, 248, 292
-0.998537, 193, 43, 256, 58
-0.998538, 85, 95, 116, 110
-0.998539, 153, 33, 184, 288
-0.998541, 81, 289, 144, 304
-0.998543, 41, 257, 104, 272
-0.998546, 121, 235, 184, 250
-0.998547, 185, 121, 248, 136
-0.998547, 297, 219, 360, 234
-0.998548, 57, 183, 120, 198
-0.998548, 25, 175, 88, 190
-0.99855, 225, 211, 288, 226
-0.998552, 5, 255, 36, 270
-0.998552, 137, 293, 200, 308
-0.998555, 97, 183, 160, 198
-0.998557, 273, 169, 336, 184
-0.998557, 65, 283, 128, 298
-0.998558, 185, 51, 248, 66
-0.998558, 21, 181, 52, 196
-0.998559, 81, 39, 144, 54
-0.998563, 273, 177, 336, 192
-0.998569, 57, 169, 120, 184
-0.998571, 313, 105, 376, 120
-0.998573, 9, 189, 72, 204
-0.998573, 105, 293, 168, 308
-0.998575, 105, 287, 168, 302
-0.998575, 249, 5, 312, 20
-0.998577, 1, 125, 32, 140
-0.998577, 241, 183, 304, 198
-0.998578, 201, 33, 264, 48
-0.998579, 145, 119, 208, 134
-0.998582, 73, 253, 136, 268
-0.998582, 5, 171, 36, 186
-0.998583, 81, 177, 144, 192
-0.998584, 129, 241, 192, 256
-0.998585, 57, 177, 120, 192
-0.998586, 89, 239, 152, 254
-0.998586, 49, 245, 112, 260
-0.998586, 41, 181, 72, 196
-0.998587, 1, 139, 64, 154
-0.998589, 197, 269, 228, 284
-0.998589, 305, 213, 368, 228
-0.99859, 57, 163, 120, 178
-0.998591, 193, 271, 256, 286
-0.998593, 97, 207, 160, 222
-0.998593, 225, 205, 288, 220
-0.998594, 73, 123, 136, 138
-0.998594, 41, 263, 104, 278
-0.998595, 65, 277, 128, 292
-0.998596, 1, 259, 64, 274
-0.998596, 161, 113, 224, 128
-0.998597, 121, 167, 184, 182
-0.998598, 201, 215, 264, 230
-0.998599, 81, 167, 144, 182
-0.9986, 185, 57, 248, 72
-0.9986, 257, 213, 320, 228
-0.998602, 105, 273, 168, 288
-0.998602, 1, 163, 64, 178
-0.998605, 305, 131, 368, 146
-0.998607, 33, 335, 96, 350
-0.998607, 185, 65, 248, 80
-0.998608, 297, 111, 360, 126
-0.99861, 89, 93, 152, 108
-0.998611, 249, 307, 312, 322
-0.998612, 41, 121, 104, 136
-0.998614, 177, 289, 240, 304
-0.998615, 57, 271, 120, 286
-0.998616, 137, 113, 200, 128
-0.998616, 201, 27, 264, 42
-0.998616, 1, 147, 64, 162
-0.998617, 297, 301, 360, 316
-0.998618, 81, 129, 144, 144
-0.998619, 273, 33, 304, 288
-0.998619, 49, 97, 112, 112
-0.99862, 297, 225, 360, 240
-0.998621, 401, 63, 464, 78
-0.998622, 273, 303, 336, 318
-0.998622, 145, 269, 208, 284
-0.998623, 201, 115, 264, 130
-0.998623, 297, 177, 360, 192
-0.998624, 81, 21, 144, 36
-0.998624, 81, 161, 144, 176
-0.998624, 193, 265, 256, 280
-0.998625, 73, 45, 136, 60
-0.998626, 121, 247, 184, 262
-0.998626, 225, 115, 288, 130
-0.998626, 249, 167, 312, 182
-0.998626, 121, 179, 184, 194
-0.998626, 225, 165, 288, 180
-0.998627, 265, 137, 328, 152
-0.998628, 105, 201, 168, 216
-0.998628, 305, 285, 368, 300
-0.998628, 25, 245, 88, 260
-0.998628, 1, 155, 64, 170
-0.99863, 137, 205, 200, 220
-0.99863, 89, 33, 152, 48
-0.998631, 217, 41, 280, 56
-0.998631, 153, 239, 216, 254
-0.998631, 81, 87, 144, 102
-0.998632, 209, 313, 272, 328
-0.998632, 97, 195, 160, 210
-0.998632, 265, 183, 328, 198
-0.998633, 257, 119, 320, 134
-0.998634, 97, 121, 160, 136
-0.998634, 49, 309, 112, 324
-0.998634, 161, 39, 224, 54
-0.998635, 209, 1, 272, 16
-0.998635, 281, 1, 344, 16
-0.998635, 185, 283, 248, 298
-0.998636, 297, 165, 360, 180
-0.998637, 113, 33, 176, 48
-0.998637, 185, 295, 248, 310
-0.998638, 105, 27, 168, 42
-0.998638, 137, 197, 200, 212
-0.998639, 225, 59, 288, 74
-0.998639, 265, 131, 328, 146
-0.998639, 305, 139, 368, 154
-0.998639, 97, 151, 160, 166
-0.99864, 185, 153, 248, 168
-0.99864, 297, 193, 360, 208
-0.99864, 209, 303, 272, 318
-0.998654, 89, 1, 120, 256
-0.998668, 273, 65, 400, 96
-0.998679, 137, 145, 152, 272
-0.99869, 337, 117, 464, 148
-0.998694, 321, 325, 448, 356
-0.99871, 61, 33, 92, 288
-0.998737, 7, 113, 22, 240
-0.998754, 1, 113, 16, 240
-0.998769, 57, 225, 72, 352
-0.998784, 55, 161, 70, 288
-0.99882, 149, 145, 164, 272
-0.998839, 13, 113, 28, 240
-0.998849, 313, 33, 344, 288
-0.998869, 193, 225, 208, 352
-0.998873, 19, 177, 34, 304
-0.998877, 27, 241, 42, 368
-0.998878, 51, 225, 66, 352
-0.99889, 369, 217, 496, 280
-0.998895, 41, 1, 72, 256
-0.998898, 201, 209, 216, 336
-0.998909, 149, 225, 164, 352
-0.998919, 3, 241, 18, 368
-0.998925, 341, 209, 356, 336
-0.998938, 35, 225, 50, 352
-0.998942, 37, 161, 52, 288
-0.998944, 173, 33, 204, 288
-0.998956, 11, 161, 26, 288
-0.99896, 129, 193, 144, 320
-0.998965, 139, 193, 154, 320
-0.998978, 133, 65, 148, 192
-0.99898, 85, 1, 100, 128
-0.998993, 187, 209, 202, 336
-0.998995, 5, 177, 20, 304
-0.999003, 25, 177, 40, 304
-0.999008, 139, 97, 154, 224
-0.99901, 13, 241, 28, 368
-0.999016, 369, 265, 496, 328
-0.999023, 63, 241, 78, 368
-0.999025, 259, 161, 274, 288
-0.999026, 265, 161, 280, 288
-0.999039, 179, 225, 194, 352
-0.999042, 369, 81, 496, 144
-0.999044, 155, 225, 170, 352
-0.999045, 31, 145, 46, 272
-0.999052, 43, 225, 58, 352
-0.999055, 211, 193, 226, 320
-0.999063, 19, 113, 34, 240
-0.999063, 341, 33, 372, 288
-0.999066, 247, 97, 262, 224
-0.999066, 323, 97, 338, 224
-0.999069, 161, 225, 176, 352
-0.999069, 93, 145, 108, 272
-0.99907, 21, 225, 36, 352
-0.999071, 131, 145, 146, 272
-0.999073, 257, 97, 272, 224
-0.999094, 123, 193, 138, 320
-0.999098, 265, 113, 280, 240
-0.999107, 215, 33, 230, 160
-0.999118, 109, 129, 140, 375
-0.99912, 249, 145, 264, 272
-0.999129, 125, 145, 140, 272
-0.999133, 167, 225, 182, 352
-0.999134, 301, 1, 332, 256
-0.999134, 239, 113, 254, 240
-0.999136, 49, 145, 64, 272
-0.99915, 249, 1, 264, 128
-0.999157, 125, 1, 140, 128
-0.999161, 147, 81, 162, 208
-0.999163, 311, 129, 326, 256
-0.999165, 369, 185, 496, 248
-0.999166, 73, 241, 88, 368
-0.999176, 457, 1, 488, 256
-0.999194, 143, 145, 158, 272
-0.999195, 317, 97, 332, 224
-0.999198, 173, 225, 188, 352
-0.999199, 329, 97, 344, 224
-0.999202, 321, 145, 336, 272
-0.999207, 55, 97, 70, 224
-0.999215, 81, 225, 96, 352
-0.999215, 275, 161, 290, 288
-0.999217, 119, 17, 134, 144
-0.999217, 339, 97, 354, 224
-0.999217, 207, 241, 222, 368
-0.999222, 329, 161, 344, 288
-0.999223, 347, 241, 362, 368
-0.999224, 17, 65, 32, 192
-0.999225, 29, 1, 60, 256
-0.999228, 105, 241, 120, 368
-0.999238, 127, 241, 142, 368
-0.99924, 337, 1, 400, 256
-0.999249, 239, 33, 254, 160
-0.99925, 205, 65, 220, 192
-0.999253, 155, 145, 170, 272
-0.999261, 93, 241, 108, 368
-0.999263, 101, 177, 116, 304
-0.999263, 97, 1, 112, 128
-0.999265, 91, 193, 106, 320
-0.999267, 43, 177, 58, 304
-0.999276, 185, 33, 216, 288
-0.999279, 269, 209, 284, 336
-0.99928, 45, 97, 60, 224
-0.999283, 99, 241, 114, 368
-0.999286, 91, 1, 106, 128
-0.999289, 197, 113, 212, 240
-0.99929, 155, 1, 170, 128
-0.999294, 373, 33, 404, 288
-0.999296, 243, 161, 258, 288
-0.999297, 275, 97, 290, 224
-0.9993, 25, 113, 40, 240
-0.9993, 93, 81, 108, 208
-0.999306, 63, 161, 78, 288
-0.999308, 233, 129, 248, 256
-0.999309, 113, 1, 128, 128
-0.999322, 385, 33, 416, 288
-0.999323, 7, 65, 22, 192
-0.999323, 109, 193, 124, 320
-0.999325, 285, 33, 316, 288
-0.999326, 121, 241, 136, 368
-0.999327, 101, 33, 132, 288
-0.999328, 101, 97, 116, 224
-0.999333, 85, 145, 100, 272
-0.999336, 63, 81, 78, 208
-0.999337, 117, 193, 132, 320
-0.999338, 207, 1, 222, 128
-0.999345, 189, 145, 204, 272
-0.999351, 141, 241, 156, 368
-0.999352, 335, 145, 350, 272
-0.999354, 203, 113, 218, 240
-0.999355, 1, 65, 16, 192
-0.99936, 199, 65, 214, 192
-0.99937, 281, 97, 296, 224
-0.999371, 85, 65, 100, 192
-0.999371, 259, 209, 274, 336
-0.999371, 237, 177, 252, 304
-0.999381, 153, 97, 168, 224
-0.999382, 221, 1, 236, 128
-0.999383, 103, 1, 118, 128
-0.999383, 127, 97, 142, 224
-0.99939, 413, 33, 444, 288
-0.9994, 131, 1, 146, 128
-0.9994, 229, 49, 244, 176
-0.999401, 179, 145, 194, 272
-0.999403, 305, 129, 320, 256
-0.999404, 137, 1, 152, 128
-0.99941, 217, 209, 232, 336
-0.999413, 215, 113, 230, 240
-0.999414, 347, 145, 362, 272
-0.999415, 161, 145, 176, 272
-0.99942, 133, 241, 148, 368
-0.999422, 161, 1, 176, 128
-0.999423, 225, 193, 240, 320
-0.99943, 271, 49, 286, 176
-0.999434, 111, 241, 126, 368
-0.999435, 227, 145, 242, 272
-0.999435, 445, 33, 476, 288
-0.999516, 65, 129, 96, 375
-0.999584, 219, 215, 234, 230
-0.999584, 181, 293, 196, 308
-0.999584, 213, 77, 228, 92
-0.999584, 221, 45, 236, 60
-0.999585, 165, 119, 180, 134
-0.999585, 53, 151, 68, 166
-0.999585, 121, 17, 136, 32
-0.999585, 233, 119, 248, 134
-0.999586, 193, 271, 208, 286
-0.999587, 225, 213, 240, 228
-0.999587, 81, 251, 96, 266
-0.999587, 53, 135, 68, 150
-0.999587, 141, 243, 156, 258
-0.999587, 267, 187, 282, 202
-0.999588, 173, 113, 188, 128
-0.999588, 107, 87, 122, 102
-0.999589, 35, 187, 50, 202
-0.999589, 137, 187, 152, 202
-0.99959, 213, 215, 228, 230
-0.99959, 259, 5, 274, 20
-0.99959, 145, 269, 160, 284
-0.99959, 107, 277, 122, 292
-0.99959, 141, 131, 156, 146
-0.999591, 259, 213, 274, 228
-0.999591, 41, 255, 56, 270
-0.999592, 1, 175, 16, 190
-0.999592, 1, 159, 16, 174
-0.999592, 55, 161, 70, 176
-0.999593, 263, 207, 278, 222
-0.999593, 143, 167, 158, 182
-0.999594, 91, 41, 106, 56
-0.999594, 53, 145, 68, 160
-0.999595, 135, 137, 150, 152
-0.999595, 179, 237, 194, 252
-0.999595, 47, 179, 62, 194
-0.999596, 187, 119, 202, 134
-0.999597, 95, 101, 110, 116
-0.999599, 11, 189, 26, 204
-0.9996, 117, 23, 132, 38
-0.999601, 257, 171, 272, 186
-0.999601, 7, 143, 22, 158
-0.999602, 93, 31, 108, 46
-0.999603, 13, 181, 28, 196
-0.999605, 95, 185, 110, 200
-0.999606, 1, 181, 16, 196
-0.999607, 109, 295, 124, 310
-0.999607, 93, 175, 108, 190
-0.999608, 245, 195, 260, 210
-0.999609, 89, 127, 104, 142
-0.99961, 85, 177, 100, 192
-0.99961, 19, 185, 34, 200
-0.999611, 219, 51, 234, 66
-0.999611, 101, 91, 116, 106
-0.999612, 273, 183, 288, 198
-0.999612, 137, 181, 152, 196
-0.999615, 63, 253, 78, 268
-0.999615, 397, 1, 428, 256
-0.999615, 27, 125, 42, 140
-0.999616, 51, 129, 66, 144
-0.999618, 197, 123, 212, 138
-0.999619, 225, 33, 240, 48
-0.99962, 213, 55, 228, 70
-0.999621, 67, 259, 82, 274
-0.999621, 87, 95, 102, 110
-0.999622, 321, 111, 336, 126
-0.999622, 311, 129, 326, 144
-0.999622, 9, 173, 24, 188
-0.999622, 211, 49, 226, 64
-0.999623, 205, 45, 220, 60
-0.999623, 135, 145, 150, 160
-0.999624, 125, 233, 140, 248
-0.999626, 83, 41, 98, 56
-0.999626, 81, 123, 96, 138
-0.999626, 19, 125, 34, 140
-0.999627, 7, 253, 22, 268
-0.999629, 199, 267, 214, 282
-0.999629, 19, 179, 34, 194
-0.999631, 211, 35, 226, 50
-0.999632, 21, 259, 36, 274
-0.999632, 113, 29, 128, 44
-0.999632, 127, 171, 142, 186
-0.999634, 127, 181, 142, 196
-0.999636, 99, 273, 114, 288
-0.999637, 57, 245, 72, 260
-0.99964, 345, 97, 360, 112
-0.99964, 21, 253, 36, 268
-0.999641, 101, 289, 116, 304
-0.999641, 13, 255, 28, 270
-0.999641, 29, 187, 44, 202
-0.999641, 51, 249, 66, 264
-0.999643, 33, 251, 48, 266
-0.999645, 201, 275, 216, 290
-0.999645, 1, 143, 16, 158
-0.999645, 87, 35, 102, 50
-0.999645, 57, 185, 72, 200
-0.999646, 57, 179, 72, 194
-0.999647, 81, 129, 96, 144
-0.999649, 215, 43, 230, 58
-0.999653, 269, 207, 284, 222
-0.999655, 73, 251, 88, 266
-0.999657, 267, 177, 282, 192
-0.999657, 89, 253, 104, 268
-0.999658, 93, 169, 108, 184
-0.999662, 135, 161, 150, 176
-0.999664, 189, 285, 204, 300
-0.999666, 135, 151, 150, 166
-0.999666, 13, 125, 28, 140
-0.999666, 93, 95, 108, 110
-0.999669, 85, 47, 100, 62
-0.999671, 3, 259, 18, 274
-0.999675, 129, 239, 144, 254
-0.999676, 7, 179, 22, 194
-0.999679, 5, 125, 20, 140
-0.999679, 17, 171, 32, 186
-0.99968, 55, 167, 70, 182
-0.999681, 215, 27, 230, 42
-0.999682, 115, 289, 130, 304
-0.999689, 195, 279, 210, 294
-0.99969, 101, 279, 116, 294
-0.999691, 265, 213, 280, 228
-0.999697, 327, 109, 342, 124
-0.999705, 27, 253, 42, 268
-0.999706, 339, 101, 354, 116
-0.999706, 35, 181, 50, 196
-0.999707, 55, 173, 70, 188
-0.999716, 209, 269, 224, 284
-0.999718, 333, 105, 348, 120
-0.999718, 137, 171, 152, 186
-0.999726, 25, 179, 40, 194
-0.999744, 107, 289, 122, 304
-0.99976, 107, 283, 122, 298
-0.999781, 425, 33, 456, 288
-0.999893, 357, 65, 388, 320
-1.00013, 469, 97, 500, 352
-1.00013, 369, 241, 496, 304
-1.00062, 433, 129, 464, 375
-1.00068, 453, 129, 484, 375
-1.00068, 393, 129, 424, 375
-1.0007, 361, 241, 424, 368
-1.00084, 381, 129, 412, 375
-1.00087, 421, 129, 452, 375
-1.00099, 405, 129, 436, 375
-1.00127, 369, 129, 400, 375
-1.00138, 385, 241, 448, 368
-1.00181, 433, 97, 496, 352
-1.00204, 433, 177, 496, 304
-1.00256, 369, 193, 496, 320
-1.0028, 369, 145, 496, 272
-1.00368, 409, 129, 472, 375
-1.0037, 393, 97, 456, 224
-1.00541, 385, 193, 448, 320
-1.00544, 377, 129, 440, 375
-1.00652, 409, 161, 472, 288
-1.00656, 369, 113, 432, 240
-1.01093, 361, 193, 424, 320
