1866
-0.607306, 1, 1, 500, 256
-0.626235, 1, 1, 500, 328
-0.711525, 65, 1, 320, 328
-0.719006, 225, 1, 480, 328
-0.844931, 65, 65, 320, 320
-0.853641, 193, 65, 448, 320
-0.923191, 97, 1, 224, 328
-0.92482, 369, 1, 496, 328
-0.9267, 161, 1, 288, 328
-0.927689, 241, 1, 368, 328
-0.931134, 17, 1, 144, 328
-0.932414, 241, 65, 368, 320
-0.937398, 369, 1, 496, 256
-0.937533, 289, 1, 416, 328
-0.945718, 81, 1, 208, 256
-0.946049, 321, 1, 448, 256
-0.94851, 1, 97, 500, 224
-0.948656, 97, 193, 352, 320
-0.951559, 129, 65, 256, 320
-0.9523, 193, 65, 320, 320
-0.955414, 33, 1, 160, 256
-0.95891, 241, 241, 304, 304
-0.961979, 1, 161, 500, 288
-0.962426, 217, 145, 280, 272
-0.9629, 65, 145, 320, 272
-0.963911, 1, 113, 128, 240
-0.966201, 225, 193, 480, 320
-0.966664, 113, 249, 176, 312
-0.967013, 1, 97, 256, 224
-0.967049, 33, 161, 160, 288
-0.967692, 177, 145, 304, 272
-0.967707, 241, 193, 304, 320
-0.96841, 241, 265, 304, 328
-0.968463, 89, 161, 152, 288
-0.968735, 193, 81, 448, 208
-0.96898, 193, 145, 448, 272
-0.969543, 113, 193, 240, 320
-0.969925, 81, 145, 208, 272
-0.97054, 241, 193, 368, 320
-0.970753, 253, 233, 284, 296
-0.972223, 233, 145, 296, 208
-0.973216, 225, 81, 352, 208
-0.973333, 89, 161, 152, 224
-0.974003, 1, 17, 500, 144
-0.974326, 161, 193, 288, 320
-0.974393, 253, 193, 284, 320
-0.974836, 121, 249, 152, 312
-0.97547, 129, 193, 192, 320
-0.975522, 249, 145, 312, 272
-0.975619, 17, 113, 80, 240
-0.976752, 97, 97, 352, 224
-0.976903, 209, 145, 272, 208
-0.977168, 89, 241, 152, 304
-0.978757, 249, 81, 312, 208
-0.978787, 225, 145, 352, 272
-0.979672, 145, 97, 272, 224
-0.979843, 237, 137, 268, 200
-0.979919, 105, 113, 168, 240
-0.980101, 265, 193, 328, 320
-0.980372, 161, 33, 416, 160
-0.980372, 1, 193, 256, 320
-0.980484, 105, 161, 136, 288
-0.980596, 237, 129, 268, 256
-0.980628, 241, 121, 304, 184
-0.980974, 217, 233, 280, 296
-0.981185, 109, 153, 140, 216
-0.981238, 65, 137, 128, 200
-0.98172, 193, 121, 256, 184
-0.981738, 273, 97, 400, 224
-0.981849, 249, 217, 312, 280
-0.981855, 209, 193, 272, 320
-0.982035, 209, 81, 272, 208
-0.982477, 97, 97, 224, 224
-0.982721, 225, 241, 352, 304
-0.982837, 97, 161, 128, 224
-0.982854, 257, 17, 500, 144
-0.98287, 105, 137, 168, 200
-0.983707, 177, 233, 304, 296
-0.983952, 89, 265, 152, 328
-0.983959, 49, 113, 112, 240
-0.984037, 1, 137, 128, 200
-0.984077, 257, 257, 288, 320
-0.984165, 209, 265, 272, 328
-0.984754, 225, 265, 352, 328
-0.985055, 65, 161, 192, 224
-0.985351, 97, 249, 224, 312
-0.985501, 177, 257, 304, 320
-0.985547, 25, 121, 88, 184
-0.985691, 49, 249, 176, 312
-0.986033, 129, 225, 192, 288
-0.986334, 193, 17, 320, 144
-0.986449, 121, 193, 152, 320
-0.986564, 129, 145, 256, 272
-0.987259, 253, 145, 284, 272
-0.987322, 209, 209, 272, 272
-0.987736, 113, 129, 240, 192
-0.987754, 65, 17, 320, 144
-0.987804, 265, 249, 328, 312
-0.987841, 65, 161, 128, 288
-0.988104, 113, 161, 176, 224
-0.988182, 1, 145, 64, 208
-0.988193, 193, 145, 256, 272
-0.988321, 145, 49, 272, 176
-0.988534, 297, 81, 360, 208
-0.988728, 137, 201, 200, 264
-0.988735, 289, 89, 352, 152
-0.988794, 249, 65, 312, 320
-0.988821, 137, 257, 200, 320
-0.98883, 337, 97, 400, 224
-0.988846, 185, 81, 248, 208
-0.988861, 225, 129, 352, 192
-0.988954, 89, 217, 152, 280
-0.988986, 249, 137, 280, 200
-0.989175, 225, 153, 256, 216
-0.989178, 225, 217, 352, 280
-0.989219, 177, 145, 304, 208
-0.989331, 337, 97, 400, 160
-0.989406, 97, 185, 160, 248
-0.989586, 129, 145, 192, 272
-0.989698, 129, 225, 256, 288
-0.989849, 237, 161, 268, 224
-0.989862, 49, 97, 176, 224
-0.989897, 273, 17, 400, 144
-0.989967, 225, 113, 256, 240
-0.989992, 73, 97, 136, 224
-0.990163, 253, 209, 284, 272
-0.990273, 237, 81, 268, 208
-0.990281, 241, 241, 304, 272
-0.990323, 161, 113, 224, 240
-0.990349, 65, 161, 128, 224
-0.990366, 273, 97, 400, 160
-0.990448, 241, 273, 304, 304
-0.990464, 233, 149, 296, 180
-0.990601, 241, 253, 304, 284
-0.990646, 233, 193, 264, 320
-0.990713, 241, 285, 304, 316
-0.990804, 105, 265, 168, 296
-0.990812, 1, 161, 128, 224
-0.990828, 249, 297, 312, 328
-0.990841, 137, 193, 168, 320
-0.990878, 113, 253, 176, 284
-0.990915, 145, 201, 272, 264
-0.990929, 97, 201, 224, 264
-0.990987, 113, 289, 176, 320
-0.991038, 265, 73, 328, 136
-0.991112, 81, 161, 144, 192
-0.991124, 273, 225, 336, 288
-0.991211, 321, 17, 448, 144
-0.991217, 265, 225, 296, 288
-0.991261, 209, 149, 272, 180
-0.991302, 113, 277, 176, 308
-0.991375, 89, 249, 152, 280
-0.991398, 237, 241, 268, 304
-0.991455, 105, 157, 168, 188
-0.991477, 137, 177, 200, 240
-0.991543, 241, 229, 304, 260
-0.991778, 265, 193, 296, 320
-0.991939, 209, 161, 272, 192
-0.991986, 237, 145, 268, 176
-0.992066, 65, 149, 128, 180
-0.992082, 117, 145, 148, 272
-0.992176, 89, 277, 152, 308
-0.992227, 109, 241, 140, 304
-0.992238, 217, 237, 280, 268
-0.992241, 225, 121, 256, 184
-0.992271, 89, 173, 152, 204
-0.992293, 249, 137, 312, 168
-0.992307, 209, 81, 336, 144
-0.992322, 105, 265, 136, 328
-0.992372, 217, 293, 280, 324
-0.992398, 209, 249, 272, 280
-0.992411, 281, 105, 344, 136
-0.992428, 97, 137, 128, 200
-0.992435, 233, 161, 296, 192
-0.992447, 265, 237, 328, 268
-0.992527, 253, 237, 284, 268
-0.992544, 161, 193, 224, 256
-0.992569, 65, 121, 192, 184
-0.992573, 17, 225, 144, 288
-0.992577, 109, 157, 140, 188
-0.992578, 273, 293, 336, 324
-0.992588, 81, 297, 144, 328
-0.992613, 113, 241, 176, 272
-0.99263, 209, 281, 272, 312
-0.992632, 273, 281, 336, 312
-0.992656, 17, 153, 80, 184
-0.992667, 121, 249, 152, 280
-0.992698, 209, 261, 272, 292
-0.992701, 105, 145, 168, 176
-0.992705, 97, 157, 128, 188
-0.992713, 1, 121, 64, 184
-0.992724, 21, 113, 52, 240
-0.992731, 1, 165, 64, 196
-0.992737, 217, 225, 280, 256
-0.99274, 241, 1, 304, 328
-0.992747, 265, 249, 328, 280
-0.992747, 73, 265, 136, 296
-0.992758, 137, 201, 200, 232
-0.992762, 105, 169, 136, 200
-0.99277, 265, 265, 328, 296
-0.992796, 265, 225, 328, 256
-0.992817, 145, 105, 272, 168
-0.992836, 121, 261, 152, 292
-0.992841, 25, 145, 88, 208
-0.992842, 41, 113, 72, 240
-0.992847, 321, 17, 384, 144
-0.992851, 237, 265, 268, 328
-0.992856, 225, 153, 256, 184
-0.992862, 273, 121, 400, 184
-0.99289, 129, 265, 192, 296
-0.992898, 253, 249, 284, 280
-0.992898, 237, 157, 268, 188
-0.992902, 125, 225, 156, 288
-0.992915, 209, 137, 272, 168
-0.992925, 97, 205, 160, 236
-0.992929, 137, 297, 200, 328
-0.992942, 137, 285, 200, 316
-0.992947, 125, 297, 156, 328
-0.99295, 113, 169, 176, 200
-0.992981, 121, 273, 152, 304
-0.992991, 253, 225, 284, 256
-0.993028, 241, 113, 304, 144
-0.993035, 253, 261, 284, 292
-0.993035, 33, 133, 96, 164
-0.993042, 257, 281, 288, 312
-0.993066, 249, 149, 280, 180
-0.993069, 217, 121, 280, 184
-0.993102, 185, 1, 248, 328
-0.993116, 241, 125, 304, 156
-0.99312, 1, 121, 64, 152
-0.993129, 185, 141, 248, 172
-0.993138, 289, 89, 352, 120
-0.99315, 125, 285, 156, 316
-0.993168, 337, 109, 400, 140
-0.993182, 305, 105, 368, 136
-0.993186, 137, 241, 168, 304
-0.9932, 261, 293, 292, 324
-0.993203, 281, 121, 344, 152
-0.993204, 57, 161, 120, 192
-0.99324, 93, 169, 124, 200
-0.993252, 25, 121, 88, 152
-0.993255, 337, 153, 400, 184
-0.993263, 289, 145, 416, 272
-0.993275, 73, 237, 136, 268
-0.993309, 121, 121, 184, 152
-0.993317, 329, 97, 392, 128
-0.993346, 257, 149, 320, 180
-0.993349, 117, 169, 148, 200
-0.993358, 137, 249, 200, 280
-0.993358, 265, 237, 296, 268
-0.993363, 237, 249, 268, 280
-0.993366, 97, 193, 160, 224
-0.993381, 237, 133, 268, 164
-0.993381, 105, 293, 136, 324
-0.993407, 237, 237, 268, 268
-0.993407, 101, 261, 132, 292
-0.993411, 245, 297, 276, 328
-0.993416, 269, 249, 300, 280
-0.993427, 289, 77, 352, 108
-0.993432, 97, 233, 352, 296
-0.993433, 1, 165, 32, 196
-0.993436, 109, 249, 140, 280
-0.993443, 237, 269, 268, 300
-0.993449, 241, 285, 272, 316
-0.993454, 249, 137, 264, 200
-0.993459, 133, 257, 164, 288
-0.993461, 97, 217, 160, 248
-0.993469, 273, 65, 336, 320
-0.993478, 273, 273, 304, 304
-0.99348, 105, 273, 136, 304
-0.99349, 17, 113, 144, 176
-0.993494, 305, 101, 336, 132
-0.993495, 285, 105, 316, 136
-0.993496, 129, 1, 192, 328
-0.993499, 121, 153, 152, 184
-0.993501, 273, 285, 304, 316
-0.993504, 237, 225, 268, 256
-0.993508, 13, 165, 44, 196
-0.993512, 177, 169, 304, 232
-0.993512, 133, 245, 164, 276
-0.993513, 297, 85, 328, 116
-0.993513, 217, 141, 248, 172
-0.993527, 85, 153, 116, 184
-0.993527, 273, 261, 304, 292
-0.993544, 257, 137, 288, 168
-0.993545, 273, 297, 304, 328
-0.993545, 265, 225, 296, 256
-0.993547, 209, 117, 272, 148
-0.993549, 337, 137, 400, 168
-0.993553, 1, 129, 32, 256
-0.993559, 153, 181, 216, 212
-0.99356, 161, 201, 224, 232
-0.993568, 145, 201, 176, 232
-0.993578, 137, 133, 200, 164
-0.993581, 145, 297, 176, 328
-0.993585, 137, 121, 168, 152
-0.99359, 101, 145, 132, 176
-0.993591, 21, 153, 52, 184
-0.993591, 97, 33, 224, 160
-0.993595, 117, 237, 148, 268
-0.993595, 257, 93, 320, 124
-0.993596, 269, 113, 300, 144
-0.993601, 133, 269, 164, 300
-0.993604, 49, 185, 176, 248
-0.993605, 137, 237, 200, 268
-0.993612, 57, 185, 120, 216
-0.993619, 257, 81, 288, 208
-0.993623, 317, 101, 348, 132
-0.99363, 105, 237, 136, 268
-0.993634, 297, 113, 328, 144
-0.993634, 93, 161, 124, 288
-0.993641, 273, 265, 400, 328
-0.993646, 249, 161, 280, 192
-0.993656, 1, 133, 64, 164
-0.99366, 141, 285, 172, 316
-0.993661, 281, 17, 344, 144
-0.993667, 365, 105, 396, 136
-0.993677, 37, 153, 68, 184
-0.993679, 265, 69, 328, 100
-0.993679, 285, 121, 316, 152
-0.993681, 117, 141, 148, 172
-0.993685, 309, 77, 340, 108
-0.99369, 1, 177, 64, 208
-0.993693, 65, 137, 128, 168
-0.993694, 289, 177, 320, 208
-0.993697, 225, 129, 256, 160
-0.993699, 181, 201, 212, 232
-0.9937, 297, 73, 328, 104
-0.993711, 17, 129, 48, 160
-0.993712, 285, 93, 316, 124
-0.993712, 277, 229, 308, 260
-0.993714, 241, 217, 304, 248
-0.993714, 25, 165, 56, 196
-0.993715, 273, 249, 304, 312
-0.993715, 329, 109, 360, 140
-0.993717, 153, 213, 216, 244
-0.993718, 65, 173, 128, 204
-0.993719, 37, 141, 68, 172
-0.993719, 5, 117, 36, 148
-0.993722, 97, 133, 160, 164
-0.99373, 317, 113, 348, 144
-0.993731, 241, 117, 272, 148
-0.993744, 5, 185, 36, 216
-0.993746, 97, 229, 160, 260
-0.993747, 225, 165, 256, 196
-0.993753, 9, 153, 40, 184
-0.993762, 265, 113, 328, 176
-0.993763, 121, 181, 152, 212
-0.993764, 161, 201, 192, 232
-0.993767, 329, 89, 360, 120
-0.99377, 225, 193, 352, 256
-0.99377, 109, 181, 140, 212
-0.993771, 89, 213, 120, 244
-0.993772, 253, 125, 284, 156
-0.993774, 37, 125, 68, 156
-0.993777, 369, 117, 400, 148
-0.993781, 337, 121, 400, 152
-0.993786, 41, 149, 104, 180
-0.993788, 125, 121, 156, 152
-0.99379, 137, 133, 168, 164
-0.993793, 149, 125, 180, 156
-0.993794, 261, 149, 292, 180
-0.993794, 65, 213, 128, 244
-0.993794, 133, 233, 164, 264
-0.993796, 97, 249, 128, 280
-0.993802, 49, 129, 80, 160
-0.993803, 17, 117, 48, 148
-0.993804, 369, 137, 432, 168
-0.993806, 217, 65, 280, 320
-0.993807, 337, 1, 400, 256
-0.993812, 145, 273, 176, 304
-0.993817, 285, 289, 316, 320
-0.99382, 281, 161, 344, 192
-0.99382, 281, 137, 312, 168
-0.993822, 273, 125, 304, 156
-0.993823, 49, 153, 80, 184
-0.993826, 309, 89, 340, 120
-0.993829, 257, 113, 288, 144
-0.993831, 285, 277, 316, 308
-0.993832, 9, 109, 72, 140
-0.993832, 157, 113, 188, 144
-0.993834, 301, 125, 332, 156
-0.993835, 97, 181, 128, 212
-0.993839, 29, 113, 60, 144
-0.993841, 281, 173, 344, 204
-0.993844, 5, 129, 36, 160
-0.993845, 373, 133, 404, 164
-0.993847, 125, 205, 156, 236
-0.99385, 109, 225, 140, 256
-0.993852, 141, 189, 172, 220
-0.993855, 81, 185, 112, 216
-0.993859, 49, 141, 80, 172
-0.993866, 61, 149, 92, 180
-0.993868, 341, 109, 372, 140
-0.993869, 25, 141, 56, 172
-0.993872, 265, 213, 296, 244
-0.993874, 265, 81, 328, 112
-0.993875, 277, 169, 308, 200
-0.993878, 89, 141, 120, 172
-0.993879, 161, 177, 192, 208
-0.99388, 65, 257, 320, 320
-0.993882, 97, 121, 160, 152
-0.993884, 373, 161, 404, 192
-0.993885, 281, 249, 312, 280
-0.993885, 377, 149, 440, 180
-0.993887, 213, 173, 244, 204
-0.99389, 117, 129, 148, 192
-0.993891, 369, 145, 400, 176
-0.993892, 173, 93, 204, 124
-0.993901, 185, 85, 248, 116
-0.993926, 265, 1, 328, 328
-0.993926, 145, 117, 208, 148
-0.993931, 313, 85, 376, 116
-0.993932, 201, 169, 264, 232
-0.993945, 57, 201, 120, 232
-0.993967, 65, 249, 128, 280
-0.993973, 217, 1, 280, 328
-0.993976, 153, 97, 216, 160
-0.993989, 185, 197, 248, 228
-0.993992, 273, 29, 336, 60
-0.993994, 377, 121, 440, 152
-0.993999, 25, 169, 88, 200
-0.994006, 185, 153, 248, 184
-0.994008, 177, 165, 240, 196
-0.994012, 313, 97, 376, 160
-0.994031, 121, 181, 184, 212
-0.994037, 289, 145, 416, 208
-0.994044, 225, 105, 352, 168
-0.994044, 201, 173, 264, 204
-0.994056, 265, 213, 328, 244
-0.994063, 237, 113, 268, 176
-0.994075, 1, 189, 64, 220
-0.994078, 345, 169, 408, 200
-0.994083, 121, 217, 184, 248
-0.994083, 433, 17, 496, 48
-0.994096, 161, 1, 224, 328
-0.994099, 297, 29, 360, 60
-0.994112, 369, 1, 496, 128
-0.994137, 233, 101, 296, 132
-0.994138, 369, 21, 432, 52
-0.994139, 209, 213, 272, 244
-0.994146, 345, 25, 408, 56
-0.994147, 65, 277, 128, 308
-0.994148, 161, 93, 224, 124
-0.994161, 243, 137, 258, 200
-0.994165, 193, 233, 256, 264
-0.994167, 401, 21, 464, 52
-0.994179, 57, 121, 120, 152
-0.994182, 209, 73, 272, 104
-0.99419, 233, 81, 296, 112
-0.994195, 369, 97, 432, 128
-0.994195, 153, 105, 216, 136
-0.994195, 385, 9, 448, 40
-0.994195, 233, 33, 296, 64
-0.994195, 33, 193, 96, 224
-0.994203, 9, 201, 72, 232
-0.994263, 113, 153, 128, 216
-0.994297, 241, 217, 272, 280
-0.994337, 297, 1, 360, 256
-0.994348, 377, 1, 440, 328
-0.994349, 297, 73, 328, 136
-0.994398, 297, 65, 360, 128
-0.994514, 209, 57, 336, 120
-0.994546, 133, 265, 164, 328
-0.994585, 277, 177, 308, 304
-0.994631, 105, 217, 136, 280
-0.994653, 265, 201, 296, 264
-0.994666, 129, 97, 192, 224
-0.9947, 353, 121, 480, 184
-0.994711, 1, 161, 64, 288
-0.994718, 259, 225, 274, 288
-0.994718, 377, 1, 440, 256
-0.994723, 145, 81, 272, 144
-0.994734, 353, 81, 480, 208
-0.994782, 225, 153, 352, 216
-0.994823, 337, 1, 400, 328
-0.99487, 249, 193, 312, 256
-0.994893, 273, 73, 400, 136
-0.995007, 33, 161, 96, 288
-0.995025, 125, 241, 140, 304
-0.995097, 1, 185, 128, 248
-0.995147, 93, 97, 124, 224
-0.995193, 177, 169, 240, 232
-0.99523, 37, 121, 68, 184
-0.99531, 117, 97, 148, 224
-0.99532, 57, 1, 120, 328
-0.995353, 81, 1, 144, 328
-0.995379, 337, 153, 400, 216
-0.995387, 119, 153, 134, 216
-0.995424, 81, 225, 208, 288
-0.995425, 289, 113, 352, 176
-0.995442, 49, 33, 176, 160
-0.995518, 289, 1, 352, 328
-0.995626, 313, 1, 376, 328
-0.995637, 193, 233, 448, 296
-0.995637, 425, 1, 488, 328
-0.995671, 89, 1, 152, 256
-0.995716, 161, 161, 224, 288
-0.995742, 53, 113, 84, 240
-0.995751, 105, 1, 168, 328
-0.99577, 121, 153, 152, 216
-0.995772, 345, 17, 408, 144
-0.99581, 289, 169, 416, 232
-0.995825, 109, 177, 140, 240
-0.99587, 273, 217, 400, 280
-0.995924, 17, 157, 144, 188
-0.995937, 131, 241, 146, 304
-0.995994, 217, 81, 280, 144
-0.996038, 401, 1, 464, 328
-0.996054, 273, 241, 400, 304
-0.996064, 267, 225, 282, 288
-0.996094, 25, 1, 88, 328
-0.996106, 129, 153, 256, 216
-0.996119, 193, 1, 256, 256
-0.996156, 353, 17, 480, 80
-0.99617, 137, 217, 168, 280
-0.996244, 107, 153, 122, 216
-0.99626, 253, 233, 268, 296
-0.996263, 33, 201, 288, 264
-0.9963, 161, 137, 224, 200
-0.996307, 277, 225, 308, 288
-0.996343, 337, 129, 400, 192
-0.996345, 285, 81, 316, 144
-0.99635, 97, 97, 224, 160
-0.996351, 209, 161, 240, 288
-0.996358, 241, 81, 304, 144
-0.996389, 1, 1, 64, 328
-0.996391, 353, 145, 480, 208
-0.996404, 113, 157, 128, 188
-0.996408, 249, 113, 280, 176
-0.996409, 225, 237, 352, 268
-0.996444, 177, 33, 304, 96
-0.996461, 255, 145, 270, 208
-0.996495, 153, 33, 216, 160
-0.996501, 247, 145, 262, 176
-0.996575, 273, 25, 400, 88
-0.996583, 225, 281, 352, 312
-0.996594, 225, 249, 352, 280
-0.996615, 129, 137, 192, 200
-0.996629, 193, 293, 320, 324
-0.996638, 225, 261, 352, 292
-0.996658, 25, 137, 56, 200
-0.996704, 177, 237, 304, 268
-0.996723, 73, 113, 136, 176
-0.996736, 369, 113, 432, 176
-0.996787, 193, 257, 448, 320
-0.996822, 113, 129, 128, 192
-0.996825, 1, 129, 256, 192
-0.996867, 85, 137, 116, 200
-0.99689, 353, 97, 480, 160
-0.996899, 193, 105, 448, 168
-0.996936, 65, 233, 128, 296
-0.996948, 361, 97, 424, 224
-0.996951, 113, 113, 176, 176
-0.996973, 161, 145, 288, 176
-0.996993, 353, 129, 480, 256
-0.99703, 1, 65, 128, 192
-0.997038, 177, 249, 304, 280
-0.997043, 237, 145, 252, 208
-0.997053, 241, 293, 368, 324
-0.997055, 309, 81, 340, 144
-0.99706, 249, 33, 312, 160
-0.997067, 273, 233, 288, 296
-0.997086, 119, 241, 134, 304
-0.997125, 193, 33, 256, 160
-0.997151, 97, 257, 224, 288
-0.997156, 241, 149, 256, 180
-0.997182, 49, 265, 176, 296
-0.997183, 97, 297, 224, 328
-0.997201, 137, 249, 152, 312
-0.997222, 129, 177, 256, 240
-0.997238, 241, 113, 256, 176
-0.99724, 97, 273, 224, 304
-0.997241, 177, 261, 304, 292
-0.997243, 209, 149, 336, 180
-0.997249, 101, 153, 116, 216
-0.997253, 417, 1, 480, 256
-0.997282, 247, 161, 262, 224
-0.997323, 5, 129, 36, 192
-0.997326, 225, 17, 288, 144
-0.997346, 177, 277, 304, 308
-0.997382, 49, 289, 176, 320
-0.997383, 129, 33, 256, 96
-0.997387, 251, 265, 266, 328
-0.997411, 49, 253, 176, 284
-0.99744, 1, 145, 128, 176
-0.997465, 81, 161, 208, 192
-0.997509, 251, 113, 266, 176
-0.997552, 97, 285, 224, 316
-0.997563, 49, 277, 176, 308
-0.997584, 169, 193, 200, 256
-0.997587, 247, 241, 262, 304
-0.997613, 259, 201, 274, 264
-0.997615, 365, 105, 396, 168
-0.997626, 193, 233, 256, 296
-0.997631, 1, 89, 128, 152
-0.997638, 133, 145, 164, 272
-0.997659, 225, 33, 352, 96
-0.997675, 5, 153, 36, 216
-0.997692, 369, 17, 432, 144
-0.997714, 33, 169, 160, 200
-0.997725, 193, 73, 256, 136
-0.997762, 417, 1, 480, 128
-0.997776, 257, 121, 272, 184
-0.997783, 117, 169, 132, 200
-0.99779, 97, 245, 224, 276
-0.997808, 109, 177, 124, 240
-0.997833, 145, 1, 208, 256
-0.99784, 107, 157, 122, 188
-0.997862, 337, 145, 400, 272
-0.997876, 231, 137, 246, 200
-0.997882, 119, 265, 134, 328
-0.997884, 193, 81, 448, 144
-0.997917, 253, 149, 268, 180
-0.997939, 137, 225, 152, 288
-0.997944, 257, 209, 500, 272
-0.99796, 267, 201, 282, 264
-0.997966, 261, 229, 276, 260
-0.997976, 277, 265, 292, 328
-0.997985, 57, 193, 120, 256
-0.997993, 107, 129, 122, 192
-0.998, 9, 65, 72, 192
-0.998005, 253, 209, 268, 272
-0.998014, 273, 65, 336, 192
-0.998036, 65, 177, 320, 240
-0.998039, 127, 217, 142, 280
-0.998042, 273, 209, 288, 272
-0.99805, 273, 109, 400, 140
-0.998055, 125, 145, 140, 208
-0.998067, 235, 153, 250, 184
-0.998076, 247, 161, 262, 192
-0.998077, 1, 105, 256, 168
-0.998082, 225, 225, 352, 256
-0.998091, 285, 105, 316, 168
-0.998094, 127, 249, 142, 280
-0.998103, 225, 137, 352, 168
-0.998105, 109, 169, 124, 200
-0.998121, 127, 265, 142, 328
-0.998121, 281, 137, 344, 200
-0.998122, 379, 105, 394, 168
-0.998136, 253, 65, 284, 320
-0.998139, 1, 97, 64, 160
-0.998161, 279, 225, 294, 288
-0.998166, 119, 157, 134, 188
-0.998173, 97, 149, 224, 180
-0.998176, 247, 217, 262, 280
-0.998189, 113, 1, 176, 256
-0.998223, 181, 201, 212, 216
-0.998224, 297, 79, 328, 94
-0.998224, 273, 123, 304, 138
-0.998228, 29, 165, 60, 180
-0.998229, 141, 129, 172, 144
-0.998229, 61, 143, 92, 158
-0.99823, 141, 213, 172, 228
-0.99823, 165, 203, 196, 218
-0.998231, 321, 87, 352, 102
-0.998232, 309, 79, 340, 94
-0.998234, 273, 117, 304, 132
-0.998235, 41, 127, 72, 142
-0.998235, 117, 175, 148, 190
-0.998235, 49, 145, 80, 160
-0.998236, 309, 113, 340, 128
-0.998237, 93, 179, 124, 194
-0.998238, 253, 139, 284, 154
-0.998239, 133, 123, 164, 138
-0.99824, 245, 313, 276, 328
-0.998241, 105, 247, 136, 262
-0.998242, 37, 139, 68, 154
-0.998242, 49, 135, 80, 150
-0.998243, 265, 145, 296, 272
-0.998246, 233, 167, 264, 182
-0.998246, 37, 147, 68, 162
-0.998247, 285, 111, 316, 126
-0.998247, 21, 159, 52, 174
-0.998248, 121, 155, 152, 170
-0.998249, 309, 103, 340, 118
-0.998249, 129, 131, 160, 146
-0.998249, 273, 313, 304, 328
-0.99825, 221, 167, 252, 182
-0.99825, 271, 257, 286, 320
-0.99825, 177, 225, 304, 256
-0.99825, 41, 153, 72, 168
-0.998251, 293, 127, 324, 142
-0.998251, 109, 289, 140, 304
-0.998253, 257, 145, 288, 160
-0.998255, 25, 127, 56, 142
-0.998257, 137, 281, 168, 296
-0.998259, 133, 269, 164, 284
-0.99826, 137, 303, 168, 318
-0.99826, 129, 251, 160, 266
-0.998261, 269, 233, 300, 248
-0.998261, 37, 133, 68, 148
-0.998261, 119, 217, 134, 280
-0.998262, 255, 233, 270, 264
-0.998263, 249, 163, 280, 178
-0.998263, 5, 123, 36, 138
-0.998265, 277, 297, 308, 312
-0.998265, 245, 307, 276, 322
-0.998266, 301, 85, 332, 100
-0.998266, 105, 295, 136, 310
-0.998268, 137, 263, 168, 278
-0.998269, 137, 289, 168, 304
-0.998271, 133, 275, 164, 290
-0.998271, 29, 153, 60, 168
-0.998272, 269, 267, 300, 282
-0.998274, 237, 231, 268, 246
-0.998275, 17, 165, 48, 180
-0.998276, 245, 301, 276, 316
-0.998276, 237, 279, 268, 294
-0.998278, 273, 303, 304, 318
-0.99828, 105, 301, 136, 316
-0.998281, 141, 205, 172, 220
-0.998282, 269, 259, 300, 274
-0.998282, 237, 265, 268, 280
-0.998282, 241, 289, 272, 304
-0.998283, 225, 141, 256, 156
-0.998283, 265, 245, 296, 260
-0.998284, 177, 161, 304, 192
-0.998284, 273, 279, 304, 294
-0.998284, 109, 313, 140, 328
-0.998285, 133, 257, 164, 272
-0.998286, 237, 245, 268, 260
-0.998286, 241, 295, 272, 310
-0.998287, 225, 149, 256, 164
-0.998287, 29, 137, 44, 200
-0.998287, 89, 161, 120, 176
-0.998288, 105, 261, 136, 276
-0.99829, 145, 311, 176, 326
-0.998291, 237, 271, 268, 286
-0.998291, 273, 289, 304, 304
-0.998292, 105, 253, 136, 268
-0.998292, 105, 277, 136, 292
-0.998293, 119, 129, 134, 192
-0.998294, 121, 245, 152, 260
-0.998294, 5, 167, 36, 182
-0.998295, 143, 241, 158, 304
-0.998295, 161, 177, 416, 240
-0.998295, 89, 155, 120, 170
-0.998295, 105, 283, 136, 298
-0.998295, 137, 295, 168, 310
-0.998297, 101, 269, 132, 284
-0.998297, 269, 251, 300, 266
-0.998297, 257, 1, 384, 64
-0.998298, 105, 155, 136, 170
-0.998299, 265, 239, 296, 254
-0.998301, 237, 259, 268, 274
-0.998303, 109, 307, 140, 322
-0.998306, 273, 273, 304, 288
-0.998306, 113, 241, 128, 304
-0.998309, 237, 253, 268, 268
-0.998314, 17, 125, 144, 156
-0.998316, 237, 239, 268, 254
-0.998319, 105, 177, 136, 192
-0.998323, 93, 173, 124, 188
-0.998331, 301, 73, 316, 136
-0.998341, 257, 151, 288, 166
-0.998342, 121, 163, 152, 178
-0.998344, 241, 143, 272, 158
-0.998347, 97, 205, 224, 236
-0.998349, 261, 313, 292, 328
-0.998363, 225, 113, 352, 144
-0.998364, 253, 283, 284, 298
-0.998367, 261, 297, 292, 312
-0.998371, 121, 283, 152, 298
-0.998373, 225, 155, 256, 170
-0.998374, 261, 303, 292, 318
-0.998375, 125, 297, 156, 312
-0.998378, 253, 231, 284, 246
-0.998379, 121, 289, 152, 304
-0.998379, 257, 291, 288, 306
-0.99838, 257, 265, 272, 328
-0.99838, 253, 269, 284, 284
-0.998381, 133, 245, 148, 276
-0.998382, 253, 255, 284, 270
-0.998382, 117, 251, 148, 266
-0.998385, 267, 233, 282, 264
-0.998386, 253, 263, 284, 278
-0.998389, 369, 169, 496, 232
-0.998394, 253, 277, 284, 292
-0.998397, 121, 269, 152, 284
-0.998399, 249, 157, 280, 172
-0.998401, 305, 193, 432, 256
-0.998403, 177, 185, 192, 248
-0.998405, 241, 161, 256, 192
-0.998411, 225, 161, 256, 176
-0.998411, 101, 165, 116, 196
-0.998417, 117, 169, 148, 184
-0.998422, 93, 167, 124, 182
-0.998427, 121, 275, 152, 290
-0.998428, 117, 263, 148, 278
-0.99843, 121, 257, 152, 272
-0.998432, 125, 303, 156, 318
-0.998432, 145, 289, 272, 320
-0.998434, 253, 249, 284, 264
-0.998451, 309, 81, 340, 208
-0.998459, 125, 309, 156, 324
-0.99846, 115, 177, 130, 240
-0.998466, 237, 161, 268, 176
-0.998467, 105, 171, 136, 186
-0.998467, 281, 25, 344, 88
-0.998475, 253, 243, 284, 258
-0.998499, 307, 65, 322, 128
-0.998503, 253, 237, 284, 252
-0.998518, 65, 1, 192, 64
-0.998522, 143, 209, 158, 272
-0.998528, 241, 247, 304, 262
-0.998538, 237, 155, 268, 170
-0.998543, 233, 151, 296, 166
-0.998549, 73, 161, 136, 176
-0.998552, 241, 257, 304, 272
-0.998554, 241, 269, 304, 284
-0.998555, 241, 239, 304, 254
-0.998556, 253, 161, 268, 192
-0.998558, 101, 129, 116, 192
-0.998559, 209, 149, 272, 164
-0.998561, 263, 265, 278, 328
-0.998561, 241, 263, 304, 278
-0.998564, 241, 275, 304, 290
-0.998564, 241, 289, 304, 304
-0.998565, 121, 249, 136, 280
-0.998567, 249, 303, 312, 318
-0.998577, 233, 157, 296, 172
-0.998578, 113, 303, 176, 318
-0.998582, 113, 297, 176, 312
-0.998584, 113, 309, 176, 324
-0.998584, 241, 283, 304, 298
-0.998584, 261, 121, 292, 184
-0.998586, 249, 297, 312, 312
-0.998586, 113, 289, 176, 304
-0.998588, 97, 161, 160, 176
-0.99859, 113, 275, 176, 290
-0.998591, 249, 311, 312, 326
-0.998594, 113, 267, 176, 282
-0.998596, 113, 145, 128, 176
-0.998598, 105, 161, 136, 176
-0.998599, 65, 125, 192, 156
-0.998599, 113, 253, 176, 268
-0.9986, 33, 41, 160, 104
-0.998601, 113, 261, 176, 276
-0.998608, 209, 161, 272, 176
-0.998613, 113, 281, 176, 296
-0.998616, 97, 167, 160, 182
-0.998624, 209, 155, 272, 170
-0.998626, 73, 167, 136, 182
-0.998643, 89, 251, 152, 266
-0.998654, 1, 167, 64, 182
-0.998654, 183, 177, 198, 240
-0.99866, 89, 261, 152, 276
-0.99866, 23, 129, 38, 192
-0.998664, 119, 273, 134, 304
-0.998664, 273, 121, 400, 152
-0.998665, 233, 145, 296, 160
-0.998666, 241, 233, 304, 248
-0.998667, 89, 281, 152, 296
-0.998668, 49, 241, 176, 272
-0.998668, 237, 149, 268, 164
-0.998669, 89, 173, 152, 188
-0.99867, 169, 1, 232, 256
-0.998672, 89, 269, 152, 284
-0.998673, 361, 81, 392, 208
-0.998675, 295, 81, 310, 144
-0.998675, 299, 105, 314, 168
-0.998677, 177, 117, 304, 148
-0.998678, 209, 239, 272, 254
-0.998679, 89, 287, 152, 302
-0.998679, 265, 241, 328, 256
-0.99868, 247, 133, 262, 164
-0.99868, 25, 151, 88, 166
-0.998682, 89, 275, 152, 290
-0.998682, 181, 177, 212, 240
-0.998684, 209, 249, 272, 264
-0.998684, 171, 169, 186, 232
-0.998685, 311, 89, 326, 152
-0.998686, 49, 89, 176, 152
-0.998687, 161, 133, 288, 164
-0.998687, 129, 209, 384, 272
-0.998688, 65, 155, 128, 170
-0.998692, 305, 1, 432, 64
-0.998693, 209, 255, 272, 270
-0.998693, 137, 203, 200, 218
-0.998693, 265, 253, 328, 268
-0.998694, 225, 295, 288, 310
-0.998694, 113, 137, 240, 168
-0.998696, 113, 247, 176, 262
-0.998697, 81, 309, 144, 324
-0.998697, 257, 151, 320, 166
-0.998698, 89, 293, 152, 308
-0.998698, 209, 265, 272, 280
-0.998698, 105, 155, 168, 170
-0.998698, 241, 163, 304, 178
-0.998699, 97, 129, 352, 192
-0.998699, 81, 301, 144, 316
-0.9987, 33, 133, 96, 148
-0.998701, 289, 87, 352, 102
-0.998701, 209, 143, 272, 158
-0.998701, 1, 123, 64, 138
-0.998702, 265, 259, 328, 274
-0.998702, 265, 275, 328, 290
-0.998704, 265, 235, 328, 250
-0.998704, 265, 269, 328, 284
-0.998705, 265, 247, 328, 262
-0.998705, 259, 297, 274, 328
-0.998706, 137, 309, 200, 324
-0.998706, 265, 285, 328, 300
-0.998709, 217, 309, 280, 324
-0.998709, 209, 273, 272, 288
-0.998709, 81, 173, 208, 204
-0.99871, 273, 299, 336, 314
-0.998711, 209, 287, 272, 302
-0.998713, 217, 301, 280, 316
-0.998715, 209, 279, 272, 294
-0.998716, 81, 185, 208, 216
-0.998716, 273, 311, 336, 326
-0.998718, 273, 293, 336, 308
-0.998721, 259, 149, 274, 180
-0.998721, 17, 157, 80, 172
-0.998723, 137, 301, 200, 316
-0.998724, 289, 107, 352, 122
-0.998725, 113, 205, 176, 220
-0.998725, 273, 305, 336, 320
-0.998725, 97, 211, 160, 226
-0.998726, 273, 115, 336, 130
-0.998726, 273, 241, 288, 272
-0.998727, 89, 179, 152, 194
-0.998728, 249, 113, 312, 128
-0.998729, 33, 141, 96, 156
-0.998731, 209, 233, 272, 248
-0.998731, 137, 209, 200, 224
-0.998732, 337, 157, 400, 172
-0.998733, 123, 169, 138, 200
-0.998734, 137, 293, 200, 308
-0.998734, 117, 261, 132, 292
-0.998734, 249, 139, 312, 154
-0.998734, 337, 111, 400, 126
-0.998736, 257, 145, 320, 160
-0.998736, 225, 119, 288, 134
-0.998736, 137, 287, 200, 302
-0.998737, 249, 227, 312, 242
-0.998737, 25, 127, 88, 142
-0.998739, 35, 121, 50, 184
-0.998739, 161, 203, 224, 218
-0.99874, 1, 129, 64, 144
-0.998741, 217, 167, 280, 182
-0.998741, 121, 161, 184, 176
-0.998741, 289, 49, 416, 112
-0.998743, 225, 227, 288, 242
-0.998744, 237, 137, 252, 168
-0.998744, 113, 173, 176, 188
-0.998747, 297, 113, 360, 128
-0.998748, 113, 127, 176, 142
-0.99875, 273, 81, 336, 96
-0.99875, 89, 245, 152, 260
-0.99875, 137, 279, 200, 294
-0.99875, 137, 263, 200, 278
-0.998751, 137, 273, 200, 288
-0.998752, 373, 97, 388, 160
-0.998753, 185, 151, 248, 166
-0.998754, 137, 257, 200, 272
-0.998756, 121, 167, 184, 182
-0.99876, 129, 113, 256, 144
-0.998761, 137, 251, 200, 266
-0.998761, 9, 135, 72, 150
-0.998762, 97, 217, 160, 232
-0.998765, 185, 145, 248, 160
-0.998765, 137, 215, 200, 230
-0.998766, 251, 277, 266, 308
-0.998767, 257, 121, 320, 136
-0.998767, 65, 173, 128, 188
-0.998767, 57, 187, 120, 202
-0.998767, 1, 169, 64, 232
-0.998769, 89, 185, 152, 200
-0.99877, 281, 121, 344, 136
-0.99877, 65, 221, 128, 236
-0.998771, 1, 175, 64, 190
-0.998773, 337, 105, 400, 120
-0.998773, 137, 137, 200, 152
-0.998774, 65, 149, 128, 164
-0.998774, 97, 199, 160, 214
-0.998774, 257, 129, 320, 144
-0.998774, 113, 141, 176, 156
-0.998779, 273, 145, 336, 272
-0.998779, 251, 245, 266, 276
-0.998785, 273, 277, 400, 308
-0.998794, 171, 193, 186, 256
-0.998796, 97, 217, 224, 248
-0.998811, 143, 265, 158, 328
-0.998817, 49, 197, 176, 228
-0.998822, 123, 261, 138, 292
-0.998829, 133, 257, 148, 288
-0.99883, 101, 153, 116, 184
-0.998831, 267, 221, 282, 252
-0.998836, 17, 165, 32, 196
-0.998839, 229, 157, 244, 188
-0.998842, 425, 17, 488, 80
-0.998845, 161, 177, 176, 240
-0.998847, 249, 265, 264, 296
-0.99885, 141, 177, 172, 240
-0.998852, 225, 129, 480, 192
-0.998855, 321, 81, 336, 144
-0.998858, 45, 121, 60, 184
-0.998874, 255, 221, 270, 252
-0.998875, 113, 265, 128, 328
-0.998877, 127, 237, 142, 268
-0.998878, 115, 249, 130, 280
-0.998886, 21, 153, 36, 216
-0.998889, 193, 153, 448, 216
-0.998893, 225, 101, 352, 132
-0.998896, 11, 165, 26, 196
-0.998896, 257, 285, 272, 316
-0.998898, 221, 161, 252, 288
-0.998904, 119, 285, 134, 316
-0.998905, 273, 229, 288, 260
-0.99891, 225, 161, 352, 192
-0.998913, 241, 85, 368, 116
-0.998914, 221, 65, 252, 192
-0.998915, 275, 273, 290, 304
-0.998919, 253, 137, 268, 168
-0.998922, 381, 129, 396, 192
-0.998922, 121, 177, 136, 240
-0.998926, 273, 253, 288, 284
-0.998928, 125, 157, 140, 188
-0.998928, 257, 249, 272, 280
-0.998929, 289, 145, 416, 176
-0.998932, 1, 201, 128, 232
-0.998939, 283, 257, 298, 320
-0.998943, 103, 177, 118, 240
-0.998944, 139, 253, 154, 284
-0.998945, 255, 261, 270, 292
-0.998946, 191, 169, 206, 232
-0.998948, 177, 85, 304, 116
-0.998949, 149, 201, 164, 264
-0.998954, 123, 297, 138, 328
-0.998956, 231, 141, 246, 172
-0.998957, 257, 193, 272, 320
-0.998959, 17, 129, 32, 192
-0.998961, 275, 285, 290, 316
-0.998971, 261, 137, 276, 168
-0.998976, 293, 113, 308, 176
-0.998981, 261, 217, 276, 248
-0.998985, 141, 293, 156, 324
-0.99899, 137, 273, 152, 304
-0.998994, 15, 153, 30, 216
-0.998994, 253, 145, 268, 272
-0.998998, 145, 177, 160, 240
-0.998998, 273, 97, 400, 128
-0.998999, 233, 169, 296, 232
-0.999001, 379, 105, 394, 136
-0.999003, 237, 65, 268, 320
-0.999009, 209, 69, 336, 100
-0.99901, 293, 153, 308, 216
-0.999021, 297, 17, 328, 144
-0.999025, 97, 105, 352, 168
-0.999027, 3, 169, 18, 200
-0.999028, 353, 141, 480, 172
-0.999028, 1, 153, 256, 216
-0.999028, 145, 205, 160, 236
-0.999029, 267, 245, 282, 276
-0.99903, 121, 237, 136, 268
-0.999033, 317, 81, 332, 112
-0.99904, 5, 161, 20, 224
-0.999043, 25, 153, 40, 184
-0.999047, 223, 145, 238, 208
-0.999047, 289, 157, 416, 188
-0.999052, 263, 193, 278, 320
-0.999054, 307, 105, 322, 136
-0.999055, 249, 225, 264, 256
-0.999055, 23, 165, 38, 196
-0.99906, 319, 101, 334, 132
-0.99906, 247, 113, 262, 240
-0.99906, 151, 201, 166, 232
-0.999061, 321, 73, 384, 136
-0.999062, 81, 41, 208, 104
-0.999063, 353, 129, 480, 160
-0.999071, 329, 89, 344, 152
-0.999071, 125, 285, 140, 316
-0.999071, 381, 117, 396, 148
-0.999071, 1, 17, 128, 144
-0.999075, 17, 113, 144, 144
-0.999077, 129, 297, 144, 328
-0.999079, 251, 297, 266, 328
-0.999087, 1, 113, 500, 176
-0.999088, 167, 201, 182, 232
-0.999092, 287, 129, 302, 192
-0.999093, 113, 277, 128, 308
-0.999094, 161, 169, 192, 232
-0.999094, 31, 153, 46, 184
-0.999096, 257, 273, 272, 304
-0.999101, 185, 201, 200, 264
-0.999103, 1, 185, 128, 216
-0.999104, 185, 145, 248, 208
-0.999104, 231, 161, 246, 224
-0.999105, 323, 85, 338, 116
-0.999112, 137, 201, 152, 264
-0.999112, 117, 297, 132, 328
-0.999113, 153, 177, 168, 240
-0.999114, 113, 145, 128, 272
-0.999118, 293, 181, 308, 212
-0.999119, 283, 105, 298, 168
-0.999122, 337, 97, 352, 160
-0.999123, 235, 113, 250, 176
-0.999134, 11, 121, 26, 184
-0.999144, 107, 217, 122, 280
-0.999147, 241, 113, 256, 240
-0.999148, 139, 241, 154, 272
-0.999148, 277, 297, 292, 328
-0.999152, 193, 197, 208, 228
-0.999153, 283, 117, 298, 148
-0.99916, 313, 105, 328, 136
-0.999163, 289, 169, 352, 232
-0.999166, 279, 257, 294, 288
-0.999168, 305, 105, 320, 168
-0.999168, 217, 161, 232, 224
-0.999173, 113, 217, 128, 280
-0.999174, 129, 169, 144, 232
-0.999175, 129, 173, 144, 204
-0.999177, 313, 65, 328, 128
-0.999177, 29, 165, 44, 196
-0.999179, 157, 201, 172, 232
-0.999179, 29, 113, 44, 176
-0.99918, 19, 153, 34, 184
-0.999183, 273, 133, 400, 164
-0.999183, 229, 217, 260, 280
-0.999184, 281, 285, 296, 316
-0.999187, 129, 233, 256, 264
-0.999187, 245, 253, 260, 284
-0.99919, 107, 145, 122, 176
-0.999191, 297, 105, 312, 136
-0.999196, 235, 165, 250, 196
-0.999196, 143, 281, 158, 312
-0.999205, 123, 181, 138, 212
-0.999207, 193, 193, 208, 256
-0.999208, 119, 141, 134, 172
-0.999211, 267, 289, 282, 320
-0.999212, 149, 125, 164, 156
-0.999216, 311, 73, 326, 104
-0.999217, 285, 297, 300, 328
-0.999218, 15, 117, 30, 148
-0.999219, 321, 89, 352, 152
-0.999219, 381, 133, 396, 164
-0.999219, 353, 153, 480, 184
-0.99922, 63, 129, 78, 192
-0.999222, 57, 1, 120, 256
-0.999224, 143, 121, 158, 152
-0.999225, 343, 97, 358, 160
-0.999229, 143, 265, 158, 296
-0.999229, 1, 181, 16, 212
-0.999236, 119, 161, 134, 288
-0.999238, 245, 237, 260, 268
-0.999246, 133, 233, 148, 264
-0.999247, 133, 117, 148, 148
-0.999249, 129, 269, 144, 300
-0.999251, 143, 193, 158, 224
-0.999251, 49, 209, 176, 240
-0.999253, 241, 225, 256, 288
-0.999255, 299, 173, 314, 204
-0.999255, 325, 101, 340, 132
-0.999256, 57, 121, 72, 184
-0.999259, 145, 213, 272, 244
-0.999259, 145, 201, 272, 232
-0.999261, 291, 169, 306, 200
-0.999265, 301, 85, 316, 116
-0.999266, 177, 205, 192, 236
-0.999266, 353, 117, 480, 148
-0.999269, 263, 129, 278, 192
-0.999271, 249, 161, 280, 224
-0.999271, 185, 197, 200, 228
-0.999272, 147, 297, 162, 328
-0.999272, 21, 117, 36, 148
-0.999274, 221, 81, 236, 144
-0.99928, 161, 201, 176, 264
-0.999281, 269, 265, 284, 296
-0.999284, 101, 209, 116, 272
-0.999286, 35, 145, 50, 208
-0.999286, 297, 125, 312, 156
-0.999292, 217, 165, 232, 196
-0.999293, 257, 125, 272, 156
-0.999294, 113, 125, 240, 156
-0.999297, 247, 161, 262, 288
-0.999301, 303, 117, 318, 148
-0.999302, 31, 133, 46, 164
-0.999304, 9, 177, 24, 208
-0.999308, 111, 261, 126, 292
-0.999309, 261, 145, 276, 272
-0.999311, 257, 97, 272, 160
-0.999314, 9, 117, 24, 148
-0.999322, 273, 253, 400, 284
-0.999324, 289, 185, 416, 216
-0.999328, 281, 129, 312, 192
-0.999329, 349, 1, 380, 256
-0.999336, 213, 121, 244, 184
-0.999339, 257, 153, 320, 216
-0.999341, 69, 129, 84, 192
-0.999344, 269, 65, 300, 320
-0.99935, 289, 65, 304, 128
-0.99935, 107, 161, 122, 288
-0.999353, 159, 113, 174, 176
-0.999354, 273, 265, 400, 296
-0.999355, 97, 153, 352, 216
-0.999357, 1, 257, 128, 320
-0.999365, 155, 201, 170, 264
-0.999367, 49, 141, 176, 172
-0.999381, 269, 193, 284, 320
-0.999383, 125, 193, 140, 320
-0.999395, 275, 193, 290, 320
-0.999395, 377, 1, 440, 64
-0.999396, 125, 121, 140, 184
-0.9994, 133, 193, 148, 320
-0.999406, 209, 1, 336, 64
-0.999406, 169, 113, 200, 240
-0.999413, 17, 113, 48, 176
-0.999414, 321, 73, 448, 136
-0.999423, 287, 161, 302, 224
-0.999429, 225, 25, 480, 88
-0.99943, 239, 169, 254, 232
-0.999438, 329, 17, 360, 144
-0.999441, 361, 1, 392, 256
-0.999444, 367, 97, 382, 160
-0.999446, 177, 161, 192, 224
-0.999451, 303, 161, 318, 224
-0.999453, 285, 225, 300, 288
-0.999459, 15, 167, 30, 182
-0.999459, 241, 161, 256, 288
-0.999459, 195, 205, 210, 220
-0.999461, 247, 277, 262, 292
-0.999461, 129, 293, 144, 308
-0.999461, 259, 285, 274, 300
-0.999462, 265, 307, 280, 322
-0.999462, 293, 185, 308, 200
-0.999462, 279, 293, 294, 308
-0.999462, 19, 123, 34, 138
-0.999462, 139, 261, 154, 276
-0.999463, 261, 153, 276, 216
-0.999463, 123, 263, 138, 278
-0.999464, 261, 147, 276, 162
-0.999464, 23, 157, 38, 172
-0.999465, 9, 167, 24, 182
-0.999465, 151, 203, 166, 218
-0.999466, 39, 133, 54, 148
-0.999466, 277, 251, 292, 266
-0.999466, 151, 121, 166, 184
-0.999466, 251, 297, 266, 312
-0.999467, 221, 163, 236, 178
-0.999467, 295, 127, 310, 142
-0.999468, 269, 231, 284, 246
-0.999468, 21, 167, 36, 182
-0.999468, 263, 245, 278, 260
-0.999468, 125, 285, 140, 300
-0.999469, 125, 157, 140, 172
-0.999469, 167, 203, 182, 218
-0.999469, 149, 125, 164, 140
-0.999469, 59, 143, 74, 158
-0.999469, 13, 123, 28, 138
-0.999469, 273, 291, 288, 306
-0.999469, 119, 257, 134, 272
-0.999469, 305, 107, 320, 122
-0.999469, 41, 153, 56, 168
-0.99947, 289, 169, 416, 200
-0.99947, 249, 231, 264, 246
-0.999471, 265, 297, 280, 312
-0.999471, 377, 107, 392, 122
-0.999471, 245, 253, 260, 268
-0.999471, 329, 91, 344, 106
-0.999471, 141, 309, 156, 324
-0.999472, 137, 251, 152, 266
-0.999472, 273, 267, 288, 282
-0.999472, 279, 299, 294, 314
-0.999472, 119, 305, 134, 320
-0.999472, 5, 123, 20, 138
-0.999473, 299, 83, 314, 98
-0.999473, 319, 87, 334, 102
-0.999473, 255, 137, 270, 152
-0.999473, 277, 285, 292, 300
-0.999473, 275, 279, 290, 294
-0.999474, 271, 259, 286, 274
-0.999474, 261, 291, 276, 306
-0.999475, 139, 289, 154, 304
-0.999475, 259, 313, 274, 328
-0.999475, 257, 257, 272, 272
-0.999475, 135, 277, 150, 292
-0.999476, 143, 205, 158, 220
-0.999476, 119, 311, 134, 326
-0.999476, 311, 79, 326, 94
-0.999478, 241, 139, 256, 154
-0.999478, 63, 153, 78, 216
-0.999478, 109, 153, 124, 168
-0.999479, 137, 267, 152, 282
-0.999481, 251, 269, 266, 284
-0.999481, 259, 159, 274, 174
-0.999481, 141, 295, 156, 310
-0.999482, 263, 239, 278, 254
-0.999482, 119, 287, 134, 302
-0.999483, 235, 113, 250, 240
-0.999485, 293, 193, 308, 256
-0.999485, 125, 313, 140, 328
-0.999486, 325, 85, 340, 100
-0.999486, 123, 181, 138, 196
-0.999487, 387, 113, 402, 176
-0.999487, 199, 193, 214, 256
-0.999487, 275, 273, 290, 288
-0.999487, 115, 153, 130, 168
-0.999488, 119, 293, 134, 308
-0.999489, 145, 101, 272, 132
-0.999489, 259, 305, 274, 320
-0.99949, 101, 171, 116, 186
-0.99949, 349, 105, 364, 168
-0.99949, 123, 299, 138, 314
-0.99949, 123, 277, 138, 292
-0.999491, 133, 257, 148, 272
-0.999492, 125, 245, 140, 260
-0.999492, 235, 143, 250, 158
-0.999492, 251, 283, 266, 298
-0.999492, 255, 229, 270, 244
-0.999494, 229, 113, 244, 176
-0.999494, 131, 245, 146, 260
-0.999494, 111, 177, 126, 192
-0.999495, 113, 269, 128, 284
-0.999495, 255, 291, 270, 306
-0.999497, 253, 277, 268, 292
-0.999498, 233, 163, 248, 178
-0.999498, 5, 121, 20, 184
-0.999499, 269, 243, 284, 258
-0.999499, 251, 245, 266, 260
-0.9995, 289, 29, 416, 60
-0.999501, 225, 125, 352, 156
-0.999503, 117, 251, 132, 266
-0.999504, 123, 271, 138, 286
-0.999506, 251, 237, 266, 252
-0.999506, 259, 299, 274, 314
-0.999506, 117, 281, 132, 296
-0.99951, 251, 261, 266, 276
-0.999512, 257, 245, 272, 260
-0.999512, 261, 227, 276, 242
-0.999512, 369, 17, 496, 48
-0.999514, 269, 237, 284, 252
-0.999515, 101, 157, 116, 172
-0.999515, 125, 257, 140, 272
-0.999517, 117, 275, 132, 290
-0.999518, 125, 307, 140, 322
-0.999518, 273, 201, 336, 264
-0.999519, 117, 263, 132, 278
-0.999522, 233, 151, 248, 166
-0.999524, 289, 85, 416, 116
-0.999524, 257, 49, 320, 112
-0.999525, 251, 251, 266, 266
-0.999527, 253, 81, 268, 208
-0.999528, 97, 81, 352, 144
-0.999528, 243, 163, 258, 178
-0.999531, 125, 251, 140, 266
-0.999532, 281, 65, 312, 192
-0.999532, 143, 193, 158, 320
-0.999533, 231, 81, 246, 144
-0.999536, 131, 251, 146, 266
-0.999538, 241, 145, 256, 160
-0.999538, 263, 233, 278, 248
-0.999538, 107, 159, 122, 174
-0.999544, 197, 129, 228, 192
-0.999544, 247, 141, 262, 156
-0.999545, 259, 153, 274, 168
-0.999558, 231, 157, 246, 172
-0.999559, 129, 181, 256, 212
-0.999559, 337, 25, 400, 88
-0.999566, 253, 147, 268, 162
-0.999567, 45, 113, 60, 240
-0.999571, 33, 41, 288, 104
-0.999572, 123, 163, 138, 178
-0.999576, 247, 157, 262, 172
-0.999577, 161, 9, 288, 72
-0.999578, 15, 129, 30, 256
-0.999579, 117, 167, 132, 182
-0.99958, 257, 235, 272, 250
-0.999581, 101, 165, 116, 180
-0.999582, 5, 145, 20, 272
-0.999585, 21, 129, 36, 256
-0.999586, 13, 161, 44, 288
-0.999592, 257, 25, 320, 88
-0.999598, 225, 33, 352, 64
-0.999599, 293, 113, 324, 240
-0.999599, 261, 81, 276, 208
-0.999607, 245, 65, 260, 192
-0.999608, 123, 169, 138, 184
-0.99961, 109, 165, 124, 180
-0.999611, 337, 1, 368, 256
-0.999614, 249, 163, 264, 178
-0.999614, 57, 113, 72, 240
-0.999615, 125, 145, 140, 272
-0.999616, 253, 157, 268, 172
-0.999622, 107, 171, 122, 186
-0.999626, 321, 1, 352, 256
-0.999628, 267, 145, 282, 272
-0.999629, 1, 213, 128, 244
-0.99963, 117, 173, 132, 188
-0.999634, 373, 1, 404, 256
-0.999637, 297, 97, 328, 160
-0.999638, 113, 193, 128, 320
-0.999641, 27, 129, 42, 256
-0.999645, 51, 113, 66, 240
-0.999646, 77, 113, 108, 240
-0.999648, 193, 173, 320, 204
-0.999653, 113, 97, 128, 224
-0.999655, 1, 9, 128, 72
-0.999658, 321, 105, 448, 136
-0.999661, 63, 113, 78, 240
-0.999663, 247, 147, 262, 162
-0.999671, 101, 161, 116, 288
-0.999676, 97, 241, 128, 304
-0.999676, 33, 229, 160, 260
-0.99968, 321, 81, 352, 208
-0.999683, 389, 1, 420, 256
-0.999688, 33, 129, 48, 256
-0.999696, 239, 151, 254, 166
-0.999697, 281, 193, 296, 320
-0.999698, 229, 81, 244, 208
-0.999706, 177, 33, 304, 64
-0.999709, 217, 145, 232, 272
-0.99971, 225, 213, 352, 244
-0.99971, 273, 145, 288, 272
-0.999711, 239, 157, 254, 172
-0.999712, 39, 113, 54, 240
-0.999712, 209, 189, 336, 220
-0.999713, 1, 169, 500, 232
-0.999715, 109, 65, 140, 320
-0.99972, 103, 97, 118, 224
-0.999724, 9, 97, 24, 224
-0.999725, 153, 145, 184, 272
-0.999728, 289, 73, 416, 104
-0.999734, 121, 97, 136, 224
-0.999736, 241, 193, 272, 256
-0.999739, 273, 241, 400, 272
-0.99974, 223, 145, 238, 272
-0.999741, 239, 65, 254, 192
-0.99975, 225, 1, 256, 256
-0.999753, 235, 161, 250, 288
-0.999761, 129, 33, 384, 96
-0.999764, 57, 129, 88, 192
-0.999764, 381, 113, 396, 240
-0.999765, 133, 145, 148, 272
-0.999766, 69, 113, 84, 240
-0.999766, 295, 97, 310, 224
-0.999767, 113, 159, 128, 174
-0.99977, 97, 41, 224, 72
-0.999795, 157, 113, 172, 240
-0.999809, 129, 161, 256, 192
-0.999811, 335, 17, 350, 144
-0.999815, 327, 81, 342, 208
-0.999816, 169, 1, 200, 256
-0.999817, 15, 81, 30, 208
-0.999819, 277, 17, 308, 144
-0.999819, 287, 177, 302, 304
-0.99982, 3, 97, 18, 224
-0.999821, 375, 97, 390, 224
-0.999824, 149, 193, 164, 320
-0.999824, 161, 161, 176, 288
-0.999831, 189, 81, 204, 208
-0.999831, 325, 17, 340, 144
-0.999832, 281, 65, 312, 320
-0.999834, 179, 113, 194, 240
-0.999839, 167, 145, 182, 272
-0.999845, 373, 17, 388, 144
-0.99985, 301, 17, 316, 144
-0.99985, 301, 113, 316, 240
-0.999852, 209, 201, 336, 232
-0.999854, 289, 17, 304, 144
-0.999854, 139, 145, 154, 272
-0.999855, 95, 145, 110, 272
-0.999857, 321, 81, 336, 208
-0.999859, 195, 161, 210, 288
-0.99986, 1, 269, 128, 300
-0.999865, 21, 81, 36, 208
-0.999865, 191, 33, 206, 160
-0.999869, 295, 33, 310, 160
-0.999869, 195, 113, 210, 240
-0.999869, 181, 33, 196, 160
-0.999871, 349, 81, 364, 208
-0.999871, 189, 145, 204, 272
-0.999873, 211, 145, 226, 272
-0.999874, 345, 17, 360, 144
-0.999874, 173, 113, 188, 240
-0.999874, 313, 17, 328, 144
-0.999876, 439, 1, 454, 128
-0.999878, 151, 113, 166, 240
-0.999878, 229, 145, 244, 272
-0.999878, 223, 97, 238, 224
-0.999879, 155, 161, 170, 288
-0.999886, 383, 17, 398, 144
-0.999886, 343, 81, 358, 208
-0.999887, 287, 129, 302, 256
-0.999887, 197, 33, 212, 160
-0.999887, 335, 81, 350, 208
-0.999888, 399, 1, 414, 128
-0.999888, 41, 161, 56, 288
-0.999891, 355, 17, 370, 144
-0.999891, 281, 145, 296, 272
-0.999893, 81, 229, 208, 260
-0.999895, 273, 225, 400, 256
-0.999899, 201, 113, 216, 240
-0.9999, 363, 97, 378, 224
-0.999901, 173, 161, 188, 288
-0.999902, 303, 65, 318, 192
-0.999902, 201, 177, 216, 304
-0.999903, 387, 113, 402, 240
-0.999905, 47, 161, 62, 288
-0.999905, 217, 97, 232, 224
-0.999906, 167, 97, 182, 224
-0.999909, 27, 81, 42, 208
-0.99991, 257, 185, 500, 248
-0.999912, 33, 81, 48, 208
-0.999912, 283, 17, 298, 144
-0.999914, 367, 17, 382, 144
-0.999914, 175, 33, 190, 160
-0.999917, 33, 45, 160, 76
-0.999918, 255, 33, 270, 160
-0.99992, 449, 1, 464, 128
-0.999923, 369, 97, 384, 224
-0.999923, 357, 81, 372, 208
-0.999924, 271, 17, 286, 144
-0.999924, 265, 17, 280, 144
-0.999926, 75, 113, 90, 240
-0.999927, 293, 177, 308, 304
-0.999927, 455, 1, 470, 128
-0.999931, 307, 17, 322, 144
-0.999932, 307, 113, 322, 240
-0.999933, 485, 1, 500, 128
-0.999934, 17, 177, 32, 304
-0.999935, 319, 17, 334, 144
-0.999936, 51, 65, 66, 192
-0.999937, 433, 1, 448, 128
-0.999937, 183, 161, 198, 288
-0.99994, 463, 1, 478, 128
-0.999941, 169, 33, 184, 160
-0.999942, 225, 17, 240, 144
-0.999943, 127, 97, 142, 224
-0.999944, 161, 73, 288, 104
-0.99996, 65, 113, 192, 144
-0.999964, 337, 29, 464, 60
-0.999972, 1, 81, 32, 208
-0.999983, 161, 57, 288, 120
-0.999993, 413, 1, 444, 256
-0.999993, 429, 1, 460, 256
-0.999998, 369, 105, 496, 136
-1, 1, 233, 256, 296
-1.00002, 273, 197, 400, 228
-1.00005, 401, 1, 432, 256
-1.00007, 81, 29, 208, 60
-1.00008, 273, 17, 400, 48
-1.00008, 41, 169, 104, 232
-1.00009, 65, 1, 320, 64
-1.00009, 309, 17, 340, 144
-1.0001, 205, 161, 236, 224
-1.00011, 305, 25, 368, 88
-1.00011, 233, 33, 296, 96
-1.00011, 25, 1, 88, 256
-1.00012, 353, 165, 480, 196
-1.00012, 461, 1, 492, 256
-1.00013, 353, 93, 480, 124
-1.00013, 321, 17, 448, 48
-1.00014, 97, 93, 224, 124
-1.00014, 365, 17, 396, 144
-1.00016, 129, 25, 256, 56
-1.00016, 197, 1, 228, 256
-1.00016, 369, 189, 496, 220
-1.00016, 33, 33, 160, 64
-1.00017, 177, 21, 304, 52
-1.00017, 185, 33, 248, 96
-1.00018, 121, 1, 152, 256
-1.00018, 337, 105, 368, 168
-1.00018, 369, 5, 496, 36
-1.00019, 93, 1, 124, 256
-1.00019, 157, 1, 188, 256
-1.00019, 309, 1, 340, 256
-1.00021, 1, 249, 128, 280
-1.00021, 225, 21, 352, 52
-1.00021, 181, 1, 212, 256
-1.00024, 369, 177, 496, 208
-1.00025, 293, 1, 324, 256
-1.00025, 129, 57, 384, 120
-1.00025, 353, 193, 480, 256
-1.00026, 289, 61, 416, 92
-1.00026, 1, 137, 500, 200
-1.00026, 149, 193, 180, 320
-1.00026, 441, 1, 472, 256
-1.00027, 81, 1, 208, 32
-1.00028, 137, 65, 168, 320
-1.00029, 241, 173, 368, 204
-1.00029, 289, 209, 416, 240
-1.0003, 373, 97, 404, 224
-1.0003, 49, 101, 176, 132
-1.00031, 1, 289, 128, 320
-1.00031, 377, 145, 440, 208
-1.00031, 77, 1, 108, 256
-1.00032, 401, 17, 464, 80
-1.00032, 65, 1, 96, 256
-1.00033, 113, 81, 240, 112
-1.00034, 145, 1, 272, 128
-1.00035, 33, 49, 96, 176
-1.00035, 369, 73, 496, 136
-1.00036, 65, 113, 96, 240
-1.00037, 353, 201, 480, 232
-1.00037, 1, 265, 500, 328
-1.00038, 113, 9, 240, 72
-1.00039, 213, 1, 244, 256
-1.00041, 37, 1, 68, 256
-1.00044, 377, 121, 408, 184
-1.00046, 337, 81, 368, 208
-1.00048, 161, 1, 416, 64
-1.00048, 209, 57, 336, 88
-1.00048, 33, 9, 160, 40
-1.00049, 53, 1, 84, 256
-1.00049, 257, 1, 500, 64
-1.00049, 197, 161, 228, 288
-1.00051, 113, 69, 240, 100
-1.00053, 361, 145, 424, 272
-1.00053, 17, 1, 48, 256
-1.00054, 193, 113, 224, 240
-1.00055, 273, 65, 304, 128
-1.00055, 257, 57, 500, 120
-1.00057, 1, 33, 32, 288
-1.00057, 369, 217, 496, 248
-1.00059, 85, 161, 116, 224
-1.00061, 37, 161, 68, 288
-1.00062, 353, 17, 384, 144
-1.00062, 129, 1, 256, 32
-1.00062, 433, 1, 464, 128
-1.00065, 337, 81, 464, 112
-1.00067, 65, 77, 192, 108
-1.00068, 1, 25, 500, 88
-1.00068, 185, 33, 216, 160
-1.00069, 1, 81, 256, 144
-1.0007, 225, 57, 288, 120
-1.00071, 129, 33, 192, 160
-1.00074, 153, 201, 184, 264
-1.00075, 121, 201, 152, 264
-1.00077, 25, 97, 88, 160
-1.00078, 153, 33, 216, 96
-1.00078, 1, 193, 500, 256
-1.00083, 217, 81, 248, 144
-1.00088, 65, 257, 128, 320
-1.00092, 213, 113, 244, 240
-1.00092, 21, 161, 52, 224
-1.00092, 77, 185, 108, 248
-1.00094, 97, 73, 224, 136
-1.00096, 313, 121, 376, 184
-1.00097, 189, 201, 220, 264
-1.00099, 57, 41, 120, 104
-1.001, 157, 97, 188, 224
-1.00101, 105, 113, 136, 240
-1.0011, 209, 33, 272, 96
-1.0011, 25, 161, 56, 288
-1.00111, 321, 217, 448, 280
-1.00112, 97, 1, 160, 64
-1.00114, 157, 105, 188, 168
-1.00114, 165, 161, 196, 288
-1.00121, 1, 233, 500, 296
-1.00123, 293, 153, 324, 216
-1.00125, 349, 81, 380, 208
-1.00128, 21, 65, 52, 192
-1.00129, 177, 161, 208, 288
-1.00135, 161, 33, 192, 160
-1.00135, 281, 161, 312, 224
-1.0014, 121, 177, 152, 240
-1.0014, 353, 1, 416, 64
-1.00143, 293, 177, 324, 240
-1.00146, 181, 81, 212, 208
-1.00148, 185, 193, 248, 256
-1.00149, 237, 17, 268, 144
-1.00151, 389, 1, 420, 128
-1.00152, 361, 25, 424, 88
-1.00155, 93, 209, 124, 272
-1.00156, 185, 193, 248, 320
-1.00158, 377, 17, 408, 144
-1.00159, 281, 1, 344, 64
-1.00159, 173, 33, 204, 160
-1.00159, 313, 145, 376, 272
-1.00163, 129, 129, 160, 192
-1.00165, 197, 17, 228, 144
-1.00166, 253, 33, 284, 160
-1.00167, 377, 89, 440, 152
-1.00168, 1, 89, 500, 152
-1.0017, 265, 17, 296, 144
-1.00172, 393, 1, 456, 128
-1.00173, 289, 193, 320, 320
-1.00175, 341, 17, 372, 144
-1.00175, 1, 1, 64, 256
-1.00182, 289, 193, 416, 320
-1.00182, 369, 145, 400, 208
-1.00182, 37, 169, 68, 232
-1.00183, 285, 265, 316, 328
-1.00184, 321, 241, 448, 304
-1.00186, 229, 73, 260, 136
-1.0019, 277, 201, 308, 264
-1.00191, 353, 97, 384, 160
-1.00191, 257, 1, 320, 64
-1.00191, 33, 41, 96, 104
-1.00194, 297, 65, 328, 192
-1.00194, 445, 1, 476, 128
-1.00198, 1, 1, 500, 64
-1.00202, 41, 65, 72, 192
-1.00205, 81, 177, 112, 304
-1.00208, 73, 145, 104, 208
-1.00212, 421, 1, 452, 128
-1.00213, 181, 89, 212, 152
-1.00214, 81, 33, 144, 96
-1.00218, 1, 65, 500, 128
-1.0022, 49, 153, 80, 216
-1.00223, 113, 89, 176, 152
-1.00223, 273, 105, 304, 168
-1.00226, 309, 57, 340, 120
-1.00229, 369, 225, 496, 288
-1.00233, 141, 121, 172, 184
-1.00233, 97, 185, 128, 248
-1.00233, 49, 65, 176, 128
-1.00235, 145, 265, 176, 328
-1.00236, 53, 161, 84, 288
-1.00236, 61, 153, 92, 216
-1.00236, 369, 265, 496, 328
-1.00239, 469, 1, 500, 128
-1.0024, 297, 49, 328, 112
-1.00241, 313, 161, 376, 224
-1.00242, 337, 81, 368, 144
-1.00244, 301, 121, 332, 184
-1.00244, 321, 1, 384, 64
-1.00248, 177, 97, 240, 160
-1.00251, 1, 193, 64, 256
-1.00253, 1, 177, 32, 304
-1.00257, 129, 33, 192, 96
-1.0026, 457, 1, 488, 128
-1.00262, 5, 105, 36, 168
-1.00265, 129, 97, 160, 224
-1.00266, 321, 265, 448, 328
-1.00272, 385, 1, 416, 64
-1.00273, 373, 17, 404, 80
-1.00274, 41, 17, 104, 80
-1.00274, 285, 25, 316, 88
-1.00276, 169, 89, 200, 152
-1.00277, 169, 73, 232, 136
-1.0028, 161, 217, 224, 280
-1.00283, 145, 97, 176, 224
-1.00284, 49, 105, 80, 168
-1.00285, 345, 193, 408, 256
-1.00286, 49, 113, 112, 176
-1.00287, 337, 41, 464, 104
-1.0029, 261, 81, 292, 144
-1.0029, 105, 65, 168, 192
-1.00292, 385, 97, 416, 224
-1.00292, 377, 145, 408, 272
-1.00292, 441, 17, 472, 80
-1.00292, 121, 1, 184, 64
-1.00302, 385, 81, 448, 208
-1.00302, 297, 25, 328, 88
-1.00302, 209, 17, 240, 144
-1.00305, 405, 17, 436, 144
-1.00305, 1, 65, 128, 128
-1.00307, 53, 65, 84, 192
-1.00308, 193, 177, 224, 240
-1.00308, 217, 1, 280, 64
-1.00309, 357, 129, 388, 192
-1.00313, 265, 25, 296, 88
-1.00319, 309, 25, 340, 88
-1.00319, 241, 73, 272, 136
-1.00325, 305, 145, 336, 272
-1.00326, 341, 25, 372, 88
-1.00327, 177, 137, 208, 200
-1.00327, 133, 153, 164, 216
-1.00332, 221, 1, 252, 128
-1.00336, 29, 97, 60, 160
-1.00337, 81, 33, 144, 160
-1.00338, 149, 33, 180, 160
-1.00339, 253, 33, 284, 96
-1.0034, 65, 1, 128, 64
-1.0034, 17, 9, 80, 72
-1.00341, 133, 97, 164, 160
-1.00345, 365, 81, 396, 144
-1.00345, 37, 145, 68, 208
-1.00349, 101, 113, 132, 176
-1.0035, 9, 49, 72, 112
-1.00353, 205, 81, 236, 144
-1.00353, 149, 153, 180, 216
-1.00359, 281, 129, 312, 256
-1.0036, 453, 17, 484, 80
-1.00362, 377, 97, 408, 160
-1.00363, 429, 17, 460, 80
-1.00363, 285, 49, 316, 112
-1.00367, 225, 241, 256, 304
-1.00368, 369, 169, 432, 232
-1.00371, 269, 81, 300, 208
-1.00371, 145, 9, 208, 72
-1.00373, 105, 33, 168, 96
-1.00374, 345, 73, 408, 136
-1.00375, 189, 153, 220, 216
-1.00375, 205, 65, 236, 192
-1.00375, 361, 25, 392, 88
-1.0038, 397, 1, 428, 64
-1.0038, 1, 193, 32, 256
-1.0038, 69, 33, 100, 160
-1.00382, 305, 193, 368, 256
-1.00382, 265, 145, 296, 208
-1.00383, 329, 25, 360, 88
-1.00384, 349, 145, 380, 272
-1.00384, 217, 33, 248, 96
-1.00386, 89, 1, 120, 128
-1.00402, 365, 145, 396, 272
-1.00411, 137, 33, 168, 160
-1.00414, 65, 161, 96, 288
-1.00419, 1, 33, 32, 160
-1.0042, 337, 129, 368, 256
-1.00428, 25, 193, 88, 256
-1.00447, 177, 9, 240, 72
-1.00448, 49, 89, 112, 152
-1.00461, 317, 145, 348, 272
-1.00463, 169, 241, 232, 304
-1.0047, 101, 33, 132, 160
-1.0047, 369, 177, 496, 304
-1.00491, 369, 193, 432, 256
-1.00499, 289, 193, 352, 320
-1.00518, 41, 265, 104, 328
-1.0056, 1, 249, 64, 312
-1.00562, 433, 73, 496, 136
-1.00566, 137, 57, 200, 120
-1.00567, 305, 217, 368, 280
-1.00582, 369, 65, 432, 128
-1.00583, 117, 17, 148, 144
-1.00587, 21, 17, 52, 144
-1.00601, 1, 217, 64, 280
-1.00603, 49, 17, 80, 144
-1.00609, 361, 193, 392, 320
-1.00611, 33, 17, 64, 144
-1.00612, 321, 193, 352, 320
-1.00614, 389, 145, 420, 272
-1.00614, 289, 265, 352, 328
-1.00615, 33, 233, 96, 296
-1.00618, 81, 65, 112, 192
-1.00625, 9, 17, 72, 144
-1.00627, 345, 217, 408, 280
-1.00635, 105, 17, 168, 144
-1.00637, 349, 193, 380, 320
-1.00647, 89, 89, 152, 152
-1.00669, 389, 49, 420, 176
-1.00677, 309, 193, 340, 320
-1.00684, 337, 177, 368, 304
-1.00694, 57, 17, 120, 144
-1.00705, 337, 193, 400, 320
-1.00738, 397, 97, 428, 224
-1.00749, 373, 193, 404, 320
-1.00778, 433, 81, 464, 208
-1.00779, 385, 129, 448, 256
-1.00781, 413, 97, 444, 224
-1.00783, 469, 81, 500, 208
-1.008, 401, 145, 432, 272
-1.0083, 449, 129, 480, 256
-1.00842, 457, 65, 488, 192
-1.00843, 421, 49, 452, 176
-1.00845, 413, 145, 444, 272
-1.00847, 33, 1, 96, 128
-1.00857, 445, 49, 476, 176
-1.00859, 437, 129, 468, 256
-1.00859, 385, 193, 416, 320
-1.0087, 313, 193, 376, 320
-1.00888, 469, 129, 500, 256
-1.00901, 425, 145, 456, 272
-1.00918, 401, 193, 432, 320
-1.00918, 449, 193, 480, 320
-1.01026, 425, 129, 488, 256
-1.01039, 361, 193, 424, 320
-1.01114, 409, 81, 472, 208
-1.01205, 385, 177, 448, 304
-1.01208, 433, 81, 496, 208
-1.01215, 417, 177, 480, 304
