1968
-0.501778, 1, 1, 500, 375
-0.52888, 1, 33, 500, 288
-0.591381, 97, 1, 352, 375
-0.599982, 257, 1, 500, 375
-0.653855, 1, 129, 500, 375
-0.703221, 1, 1, 256, 375
-0.752647, 257, 1, 500, 256
-0.799533, 129, 33, 384, 288
-0.86951, 1, 1, 256, 256
-0.895531, 257, 97, 500, 352
-0.898555, 225, 1, 352, 375
-0.901318, 337, 1, 464, 375
-0.902641, 177, 1, 304, 375
-0.905713, 129, 1, 256, 375
-0.919083, 225, 33, 352, 288
-0.920628, 273, 1, 400, 375
-0.922021, 353, 1, 480, 256
-0.925796, 1, 1, 500, 128
-0.926697, 305, 33, 432, 288
-0.930584, 33, 97, 288, 352
-0.930601, 1, 49, 500, 176
-0.930748, 65, 1, 192, 375
-0.934597, 177, 33, 304, 288
-0.936005, 369, 97, 496, 352
-0.937182, 129, 33, 256, 288
-0.937367, 17, 1, 144, 375
-0.939725, 257, 1, 500, 128
-0.947991, 1, 113, 500, 240
-0.951488, 81, 65, 208, 320
-0.95338, 305, 129, 432, 375
-0.954574, 369, 1, 432, 128
-0.957774, 321, 1, 448, 128
-0.959265, 225, 49, 480, 176
-0.959406, 17, 33, 144, 288
-0.960967, 1, 225, 500, 352
-0.961069, 257, 129, 384, 375
-0.96488, 1, 129, 128, 375
-0.96578, 161, 129, 416, 375
-0.965974, 129, 49, 384, 176
-0.966838, 145, 129, 272, 375
-0.966949, 1, 161, 500, 288
-0.967763, 401, 17, 464, 144
-0.969789, 225, 49, 352, 176
-0.971503, 161, 1, 416, 128
-0.972235, 33, 33, 288, 160
-0.972376, 273, 33, 400, 160
-0.972551, 193, 129, 320, 375
-0.973727, 225, 177, 480, 304
-0.974127, 257, 49, 320, 176
-0.974801, 393, 25, 456, 88
-0.975365, 369, 177, 496, 304
-0.975611, 433, 241, 496, 304
-0.975732, 313, 41, 376, 104
-0.975829, 369, 17, 496, 144
-0.976066, 257, 97, 500, 224
-0.977039, 361, 41, 424, 104
-0.977668, 129, 49, 256, 176
-0.977806, 289, 41, 352, 104
-0.978153, 417, 265, 480, 328
-0.978174, 289, 17, 352, 144
-0.978542, 257, 225, 500, 352
-0.978687, 401, 177, 464, 304
-0.979095, 177, 1, 304, 128
-0.979261, 337, 81, 464, 208
-0.979327, 417, 161, 480, 224
-0.979907, 161, 1, 224, 128
-0.980194, 321, 33, 384, 160
-0.980626, 177, 49, 304, 176
-0.981064, 345, 17, 408, 144
-0.981234, 337, 25, 400, 88
-0.981365, 193, 49, 256, 176
-0.981599, 369, 17, 432, 80
-0.982388, 393, 257, 456, 320
-0.982452, 337, 25, 464, 88
-0.982862, 405, 1, 436, 128
-0.982916, 321, 177, 448, 304
-0.982952, 97, 177, 352, 304
-0.983663, 409, 225, 472, 352
-0.983801, 401, 185, 464, 248
-0.983979, 369, 129, 496, 256
-0.983994, 401, 1, 464, 256
-0.984126, 257, 57, 320, 120
-0.984146, 433, 225, 496, 352
-0.984542, 225, 49, 288, 176
-0.984564, 97, 241, 352, 368
-0.984619, 337, 241, 464, 368
-0.984641, 425, 265, 456, 328
-0.984846, 273, 41, 400, 104
-0.985108, 401, 49, 464, 112
-0.985121, 393, 281, 456, 344
-0.985336, 97, 129, 352, 256
-0.985529, 129, 1, 256, 128
-0.985736, 377, 185, 440, 248
-0.98593, 393, 81, 456, 208
-0.986179, 393, 1, 424, 128
-0.986282, 305, 129, 432, 256
-0.986336, 337, 49, 400, 112
-0.986649, 425, 33, 488, 160
-0.986714, 401, 129, 464, 256
-0.986945, 377, 177, 440, 304
-0.987007, 361, 33, 424, 288
-0.987252, 1, 145, 256, 272
-0.987353, 209, 65, 272, 128
-0.987621, 49, 209, 176, 336
-0.987925, 169, 49, 232, 176
-0.987971, 225, 1, 352, 128
-0.988, 369, 185, 496, 248
-0.988014, 369, 257, 432, 320
-0.988046, 161, 97, 288, 224
-0.988135, 409, 185, 440, 248
-0.988271, 361, 65, 424, 128
-0.988358, 225, 57, 352, 120
-0.988454, 433, 161, 496, 288
-0.988533, 1, 81, 256, 208
-0.988534, 385, 225, 448, 352
-0.988603, 317, 41, 348, 104
-0.988623, 81, 33, 208, 160
-0.988823, 265, 1, 328, 375
-0.988882, 289, 17, 416, 80
-0.989022, 249, 33, 312, 288
-0.989031, 321, 49, 448, 112
-0.989096, 369, 249, 496, 312
-0.989152, 185, 1, 248, 128
-0.989407, 417, 17, 448, 144
-0.989539, 377, 153, 440, 216
-0.9896, 409, 233, 472, 296
-0.989688, 433, 289, 496, 352
-0.989838, 233, 57, 296, 120
-0.989854, 1, 209, 256, 336
-0.989882, 445, 241, 476, 304
-0.98996, 193, 1, 256, 375
-0.989965, 429, 17, 460, 144
-0.990017, 381, 1, 412, 128
-0.990025, 421, 25, 452, 88
-0.990056, 397, 193, 428, 256
-0.990314, 369, 49, 432, 176
-0.990337, 401, 305, 464, 368
-0.99046, 297, 17, 360, 80
-0.990513, 385, 81, 448, 144
-0.990556, 313, 65, 376, 128
-0.990643, 193, 33, 320, 96
-0.990652, 177, 97, 240, 160
-0.990716, 33, 161, 160, 288
-0.990786, 429, 241, 460, 368
-0.990887, 257, 129, 384, 256
-0.990893, 329, 41, 360, 104
-0.990898, 177, 65, 304, 128
-0.990901, 257, 1, 320, 128
-0.990914, 169, 1, 232, 256
-0.990928, 289, 1, 352, 256
-0.991009, 381, 17, 412, 80
-0.991029, 169, 1, 232, 375
-0.991043, 393, 1, 456, 375
-0.991066, 321, 73, 448, 136
-0.99107, 97, 145, 224, 272
-0.991126, 225, 33, 288, 288
-0.991206, 1, 49, 128, 176
-0.991258, 289, 49, 352, 80
-0.991279, 401, 97, 464, 352
-0.991305, 369, 49, 496, 112
-0.991314, 233, 1, 296, 375
-0.991398, 421, 177, 452, 240
-0.991453, 401, 33, 464, 64
-0.991458, 405, 17, 436, 80
-0.991522, 409, 173, 472, 204
-0.991552, 425, 33, 488, 96
-0.991573, 153, 105, 216, 168
-0.991592, 337, 137, 464, 200
-0.991602, 341, 41, 372, 104
-0.991641, 329, 1, 392, 375
-0.991658, 289, 1, 352, 375
-0.991685, 377, 21, 440, 52
-0.991689, 337, 281, 464, 344
-0.991692, 361, 45, 424, 76
-0.991749, 185, 49, 248, 112
-0.99175, 409, 185, 472, 216
-0.99175, 105, 209, 168, 336
-0.991762, 113, 193, 240, 320
-0.991767, 365, 25, 396, 88
-0.991799, 265, 25, 328, 88
-0.991819, 417, 261, 480, 292
-0.991822, 433, 33, 464, 96
-0.99184, 313, 45, 376, 76
-0.991867, 97, 241, 224, 368
-0.991935, 321, 61, 384, 92
-0.991982, 353, 33, 416, 64
-0.991989, 273, 177, 400, 304
-0.992001, 393, 197, 456, 228
-0.992034, 265, 57, 328, 88
-0.99211, 369, 189, 432, 220
-0.992132, 385, 49, 448, 80
-0.992179, 433, 249, 496, 280
-0.992237, 197, 1, 228, 128
-0.992281, 433, 277, 496, 308
-0.992293, 305, 161, 432, 224
-0.992298, 305, 41, 336, 104
-0.992306, 361, 57, 424, 88
-0.992313, 401, 65, 464, 96
-0.992369, 137, 49, 200, 176
-0.992387, 337, 45, 400, 76
-0.992387, 409, 249, 472, 280
-0.992391, 193, 33, 256, 288
-0.99243, 297, 61, 360, 92
-0.99247, 393, 261, 456, 292
-0.992478, 433, 241, 464, 304
-0.992479, 313, 1, 376, 256
-0.992489, 281, 49, 312, 176
-0.992508, 129, 57, 256, 120
-0.992571, 401, 137, 464, 200
-0.992571, 321, 185, 448, 248
-0.992574, 409, 273, 472, 304
-0.992602, 397, 41, 428, 104
-0.992616, 409, 285, 472, 316
-0.992626, 257, 25, 500, 88
-0.992645, 337, 33, 400, 288
-0.992677, 433, 185, 496, 248
-0.992735, 337, 1, 464, 64
-0.992759, 329, 33, 392, 64
-0.992778, 353, 69, 416, 100
-0.992788, 433, 173, 496, 204
-0.992862, 137, 1, 200, 375
-0.992961, 361, 81, 424, 112
-0.992977, 425, 57, 488, 120
-0.99299, 433, 237, 496, 268
-0.992992, 241, 65, 304, 96
-0.993019, 433, 289, 496, 320
-0.993022, 385, 249, 448, 280
-0.993038, 385, 177, 448, 208
-0.993054, 465, 277, 496, 308
-0.993059, 433, 217, 496, 280
-0.993081, 393, 9, 424, 72
-0.993089, 401, 305, 464, 336
-0.993105, 417, 1, 480, 375
-0.993167, 425, 285, 456, 316
-0.993173, 313, 49, 344, 80
-0.993177, 205, 49, 236, 176
-0.99319, 417, 181, 448, 212
-0.993193, 377, 289, 440, 320
-0.993199, 385, 41, 416, 72
-0.99321, 301, 53, 332, 84
-0.99321, 409, 53, 472, 84
-0.993211, 441, 173, 472, 204
-0.993233, 209, 177, 336, 304
-0.993237, 193, 101, 256, 132
-0.993241, 401, 189, 432, 220
-0.993241, 341, 49, 372, 80
-0.993244, 369, 209, 496, 272
-0.993246, 385, 273, 448, 304
-0.993251, 429, 273, 460, 304
-0.993254, 261, 49, 292, 176
-0.993267, 405, 177, 436, 304
-0.993281, 337, 1, 400, 64
-0.993283, 325, 45, 356, 76
-0.993285, 401, 45, 432, 76
-0.993289, 201, 61, 264, 92
-0.993293, 425, 161, 488, 192
-0.99331, 433, 185, 496, 216
-0.993322, 121, 241, 184, 272
-0.993325, 377, 69, 440, 100
-0.993332, 413, 193, 444, 224
-0.993341, 369, 205, 432, 236
-0.993343, 429, 253, 460, 284
-0.993344, 289, 37, 352, 68
-0.993346, 429, 173, 460, 204
-0.993347, 413, 265, 444, 296
-0.993354, 177, 1, 240, 32
-0.993356, 337, 61, 368, 92
-0.993364, 49, 97, 176, 224
-0.99337, 325, 61, 356, 92
-0.993383, 161, 109, 224, 140
-0.993393, 385, 93, 448, 124
-0.993401, 337, 93, 400, 124
-0.993403, 313, 109, 376, 140
-0.99342, 389, 197, 420, 228
-0.993423, 445, 241, 476, 272
-0.993436, 369, 261, 432, 292
-0.993442, 369, 9, 432, 40
-0.993458, 81, 229, 144, 260
-0.993463, 365, 37, 396, 68
-0.993469, 409, 65, 440, 96
-0.993476, 461, 265, 492, 296
-0.993478, 361, 177, 424, 208
-0.993479, 277, 61, 308, 92
-0.993484, 349, 61, 380, 92
-0.993489, 381, 21, 412, 52
-0.993501, 401, 237, 464, 268
-0.993506, 409, 21, 440, 52
-0.993508, 137, 229, 200, 260
-0.993511, 265, 45, 328, 76
-0.993518, 313, 73, 376, 104
-0.993523, 289, 57, 320, 88
-0.993523, 121, 265, 184, 296
-0.993524, 353, 21, 416, 52
-0.993525, 353, 49, 384, 80
-0.993528, 441, 265, 472, 296
-0.993539, 177, 57, 240, 88
-0.993543, 433, 37, 464, 68
-0.993549, 97, 241, 160, 272
-0.993552, 421, 29, 452, 60
-0.993557, 225, 53, 288, 84
-0.993563, 321, 257, 448, 320
-0.993563, 397, 73, 428, 104
-0.993565, 49, 233, 176, 296
-0.993578, 209, 85, 272, 116
-0.993578, 401, 205, 432, 236
-0.993591, 353, 93, 384, 124
-0.993593, 365, 57, 396, 88
-0.993593, 265, 61, 296, 92
-0.993595, 453, 281, 484, 312
-0.993603, 401, 21, 464, 52
-0.993603, 361, 25, 392, 56
-0.993604, 337, 33, 368, 64
-0.993611, 465, 233, 496, 264
-0.993613, 409, 253, 440, 284
-0.993614, 441, 253, 472, 284
-0.993616, 465, 273, 496, 336
-0.993617, 385, 81, 448, 112
-0.993621, 433, 53, 464, 84
-0.993622, 453, 173, 484, 204
-0.993625, 385, 61, 416, 92
-0.993625, 253, 69, 284, 100
-0.993632, 357, 17, 388, 144
-0.993632, 177, 109, 208, 140
-0.99364, 397, 17, 428, 48
-0.993649, 369, 161, 496, 224
-0.993654, 301, 17, 332, 144
-0.993656, 425, 305, 456, 336
-0.993657, 465, 245, 496, 276
-0.993662, 397, 85, 428, 116
-0.993666, 361, 249, 424, 280
-0.993666, 385, 185, 416, 216
-0.993668, 397, 177, 428, 208
-0.993668, 377, 165, 440, 196
-0.993668, 313, 65, 344, 96
-0.993669, 113, 229, 176, 260
-0.993671, 97, 285, 160, 316
-0.993672, 289, 45, 320, 76
-0.993672, 169, 249, 232, 280
-0.993674, 413, 49, 444, 80
-0.993676, 405, 289, 436, 320
-0.993676, 437, 301, 468, 332
-0.993676, 97, 217, 160, 248
-0.993678, 365, 81, 396, 112
-0.993679, 433, 53, 496, 84
-0.993691, 429, 185, 460, 216
-0.993692, 161, 177, 288, 304
-0.993694, 349, 37, 380, 68
-0.993696, 189, 1, 220, 32
-0.9937, 161, 41, 224, 72
-0.993706, 305, 125, 368, 156
-0.993708, 189, 101, 220, 132
-0.99371, 373, 69, 404, 100
-0.993712, 153, 1, 216, 64
-0.993713, 217, 73, 280, 104
-0.993715, 441, 161, 472, 192
-0.993719, 209, 241, 272, 272
-0.99372, 401, 157, 464, 188
-0.99372, 421, 65, 452, 96
-0.993724, 273, 69, 336, 100
-0.993724, 433, 301, 496, 332
-0.99373, 449, 185, 480, 216
-0.993734, 449, 293, 480, 324
-0.993734, 417, 109, 480, 140
-0.993739, 201, 101, 232, 132
-0.993739, 425, 37, 488, 68
-0.99374, 433, 65, 464, 96
-0.993742, 377, 33, 440, 64
-0.993742, 437, 289, 468, 320
-0.993746, 313, 345, 344, 375
-0.993749, 113, 33, 240, 96
-0.993749, 213, 61, 244, 92
-0.99375, 137, 117, 200, 148
-0.99375, 1, 125, 64, 156
-0.99375, 397, 57, 428, 88
-0.993753, 301, 69, 332, 100
-0.993754, 377, 197, 408, 228
-0.993755, 301, 41, 332, 72
-0.993758, 349, 105, 380, 136
-0.993765, 377, 49, 408, 112
-0.993768, 145, 257, 208, 288
-0.993772, 389, 209, 420, 240
-0.993773, 197, 13, 228, 44
-0.993773, 313, 329, 344, 360
-0.993776, 201, 57, 232, 88
-0.99378, 401, 265, 432, 296
-0.993781, 225, 65, 256, 96
-0.993783, 345, 189, 408, 220
-0.993784, 125, 221, 156, 252
-0.993788, 289, 25, 352, 56
-0.993791, 413, 305, 444, 336
-0.993792, 317, 33, 348, 64
-0.993793, 417, 169, 448, 200
-0.993793, 421, 241, 452, 272
-0.993794, 117, 241, 148, 272
-0.993794, 97, 297, 128, 328
-0.993796, 429, 161, 460, 192
-0.993802, 337, 105, 368, 136
-0.993802, 417, 197, 480, 228
-0.993802, 397, 253, 428, 284
-0.993802, 325, 113, 356, 144
-0.993804, 381, 229, 412, 260
-0.993805, 377, 301, 440, 332
-0.993809, 445, 53, 476, 84
-0.993809, 153, 261, 184, 292
-0.993812, 129, 233, 160, 264
-0.993813, 465, 177, 496, 208
-0.993813, 353, 73, 384, 104
-0.993813, 241, 73, 272, 104
-0.993814, 333, 337, 364, 368
-0.993815, 433, 225, 496, 256
-0.993816, 433, 241, 464, 272
-0.993821, 113, 229, 144, 260
-0.993822, 141, 229, 172, 260
-0.993825, 153, 121, 184, 152
-0.993825, 81, 61, 144, 92
-0.99383, 429, 109, 460, 140
-0.993834, 409, 33, 440, 64
-0.993837, 313, 121, 344, 152
-0.993838, 413, 205, 444, 236
-0.993841, 109, 285, 140, 316
-0.993843, 385, 77, 416, 108
-0.993843, 409, 85, 440, 116
-0.993843, 213, 93, 244, 124
-0.993845, 1, 113, 128, 240
-0.993845, 29, 121, 60, 152
-0.993847, 165, 113, 196, 144
-0.993848, 453, 253, 484, 284
-0.993848, 393, 29, 424, 60
-0.993849, 337, 105, 400, 136
-0.993851, 137, 97, 200, 128
-0.993851, 205, 1, 236, 32
-0.993851, 401, 277, 432, 308
-0.993856, 361, 117, 392, 148
-0.993857, 277, 45, 308, 76
-0.993859, 325, 317, 356, 348
-0.99386, 381, 293, 412, 324
-0.993866, 445, 65, 476, 96
-0.993867, 153, 5, 216, 36
-0.993868, 337, 125, 368, 156
-0.993869, 89, 57, 120, 88
-0.993871, 377, 217, 408, 248
-0.993874, 425, 17, 488, 48
-0.993885, 177, 237, 240, 268
-0.993885, 425, 65, 488, 96
-0.993895, 377, 237, 440, 268
-0.9939, 121, 253, 184, 284
-0.993907, 425, 129, 488, 375
-0.993922, 361, 225, 424, 352
-0.993927, 233, 1, 296, 128
-0.993929, 33, 133, 96, 164
-0.993937, 281, 337, 344, 368
-0.993948, 97, 253, 160, 284
-0.99396, 337, 81, 400, 112
-0.993961, 113, 45, 176, 76
-0.99397, 445, 225, 476, 352
-0.993972, 297, 121, 360, 184
-0.993975, 329, 13, 392, 44
-0.993979, 81, 269, 144, 300
-0.993984, 81, 297, 144, 328
-0.993989, 361, 277, 424, 308
-0.993992, 97, 189, 160, 220
-0.994002, 337, 121, 400, 152
-0.994018, 393, 209, 456, 240
-0.994026, 105, 301, 168, 332
-0.994036, 1, 245, 64, 276
-0.994039, 289, 137, 352, 168
-0.994044, 185, 17, 248, 48
-0.994048, 265, 33, 328, 64
-0.994049, 33, 237, 96, 268
-0.994051, 177, 241, 304, 368
-0.994052, 345, 229, 408, 260
-0.994054, 409, 145, 472, 176
-0.994055, 81, 309, 144, 340
-0.994057, 169, 97, 232, 128
-0.994057, 393, 105, 456, 136
-0.994062, 137, 217, 200, 248
-0.994062, 417, 125, 480, 156
-0.994065, 257, 193, 320, 224
-0.994067, 41, 121, 104, 152
-0.994072, 121, 285, 184, 316
-0.994073, 377, 129, 440, 160
-0.994075, 417, 81, 480, 112
-0.994081, 465, 233, 496, 296
-0.994141, 393, 1, 456, 64
-0.99415, 353, 41, 384, 104
-0.994247, 201, 89, 264, 152
-0.994266, 361, 1, 424, 375
-0.994308, 273, 57, 304, 120
-0.99434, 161, 25, 224, 88
-0.99434, 337, 105, 464, 168
-0.994344, 241, 177, 304, 304
-0.994352, 345, 33, 376, 160
-0.994516, 273, 65, 400, 128
-0.994537, 97, 97, 224, 224
-0.994541, 289, 241, 416, 368
-0.994572, 105, 273, 168, 336
-0.994583, 441, 153, 472, 216
-0.994622, 97, 257, 224, 320
-0.99463, 193, 49, 448, 112
-0.994668, 421, 145, 452, 272
-0.994735, 369, 1, 400, 128
-0.994828, 449, 265, 480, 328
-0.994863, 329, 33, 360, 160
-0.994877, 241, 17, 368, 80
-0.99492, 317, 1, 348, 128
-0.994933, 369, 281, 432, 344
-0.994951, 225, 81, 352, 144
-0.995011, 425, 1, 488, 256
-0.995033, 193, 1, 256, 64
-0.995038, 245, 49, 276, 176
-0.995046, 425, 193, 456, 320
-0.995054, 97, 225, 160, 288
-0.995076, 121, 249, 184, 312
-0.995111, 65, 49, 192, 112
-0.995123, 129, 97, 256, 160
-0.995124, 293, 41, 324, 104
-0.995155, 261, 57, 292, 120
-0.995157, 409, 65, 440, 128
-0.995219, 329, 97, 392, 224
-0.995263, 233, 49, 264, 176
-0.99527, 401, 209, 464, 272
-0.995313, 377, 129, 440, 375
-0.995319, 377, 233, 440, 296
-0.99532, 97, 209, 224, 272
-0.995323, 429, 153, 460, 216
-0.995333, 145, 241, 208, 368
-0.995337, 417, 241, 448, 304
-0.995354, 365, 65, 396, 128
-0.995355, 321, 233, 448, 296
-0.995364, 369, 305, 496, 368
-0.995404, 417, 105, 480, 168
-0.995432, 1, 49, 500, 112
-0.995502, 217, 49, 248, 176
-0.995545, 145, 241, 272, 304
-0.995557, 213, 57, 244, 120
-0.995604, 225, 33, 288, 96
-0.995611, 405, 161, 436, 224
-0.995641, 17, 49, 80, 176
-0.9957, 321, 105, 384, 168
-0.995772, 289, 73, 352, 136
-0.995777, 81, 1, 144, 375
-0.995796, 65, 105, 192, 168
-0.995833, 425, 97, 488, 224
-0.995836, 289, 81, 416, 208
-0.995889, 81, 57, 144, 120
-0.995891, 105, 1, 168, 375
-0.995899, 249, 65, 280, 128
-0.995911, 49, 1, 112, 375
-0.99598, 321, 305, 448, 368
-0.995984, 177, 89, 304, 152
-0.995993, 185, 1, 216, 128
-0.995997, 161, 73, 224, 136
-0.995998, 193, 49, 224, 176
-0.99606, 369, 81, 496, 144
-0.99611, 385, 185, 416, 248
-0.996113, 17, 161, 144, 224
-0.996149, 17, 1, 80, 375
-0.996156, 209, 249, 336, 312
-0.996158, 425, 57, 456, 120
-0.996209, 305, 45, 432, 76
-0.996224, 257, 249, 500, 312
-0.996234, 1, 49, 128, 112
-0.996277, 425, 305, 456, 368
-0.996277, 193, 9, 320, 72
-0.996295, 81, 209, 144, 336
-0.996315, 353, 185, 416, 248
-0.996324, 33, 193, 160, 256
-0.99634, 377, 209, 440, 272
-0.996395, 281, 65, 344, 192
-0.996403, 145, 33, 208, 288
-0.996436, 417, 81, 448, 208
-0.996469, 257, 61, 384, 92
-0.996486, 209, 1, 272, 128
-0.996497, 433, 129, 496, 192
-0.996535, 25, 129, 88, 192
-0.996564, 437, 289, 468, 352
-0.996573, 321, 209, 448, 272
-0.996575, 113, 193, 176, 256
-0.996577, 353, 161, 416, 288
-0.996579, 393, 105, 456, 168
-0.9966, 73, 289, 136, 352
-0.996613, 405, 49, 436, 176
-0.996625, 41, 105, 104, 168
-0.996643, 289, 121, 416, 184
-0.996643, 73, 233, 136, 296
-0.996646, 137, 81, 200, 144
-0.996651, 405, 257, 436, 320
-0.99666, 17, 1, 144, 128
-0.99667, 437, 265, 468, 328
-0.996684, 113, 121, 240, 184
-0.996722, 97, 161, 224, 224
-0.996735, 353, 45, 480, 76
-0.996747, 297, 113, 360, 240
-0.996752, 89, 161, 152, 288
-0.996761, 209, 193, 336, 256
-0.996776, 429, 97, 460, 224
-0.996778, 281, 161, 344, 288
-0.996798, 257, 49, 384, 80
-0.9968, 65, 137, 192, 200
-0.996811, 433, 177, 464, 240
-0.996816, 65, 297, 192, 360
-0.996829, 241, 297, 368, 360
-0.996837, 1, 121, 128, 184
-0.99684, 97, 25, 352, 88
-0.996852, 289, 281, 416, 344
-0.996854, 237, 65, 268, 128
-0.996898, 329, 17, 360, 80
-0.996921, 257, 161, 384, 224
-0.996922, 337, 73, 400, 136
-0.996972, 81, 73, 208, 136
-0.996973, 225, 73, 480, 136
-0.996978, 393, 161, 424, 288
-0.997011, 97, 57, 352, 120
-0.997062, 341, 41, 356, 104
-0.997064, 129, 113, 192, 176
-0.997064, 49, 265, 176, 328
-0.99707, 437, 265, 452, 328
-0.997096, 209, 1, 240, 128
-0.997105, 413, 281, 444, 344
-0.997129, 353, 233, 416, 296
-0.997129, 305, 57, 432, 88
-0.997209, 97, 233, 224, 296
-0.997211, 407, 185, 422, 248
-0.997222, 405, 225, 436, 352
-0.997232, 419, 177, 434, 240
-0.99724, 257, 185, 500, 248
-0.99727, 377, 129, 440, 256
-0.997283, 161, 49, 224, 112
-0.997289, 273, 233, 400, 296
-0.997293, 257, 145, 500, 208
-0.9973, 153, 97, 216, 224
-0.997301, 65, 25, 192, 88
-0.997314, 129, 9, 256, 72
-0.997333, 289, 1, 320, 128
-0.997353, 445, 241, 460, 304
-0.997357, 417, 153, 448, 216
-0.997359, 337, 29, 464, 60
-0.997366, 445, 41, 476, 104
-0.997385, 41, 65, 104, 128
-0.99741, 257, 257, 320, 320
-0.997452, 369, 185, 496, 216
-0.997461, 49, 49, 112, 176
-0.997473, 273, 185, 400, 248
-0.997489, 113, 281, 240, 344
-0.997491, 289, 33, 416, 64
-0.997492, 427, 257, 442, 320
-0.997509, 331, 41, 346, 104
-0.997525, 145, 257, 208, 320
-0.99753, 319, 41, 334, 104
-0.997537, 425, 177, 440, 240
-0.997537, 325, 41, 340, 104
-0.997542, 433, 241, 448, 304
-0.997551, 97, 185, 224, 248
-0.997561, 9, 113, 72, 240
-0.997561, 137, 193, 200, 320
-0.997562, 383, 17, 398, 80
-0.997609, 413, 193, 428, 256
-0.997613, 479, 273, 494, 336
-0.997623, 1, 41, 256, 104
-0.997643, 439, 33, 454, 96
-0.997654, 173, 1, 204, 128
-0.997669, 181, 49, 212, 176
-0.997675, 397, 65, 428, 128
-0.997684, 441, 33, 472, 160
-0.997684, 1, 233, 128, 296
-0.997691, 369, 197, 496, 228
-0.997691, 473, 273, 488, 336
-0.997737, 1, 97, 128, 160
-0.997737, 289, 97, 416, 160
-0.997774, 209, 61, 336, 92
-0.997775, 419, 17, 434, 80
-0.997776, 397, 9, 412, 72
-0.997801, 409, 17, 424, 80
-0.997809, 345, 65, 376, 128
-0.997821, 329, 145, 392, 208
-0.997843, 145, 217, 272, 280
-0.997846, 269, 1, 300, 128
-0.997854, 307, 41, 322, 104
-0.997867, 353, 41, 368, 104
-0.997871, 121, 41, 184, 104
-0.997877, 435, 169, 450, 232
-0.997886, 309, 17, 340, 80
-0.99789, 201, 57, 232, 120
-0.997903, 405, 41, 420, 104
-0.997904, 433, 25, 448, 88
-0.997909, 241, 121, 368, 184
-0.997914, 241, 225, 304, 352
-0.997923, 461, 177, 492, 304
-0.997936, 89, 193, 152, 256
-0.997947, 475, 273, 490, 304
-0.997954, 193, 45, 320, 76
-0.997955, 405, 129, 436, 256
-0.997965, 347, 41, 362, 104
-0.997983, 403, 17, 418, 80
-0.997984, 225, 65, 256, 128
-0.997994, 389, 9, 404, 72
-0.998013, 313, 41, 328, 104
-0.998014, 113, 33, 176, 160
-0.998015, 439, 241, 454, 304
-0.998055, 417, 257, 432, 320
-0.998078, 429, 281, 444, 344
-0.99808, 377, 41, 392, 104
-0.998088, 369, 257, 496, 288
-0.998098, 415, 57, 430, 120
-0.998102, 445, 33, 460, 96
-0.998103, 369, 61, 496, 92
-0.998107, 427, 25, 442, 88
-0.998113, 193, 1, 448, 64
-0.998114, 445, 289, 460, 352
-0.998121, 33, 73, 160, 136
-0.998122, 337, 17, 464, 48
-0.998123, 161, 121, 288, 184
-0.998125, 443, 265, 458, 328
-0.998141, 451, 233, 466, 296
-0.998142, 257, 113, 500, 176
-0.998146, 233, 81, 296, 144
-0.998146, 457, 233, 472, 296
-0.998156, 441, 145, 472, 272
-0.998159, 367, 41, 382, 104
-0.998167, 345, 113, 408, 176
-0.998199, 337, 107, 368, 122
-0.998199, 425, 293, 456, 308
-0.9982, 97, 301, 128, 316
-0.9982, 317, 329, 348, 344
-0.9982, 353, 47, 384, 62
-0.998201, 193, 7, 224, 22
-0.998202, 197, 1, 228, 16
-0.998202, 381, 299, 412, 314
-0.998203, 361, 97, 392, 112
-0.998203, 373, 73, 404, 88
-0.998203, 253, 69, 284, 84
-0.998204, 205, 59, 236, 74
-0.998205, 441, 169, 472, 184
-0.998205, 405, 67, 436, 82
-0.998205, 381, 19, 412, 34
-0.998205, 421, 61, 452, 76
-0.998205, 329, 57, 360, 72
-0.998206, 377, 203, 408, 218
-0.998206, 121, 231, 152, 246
-0.998207, 313, 45, 344, 60
-0.998207, 373, 27, 404, 42
-0.998208, 333, 39, 364, 54
-0.998208, 407, 193, 422, 224
-0.998208, 397, 39, 428, 54
-0.998209, 453, 239, 484, 254
-0.99821, 449, 297, 480, 312
-0.99821, 433, 59, 464, 74
-0.998211, 361, 71, 392, 86
-0.998211, 409, 277, 440, 292
-0.998211, 373, 47, 404, 62
-0.998211, 437, 275, 468, 290
-0.998212, 405, 79, 436, 94
-0.998213, 433, 247, 464, 262
-0.998214, 449, 273, 480, 288
-0.998215, 461, 255, 492, 270
-0.998216, 201, 101, 232, 116
-0.998216, 413, 23, 444, 38
-0.998216, 445, 303, 476, 318
-0.998218, 409, 305, 440, 320
-0.998218, 465, 235, 496, 250
-0.998219, 177, 109, 208, 124
-0.998219, 417, 191, 448, 206
-0.998219, 405, 209, 436, 224
-0.99822, 341, 47, 372, 62
-0.99822, 445, 61, 476, 76
-0.998221, 305, 57, 336, 72
-0.998221, 389, 75, 420, 90
-0.998223, 465, 241, 496, 256
-0.998224, 429, 35, 460, 50
-0.998224, 293, 69, 324, 84
-0.998224, 341, 69, 372, 84
-0.998224, 377, 81, 408, 96
-0.998225, 405, 177, 436, 192
-0.998225, 465, 249, 496, 264
-0.998226, 451, 257, 466, 320
-0.998228, 365, 65, 396, 80
-0.998228, 129, 241, 160, 256
-0.998229, 265, 67, 296, 82
-0.998229, 141, 237, 172, 252
-0.998229, 441, 169, 456, 232
-0.99823, 365, 21, 396, 36
-0.99823, 301, 45, 332, 60
-0.998231, 397, 183, 428, 198
-0.998231, 329, 69, 360, 84
-0.998231, 443, 145, 458, 208
-0.998232, 189, 105, 220, 120
-0.998232, 409, 49, 440, 64
-0.998234, 445, 281, 476, 296
-0.998236, 385, 69, 416, 84
-0.998237, 397, 87, 428, 102
-0.998237, 365, 91, 396, 106
-0.998238, 349, 97, 380, 112
-0.998238, 405, 299, 436, 314
-0.998241, 381, 195, 412, 210
-0.998242, 289, 61, 320, 76
-0.998242, 373, 59, 404, 74
-0.998242, 417, 29, 448, 44
-0.998242, 345, 41, 376, 56
-0.998243, 425, 309, 456, 324
-0.998243, 413, 271, 444, 286
-0.998244, 369, 277, 496, 308
-0.998245, 317, 57, 348, 72
-0.998245, 353, 57, 384, 72
-0.998245, 437, 269, 468, 284
-0.998246, 341, 57, 372, 72
-0.998246, 401, 193, 416, 256
-0.99825, 393, 81, 424, 96
-0.998252, 401, 263, 432, 278
-0.998256, 305, 69, 336, 84
-0.998257, 401, 21, 432, 36
-0.998258, 417, 199, 448, 214
-0.998259, 389, 189, 420, 204
-0.998259, 277, 63, 308, 78
-0.99826, 437, 253, 468, 268
-0.99826, 361, 31, 392, 46
-0.998261, 381, 35, 412, 50
-0.998262, 437, 261, 468, 276
-0.998263, 277, 57, 292, 120
-0.998263, 393, 211, 424, 226
-0.998263, 397, 51, 428, 66
-0.998263, 437, 187, 468, 202
-0.998264, 421, 67, 452, 82
-0.998266, 405, 203, 436, 218
-0.998266, 305, 63, 336, 78
-0.998267, 209, 273, 336, 336
-0.998267, 257, 273, 500, 336
-0.998268, 461, 271, 492, 286
-0.998268, 317, 51, 348, 66
-0.99827, 449, 185, 480, 200
-0.99827, 161, 57, 288, 88
-0.998272, 359, 41, 374, 104
-0.998273, 417, 257, 448, 272
-0.998273, 449, 175, 480, 190
-0.998274, 305, 73, 432, 104
-0.998274, 425, 277, 456, 292
-0.998274, 389, 203, 420, 218
-0.998275, 365, 39, 396, 54
-0.998276, 385, 47, 416, 62
-0.99828, 329, 177, 392, 304
-0.99828, 293, 55, 324, 70
-0.998281, 291, 57, 306, 120
-0.998283, 425, 299, 456, 314
-0.998284, 317, 69, 348, 84
-0.998284, 405, 73, 436, 88
-0.998285, 433, 65, 464, 80
-0.998285, 409, 1, 440, 256
-0.99829, 1, 17, 500, 80
-0.998293, 209, 217, 336, 280
-0.998296, 425, 283, 456, 298
-0.998296, 413, 265, 444, 280
-0.998298, 353, 63, 384, 78
-0.998299, 305, 51, 336, 66
-0.998299, 321, 201, 448, 232
-0.9983, 437, 177, 468, 192
-0.998301, 445, 245, 476, 260
-0.998308, 285, 57, 300, 120
-0.998311, 425, 271, 456, 286
-0.998311, 329, 65, 360, 128
-0.998314, 325, 45, 356, 60
-0.998319, 405, 191, 436, 206
-0.99832, 425, 263, 456, 278
-0.998323, 421, 57, 436, 120
-0.998325, 121, 225, 184, 288
-0.998332, 425, 179, 456, 194
-0.998336, 325, 63, 356, 78
-0.998343, 397, 45, 428, 60
-0.998348, 385, 41, 416, 56
-0.998348, 177, 313, 304, 375
-0.99835, 353, 293, 480, 324
-0.998352, 397, 197, 428, 212
-0.998356, 417, 185, 448, 200
-0.998357, 269, 177, 300, 304
-0.998357, 419, 185, 434, 216
-0.998359, 285, 65, 316, 128
-0.998363, 271, 57, 286, 120
-0.998375, 305, 153, 368, 216
-0.998375, 241, 193, 304, 256
-0.998375, 337, 63, 368, 78
-0.998378, 483, 249, 498, 312
-0.998387, 465, 283, 496, 298
-0.998391, 1, 81, 500, 144
-0.998393, 343, 49, 358, 80
-0.998397, 481, 273, 496, 304
-0.998401, 161, 289, 288, 352
-0.998404, 293, 65, 324, 192
-0.998419, 461, 277, 492, 292
-0.998427, 265, 65, 280, 128
-0.998435, 321, 85, 448, 116
-0.998438, 395, 33, 410, 96
-0.998444, 257, 225, 500, 288
-0.998445, 259, 65, 274, 128
-0.998446, 217, 241, 280, 304
-0.998451, 145, 185, 272, 248
-0.998454, 251, 65, 266, 128
-0.998474, 413, 189, 428, 220
-0.998477, 209, 153, 336, 216
-0.99848, 409, 161, 424, 224
-0.99848, 367, 65, 382, 128
-0.998482, 377, 17, 392, 80
-0.998484, 429, 153, 444, 216
-0.998488, 453, 161, 468, 224
-0.998489, 473, 249, 488, 312
-0.998501, 341, 61, 356, 92
-0.998502, 435, 145, 450, 208
-0.998504, 1, 313, 128, 375
-0.998506, 409, 41, 440, 104
-0.998511, 297, 49, 312, 112
-0.998512, 421, 281, 436, 344
-0.99852, 467, 241, 482, 304
-0.99852, 289, 21, 416, 52
-0.998535, 401, 197, 416, 228
-0.998549, 423, 265, 438, 296
-0.99855, 341, 17, 356, 80
-0.998552, 431, 273, 446, 304
-0.998555, 225, 241, 352, 368
-0.998578, 405, 45, 420, 76
-0.998579, 321, 185, 448, 216
-0.998596, 385, 49, 400, 112
-0.998597, 393, 161, 424, 224
-0.9986, 451, 33, 466, 96
-0.998615, 335, 57, 350, 88
-0.998618, 213, 57, 228, 120
-0.998624, 427, 181, 442, 212
-0.998626, 153, 49, 184, 176
-0.998631, 429, 257, 444, 288
-0.998633, 321, 65, 384, 80
-0.998642, 361, 45, 424, 60
-0.998643, 439, 249, 454, 280
-0.998643, 417, 177, 480, 192
-0.998645, 353, 173, 480, 204
-0.998646, 433, 281, 496, 296
-0.998649, 289, 57, 352, 72
-0.99865, 297, 49, 360, 64
-0.998657, 337, 45, 352, 76
-0.998658, 409, 187, 472, 202
-0.998658, 331, 45, 346, 76
-0.998659, 315, 49, 330, 80
-0.998659, 433, 273, 496, 288
-0.99866, 373, 65, 388, 128
-0.998664, 401, 263, 464, 278
-0.998665, 401, 41, 464, 56
-0.998673, 401, 195, 464, 210
-0.998673, 369, 195, 432, 210
-0.998679, 377, 21, 440, 36
-0.99868, 429, 305, 444, 368
-0.998681, 397, 41, 412, 72
-0.998682, 209, 113, 336, 240
-0.998684, 353, 39, 416, 54
-0.998685, 439, 261, 454, 292
-0.998685, 433, 177, 448, 208
-0.998686, 451, 245, 466, 276
-0.998687, 113, 233, 240, 264
-0.99869, 361, 67, 424, 82
-0.99869, 33, 237, 160, 268
-0.998694, 409, 251, 472, 266
-0.998694, 425, 265, 488, 280
-0.998694, 453, 169, 484, 232
-0.998696, 385, 271, 448, 286
-0.998696, 377, 189, 440, 204
-0.998696, 393, 69, 456, 84
-0.998698, 297, 63, 360, 78
-0.998699, 377, 27, 440, 42
-0.9987, 401, 47, 464, 62
-0.9987, 393, 35, 456, 50
-0.998701, 321, 47, 384, 62
-0.998702, 409, 287, 472, 302
-0.998702, 393, 201, 456, 216
-0.998702, 245, 65, 260, 128
-0.998704, 433, 259, 496, 274
-0.998704, 265, 65, 328, 80
-0.998707, 385, 257, 448, 272
-0.998708, 393, 75, 456, 90
-0.998709, 321, 59, 384, 74
-0.998712, 377, 51, 440, 66
-0.998715, 227, 57, 242, 120
-0.998715, 433, 251, 496, 266
-0.998716, 265, 59, 328, 74
-0.998717, 423, 153, 438, 216
-0.998718, 385, 183, 448, 198
-0.998719, 353, 73, 416, 88
-0.99872, 409, 257, 472, 272
-0.99872, 409, 271, 472, 286
-0.998721, 377, 265, 440, 280
-0.998723, 361, 201, 424, 216
-0.998723, 433, 245, 496, 260
-0.998724, 345, 57, 408, 72
-0.998726, 409, 295, 472, 310
-0.998727, 361, 81, 424, 96
-0.998729, 297, 69, 360, 84
-0.99873, 377, 299, 440, 314
-0.998732, 417, 65, 480, 80
-0.998732, 321, 41, 384, 56
-0.998733, 377, 289, 440, 304
-0.998734, 409, 277, 472, 292
-0.998738, 401, 307, 464, 322
-0.998741, 289, 9, 416, 40
-0.998743, 385, 61, 448, 76
-0.998743, 425, 193, 488, 208
-0.998745, 433, 185, 496, 200
-0.998747, 337, 33, 400, 48
-0.998747, 369, 217, 496, 248
-0.998748, 329, 71, 392, 86
-0.998748, 169, 1, 232, 16
-0.998748, 369, 283, 432, 298
-0.998751, 401, 53, 464, 68
-0.998751, 433, 287, 496, 302
-0.998752, 377, 209, 440, 224
-0.998752, 417, 301, 480, 316
-0.998752, 369, 89, 432, 104
-0.998753, 297, 43, 360, 58
-0.998754, 257, 51, 320, 66
-0.998755, 425, 171, 488, 186
-0.998756, 241, 65, 304, 80
-0.998756, 393, 81, 456, 96
-0.998757, 193, 103, 256, 118
-0.998759, 225, 59, 288, 74
-0.998759, 89, 233, 152, 248
-0.99876, 377, 305, 440, 320
-0.998761, 433, 9, 496, 72
-0.998761, 457, 257, 472, 320
-0.998761, 169, 111, 232, 126
-0.998762, 353, 51, 416, 66
-0.998763, 377, 175, 440, 190
-0.998764, 201, 97, 264, 112
-0.998764, 417, 81, 480, 144
-0.998765, 273, 43, 336, 58
-0.998766, 257, 71, 320, 86
-0.998767, 177, 59, 240, 74
-0.998767, 113, 267, 176, 282
-0.998768, 369, 15, 432, 30
-0.998768, 425, 59, 488, 74
-0.998768, 401, 245, 464, 260
-0.998768, 169, 253, 232, 268
-0.998768, 129, 121, 384, 184
-0.99877, 433, 293, 496, 308
-0.998772, 385, 33, 416, 288
-0.998772, 361, 33, 424, 48
-0.998772, 211, 1, 226, 64
-0.998773, 385, 277, 448, 292
-0.998774, 441, 285, 456, 316
-0.998774, 309, 57, 324, 88
-0.998775, 169, 105, 232, 120
-0.998775, 169, 7, 232, 22
-0.998776, 409, 65, 424, 128
-0.998776, 145, 111, 208, 126
-0.998777, 225, 71, 288, 86
-0.998777, 401, 207, 464, 222
-0.998778, 377, 251, 440, 266
-0.998778, 433, 239, 496, 254
-0.998778, 113, 241, 176, 256
-0.998778, 321, 117, 384, 132
-0.998779, 209, 65, 272, 80
-0.998779, 321, 111, 384, 126
-0.99878, 475, 261, 490, 292
-0.99878, 81, 61, 144, 76
-0.998781, 337, 23, 400, 38
-0.998782, 345, 91, 408, 106
-0.998782, 417, 23, 480, 38
-0.998783, 209, 247, 272, 262
-0.998783, 153, 117, 216, 132
-0.998783, 401, 169, 464, 184
-0.998784, 433, 229, 496, 244
-0.998785, 193, 1, 256, 16
-0.998785, 185, 65, 248, 80
-0.998786, 137, 105, 200, 120
-0.998786, 421, 1, 452, 256
-0.998786, 377, 95, 440, 110
-0.998786, 137, 233, 200, 248
-0.998787, 329, 223, 392, 238
-0.998787, 361, 183, 424, 198
-0.998787, 351, 49, 366, 80
-0.998788, 401, 29, 464, 44
-0.998789, 401, 239, 464, 254
-0.998789, 145, 263, 208, 278
-0.998789, 361, 257, 424, 272
-0.998789, 89, 299, 152, 314
-0.998789, 297, 333, 360, 348
-0.998789, 337, 97, 400, 112
-0.998789, 209, 91, 272, 106
-0.998789, 273, 337, 336, 352
-0.99879, 385, 101, 448, 116
-0.99879, 169, 53, 232, 68
-0.998791, 353, 189, 416, 204
-0.998792, 305, 129, 368, 144
-0.998792, 121, 283, 184, 298
-0.998792, 321, 53, 384, 68
-0.998793, 321, 123, 384, 138
-0.998794, 321, 49, 336, 80
-0.998794, 219, 57, 234, 120
-0.998795, 153, 129, 216, 192
-0.998798, 89, 33, 152, 160
-0.998813, 457, 237, 472, 268
-0.998816, 169, 49, 200, 176
-0.998816, 417, 241, 448, 368
-0.998821, 207, 49, 222, 112
-0.998822, 469, 277, 484, 308
-0.998826, 439, 173, 454, 204
-0.998827, 417, 265, 432, 296
-0.998832, 427, 233, 442, 296
-0.998833, 455, 173, 470, 204
-0.99884, 445, 249, 460, 280
-0.998846, 249, 33, 280, 288
-0.998849, 439, 297, 454, 360
-0.998853, 241, 73, 368, 104
-0.998856, 337, 97, 464, 128
-0.99886, 427, 57, 442, 120
-0.99886, 445, 173, 460, 204
-0.998865, 417, 153, 432, 216
-0.998867, 237, 65, 252, 128
-0.998869, 331, 17, 346, 80
-0.998884, 129, 257, 384, 320
-0.998886, 459, 161, 474, 224
-0.99889, 337, 161, 464, 192
-0.998897, 369, 73, 496, 104
-0.9989, 343, 65, 358, 128
-0.998906, 347, 61, 362, 92
-0.998906, 391, 37, 406, 68
-0.998916, 407, 209, 422, 272
-0.998919, 321, 265, 448, 296
-0.99892, 129, 109, 256, 140
-0.99892, 345, 17, 376, 80
-0.998933, 319, 17, 334, 80
-0.998936, 413, 49, 428, 80
-0.998938, 277, 33, 308, 288
-0.998938, 485, 261, 500, 292
-0.99894, 261, 33, 292, 288
-0.99894, 447, 169, 462, 232
-0.99894, 437, 273, 452, 304
-0.998947, 397, 1, 428, 256
-0.998953, 1, 129, 64, 192
-0.998953, 273, 161, 336, 224
-0.998954, 273, 257, 400, 320
-0.998956, 395, 197, 410, 228
-0.998958, 401, 169, 416, 232
-0.998963, 65, 161, 128, 288
-0.998964, 201, 9, 216, 72
-0.998967, 337, 133, 464, 164
-0.998983, 375, 25, 390, 56
-0.998984, 445, 261, 460, 292
-0.998987, 411, 205, 426, 236
-0.998988, 361, 65, 376, 128
-0.998988, 419, 197, 434, 228
-0.998989, 287, 33, 302, 96
-0.998989, 383, 21, 398, 52
-0.998989, 411, 69, 426, 100
-0.998992, 365, 61, 380, 92
-0.998993, 197, 1, 228, 64
-0.998996, 197, 1, 228, 256
-0.999001, 419, 81, 434, 144
-0.999001, 461, 173, 476, 204
-0.999003, 415, 253, 430, 284
-0.999003, 419, 201, 434, 264
-0.999003, 469, 265, 484, 296
-0.999005, 425, 281, 440, 312
-0.999009, 377, 49, 408, 176
-0.99901, 201, 33, 216, 96
-0.999019, 383, 37, 398, 68
-0.999021, 357, 45, 372, 76
-0.999023, 401, 77, 416, 108
-0.999028, 299, 49, 314, 80
-0.999033, 301, 1, 332, 256
-0.999042, 437, 1, 468, 256
-0.999043, 325, 61, 340, 92
-0.999046, 97, 33, 160, 96
-0.999046, 1, 25, 128, 88
-0.999049, 329, 105, 360, 168
-0.999052, 321, 281, 448, 312
-0.999059, 377, 41, 392, 72
-0.999067, 325, 17, 340, 80
-0.999069, 113, 53, 240, 84
-0.999072, 369, 17, 384, 80
-0.999078, 475, 285, 490, 316
-0.999078, 413, 1, 428, 128
-0.999083, 443, 301, 458, 332
-0.999085, 353, 113, 416, 240
-0.999085, 313, 225, 376, 352
-0.999085, 337, 121, 464, 152
-0.999086, 345, 37, 360, 68
-0.999089, 427, 97, 442, 160
-0.999092, 373, 65, 388, 96
-0.999094, 401, 185, 416, 216
-0.999094, 425, 97, 456, 352
-0.999098, 161, 97, 416, 160
-0.999098, 277, 61, 292, 92
-0.999108, 423, 253, 438, 284
-0.99911, 353, 61, 368, 92
-0.999116, 293, 57, 308, 88
-0.999117, 441, 33, 456, 64
-0.99912, 403, 33, 418, 64
-0.999122, 379, 65, 394, 128
-0.999123, 365, 49, 380, 80
-0.999123, 177, 101, 304, 132
-0.999124, 283, 61, 298, 92
-0.999125, 435, 53, 450, 84
-0.999131, 185, 1, 216, 256
-0.999137, 349, 17, 364, 80
-0.99914, 433, 57, 448, 120
-0.999143, 405, 129, 436, 375
-0.999145, 1, 105, 256, 168
-0.999146, 401, 233, 416, 296
-0.999148, 321, 109, 448, 140
-0.999152, 347, 105, 362, 168
-0.999153, 379, 53, 394, 84
-0.999153, 337, 65, 352, 128
-0.999154, 319, 61, 334, 92
-0.999157, 1, 153, 500, 216
-0.999158, 381, 185, 396, 248
-0.999162, 425, 1, 440, 64
-0.999165, 49, 253, 176, 284
-0.999166, 451, 285, 466, 316
-0.999167, 97, 201, 352, 264
-0.999168, 257, 305, 500, 368
-0.99917, 411, 177, 426, 208
-0.999171, 315, 65, 330, 128
-0.999176, 445, 273, 460, 304
-0.999176, 401, 209, 416, 240
-0.999177, 451, 281, 466, 344
-0.999177, 1, 217, 256, 280
-0.999177, 367, 89, 382, 152
-0.999183, 467, 273, 482, 336
-0.999184, 421, 233, 436, 296
-0.999189, 321, 1, 352, 256
-0.99919, 33, 221, 160, 252
-0.999191, 369, 305, 496, 336
-0.999192, 261, 69, 276, 100
-0.999192, 199, 97, 214, 160
-0.999193, 307, 41, 322, 72
-0.999193, 353, 245, 480, 276
-0.999198, 337, 113, 352, 176
-0.999201, 439, 57, 454, 120
-0.999203, 365, 77, 380, 108
-0.999204, 141, 233, 156, 296
-0.999205, 425, 25, 440, 56
-0.999206, 265, 185, 328, 248
-0.99921, 281, 33, 296, 96
-0.999212, 289, 33, 320, 288
-0.999213, 303, 61, 318, 92
-0.999214, 269, 65, 284, 96
-0.999214, 395, 21, 410, 52
-0.999215, 457, 253, 472, 284
-0.999217, 419, 1, 434, 128
-0.99922, 467, 241, 482, 272
-0.999223, 435, 33, 450, 64
-0.999223, 431, 65, 446, 96
-0.999225, 185, 25, 248, 88
-0.999228, 449, 41, 464, 72
-0.999229, 179, 105, 194, 168
-0.999231, 443, 113, 458, 176
-0.999232, 133, 193, 148, 256
-0.999232, 419, 21, 434, 52
-0.999238, 395, 265, 410, 328
-0.999238, 173, 105, 188, 168
-0.999238, 139, 237, 154, 268
-0.999243, 367, 29, 382, 60
-0.999244, 237, 33, 268, 288
-0.999244, 187, 105, 202, 168
-0.999245, 421, 65, 436, 96
-0.999247, 403, 65, 418, 128
-0.999251, 423, 305, 438, 368
-0.999252, 369, 33, 400, 288
-0.999253, 81, 257, 144, 320
-0.999253, 353, 145, 480, 176
-0.999254, 181, 105, 212, 168
-0.999254, 439, 217, 454, 280
-0.999255, 339, 33, 354, 64
-0.999257, 1, 257, 128, 320
-0.999257, 197, 105, 212, 136
-0.999259, 451, 257, 466, 288
-0.999262, 1, 137, 256, 200
-0.999263, 193, 105, 208, 168
-0.999263, 203, 101, 218, 132
-0.999263, 467, 177, 482, 208
-0.999266, 351, 37, 366, 68
-0.999269, 193, 97, 224, 160
-0.99927, 449, 61, 464, 92
-0.999271, 395, 177, 410, 240
-0.999273, 313, 17, 328, 80
-0.999273, 413, 17, 428, 48
-0.999276, 377, 161, 408, 288
-0.999277, 363, 89, 378, 120
-0.999278, 273, 313, 336, 375
-0.999279, 405, 65, 420, 96
-0.999281, 129, 113, 192, 240
-0.999281, 189, 25, 220, 88
-0.999282, 1, 169, 128, 200
-0.999286, 431, 245, 446, 276
-0.999288, 217, 33, 248, 288
-0.999291, 419, 49, 434, 80
-0.999291, 1, 17, 256, 80
-0.999292, 397, 61, 412, 92
-0.999297, 353, 97, 368, 128
-0.999297, 425, 193, 440, 224
-0.999298, 451, 273, 466, 304
-0.999299, 129, 121, 256, 152
-0.9993, 453, 161, 468, 192
-0.999302, 441, 53, 456, 84
-0.999302, 417, 173, 432, 204
-0.999303, 425, 305, 440, 336
-0.999305, 161, 69, 288, 100
-0.999305, 305, 313, 432, 344
-0.999309, 207, 13, 222, 44
-0.999309, 427, 169, 442, 200
-0.99931, 257, 1, 288, 128
-0.999313, 395, 185, 410, 216
-0.999314, 113, 261, 240, 292
-0.999315, 65, 305, 320, 368
-0.999318, 461, 185, 476, 216
-0.999324, 333, 69, 348, 100
-0.999326, 379, 69, 394, 100
-0.999328, 359, 61, 374, 92
-0.999329, 191, 109, 206, 140
-0.999329, 337, 233, 464, 264
-0.999333, 211, 97, 226, 128
-0.999336, 399, 253, 414, 284
-0.999336, 1, 281, 128, 344
-0.999337, 437, 305, 452, 336
-0.999342, 375, 85, 390, 116
-0.999346, 177, 245, 304, 276
-0.99935, 429, 53, 444, 84
-0.999353, 211, 1, 226, 32
-0.999356, 385, 57, 400, 88
-0.999356, 255, 69, 270, 100
-0.999357, 407, 1, 422, 128
-0.99936, 447, 161, 462, 192
-0.999378, 113, 41, 240, 72
-0.999386, 401, 1, 416, 128
-0.999387, 305, 293, 432, 324
-0.999391, 113, 297, 240, 328
-0.999404, 129, 193, 160, 320
-0.999407, 377, 129, 440, 192
-0.999415, 425, 1, 440, 128
-0.999417, 177, 249, 240, 312
-0.999424, 305, 173, 432, 204
-0.999429, 81, 281, 208, 312
-0.999429, 65, 161, 320, 224
-0.99943, 1, 257, 256, 320
-0.999431, 273, 193, 400, 224
-0.999436, 441, 97, 472, 224
-0.999437, 395, 255, 410, 270
-0.999438, 375, 81, 390, 96
-0.999438, 359, 61, 374, 76
-0.999439, 451, 285, 466, 300
-0.99944, 373, 87, 388, 102
-0.99944, 429, 309, 444, 324
-0.99944, 383, 21, 398, 36
-0.999442, 1, 125, 128, 156
-0.999442, 421, 25, 436, 40
-0.999442, 395, 195, 410, 210
-0.999442, 401, 261, 416, 276
-0.999442, 377, 305, 392, 320
-0.999443, 405, 195, 420, 210
-0.999443, 469, 271, 484, 286
-0.999443, 405, 41, 420, 56
-0.999444, 1, 73, 256, 136
-0.999444, 191, 109, 206, 124
-0.999444, 375, 23, 390, 38
-0.999445, 453, 185, 468, 200
-0.999445, 353, 67, 368, 82
-0.999446, 453, 257, 468, 272
-0.999446, 331, 55, 346, 70
-0.999446, 149, 233, 164, 248
-0.999446, 421, 259, 436, 274
-0.999446, 425, 287, 440, 302
-0.999446, 447, 175, 462, 190
-0.999446, 365, 93, 380, 108
-0.999446, 289, 61, 304, 76
-0.999446, 447, 279, 462, 294
-0.999447, 385, 33, 400, 48
-0.999447, 199, 105, 214, 120
-0.999448, 375, 37, 390, 52
-0.999448, 315, 61, 330, 76
-0.999449, 367, 79, 382, 94
-0.99945, 427, 67, 442, 82
-0.99945, 415, 21, 430, 36
-0.999451, 97, 221, 224, 252
-0.999452, 437, 189, 452, 204
-0.999452, 445, 303, 460, 318
-0.999452, 427, 195, 442, 210
-0.999452, 433, 65, 448, 80
-0.999453, 357, 95, 372, 110
-0.999453, 341, 45, 356, 60
-0.999453, 415, 269, 430, 284
-0.999453, 321, 61, 336, 76
-0.999453, 297, 57, 312, 72
-0.999454, 345, 67, 360, 82
-0.999454, 453, 175, 468, 190
-0.999454, 399, 211, 414, 226
-0.999455, 455, 247, 470, 262
-0.999455, 439, 307, 454, 322
-0.999455, 393, 49, 408, 64
-0.999455, 367, 85, 382, 100
-0.999455, 441, 177, 456, 192
-0.999455, 373, 73, 388, 88
-0.999456, 427, 177, 442, 192
-0.999456, 399, 39, 414, 54
-0.999459, 399, 51, 414, 66
-0.999459, 205, 101, 220, 116
-0.999459, 303, 61, 318, 76
-0.999459, 375, 31, 390, 46
-0.999459, 343, 55, 358, 70
-0.99946, 439, 65, 454, 80
-0.999461, 459, 185, 474, 200
-0.999461, 415, 205, 430, 220
-0.999461, 327, 61, 342, 76
-0.999461, 323, 49, 338, 64
-0.999462, 465, 183, 480, 198
-0.999463, 449, 63, 464, 78
-0.999466, 461, 175, 476, 190
-0.999467, 337, 69, 352, 84
-0.999467, 433, 277, 448, 292
-0.999467, 307, 47, 322, 62
-0.999469, 387, 47, 402, 62
-0.999469, 143, 237, 158, 252
-0.999469, 381, 39, 396, 54
-0.999469, 431, 1, 446, 128
-0.99947, 1, 209, 128, 336
-0.999471, 309, 55, 324, 70
-0.999471, 465, 277, 480, 292
-0.999471, 443, 289, 458, 304
-0.999472, 397, 81, 412, 96
-0.999472, 385, 1, 400, 128
-0.999473, 415, 263, 430, 278
-0.999474, 371, 67, 386, 82
-0.999474, 409, 73, 424, 88
-0.999476, 139, 243, 154, 258
-0.999476, 447, 249, 462, 264
-0.999478, 447, 259, 462, 274
-0.99948, 365, 65, 380, 80
-0.99948, 305, 325, 432, 356
-0.99948, 435, 179, 450, 194
-0.99948, 65, 301, 192, 332
-0.999481, 305, 69, 320, 84
-0.999481, 299, 67, 314, 82
-0.999482, 405, 211, 420, 226
-0.999482, 329, 67, 344, 82
-0.999482, 387, 39, 402, 54
-0.999483, 395, 201, 410, 216
-0.999484, 329, 45, 344, 60
-0.999486, 421, 269, 436, 284
-0.999486, 335, 45, 350, 60
-0.999486, 209, 1, 224, 128
-0.999487, 437, 253, 452, 268
-0.999487, 353, 61, 368, 76
-0.999488, 411, 47, 426, 62
-0.999489, 427, 259, 442, 274
-0.999491, 303, 53, 318, 68
-0.999491, 435, 269, 450, 284
-0.999491, 419, 199, 434, 214
-0.999492, 347, 61, 362, 76
-0.999493, 309, 63, 324, 78
-0.999497, 441, 267, 456, 282
-0.999499, 421, 185, 436, 200
-0.999504, 469, 283, 484, 298
-0.999504, 457, 241, 472, 256
-0.999507, 403, 79, 418, 94
-0.999509, 393, 41, 408, 56
-0.99951, 427, 265, 442, 280
-0.99951, 311, 69, 326, 84
-0.999511, 483, 279, 498, 294
-0.999511, 49, 97, 112, 224
-0.999513, 345, 97, 376, 160
-0.999514, 319, 67, 334, 82
-0.999514, 405, 201, 420, 216
-0.999515, 81, 97, 208, 128
-0.999518, 317, 51, 332, 66
-0.999518, 429, 271, 444, 286
-0.99952, 345, 33, 376, 288
-0.999526, 241, 37, 368, 68
-0.99953, 427, 183, 442, 198
-0.99953, 335, 63, 350, 78
-0.999531, 113, 25, 240, 56
-0.999531, 399, 45, 414, 60
-0.999531, 475, 271, 490, 286
-0.999532, 409, 89, 440, 152
-0.999534, 415, 189, 430, 204
-0.999534, 357, 65, 388, 192
-0.999538, 485, 273, 500, 288
-0.999539, 287, 49, 302, 176
-0.99954, 33, 181, 160, 212
-0.999541, 437, 17, 452, 144
-0.999543, 435, 263, 450, 278
-0.999544, 395, 1, 410, 128
-0.999547, 411, 195, 426, 210
-0.99955, 49, 193, 176, 224
-0.999551, 405, 47, 420, 62
-0.999552, 441, 261, 456, 276
-0.999553, 305, 245, 432, 276
-0.999553, 225, 337, 352, 368
-0.999556, 369, 85, 496, 116
-0.999557, 431, 225, 446, 352
-0.999557, 333, 1, 364, 256
-0.999559, 113, 181, 240, 212
-0.999562, 297, 49, 312, 176
-0.999568, 305, 17, 320, 144
-0.99957, 409, 177, 424, 304
-0.999573, 475, 283, 490, 298
-0.999573, 429, 113, 460, 176
-0.999575, 267, 49, 282, 176
-0.999578, 273, 49, 288, 176
-0.999579, 187, 1, 202, 128
-0.999579, 367, 17, 382, 144
-0.999584, 203, 1, 218, 128
-0.999586, 97, 281, 352, 344
-0.999588, 65, 265, 192, 296
-0.999589, 341, 61, 356, 76
-0.99959, 281, 49, 296, 176
-0.999591, 207, 49, 222, 176
-0.999595, 471, 277, 486, 292
-0.999598, 423, 49, 438, 176
-0.999601, 441, 241, 456, 368
-0.999603, 315, 17, 330, 144
-0.999604, 65, 45, 192, 76
-0.999605, 357, 33, 388, 288
-0.999606, 121, 193, 152, 256
-0.999607, 435, 145, 450, 272
-0.999618, 97, 225, 352, 288
-0.999619, 129, 249, 256, 280
-0.999619, 453, 209, 468, 336
-0.999621, 49, 137, 112, 200
-0.999623, 177, 89, 304, 120
-0.999626, 259, 49, 274, 176
-0.999626, 257, 89, 384, 120
-0.999632, 245, 49, 260, 176
-0.999632, 1, 61, 128, 92
-0.999636, 225, 121, 352, 152
-0.999639, 65, 57, 192, 88
-0.999639, 289, 125, 416, 156
-0.999639, 49, 141, 176, 172
-0.999639, 375, 33, 390, 160
-0.999641, 353, 33, 368, 160
-0.999642, 335, 17, 350, 144
-0.999645, 129, 97, 256, 128
-0.999647, 217, 193, 280, 320
-0.999648, 1, 153, 128, 184
-0.999655, 415, 177, 430, 304
-0.999664, 425, 225, 440, 352
-0.999664, 443, 17, 458, 144
-0.999666, 281, 33, 312, 96
-0.999667, 297, 305, 360, 368
-0.999667, 217, 49, 232, 176
-0.999669, 57, 33, 120, 288
-0.99967, 41, 209, 104, 272
-0.999671, 49, 109, 176, 140
-0.999671, 321, 213, 448, 244
-0.999672, 41, 145, 104, 272
-0.999675, 233, 49, 248, 176
-0.999676, 161, 169, 416, 232
-0.999677, 145, 197, 272, 228
-0.999684, 81, 125, 208, 156
-0.999685, 345, 33, 360, 160
-0.999686, 239, 49, 254, 176
-0.99969, 1, 225, 500, 288
-0.999694, 403, 161, 418, 288
-0.999695, 227, 49, 242, 176
-0.999701, 253, 49, 268, 176
-0.999706, 359, 33, 374, 160
-0.999707, 447, 225, 462, 352
-0.999708, 429, 49, 444, 176
-0.99971, 249, 217, 312, 280
-0.999712, 217, 241, 280, 368
-0.999713, 329, 201, 392, 264
-0.999716, 305, 65, 320, 192
-0.999719, 421, 161, 436, 288
-0.999719, 477, 277, 492, 292
-0.99972, 1, 257, 500, 320
-0.999722, 81, 169, 208, 200
-0.999722, 121, 33, 184, 288
-0.999722, 413, 49, 428, 176
-0.999722, 443, 97, 458, 224
-0.999722, 193, 17, 208, 144
-0.999725, 173, 1, 204, 256
-0.999726, 175, 49, 190, 176
-0.999728, 429, 97, 444, 224
-0.99973, 429, 145, 444, 272
-0.999733, 113, 161, 176, 288
-0.999735, 201, 49, 216, 176
-0.999739, 445, 177, 460, 304
-0.999741, 257, 129, 320, 375
-0.999743, 417, 225, 432, 352
-0.999748, 299, 1, 314, 128
-0.99975, 113, 209, 240, 240
-0.999758, 145, 161, 272, 224
-0.999759, 305, 65, 336, 192
-0.99976, 257, 209, 384, 272
-0.99976, 9, 33, 72, 288
-0.999762, 321, 17, 336, 144
-0.999762, 329, 17, 344, 144
-0.999762, 293, 1, 308, 128
-0.999763, 225, 313, 352, 344
-0.999763, 329, 169, 392, 232
-0.999767, 439, 193, 454, 320
-0.999769, 283, 1, 298, 128
-0.999769, 181, 49, 196, 176
-0.99977, 163, 49, 178, 176
-0.99977, 187, 49, 202, 176
-0.999772, 113, 81, 240, 112
-0.999775, 415, 129, 430, 256
-0.999782, 225, 237, 352, 268
-0.999786, 225, 105, 352, 136
-0.999795, 209, 197, 336, 228
-0.999795, 65, 313, 192, 344
-0.999796, 215, 1, 230, 128
-0.999798, 275, 1, 290, 128
-0.9998, 435, 65, 450, 192
-0.999801, 169, 97, 232, 352
-0.999803, 269, 1, 284, 128
-0.999804, 17, 301, 144, 332
-0.999805, 409, 129, 424, 256
-0.999809, 181, 1, 196, 128
-0.99981, 241, 25, 368, 56
-0.999813, 449, 17, 464, 144
-0.999814, 225, 297, 352, 328
-0.999816, 283, 177, 298, 304
-0.999817, 369, 109, 496, 140
-0.999818, 193, 33, 320, 64
-0.99982, 273, 221, 400, 252
-0.999821, 129, 133, 256, 164
-0.999822, 273, 177, 288, 304
-0.999823, 311, 65, 326, 192
-0.999823, 397, 193, 412, 320
-0.99983, 273, 137, 400, 168
-0.99983, 257, 325, 384, 356
-0.999838, 469, 225, 500, 352
-0.99984, 423, 97, 438, 224
-0.999843, 155, 33, 170, 160
-0.999844, 263, 1, 278, 128
-0.999849, 145, 221, 272, 252
-0.99985, 145, 33, 176, 288
-0.99985, 185, 65, 216, 128
-0.99985, 263, 177, 278, 304
-0.999852, 407, 49, 422, 176
-0.999856, 49, 69, 176, 100
-0.999856, 97, 1, 352, 64
-0.999859, 411, 225, 426, 352
-0.999859, 195, 65, 210, 192
-0.99986, 253, 1, 268, 128
-0.99986, 441, 217, 472, 280
-0.999862, 225, 169, 352, 200
-0.999865, 141, 33, 156, 160
-0.999865, 125, 161, 140, 288
-0.999865, 81, 157, 208, 188
-0.999879, 465, 209, 480, 336
-0.99988, 289, 177, 304, 304
-0.99988, 393, 49, 424, 176
-0.999881, 209, 1, 336, 32
-0.999882, 391, 161, 406, 288
-0.999883, 7, 65, 22, 192
-0.999883, 345, 129, 360, 256
-0.999885, 169, 49, 184, 176
-0.999885, 163, 241, 178, 368
-0.99989, 147, 33, 162, 160
-0.999891, 129, 273, 256, 304
-0.999891, 481, 225, 496, 352
-0.999891, 381, 49, 396, 176
-0.999893, 381, 161, 396, 288
-0.999894, 361, 97, 376, 224
-0.999896, 113, 69, 240, 100
-0.999897, 131, 161, 146, 288
-0.999899, 217, 97, 280, 224
-0.999899, 403, 209, 418, 336
-0.999902, 227, 1, 242, 128
-0.999902, 155, 241, 170, 368
-0.999903, 247, 1, 262, 128
-0.999906, 451, 145, 466, 272
-0.999906, 153, 193, 168, 320
-0.999907, 119, 161, 134, 288
-0.999909, 145, 209, 160, 336
-0.999909, 1, 49, 128, 80
-0.999912, 351, 129, 366, 256
-0.999914, 251, 177, 266, 304
-0.999915, 339, 97, 354, 224
-0.999915, 61, 129, 76, 256
-0.999915, 459, 225, 474, 352
-0.999917, 61, 49, 76, 176
-0.999917, 173, 241, 188, 368
-0.999918, 133, 209, 148, 336
-0.999919, 71, 49, 86, 176
-0.999919, 267, 225, 282, 352
-0.999921, 171, 97, 186, 224
-0.999921, 237, 1, 252, 128
-0.999922, 273, 109, 400, 140
-0.999923, 347, 81, 362, 208
-0.999923, 475, 209, 490, 336
-0.999925, 381, 97, 396, 224
-0.999927, 261, 225, 276, 352
-0.999928, 485, 177, 500, 304
-0.999928, 289, 157, 416, 188
-0.99993, 257, 177, 272, 304
-0.99993, 381, 241, 396, 368
-0.999931, 355, 81, 370, 208
-0.999931, 319, 65, 334, 192
-0.999931, 369, 65, 384, 192
-0.999931, 1, 253, 128, 284
-0.999935, 33, 325, 160, 356
-0.999949, 1, 193, 256, 256
-0.999958, 161, 5, 288, 36
-0.999967, 17, 105, 80, 168
-0.999992, 17, 269, 144, 300
-0.999996, 165, 105, 196, 168
-1, 33, 285, 160, 316
-1.00001, 33, 81, 160, 112
-1.00001, 97, 5, 224, 36
-1.00001, 177, 17, 304, 48
-1.00002, 337, 281, 400, 344
-1.00002, 377, 305, 440, 368
-1.00002, 389, 129, 420, 375
-1.00002, 385, 209, 416, 272
-1.00002, 1, 137, 128, 168
-1.00003, 1, 109, 128, 140
-1.00003, 209, 257, 336, 288
-1.00003, 209, 285, 336, 316
-1.00004, 273, 265, 400, 296
-1.00004, 17, 341, 144, 372
-1.00005, 49, 205, 176, 236
-1.00006, 289, 233, 416, 264
-1.00006, 129, 241, 160, 304
-1.00007, 257, 277, 384, 308
-1.00009, 129, 1, 160, 256
-1.0001, 317, 313, 348, 375
-1.00011, 289, 281, 352, 344
-1.00011, 17, 49, 48, 176
-1.00012, 161, 33, 192, 288
-1.00012, 1, 121, 500, 184
-1.00013, 149, 241, 180, 368
-1.00013, 289, 193, 352, 256
-1.00014, 113, 305, 240, 368
-1.00016, 437, 129, 468, 375
-1.00018, 49, 161, 112, 224
-1.00018, 449, 129, 480, 375
-1.00019, 317, 65, 348, 128
-1.0002, 441, 129, 472, 192
-1.00022, 97, 1, 160, 256
-1.00025, 245, 1, 276, 128
-1.00026, 185, 225, 248, 352
-1.00026, 13, 33, 44, 288
-1.00027, 217, 209, 280, 272
-1.00027, 81, 1, 208, 64
-1.00027, 353, 129, 416, 375
-1.00027, 33, 1, 160, 64
-1.00029, 57, 209, 120, 336
-1.00029, 1, 313, 500, 375
-1.00029, 413, 305, 444, 368
-1.0003, 449, 1, 480, 256
-1.0003, 33, 113, 64, 240
-1.0003, 257, 177, 288, 304
-1.0003, 69, 33, 100, 288
-1.00032, 33, 233, 96, 296
-1.00032, 265, 129, 296, 375
-1.00033, 361, 89, 424, 152
-1.00033, 273, 121, 336, 184
-1.00034, 113, 161, 176, 224
-1.00034, 41, 33, 72, 288
-1.00035, 353, 161, 416, 224
-1.00036, 17, 65, 80, 128
-1.00036, 169, 225, 232, 288
-1.00037, 297, 129, 328, 375
-1.00039, 405, 217, 436, 280
-1.00041, 161, 145, 416, 208
-1.00041, 1, 281, 256, 344
-1.00043, 117, 257, 148, 320
-1.00043, 141, 33, 172, 160
-1.00044, 417, 1, 448, 64
-1.00045, 57, 65, 88, 320
-1.00047, 189, 97, 220, 352
-1.00049, 161, 265, 288, 328
-1.00049, 393, 209, 424, 336
-1.00049, 29, 33, 60, 288
-1.00054, 461, 65, 492, 320
-1.00055, 101, 129, 132, 375
-1.00056, 1, 33, 32, 288
-1.00056, 357, 105, 388, 168
-1.00058, 377, 129, 408, 375
-1.0006, 117, 33, 148, 288
-1.0006, 129, 129, 160, 375
-1.0006, 49, 129, 112, 375
-1.0006, 161, 305, 416, 368
-1.0006, 81, 65, 112, 320
-1.00061, 325, 97, 356, 352
-1.00061, 73, 145, 136, 208
-1.00062, 465, 209, 496, 272
-1.00063, 281, 129, 344, 375
-1.00063, 357, 129, 388, 375
-1.00063, 257, 281, 320, 344
-1.00064, 253, 129, 284, 375
-1.00065, 45, 49, 76, 176
-1.00065, 225, 1, 256, 128
-1.00065, 129, 241, 160, 368
-1.00066, 1, 193, 500, 256
-1.00066, 137, 193, 200, 256
-1.00066, 285, 129, 316, 375
-1.00066, 201, 97, 232, 352
-1.00067, 353, 113, 384, 240
-1.00067, 33, 33, 96, 288
-1.00068, 273, 217, 336, 280
-1.00068, 225, 113, 288, 176
-1.00069, 237, 129, 268, 375
-1.0007, 393, 257, 424, 320
-1.00071, 185, 113, 248, 240
-1.00073, 69, 129, 100, 375
-1.00074, 137, 1, 200, 128
-1.00076, 177, 97, 208, 352
-1.00077, 105, 33, 136, 288
-1.00079, 1, 281, 500, 344
-1.0008, 97, 297, 160, 360
-1.00082, 93, 33, 124, 288
-1.00082, 313, 97, 344, 352
-1.00082, 149, 129, 180, 375
-1.00085, 293, 17, 324, 80
-1.00086, 45, 129, 76, 375
-1.00087, 41, 313, 104, 375
-1.00087, 113, 129, 144, 375
-1.00087, 121, 297, 184, 360
-1.00088, 361, 1, 392, 64
-1.00089, 105, 113, 168, 176
-1.00096, 257, 81, 320, 144
-1.00097, 337, 129, 368, 256
-1.00099, 313, 97, 376, 352
-1.001, 269, 33, 300, 96
-1.00102, 109, 193, 140, 320
-1.00102, 33, 129, 64, 375
-1.00103, 129, 217, 160, 280
-1.00103, 249, 41, 280, 104
-1.00106, 225, 129, 256, 375
-1.00107, 1, 129, 32, 375
-1.00108, 317, 49, 348, 176
-1.00108, 229, 177, 260, 304
-1.00108, 21, 129, 52, 375
-1.0011, 213, 129, 244, 375
-1.0011, 345, 129, 376, 375
-1.00111, 337, 129, 368, 192
-1.00111, 149, 113, 180, 176
-1.00112, 165, 129, 196, 375
-1.00112, 65, 33, 128, 96
-1.00115, 381, 273, 412, 336
-1.00121, 81, 169, 144, 232
-1.00122, 393, 97, 424, 224
-1.00126, 65, 81, 128, 144
-1.00128, 249, 153, 312, 216
-1.00129, 205, 97, 236, 160
-1.0013, 149, 193, 180, 320
-1.00135, 185, 1, 216, 64
-1.00137, 105, 273, 136, 336
-1.00138, 105, 129, 168, 375
-1.0014, 353, 305, 416, 368
-1.00141, 457, 241, 488, 368
-1.00142, 61, 145, 92, 272
-1.00142, 297, 249, 360, 312
-1.00143, 453, 49, 484, 176
-1.00143, 161, 241, 192, 368
-1.00143, 301, 73, 332, 136
-1.00145, 37, 129, 68, 192
-1.00146, 1, 49, 32, 176
-1.00147, 9, 225, 72, 288
-1.00149, 181, 97, 212, 224
-1.00151, 129, 33, 160, 160
-1.00154, 341, 81, 372, 208
-1.00154, 121, 145, 152, 272
-1.00156, 185, 177, 248, 304
-1.00157, 393, 233, 424, 296
-1.00162, 245, 161, 276, 288
-1.00162, 161, 193, 224, 320
-1.00165, 265, 241, 328, 368
-1.00167, 57, 65, 88, 192
-1.00167, 285, 177, 316, 304
-1.00167, 425, 217, 456, 280
-1.00169, 129, 265, 160, 328
-1.00172, 365, 193, 396, 256
-1.00173, 45, 105, 76, 168
-1.00176, 449, 289, 480, 352
-1.00177, 233, 129, 296, 375
-1.0018, 109, 217, 140, 280
-1.00182, 141, 41, 172, 104
-1.00183, 81, 57, 112, 120
-1.00186, 329, 81, 360, 208
-1.00186, 201, 33, 232, 96
-1.00191, 257, 129, 320, 256
-1.00192, 317, 121, 348, 184
-1.00192, 109, 185, 140, 248
-1.00193, 141, 257, 172, 320
-1.00194, 237, 41, 268, 104
-1.00194, 69, 49, 100, 176
-1.00194, 245, 225, 276, 352
-1.00196, 377, 241, 408, 304
-1.002, 137, 113, 168, 176
-1.00203, 421, 89, 452, 152
-1.00204, 377, 241, 408, 368
-1.0021, 93, 49, 124, 112
-1.0022, 181, 241, 212, 368
-1.0022, 73, 129, 136, 375
-1.00222, 385, 73, 416, 136
-1.00223, 9, 97, 40, 224
-1.0023, 469, 145, 500, 208
-1.00234, 173, 65, 204, 128
-1.00236, 297, 129, 328, 256
-1.00237, 305, 129, 336, 192
-1.00237, 81, 225, 112, 352
-1.00239, 89, 289, 120, 352
-1.00242, 153, 89, 184, 152
-1.00244, 357, 177, 388, 304
-1.00245, 81, 33, 112, 160
-1.00245, 333, 177, 364, 304
-1.00247, 137, 129, 200, 375
-1.00248, 445, 17, 476, 80
-1.00248, 437, 65, 468, 128
-1.0025, 369, 89, 400, 152
-1.0025, 97, 209, 128, 336
-1.00251, 369, 273, 400, 336
-1.00253, 213, 33, 244, 96
-1.00253, 233, 241, 264, 304
-1.00254, 97, 233, 128, 296
-1.00256, 269, 241, 300, 368
-1.00261, 161, 113, 192, 240
-1.00262, 217, 89, 248, 152
-1.00263, 29, 65, 60, 192
-1.00264, 165, 257, 196, 320
-1.00264, 197, 97, 228, 224
-1.00266, 137, 97, 168, 224
-1.0027, 225, 209, 256, 272
-1.00271, 141, 217, 172, 280
-1.00271, 153, 49, 184, 112
-1.00277, 365, 241, 396, 368
-1.00278, 229, 97, 260, 224
-1.00278, 317, 97, 348, 224
-1.00282, 41, 1, 104, 128
-1.00283, 369, 97, 400, 224
-1.00283, 49, 129, 80, 256
-1.0029, 213, 193, 244, 320
-1.00293, 269, 129, 300, 256
-1.00293, 197, 225, 228, 352
-1.00297, 193, 129, 256, 375
-1.00297, 109, 129, 140, 256
-1.00298, 61, 1, 92, 128
-1.00302, 1, 129, 64, 375
-1.00303, 97, 161, 128, 288
-1.00306, 25, 129, 88, 375
-1.00307, 73, 145, 104, 272
-1.00308, 105, 97, 168, 224
-1.00314, 177, 193, 208, 320
-1.0032, 297, 241, 328, 368
-1.00321, 305, 177, 368, 304
-1.00323, 101, 33, 132, 160
-1.00326, 453, 97, 484, 224
-1.00327, 233, 225, 264, 352
-1.00328, 165, 193, 196, 320
-1.0033, 285, 129, 316, 256
-1.00344, 381, 113, 412, 240
-1.00344, 241, 97, 272, 224
-1.00345, 161, 1, 192, 128
-1.00349, 113, 33, 144, 160
-1.00352, 141, 145, 172, 272
-1.00353, 109, 241, 140, 368
-1.00361, 257, 225, 288, 352
-1.00376, 313, 177, 344, 304
-1.00379, 221, 241, 252, 368
-1.00383, 9, 1, 72, 128
-1.0039, 69, 193, 100, 320
-1.00393, 33, 193, 96, 320
-1.00393, 49, 177, 80, 304
-1.00399, 9, 161, 72, 288
-1.00401, 317, 241, 348, 368
-1.00431, 73, 113, 136, 240
-1.00431, 65, 1, 128, 128
-1.00447, 289, 241, 352, 368
-1.0047, 209, 145, 272, 272
-1.00506, 337, 241, 400, 368
-1.006, 9, 241, 72, 368
-1.00626, 153, 145, 216, 272
-1.00899, 33, 241, 96, 368
