1938
-0.248496, 1, 1, 375, 480
-0.371664, 1, 33, 375, 288
-0.44051, 97, 1, 352, 480
-0.505269, 1, 129, 375, 384
-0.541502, 1, 225, 375, 480
-0.551143, 1, 1, 256, 480
-0.651381, 129, 1, 375, 256
-0.674455, 1, 1, 256, 256
-0.703487, 1, 161, 256, 416
-0.727299, 97, 225, 352, 480
-0.774153, 97, 129, 352, 384
-0.868916, 1, 81, 375, 208
-0.869694, 145, 1, 272, 480
-0.874586, 97, 1, 224, 480
-0.877963, 1, 1, 375, 128
-0.881968, 145, 1, 272, 256
-0.885813, 193, 1, 320, 480
-0.887372, 177, 225, 304, 480
-0.887919, 209, 1, 336, 256
-0.888584, 1, 1, 128, 480
-0.896099, 49, 1, 176, 480
-0.899097, 81, 1, 208, 256
-0.899484, 1, 321, 375, 448
-0.901518, 33, 65, 160, 320
-0.901523, 81, 161, 208, 416
-0.906865, 1, 193, 128, 448
-0.907646, 225, 225, 352, 480
-0.909318, 1, 161, 375, 288
-0.910439, 97, 1, 352, 128
-0.912588, 241, 1, 368, 480
-0.914355, 161, 129, 288, 384
-0.91507, 129, 225, 256, 480
-0.922545, 1, 1, 256, 128
-0.926418, 1, 81, 256, 208
-0.928888, 65, 321, 320, 448
-0.930636, 193, 1, 320, 128
-0.933362, 225, 129, 352, 384
-0.933446, 129, 49, 375, 176
-0.936498, 1, 273, 375, 400
-0.938951, 145, 1, 208, 128
-0.939672, 153, 321, 216, 448
-0.940458, 1, 1, 128, 128
-0.940812, 97, 1, 224, 128
-0.943179, 1, 209, 375, 336
-0.943351, 1, 145, 256, 272
-0.944928, 65, 1, 128, 128
-0.946437, 145, 17, 272, 144
-0.946507, 137, 1, 200, 64
-0.946869, 249, 1, 312, 128
-0.94806, 145, 321, 272, 448
-0.950157, 49, 1, 176, 128
-0.951413, 41, 1, 104, 128
-0.952131, 193, 321, 256, 448
-0.953792, 129, 129, 375, 256
-0.953946, 169, 17, 232, 144
-0.95404, 241, 337, 368, 464
-0.954933, 241, 81, 368, 208
-0.955217, 97, 321, 224, 448
-0.955874, 113, 1, 176, 64
-0.955885, 97, 177, 352, 304
-0.956545, 249, 257, 312, 384
-0.956553, 129, 273, 375, 400
-0.956762, 217, 1, 280, 128
-0.957289, 193, 17, 256, 144
-0.957937, 89, 1, 152, 128
-0.958056, 297, 81, 360, 208
-0.959003, 121, 1, 184, 128
-0.95929, 257, 353, 320, 480
-0.960592, 161, 17, 224, 80
-0.961116, 1, 257, 256, 384
-0.961724, 193, 305, 320, 432
-0.961935, 193, 353, 320, 480
-0.961942, 153, 369, 216, 432
-0.962956, 209, 257, 336, 384
-0.963562, 185, 377, 248, 440
-0.964204, 33, 81, 160, 208
-0.964999, 145, 65, 272, 192
-0.965132, 17, 1, 80, 128
-0.965539, 313, 97, 375, 160
-0.965607, 25, 9, 88, 72
-0.965612, 105, 337, 168, 464
-0.965888, 89, 17, 152, 80
-0.966003, 57, 17, 120, 80
-0.966246, 185, 25, 248, 88
-0.966382, 273, 257, 336, 384
-0.966415, 257, 377, 320, 440
-0.966583, 241, 1, 368, 128
-0.967191, 225, 337, 288, 464
-0.967199, 137, 25, 200, 88
-0.967232, 225, 393, 288, 456
-0.967525, 97, 49, 224, 176
-0.967718, 193, 65, 320, 192
-0.967919, 165, 1, 196, 64
-0.969255, 81, 1, 208, 64
-0.969347, 9, 353, 72, 480
-0.969376, 1, 193, 256, 320
-0.969971, 1, 1, 64, 64
-0.970247, 209, 65, 272, 192
-0.97067, 313, 33, 375, 160
-0.97075, 145, 1, 176, 64
-0.970891, 217, 241, 280, 368
-0.970946, 177, 393, 304, 456
-0.971093, 161, 129, 288, 256
-0.971116, 217, 17, 280, 80
-0.971278, 129, 321, 192, 448
-0.971359, 249, 9, 312, 72
-0.971398, 1, 337, 128, 464
-0.971537, 145, 417, 208, 480
-0.971775, 105, 49, 168, 176
-0.971928, 1, 209, 128, 336
-0.971941, 169, 401, 232, 464
-0.971948, 1, 193, 64, 320
-0.972067, 257, 49, 320, 176
-0.972297, 81, 161, 208, 288
-0.972756, 49, 353, 176, 480
-0.97293, 161, 241, 288, 368
-0.973023, 97, 225, 352, 352
-0.973289, 1, 273, 128, 400
-0.973346, 133, 1, 164, 64
-0.97347, 17, 129, 144, 256
-0.973701, 113, 25, 176, 88
-0.973728, 257, 305, 320, 432
-0.973926, 289, 209, 352, 336
-0.973932, 165, 1, 196, 128
-0.973997, 249, 249, 312, 312
-0.974054, 289, 97, 352, 160
-0.974131, 113, 257, 240, 384
-0.974173, 161, 17, 288, 80
-0.974187, 241, 129, 368, 256
-0.974234, 209, 369, 272, 432
-0.974347, 249, 417, 312, 480
-0.974688, 241, 97, 368, 160
-0.974791, 145, 49, 208, 176
-0.974804, 209, 73, 272, 136
-0.975162, 249, 273, 312, 336
-0.975561, 137, 337, 200, 400
-0.975636, 121, 161, 184, 288
-0.975894, 77, 1, 108, 128
-0.976322, 225, 289, 288, 416
-0.976401, 305, 337, 368, 464
-0.976546, 41, 81, 104, 208
-0.976571, 217, 225, 280, 480
-0.976647, 33, 17, 160, 80
-0.976803, 81, 25, 208, 88
-0.976842, 81, 81, 144, 208
-0.976849, 65, 1, 96, 128
-0.976945, 209, 1, 272, 256
-0.977178, 121, 1, 152, 64
-0.977341, 161, 241, 224, 368
-0.977376, 281, 337, 344, 464
-0.977385, 281, 401, 344, 464
-0.977584, 257, 1, 320, 256
-0.977661, 217, 113, 280, 240
-0.977686, 169, 81, 232, 208
-0.977693, 153, 1, 184, 128
-0.977802, 145, 177, 272, 304
-0.977839, 265, 225, 328, 480
-0.977926, 145, 393, 208, 456
-0.978097, 209, 17, 336, 80
-0.978377, 49, 289, 176, 416
-0.978412, 249, 209, 312, 336
-0.978747, 89, 1, 120, 128
-0.978814, 241, 385, 368, 448
-0.978835, 305, 417, 368, 480
-0.9789, 233, 369, 296, 432
-0.978919, 225, 177, 352, 304
-0.979029, 177, 369, 304, 432
-0.979336, 197, 321, 228, 448
-0.979496, 249, 57, 312, 120
-0.9795, 273, 353, 336, 416
-0.979506, 289, 33, 352, 160
-0.979621, 121, 177, 184, 240
-0.979662, 185, 1, 248, 256
-0.979691, 277, 1, 308, 128
-0.979704, 249, 161, 312, 288
-0.979742, 105, 345, 168, 408
-0.979819, 1, 305, 64, 432
-0.979824, 209, 73, 336, 136
-0.979872, 177, 1, 208, 128
-0.979942, 177, 321, 240, 384
-0.98007, 81, 97, 208, 224
-0.980116, 197, 385, 228, 448
-0.980338, 165, 25, 196, 88
-0.980371, 97, 161, 160, 288
-0.980385, 53, 1, 84, 128
-0.980502, 217, 305, 280, 368
-0.98052, 161, 49, 224, 112
-0.980623, 249, 393, 280, 456
-0.980819, 305, 65, 368, 320
-0.98088, 1, 145, 64, 272
-0.980966, 1, 33, 64, 96
-0.981045, 257, 81, 320, 144
-0.981052, 1, 1, 64, 480
-0.981075, 337, 97, 368, 160
-0.981125, 121, 97, 184, 224
-0.98117, 137, 1, 200, 256
-0.981231, 241, 361, 368, 424
-0.981259, 193, 401, 256, 464
-0.981265, 181, 17, 212, 80
-0.981318, 301, 81, 332, 208
-0.98133, 249, 297, 312, 360
-0.981348, 185, 225, 248, 480
-0.981372, 121, 257, 184, 384
-0.981394, 269, 265, 300, 328
-0.981467, 85, 17, 116, 80
-0.981726, 73, 17, 104, 80
-0.981805, 161, 313, 288, 376
-0.981814, 129, 377, 256, 440
-0.981847, 265, 369, 296, 432
-0.981918, 73, 337, 136, 464
-0.981986, 1, 241, 64, 368
-0.981992, 141, 1, 172, 128
-0.982066, 1, 161, 64, 416
-0.982134, 113, 1, 176, 256
-0.982209, 345, 33, 375, 160
-0.982249, 201, 17, 232, 144
-0.982303, 1, 201, 64, 264
-0.98234, 145, 193, 208, 320
-0.982387, 161, 1, 224, 256
-0.98239, 269, 337, 300, 464
-0.982396, 277, 241, 308, 368
-0.982403, 193, 49, 256, 112
-0.982424, 233, 1, 264, 128
-0.982478, 193, 241, 256, 368
-0.982503, 189, 17, 220, 144
-0.982609, 177, 321, 208, 448
-0.982718, 61, 1, 92, 64
-0.982759, 121, 385, 184, 448
-0.982848, 257, 329, 320, 392
-0.982858, 217, 105, 280, 168
-0.982915, 45, 9, 76, 72
-0.982941, 273, 257, 336, 320
-0.982977, 241, 225, 304, 288
-0.983043, 49, 209, 176, 336
-0.9831, 341, 81, 372, 208
-0.98311, 185, 1, 248, 64
-0.983117, 317, 81, 348, 208
-0.983152, 101, 17, 132, 80
-0.983201, 209, 25, 240, 88
-0.983247, 273, 297, 336, 360
-0.983268, 101, 1, 132, 128
-0.983291, 129, 41, 256, 104
-0.983324, 313, 73, 375, 136
-0.983368, 41, 65, 104, 320
-0.983461, 29, 9, 60, 72
-0.983512, 9, 1, 40, 64
-0.983516, 153, 25, 184, 88
-0.983581, 1, 353, 64, 416
-0.983671, 89, 65, 152, 320
-0.98381, 113, 329, 240, 392
-0.983819, 137, 49, 200, 112
-0.983826, 313, 1, 375, 64
-0.983844, 9, 329, 72, 392
-0.983894, 213, 17, 244, 144
-0.983934, 165, 321, 196, 448
-0.984073, 81, 41, 144, 104
-0.984109, 1, 257, 64, 320
-0.984133, 161, 65, 288, 128
-0.984169, 33, 33, 96, 96
-0.984286, 225, 297, 352, 360
-0.984287, 113, 1, 144, 128
-0.984388, 225, 193, 288, 320
-0.98444, 89, 193, 152, 256
-0.984459, 265, 393, 296, 456
-0.984492, 49, 345, 176, 408
-0.984509, 321, 97, 352, 160
-0.984513, 185, 353, 248, 416
-0.984568, 41, 177, 104, 304
-0.984607, 301, 97, 332, 160
-0.984617, 41, 353, 104, 480
-0.984648, 201, 1, 264, 480
-0.984652, 41, 1, 72, 128
-0.984835, 209, 49, 336, 112
-0.984842, 189, 361, 220, 424
-0.984867, 193, 417, 320, 480
-0.985007, 241, 225, 304, 480
-0.98504, 225, 249, 288, 312
-0.985142, 261, 289, 292, 352
-0.98521, 137, 161, 200, 416
-0.985213, 289, 57, 352, 120
-0.985221, 33, 289, 96, 416
-0.985275, 297, 201, 360, 264
-0.985277, 1, 225, 64, 288
-0.985317, 297, 129, 360, 256
-0.985319, 221, 17, 252, 80
-0.985319, 57, 41, 120, 104
-0.985373, 41, 129, 104, 256
-0.9854, 129, 1, 160, 128
-0.985408, 145, 161, 208, 224
-0.985476, 225, 281, 288, 344
-0.985579, 281, 65, 344, 320
-0.985582, 197, 25, 228, 88
-0.985664, 249, 1, 280, 128
-0.985699, 73, 145, 136, 272
-0.985743, 161, 225, 224, 480
-0.985744, 73, 193, 136, 320
-0.985902, 233, 1, 296, 256
-0.985911, 137, 25, 168, 88
-0.986046, 149, 377, 180, 440
-0.986153, 153, 321, 184, 448
-0.986209, 329, 81, 360, 208
-0.986322, 65, 1, 128, 256
-0.986373, 241, 329, 368, 392
-0.986379, 185, 73, 248, 136
-0.98639, 245, 353, 276, 480
-0.986447, 281, 225, 344, 288
-0.986512, 297, 377, 360, 440
-0.986515, 185, 393, 216, 456
-0.986533, 73, 161, 136, 416
-0.986594, 1, 321, 128, 384
-0.986636, 313, 121, 375, 184
-0.986734, 161, 89, 288, 152
-0.986748, 161, 137, 288, 200
-0.986961, 97, 161, 160, 416
-0.987023, 81, 49, 208, 112
-0.987035, 193, 257, 320, 320
-0.987051, 141, 321, 172, 448
-0.987061, 129, 1, 192, 480
-0.987071, 145, 97, 208, 224
-0.987121, 33, 81, 96, 144
-0.987139, 33, 41, 160, 104
-0.987158, 81, 169, 144, 232
-0.987196, 1, 361, 128, 424
-0.987204, 209, 305, 240, 432
-0.987235, 249, 273, 280, 336
-0.9873, 257, 33, 320, 96
-0.987375, 169, 297, 232, 360
-0.987405, 281, 249, 312, 312
-0.987424, 217, 129, 280, 192
-0.987428, 129, 401, 256, 464
-0.987454, 145, 145, 208, 272
-0.987474, 173, 329, 204, 392
-0.987537, 241, 369, 272, 432
-0.987539, 81, 345, 144, 408
-0.987577, 33, 177, 160, 240
-0.987585, 57, 329, 120, 392
-0.987589, 177, 233, 304, 296
-0.987593, 1, 281, 64, 344
-0.98761, 49, 353, 112, 416
-0.987663, 261, 257, 292, 384
-0.987665, 289, 329, 352, 392
-0.987729, 49, 225, 112, 352
-0.987791, 257, 337, 288, 464
-0.987815, 13, 353, 44, 480
-0.98783, 125, 25, 156, 88
-0.987883, 225, 345, 288, 408
-0.987901, 97, 209, 224, 336
-0.987981, 97, 289, 160, 416
-0.987999, 105, 49, 168, 112
-0.988009, 177, 289, 304, 352
-0.988014, 209, 225, 272, 288
-0.988041, 241, 121, 368, 184
-0.988141, 5, 353, 36, 416
-0.988182, 137, 337, 168, 400
-0.988201, 149, 401, 180, 464
-0.988203, 225, 417, 288, 480
-0.98826, 237, 65, 268, 192
-0.9884, 277, 9, 308, 72
-0.988407, 177, 345, 304, 408
-0.988425, 137, 177, 168, 304
-0.988488, 25, 361, 88, 424
-0.988511, 1, 177, 64, 240
-0.988586, 241, 305, 272, 432
-0.988598, 1, 1, 32, 128
-0.988614, 313, 337, 375, 400
-0.988695, 97, 209, 160, 336
-0.988697, 149, 337, 180, 400
-0.988742, 241, 217, 368, 280
-0.988753, 81, 385, 208, 448
-0.988771, 105, 1, 168, 480
-0.988781, 113, 201, 176, 264
-0.988821, 41, 193, 104, 448
-0.988832, 29, 1, 60, 128
-0.988896, 145, 185, 208, 248
-0.988935, 49, 1, 112, 480
-0.988961, 73, 289, 136, 416
-0.988978, 137, 49, 168, 176
-0.988995, 117, 49, 148, 176
-0.989008, 237, 401, 268, 464
-0.989055, 1, 305, 32, 432
-0.989086, 289, 1, 352, 480
-0.989146, 17, 153, 144, 216
-0.989192, 41, 209, 104, 272
-0.989192, 113, 409, 176, 472
-0.989235, 161, 1, 224, 480
-0.98926, 177, 361, 208, 424
-0.989282, 217, 49, 280, 112
-0.989282, 241, 409, 368, 472
-0.989295, 233, 17, 264, 80
-0.989343, 273, 97, 336, 224
-0.989351, 265, 313, 296, 376
-0.989442, 41, 185, 104, 248
-0.989587, 65, 201, 192, 264
-0.989613, 49, 233, 112, 296
-0.989636, 1, 305, 64, 368
-0.989668, 81, 1, 144, 480
-0.989684, 89, 321, 152, 384
-0.989761, 121, 153, 184, 216
-0.989768, 137, 9, 200, 40
-0.989771, 161, 113, 288, 176
-0.98978, 129, 337, 160, 464
-0.98978, 225, 193, 352, 256
-0.989784, 193, 397, 256, 428
-0.989817, 173, 385, 204, 448
-0.989822, 153, 385, 216, 416
-0.989835, 145, 161, 272, 224
-0.989841, 129, 17, 375, 80
-0.989842, 145, 305, 208, 368
-0.989845, 169, 25, 232, 56
-0.989853, 289, 401, 320, 464
-0.989853, 33, 81, 160, 144
-0.989853, 257, 201, 320, 264
-0.989906, 209, 377, 240, 440
-0.989915, 65, 145, 192, 208
-0.98992, 157, 49, 188, 176
-0.989937, 217, 97, 280, 352
-0.989942, 61, 25, 92, 88
-0.989959, 121, 241, 184, 304
-0.989965, 1, 9, 256, 72
-0.989994, 229, 377, 260, 440
-0.989999, 257, 401, 320, 432
-0.990034, 161, 89, 224, 152
-0.990058, 113, 81, 240, 144
-0.99007, 1, 25, 32, 88
-0.990086, 225, 305, 256, 432
-0.990087, 177, 145, 240, 272
-0.990096, 105, 49, 136, 176
-0.990143, 301, 33, 332, 160
-0.990147, 233, 73, 264, 136
-0.990174, 297, 161, 360, 416
-0.990177, 41, 81, 72, 208
-0.990191, 113, 353, 240, 416
-0.990206, 33, 329, 96, 392
-0.990217, 161, 129, 224, 384
-0.990222, 241, 129, 304, 384
-0.990262, 25, 1, 88, 480
-0.990285, 313, 1, 375, 480
-0.990296, 89, 145, 152, 208
-0.990306, 1, 233, 128, 296
-0.990316, 297, 209, 328, 336
-0.990361, 265, 1, 296, 128
-0.990366, 97, 177, 224, 240
-0.990374, 193, 289, 256, 352
-0.990402, 257, 417, 288, 480
-0.990404, 145, 397, 208, 428
-0.990408, 277, 393, 308, 456
-0.99042, 285, 337, 316, 400
-0.990431, 217, 381, 280, 412
-0.990437, 197, 321, 228, 384
-0.990444, 169, 49, 200, 176
-0.99046, 297, 177, 360, 240
-0.990479, 153, 373, 216, 404
-0.990485, 289, 33, 352, 96
-0.990531, 257, 113, 320, 176
-0.990534, 193, 97, 256, 160
-0.99057, 17, 1, 48, 128
-0.990571, 177, 385, 240, 416
-0.990585, 241, 225, 272, 352
-0.990587, 121, 81, 184, 144
-0.990609, 241, 305, 272, 368
-0.990626, 145, 265, 272, 328
-0.990645, 41, 161, 104, 224
-0.990653, 145, 29, 208, 60
-0.990662, 253, 361, 284, 424
-0.990663, 177, 13, 240, 44
-0.990696, 257, 389, 320, 420
-0.990702, 1, 281, 128, 344
-0.990772, 17, 201, 144, 264
-0.990781, 169, 145, 232, 208
-0.990797, 105, 25, 168, 56
-0.990799, 225, 409, 288, 440
-0.990807, 217, 17, 280, 48
-0.990815, 65, 21, 128, 52
-0.99082, 289, 281, 320, 344
-0.990826, 269, 345, 300, 408
-0.990831, 169, 249, 232, 312
-0.990831, 173, 417, 204, 480
-0.990857, 297, 289, 360, 416
-0.99087, 297, 337, 328, 400
-0.990882, 241, 421, 304, 452
-0.990911, 313, 101, 375, 132
-0.990915, 241, 273, 368, 336
-0.99093, 193, 25, 256, 56
-0.990978, 265, 285, 328, 316
-0.991022, 257, 13, 320, 44
-0.991067, 161, 417, 224, 448
-0.991069, 33, 17, 96, 48
-0.991095, 257, 1, 320, 480
-0.991095, 97, 1, 160, 32
-0.991105, 289, 81, 320, 208
-0.991119, 1, 1, 64, 256
-0.991131, 257, 177, 320, 240
-0.991174, 281, 353, 312, 480
-0.991199, 129, 393, 375, 456
-0.99126, 237, 97, 268, 160
-0.991265, 217, 397, 280, 428
-0.991328, 225, 153, 352, 216
-0.991338, 233, 81, 296, 144
-0.991395, 265, 373, 328, 404
-0.991399, 237, 113, 268, 240
-0.991416, 189, 257, 220, 384
-0.991434, 1, 377, 64, 440
-0.991446, 185, 37, 248, 68
-0.991477, 289, 97, 352, 128
-0.99151, 201, 193, 264, 320
-0.991511, 161, 49, 224, 80
-0.991516, 125, 169, 156, 232
-0.991521, 177, 373, 240, 404
-0.991546, 249, 253, 312, 284
-0.991576, 217, 313, 280, 344
-0.991593, 257, 325, 320, 356
-0.991627, 233, 273, 296, 304
-0.991638, 201, 73, 264, 104
-0.991645, 297, 425, 360, 456
-0.991658, 153, 177, 184, 304
-0.991701, 241, 297, 304, 328
-0.99171, 273, 413, 336, 444
-0.99171, 225, 353, 256, 480
-0.991743, 1, 1, 64, 32
-0.991743, 1, 13, 64, 44
-0.991763, 257, 265, 320, 296
-0.991764, 289, 1, 320, 128
-0.991771, 185, 53, 248, 84
-0.991782, 161, 329, 224, 360
-0.991795, 289, 1, 352, 64
-0.991811, 193, 1, 224, 64
-0.991816, 121, 341, 184, 372
-0.991824, 273, 361, 336, 392
-0.991825, 185, 413, 248, 444
-0.991831, 89, 49, 120, 176
-0.991841, 241, 249, 368, 312
-0.991893, 209, 93, 272, 124
-0.991921, 1, 33, 64, 64
-0.991923, 81, 81, 144, 144
-0.991925, 81, 41, 144, 72
-0.991927, 33, 37, 96, 68
-0.991939, 241, 285, 304, 316
-0.991942, 257, 209, 288, 336
-0.991954, 289, 257, 320, 384
-0.991962, 185, 321, 248, 352
-0.991978, 161, 329, 192, 392
-0.991986, 145, 185, 272, 248
-0.991991, 141, 97, 172, 224
-0.992001, 113, 25, 144, 88
-0.992009, 89, 217, 152, 280
-0.992016, 1, 321, 32, 384
-0.992024, 121, 45, 184, 76
-0.99208, 161, 417, 192, 480
-0.992113, 89, 349, 152, 380
-0.992142, 1, 257, 128, 320
-0.992158, 137, 409, 200, 440
-0.992169, 265, 297, 328, 328
-0.992172, 153, 361, 216, 392
-0.992184, 249, 81, 312, 112
-0.992188, 249, 9, 280, 72
-0.992201, 185, 129, 248, 384
-0.992204, 49, 5, 112, 36
-0.992221, 209, 65, 240, 128
-0.992242, 297, 445, 360, 476
-0.992244, 173, 49, 204, 112
-0.992244, 257, 241, 288, 304
-0.992246, 57, 41, 120, 72
-0.992247, 313, 125, 375, 156
-0.99226, 229, 49, 260, 112
-0.99226, 161, 393, 192, 456
-0.992268, 113, 185, 176, 216
-0.992285, 249, 113, 312, 240
-0.992292, 249, 433, 312, 464
-0.992294, 337, 409, 368, 472
-0.992299, 225, 257, 288, 288
-0.992334, 25, 225, 88, 352
-0.992352, 73, 1, 136, 32
-0.992362, 137, 425, 200, 456
-0.992368, 33, 85, 96, 116
-0.992374, 297, 325, 360, 356
-0.992395, 205, 1, 236, 64
-0.992397, 1, 281, 64, 312
-0.992407, 257, 45, 320, 76
-0.992421, 265, 349, 328, 380
-0.992421, 225, 1, 288, 480
-0.992425, 1, 201, 64, 232
-0.992425, 225, 369, 288, 400
-0.992426, 241, 309, 304, 340
-0.992439, 305, 413, 368, 444
-0.992446, 169, 397, 232, 428
-0.992453, 333, 33, 364, 160
-0.992453, 9, 345, 72, 376
-0.992453, 273, 437, 336, 468
-0.992472, 313, 25, 375, 56
-0.992472, 249, 65, 312, 96
-0.992474, 165, 9, 196, 40
-0.992479, 89, 197, 152, 228
-0.992484, 201, 429, 264, 460
-0.992488, 65, 357, 128, 388
-0.992495, 121, 381, 184, 412
-0.992505, 145, 441, 208, 472
-0.992509, 313, 313, 375, 376
-0.992512, 17, 129, 144, 192
-0.992517, 249, 237, 312, 268
-0.992536, 9, 357, 72, 388
-0.992541, 217, 201, 280, 264
-0.992543, 209, 53, 272, 84
-0.992552, 137, 193, 200, 224
-0.992553, 281, 309, 344, 340
-0.992558, 217, 289, 280, 320
-0.992563, 217, 129, 280, 160
-0.992578, 129, 321, 375, 384
-0.992585, 313, 89, 375, 120
-0.992596, 209, 241, 240, 368
-0.992597, 129, 417, 375, 480
-0.992598, 189, 49, 220, 112
-0.992606, 273, 253, 336, 284
-0.992606, 257, 337, 320, 368
-0.992616, 197, 25, 228, 56
-0.992618, 297, 393, 360, 424
-0.992638, 289, 221, 352, 252
-0.992643, 1, 233, 64, 264
-0.992654, 217, 109, 280, 140
-0.992674, 289, 381, 352, 412
-0.992677, 289, 85, 352, 116
-0.992679, 49, 213, 112, 244
-0.992682, 1, 217, 64, 248
-0.992684, 201, 389, 232, 420
-0.992685, 249, 409, 280, 440
-0.992688, 185, 25, 216, 56
-0.992694, 257, 93, 320, 124
-0.9927, 1, 17, 375, 80
-0.992701, 1, 113, 64, 176
-0.992705, 177, 361, 240, 392
-0.992713, 265, 389, 296, 420
-0.992719, 1, 253, 64, 284
-0.992724, 137, 177, 168, 240
-0.992732, 313, 9, 375, 40
-0.992736, 249, 105, 312, 136
-0.99274, 41, 361, 104, 392
-0.992742, 265, 269, 296, 300
-0.992744, 173, 25, 204, 56
-0.992745, 161, 89, 224, 120
-0.992747, 297, 205, 360, 236
-0.992749, 297, 361, 360, 392
-0.992753, 177, 13, 208, 44
-0.992758, 337, 337, 368, 464
-0.99277, 9, 333, 72, 364
-0.992773, 209, 21, 240, 52
-0.992775, 1, 353, 32, 480
-0.992777, 113, 89, 176, 120
-0.992786, 9, 81, 72, 208
-0.992792, 257, 209, 320, 240
-0.992798, 313, 25, 375, 88
-0.992811, 189, 373, 220, 404
-0.992817, 233, 65, 296, 192
-0.992827, 17, 1, 48, 32
-0.992858, 25, 1, 88, 32
-0.992865, 129, 273, 192, 304
-0.992866, 113, 313, 176, 376
-0.99287, 1, 265, 64, 296
-0.99287, 121, 393, 184, 424
-0.992874, 185, 1, 248, 32
-0.992885, 257, 25, 320, 56
-0.99289, 177, 69, 240, 100
-0.99289, 113, 417, 176, 448
-0.992891, 81, 85, 144, 116
-0.992896, 345, 121, 375, 184
-0.992898, 225, 21, 256, 52
-0.99291, 217, 301, 280, 332
-0.992911, 313, 137, 375, 168
-0.992913, 249, 361, 312, 392
-0.992915, 245, 397, 276, 428
-0.992916, 161, 429, 224, 460
-0.992922, 185, 93, 248, 124
-0.99293, 129, 73, 375, 136
-0.992953, 253, 273, 284, 304
-0.992956, 189, 385, 220, 416
-0.992977, 189, 401, 220, 432
-0.993001, 33, 57, 96, 120
-0.993006, 269, 281, 300, 312
-0.99302, 121, 1, 152, 32
-0.993025, 85, 21, 116, 52
-0.993029, 189, 13, 220, 44
-0.99303, 153, 5, 184, 36
-0.993035, 341, 101, 372, 132
-0.993035, 149, 385, 180, 416
-0.993055, 129, 25, 160, 56
-0.993059, 277, 257, 308, 288
-0.993063, 153, 29, 184, 60
-0.993063, 149, 373, 180, 404
-0.993064, 25, 353, 56, 480
-0.993066, 169, 169, 232, 232
-0.993069, 257, 137, 320, 200
-0.993073, 97, 241, 160, 304
-0.993104, 97, 21, 128, 52
-0.99311, 301, 97, 332, 128
-0.993112, 261, 417, 292, 448
-0.993115, 245, 381, 276, 412
-0.993116, 33, 137, 96, 200
-0.993121, 73, 21, 104, 52
-0.993127, 149, 409, 180, 440
-0.993132, 257, 285, 288, 316
-0.993134, 33, 13, 64, 44
-0.993143, 61, 17, 92, 48
-0.993145, 45, 17, 76, 48
-0.993147, 297, 209, 328, 272
-0.99315, 133, 5, 164, 36
-0.993153, 117, 25, 148, 56
-0.993167, 141, 29, 172, 60
-0.993171, 205, 37, 236, 68
-0.993172, 109, 1, 140, 32
-0.993177, 269, 345, 300, 376
-0.993177, 341, 125, 372, 156
-0.993179, 277, 13, 308, 44
-0.993179, 229, 401, 260, 432
-0.993187, 217, 153, 280, 216
-0.993192, 5, 1, 36, 32
-0.993202, 189, 361, 220, 392
-0.993215, 73, 1, 104, 32
-0.993219, 153, 425, 184, 456
-0.993221, 281, 433, 312, 464
-0.993226, 261, 317, 292, 348
-0.993229, 265, 377, 296, 408
-0.99324, 217, 397, 248, 428
-0.993244, 129, 245, 160, 276
-0.993247, 229, 73, 260, 104
-0.993249, 17, 13, 48, 44
-0.993251, 277, 269, 308, 300
-0.993252, 249, 297, 280, 328
-0.993256, 289, 349, 320, 380
-0.993261, 189, 49, 220, 80
-0.993271, 213, 53, 244, 84
-0.993279, 205, 377, 236, 408
-0.993279, 177, 1, 192, 64
-0.993282, 177, 389, 208, 420
-0.993297, 225, 49, 256, 176
-0.993299, 177, 49, 208, 80
-0.993305, 217, 33, 248, 64
-0.993308, 265, 297, 296, 328
-0.993308, 265, 401, 296, 432
-0.993315, 171, 1, 186, 64
-0.993317, 273, 357, 304, 388
-0.993319, 149, 397, 180, 428
-0.99332, 325, 97, 356, 128
-0.993322, 181, 413, 212, 444
-0.993327, 249, 309, 280, 340
-0.993329, 193, 37, 224, 68
-0.993331, 213, 317, 244, 348
-0.993342, 257, 253, 288, 284
-0.993342, 301, 361, 332, 424
-0.993345, 285, 285, 316, 316
-0.993346, 165, 177, 196, 304
-0.993348, 161, 413, 192, 444
-0.993348, 337, 417, 368, 448
-0.99335, 269, 429, 300, 460
-0.993356, 137, 373, 168, 404
-0.993361, 289, 89, 320, 152
-0.993362, 313, 97, 344, 128
-0.993362, 201, 49, 232, 80
-0.993364, 297, 337, 328, 368
-0.993364, 305, 361, 336, 392
-0.993364, 193, 413, 224, 444
-0.993365, 281, 329, 312, 360
-0.993366, 253, 369, 284, 400
-0.993366, 1, 357, 32, 388
-0.99337, 61, 5, 92, 36
-0.993372, 53, 37, 84, 68
-0.993372, 181, 329, 212, 360
-0.993373, 185, 321, 216, 384
-0.993374, 285, 245, 316, 276
-0.993377, 293, 425, 324, 456
-0.993378, 13, 357, 44, 388
-0.99338, 225, 401, 256, 464
-0.993383, 137, 45, 168, 76
-0.993387, 89, 41, 120, 72
-0.993392, 177, 361, 208, 392
-0.993392, 301, 65, 332, 128
-0.993392, 33, 41, 288, 104
-0.993396, 157, 337, 188, 368
-0.993398, 197, 325, 228, 356
-0.993404, 13, 329, 44, 392
-0.993406, 17, 33, 48, 64
-0.993406, 41, 37, 72, 68
-0.993407, 229, 385, 260, 416
-0.993408, 185, 417, 216, 480
-0.993409, 245, 285, 276, 316
-0.993412, 293, 441, 324, 472
-0.993415, 217, 381, 248, 412
-0.993418, 5, 13, 36, 44
-0.993419, 29, 1, 60, 32
-0.99342, 237, 93, 268, 124
-0.993423, 101, 41, 132, 72
-0.993425, 117, 245, 148, 276
-0.993435, 313, 177, 375, 304
-0.993436, 65, 37, 96, 68
-0.99344, 161, 397, 288, 428
-0.993441, 1, 345, 32, 376
-0.993441, 265, 333, 296, 364
-0.993442, 113, 137, 240, 200
-0.993443, 305, 429, 336, 460
-0.993443, 289, 361, 320, 392
-0.993444, 249, 17, 280, 48
-0.993445, 237, 17, 268, 48
-0.993446, 129, 341, 160, 372
-0.993446, 117, 345, 148, 376
-0.993448, 325, 425, 356, 456
-0.993449, 141, 341, 172, 372
-0.99345, 93, 353, 124, 384
-0.993452, 237, 113, 268, 144
-0.993455, 9, 333, 40, 364
-0.993456, 5, 33, 36, 64
-0.993457, 265, 13, 296, 44
-0.993462, 141, 421, 172, 452
-0.993463, 149, 45, 180, 76
-0.993472, 309, 337, 340, 464
-0.993474, 249, 337, 280, 400
-0.993482, 273, 289, 304, 416
-0.993489, 159, 1, 174, 64
-0.993489, 117, 161, 148, 288
-0.993524, 81, 417, 208, 480
-0.993524, 213, 353, 244, 480
-0.993531, 317, 417, 348, 480
-0.993545, 237, 121, 268, 184
-0.993646, 165, 1, 180, 64
-0.993651, 129, 233, 256, 296
-0.993686, 221, 89, 252, 152
-0.993706, 17, 105, 144, 168
-0.993746, 121, 201, 152, 264
-0.993747, 65, 233, 192, 296
-0.993748, 193, 81, 224, 208
-0.993766, 1, 81, 375, 144
-0.993841, 153, 1, 168, 64
-0.99385, 293, 353, 324, 480
-0.993856, 77, 49, 108, 176
-0.993864, 49, 313, 176, 376
-0.993873, 49, 33, 80, 96
-0.99388, 113, 209, 240, 272
-0.993904, 113, 177, 144, 240
-0.993938, 147, 1, 162, 64
-0.99394, 1, 81, 256, 144
-0.993997, 345, 33, 375, 96
-0.994, 313, 33, 344, 160
-0.994007, 101, 41, 132, 104
-0.994011, 139, 1, 154, 64
-0.994042, 229, 225, 260, 352
-0.994052, 1, 145, 256, 208
-0.994061, 261, 9, 292, 72
-0.994069, 9, 297, 40, 360
-0.994081, 93, 145, 124, 272
-0.994094, 1, 161, 32, 288
-0.994123, 177, 193, 240, 320
-0.994154, 161, 209, 288, 272
-0.994181, 281, 57, 312, 120
-0.99419, 157, 97, 188, 224
-0.994191, 125, 337, 156, 400
-0.994216, 117, 337, 148, 464
-0.994226, 193, 361, 208, 424
-0.994232, 237, 273, 268, 336
-0.994237, 81, 5, 208, 36
-0.994241, 313, 169, 344, 232
-0.994258, 237, 209, 268, 272
-0.99433, 133, 1, 148, 64
-0.99434, 89, 337, 120, 464
-0.99435, 237, 177, 268, 304
-0.994363, 301, 289, 332, 416
-0.994386, 201, 353, 232, 416
-0.994406, 101, 337, 132, 464
-0.994428, 337, 1, 368, 64
-0.994458, 129, 369, 375, 432
-0.994463, 129, 97, 160, 224
-0.994471, 89, 41, 120, 104
-0.994487, 161, 381, 288, 412
-0.994501, 1, 41, 375, 104
-0.994546, 273, 289, 304, 352
-0.994556, 1, 385, 375, 448
-0.994564, 57, 305, 88, 432
-0.994579, 269, 417, 300, 480
-0.994581, 237, 233, 268, 296
-0.99463, 133, 257, 164, 384
-0.994636, 193, 17, 320, 48
-0.994639, 137, 369, 168, 432
-0.994664, 177, 257, 208, 384
-0.994688, 113, 29, 240, 60
-0.994701, 281, 361, 312, 424
-0.994756, 1, 329, 375, 392
-0.99476, 113, 297, 240, 360
-0.994766, 161, 409, 288, 440
-0.994775, 267, 385, 282, 448
-0.994807, 149, 257, 180, 384
-0.994825, 1, 193, 32, 256
-0.994831, 181, 81, 212, 208
-0.994834, 65, 345, 320, 408
-0.994856, 285, 193, 316, 320
-0.99488, 333, 129, 364, 256
-0.99489, 337, 73, 368, 136
-0.99491, 17, 305, 48, 432
-0.994921, 5, 249, 36, 312
-0.994925, 25, 113, 56, 240
-0.99494, 189, 73, 220, 136
-0.994974, 127, 1, 142, 64
-0.994974, 281, 313, 312, 376
-0.994987, 117, 97, 148, 224
-0.994998, 161, 49, 192, 112
-0.995011, 37, 353, 68, 480
-0.995016, 241, 393, 368, 424
-0.995033, 313, 193, 344, 256
-0.995044, 153, 369, 168, 432
-0.995065, 1, 169, 256, 232
-0.99507, 293, 313, 324, 376
-0.995083, 241, 97, 368, 128
-0.995097, 1, 145, 375, 208
-0.99516, 97, 273, 224, 336
-0.995164, 129, 49, 375, 112
-0.995164, 105, 97, 136, 224
-0.995215, 301, 409, 332, 472
-0.99522, 241, 177, 272, 240
-0.995236, 1, 385, 128, 448
-0.995246, 161, 177, 192, 240
-0.99527, 113, 385, 240, 416
-0.99528, 37, 33, 68, 96
-0.995302, 65, 353, 96, 480
-0.995328, 49, 25, 176, 56
-0.995344, 77, 1, 92, 64
-0.995371, 69, 1, 84, 64
-0.995393, 19, 1, 34, 64
-0.995395, 129, 9, 256, 40
-0.995402, 85, 345, 116, 408
-0.995406, 41, 89, 72, 152
-0.995419, 351, 97, 366, 160
-0.995431, 305, 129, 336, 256
-0.995432, 183, 9, 198, 72
-0.995442, 1, 113, 375, 176
-0.995451, 219, 17, 234, 80
-0.995452, 101, 345, 132, 408
-0.995463, 257, 377, 272, 440
-0.995491, 5, 273, 36, 336
-0.9955, 77, 337, 108, 464
-0.995505, 301, 185, 332, 248
-0.99551, 137, 401, 168, 464
-0.995526, 129, 169, 375, 232
-0.995543, 21, 361, 52, 424
-0.995561, 201, 385, 216, 448
-0.995587, 31, 9, 46, 72
-0.995606, 113, 105, 240, 168
-0.995611, 25, 1, 40, 64
-0.995677, 81, 289, 112, 416
-0.995698, 257, 161, 288, 288
-0.995802, 63, 1, 78, 64
-0.99582, 1, 105, 256, 168
-0.995823, 49, 257, 176, 320
-0.995823, 345, 97, 360, 160
-0.995834, 1, 17, 128, 48
-0.995891, 213, 17, 228, 80
-0.995895, 33, 1, 160, 32
-0.995899, 85, 17, 100, 80
-0.995924, 99, 17, 114, 80
-0.995926, 45, 9, 60, 72
-0.995941, 165, 25, 180, 88
-0.995965, 259, 273, 274, 336
-0.995971, 177, 321, 304, 352
-0.995978, 91, 17, 106, 80
-0.995991, 105, 177, 136, 304
-0.996011, 1, 409, 375, 472
-0.996018, 175, 25, 190, 88
-0.996026, 193, 429, 320, 460
-0.996031, 1, 369, 256, 432
-0.996039, 37, 9, 52, 72
-0.996041, 159, 25, 174, 88
-0.996043, 241, 381, 368, 412
-0.996048, 209, 81, 336, 112
-0.996053, 113, 49, 240, 80
-0.996062, 241, 13, 368, 44
-0.996076, 105, 17, 120, 80
-0.996152, 169, 97, 200, 224
-0.996153, 13, 1, 28, 64
-0.996165, 269, 265, 284, 328
-0.996175, 193, 401, 208, 464
-0.996196, 241, 409, 368, 440
-0.996207, 225, 17, 240, 80
-0.996208, 281, 257, 296, 320
-0.996213, 207, 25, 222, 88
-0.996215, 121, 17, 136, 80
-0.996227, 55, 9, 70, 72
-0.996227, 1, 169, 375, 232
-0.996234, 115, 17, 130, 80
-0.996243, 1, 241, 32, 368
-0.996252, 265, 289, 280, 352
-0.99626, 151, 25, 166, 88
-0.996271, 1, 37, 128, 68
-0.99632, 1, 353, 375, 416
-0.996321, 5, 1, 20, 64
-0.996324, 161, 257, 192, 384
-0.996392, 33, 321, 288, 384
-0.996394, 145, 25, 160, 88
-0.996401, 189, 25, 204, 88
-0.996401, 339, 97, 354, 160
-0.996406, 97, 249, 352, 312
-0.996415, 259, 401, 274, 464
-0.996434, 251, 401, 266, 464
-0.996434, 113, 397, 240, 428
-0.996438, 129, 145, 375, 208
-0.996466, 113, 373, 240, 404
-0.996468, 209, 57, 336, 88
-0.996475, 231, 17, 246, 80
-0.99649, 289, 249, 304, 312
-0.996512, 267, 313, 282, 376
-0.996528, 333, 97, 348, 160
-0.996561, 129, 97, 375, 160
-0.996565, 49, 41, 176, 72
-0.99658, 267, 361, 282, 424
-0.996581, 321, 337, 352, 464
-0.996586, 85, 193, 116, 320
-0.996601, 317, 97, 332, 160
-0.996605, 145, 429, 272, 460
-0.996607, 65, 273, 320, 336
-0.996612, 5, 329, 20, 392
-0.99663, 213, 65, 244, 192
-0.996635, 307, 97, 322, 160
-0.996645, 201, 25, 216, 88
-0.996649, 1, 417, 256, 480
-0.99667, 357, 97, 372, 160
-0.996679, 249, 113, 280, 240
-0.996694, 317, 129, 348, 256
-0.996697, 33, 393, 288, 456
-0.996708, 1, 341, 128, 372
-0.996743, 139, 25, 154, 88
-0.996746, 61, 49, 92, 176
-0.996754, 275, 257, 290, 320
-0.996757, 3, 305, 18, 368
-0.996764, 129, 121, 375, 184
-0.996766, 241, 109, 368, 140
-0.996769, 323, 97, 338, 160
-0.996771, 1, 281, 16, 344
-0.996791, 301, 89, 316, 152
-0.996812, 53, 353, 84, 480
-0.996818, 285, 281, 300, 344
-0.996834, 273, 385, 288, 448
-0.996837, 145, 69, 272, 100
-0.996857, 29, 161, 60, 288
-0.996861, 65, 209, 320, 272
-0.996886, 143, 337, 158, 400
-0.996928, 195, 25, 210, 88
-0.996944, 1, 25, 16, 88
-0.996965, 113, 333, 240, 364
-0.996971, 241, 225, 272, 480
-0.996981, 345, 129, 375, 256
-0.996985, 161, 369, 288, 400
-0.996989, 247, 73, 262, 136
-0.99699, 193, 257, 320, 288
-0.996993, 93, 97, 124, 224
-0.99701, 157, 393, 172, 456
-0.997011, 241, 369, 368, 400
-0.997011, 153, 337, 168, 400
-0.997015, 225, 309, 352, 340
-0.997017, 101, 289, 132, 416
-0.997035, 291, 9, 306, 72
-0.997038, 311, 337, 326, 400
-0.997039, 65, 345, 192, 376
-0.997045, 345, 1, 375, 256
-0.997046, 191, 329, 206, 392
-0.997053, 285, 305, 316, 432
-0.997059, 193, 41, 320, 72
-0.997062, 245, 377, 260, 440
-0.997071, 279, 393, 294, 456
-0.997089, 79, 25, 94, 88
-0.9971, 1, 297, 256, 360
-0.997105, 133, 25, 148, 88
-0.997117, 127, 177, 142, 240
-0.997144, 241, 129, 368, 160
-0.997156, 237, 1, 268, 256
-0.997157, 261, 345, 276, 408
-0.997169, 245, 401, 260, 464
-0.997194, 177, 29, 304, 60
-0.997197, 33, 357, 160, 388
-0.997202, 1, 233, 256, 296
-0.997212, 265, 409, 280, 472
-0.997225, 45, 305, 76, 432
-0.99723, 161, 93, 288, 124
-0.997237, 161, 337, 176, 400
-0.997241, 71, 25, 86, 88
-0.997244, 187, 385, 202, 448
-0.997245, 185, 329, 200, 392
-0.997249, 277, 297, 292, 360
-0.997262, 251, 377, 266, 440
-0.997268, 201, 321, 216, 384
-0.997292, 179, 9, 194, 40
-0.997293, 187, 409, 202, 472
-0.9973, 121, 209, 184, 336
-0.997301, 81, 145, 112, 272
-0.997311, 145, 265, 272, 296
-0.997332, 207, 385, 222, 448
-0.997333, 181, 1, 212, 256
-0.997339, 241, 357, 368, 388
-0.997353, 281, 353, 296, 416
-0.997357, 1, 193, 375, 256
-0.997358, 215, 377, 230, 440
-0.997372, 237, 377, 252, 440
-0.997392, 241, 341, 368, 372
-0.997399, 205, 1, 220, 64
-0.997408, 33, 85, 160, 116
-0.997411, 259, 305, 274, 368
-0.997418, 357, 33, 372, 96
-0.997426, 301, 65, 332, 320
-0.997427, 45, 177, 76, 304
-0.997435, 121, 257, 152, 384
-0.997439, 291, 281, 306, 344
-0.997442, 129, 297, 375, 360
-0.997447, 221, 41, 236, 104
-0.997455, 161, 141, 288, 172
-0.997456, 295, 337, 310, 400
-0.99746, 9, 353, 24, 416
-0.997463, 253, 273, 268, 336
-0.997466, 251, 97, 266, 160
-0.997488, 239, 401, 254, 464
-0.997503, 127, 25, 142, 88
-0.997506, 1, 417, 128, 480
-0.997523, 237, 17, 252, 80
-0.997535, 227, 393, 242, 456
-0.997539, 351, 409, 366, 472
-0.997539, 7, 25, 22, 88
-0.997544, 161, 53, 288, 84
-0.997553, 309, 177, 340, 304
-0.997556, 193, 1, 224, 256
-0.997557, 163, 401, 178, 464
-0.997563, 241, 325, 368, 356
-0.997576, 161, 333, 288, 364
-0.997582, 241, 1, 368, 32
-0.997597, 245, 17, 260, 80
-0.997599, 259, 241, 274, 304
-0.997611, 355, 1, 370, 64
-0.997617, 17, 229, 144, 260
-0.997619, 273, 353, 288, 416
-0.99763, 223, 369, 238, 432
-0.997632, 197, 49, 212, 112
-0.997636, 141, 1, 172, 256
-0.997638, 63, 25, 78, 88
-0.99764, 197, 25, 212, 56
-0.997642, 97, 89, 224, 120
-0.997648, 305, 353, 320, 416
-0.997657, 215, 41, 230, 104
-0.99766, 185, 225, 216, 480
-0.99766, 289, 401, 304, 464
-0.997665, 205, 1, 236, 256
-0.997671, 161, 81, 288, 112
-0.997674, 241, 25, 368, 56
-0.997675, 177, 5, 304, 36
-0.997677, 189, 25, 204, 56
-0.99769, 153, 417, 168, 480
-0.997693, 177, 245, 304, 276
-0.997693, 173, 321, 188, 384
-0.997695, 201, 361, 216, 424
-0.997699, 299, 401, 314, 464
-0.997699, 17, 177, 144, 208
-0.997714, 225, 97, 256, 224
-0.997737, 267, 337, 282, 400
-0.997744, 203, 25, 218, 56
-0.997745, 209, 69, 336, 100
-0.99775, 153, 373, 168, 404
-0.997751, 241, 429, 368, 460
-0.997754, 33, 197, 160, 228
-0.997756, 205, 225, 236, 480
-0.997762, 1, 269, 128, 300
-0.997768, 241, 225, 368, 256
-0.997773, 267, 389, 282, 420
-0.997779, 257, 1, 288, 256
-0.997813, 209, 25, 224, 56
-0.997829, 225, 1, 256, 256
-0.997836, 203, 389, 218, 420
-0.997837, 25, 1, 40, 32
-0.997838, 221, 21, 236, 52
-0.997848, 313, 65, 344, 320
-0.99786, 113, 417, 240, 448
-0.99786, 277, 225, 308, 480
-0.997872, 161, 153, 288, 184
-0.997873, 259, 397, 274, 428
-0.997873, 185, 13, 200, 44
-0.997885, 215, 25, 230, 56
-0.997892, 161, 109, 288, 140
-0.997903, 193, 441, 320, 472
-0.997907, 193, 273, 320, 304
-0.99791, 197, 401, 212, 432
-0.997923, 113, 241, 240, 272
-0.997923, 261, 409, 276, 440
-0.997926, 193, 361, 208, 392
-0.997929, 267, 289, 282, 320
-0.997944, 225, 297, 352, 328
-0.997973, 1, 213, 128, 244
-0.997995, 161, 1, 192, 256
-0.998002, 241, 205, 368, 236
-0.99801, 65, 121, 192, 184
-0.99803, 17, 165, 144, 196
-0.99804, 161, 129, 288, 160
-0.998045, 273, 193, 304, 320
-0.998058, 1, 289, 128, 320
-0.998061, 267, 273, 282, 304
-0.998088, 173, 9, 188, 40
-0.998089, 227, 21, 242, 52
-0.998093, 265, 225, 296, 480
-0.998127, 19, 1, 34, 32
-0.998132, 277, 265, 292, 296
-0.998148, 193, 389, 208, 420
-0.998149, 183, 29, 198, 60
-0.998149, 259, 277, 274, 308
-0.998166, 177, 309, 304, 340
-0.998167, 289, 193, 320, 448
-0.99817, 145, 165, 272, 196
-0.998176, 329, 65, 360, 320
-0.99818, 161, 233, 288, 264
-0.998185, 81, 1, 112, 256
-0.998188, 81, 201, 208, 232
-0.998191, 193, 373, 208, 404
-0.998206, 113, 65, 144, 320
-0.998209, 225, 149, 352, 180
-0.99821, 225, 285, 352, 316
-0.998212, 351, 101, 366, 132
-0.998226, 191, 405, 206, 436
-0.998236, 229, 225, 260, 480
-0.998281, 273, 285, 288, 316
-0.998294, 1, 329, 128, 360
-0.998295, 81, 217, 208, 248
-0.998297, 287, 285, 302, 316
-0.998299, 287, 253, 302, 284
-0.998299, 53, 17, 84, 32
-0.998299, 233, 395, 264, 410
-0.998299, 93, 23, 124, 38
-0.998299, 145, 23, 176, 38
-0.9983, 233, 407, 264, 422
-0.998301, 177, 403, 208, 418
-0.998302, 309, 441, 340, 456
-0.998303, 237, 19, 268, 34
-0.998304, 117, 89, 148, 104
-0.998304, 193, 409, 224, 424
-0.998304, 191, 13, 206, 44
-0.998304, 213, 321, 244, 336
-0.998305, 125, 27, 156, 42
-0.998305, 289, 285, 320, 300
-0.998306, 257, 17, 288, 32
-0.998307, 289, 279, 320, 294
-0.998307, 273, 369, 304, 384
-0.998308, 301, 365, 332, 380
-0.998309, 257, 413, 288, 428
-0.998309, 309, 99, 340, 114
-0.998309, 277, 419, 308, 434
-0.998309, 201, 23, 232, 38
-0.998309, 177, 363, 208, 378
-0.99831, 133, 89, 164, 104
-0.99831, 201, 377, 232, 392
-0.998311, 193, 35, 224, 50
-0.998311, 65, 325, 192, 356
-0.998312, 221, 55, 252, 70
-0.998313, 253, 265, 284, 280
-0.998315, 217, 33, 248, 48
-0.998317, 65, 19, 96, 34
-0.998318, 273, 433, 304, 448
-0.998318, 289, 357, 320, 372
-0.998318, 17, 37, 48, 52
-0.998318, 81, 21, 112, 36
-0.998319, 149, 401, 180, 416
-0.998319, 201, 325, 232, 340
-0.99832, 131, 1, 146, 32
-0.998321, 37, 13, 68, 28
-0.998321, 133, 245, 148, 276
-0.998322, 177, 421, 208, 436
-0.998324, 33, 241, 160, 272
-0.998324, 181, 33, 212, 48
-0.998325, 1, 355, 32, 370
-0.998326, 41, 39, 72, 54
-0.998326, 209, 55, 240, 70
-0.998326, 337, 419, 368, 434
-0.998326, 265, 311, 296, 326
-0.998326, 265, 303, 296, 318
-0.998326, 149, 415, 180, 430
-0.998326, 273, 363, 304, 378
-0.998327, 281, 425, 312, 440
-0.998327, 277, 269, 308, 284
-0.998328, 97, 21, 112, 52
-0.998328, 285, 439, 316, 454
-0.998329, 161, 337, 192, 352
-0.998329, 149, 393, 180, 408
-0.998329, 91, 21, 106, 52
-0.998332, 133, 345, 164, 360
-0.998332, 193, 53, 224, 68
-0.998332, 161, 425, 192, 440
-0.998333, 161, 417, 192, 432
-0.998333, 185, 397, 216, 412
-0.998333, 173, 51, 204, 66
-0.998335, 289, 365, 320, 380
-0.998336, 1, 7, 32, 22
-0.998336, 81, 149, 208, 180
-0.998337, 181, 331, 212, 346
-0.998338, 29, 37, 60, 52
-0.998338, 221, 401, 252, 416
-0.998339, 189, 415, 220, 430
-0.998339, 277, 263, 308, 278
-0.998339, 161, 49, 192, 64
-0.998339, 261, 425, 292, 440
-0.99834, 169, 369, 200, 384
-0.998341, 5, 35, 36, 50
-0.998341, 259, 385, 274, 416
-0.998342, 245, 385, 276, 400
-0.998342, 145, 341, 176, 356
-0.998344, 265, 383, 296, 398
-0.998344, 65, 277, 192, 308
-0.998344, 141, 381, 172, 396
-0.998344, 181, 369, 212, 384
-0.998347, 121, 347, 152, 362
-0.998347, 149, 407, 180, 422
-0.998348, 149, 49, 180, 64
-0.998349, 25, 13, 56, 28
-0.99835, 105, 45, 136, 60
-0.99835, 129, 5, 160, 20
-0.998351, 329, 101, 360, 116
-0.998351, 253, 225, 284, 480
-0.998351, 117, 3, 148, 18
-0.998352, 213, 395, 244, 410
-0.998352, 145, 7, 176, 22
-0.998353, 93, 43, 124, 58
-0.998353, 249, 283, 280, 298
-0.998353, 297, 99, 328, 114
-0.998355, 261, 295, 292, 310
-0.998356, 189, 403, 220, 418
-0.998357, 17, 7, 48, 22
-0.998358, 265, 407, 296, 422
-0.998359, 137, 47, 168, 62
-0.998359, 233, 401, 264, 416
-0.99836, 117, 45, 148, 60
-0.99836, 253, 405, 268, 436
-0.998361, 273, 289, 304, 304
-0.998361, 53, 39, 84, 54
-0.998361, 125, 247, 156, 262
-0.998361, 265, 401, 296, 416
-0.998363, 101, 65, 132, 320
-0.998363, 73, 41, 104, 56
-0.998363, 189, 363, 220, 378
-0.998364, 225, 241, 352, 272
-0.998365, 285, 257, 316, 272
-0.998368, 117, 1, 132, 32
-0.99837, 163, 29, 178, 60
-0.998374, 233, 21, 248, 52
-0.998375, 149, 387, 180, 402
-0.998376, 257, 275, 288, 290
-0.998379, 105, 1, 136, 16
-0.99838, 185, 21, 216, 36
-0.998383, 149, 375, 180, 390
-0.998386, 67, 17, 82, 48
-0.998387, 341, 101, 372, 116
-0.998388, 201, 385, 232, 400
-0.998389, 131, 25, 146, 56
-0.99839, 149, 421, 180, 436
-0.998392, 189, 375, 220, 390
-0.998393, 129, 1, 160, 256
-0.998394, 141, 25, 156, 56
-0.998395, 257, 289, 288, 304
-0.998396, 277, 13, 308, 28
-0.998396, 221, 23, 252, 38
-0.998396, 197, 397, 228, 412
-0.998399, 245, 395, 276, 410
-0.9984, 253, 419, 284, 434
-0.998407, 167, 9, 182, 40
-0.998407, 157, 27, 188, 42
-0.998416, 111, 21, 126, 52
-0.998416, 241, 257, 368, 288
-0.998416, 125, 1, 140, 32
-0.998416, 177, 27, 240, 42
-0.998419, 189, 385, 220, 400
-0.998425, 265, 395, 296, 410
-0.998428, 5, 333, 20, 364
-0.998432, 157, 29, 172, 60
-0.998435, 265, 365, 280, 396
-0.998437, 61, 17, 76, 48
-0.998437, 245, 409, 276, 424
-0.998438, 73, 17, 88, 48
-0.998438, 269, 283, 300, 298
-0.998441, 269, 377, 284, 408
-0.998442, 125, 25, 140, 56
-0.998444, 97, 313, 224, 344
-0.998446, 169, 21, 200, 36
-0.99845, 37, 13, 52, 44
-0.998451, 225, 165, 352, 196
-0.998451, 141, 5, 156, 36
-0.998452, 217, 225, 248, 480
-0.998453, 79, 17, 94, 48
-0.998455, 165, 11, 196, 26
-0.998458, 23, 13, 38, 44
-0.998459, 265, 321, 280, 352
-0.998461, 265, 389, 296, 404
-0.998462, 147, 25, 162, 56
-0.998463, 121, 193, 152, 448
-0.998463, 257, 297, 272, 328
-0.998464, 103, 21, 118, 52
-0.998464, 161, 209, 288, 240
-0.998466, 289, 9, 304, 40
-0.998466, 177, 29, 192, 60
-0.998467, 153, 385, 168, 416
-0.998468, 3, 321, 18, 352
-0.99847, 221, 37, 236, 68
-0.998475, 17, 1, 48, 16
-0.998476, 161, 5, 176, 36
-0.998477, 85, 21, 100, 52
-0.998478, 281, 281, 296, 312
-0.998481, 245, 401, 276, 416
-0.998482, 169, 29, 184, 60
-0.99849, 117, 25, 132, 56
-0.998492, 17, 149, 144, 180
-0.998496, 205, 29, 236, 44
-0.998497, 193, 399, 256, 414
-0.998498, 189, 391, 220, 406
-0.998499, 201, 391, 232, 406
-0.998502, 269, 341, 284, 372
-0.998505, 41, 1, 72, 256
-0.998506, 1, 317, 128, 348
-0.998511, 149, 5, 164, 36
-0.998512, 161, 221, 288, 252
-0.998515, 97, 181, 224, 212
-0.998518, 301, 97, 316, 128
-0.998519, 153, 395, 216, 410
-0.99852, 51, 17, 66, 48
-0.99852, 193, 353, 320, 384
-0.998527, 177, 391, 240, 406
-0.998527, 275, 365, 290, 396
-0.998528, 257, 407, 320, 422
-0.998529, 155, 5, 170, 36
-0.998531, 145, 409, 208, 424
-0.998531, 225, 393, 288, 408
-0.998532, 97, 161, 128, 416
-0.998533, 153, 385, 216, 400
-0.998534, 189, 27, 220, 42
-0.99854, 33, 73, 160, 104
-0.99854, 1, 369, 128, 400
-0.998543, 271, 421, 286, 452
-0.998544, 31, 1, 46, 32
-0.998547, 153, 27, 216, 42
-0.998548, 1, 257, 128, 288
-0.998549, 265, 301, 280, 332
-0.99855, 87, 1, 102, 32
-0.998556, 257, 15, 320, 30
-0.998556, 245, 77, 260, 108
-0.998557, 271, 301, 286, 332
-0.998561, 197, 13, 212, 44
-0.998561, 203, 377, 218, 408
-0.998563, 169, 27, 200, 42
-0.998564, 153, 401, 216, 416
-0.998565, 153, 375, 216, 390
-0.998567, 257, 401, 320, 416
-0.998571, 275, 377, 290, 408
-0.998575, 225, 177, 352, 208
-0.998576, 241, 431, 304, 446
-0.998577, 225, 399, 288, 414
-0.998578, 257, 393, 320, 408
-0.998578, 5, 345, 20, 376
-0.998581, 313, 101, 375, 116
-0.998581, 137, 9, 200, 24
-0.998582, 43, 13, 58, 44
-0.998582, 241, 441, 368, 472
-0.998584, 1, 305, 16, 336
-0.998584, 177, 19, 240, 34
-0.998585, 217, 405, 280, 420
-0.998585, 353, 125, 368, 156
-0.998586, 357, 41, 372, 72
-0.998587, 145, 21, 208, 36
-0.998589, 89, 1, 152, 16
-0.998589, 295, 357, 310, 388
-0.998592, 229, 397, 244, 428
-0.998594, 361, 101, 375, 132
-0.998594, 145, 189, 272, 220
-0.998596, 145, 419, 208, 434
-0.998598, 185, 401, 200, 432
-0.998598, 257, 287, 320, 302
-0.998598, 89, 45, 152, 60
-0.998598, 25, 39, 88, 54
-0.998601, 215, 37, 230, 68
-0.998601, 265, 385, 328, 400
-0.998601, 145, 441, 272, 472
-0.998601, 217, 49, 232, 80
-0.998603, 49, 41, 112, 56
-0.998604, 113, 229, 240, 260
-0.998604, 113, 47, 176, 62
-0.998604, 137, 49, 200, 64
-0.998608, 161, 417, 176, 448
-0.998608, 217, 21, 280, 36
-0.998609, 1, 37, 64, 52
-0.998616, 155, 429, 170, 460
-0.998617, 225, 411, 288, 426
-0.998617, 161, 51, 224, 66
-0.998618, 177, 385, 240, 400
-0.998618, 133, 161, 164, 416
-0.998619, 241, 295, 304, 310
-0.998619, 257, 129, 288, 384
-0.99862, 65, 1, 80, 32
-0.998624, 201, 433, 264, 448
-0.998624, 233, 425, 296, 440
-0.998625, 153, 369, 216, 384
-0.998627, 177, 379, 240, 394
-0.998628, 193, 405, 256, 420
-0.998631, 185, 415, 248, 430
-0.998633, 297, 437, 360, 452
-0.998634, 265, 295, 328, 310
-0.998635, 217, 387, 280, 402
-0.998636, 265, 365, 328, 380
-0.998636, 243, 405, 258, 436
-0.998638, 161, 425, 224, 440
-0.99864, 113, 5, 176, 20
-0.99864, 49, 19, 112, 34
-0.998641, 161, 161, 192, 416
-0.998641, 201, 393, 264, 408
-0.998644, 177, 373, 240, 388
-0.998645, 289, 99, 352, 114
-0.998645, 193, 55, 256, 70
-0.998646, 211, 389, 226, 420
-0.998646, 265, 415, 328, 430
-0.998647, 257, 379, 320, 394
-0.998647, 241, 259, 304, 274
-0.998648, 65, 161, 192, 192
-0.998649, 217, 317, 280, 332
-0.99865, 223, 53, 238, 84
-0.99865, 249, 267, 312, 282
-0.998652, 129, 29, 192, 44
-0.998652, 257, 331, 320, 346
-0.998653, 201, 381, 264, 396
-0.998653, 105, 347, 168, 362
-0.998654, 25, 17, 88, 32
-0.998655, 193, 321, 208, 448
-0.998655, 73, 23, 136, 38
-0.998656, 249, 253, 312, 268
-0.998658, 201, 27, 264, 42
-0.998659, 249, 437, 312, 452
-0.99866, 209, 95, 272, 110
-0.99866, 185, 35, 248, 50
-0.998661, 257, 273, 320, 288
-0.998661, 203, 13, 218, 44
-0.998664, 105, 27, 168, 42
-0.998665, 161, 33, 224, 48
-0.998666, 265, 359, 328, 374
-0.998666, 257, 57, 320, 72
-0.998667, 225, 417, 288, 432
-0.998667, 289, 65, 320, 320
-0.998668, 145, 337, 208, 352
-0.998668, 173, 225, 204, 480
-0.998669, 155, 405, 170, 436
-0.99867, 277, 429, 292, 460
-0.998671, 233, 289, 296, 304
-0.998672, 241, 301, 304, 316
-0.998673, 185, 325, 248, 340
-0.998673, 129, 343, 192, 358
-0.998673, 145, 91, 208, 106
-0.998674, 105, 89, 168, 104
-0.998676, 273, 265, 336, 280
-0.998678, 113, 189, 176, 204
-0.998678, 81, 353, 144, 368
-0.998678, 1, 281, 16, 312
-0.998678, 217, 295, 280, 310
-0.99868, 233, 277, 296, 292
-0.99868, 17, 137, 144, 168
-0.99868, 113, 375, 176, 390
-0.998682, 201, 73, 264, 88
-0.998682, 9, 363, 72, 378
-0.998683, 313, 35, 375, 50
-0.998683, 1, 293, 16, 324
-0.998683, 113, 381, 176, 396
-0.998684, 249, 83, 312, 98
-0.998684, 249, 89, 312, 104
-0.998684, 273, 303, 336, 318
-0.998685, 209, 89, 272, 104
-0.998685, 73, 39, 136, 54
-0.998685, 311, 97, 326, 128
-0.998686, 121, 277, 184, 292
-0.998686, 249, 97, 264, 128
-0.998687, 281, 429, 344, 444
-0.998687, 169, 331, 232, 346
-0.998688, 1, 11, 64, 26
-0.998688, 1, 1, 64, 16
-0.998688, 217, 139, 280, 154
-0.998689, 257, 281, 320, 296
-0.99869, 177, 13, 240, 28
-0.99869, 265, 371, 328, 386
-0.99869, 1, 225, 375, 288
-0.998691, 9, 357, 72, 372
-0.998691, 225, 379, 288, 394
-0.998693, 257, 51, 320, 66
-0.998693, 257, 339, 320, 354
-0.998693, 265, 421, 328, 436
-0.998694, 211, 53, 226, 84
-0.998694, 257, 225, 320, 240
-0.998694, 249, 97, 312, 112
-0.998694, 65, 359, 128, 374
-0.998695, 177, 93, 240, 108
-0.998695, 325, 97, 340, 128
-0.998696, 289, 219, 352, 234
-0.998696, 209, 261, 272, 276
-0.998697, 297, 401, 360, 416
-0.998699, 249, 73, 312, 88
-0.998699, 249, 107, 312, 122
-0.998699, 121, 391, 184, 406
-0.9987, 277, 301, 292, 332
-0.998701, 1, 287, 64, 302
-0.998701, 217, 57, 280, 72
-0.998701, 241, 311, 304, 326
-0.998702, 249, 247, 312, 262
-0.998702, 89, 203, 152, 218
-0.998702, 233, 371, 296, 386
-0.998702, 1, 243, 64, 258
-0.998702, 29, 13, 44, 44
-0.998703, 9, 351, 72, 366
-0.998703, 1, 207, 64, 222
-0.998704, 267, 405, 282, 436
-0.998706, 347, 125, 362, 156
-0.998711, 317, 97, 332, 128
-0.998712, 65, 413, 192, 444
-0.998713, 283, 265, 298, 296
-0.998713, 11, 1, 26, 32
-0.998713, 197, 49, 212, 80
-0.998714, 109, 161, 140, 416
-0.998715, 357, 25, 372, 56
-0.998715, 145, 177, 272, 208
-0.998726, 339, 97, 354, 128
-0.99873, 217, 381, 232, 412
-0.998731, 285, 433, 300, 464
-0.998738, 313, 361, 328, 392
-0.998739, 237, 425, 252, 456
-0.99874, 17, 13, 32, 44
-0.998742, 181, 1, 196, 128
-0.998743, 187, 49, 202, 80
-0.998745, 351, 417, 366, 448
-0.998747, 225, 193, 352, 224
-0.998775, 177, 293, 304, 324
-0.998782, 1, 1, 32, 256
-0.998788, 65, 377, 192, 408
-0.998789, 241, 273, 368, 304
-0.998789, 97, 429, 224, 460
-0.998795, 69, 1, 100, 256
-0.998805, 97, 253, 224, 284
-0.998822, 85, 161, 116, 416
-0.998828, 113, 345, 240, 376
-0.998839, 77, 1, 92, 128
-0.998846, 83, 1, 98, 128
-0.998854, 49, 225, 80, 480
-0.998855, 241, 37, 368, 68
-0.998859, 345, 97, 375, 352
-0.998862, 97, 449, 224, 480
-0.998872, 145, 161, 176, 416
-0.998874, 71, 1, 86, 128
-0.998882, 89, 1, 104, 128
-0.998887, 237, 97, 268, 352
-0.998904, 1, 305, 128, 336
-0.998916, 95, 1, 110, 128
-0.998919, 17, 125, 144, 156
-0.998919, 97, 77, 224, 108
-0.99893, 113, 277, 240, 308
-0.998934, 175, 1, 190, 128
-0.998947, 113, 361, 240, 392
-0.998951, 153, 337, 168, 464
-0.998956, 169, 1, 184, 128
-0.998964, 1, 225, 32, 480
-0.99897, 355, 33, 370, 160
-0.998973, 159, 1, 174, 128
-0.998974, 65, 1, 80, 128
-0.999021, 105, 1, 120, 128
-0.999035, 61, 225, 92, 480
-0.999058, 153, 1, 168, 128
-0.999059, 199, 321, 214, 448
-0.999065, 25, 1, 56, 256
-0.999075, 361, 33, 375, 160
-0.999078, 165, 321, 180, 448
-0.999081, 59, 1, 74, 128
-0.999082, 309, 81, 324, 208
-0.999082, 291, 1, 306, 128
-0.999087, 73, 193, 104, 448
-0.999095, 113, 1, 128, 128
-0.999096, 205, 17, 220, 144
-0.999097, 187, 1, 202, 128
-0.999099, 245, 1, 260, 128
-0.999103, 239, 1, 254, 128
-0.99911, 195, 17, 210, 144
-0.999119, 301, 161, 332, 416
-0.999134, 1, 241, 16, 368
-0.999137, 211, 17, 226, 144
-0.999146, 263, 337, 278, 464
-0.99915, 49, 281, 176, 344
-0.99915, 269, 337, 284, 464
-0.999154, 123, 1, 138, 128
-0.999158, 319, 81, 334, 208
-0.999165, 287, 241, 302, 368
-0.999167, 129, 301, 256, 332
-0.999167, 1, 389, 128, 420
-0.999169, 65, 265, 192, 296
-0.999173, 281, 241, 296, 368
-0.999175, 133, 1, 148, 128
-0.999176, 183, 321, 198, 448
-0.999177, 143, 1, 158, 128
-0.999178, 97, 65, 224, 96
-0.999183, 329, 81, 344, 208
-0.999186, 303, 81, 318, 208
-0.999187, 217, 17, 232, 144
-0.999196, 5, 289, 20, 416
-0.999211, 343, 81, 358, 208
-0.999212, 113, 137, 240, 168
-0.999212, 53, 1, 68, 128
-0.999224, 37, 193, 68, 448
-0.999224, 271, 257, 286, 384
-0.999225, 207, 321, 222, 448
-0.999228, 17, 113, 144, 144
-0.999235, 355, 81, 370, 208
-0.999238, 209, 129, 240, 384
-0.999238, 11, 337, 26, 464
-0.999248, 255, 1, 270, 128
-0.999253, 349, 81, 364, 208
-0.999258, 173, 97, 204, 352
-0.999266, 65, 229, 192, 260
-0.999271, 335, 81, 350, 208
-0.999288, 43, 1, 58, 128
-0.99929, 233, 1, 248, 128
-0.999297, 113, 125, 240, 156
-0.999302, 223, 17, 238, 144
-0.999306, 317, 193, 348, 448
-0.999322, 349, 17, 364, 144
-0.999329, 275, 337, 290, 464
-0.999332, 249, 65, 264, 192
-0.999336, 1, 97, 32, 352
-0.999339, 185, 129, 216, 384
-0.999345, 297, 209, 312, 336
-0.999356, 217, 305, 232, 432
-0.999357, 297, 81, 312, 208
-0.999358, 5, 1, 20, 128
-0.999368, 285, 1, 300, 128
-0.999368, 143, 49, 158, 176
-0.999369, 153, 49, 168, 176
-0.99937, 257, 337, 272, 464
-0.999371, 53, 65, 84, 320
-0.999371, 17, 97, 144, 128
-0.99938, 143, 321, 158, 448
-0.99938, 163, 49, 178, 176
-0.999381, 159, 321, 174, 448
-0.999381, 37, 1, 52, 128
-0.999386, 117, 49, 132, 176
-0.999387, 135, 49, 150, 176
-0.999396, 225, 305, 240, 432
-0.999398, 241, 305, 256, 432
-0.999401, 125, 49, 140, 176
-0.999402, 273, 1, 288, 128
-0.999413, 245, 353, 260, 480
-0.999413, 197, 97, 228, 352
-0.999415, 29, 1, 44, 128
-0.999415, 233, 305, 248, 432
-0.999418, 361, 81, 375, 208
-0.999421, 265, 257, 280, 384
-0.999425, 19, 1, 34, 128
-0.999427, 11, 1, 26, 128
-0.999428, 267, 1, 282, 128
-0.999429, 107, 49, 122, 176
-0.999429, 13, 225, 44, 480
-0.999441, 279, 1, 294, 128
-0.999443, 281, 353, 296, 480
-0.999445, 257, 257, 272, 384
-0.999446, 171, 49, 186, 176
-0.999449, 251, 225, 266, 352
-0.999452, 251, 129, 266, 256
-0.999462, 177, 321, 192, 448
-0.999466, 1, 265, 375, 328
-0.999469, 261, 1, 276, 128
-0.999472, 295, 257, 310, 384
-0.999475, 177, 49, 192, 176
-0.999487, 301, 33, 316, 160
-0.999488, 243, 65, 258, 192
-0.999492, 183, 49, 198, 176
-0.999493, 143, 161, 158, 288
-0.999495, 235, 353, 250, 480
-0.999496, 47, 81, 62, 208
-0.999502, 259, 209, 274, 336
-0.999505, 155, 177, 170, 304
-0.999505, 303, 193, 318, 320
-0.999505, 99, 49, 114, 176
-0.999505, 165, 177, 180, 304
-0.999512, 29, 97, 60, 352
-0.999517, 251, 353, 266, 480
-0.999518, 67, 39, 82, 54
-0.999519, 291, 367, 306, 382
-0.999519, 55, 39, 70, 54
-0.999519, 153, 97, 168, 224
-0.99952, 351, 419, 366, 434
-0.99952, 287, 285, 302, 300
-0.99952, 359, 101, 374, 116
-0.99952, 73, 41, 88, 56
-0.99952, 129, 3, 144, 18
-0.99952, 11, 9, 26, 24
-0.99952, 209, 393, 224, 408
-0.99952, 155, 387, 170, 402
-0.99952, 299, 443, 314, 458
-0.99952, 161, 7, 176, 22
-0.99952, 265, 333, 280, 348
-0.999521, 37, 37, 52, 52
-0.999521, 273, 361, 288, 376
-0.999521, 141, 89, 156, 104
-0.999522, 109, 43, 124, 58
-0.999522, 131, 45, 146, 60
-0.999522, 357, 35, 372, 50
-0.999522, 265, 381, 280, 396
-0.999522, 139, 5, 154, 20
-0.999522, 171, 49, 186, 64
-0.999523, 339, 101, 354, 116
-0.999523, 137, 47, 152, 62
-0.999523, 3, 319, 18, 334
-0.999524, 15, 35, 30, 50
-0.999525, 193, 375, 208, 390
-0.999525, 109, 1, 124, 16
-0.999525, 283, 433, 298, 448
-0.999525, 187, 417, 202, 432
-0.999526, 269, 421, 284, 436
-0.999526, 205, 53, 220, 68
-0.999526, 259, 383, 274, 398
-0.999527, 185, 31, 200, 46
-0.999527, 247, 305, 262, 432
-0.999527, 165, 419, 180, 434
-0.999527, 251, 409, 266, 424
-0.999529, 257, 301, 272, 316
-0.999529, 85, 41, 100, 56
-0.99953, 327, 101, 342, 116
-0.99953, 121, 1, 136, 16
-0.99953, 103, 43, 118, 58
-0.99953, 197, 257, 212, 384
-0.99953, 1, 55, 16, 70
-0.999531, 243, 437, 258, 452
-0.999531, 169, 9, 184, 24
-0.999531, 229, 353, 244, 480
-0.999532, 29, 1, 44, 16
-0.999532, 149, 47, 164, 62
-0.999532, 119, 45, 134, 60
-0.999532, 273, 301, 288, 316
-0.999532, 21, 35, 36, 50
-0.999533, 61, 39, 76, 54
-0.999533, 301, 99, 316, 114
-0.999533, 165, 49, 180, 64
-0.999533, 39, 145, 54, 272
-0.999533, 333, 101, 348, 116
-0.999534, 5, 341, 20, 356
-0.999534, 275, 381, 290, 396
-0.999535, 277, 429, 292, 444
-0.999535, 155, 7, 170, 22
-0.999535, 189, 401, 204, 416
-0.999535, 275, 283, 290, 298
-0.999537, 189, 49, 204, 176
-0.999537, 357, 43, 372, 58
-0.999538, 277, 267, 292, 282
-0.999538, 79, 41, 94, 56
-0.999539, 309, 33, 324, 160
-0.999539, 287, 289, 302, 416
-0.99954, 263, 283, 278, 298
-0.99954, 125, 45, 140, 60
-0.99954, 291, 13, 306, 28
-0.99954, 191, 257, 206, 384
-0.999541, 223, 241, 238, 368
-0.999541, 265, 339, 280, 354
-0.999541, 3, 331, 18, 346
-0.999541, 155, 415, 170, 430
-0.999541, 193, 383, 208, 398
-0.999542, 143, 47, 158, 62
-0.999544, 151, 289, 166, 416
-0.999545, 277, 289, 292, 416
-0.999545, 251, 403, 266, 418
-0.999545, 217, 353, 232, 480
-0.999545, 297, 337, 312, 464
-0.999547, 37, 13, 52, 28
-0.999548, 3, 325, 18, 340
-0.999548, 273, 293, 288, 308
-0.999549, 229, 431, 244, 446
-0.999549, 233, 401, 248, 416
-0.999549, 227, 23, 242, 38
-0.99955, 189, 19, 204, 34
-0.99955, 5, 347, 20, 362
-0.99955, 267, 275, 282, 290
-0.999551, 263, 417, 278, 432
-0.999552, 227, 397, 242, 412
-0.999553, 289, 437, 304, 452
-0.999554, 257, 295, 272, 310
-0.999554, 191, 407, 206, 422
-0.999555, 171, 177, 186, 304
-0.999555, 267, 405, 282, 420
-0.999557, 203, 385, 218, 400
-0.999557, 287, 353, 302, 480
-0.999558, 259, 277, 274, 292
-0.999558, 163, 97, 178, 224
-0.999559, 17, 353, 32, 480
-0.999562, 279, 303, 294, 318
-0.999564, 153, 381, 168, 396
-0.999565, 203, 397, 218, 412
-0.999565, 269, 283, 284, 298
-0.999566, 289, 255, 304, 270
-0.999567, 25, 353, 40, 480
-0.999569, 165, 27, 180, 42
-0.99957, 193, 413, 208, 428
-0.999571, 237, 429, 252, 444
-0.999572, 353, 101, 368, 116
-0.999572, 1, 305, 375, 368
-0.999573, 267, 295, 282, 310
-0.999573, 193, 389, 208, 404
-0.999574, 141, 97, 156, 224
-0.999577, 125, 161, 140, 288
-0.999577, 115, 1, 130, 16
-0.999579, 221, 31, 236, 46
-0.99958, 89, 49, 104, 176
-0.999581, 155, 421, 170, 436
-0.999581, 259, 393, 274, 408
-0.999583, 281, 283, 296, 298
-0.999584, 319, 33, 334, 160
-0.999584, 237, 49, 252, 176
-0.999585, 257, 405, 272, 420
-0.999587, 181, 19, 196, 34
-0.999591, 267, 393, 282, 408
-0.999594, 197, 407, 212, 422
-0.999598, 221, 25, 236, 40
-0.999599, 191, 369, 206, 384
-0.999599, 13, 1, 44, 256
-0.999607, 131, 245, 146, 260
-0.999609, 265, 289, 280, 304
-0.999612, 197, 401, 212, 416
-0.999616, 171, 25, 186, 40
-0.999619, 215, 27, 230, 42
-0.999622, 209, 27, 224, 42
-0.999627, 151, 375, 166, 390
-0.999628, 179, 11, 194, 26
-0.99963, 23, 1, 38, 16
-0.999632, 225, 129, 256, 384
-0.999637, 203, 27, 218, 42
-0.999638, 191, 363, 206, 378
-0.999639, 269, 387, 284, 402
-0.999641, 259, 411, 274, 426
-0.999656, 257, 399, 272, 414
-0.99966, 181, 25, 196, 40
-0.999662, 203, 391, 218, 406
-0.999663, 197, 27, 212, 42
-0.999674, 193, 395, 208, 410
-0.999681, 191, 27, 206, 42
-0.999742, 277, 1, 308, 256
-0.999759, 273, 145, 336, 272
-0.999772, 73, 97, 104, 352
-0.99988, 41, 97, 72, 352
-0.999981, 329, 193, 360, 448
-1.00002, 277, 129, 308, 384
-1.00011, 25, 193, 56, 448
-1.00046, 345, 193, 375, 448
-1.00143, 13, 129, 44, 384
-1.00361, 73, 241, 136, 368
-1.00382, 313, 225, 375, 352
