1967
-0.213427, 1, 1, 500, 375
-0.281403, 1, 1, 256, 375
-0.337586, 129, 1, 384, 375
-0.354139, 225, 1, 480, 375
-0.360661, 1, 1, 500, 256
-0.403245, 1, 97, 500, 352
-0.581612, 225, 1, 480, 256
-0.658282, 1, 65, 256, 320
-0.661389, 257, 129, 500, 375
-0.674648, 97, 129, 352, 375
-0.702527, 129, 1, 384, 256
-0.822633, 305, 1, 432, 375
-0.843684, 321, 1, 448, 256
-0.847617, 97, 1, 224, 375
-0.850927, 369, 1, 496, 256
-0.853512, 321, 97, 448, 352
-0.857516, 257, 1, 384, 375
-0.860496, 1, 241, 500, 368
-0.861224, 353, 1, 480, 375
-0.862088, 273, 1, 400, 256
-0.863084, 1, 33, 128, 288
-0.864666, 33, 1, 160, 375
-0.866643, 209, 1, 336, 375
-0.868245, 161, 1, 288, 256
-0.870704, 161, 1, 288, 375
-0.872441, 113, 97, 240, 352
-0.875806, 225, 129, 352, 375
-0.87581, 1, 17, 500, 144
-0.880181, 1, 161, 500, 288
-0.886701, 369, 97, 496, 352
-0.886781, 273, 129, 400, 375
-0.887884, 65, 33, 192, 288
-0.895811, 177, 129, 304, 375
-0.898007, 33, 129, 160, 375
-0.899731, 129, 241, 384, 368
-0.911126, 241, 241, 368, 368
-0.913173, 225, 1, 480, 128
-0.915862, 1, 113, 500, 240
-0.917625, 361, 1, 424, 128
-0.917911, 129, 193, 384, 320
-0.919318, 225, 1, 352, 256
-0.923444, 289, 1, 416, 128
-0.925358, 257, 65, 500, 192
-0.926378, 281, 241, 344, 368
-0.926955, 1, 209, 256, 336
-0.927687, 129, 17, 384, 144
-0.928528, 113, 1, 240, 256
-0.930187, 225, 225, 288, 352
-0.93185, 1, 65, 500, 192
-0.932194, 273, 49, 400, 176
-0.934166, 257, 177, 500, 304
-0.934218, 369, 81, 432, 208
-0.934377, 225, 113, 480, 240
-0.934566, 249, 241, 312, 368
-0.934925, 321, 1, 384, 128
-0.935391, 385, 129, 448, 256
-0.935459, 321, 97, 448, 224
-0.936132, 209, 193, 336, 320
-0.936208, 265, 193, 328, 320
-0.936545, 33, 209, 160, 336
-0.936864, 89, 209, 152, 336
-0.937901, 225, 265, 288, 328
-0.938325, 337, 17, 464, 144
-0.939686, 385, 33, 448, 160
-0.940505, 289, 1, 352, 128
-0.940623, 353, 1, 416, 64
-0.941012, 33, 65, 288, 192
-0.941048, 73, 1, 136, 128
-0.942484, 369, 113, 496, 240
-0.942651, 65, 1, 192, 128
-0.942691, 249, 257, 312, 320
-0.942897, 161, 65, 416, 192
-0.944144, 145, 1, 208, 128
-0.944525, 129, 241, 256, 368
-0.944634, 289, 193, 352, 320
-0.945036, 33, 17, 288, 144
-0.946133, 129, 113, 384, 240
-0.946472, 241, 1, 368, 128
-0.946923, 369, 65, 432, 128
-0.947175, 225, 241, 480, 368
-0.947301, 1, 145, 256, 272
-0.947328, 33, 1, 96, 128
-0.947739, 281, 273, 344, 336
-0.948082, 393, 81, 456, 208
-0.948117, 273, 193, 400, 320
-0.948222, 17, 1, 144, 128
-0.948313, 9, 1, 72, 128
-0.948529, 81, 209, 208, 336
-0.94882, 193, 241, 320, 368
-0.948856, 393, 153, 456, 216
-0.949039, 129, 193, 256, 320
-0.949057, 345, 81, 408, 208
-0.949206, 113, 1, 176, 128
-0.949355, 321, 161, 448, 288
-0.950091, 361, 25, 424, 88
-0.950358, 257, 17, 320, 144
-0.950512, 81, 49, 208, 176
-0.951151, 153, 49, 216, 176
-0.951697, 33, 1, 96, 64
-0.952022, 145, 57, 208, 120
-0.952613, 49, 145, 176, 272
-0.952696, 409, 33, 472, 160
-0.952733, 369, 65, 496, 192
-0.952924, 169, 1, 232, 128
-0.953272, 49, 49, 112, 176
-0.953277, 409, 129, 472, 256
-0.953784, 73, 17, 136, 80
-0.954466, 321, 49, 384, 112
-0.954531, 369, 89, 432, 152
-0.954863, 161, 33, 288, 160
-0.955276, 369, 113, 432, 176
-0.955887, 281, 49, 344, 176
-0.956223, 353, 129, 416, 256
-0.956589, 249, 289, 312, 352
-0.957018, 137, 209, 200, 336
-0.957359, 9, 65, 72, 192
-0.957549, 1, 129, 128, 256
-0.957671, 257, 113, 320, 240
-0.957837, 241, 145, 368, 272
-0.958057, 201, 241, 264, 368
-0.958126, 289, 249, 352, 312
-0.958437, 305, 145, 368, 272
-0.959323, 225, 241, 288, 304
-0.959715, 361, 1, 424, 256
-0.959747, 281, 17, 344, 80
-0.959927, 113, 49, 176, 176
-0.9601, 329, 1, 392, 64
-0.9601, 201, 273, 264, 336
-0.960331, 233, 33, 296, 160
-0.960343, 393, 121, 456, 184
-0.960471, 321, 49, 384, 176
-0.960603, 409, 49, 472, 112
-0.960788, 81, 49, 144, 176
-0.961009, 65, 313, 128, 375
-0.961173, 241, 177, 304, 304
-0.961226, 9, 81, 72, 144
-0.961503, 89, 305, 152, 368
-0.961527, 241, 97, 368, 224
-0.961663, 193, 33, 256, 160
-0.961663, 113, 225, 176, 352
-0.961745, 89, 217, 152, 280
-0.961877, 369, 137, 432, 200
-0.962016, 433, 153, 496, 216
-0.962641, 297, 193, 360, 256
-0.962667, 369, 161, 496, 288
-0.962929, 225, 289, 288, 352
-0.963312, 73, 129, 136, 256
-0.96339, 17, 49, 144, 176
-0.963416, 241, 289, 368, 352
-0.963426, 397, 33, 428, 160
-0.963451, 113, 57, 176, 120
-0.964013, 269, 257, 300, 320
-0.964145, 329, 145, 392, 272
-0.964321, 145, 81, 208, 144
-0.964593, 177, 209, 240, 336
-0.964666, 97, 129, 224, 256
-0.964768, 241, 265, 368, 328
-0.964972, 345, 49, 408, 112
-0.965241, 105, 129, 168, 256
-0.965415, 57, 97, 120, 160
-0.965498, 233, 113, 296, 240
-0.965512, 33, 193, 96, 320
-0.965512, 217, 177, 280, 304
-0.965524, 305, 241, 368, 368
-0.965726, 113, 17, 176, 80
-0.965778, 417, 153, 448, 216
-0.965782, 413, 97, 444, 224
-0.965837, 113, 305, 176, 368
-0.965912, 305, 1, 368, 64
-0.966081, 9, 113, 72, 240
-0.966142, 373, 1, 404, 128
-0.966311, 129, 201, 192, 264
-0.966382, 241, 33, 304, 96
-0.966391, 433, 129, 496, 256
-0.966394, 321, 25, 384, 88
-0.966611, 209, 49, 336, 176
-0.96672, 369, 169, 432, 232
-0.96679, 289, 89, 352, 152
-0.966836, 177, 41, 240, 104
-0.966939, 405, 129, 436, 192
-0.967274, 305, 241, 432, 368
-0.967353, 409, 177, 472, 240
-0.967586, 193, 265, 320, 328
-0.967635, 433, 1, 496, 128
-0.967643, 161, 145, 288, 272
-0.967679, 49, 129, 112, 256
-0.967741, 413, 49, 444, 176
-0.967958, 405, 73, 436, 136
-0.967961, 73, 49, 136, 112
-0.968122, 345, 129, 408, 192
-0.968165, 385, 25, 448, 88
-0.968168, 393, 81, 456, 144
-0.968228, 329, 161, 392, 224
-0.968314, 177, 281, 240, 344
-0.968325, 281, 257, 312, 320
-0.968445, 165, 49, 196, 112
-0.96885, 313, 193, 376, 320
-0.968877, 321, 73, 384, 136
-0.969258, 329, 241, 392, 368
-0.969301, 257, 129, 320, 375
-0.969356, 321, 1, 384, 256
-0.969428, 289, 297, 352, 360
-0.969449, 345, 73, 408, 136
-0.969509, 265, 233, 328, 296
-0.969766, 9, 17, 72, 80
-0.969853, 265, 57, 328, 120
-0.969862, 281, 97, 344, 224
-0.96993, 337, 193, 400, 320
-0.970053, 393, 177, 456, 304
-0.97008, 25, 201, 88, 264
-0.97014, 257, 241, 288, 368
-0.970352, 337, 153, 464, 216
-0.970379, 257, 209, 320, 272
-0.970406, 293, 265, 324, 328
-0.970589, 89, 129, 152, 375
-0.970627, 137, 265, 200, 328
-0.970773, 265, 121, 328, 184
-0.970803, 385, 1, 448, 256
-0.97094, 401, 97, 432, 224
-0.971192, 1, 177, 64, 304
-0.971267, 241, 89, 304, 152
-0.971302, 273, 1, 400, 64
-0.971337, 321, 17, 448, 80
-0.971398, 137, 289, 200, 352
-0.971653, 405, 153, 436, 216
-0.971702, 277, 241, 308, 368
-0.971748, 389, 97, 420, 160
-0.97198, 369, 1, 400, 64
-0.971986, 417, 25, 480, 88
-0.97208, 385, 1, 416, 128
-0.972105, 221, 273, 252, 336
-0.972105, 465, 17, 496, 144
-0.972125, 257, 257, 288, 320
-0.972131, 73, 1, 136, 256
-0.972146, 465, 41, 496, 104
-0.972148, 433, 177, 496, 240
-0.97215, 293, 209, 324, 336
-0.972162, 121, 209, 152, 336
-0.972191, 305, 169, 368, 232
-0.97243, 337, 185, 400, 248
-0.972431, 321, 41, 448, 104
-0.972501, 173, 1, 204, 128
-0.972517, 417, 177, 480, 304
-0.97257, 393, 73, 424, 136
-0.972649, 113, 305, 144, 368
-0.972752, 273, 57, 400, 120
-0.972775, 345, 97, 408, 160
-0.972778, 145, 33, 208, 96
-0.97289, 161, 97, 288, 224
-0.972895, 129, 281, 256, 344
-0.972914, 85, 313, 116, 375
-0.972963, 57, 209, 120, 336
-0.973016, 297, 41, 360, 104
-0.973119, 269, 281, 300, 344
-0.973133, 17, 9, 144, 72
-0.973156, 89, 193, 152, 256
-0.973164, 241, 233, 368, 296
-0.973267, 41, 25, 104, 88
-0.973436, 433, 49, 496, 176
-0.973483, 57, 1, 88, 64
-0.973527, 321, 65, 448, 128
-0.973577, 357, 1, 388, 128
-0.973669, 249, 281, 280, 344
-0.973779, 113, 33, 176, 288
-0.973893, 49, 217, 176, 280
-0.973909, 297, 241, 328, 304
-0.973952, 185, 1, 216, 128
-0.97405, 393, 25, 424, 88
-0.974145, 153, 1, 216, 64
-0.974151, 385, 1, 448, 64
-0.974223, 433, 49, 496, 112
-0.974233, 281, 129, 344, 375
-0.974316, 245, 225, 276, 352
-0.974362, 321, 113, 448, 176
-0.974445, 33, 81, 96, 144
-0.974781, 233, 273, 264, 336
-0.974787, 201, 97, 264, 224
-0.97497, 297, 225, 360, 288
-0.975, 177, 57, 208, 120
-0.975101, 105, 273, 168, 336
-0.975174, 369, 65, 496, 128
-0.975286, 405, 49, 436, 112
-0.975501, 369, 97, 432, 352
-0.975503, 305, 273, 368, 336
-0.975511, 297, 1, 328, 128
-0.975513, 433, 153, 464, 216
-0.975656, 389, 81, 420, 208
-0.97576, 233, 129, 296, 375
-0.975879, 329, 1, 360, 128
-0.975979, 1, 193, 64, 256
-0.976018, 177, 113, 240, 240
-0.97611, 381, 1, 412, 64
-0.976136, 49, 57, 112, 120
-0.976178, 393, 121, 424, 184
-0.97628, 217, 217, 280, 280
-0.97633, 9, 1, 72, 256
-0.976516, 349, 25, 380, 88
-0.976628, 321, 89, 448, 152
-0.976661, 169, 65, 232, 128
-0.976672, 185, 1, 248, 256
-0.976692, 241, 209, 368, 272
-0.976693, 313, 249, 376, 312
-0.976715, 65, 73, 192, 136
-0.976735, 433, 33, 496, 288
-0.976762, 353, 49, 384, 112
-0.976765, 369, 177, 432, 304
-0.976801, 121, 177, 184, 240
-0.97699, 241, 1, 304, 256
-0.976992, 93, 1, 124, 64
-0.976997, 297, 1, 360, 256
-0.977018, 65, 185, 128, 248
-0.977032, 113, 249, 240, 312
-0.977043, 305, 129, 368, 375
-0.97705, 129, 161, 192, 288
-0.977054, 157, 33, 188, 160
-0.977069, 241, 9, 304, 72
-0.977172, 153, 1, 216, 256
-0.9772, 49, 33, 112, 288
-0.977217, 273, 33, 400, 96
-0.977237, 269, 193, 300, 320
-0.977268, 73, 73, 136, 136
-0.977277, 49, 97, 176, 224
-0.977321, 393, 97, 456, 352
-0.977332, 201, 1, 264, 64
-0.977453, 469, 153, 500, 216
-0.977495, 185, 249, 248, 312
-0.977498, 193, 33, 224, 96
-0.977498, 357, 73, 388, 136
-0.977551, 153, 57, 184, 120
-0.977588, 281, 193, 312, 320
-0.977744, 381, 65, 412, 128
-0.977788, 65, 217, 128, 280
-0.977843, 137, 225, 200, 288
-0.977912, 161, 41, 288, 104
-0.977954, 217, 169, 280, 232
-0.977982, 113, 81, 176, 144
-0.977983, 229, 209, 260, 336
-0.978071, 217, 313, 280, 375
-0.9781, 9, 169, 72, 232
-0.978101, 69, 1, 100, 64
-0.978106, 105, 129, 168, 192
-0.978161, 137, 97, 200, 352
-0.978168, 309, 241, 340, 368
-0.978238, 313, 1, 344, 128
-0.978305, 145, 1, 208, 375
-0.978316, 281, 281, 312, 344
-0.978362, 9, 1, 40, 128
-0.978375, 101, 313, 132, 375
-0.978383, 81, 281, 144, 344
-0.978449, 81, 9, 112, 72
-0.978482, 389, 129, 420, 256
-0.978489, 297, 129, 360, 192
-0.97851, 73, 121, 136, 184
-0.978557, 241, 113, 304, 176
-0.978563, 417, 89, 448, 152
-0.978603, 425, 73, 488, 136
-0.978652, 345, 97, 408, 352
-0.978777, 297, 1, 360, 375
-0.978794, 457, 161, 488, 224
-0.978834, 433, 129, 496, 192
-0.978844, 49, 265, 176, 328
-0.978865, 265, 81, 328, 144
-0.978884, 317, 249, 348, 312
-0.978895, 101, 129, 132, 256
-0.979016, 97, 1, 128, 128
-0.979068, 61, 1, 92, 128
-0.979109, 169, 81, 200, 144
-0.979111, 121, 217, 152, 280
-0.979162, 377, 49, 408, 176
-0.979175, 25, 57, 88, 120
-0.97918, 129, 225, 256, 288
-0.979197, 377, 97, 408, 224
-0.979206, 17, 105, 80, 168
-0.979239, 385, 145, 416, 208
-0.979249, 329, 281, 392, 344
-0.979254, 369, 121, 496, 184
-0.979289, 313, 273, 344, 336
-0.979331, 257, 65, 320, 192
-0.979359, 193, 233, 320, 296
-0.979368, 145, 65, 272, 128
-0.979377, 65, 49, 192, 112
-0.979385, 321, 305, 384, 368
-0.979417, 277, 17, 308, 80
-0.979506, 201, 41, 264, 104
-0.979533, 373, 97, 404, 160
-0.979556, 369, 97, 496, 160
-0.979627, 41, 17, 72, 80
-0.979635, 305, 1, 336, 64
-0.979639, 121, 153, 184, 216
-0.979646, 133, 241, 164, 368
-0.979657, 129, 201, 256, 264
-0.979682, 249, 185, 312, 248
-0.979686, 281, 145, 344, 272
-0.979759, 173, 1, 204, 64
-0.979774, 257, 193, 288, 320
-0.979789, 29, 1, 60, 128
-0.979799, 273, 1, 336, 256
-0.979802, 113, 33, 144, 160
-0.979902, 321, 185, 448, 248
-0.979911, 289, 65, 352, 128
-0.979985, 225, 57, 288, 120
-0.980097, 209, 281, 240, 344
-0.980107, 81, 297, 208, 360
-0.980136, 333, 1, 364, 64
-0.980196, 177, 289, 304, 352
-0.980224, 73, 145, 136, 208
-0.980277, 337, 49, 368, 112
-0.980289, 401, 97, 432, 160
-0.980301, 417, 129, 448, 192
-0.980307, 321, 1, 384, 375
-0.980338, 341, 169, 372, 232
-0.980341, 161, 185, 224, 248
-0.980364, 357, 49, 388, 176
-0.980376, 145, 97, 208, 224
-0.980466, 173, 25, 204, 88
-0.980491, 133, 1, 164, 128
-0.980576, 49, 241, 176, 304
-0.980586, 465, 17, 496, 80
-0.98061, 345, 1, 376, 64
-0.980642, 17, 97, 80, 352
-0.980667, 393, 1, 424, 64
-0.980784, 445, 153, 476, 216
-0.980785, 209, 25, 336, 88
-0.980794, 113, 1, 176, 375
-0.980795, 49, 1, 80, 128
-0.980831, 201, 129, 264, 375
-0.980872, 157, 81, 188, 144
-0.980899, 369, 25, 496, 88
-0.980904, 173, 49, 204, 176
-0.980904, 145, 209, 176, 336
-0.980914, 241, 313, 368, 375
-0.980933, 273, 89, 400, 152
-0.981027, 313, 97, 376, 224
-0.981072, 233, 233, 264, 296
-0.98116, 433, 145, 464, 272
-0.981219, 401, 145, 432, 272
-0.98123, 153, 145, 216, 272
-0.981321, 73, 33, 104, 160
-0.981361, 317, 1, 348, 64
-0.981483, 217, 241, 248, 368
-0.981524, 1, 33, 128, 96
-0.98169, 409, 1, 472, 256
-0.981753, 209, 1, 240, 128
-0.981799, 97, 249, 160, 312
-0.981859, 185, 201, 248, 264
-0.981859, 317, 193, 348, 320
-0.981914, 273, 177, 336, 240
-0.981969, 249, 233, 280, 296
-0.981999, 365, 161, 396, 224
-0.982026, 141, 57, 172, 120
-0.98203, 17, 97, 144, 160
-0.982036, 369, 57, 400, 120
-0.982039, 289, 257, 416, 320
-0.982076, 297, 25, 328, 88
-0.982141, 377, 1, 440, 375
-0.98217, 281, 33, 312, 160
-0.982227, 41, 313, 104, 375
-0.982229, 353, 161, 384, 224
-0.982341, 217, 105, 280, 168
-0.982432, 421, 177, 452, 240
-0.982492, 69, 41, 100, 104
-0.982513, 289, 113, 320, 176
-0.982517, 353, 1, 416, 375
-0.982538, 257, 169, 384, 232
-0.982634, 321, 137, 384, 200
-0.982664, 49, 185, 176, 248
-0.982692, 425, 1, 488, 64
-0.98277, 113, 1, 144, 64
-0.982772, 297, 49, 328, 176
-0.982795, 1, 201, 128, 264
-0.982891, 89, 209, 120, 336
-0.982904, 329, 25, 360, 88
-0.982915, 337, 241, 368, 368
-0.982958, 469, 65, 500, 192
-0.98296, 41, 1, 104, 375
-0.983006, 113, 105, 176, 168
-0.983009, 85, 1, 116, 128
-0.983104, 65, 97, 96, 160
-0.983122, 73, 225, 104, 352
-0.983145, 217, 193, 280, 256
-0.983205, 213, 17, 244, 80
-0.98323, 421, 25, 452, 88
-0.98328, 33, 313, 160, 375
-0.983309, 353, 129, 384, 256
-0.983346, 137, 281, 168, 344
-0.983363, 81, 81, 112, 144
-0.98341, 177, 17, 240, 80
-0.983418, 245, 33, 276, 160
-0.983445, 281, 41, 312, 104
-0.983492, 5, 193, 36, 256
-0.983544, 225, 1, 352, 64
-0.983593, 433, 17, 464, 144
-0.983659, 177, 129, 240, 375
-0.983663, 469, 73, 500, 136
-0.983673, 125, 305, 156, 368
-0.983755, 365, 97, 396, 224
-0.983794, 105, 25, 136, 88
-0.983832, 445, 129, 476, 256
-0.983852, 89, 97, 152, 160
-0.983993, 277, 113, 308, 176
-0.984019, 369, 177, 496, 240
-0.984028, 345, 1, 376, 128
-0.984067, 185, 49, 216, 176
-0.984106, 17, 129, 48, 256
-0.984107, 285, 113, 316, 240
-0.984127, 185, 9, 216, 72
-0.984129, 85, 209, 116, 272
-0.984131, 433, 177, 464, 240
-0.984217, 393, 169, 424, 232
-0.984276, 417, 97, 480, 160
-0.984369, 169, 1, 232, 375
-0.98439, 265, 25, 296, 88
-0.984414, 5, 177, 36, 304
-0.984446, 225, 121, 352, 184
-0.98449, 145, 49, 176, 176
-0.984507, 425, 97, 456, 224
-0.984532, 1, 57, 128, 120
-0.984584, 49, 129, 112, 375
-0.984588, 81, 1, 144, 375
-0.984605, 217, 1, 280, 256
-0.984618, 341, 161, 372, 288
-0.984635, 417, 49, 448, 112
-0.984649, 1, 1, 64, 375
-0.984665, 1, 177, 128, 240
-0.984672, 41, 89, 72, 152
-0.984712, 145, 161, 208, 224
-0.984714, 113, 129, 144, 256
-0.984787, 413, 1, 444, 128
-0.9849, 73, 305, 104, 368
-0.984943, 305, 281, 432, 344
-0.984949, 393, 49, 424, 112
-0.984962, 265, 153, 328, 216
-0.984972, 41, 289, 104, 352
-0.985023, 289, 233, 416, 296
-0.985057, 289, 217, 320, 280
-0.985071, 113, 129, 176, 375
-0.985072, 465, 113, 496, 240
-0.985083, 257, 1, 320, 375
-0.985111, 241, 137, 304, 200
-0.98512, 305, 177, 336, 304
-0.985178, 385, 193, 448, 256
-0.98519, 125, 265, 156, 328
-0.985207, 193, 201, 320, 264
-0.985219, 77, 161, 108, 288
-0.98522, 417, 129, 480, 375
-0.985233, 377, 121, 408, 184
-0.985303, 65, 1, 192, 64
-0.985335, 105, 113, 136, 176
-0.985352, 177, 1, 304, 64
-0.985361, 37, 201, 68, 264
-0.985446, 289, 137, 416, 200
-0.98545, 197, 1, 228, 128
-0.985475, 225, 49, 352, 112
-0.985536, 93, 113, 124, 176
-0.985567, 81, 161, 208, 224
-0.985609, 169, 289, 200, 352
-0.985612, 269, 113, 300, 240
-0.985754, 273, 113, 400, 176
-0.985773, 101, 185, 132, 248
-0.985804, 81, 137, 208, 200
-0.985835, 9, 1, 40, 64
-0.985844, 289, 1, 320, 64
-0.985876, 237, 297, 268, 360
-0.985905, 297, 57, 328, 120
-0.985962, 433, 1, 496, 375
-0.985996, 133, 33, 164, 96
-0.98609, 445, 185, 476, 248
-0.986146, 161, 177, 288, 240
-0.9862, 329, 177, 360, 304
-0.986212, 53, 209, 84, 272
-0.986251, 225, 297, 256, 360
-0.986292, 357, 137, 388, 200
-0.986311, 357, 1, 388, 64
-0.986314, 321, 241, 352, 368
-0.986401, 53, 193, 84, 320
-0.986471, 205, 41, 236, 104
-0.986477, 361, 97, 392, 160
-0.986515, 369, 1, 496, 64
-0.986516, 365, 33, 396, 96
-0.986547, 245, 209, 276, 272
-0.986599, 69, 65, 100, 128
-0.986621, 121, 81, 152, 208
-0.986726, 405, 177, 436, 240
-0.986728, 341, 49, 372, 176
-0.986741, 305, 313, 432, 375
-0.986789, 145, 257, 176, 320
-0.98692, 81, 49, 112, 112
-0.986939, 289, 209, 416, 272
-0.98697, 213, 193, 244, 320
-0.987018, 421, 145, 452, 272
-0.987031, 241, 145, 368, 208
-0.987036, 9, 81, 40, 144
-0.987118, 17, 193, 48, 256
-0.987121, 177, 313, 304, 375
-0.987197, 65, 25, 192, 88
-0.987205, 209, 177, 336, 240
-0.987226, 337, 129, 368, 192
-0.98729, 321, 49, 352, 176
-0.987316, 457, 73, 488, 136
-0.987339, 217, 1, 280, 375
-0.987352, 33, 65, 64, 192
-0.987384, 317, 25, 348, 88
-0.98741, 217, 273, 280, 304
-0.987421, 193, 89, 320, 152
-0.987443, 13, 65, 44, 192
-0.987466, 145, 61, 208, 92
-0.987474, 377, 169, 408, 232
-0.987488, 345, 193, 376, 256
-0.98749, 1, 113, 32, 240
-0.987498, 141, 209, 172, 272
-0.987516, 109, 209, 140, 336
-0.987552, 337, 113, 368, 240
-0.987574, 249, 261, 312, 292
-0.987614, 65, 113, 192, 176
-0.987704, 61, 49, 92, 176
-0.987707, 293, 161, 324, 288
-0.987747, 89, 145, 120, 272
-0.987788, 17, 177, 48, 304
-0.987796, 81, 81, 112, 208
-0.987908, 17, 121, 144, 184
-0.987945, 289, 281, 352, 312
-0.987956, 157, 81, 188, 208
-0.988037, 17, 153, 144, 216
-0.988155, 369, 77, 432, 108
-0.988159, 453, 65, 484, 192
-0.9882, 185, 161, 248, 288
-0.988225, 401, 1, 464, 375
-0.988318, 225, 285, 288, 316
-0.988324, 353, 13, 416, 44
-0.988333, 97, 265, 352, 328
-0.988339, 453, 1, 484, 128
-0.988366, 269, 1, 300, 128
-0.988465, 269, 49, 300, 176
-0.988497, 133, 49, 164, 176
-0.988498, 97, 289, 352, 352
-0.988512, 145, 153, 272, 216
-0.988655, 361, 25, 424, 56
-0.988721, 97, 345, 160, 375
-0.988733, 409, 181, 472, 212
-0.988734, 125, 145, 156, 272
-0.988757, 229, 161, 260, 288
-0.988776, 97, 65, 128, 192
-0.98882, 217, 297, 280, 328
-0.988861, 329, 1, 392, 32
-0.988862, 221, 1, 252, 128
-0.988927, 29, 193, 60, 320
-0.988947, 369, 65, 432, 96
-0.988964, 377, 125, 440, 156
-0.988993, 257, 277, 320, 308
-0.989004, 369, 93, 432, 124
-0.98917, 257, 297, 320, 328
-0.989186, 245, 161, 276, 288
-0.989224, 385, 177, 448, 208
-0.989238, 33, 9, 96, 40
-0.989249, 385, 157, 448, 188
-0.9893, 225, 9, 480, 72
-0.989325, 89, 221, 152, 252
-0.98936, 113, 89, 240, 152
-0.989381, 425, 169, 488, 200
-0.989459, 45, 65, 76, 192
-0.989466, 1, 85, 64, 116
-0.989475, 361, 161, 424, 192
-0.989482, 225, 261, 288, 292
-0.989502, 177, 121, 304, 184
-0.98951, 33, 145, 64, 272
-0.989512, 169, 41, 232, 72
-0.989527, 141, 161, 172, 288
-0.989605, 273, 261, 336, 292
-0.989621, 73, 25, 136, 56
-0.989624, 185, 289, 248, 320
-0.989629, 353, 1, 416, 32
-0.989678, 409, 33, 472, 64
-0.989738, 57, 129, 88, 256
-0.989753, 309, 49, 340, 176
-0.989807, 281, 21, 344, 52
-0.989846, 73, 341, 136, 372
-0.989928, 361, 137, 424, 168
-0.989928, 297, 261, 360, 292
-0.989941, 241, 41, 304, 72
-0.989942, 409, 65, 472, 96
-0.98998, 225, 57, 480, 120
-0.990002, 377, 113, 440, 144
-0.990008, 137, 297, 200, 328
-0.990012, 65, 325, 128, 356
-0.99003, 25, 21, 88, 52
-0.990035, 129, 209, 192, 240
-0.990049, 157, 129, 188, 256
-0.990062, 321, 61, 384, 92
-0.990082, 433, 17, 496, 48
-0.990097, 385, 145, 448, 176
-0.990136, 145, 1, 176, 128
-0.990151, 245, 113, 276, 240
-0.990156, 369, 45, 432, 76
-0.990179, 361, 181, 424, 212
-0.990214, 353, 177, 384, 304
-0.99023, 297, 5, 360, 36
-0.990246, 393, 85, 456, 116
-0.990251, 145, 85, 208, 116
-0.990261, 225, 249, 288, 280
-0.990263, 113, 33, 240, 96
-0.990264, 33, 33, 96, 64
-0.99028, 81, 37, 144, 68
-0.990288, 385, 29, 448, 60
-0.990333, 129, 209, 384, 272
-0.990342, 41, 193, 72, 320
-0.990343, 409, 49, 472, 80
-0.990346, 409, 157, 472, 188
-0.990374, 329, 49, 392, 80
-0.990399, 457, 161, 488, 288
-0.990412, 113, 17, 176, 48
-0.990428, 281, 297, 344, 328
-0.99044, 385, 177, 416, 304
-0.990474, 9, 5, 72, 36
-0.990476, 81, 313, 144, 344
-0.990507, 73, 53, 136, 84
-0.990507, 193, 277, 256, 308
-0.990507, 25, 89, 88, 120
-0.990516, 433, 181, 496, 212
-0.990551, 1, 305, 500, 368
-0.99057, 113, 53, 176, 84
-0.990571, 321, 193, 384, 224
-0.990572, 97, 233, 352, 296
-0.990575, 321, 25, 384, 56
-0.990606, 345, 81, 408, 112
-0.990618, 1, 1, 500, 64
-0.990624, 169, 113, 200, 240
-0.99063, 17, 205, 80, 236
-0.990637, 57, 97, 120, 128
-0.990672, 385, 13, 448, 44
-0.990677, 113, 73, 176, 104
-0.990681, 345, 65, 408, 96
-0.990684, 241, 297, 368, 328
-0.990696, 273, 249, 336, 280
-0.990711, 33, 289, 160, 352
-0.990714, 89, 209, 152, 240
-0.990718, 193, 1, 256, 375
-0.990719, 193, 41, 256, 72
-0.990722, 113, 1, 176, 32
-0.990746, 249, 121, 312, 152
-0.990773, 297, 213, 360, 244
-0.990789, 73, 9, 136, 40
-0.990801, 297, 249, 360, 280
-0.990849, 433, 157, 496, 188
-0.99085, 137, 281, 200, 312
-0.990858, 257, 113, 288, 240
-0.990865, 105, 305, 168, 336
-0.990878, 321, 13, 384, 44
-0.9909, 393, 97, 456, 128
-0.990903, 273, 9, 336, 40
-0.990904, 297, 49, 360, 80
-0.99092, 401, 129, 464, 160
-0.990967, 197, 49, 228, 176
-0.990973, 1, 25, 500, 88
-0.99098, 9, 33, 72, 64
-0.99098, 193, 153, 320, 216
-0.990985, 321, 37, 384, 68
-0.991018, 57, 313, 120, 344
-0.991029, 1, 281, 500, 344
-0.991037, 129, 1, 256, 64
-0.99107, 337, 153, 400, 184
-0.991082, 209, 53, 272, 84
-0.991088, 113, 29, 176, 60
-0.991092, 161, 293, 224, 324
-0.991093, 49, 337, 112, 368
-0.991103, 113, 113, 240, 176
-0.991109, 345, 101, 408, 132
-0.991159, 41, 213, 104, 244
-0.991162, 225, 309, 288, 340
-0.991184, 41, 77, 104, 108
-0.991185, 153, 29, 216, 60
-0.991191, 425, 77, 488, 108
-0.991216, 65, 205, 128, 236
-0.991217, 185, 53, 248, 84
-0.991224, 233, 17, 264, 144
-0.99123, 65, 221, 128, 252
-0.991235, 49, 45, 112, 76
-0.991267, 393, 193, 456, 224
-0.991267, 249, 213, 312, 244
-0.991281, 1, 257, 500, 320
-0.99129, 433, 53, 496, 84
-0.991294, 57, 109, 120, 140
-0.991298, 337, 173, 400, 204
-0.991333, 273, 33, 336, 64
-0.99137, 257, 61, 320, 92
-0.991383, 129, 49, 384, 112
-0.991385, 321, 345, 384, 375
-0.991393, 273, 121, 336, 152
-0.991405, 201, 193, 232, 320
-0.991408, 169, 81, 232, 112
-0.991422, 217, 33, 280, 64
-0.991441, 281, 69, 344, 100
-0.991441, 289, 201, 352, 232
-0.991446, 157, 209, 188, 336
-0.991457, 233, 53, 296, 84
-0.991475, 249, 249, 312, 280
-0.991485, 201, 309, 264, 340
-0.991488, 145, 49, 208, 80
-0.991505, 73, 85, 136, 116
-0.99151, 97, 93, 160, 124
-0.991523, 249, 109, 312, 140
-0.991532, 257, 237, 320, 268
-0.991535, 145, 73, 208, 104
-0.99155, 1, 73, 256, 136
-0.991554, 193, 273, 448, 336
-0.991677, 1, 233, 128, 296
-0.991742, 45, 113, 76, 240
-0.991767, 161, 313, 416, 375
-0.99189, 241, 285, 368, 316
-0.991924, 225, 33, 480, 96
-0.991939, 257, 33, 288, 160
-0.991944, 405, 81, 436, 112
-0.991996, 373, 145, 404, 272
-0.992001, 421, 173, 452, 204
-0.99202, 1, 49, 500, 112
-0.992023, 405, 153, 436, 184
-0.992063, 397, 69, 428, 100
-0.992098, 165, 61, 196, 92
-0.99211, 89, 329, 120, 360
-0.992151, 105, 341, 136, 372
-0.99216, 269, 261, 300, 292
-0.992193, 241, 273, 368, 304
-0.992196, 225, 113, 480, 176
-0.992222, 421, 33, 452, 64
-0.99223, 389, 97, 420, 128
-0.992258, 297, 113, 328, 240
-0.99226, 1, 209, 500, 272
-0.992261, 265, 281, 296, 312
-0.992269, 377, 9, 408, 40
-0.992273, 281, 261, 312, 292
-0.992296, 421, 153, 436, 216
-0.9923, 405, 129, 436, 160
-0.9923, 257, 261, 288, 292
-0.99231, 225, 81, 480, 144
-0.992331, 413, 53, 444, 84
-0.992347, 269, 293, 300, 324
-0.992348, 337, 157, 464, 188
-0.992357, 421, 161, 452, 192
-0.992362, 281, 281, 312, 312
-0.992364, 377, 81, 408, 112
-0.992366, 385, 161, 416, 192
-0.992368, 469, 53, 500, 84
-0.992382, 365, 5, 396, 36
-0.992397, 445, 173, 476, 204
-0.992407, 221, 277, 252, 308
-0.99243, 293, 269, 324, 300
-0.992448, 161, 85, 192, 116
-0.992452, 253, 249, 284, 280
-0.992456, 69, 45, 100, 76
-0.992465, 229, 65, 260, 192
-0.992474, 237, 269, 268, 300
-0.992475, 389, 117, 420, 148
-0.992478, 153, 65, 184, 96
-0.992482, 85, 317, 116, 348
-0.992484, 389, 25, 420, 56
-0.992484, 357, 85, 388, 116
-0.992492, 405, 141, 436, 172
-0.992498, 45, 5, 76, 36
-0.992503, 393, 5, 424, 36
-0.992512, 433, 161, 464, 192
-0.992525, 301, 1, 332, 32
-0.992531, 413, 65, 444, 96
-0.992534, 413, 93, 444, 124
-0.992546, 173, 1, 204, 32
-0.992552, 233, 297, 264, 328
-0.99256, 89, 341, 120, 372
-0.99256, 293, 281, 324, 312
-0.992562, 101, 329, 132, 360
-0.992566, 117, 345, 148, 375
-0.99257, 349, 49, 380, 80
-0.992572, 469, 33, 500, 64
-0.992573, 141, 65, 172, 96
-0.992573, 465, 17, 496, 48
-0.992573, 1, 185, 500, 248
-0.992577, 129, 293, 256, 324
-0.992579, 405, 181, 436, 212
-0.992584, 317, 1, 348, 32
-0.992585, 21, 21, 52, 52
-0.992587, 317, 281, 348, 312
-0.992593, 165, 45, 196, 76
-0.992614, 185, 29, 216, 60
-0.992619, 433, 185, 464, 216
-0.992623, 81, 53, 112, 84
-0.992631, 249, 289, 280, 320
-0.992632, 305, 261, 336, 292
-0.99264, 245, 301, 276, 332
-0.992643, 209, 289, 240, 320
-0.992645, 287, 257, 302, 320
-0.992655, 401, 97, 432, 128
-0.992663, 121, 221, 152, 252
-0.992671, 401, 37, 432, 68
-0.992672, 377, 129, 408, 160
-0.992672, 417, 133, 448, 164
-0.992679, 389, 133, 420, 164
-0.99268, 349, 29, 380, 60
-0.992687, 469, 169, 500, 200
-0.992695, 177, 77, 208, 108
-0.992697, 465, 65, 496, 96
-0.992704, 313, 13, 344, 44
-0.992708, 421, 185, 452, 216
-0.992716, 401, 109, 432, 140
-0.992719, 281, 25, 312, 56
-0.992722, 193, 41, 224, 72
-0.992722, 373, 69, 404, 100
-0.992726, 333, 57, 364, 88
-0.992734, 145, 297, 176, 328
-0.992736, 305, 277, 336, 308
-0.992737, 345, 1, 376, 32
-0.992758, 69, 329, 100, 360
-0.992766, 279, 257, 294, 320
-0.992767, 401, 169, 432, 200
-0.992768, 377, 93, 408, 124
-0.992774, 281, 293, 312, 324
-0.992774, 61, 5, 92, 36
-0.992777, 289, 121, 320, 152
-0.99278, 413, 21, 444, 52
-0.992784, 89, 1, 120, 32
-0.992788, 1, 1, 32, 32
-0.992788, 73, 313, 104, 344
-0.992797, 377, 117, 408, 148
-0.9928, 433, 173, 464, 204
-0.9928, 297, 249, 328, 280
-0.992801, 109, 313, 140, 344
-0.992807, 33, 17, 64, 48
-0.992818, 433, 25, 464, 56
-0.992818, 457, 173, 488, 204
-0.99282, 221, 289, 252, 320
-0.99282, 9, 85, 40, 116
-0.992821, 433, 37, 464, 68
-0.992822, 237, 221, 268, 252
-0.992839, 77, 21, 108, 52
-0.99284, 205, 37, 236, 68
-0.992841, 133, 301, 164, 332
-0.992841, 271, 257, 286, 320
-0.992842, 365, 17, 396, 48
-0.992842, 149, 49, 180, 80
-0.992848, 481, 1, 496, 64
-0.992849, 145, 285, 176, 316
-0.99285, 393, 81, 424, 112
-0.992855, 89, 17, 120, 48
-0.992856, 17, 33, 48, 64
-0.992861, 165, 13, 196, 44
-0.992862, 37, 29, 68, 60
-0.992867, 353, 61, 384, 92
-0.992867, 407, 81, 422, 144
-0.992869, 465, 5, 496, 36
-0.992871, 65, 177, 96, 304
-0.992872, 173, 33, 204, 64
-0.992877, 193, 249, 448, 312
-0.992878, 369, 169, 496, 200
-0.992885, 281, 49, 312, 80
-0.992886, 113, 13, 144, 44
-0.99289, 69, 33, 100, 64
-0.992898, 357, 73, 388, 104
-0.992899, 317, 269, 348, 300
-0.992899, 193, 281, 320, 312
-0.992901, 45, 17, 76, 48
-0.992902, 249, 277, 280, 308
-0.992907, 365, 165, 396, 196
-0.992911, 209, 277, 240, 308
-0.992916, 333, 1, 364, 32
-0.992923, 345, 165, 376, 196
-0.992979, 259, 241, 274, 304
-0.992983, 205, 241, 236, 368
-0.993056, 445, 177, 476, 304
-0.993068, 417, 129, 432, 192
-0.993089, 257, 153, 500, 216
-0.993092, 401, 73, 416, 136
-0.993101, 113, 1, 240, 128
-0.993112, 189, 193, 220, 320
-0.993158, 179, 57, 194, 120
-0.993185, 411, 121, 426, 184
-0.993214, 427, 153, 442, 216
-0.993221, 241, 261, 368, 292
-0.993273, 289, 9, 416, 40
-0.993292, 111, 313, 126, 375
-0.993331, 65, 1, 320, 64
-0.993342, 169, 41, 184, 104
-0.993376, 293, 265, 308, 328
-0.993434, 301, 265, 316, 328
-0.993444, 1, 233, 500, 296
-0.99347, 401, 97, 416, 160
-0.993471, 1, 289, 256, 352
-0.993518, 177, 293, 304, 324
-0.993563, 227, 265, 242, 328
-0.993573, 413, 57, 428, 120
-0.993641, 261, 273, 276, 336
-0.993656, 395, 73, 410, 136
-0.993674, 233, 273, 248, 336
-0.993748, 309, 241, 324, 304
-0.993782, 1, 265, 256, 328
-0.993794, 161, 161, 416, 224
-0.993802, 163, 57, 178, 120
-0.993826, 321, 81, 448, 112
-0.993829, 407, 25, 422, 88
-0.993867, 273, 69, 400, 100
-0.993869, 257, 185, 500, 248
-0.993873, 81, 25, 96, 88
-0.99388, 475, 9, 490, 72
-0.993895, 129, 185, 384, 248
-0.993988, 435, 153, 450, 216
-0.993998, 417, 89, 432, 152
-0.994005, 353, 181, 480, 212
-0.994015, 33, 209, 288, 272
-0.994015, 97, 25, 352, 88
-0.994016, 305, 21, 432, 52
-0.994021, 321, 169, 448, 200
-0.994028, 353, 57, 480, 88
-0.994068, 369, 69, 496, 100
-0.994073, 193, 265, 320, 296
-0.994076, 395, 1, 410, 64
-0.994097, 93, 313, 108, 375
-0.994098, 185, 57, 200, 120
-0.994125, 421, 49, 436, 112
-0.99415, 97, 73, 352, 136
-0.994166, 285, 281, 300, 344
-0.9942, 49, 225, 176, 256
-0.994209, 121, 305, 136, 368
-0.994221, 65, 313, 320, 375
-0.994234, 241, 309, 368, 340
-0.994274, 445, 153, 460, 216
-0.994313, 33, 345, 160, 375
-0.994342, 81, 65, 208, 96
-0.994349, 387, 97, 402, 160
-0.994395, 481, 33, 496, 96
-0.994439, 257, 29, 384, 60
-0.994454, 81, 1, 96, 64
-0.994476, 255, 273, 270, 336
-0.994486, 265, 249, 280, 312
-0.994487, 145, 65, 272, 96
-0.994492, 105, 313, 120, 375
-0.994498, 315, 257, 330, 320
-0.994565, 321, 41, 448, 72
-0.994644, 129, 281, 256, 312
-0.994667, 475, 33, 490, 96
-0.994679, 297, 25, 312, 88
-0.994709, 293, 113, 308, 176
-0.994713, 155, 57, 170, 120
-0.994753, 57, 1, 72, 64
-0.994764, 415, 153, 430, 216
-0.994789, 353, 129, 480, 160
-0.994795, 1, 33, 128, 64
-0.994795, 321, 93, 448, 124
-0.994801, 389, 9, 404, 72
-0.994808, 423, 129, 438, 192
-0.994858, 209, 1, 336, 32
-0.99486, 369, 21, 496, 52
-0.994861, 65, 105, 320, 168
-0.994868, 401, 1, 416, 64
-0.994896, 1, 233, 256, 296
-0.99491, 379, 89, 394, 152
-0.994924, 305, 189, 432, 220
-0.994936, 129, 305, 144, 368
-0.994937, 271, 289, 286, 352
-0.994943, 49, 241, 176, 272
-0.99496, 393, 1, 424, 256
-0.994964, 121, 25, 136, 88
-0.994975, 217, 1, 232, 64
-0.994991, 291, 17, 306, 80
-0.994994, 469, 161, 484, 224
-0.99503, 337, 9, 464, 40
-0.995054, 363, 41, 378, 104
-0.995058, 279, 281, 294, 344
-0.995061, 87, 1, 102, 64
-0.995099, 177, 81, 192, 144
-0.995108, 45, 9, 60, 72
-0.995146, 353, 153, 368, 216
-0.995149, 343, 1, 358, 64
-0.995154, 407, 57, 422, 120
-0.995164, 413, 33, 428, 96
-0.995177, 13, 1, 28, 64
-0.995181, 379, 1, 394, 64
-0.995188, 451, 161, 466, 224
-0.995206, 405, 121, 420, 184
-0.995209, 81, 77, 208, 108
-0.995216, 321, 69, 448, 100
-0.995226, 471, 57, 486, 120
-0.995226, 305, 53, 432, 84
-0.995268, 221, 273, 236, 336
-0.995269, 49, 285, 176, 316
-0.995271, 241, 241, 368, 272
-0.995276, 1, 5, 128, 36
-0.995287, 169, 81, 184, 144
-0.995301, 397, 145, 412, 208
-0.995304, 427, 49, 442, 112
-0.995312, 241, 213, 368, 244
-0.995319, 33, 185, 288, 248
-0.995335, 371, 1, 386, 64
-0.995341, 351, 49, 366, 112
-0.995354, 113, 269, 240, 300
-0.995364, 303, 241, 318, 304
-0.995371, 241, 49, 256, 112
-0.995383, 239, 289, 254, 352
-0.995396, 253, 249, 268, 312
-0.995409, 321, 145, 448, 176
-0.995456, 469, 1, 500, 256
-0.995456, 33, 333, 160, 364
-0.995473, 73, 1, 88, 64
-0.995493, 47, 89, 62, 152
-0.995498, 475, 153, 490, 216
-0.995517, 457, 161, 472, 224
-0.995528, 129, 305, 256, 368
-0.995556, 377, 113, 392, 176
-0.995564, 369, 49, 384, 112
-0.995567, 285, 17, 300, 80
-0.995575, 359, 161, 374, 224
-0.995578, 113, 257, 240, 288
-0.995589, 385, 65, 400, 128
-0.995601, 157, 1, 188, 256
-0.995605, 227, 289, 242, 352
-0.995607, 209, 225, 336, 256
-0.995607, 209, 33, 224, 96
-0.995632, 1, 49, 128, 80
-0.995638, 485, 145, 500, 208
-0.995643, 143, 281, 158, 344
-0.99565, 359, 1, 374, 64
-0.995666, 333, 313, 348, 375
-0.99567, 379, 57, 394, 120
-0.995677, 183, 81, 198, 144
-0.995702, 407, 169, 422, 232
-0.99571, 129, 1, 144, 64
-0.995715, 309, 265, 324, 328
-0.995717, 193, 253, 320, 284
-0.995719, 427, 81, 442, 144
-0.995737, 321, 105, 448, 136
-0.995739, 339, 281, 354, 344
-0.995742, 83, 65, 98, 128
-0.995752, 135, 217, 150, 280
-0.995761, 305, 17, 320, 80
-0.995768, 357, 57, 372, 120
-0.995772, 65, 53, 192, 84
-0.995781, 369, 97, 496, 128
-0.995782, 129, 233, 256, 264
-0.995795, 185, 17, 200, 80
-0.9958, 433, 33, 448, 96
-0.995816, 49, 265, 176, 296
-0.995821, 1, 265, 128, 328
-0.995829, 359, 89, 374, 152
-0.995836, 273, 41, 400, 72
-0.995846, 19, 81, 34, 144
-0.995847, 265, 297, 280, 360
-0.995852, 129, 213, 256, 244
-0.995852, 113, 245, 240, 276
-0.995858, 369, 73, 384, 136
-0.995861, 15, 193, 30, 256
-0.995882, 243, 25, 258, 88
-0.995894, 97, 345, 224, 375
-0.995899, 337, 217, 464, 280
-0.995904, 311, 1, 326, 64
-0.995905, 49, 253, 176, 284
-0.995919, 357, 33, 388, 288
-0.99592, 345, 41, 360, 104
-0.995925, 287, 105, 302, 168
-0.995932, 249, 273, 264, 336
-0.995938, 1, 89, 128, 120
-0.995943, 51, 1, 66, 64
-0.995944, 401, 25, 416, 88
-0.995946, 123, 1, 138, 64
-0.995949, 273, 89, 400, 120
-0.995958, 209, 9, 224, 72
-0.995963, 403, 145, 418, 208
-0.995972, 369, 117, 496, 148
-0.995974, 405, 33, 436, 288
-0.995988, 395, 121, 410, 184
-0.99599, 135, 305, 150, 368
-0.995995, 217, 25, 232, 88
-0.996009, 225, 49, 352, 80
-0.996018, 297, 241, 312, 304
-0.996091, 273, 109, 400, 140
-0.996124, 1, 17, 128, 48
-0.996131, 129, 77, 256, 108
-0.996141, 1, 209, 128, 240
-0.99622, 305, 345, 432, 375
-0.996238, 381, 33, 412, 288
-0.996261, 321, 117, 448, 148
-0.996321, 193, 305, 320, 336
-0.996325, 49, 213, 176, 244
-0.996386, 225, 121, 352, 152
-0.996386, 369, 81, 496, 112
-0.996387, 241, 13, 368, 44
-0.99641, 305, 289, 432, 320
-0.996422, 1, 41, 256, 104
-0.996446, 81, 301, 208, 332
-0.996499, 395, 89, 410, 120
-0.9965, 49, 1, 176, 32
-0.996511, 341, 33, 372, 288
-0.996519, 169, 1, 200, 256
-0.99652, 273, 121, 400, 152
-0.996523, 273, 177, 400, 208
-0.996528, 369, 33, 400, 288
-0.996533, 33, 241, 96, 368
-0.99655, 453, 1, 484, 256
-0.996552, 269, 129, 300, 375
-0.996552, 289, 261, 416, 292
-0.996554, 369, 33, 496, 64
-0.996557, 305, 317, 432, 348
-0.996583, 1, 81, 500, 144
-0.996586, 1, 161, 256, 224
-0.996598, 369, 145, 496, 176
-0.996599, 369, 45, 496, 76
-0.996619, 209, 29, 336, 60
-0.99662, 257, 229, 384, 260
-0.996636, 337, 129, 368, 375
-0.99664, 305, 305, 432, 336
-0.996641, 289, 129, 320, 375
-0.996649, 81, 313, 208, 344
-0.996654, 113, 129, 144, 375
-0.996654, 49, 201, 176, 232
-0.996665, 257, 225, 500, 288
-0.996678, 193, 101, 320, 132
-0.996685, 417, 81, 432, 112
-0.996691, 81, 89, 208, 120
-0.996715, 475, 13, 490, 44
-0.996732, 269, 261, 284, 292
-0.996734, 227, 273, 242, 304
-0.996749, 1, 161, 500, 224
-0.996759, 241, 329, 368, 360
-0.996763, 129, 129, 384, 192
-0.996812, 423, 85, 438, 116
-0.996836, 41, 1, 72, 256
-0.996842, 69, 33, 100, 288
-0.996853, 13, 1, 28, 32
-0.996862, 421, 129, 436, 160
-0.996872, 257, 297, 500, 360
-0.996888, 421, 141, 436, 172
-0.99689, 241, 201, 368, 232
-0.99691, 317, 129, 348, 375
-0.996914, 185, 1, 216, 256
-0.996926, 421, 153, 436, 184
-0.996937, 417, 49, 432, 80
-0.99694, 353, 193, 480, 224
-0.996955, 17, 105, 144, 136
-0.996957, 17, 189, 144, 220
-0.996961, 81, 49, 96, 80
-0.996962, 435, 161, 450, 192
-0.996971, 479, 25, 494, 56
-0.996987, 101, 129, 132, 375
-0.996997, 161, 53, 288, 84
-0.997001, 273, 165, 400, 196
-0.997002, 121, 33, 152, 288
-0.997007, 161, 201, 288, 232
-0.997015, 75, 41, 90, 72
-0.997021, 417, 97, 448, 352
-0.997025, 325, 1, 356, 256
-0.997074, 107, 337, 122, 368
-0.997074, 413, 65, 428, 96
-0.997081, 389, 9, 404, 40
-0.997084, 305, 277, 432, 308
-0.997101, 401, 13, 416, 44
-0.997104, 305, 329, 432, 360
-0.997107, 49, 13, 176, 44
-0.997108, 53, 1, 68, 32
-0.997111, 405, 25, 420, 56
-0.997121, 313, 265, 328, 296
-0.997124, 431, 173, 446, 204
-0.997124, 33, 129, 288, 192
-0.997125, 405, 73, 420, 104
-0.997136, 161, 65, 176, 96
-0.997147, 425, 173, 440, 204
-0.99715, 477, 1, 492, 32
-0.997165, 397, 1, 412, 32
-0.997167, 229, 129, 260, 375
-0.997167, 429, 85, 444, 116
-0.997171, 209, 1, 240, 256
-0.997175, 303, 269, 318, 300
-0.997175, 81, 25, 96, 56
-0.997176, 479, 41, 494, 72
-0.99719, 283, 289, 298, 320
-0.997193, 273, 149, 400, 180
-0.997194, 285, 261, 300, 292
-0.997196, 81, 37, 96, 68
-0.997199, 171, 49, 186, 80
-0.997202, 399, 73, 414, 104
-0.997207, 209, 41, 224, 72
-0.997217, 65, 37, 192, 68
-0.997227, 407, 97, 422, 128
-0.997228, 89, 313, 104, 344
-0.997234, 279, 257, 294, 288
-0.997243, 293, 281, 308, 312
-0.997244, 259, 249, 274, 280
-0.997244, 109, 33, 140, 288
-0.997247, 177, 85, 192, 116
-0.997249, 169, 97, 200, 352
-0.99725, 427, 161, 442, 192
-0.997254, 441, 1, 472, 256
-0.997258, 209, 61, 336, 92
-0.997259, 481, 13, 496, 44
-0.997282, 81, 325, 208, 356
-0.997297, 293, 121, 308, 152
-0.997302, 81, 101, 208, 132
-0.997303, 33, 297, 160, 328
-0.997308, 401, 93, 416, 124
-0.997332, 141, 33, 172, 288
-0.997336, 443, 169, 458, 200
-0.997337, 289, 133, 416, 164
-0.997344, 415, 141, 430, 172
-0.997345, 81, 1, 112, 256
-0.997348, 113, 341, 128, 372
-0.997356, 281, 1, 312, 256
-0.997361, 33, 321, 160, 352
-0.997362, 155, 65, 170, 96
-0.997372, 65, 153, 192, 184
-0.997383, 411, 129, 426, 160
-0.997395, 403, 109, 418, 140
-0.997399, 423, 53, 438, 84
-0.997404, 105, 325, 120, 356
-0.997405, 261, 269, 276, 300
-0.997416, 381, 89, 396, 120
-0.997421, 187, 77, 202, 108
-0.997428, 193, 13, 320, 44
-0.99743, 369, 1, 384, 32
-0.997439, 409, 113, 424, 144
-0.99744, 161, 1, 288, 32
-0.997451, 1, 105, 500, 168
-0.997454, 417, 181, 432, 212
-0.997454, 121, 345, 136, 375
-0.997454, 179, 61, 194, 92
-0.997458, 145, 305, 272, 336
-0.997458, 27, 21, 42, 52
-0.997477, 315, 1, 330, 32
-0.997484, 49, 121, 176, 152
-0.997491, 411, 77, 426, 108
-0.997499, 383, 9, 398, 40
-0.997499, 485, 33, 500, 64
-0.997501, 241, 341, 368, 372
-0.997506, 249, 129, 280, 375
-0.997512, 405, 129, 436, 375
-0.997518, 209, 129, 240, 375
-0.997523, 289, 217, 416, 248
-0.997527, 469, 65, 484, 96
-0.997527, 203, 33, 218, 64
-0.997528, 97, 141, 224, 172
-0.99753, 27, 33, 42, 64
-0.997541, 161, 113, 288, 144
-0.997544, 437, 173, 452, 204
-0.997547, 13, 65, 44, 320
-0.997554, 433, 33, 448, 64
-0.997555, 417, 29, 432, 60
-0.997555, 393, 97, 424, 352
-0.997566, 47, 13, 62, 44
-0.997567, 215, 45, 230, 76
-0.997573, 193, 213, 320, 244
-0.997575, 423, 73, 438, 104
-0.997579, 225, 85, 352, 116
-0.99759, 185, 65, 200, 96
-0.99759, 145, 89, 272, 120
-0.997593, 307, 1, 322, 32
-0.997597, 295, 265, 310, 296
-0.9976, 233, 289, 248, 320
-0.9976, 243, 217, 258, 248
-0.9976, 289, 293, 304, 324
-0.997608, 453, 173, 468, 204
-0.997609, 33, 21, 48, 52
-0.997615, 17, 133, 144, 164
-0.997623, 263, 293, 278, 324
-0.997628, 311, 253, 326, 284
-0.997628, 469, 97, 500, 352
-0.99763, 241, 45, 256, 76
-0.997633, 297, 1, 328, 256
-0.997642, 1, 97, 32, 352
-0.99765, 245, 301, 260, 332
-0.997657, 483, 1, 498, 32
-0.99767, 187, 53, 202, 84
-0.997673, 37, 97, 68, 352
-0.997676, 171, 85, 186, 116
-0.997676, 141, 129, 172, 375
-0.997681, 357, 145, 372, 176
-0.997682, 389, 81, 404, 112
-0.997687, 429, 129, 460, 375
-0.997688, 411, 33, 426, 64
-0.99769, 17, 77, 144, 108
-0.997693, 149, 65, 164, 96
-0.997694, 125, 129, 156, 375
-0.997707, 387, 157, 402, 188
-0.997709, 427, 137, 442, 168
-0.99771, 193, 237, 320, 268
-0.997714, 391, 125, 406, 156
-0.997719, 465, 77, 480, 108
-0.997722, 225, 161, 352, 192
-0.997727, 123, 9, 138, 40
-0.997727, 33, 33, 48, 64
-0.997732, 313, 277, 328, 308
-0.997736, 177, 165, 304, 196
-0.997737, 395, 13, 410, 44
-0.997738, 219, 33, 234, 64
-0.997745, 401, 157, 416, 188
-0.99775, 13, 13, 28, 44
-0.997751, 305, 129, 336, 375
-0.997752, 287, 121, 302, 152
-0.997755, 95, 333, 110, 364
-0.997757, 45, 89, 60, 120
-0.997758, 57, 65, 88, 320
-0.997759, 59, 5, 74, 36
-0.997762, 387, 169, 402, 200
-0.997765, 41, 13, 56, 44
-0.997769, 119, 25, 134, 56
-0.997772, 321, 9, 336, 40
-0.997773, 21, 17, 36, 48
-0.997777, 375, 1, 390, 32
-0.997777, 415, 153, 430, 184
-0.997777, 243, 57, 258, 88
-0.997777, 403, 169, 418, 200
-0.997786, 299, 217, 314, 248
-0.997788, 315, 21, 330, 52
-0.997794, 113, 201, 240, 232
-0.997795, 471, 77, 486, 108
-0.997795, 157, 97, 188, 352
-0.997796, 401, 121, 416, 152
-0.997798, 351, 53, 366, 84
-0.997801, 223, 289, 238, 320
-0.997803, 19, 85, 34, 116
-0.997808, 127, 345, 142, 375
-0.997808, 227, 261, 242, 292
-0.997816, 417, 1, 448, 256
-0.997816, 197, 1, 228, 256
-0.997829, 1, 309, 128, 340
-0.997844, 113, 113, 240, 144
-0.997852, 81, 181, 208, 212
-0.997857, 73, 129, 104, 375
-0.99788, 93, 1, 124, 256
-0.997955, 349, 129, 380, 375
-0.997964, 313, 33, 344, 288
-0.998007, 441, 129, 472, 375
-0.998057, 25, 97, 56, 352
-0.998108, 1, 1, 32, 256
-0.99823, 269, 1, 300, 256
-0.998279, 197, 129, 228, 375
-0.998291, 145, 67, 208, 82
-0.9983, 89, 129, 120, 375
-0.998317, 245, 1, 276, 256
-0.998318, 29, 1, 60, 256
-0.998345, 453, 129, 484, 375
-0.99837, 405, 17, 420, 144
-0.998375, 241, 263, 304, 278
-0.998388, 401, 35, 464, 50
-0.99839, 233, 273, 296, 288
-0.998391, 217, 285, 280, 300
-0.998394, 329, 1, 392, 16
-0.998395, 353, 19, 416, 34
-0.998398, 477, 1, 492, 128
-0.998402, 353, 9, 416, 24
-0.998405, 233, 279, 296, 294
-0.99841, 209, 277, 272, 292
-0.99841, 345, 167, 408, 182
-0.99841, 257, 271, 320, 286
-0.998414, 97, 349, 160, 364
-0.998419, 369, 81, 432, 96
-0.99842, 241, 293, 304, 308
-0.998424, 377, 129, 440, 144
-0.99843, 257, 277, 320, 292
-0.998432, 225, 305, 288, 320
-0.998434, 361, 29, 424, 44
-0.998435, 369, 91, 432, 106
-0.998436, 409, 189, 472, 204
-0.998442, 281, 283, 344, 298
-0.99845, 81, 343, 144, 358
-0.998451, 361, 75, 424, 90
-0.998451, 185, 291, 248, 306
-0.998451, 89, 223, 152, 238
-0.998457, 361, 191, 424, 206
-0.998458, 393, 159, 456, 174
-0.998462, 217, 297, 280, 312
-0.998463, 461, 37, 492, 52
-0.998464, 305, 11, 336, 26
-0.998464, 173, 57, 204, 72
-0.998464, 465, 71, 496, 86
-0.998464, 289, 21, 352, 36
-0.998464, 125, 307, 156, 322
-0.998465, 45, 91, 76, 106
-0.998466, 141, 67, 172, 82
-0.998466, 349, 37, 380, 52
-0.998466, 397, 139, 428, 154
-0.998467, 165, 15, 196, 30
-0.998467, 173, 85, 204, 100
-0.998468, 469, 21, 500, 36
-0.998468, 101, 359, 132, 374
-0.998468, 309, 275, 340, 290
-0.998469, 393, 93, 424, 108
-0.998469, 49, 9, 112, 24
-0.99847, 425, 87, 456, 102
-0.998471, 237, 221, 268, 236
-0.998471, 297, 1, 360, 16
-0.998472, 97, 321, 128, 336
-0.998474, 461, 15, 492, 30
-0.998474, 341, 169, 372, 184
-0.998475, 233, 301, 264, 316
-0.998475, 405, 103, 436, 118
-0.998476, 289, 297, 352, 312
-0.998478, 353, 3, 416, 18
-0.998479, 121, 355, 184, 370
-0.99848, 437, 25, 468, 40
-0.998481, 169, 43, 232, 58
-0.998481, 89, 19, 120, 34
-0.998482, 469, 49, 500, 64
-0.998482, 257, 301, 320, 316
-0.998482, 369, 19, 400, 34
-0.998483, 393, 169, 456, 184
-0.998483, 445, 187, 476, 202
-0.998484, 193, 49, 256, 64
-0.998484, 409, 141, 440, 156
-0.998484, 137, 299, 200, 314
-0.998484, 301, 3, 332, 18
-0.998485, 145, 73, 208, 88
-0.998486, 317, 283, 348, 298
-0.998486, 369, 103, 432, 118
-0.998486, 369, 97, 432, 112
-0.998487, 369, 65, 432, 80
-0.998488, 253, 271, 284, 286
-0.998488, 421, 173, 452, 188
-0.998488, 285, 25, 316, 40
-0.998489, 441, 171, 472, 186
-0.998489, 421, 191, 452, 206
-0.998489, 349, 51, 380, 66
-0.998489, 413, 57, 444, 72
-0.998489, 389, 173, 420, 188
-0.998489, 9, 89, 72, 104
-0.99849, 259, 225, 274, 352
-0.99849, 217, 267, 280, 282
-0.998491, 145, 61, 208, 76
-0.998492, 285, 283, 316, 298
-0.998493, 361, 85, 392, 100
-0.998493, 237, 281, 268, 296
-0.998494, 185, 75, 216, 90
-0.998494, 405, 45, 436, 60
-0.998497, 17, 15, 80, 30
-0.998497, 221, 275, 252, 290
-0.998497, 297, 273, 360, 288
-0.998497, 377, 97, 408, 112
-0.998499, 261, 279, 292, 294
-0.998499, 241, 49, 304, 64
-0.9985, 45, 7, 76, 22
-0.9985, 381, 91, 412, 106
-0.998501, 433, 185, 496, 200
-0.998502, 385, 183, 448, 198
-0.998503, 405, 109, 436, 124
-0.998504, 353, 59, 384, 74
-0.998504, 373, 165, 404, 180
-0.998505, 281, 265, 312, 280
-0.998505, 185, 69, 216, 84
-0.998505, 61, 53, 92, 68
-0.998506, 369, 123, 432, 138
-0.998506, 441, 163, 472, 178
-0.998506, 117, 349, 148, 364
-0.998508, 85, 345, 116, 360
-0.998509, 333, 63, 364, 78
-0.998509, 265, 269, 296, 284
-0.998509, 29, 89, 60, 104
-0.998509, 145, 301, 176, 316
-0.99851, 425, 163, 488, 178
-0.99851, 209, 291, 240, 306
-0.998511, 25, 23, 88, 38
-0.998511, 81, 47, 144, 62
-0.998512, 257, 287, 320, 302
-0.998512, 345, 85, 408, 100
-0.998512, 465, 65, 496, 80
-0.998513, 401, 29, 464, 44
-0.998514, 85, 321, 116, 336
-0.998514, 469, 79, 500, 94
-0.998514, 237, 273, 268, 288
-0.998515, 217, 291, 280, 306
-0.998516, 45, 13, 76, 28
-0.998516, 225, 257, 288, 272
-0.998516, 21, 21, 52, 36
-0.998516, 221, 281, 252, 296
-0.998517, 313, 21, 344, 36
-0.998518, 269, 301, 300, 316
-0.998518, 253, 257, 284, 272
-0.998519, 81, 317, 144, 332
-0.998519, 369, 163, 432, 178
-0.99852, 409, 41, 472, 56
-0.998521, 289, 121, 320, 136
-0.998521, 321, 17, 384, 32
-0.998522, 325, 1, 356, 16
-0.998523, 145, 361, 208, 375
-0.998523, 393, 121, 424, 136
-0.998524, 413, 97, 444, 112
-0.998524, 273, 265, 336, 280
-0.998524, 225, 311, 288, 326
-0.998526, 297, 275, 328, 290
-0.998526, 137, 291, 200, 306
-0.998526, 405, 91, 436, 106
-0.998526, 265, 123, 328, 138
-0.998526, 73, 53, 136, 68
-0.998527, 393, 175, 456, 190
-0.998529, 361, 45, 424, 60
-0.99853, 361, 137, 424, 152
-0.998532, 1, 203, 64, 218
-0.998533, 65, 323, 128, 338
-0.998533, 233, 309, 264, 324
-0.998535, 73, 39, 136, 54
-0.998535, 349, 45, 380, 60
-0.998536, 271, 241, 286, 368
-0.998538, 385, 105, 416, 120
-0.998538, 377, 131, 408, 146
-0.998538, 385, 111, 416, 126
-0.998539, 469, 9, 500, 24
-0.99854, 41, 19, 72, 34
-0.99854, 433, 189, 464, 204
-0.99854, 329, 7, 392, 22
-0.998541, 433, 31, 464, 46
-0.998541, 369, 57, 432, 72
-0.998542, 369, 169, 432, 184
-0.998542, 321, 197, 384, 212
-0.998543, 393, 87, 456, 102
-0.998543, 137, 85, 200, 100
-0.998544, 425, 163, 456, 178
-0.998544, 265, 295, 328, 310
-0.998545, 321, 67, 384, 82
-0.998545, 361, 35, 424, 50
-0.998545, 113, 3, 176, 18
-0.998546, 289, 259, 352, 274
-0.998546, 113, 77, 176, 92
-0.998546, 329, 55, 392, 70
-0.998546, 281, 295, 312, 310
-0.998546, 417, 55, 480, 70
-0.998547, 173, 7, 204, 22
-0.998547, 193, 41, 224, 56
-0.998548, 389, 7, 420, 22
-0.998548, 313, 163, 376, 178
-0.998549, 385, 135, 448, 150
-0.998549, 409, 97, 424, 224
-0.99855, 89, 339, 120, 354
-0.99855, 433, 191, 496, 206
-0.998551, 73, 27, 136, 42
-0.998551, 221, 287, 252, 302
-0.998552, 265, 285, 296, 300
-0.998552, 77, 55, 108, 70
-0.998552, 425, 169, 488, 184
-0.998553, 409, 183, 472, 198
-0.998553, 65, 337, 128, 352
-0.998554, 321, 27, 384, 42
-0.998555, 25, 31, 88, 46
-0.998555, 113, 23, 176, 38
-0.998555, 389, 133, 420, 148
-0.998556, 289, 291, 352, 306
-0.998556, 393, 29, 424, 44
-0.998556, 205, 43, 236, 58
-0.998557, 377, 113, 440, 128
-0.998558, 377, 85, 408, 100
-0.998558, 69, 47, 100, 62
-0.998558, 353, 145, 416, 160
-0.998559, 209, 43, 272, 58
-0.998559, 393, 105, 456, 120
-0.99856, 193, 285, 256, 300
-0.998561, 385, 163, 416, 178
-0.998562, 297, 7, 360, 22
-0.998562, 337, 95, 400, 110
-0.998562, 253, 263, 284, 278
-0.998562, 377, 51, 440, 66
-0.998563, 269, 293, 300, 308
-0.998563, 393, 81, 456, 96
-0.998563, 417, 71, 480, 86
-0.998563, 17, 9, 80, 24
-0.998563, 373, 1, 404, 16
-0.998563, 241, 55, 304, 70
-0.998564, 417, 133, 480, 148
-0.998564, 425, 31, 488, 46
-0.998565, 105, 71, 168, 86
-0.998565, 129, 207, 192, 222
-0.998565, 33, 47, 96, 62
-0.998566, 469, 55, 500, 70
-0.998566, 329, 61, 392, 76
-0.998567, 265, 241, 280, 368
-0.998568, 233, 1, 264, 256
-0.998568, 393, 195, 456, 210
-0.998569, 361, 1, 392, 16
-0.99857, 17, 3, 80, 18
-0.99857, 265, 257, 328, 272
-0.99857, 25, 95, 88, 110
-0.998571, 105, 347, 136, 362
-0.998572, 225, 251, 288, 266
-0.998573, 273, 41, 336, 56
-0.998573, 423, 97, 438, 224
-0.998575, 9, 83, 72, 98
-0.998575, 241, 41, 304, 56
-0.998576, 385, 141, 448, 156
-0.998576, 73, 59, 136, 74
-0.998576, 373, 1, 388, 128
-0.998577, 357, 167, 388, 182
-0.998578, 409, 51, 440, 66
-0.998578, 469, 31, 500, 46
-0.998579, 153, 67, 184, 82
-0.998583, 89, 327, 120, 342
-0.998585, 387, 1, 402, 128
-0.998586, 173, 1, 204, 16
-0.998587, 345, 1, 376, 16
-0.998592, 337, 241, 464, 304
-0.998594, 25, 27, 56, 42
-0.998594, 365, 9, 396, 24
-0.998595, 401, 83, 432, 98
-0.998601, 303, 209, 318, 336
-0.998603, 327, 1, 342, 128
-0.998614, 379, 1, 394, 128
-0.998615, 413, 85, 444, 100
-0.998618, 405, 155, 436, 170
-0.998621, 411, 33, 426, 160
-0.998623, 423, 49, 438, 176
-0.998624, 393, 99, 424, 114
-0.998642, 393, 77, 424, 92
-0.998642, 89, 333, 120, 348
-0.998642, 269, 261, 300, 276
-0.998648, 357, 91, 388, 106
-0.99865, 399, 17, 414, 144
-0.998652, 165, 63, 196, 78
-0.998659, 377, 9, 408, 24
-0.99866, 101, 341, 132, 356
-0.998669, 417, 113, 432, 240
-0.998673, 417, 49, 432, 176
-0.998674, 1, 129, 500, 192
-0.998674, 377, 129, 408, 375
-0.998686, 135, 209, 150, 336
-0.998698, 413, 33, 444, 48
-0.998707, 409, 131, 440, 146
-0.998708, 169, 1, 184, 128
-0.998708, 429, 1, 460, 256
-0.998709, 279, 241, 294, 368
-0.99871, 401, 97, 416, 224
-0.998721, 181, 97, 212, 352
-0.998724, 81, 1, 96, 128
-0.998743, 187, 1, 202, 128
-0.998757, 363, 1, 378, 128
-0.998761, 339, 1, 354, 128
-0.998774, 395, 81, 410, 208
-0.998787, 393, 1, 408, 128
-0.998817, 187, 49, 202, 176
-0.998829, 227, 241, 242, 368
-0.998835, 291, 241, 306, 368
-0.998857, 285, 241, 300, 368
-0.99886, 213, 1, 228, 128
-0.998878, 309, 209, 324, 336
-0.998879, 389, 65, 404, 192
-0.99888, 25, 1, 40, 128
-0.998882, 299, 1, 314, 128
-0.998885, 271, 193, 286, 320
-0.998894, 369, 49, 384, 176
-0.998916, 297, 193, 312, 320
-0.998919, 175, 33, 190, 160
-0.998919, 333, 17, 348, 144
-0.998941, 429, 97, 444, 224
-0.998941, 221, 1, 252, 256
-0.998953, 123, 1, 138, 128
-0.998961, 309, 1, 324, 128
-0.998962, 161, 33, 176, 160
-0.998965, 15, 1, 30, 128
-0.998974, 435, 145, 450, 272
-0.998975, 285, 193, 300, 320
-0.998979, 181, 33, 196, 160
-0.998981, 483, 17, 498, 144
-0.998984, 341, 241, 356, 368
-0.998994, 51, 1, 66, 128
-0.998999, 141, 241, 156, 368
-0.999004, 379, 81, 394, 208
-0.999013, 471, 33, 486, 160
-0.999035, 9, 113, 24, 240
-0.999038, 123, 209, 138, 336
-0.999052, 279, 193, 294, 320
-0.999059, 69, 1, 84, 128
-0.999068, 293, 49, 308, 176
-0.999074, 265, 193, 280, 320
-0.999074, 335, 177, 350, 304
-0.999076, 31, 17, 46, 144
-0.999077, 251, 241, 266, 368
-0.999089, 75, 49, 90, 176
-0.999093, 295, 113, 310, 240
-0.999094, 321, 1, 336, 128
-0.999098, 129, 209, 144, 336
-0.999101, 233, 241, 248, 368
-0.999109, 395, 129, 410, 256
-0.999112, 331, 225, 346, 352
-0.999124, 21, 81, 36, 208
-0.999124, 345, 1, 360, 128
-0.999131, 441, 145, 456, 272
-0.999134, 201, 1, 216, 128
-0.999135, 41, 1, 56, 128
-0.999135, 473, 129, 488, 256
-0.999136, 357, 129, 372, 256
-0.999138, 485, 145, 500, 272
-0.99914, 451, 145, 466, 272
-0.999146, 89, 209, 104, 336
-0.999148, 75, 209, 90, 336
-0.999152, 315, 193, 330, 320
-0.999161, 285, 113, 300, 240
-0.999168, 87, 33, 102, 160
-0.99917, 299, 49, 314, 176
-0.999177, 361, 129, 392, 375
-0.999177, 127, 145, 142, 272
-0.999179, 251, 1, 266, 128
-0.999181, 485, 65, 500, 192
-0.999182, 113, 1, 128, 128
-0.999182, 115, 129, 130, 256
-0.999182, 389, 129, 404, 256
-0.999185, 411, 145, 426, 272
-0.999189, 95, 145, 110, 272
-0.999189, 81, 225, 96, 352
-0.999189, 15, 129, 30, 256
-0.999197, 291, 193, 306, 320
-0.999204, 155, 49, 170, 176
-0.999218, 47, 65, 62, 192
-0.999221, 405, 145, 420, 272
-0.999224, 325, 241, 340, 368
-0.999226, 305, 65, 320, 192
-0.99923, 465, 113, 480, 240
-0.999243, 147, 209, 162, 336
-0.999245, 11, 177, 26, 304
-0.99925, 101, 1, 116, 128
-0.999251, 341, 161, 356, 288
-0.999262, 81, 49, 96, 176
-0.999265, 477, 65, 492, 192
-0.999266, 63, 1, 78, 128
-0.999267, 95, 209, 110, 336
-0.999268, 429, 145, 444, 272
-0.999268, 225, 193, 240, 320
-0.99927, 355, 49, 370, 176
-0.99927, 37, 113, 52, 240
-0.999271, 417, 1, 432, 128
-0.999272, 297, 241, 312, 368
-0.999274, 169, 49, 184, 176
-0.999277, 349, 161, 364, 288
-0.999278, 243, 33, 258, 160
-0.999278, 467, 161, 482, 288
-0.99928, 363, 129, 378, 256
-0.99928, 41, 65, 56, 192
-0.999281, 1, 161, 16, 288
-0.999281, 249, 177, 264, 304
-0.999289, 285, 49, 300, 176
-0.999295, 319, 241, 334, 368
-0.999299, 195, 1, 210, 128
-0.999307, 275, 113, 290, 240
-0.999309, 125, 49, 140, 176
-0.999477, 257, 1, 288, 256
-0.99966, 429, 53, 444, 68
-0.999661, 11, 9, 26, 24
-0.999661, 421, 61, 436, 76
-0.999661, 297, 217, 312, 232
-0.999662, 379, 85, 394, 100
-0.999662, 419, 89, 434, 104
-0.999662, 411, 139, 426, 154
-0.999662, 353, 169, 368, 184
-0.999664, 385, 103, 400, 118
-0.999664, 359, 93, 374, 108
-0.999666, 485, 77, 500, 92
-0.999666, 423, 171, 438, 186
-0.999667, 441, 33, 456, 48
-0.999667, 113, 343, 128, 358
-0.999668, 305, 1, 320, 16
-0.999669, 261, 257, 276, 272
-0.999669, 223, 287, 238, 302
-0.999669, 279, 293, 294, 308
-0.99967, 13, 3, 28, 18
-0.99967, 393, 173, 408, 188
-0.999671, 485, 9, 500, 24
-0.999671, 443, 171, 458, 186
-0.999671, 79, 27, 94, 42
-0.999672, 259, 249, 274, 264
-0.999672, 103, 325, 118, 340
-0.999672, 187, 81, 202, 96
-0.999672, 391, 21, 406, 36
-0.999673, 447, 165, 462, 180
-0.999673, 483, 3, 498, 18
-0.999673, 259, 243, 274, 258
-0.999673, 315, 1, 330, 16
-0.999673, 417, 35, 432, 50
-0.999674, 31, 45, 46, 60
-0.999675, 41, 23, 56, 38
-0.999676, 399, 19, 414, 34
-0.999677, 147, 69, 162, 84
-0.999677, 35, 23, 50, 38
-0.999677, 381, 95, 396, 110
-0.999678, 249, 57, 264, 72
-0.999678, 391, 131, 406, 146
-0.999678, 285, 263, 300, 278
-0.999679, 261, 279, 276, 294
-0.99968, 441, 165, 456, 180
-0.999681, 411, 73, 426, 88
-0.999682, 415, 51, 430, 66
-0.999685, 171, 53, 186, 68
-0.999686, 341, 1, 356, 16
-0.999686, 413, 81, 428, 96
-0.999686, 45, 29, 60, 44
-0.999687, 189, 63, 204, 78
-0.999687, 243, 221, 258, 236
-0.999688, 27, 27, 42, 42
-0.999688, 407, 29, 422, 44
-0.999688, 181, 63, 196, 78
-0.999689, 395, 75, 410, 90
-0.99969, 425, 165, 440, 180
-0.999692, 401, 91, 416, 106
-0.999693, 421, 143, 436, 158
-0.999693, 25, 39, 40, 54
-0.999693, 259, 269, 274, 284
-0.999694, 303, 271, 318, 286
-0.999695, 293, 125, 308, 140
-0.999695, 443, 187, 458, 202
-0.999695, 89, 315, 104, 330
-0.999696, 45, 91, 60, 106
-0.999697, 53, 3, 68, 18
-0.999698, 437, 171, 452, 186
-0.999698, 401, 173, 416, 188
-0.999699, 483, 15, 498, 30
-0.999702, 177, 85, 192, 100
-0.999702, 469, 15, 484, 30
-0.999703, 33, 31, 48, 46
-0.999704, 365, 167, 380, 182
-0.999705, 219, 43, 234, 58
-0.999707, 483, 39, 498, 54
-0.999708, 403, 9, 418, 24
-0.999708, 19, 83, 34, 98
-0.999709, 427, 137, 442, 152
-0.999709, 413, 67, 428, 82
-0.999712, 81, 39, 96, 54
-0.999715, 431, 163, 446, 178
-0.999716, 453, 37, 468, 52
-0.999718, 415, 45, 430, 60
-0.99972, 75, 45, 90, 60
-0.999721, 231, 287, 246, 302
-0.999723, 227, 281, 242, 296
-0.999724, 313, 273, 328, 288
-0.999728, 49, 9, 64, 24
-0.999728, 103, 331, 118, 346
-0.999729, 395, 81, 410, 96
-0.999729, 435, 31, 450, 46
-0.999729, 423, 55, 438, 70
-0.99973, 471, 79, 486, 94
-0.99973, 389, 13, 404, 28
-0.999732, 191, 69, 206, 84
-0.999732, 395, 95, 410, 110
-0.999734, 81, 45, 96, 60
-0.999734, 421, 155, 436, 170
-0.999736, 375, 1, 390, 16
-0.999736, 465, 79, 480, 94
-0.99974, 173, 61, 188, 76
-0.999741, 405, 99, 420, 114
-0.999743, 475, 15, 490, 30
-0.999743, 279, 261, 294, 276
-0.999744, 213, 47, 228, 62
-0.999748, 403, 75, 418, 90
-0.99975, 475, 51, 490, 66
-0.999751, 409, 111, 424, 126
-0.999752, 285, 295, 300, 310
-0.999752, 419, 131, 434, 146
-0.999753, 409, 123, 424, 138
-0.999753, 291, 297, 306, 312
-0.999754, 379, 9, 394, 24
-0.999759, 243, 57, 258, 72
-0.999759, 105, 337, 120, 352
-0.99976, 421, 47, 436, 62
-0.999762, 81, 51, 96, 66
-0.999764, 227, 275, 242, 290
-0.999765, 419, 83, 434, 98
-0.999766, 157, 67, 172, 82
-0.999772, 269, 263, 284, 278
-0.999774, 395, 89, 410, 104
-0.999779, 475, 23, 490, 38
-0.999798, 479, 9, 494, 24
-0.999803, 397, 5, 412, 20
-0.999816, 425, 87, 440, 102
-0.999826, 481, 29, 496, 44
-0.999833, 405, 105, 420, 120
-0.999838, 293, 119, 308, 134
-0.999856, 209, 41, 224, 56
-1.00045, 353, 313, 480, 375
-1.0025, 353, 265, 480, 328
-1.0037, 353, 289, 480, 352
-1.00587, 9, 241, 72, 368
-1.00776, 353, 241, 480, 368
-1.01096, 353, 241, 416, 368
-1.01402, 385, 241, 448, 368
-1.01507, 425, 225, 488, 352
