1972
-0.26457, 1, 65, 500, 320
-0.348651, 97, 1, 352, 375
-0.364515, 1, 1, 500, 375
-0.471975, 225, 1, 480, 375
-0.522668, 1, 1, 256, 375
-0.530659, 129, 129, 384, 375
-0.553172, 33, 65, 288, 320
-0.602782, 225, 129, 480, 375
-0.66536, 161, 33, 416, 288
-0.704864, 257, 33, 500, 288
-0.817168, 113, 1, 240, 375
-0.8336, 337, 129, 464, 375
-0.844236, 225, 129, 352, 375
-0.84993, 129, 65, 256, 320
-0.856888, 161, 1, 288, 375
-0.863066, 321, 1, 448, 375
-0.864761, 177, 129, 304, 375
-0.864867, 1, 225, 500, 352
-0.867544, 289, 97, 416, 352
-0.869478, 273, 1, 400, 375
-0.874235, 1, 177, 500, 304
-0.877249, 81, 65, 208, 320
-0.877851, 1, 97, 500, 224
-0.884055, 33, 129, 160, 375
-0.885405, 337, 33, 464, 288
-0.893231, 369, 1, 496, 375
-0.893349, 65, 1, 192, 375
-0.897338, 225, 1, 352, 375
-0.89872, 161, 241, 416, 368
-0.904356, 1, 49, 500, 176
-0.904607, 177, 33, 304, 288
-0.905343, 97, 193, 352, 320
-0.906841, 193, 161, 448, 288
-0.907237, 257, 225, 500, 352
-0.909357, 33, 241, 288, 368
-0.912798, 289, 1, 416, 256
-0.914625, 33, 97, 288, 224
-0.916698, 225, 33, 352, 288
-0.921469, 225, 113, 480, 240
-0.92175, 129, 49, 256, 176
-0.926296, 97, 145, 352, 272
-0.926336, 145, 49, 208, 176
-0.926559, 97, 241, 224, 368
-0.927821, 305, 209, 432, 336
-0.928909, 209, 193, 336, 320
-0.93111, 177, 241, 304, 368
-0.931729, 233, 161, 296, 288
-0.931851, 337, 161, 464, 288
-0.932273, 113, 209, 176, 336
-0.933287, 257, 241, 384, 368
-0.934212, 1, 49, 256, 176
-0.934237, 313, 225, 376, 352
-0.934531, 161, 65, 416, 192
-0.934617, 201, 241, 264, 368
-0.937197, 169, 49, 232, 176
-0.937433, 145, 241, 208, 368
-0.938443, 257, 145, 384, 272
-0.939243, 33, 33, 160, 288
-0.939336, 145, 113, 272, 240
-0.940032, 177, 305, 240, 368
-0.940062, 1, 1, 128, 375
-0.940899, 345, 209, 408, 336
-0.9416, 49, 241, 176, 368
-0.941743, 65, 193, 192, 320
-0.942292, 97, 97, 224, 224
-0.942824, 345, 161, 408, 288
-0.943181, 129, 193, 256, 320
-0.943218, 177, 241, 240, 368
-0.943667, 145, 57, 208, 120
-0.943927, 353, 225, 480, 352
-0.94399, 425, 241, 488, 368
-0.945573, 129, 17, 384, 144
-0.945844, 385, 297, 448, 360
-0.946737, 337, 113, 464, 240
-0.9469, 1, 145, 256, 272
-0.947932, 265, 241, 328, 368
-0.947985, 81, 49, 208, 176
-0.94891, 121, 49, 184, 176
-0.949254, 1, 241, 128, 368
-0.949543, 257, 193, 384, 320
-0.949631, 1, 1, 500, 128
-0.950296, 233, 177, 296, 240
-0.95055, 401, 129, 464, 256
-0.950603, 153, 97, 216, 224
-0.950963, 393, 193, 456, 320
-0.951331, 129, 97, 192, 224
-0.951414, 177, 281, 240, 344
-0.951682, 209, 145, 336, 272
-0.951863, 177, 65, 304, 192
-0.951968, 217, 305, 280, 368
-0.952281, 409, 297, 472, 360
-0.952621, 385, 241, 448, 368
-0.953005, 289, 97, 416, 224
-0.953252, 321, 225, 384, 288
-0.953972, 377, 145, 440, 272
-0.954173, 241, 305, 304, 368
-0.954516, 137, 265, 200, 328
-0.954529, 257, 129, 320, 256
-0.954609, 89, 241, 152, 368
-0.955616, 425, 129, 488, 256
-0.956253, 97, 65, 160, 192
-0.956269, 97, 249, 160, 312
-0.956659, 225, 209, 288, 336
-0.956753, 305, 265, 368, 328
-0.956848, 1, 193, 256, 320
-0.957119, 177, 233, 240, 296
-0.957382, 281, 161, 344, 288
-0.957576, 241, 153, 304, 216
-0.957765, 169, 65, 232, 128
-0.958262, 193, 193, 256, 320
-0.958285, 289, 241, 352, 368
-0.958416, 65, 193, 128, 320
-0.958454, 193, 257, 256, 320
-0.958507, 401, 129, 464, 192
-0.958528, 313, 177, 376, 304
-0.958798, 137, 145, 200, 272
-0.95896, 137, 313, 200, 375
-0.959132, 1, 193, 128, 320
-0.95944, 65, 241, 128, 368
-0.959559, 137, 193, 200, 320
-0.959703, 353, 113, 416, 240
-0.960296, 201, 97, 264, 224
-0.960878, 217, 153, 280, 216
-0.960935, 233, 113, 296, 240
-0.96137, 377, 153, 440, 216
-0.961523, 193, 145, 256, 272
-0.961756, 129, 217, 192, 280
-0.961877, 97, 145, 224, 272
-0.961877, 409, 225, 472, 288
-0.962006, 417, 177, 480, 304
-0.962084, 385, 201, 448, 264
-0.962192, 281, 241, 344, 304
-0.96258, 89, 161, 152, 288
-0.962648, 425, 153, 488, 216
-0.962808, 337, 17, 464, 144
-0.962907, 33, 145, 160, 272
-0.963024, 233, 265, 296, 328
-0.963191, 257, 177, 320, 304
-0.963244, 49, 97, 176, 224
-0.963272, 161, 1, 224, 128
-0.963408, 273, 281, 336, 344
-0.963494, 137, 241, 200, 304
-0.96364, 137, 105, 200, 168
-0.963793, 333, 217, 364, 280
-0.963874, 353, 225, 416, 288
-0.963908, 241, 97, 368, 224
-0.96432, 377, 257, 440, 320
-0.964348, 433, 81, 496, 208
-0.96447, 433, 313, 496, 375
-0.964659, 209, 281, 272, 344
-0.964719, 345, 201, 408, 264
-0.964762, 329, 249, 392, 312
-0.964831, 257, 65, 500, 192
-0.965122, 193, 305, 320, 368
-0.965297, 65, 273, 128, 336
-0.965347, 193, 209, 256, 272
-0.965415, 433, 193, 496, 256
-0.965448, 333, 209, 364, 336
-0.96555, 193, 49, 224, 176
-0.965606, 129, 57, 256, 120
-0.965867, 233, 129, 296, 375
-0.965899, 25, 209, 88, 336
-0.966051, 161, 281, 288, 344
-0.966243, 145, 81, 208, 144
-0.966333, 113, 65, 176, 128
-0.966354, 257, 17, 500, 144
-0.96655, 137, 1, 200, 128
-0.966598, 161, 105, 224, 168
-0.966755, 193, 49, 256, 176
-0.966822, 81, 249, 208, 312
-0.966905, 353, 129, 416, 375
-0.967164, 113, 1, 240, 128
-0.967243, 393, 81, 456, 208
-0.9673, 369, 129, 432, 192
-0.967379, 161, 1, 224, 256
-0.967422, 313, 81, 376, 208
-0.967435, 353, 289, 480, 352
-0.967711, 233, 201, 296, 264
-0.967729, 145, 289, 208, 352
-0.96791, 353, 1, 416, 128
-0.967944, 253, 153, 284, 216
-0.968018, 177, 57, 208, 120
-0.968054, 265, 137, 328, 200
-0.968168, 353, 265, 416, 328
-0.968387, 409, 273, 472, 336
-0.968491, 305, 129, 368, 256
-0.968574, 137, 97, 200, 352
-0.968575, 145, 49, 176, 176
-0.968615, 305, 225, 432, 288
-0.968709, 353, 177, 416, 240
-0.968837, 369, 65, 496, 192
-0.968843, 161, 33, 224, 96
-0.968914, 169, 49, 200, 176
-0.968939, 361, 305, 424, 368
-0.968953, 305, 249, 432, 312
-0.96917, 369, 193, 432, 320
-0.969192, 41, 185, 104, 248
-0.969424, 197, 81, 228, 144
-0.969631, 257, 281, 384, 344
-0.969851, 177, 97, 240, 224
-0.969875, 185, 113, 248, 176
-0.970374, 257, 225, 384, 288
-0.970387, 169, 193, 232, 320
-0.970415, 185, 185, 248, 248
-0.970485, 113, 305, 240, 368
-0.970518, 393, 177, 456, 240
-0.970551, 1, 193, 64, 320
-0.970658, 113, 225, 240, 288
-0.970766, 369, 313, 496, 375
-0.9709, 221, 305, 252, 368
-0.970994, 157, 49, 188, 176
-0.971029, 129, 81, 256, 144
-0.971035, 289, 49, 416, 176
-0.971052, 145, 65, 176, 128
-0.971274, 433, 1, 496, 128
-0.971275, 333, 241, 364, 304
-0.971275, 393, 97, 456, 352
-0.971426, 125, 209, 156, 336
-0.971505, 201, 289, 232, 352
-0.971547, 281, 113, 344, 240
-0.97185, 105, 225, 168, 288
-0.971878, 185, 305, 216, 368
-0.972031, 265, 169, 328, 232
-0.972036, 225, 129, 288, 192
-0.972039, 1, 1, 256, 128
-0.972047, 193, 201, 320, 264
-0.972072, 169, 257, 232, 320
-0.972215, 193, 249, 320, 312
-0.972219, 1, 265, 64, 328
-0.972235, 177, 161, 304, 224
-0.97232, 137, 33, 200, 96
-0.972335, 401, 249, 464, 312
-0.972405, 113, 273, 240, 336
-0.972447, 353, 129, 480, 192
-0.972518, 157, 57, 188, 120
-0.97271, 105, 201, 168, 264
-0.972769, 33, 281, 96, 344
-0.972798, 9, 289, 72, 352
-0.972862, 25, 161, 88, 288
-0.973082, 193, 57, 224, 120
-0.973218, 97, 297, 160, 360
-0.973517, 401, 153, 464, 216
-0.973581, 265, 313, 328, 375
-0.973734, 321, 137, 384, 200
-0.973833, 217, 241, 248, 368
-0.974117, 281, 201, 344, 264
-0.974234, 421, 313, 452, 375
-0.974277, 193, 161, 256, 224
-0.974284, 193, 73, 256, 136
-0.974296, 441, 313, 472, 375
-0.974318, 97, 257, 128, 320
-0.974402, 197, 265, 228, 328
-0.974517, 181, 65, 212, 192
-0.974529, 297, 153, 360, 216
-0.974695, 357, 209, 388, 336
-0.974742, 177, 81, 208, 144
-0.974783, 257, 305, 288, 368
-0.974801, 65, 73, 192, 136
-0.974826, 321, 289, 384, 352
-0.974902, 201, 233, 264, 296
-0.975048, 113, 225, 144, 352
-0.975146, 177, 281, 208, 344
-0.975248, 169, 209, 232, 272
-0.975332, 429, 281, 460, 344
-0.975399, 129, 249, 256, 312
-0.975412, 233, 233, 296, 296
-0.975454, 337, 193, 464, 256
-0.975524, 273, 129, 336, 375
-0.975598, 137, 225, 168, 352
-0.975679, 257, 201, 384, 264
-0.975695, 165, 313, 196, 375
-0.975721, 253, 145, 284, 272
-0.975753, 369, 161, 496, 224
-0.975841, 185, 225, 216, 288
-0.975877, 257, 257, 384, 320
-0.976022, 137, 1, 200, 256
-0.976163, 313, 129, 376, 375
-0.97624, 233, 313, 264, 375
-0.97628, 257, 161, 384, 224
-0.976385, 437, 145, 468, 272
-0.976544, 321, 201, 384, 264
-0.976599, 417, 129, 448, 192
-0.976612, 205, 241, 236, 368
-0.976655, 453, 313, 484, 375
-0.976716, 137, 193, 200, 256
-0.976725, 189, 241, 220, 368
-0.976769, 209, 185, 272, 248
-0.976778, 313, 249, 344, 312
-0.976819, 101, 241, 132, 368
-0.976825, 153, 137, 216, 200
-0.976898, 1, 265, 128, 328
-0.977126, 205, 313, 236, 375
-0.977128, 165, 89, 196, 152
-0.97714, 433, 257, 496, 320
-0.97725, 161, 145, 224, 272
-0.977378, 133, 65, 164, 128
-0.977475, 405, 265, 436, 328
-0.97749, 353, 225, 384, 288
-0.977497, 321, 313, 448, 375
-0.977537, 169, 97, 232, 352
-0.977636, 177, 113, 208, 176
-0.977674, 265, 129, 296, 256
-0.977678, 133, 65, 164, 192
-0.977682, 113, 89, 176, 152
-0.977693, 153, 97, 184, 224
-0.977758, 353, 153, 416, 216
-0.977758, 137, 1, 200, 375
-0.977793, 1, 97, 128, 224
-0.977847, 273, 305, 400, 368
-0.977873, 33, 193, 160, 256
-0.977902, 409, 289, 440, 352
-0.977903, 165, 241, 196, 368
-0.97793, 161, 225, 288, 288
-0.977933, 209, 281, 336, 344
-0.977953, 469, 129, 500, 256
-0.977953, 129, 105, 256, 168
-0.977957, 81, 169, 144, 232
-0.977992, 285, 273, 316, 336
-0.977997, 393, 105, 456, 168
-0.978033, 321, 153, 448, 216
-0.978154, 5, 265, 36, 328
-0.978214, 113, 65, 176, 320
-0.978245, 361, 1, 424, 64
-0.978248, 121, 241, 152, 304
-0.978257, 161, 1, 224, 375
-0.978335, 321, 33, 384, 160
-0.978356, 113, 145, 176, 272
-0.978431, 193, 17, 320, 144
-0.978453, 381, 129, 412, 256
-0.978454, 257, 81, 320, 208
-0.978491, 425, 129, 488, 192
-0.978503, 269, 177, 300, 304
-0.978542, 9, 185, 72, 248
-0.978577, 49, 281, 176, 344
-0.978577, 349, 161, 380, 288
-0.978683, 385, 225, 448, 288
-0.978755, 193, 65, 256, 320
-0.978788, 141, 233, 172, 296
-0.978807, 113, 273, 176, 336
-0.978817, 353, 25, 416, 88
-0.978823, 177, 241, 208, 368
-0.978868, 1, 209, 64, 272
-0.978871, 417, 97, 480, 352
-0.978875, 305, 97, 368, 160
-0.978885, 433, 25, 496, 88
-0.978897, 213, 225, 244, 288
-0.978965, 81, 201, 144, 264
-0.979004, 397, 305, 428, 368
-0.97909, 305, 273, 432, 336
-0.979139, 353, 225, 480, 288
-0.97919, 269, 177, 300, 240
-0.979193, 205, 57, 236, 120
-0.979236, 469, 1, 500, 128
-0.979248, 345, 209, 376, 336
-0.979252, 181, 17, 212, 144
-0.979352, 257, 137, 384, 200
-0.979382, 397, 129, 428, 192
-0.979406, 209, 225, 336, 288
-0.97947, 205, 65, 236, 192
-0.97951, 313, 73, 376, 136
-0.979552, 245, 313, 276, 375
-0.979715, 201, 105, 232, 168
-0.979732, 217, 265, 248, 328
-0.979818, 257, 241, 320, 304
-0.97987, 1, 241, 64, 368
-0.980012, 65, 249, 128, 312
-0.980017, 1, 241, 128, 304
-0.980031, 185, 1, 248, 375
-0.980048, 373, 177, 404, 304
-0.980154, 233, 177, 264, 304
-0.980156, 257, 193, 320, 256
-0.980207, 25, 257, 88, 320
-0.980296, 449, 217, 480, 280
-0.980337, 133, 201, 164, 264
-0.980377, 305, 129, 432, 192
-0.980557, 385, 185, 416, 248
-0.98063, 333, 265, 364, 328
-0.980651, 113, 201, 240, 264
-0.980659, 353, 265, 480, 328
-0.980746, 337, 313, 400, 375
-0.980746, 433, 225, 464, 352
-0.980765, 413, 241, 444, 368
-0.980813, 345, 33, 408, 288
-0.980823, 337, 161, 368, 288
-0.98088, 65, 145, 128, 272
-0.980889, 85, 265, 116, 328
-0.980898, 41, 209, 104, 272
-0.980914, 81, 97, 208, 160
-0.980962, 277, 297, 308, 360
-0.981017, 457, 145, 488, 208
-0.981042, 469, 41, 500, 104
-0.981042, 441, 153, 472, 216
-0.981052, 353, 201, 384, 264
-0.981071, 317, 209, 348, 336
-0.981094, 397, 241, 428, 368
-0.981145, 393, 265, 424, 328
-0.981148, 165, 289, 196, 352
-0.981165, 81, 129, 144, 375
-0.981258, 277, 241, 308, 368
-0.981264, 217, 105, 280, 168
-0.981289, 237, 185, 268, 248
-0.981297, 145, 137, 272, 200
-0.981314, 33, 129, 96, 375
-0.981334, 153, 105, 184, 168
-0.98135, 129, 33, 256, 96
-0.981434, 453, 145, 484, 272
-0.981512, 385, 137, 416, 200
-0.981617, 9, 161, 72, 224
-0.981652, 217, 193, 248, 320
-0.981696, 269, 145, 300, 208
-0.981715, 65, 1, 192, 128
-0.981757, 169, 97, 200, 224
-0.982008, 153, 241, 184, 368
-0.982069, 429, 137, 460, 200
-0.982099, 329, 169, 392, 232
-0.982119, 1, 289, 128, 352
-0.98212, 201, 241, 232, 304
-0.982138, 389, 177, 420, 304
-0.982267, 49, 225, 176, 288
-0.982273, 85, 241, 116, 368
-0.98246, 189, 105, 220, 168
-0.982549, 305, 105, 432, 168
-0.982659, 329, 113, 392, 176
-0.982745, 17, 265, 48, 328
-0.982772, 9, 129, 72, 375
-0.982795, 65, 81, 128, 208
-0.982878, 429, 217, 460, 280
-0.982879, 441, 289, 472, 352
-0.982879, 41, 113, 104, 240
-0.982945, 165, 265, 196, 328
-0.98295, 397, 153, 428, 216
-0.982996, 193, 49, 256, 112
-0.983, 353, 249, 384, 312
-0.983, 381, 313, 412, 375
-0.983058, 469, 193, 500, 256
-0.983066, 445, 225, 476, 352
-0.98312, 177, 137, 240, 200
-0.983132, 205, 193, 236, 256
-0.983154, 113, 177, 240, 240
-0.983271, 381, 241, 412, 368
-0.983311, 385, 1, 448, 256
-0.983351, 177, 105, 304, 168
-0.983434, 109, 249, 140, 312
-0.983482, 177, 249, 208, 312
-0.983488, 281, 113, 344, 176
-0.983503, 461, 169, 492, 232
-0.98353, 317, 225, 348, 288
-0.983551, 193, 73, 320, 136
-0.983556, 433, 225, 496, 288
-0.983624, 297, 241, 328, 368
-0.983694, 169, 1, 200, 128
-0.98371, 97, 17, 160, 144
-0.983711, 133, 265, 164, 328
-0.983712, 13, 209, 44, 336
-0.983807, 229, 241, 260, 368
-0.983838, 409, 313, 440, 375
-0.983922, 153, 313, 184, 375
-0.983947, 225, 193, 256, 256
-0.98398, 369, 49, 432, 176
-0.984001, 193, 97, 224, 224
-0.984026, 121, 161, 152, 288
-0.98404, 433, 289, 496, 352
-0.984041, 469, 49, 500, 176
-0.984058, 145, 41, 176, 104
-0.984091, 261, 281, 292, 344
-0.984247, 193, 1, 224, 128
-0.98428, 321, 33, 384, 288
-0.984287, 409, 145, 440, 272
-0.984324, 33, 49, 160, 176
-0.984395, 33, 185, 64, 248
-0.984483, 209, 81, 240, 144
-0.984483, 441, 241, 472, 304
-0.984621, 129, 305, 160, 368
-0.984635, 469, 145, 500, 208
-0.984641, 257, 241, 288, 368
-0.984676, 121, 137, 184, 200
-0.984687, 433, 57, 496, 120
-0.98475, 17, 113, 80, 240
-0.984792, 121, 209, 152, 272
-0.984856, 209, 137, 336, 200
-0.984878, 97, 145, 224, 208
-0.984931, 389, 233, 420, 296
-0.984941, 345, 49, 408, 176
-0.984959, 97, 289, 128, 352
-0.985007, 217, 145, 248, 272
-0.985178, 361, 161, 392, 288
-0.98523, 285, 169, 316, 232
-0.985283, 373, 169, 404, 232
-0.985302, 41, 161, 104, 224
-0.985321, 317, 137, 348, 200
-0.98536, 141, 97, 172, 160
-0.985376, 101, 193, 132, 320
-0.985416, 161, 185, 224, 248
-0.985426, 273, 273, 304, 336
-0.985488, 417, 169, 448, 232
-0.985522, 57, 185, 88, 248
-0.985531, 165, 113, 196, 176
-0.985675, 397, 201, 428, 264
-0.985738, 321, 1, 384, 375
-0.985847, 249, 177, 280, 240
-0.985933, 113, 41, 176, 104
-0.985943, 305, 193, 336, 320
-0.985945, 305, 177, 368, 240
-0.985955, 341, 193, 372, 256
-0.986029, 217, 169, 248, 232
-0.986054, 185, 201, 216, 264
-0.986123, 181, 113, 212, 240
-0.98613, 381, 289, 412, 352
-0.986156, 333, 137, 364, 200
-0.986163, 397, 113, 428, 240
-0.986187, 113, 289, 144, 352
-0.986266, 361, 313, 392, 375
-0.986266, 409, 201, 472, 264
-0.986269, 457, 193, 488, 256
-0.986359, 425, 105, 488, 168
-0.986369, 69, 209, 100, 336
-0.986375, 193, 33, 224, 96
-0.986415, 361, 161, 392, 224
-0.986432, 369, 25, 496, 88
-0.986452, 425, 129, 456, 256
-0.986501, 145, 265, 176, 328
-0.986535, 325, 161, 356, 288
-0.986541, 73, 273, 104, 336
-0.986566, 197, 193, 228, 320
-0.986613, 429, 193, 460, 256
-0.986627, 113, 1, 176, 375
-0.986637, 65, 225, 128, 288
-0.986673, 53, 209, 84, 336
-0.986734, 9, 233, 72, 296
-0.986752, 429, 161, 460, 224
-0.986775, 73, 81, 136, 144
-0.9868, 377, 1, 440, 375
-0.98684, 385, 1, 448, 128
-0.986852, 81, 49, 208, 112
-0.986874, 289, 177, 320, 304
-0.98693, 229, 153, 260, 216
-0.986989, 433, 1, 496, 256
-0.987008, 45, 273, 76, 336
-0.987061, 177, 25, 208, 88
-0.987084, 369, 241, 400, 368
-0.98711, 285, 129, 316, 256
-0.987135, 1, 241, 32, 368
-0.98714, 1, 289, 32, 352
-0.987173, 369, 97, 432, 160
-0.987243, 373, 193, 404, 256
-0.987296, 229, 113, 260, 240
-0.9873, 129, 169, 192, 232
-0.987314, 469, 17, 500, 80
-0.987315, 433, 1, 496, 64
-0.987395, 185, 193, 216, 320
-0.987396, 201, 337, 264, 368
-0.987414, 65, 305, 192, 368
-0.98743, 417, 217, 448, 280
-0.987431, 313, 81, 344, 208
-0.987458, 413, 241, 444, 304
-0.987482, 21, 193, 52, 256
-0.987482, 129, 281, 384, 344
-0.987492, 385, 1, 448, 64
-0.987526, 313, 281, 344, 344
-0.987544, 89, 57, 152, 120
-0.987561, 165, 33, 196, 96
-0.987571, 369, 289, 400, 352
-0.987612, 417, 193, 448, 320
-0.987633, 385, 161, 416, 224
-0.987677, 345, 33, 376, 160
-0.987708, 177, 305, 240, 336
-0.98771, 85, 193, 116, 320
-0.987742, 457, 225, 488, 352
-0.987752, 89, 113, 152, 240
-0.987765, 289, 1, 416, 128
-0.987773, 321, 41, 448, 104
-0.987778, 369, 1, 496, 64
-0.987791, 253, 97, 284, 224
-0.987796, 197, 217, 228, 280
-0.987826, 137, 65, 200, 96
-0.987854, 97, 137, 160, 200
-0.987882, 73, 249, 104, 312
-0.987963, 69, 177, 100, 240
-0.987984, 21, 161, 52, 288
-0.987997, 361, 113, 392, 240
-0.988036, 345, 1, 408, 375
-0.988073, 137, 101, 200, 132
-0.988246, 257, 217, 320, 280
-0.988249, 185, 1, 248, 128
-0.98825, 33, 169, 160, 232
-0.988262, 325, 81, 356, 208
-0.988274, 57, 121, 120, 184
-0.988282, 241, 177, 304, 208
-0.988318, 137, 85, 200, 116
-0.988338, 241, 189, 304, 220
-0.988351, 177, 293, 240, 324
-0.988403, 321, 229, 384, 260
-0.988409, 337, 65, 464, 128
-0.988418, 401, 1, 464, 375
-0.988471, 137, 177, 168, 304
-0.988483, 157, 1, 188, 128
-0.988494, 241, 113, 368, 176
-0.988536, 281, 33, 344, 288
-0.988537, 137, 129, 168, 256
-0.988557, 69, 161, 100, 288
-0.988569, 241, 161, 304, 192
-0.988589, 209, 1, 272, 375
-0.988636, 161, 101, 224, 132
-0.988652, 177, 333, 240, 364
-0.98867, 417, 321, 480, 352
-0.988766, 425, 345, 488, 375
-0.988795, 217, 177, 280, 208
-0.988804, 233, 333, 296, 364
-0.988804, 161, 65, 224, 96
-0.988818, 33, 225, 64, 352
-0.988826, 241, 113, 272, 240
-0.988863, 217, 313, 280, 344
-0.988904, 57, 129, 120, 375
-0.988929, 385, 313, 448, 344
-0.988977, 177, 225, 240, 256
-0.988995, 193, 177, 448, 240
-0.988996, 385, 341, 448, 372
-0.989014, 385, 137, 448, 168
-0.989049, 177, 237, 240, 268
-0.989079, 169, 345, 232, 375
-0.98914, 193, 49, 320, 112
-0.989162, 177, 321, 240, 352
-0.989184, 321, 249, 384, 280
-0.989185, 273, 1, 336, 375
-0.989186, 385, 329, 448, 360
-0.989199, 33, 265, 288, 328
-0.989202, 169, 85, 232, 116
-0.989209, 425, 217, 488, 248
-0.989251, 105, 257, 168, 288
-0.989335, 137, 245, 200, 276
-0.989339, 193, 189, 256, 220
-0.98934, 345, 225, 408, 256
-0.989388, 465, 177, 496, 304
-0.989422, 345, 213, 408, 244
-0.989451, 149, 193, 180, 320
-0.98946, 353, 185, 416, 216
-0.989462, 233, 345, 296, 375
-0.989477, 1, 273, 500, 336
-0.989518, 49, 277, 112, 308
-0.989523, 193, 273, 256, 304
-0.989536, 409, 301, 472, 332
-0.989541, 377, 293, 440, 324
-0.989613, 177, 113, 240, 144
-0.989633, 313, 145, 344, 272
-0.989674, 341, 81, 372, 208
-0.989689, 417, 157, 480, 188
-0.989691, 257, 345, 320, 375
-0.98971, 297, 1, 360, 375
-0.989746, 353, 297, 416, 328
-0.989755, 209, 297, 272, 328
-0.989758, 225, 289, 480, 352
-0.989767, 217, 33, 280, 288
-0.989777, 89, 1, 152, 375
-0.989819, 193, 153, 448, 216
-0.989864, 241, 313, 304, 344
-0.989866, 245, 241, 276, 368
-0.989877, 233, 301, 296, 332
-0.989916, 177, 249, 240, 280
-0.989917, 137, 233, 200, 264
-0.989921, 385, 213, 448, 244
-0.989926, 297, 1, 360, 128
-0.98995, 25, 293, 88, 324
-0.989956, 361, 309, 424, 340
-0.989964, 273, 153, 336, 184
-0.98997, 145, 297, 208, 328
-0.98999, 449, 81, 480, 208
-0.990023, 217, 189, 280, 220
-0.99004, 345, 241, 408, 272
-0.990052, 201, 325, 264, 356
-0.990064, 161, 249, 416, 312
-0.990072, 33, 177, 64, 304
-0.99008, 401, 193, 432, 320
-0.990084, 265, 165, 328, 196
-0.990088, 153, 113, 216, 144
-0.990093, 353, 105, 480, 168
-0.990095, 321, 17, 448, 80
-0.990102, 17, 121, 144, 184
-0.990123, 401, 289, 464, 320
-0.990126, 1, 277, 64, 308
-0.990155, 81, 265, 144, 296
-0.990156, 41, 193, 104, 224
-0.990163, 409, 145, 472, 176
-0.990171, 433, 201, 496, 232
-0.990181, 185, 101, 248, 132
-0.990213, 305, 269, 368, 300
-0.990221, 33, 297, 288, 360
-0.990277, 137, 321, 200, 352
-0.990304, 233, 201, 296, 232
-0.990317, 345, 257, 408, 288
-0.990324, 209, 165, 272, 196
-0.990333, 273, 281, 336, 312
-0.990343, 121, 65, 152, 192
-0.990353, 393, 225, 456, 256
-0.990383, 377, 169, 440, 200
-0.990387, 161, 201, 416, 264
-0.990406, 385, 201, 448, 232
-0.990449, 113, 105, 176, 136
-0.990452, 81, 197, 144, 228
-0.990482, 205, 113, 236, 240
-0.990489, 113, 89, 176, 120
-0.990494, 233, 273, 296, 304
-0.990527, 393, 181, 456, 212
-0.990546, 201, 229, 264, 260
-0.990548, 321, 145, 384, 176
-0.990554, 361, 197, 424, 228
-0.990579, 289, 233, 352, 264
-0.99059, 265, 177, 328, 208
-0.9906, 1, 265, 64, 296
-0.990604, 193, 205, 256, 236
-0.990604, 241, 1, 304, 375
-0.990612, 217, 49, 280, 176
-0.990621, 41, 129, 72, 256
-0.990629, 25, 273, 88, 304
-0.990664, 361, 325, 424, 356
-0.990678, 297, 257, 360, 288
-0.990702, 9, 197, 72, 228
-0.990712, 305, 285, 368, 316
-0.990716, 409, 333, 472, 364
-0.990726, 1, 293, 64, 324
-0.99073, 65, 289, 128, 320
-0.990753, 145, 1, 176, 128
-0.990754, 409, 237, 472, 268
-0.990764, 297, 245, 360, 276
-0.990772, 409, 205, 472, 236
-0.990792, 257, 233, 500, 296
-0.990793, 161, 53, 224, 84
-0.9908, 369, 157, 432, 188
-0.9908, 93, 145, 124, 272
-0.990805, 361, 145, 424, 176
-0.990831, 193, 313, 448, 375
-0.990853, 337, 173, 400, 204
-0.990871, 217, 49, 248, 176
-0.990914, 233, 289, 296, 320
-0.990928, 201, 217, 264, 248
-0.990945, 1, 193, 32, 320
-0.990952, 113, 245, 176, 276
-0.990958, 169, 281, 232, 312
-0.990977, 145, 337, 208, 368
-0.990984, 369, 261, 432, 292
-0.991006, 425, 1, 488, 375
-0.991022, 137, 53, 200, 84
-0.991023, 137, 221, 200, 252
-0.991031, 129, 65, 384, 128
-0.991041, 201, 285, 264, 316
-0.991046, 193, 261, 256, 292
-0.991073, 89, 293, 152, 324
-0.991074, 281, 141, 344, 172
-0.991085, 265, 301, 328, 332
-0.991086, 105, 73, 168, 104
-0.991088, 217, 261, 280, 292
-0.991113, 49, 145, 176, 208
-0.991128, 329, 269, 392, 300
-0.991132, 409, 249, 472, 280
-0.99114, 49, 257, 112, 288
-0.991144, 185, 73, 248, 104
-0.991148, 145, 273, 208, 304
-0.991171, 193, 177, 256, 208
-0.991187, 217, 153, 280, 184
-0.991197, 169, 185, 232, 216
-0.991203, 89, 245, 152, 276
-0.991206, 97, 161, 352, 224
-0.991207, 257, 333, 320, 364
-0.991226, 1, 201, 500, 264
-0.991226, 201, 241, 264, 272
-0.991238, 265, 321, 328, 352
-0.991249, 369, 225, 432, 256
-0.991283, 57, 161, 88, 288
-0.991342, 33, 73, 288, 136
-0.99142, 1, 233, 500, 296
-0.991608, 161, 309, 288, 340
-0.99165, 1, 217, 128, 280
-0.991683, 281, 65, 344, 192
-0.99169, 65, 241, 320, 304
-0.99173, 193, 145, 224, 272
-0.991739, 113, 65, 240, 96
-0.991769, 301, 129, 332, 256
-0.991959, 233, 333, 264, 364
-0.991963, 129, 93, 256, 124
-0.991965, 333, 249, 364, 280
-0.991999, 213, 333, 244, 364
-0.992041, 333, 225, 364, 256
-0.992042, 173, 101, 204, 132
-0.992072, 145, 65, 176, 96
-0.992088, 197, 85, 228, 116
-0.992099, 193, 101, 224, 132
-0.992113, 253, 173, 284, 204
-0.992115, 33, 97, 288, 160
-0.992116, 245, 341, 276, 372
-0.992117, 197, 65, 228, 96
-0.992126, 257, 129, 500, 192
-0.99213, 413, 333, 444, 364
-0.992134, 353, 225, 384, 256
-0.992139, 193, 345, 224, 375
-0.992155, 185, 289, 216, 320
-0.992175, 153, 105, 184, 136
-0.992194, 433, 81, 464, 208
-0.992205, 177, 345, 208, 375
-0.992241, 417, 345, 448, 375
-0.992255, 201, 305, 232, 336
-0.992262, 253, 161, 284, 192
-0.992283, 161, 177, 192, 304
-0.992288, 1, 113, 32, 240
-0.992302, 177, 85, 208, 116
-0.992306, 257, 257, 500, 320
-0.99232, 161, 325, 288, 356
-0.992326, 257, 33, 320, 288
-0.992332, 333, 237, 364, 268
-0.992346, 385, 193, 416, 224
-0.992349, 21, 113, 52, 240
-0.992355, 201, 293, 232, 324
-0.99239, 429, 341, 460, 372
-0.992394, 221, 317, 252, 348
-0.992397, 193, 341, 320, 372
-0.992402, 209, 225, 240, 256
-0.992409, 441, 213, 472, 244
-0.992409, 73, 277, 104, 308
-0.992412, 269, 157, 300, 188
-0.992414, 233, 177, 264, 208
-0.992423, 181, 65, 212, 96
-0.992425, 357, 237, 388, 268
-0.992433, 269, 177, 300, 208
-0.992451, 177, 305, 208, 336
-0.992452, 377, 317, 408, 348
-0.992464, 85, 273, 116, 304
-0.99247, 441, 325, 472, 356
-0.992471, 185, 237, 216, 268
-0.992472, 329, 273, 360, 304
-0.99248, 257, 201, 500, 264
-0.992486, 257, 89, 384, 152
-0.992497, 421, 81, 452, 208
-0.992505, 161, 225, 416, 288
-0.992513, 413, 293, 444, 324
-0.992531, 217, 285, 248, 316
-0.992531, 9, 281, 40, 312
-0.992537, 1, 193, 256, 256
-0.992537, 453, 325, 484, 356
-0.992544, 185, 225, 216, 256
-0.992551, 393, 345, 424, 375
-0.992556, 1, 293, 32, 324
-0.992559, 313, 237, 344, 268
-0.99256, 205, 345, 236, 375
-0.992573, 165, 321, 196, 352
-0.992577, 197, 273, 228, 304
-0.992589, 377, 177, 408, 208
-0.992591, 217, 189, 248, 220
-0.992594, 125, 237, 156, 268
-0.992595, 269, 189, 300, 220
-0.992597, 265, 301, 296, 332
-0.992604, 209, 237, 240, 268
-0.992604, 445, 341, 476, 372
-0.992613, 165, 65, 196, 96
-0.992613, 277, 313, 308, 344
-0.992616, 461, 337, 492, 368
-0.992627, 449, 201, 480, 232
-0.992636, 137, 101, 168, 132
-0.992652, 317, 265, 348, 296
-0.992653, 201, 333, 232, 364
-0.992663, 385, 333, 416, 364
-0.992666, 205, 1, 236, 128
-0.992676, 17, 293, 48, 324
-0.992678, 165, 301, 196, 332
-0.992684, 265, 341, 296, 372
-0.992685, 147, 65, 162, 128
-0.992694, 217, 253, 248, 284
-0.992696, 53, 285, 84, 316
-0.9927, 97, 137, 352, 200
-0.992702, 393, 261, 424, 292
-0.992702, 373, 225, 404, 256
-0.992707, 45, 193, 76, 224
-0.99271, 37, 293, 68, 324
-0.99271, 185, 113, 216, 144
-0.992713, 433, 289, 464, 320
-0.992714, 109, 297, 140, 328
-0.992715, 217, 97, 248, 224
-0.992717, 221, 297, 252, 328
-0.992721, 149, 93, 180, 124
-0.992727, 421, 313, 452, 344
-0.992728, 321, 225, 352, 256
-0.99273, 397, 309, 428, 340
-0.992737, 281, 281, 312, 312
-0.992741, 357, 1, 388, 128
-0.992742, 401, 193, 432, 224
-0.992744, 465, 201, 496, 232
-0.992746, 197, 113, 228, 144
-0.992747, 9, 265, 40, 296
-0.992749, 205, 101, 236, 132
-0.992757, 185, 333, 216, 364
-0.992772, 237, 193, 268, 224
-0.992781, 1, 209, 32, 240
-0.992782, 425, 329, 456, 360
-0.992786, 445, 153, 476, 184
-0.992788, 133, 81, 164, 112
-0.992788, 129, 249, 160, 280
-0.992792, 441, 225, 472, 256
-0.992796, 201, 185, 232, 216
-0.992796, 401, 333, 432, 364
-0.992797, 253, 309, 284, 340
-0.992802, 69, 193, 100, 224
-0.992803, 365, 181, 396, 212
-0.992804, 245, 329, 276, 360
-0.992809, 197, 221, 228, 252
-0.992809, 469, 25, 500, 56
-0.992809, 405, 261, 436, 292
-0.99281, 113, 245, 144, 276
-0.992811, 257, 233, 384, 264
-0.992812, 465, 153, 496, 184
-0.992813, 425, 153, 456, 184
-0.992817, 393, 249, 424, 280
-0.992817, 341, 269, 372, 300
-0.992818, 405, 345, 436, 375
-0.99282, 93, 261, 124, 292
-0.992821, 461, 213, 492, 244
-0.992821, 421, 141, 452, 172
-0.992828, 21, 217, 52, 248
-0.992833, 389, 133, 420, 164
-0.992834, 469, 173, 500, 204
-0.992837, 217, 273, 248, 304
-0.992844, 261, 329, 292, 360
-0.992846, 345, 237, 376, 268
-0.992849, 113, 197, 144, 228
-0.992855, 373, 333, 404, 364
-0.992855, 205, 253, 236, 284
-0.992856, 161, 89, 192, 120
-0.992859, 373, 305, 404, 336
-0.992859, 33, 205, 64, 236
-0.992859, 173, 193, 204, 320
-0.99287, 133, 69, 164, 100
-0.992871, 405, 137, 436, 168
-0.992872, 421, 281, 452, 312
-0.992889, 1, 73, 500, 136
-0.993042, 73, 113, 104, 240
-0.993055, 129, 81, 256, 112
-0.993061, 305, 237, 432, 268
-0.993087, 337, 313, 464, 344
-0.993117, 481, 17, 496, 80
-0.993121, 369, 341, 496, 372
-0.993144, 409, 97, 440, 224
-0.993155, 335, 217, 350, 280
-0.993195, 81, 265, 208, 296
-0.993238, 33, 217, 288, 280
-0.993274, 425, 305, 440, 368
-0.993275, 213, 297, 228, 360
-0.99331, 17, 289, 144, 320
-0.99332, 1, 145, 128, 208
-0.993322, 1, 97, 128, 160
-0.993338, 1, 105, 500, 168
-0.993384, 133, 17, 164, 144
-0.993393, 129, 297, 256, 328
-0.993399, 257, 245, 384, 276
-0.993419, 81, 25, 208, 88
-0.993424, 1, 177, 500, 240
-0.993434, 353, 141, 480, 172
-0.99344, 207, 65, 222, 128
-0.993457, 101, 65, 132, 192
-0.993497, 273, 1, 400, 64
-0.993512, 257, 65, 384, 128
-0.993568, 177, 17, 304, 80
-0.993586, 73, 33, 136, 160
-0.993644, 337, 213, 464, 244
-0.993656, 161, 89, 416, 152
-0.99367, 177, 189, 304, 220
-0.993671, 223, 313, 238, 375
-0.993676, 209, 317, 336, 348
-0.993681, 129, 249, 256, 280
-0.993688, 187, 305, 202, 368
-0.993739, 397, 65, 428, 192
-0.99378, 1, 313, 128, 375
-0.993781, 257, 257, 384, 288
-0.993822, 241, 49, 368, 176
-0.993823, 305, 257, 432, 288
-0.993828, 257, 221, 384, 252
-0.993838, 347, 217, 362, 280
-0.993885, 155, 65, 170, 128
-0.993895, 1, 297, 500, 360
-0.993901, 321, 225, 448, 256
-0.993902, 225, 157, 352, 188
-0.99391, 197, 265, 212, 328
-0.993928, 201, 57, 216, 120
-0.993931, 65, 121, 192, 184
-0.993938, 457, 313, 472, 375
-0.993956, 281, 305, 296, 368
-0.993978, 41, 65, 104, 192
-0.994011, 161, 285, 288, 316
-0.994018, 177, 273, 304, 304
-0.994048, 113, 105, 240, 136
-0.994151, 369, 325, 496, 356
-0.99416, 177, 297, 304, 328
-0.994166, 33, 197, 160, 228
-0.994168, 261, 153, 276, 216
-0.994174, 177, 313, 192, 375
-0.994177, 431, 313, 446, 375
-0.994242, 81, 241, 208, 272
-0.994252, 257, 41, 384, 104
-0.994289, 187, 57, 202, 120
-0.994294, 149, 145, 180, 272
-0.994299, 193, 57, 208, 120
-0.994309, 179, 81, 194, 144
-0.994317, 1, 277, 128, 308
-0.994359, 357, 225, 372, 288
-0.994361, 1, 153, 256, 216
-0.994368, 337, 293, 464, 324
-0.99437, 179, 57, 194, 120
-0.99437, 225, 169, 352, 200
-0.994392, 129, 229, 256, 260
-0.994395, 201, 81, 216, 144
-0.994434, 327, 233, 342, 296
-0.994455, 113, 309, 240, 340
-0.994481, 393, 1, 424, 128
-0.994536, 369, 189, 496, 220
-0.994538, 207, 89, 222, 152
-0.994567, 225, 281, 352, 312
-0.99457, 165, 57, 180, 120
-0.994575, 129, 33, 384, 96
-0.994585, 305, 149, 432, 180
-0.994608, 193, 217, 320, 248
-0.994613, 335, 241, 350, 304
-0.994614, 369, 177, 496, 208
-0.994619, 89, 65, 120, 192
-0.994619, 177, 165, 304, 196
-0.994675, 129, 113, 384, 176
-0.994686, 369, 201, 496, 232
-0.994689, 209, 329, 336, 360
-0.994726, 305, 269, 432, 300
-0.994744, 93, 265, 108, 328
-0.994763, 187, 281, 202, 344
-0.994763, 369, 161, 496, 192
-0.994764, 205, 265, 220, 328
-0.994776, 177, 177, 304, 208
-0.994784, 101, 257, 116, 320
-0.994786, 241, 1, 368, 128
-0.994798, 397, 193, 412, 256
-0.994811, 193, 233, 320, 264
-0.99482, 81, 253, 208, 284
-0.994835, 225, 185, 352, 216
-0.994863, 97, 285, 224, 316
-0.994865, 321, 161, 448, 192
-0.994894, 429, 129, 444, 192
-0.994909, 107, 257, 122, 320
-0.994913, 1, 153, 500, 216
-0.994914, 247, 305, 262, 368
-0.994929, 145, 337, 272, 368
-0.994933, 105, 129, 136, 256
-0.994955, 403, 265, 418, 328
-0.994977, 173, 57, 188, 120
-0.994977, 423, 281, 438, 344
-0.995002, 279, 281, 294, 344
-0.995005, 205, 289, 220, 352
-0.995011, 1, 49, 256, 112
-0.995011, 171, 97, 186, 160
-0.995034, 435, 281, 450, 344
-0.995049, 255, 153, 270, 216
-0.995055, 273, 285, 400, 316
-0.995058, 49, 81, 176, 112
-0.995063, 341, 225, 356, 288
-0.995075, 273, 313, 400, 344
-0.995081, 285, 273, 300, 336
-0.995085, 113, 321, 240, 352
-0.99509, 187, 225, 202, 288
-0.99509, 161, 105, 288, 136
-0.995094, 213, 265, 228, 328
-0.995106, 409, 1, 472, 256
-0.995117, 449, 313, 464, 375
-0.995125, 415, 129, 430, 192
-0.995136, 257, 269, 384, 300
-0.995142, 181, 281, 196, 344
-0.995145, 189, 113, 204, 176
-0.995163, 241, 305, 256, 368
-0.995166, 1, 129, 500, 192
-0.995189, 193, 205, 320, 236
-0.995209, 177, 153, 304, 184
-0.995209, 193, 253, 320, 284
-0.995217, 129, 117, 256, 148
-0.995223, 73, 33, 136, 288
-0.995226, 147, 233, 162, 296
-0.995226, 69, 65, 100, 192
-0.995226, 171, 313, 186, 375
-0.995257, 451, 153, 466, 216
-0.995261, 329, 257, 344, 320
-0.995261, 257, 297, 384, 328
-0.995263, 355, 265, 370, 328
-0.995267, 129, 273, 256, 304
-0.995282, 65, 101, 192, 132
-0.995307, 181, 113, 196, 176
-0.995322, 253, 305, 268, 368
-0.995338, 421, 129, 436, 192
-0.995346, 137, 217, 152, 280
-0.995352, 41, 33, 104, 288
-0.995362, 195, 97, 210, 160
-0.995396, 81, 297, 208, 328
-0.995404, 33, 49, 160, 112
-0.995412, 225, 145, 352, 176
-0.995422, 467, 313, 482, 375
-0.995429, 417, 265, 432, 328
-0.99543, 265, 81, 296, 208
-0.99545, 185, 81, 200, 144
-0.995462, 143, 265, 158, 328
-0.995469, 437, 313, 452, 375
-0.99547, 369, 241, 496, 272
-0.995483, 249, 169, 264, 232
-0.995492, 161, 313, 176, 375
-0.995511, 235, 313, 250, 375
-0.99552, 435, 137, 450, 200
-0.995526, 407, 241, 422, 304
-0.995528, 129, 261, 256, 292
-0.995559, 337, 281, 464, 312
-0.995562, 219, 233, 234, 296
-0.995574, 469, 145, 484, 208
-0.995579, 193, 305, 208, 368
-0.995584, 227, 241, 242, 304
-0.995591, 129, 189, 256, 220
-0.995601, 269, 297, 284, 360
-0.995606, 449, 225, 464, 288
-0.995611, 407, 129, 422, 192
-0.995617, 129, 53, 256, 84
-0.995619, 457, 1, 488, 128
-0.995628, 209, 241, 224, 304
-0.995659, 145, 201, 272, 232
-0.99566, 291, 273, 306, 336
-0.995663, 443, 313, 458, 375
-0.995681, 483, 65, 498, 128
-0.995681, 289, 325, 416, 356
-0.995688, 213, 105, 228, 168
-0.995691, 267, 161, 282, 224
-0.995694, 117, 113, 148, 240
-0.995694, 391, 185, 406, 248
-0.995743, 479, 185, 494, 248
-0.995745, 409, 49, 440, 176
-0.995753, 207, 313, 222, 375
-0.995765, 479, 145, 494, 208
-0.995771, 169, 1, 200, 256
-0.995773, 249, 193, 280, 320
-0.995776, 147, 89, 162, 152
-0.995777, 157, 97, 172, 160
-0.995784, 259, 305, 274, 368
-0.995788, 321, 249, 336, 312
-0.995796, 443, 289, 458, 352
-0.995802, 273, 161, 400, 192
-0.995808, 395, 313, 410, 375
-0.995811, 165, 105, 180, 168
-0.99582, 175, 289, 190, 352
-0.995822, 1, 253, 128, 284
-0.99583, 399, 129, 414, 192
-0.995853, 275, 313, 290, 375
-0.995853, 287, 313, 302, 375
-0.995855, 257, 205, 384, 236
-0.995858, 471, 177, 486, 240
-0.995861, 153, 41, 168, 104
-0.995862, 169, 273, 184, 336
-0.995865, 409, 273, 424, 336
-0.995867, 361, 201, 376, 264
-0.99587, 485, 145, 500, 208
-0.995873, 321, 201, 448, 232
-0.995885, 453, 289, 468, 352
-0.995888, 429, 281, 444, 344
-0.995893, 305, 137, 432, 168
-0.995913, 181, 1, 212, 256
-0.995918, 459, 217, 474, 280
-0.995929, 393, 129, 408, 192
-0.995942, 349, 257, 364, 320
-0.995979, 441, 209, 456, 272
-0.99598, 237, 193, 252, 256
-0.995984, 217, 81, 232, 144
-0.995988, 33, 213, 160, 244
-0.995996, 481, 41, 496, 104
-0.996024, 403, 193, 418, 256
-0.996025, 11, 265, 26, 328
-0.996035, 199, 313, 214, 375
-0.996037, 3, 281, 18, 344
-0.996039, 137, 57, 152, 120
-0.996053, 145, 217, 272, 248
-0.996055, 281, 177, 296, 240
-0.996066, 213, 209, 228, 272
-0.99607, 459, 153, 474, 216
-0.996072, 397, 153, 412, 216
-0.996081, 185, 257, 200, 320
-0.996087, 321, 345, 448, 375
-0.996096, 17, 265, 32, 328
-0.996109, 335, 265, 350, 328
-0.996118, 113, 257, 128, 320
-0.996124, 273, 173, 400, 204
-0.996136, 111, 289, 126, 352
-0.996141, 223, 209, 238, 272
-0.996146, 393, 97, 424, 352
-0.996166, 369, 257, 496, 288
-0.996166, 1, 49, 500, 112
-0.996201, 17, 73, 144, 136
-0.996234, 369, 225, 496, 256
-0.996249, 57, 1, 120, 375
-0.9963, 205, 345, 220, 375
-0.996332, 113, 145, 240, 176
-0.996353, 239, 333, 254, 364
-0.996362, 321, 173, 448, 204
-0.996371, 121, 1, 152, 128
-0.996398, 1, 265, 128, 296
-0.996425, 257, 105, 500, 168
-0.996448, 153, 65, 184, 320
-0.996455, 273, 337, 400, 368
-0.996473, 249, 129, 280, 375
-0.99648, 305, 185, 432, 216
-0.99653, 137, 65, 168, 320
-0.996557, 193, 33, 224, 288
-0.996564, 257, 49, 500, 112
-0.996584, 97, 205, 224, 236
-0.996655, 165, 97, 196, 352
-0.996681, 377, 129, 408, 375
-0.99671, 65, 309, 192, 340
-0.996717, 147, 65, 162, 96
-0.996721, 433, 341, 448, 372
-0.996741, 65, 113, 192, 144
-0.996757, 49, 277, 176, 308
-0.996759, 81, 229, 208, 260
-0.996766, 481, 21, 496, 52
-0.996801, 333, 129, 364, 375
-0.996802, 201, 81, 216, 112
-0.996887, 185, 101, 200, 132
-0.99689, 209, 1, 272, 128
-0.99689, 175, 101, 190, 132
-0.996896, 207, 65, 222, 96
-0.9969, 199, 345, 214, 375
-0.996903, 481, 45, 496, 76
-0.996911, 427, 329, 442, 360
-0.996925, 245, 333, 260, 364
-0.996937, 369, 29, 496, 60
-0.996951, 281, 313, 296, 344
-0.996959, 195, 101, 210, 132
-0.996965, 177, 141, 304, 172
-0.99697, 209, 109, 336, 140
-0.996979, 333, 225, 348, 256
-0.996983, 1, 121, 256, 184
-0.996989, 469, 33, 500, 288
-0.997015, 161, 69, 288, 100
-0.997036, 259, 341, 274, 372
-0.997045, 433, 129, 464, 375
-0.997054, 467, 325, 482, 356
-0.997062, 209, 101, 224, 132
-0.997069, 97, 345, 224, 375
-0.997085, 215, 333, 230, 364
-0.997098, 397, 197, 412, 228
-0.99715, 405, 97, 436, 352
-0.997155, 205, 293, 220, 324
-0.997164, 261, 129, 292, 375
-0.997172, 181, 97, 212, 352
-0.997173, 335, 245, 350, 276
-0.997209, 261, 161, 276, 192
-0.997212, 369, 129, 496, 160
-0.99722, 177, 81, 304, 112
-0.997233, 369, 41, 496, 72
-0.997244, 175, 317, 190, 348
-0.997244, 423, 345, 438, 375
-0.997247, 49, 69, 176, 100
-0.997254, 157, 105, 172, 136
-0.997258, 177, 93, 304, 124
-0.997258, 201, 109, 216, 140
-0.997266, 351, 221, 366, 252
-0.997302, 257, 17, 500, 80
-0.997304, 177, 129, 304, 160
-0.997305, 257, 81, 500, 144
-0.997319, 461, 129, 492, 375
-0.997322, 147, 85, 162, 116
-0.997327, 457, 325, 472, 356
-0.997332, 211, 229, 226, 260
-0.997334, 233, 333, 248, 364
-0.997339, 97, 217, 224, 248
-0.997344, 17, 185, 144, 216
-0.997347, 187, 305, 202, 336
-0.997368, 205, 33, 236, 288
-0.997383, 305, 125, 432, 156
-0.997385, 369, 17, 496, 48
-0.997386, 421, 333, 436, 364
-0.997387, 201, 65, 216, 96
-0.997388, 179, 89, 194, 120
-0.997392, 347, 233, 362, 264
-0.997392, 279, 301, 294, 332
-0.997404, 465, 241, 480, 272
-0.997409, 327, 237, 342, 268
-0.997418, 441, 145, 456, 176
-0.997419, 209, 81, 224, 112
-0.997423, 347, 245, 362, 276
-0.997428, 221, 225, 236, 256
-0.997428, 189, 289, 204, 320
-0.997437, 215, 305, 230, 336
-0.997439, 273, 153, 288, 184
-0.997448, 193, 57, 320, 88
-0.997455, 395, 337, 410, 368
-0.997455, 181, 297, 196, 328
-0.997459, 97, 333, 224, 364
-0.997459, 309, 97, 340, 352
-0.997464, 129, 177, 256, 208
-0.997468, 87, 273, 102, 304
-0.997478, 341, 233, 356, 264
-0.997485, 467, 337, 482, 368
-0.997488, 199, 293, 214, 324
-0.99749, 361, 225, 376, 256
-0.99749, 345, 33, 376, 288
-0.99749, 237, 129, 268, 375
-0.997492, 21, 289, 36, 320
-0.997496, 397, 213, 412, 244
-0.997497, 149, 101, 164, 132
-0.997507, 121, 129, 152, 375
-0.997526, 141, 249, 156, 280
-0.997528, 77, 277, 92, 308
-0.997534, 433, 325, 448, 356
-0.997536, 167, 105, 182, 136
-0.997539, 81, 1, 208, 64
-0.997544, 321, 97, 352, 352
-0.997549, 193, 345, 208, 375
-0.997552, 221, 237, 236, 268
-0.997554, 225, 133, 352, 164
-0.997556, 95, 269, 110, 300
-0.997562, 333, 273, 348, 304
-0.99757, 453, 221, 468, 252
-0.997579, 251, 333, 266, 364
-0.99758, 277, 165, 292, 196
-0.99758, 461, 341, 476, 372
-0.997582, 345, 273, 360, 304
-0.997589, 179, 65, 194, 96
-0.997589, 305, 105, 432, 136
-0.997592, 365, 129, 396, 375
-0.997599, 409, 33, 472, 160
-0.997604, 153, 65, 168, 96
-0.997617, 241, 345, 256, 375
-0.997622, 227, 337, 242, 368
-0.997623, 181, 333, 196, 364
-0.997623, 449, 129, 480, 375
-0.997624, 67, 281, 82, 312
-0.997625, 209, 333, 224, 364
-0.997628, 201, 97, 216, 128
-0.997635, 277, 129, 308, 375
-0.99764, 195, 65, 210, 96
-0.997657, 9, 285, 24, 316
-0.997657, 185, 237, 200, 268
-0.997666, 185, 85, 200, 116
-0.997667, 435, 141, 450, 172
-0.997671, 329, 253, 344, 284
-0.997678, 285, 277, 300, 308
-0.997682, 227, 317, 242, 348
-0.997684, 169, 65, 184, 96
-0.997692, 369, 269, 496, 300
-0.997693, 1, 25, 256, 88
-0.997694, 227, 221, 242, 252
-0.997694, 425, 317, 440, 348
-0.997696, 407, 197, 422, 228
-0.997697, 41, 289, 56, 320
-0.9977, 321, 61, 448, 92
-0.997707, 455, 341, 470, 372
-0.997713, 33, 241, 160, 272
-0.997716, 181, 309, 196, 340
-0.997716, 337, 1, 464, 32
-0.997716, 409, 261, 424, 292
-0.997722, 353, 129, 384, 375
-0.997725, 339, 273, 354, 304
-0.997726, 273, 297, 288, 328
-0.99773, 327, 269, 342, 300
-0.997733, 217, 321, 232, 352
-0.997736, 457, 241, 472, 272
-0.997747, 213, 289, 228, 320
-0.997747, 65, 185, 192, 216
-0.997756, 417, 345, 432, 375
-0.997762, 187, 341, 202, 372
-0.997766, 245, 193, 260, 224
-0.997768, 461, 217, 476, 248
-0.997769, 195, 113, 210, 144
-0.997771, 387, 177, 402, 208
-0.997773, 113, 41, 240, 72
-0.997774, 289, 129, 320, 375
-0.997781, 445, 321, 460, 352
-0.997787, 391, 193, 406, 224
-0.99779, 353, 233, 368, 264
-0.997792, 163, 65, 178, 96
-0.997794, 389, 257, 404, 288
-0.997805, 381, 173, 396, 204
-0.997812, 13, 273, 28, 304
-0.997815, 439, 341, 454, 372
-0.99782, 423, 293, 438, 324
-0.997822, 213, 345, 228, 375
-0.997826, 343, 217, 358, 248
-0.997826, 279, 177, 294, 208
-0.997827, 53, 129, 84, 375
-0.997827, 33, 137, 160, 168
-0.997827, 29, 293, 44, 324
-0.997829, 129, 157, 256, 188
-0.997835, 185, 65, 200, 96
-0.997838, 439, 325, 454, 356
-0.997839, 471, 189, 486, 220
-0.997846, 29, 129, 60, 375
-0.997851, 227, 241, 242, 272
-0.997852, 459, 313, 474, 344
-0.997862, 267, 153, 282, 184
-0.997865, 427, 305, 442, 336
-0.997865, 387, 213, 402, 244
-0.997867, 209, 113, 224, 144
-0.997872, 457, 205, 472, 236
-0.997873, 33, 225, 160, 256
-0.997918, 209, 129, 240, 375
-0.997923, 81, 157, 208, 188
-0.997932, 321, 45, 448, 76
-0.997957, 1, 1, 64, 375
-0.997962, 305, 17, 432, 48
-0.997968, 421, 129, 452, 375
-0.998054, 337, 89, 464, 120
-0.998093, 161, 9, 416, 72
-0.998114, 129, 9, 256, 72
-0.998117, 33, 149, 160, 180
-0.998184, 105, 129, 136, 375
-0.998247, 457, 33, 488, 288
-0.998264, 193, 129, 224, 375
-0.99827, 41, 129, 72, 375
-0.998289, 357, 33, 388, 288
-0.998294, 397, 1, 428, 256
-0.998316, 93, 129, 124, 375
-0.99834, 201, 343, 264, 358
-0.998343, 161, 113, 224, 128
-0.998343, 69, 129, 100, 375
-0.998371, 241, 187, 304, 202
-0.998376, 137, 91, 200, 106
-0.99838, 241, 177, 304, 192
-0.998384, 145, 101, 208, 116
-0.998391, 177, 335, 240, 350
-0.998396, 169, 297, 232, 312
-0.998397, 49, 289, 112, 304
-0.998399, 381, 1, 412, 256
-0.9984, 417, 327, 480, 342
-0.998403, 483, 1, 498, 128
-0.998404, 169, 359, 232, 374
-0.998405, 241, 193, 304, 208
-0.998407, 201, 337, 264, 352
-0.998412, 321, 257, 384, 272
-0.998428, 385, 137, 448, 152
-0.99843, 177, 239, 240, 254
-0.998434, 177, 309, 240, 324
-0.998436, 137, 67, 200, 82
-0.998436, 185, 351, 248, 366
-0.998438, 233, 335, 296, 350
-0.998438, 233, 351, 296, 366
-0.998439, 345, 261, 408, 276
-0.99844, 241, 171, 304, 186
-0.998443, 169, 107, 232, 122
-0.998448, 241, 163, 304, 178
-0.998449, 161, 65, 224, 80
-0.998452, 129, 107, 192, 122
-0.998454, 169, 99, 232, 114
-0.998458, 417, 349, 480, 364
-0.998465, 345, 225, 408, 240
-0.998466, 217, 329, 248, 344
-0.998466, 265, 361, 296, 375
-0.998466, 177, 321, 240, 336
-0.998466, 45, 199, 76, 214
-0.998468, 469, 209, 500, 224
-0.998468, 397, 189, 428, 204
-0.998468, 209, 183, 272, 198
-0.998469, 21, 201, 52, 216
-0.998469, 369, 319, 400, 334
-0.998469, 177, 299, 208, 314
-0.99847, 465, 153, 496, 168
-0.99847, 385, 323, 448, 338
-0.99847, 233, 189, 264, 204
-0.99847, 169, 93, 232, 108
-0.998471, 321, 231, 384, 246
-0.998471, 433, 341, 496, 356
-0.998471, 317, 245, 348, 260
-0.998472, 397, 359, 428, 374
-0.998472, 321, 237, 384, 252
-0.998472, 201, 189, 264, 204
-0.998473, 457, 215, 488, 230
-0.998473, 313, 251, 376, 266
-0.998475, 201, 189, 232, 204
-0.998475, 217, 251, 248, 266
-0.998476, 413, 301, 444, 316
-0.998476, 169, 83, 232, 98
-0.998476, 401, 345, 432, 360
-0.998477, 117, 251, 148, 266
-0.998477, 421, 331, 452, 346
-0.998477, 57, 281, 88, 296
-0.998477, 233, 345, 296, 360
-0.998478, 97, 263, 160, 278
-0.998478, 385, 195, 416, 210
-0.998479, 145, 91, 176, 106
-0.998479, 441, 241, 472, 256
-0.99848, 317, 237, 348, 252
-0.99848, 197, 71, 228, 86
-0.99848, 221, 303, 252, 318
-0.998481, 217, 287, 248, 302
-0.998482, 197, 343, 228, 358
-0.998482, 209, 239, 240, 254
-0.998482, 165, 85, 196, 100
-0.998482, 177, 251, 240, 266
-0.998482, 169, 345, 232, 360
-0.998483, 421, 163, 452, 178
-0.998483, 373, 181, 404, 196
-0.998483, 1, 223, 32, 238
-0.998483, 353, 311, 416, 326
-0.998484, 185, 285, 248, 300
-0.998485, 233, 199, 296, 214
-0.998486, 109, 207, 140, 222
-0.998486, 137, 115, 200, 130
-0.998486, 205, 119, 236, 134
-0.998486, 57, 289, 88, 304
-0.998487, 137, 85, 200, 100
-0.998487, 157, 105, 188, 120
-0.998488, 401, 333, 432, 348
-0.998488, 273, 317, 304, 332
-0.998489, 465, 183, 496, 198
-0.998489, 193, 273, 256, 288
-0.998489, 189, 337, 220, 352
-0.998489, 217, 313, 280, 328
-0.99849, 65, 205, 96, 220
-0.99849, 353, 241, 384, 256
-0.998491, 417, 163, 480, 178
-0.998492, 1, 293, 32, 308
-0.998492, 209, 305, 272, 320
-0.998493, 161, 321, 192, 336
-0.998493, 177, 327, 240, 342
-0.998493, 265, 349, 296, 364
-0.998493, 269, 179, 300, 194
-0.998493, 177, 315, 240, 330
-0.998494, 461, 337, 492, 352
-0.998494, 209, 343, 240, 358
-0.998494, 193, 299, 256, 314
-0.998495, 221, 309, 252, 324
-0.998495, 265, 159, 328, 174
-0.998496, 413, 339, 444, 354
-0.998497, 185, 307, 216, 322
-0.998498, 129, 241, 192, 256
-0.998498, 205, 293, 236, 308
-0.998499, 385, 355, 448, 370
-0.998499, 109, 299, 140, 314
-0.998499, 233, 303, 296, 318
-0.9985, 137, 249, 200, 264
-0.9985, 257, 343, 320, 358
-0.998501, 445, 325, 476, 340
-0.998502, 393, 197, 456, 212
-0.998502, 321, 263, 384, 278
-0.998503, 9, 205, 72, 220
-0.998503, 353, 193, 416, 208
-0.998503, 417, 157, 480, 172
-0.998503, 257, 359, 320, 374
-0.998504, 45, 291, 76, 306
-0.998505, 233, 183, 264, 198
-0.998506, 181, 343, 212, 358
-0.998506, 73, 281, 104, 296
-0.998506, 141, 85, 172, 100
-0.998507, 181, 107, 212, 122
-0.998507, 21, 221, 52, 236
-0.998508, 409, 1, 440, 256
-0.998509, 193, 223, 256, 238
-0.998512, 25, 293, 88, 308
-0.998512, 333, 229, 364, 244
-0.998512, 385, 343, 448, 358
-0.998513, 417, 313, 480, 328
-0.998513, 441, 157, 472, 172
-0.998515, 209, 245, 240, 260
-0.998517, 445, 349, 476, 364
-0.998517, 137, 303, 200, 318
-0.998517, 201, 331, 264, 346
-0.998517, 353, 301, 416, 316
-0.998518, 265, 305, 296, 320
-0.998518, 369, 329, 432, 344
-0.998519, 193, 233, 256, 248
-0.998519, 385, 317, 448, 332
-0.99852, 137, 235, 200, 250
-0.998521, 165, 117, 196, 132
-0.998521, 281, 281, 312, 296
-0.998521, 217, 173, 280, 188
-0.998522, 193, 293, 256, 308
-0.998522, 9, 299, 72, 314
-0.998523, 385, 229, 448, 244
-0.998523, 209, 353, 272, 368
-0.998523, 177, 189, 240, 204
-0.998524, 453, 245, 484, 260
-0.998526, 193, 245, 256, 260
-0.998527, 169, 245, 232, 260
-0.998527, 333, 265, 364, 280
-0.998527, 401, 195, 432, 210
-0.998527, 129, 257, 192, 272
-0.998528, 369, 261, 432, 276
-0.998528, 41, 197, 104, 212
-0.998528, 281, 151, 344, 166
-0.998528, 409, 301, 472, 316
-0.998529, 193, 355, 224, 370
-0.998529, 69, 287, 100, 302
-0.998531, 253, 179, 284, 194
-0.998531, 433, 325, 464, 340
-0.998531, 393, 351, 424, 366
-0.998531, 377, 261, 408, 276
-0.998531, 81, 199, 144, 214
-0.998532, 233, 277, 296, 292
-0.998532, 185, 239, 216, 254
-0.998532, 1, 223, 64, 238
-0.998533, 169, 303, 232, 318
-0.998534, 305, 245, 368, 260
-0.998535, 409, 343, 472, 358
-0.998535, 241, 339, 272, 354
-0.998535, 269, 187, 300, 202
-0.998537, 1, 293, 64, 308
-0.998537, 57, 205, 120, 220
-0.998537, 169, 291, 232, 306
-0.998537, 401, 293, 464, 308
-0.99854, 261, 341, 292, 356
-0.99854, 433, 205, 496, 220
-0.99854, 377, 325, 408, 340
-0.99854, 209, 351, 240, 366
-0.998541, 193, 361, 224, 375
-0.998542, 185, 279, 248, 294
-0.998543, 321, 223, 384, 238
-0.998543, 377, 175, 440, 190
-0.998543, 417, 333, 480, 348
-0.998544, 361, 199, 424, 214
-0.998544, 17, 129, 48, 375
-0.998544, 409, 207, 472, 222
-0.998545, 385, 305, 448, 320
-0.998545, 393, 261, 424, 276
-0.998545, 209, 319, 272, 334
-0.998545, 29, 293, 60, 308
-0.998545, 241, 309, 304, 324
-0.998547, 161, 353, 224, 368
-0.998548, 417, 169, 480, 184
-0.998549, 333, 223, 364, 238
-0.998549, 433, 347, 464, 362
-0.99855, 265, 355, 296, 370
-0.99855, 137, 151, 200, 166
-0.998551, 1, 267, 64, 282
-0.998551, 417, 321, 480, 336
-0.998552, 445, 343, 476, 358
-0.998552, 253, 187, 284, 202
-0.998553, 329, 245, 392, 260
-0.998553, 201, 305, 232, 320
-0.998553, 161, 121, 224, 136
-0.998554, 361, 321, 424, 336
-0.998555, 273, 283, 336, 298
-0.998555, 345, 231, 408, 246
-0.998556, 209, 231, 240, 246
-0.998556, 377, 297, 440, 312
-0.998556, 193, 117, 256, 132
-0.998557, 265, 183, 328, 198
-0.998557, 49, 283, 112, 298
-0.998558, 265, 165, 328, 180
-0.998558, 393, 349, 456, 364
-0.998558, 345, 187, 408, 202
-0.998559, 333, 257, 364, 272
-0.998559, 385, 187, 448, 202
-0.998561, 197, 91, 228, 106
-0.998565, 197, 79, 228, 94
-0.998568, 245, 33, 276, 288
-0.998572, 157, 361, 188, 375
-0.998572, 177, 85, 208, 100
-0.998573, 249, 347, 280, 362
-0.998574, 17, 295, 48, 310
-0.998578, 165, 49, 180, 176
-0.998579, 217, 33, 248, 288
-0.998579, 269, 159, 300, 174
-0.998579, 229, 337, 260, 352
-0.998581, 457, 343, 488, 358
-0.998583, 249, 167, 280, 182
-0.998584, 357, 209, 372, 336
-0.998586, 193, 65, 224, 80
-0.998591, 197, 97, 228, 112
-0.998593, 185, 349, 216, 364
-0.998596, 159, 49, 174, 176
-0.9986, 193, 299, 224, 314
-0.998601, 169, 103, 200, 118
-0.998602, 417, 353, 448, 368
-0.998602, 185, 293, 216, 308
-0.998608, 249, 173, 280, 188
-0.998608, 353, 235, 384, 250
-0.998614, 181, 93, 212, 108
-0.998615, 225, 345, 256, 360
-0.998617, 161, 111, 192, 126
-0.998617, 213, 335, 244, 350
-0.998618, 257, 161, 288, 176
-0.998622, 193, 111, 224, 126
-0.998626, 421, 345, 452, 360
-0.998628, 197, 103, 228, 118
-0.99863, 191, 49, 206, 176
-0.99863, 177, 113, 208, 128
-0.99863, 149, 49, 164, 176
-0.998634, 177, 357, 208, 372
-0.998637, 149, 113, 180, 128
-0.998641, 333, 33, 364, 288
-0.998645, 333, 241, 364, 256
-0.998652, 333, 251, 364, 266
-0.998653, 197, 349, 228, 364
-0.998654, 145, 67, 176, 82
-0.998682, 197, 33, 212, 160
-0.998704, 335, 209, 350, 336
-0.998707, 343, 209, 358, 336
-0.998713, 205, 49, 220, 176
-0.998716, 197, 85, 228, 100
-0.998724, 175, 33, 190, 160
-0.998731, 351, 209, 366, 336
-0.998733, 125, 33, 156, 288
-0.998739, 115, 225, 130, 352
-0.99875, 185, 49, 200, 176
-0.998809, 477, 1, 492, 128
-0.998818, 149, 209, 164, 336
-0.998826, 139, 209, 154, 336
-0.998842, 189, 97, 204, 224
-0.998844, 265, 33, 296, 288
-0.998863, 129, 225, 144, 352
-0.99888, 205, 241, 220, 368
-0.998881, 261, 145, 276, 272
-0.998886, 17, 33, 80, 288
-0.998897, 483, 49, 498, 176
-0.998899, 225, 129, 256, 375
-0.998901, 193, 241, 208, 368
-0.998927, 109, 241, 124, 368
-0.998928, 121, 225, 136, 352
-0.998929, 485, 129, 500, 256
-0.998935, 351, 161, 366, 288
-0.998937, 451, 145, 466, 272
-0.998939, 267, 129, 282, 256
-0.998942, 167, 97, 182, 224
-0.998943, 445, 33, 476, 288
-0.998946, 229, 241, 244, 368
-0.99895, 329, 209, 344, 336
-0.998955, 215, 241, 230, 368
-0.998961, 197, 81, 212, 208
-0.998963, 273, 113, 288, 240
-0.998977, 451, 225, 466, 352
-0.998981, 1, 129, 32, 375
-0.998981, 199, 241, 214, 368
-0.998988, 255, 145, 270, 272
-0.999003, 399, 161, 414, 288
-0.999003, 459, 225, 474, 352
-0.999007, 367, 225, 382, 352
-0.999011, 465, 161, 480, 288
-0.999012, 175, 241, 190, 368
-0.999018, 285, 241, 300, 368
-0.99902, 445, 225, 460, 352
-0.99902, 143, 65, 158, 192
-0.999021, 475, 129, 490, 256
-0.999034, 155, 97, 170, 224
-0.999042, 229, 193, 244, 320
-0.999043, 103, 241, 118, 368
-0.999045, 187, 209, 202, 336
-0.999053, 221, 241, 236, 368
-0.999058, 181, 225, 196, 352
-0.999059, 423, 241, 438, 368
-0.999063, 387, 129, 402, 256
-0.999066, 409, 241, 424, 368
-0.999066, 443, 145, 458, 272
-0.999069, 339, 161, 354, 288
-0.999078, 157, 241, 172, 368
-0.999095, 211, 49, 226, 176
-0.999097, 263, 241, 278, 368
-0.999098, 457, 177, 472, 304
-0.9991, 395, 209, 410, 336
-0.999103, 309, 225, 324, 352
-0.999108, 405, 193, 420, 320
-0.999113, 217, 49, 232, 176
-0.999119, 97, 241, 112, 368
-0.999119, 409, 145, 424, 272
-0.999123, 169, 241, 184, 368
-0.999126, 477, 49, 492, 176
-0.999128, 173, 81, 188, 208
-0.99913, 237, 177, 252, 304
-0.99913, 109, 193, 124, 320
-0.999131, 359, 161, 374, 288
-0.999137, 323, 225, 338, 352
-0.999144, 415, 241, 430, 368
-0.999145, 437, 129, 452, 256
-0.999149, 207, 1, 222, 128
-0.999151, 161, 97, 176, 224
-0.999154, 189, 1, 204, 128
-0.999155, 435, 241, 450, 368
-0.999163, 345, 161, 360, 288
-0.999163, 149, 97, 164, 224
-0.999171, 283, 177, 298, 304
-0.999172, 179, 81, 194, 208
-0.999178, 137, 49, 152, 176
-0.999182, 393, 113, 408, 240
-0.999186, 221, 193, 236, 320
-0.999188, 163, 241, 178, 368
-0.999191, 333, 161, 348, 288
-0.999197, 317, 193, 332, 320
-0.99921, 213, 97, 228, 224
-0.999211, 393, 161, 408, 288
-0.999216, 377, 161, 392, 288
-0.999238, 365, 177, 380, 304
-0.999252, 279, 129, 294, 256
-0.999259, 119, 161, 134, 288
-0.999262, 387, 177, 402, 304
-0.999262, 85, 241, 100, 368
-0.999269, 207, 193, 222, 320
-0.999274, 315, 241, 330, 368
-0.999279, 375, 241, 390, 368
-0.999284, 131, 161, 146, 288
-0.999284, 5, 241, 20, 368
-0.999286, 305, 177, 320, 304
-0.999287, 273, 241, 288, 368
-0.999294, 249, 145, 264, 272
-0.999295, 81, 65, 112, 320
-0.9993, 429, 129, 444, 256
-0.999301, 399, 113, 414, 240
-0.999305, 457, 129, 472, 256
-0.999312, 147, 161, 162, 288
-0.999317, 181, 1, 196, 128
-0.999319, 79, 241, 94, 368
-0.999319, 425, 33, 456, 288
-0.999323, 433, 193, 448, 320
-0.999327, 465, 225, 480, 352
-0.999329, 17, 225, 32, 352
-0.999332, 275, 177, 290, 304
-0.999336, 71, 161, 86, 288
-0.99934, 73, 209, 88, 336
-0.999341, 91, 241, 106, 368
-0.999342, 155, 193, 170, 320
-0.999346, 255, 97, 270, 224
-0.99935, 291, 241, 306, 368
-0.999351, 297, 241, 312, 368
-0.999353, 405, 97, 420, 224
-0.999359, 419, 145, 434, 272
-0.999361, 125, 161, 140, 288
-0.999362, 429, 241, 444, 368
-0.999364, 331, 81, 346, 208
-0.999365, 87, 193, 102, 320
-0.999428, 69, 33, 100, 288
-0.999604, 233, 33, 264, 288
-0.999644, 337, 277, 352, 292
-0.999645, 5, 293, 20, 308
-0.999645, 279, 311, 294, 326
-0.999645, 231, 337, 246, 352
-0.999645, 333, 229, 348, 244
-0.999646, 353, 229, 368, 244
-0.999647, 259, 167, 274, 182
-0.999647, 473, 213, 488, 228
-0.999648, 69, 283, 84, 298
-0.999648, 19, 299, 34, 314
-0.999648, 447, 323, 462, 338
-0.999649, 147, 99, 162, 114
-0.999649, 361, 229, 376, 244
-0.999649, 445, 237, 460, 252
-0.999652, 179, 91, 194, 106
-0.999652, 189, 353, 204, 368
-0.999653, 351, 223, 366, 238
-0.999653, 425, 333, 440, 348
-0.999655, 211, 357, 226, 372
-0.999655, 403, 191, 418, 206
-0.999655, 465, 333, 480, 348
-0.999656, 409, 197, 424, 212
-0.999656, 183, 103, 198, 118
-0.999656, 425, 163, 440, 178
-0.999657, 211, 249, 226, 264
-0.999657, 359, 237, 374, 252
-0.999657, 329, 247, 344, 262
-0.999659, 211, 231, 226, 246
-0.99966, 465, 325, 480, 340
-0.99966, 469, 255, 484, 270
-0.99966, 81, 279, 96, 294
-0.99966, 165, 107, 180, 122
-0.999661, 121, 299, 136, 314
-0.999662, 189, 105, 204, 120
-0.999663, 385, 261, 400, 276
-0.999663, 457, 255, 472, 270
-0.999663, 181, 333, 196, 348
-0.999664, 199, 299, 214, 314
-0.999664, 69, 205, 84, 220
-0.999665, 227, 237, 242, 252
-0.999665, 193, 95, 208, 110
-0.999665, 177, 313, 192, 328
-0.999665, 227, 249, 242, 264
-0.999667, 63, 287, 78, 302
-0.999668, 425, 295, 440, 310
-0.99967, 479, 43, 494, 58
-0.999671, 397, 229, 412, 244
-0.999671, 201, 343, 216, 358
-0.999672, 181, 301, 196, 316
-0.999673, 277, 305, 292, 320
-0.999674, 195, 105, 210, 120
-0.999674, 189, 87, 204, 102
-0.999676, 355, 251, 370, 266
-0.999676, 203, 95, 218, 110
-0.999677, 449, 347, 464, 362
-0.999677, 481, 51, 496, 66
-0.999677, 349, 249, 364, 264
-0.999677, 21, 219, 36, 234
-0.999678, 187, 307, 202, 322
-0.999678, 209, 111, 224, 126
-0.999679, 245, 343, 260, 358
-0.99968, 153, 111, 168, 126
-0.999681, 391, 349, 406, 364
-0.999683, 39, 293, 54, 308
-0.999683, 195, 111, 210, 126
-0.999684, 205, 291, 220, 306
-0.999685, 195, 349, 210, 364
-0.999685, 75, 281, 90, 296
-0.999685, 211, 299, 226, 314
-0.999686, 433, 223, 448, 238
-0.999687, 55, 289, 70, 304
-0.999688, 385, 349, 400, 364
-0.999688, 31, 295, 46, 310
-0.999689, 203, 113, 218, 128
-0.999689, 207, 351, 222, 366
-0.999691, 275, 157, 290, 172
-0.999691, 189, 111, 204, 126
-0.999691, 203, 101, 218, 116
-0.999693, 399, 199, 414, 214
-0.999694, 175, 105, 190, 120
-0.999694, 49, 291, 64, 306
-0.999695, 391, 261, 406, 276
-0.999696, 439, 347, 454, 362
-0.999697, 451, 243, 466, 258
-0.999698, 459, 329, 474, 344
-0.999698, 423, 327, 438, 342
-0.999699, 235, 345, 250, 360
-0.999703, 327, 237, 342, 252
-0.999703, 207, 83, 222, 98
-0.999703, 369, 237, 384, 252
-0.999705, 217, 351, 232, 366
-0.999709, 153, 117, 168, 132
-0.999711, 195, 355, 210, 370
-0.999712, 145, 85, 160, 100
-0.999713, 175, 319, 190, 334
-0.999714, 421, 351, 436, 366
-0.999715, 159, 113, 174, 128
-0.999716, 169, 361, 184, 375
-0.999716, 215, 305, 230, 320
-0.999717, 209, 105, 224, 120
-0.999718, 459, 239, 474, 254
-0.999721, 407, 261, 422, 276
-0.999722, 209, 93, 224, 108
-0.999722, 335, 239, 350, 254
-0.999723, 205, 359, 220, 374
-0.999726, 147, 93, 162, 108
-0.999728, 279, 317, 294, 332
-0.999728, 467, 339, 482, 354
-0.999729, 467, 245, 482, 260
-0.999729, 179, 85, 194, 100
-0.999741, 205, 297, 220, 312
-0.999744, 459, 341, 474, 356
-0.999745, 481, 25, 496, 40
-0.999746, 183, 113, 198, 128
-0.99975, 167, 113, 182, 128
-0.999751, 215, 333, 230, 348
-0.999755, 177, 99, 192, 114
-0.999756, 201, 85, 216, 100
-0.999758, 259, 345, 274, 360
-0.999758, 207, 345, 222, 360
-0.99976, 269, 161, 284, 176
-0.999768, 207, 65, 222, 80
-0.999769, 461, 249, 476, 264
-0.99977, 277, 1, 308, 256
-0.999773, 147, 67, 162, 82
-0.999776, 239, 335, 254, 350
-0.999778, 309, 1, 340, 256
-0.999779, 335, 249, 350, 264
-0.999782, 433, 345, 448, 360
-0.999799, 259, 161, 274, 176
-0.999807, 173, 113, 188, 128
-0.999854, 201, 351, 216, 366
-0.999854, 93, 33, 124, 288
-0.999879, 369, 33, 400, 288
-0.999945, 273, 17, 336, 144
-0.999982, 289, 1, 320, 256
-1.00006, 1, 1, 256, 64
-1.00011, 321, 1, 352, 256
-1.00012, 113, 1, 144, 256
-1.0002, 25, 1, 88, 375
-1.00025, 29, 33, 60, 288
-1.00029, 57, 33, 88, 288
-1.00051, 1, 33, 32, 288
-1.00053, 45, 33, 76, 288
-1.00055, 1, 25, 500, 88
-1.001, 17, 33, 48, 288
-1.00105, 33, 25, 160, 88
-1.00146, 1, 1, 500, 64
-1.00211, 1, 1, 128, 64
-1.00251, 225, 1, 352, 64
-1.00364, 17, 1, 144, 128
-1.00457, 17, 49, 80, 176
-1.00536, 241, 33, 304, 160
-1.00645, 41, 17, 104, 144
-1.01432, 9, 1, 72, 128
