1970
-0.248711, 1, 1, 500, 374
-0.39319, 129, 1, 384, 374
-0.468201, 1, 1, 500, 256
-0.481308, 1, 129, 500, 374
-0.489996, 1, 1, 256, 374
-0.504016, 225, 1, 480, 374
-0.512563, 129, 129, 384, 374
-0.565983, 1, 97, 256, 352
-0.603503, 225, 129, 480, 374
-0.684929, 33, 1, 288, 256
-0.719469, 129, 33, 384, 288
-0.75553, 257, 33, 500, 288
-0.835241, 193, 129, 320, 374
-0.839048, 129, 97, 256, 352
-0.855386, 177, 1, 304, 374
-0.856927, 289, 129, 416, 374
-0.859229, 49, 97, 176, 352
-0.859425, 337, 1, 464, 374
-0.863724, 113, 1, 240, 374
-0.875665, 1, 97, 128, 352
-0.877662, 1, 177, 500, 304
-0.878426, 241, 129, 368, 374
-0.879035, 353, 129, 480, 374
-0.881388, 225, 1, 352, 374
-0.881708, 1, 1, 128, 256
-0.881727, 289, 1, 416, 374
-0.882123, 353, 33, 480, 288
-0.883768, 129, 1, 256, 256
-0.888228, 65, 1, 192, 374
-0.891505, 49, 1, 176, 256
-0.892679, 1, 1, 128, 374
-0.893378, 1, 129, 500, 256
-0.896814, 257, 241, 500, 368
-0.898232, 177, 33, 304, 288
-0.898607, 257, 193, 500, 320
-0.900407, 1, 225, 500, 352
-0.900997, 129, 177, 384, 304
-0.903906, 1, 65, 500, 192
-0.90694, 1, 17, 500, 144
-0.913063, 1, 145, 256, 272
-0.914947, 289, 225, 416, 352
-0.918008, 273, 33, 400, 288
-0.919284, 161, 129, 416, 256
-0.923467, 97, 225, 352, 352
-0.923718, 1, 193, 256, 320
-0.926716, 289, 177, 416, 304
-0.927687, 177, 161, 304, 288
-0.928709, 225, 33, 352, 288
-0.930587, 129, 177, 256, 304
-0.931037, 241, 177, 368, 304
-0.931388, 169, 161, 232, 288
-0.93158, 249, 193, 312, 320
-0.931864, 1, 97, 256, 224
-0.931884, 241, 241, 368, 368
-0.932993, 193, 209, 320, 336
-0.934797, 193, 177, 256, 304
-0.935583, 337, 241, 464, 368
-0.935905, 385, 241, 448, 368
-0.935975, 17, 113, 144, 240
-0.936394, 257, 145, 500, 272
-0.937304, 145, 129, 208, 256
-0.937566, 337, 209, 400, 336
-0.938193, 113, 193, 176, 320
-0.93867, 81, 129, 208, 256
-0.938849, 313, 225, 376, 352
-0.938923, 297, 177, 360, 304
-0.939075, 193, 113, 256, 240
-0.939429, 217, 193, 280, 320
-0.939822, 353, 177, 480, 304
-0.940129, 265, 241, 328, 368
-0.94027, 113, 225, 240, 352
-0.940904, 73, 113, 136, 240
-0.941261, 225, 129, 288, 256
-0.94137, 369, 193, 432, 320
-0.94145, 9, 145, 72, 272
-0.943283, 161, 225, 224, 352
-0.943754, 137, 177, 200, 304
-0.944778, 289, 225, 352, 352
-0.944872, 329, 161, 392, 288
-0.945614, 161, 113, 288, 240
-0.945881, 1, 161, 128, 288
-0.946059, 1, 65, 128, 192
-0.946569, 193, 65, 448, 192
-0.948049, 217, 241, 280, 368
-0.948704, 33, 145, 96, 272
-0.948896, 97, 129, 160, 256
-0.949019, 81, 177, 144, 304
-0.949148, 41, 97, 104, 224
-0.949343, 65, 193, 192, 320
-0.949474, 65, 49, 320, 176
-0.950062, 273, 145, 336, 272
-0.950358, 9, 97, 72, 224
-0.950457, 161, 145, 224, 208
-0.951121, 361, 241, 424, 368
-0.951652, 273, 129, 400, 256
-0.951684, 377, 249, 440, 312
-0.951828, 1, 49, 64, 176
-0.952231, 353, 225, 416, 288
-0.952717, 281, 281, 344, 344
-0.953142, 185, 209, 248, 272
-0.953356, 161, 201, 224, 264
-0.953428, 193, 225, 256, 352
-0.953461, 305, 265, 368, 328
-0.953636, 81, 65, 208, 192
-0.953968, 193, 177, 256, 240
-0.954238, 289, 177, 352, 240
-0.954241, 193, 121, 256, 184
-0.954309, 329, 209, 392, 272
-0.954475, 305, 209, 368, 272
-0.95486, 161, 257, 224, 320
-0.955052, 241, 241, 304, 368
-0.95524, 137, 201, 200, 264
-0.955496, 129, 65, 256, 192
-0.955508, 369, 289, 432, 352
-0.95581, 137, 225, 200, 352
-0.955994, 169, 169, 232, 232
-0.956247, 145, 225, 208, 288
-0.956915, 113, 225, 176, 288
-0.957246, 209, 113, 336, 240
-0.957316, 265, 249, 328, 312
-0.95746, 337, 265, 400, 328
-0.957725, 121, 121, 184, 184
-0.957737, 121, 129, 184, 256
-0.957753, 265, 169, 328, 232
-0.957975, 249, 145, 312, 272
-0.958028, 241, 201, 304, 264
-0.958392, 169, 113, 232, 240
-0.958398, 265, 305, 328, 368
-0.958519, 193, 233, 256, 296
-0.958746, 73, 113, 136, 176
-0.958887, 169, 113, 232, 176
-0.959443, 305, 233, 368, 296
-0.959546, 313, 289, 376, 352
-0.959636, 313, 177, 376, 240
-0.959888, 113, 65, 176, 192
-0.95993, 321, 129, 448, 256
-0.960169, 1, 241, 256, 368
-0.960216, 353, 33, 480, 160
-0.960275, 57, 161, 120, 288
-0.960608, 1, 17, 128, 144
-0.960625, 329, 241, 392, 304
-0.961224, 73, 65, 136, 192
-0.96132, 409, 33, 472, 160
-0.961336, 353, 201, 416, 264
-0.96141, 209, 201, 272, 264
-0.961712, 401, 305, 464, 368
-0.961724, 369, 113, 432, 240
-0.962079, 225, 1, 480, 128
-0.962134, 433, 33, 496, 160
-0.962176, 417, 193, 480, 320
-0.962427, 145, 121, 208, 184
-0.962472, 9, 113, 72, 176
-0.962582, 137, 161, 200, 224
-0.962678, 385, 33, 448, 160
-0.962726, 369, 129, 496, 256
-0.962732, 153, 97, 216, 352
-0.962745, 297, 129, 360, 256
-0.962785, 257, 265, 384, 328
-0.963024, 217, 241, 280, 304
-0.963185, 217, 145, 280, 208
-0.963679, 289, 233, 416, 296
-0.963763, 281, 217, 344, 280
-0.964265, 17, 209, 144, 336
-0.964297, 193, 129, 256, 374
-0.964366, 305, 33, 432, 160
-0.964476, 17, 193, 80, 320
-0.964492, 361, 33, 424, 160
-0.964497, 33, 1, 288, 128
-0.965032, 121, 257, 184, 320
-0.965337, 241, 265, 304, 328
-0.96572, 225, 169, 288, 232
-0.966061, 345, 289, 408, 352
-0.966179, 177, 65, 304, 192
-0.966181, 241, 65, 368, 192
-0.966401, 265, 193, 328, 256
-0.96641, 225, 129, 288, 374
-0.966515, 265, 97, 328, 224
-0.966939, 9, 185, 72, 248
-0.967063, 273, 185, 400, 248
-0.967277, 105, 201, 168, 264
-0.967479, 49, 113, 112, 176
-0.967511, 201, 273, 264, 336
-0.967627, 345, 177, 408, 240
-0.96782, 233, 297, 296, 360
-0.967909, 357, 177, 388, 304
-0.968015, 129, 1, 384, 128
-0.968077, 161, 17, 288, 144
-0.968089, 73, 225, 136, 352
-0.968239, 225, 49, 288, 176
-0.968406, 313, 257, 344, 320
-0.968569, 65, 241, 192, 368
-0.968808, 337, 273, 464, 336
-0.968815, 297, 65, 360, 192
-0.968932, 349, 265, 380, 328
-0.96922, 369, 265, 400, 328
-0.969332, 289, 209, 416, 272
-0.969375, 41, 193, 104, 256
-0.969446, 297, 153, 360, 216
-0.969549, 9, 153, 72, 216
-0.969626, 9, 65, 40, 192
-0.969697, 177, 65, 240, 192
-0.969758, 197, 177, 228, 304
-0.969771, 433, 49, 496, 112
-0.969836, 421, 289, 452, 352
-0.970028, 333, 273, 364, 336
-0.970061, 177, 145, 208, 272
-0.970142, 401, 145, 464, 272
-0.970198, 201, 33, 264, 160
-0.970326, 249, 129, 312, 374
-0.970408, 81, 17, 208, 144
-0.970442, 293, 209, 324, 336
-0.970508, 273, 145, 336, 208
-0.970565, 137, 17, 200, 144
-0.970694, 169, 233, 232, 296
-0.97072, 361, 49, 424, 112
-0.970734, 297, 233, 328, 296
-0.970874, 377, 193, 440, 256
-0.970917, 157, 193, 188, 320
-0.971025, 393, 281, 456, 344
-0.971195, 377, 225, 440, 288
-0.971351, 381, 193, 412, 320
-0.971384, 225, 241, 352, 304
-0.971575, 113, 177, 176, 240
-0.971579, 341, 193, 372, 320
-0.971663, 361, 201, 392, 264
-0.971749, 157, 145, 188, 272
-0.971848, 385, 121, 448, 184
-0.971857, 373, 233, 404, 296
-0.971915, 97, 97, 160, 352
-0.971927, 409, 241, 472, 368
-0.972106, 313, 209, 344, 272
-0.97218, 273, 289, 400, 352
-0.972194, 129, 121, 256, 184
-0.972208, 337, 81, 464, 208
-0.972212, 237, 241, 268, 304
-0.972311, 289, 129, 352, 374
-0.972333, 213, 129, 244, 256
-0.972453, 353, 201, 480, 264
-0.97251, 137, 65, 200, 192
-0.972558, 257, 265, 288, 328
-0.972572, 313, 177, 344, 240
-0.972605, 385, 49, 448, 112
-0.972629, 193, 153, 256, 216
-0.972722, 25, 49, 88, 176
-0.972743, 345, 113, 408, 240
-0.972769, 309, 209, 340, 336
-0.972794, 357, 241, 388, 304
-0.972809, 189, 185, 220, 248
-0.972826, 97, 225, 224, 288
-0.972895, 113, 153, 176, 216
-0.972975, 177, 265, 304, 328
-0.973098, 81, 217, 144, 280
-0.97312, 345, 177, 376, 240
-0.973184, 261, 289, 292, 352
-0.973568, 313, 233, 344, 296
-0.97359, 361, 129, 424, 374
-0.973605, 361, 113, 424, 176
-0.973648, 81, 153, 144, 216
-0.973673, 369, 193, 400, 320
-0.973675, 329, 177, 360, 304
-0.973752, 205, 169, 236, 232
-0.973828, 169, 201, 200, 264
-0.973956, 217, 121, 280, 184
-0.973969, 149, 217, 180, 280
-0.973996, 337, 201, 368, 264
-0.974116, 177, 177, 304, 240
-0.974184, 401, 241, 432, 368
-0.974365, 221, 177, 252, 304
-0.974365, 277, 193, 308, 320
-0.974376, 5, 41, 36, 104
-0.974376, 169, 193, 200, 320
-0.974386, 309, 281, 340, 344
-0.974416, 25, 89, 88, 152
-0.974425, 337, 33, 400, 160
-0.974443, 185, 193, 216, 320
-0.974461, 369, 297, 496, 360
-0.974486, 289, 305, 352, 368
-0.974562, 137, 81, 200, 144
-0.974647, 177, 1, 240, 256
-0.974648, 281, 305, 312, 368
-0.97466, 229, 129, 260, 256
-0.974707, 81, 97, 112, 224
-0.974847, 113, 17, 176, 144
-0.974867, 325, 193, 356, 256
-0.97489, 97, 129, 160, 192
-0.974894, 1, 113, 128, 176
-0.97499, 361, 241, 392, 368
-0.975051, 81, 89, 144, 152
-0.975079, 1, 49, 64, 112
-0.97512, 133, 233, 164, 296
-0.975144, 401, 81, 464, 208
-0.975175, 141, 193, 172, 256
-0.975178, 337, 249, 464, 312
-0.975211, 393, 113, 424, 176
-0.975251, 81, 193, 144, 256
-0.975351, 433, 177, 496, 240
-0.975376, 253, 145, 284, 272
-0.975397, 161, 49, 224, 112
-0.975484, 241, 209, 368, 272
-0.975539, 281, 241, 312, 368
-0.975545, 321, 153, 384, 216
-0.97555, 97, 153, 224, 216
-0.975558, 137, 57, 200, 120
-0.975678, 393, 193, 456, 320
-0.975723, 393, 217, 424, 280
-0.975725, 353, 289, 384, 352
-0.975889, 305, 57, 368, 120
-0.975891, 161, 89, 224, 152
-0.975939, 145, 281, 208, 344
-0.975996, 177, 137, 304, 200
-0.976012, 129, 249, 256, 312
-0.976087, 353, 153, 416, 216
-0.976114, 165, 137, 196, 200
-0.976114, 285, 209, 316, 272
-0.976114, 233, 209, 264, 336
-0.976225, 345, 233, 376, 296
-0.976261, 329, 225, 360, 352
-0.976287, 209, 193, 240, 320
-0.976306, 65, 121, 192, 184
-0.97631, 377, 209, 408, 272
-0.976338, 409, 1, 472, 256
-0.976353, 393, 193, 424, 320
-0.976457, 145, 193, 176, 320
-0.976598, 177, 241, 304, 304
-0.976729, 253, 193, 284, 320
-0.976742, 41, 209, 104, 336
-0.976753, 433, 201, 496, 264
-0.976764, 189, 153, 220, 216
-0.976796, 9, 209, 72, 272
-0.976796, 81, 241, 144, 304
-0.976834, 337, 129, 400, 374
-0.976851, 277, 257, 308, 320
-0.976883, 9, 65, 72, 320
-0.976912, 401, 249, 432, 312
-0.976915, 401, 81, 464, 144
-0.976951, 301, 201, 332, 264
-0.977018, 9, 105, 40, 168
-0.977101, 185, 65, 248, 128
-0.977215, 129, 33, 192, 96
-0.977218, 401, 177, 464, 240
-0.977239, 325, 169, 356, 232
-0.977299, 425, 305, 488, 368
-0.977316, 29, 129, 60, 256
-0.977335, 121, 129, 184, 374
-0.977394, 401, 209, 464, 272
-0.9774, 193, 113, 224, 240
-0.977451, 313, 17, 376, 144
-0.977475, 325, 233, 356, 296
-0.97749, 273, 313, 400, 374
-0.977506, 145, 129, 176, 256
-0.97753, 381, 257, 412, 320
-0.977531, 421, 313, 452, 374
-0.977564, 41, 161, 104, 224
-0.977581, 201, 33, 264, 288
-0.977615, 149, 257, 180, 320
-0.97775, 209, 49, 272, 112
-0.977759, 221, 121, 252, 184
-0.977768, 433, 129, 496, 256
-0.977768, 185, 41, 248, 104
-0.977842, 169, 233, 200, 296
-0.977851, 185, 89, 248, 152
-0.9779, 293, 289, 324, 352
-0.978028, 409, 41, 472, 104
-0.978069, 17, 145, 48, 272
-0.978184, 65, 201, 192, 264
-0.978188, 65, 65, 128, 320
-0.978203, 145, 201, 272, 264
-0.978219, 225, 177, 256, 240
-0.978224, 345, 313, 408, 374
-0.978227, 61, 129, 92, 256
-0.97831, 373, 241, 404, 368
-0.978334, 337, 225, 464, 288
-0.978366, 321, 297, 448, 360
-0.978415, 193, 289, 320, 352
-0.978422, 381, 289, 412, 352
-0.978429, 353, 177, 480, 240
-0.978449, 201, 121, 232, 184
-0.978462, 313, 161, 344, 288
-0.978484, 145, 1, 208, 256
-0.97854, 297, 257, 328, 320
-0.978596, 225, 185, 352, 248
-0.978719, 169, 289, 232, 352
-0.978748, 129, 177, 256, 240
-0.978752, 281, 65, 344, 128
-0.97876, 321, 113, 384, 240
-0.978774, 157, 161, 188, 224
-0.978781, 241, 129, 272, 256
-0.978957, 105, 113, 136, 240
-0.978971, 249, 225, 312, 288
-0.979026, 297, 145, 328, 272
-0.979051, 113, 97, 176, 160
-0.979058, 45, 145, 76, 272
-0.979109, 345, 145, 376, 272
-0.97916, 305, 153, 336, 216
-0.979176, 157, 193, 188, 256
-0.979203, 185, 113, 216, 176
-0.979264, 361, 81, 424, 144
-0.979291, 93, 113, 124, 240
-0.979324, 113, 1, 176, 256
-0.979392, 177, 177, 208, 240
-0.979409, 193, 217, 224, 280
-0.979433, 373, 185, 404, 248
-0.979436, 209, 313, 336, 374
-0.979527, 113, 241, 176, 368
-0.979531, 177, 153, 208, 216
-0.979539, 385, 1, 448, 256
-0.979564, 269, 241, 300, 368
-0.9796, 1, 17, 32, 144
-0.979627, 409, 305, 440, 368
-0.979644, 97, 89, 224, 152
-0.979645, 337, 49, 400, 112
-0.979674, 153, 121, 184, 184
-0.979701, 1, 129, 32, 256
-0.979716, 181, 217, 212, 280
-0.97975, 241, 161, 368, 224
-0.9798, 349, 241, 380, 368
-0.979853, 1, 201, 128, 264
-0.979935, 49, 153, 176, 216
-0.979937, 225, 217, 256, 280
-0.979998, 125, 145, 156, 272
-0.980072, 365, 297, 396, 360
-0.980165, 213, 233, 244, 296
-0.980186, 41, 137, 104, 200
-0.980261, 265, 177, 296, 304
-0.98027, 277, 281, 308, 344
-0.980271, 193, 217, 320, 280
-0.980289, 213, 201, 244, 264
-0.980319, 241, 1, 368, 128
-0.980433, 417, 281, 480, 344
-0.980489, 385, 145, 448, 208
-0.980515, 305, 49, 432, 112
-0.980535, 1, 81, 64, 144
-0.980541, 413, 241, 444, 368
-0.98057, 57, 217, 120, 280
-0.980571, 105, 113, 136, 176
-0.980608, 169, 113, 200, 176
-0.980612, 105, 65, 136, 192
-0.980767, 177, 97, 208, 224
-0.980795, 85, 113, 116, 176
-0.980801, 421, 265, 452, 328
-0.980816, 329, 129, 360, 256
-0.980887, 265, 193, 296, 256
-0.981034, 433, 81, 496, 208
-0.981048, 237, 265, 268, 328
-0.981114, 17, 65, 48, 128
-0.981191, 145, 1, 208, 374
-0.981191, 321, 281, 352, 344
-0.981228, 61, 105, 92, 168
-0.981402, 389, 241, 420, 368
-0.981458, 197, 225, 228, 352
-0.981546, 49, 89, 112, 152
-0.981553, 141, 161, 172, 224
-0.98156, 285, 177, 316, 240
-0.981597, 249, 289, 280, 352
-0.98162, 353, 153, 480, 216
-0.981653, 65, 177, 192, 240
-0.981655, 313, 129, 376, 374
-0.981661, 401, 281, 432, 344
-0.981696, 13, 193, 44, 256
-0.981715, 201, 241, 232, 304
-0.981761, 121, 201, 152, 264
-0.981797, 209, 145, 240, 208
-0.981826, 1, 41, 128, 104
-0.981968, 49, 97, 80, 224
-0.982059, 17, 225, 144, 288
-0.98214, 245, 241, 276, 368
-0.982198, 33, 177, 64, 304
-0.982238, 401, 257, 464, 320
-0.982329, 249, 49, 312, 176
-0.982334, 401, 97, 464, 352
-0.982369, 301, 177, 332, 240
-0.982424, 49, 49, 112, 176
-0.982451, 109, 233, 140, 296
-0.982459, 41, 97, 104, 352
-0.982535, 257, 121, 320, 184
-0.982588, 389, 129, 420, 256
-0.982596, 393, 185, 424, 248
-0.98266, 289, 81, 416, 208
-0.98268, 357, 177, 388, 240
-0.982706, 397, 33, 428, 160
-0.982714, 377, 169, 440, 232
-0.982739, 241, 145, 304, 208
-0.982791, 177, 17, 240, 144
-0.982818, 321, 313, 384, 374
-0.982942, 137, 33, 168, 96
-0.982971, 5, 81, 36, 144
-0.982997, 17, 89, 144, 152
-0.983005, 305, 161, 432, 224
-0.983013, 1, 17, 128, 80
-0.983033, 189, 241, 220, 304
-0.983059, 313, 313, 344, 374
-0.983135, 157, 281, 188, 344
-0.983176, 249, 65, 312, 128
-0.983183, 33, 217, 96, 280
-0.98321, 21, 49, 52, 176
-0.983236, 105, 177, 136, 304
-0.983321, 377, 145, 408, 272
-0.983459, 169, 1, 232, 374
-0.983484, 433, 153, 496, 216
-0.983491, 265, 33, 328, 288
-0.983514, 9, 1, 72, 128
-0.983576, 257, 313, 288, 374
-0.983633, 65, 257, 192, 320
-0.983697, 285, 233, 316, 296
-0.983698, 33, 185, 64, 248
-0.983743, 349, 209, 380, 272
-0.983775, 93, 217, 124, 280
-0.98385, 457, 33, 488, 160
-0.983875, 161, 57, 288, 120
-0.983879, 57, 241, 120, 304
-0.983951, 265, 169, 296, 232
-0.984013, 405, 145, 436, 272
-0.984015, 185, 241, 216, 368
-0.98406, 69, 81, 100, 208
-0.984131, 73, 113, 104, 176
-0.984146, 369, 49, 400, 112
-0.984198, 457, 49, 488, 112
-0.984332, 269, 313, 300, 374
-0.984356, 329, 145, 360, 208
-0.98439, 141, 129, 172, 192
-0.984401, 413, 33, 444, 160
-0.984401, 125, 65, 156, 192
-0.98442, 361, 1, 424, 374
-0.98442, 393, 1, 456, 374
-0.984438, 157, 49, 188, 112
-0.984492, 165, 65, 196, 192
-0.984498, 233, 129, 264, 192
-0.98452, 257, 241, 288, 368
-0.984564, 1, 177, 128, 240
-0.984567, 225, 33, 288, 288
-0.9846, 353, 41, 480, 104
-0.984608, 1, 153, 32, 216
-0.984636, 321, 33, 384, 288
-0.984653, 45, 121, 76, 184
-0.984657, 221, 225, 252, 352
-0.984687, 17, 41, 48, 104
-0.984688, 201, 193, 232, 256
-0.984708, 337, 121, 464, 184
-0.98475, 321, 1, 384, 374
-0.984766, 121, 193, 152, 320
-0.984869, 45, 177, 76, 240
-0.984878, 181, 265, 212, 328
-0.984914, 1, 201, 32, 264
-0.985055, 337, 81, 400, 144
-0.985151, 93, 65, 124, 192
-0.985171, 121, 225, 152, 288
-0.98523, 225, 249, 256, 312
-0.985329, 185, 73, 216, 136
-0.985354, 449, 177, 480, 240
-0.985358, 225, 65, 256, 192
-0.985358, 217, 89, 280, 152
-0.985396, 281, 145, 312, 272
-0.985415, 1, 17, 32, 80
-0.985439, 89, 1, 152, 64
-0.985446, 93, 177, 124, 304
-0.985493, 301, 313, 332, 374
-0.985494, 409, 153, 472, 216
-0.9855, 225, 1, 288, 374
-0.985571, 49, 57, 176, 120
-0.985575, 81, 145, 112, 272
-0.985662, 425, 73, 488, 136
-0.985664, 13, 193, 44, 320
-0.985674, 433, 33, 496, 288
-0.985683, 105, 33, 168, 96
-0.985696, 1, 137, 128, 200
-0.985709, 341, 153, 372, 216
-0.985734, 81, 49, 112, 176
-0.985827, 449, 201, 480, 264
-0.985856, 1, 177, 32, 304
-0.985889, 281, 1, 344, 374
-0.98589, 133, 209, 164, 336
-0.985945, 393, 81, 424, 208
-0.986015, 313, 113, 344, 240
-0.986121, 81, 33, 208, 96
-0.986123, 257, 145, 288, 208
-0.986125, 445, 33, 476, 160
-0.986153, 373, 33, 404, 160
-0.986183, 121, 145, 152, 208
-0.986208, 25, 33, 88, 96
-0.986266, 389, 49, 420, 112
-0.986269, 257, 137, 384, 200
-0.986359, 25, 65, 88, 128
-0.986388, 137, 257, 168, 320
-0.986428, 129, 273, 256, 336
-0.986485, 97, 265, 160, 328
-0.986487, 281, 153, 312, 216
-0.986527, 457, 145, 488, 272
-0.986557, 469, 33, 500, 160
-0.986616, 21, 113, 52, 176
-0.986634, 61, 129, 92, 192
-0.986653, 469, 49, 500, 112
-0.986736, 225, 65, 352, 128
-0.986744, 357, 129, 388, 256
-0.986815, 1, 1, 64, 374
-0.986836, 141, 17, 172, 144
-0.986864, 417, 193, 448, 320
-0.986952, 209, 241, 240, 368
-0.986957, 165, 241, 196, 368
-0.987037, 369, 89, 496, 152
-0.987199, 297, 33, 360, 288
-0.987266, 121, 1, 184, 374
-0.987343, 141, 65, 172, 192
-0.98751, 357, 49, 388, 176
-0.987541, 433, 1, 496, 374
-0.987555, 129, 33, 256, 96
-0.987566, 289, 89, 416, 152
-0.987669, 193, 1, 256, 374
-0.987851, 177, 49, 208, 176
-0.987876, 297, 277, 360, 308
-0.987922, 97, 65, 224, 128
-0.987943, 257, 273, 500, 336
-0.987993, 429, 33, 460, 160
-0.988005, 253, 97, 284, 224
-0.988018, 385, 33, 416, 160
-0.988187, 145, 97, 272, 160
-0.988194, 129, 257, 384, 320
-0.988211, 405, 193, 436, 320
-0.988319, 241, 81, 272, 208
-0.988415, 265, 313, 328, 344
-0.988433, 353, 33, 416, 288
-0.988512, 433, 241, 464, 368
-0.988519, 305, 221, 368, 252
-0.988583, 345, 269, 408, 300
-0.988623, 329, 217, 392, 248
-0.988667, 89, 17, 152, 144
-0.988678, 193, 65, 224, 192
-0.988687, 97, 1, 160, 374
-0.988706, 377, 257, 440, 288
-0.988725, 433, 129, 496, 374
-0.988778, 193, 89, 320, 152
-0.988794, 265, 129, 296, 256
-0.988887, 73, 1, 136, 374
-0.988942, 121, 265, 184, 296
-0.988982, 273, 301, 336, 332
-0.989081, 361, 297, 424, 328
-0.989083, 249, 201, 312, 232
-0.989152, 213, 81, 244, 208
-0.989152, 193, 129, 256, 160
-0.989204, 249, 289, 312, 320
-0.989205, 149, 241, 180, 368
-0.989221, 161, 157, 224, 188
-0.989242, 385, 285, 448, 316
-0.989258, 305, 233, 368, 264
-0.989274, 321, 261, 384, 292
-0.989343, 25, 189, 88, 220
-0.989348, 281, 257, 344, 288
-0.989352, 217, 201, 280, 232
-0.989361, 329, 285, 392, 316
-0.989426, 257, 217, 500, 280
-0.989434, 345, 237, 408, 268
-0.989477, 329, 177, 392, 208
-0.989479, 289, 189, 352, 220
-0.989483, 145, 297, 272, 360
-0.989486, 417, 81, 448, 208
-0.989496, 61, 177, 92, 304
-0.989501, 161, 125, 224, 156
-0.989504, 153, 141, 216, 172
-0.989548, 321, 309, 384, 340
-0.989611, 209, 273, 272, 304
-0.989619, 353, 213, 416, 244
-0.989651, 145, 257, 208, 288
-0.989674, 153, 241, 216, 272
-0.989694, 321, 249, 384, 280
-0.989715, 105, 225, 136, 352
-0.989734, 113, 217, 176, 248
-0.989737, 177, 237, 240, 268
-0.989744, 429, 177, 460, 304
-0.989745, 273, 169, 336, 200
-0.989796, 305, 289, 368, 320
-0.989799, 297, 177, 360, 208
-0.989802, 289, 209, 352, 240
-0.989804, 281, 289, 344, 320
-0.989811, 113, 129, 176, 160
-0.989811, 193, 249, 256, 280
-0.98983, 193, 145, 256, 176
-0.989837, 125, 17, 156, 144
-0.989844, 45, 193, 76, 320
-0.989871, 137, 205, 200, 236
-0.989873, 177, 189, 240, 220
-0.989877, 153, 81, 184, 208
-0.989877, 129, 153, 384, 216
-0.98991, 161, 277, 224, 308
-0.989921, 353, 225, 416, 256
-0.98996, 297, 165, 360, 196
-0.990027, 201, 233, 264, 264
-0.990051, 73, 193, 104, 320
-0.990064, 265, 273, 328, 304
-0.990075, 353, 281, 416, 312
-0.990085, 177, 201, 240, 232
-0.990112, 33, 121, 288, 184
-0.990132, 193, 113, 320, 176
-0.990155, 257, 297, 500, 360
-0.990176, 9, 145, 72, 176
-0.990195, 405, 97, 436, 224
-0.990222, 265, 153, 328, 184
-0.990237, 145, 193, 208, 224
-0.990248, 329, 189, 392, 220
-0.990256, 177, 177, 240, 208
-0.990276, 281, 237, 344, 268
-0.990279, 161, 233, 416, 296
-0.990287, 209, 33, 240, 160
-0.990325, 1, 201, 64, 232
-0.99038, 121, 141, 184, 172
-0.990383, 345, 161, 408, 192
-0.990389, 241, 113, 368, 176
-0.990401, 321, 273, 384, 304
-0.990416, 217, 141, 280, 172
-0.990437, 209, 221, 272, 252
-0.990463, 257, 249, 500, 312
-0.990465, 353, 189, 416, 220
-0.990468, 345, 201, 408, 232
-0.990476, 377, 313, 440, 344
-0.99049, 289, 113, 416, 176
-0.990496, 313, 201, 376, 232
-0.990516, 137, 221, 200, 252
-0.990531, 201, 185, 264, 216
-0.990556, 129, 209, 384, 272
-0.990558, 185, 221, 248, 252
-0.99057, 113, 233, 176, 264
-0.990574, 273, 221, 336, 252
-0.990581, 145, 181, 208, 212
-0.990584, 417, 317, 480, 348
-0.990586, 305, 25, 432, 88
-0.990598, 369, 177, 432, 208
-0.990621, 297, 301, 360, 332
-0.990625, 241, 301, 304, 332
-0.990638, 385, 217, 448, 248
-0.990655, 217, 261, 280, 292
-0.99067, 105, 205, 168, 236
-0.990678, 113, 189, 176, 220
-0.99068, 249, 189, 312, 220
-0.990692, 377, 269, 440, 300
-0.990712, 249, 261, 312, 292
-0.990724, 257, 177, 500, 240
-0.990758, 1, 161, 256, 224
-0.99076, 113, 245, 176, 276
-0.990772, 169, 289, 232, 320
-0.990774, 273, 325, 336, 356
-0.990788, 89, 225, 120, 352
-0.990808, 9, 117, 72, 148
-0.990853, 81, 121, 144, 152
-0.99086, 297, 153, 360, 184
-0.990867, 177, 113, 240, 144
-0.990873, 233, 321, 296, 352
-0.99088, 393, 325, 456, 356
-0.990906, 137, 281, 200, 312
-0.990916, 309, 65, 340, 192
-0.990917, 137, 153, 200, 184
-0.990924, 161, 185, 416, 248
-0.990929, 321, 165, 384, 196
-0.99093, 161, 221, 224, 252
-0.990948, 233, 237, 296, 268
-0.990949, 193, 261, 256, 292
-0.990965, 249, 217, 312, 248
-0.990968, 137, 169, 200, 200
-0.990975, 241, 277, 304, 308
-0.991013, 241, 249, 304, 280
-0.991016, 25, 1, 88, 374
-0.991025, 385, 297, 448, 328
-0.991041, 33, 141, 96, 172
-0.991046, 249, 1, 312, 374
-0.991059, 369, 201, 432, 232
-0.991074, 217, 129, 280, 160
-0.991086, 185, 165, 248, 196
-0.991095, 73, 225, 136, 256
-0.991098, 409, 285, 472, 316
-0.991109, 9, 105, 72, 136
-0.991131, 305, 321, 368, 352
-0.99116, 1, 61, 64, 92
-0.99117, 361, 117, 424, 148
-0.991197, 81, 197, 144, 228
-0.991207, 1, 133, 64, 164
-0.991215, 1, 73, 64, 104
-0.991232, 161, 17, 192, 144
-0.991244, 145, 61, 208, 92
-0.991244, 81, 109, 144, 140
-0.991257, 409, 209, 472, 240
-0.991262, 129, 281, 384, 344
-0.991266, 241, 33, 272, 160
-0.991266, 57, 177, 120, 208
-0.991293, 369, 165, 432, 196
-0.991298, 345, 257, 408, 288
-0.991299, 225, 185, 288, 216
-0.991307, 377, 229, 440, 260
-0.991317, 81, 137, 144, 168
-0.99132, 145, 293, 208, 324
-0.991337, 81, 185, 144, 216
-0.991339, 385, 117, 448, 148
-0.991339, 153, 113, 216, 144
-0.991343, 41, 209, 104, 240
-0.991365, 225, 41, 352, 104
-0.991517, 469, 145, 500, 272
-0.991553, 33, 185, 288, 248
-0.991567, 381, 81, 412, 208
-0.991606, 445, 129, 476, 256
-0.991627, 253, 49, 284, 176
-0.991723, 273, 49, 336, 176
-0.991874, 33, 241, 288, 304
-0.99202, 337, 297, 464, 328
-0.992029, 337, 81, 368, 208
-0.992064, 65, 9, 192, 72
-0.992079, 313, 261, 344, 292
-0.992091, 325, 273, 356, 304
-0.992096, 1, 177, 500, 240
-0.99211, 289, 289, 320, 320
-0.992115, 421, 293, 452, 324
-0.992132, 357, 221, 388, 252
-0.992136, 33, 217, 288, 280
-0.992195, 309, 273, 340, 304
-0.992201, 337, 269, 464, 300
-0.992229, 201, 137, 232, 168
-0.992275, 273, 221, 400, 252
-0.992293, 409, 281, 440, 312
-0.992305, 1, 65, 128, 128
-0.992372, 177, 277, 304, 308
-0.992381, 269, 265, 300, 296
-0.992395, 205, 177, 236, 208
-0.9924, 269, 297, 300, 328
-0.992401, 389, 285, 420, 316
-0.992402, 49, 185, 80, 216
-0.992414, 181, 141, 212, 172
-0.99242, 165, 149, 196, 180
-0.992422, 177, 33, 304, 96
-0.992423, 349, 285, 380, 316
-0.992426, 193, 157, 224, 188
-0.992431, 333, 221, 364, 252
-0.992439, 301, 253, 332, 284
-0.992444, 313, 189, 344, 220
-0.992448, 461, 193, 492, 320
-0.99245, 213, 129, 244, 160
-0.992452, 29, 197, 60, 228
-0.992453, 357, 273, 388, 304
-0.992456, 13, 201, 44, 232
-0.99246, 293, 221, 324, 252
-0.992466, 225, 193, 256, 224
-0.992475, 241, 269, 368, 300
-0.992477, 257, 289, 288, 320
-0.992486, 189, 189, 220, 220
-0.992492, 145, 261, 176, 292
-0.992497, 309, 173, 340, 204
-0.992498, 373, 269, 404, 300
-0.992506, 357, 301, 388, 332
-0.992512, 297, 265, 328, 296
-0.992518, 33, 65, 64, 192
-0.992521, 137, 197, 168, 228
-0.992527, 393, 117, 424, 148
-0.992529, 433, 129, 464, 256
-0.992535, 333, 285, 364, 316
-0.992535, 309, 301, 340, 332
-0.992536, 445, 177, 476, 304
-0.992537, 37, 185, 68, 216
-0.992541, 325, 177, 356, 208
-0.992542, 327, 257, 342, 320
-0.992545, 273, 285, 400, 316
-0.992547, 237, 245, 268, 276
-0.99256, 165, 241, 196, 272
-0.992561, 373, 201, 404, 232
-0.992562, 9, 105, 40, 136
-0.992575, 5, 41, 36, 72
-0.992582, 165, 137, 196, 168
-0.992593, 181, 277, 212, 308
-0.992596, 157, 197, 188, 228
-0.992598, 301, 209, 332, 240
-0.9926, 377, 161, 408, 192
-0.992602, 301, 197, 332, 228
-0.99261, 145, 273, 176, 304
-0.992611, 349, 209, 380, 240
-0.992616, 365, 181, 396, 212
-0.992616, 269, 313, 300, 344
-0.992622, 5, 61, 36, 92
-0.992623, 393, 213, 424, 244
-0.992623, 297, 301, 328, 332
-0.992624, 173, 289, 204, 320
-0.992624, 153, 125, 184, 156
-0.992629, 305, 241, 336, 272
-0.99263, 317, 233, 348, 264
-0.992631, 301, 161, 332, 192
-0.992631, 345, 265, 376, 296
-0.992636, 401, 293, 432, 324
-0.992641, 321, 221, 352, 252
-0.992644, 313, 317, 344, 348
-0.992653, 453, 333, 484, 364
-0.992658, 345, 181, 376, 212
-0.992658, 197, 269, 228, 300
-0.99266, 237, 257, 268, 288
-0.992664, 297, 173, 328, 204
-0.992666, 305, 285, 336, 316
-0.992668, 133, 265, 164, 296
-0.99267, 289, 237, 320, 268
-0.992671, 257, 277, 288, 308
-0.99268, 377, 233, 408, 264
-0.992689, 289, 237, 416, 268
-0.992689, 341, 233, 372, 264
-0.992691, 325, 249, 356, 280
-0.992691, 281, 309, 312, 340
-0.992693, 209, 201, 240, 232
-0.992696, 357, 197, 388, 228
-0.992696, 185, 289, 216, 320
-0.992701, 105, 197, 136, 228
-0.992713, 329, 165, 360, 196
-0.992718, 141, 169, 172, 200
-0.992718, 233, 205, 264, 236
-0.99272, 337, 209, 368, 240
-0.99272, 373, 213, 404, 244
-0.992723, 329, 197, 360, 228
-0.992723, 427, 281, 442, 344
-0.992724, 373, 297, 404, 328
-0.992727, 325, 261, 356, 292
-0.992734, 417, 305, 448, 336
-0.992735, 393, 197, 424, 228
-0.992735, 349, 245, 380, 276
-0.992737, 1, 197, 32, 228
-0.992739, 157, 285, 188, 316
-0.99274, 421, 281, 452, 312
-0.992741, 153, 145, 184, 176
-0.992746, 193, 221, 224, 252
-0.992747, 269, 65, 300, 192
-0.992761, 353, 17, 480, 80
-0.992762, 117, 217, 148, 248
-0.99277, 357, 257, 388, 288
-0.992771, 205, 189, 236, 220
-0.992773, 265, 329, 296, 360
-0.992781, 253, 201, 284, 232
-0.992782, 345, 169, 376, 200
-0.992783, 313, 161, 344, 192
-0.992783, 281, 193, 312, 224
-0.992788, 465, 81, 496, 208
-0.992789, 225, 129, 256, 160
-0.99279, 377, 257, 408, 288
-0.99279, 173, 197, 204, 228
-0.992791, 153, 229, 184, 260
-0.992799, 405, 269, 436, 300
-0.992804, 281, 321, 312, 352
-0.992804, 253, 149, 284, 180
-0.992806, 1, 25, 32, 56
-0.992808, 17, 69, 48, 100
-0.99281, 357, 169, 388, 200
-0.992813, 217, 181, 248, 212
-0.992814, 81, 281, 208, 344
-0.992817, 265, 1, 328, 128
-0.992821, 361, 285, 392, 316
-0.992823, 305, 329, 336, 360
-0.992824, 277, 277, 308, 308
-0.992826, 153, 249, 184, 280
-0.992827, 157, 209, 188, 240
-0.99283, 189, 201, 220, 232
-0.992831, 121, 185, 152, 216
-0.992833, 177, 237, 208, 268
-0.992836, 213, 213, 244, 244
-0.992844, 97, 225, 128, 256
-0.992845, 197, 289, 228, 320
-0.992846, 197, 125, 228, 156
-0.992856, 369, 65, 496, 128
-0.992867, 129, 129, 384, 192
-0.993001, 177, 249, 304, 280
-0.993137, 129, 261, 256, 292
-0.993278, 49, 1, 112, 374
-0.993313, 311, 217, 326, 280
-0.993382, 273, 201, 400, 232
-0.993452, 273, 189, 400, 220
-0.993492, 273, 305, 400, 336
-0.993606, 289, 257, 416, 288
-0.993638, 257, 153, 500, 216
-0.99368, 421, 297, 436, 360
-0.993694, 161, 137, 288, 168
-0.993762, 315, 257, 330, 320
-0.993769, 271, 289, 286, 352
-0.993778, 261, 281, 276, 344
-0.993814, 321, 249, 336, 312
-0.993818, 113, 149, 240, 180
-0.993855, 289, 273, 416, 304
-0.993876, 323, 281, 338, 344
-0.993879, 329, 169, 344, 232
-0.993904, 1, 89, 500, 152
-0.993943, 49, 1, 112, 128
-0.993968, 317, 225, 332, 288
-0.993981, 337, 281, 464, 312
-0.993995, 337, 265, 352, 328
-0.994028, 351, 177, 366, 240
-0.994034, 197, 185, 212, 248
-0.994034, 1, 113, 500, 176
-0.994038, 21, 41, 36, 104
-0.99405, 367, 241, 382, 304
-0.99407, 321, 221, 448, 252
-0.994099, 199, 153, 214, 216
-0.994107, 33, 81, 288, 144
-0.994108, 161, 249, 176, 312
-0.994124, 321, 197, 448, 228
-0.994126, 1, 233, 500, 296
-0.994165, 33, 273, 288, 336
-0.994169, 145, 189, 272, 220
-0.994178, 97, 201, 224, 232
-0.994193, 113, 249, 240, 280
-0.994214, 193, 209, 320, 240
-0.994228, 245, 201, 260, 264
-0.994234, 241, 233, 256, 296
-0.99426, 305, 1, 432, 64
-0.994273, 361, 225, 376, 288
-0.994282, 225, 241, 352, 272
-0.994307, 163, 209, 178, 272
-0.99431, 163, 121, 178, 184
-0.994319, 365, 289, 380, 352
-0.994321, 381, 265, 396, 328
-0.994325, 371, 273, 386, 336
-0.994327, 177, 265, 304, 296
-0.99433, 365, 201, 380, 264
-0.99434, 383, 225, 398, 288
-0.994342, 343, 273, 358, 336
-0.994371, 277, 289, 292, 352
-0.994386, 1, 201, 500, 264
-0.994391, 161, 149, 288, 180
-0.994396, 327, 193, 342, 256
-0.994419, 353, 265, 368, 328
-0.994445, 97, 189, 224, 220
-0.994474, 193, 197, 320, 228
-0.994522, 9, 33, 24, 96
-0.994523, 249, 249, 264, 312
-0.994536, 289, 177, 416, 208
-0.994538, 255, 273, 270, 336
-0.994541, 169, 201, 184, 264
-0.994559, 289, 321, 416, 352
-0.994566, 241, 257, 368, 288
-0.994596, 129, 165, 256, 196
-0.994599, 203, 177, 218, 240
-0.994609, 193, 293, 320, 324
-0.994611, 327, 233, 342, 296
-0.994627, 433, 241, 496, 368
-0.994629, 301, 233, 316, 296
-0.994646, 357, 177, 372, 240
-0.994649, 193, 169, 320, 200
-0.994672, 371, 209, 386, 272
-0.994676, 17, 205, 144, 236
-0.994676, 97, 217, 224, 248
-0.994685, 97, 129, 224, 160
-0.994696, 129, 89, 384, 152
-0.994706, 387, 193, 402, 256
-0.99471, 225, 281, 352, 312
-0.994733, 339, 185, 354, 248
-0.994735, 359, 201, 374, 264
-0.994757, 321, 209, 448, 240
-0.994758, 129, 57, 384, 120
-0.994772, 407, 113, 422, 176
-0.994802, 157, 193, 172, 256
-0.994805, 225, 185, 352, 216
-0.994808, 309, 249, 324, 312
-0.99481, 369, 329, 496, 360
-0.994831, 353, 173, 480, 204
-0.994835, 397, 209, 412, 272
-0.994844, 1, 141, 128, 172
-0.994852, 307, 273, 322, 336
-0.994869, 205, 153, 220, 216
-0.994872, 231, 177, 246, 240
-0.994873, 1, 41, 256, 104
-0.994909, 295, 265, 310, 328
-0.994913, 215, 129, 230, 192
-0.994918, 397, 249, 412, 312
-0.994936, 247, 225, 262, 288
-0.994936, 203, 201, 218, 264
-0.994995, 433, 281, 448, 344
-0.994996, 267, 265, 282, 328
-0.995012, 257, 161, 384, 192
-0.995013, 391, 249, 406, 312
-0.995019, 211, 169, 226, 232
-0.995046, 345, 177, 360, 240
-0.995052, 169, 137, 184, 200
-0.995064, 311, 193, 326, 256
-0.995068, 373, 241, 388, 304
-0.995069, 319, 185, 334, 248
-0.995085, 359, 273, 374, 336
-0.995116, 151, 169, 166, 232
-0.995123, 363, 177, 378, 240
-0.995133, 389, 225, 404, 288
-0.995138, 369, 317, 496, 348
-0.995146, 201, 129, 232, 374
-0.99515, 277, 185, 292, 248
-0.995152, 377, 193, 392, 256
-0.995161, 17, 189, 144, 220
-0.995165, 193, 217, 208, 280
-0.995168, 65, 141, 192, 172
-0.995169, 241, 17, 368, 80
-0.995199, 319, 153, 334, 216
-0.995212, 337, 257, 464, 288
-0.995213, 3, 113, 18, 176
-0.995214, 85, 113, 100, 176
-0.99522, 129, 305, 384, 368
-0.99522, 97, 113, 112, 176
-0.995225, 113, 177, 240, 208
-0.99524, 79, 113, 94, 176
-0.995243, 191, 185, 206, 248
-0.995252, 187, 217, 202, 280
-0.995252, 97, 237, 224, 268
-0.995258, 65, 153, 192, 184
-0.99527, 235, 233, 250, 296
-0.995271, 301, 289, 316, 352
-0.995274, 289, 281, 304, 344
-0.99528, 115, 217, 130, 280
-0.995285, 333, 241, 348, 304
-0.995297, 329, 281, 344, 344
-0.995299, 225, 57, 480, 120
-0.995301, 317, 297, 332, 360
-0.995304, 361, 249, 376, 312
-0.995309, 129, 273, 256, 304
-0.995316, 225, 305, 352, 336
-0.995325, 225, 229, 352, 260
-0.995331, 201, 233, 216, 296
-0.995345, 157, 225, 172, 288
-0.995347, 271, 313, 286, 374
-0.995356, 305, 193, 320, 256
-0.995358, 225, 129, 480, 192
-0.995362, 11, 73, 26, 136
-0.995369, 167, 249, 182, 312
-0.995409, 353, 161, 480, 192
-0.995422, 157, 145, 172, 208
-0.995433, 27, 49, 42, 112
-0.99545, 11, 105, 26, 168
-0.995463, 421, 265, 436, 328
-0.995465, 15, 41, 30, 104
-0.995465, 223, 121, 238, 184
-0.995466, 17, 229, 144, 260
-0.995472, 377, 217, 392, 280
-0.995474, 89, 1, 152, 256
-0.995478, 237, 209, 252, 272
-0.995489, 225, 233, 240, 296
-0.995489, 241, 173, 368, 204
-0.995503, 369, 217, 496, 248
-0.995504, 295, 305, 310, 368
-0.995519, 287, 305, 302, 368
-0.995529, 175, 201, 190, 264
-0.995534, 155, 249, 170, 312
-0.995538, 43, 113, 58, 176
-0.995547, 161, 169, 176, 232
-0.99555, 353, 201, 368, 264
-0.99556, 67, 105, 82, 168
-0.995587, 149, 233, 164, 296
-0.995592, 255, 249, 270, 312
-0.995598, 209, 157, 336, 188
-0.995606, 41, 1, 104, 256
-0.995611, 181, 137, 196, 200
-0.995614, 399, 113, 414, 176
-0.995617, 225, 209, 240, 272
-0.995623, 333, 193, 348, 256
-0.99565, 407, 209, 422, 272
-0.995651, 121, 113, 136, 176
-0.995654, 53, 113, 68, 176
-0.995673, 219, 233, 234, 296
-0.995694, 1, 1, 32, 256
-0.995695, 285, 249, 300, 312
-0.995697, 81, 269, 208, 300
-0.995703, 309, 161, 324, 224
-0.995704, 245, 273, 260, 336
-0.995705, 17, 117, 144, 148
-0.995709, 145, 177, 160, 240
-0.995709, 345, 249, 360, 312
-0.995717, 389, 281, 404, 344
-0.995731, 209, 193, 224, 256
-0.995747, 167, 273, 182, 336
-0.995769, 277, 265, 292, 328
-0.995773, 321, 309, 448, 340
-0.995778, 1, 65, 500, 128
-0.995795, 121, 233, 136, 296
-0.995796, 145, 125, 272, 156
-0.995799, 145, 213, 272, 244
-0.995818, 17, 105, 144, 136
-0.995824, 337, 233, 464, 264
-0.995851, 225, 97, 256, 352
-0.995855, 1, 33, 500, 96
-0.995891, 145, 201, 272, 232
-0.995942, 249, 129, 280, 374
-0.996045, 225, 81, 480, 144
-0.996058, 177, 237, 304, 268
-0.996142, 189, 129, 220, 374
-0.996144, 1, 257, 500, 320
-0.996159, 309, 129, 340, 374
-0.996177, 209, 317, 336, 348
-0.996177, 353, 185, 480, 216
-0.99623, 165, 129, 196, 374
-0.996253, 261, 129, 292, 374
-0.996273, 129, 33, 384, 96
-0.996304, 1, 45, 128, 76
-0.99633, 241, 89, 368, 152
-0.99634, 369, 205, 496, 236
-0.996347, 13, 33, 44, 288
-0.99635, 1, 145, 500, 208
-0.99636, 1, 9, 256, 72
-0.996398, 237, 129, 268, 374
-0.99641, 17, 217, 144, 248
-0.996411, 325, 257, 340, 288
-0.996416, 173, 33, 204, 288
-0.996417, 213, 129, 244, 374
-0.996434, 141, 129, 172, 374
-0.996517, 97, 69, 224, 100
-0.996541, 1, 57, 128, 88
-0.996542, 225, 105, 480, 168
-0.996546, 369, 117, 496, 148
-0.996559, 97, 289, 224, 320
-0.996593, 1, 249, 128, 312
-0.996604, 49, 129, 176, 160
-0.996612, 113, 113, 240, 144
-0.996628, 305, 157, 432, 188
-0.996631, 321, 129, 448, 160
-0.996638, 357, 129, 388, 374
-0.996642, 333, 129, 364, 374
-0.996674, 421, 1, 452, 256
-0.996685, 65, 173, 192, 204
-0.996713, 335, 269, 350, 300
-0.996718, 327, 269, 342, 300
-0.99672, 49, 257, 176, 288
-0.99674, 353, 45, 480, 76
-0.996742, 125, 129, 156, 374
-0.996759, 145, 225, 272, 256
-0.996776, 177, 129, 208, 374
-0.996793, 209, 141, 336, 172
-0.996798, 161, 61, 288, 92
-0.996817, 193, 125, 320, 156
-0.99683, 137, 1, 168, 256
-0.996843, 1, 129, 128, 160
-0.996858, 153, 97, 184, 352
-0.996877, 1, 33, 128, 64
-0.996913, 65, 117, 192, 148
-0.996924, 1, 97, 32, 352
-0.996933, 145, 293, 272, 324
-0.996959, 209, 73, 336, 104
-0.996961, 319, 253, 334, 284
-0.996972, 319, 305, 334, 336
-0.996991, 161, 81, 288, 112
-0.997001, 201, 33, 232, 288
-0.997008, 297, 129, 328, 374
-0.997009, 319, 265, 334, 296
-0.997021, 397, 285, 412, 316
-0.997069, 159, 257, 174, 288
-0.997075, 285, 129, 316, 374
-0.997075, 185, 1, 216, 256
-0.997083, 431, 293, 446, 324
-0.997111, 257, 149, 384, 180
-0.997124, 97, 97, 128, 352
-0.997146, 113, 45, 240, 76
-0.997155, 315, 241, 330, 272
-0.997183, 273, 129, 304, 374
-0.99719, 381, 265, 396, 296
-0.997196, 241, 237, 256, 268
-0.997224, 217, 1, 248, 256
-0.997225, 201, 185, 216, 216
-0.997251, 291, 285, 306, 316
-0.997254, 257, 69, 384, 100
-0.997257, 169, 141, 184, 172
-0.997258, 81, 33, 208, 64
-0.99726, 351, 285, 366, 316
-0.997266, 109, 97, 140, 352
-0.997278, 1, 69, 128, 100
-0.997283, 311, 257, 326, 288
-0.997299, 369, 149, 496, 180
-0.997301, 377, 129, 408, 374
-0.997305, 37, 193, 52, 224
-0.997317, 369, 285, 384, 316
-0.99732, 175, 137, 190, 168
-0.997333, 129, 9, 256, 72
-0.997335, 363, 277, 378, 308
-0.997349, 161, 49, 288, 80
-0.997354, 369, 301, 384, 332
-0.997358, 317, 317, 332, 348
-0.997362, 359, 297, 374, 328
-0.997366, 201, 281, 216, 312
-0.997367, 153, 193, 168, 224
-0.997367, 423, 305, 438, 336
-0.997377, 391, 277, 406, 308
-0.99738, 309, 157, 324, 188
-0.997382, 219, 129, 234, 160
-0.997383, 309, 241, 324, 272
-0.997384, 301, 289, 316, 320
-0.997388, 163, 129, 178, 160
-0.997392, 255, 293, 270, 324
-0.997398, 247, 241, 262, 272
-0.99741, 141, 185, 156, 216
-0.997413, 261, 281, 276, 312
-0.997422, 299, 277, 314, 308
-0.997427, 215, 233, 230, 264
-0.997431, 97, 101, 224, 132
-0.997453, 357, 197, 372, 228
-0.997455, 371, 273, 386, 304
-0.997456, 1, 21, 128, 52
-0.997459, 161, 305, 288, 336
-0.997463, 327, 289, 342, 320
-0.997469, 193, 189, 208, 220
-0.997471, 151, 261, 166, 292
-0.997471, 173, 285, 188, 316
-0.997471, 309, 301, 324, 332
-0.99748, 309, 221, 324, 252
-0.99748, 145, 173, 160, 204
-0.997484, 267, 277, 282, 308
-0.997486, 363, 201, 378, 232
-0.997489, 25, 49, 40, 80
-0.997491, 207, 177, 222, 208
-0.997494, 427, 281, 442, 312
-0.997497, 29, 97, 60, 352
-0.997497, 325, 177, 340, 208
-0.997497, 225, 25, 480, 88
-0.997509, 53, 185, 68, 216
-0.997514, 387, 193, 402, 224
-0.997517, 353, 81, 480, 112
-0.997521, 111, 197, 126, 228
-0.997523, 345, 129, 376, 374
-0.997526, 353, 173, 368, 204
-0.997537, 289, 265, 304, 296
-0.997539, 279, 297, 294, 328
-0.997541, 125, 1, 156, 256
-0.997544, 81, 81, 208, 112
-0.997553, 351, 269, 366, 300
-0.997554, 163, 149, 178, 180
-0.997558, 377, 177, 392, 208
-0.997561, 179, 289, 194, 320
-0.997563, 29, 197, 44, 228
-0.997572, 365, 185, 380, 216
-0.997577, 419, 317, 434, 348
-0.997581, 287, 297, 302, 328
-0.997582, 201, 197, 216, 228
-0.997587, 361, 225, 376, 256
-0.99759, 17, 197, 32, 228
-0.99759, 21, 61, 36, 92
-0.997594, 179, 149, 194, 180
-0.997595, 51, 137, 66, 168
-0.997603, 17, 41, 32, 72
-0.997605, 433, 1, 464, 256
-0.997608, 279, 321, 294, 352
-0.997613, 1, 153, 128, 184
-0.997617, 11, 105, 26, 136
-0.997618, 421, 293, 436, 324
-0.997619, 121, 197, 136, 228
-0.997623, 163, 209, 178, 240
-0.997624, 343, 281, 358, 312
-0.997629, 383, 181, 398, 212
-0.997636, 321, 117, 448, 148
-0.997645, 391, 257, 406, 288
-0.997645, 47, 189, 62, 220
-0.99765, 321, 189, 336, 220
-0.99765, 273, 297, 288, 328
-0.997651, 167, 277, 182, 308
-0.997652, 375, 189, 390, 220
-0.997659, 271, 313, 286, 344
-0.997659, 81, 57, 208, 88
-0.99767, 341, 269, 356, 300
-0.997671, 359, 185, 374, 216
-0.997674, 409, 181, 424, 212
-0.997676, 369, 261, 384, 292
-0.997679, 1, 117, 16, 148
-0.997685, 317, 161, 332, 192
-0.997687, 369, 201, 384, 232
-0.997688, 399, 213, 414, 244
-0.997695, 251, 265, 266, 296
-0.997698, 231, 181, 246, 212
-0.997699, 43, 133, 58, 164
-0.997699, 149, 1, 180, 256
-0.997701, 111, 209, 126, 240
-0.997715, 17, 93, 144, 124
-0.997715, 197, 217, 212, 248
-0.997716, 305, 33, 432, 64
-0.997719, 351, 185, 366, 216
-0.997726, 189, 289, 204, 320
-0.997731, 245, 205, 260, 236
-0.997735, 159, 245, 174, 276
-0.997739, 201, 141, 216, 172
-0.997742, 357, 281, 372, 312
-0.997743, 187, 137, 202, 168
-0.997745, 119, 209, 134, 240
-0.997757, 161, 37, 288, 68
-0.997757, 169, 221, 184, 252
-0.997767, 5, 25, 20, 56
-0.997769, 17, 241, 144, 272
-0.997772, 251, 253, 266, 284
-0.997773, 223, 237, 238, 268
-0.997775, 311, 169, 326, 200
-0.997779, 53, 97, 84, 352
-0.997779, 403, 289, 418, 320
-0.997783, 271, 265, 286, 296
-0.997784, 311, 313, 326, 344
-0.997795, 147, 205, 162, 236
-0.997798, 225, 337, 352, 368
-0.997801, 353, 33, 384, 288
-0.997803, 27, 61, 42, 92
-0.997803, 161, 273, 176, 304
-0.997804, 311, 325, 326, 356
-0.997806, 115, 221, 130, 252
-0.997807, 299, 213, 314, 244
-0.997811, 147, 193, 162, 224
-0.99782, 353, 297, 368, 328
-0.997827, 245, 221, 260, 252
-0.997831, 163, 233, 178, 264
-0.997835, 175, 237, 190, 268
-0.997837, 337, 245, 464, 276
-0.997837, 261, 293, 276, 324
-0.997868, 161, 113, 288, 144
-0.997872, 85, 65, 116, 320
-0.997901, 65, 97, 96, 352
-0.997919, 305, 61, 432, 92
-0.997922, 409, 1, 440, 256
-0.997924, 305, 145, 432, 176
-0.997934, 241, 129, 368, 160
-0.997944, 209, 57, 336, 88
-0.99797, 305, 45, 432, 76
-0.997977, 17, 177, 144, 208
-0.997996, 369, 133, 496, 164
-0.998035, 305, 77, 432, 108
-0.998047, 257, 57, 384, 88
-0.998047, 49, 69, 176, 100
-0.998073, 17, 129, 48, 374
-0.998136, 389, 129, 420, 374
-0.998138, 1, 297, 500, 360
-0.998164, 253, 33, 284, 288
-0.998184, 321, 65, 352, 320
-0.99819, 241, 33, 272, 288
-0.998206, 225, 45, 352, 76
-0.998214, 413, 97, 444, 352
-0.998228, 457, 33, 488, 288
-0.998271, 469, 33, 500, 288
-0.998293, 161, 317, 288, 348
-0.998297, 401, 129, 432, 374
-0.998383, 249, 203, 312, 218
-0.998397, 225, 1, 288, 128
-0.9984, 73, 1, 104, 256
-0.998414, 81, 1, 208, 32
-0.998433, 153, 147, 216, 162
-0.998434, 329, 293, 392, 308
-0.998442, 121, 265, 184, 280
-0.998442, 305, 223, 368, 238
-0.998442, 297, 279, 360, 294
-0.998442, 377, 257, 440, 272
-0.998448, 297, 177, 360, 192
-0.998458, 393, 289, 456, 304
-0.99846, 369, 295, 432, 310
-0.998463, 161, 289, 224, 304
-0.998464, 329, 189, 392, 204
-0.998465, 321, 311, 384, 326
-0.998466, 265, 331, 328, 346
-0.998469, 201, 199, 264, 214
-0.998469, 257, 281, 320, 296
-0.998469, 373, 33, 404, 288
-0.99847, 281, 311, 344, 326
-0.99847, 205, 193, 236, 208
-0.99847, 105, 199, 136, 214
-0.99847, 341, 271, 372, 286
-0.998471, 173, 135, 204, 150
-0.998471, 209, 141, 240, 156
-0.998471, 257, 81, 384, 112
-0.998471, 365, 177, 396, 192
-0.998471, 269, 305, 300, 320
-0.998471, 337, 239, 368, 254
-0.998471, 369, 261, 400, 276
-0.998472, 377, 211, 408, 226
-0.998473, 321, 181, 384, 196
-0.998473, 285, 289, 316, 304
-0.998474, 157, 153, 188, 168
-0.998474, 177, 237, 240, 252
-0.998474, 297, 271, 360, 286
-0.998475, 177, 141, 240, 156
-0.998475, 341, 219, 372, 234
-0.998476, 77, 135, 108, 150
-0.998477, 1, 205, 32, 220
-0.998477, 137, 209, 200, 224
-0.998478, 357, 263, 388, 278
-0.998478, 149, 209, 180, 224
-0.998479, 345, 227, 408, 242
-0.998479, 417, 287, 448, 302
-0.998479, 249, 289, 312, 304
-0.998479, 345, 219, 408, 234
-0.998479, 289, 241, 320, 256
-0.99848, 137, 201, 168, 216
-0.99848, 205, 183, 236, 198
-0.998481, 305, 235, 368, 250
-0.998481, 441, 337, 472, 352
-0.998482, 205, 239, 236, 254
-0.998482, 373, 199, 404, 214
-0.998482, 277, 33, 308, 288
-0.998483, 313, 235, 344, 250
-0.998483, 205, 133, 236, 148
-0.998484, 273, 261, 336, 276
-0.998486, 177, 193, 208, 208
-0.998486, 297, 277, 328, 292
-0.998487, 169, 207, 200, 222
-0.998487, 121, 131, 184, 146
-0.998487, 297, 287, 360, 302
-0.998488, 289, 271, 320, 286
-0.998488, 357, 231, 388, 246
-0.998488, 305, 305, 368, 320
-0.998489, 201, 137, 264, 152
-0.998489, 337, 225, 368, 240
-0.99849, 193, 161, 224, 176
-0.99849, 153, 217, 216, 232
-0.99849, 165, 141, 196, 156
-0.998491, 281, 197, 312, 212
-0.998491, 193, 131, 256, 146
-0.998492, 13, 207, 44, 222
-0.998492, 273, 183, 336, 198
-0.998493, 337, 183, 368, 198
-0.998494, 357, 275, 388, 290
-0.998495, 153, 243, 216, 258
-0.998495, 305, 285, 336, 300
-0.998495, 53, 183, 84, 198
-0.998495, 361, 193, 392, 208
-0.998495, 361, 289, 424, 304
-0.998496, 25, 205, 56, 220
-0.998496, 205, 201, 236, 216
-0.998496, 257, 265, 288, 280
-0.998496, 217, 133, 248, 148
-0.998497, 321, 267, 384, 282
-0.998497, 377, 265, 440, 280
-0.998497, 161, 279, 224, 294
-0.998497, 189, 199, 220, 214
-0.998497, 285, 235, 316, 250
-0.998498, 373, 217, 404, 232
-0.998498, 309, 187, 340, 202
-0.998499, 365, 299, 396, 314
-0.9985, 357, 211, 388, 226
-0.9985, 357, 225, 388, 240
-0.998501, 209, 177, 240, 192
-0.998502, 289, 195, 352, 210
-0.998502, 321, 219, 352, 234
-0.998502, 337, 203, 368, 218
-0.998503, 269, 269, 300, 284
-0.998503, 273, 189, 336, 204
-0.998504, 189, 191, 220, 206
-0.998504, 297, 209, 312, 336
-0.998505, 345, 277, 376, 292
-0.998505, 9, 195, 72, 210
-0.998506, 297, 165, 360, 180
-0.998506, 161, 129, 224, 144
-0.998506, 313, 161, 344, 176
-0.998507, 185, 143, 216, 158
-0.998508, 169, 199, 200, 214
-0.998508, 285, 295, 316, 310
-0.998508, 389, 291, 420, 306
-0.998509, 177, 205, 240, 220
-0.99851, 221, 127, 252, 142
-0.99851, 197, 139, 228, 154
-0.99851, 257, 159, 320, 174
-0.998511, 5, 71, 36, 86
-0.998511, 305, 255, 368, 270
-0.998511, 45, 197, 76, 212
-0.998511, 377, 233, 408, 248
-0.998511, 361, 293, 392, 308
-0.998512, 361, 187, 392, 202
-0.998512, 301, 223, 332, 238
-0.998512, 257, 291, 288, 306
-0.998514, 273, 169, 336, 184
-0.998514, 5, 107, 36, 122
-0.998514, 297, 187, 360, 202
-0.998515, 301, 231, 332, 246
-0.998515, 193, 149, 256, 164
-0.998516, 357, 305, 388, 320
-0.998516, 289, 217, 352, 232
-0.998516, 41, 97, 72, 352
-0.998517, 237, 243, 268, 258
-0.998518, 297, 241, 360, 256
-0.998518, 329, 211, 392, 226
-0.998518, 145, 257, 208, 272
-0.998518, 289, 211, 352, 226
-0.998519, 153, 139, 216, 154
-0.998519, 361, 203, 392, 218
-0.998519, 177, 149, 208, 164
-0.998519, 169, 159, 232, 174
-0.99852, 305, 173, 336, 188
-0.998521, 309, 269, 340, 284
-0.998522, 209, 231, 272, 246
-0.998523, 329, 235, 392, 250
-0.998524, 33, 193, 64, 208
-0.998524, 329, 241, 392, 256
-0.998524, 329, 197, 392, 212
-0.998524, 349, 195, 380, 210
-0.998524, 333, 173, 364, 188
-0.998524, 153, 199, 216, 214
-0.998525, 281, 255, 344, 270
-0.998525, 253, 203, 284, 218
-0.998527, 217, 207, 280, 222
-0.998527, 309, 193, 340, 208
-0.998528, 369, 267, 400, 282
-0.998528, 281, 305, 344, 320
-0.998529, 129, 201, 192, 216
-0.99853, 305, 229, 368, 244
-0.998531, 313, 217, 376, 232
-0.998531, 225, 197, 256, 212
-0.998532, 293, 217, 324, 232
-0.998532, 289, 159, 352, 174
-0.998533, 337, 261, 400, 276
-0.998533, 421, 293, 452, 308
-0.998533, 393, 215, 424, 230
-0.998534, 273, 177, 336, 192
-0.998534, 297, 261, 328, 276
-0.998534, 9, 123, 72, 138
-0.998535, 177, 199, 240, 214
-0.998535, 169, 193, 232, 208
-0.998535, 201, 241, 264, 256
-0.998535, 9, 151, 72, 166
-0.998535, 297, 171, 360, 186
-0.998537, 145, 235, 208, 250
-0.998537, 273, 299, 336, 314
-0.998538, 217, 275, 280, 290
-0.998538, 45, 189, 76, 204
-0.99854, 353, 197, 416, 212
-0.99854, 177, 179, 240, 194
-0.99854, 345, 269, 408, 284
-0.99854, 301, 211, 332, 226
-0.99854, 321, 277, 384, 292
-0.998541, 193, 189, 256, 204
-0.998541, 341, 189, 372, 204
-0.998541, 249, 303, 312, 318
-0.998541, 121, 215, 184, 230
-0.998541, 153, 129, 184, 144
-0.998542, 33, 189, 96, 204
-0.998543, 121, 137, 184, 152
-0.998543, 145, 265, 176, 280
-0.998543, 145, 193, 208, 208
-0.998543, 257, 275, 320, 290
-0.998543, 329, 205, 392, 220
-0.998545, 321, 181, 352, 196
-0.998546, 249, 197, 312, 212
-0.998546, 297, 265, 360, 280
-0.998546, 141, 195, 172, 210
-0.998547, 185, 251, 248, 266
-0.998547, 217, 145, 280, 160
-0.998547, 265, 325, 328, 340
-0.998549, 377, 297, 408, 312
-0.998549, 281, 223, 344, 238
-0.998549, 177, 215, 240, 230
-0.998549, 145, 263, 208, 278
-0.99855, 349, 299, 380, 314
-0.99855, 297, 247, 360, 262
-0.998551, 329, 299, 392, 314
-0.998551, 345, 179, 408, 194
-0.998552, 353, 279, 416, 294
-0.998552, 265, 249, 328, 264
-0.998552, 145, 249, 208, 264
-0.998553, 121, 185, 184, 200
-0.998554, 169, 153, 232, 168
-0.998554, 345, 173, 408, 188
-0.998554, 333, 289, 364, 304
-0.998554, 41, 195, 104, 210
-0.998555, 1, 205, 64, 220
-0.998556, 317, 261, 348, 276
-0.998556, 345, 161, 408, 176
-0.998557, 353, 235, 416, 250
-0.998557, 261, 313, 292, 328
-0.998557, 393, 295, 456, 310
-0.998557, 293, 249, 324, 264
-0.998558, 121, 143, 184, 158
-0.998558, 369, 215, 432, 230
-0.998558, 149, 203, 180, 218
-0.998558, 9, 145, 72, 160
-0.998559, 417, 305, 448, 320
-0.998559, 145, 183, 208, 198
-0.998561, 453, 333, 484, 348
-0.998562, 121, 151, 184, 166
-0.998562, 121, 221, 184, 236
-0.998562, 417, 325, 480, 340
-0.998563, 377, 271, 440, 286
-0.998563, 161, 173, 224, 188
-0.998563, 145, 227, 208, 242
-0.998564, 41, 183, 104, 198
-0.998565, 277, 263, 308, 278
-0.998565, 361, 301, 424, 316
-0.998566, 249, 221, 312, 236
-0.998566, 297, 293, 360, 308
-0.998566, 249, 213, 312, 228
-0.998566, 329, 305, 392, 320
-0.998568, 129, 265, 160, 280
-0.998571, 401, 289, 432, 304
-0.998572, 313, 303, 344, 318
-0.998573, 349, 201, 380, 216
-0.998573, 13, 199, 44, 214
-0.998576, 157, 197, 188, 212
-0.998576, 161, 147, 192, 162
-0.998576, 285, 333, 316, 348
-0.998577, 321, 191, 352, 206
-0.998582, 181, 291, 212, 306
-0.998591, 25, 199, 56, 214
-0.998591, 205, 177, 220, 304
-0.998597, 349, 181, 380, 196
-0.998598, 429, 97, 460, 352
-0.998598, 349, 293, 380, 308
-0.998606, 265, 201, 296, 216
-0.998606, 1, 241, 64, 368
-0.99861, 349, 283, 380, 298
-0.998613, 3, 65, 18, 192
-0.998618, 373, 273, 404, 288
-0.998625, 309, 255, 340, 270
-0.998628, 383, 177, 398, 304
-0.998632, 421, 299, 452, 314
-0.998635, 329, 281, 360, 296
-0.998639, 309, 277, 340, 292
-0.998659, 161, 1, 192, 256
-0.998668, 373, 177, 388, 304
-0.998668, 321, 269, 352, 284
-0.998676, 15, 65, 30, 192
-0.998678, 9, 33, 24, 160
-0.998698, 171, 161, 186, 288
-0.998704, 325, 275, 356, 290
-0.998708, 199, 177, 214, 304
-0.998711, 291, 241, 306, 368
-0.998744, 303, 209, 318, 336
-0.998749, 361, 193, 376, 320
-0.998769, 23, 33, 38, 160
-0.998776, 449, 129, 480, 374
-0.998777, 223, 193, 238, 320
-0.998777, 249, 209, 264, 336
-0.998791, 151, 177, 166, 304
-0.998792, 347, 177, 362, 304
-0.998805, 231, 129, 246, 256
-0.998814, 97, 97, 112, 224
-0.99883, 341, 33, 372, 288
-0.998834, 217, 129, 232, 256
-0.998836, 159, 129, 174, 256
-0.998847, 415, 241, 430, 368
-0.998853, 157, 193, 172, 320
-0.998864, 391, 193, 406, 320
-0.99887, 445, 33, 476, 288
-0.998883, 291, 193, 306, 320
-0.998888, 385, 225, 400, 352
-0.99889, 41, 129, 56, 256
-0.998896, 223, 113, 238, 240
-0.998898, 283, 193, 298, 320
-0.998899, 29, 1, 60, 256
-0.998901, 191, 177, 206, 304
-0.998901, 163, 193, 178, 320
-0.998907, 421, 241, 436, 368
-0.998907, 297, 33, 328, 288
-0.998911, 213, 209, 228, 336
-0.998911, 367, 177, 382, 304
-0.998917, 173, 209, 188, 336
-0.998925, 243, 129, 258, 256
-0.998926, 313, 225, 328, 352
-0.998935, 325, 241, 340, 368
-0.998935, 339, 161, 354, 288
-0.998937, 353, 193, 368, 320
-0.998938, 329, 161, 344, 288
-0.99894, 397, 33, 428, 288
-0.998941, 151, 129, 166, 256
-0.998941, 373, 225, 388, 352
-0.998942, 177, 129, 192, 256
-0.998948, 9, 129, 24, 256
-0.998953, 121, 129, 136, 256
-0.998954, 29, 145, 44, 272
-0.998955, 311, 161, 326, 288
-0.99896, 51, 145, 66, 272
-0.998962, 275, 161, 290, 288
-0.998967, 35, 129, 50, 256
-0.998971, 19, 145, 34, 272
-0.998971, 17, 17, 32, 144
-0.998972, 91, 113, 106, 240
-0.998979, 117, 177, 132, 304
-0.998984, 255, 161, 270, 288
-0.998984, 45, 177, 60, 304
-0.998985, 199, 129, 214, 256
-0.998997, 233, 177, 248, 304
-0.998997, 391, 241, 406, 368
-0.999002, 165, 113, 180, 240
-0.999003, 409, 161, 424, 288
-0.999004, 305, 161, 320, 288
-0.999006, 171, 113, 186, 240
-0.999009, 335, 225, 350, 352
-0.999009, 321, 177, 336, 304
-0.999014, 397, 177, 412, 304
-0.999017, 403, 193, 418, 320
-0.999021, 267, 129, 282, 256
-0.999021, 207, 129, 222, 256
-0.999025, 367, 241, 382, 368
-0.999026, 103, 97, 118, 224
-0.999026, 361, 241, 376, 368
-0.999031, 239, 177, 254, 304
-0.999031, 49, 1, 80, 256
-0.999033, 85, 97, 100, 224
-0.999034, 183, 145, 198, 272
-0.999035, 409, 113, 424, 240
-0.99904, 111, 113, 126, 240
-0.99904, 145, 129, 160, 256
-0.999049, 199, 225, 214, 352
-0.99905, 255, 241, 270, 368
-0.999068, 13, 177, 28, 304
-0.999069, 29, 49, 44, 176
-0.999075, 193, 225, 208, 352
-0.999076, 111, 161, 126, 288
-0.999076, 23, 81, 38, 208
-0.999078, 97, 145, 112, 272
-0.999079, 1, 17, 16, 144
-0.999083, 77, 129, 92, 256
-0.999088, 67, 145, 82, 272
-0.999088, 103, 177, 118, 304
-0.999091, 399, 241, 414, 368
-0.999092, 355, 113, 370, 240
-0.999095, 429, 241, 444, 368
-0.999115, 309, 33, 340, 288
-0.999117, 145, 177, 160, 304
-0.999118, 153, 81, 168, 208
-0.99912, 345, 225, 360, 352
-0.99913, 163, 241, 178, 368
-0.999145, 397, 129, 412, 256
-0.999145, 123, 177, 138, 304
-0.999148, 71, 97, 86, 224
-0.999156, 33, 297, 288, 360
-0.999161, 477, 33, 492, 160
-0.999173, 385, 33, 416, 288
-0.999176, 405, 65, 420, 192
-0.999178, 355, 241, 370, 368
-0.99918, 297, 161, 312, 288
-0.999183, 221, 241, 236, 368
-0.999186, 193, 113, 208, 240
-0.999187, 379, 241, 394, 368
-0.999188, 277, 241, 292, 368
-0.999188, 415, 33, 430, 160
-0.999188, 3, 129, 18, 256
-0.999188, 265, 33, 296, 288
-0.999191, 141, 17, 156, 144
-0.999197, 237, 129, 252, 256
-0.999198, 35, 177, 50, 304
-0.999199, 83, 145, 98, 272
-0.999219, 29, 97, 44, 224
-0.999221, 459, 145, 474, 272
-0.999222, 9, 81, 24, 208
-0.999223, 261, 193, 276, 320
-0.999223, 181, 193, 196, 320
-0.999224, 319, 225, 334, 352
-0.999228, 225, 65, 240, 192
-0.999228, 285, 241, 300, 368
-0.999233, 435, 33, 450, 160
-0.999235, 261, 129, 276, 256
-0.999236, 61, 145, 76, 272
-0.999238, 151, 225, 166, 352
-0.999239, 465, 145, 480, 272
-0.999239, 465, 129, 496, 374
-0.999244, 467, 33, 482, 160
-0.999248, 453, 177, 468, 304
-0.999352, 229, 1, 260, 256
-0.999398, 177, 9, 304, 72
-0.999458, 97, 1, 128, 256
-0.999475, 61, 1, 92, 256
-0.999561, 1, 9, 500, 72
-0.999571, 129, 9, 384, 72
-0.999588, 113, 1, 144, 256
-0.999652, 371, 303, 386, 318
-0.999653, 207, 285, 222, 300
-0.999653, 357, 175, 372, 190
-0.999654, 327, 283, 342, 298
-0.999654, 285, 257, 300, 272
-0.999655, 151, 263, 166, 278
-0.999655, 11, 107, 26, 122
-0.999655, 307, 235, 322, 250
-0.999656, 167, 145, 182, 160
-0.999656, 299, 279, 314, 294
-0.999657, 223, 239, 238, 254
-0.999657, 37, 193, 52, 208
-0.999657, 287, 237, 302, 252
-0.999657, 161, 249, 176, 264
-0.999658, 19, 45, 34, 60
-0.999658, 45, 143, 60, 158
-0.999658, 231, 187, 246, 202
-0.999658, 289, 297, 304, 312
-0.99966, 227, 197, 242, 212
-0.99966, 315, 253, 330, 268
-0.99966, 27, 197, 42, 212
-0.99966, 175, 135, 190, 150
-0.999661, 175, 289, 190, 304
-0.999661, 283, 331, 298, 346
-0.999662, 317, 323, 332, 338
-0.999662, 201, 287, 216, 302
-0.999662, 171, 207, 186, 222
-0.999663, 1, 123, 16, 138
-0.999663, 307, 167, 322, 182
-0.999663, 135, 267, 150, 282
-0.999664, 151, 187, 166, 202
-0.999664, 277, 265, 292, 280
-0.999664, 377, 191, 392, 206
-0.999664, 321, 261, 336, 276
-0.999664, 423, 297, 438, 312
-0.999664, 173, 241, 188, 256
-0.999665, 45, 133, 60, 148
-0.999665, 43, 187, 58, 202
-0.999666, 271, 291, 286, 306
-0.999667, 17, 201, 32, 216
-0.999667, 359, 311, 374, 326
-0.999668, 315, 259, 330, 274
-0.999668, 233, 245, 248, 260
-0.999668, 307, 225, 322, 240
-0.999669, 297, 217, 312, 232
-0.999669, 47, 193, 62, 208
-0.999669, 369, 277, 384, 292
-0.999669, 171, 199, 186, 214
-0.999669, 431, 293, 446, 308
-0.99967, 193, 201, 208, 216
-0.999671, 387, 199, 402, 214
-0.999671, 87, 145, 102, 160
-0.999671, 363, 275, 378, 290
-0.999671, 267, 199, 282, 214
-0.999672, 157, 259, 172, 274
-0.999672, 255, 293, 270, 308
-0.999672, 79, 145, 94, 160
-0.999672, 179, 147, 194, 162
-0.999674, 263, 279, 278, 294
-0.999677, 333, 267, 348, 282
-0.999679, 147, 195, 162, 210
-0.99968, 309, 327, 324, 342
-0.99968, 181, 291, 196, 306
-0.999681, 39, 199, 54, 214
-0.999681, 121, 215, 136, 230
-0.999681, 395, 283, 410, 298
-0.999681, 327, 189, 342, 204
-0.999681, 421, 305, 436, 320
-0.999681, 201, 193, 216, 208
-0.999682, 327, 257, 342, 272
-0.999683, 167, 281, 182, 296
-0.999683, 259, 203, 274, 218
-0.999685, 161, 273, 176, 288
-0.999685, 347, 289, 362, 304
-0.999685, 247, 239, 262, 254
-0.999686, 145, 265, 160, 280
-0.999687, 315, 275, 330, 290
-0.999687, 295, 289, 310, 304
-0.999687, 353, 301, 368, 316
-0.999689, 387, 295, 402, 310
-0.999689, 311, 159, 326, 174
-0.99969, 363, 289, 378, 304
-0.999691, 313, 193, 328, 208
-0.999691, 249, 249, 264, 264
-0.999693, 387, 273, 402, 288
-0.999693, 343, 281, 358, 296
-0.999694, 305, 247, 320, 262
-0.999695, 241, 245, 256, 260
-0.999697, 203, 201, 218, 216
-0.999698, 371, 195, 386, 210
-0.999698, 245, 207, 260, 222
-0.999698, 359, 207, 374, 222
-0.999699, 309, 241, 324, 256
-0.9997, 243, 253, 258, 268
-0.9997, 283, 263, 298, 278
-0.999701, 353, 293, 368, 308
-0.999701, 129, 265, 144, 280
-0.999701, 315, 187, 330, 202
-0.999703, 111, 199, 126, 214
-0.999704, 341, 275, 356, 290
-0.999705, 309, 253, 324, 268
-0.999709, 223, 245, 238, 260
-0.999712, 427, 287, 442, 302
-0.999712, 379, 297, 394, 312
-0.999712, 349, 177, 364, 192
-0.999712, 161, 203, 176, 218
-0.999714, 355, 201, 370, 216
-0.999714, 361, 195, 376, 210
-0.999715, 153, 201, 168, 216
-0.999717, 161, 211, 176, 226
-0.999718, 371, 297, 386, 312
-0.99972, 335, 279, 350, 294
-0.999722, 253, 205, 268, 220
-0.999727, 365, 187, 380, 202
-0.99973, 325, 273, 340, 288
-0.999731, 217, 237, 232, 252
-0.999732, 141, 191, 156, 206
-0.999734, 165, 129, 180, 144
-0.999735, 313, 233, 328, 248
-0.999736, 27, 61, 42, 76
-0.999739, 357, 181, 372, 196
-0.999744, 353, 285, 368, 300
-0.999747, 153, 193, 168, 208
-0.999749, 327, 263, 342, 278
-0.999751, 363, 201, 378, 216
-0.999762, 321, 255, 336, 270
-0.999764, 331, 273, 346, 288
-0.999778, 381, 267, 396, 282
-0.999782, 321, 267, 336, 282
-0.999791, 401, 289, 416, 304
-1.00007, 225, 1, 480, 64
-1.00054, 97, 305, 224, 368
-1.00194, 289, 1, 352, 128
-1.00205, 1, 305, 128, 368
-1.00221, 17, 273, 144, 336
-1.00225, 49, 305, 176, 368
