1954
-0.165856, 1, 1, 500, 375
-0.244343, 1, 97, 500, 352
-0.290144, 161, 1, 416, 375
-0.378752, 65, 1, 320, 375
-0.384345, 257, 1, 500, 375
-0.410474, 1, 1, 500, 256
-0.526207, 129, 65, 384, 320
-0.534966, 1, 97, 256, 352
-0.570868, 1, 1, 256, 256
-0.589555, 225, 1, 480, 256
-0.611972, 257, 97, 500, 352
-0.828466, 337, 1, 464, 256
-0.828531, 257, 1, 384, 375
-0.831404, 273, 129, 400, 375
-0.836481, 273, 33, 400, 288
-0.838179, 17, 33, 144, 288
-0.838681, 209, 1, 336, 375
-0.839929, 161, 1, 288, 375
-0.841527, 177, 1, 304, 256
-0.841681, 321, 1, 448, 375
-0.841964, 65, 97, 192, 352
-0.843938, 1, 1, 128, 375
-0.846328, 1, 129, 500, 256
-0.848047, 113, 65, 240, 320
-0.851686, 193, 97, 320, 352
-0.855749, 321, 129, 448, 375
-0.864597, 225, 1, 352, 256
-0.866134, 369, 1, 496, 375
-0.867191, 1, 129, 128, 375
-0.867511, 1, 65, 500, 192
-0.87015, 1, 177, 500, 304
-0.873801, 97, 1, 224, 375
-0.874029, 65, 1, 192, 256
-0.876373, 49, 1, 176, 375
-0.886362, 369, 97, 496, 352
-0.886432, 1, 225, 500, 352
-0.89872, 161, 129, 416, 256
-0.899615, 33, 193, 288, 320
-0.900357, 193, 225, 448, 352
-0.901448, 161, 177, 416, 304
-0.901775, 1, 113, 256, 240
-0.903686, 1, 17, 500, 144
-0.904475, 257, 177, 500, 304
-0.913556, 257, 129, 500, 256
-0.914963, 161, 49, 416, 176
-0.915956, 1, 65, 256, 192
-0.920064, 273, 129, 400, 256
-0.920835, 33, 241, 288, 368
-0.922622, 321, 177, 384, 304
-0.923221, 17, 113, 144, 240
-0.924572, 289, 177, 416, 304
-0.925977, 209, 145, 336, 272
-0.926844, 345, 145, 408, 272
-0.927644, 121, 113, 184, 240
-0.928309, 321, 113, 448, 240
-0.928401, 257, 33, 500, 160
-0.928482, 345, 193, 408, 320
-0.928725, 57, 1, 120, 128
-0.930152, 273, 145, 336, 272
-0.93165, 145, 129, 208, 256
-0.931741, 97, 97, 224, 224
-0.931951, 169, 49, 232, 176
-0.932334, 161, 65, 288, 192
-0.932354, 313, 129, 376, 256
-0.932364, 257, 81, 500, 208
-0.932429, 33, 17, 96, 144
-0.932552, 273, 209, 336, 336
-0.93286, 65, 113, 128, 240
-0.933427, 17, 33, 144, 160
-0.933629, 289, 225, 416, 352
-0.933737, 49, 161, 176, 288
-0.934215, 65, 1, 320, 128
-0.934893, 145, 193, 272, 320
-0.935328, 1, 1, 64, 128
-0.93636, 97, 145, 224, 272
-0.936511, 97, 97, 160, 224
-0.936859, 209, 193, 336, 320
-0.937852, 337, 17, 464, 144
-0.937897, 17, 113, 80, 240
-0.938891, 337, 177, 464, 304
-0.939241, 121, 177, 184, 304
-0.939621, 233, 193, 296, 320
-0.939968, 313, 225, 376, 352
-0.940344, 81, 177, 144, 304
-0.940652, 225, 17, 288, 144
-0.940799, 57, 161, 120, 288
-0.940911, 273, 81, 400, 208
-0.941139, 169, 161, 232, 288
-0.941837, 337, 225, 464, 352
-0.942041, 145, 113, 272, 240
-0.942391, 65, 241, 192, 368
-0.942635, 209, 33, 336, 160
-0.942689, 257, 33, 384, 160
-0.942795, 345, 145, 408, 208
-0.943381, 41, 97, 104, 224
-0.943569, 345, 217, 408, 280
-0.943859, 345, 169, 408, 232
-0.944051, 145, 65, 208, 192
-0.944084, 273, 225, 336, 288
-0.944487, 297, 177, 360, 304
-0.944584, 369, 97, 496, 224
-0.944627, 145, 177, 208, 304
-0.944662, 137, 225, 200, 352
-0.944944, 185, 225, 248, 352
-0.94498, 65, 49, 192, 176
-0.945126, 33, 17, 96, 80
-0.945281, 161, 17, 288, 144
-0.946484, 145, 241, 272, 368
-0.946655, 1, 225, 128, 352
-0.946843, 209, 81, 336, 208
-0.947241, 73, 145, 136, 208
-0.947433, 17, 241, 80, 368
-0.947554, 249, 145, 312, 272
-0.947612, 321, 177, 384, 240
-0.947671, 97, 193, 224, 320
-0.947727, 209, 241, 336, 368
-0.947995, 265, 97, 328, 224
-0.948016, 57, 49, 120, 176
-0.948924, 121, 177, 184, 240
-0.94921, 1, 161, 128, 288
-0.950036, 161, 241, 224, 368
-0.950103, 113, 49, 240, 176
-0.950129, 313, 201, 376, 264
-0.95036, 305, 153, 368, 216
-0.950522, 121, 65, 184, 192
-0.950886, 217, 241, 280, 368
-0.951487, 73, 241, 136, 368
-0.951646, 353, 97, 416, 224
-0.952521, 249, 33, 312, 160
-0.952534, 233, 249, 296, 312
-0.95278, 345, 1, 408, 128
-0.952791, 81, 33, 144, 160
-0.952892, 305, 33, 368, 160
-0.952902, 105, 153, 168, 216
-0.953023, 49, 41, 112, 104
-0.953244, 385, 161, 448, 288
-0.95326, 281, 193, 344, 256
-0.953273, 385, 121, 448, 184
-0.953588, 81, 113, 144, 176
-0.953825, 361, 241, 424, 368
-0.953851, 105, 89, 168, 152
-0.95387, 177, 65, 240, 128
-0.95387, 33, 121, 96, 184
-0.954324, 113, 121, 176, 184
-0.954329, 33, 177, 96, 304
-0.95433, 9, 17, 72, 80
-0.954501, 385, 113, 448, 240
-0.95498, 41, 73, 104, 136
-0.955273, 209, 193, 272, 320
-0.955826, 49, 225, 112, 352
-0.955946, 321, 233, 384, 296
-0.956047, 281, 161, 344, 224
-0.956293, 241, 81, 304, 208
-0.956339, 321, 129, 384, 192
-0.956556, 169, 113, 232, 240
-0.956792, 193, 65, 256, 192
-0.956969, 1, 177, 64, 304
-0.957018, 217, 129, 280, 256
-0.957124, 113, 1, 240, 128
-0.957219, 337, 241, 400, 368
-0.957348, 121, 217, 184, 280
-0.957889, 281, 137, 344, 200
-0.957947, 345, 193, 408, 256
-0.958254, 145, 129, 208, 192
-0.958315, 153, 185, 216, 248
-0.958318, 25, 41, 88, 104
-0.959243, 233, 105, 296, 168
-0.959246, 17, 65, 80, 192
-0.95937, 57, 169, 120, 232
-0.959729, 193, 113, 256, 240
-0.959848, 249, 241, 312, 368
-0.959849, 225, 33, 288, 96
-0.960042, 305, 81, 368, 208
-0.960331, 225, 81, 288, 144
-0.960569, 281, 49, 344, 176
-0.960706, 193, 241, 256, 304
-0.960756, 81, 169, 144, 232
-0.960857, 297, 225, 360, 288
-0.961067, 137, 257, 200, 320
-0.96145, 57, 9, 120, 72
-0.961693, 97, 225, 160, 352
-0.962016, 273, 249, 336, 312
-0.962165, 321, 65, 448, 192
-0.962175, 137, 97, 200, 352
-0.962514, 25, 145, 88, 208
-0.962749, 257, 65, 320, 128
-0.962825, 385, 17, 448, 144
-0.962855, 385, 233, 448, 296
-0.963327, 1, 49, 64, 112
-0.963327, 73, 81, 136, 144
-0.963796, 129, 97, 192, 160
-0.963804, 345, 17, 408, 80
-0.963974, 261, 249, 292, 312
-0.96405, 33, 1, 96, 256
-0.964135, 161, 1, 416, 128
-0.964167, 217, 57, 280, 120
-0.964323, 225, 273, 288, 336
-0.964573, 145, 161, 208, 224
-0.964719, 217, 65, 280, 192
-0.964855, 41, 241, 104, 304
-0.965166, 257, 89, 320, 152
-0.965183, 305, 41, 368, 104
-0.965484, 233, 225, 296, 288
-0.965672, 289, 145, 416, 208
-0.965903, 137, 297, 200, 360
-0.965985, 289, 233, 416, 296
-0.966016, 369, 193, 400, 320
-0.966208, 297, 265, 360, 328
-0.966321, 353, 249, 416, 312
-0.966645, 169, 33, 232, 288
-0.966672, 249, 201, 312, 264
-0.966846, 265, 33, 328, 288
-0.967059, 97, 129, 224, 192
-0.967083, 321, 161, 352, 288
-0.967262, 333, 161, 364, 224
-0.967362, 249, 129, 312, 375
-0.967395, 241, 129, 368, 192
-0.967469, 57, 121, 120, 184
-0.967485, 357, 145, 388, 208
-0.967501, 385, 193, 448, 256
-0.967541, 353, 105, 416, 168
-0.967559, 257, 145, 320, 208
-0.967671, 137, 65, 200, 128
-0.967691, 305, 33, 368, 288
-0.967735, 57, 97, 120, 352
-0.96782, 97, 257, 160, 320
-0.96789, 145, 217, 208, 280
-0.967958, 313, 217, 344, 280
-0.968021, 169, 241, 232, 304
-0.968039, 13, 1, 44, 128
-0.968089, 357, 145, 388, 272
-0.968095, 1, 1, 32, 64
-0.968101, 385, 209, 448, 336
-0.968104, 349, 193, 380, 320
-0.96814, 145, 241, 176, 368
-0.968221, 113, 129, 176, 375
-0.968241, 321, 129, 384, 375
-0.968332, 201, 105, 264, 168
-0.968583, 41, 97, 104, 160
-0.968593, 393, 65, 456, 192
-0.9686, 373, 145, 404, 272
-0.96868, 349, 233, 380, 296
-0.96871, 41, 265, 104, 328
-0.968737, 273, 129, 336, 375
-0.9688, 21, 17, 52, 80
-0.968865, 57, 17, 88, 144
-0.968966, 241, 161, 368, 224
-0.969044, 337, 161, 368, 288
-0.969046, 253, 273, 284, 336
-0.969529, 297, 289, 360, 352
-0.96954, 309, 193, 340, 320
-0.969573, 49, 177, 176, 240
-0.969603, 265, 273, 328, 336
-0.969662, 385, 1, 448, 256
-0.96972, 49, 153, 176, 216
-0.969753, 385, 97, 448, 352
-0.969768, 369, 169, 400, 232
-0.969825, 361, 217, 392, 280
-0.969844, 73, 41, 136, 104
-0.969855, 1, 89, 64, 152
-0.969881, 373, 137, 404, 200
-0.969884, 101, 161, 132, 288
-0.969903, 177, 105, 240, 168
-0.969981, 73, 257, 136, 320
-0.969987, 273, 241, 304, 304
-0.969997, 349, 177, 380, 240
-0.970057, 345, 129, 408, 375
-0.970077, 425, 1, 488, 128
-0.970121, 373, 217, 404, 280
-0.970122, 337, 137, 464, 200
-0.970143, 345, 1, 408, 256
-0.970174, 73, 33, 104, 96
-0.970178, 9, 169, 72, 232
-0.97019, 289, 209, 416, 272
-0.970281, 225, 313, 288, 375
-0.970298, 65, 97, 96, 224
-0.9704, 385, 161, 448, 224
-0.970515, 161, 265, 224, 328
-0.970531, 61, 17, 92, 80
-0.970565, 1, 129, 64, 375
-0.970677, 321, 289, 384, 352
-0.970692, 337, 225, 464, 288
-0.970722, 101, 145, 132, 208
-0.970894, 293, 225, 324, 288
-0.970903, 73, 1, 136, 256
-0.970903, 337, 113, 368, 240
-0.970938, 245, 249, 276, 312
-0.970977, 49, 105, 176, 168
-0.971002, 65, 1, 192, 128
-0.971143, 177, 1, 240, 128
-0.971147, 97, 89, 224, 152
-0.971197, 337, 249, 464, 312
-0.971271, 321, 153, 352, 216
-0.971355, 161, 105, 288, 168
-0.971456, 321, 257, 384, 320
-0.971549, 289, 185, 416, 248
-0.97156, 385, 97, 448, 160
-0.971616, 185, 153, 248, 216
-0.971618, 1, 153, 128, 216
-0.971629, 161, 65, 288, 128
-0.971691, 185, 129, 248, 192
-0.971694, 233, 257, 264, 320
-0.971705, 153, 113, 184, 240
-0.971706, 33, 129, 96, 375
-0.971725, 241, 241, 368, 304
-0.971783, 97, 153, 224, 216
-0.97183, 33, 81, 160, 144
-0.971862, 65, 177, 96, 304
-0.971902, 161, 129, 224, 375
-0.971918, 137, 17, 200, 144
-0.971969, 385, 33, 448, 96
-0.971972, 225, 129, 288, 192
-0.971988, 129, 89, 160, 152
-0.972063, 17, 129, 144, 192
-0.972168, 341, 129, 372, 192
-0.972292, 17, 289, 80, 352
-0.972421, 313, 193, 344, 256
-0.972428, 41, 33, 72, 96
-0.972434, 9, 1, 72, 256
-0.972463, 201, 289, 264, 352
-0.972477, 25, 1, 56, 128
-0.972541, 153, 193, 184, 320
-0.972557, 329, 81, 392, 208
-0.972583, 141, 193, 172, 320
-0.972699, 325, 217, 356, 280
-0.972717, 265, 41, 328, 104
-0.97272, 185, 265, 248, 328
-0.972738, 97, 233, 160, 296
-0.972773, 253, 241, 284, 368
-0.972816, 209, 33, 272, 288
-0.972847, 53, 57, 84, 120
-0.972848, 373, 97, 404, 224
-0.972924, 9, 241, 72, 304
-0.972946, 73, 33, 104, 160
-0.972947, 337, 161, 464, 224
-0.973028, 209, 217, 272, 280
-0.973051, 85, 113, 116, 240
-0.973144, 225, 153, 288, 216
-0.973213, 309, 145, 340, 272
-0.973221, 241, 217, 368, 280
-0.973301, 337, 193, 464, 256
-0.973315, 81, 97, 144, 352
-0.97355, 1, 17, 128, 80
-0.97357, 129, 65, 160, 192
-0.973646, 169, 209, 232, 272
-0.973647, 45, 33, 76, 160
-0.973688, 233, 1, 296, 256
-0.973724, 337, 113, 464, 176
-0.97374, 85, 161, 116, 224
-0.973845, 9, 265, 72, 328
-0.973891, 69, 161, 100, 224
-0.97391, 141, 97, 172, 224
-0.973944, 153, 209, 184, 272
-0.973984, 145, 265, 176, 328
-0.974006, 113, 177, 240, 240
-0.974059, 289, 65, 352, 128
-0.974103, 49, 145, 112, 208
-0.97412, 65, 137, 96, 200
-0.974147, 193, 257, 320, 320
-0.974247, 89, 193, 152, 256
-0.974345, 153, 89, 216, 152
-0.974374, 253, 81, 284, 144
-0.974513, 25, 217, 88, 280
-0.97453, 329, 209, 360, 336
-0.974559, 289, 121, 416, 184
-0.974569, 161, 153, 288, 216
-0.974608, 209, 33, 336, 96
-0.974661, 361, 193, 392, 256
-0.974662, 289, 129, 320, 256
-0.974682, 305, 241, 336, 304
-0.974691, 101, 97, 132, 224
-0.974708, 177, 233, 304, 296
-0.974773, 141, 201, 172, 264
-0.974778, 257, 169, 320, 232
-0.974852, 193, 33, 256, 96
-0.974856, 33, 177, 96, 240
-0.974975, 337, 201, 368, 264
-0.975004, 345, 153, 376, 216
-0.975038, 353, 121, 384, 184
-0.975073, 117, 137, 148, 200
-0.975156, 273, 225, 304, 352
-0.97516, 157, 241, 188, 368
-0.975177, 161, 297, 224, 360
-0.975196, 337, 33, 464, 96
-0.975242, 329, 105, 392, 168
-0.97543, 297, 313, 360, 375
-0.975438, 209, 105, 336, 168
-0.975447, 57, 193, 120, 256
-0.975453, 153, 241, 184, 304
-0.97547, 17, 57, 144, 120
-0.975499, 257, 265, 384, 328
-0.975628, 273, 97, 304, 224
-0.975694, 257, 313, 320, 375
-0.975728, 121, 161, 152, 224
-0.975832, 257, 113, 320, 176
-0.975855, 257, 17, 288, 144
-0.975929, 289, 177, 320, 304
-0.976019, 17, 313, 80, 375
-0.976159, 253, 105, 284, 168
-0.976164, 273, 129, 304, 192
-0.976195, 217, 33, 248, 160
-0.976223, 129, 241, 256, 304
-0.976304, 145, 313, 272, 375
-0.976358, 349, 209, 380, 272
-0.97647, 337, 273, 464, 336
-0.976479, 321, 17, 384, 80
-0.976531, 77, 177, 108, 304
-0.976553, 201, 1, 264, 128
-0.976596, 273, 161, 304, 288
-0.976632, 145, 121, 176, 184
-0.976661, 1, 217, 64, 280
-0.976686, 309, 161, 340, 224
-0.976691, 57, 241, 88, 368
-0.976761, 161, 105, 192, 168
-0.976788, 293, 137, 324, 200
-0.976827, 1, 1, 32, 128
-0.976835, 257, 89, 384, 152
-0.976878, 113, 289, 176, 352
-0.97701, 273, 1, 336, 128
-0.977065, 101, 169, 132, 232
-0.977101, 21, 57, 52, 120
-0.977128, 133, 233, 164, 296
-0.977167, 257, 289, 384, 352
-0.977198, 345, 241, 376, 368
-0.977227, 209, 57, 336, 120
-0.977242, 181, 49, 212, 176
-0.977257, 173, 129, 204, 256
-0.97727, 297, 129, 360, 375
-0.977281, 285, 225, 316, 352
-0.97735, 137, 1, 200, 256
-0.977354, 41, 305, 104, 368
-0.977363, 245, 193, 276, 320
-0.977374, 97, 81, 128, 144
-0.977375, 325, 193, 356, 256
-0.9774, 229, 241, 260, 368
-0.977472, 201, 81, 264, 144
-0.97755, 113, 113, 144, 240
-0.977576, 73, 233, 136, 296
-0.977605, 41, 81, 72, 208
-0.977627, 229, 33, 260, 160
-0.977655, 385, 1, 448, 375
-0.977685, 385, 257, 448, 320
-0.977686, 217, 193, 248, 320
-0.977705, 373, 113, 404, 176
-0.977765, 177, 289, 304, 352
-0.977776, 281, 1, 344, 375
-0.977786, 229, 41, 260, 104
-0.977848, 153, 177, 184, 240
-0.978001, 193, 129, 320, 192
-0.978043, 321, 313, 384, 375
-0.978049, 257, 177, 288, 304
-0.978068, 285, 249, 316, 312
-0.978078, 21, 49, 52, 176
-0.978169, 197, 49, 228, 176
-0.978181, 241, 193, 368, 256
-0.978255, 117, 209, 148, 336
-0.97826, 49, 257, 176, 320
-0.978316, 113, 65, 240, 128
-0.978335, 409, 105, 472, 168
-0.97835, 9, 25, 40, 88
-0.978368, 229, 193, 260, 320
-0.978425, 345, 305, 376, 368
-0.978454, 185, 313, 248, 375
-0.978485, 329, 249, 360, 312
-0.978519, 89, 161, 120, 288
-0.978563, 65, 105, 96, 168
-0.978574, 353, 97, 384, 224
-0.978582, 73, 257, 104, 320
-0.978623, 221, 105, 252, 168
-0.978646, 373, 193, 404, 256
-0.978655, 221, 81, 252, 144
-0.978688, 193, 201, 320, 264
-0.978707, 217, 249, 248, 312
-0.978712, 233, 105, 264, 168
-0.978723, 169, 241, 200, 304
-0.978786, 425, 25, 488, 88
-0.978791, 193, 129, 256, 375
-0.978797, 85, 1, 116, 128
-0.978804, 113, 217, 240, 280
-0.978945, 241, 1, 304, 375
-0.978963, 317, 241, 348, 304
-0.978968, 125, 145, 156, 272
-0.97898, 249, 25, 280, 88
-0.978997, 101, 113, 132, 176
-0.979052, 345, 281, 376, 344
-0.979088, 169, 65, 200, 192
-0.979144, 305, 1, 368, 375
-0.979293, 345, 1, 408, 375
-0.979394, 137, 177, 168, 240
-0.979433, 281, 113, 344, 176
-0.979552, 73, 1, 104, 64
-0.979601, 277, 217, 308, 280
-0.979609, 169, 1, 232, 375
-0.979614, 253, 129, 284, 256
-0.979687, 421, 17, 452, 144
-0.979727, 73, 225, 104, 352
-0.97983, 209, 81, 336, 144
-0.979851, 161, 41, 288, 104
-0.979864, 377, 249, 408, 312
-0.979879, 169, 41, 232, 104
-0.979879, 85, 105, 116, 168
-0.979893, 425, 49, 488, 176
-0.97991, 65, 57, 96, 120
-0.98001, 329, 41, 392, 104
-0.980014, 113, 113, 144, 176
-0.980049, 317, 41, 348, 104
-0.980051, 209, 89, 240, 152
-0.980119, 145, 265, 272, 328
-0.980215, 133, 121, 164, 184
-0.980222, 353, 49, 416, 176
-0.98025, 417, 313, 480, 375
-0.980272, 365, 241, 396, 304
-0.980325, 289, 89, 352, 152
-0.980336, 297, 225, 328, 352
-0.980355, 321, 129, 352, 192
-0.980393, 141, 145, 172, 272
-0.980399, 81, 57, 112, 120
-0.980436, 1, 145, 64, 208
-0.980511, 45, 241, 76, 304
-0.980532, 425, 241, 488, 368
-0.980569, 257, 49, 384, 112
-0.980619, 141, 153, 172, 216
-0.980628, 169, 225, 200, 352
-0.98066, 349, 17, 380, 144
-0.980744, 177, 177, 304, 240
-0.980778, 129, 193, 160, 320
-0.980818, 125, 201, 156, 264
-0.980857, 145, 1, 208, 375
-0.980863, 257, 65, 288, 192
-0.980874, 161, 273, 192, 336
-0.980904, 1, 145, 32, 272
-0.980907, 209, 49, 240, 112
-0.98091, 1, 241, 128, 304
-0.980935, 81, 41, 208, 104
-0.980938, 1, 305, 128, 368
-0.980958, 325, 17, 356, 144
-0.980982, 61, 185, 92, 248
-0.981008, 165, 209, 196, 272
-0.981032, 197, 161, 228, 288
-0.981037, 53, 177, 84, 304
-0.981044, 273, 265, 304, 328
-0.981122, 293, 65, 324, 192
-0.981127, 225, 313, 352, 375
-0.981152, 57, 161, 88, 224
-0.981158, 161, 137, 192, 200
-0.981165, 53, 129, 84, 256
-0.981256, 353, 273, 416, 336
-0.98127, 237, 313, 268, 375
-0.981353, 21, 169, 52, 232
-0.981359, 265, 65, 296, 128
-0.981362, 41, 1, 104, 375
-0.98139, 381, 161, 412, 224
-0.981395, 233, 233, 264, 296
-0.981497, 113, 289, 240, 352
-0.981502, 41, 217, 72, 280
-0.981552, 381, 193, 412, 320
-0.981598, 273, 49, 304, 176
-0.98161, 305, 49, 336, 176
-0.981641, 157, 305, 188, 368
-0.981648, 293, 169, 324, 232
-0.981701, 245, 1, 276, 128
-0.981752, 225, 129, 288, 375
-0.981768, 145, 129, 272, 192
-0.981808, 321, 313, 448, 375
-0.981862, 117, 65, 148, 192
-0.98187, 65, 313, 192, 375
-0.981912, 273, 153, 304, 216
-0.981979, 197, 209, 228, 336
-0.982026, 41, 89, 72, 152
-0.982029, 149, 97, 180, 160
-0.982079, 169, 177, 200, 304
-0.982084, 253, 153, 284, 216
-0.982196, 321, 113, 352, 240
-0.982222, 329, 25, 360, 88
-0.982225, 153, 49, 184, 176
-0.982243, 217, 1, 280, 375
-0.982291, 425, 177, 488, 304
-0.982303, 337, 9, 464, 72
-0.982306, 261, 33, 292, 96
-0.982335, 109, 81, 140, 144
-0.982335, 57, 265, 88, 328
-0.98235, 193, 1, 256, 375
-0.982381, 1, 177, 128, 240
-0.982449, 253, 225, 284, 288
-0.982492, 425, 1, 488, 256
-0.982529, 77, 137, 108, 200
-0.98254, 85, 241, 116, 368
-0.982567, 317, 241, 348, 368
-0.982577, 145, 297, 176, 360
-0.982639, 237, 113, 268, 240
-0.982656, 241, 81, 272, 144
-0.98266, 185, 57, 216, 120
-0.98283, 233, 281, 264, 344
-0.98288, 49, 225, 176, 288
-0.982881, 85, 49, 116, 176
-0.982907, 93, 41, 124, 104
-0.982917, 301, 193, 332, 256
-0.982917, 337, 89, 464, 152
-0.982972, 257, 25, 384, 88
-0.982982, 181, 241, 212, 368
-0.983048, 253, 297, 284, 360
-0.983149, 369, 1, 400, 128
-0.983262, 65, 289, 192, 352
-0.983332, 425, 113, 488, 240
-0.983435, 41, 193, 72, 320
-0.983447, 9, 161, 40, 224
-0.983516, 341, 41, 372, 104
-0.983569, 185, 177, 216, 304
-0.983584, 193, 233, 224, 296
-0.983593, 417, 33, 448, 96
-0.983625, 309, 137, 340, 200
-0.983679, 397, 113, 428, 176
-0.983691, 197, 113, 228, 240
-0.983828, 209, 113, 240, 176
-0.983843, 17, 1, 80, 375
-0.983943, 1, 49, 32, 112
-0.983955, 265, 89, 296, 152
-0.983968, 1, 281, 128, 344
-0.984168, 65, 1, 128, 375
-0.984379, 385, 113, 416, 240
-0.984445, 369, 241, 400, 368
-0.984473, 113, 161, 144, 288
-0.984582, 49, 201, 176, 264
-0.984737, 1, 105, 128, 168
-0.985003, 357, 241, 388, 368
-0.985248, 337, 65, 368, 192
-0.985257, 13, 161, 44, 288
-0.985306, 217, 241, 248, 368
-0.985332, 53, 81, 84, 208
-0.98561, 89, 1, 152, 375
-0.985708, 181, 1, 212, 128
-0.985774, 49, 9, 176, 72
-0.985819, 105, 33, 168, 288
-0.986107, 425, 1, 488, 375
-0.986202, 441, 1, 472, 128
-0.986402, 97, 33, 128, 160
-0.986473, 273, 313, 400, 375
-0.986607, 33, 145, 64, 272
-0.986741, 353, 65, 480, 128
-0.986918, 25, 225, 56, 352
-0.98693, 205, 1, 236, 128
-0.986969, 241, 65, 272, 192
-0.987108, 217, 145, 248, 272
-0.98717, 185, 113, 216, 240
-0.98719, 105, 17, 168, 144
-0.987289, 121, 1, 184, 375
-0.987364, 105, 209, 136, 336
-0.987451, 97, 265, 224, 328
-0.987503, 1, 241, 32, 368
-0.987687, 217, 97, 280, 128
-0.987859, 345, 189, 408, 220
-0.987901, 421, 65, 452, 192
-0.988047, 345, 221, 408, 252
-0.988242, 133, 241, 164, 368
-0.988298, 241, 133, 304, 164
-0.988327, 161, 17, 288, 80
-0.988435, 209, 81, 240, 208
-0.988436, 145, 133, 208, 164
-0.988458, 233, 257, 296, 288
-0.988459, 345, 149, 408, 180
-0.988473, 257, 241, 320, 272
-0.988478, 209, 249, 272, 280
-0.988485, 345, 209, 408, 240
-0.98849, 321, 217, 384, 248
-0.988544, 337, 173, 400, 204
-0.988646, 49, 25, 112, 56
-0.988739, 217, 69, 280, 100
-0.988781, 345, 161, 408, 192
-0.988784, 273, 229, 336, 260
-0.988788, 161, 225, 416, 288
-0.988838, 321, 161, 384, 192
-0.988838, 345, 241, 408, 272
-0.988853, 97, 73, 352, 136
-0.988864, 289, 1, 416, 64
-0.988873, 33, 145, 288, 208
-0.988942, 1, 217, 128, 280
-0.988948, 321, 201, 384, 232
-0.988998, 305, 177, 368, 208
-0.989009, 321, 65, 352, 192
-0.989012, 321, 189, 384, 220
-0.989019, 49, 45, 112, 76
-0.989045, 193, 133, 256, 164
-0.989125, 297, 221, 360, 252
-0.989188, 193, 169, 448, 232
-0.989204, 193, 249, 448, 312
-0.989295, 81, 133, 144, 164
-0.989303, 105, 117, 168, 148
-0.989318, 225, 81, 288, 112
-0.989341, 17, 97, 48, 224
-0.989365, 233, 245, 296, 276
-0.989371, 393, 161, 424, 288
-0.989394, 257, 253, 320, 284
-0.989407, 81, 145, 144, 176
-0.989458, 305, 245, 368, 276
-0.989461, 25, 13, 88, 44
-0.989518, 25, 157, 88, 188
-0.989525, 33, 133, 96, 164
-0.989529, 113, 181, 176, 212
-0.989531, 385, 129, 448, 160
-0.989532, 9, 41, 72, 72
-0.989538, 113, 161, 176, 192
-0.989552, 257, 81, 320, 112
-0.989566, 297, 233, 360, 264
-0.989572, 221, 81, 252, 208
-0.989585, 345, 25, 408, 56
-0.989588, 169, 65, 232, 96
-0.989622, 169, 133, 232, 164
-0.989631, 57, 189, 120, 220
-0.989632, 41, 77, 104, 108
-0.989644, 281, 197, 344, 228
-0.98965, 269, 1, 300, 128
-0.989667, 145, 249, 208, 280
-0.989674, 49, 65, 112, 96
-0.989705, 97, 85, 160, 116
-0.989715, 9, 25, 72, 56
-0.98972, 1, 169, 256, 232
-0.989729, 281, 245, 344, 276
-0.989743, 65, 161, 128, 192
-0.989758, 13, 209, 44, 336
-0.989762, 385, 241, 416, 368
-0.989781, 113, 129, 176, 160
-0.989808, 49, 13, 112, 44
-0.98981, 265, 181, 328, 212
-0.989813, 385, 17, 416, 144
-0.989844, 217, 133, 280, 164
-0.989858, 225, 45, 288, 76
-0.989868, 257, 129, 500, 192
-0.989872, 57, 149, 120, 180
-0.989905, 273, 265, 336, 296
-0.989908, 321, 133, 384, 164
-0.98991, 129, 97, 192, 128
-0.989926, 385, 249, 448, 280
-0.989938, 161, 193, 416, 256
-0.989968, 145, 121, 208, 152
-0.98998, 321, 233, 384, 264
-0.989988, 37, 241, 68, 368
-0.989992, 33, 117, 96, 148
-0.990002, 97, 105, 160, 136
-0.990008, 57, 113, 120, 144
-0.990026, 257, 97, 320, 128
-0.990043, 265, 133, 328, 164
-0.990046, 89, 261, 152, 292
-0.990049, 97, 121, 352, 184
-0.990103, 289, 209, 352, 240
-0.990107, 25, 1, 88, 32
-0.990117, 217, 117, 280, 148
-0.990119, 137, 85, 200, 116
-0.99012, 41, 101, 104, 132
-0.990129, 281, 169, 344, 200
-0.990131, 81, 173, 144, 204
-0.990132, 41, 257, 104, 288
-0.990143, 193, 105, 448, 168
-0.990148, 337, 253, 400, 284
-0.990158, 233, 269, 296, 300
-0.990178, 129, 145, 384, 208
-0.990183, 145, 161, 208, 192
-0.990189, 225, 33, 288, 64
-0.990203, 137, 321, 200, 352
-0.990211, 305, 49, 368, 80
-0.990257, 321, 33, 384, 64
-0.990275, 345, 125, 408, 156
-0.990286, 345, 137, 408, 168
-0.990288, 129, 149, 192, 180
-0.990288, 193, 261, 256, 292
-0.99029, 385, 197, 448, 228
-0.990309, 337, 17, 368, 144
-0.990319, 241, 241, 272, 368
-0.990333, 57, 133, 120, 164
-0.990334, 225, 153, 288, 184
-0.990356, 73, 101, 136, 132
-0.990372, 361, 177, 424, 208
-0.990373, 185, 153, 248, 184
-0.990381, 145, 173, 208, 204
-0.990383, 257, 201, 500, 264
-0.990384, 177, 81, 240, 112
-0.990388, 121, 249, 184, 280
-0.990389, 25, 53, 88, 84
-0.990393, 89, 161, 152, 192
-0.990394, 1, 129, 500, 192
-0.990397, 225, 57, 288, 88
-0.990398, 129, 265, 192, 296
-0.990422, 361, 257, 424, 288
-0.99043, 385, 33, 448, 64
-0.990447, 385, 113, 448, 144
-0.990448, 33, 241, 96, 272
-0.990482, 1, 97, 256, 160
-0.990484, 17, 81, 80, 112
-0.990499, 193, 53, 256, 84
-0.9905, 305, 57, 432, 120
-0.990508, 321, 285, 384, 316
-0.990508, 137, 297, 200, 328
-0.990511, 281, 145, 344, 176
-0.990514, 177, 237, 240, 268
-0.990527, 353, 113, 416, 144
-0.990538, 257, 69, 320, 100
-0.990545, 425, 129, 488, 375
-0.990549, 241, 117, 304, 148
-0.990589, 369, 209, 432, 240
-0.990619, 9, 277, 72, 308
-0.990628, 421, 113, 452, 240
-0.990639, 321, 145, 384, 176
-0.990652, 137, 341, 200, 372
-0.990654, 1, 233, 500, 296
-0.990659, 321, 329, 384, 360
-0.990694, 313, 257, 376, 288
-0.990697, 153, 309, 216, 340
-0.990702, 265, 157, 328, 188
-0.990705, 161, 261, 224, 292
-0.990712, 385, 229, 448, 260
-0.990727, 73, 81, 136, 112
-0.99074, 249, 229, 312, 260
-0.990754, 225, 285, 288, 316
-0.990761, 385, 169, 448, 200
-0.990762, 385, 261, 448, 292
-0.990822, 429, 241, 460, 368
-0.990848, 1, 289, 500, 352
-0.990879, 1, 257, 256, 320
-0.990964, 161, 273, 416, 336
-0.99101, 193, 33, 448, 96
-0.991077, 1, 153, 500, 216
-0.991079, 97, 97, 352, 160
-0.991208, 193, 81, 448, 144
-0.991283, 97, 169, 352, 232
-0.991351, 257, 225, 500, 288
-0.991368, 1, 201, 256, 264
-0.991486, 1, 265, 500, 328
-0.991576, 1, 121, 256, 184
-0.991639, 33, 233, 288, 296
-0.991647, 65, 49, 320, 112
-0.991738, 361, 49, 392, 176
-0.991807, 1, 49, 32, 176
-0.991885, 1, 193, 500, 256
-0.991892, 1, 105, 500, 168
-0.991939, 387, 209, 402, 272
-0.99195, 357, 217, 388, 248
-0.991952, 373, 185, 404, 216
-0.991956, 333, 173, 364, 204
-0.991973, 141, 49, 172, 176
-0.992005, 373, 157, 404, 188
-0.992024, 1, 73, 256, 136
-0.992028, 333, 161, 364, 192
-0.992046, 369, 201, 400, 232
-0.992072, 313, 233, 344, 264
-0.992074, 293, 229, 324, 260
-0.992079, 277, 241, 308, 272
-0.992097, 353, 173, 384, 204
-0.992104, 321, 161, 352, 192
-0.992115, 361, 189, 392, 220
-0.992124, 61, 25, 92, 56
-0.992134, 353, 161, 384, 192
-0.99215, 261, 257, 292, 288
-0.992158, 241, 249, 272, 280
-0.992159, 369, 173, 400, 204
-0.992173, 249, 97, 280, 128
-0.99219, 225, 133, 256, 164
-0.992196, 309, 245, 340, 276
-0.992197, 77, 33, 108, 64
-0.992214, 257, 313, 500, 375
-0.992217, 121, 161, 152, 192
-0.992255, 253, 273, 284, 304
-0.992259, 253, 33, 284, 64
-0.992274, 153, 249, 184, 280
-0.992282, 213, 133, 244, 164
-0.992292, 65, 133, 96, 164
-0.992295, 149, 129, 180, 160
-0.992295, 349, 233, 380, 264
-0.992298, 297, 249, 328, 280
-0.992305, 361, 145, 392, 176
-0.992311, 361, 229, 392, 260
-0.992325, 329, 217, 360, 248
-0.992328, 373, 141, 404, 172
-0.992344, 289, 133, 320, 164
-0.992345, 161, 121, 192, 152
-0.992352, 265, 241, 296, 272
-0.992362, 337, 205, 368, 236
-0.992363, 369, 313, 496, 375
-0.992369, 77, 149, 108, 180
-0.992369, 65, 157, 96, 188
-0.992375, 289, 157, 416, 188
-0.992383, 233, 49, 264, 80
-0.992387, 253, 285, 284, 316
-0.992387, 241, 133, 272, 164
-0.992392, 21, 25, 52, 56
-0.992393, 373, 249, 404, 280
-0.992401, 253, 245, 284, 276
-0.992408, 357, 201, 388, 232
-0.99241, 225, 69, 256, 100
-0.992413, 225, 101, 256, 132
-0.992415, 249, 261, 280, 292
-0.992417, 313, 221, 344, 252
-0.992425, 65, 65, 96, 96
-0.992428, 369, 213, 400, 244
-0.992445, 337, 233, 368, 264
-0.992446, 317, 53, 348, 84
-0.992453, 329, 33, 360, 64
-0.992457, 201, 133, 232, 164
-0.992458, 325, 253, 356, 284
-0.992463, 101, 117, 132, 148
-0.992465, 349, 189, 380, 220
-0.992471, 273, 141, 304, 172
-0.992472, 133, 265, 164, 296
-0.992473, 65, 169, 96, 200
-0.992478, 275, 241, 290, 304
-0.99248, 373, 125, 404, 156
-0.992508, 373, 229, 404, 260
-0.992512, 341, 221, 372, 252
-0.99252, 233, 289, 264, 320
-0.992522, 321, 197, 352, 228
-0.992525, 333, 137, 364, 168
-0.992531, 361, 125, 392, 156
-0.992531, 77, 65, 108, 96
-0.992535, 257, 289, 500, 352
-0.992537, 161, 133, 192, 164
-0.992541, 1, 5, 32, 36
-0.992544, 245, 65, 276, 96
-0.992545, 41, 53, 72, 84
-0.992555, 1, 165, 32, 196
-0.992559, 53, 65, 84, 96
-0.992562, 249, 49, 280, 80
-0.992563, 141, 277, 172, 308
-0.992566, 21, 41, 52, 72
-0.992576, 61, 13, 92, 44
-0.992582, 229, 253, 260, 284
-0.992589, 145, 265, 176, 296
-0.99259, 249, 81, 280, 112
-0.992592, 145, 145, 176, 176
-0.992594, 1, 41, 500, 104
-0.992598, 181, 133, 212, 164
-0.992602, 73, 257, 104, 288
-0.992603, 313, 173, 344, 204
-0.992606, 341, 149, 372, 180
-0.99261, 121, 181, 152, 212
-0.992612, 237, 101, 268, 132
-0.992622, 341, 125, 372, 156
-0.992622, 149, 105, 180, 136
-0.992626, 93, 101, 124, 132
-0.992628, 33, 25, 64, 56
-0.992628, 237, 37, 268, 68
-0.992631, 13, 169, 44, 200
-0.992636, 337, 193, 368, 224
-0.992638, 161, 297, 416, 360
-0.992643, 89, 133, 120, 164
-0.992644, 373, 201, 388, 264
-0.992661, 1, 25, 256, 88
-0.992666, 329, 53, 360, 84
-0.992673, 133, 117, 164, 148
-0.992677, 65, 145, 96, 176
-0.992681, 41, 41, 72, 72
-0.992689, 345, 113, 376, 144
-0.992691, 165, 245, 196, 276
-0.992694, 337, 249, 368, 280
-0.992694, 225, 57, 480, 120
-0.992695, 281, 253, 312, 284
-0.992697, 61, 189, 92, 220
-0.992703, 241, 273, 272, 304
-0.992704, 253, 137, 284, 168
-0.99271, 133, 105, 164, 136
-0.992714, 213, 245, 244, 276
-0.992724, 1, 37, 32, 68
-0.992727, 73, 101, 104, 132
-0.992727, 349, 245, 380, 276
-0.99273, 261, 49, 292, 80
-0.99273, 13, 9, 44, 40
-0.992735, 221, 117, 252, 148
-0.992737, 253, 153, 284, 184
-0.992737, 233, 333, 264, 364
-0.99274, 129, 137, 160, 168
-0.992741, 273, 153, 304, 184
-0.992742, 313, 209, 344, 240
-0.992749, 289, 121, 320, 152
-0.992755, 265, 273, 296, 304
-0.992757, 253, 313, 284, 344
-0.992758, 253, 117, 284, 148
-0.992763, 405, 113, 436, 144
-0.992763, 213, 101, 244, 132
-0.992763, 209, 65, 240, 96
-0.992787, 337, 189, 464, 220
-0.992788, 289, 177, 416, 208
-0.992854, 273, 249, 400, 280
-0.992906, 377, 225, 392, 288
-0.992933, 289, 237, 416, 268
-0.99298, 81, 125, 208, 156
-0.993025, 129, 133, 256, 164
-0.993027, 33, 313, 288, 375
-0.993042, 371, 225, 386, 288
-0.99307, 1, 73, 500, 136
-0.993076, 33, 17, 48, 80
-0.993115, 365, 201, 380, 264
-0.99313, 325, 193, 340, 256
-0.99317, 369, 137, 384, 200
-0.993231, 321, 217, 336, 280
-0.993234, 225, 249, 352, 280
-0.99328, 161, 101, 288, 132
-0.993287, 337, 145, 464, 176
-0.993294, 241, 165, 368, 196
-0.993322, 241, 141, 368, 172
-0.993338, 1, 313, 500, 375
-0.993386, 65, 137, 192, 168
-0.993397, 285, 233, 300, 296
-0.993398, 289, 145, 416, 176
-0.993424, 337, 161, 464, 192
-0.993457, 315, 217, 330, 280
-0.993465, 97, 161, 224, 192
-0.993471, 333, 217, 348, 280
-0.993473, 359, 145, 374, 208
-0.993504, 241, 153, 368, 184
-0.993525, 97, 185, 224, 216
-0.993538, 265, 249, 280, 312
-0.993557, 353, 217, 368, 280
-0.993562, 161, 153, 288, 184
-0.993607, 17, 133, 144, 164
-0.993609, 17, 161, 144, 192
-0.993619, 111, 145, 126, 208
-0.99362, 209, 45, 336, 76
-0.993624, 379, 185, 394, 248
-0.993708, 377, 137, 392, 200
-0.993744, 337, 161, 352, 224
-0.993762, 263, 73, 278, 136
-0.99377, 1, 1, 16, 64
-0.9938, 267, 145, 282, 208
-0.993807, 49, 193, 176, 224
-0.993811, 389, 233, 404, 296
-0.993822, 369, 177, 384, 240
-0.993825, 161, 217, 176, 280
-0.993831, 337, 125, 464, 156
-0.993834, 355, 169, 370, 232
-0.993837, 337, 173, 464, 204
-0.99384, 337, 249, 464, 280
-0.99385, 383, 233, 398, 296
-0.993884, 155, 177, 170, 240
-0.993891, 57, 33, 72, 96
-0.993891, 97, 173, 224, 204
-0.993892, 63, 17, 78, 80
-0.993895, 289, 193, 416, 224
-0.993899, 161, 81, 288, 112
-0.993911, 81, 93, 208, 124
-0.993925, 343, 209, 358, 272
-0.993927, 33, 113, 160, 144
-0.99394, 255, 249, 270, 312
-0.993942, 337, 209, 464, 240
-0.993957, 389, 161, 404, 224
-0.993962, 359, 209, 374, 272
-0.994016, 17, 1, 32, 64
-0.99404, 289, 213, 416, 244
-0.994049, 161, 65, 288, 96
-0.994061, 71, 153, 86, 216
-0.994074, 103, 161, 118, 224
-0.994088, 113, 145, 240, 176
-0.99409, 145, 117, 272, 148
-0.994095, 311, 241, 326, 304
-0.994101, 193, 133, 320, 164
-0.994128, 365, 233, 380, 296
-0.994132, 145, 241, 272, 272
-0.994134, 337, 221, 464, 252
-0.994139, 345, 161, 360, 224
-0.994139, 155, 249, 170, 312
-0.994146, 73, 25, 88, 88
-0.994169, 1, 41, 128, 72
-0.994176, 241, 265, 368, 296
-0.994205, 265, 289, 280, 352
-0.99421, 209, 9, 336, 72
-0.994227, 221, 65, 236, 128
-0.994227, 289, 133, 416, 164
-0.994229, 241, 97, 368, 128
-0.99428, 87, 33, 102, 96
-0.994318, 163, 193, 178, 256
-0.994329, 27, 17, 42, 80
-0.994331, 291, 225, 306, 288
-0.994334, 83, 161, 98, 224
-0.994351, 361, 169, 376, 232
-0.994362, 247, 313, 262, 375
-0.994365, 81, 25, 96, 88
-0.994434, 231, 41, 246, 104
-0.994454, 155, 121, 170, 184
-0.994457, 143, 89, 158, 152
-0.994467, 337, 269, 464, 300
-0.994477, 97, 161, 112, 224
-0.994492, 241, 229, 368, 260
-0.994515, 49, 173, 176, 204
-0.994522, 271, 33, 286, 96
-0.994532, 337, 233, 464, 264
-0.994534, 145, 253, 272, 284
-0.994539, 65, 149, 192, 180
-0.994542, 363, 121, 378, 184
-0.994549, 169, 113, 184, 176
-0.994556, 327, 217, 342, 280
-0.994562, 119, 153, 134, 216
-0.994595, 257, 285, 384, 316
-0.994597, 81, 105, 208, 136
-0.994614, 343, 241, 358, 304
-0.994623, 89, 161, 104, 224
-0.994694, 65, 49, 80, 112
-0.994699, 319, 241, 334, 304
-0.994708, 289, 225, 416, 256
-0.994709, 125, 161, 140, 224
-0.99471, 231, 249, 246, 312
-0.994713, 337, 37, 464, 68
-0.994725, 339, 185, 354, 248
-0.994728, 241, 185, 368, 216
-0.994736, 209, 77, 336, 108
-0.994755, 359, 281, 374, 344
-0.994775, 33, 281, 288, 344
-0.994777, 375, 113, 390, 176
-0.994779, 315, 193, 330, 256
-0.994784, 375, 161, 390, 224
-0.994784, 313, 153, 328, 216
-0.994791, 77, 137, 92, 200
-0.994808, 121, 113, 136, 176
-0.994827, 339, 129, 354, 192
-0.994838, 349, 185, 364, 248
-0.994839, 305, 233, 320, 296
-0.994859, 331, 193, 346, 256
-0.994864, 65, 129, 80, 192
-0.994865, 385, 137, 400, 200
-0.994877, 257, 297, 384, 328
-0.994878, 33, 81, 160, 112
-0.994898, 241, 197, 368, 228
-0.994907, 83, 1, 98, 64
-0.994949, 1, 25, 128, 56
-0.994956, 97, 201, 224, 232
-0.99497, 165, 153, 180, 216
-0.994973, 353, 137, 368, 200
-0.994975, 269, 105, 284, 168
-0.994975, 259, 113, 274, 176
-0.994998, 165, 265, 180, 328
-0.994999, 359, 241, 374, 304
-0.995, 209, 293, 336, 324
-0.995034, 75, 281, 90, 344
-0.995035, 11, 25, 26, 88
-0.995041, 145, 345, 272, 375
-0.995045, 1, 1, 128, 32
-0.99506, 119, 177, 134, 240
-0.99506, 69, 265, 84, 328
-0.995068, 241, 57, 368, 88
-0.995085, 335, 241, 350, 304
-0.995093, 145, 317, 272, 348
-0.995104, 381, 161, 396, 224
-0.995112, 1, 321, 128, 352
-0.995117, 161, 53, 288, 84
-0.995124, 227, 73, 242, 136
-0.995131, 139, 241, 154, 304
-0.995134, 11, 1, 26, 64
-0.995156, 85, 257, 100, 320
-0.99516, 433, 33, 448, 96
-0.995162, 329, 241, 344, 304
-0.995174, 109, 81, 124, 144
-0.995175, 273, 265, 288, 328
-0.995175, 251, 105, 266, 168
-0.995179, 131, 153, 146, 216
-0.995192, 291, 201, 306, 264
-0.995193, 1, 13, 128, 44
-0.995204, 149, 217, 164, 280
-0.995212, 17, 101, 144, 132
-0.995221, 129, 129, 144, 192
-0.995232, 329, 153, 344, 216
-0.995242, 209, 277, 336, 308
-0.995244, 27, 41, 42, 104
-0.995255, 17, 49, 32, 112
-0.995263, 77, 1, 92, 64
-0.995267, 227, 105, 242, 168
-0.995267, 145, 305, 272, 336
-0.995279, 237, 105, 252, 168
-0.995286, 155, 217, 170, 280
-0.995288, 81, 81, 208, 112
-0.995288, 65, 241, 80, 304
-0.995297, 337, 113, 464, 144
-0.995302, 389, 185, 404, 248
-0.995303, 145, 185, 160, 248
-0.995306, 369, 113, 384, 176
-0.995318, 21, 1, 52, 256
-0.995327, 215, 81, 230, 144
-0.995333, 63, 185, 78, 248
-0.995334, 193, 117, 320, 148
-0.995337, 245, 105, 260, 168
-0.99534, 177, 169, 304, 200
-0.995349, 103, 73, 118, 136
-0.995365, 49, 261, 176, 292
-0.995375, 175, 105, 190, 168
-0.995375, 193, 261, 320, 292
-0.995391, 225, 9, 480, 72
-0.995393, 293, 129, 324, 375
-0.995399, 65, 241, 192, 272
-0.995408, 137, 81, 152, 144
-0.995408, 241, 33, 368, 64
-0.995409, 321, 41, 336, 104
-0.995417, 91, 57, 106, 120
-0.995419, 245, 281, 260, 344
-0.995426, 257, 81, 272, 144
-0.995427, 77, 161, 92, 224
-0.995444, 1, 17, 500, 80
-0.995453, 41, 33, 72, 288
-0.99546, 273, 121, 400, 152
-0.995488, 225, 329, 352, 360
-0.99551, 61, 129, 92, 375
-0.995516, 145, 333, 272, 364
-0.995525, 17, 149, 144, 180
-0.995531, 177, 181, 304, 212
-0.995551, 69, 1, 100, 256
-0.995567, 33, 1, 288, 64
-0.995569, 1, 53, 128, 84
-0.995593, 321, 33, 352, 288
-0.995642, 321, 345, 448, 375
-0.995676, 137, 97, 168, 352
-0.995707, 1, 309, 128, 340
-0.995707, 113, 17, 240, 80
-0.995739, 289, 261, 416, 292
-0.995766, 337, 65, 368, 320
-0.995775, 337, 289, 464, 320
-0.995778, 225, 345, 352, 375
-0.995803, 273, 33, 304, 288
-0.995812, 53, 1, 84, 256
-0.995817, 301, 33, 332, 288
-0.995821, 1, 189, 128, 220
-0.995829, 365, 129, 396, 375
-0.995856, 209, 305, 336, 336
-0.995857, 357, 1, 388, 256
-0.995866, 161, 289, 288, 320
-0.995875, 81, 65, 112, 320
-0.995905, 225, 317, 352, 348
-0.995922, 181, 33, 212, 288
-0.995936, 337, 101, 464, 132
-0.995936, 49, 313, 176, 344
-0.995938, 161, 97, 192, 352
-0.995941, 1, 257, 128, 288
-0.996005, 1, 177, 128, 208
-0.996044, 145, 273, 272, 304
-0.996075, 1, 33, 32, 288
-0.99611, 417, 1, 448, 256
-0.996135, 49, 53, 176, 84
-0.996152, 321, 129, 352, 375
-0.996183, 125, 129, 156, 375
-0.996185, 65, 345, 192, 375
-0.996218, 1, 245, 128, 276
-0.996235, 81, 301, 208, 332
-0.996247, 289, 89, 416, 120
-0.996282, 257, 129, 288, 375
-0.996305, 49, 205, 176, 236
-0.996306, 149, 97, 180, 352
-0.996345, 321, 25, 448, 56
-0.996345, 81, 69, 208, 100
-0.996404, 81, 325, 208, 356
-0.996409, 373, 221, 388, 252
-0.996441, 377, 1, 408, 256
-0.996459, 349, 129, 380, 375
-0.996466, 321, 333, 448, 364
-0.996495, 193, 237, 320, 268
-0.996499, 49, 33, 176, 64
-0.996525, 273, 345, 400, 375
-0.996526, 145, 205, 272, 236
-0.996556, 113, 289, 240, 320
-0.996568, 351, 233, 366, 264
-0.996571, 245, 1, 276, 256
-0.996576, 337, 301, 464, 332
-0.996592, 1, 65, 128, 96
-0.996593, 281, 129, 312, 375
-0.996599, 257, 1, 288, 256
-0.996617, 241, 133, 256, 164
-0.996654, 33, 229, 160, 260
-0.996658, 161, 193, 288, 224
-0.996665, 353, 89, 480, 120
-0.996692, 383, 233, 398, 264
-0.996707, 97, 261, 224, 292
-0.996707, 1, 333, 128, 364
-0.99671, 97, 225, 224, 256
-0.996738, 369, 21, 496, 52
-0.996748, 289, 37, 416, 68
-0.996755, 337, 313, 464, 344
-0.996764, 201, 97, 232, 352
-0.996768, 377, 189, 392, 220
-0.996788, 365, 233, 380, 264
-0.996795, 371, 189, 386, 220
-0.9968, 177, 33, 304, 64
-0.996811, 305, 129, 336, 375
-0.996817, 225, 217, 352, 248
-0.996824, 157, 253, 172, 284
-0.996834, 375, 173, 390, 204
-0.996838, 289, 57, 416, 88
-0.996847, 385, 189, 400, 220
-0.99691, 5, 129, 36, 375
-0.99692, 377, 201, 392, 232
-0.996922, 1, 297, 128, 328
-0.996931, 315, 221, 330, 252
-0.996939, 235, 133, 250, 164
-0.996945, 377, 97, 408, 352
-0.996946, 263, 77, 278, 108
-0.996955, 247, 133, 262, 164
-0.996958, 289, 273, 416, 304
-0.996968, 97, 25, 352, 88
-0.996987, 229, 133, 244, 164
-0.996999, 371, 201, 386, 232
-0.996999, 383, 209, 398, 240
-0.997009, 285, 237, 300, 268
-0.997011, 315, 245, 330, 276
-0.99702, 249, 245, 264, 276
-0.997026, 253, 261, 268, 292
-0.997029, 357, 173, 372, 204
-0.997043, 233, 1, 264, 256
-0.997054, 289, 33, 320, 288
-0.997063, 375, 233, 390, 264
-0.997072, 383, 141, 398, 172
-0.997082, 215, 133, 230, 164
-0.997103, 273, 253, 288, 284
-0.997112, 381, 173, 396, 204
-0.997134, 227, 77, 242, 108
-0.99714, 363, 217, 378, 248
-0.997143, 65, 13, 80, 44
-0.997154, 65, 61, 80, 92
-0.997163, 35, 25, 50, 56
-0.997166, 279, 241, 294, 272
-0.997175, 323, 229, 338, 260
-0.997177, 101, 65, 132, 320
-0.997182, 379, 245, 394, 276
-0.997184, 263, 97, 278, 128
-0.997192, 163, 245, 178, 276
-0.99721, 261, 65, 276, 96
-0.997212, 363, 173, 378, 204
-0.997213, 389, 253, 404, 284
-0.997214, 221, 133, 236, 164
-0.997228, 345, 157, 360, 188
-0.99724, 237, 45, 252, 76
-0.99725, 209, 133, 224, 164
-0.997262, 389, 141, 404, 172
-0.997265, 269, 153, 284, 184
-0.997274, 353, 193, 368, 224
-0.997277, 335, 161, 350, 192
-0.997279, 389, 153, 404, 184
-0.997279, 171, 121, 186, 152
-0.997281, 269, 241, 284, 272
-0.997292, 251, 101, 266, 132
-0.997303, 255, 133, 270, 164
-0.997306, 261, 253, 276, 284
-0.997308, 333, 217, 348, 248
-0.99731, 269, 129, 300, 375
-0.997311, 263, 141, 278, 172
-0.997313, 377, 141, 392, 172
-0.997317, 305, 245, 320, 276
-0.997319, 155, 125, 170, 156
-0.997323, 27, 17, 42, 48
-0.997331, 327, 153, 342, 184
-0.997337, 265, 293, 280, 324
-0.997344, 363, 201, 378, 232
-0.99735, 269, 81, 284, 112
-0.997353, 345, 217, 360, 248
-0.997359, 253, 65, 268, 96
-0.997365, 293, 245, 308, 276
-0.997367, 229, 65, 244, 96
-0.997375, 229, 53, 244, 84
-0.997383, 351, 205, 366, 236
-0.997387, 345, 185, 360, 216
-0.997391, 339, 201, 354, 232
-0.997391, 67, 133, 82, 164
-0.997394, 221, 97, 236, 128
-0.997394, 153, 1, 184, 256
-0.997396, 369, 173, 384, 204
-0.997403, 383, 221, 398, 252
-0.997407, 389, 177, 404, 208
-0.997415, 363, 161, 378, 192
-0.997426, 111, 121, 126, 152
-0.997427, 265, 269, 280, 300
-0.997429, 355, 217, 370, 248
-0.997436, 143, 93, 158, 124
-0.997437, 329, 253, 344, 284
-0.997437, 389, 241, 404, 272
-0.997441, 313, 233, 328, 264
-0.997443, 285, 133, 300, 164
-0.99745, 341, 241, 356, 272
-0.997453, 105, 117, 120, 148
-0.997461, 335, 241, 350, 272
-0.997463, 335, 177, 350, 208
-0.997467, 363, 189, 378, 220
-0.997468, 147, 261, 162, 292
-0.99747, 173, 129, 204, 375
-0.99747, 245, 101, 260, 132
-0.997479, 91, 101, 106, 132
-0.99748, 243, 241, 258, 272
-0.997488, 365, 125, 380, 156
-0.9975, 323, 213, 338, 244
-0.997503, 113, 97, 144, 352
-0.997506, 83, 177, 98, 208
-0.99751, 247, 41, 262, 72
-0.997512, 291, 225, 306, 256
-0.997516, 323, 245, 338, 276
-0.997517, 237, 101, 252, 132
-0.997524, 379, 153, 394, 184
-0.997534, 127, 181, 142, 212
-0.997539, 339, 53, 354, 84
-0.997541, 255, 33, 270, 64
-0.997542, 197, 1, 228, 256
-0.997545, 227, 97, 242, 128
-0.99755, 163, 129, 178, 160
-0.997555, 329, 197, 344, 228
-0.997559, 203, 133, 218, 164
-0.997567, 261, 33, 276, 64
-0.99757, 371, 145, 386, 176
-0.997578, 57, 61, 72, 92
-0.997586, 373, 245, 388, 276
-0.997586, 75, 25, 90, 56
-0.997588, 237, 65, 252, 96
-0.997589, 255, 249, 270, 280
-0.997594, 49, 129, 80, 375
-0.997597, 221, 81, 236, 112
-0.997607, 369, 161, 384, 192
-0.997609, 189, 129, 220, 375
-0.997609, 261, 49, 276, 80
-0.997611, 19, 9, 34, 40
-0.997612, 79, 153, 94, 184
-0.997617, 359, 125, 374, 156
-0.99762, 255, 277, 270, 308
-0.997623, 245, 53, 260, 84
-0.99763, 319, 53, 334, 84
-0.997633, 327, 165, 342, 196
-0.997635, 57, 33, 72, 64
-0.997635, 257, 101, 272, 132
-0.997658, 217, 1, 248, 256
-0.997751, 17, 129, 48, 375
-0.997781, 397, 1, 428, 256
-0.997821, 417, 97, 448, 352
-0.997854, 217, 97, 248, 352
-0.99786, 37, 129, 68, 375
-0.997896, 237, 97, 268, 352
-0.998081, 389, 129, 420, 375
-0.998259, 65, 1, 80, 128
-0.998347, 321, 217, 384, 232
-0.998378, 169, 1, 200, 256
-0.998383, 321, 203, 384, 218
-0.998398, 217, 103, 280, 118
-0.998406, 313, 169, 376, 184
-0.998411, 385, 131, 448, 146
-0.998411, 345, 213, 408, 228
-0.998415, 113, 187, 176, 202
-0.998416, 273, 229, 336, 244
-0.998417, 297, 225, 360, 240
-0.998421, 345, 239, 408, 254
-0.998429, 49, 31, 112, 46
-0.998431, 33, 25, 96, 40
-0.998432, 113, 169, 176, 184
-0.998434, 281, 243, 344, 258
-0.998439, 361, 263, 424, 278
-0.998439, 249, 263, 312, 278
-0.998445, 345, 219, 408, 234
-0.998445, 321, 183, 384, 198
-0.998448, 125, 33, 156, 288
-0.998448, 273, 235, 336, 250
-0.998452, 25, 15, 88, 30
-0.998452, 217, 77, 280, 92
-0.998455, 345, 201, 408, 216
-0.998455, 233, 257, 296, 272
-0.998456, 353, 175, 416, 190
-0.998458, 161, 133, 224, 148
-0.998458, 345, 147, 408, 162
-0.99846, 113, 193, 176, 208
-0.998461, 27, 1, 42, 128
-0.998462, 145, 189, 208, 204
-0.998463, 249, 135, 312, 150
-0.998464, 329, 177, 392, 192
-0.998467, 233, 37, 296, 52
-0.998467, 65, 165, 128, 180
-0.998471, 249, 249, 312, 264
-0.998473, 321, 261, 384, 276
-0.998473, 257, 89, 320, 104
-0.998475, 297, 237, 360, 252
-0.998475, 345, 153, 408, 168
-0.998477, 345, 191, 408, 206
-0.99848, 241, 243, 304, 258
-0.998481, 97, 163, 160, 178
-0.998482, 273, 173, 336, 188
-0.998485, 81, 137, 144, 152
-0.998486, 49, 53, 112, 68
-0.998486, 345, 245, 408, 260
-0.998487, 49, 39, 112, 54
-0.998487, 49, 47, 112, 62
-0.998489, 33, 127, 96, 142
-0.99849, 321, 237, 384, 252
-0.99849, 137, 137, 200, 152
-0.998491, 57, 191, 120, 206
-0.998493, 273, 265, 336, 280
-0.998493, 273, 223, 336, 238
-0.998493, 345, 207, 408, 222
-0.998493, 41, 77, 104, 92
-0.998494, 217, 135, 280, 150
-0.998494, 137, 101, 200, 116
-0.998494, 21, 37, 52, 52
-0.998496, 141, 193, 172, 208
-0.998496, 345, 159, 408, 174
-0.998496, 385, 261, 448, 276
-0.998497, 77, 35, 108, 50
-0.998498, 145, 161, 208, 176
-0.998498, 81, 261, 144, 276
-0.998498, 37, 59, 68, 74
-0.998499, 293, 237, 324, 252
-0.998499, 345, 229, 408, 244
-0.9985, 113, 177, 176, 192
-0.9985, 321, 223, 384, 238
-0.9985, 317, 55, 348, 70
-0.998501, 361, 211, 392, 226
-0.998501, 373, 239, 404, 254
-0.998501, 345, 263, 376, 278
-0.998501, 209, 251, 272, 266
-0.998502, 305, 191, 368, 206
-0.998503, 293, 263, 324, 278
-0.998503, 305, 265, 336, 280
-0.998504, 273, 199, 336, 214
-0.998504, 321, 209, 384, 224
-0.998504, 109, 117, 140, 132
-0.998504, 105, 139, 168, 154
-0.998504, 73, 259, 104, 274
-0.998505, 265, 185, 328, 200
-0.998505, 253, 153, 284, 168
-0.998505, 129, 193, 160, 208
-0.998505, 385, 37, 448, 52
-0.998506, 89, 81, 120, 96
-0.998506, 377, 141, 408, 156
-0.998507, 313, 163, 376, 178
-0.998507, 377, 257, 408, 272
-0.998508, 289, 249, 320, 264
-0.998508, 121, 115, 184, 130
-0.998508, 129, 171, 160, 186
-0.998508, 121, 87, 152, 102
-0.998508, 25, 27, 56, 42
-0.998508, 209, 257, 272, 272
-0.998508, 349, 237, 380, 252
-0.998509, 289, 215, 352, 230
-0.998509, 41, 103, 104, 118
-0.998509, 133, 273, 164, 288
-0.998509, 289, 171, 320, 186
-0.998509, 359, 209, 374, 336
-0.99851, 253, 95, 284, 110
-0.998511, 57, 133, 120, 148
-0.998511, 253, 293, 284, 308
-0.998512, 281, 135, 344, 150
-0.998512, 321, 265, 352, 280
-0.998512, 369, 129, 384, 256
-0.998512, 181, 133, 212, 148
-0.998514, 377, 125, 440, 140
-0.998515, 129, 139, 160, 154
-0.998515, 65, 171, 96, 186
-0.998515, 65, 77, 96, 92
-0.998515, 101, 83, 132, 98
-0.998515, 297, 201, 360, 216
-0.998516, 137, 91, 200, 106
-0.998516, 9, 55, 72, 70
-0.998516, 269, 253, 300, 268
-0.998516, 305, 245, 368, 260
-0.998516, 61, 191, 92, 206
-0.998517, 245, 273, 276, 288
-0.998517, 353, 257, 416, 272
-0.998517, 73, 115, 136, 130
-0.998517, 393, 117, 456, 132
-0.998518, 305, 177, 368, 192
-0.998518, 261, 243, 292, 258
-0.998518, 361, 181, 392, 196
-0.998519, 329, 239, 360, 254
-0.998519, 217, 83, 280, 98
-0.99852, 253, 101, 284, 116
-0.998521, 345, 157, 376, 172
-0.998522, 185, 133, 248, 148
-0.998524, 113, 199, 176, 214
-0.998524, 353, 165, 416, 180
-0.998524, 253, 285, 284, 300
-0.998524, 345, 251, 408, 266
-0.998524, 233, 269, 296, 284
-0.998524, 321, 183, 352, 198
-0.998526, 225, 67, 288, 82
-0.998526, 341, 197, 372, 212
-0.998526, 145, 195, 208, 210
-0.998526, 365, 141, 396, 156
-0.998526, 417, 127, 448, 142
-0.998527, 385, 255, 448, 270
-0.998528, 9, 27, 72, 42
-0.998528, 225, 53, 288, 68
-0.998529, 177, 61, 240, 76
-0.998529, 167, 193, 182, 320
-0.998529, 137, 85, 200, 100
-0.99853, 137, 303, 200, 318
-0.99853, 89, 183, 152, 198
-0.99853, 89, 107, 152, 122
-0.99853, 141, 141, 172, 156
-0.99853, 373, 217, 404, 232
-0.99853, 105, 135, 136, 150
-0.998531, 373, 179, 404, 194
-0.998531, 297, 265, 360, 280
-0.998532, 377, 147, 408, 162
-0.998532, 249, 83, 312, 98
-0.998532, 225, 45, 288, 60
-0.998532, 241, 267, 272, 282
-0.998532, 345, 31, 408, 46
-0.998533, 365, 233, 396, 248
-0.998533, 245, 43, 276, 58
-0.998533, 1, 167, 32, 182
-0.998534, 137, 131, 200, 146
-0.998534, 145, 177, 208, 192
-0.998534, 41, 259, 104, 274
-0.998534, 353, 169, 384, 184
-0.998534, 113, 205, 176, 220
-0.998534, 97, 85, 160, 100
-0.998534, 281, 179, 344, 194
-0.998535, 145, 271, 176, 286
-0.998535, 373, 193, 404, 208
-0.998535, 1, 7, 32, 22
-0.998535, 57, 159, 120, 174
-0.998535, 341, 209, 372, 224
-0.998535, 153, 187, 184, 202
-0.998535, 373, 159, 404, 174
-0.998536, 305, 55, 368, 70
-0.998536, 345, 185, 408, 200
-0.998536, 389, 177, 404, 304
-0.998537, 65, 141, 96, 156
-0.998537, 177, 79, 240, 94
-0.998537, 305, 173, 336, 188
-0.998537, 245, 135, 276, 150
-0.998537, 351, 161, 366, 288
-0.998537, 281, 207, 344, 222
-0.998538, 321, 161, 352, 176
-0.998539, 265, 191, 328, 206
-0.99854, 25, 37, 88, 52
-0.99854, 217, 89, 280, 104
-0.99854, 233, 153, 296, 168
-0.99854, 353, 141, 416, 156
-0.998541, 305, 347, 368, 362
-0.998541, 65, 163, 96, 178
-0.998541, 371, 177, 386, 304
-0.998541, 253, 279, 284, 294
-0.998542, 313, 231, 376, 246
-0.998542, 89, 155, 152, 170
-0.998542, 379, 129, 394, 256
-0.998543, 329, 137, 392, 152
-0.998543, 25, 167, 88, 182
-0.998543, 113, 211, 176, 226
-0.998544, 313, 39, 376, 54
-0.998544, 145, 183, 208, 198
-0.998545, 157, 123, 188, 138
-0.998547, 245, 257, 276, 272
-0.998549, 269, 135, 300, 150
-0.998552, 357, 147, 388, 162
-0.998553, 361, 187, 392, 202
-0.998555, 321, 201, 352, 216
-0.998555, 369, 263, 400, 278
-0.998557, 329, 215, 360, 230
-0.998559, 129, 185, 160, 200
-0.998559, 73, 149, 104, 164
-0.998563, 133, 267, 164, 282
-0.998563, 257, 135, 288, 150
-0.998566, 315, 145, 330, 272
-0.998567, 353, 163, 384, 178
-0.998568, 233, 135, 264, 150
-0.998569, 341, 231, 372, 246
-0.998569, 97, 115, 128, 130
-0.99857, 293, 229, 324, 244
-0.998571, 329, 245, 360, 260
-0.998574, 253, 37, 284, 52
-0.998574, 237, 249, 268, 264
-0.998576, 325, 177, 340, 304
-0.998577, 289, 139, 320, 154
-0.998577, 333, 203, 364, 218
-0.998578, 161, 137, 192, 152
-0.998581, 357, 223, 388, 238
-0.998582, 121, 165, 152, 180
-0.998582, 309, 233, 340, 248
-0.998583, 325, 177, 356, 192
-0.998583, 361, 193, 392, 208
-0.998584, 65, 135, 96, 150
-0.998586, 261, 273, 292, 288
-0.998586, 89, 39, 120, 54
-0.998589, 317, 193, 332, 320
-0.99859, 379, 193, 394, 320
-0.998592, 321, 227, 352, 242
-0.998593, 233, 49, 264, 64
-0.998595, 85, 133, 116, 148
-0.998595, 345, 183, 376, 198
-0.998598, 305, 241, 336, 256
-0.9986, 161, 245, 192, 260
-0.9986, 341, 215, 372, 230
-0.998602, 141, 187, 172, 202
-0.998603, 273, 247, 304, 262
-0.998603, 67, 177, 82, 304
-0.998604, 309, 247, 340, 262
-0.998607, 317, 215, 348, 230
-0.998609, 233, 43, 264, 58
-0.99861, 369, 201, 400, 216
-0.998611, 281, 263, 312, 278
-0.998612, 261, 267, 292, 282
-0.998616, 353, 217, 384, 232
-0.998621, 357, 175, 388, 190
-0.998628, 257, 257, 288, 272
-0.998632, 373, 211, 404, 226
-0.998633, 337, 221, 368, 236
-0.998633, 333, 161, 364, 176
-0.998634, 293, 243, 324, 258
-0.998637, 273, 241, 304, 256
-0.998638, 373, 185, 404, 200
-0.998641, 253, 249, 284, 264
-0.998641, 309, 225, 340, 240
-0.998642, 337, 171, 368, 186
-0.998644, 157, 193, 172, 320
-0.998645, 353, 205, 384, 220
-0.998647, 337, 177, 368, 192
-0.998648, 167, 113, 182, 240
-0.998653, 61, 27, 92, 42
-0.998653, 35, 17, 50, 144
-0.998655, 441, 1, 472, 256
-0.998656, 321, 167, 352, 182
-0.998656, 141, 1, 172, 256
-0.998678, 59, 17, 74, 144
-0.998686, 385, 129, 400, 256
-0.998689, 17, 1, 32, 128
-0.998696, 71, 33, 86, 160
-0.998702, 363, 145, 378, 272
-0.998714, 357, 129, 372, 256
-0.998721, 81, 97, 96, 224
-0.998733, 71, 113, 86, 240
-0.998745, 91, 97, 106, 224
-0.998758, 81, 33, 96, 160
-0.99876, 291, 177, 306, 304
-0.998776, 151, 241, 166, 368
-0.998776, 155, 113, 170, 240
-0.998784, 125, 113, 140, 240
-0.998793, 115, 161, 130, 288
-0.998793, 333, 177, 348, 304
-0.998807, 345, 97, 360, 224
-0.998822, 345, 177, 360, 304
-0.998822, 267, 241, 282, 368
-0.998825, 99, 145, 114, 272
-0.998832, 163, 241, 178, 368
-0.998845, 65, 49, 80, 176
-0.998847, 73, 177, 88, 304
-0.998848, 147, 193, 162, 320
-0.998848, 227, 33, 242, 160
-0.998848, 293, 129, 308, 256
-0.99885, 11, 1, 26, 128
-0.998852, 81, 225, 96, 352
-0.998854, 107, 161, 122, 288
-0.998855, 121, 177, 136, 304
-0.998872, 365, 193, 380, 320
-0.998875, 353, 209, 368, 336
-0.998875, 185, 49, 200, 176
-0.998876, 339, 161, 354, 288
-0.998877, 65, 129, 80, 256
-0.998881, 323, 225, 338, 352
-0.998882, 173, 97, 188, 224
-0.998885, 253, 193, 268, 320
-0.998888, 93, 145, 108, 272
-0.99889, 305, 209, 320, 336
-0.998892, 345, 33, 360, 160
-0.998893, 433, 17, 448, 144
-0.998895, 143, 81, 158, 208
-0.998896, 117, 113, 132, 240
-0.998901, 73, 225, 88, 352
-0.998901, 267, 17, 282, 144
-0.998907, 161, 129, 176, 256
-0.998921, 269, 81, 284, 208
-0.998922, 285, 193, 300, 320
-0.998926, 103, 97, 118, 224
-0.998933, 307, 161, 322, 288
-0.998934, 221, 33, 236, 160
-0.998938, 241, 193, 256, 320
-0.998942, 401, 97, 432, 352
-0.998944, 389, 225, 404, 352
-0.99895, 81, 177, 96, 304
-0.998951, 309, 49, 324, 176
-0.998954, 199, 49, 214, 176
-0.998957, 311, 209, 326, 336
-0.998959, 53, 17, 68, 144
-0.998964, 227, 193, 242, 320
-0.998966, 129, 65, 144, 192
-0.998968, 333, 129, 348, 256
-0.998968, 391, 129, 406, 256
-0.998975, 87, 33, 102, 160
-0.998976, 97, 97, 112, 224
-0.998981, 429, 1, 460, 256
-0.998983, 217, 193, 232, 320
-0.998984, 149, 113, 164, 240
-0.998985, 325, 129, 340, 256
-0.998986, 141, 209, 156, 336
-0.998988, 343, 225, 358, 352
-0.998996, 233, 193, 248, 320
-0.999002, 179, 65, 194, 192
-0.999007, 263, 161, 278, 288
-0.999011, 261, 1, 276, 128
-0.999012, 249, 33, 264, 160
-0.999018, 211, 65, 226, 192
-0.999025, 279, 65, 294, 192
-0.999031, 355, 17, 370, 144
-0.999034, 255, 241, 270, 368
-0.999034, 87, 177, 102, 304
-0.999036, 255, 1, 270, 128
-0.999038, 109, 97, 124, 224
-0.999039, 127, 177, 142, 304
-0.999046, 205, 49, 220, 176
-0.999048, 281, 129, 296, 256
-0.999048, 59, 65, 74, 192
-0.999061, 239, 33, 254, 160
-0.999063, 135, 65, 150, 192
-0.999065, 303, 65, 318, 192
-0.999066, 287, 49, 302, 176
-0.999066, 121, 65, 136, 192
-0.999067, 183, 241, 198, 368
-0.999069, 339, 113, 354, 240
-0.999074, 297, 49, 312, 176
-0.999076, 155, 65, 170, 192
-0.999079, 59, 225, 74, 352
-0.999081, 233, 33, 248, 160
-0.999082, 335, 33, 350, 160
-0.99909, 253, 113, 268, 240
-0.999092, 1, 1, 16, 128
-0.999098, 87, 225, 102, 352
-0.999102, 171, 241, 186, 368
-0.999104, 67, 241, 82, 368
-0.999107, 255, 65, 270, 192
-0.999107, 201, 113, 216, 240
-0.99911, 325, 17, 340, 144
-0.999111, 59, 113, 74, 240
-0.999112, 231, 241, 246, 368
-0.999113, 263, 65, 278, 192
-0.999114, 273, 33, 288, 160
-0.999114, 299, 209, 314, 336
-0.999117, 443, 1, 458, 128
-0.999118, 329, 225, 344, 352
-0.999176, 437, 129, 468, 375
-0.999382, 469, 1, 500, 256
-0.999499, 129, 1, 384, 64
-0.999672, 339, 221, 354, 236
-0.999672, 387, 245, 402, 260
-0.999672, 65, 19, 80, 34
-0.999673, 345, 231, 360, 246
-0.999673, 91, 43, 106, 58
-0.999673, 221, 87, 236, 102
-0.999674, 235, 49, 250, 64
-0.999674, 385, 223, 400, 238
-0.999674, 363, 183, 378, 198
-0.999674, 337, 169, 352, 184
-0.999674, 137, 159, 152, 174
-0.999675, 243, 273, 258, 288
-0.999675, 123, 167, 138, 182
-0.999675, 99, 47, 114, 62
-0.999675, 373, 199, 388, 214
-0.999676, 341, 251, 356, 266
-0.999676, 349, 215, 364, 230
-0.999677, 141, 139, 156, 154
-0.999677, 323, 215, 338, 230
-0.999677, 143, 111, 158, 126
-0.99968, 363, 171, 378, 186
-0.99968, 389, 185, 404, 200
-0.99968, 325, 181, 340, 196
-0.99968, 329, 225, 344, 240
-0.999681, 97, 115, 112, 130
-0.999682, 381, 149, 396, 164
-0.999682, 263, 263, 278, 278
-0.999683, 145, 167, 160, 182
-0.999683, 77, 135, 92, 150
-0.999684, 345, 157, 360, 172
-0.999684, 371, 173, 386, 188
-0.999685, 325, 201, 340, 216
-0.999685, 241, 135, 256, 150
-0.999685, 35, 25, 50, 40
-0.999686, 335, 201, 350, 216
-0.999686, 163, 123, 178, 138
-0.999686, 69, 161, 84, 176
-0.999687, 363, 227, 378, 242
-0.999688, 67, 135, 82, 150
-0.999689, 389, 257, 404, 272
-0.99969, 159, 245, 174, 260
-0.999691, 289, 263, 304, 278
-0.999691, 305, 243, 320, 258
-0.999691, 423, 127, 438, 142
-0.999692, 371, 265, 386, 280
-0.999694, 147, 265, 162, 280
-0.999694, 371, 233, 386, 248
-0.999695, 433, 129, 448, 144
-0.999696, 155, 187, 170, 202
-0.999696, 105, 133, 120, 148
-0.999697, 351, 239, 366, 254
-0.999698, 319, 55, 334, 70
-0.999698, 335, 179, 350, 194
-0.999699, 65, 65, 80, 80
-0.999701, 373, 245, 388, 260
-0.999702, 387, 193, 402, 208
-0.999703, 335, 163, 350, 178
-0.999704, 285, 247, 300, 262
-0.999704, 353, 231, 368, 246
-0.999704, 357, 197, 372, 212
-0.999705, 275, 263, 290, 278
-0.999706, 357, 185, 372, 200
-0.999706, 313, 239, 328, 254
-0.999706, 247, 135, 262, 150
-0.999706, 369, 219, 384, 234
-0.999707, 269, 85, 284, 100
-0.999707, 129, 177, 144, 192
-0.999707, 377, 233, 392, 248
-0.999708, 161, 135, 176, 150
-0.99971, 133, 165, 148, 180
-0.99971, 137, 187, 152, 202
-0.999712, 357, 237, 372, 252
-0.999712, 323, 221, 338, 236
-0.999712, 367, 239, 382, 254
-0.999712, 147, 193, 162, 208
-0.999714, 389, 141, 404, 156
-0.999714, 67, 25, 82, 40
-0.999716, 389, 147, 404, 162
-0.999716, 373, 193, 388, 208
-0.999716, 323, 47, 338, 62
-0.999716, 285, 239, 300, 254
-0.999717, 383, 209, 398, 224
-0.999717, 315, 169, 330, 184
-0.99972, 327, 165, 342, 180
-0.99972, 267, 249, 282, 264
-0.999723, 261, 135, 276, 150
-0.999726, 379, 141, 394, 156
-0.999726, 353, 209, 368, 224
-0.999727, 323, 237, 338, 252
-0.999728, 313, 245, 328, 260
-0.999729, 255, 135, 270, 150
-0.999732, 363, 203, 378, 218
-0.999732, 345, 203, 360, 218
-0.999732, 279, 135, 294, 150
-0.999733, 319, 243, 334, 258
-0.999734, 269, 153, 284, 168
-0.999735, 285, 135, 300, 150
-0.999736, 105, 39, 120, 54
-0.999737, 377, 207, 392, 222
-0.999739, 167, 243, 182, 258
-0.999742, 355, 177, 370, 192
-0.999742, 313, 225, 328, 240
-0.999743, 171, 121, 186, 136
-0.999746, 383, 185, 398, 200
-0.999746, 351, 203, 366, 218
-0.999747, 269, 135, 284, 150
-0.999747, 313, 231, 328, 246
-0.999747, 383, 239, 398, 254
-0.999753, 253, 247, 268, 262
-0.999756, 283, 263, 298, 278
-0.999756, 365, 177, 380, 192
-0.999763, 331, 217, 346, 232
-0.999764, 139, 165, 154, 180
-0.999767, 323, 229, 338, 244
-0.999768, 65, 13, 80, 28
-0.999769, 375, 187, 390, 202
-0.999771, 245, 43, 260, 58
-0.999774, 371, 205, 386, 220
-0.999776, 373, 239, 388, 254
-0.999778, 275, 243, 290, 258
-0.999782, 145, 187, 160, 202
-0.999785, 259, 257, 274, 272
-0.999792, 273, 257, 288, 272
-0.999796, 365, 233, 380, 248
-0.999802, 383, 233, 398, 248
-0.999803, 379, 201, 394, 216
-0.999809, 97, 37, 112, 52
-0.999815, 373, 227, 388, 242
-0.999835, 263, 77, 278, 92
-0.999844, 113, 1, 144, 256
-0.999858, 239, 43, 254, 58
-1.00021, 453, 1, 484, 256
-1.00108, 469, 97, 500, 352
-1.0016, 457, 97, 488, 352
