1883
-0.270755, 1, 1, 500, 333
-0.414128, 1, 65, 500, 320
-0.480959, 65, 1, 320, 333
-0.517196, 257, 1, 500, 333
-0.547, 161, 1, 416, 333
-0.603358, 225, 65, 480, 320
-0.663359, 1, 65, 256, 320
-0.674087, 129, 1, 384, 256
-0.857315, 273, 65, 400, 320
-0.872876, 273, 1, 400, 333
-0.880406, 1, 161, 500, 288
-0.881087, 97, 1, 224, 333
-0.884196, 177, 1, 304, 256
-0.88421, 1, 209, 500, 333
-0.884816, 177, 1, 304, 333
-0.887597, 353, 1, 480, 256
-0.887818, 225, 65, 352, 320
-0.891095, 49, 65, 176, 320
-0.892586, 97, 1, 224, 256
-0.898687, 225, 1, 352, 333
-0.899933, 1, 81, 500, 208
-0.906906, 49, 1, 176, 333
-0.9102, 1, 65, 128, 320
-0.910343, 337, 1, 464, 333
-0.913139, 65, 193, 320, 320
-0.921664, 1, 1, 128, 333
-0.922306, 225, 145, 480, 272
-0.931469, 1, 33, 500, 160
-0.933531, 97, 97, 352, 224
-0.934834, 257, 97, 500, 224
-0.93515, 193, 209, 448, 333
-0.940369, 33, 145, 288, 272
-0.943758, 65, 161, 192, 288
-0.945482, 257, 145, 384, 272
-0.945649, 49, 97, 112, 224
-0.946106, 393, 113, 456, 240
-0.946477, 257, 209, 384, 333
-0.94709, 273, 145, 336, 272
-0.94803, 305, 113, 432, 240
-0.948416, 129, 145, 384, 272
-0.949275, 97, 17, 352, 144
-0.949383, 1, 177, 128, 304
-0.950417, 249, 113, 312, 240
-0.951497, 257, 49, 500, 176
-0.952043, 17, 129, 144, 256
-0.952477, 177, 193, 304, 320
-0.952503, 369, 177, 496, 304
-0.952931, 33, 161, 96, 288
-0.953685, 241, 97, 368, 224
-0.953983, 321, 161, 448, 288
-0.954352, 233, 193, 296, 320
-0.95525, 281, 65, 344, 192
-0.95582, 65, 97, 192, 224
-0.955992, 1, 97, 256, 224
-0.956561, 113, 145, 240, 272
-0.956916, 401, 1, 464, 128
-0.956939, 369, 1, 496, 128
-0.958159, 321, 209, 384, 333
-0.958374, 57, 177, 120, 304
-0.958481, 401, 161, 464, 288
-0.958682, 321, 145, 384, 272
-0.958786, 313, 113, 376, 176
-0.960045, 265, 129, 328, 192
-0.960611, 305, 97, 368, 224
-0.960958, 145, 81, 208, 208
-0.960974, 305, 209, 432, 333
-0.960979, 297, 209, 360, 333
-0.962053, 177, 81, 304, 208
-0.962059, 425, 161, 488, 288
-0.962168, 209, 145, 336, 272
-0.962262, 345, 129, 408, 192
-0.962939, 89, 161, 152, 288
-0.963139, 81, 209, 208, 333
-0.963519, 1, 1, 256, 128
-0.963735, 353, 97, 480, 224
-0.964352, 9, 129, 72, 256
-0.964413, 73, 113, 136, 240
-0.964551, 113, 161, 176, 288
-0.964936, 353, 129, 416, 256
-0.965032, 393, 1, 456, 64
-0.96506, 89, 209, 152, 272
-0.965859, 209, 193, 272, 320
-0.965903, 113, 201, 176, 264
-0.965973, 281, 105, 344, 168
-0.966121, 377, 177, 440, 304
-0.966212, 129, 209, 256, 333
-0.966422, 49, 193, 112, 256
-0.966846, 33, 217, 96, 280
-0.967582, 129, 81, 256, 208
-0.967789, 297, 145, 360, 272
-0.96791, 17, 81, 144, 208
-0.968096, 9, 177, 72, 304
-0.96864, 105, 97, 168, 224
-0.96871, 289, 65, 416, 192
-0.968998, 289, 129, 352, 192
-0.969164, 393, 121, 456, 184
-0.969539, 49, 113, 112, 176
-0.969554, 81, 153, 144, 216
-0.969567, 177, 185, 240, 248
-0.969739, 17, 153, 80, 216
-0.96989, 129, 1, 192, 128
-0.9699, 185, 209, 248, 333
-0.969938, 153, 193, 216, 256
-0.970042, 193, 33, 320, 160
-0.970178, 241, 121, 304, 184
-0.970305, 425, 209, 488, 333
-0.970516, 433, 113, 496, 240
-0.970577, 433, 217, 496, 280
-0.971023, 81, 1, 208, 128
-0.971175, 225, 1, 480, 128
-0.971211, 401, 209, 464, 333
-0.971307, 65, 89, 128, 152
-0.971369, 225, 81, 288, 208
-0.971399, 41, 169, 104, 232
-0.971731, 145, 129, 208, 256
-0.972387, 57, 225, 120, 288
-0.972531, 9, 209, 72, 272
-0.972559, 345, 209, 408, 333
-0.97262, 401, 209, 464, 272
-0.972836, 33, 193, 160, 256
-0.972923, 145, 209, 208, 333
-0.973028, 345, 81, 408, 208
-0.973084, 433, 145, 496, 208
-0.973495, 113, 177, 176, 240
-0.973537, 313, 209, 376, 272
-0.97354, 129, 17, 256, 144
-0.973552, 337, 49, 464, 176
-0.973605, 113, 129, 176, 192
-0.974092, 33, 209, 96, 333
-0.974249, 281, 65, 344, 320
-0.974532, 161, 145, 288, 272
-0.97469, 361, 217, 424, 280
-0.974758, 417, 9, 480, 72
-0.974822, 377, 1, 440, 128
-0.974952, 169, 97, 232, 224
-0.974998, 393, 177, 456, 240
-0.975001, 89, 129, 152, 192
-0.975082, 313, 145, 376, 208
-0.975164, 257, 121, 384, 184
-0.975225, 225, 129, 288, 256
-0.975359, 177, 201, 304, 264
-0.975375, 169, 145, 232, 272
-0.975392, 305, 121, 432, 184
-0.975405, 25, 81, 88, 208
-0.975566, 137, 169, 200, 232
-0.975613, 121, 209, 184, 333
-0.975637, 401, 1, 464, 256
-0.975644, 281, 121, 312, 184
-0.975648, 385, 65, 448, 192
-0.975792, 241, 33, 304, 160
-0.975828, 1, 233, 64, 296
-0.976043, 249, 97, 312, 160
-0.976083, 57, 137, 120, 200
-0.976226, 233, 193, 296, 256
-0.976333, 241, 1, 304, 256
-0.976425, 329, 209, 360, 333
-0.976436, 145, 129, 208, 192
-0.976701, 113, 193, 240, 256
-0.976736, 281, 113, 312, 240
-0.976867, 345, 265, 408, 328
-0.977008, 281, 209, 344, 272
-0.977136, 313, 49, 376, 176
-0.977337, 1, 217, 128, 280
-0.977372, 369, 121, 496, 184
-0.977387, 89, 185, 152, 248
-0.977438, 385, 241, 448, 304
-0.977451, 1, 81, 64, 208
-0.977623, 401, 145, 464, 208
-0.977778, 201, 177, 264, 240
-0.9778, 321, 233, 384, 296
-0.977818, 265, 153, 328, 216
-0.977859, 273, 209, 336, 333
-0.978007, 209, 129, 272, 192
-0.978161, 305, 145, 432, 208
-0.978322, 225, 97, 288, 160
-0.97835, 433, 185, 496, 248
-0.978622, 33, 89, 96, 152
-0.978755, 73, 65, 136, 192
-0.978761, 313, 65, 376, 320
-0.978773, 201, 113, 264, 240
-0.978953, 1, 49, 256, 176
-0.979083, 57, 65, 120, 320
-0.979117, 65, 161, 192, 224
-0.97924, 417, 9, 448, 72
-0.979342, 241, 145, 304, 208
-0.979465, 417, 1, 448, 128
-0.979717, 441, 129, 472, 256
-0.979737, 425, 1, 488, 128
-0.979749, 329, 145, 360, 272
-0.979802, 353, 209, 480, 272
-0.979858, 361, 105, 424, 168
-0.980365, 329, 201, 360, 264
-0.980371, 241, 49, 368, 176
-0.980413, 201, 201, 264, 264
-0.980432, 289, 17, 416, 144
-0.980566, 49, 225, 176, 288
-0.980573, 241, 249, 304, 312
-0.98063, 217, 265, 280, 328
-0.980789, 429, 1, 460, 64
-0.980854, 409, 49, 472, 176
-0.980873, 409, 233, 472, 296
-0.98092, 257, 241, 384, 304
-0.980951, 77, 97, 108, 160
-0.981142, 353, 153, 416, 216
-0.981202, 97, 217, 224, 280
-0.981244, 269, 113, 300, 240
-0.981251, 89, 233, 152, 296
-0.981317, 305, 217, 432, 280
-0.981321, 425, 121, 488, 184
-0.981337, 369, 249, 496, 312
-0.98142, 353, 65, 416, 320
-0.981581, 169, 129, 232, 192
-0.981584, 73, 177, 104, 304
-0.981661, 389, 161, 420, 288
-0.981726, 137, 217, 200, 280
-0.981788, 145, 89, 208, 152
-0.981803, 225, 169, 288, 232
-0.981836, 1, 185, 64, 248
-0.981856, 345, 145, 376, 272
-0.981865, 113, 161, 240, 224
-0.981939, 257, 97, 384, 160
-0.981963, 169, 161, 232, 224
-0.98208, 309, 145, 340, 272
-0.982165, 65, 49, 192, 176
-0.982181, 77, 201, 108, 264
-0.982201, 17, 169, 144, 232
-0.982345, 281, 97, 312, 160
-0.98245, 193, 273, 256, 333
-0.982469, 353, 33, 416, 160
-0.982487, 193, 129, 320, 192
-0.982667, 293, 129, 324, 192
-0.982985, 33, 65, 96, 320
-0.983068, 81, 1, 144, 64
-0.983232, 265, 121, 296, 184
-0.983316, 177, 177, 304, 240
-0.983336, 161, 1, 224, 256
-0.983357, 433, 49, 496, 176
-0.983363, 93, 209, 124, 272
-0.98337, 1, 129, 64, 192
-0.98345, 325, 113, 356, 176
-0.983463, 217, 1, 280, 256
-0.983514, 313, 97, 344, 224
-0.983526, 121, 193, 152, 256
-0.983544, 281, 17, 344, 144
-0.983559, 325, 97, 356, 224
-0.983606, 429, 1, 460, 128
-0.983606, 113, 1, 176, 256
-0.98362, 17, 145, 144, 208
-0.983677, 193, 97, 256, 160
-0.98373, 9, 73, 72, 136
-0.983732, 241, 161, 368, 224
-0.983734, 405, 1, 436, 64
-0.983741, 257, 201, 384, 264
-0.983756, 429, 209, 460, 272
-0.983775, 45, 217, 76, 280
-0.983825, 369, 121, 400, 184
-0.983865, 293, 97, 324, 224
-0.98391, 377, 65, 440, 320
-0.983942, 281, 185, 344, 248
-0.983965, 261, 193, 292, 320
-0.983976, 169, 89, 232, 152
-0.984037, 421, 177, 452, 304
-0.98406, 421, 97, 452, 224
-0.984155, 193, 97, 320, 160
-0.984199, 349, 113, 380, 176
-0.984206, 105, 1, 168, 128
-0.984293, 369, 145, 496, 208
-0.984307, 217, 33, 280, 160
-0.984378, 181, 185, 212, 248
-0.984379, 177, 209, 240, 272
-0.984429, 361, 25, 424, 88
-0.984472, 113, 225, 176, 288
-0.984509, 53, 161, 84, 288
-0.984526, 61, 225, 92, 288
-0.984534, 425, 65, 488, 320
-0.984644, 289, 153, 352, 216
-0.984659, 65, 137, 192, 200
-0.984676, 249, 1, 312, 64
-0.984703, 137, 193, 168, 256
-0.984857, 437, 121, 468, 184
-0.984871, 105, 49, 168, 176
-0.984885, 193, 17, 256, 144
-0.984908, 25, 241, 88, 304
-0.984917, 105, 201, 136, 264
-0.985065, 73, 97, 104, 224
-0.985068, 409, 209, 440, 272
-0.98507, 113, 153, 176, 216
-0.985076, 41, 145, 72, 208
-0.985089, 273, 145, 304, 208
-0.985101, 437, 145, 468, 208
-0.9852, 401, 177, 432, 304
-0.985234, 393, 97, 456, 160
-0.985277, 41, 129, 72, 256
-0.985312, 169, 17, 232, 144
-0.985342, 353, 185, 480, 248
-0.98544, 9, 65, 72, 320
-0.985442, 137, 1, 200, 256
-0.985466, 89, 105, 152, 168
-0.985503, 33, 209, 64, 272
-0.985512, 305, 97, 432, 160
-0.985566, 193, 1, 256, 256
-0.985657, 405, 113, 436, 240
-0.985691, 209, 257, 336, 320
-0.985726, 177, 81, 208, 208
-0.985743, 441, 177, 472, 304
-0.985808, 149, 201, 180, 264
-0.985856, 341, 97, 372, 224
-0.985898, 329, 185, 392, 248
-0.98594, 249, 193, 280, 320
-0.985943, 85, 121, 116, 184
-0.985943, 313, 129, 344, 192
-0.986024, 1, 241, 128, 304
-0.986044, 441, 209, 472, 272
-0.986048, 281, 1, 344, 333
-0.986087, 193, 177, 224, 240
-0.986114, 321, 33, 384, 96
-0.986139, 5, 225, 36, 288
-0.986145, 237, 193, 268, 320
-0.986179, 329, 225, 360, 288
-0.986189, 17, 225, 48, 288
-0.986195, 129, 153, 160, 216
-0.986207, 113, 9, 176, 72
-0.986226, 297, 105, 328, 168
-0.986243, 193, 65, 256, 192
-0.986295, 425, 113, 456, 176
-0.986326, 321, 89, 384, 152
-0.98635, 369, 1, 496, 64
-0.986383, 461, 217, 492, 280
-0.986433, 385, 153, 416, 216
-0.986481, 449, 137, 480, 200
-0.98649, 93, 145, 124, 272
-0.986535, 193, 153, 320, 216
-0.986566, 161, 273, 288, 333
-0.986615, 113, 137, 240, 200
-0.986677, 17, 121, 144, 184
-0.986708, 61, 97, 92, 224
-0.986728, 205, 177, 236, 240
-0.986762, 281, 81, 344, 144
-0.98687, 393, 121, 424, 184
-0.986913, 257, 113, 288, 240
-0.986982, 157, 81, 188, 208
-0.987005, 149, 153, 180, 216
-0.987013, 369, 209, 400, 333
-0.987015, 425, 97, 488, 160
-0.987051, 321, 273, 448, 333
-0.987108, 1, 161, 32, 288
-0.987159, 61, 113, 92, 176
-0.987271, 89, 1, 152, 333
-0.987272, 249, 1, 312, 333
-0.987341, 421, 185, 452, 248
-0.987381, 385, 25, 448, 88
-0.987396, 29, 145, 60, 272
-0.987414, 97, 89, 224, 152
-0.98743, 305, 177, 432, 240
-0.987494, 193, 153, 256, 216
-0.987524, 305, 1, 368, 333
-0.987575, 81, 1, 144, 128
-0.987792, 369, 129, 432, 192
-0.987795, 257, 225, 320, 288
-0.987845, 137, 17, 200, 80
-0.987915, 25, 121, 88, 184
-0.987965, 337, 25, 464, 88
-0.987969, 89, 97, 120, 224
-0.98801, 441, 185, 472, 248
-0.988013, 113, 1, 176, 333
-0.988025, 53, 153, 84, 216
-0.988049, 405, 185, 436, 248
-0.988079, 89, 73, 152, 136
-0.988117, 453, 129, 484, 256
-0.988122, 369, 97, 496, 160
-0.988132, 129, 81, 160, 208
-0.988133, 337, 121, 368, 184
-0.988189, 341, 209, 372, 333
-0.988245, 405, 1, 436, 128
-0.988299, 389, 209, 420, 333
-0.988377, 241, 1, 368, 128
-0.988395, 61, 209, 92, 333
-0.988398, 149, 129, 180, 256
-0.988431, 265, 201, 296, 264
-0.988503, 169, 185, 200, 248
-0.988717, 29, 153, 60, 216
-0.988718, 113, 105, 176, 168
-0.988719, 149, 129, 180, 192
-0.988757, 217, 177, 248, 240
-0.988764, 133, 129, 164, 256
-0.988767, 333, 153, 364, 216
-0.988772, 73, 177, 104, 240
-0.9888, 225, 193, 256, 320
-0.988819, 433, 257, 496, 320
-0.988821, 369, 1, 432, 64
-0.988843, 49, 89, 176, 152
-0.988887, 389, 217, 420, 280
-0.988893, 117, 129, 148, 192
-0.988921, 145, 89, 272, 152
-0.988982, 61, 193, 92, 256
-0.989099, 345, 1, 408, 333
-0.989104, 261, 97, 292, 160
-0.989126, 357, 209, 388, 333
-0.989134, 17, 161, 48, 288
-0.989135, 89, 193, 120, 320
-0.989146, 321, 273, 384, 333
-0.989152, 97, 113, 224, 176
-0.989236, 225, 1, 288, 333
-0.989258, 1, 193, 256, 256
-0.989341, 281, 41, 344, 104
-0.989427, 117, 161, 148, 288
-0.989461, 369, 185, 432, 248
-0.989499, 281, 233, 344, 296
-0.989526, 393, 1, 456, 333
-0.98958, 41, 185, 104, 216
-0.989625, 73, 225, 104, 288
-0.989669, 289, 33, 416, 96
-0.989672, 145, 81, 176, 208
-0.989703, 193, 1, 256, 333
-0.989713, 285, 161, 316, 288
-0.989733, 65, 217, 320, 280
-0.989802, 281, 17, 344, 80
-0.989817, 173, 209, 204, 333
-0.989909, 157, 209, 188, 333
-0.989913, 153, 1, 216, 333
-0.989953, 361, 65, 392, 192
-0.989971, 265, 145, 328, 176
-0.989975, 113, 17, 240, 80
-0.990036, 73, 73, 104, 136
-0.990064, 45, 193, 76, 256
-0.99007, 273, 209, 304, 333
-0.99008, 97, 209, 160, 333
-0.990097, 281, 65, 312, 192
-0.990097, 9, 161, 40, 224
-0.990125, 193, 209, 224, 333
-0.990134, 273, 133, 336, 164
-0.990135, 281, 105, 344, 136
-0.990192, 133, 217, 164, 280
-0.9902, 353, 145, 416, 176
-0.990213, 385, 49, 448, 112
-0.990231, 17, 201, 80, 232
-0.990239, 25, 33, 88, 160
-0.990247, 237, 113, 268, 240
-0.990252, 313, 153, 344, 216
-0.990265, 49, 197, 112, 228
-0.990267, 17, 201, 48, 264
-0.99028, 65, 1, 192, 64
-0.990317, 1, 81, 32, 144
-0.990318, 41, 177, 72, 304
-0.990386, 393, 1, 456, 32
-0.990391, 41, 89, 104, 120
-0.990399, 157, 177, 188, 240
-0.990417, 357, 273, 388, 333
-0.990418, 145, 225, 272, 288
-0.990429, 313, 117, 376, 148
-0.990466, 137, 129, 168, 192
-0.990478, 313, 97, 344, 160
-0.990483, 1, 209, 32, 333
-0.990491, 29, 233, 60, 296
-0.990495, 89, 97, 120, 160
-0.990497, 81, 217, 144, 248
-0.990502, 353, 129, 416, 160
-0.990538, 105, 145, 136, 272
-0.990541, 305, 153, 368, 184
-0.990569, 49, 249, 112, 312
-0.990588, 97, 153, 128, 216
-0.990594, 169, 209, 200, 272
-0.990624, 273, 121, 336, 152
-0.990625, 265, 65, 296, 192
-0.990649, 249, 125, 312, 156
-0.990695, 17, 149, 80, 180
-0.990715, 157, 1, 188, 128
-0.990726, 1, 257, 64, 320
-0.990749, 81, 169, 144, 200
-0.990777, 389, 177, 420, 240
-0.99079, 81, 181, 144, 212
-0.990806, 41, 173, 104, 204
-0.990807, 33, 1, 160, 128
-0.990862, 317, 209, 348, 333
-0.990915, 1, 181, 64, 212
-0.990926, 357, 137, 388, 200
-0.990929, 121, 185, 184, 216
-0.990934, 41, 225, 104, 256
-0.990942, 73, 145, 104, 208
-0.990958, 129, 149, 192, 180
-0.99096, 145, 129, 208, 160
-0.99096, 337, 209, 400, 272
-0.99097, 49, 141, 112, 172
-0.990983, 313, 141, 376, 172
-0.990987, 169, 185, 232, 216
-0.990997, 393, 249, 456, 280
-0.991004, 385, 141, 448, 172
-0.991021, 205, 209, 236, 333
-0.991025, 193, 201, 224, 264
-0.991031, 377, 153, 440, 216
-0.991034, 393, 117, 456, 148
-0.991038, 161, 161, 192, 288
-0.991046, 65, 1, 128, 333
-0.991068, 401, 13, 464, 44
-0.991075, 73, 205, 136, 236
-0.991092, 193, 225, 320, 288
-0.991109, 241, 149, 304, 180
-0.991109, 305, 1, 368, 128
-0.991132, 129, 169, 192, 200
-0.991133, 461, 121, 492, 184
-0.991151, 449, 113, 480, 176
-0.991152, 417, 213, 480, 244
-0.991166, 81, 193, 144, 224
-0.991203, 33, 213, 96, 244
-0.991206, 193, 197, 256, 228
-0.991221, 369, 265, 400, 328
-0.991228, 141, 1, 172, 128
-0.991239, 169, 273, 232, 333
-0.99125, 153, 205, 216, 236
-0.991259, 393, 153, 456, 184
-0.991274, 181, 209, 212, 272
-0.991299, 393, 209, 456, 240
-0.991303, 177, 89, 208, 152
-0.991312, 393, 197, 456, 228
-0.991313, 117, 169, 148, 232
-0.991317, 17, 165, 80, 196
-0.991317, 321, 213, 384, 244
-0.991318, 265, 157, 328, 188
-0.99132, 233, 201, 296, 232
-0.991326, 257, 121, 500, 184
-0.99133, 73, 121, 104, 184
-0.991335, 105, 213, 168, 244
-0.991338, 281, 217, 344, 248
-0.991373, 121, 201, 184, 232
-0.991376, 449, 233, 480, 296
-0.991382, 121, 217, 152, 280
-0.991397, 65, 93, 128, 124
-0.991408, 145, 193, 208, 224
-0.99142, 293, 49, 324, 176
-0.991435, 353, 157, 416, 188
-0.991436, 389, 249, 420, 312
-0.991458, 9, 213, 72, 244
-0.991466, 5, 193, 36, 256
-0.991479, 57, 105, 120, 136
-0.991484, 233, 137, 296, 168
-0.991486, 425, 5, 488, 36
-0.991502, 225, 1, 288, 64
-0.991514, 405, 153, 436, 216
-0.991522, 225, 117, 288, 148
-0.991527, 117, 97, 148, 224
-0.991538, 313, 225, 376, 256
-0.991581, 233, 217, 296, 280
-0.991585, 129, 301, 192, 332
-0.991592, 425, 145, 488, 176
-0.991599, 465, 193, 496, 256
-0.991602, 441, 49, 472, 176
-0.991603, 121, 129, 184, 160
-0.991604, 1, 73, 128, 136
-0.991611, 193, 277, 256, 308
-0.991638, 369, 213, 432, 244
-0.991648, 17, 229, 80, 260
-0.991655, 353, 117, 416, 148
-0.991657, 145, 181, 208, 212
-0.991666, 101, 97, 132, 224
-0.991684, 89, 133, 152, 164
-0.991687, 393, 177, 456, 208
-0.991689, 401, 165, 464, 196
-0.991724, 273, 57, 400, 120
-0.991728, 73, 149, 136, 180
-0.991747, 49, 81, 80, 208
-0.991747, 433, 181, 496, 212
-0.99176, 17, 85, 80, 116
-0.99176, 217, 189, 280, 220
-0.991781, 193, 1, 320, 64
-0.991804, 41, 1, 104, 333
-0.991816, 81, 233, 144, 264
-0.991837, 241, 257, 304, 288
-0.99184, 417, 113, 480, 144
-0.991843, 41, 121, 104, 152
-0.991853, 153, 165, 216, 196
-0.991859, 209, 129, 272, 160
-0.99186, 121, 225, 184, 256
-0.991885, 177, 161, 208, 224
-0.991896, 305, 129, 368, 160
-0.991905, 193, 185, 256, 216
-0.99191, 169, 285, 232, 316
-0.99191, 257, 169, 288, 232
-0.991917, 217, 265, 280, 296
-0.991936, 145, 113, 272, 176
-0.991939, 381, 113, 412, 240
-0.991949, 113, 81, 176, 144
-0.99195, 169, 129, 232, 160
-0.991954, 205, 201, 236, 264
-0.991956, 301, 153, 332, 216
-0.991958, 229, 177, 260, 240
-0.99197, 457, 209, 488, 333
-0.991977, 145, 221, 208, 252
-0.992013, 329, 153, 392, 184
-0.992022, 1, 137, 64, 168
-0.992022, 65, 117, 128, 148
-0.992091, 145, 209, 176, 333
-0.992101, 425, 161, 488, 192
-0.992107, 105, 225, 136, 288
-0.992109, 153, 153, 216, 184
-0.992116, 81, 65, 144, 320
-0.992119, 41, 157, 104, 188
-0.992119, 417, 229, 480, 260
-0.992122, 321, 289, 384, 320
-0.992128, 185, 213, 248, 244
-0.99213, 361, 261, 424, 292
-0.992132, 409, 133, 472, 164
-0.992142, 249, 113, 312, 144
-0.992146, 345, 273, 408, 304
-0.992152, 49, 241, 112, 272
-0.992157, 297, 205, 360, 236
-0.992185, 353, 237, 416, 268
-0.992196, 357, 113, 388, 240
-0.992196, 153, 141, 216, 172
-0.992198, 17, 97, 80, 128
-0.992223, 105, 145, 168, 176
-0.992233, 385, 105, 448, 136
-0.992235, 97, 193, 352, 256
-0.992236, 401, 241, 432, 304
-0.992243, 313, 237, 376, 268
-0.992247, 189, 81, 220, 208
-0.992248, 381, 129, 412, 192
-0.992249, 257, 225, 500, 288
-0.992262, 453, 193, 484, 256
-0.992272, 265, 253, 328, 284
-0.992274, 25, 245, 88, 276
-0.992321, 41, 77, 104, 108
-0.992337, 185, 117, 248, 148
-0.992344, 321, 1, 448, 64
-0.992358, 273, 205, 336, 236
-0.992365, 105, 165, 168, 196
-0.992367, 173, 129, 204, 256
-0.992369, 241, 101, 304, 132
-0.992384, 425, 253, 488, 284
-0.992396, 337, 249, 400, 280
-0.992405, 281, 229, 344, 260
-0.992411, 293, 81, 324, 144
-0.992411, 165, 121, 196, 184
-0.992421, 209, 145, 272, 176
-0.992422, 285, 161, 316, 224
-0.992428, 369, 217, 400, 280
-0.992435, 305, 301, 368, 332
-0.992437, 361, 225, 424, 256
-0.992451, 209, 209, 272, 240
-0.992468, 437, 233, 468, 296
-0.992476, 369, 265, 432, 328
-0.99248, 337, 225, 400, 256
-0.992508, 145, 117, 208, 148
-0.992528, 349, 249, 380, 312
-0.992529, 161, 257, 416, 320
-0.992542, 221, 97, 252, 160
-0.992551, 305, 105, 368, 136
-0.992551, 89, 85, 152, 116
-0.992564, 425, 101, 488, 132
-0.992566, 185, 149, 248, 180
-0.992582, 341, 49, 372, 176
-0.99259, 13, 209, 44, 333
-0.992604, 241, 161, 304, 192
-0.992608, 385, 129, 448, 160
-0.992609, 129, 273, 192, 333
-0.99261, 241, 9, 368, 72
-0.992613, 129, 1, 160, 128
-0.992614, 65, 129, 128, 160
-0.992616, 281, 125, 312, 156
-0.992627, 361, 241, 424, 304
-0.992628, 241, 265, 272, 328
-0.992638, 1, 209, 500, 272
-0.992704, 101, 1, 132, 64
-0.992709, 469, 193, 500, 320
-0.992726, 209, 241, 272, 304
-0.992727, 217, 201, 248, 264
-0.992748, 257, 201, 320, 264
-0.992751, 193, 73, 320, 136
-0.99276, 73, 109, 104, 140
-0.992763, 41, 145, 72, 176
-0.992771, 1, 169, 256, 232
-0.992775, 1, 113, 500, 176
-0.992801, 225, 129, 256, 256
-0.992807, 285, 105, 316, 136
-0.992813, 325, 205, 356, 236
-0.992815, 73, 201, 104, 232
-0.992825, 309, 153, 340, 184
-0.992827, 121, 157, 152, 188
-0.992832, 277, 149, 308, 180
-0.992838, 193, 153, 448, 216
-0.992846, 97, 129, 352, 192
-0.992846, 425, 1, 456, 32
-0.992856, 373, 125, 404, 156
-0.992869, 73, 89, 104, 120
-0.992871, 329, 229, 360, 260
-0.992873, 85, 221, 116, 252
-0.992887, 125, 169, 156, 200
-0.992894, 233, 121, 264, 184
-0.992898, 25, 197, 56, 228
-0.992906, 29, 153, 60, 184
-0.992909, 305, 241, 432, 304
-0.992911, 53, 89, 84, 152
-0.992921, 421, 13, 452, 44
-0.992928, 241, 97, 272, 160
-0.99293, 265, 145, 296, 176
-0.992932, 37, 193, 68, 224
-0.992945, 433, 1, 496, 333
-0.992953, 1, 201, 32, 232
-0.992965, 73, 229, 104, 260
-0.992965, 437, 9, 468, 40
-0.992967, 349, 117, 380, 148
-0.992971, 177, 121, 208, 184
-0.992992, 421, 233, 452, 296
-0.992993, 437, 153, 468, 184
-0.992993, 421, 113, 452, 144
-0.992998, 49, 89, 80, 120
-0.993008, 289, 141, 320, 172
-0.993008, 221, 81, 252, 208
-0.99301, 393, 145, 424, 176
-0.993019, 69, 185, 100, 216
-0.99303, 29, 81, 60, 208
-0.993036, 149, 133, 180, 164
-0.993036, 177, 25, 240, 88
-0.993041, 45, 205, 76, 236
-0.993043, 389, 213, 420, 244
-0.993044, 289, 265, 352, 328
-0.993045, 345, 149, 376, 180
-0.993052, 61, 225, 92, 256
-0.993064, 421, 197, 452, 228
-0.993069, 409, 5, 440, 36
-0.993085, 361, 141, 392, 172
-0.993098, 85, 209, 116, 240
-0.993101, 421, 209, 452, 240
-0.993104, 13, 197, 44, 228
-0.993108, 61, 213, 92, 244
-0.993114, 309, 105, 340, 136
-0.993114, 401, 205, 432, 236
-0.993115, 21, 217, 52, 248
-0.993116, 349, 281, 380, 312
-0.993117, 325, 297, 356, 328
-0.993117, 149, 153, 180, 184
-0.993119, 1, 201, 128, 232
-0.993119, 161, 25, 288, 88
-0.993125, 261, 129, 292, 160
-0.993126, 105, 205, 136, 236
-0.993127, 73, 173, 104, 204
-0.993137, 329, 153, 360, 184
-0.993137, 185, 201, 216, 232
-0.993138, 409, 193, 440, 224
-0.993141, 169, 205, 200, 236
-0.993142, 381, 157, 412, 188
-0.993143, 449, 145, 480, 176
-0.993144, 441, 213, 472, 244
-0.993145, 37, 85, 68, 116
-0.993145, 365, 269, 396, 300
-0.993151, 337, 289, 368, 320
-0.993153, 437, 141, 468, 172
-0.993154, 377, 261, 408, 292
-0.993155, 129, 181, 160, 212
-0.993156, 301, 141, 332, 172
-0.993158, 205, 197, 236, 228
-0.993159, 153, 193, 184, 224
-0.993163, 173, 181, 204, 212
-0.993169, 85, 197, 116, 228
-0.993169, 161, 169, 192, 200
-0.99317, 401, 157, 432, 188
-0.993171, 149, 209, 180, 240
-0.993171, 129, 213, 160, 244
-0.993172, 217, 197, 248, 228
-0.993174, 137, 149, 168, 180
-0.993178, 441, 105, 472, 136
-0.993178, 141, 177, 172, 208
-0.993179, 349, 33, 380, 96
-0.993181, 269, 117, 300, 148
-0.993183, 29, 141, 60, 172
-0.993184, 109, 217, 140, 248
-0.993188, 29, 181, 60, 212
-0.993189, 73, 121, 104, 152
-0.993189, 97, 217, 128, 248
-0.99319, 49, 181, 80, 212
-0.993193, 401, 245, 432, 276
-0.993195, 61, 201, 92, 232
-0.993197, 329, 217, 360, 248
-0.993198, 253, 153, 284, 184
-0.993198, 273, 161, 304, 288
-0.9932, 389, 253, 420, 284
-0.993206, 361, 129, 392, 160
-0.993207, 1, 221, 32, 252
-0.993214, 125, 197, 156, 228
-0.993218, 329, 117, 360, 148
-0.993227, 161, 181, 192, 212
-0.993227, 253, 121, 284, 184
-0.993229, 345, 137, 376, 168
-0.993231, 157, 121, 188, 152
-0.993232, 301, 117, 332, 148
-0.993237, 61, 85, 92, 116
-0.993242, 149, 165, 180, 196
-0.993242, 265, 201, 296, 232
-0.993244, 277, 161, 308, 192
-0.993246, 49, 193, 80, 224
-0.99325, 17, 169, 48, 200
-0.993255, 265, 257, 328, 320
-0.993259, 209, 277, 240, 308
-0.99326, 85, 105, 116, 136
-0.993261, 17, 185, 48, 216
-0.993264, 137, 161, 168, 192
-0.993264, 317, 141, 348, 172
-0.993264, 33, 209, 64, 240
-0.993266, 453, 125, 484, 156
-0.99327, 1, 145, 500, 208
-0.993271, 185, 185, 216, 216
-0.993274, 369, 1, 432, 333
-0.993275, 305, 129, 336, 160
-0.993275, 81, 141, 112, 172
-0.993279, 437, 169, 468, 200
-0.99328, 61, 169, 92, 200
-0.993281, 1, 189, 32, 220
-0.993282, 393, 133, 424, 164
-0.993284, 433, 117, 464, 148
-0.993286, 5, 177, 36, 208
-0.993288, 373, 217, 404, 248
-0.993289, 373, 145, 404, 176
-0.993295, 173, 165, 204, 196
-0.993296, 189, 285, 220, 316
-0.9933, 89, 125, 120, 156
-0.9933, 229, 269, 260, 300
-0.9933, 37, 229, 68, 260
-0.993304, 165, 149, 196, 180
-0.993306, 461, 137, 492, 168
-0.993309, 101, 121, 132, 184
-0.99331, 9, 153, 40, 184
-0.993311, 49, 77, 80, 108
-0.993319, 33, 185, 64, 248
-0.993327, 245, 169, 276, 232
-0.993392, 405, 113, 436, 176
-0.993393, 421, 49, 452, 176
-0.993404, 445, 9, 476, 72
-0.993493, 161, 153, 192, 216
-0.993512, 337, 49, 464, 112
-0.993525, 221, 273, 252, 333
-0.993579, 209, 41, 336, 104
-0.993613, 393, 97, 424, 224
-0.99363, 189, 153, 220, 216
-0.993641, 265, 249, 296, 312
-0.993673, 329, 1, 392, 128
-0.993688, 89, 233, 120, 296
-0.993711, 253, 33, 284, 160
-0.993805, 201, 81, 232, 208
-0.993843, 65, 209, 192, 240
-0.993889, 221, 17, 252, 144
-0.993898, 25, 209, 56, 333
-0.993923, 185, 249, 248, 312
-0.993954, 249, 41, 312, 104
-0.994003, 313, 49, 344, 176
-0.994025, 365, 17, 396, 144
-0.99404, 65, 181, 192, 212
-0.994045, 97, 89, 352, 152
-0.994089, 453, 81, 484, 208
-0.994102, 377, 161, 408, 288
-0.994117, 41, 65, 104, 128
-0.994153, 381, 17, 412, 144
-0.994167, 49, 65, 176, 128
-0.994246, 65, 65, 128, 128
-0.994254, 117, 1, 148, 128
-0.994276, 241, 33, 272, 160
-0.994337, 409, 33, 472, 96
-0.994348, 249, 73, 312, 136
-0.994397, 173, 17, 204, 144
-0.994408, 193, 177, 448, 240
-0.994417, 461, 1, 492, 128
-0.994427, 441, 1, 472, 128
-0.994466, 17, 1, 144, 64
-0.994473, 49, 49, 112, 176
-0.994485, 49, 273, 176, 333
-0.99452, 17, 1, 80, 333
-0.994526, 113, 201, 240, 232
-0.994566, 97, 161, 352, 224
-0.994581, 1, 89, 500, 152
-0.994581, 113, 249, 240, 312
-0.994584, 425, 73, 488, 136
-0.994587, 197, 17, 228, 144
-0.994593, 257, 117, 384, 148
-0.994615, 113, 57, 176, 120
-0.994623, 305, 125, 432, 156
-0.99464, 17, 217, 144, 248
-0.994693, 33, 241, 288, 304
-0.994695, 257, 249, 500, 312
-0.99472, 257, 97, 500, 160
-0.994747, 429, 9, 444, 72
-0.994794, 305, 153, 432, 184
-0.994802, 361, 81, 424, 144
-0.994846, 17, 189, 144, 220
-0.99486, 1, 233, 500, 296
-0.994895, 105, 1, 136, 128
-0.994912, 313, 57, 376, 120
-0.99496, 1, 97, 128, 160
-0.994965, 257, 133, 384, 164
-0.995018, 209, 33, 272, 96
-0.995018, 133, 209, 164, 333
-0.995042, 65, 193, 192, 224
-0.995044, 439, 1, 454, 64
-0.995044, 393, 33, 424, 160
-0.99505, 283, 121, 298, 184
-0.995051, 415, 1, 430, 64
-0.995072, 329, 49, 360, 176
-0.995078, 1, 169, 500, 232
-0.995117, 177, 201, 304, 232
-0.99513, 205, 145, 236, 272
-0.995207, 309, 1, 340, 128
-0.995238, 369, 253, 496, 284
-0.995275, 369, 145, 496, 176
-0.995325, 209, 17, 240, 144
-0.995341, 421, 1, 436, 64
-0.995356, 273, 17, 304, 144
-0.995394, 145, 189, 272, 220
-0.995466, 409, 49, 440, 176
-0.995476, 73, 49, 104, 176
-0.995516, 1, 229, 128, 260
-0.995529, 369, 213, 496, 244
-0.995533, 395, 129, 410, 192
-0.995577, 469, 129, 500, 256
-0.995578, 241, 157, 368, 188
-0.9956, 289, 121, 304, 184
-0.995615, 193, 201, 448, 264
-0.995616, 369, 157, 496, 188
-0.995624, 305, 141, 432, 172
-0.995708, 353, 129, 480, 160
-0.995733, 289, 97, 304, 160
-0.995743, 93, 201, 108, 264
-0.995797, 225, 1, 480, 64
-0.995857, 281, 145, 296, 208
-0.99589, 1, 137, 256, 200
-0.995914, 331, 201, 346, 264
-0.995914, 297, 145, 328, 272
-0.995925, 443, 121, 458, 184
-0.995952, 13, 113, 44, 240
-0.995957, 369, 113, 400, 240
-0.995963, 1, 89, 256, 152
-0.995991, 81, 89, 96, 152
-0.996, 97, 145, 224, 176
-0.996028, 193, 185, 208, 248
-0.996029, 443, 153, 458, 216
-0.996042, 81, 225, 208, 256
-0.996061, 441, 209, 456, 272
-0.996084, 113, 177, 240, 208
-0.996091, 257, 265, 384, 328
-0.996092, 33, 169, 160, 200
-0.996122, 129, 193, 144, 256
-0.996142, 1, 273, 500, 333
-0.996154, 1, 113, 256, 176
-0.996171, 61, 217, 76, 280
-0.996186, 353, 5, 480, 36
-0.996204, 177, 213, 304, 244
-0.996215, 355, 113, 370, 176
-0.996219, 73, 89, 88, 152
-0.99622, 89, 113, 104, 176
-0.996225, 101, 193, 132, 320
-0.99623, 337, 201, 352, 264
-0.996253, 341, 113, 356, 176
-0.996277, 193, 149, 320, 180
-0.996289, 257, 145, 384, 176
-0.996292, 275, 121, 290, 184
-0.996307, 117, 49, 148, 176
-0.996345, 369, 117, 496, 148
-0.996349, 429, 1, 460, 256
-0.996352, 185, 129, 216, 256
-0.996356, 55, 217, 70, 280
-0.996361, 295, 129, 310, 192
-0.996369, 49, 149, 176, 180
-0.996377, 423, 209, 438, 272
-0.996378, 257, 209, 384, 240
-0.996393, 295, 97, 310, 160
-0.996402, 97, 65, 224, 128
-0.996407, 361, 113, 376, 176
-0.996416, 123, 193, 138, 256
-0.996423, 187, 185, 202, 248
-0.996424, 113, 165, 240, 196
-0.996425, 199, 193, 214, 256
-0.996436, 139, 193, 154, 256
-0.996442, 103, 201, 118, 264
-0.99646, 145, 193, 160, 256
-0.996469, 71, 217, 86, 280
-0.996477, 49, 137, 176, 168
-0.996478, 403, 177, 418, 240
-0.996487, 331, 113, 346, 176
-0.996487, 33, 89, 160, 120
-0.996518, 283, 97, 298, 160
-0.996519, 49, 209, 64, 272
-0.99652, 475, 217, 490, 280
-0.996523, 41, 209, 56, 272
-0.996532, 115, 201, 130, 264
-0.996568, 205, 177, 220, 240
-0.996571, 87, 201, 102, 264
-0.996583, 7, 73, 22, 136
-0.996594, 49, 237, 176, 268
-0.996602, 109, 201, 124, 264
-0.99662, 467, 217, 482, 280
-0.99662, 481, 217, 496, 280
-0.996625, 155, 201, 170, 264
-0.996636, 19, 225, 34, 288
-0.996643, 305, 121, 320, 184
-0.996644, 161, 233, 416, 296
-0.996661, 305, 113, 432, 144
-0.996666, 13, 225, 28, 288
-0.996667, 97, 25, 352, 88
-0.996677, 305, 213, 432, 244
-0.996694, 387, 121, 402, 184
-0.996703, 273, 249, 400, 280
-0.996711, 321, 73, 448, 136
-0.996721, 225, 105, 352, 136
-0.996722, 29, 225, 44, 288
-0.996726, 99, 113, 114, 176
-0.996755, 317, 145, 332, 208
-0.996767, 89, 89, 104, 152
-0.996783, 129, 213, 256, 244
-0.996786, 185, 17, 216, 144
-0.996789, 161, 201, 176, 264
-0.996801, 401, 121, 416, 184
-0.996807, 161, 129, 288, 160
-0.996808, 1, 73, 16, 136
-0.996816, 75, 121, 90, 184
-0.996829, 347, 113, 362, 176
-0.996865, 285, 65, 316, 320
-0.996875, 435, 225, 450, 288
-0.996879, 449, 137, 464, 200
-0.996887, 257, 229, 384, 260
-0.996902, 145, 169, 160, 232
-0.996903, 211, 177, 226, 240
-0.996917, 35, 225, 50, 288
-0.996919, 309, 1, 340, 256
-0.996933, 73, 193, 88, 256
-0.996939, 7, 225, 22, 288
-0.996948, 133, 153, 148, 216
-0.996954, 461, 217, 476, 280
-0.99696, 407, 209, 422, 272
-0.996971, 221, 177, 236, 240
-0.996985, 1, 245, 128, 276
-0.996985, 353, 201, 480, 232
-0.996986, 257, 25, 500, 88
-0.996987, 343, 209, 358, 272
-0.996987, 77, 225, 92, 288
-0.997011, 447, 209, 462, 272
-0.997031, 437, 113, 452, 176
-0.997037, 439, 5, 454, 36
-0.997045, 81, 125, 208, 156
-0.997045, 325, 113, 340, 176
-0.997057, 363, 137, 378, 200
-0.997062, 181, 185, 196, 248
-0.997063, 167, 201, 182, 264
-0.997065, 227, 177, 242, 240
-0.997066, 81, 193, 96, 256
-0.997068, 373, 65, 404, 192
-0.99707, 353, 17, 384, 144
-0.99707, 1, 153, 16, 216
-0.997073, 89, 137, 104, 200
-0.997091, 193, 189, 320, 220
-0.9971, 257, 57, 500, 120
-0.997109, 433, 185, 448, 248
-0.997122, 401, 153, 416, 216
-0.997125, 209, 121, 336, 152
-0.997128, 273, 97, 288, 160
-0.997139, 161, 161, 288, 192
-0.997148, 311, 129, 326, 192
-0.997149, 1, 65, 256, 128
-0.997167, 85, 161, 100, 224
-0.997192, 53, 145, 68, 208
-0.997207, 61, 153, 76, 216
-0.997207, 47, 137, 62, 200
-0.997209, 1, 225, 16, 288
-0.997211, 369, 121, 384, 184
-0.997218, 151, 129, 166, 192
-0.997231, 401, 217, 416, 280
-0.997252, 455, 209, 470, 272
-0.997256, 395, 161, 410, 224
-0.997269, 173, 201, 188, 264
-0.997269, 429, 225, 444, 288
-0.997275, 233, 177, 248, 240
-0.99728, 443, 185, 458, 248
-0.997285, 143, 145, 158, 208
-0.997288, 81, 113, 96, 176
-0.997289, 461, 121, 476, 184
-0.997303, 453, 113, 468, 176
-0.997311, 93, 225, 108, 288
-0.997316, 55, 193, 70, 256
-0.997318, 393, 217, 408, 280
-0.99732, 445, 1, 460, 64
-0.997322, 95, 89, 110, 152
-0.997325, 65, 193, 80, 256
-0.997326, 23, 161, 38, 224
-0.997328, 1, 149, 128, 180
-0.997329, 337, 225, 464, 256
-0.997348, 29, 145, 44, 208
-0.997348, 389, 145, 404, 208
-0.99735, 433, 1, 448, 32
-0.997356, 455, 145, 470, 208
-0.997356, 265, 1, 296, 256
-0.997357, 83, 225, 98, 288
-0.997369, 325, 33, 356, 288
-0.99737, 139, 169, 154, 232
-0.997371, 1, 1, 256, 64
-0.997374, 193, 161, 208, 224
-0.997379, 413, 209, 428, 272
-0.997384, 305, 145, 320, 208
-0.997389, 123, 161, 138, 224
-0.997408, 475, 193, 490, 256
-0.997409, 121, 217, 136, 280
-0.997426, 369, 169, 496, 200
-0.997426, 225, 257, 352, 288
-0.997432, 277, 201, 292, 264
-0.997458, 417, 185, 432, 248
-0.997491, 261, 1, 276, 64
-0.997493, 35, 145, 50, 208
-0.997496, 129, 1, 384, 64
-0.997529, 417, 1, 448, 256
-0.99753, 281, 149, 296, 180
-0.997551, 129, 293, 256, 324
-0.997553, 97, 89, 224, 120
-0.997571, 161, 117, 288, 148
-0.997633, 193, 269, 320, 300
-0.997657, 349, 65, 380, 320
-0.997673, 401, 65, 432, 320
-0.997678, 441, 65, 472, 320
-0.99771, 297, 1, 328, 256
-0.997725, 289, 101, 304, 132
-0.99774, 145, 145, 272, 176
-0.997761, 209, 137, 336, 168
-0.997767, 321, 165, 448, 196
-0.997769, 153, 1, 184, 256
-0.997777, 353, 265, 480, 296
-0.997781, 83, 229, 98, 260
-0.997791, 65, 113, 192, 144
-0.997796, 61, 49, 92, 176
-0.997799, 337, 277, 464, 308
-0.997807, 305, 237, 432, 268
-0.997811, 161, 281, 288, 312
-0.997818, 97, 49, 128, 176
-0.997827, 289, 301, 416, 332
-0.997833, 453, 65, 484, 320
-0.997877, 73, 105, 88, 136
-0.99789, 305, 201, 432, 232
-0.997895, 321, 289, 448, 320
-0.997916, 257, 273, 500, 333
-0.997934, 381, 65, 412, 320
-0.997945, 337, 1, 368, 256
-0.997958, 305, 101, 432, 132
-0.997973, 425, 13, 440, 44
-0.997983, 173, 1, 204, 256
-0.997997, 257, 197, 384, 228
-0.998, 431, 13, 446, 44
-0.998006, 1, 49, 128, 112
-0.99801, 33, 77, 160, 108
-0.998028, 369, 181, 496, 212
-0.998031, 85, 117, 100, 148
-0.998032, 281, 121, 296, 152
-0.998035, 133, 157, 148, 188
-0.998038, 363, 117, 378, 148
-0.998042, 31, 153, 46, 184
-0.998045, 71, 85, 86, 116
-0.998056, 253, 1, 284, 256
-0.998058, 53, 85, 68, 116
-0.998064, 89, 133, 104, 164
-0.998072, 445, 9, 460, 40
-0.998084, 87, 197, 102, 228
-0.998085, 49, 101, 176, 132
-0.998092, 305, 37, 432, 68
-0.998093, 145, 65, 272, 128
-0.998099, 91, 221, 106, 252
-0.998106, 317, 153, 332, 184
-0.998109, 17, 125, 144, 156
-0.99811, 241, 1, 272, 256
-0.998117, 395, 141, 410, 172
-0.998118, 59, 85, 74, 116
-0.99812, 41, 197, 56, 228
-0.998122, 209, 93, 336, 124
-0.998143, 419, 9, 434, 40
-0.998146, 49, 193, 64, 224
-0.998148, 27, 197, 42, 228
-0.998158, 161, 173, 288, 204
-0.998161, 81, 209, 96, 240
-0.998161, 225, 1, 256, 256
-0.998167, 35, 197, 50, 228
-0.998167, 361, 65, 392, 320
-0.998171, 97, 57, 352, 120
-0.998173, 465, 49, 496, 176
-0.998194, 129, 225, 256, 256
-0.998196, 443, 153, 458, 184
-0.998203, 193, 237, 320, 268
-0.998207, 357, 149, 372, 180
-0.99821, 13, 201, 28, 232
-0.998213, 129, 21, 256, 52
-0.998215, 1, 113, 32, 240
-0.998217, 85, 185, 100, 216
-0.998218, 7, 201, 22, 232
-0.998219, 77, 225, 92, 256
-0.99822, 79, 89, 94, 120
-0.998224, 47, 85, 62, 116
-0.998244, 323, 153, 338, 184
-0.998244, 213, 1, 244, 256
-0.998249, 73, 65, 104, 320
-0.998252, 193, 1, 224, 256
-0.998263, 93, 209, 108, 240
-0.998271, 403, 153, 418, 184
-0.998278, 65, 9, 192, 40
-0.998278, 321, 189, 448, 220
-0.998283, 395, 161, 410, 192
-0.998283, 43, 185, 58, 216
-0.998283, 353, 29, 480, 60
-0.998295, 389, 125, 404, 156
-0.998304, 271, 153, 286, 184
-0.998307, 51, 205, 66, 236
-0.998308, 1, 201, 16, 232
-0.998316, 413, 1, 428, 32
-0.998323, 439, 117, 454, 148
-0.998327, 9, 179, 40, 194
-0.998328, 409, 207, 440, 222
-0.998328, 301, 137, 332, 152
-0.998329, 421, 211, 452, 226
-0.99833, 257, 121, 288, 136
-0.99833, 77, 179, 108, 194
-0.99833, 265, 201, 296, 216
-0.998332, 33, 191, 64, 206
-0.998332, 101, 205, 116, 236
-0.998333, 73, 173, 104, 188
-0.998333, 89, 105, 104, 136
-0.998334, 249, 1, 280, 16
-0.998334, 441, 121, 472, 136
-0.998334, 381, 149, 412, 164
-0.998334, 301, 149, 332, 164
-0.998335, 93, 209, 124, 224
-0.998335, 329, 299, 360, 314
-0.998335, 349, 287, 380, 302
-0.998336, 165, 183, 196, 198
-0.998337, 19, 201, 34, 232
-0.998338, 457, 149, 488, 164
-0.998338, 285, 143, 316, 158
-0.998338, 257, 261, 288, 276
-0.99834, 109, 317, 140, 332
-0.998341, 337, 149, 368, 164
-0.998342, 421, 193, 452, 208
-0.998342, 21, 185, 52, 200
-0.998343, 253, 127, 284, 142
-0.998343, 117, 207, 148, 222
-0.998343, 75, 201, 90, 232
-0.998343, 45, 161, 76, 176
-0.998344, 149, 145, 180, 160
-0.998344, 313, 309, 344, 324
-0.998345, 409, 201, 440, 216
-0.998345, 361, 145, 392, 160
-0.998346, 81, 137, 112, 152
-0.998346, 309, 155, 340, 170
-0.998346, 261, 141, 292, 156
-0.998346, 153, 301, 184, 316
-0.998347, 441, 163, 472, 178
-0.998347, 9, 161, 40, 176
-0.998347, 105, 209, 136, 224
-0.998347, 133, 309, 164, 324
-0.998348, 81, 149, 112, 164
-0.998348, 285, 115, 316, 130
-0.998348, 429, 227, 460, 242
-0.998348, 289, 155, 320, 170
-0.99835, 5, 185, 36, 200
-0.99835, 429, 157, 460, 172
-0.998351, 353, 121, 384, 136
-0.998351, 61, 225, 92, 240
-0.998351, 153, 127, 184, 142
-0.998351, 201, 283, 232, 298
-0.998351, 165, 297, 196, 312
-0.998352, 117, 157, 148, 172
-0.998352, 333, 157, 364, 172
-0.998352, 97, 153, 128, 168
-0.998352, 69, 201, 84, 232
-0.998355, 237, 269, 268, 284
-0.998355, 49, 85, 80, 100
-0.998355, 421, 205, 452, 220
-0.998356, 365, 141, 380, 172
-0.998356, 185, 289, 216, 304
-0.998356, 141, 181, 172, 196
-0.998357, 73, 105, 104, 120
-0.998357, 307, 145, 322, 176
-0.998357, 269, 257, 300, 272
-0.998358, 325, 215, 356, 230
-0.998359, 73, 187, 104, 202
-0.998359, 453, 137, 484, 152
-0.99836, 381, 161, 412, 176
-0.99836, 29, 151, 60, 166
-0.998361, 127, 169, 142, 200
-0.998362, 161, 189, 176, 220
-0.998362, 287, 113, 302, 144
-0.998363, 217, 277, 248, 292
-0.998363, 401, 163, 432, 178
-0.998364, 369, 219, 400, 234
-0.998365, 5, 203, 36, 218
-0.998365, 121, 313, 152, 328
-0.998366, 449, 141, 464, 172
-0.998366, 301, 131, 332, 146
-0.998366, 53, 145, 68, 176
-0.998366, 257, 45, 384, 76
-0.998367, 409, 195, 440, 210
-0.998368, 373, 155, 404, 170
-0.998368, 295, 101, 310, 132
-0.998368, 137, 171, 168, 186
-0.998369, 29, 145, 60, 160
-0.998369, 373, 127, 404, 142
-0.99837, 13, 173, 44, 188
-0.99837, 405, 249, 436, 264
-0.99837, 149, 157, 180, 172
-0.99837, 17, 201, 48, 216
-0.99837, 413, 11, 444, 26
-0.99837, 57, 205, 72, 236
-0.998372, 37, 199, 68, 214
-0.998373, 305, 161, 336, 176
-0.998373, 73, 203, 104, 218
-0.998374, 73, 129, 104, 144
-0.998376, 269, 121, 300, 136
-0.998377, 421, 199, 452, 214
-0.998378, 277, 159, 308, 174
-0.998381, 329, 221, 360, 236
-0.998382, 405, 5, 436, 20
-0.998383, 433, 11, 464, 26
-0.998384, 437, 149, 468, 164
-0.998384, 113, 205, 128, 236
-0.998386, 77, 97, 108, 112
-0.998386, 137, 153, 168, 168
-0.998387, 117, 163, 148, 178
-0.998388, 349, 149, 380, 164
-0.998392, 129, 181, 160, 196
-0.998392, 281, 135, 312, 150
-0.998393, 41, 153, 72, 168
-0.998393, 45, 145, 60, 176
-0.998394, 441, 115, 472, 130
-0.998394, 29, 165, 60, 180
-0.998395, 265, 147, 296, 162
-0.998395, 325, 209, 356, 224
-0.998397, 429, 17, 460, 32
-0.998399, 69, 111, 100, 126
-0.9984, 257, 155, 288, 170
-0.9984, 25, 157, 56, 172
-0.998401, 121, 169, 152, 184
-0.998403, 277, 153, 308, 168
-0.998409, 361, 157, 392, 172
-0.998409, 325, 203, 356, 218
-0.998412, 53, 93, 84, 108
-0.998413, 69, 91, 100, 106
-0.998414, 309, 107, 340, 122
-0.998414, 285, 105, 316, 120
-0.998417, 329, 231, 360, 246
-0.998418, 141, 157, 156, 188
-0.998421, 321, 155, 352, 170
-0.998421, 41, 91, 72, 106
-0.998423, 87, 89, 102, 120
-0.998427, 73, 121, 104, 136
-0.998427, 383, 217, 398, 248
-0.998429, 61, 65, 92, 320
-0.998431, 373, 125, 388, 156
-0.998431, 175, 205, 190, 236
-0.998433, 129, 159, 160, 174
-0.998433, 1, 137, 128, 168
-0.998434, 451, 113, 466, 144
-0.998434, 143, 169, 158, 200
-0.998435, 135, 169, 150, 200
-0.998438, 41, 147, 72, 162
-0.998439, 389, 155, 420, 170
-0.998439, 281, 109, 296, 140
-0.998444, 107, 205, 122, 236
-0.998444, 421, 117, 452, 132
-0.998445, 195, 201, 210, 232
-0.998446, 441, 157, 472, 172
-0.998448, 397, 213, 412, 244
-0.998449, 443, 213, 458, 244
-0.998451, 381, 217, 412, 232
-0.998458, 281, 125, 312, 140
-0.998461, 171, 185, 186, 216
-0.998464, 91, 121, 106, 152
-0.998465, 121, 175, 152, 190
-0.998466, 389, 145, 404, 176
-0.998467, 79, 117, 94, 148
-0.998468, 273, 133, 288, 164
-0.99847, 353, 105, 480, 136
-0.998471, 45, 209, 60, 240
-0.998476, 125, 185, 140, 216
-0.998476, 37, 185, 52, 216
-0.998478, 63, 201, 78, 232
-0.998479, 361, 151, 392, 166
-0.998479, 209, 169, 336, 200
-0.998483, 329, 157, 344, 188
-0.998484, 217, 197, 232, 228
-0.998485, 73, 213, 88, 244
-0.998486, 313, 155, 376, 170
-0.998489, 357, 117, 372, 148
-0.998493, 353, 151, 416, 166
-0.998496, 405, 205, 420, 236
-0.998498, 345, 155, 376, 170
-0.998498, 95, 133, 110, 164
-0.998505, 31, 217, 46, 248
-0.998505, 107, 217, 122, 248
-0.998509, 23, 217, 38, 248
-0.998511, 85, 173, 100, 204
-0.998512, 355, 137, 370, 168
-0.998515, 393, 7, 456, 22
-0.998517, 87, 209, 102, 240
-0.998517, 127, 213, 142, 244
-0.998522, 145, 93, 272, 124
-0.998528, 65, 85, 80, 116
-0.998528, 365, 129, 380, 160
-0.998531, 397, 129, 412, 160
-0.998532, 369, 241, 496, 272
-0.998537, 63, 97, 78, 128
-0.998544, 131, 181, 146, 212
-0.998545, 155, 209, 170, 240
-0.998545, 355, 281, 370, 312
-0.998547, 353, 129, 416, 144
-0.998551, 345, 289, 360, 320
-0.998551, 41, 185, 104, 200
-0.998551, 59, 153, 74, 184
-0.998551, 345, 157, 408, 172
-0.998551, 33, 91, 96, 106
-0.998551, 1, 153, 16, 184
-0.998553, 249, 127, 312, 142
-0.998554, 265, 151, 328, 166
-0.998557, 175, 165, 190, 196
-0.998558, 341, 229, 356, 260
-0.99856, 37, 217, 52, 248
-0.998561, 155, 189, 170, 220
-0.998562, 65, 213, 80, 244
-0.998562, 393, 249, 456, 264
-0.998564, 335, 297, 350, 328
-0.998566, 437, 17, 452, 48
-0.998567, 393, 1, 456, 16
-0.998568, 321, 121, 384, 136
-0.99857, 81, 183, 144, 198
-0.99857, 49, 145, 112, 160
-0.998573, 3, 189, 18, 220
-0.998574, 273, 139, 336, 154
-0.998575, 265, 133, 328, 148
-0.998575, 261, 153, 276, 184
-0.998577, 385, 159, 448, 174
-0.998579, 81, 197, 144, 212
-0.998579, 273, 127, 336, 142
-0.99858, 201, 201, 216, 232
-0.998582, 425, 5, 456, 20
-0.998583, 93, 197, 108, 228
-0.998585, 125, 197, 140, 228
-0.998585, 73, 209, 136, 224
-0.998586, 353, 145, 416, 160
-0.998586, 57, 97, 120, 112
-0.998586, 17, 157, 80, 172
-0.998586, 349, 153, 364, 184
-0.998586, 319, 141, 334, 172
-0.998586, 133, 213, 148, 244
-0.998588, 41, 85, 56, 116
-0.998588, 279, 137, 294, 168
-0.998589, 273, 145, 336, 160
-0.998591, 281, 107, 344, 122
-0.998592, 249, 157, 312, 172
-0.998592, 89, 171, 152, 186
-0.998594, 351, 233, 366, 264
-0.998595, 9, 91, 72, 106
-0.998596, 353, 135, 416, 150
-0.998597, 49, 203, 112, 218
-0.998599, 119, 205, 134, 236
-0.9986, 165, 177, 180, 208
-0.998601, 1, 187, 64, 202
-0.998602, 417, 7, 480, 22
-0.998603, 181, 205, 196, 236
-0.998604, 153, 169, 168, 200
-0.998604, 113, 175, 176, 190
-0.998605, 121, 201, 184, 216
-0.998605, 313, 149, 376, 164
-0.998605, 273, 121, 336, 136
-0.998606, 17, 151, 80, 166
-0.998606, 113, 163, 176, 178
-0.998609, 49, 191, 112, 206
-0.998609, 129, 169, 192, 184
-0.998611, 9, 199, 72, 214
-0.998612, 321, 225, 384, 240
-0.998612, 145, 129, 208, 144
-0.998612, 265, 163, 328, 178
-0.998612, 57, 103, 120, 118
-0.998612, 385, 165, 448, 180
-0.998613, 1, 163, 64, 178
-0.998613, 121, 189, 184, 204
-0.998613, 225, 123, 288, 138
-0.998613, 113, 181, 176, 196
-0.998614, 65, 123, 128, 138
-0.998615, 81, 191, 144, 206
-0.998616, 233, 143, 296, 158
-0.998616, 233, 205, 296, 220
-0.998617, 393, 213, 456, 228
-0.998617, 25, 169, 88, 184
-0.998618, 401, 13, 464, 28
-0.998622, 17, 207, 80, 222
-0.998624, 281, 227, 344, 242
-0.998625, 177, 187, 240, 202
-0.998626, 25, 163, 88, 178
-0.998627, 233, 135, 296, 150
-0.998628, 33, 215, 96, 230
-0.998628, 41, 175, 104, 190
-0.99863, 57, 111, 120, 126
-0.99863, 41, 225, 104, 240
-0.998631, 57, 117, 120, 132
-0.998632, 97, 205, 160, 220
-0.998635, 289, 157, 352, 172
-0.998635, 1, 85, 64, 100
-0.998636, 145, 197, 208, 212
-0.998637, 393, 187, 456, 202
-0.998637, 41, 85, 104, 100
-0.998639, 249, 121, 312, 136
-0.99864, 209, 197, 272, 212
-0.998641, 281, 115, 344, 130
-0.998642, 225, 129, 288, 144
-0.998642, 9, 219, 72, 234
-0.998642, 257, 257, 320, 272
-0.998642, 153, 183, 216, 198
-0.998642, 185, 201, 248, 216
-0.998642, 81, 301, 208, 332
-0.998643, 313, 143, 376, 158
-0.998643, 1, 145, 64, 160
-0.998644, 225, 163, 288, 178
-0.998644, 425, 183, 488, 198
-0.998644, 17, 1, 144, 32
-0.998644, 281, 215, 344, 230
-0.998645, 17, 179, 80, 194
-0.998645, 281, 221, 344, 236
-0.998645, 129, 153, 192, 168
-0.998646, 193, 225, 320, 256
-0.998646, 393, 117, 456, 132
-0.998647, 369, 217, 432, 232
-0.998649, 289, 133, 352, 148
-0.998649, 337, 219, 400, 234
-0.998649, 49, 197, 112, 212
-0.99865, 425, 13, 488, 28
-0.998651, 393, 207, 456, 222
-0.998651, 433, 115, 496, 130
-0.998651, 393, 175, 456, 190
-0.998652, 241, 149, 304, 164
-0.998652, 81, 177, 144, 192
-0.998653, 145, 143, 208, 158
-0.998653, 49, 151, 112, 166
-0.998653, 417, 1, 480, 16
-0.998654, 1, 173, 64, 188
-0.998655, 81, 93, 144, 108
-0.998656, 129, 135, 192, 150
-0.998656, 393, 181, 456, 196
-0.998656, 105, 231, 168, 246
-0.998658, 377, 153, 440, 168
-0.998658, 313, 137, 376, 152
-0.998659, 393, 193, 456, 208
-0.998659, 81, 235, 144, 250
-0.998661, 161, 205, 224, 220
-0.998661, 321, 213, 384, 228
-0.998661, 73, 137, 136, 152
-0.998661, 425, 149, 488, 164
-0.998661, 65, 241, 128, 256
-0.998661, 33, 247, 96, 262
-0.998662, 425, 163, 488, 178
-0.998662, 313, 231, 376, 246
-0.998662, 393, 123, 456, 138
-0.998662, 145, 161, 208, 176
-0.998663, 385, 145, 448, 160
-0.998663, 425, 155, 488, 170
-0.998663, 281, 209, 344, 224
-0.998663, 49, 139, 112, 154
-0.998664, 313, 129, 376, 144
-0.998664, 81, 221, 144, 236
-0.998665, 313, 219, 376, 234
-0.998666, 369, 3, 432, 18
-0.998669, 45, 65, 76, 320
-0.998687, 33, 297, 160, 328
-0.998693, 141, 65, 172, 320
-0.998703, 289, 61, 416, 92
-0.998749, 273, 89, 400, 120
-0.998751, 337, 53, 464, 84
-0.998758, 177, 33, 304, 64
-0.998782, 97, 273, 224, 304
-0.998783, 1, 65, 500, 128
-0.998796, 1, 265, 256, 328
-0.998824, 129, 261, 256, 292
-0.998827, 65, 285, 192, 316
-0.998836, 81, 77, 208, 108
-0.99885, 177, 105, 304, 136
-0.998865, 209, 297, 336, 328
-0.998866, 93, 65, 124, 320
-0.998872, 49, 249, 176, 312
-0.998882, 333, 145, 348, 272
-0.998892, 285, 97, 300, 224
-0.998905, 445, 129, 460, 256
-0.998906, 17, 113, 144, 144
-0.99891, 425, 1, 440, 128
-0.998913, 289, 265, 416, 296
-0.998922, 129, 1, 160, 256
-0.998945, 369, 17, 496, 48
-0.998966, 397, 161, 412, 288
-0.998982, 291, 81, 306, 208
-0.998991, 1, 33, 500, 96
-0.998995, 273, 277, 400, 308
-0.998996, 433, 1, 448, 128
-0.998997, 241, 185, 368, 216
-0.999008, 305, 177, 432, 208
-0.999011, 33, 65, 64, 320
-0.999014, 161, 249, 288, 280
-0.999022, 339, 145, 354, 272
-0.999023, 209, 81, 336, 112
-0.999028, 419, 1, 434, 128
-0.99903, 341, 209, 356, 333
-0.999064, 347, 145, 362, 272
-0.999065, 83, 161, 98, 288
-0.999078, 279, 113, 294, 240
-0.999092, 403, 177, 418, 304
-0.999098, 17, 65, 48, 320
-0.999111, 277, 193, 292, 320
-0.999116, 465, 65, 496, 320
-0.99912, 327, 97, 342, 224
-0.999122, 73, 177, 88, 304
-0.999132, 241, 25, 368, 56
-0.999143, 209, 45, 336, 76
-0.999158, 257, 289, 384, 320
-0.999159, 287, 145, 302, 272
-0.999164, 321, 249, 448, 280
-0.999169, 333, 209, 348, 333
-0.999176, 49, 129, 64, 256
-0.999179, 439, 1, 454, 128
-0.999199, 193, 13, 320, 44
-0.999202, 67, 161, 82, 288
-0.999202, 301, 81, 316, 208
-0.999205, 327, 145, 342, 272
-0.999222, 91, 97, 106, 224
-0.999224, 453, 129, 468, 256
-0.999238, 73, 129, 88, 256
-0.999252, 95, 145, 110, 272
-0.999255, 273, 97, 288, 224
-0.999257, 89, 177, 104, 304
-0.999261, 257, 169, 384, 200
-0.999263, 355, 97, 370, 224
-0.999267, 321, 145, 336, 272
-0.999268, 439, 161, 454, 288
-0.999274, 339, 97, 354, 224
-0.999279, 397, 113, 412, 240
-0.999283, 1, 257, 128, 288
-0.999284, 1, 65, 32, 320
-0.999285, 347, 209, 362, 333
-0.999285, 305, 1, 432, 32
-0.99929, 409, 193, 424, 320
-0.99929, 361, 65, 376, 192
-0.999297, 271, 177, 286, 304
-0.999297, 333, 97, 348, 224
-0.9993, 265, 193, 280, 320
-0.999302, 369, 73, 496, 136
-0.999302, 251, 193, 266, 320
-0.999306, 315, 97, 330, 224
-0.999309, 423, 177, 438, 304
-0.999316, 327, 209, 342, 333
-0.99932, 259, 193, 274, 320
-0.99932, 73, 81, 88, 208
-0.999323, 449, 177, 464, 304
-0.999326, 345, 97, 360, 224
-0.999332, 1, 145, 16, 272
-0.999333, 177, 1, 304, 32
-0.99934, 241, 193, 256, 320
-0.999343, 439, 113, 454, 240
-0.999343, 321, 97, 336, 224
-0.999348, 387, 209, 402, 333
-0.999352, 451, 81, 466, 208
-0.999353, 55, 129, 70, 256
-0.999353, 417, 161, 432, 288
-0.999358, 97, 101, 224, 132
-0.999362, 393, 209, 408, 333
-0.999371, 9, 161, 24, 288
-0.999378, 23, 161, 38, 288
-0.999378, 179, 81, 194, 208
-0.999378, 191, 81, 206, 208
-0.999381, 31, 145, 46, 272
-0.999382, 309, 97, 324, 224
-0.999382, 97, 97, 112, 224
-0.999383, 167, 81, 182, 208
-0.999389, 95, 193, 110, 320
-0.999389, 3, 193, 18, 320
-0.999392, 79, 97, 94, 224
-0.999396, 441, 209, 456, 333
-0.999396, 15, 161, 30, 288
-0.999401, 353, 145, 368, 272
-0.999402, 153, 81, 168, 208
-0.999405, 377, 209, 392, 333
-0.999405, 253, 129, 268, 256
-0.99941, 391, 145, 406, 272
-0.999411, 103, 97, 118, 224
-0.999412, 455, 177, 470, 304
-0.999416, 461, 129, 476, 256
-0.99942, 413, 1, 428, 128
-0.999425, 263, 129, 278, 256
-0.999425, 67, 209, 82, 333
-0.999433, 403, 113, 418, 240
-0.999437, 1, 101, 128, 132
-0.999438, 361, 113, 376, 240
-0.999438, 37, 161, 52, 288
-0.999439, 151, 161, 166, 288
-0.99944, 145, 161, 160, 288
-0.99944, 161, 209, 176, 333
-0.999442, 173, 145, 188, 272
-0.999444, 113, 113, 128, 240
-0.999446, 127, 81, 142, 208
-0.999446, 209, 209, 224, 333
-0.99945, 243, 113, 258, 240
-0.99945, 371, 209, 386, 333
-0.999451, 43, 129, 58, 256
-0.999453, 193, 209, 208, 333
-0.999454, 39, 81, 54, 208
-0.999455, 235, 193, 250, 320
-0.999457, 185, 81, 200, 208
-0.999458, 435, 209, 450, 333
-0.99946, 167, 209, 182, 333
-0.99946, 433, 97, 448, 224
-0.999462, 79, 209, 94, 333
-0.999463, 101, 145, 116, 272
-0.999463, 183, 209, 198, 333
-0.999464, 141, 1, 156, 128
-0.999464, 61, 193, 76, 320
-0.999465, 199, 209, 214, 333
-0.999466, 173, 81, 188, 208
-0.99947, 293, 129, 308, 256
-0.999471, 281, 33, 296, 160
-0.999472, 107, 145, 122, 272
-0.999473, 123, 145, 138, 272
-0.999473, 157, 145, 172, 272
-0.999474, 85, 113, 100, 240
-0.999476, 415, 209, 430, 333
-0.999476, 85, 49, 116, 176
-0.999478, 1, 1, 500, 64
-0.999478, 163, 161, 178, 288
-0.999482, 141, 81, 156, 208
-0.999485, 55, 177, 70, 304
-0.999486, 481, 193, 496, 320
-0.999487, 67, 97, 82, 224
-0.999489, 169, 1, 184, 128
-0.999492, 227, 193, 242, 320
-0.999493, 49, 81, 64, 208
-0.999494, 85, 65, 100, 192
-0.999496, 105, 33, 136, 288
-0.999496, 129, 33, 256, 64
-0.999498, 129, 161, 144, 288
-0.999498, 175, 209, 190, 333
-0.999501, 433, 161, 448, 288
-0.999502, 215, 209, 230, 333
-0.999503, 9, 209, 24, 333
-0.999505, 117, 1, 148, 256
-0.99953, 443, 163, 458, 178
-0.99953, 395, 257, 410, 272
-0.99953, 427, 115, 442, 130
-0.999531, 123, 167, 138, 182
-0.999531, 373, 151, 388, 166
-0.999531, 41, 191, 56, 206
-0.999532, 365, 279, 380, 294
-0.999532, 47, 193, 62, 208
-0.999532, 307, 317, 322, 332
-0.999532, 5, 203, 20, 218
-0.999532, 263, 155, 278, 170
-0.999532, 311, 153, 326, 168
-0.999533, 281, 147, 296, 162
-0.999533, 433, 11, 448, 26
-0.999533, 325, 107, 340, 122
-0.999533, 271, 155, 286, 170
-0.999533, 193, 289, 208, 304
-0.999534, 447, 117, 462, 132
-0.999535, 387, 263, 402, 278
-0.999535, 23, 173, 38, 188
-0.999535, 75, 223, 90, 238
-0.999536, 25, 201, 40, 216
-0.999536, 23, 165, 38, 180
-0.999536, 365, 121, 380, 136
-0.999536, 377, 219, 392, 234
-0.999537, 209, 283, 224, 298
-0.999537, 363, 133, 378, 148
-0.999537, 43, 163, 58, 178
-0.999538, 405, 165, 420, 180
-0.999538, 41, 199, 56, 214
-0.999538, 83, 105, 98, 120
-0.999538, 33, 169, 48, 184
-0.999538, 377, 269, 392, 284
-0.999538, 29, 181, 44, 196
-0.999538, 79, 129, 94, 144
-0.999538, 355, 285, 370, 300
-0.999539, 289, 117, 304, 132
-0.999539, 275, 143, 290, 158
-0.999539, 51, 175, 66, 190
-0.99954, 39, 155, 54, 170
-0.99954, 145, 181, 160, 196
-0.99954, 11, 203, 26, 218
-0.99954, 61, 169, 76, 184
-0.99954, 73, 119, 88, 134
-0.999541, 341, 295, 356, 310
-0.999541, 47, 199, 62, 214
-0.999541, 67, 169, 82, 184
-0.999542, 31, 201, 46, 216
-0.999542, 349, 289, 364, 304
-0.999543, 291, 153, 306, 168
-0.999543, 461, 137, 476, 152
-0.999544, 349, 153, 364, 168
-0.999545, 141, 153, 156, 168
-0.999546, 391, 127, 406, 142
-0.999546, 85, 189, 100, 204
-0.999547, 449, 149, 464, 164
-0.999547, 441, 151, 456, 166
-0.999547, 141, 159, 156, 174
-0.999548, 395, 147, 410, 162
-0.999548, 313, 313, 328, 328
-0.999548, 273, 121, 288, 136
-0.999549, 373, 127, 388, 142
-0.99955, 87, 129, 102, 144
-0.99955, 329, 303, 344, 318
-0.99955, 85, 119, 100, 134
-0.999551, 305, 133, 320, 148
-0.999552, 89, 109, 104, 124
-0.999552, 335, 299, 350, 314
-0.999552, 437, 119, 452, 134
-0.999552, 315, 159, 330, 174
-0.999552, 319, 105, 334, 120
-0.999554, 431, 227, 446, 242
-0.999554, 319, 309, 334, 324
-0.999556, 1, 153, 16, 168
-0.999556, 131, 163, 146, 178
-0.999556, 143, 169, 158, 184
-0.999556, 449, 159, 464, 174
-0.999557, 7, 87, 22, 102
-0.999557, 57, 91, 72, 106
-0.999557, 81, 223, 96, 238
-0.999557, 279, 117, 294, 132
-0.999558, 83, 233, 98, 248
-0.999558, 33, 163, 48, 178
-0.999558, 79, 123, 94, 138
-0.999558, 89, 97, 104, 112
-0.999559, 367, 157, 382, 172
-0.999559, 433, 17, 448, 32
-0.999559, 273, 131, 288, 146
-0.99956, 131, 169, 146, 184
-0.999561, 99, 153, 114, 168
-0.999561, 367, 147, 382, 162
-0.999563, 47, 89, 62, 104
-0.999564, 427, 13, 442, 28
-0.999564, 433, 1, 448, 16
-0.999564, 137, 173, 152, 188
-0.999565, 87, 201, 102, 216
-0.999566, 287, 123, 302, 138
-0.999566, 91, 123, 106, 138
-0.999568, 439, 17, 454, 32
-0.999574, 85, 139, 100, 154
-0.999577, 409, 1, 424, 16
-0.999579, 393, 153, 408, 168
-0.999582, 41, 89, 56, 104
-0.999582, 123, 173, 138, 188
-0.999583, 391, 219, 406, 234
-0.999584, 443, 157, 458, 172
-0.999585, 77, 101, 92, 116
-0.999586, 281, 159, 296, 174
-0.999588, 31, 157, 46, 172
-0.999589, 63, 93, 78, 108
-0.99959, 133, 157, 148, 172
-0.999591, 421, 9, 436, 24
-0.999592, 391, 163, 406, 178
-0.999593, 415, 5, 430, 20
-0.999596, 445, 11, 460, 26
-0.999597, 71, 101, 86, 116
-0.9996, 127, 179, 142, 194
-0.999601, 323, 155, 338, 170
-0.999603, 289, 103, 304, 118
-0.999609, 385, 217, 400, 232
-0.99961, 281, 123, 296, 138
-0.99961, 71, 91, 86, 106
-0.99961, 73, 109, 88, 124
-0.999621, 51, 147, 66, 162
-0.999625, 401, 159, 416, 174
-0.999628, 281, 153, 296, 168
-0.999642, 355, 153, 370, 168
-0.999659, 361, 149, 376, 164
-0.999665, 81, 21, 208, 52
-0.999684, 439, 7, 454, 22
-0.999701, 369, 93, 496, 124
-0.99971, 113, 113, 240, 144
-0.999728, 1, 65, 32, 192
-0.999732, 361, 155, 376, 170
-0.99977, 129, 1, 256, 32
-0.999783, 241, 61, 368, 92
-0.999797, 129, 77, 256, 108
-0.999817, 273, 73, 400, 104
-0.999859, 297, 1, 328, 128
-1.00037, 93, 1, 124, 128
-1.00038, 1, 25, 256, 88
-1.00049, 97, 273, 224, 333
-1.00053, 49, 41, 176, 104
-1.00116, 1, 265, 128, 328
-1.00127, 161, 249, 288, 312
-1.00176, 97, 41, 224, 104
-1.00221, 369, 273, 496, 333
-1.00375, 1, 17, 64, 144
-1.00474, 1, 25, 128, 88
-1.00818, 57, 1, 120, 128
