1960
-0.435622, 1, 97, 500, 352
-0.479554, 1, 1, 500, 256
-0.514889, 1, 1, 500, 375
-0.560424, 129, 1, 384, 375
-0.647476, 1, 1, 256, 375
-0.70198, 257, 1, 500, 375
-0.777211, 225, 1, 480, 256
-0.810886, 225, 97, 480, 352
-0.811606, 129, 1, 384, 256
-0.832103, 65, 97, 320, 352
-0.856539, 33, 1, 288, 256
-0.897431, 1, 113, 500, 240
-0.898776, 113, 1, 240, 375
-0.903995, 177, 1, 304, 375
-0.910266, 305, 1, 432, 375
-0.910283, 65, 129, 192, 375
-0.910852, 241, 1, 368, 256
-0.914484, 369, 1, 496, 375
-0.916671, 321, 1, 448, 256
-0.91724, 1, 65, 500, 192
-0.91825, 17, 129, 144, 375
-0.919432, 17, 1, 144, 375
-0.919953, 65, 33, 192, 288
-0.920967, 129, 65, 256, 320
-0.92226, 305, 97, 432, 352
-0.924664, 193, 1, 320, 256
-0.926615, 257, 1, 384, 375
-0.929034, 1, 177, 500, 304
-0.929247, 369, 1, 496, 256
-0.932653, 65, 1, 192, 375
-0.938673, 257, 97, 384, 352
-0.939494, 369, 97, 496, 352
-0.941947, 1, 33, 128, 288
-0.943482, 193, 113, 448, 240
-0.945358, 1, 129, 256, 256
-0.945775, 81, 129, 208, 256
-0.947987, 129, 65, 384, 192
-0.95204, 337, 113, 400, 240
-0.952266, 369, 129, 432, 256
-0.952487, 289, 113, 416, 240
-0.952579, 1, 241, 500, 368
-0.95413, 177, 97, 304, 352
-0.958465, 257, 177, 500, 304
-0.958942, 1, 1, 500, 128
-0.961368, 33, 161, 160, 288
-0.962238, 97, 113, 352, 240
-0.962759, 369, 137, 432, 200
-0.963492, 145, 129, 208, 256
-0.963976, 369, 129, 496, 256
-0.964119, 105, 113, 168, 240
-0.965675, 113, 137, 176, 200
-0.966247, 225, 49, 480, 176
-0.966305, 321, 161, 448, 288
-0.966702, 65, 81, 192, 208
-0.967178, 33, 49, 288, 176
-0.967362, 33, 1, 288, 128
-0.968243, 289, 65, 416, 192
-0.968283, 129, 81, 256, 208
-0.96838, 129, 17, 384, 144
-0.968667, 329, 129, 392, 192
-0.968735, 89, 137, 152, 200
-0.96881, 305, 137, 368, 200
-0.968911, 393, 145, 456, 272
-0.969095, 313, 113, 376, 240
-0.969311, 209, 33, 336, 160
-0.969312, 73, 145, 136, 272
-0.969415, 1, 177, 256, 304
-0.970355, 65, 169, 128, 232
-0.970996, 129, 81, 192, 208
-0.971, 129, 161, 384, 288
-0.971087, 153, 81, 216, 208
-0.971209, 145, 137, 208, 200
-0.971614, 209, 81, 336, 208
-0.971741, 129, 129, 256, 256
-0.971784, 385, 169, 448, 232
-0.971831, 337, 65, 400, 192
-0.971969, 353, 161, 416, 224
-0.972097, 185, 81, 248, 208
-0.972405, 129, 33, 256, 160
-0.972834, 369, 177, 432, 304
-0.973075, 289, 1, 416, 128
-0.973101, 89, 161, 152, 224
-0.973224, 401, 97, 464, 224
-0.973303, 289, 81, 352, 208
-0.97333, 393, 137, 424, 200
-0.973343, 337, 81, 464, 208
-0.973535, 369, 1, 496, 128
-0.973629, 225, 1, 480, 128
-0.974047, 169, 145, 232, 272
-0.974611, 81, 145, 208, 208
-0.974834, 361, 81, 424, 208
-0.975191, 397, 129, 428, 256
-0.975529, 385, 113, 416, 240
-0.975725, 185, 113, 248, 176
-0.976053, 25, 113, 88, 240
-0.97613, 17, 65, 144, 192
-0.976269, 393, 137, 456, 200
-0.976532, 153, 161, 216, 224
-0.976665, 65, 137, 128, 200
-0.976838, 33, 241, 288, 368
-0.976872, 121, 161, 184, 288
-0.977257, 321, 129, 448, 192
-0.977497, 41, 169, 104, 232
-0.977593, 169, 73, 232, 136
-0.977864, 209, 81, 272, 144
-0.97806, 73, 97, 136, 224
-0.978424, 1, 113, 128, 240
-0.978588, 409, 161, 472, 224
-0.97864, 17, 209, 144, 336
-0.978857, 49, 161, 112, 288
-0.978862, 369, 209, 496, 336
-0.978902, 81, 225, 208, 352
-0.979728, 289, 113, 352, 176
-0.979921, 409, 113, 472, 176
-0.979981, 81, 169, 208, 232
-0.980027, 337, 129, 368, 192
-0.980147, 81, 161, 112, 224
-0.980276, 257, 17, 320, 144
-0.980471, 405, 129, 436, 192
-0.980482, 121, 129, 152, 192
-0.98053, 365, 137, 396, 200
-0.980552, 361, 185, 424, 248
-0.980585, 169, 137, 232, 200
-0.980668, 49, 97, 112, 224
-0.9807, 105, 137, 136, 200
-0.981037, 129, 209, 384, 336
-0.981598, 381, 129, 412, 192
-0.981608, 193, 17, 256, 144
-0.981612, 349, 129, 380, 192
-0.981973, 25, 145, 88, 208
-0.98251, 361, 113, 424, 176
-0.982548, 57, 57, 120, 120
-0.982585, 1, 161, 128, 224
-0.982644, 209, 105, 272, 168
-0.982744, 153, 1, 216, 128
-0.982763, 369, 145, 496, 208
-0.982793, 209, 97, 272, 224
-0.982828, 129, 113, 160, 240
-0.982858, 345, 161, 408, 288
-0.98288, 329, 153, 392, 216
-0.983129, 81, 177, 208, 304
-0.983133, 17, 65, 80, 128
-0.983204, 273, 129, 400, 192
-0.983346, 325, 129, 356, 192
-0.983376, 129, 209, 256, 336
-0.983453, 1, 49, 64, 176
-0.983473, 113, 161, 176, 224
-0.98358, 257, 241, 500, 368
-0.983628, 17, 209, 80, 336
-0.983708, 41, 33, 104, 96
-0.983759, 289, 153, 416, 216
-0.983784, 217, 1, 280, 128
-0.983825, 133, 137, 164, 200
-0.983866, 297, 33, 360, 160
-0.983933, 145, 209, 208, 336
-0.984038, 385, 161, 416, 224
-0.984185, 1, 145, 64, 272
-0.984211, 177, 129, 304, 256
-0.984252, 129, 113, 192, 176
-0.984286, 265, 137, 328, 200
-0.984295, 377, 97, 440, 352
-0.984476, 153, 137, 184, 200
-0.98458, 117, 113, 148, 240
-0.984669, 377, 49, 440, 112
-0.984719, 17, 33, 80, 96
-0.984726, 129, 145, 256, 208
-0.984735, 97, 97, 160, 352
-0.984814, 369, 169, 496, 232
-0.984846, 105, 65, 168, 192
-0.984904, 177, 161, 240, 224
-0.984943, 409, 145, 440, 272
-0.985103, 165, 137, 196, 200
-0.985222, 373, 113, 404, 240
-0.985305, 201, 57, 264, 120
-0.985309, 417, 137, 480, 200
-0.985314, 393, 1, 456, 256
-0.985412, 81, 129, 112, 256
-0.985424, 81, 17, 208, 144
-0.985433, 153, 33, 216, 96
-0.985577, 153, 65, 216, 320
-0.985578, 233, 49, 296, 176
-0.985612, 113, 113, 240, 176
-0.985618, 161, 121, 288, 184
-0.985807, 181, 129, 212, 256
-0.985876, 177, 153, 208, 216
-0.985905, 385, 113, 448, 176
-0.985916, 377, 33, 440, 160
-0.985983, 257, 33, 320, 96
-0.986021, 353, 1, 416, 256
-0.986026, 33, 49, 96, 176
-0.986057, 113, 49, 176, 112
-0.986064, 81, 65, 144, 128
-0.986126, 289, 129, 352, 256
-0.986162, 161, 97, 224, 160
-0.986175, 385, 1, 448, 64
-0.986175, 1, 145, 64, 208
-0.986192, 425, 1, 488, 128
-0.986266, 217, 97, 248, 160
-0.986437, 321, 105, 384, 168
-0.986439, 397, 161, 428, 224
-0.986485, 305, 1, 368, 256
-0.986532, 1, 65, 128, 128
-0.986543, 33, 193, 96, 256
-0.986565, 33, 129, 160, 192
-0.986594, 105, 113, 168, 176
-0.986612, 93, 161, 124, 224
-0.986679, 129, 1, 192, 256
-0.986725, 161, 129, 192, 256
-0.986913, 405, 81, 436, 208
-0.986943, 65, 49, 192, 112
-0.986955, 209, 89, 336, 152
-0.986991, 385, 161, 416, 288
-0.987032, 57, 193, 120, 256
-0.987068, 341, 113, 372, 240
-0.9871, 25, 297, 88, 360
-0.987275, 377, 89, 440, 152
-0.987279, 169, 193, 232, 256
-0.987327, 361, 113, 392, 240
-0.987337, 73, 113, 136, 176
-0.987442, 1, 33, 128, 96
-0.987465, 129, 33, 192, 160
-0.987469, 345, 89, 408, 152
-0.987549, 257, 65, 320, 192
-0.987636, 81, 49, 144, 176
-0.987643, 141, 113, 172, 240
-0.98765, 417, 161, 480, 288
-0.987749, 121, 249, 184, 312
-0.987808, 121, 97, 184, 352
-0.987811, 101, 113, 132, 240
-0.987882, 305, 97, 368, 352
-0.987888, 21, 145, 52, 208
-0.988041, 97, 161, 160, 288
-0.988051, 177, 1, 240, 375
-0.988152, 369, 113, 496, 176
-0.988268, 33, 185, 160, 248
-0.988305, 353, 97, 416, 352
-0.988317, 289, 57, 416, 120
-0.988385, 345, 1, 408, 64
-0.988388, 129, 177, 256, 240
-0.988464, 353, 1, 480, 64
-0.988475, 73, 33, 136, 96
-0.98852, 25, 161, 88, 288
-0.988526, 209, 65, 336, 128
-0.988529, 321, 1, 384, 128
-0.988614, 145, 57, 208, 120
-0.988647, 329, 1, 392, 256
-0.988649, 321, 105, 448, 168
-0.988675, 17, 169, 80, 232
-0.988735, 417, 1, 480, 64
-0.988769, 409, 225, 472, 352
-0.988785, 33, 17, 160, 144
-0.988839, 25, 121, 88, 184
-0.988929, 161, 81, 192, 208
-0.988976, 177, 153, 304, 216
-0.989003, 65, 129, 128, 375
-0.989065, 413, 153, 444, 216
-0.989068, 145, 73, 272, 136
-0.989081, 325, 113, 356, 240
-0.989174, 225, 41, 352, 104
-0.989213, 153, 1, 216, 375
-0.98927, 1, 201, 64, 264
-0.98931, 297, 33, 360, 96
-0.989381, 137, 185, 200, 248
-0.989384, 297, 161, 360, 224
-0.989387, 169, 193, 232, 320
-0.989469, 425, 81, 488, 208
-0.989471, 337, 65, 400, 128
-0.989477, 241, 129, 368, 256
-0.989478, 265, 113, 328, 240
-0.989499, 1, 97, 64, 224
-0.989514, 393, 113, 424, 176
-0.98952, 401, 225, 464, 288
-0.989548, 225, 129, 352, 192
-0.989557, 81, 137, 112, 200
-0.989603, 121, 25, 184, 88
-0.989625, 225, 57, 288, 120
-0.989654, 373, 161, 404, 224
-0.989699, 257, 1, 320, 256
-0.989731, 145, 217, 208, 280
-0.989766, 185, 1, 248, 256
-0.989823, 329, 97, 392, 352
-0.989882, 97, 89, 224, 152
-0.989931, 257, 57, 320, 120
-0.989963, 361, 137, 424, 168
-0.989964, 409, 97, 472, 352
-0.989974, 409, 185, 472, 248
-0.990061, 193, 33, 256, 96
-0.990162, 193, 145, 256, 272
-0.99017, 273, 161, 336, 224
-0.990192, 237, 97, 268, 160
-0.990225, 433, 209, 496, 272
-0.990226, 385, 1, 448, 375
-0.990313, 305, 177, 432, 240
-0.99032, 17, 105, 144, 168
-0.990358, 57, 1, 120, 375
-0.990374, 401, 33, 464, 160
-0.990379, 17, 281, 144, 344
-0.990389, 233, 33, 296, 96
-0.990402, 73, 169, 136, 200
-0.990412, 173, 177, 204, 240
-0.990413, 121, 209, 184, 272
-0.990435, 57, 49, 120, 176
-0.990437, 29, 57, 60, 120
-0.990442, 193, 137, 256, 200
-0.99046, 417, 65, 480, 128
-0.99052, 349, 153, 380, 216
-0.990538, 417, 97, 448, 224
-0.990563, 121, 161, 152, 224
-0.990599, 121, 137, 184, 168
-0.990623, 293, 129, 324, 192
-0.990676, 337, 133, 400, 164
-0.990697, 289, 89, 352, 152
-0.990715, 161, 97, 288, 160
-0.990726, 369, 165, 432, 196
-0.99077, 97, 265, 160, 328
-0.990782, 149, 161, 180, 288
-0.99082, 97, 137, 160, 168
-0.990839, 369, 33, 496, 96
-0.990866, 73, 193, 136, 320
-0.990878, 369, 177, 432, 208
-0.990929, 321, 81, 448, 144
-0.990931, 161, 49, 288, 112
-0.990937, 173, 81, 204, 208
-0.990938, 385, 145, 448, 176
-0.990947, 149, 161, 180, 224
-0.990949, 97, 249, 224, 312
-0.990957, 373, 105, 404, 168
-0.990992, 205, 105, 236, 168
-0.990994, 313, 133, 376, 164
-0.991019, 393, 169, 456, 200
-0.991024, 185, 81, 216, 208
-0.991048, 273, 33, 400, 96
-0.991059, 341, 65, 372, 192
-0.991072, 397, 177, 428, 304
-0.991081, 93, 137, 124, 200
-0.991107, 81, 193, 208, 256
-0.991174, 417, 1, 480, 256
-0.991177, 233, 97, 296, 160
-0.991205, 229, 73, 260, 136
-0.991234, 89, 153, 152, 184
-0.991262, 65, 177, 96, 240
-0.991333, 145, 145, 208, 176
-0.991341, 9, 97, 72, 160
-0.991437, 61, 153, 92, 216
-0.991482, 17, 57, 80, 88
-0.991483, 257, 105, 384, 168
-0.991495, 109, 65, 140, 192
-0.99151, 49, 25, 176, 88
-0.99153, 369, 249, 496, 312
-0.991536, 329, 145, 392, 176
-0.991545, 105, 225, 168, 352
-0.991557, 345, 105, 376, 168
-0.991573, 209, 109, 272, 140
-0.991604, 57, 181, 120, 212
-0.991606, 33, 177, 96, 208
-0.991634, 345, 25, 408, 88
-0.991663, 345, 165, 408, 196
-0.991678, 405, 185, 436, 248
-0.991701, 177, 177, 304, 304
-0.991755, 73, 249, 136, 312
-0.991777, 433, 257, 496, 320
-0.991782, 105, 161, 136, 224
-0.991789, 401, 89, 464, 152
-0.991794, 361, 125, 424, 156
-0.991812, 185, 113, 248, 144
-0.99184, 97, 165, 160, 196
-0.991844, 1, 129, 500, 192
-0.991849, 81, 65, 144, 96
-0.991868, 129, 25, 256, 88
-0.991875, 289, 125, 352, 156
-0.991876, 65, 153, 128, 184
-0.991881, 81, 185, 112, 248
-0.991882, 113, 149, 176, 180
-0.991883, 133, 113, 164, 176
-0.99191, 145, 133, 208, 164
-0.991944, 361, 153, 424, 184
-0.992002, 345, 1, 408, 128
-0.992042, 169, 149, 232, 180
-0.992046, 401, 133, 464, 164
-0.992049, 313, 157, 376, 188
-0.99205, 393, 157, 456, 188
-0.992064, 193, 177, 224, 240
-0.992077, 97, 1, 160, 256
-0.992078, 169, 97, 232, 128
-0.992082, 217, 1, 280, 375
-0.992088, 289, 137, 352, 168
-0.992089, 33, 69, 96, 100
-0.992093, 189, 153, 220, 216
-0.992097, 377, 189, 440, 220
-0.992112, 197, 81, 228, 208
-0.992118, 209, 93, 272, 124
-0.992136, 9, 145, 40, 272
-0.992136, 129, 161, 160, 288
-0.992149, 93, 65, 124, 192
-0.992152, 25, 1, 88, 375
-0.992166, 417, 33, 480, 96
-0.992195, 281, 1, 344, 256
-0.992204, 345, 1, 408, 375
-0.992223, 73, 133, 136, 164
-0.992228, 153, 169, 216, 200
-0.992241, 329, 121, 392, 152
-0.992247, 153, 77, 216, 108
-0.992314, 49, 165, 112, 196
-0.992329, 41, 241, 104, 368
-0.992364, 1, 1, 64, 375
-0.992373, 209, 81, 272, 112
-0.992376, 177, 73, 240, 104
-0.99238, 1, 281, 64, 344
-0.992385, 57, 53, 120, 84
-0.992397, 9, 137, 40, 200
-0.992398, 113, 57, 176, 88
-0.992405, 377, 209, 440, 272
-0.992414, 1, 209, 128, 272
-0.992435, 145, 157, 208, 188
-0.992447, 1, 169, 64, 200
-0.992447, 177, 161, 240, 192
-0.992471, 17, 141, 80, 172
-0.99248, 121, 125, 184, 156
-0.992509, 137, 161, 168, 224
-0.992523, 129, 169, 192, 200
-0.99253, 433, 241, 496, 368
-0.992545, 129, 225, 256, 288
-0.992548, 41, 153, 104, 184
-0.992559, 337, 217, 464, 280
-0.992567, 185, 133, 248, 164
-0.992572, 125, 133, 156, 164
-0.992581, 425, 1, 488, 32
-0.992583, 9, 49, 40, 112
-0.992586, 69, 49, 100, 112
-0.992618, 25, 165, 88, 196
-0.992621, 417, 165, 480, 196
-0.992624, 385, 25, 448, 88
-0.992629, 409, 145, 472, 176
-0.992632, 257, 33, 320, 64
-0.992633, 85, 165, 116, 196
-0.992633, 297, 169, 360, 200
-0.992637, 57, 65, 120, 96
-0.992641, 1, 69, 64, 100
-0.992662, 81, 53, 144, 84
-0.992664, 217, 109, 248, 140
-0.992668, 361, 113, 392, 176
-0.992676, 49, 217, 176, 280
-0.99268, 177, 129, 208, 192
-0.992683, 353, 53, 416, 84
-0.992685, 361, 65, 392, 192
-0.992695, 409, 181, 472, 212
-0.992698, 177, 173, 240, 204
-0.9927, 393, 137, 424, 168
-0.992702, 289, 9, 416, 72
-0.992714, 409, 105, 472, 136
-0.992717, 97, 125, 160, 156
-0.992718, 313, 121, 344, 184
-0.992738, 373, 133, 404, 164
-0.992744, 153, 185, 216, 216
-0.992773, 65, 281, 128, 344
-0.992774, 357, 141, 388, 172
-0.992781, 9, 293, 72, 324
-0.992784, 57, 193, 120, 224
-0.992794, 401, 13, 464, 44
-0.992797, 321, 1, 384, 375
-0.992808, 321, 209, 448, 336
-0.992808, 33, 241, 160, 304
-0.992809, 289, 29, 352, 60
-0.992813, 305, 65, 368, 128
-0.992828, 17, 197, 80, 228
-0.99285, 1, 157, 64, 188
-0.992859, 345, 133, 376, 164
-0.992875, 209, 121, 272, 152
-0.992881, 105, 149, 136, 180
-0.992882, 421, 145, 452, 272
-0.992885, 393, 65, 424, 192
-0.992887, 177, 61, 240, 92
-0.992888, 145, 93, 208, 124
-0.992893, 33, 105, 96, 136
-0.992894, 97, 165, 128, 196
-0.9929, 377, 1, 440, 32
-0.992914, 89, 89, 152, 152
-0.992918, 345, 177, 408, 208
-0.992919, 349, 153, 380, 184
-0.992927, 425, 93, 488, 124
-0.992927, 113, 85, 176, 116
-0.992928, 425, 1, 488, 375
-0.992932, 93, 153, 124, 184
-0.992933, 1, 145, 256, 208
-0.992933, 309, 97, 340, 224
-0.992946, 77, 177, 108, 208
-0.992952, 333, 137, 364, 168
-0.992953, 113, 261, 176, 292
-0.992954, 409, 121, 472, 152
-0.992963, 81, 181, 144, 212
-0.992966, 373, 157, 404, 188
-0.99297, 249, 1, 312, 375
-0.992976, 177, 173, 208, 204
-0.992983, 237, 109, 268, 140
-0.992984, 137, 249, 200, 280
-0.992992, 433, 21, 496, 52
-0.992994, 225, 69, 288, 100
-0.992998, 337, 69, 400, 100
-0.993, 257, 49, 320, 80
-0.993008, 345, 5, 408, 36
-0.99301, 265, 137, 328, 168
-0.993019, 197, 81, 228, 144
-0.993021, 417, 257, 480, 288
-0.993022, 129, 69, 192, 100
-0.993023, 357, 129, 388, 160
-0.993031, 113, 1, 176, 375
-0.993034, 381, 169, 412, 200
-0.993036, 257, 65, 320, 96
-0.993036, 137, 209, 200, 240
-0.993037, 137, 137, 168, 168
-0.993039, 137, 37, 200, 68
-0.993044, 417, 217, 480, 248
-0.993046, 433, 269, 496, 300
-0.993048, 193, 145, 256, 176
-0.993051, 297, 137, 328, 168
-0.993064, 29, 121, 60, 184
-0.993065, 65, 177, 96, 208
-0.993075, 369, 65, 432, 96
-0.993076, 173, 145, 204, 176
-0.993079, 245, 41, 276, 104
-0.993079, 417, 121, 448, 184
-0.993087, 385, 121, 448, 152
-0.99309, 241, 153, 368, 216
-0.993091, 225, 29, 288, 60
-0.993098, 413, 169, 444, 200
-0.993106, 93, 141, 124, 172
-0.993108, 185, 85, 248, 116
-0.993109, 289, 9, 352, 72
-0.993114, 73, 161, 104, 192
-0.993118, 113, 129, 144, 160
-0.99312, 25, 281, 88, 312
-0.993123, 393, 169, 424, 200
-0.993123, 209, 17, 336, 80
-0.993124, 121, 233, 184, 264
-0.993126, 49, 57, 80, 120
-0.993127, 405, 141, 436, 172
-0.993133, 385, 225, 448, 256
-0.993142, 297, 41, 360, 72
-0.993143, 57, 101, 120, 132
-0.993144, 145, 241, 208, 304
-0.993148, 385, 93, 448, 124
-0.993148, 289, 149, 352, 180
-0.993153, 177, 193, 240, 224
-0.993154, 117, 145, 148, 176
-0.993156, 321, 169, 384, 200
-0.993161, 337, 153, 368, 184
-0.993162, 217, 121, 248, 152
-0.993165, 129, 165, 160, 196
-0.993165, 121, 105, 152, 168
-0.993168, 369, 193, 496, 256
-0.993169, 9, 185, 72, 216
-0.99317, 149, 137, 180, 168
-0.99318, 73, 121, 136, 152
-0.993182, 153, 197, 216, 228
-0.993186, 393, 125, 424, 156
-0.993189, 401, 1, 464, 32
-0.99319, 401, 157, 432, 188
-0.993199, 37, 65, 68, 96
-0.9932, 373, 145, 404, 176
-0.993213, 361, 205, 424, 236
-0.993216, 161, 233, 224, 264
-0.993218, 233, 41, 296, 72
-0.993222, 25, 53, 56, 84
-0.993224, 65, 205, 128, 236
-0.993227, 353, 85, 416, 116
-0.993228, 73, 33, 136, 288
-0.993231, 217, 97, 248, 128
-0.993233, 209, 49, 272, 80
-0.993238, 25, 145, 56, 176
-0.993239, 361, 21, 424, 52
-0.993239, 57, 289, 120, 320
-0.993243, 361, 153, 392, 184
-0.993245, 41, 205, 104, 236
-0.993247, 409, 205, 472, 236
-0.993252, 25, 93, 88, 124
-0.993254, 141, 125, 172, 156
-0.993255, 257, 77, 320, 108
-0.993261, 9, 45, 72, 76
-0.993265, 5, 57, 36, 88
-0.993266, 117, 165, 148, 196
-0.993266, 141, 165, 172, 196
-0.993268, 161, 141, 192, 172
-0.993274, 205, 113, 236, 144
-0.993284, 65, 161, 96, 288
-0.993285, 101, 129, 132, 160
-0.993285, 213, 73, 244, 136
-0.993291, 349, 165, 380, 196
-0.993295, 197, 97, 228, 128
-0.993297, 81, 137, 112, 168
-0.993298, 361, 165, 392, 196
-0.993298, 65, 53, 96, 84
-0.993307, 241, 73, 272, 104
-0.993313, 177, 185, 304, 248
-0.993317, 193, 161, 224, 192
-0.993321, 317, 125, 348, 156
-0.993321, 61, 157, 92, 188
-0.993326, 165, 169, 196, 200
-0.99333, 73, 189, 104, 220
-0.993334, 417, 137, 448, 168
-0.993336, 105, 65, 136, 96
-0.993337, 321, 137, 352, 168
-0.993347, 305, 125, 336, 156
-0.993351, 401, 181, 432, 212
-0.993352, 49, 65, 80, 96
-0.993357, 13, 149, 44, 180
-0.993361, 177, 185, 208, 216
-0.993369, 1, 313, 64, 375
-0.99337, 5, 165, 36, 196
-0.993373, 141, 153, 172, 184
-0.993377, 373, 81, 404, 112
-0.993383, 369, 121, 400, 152
-0.993387, 21, 69, 52, 100
-0.993395, 129, 153, 160, 184
-0.993396, 85, 53, 116, 84
-0.993397, 81, 149, 112, 180
-0.9934, 325, 149, 356, 180
-0.993401, 301, 165, 332, 196
-0.993413, 93, 177, 124, 208
-0.993415, 89, 65, 120, 96
-0.993418, 197, 181, 228, 212
-0.993424, 433, 97, 496, 352
-0.993424, 45, 53, 76, 84
-0.993425, 285, 141, 316, 172
-0.993429, 9, 93, 40, 124
-0.99343, 229, 77, 260, 108
-0.993445, 105, 113, 136, 176
-0.993446, 61, 69, 92, 100
-0.993447, 381, 121, 412, 152
-0.993448, 177, 161, 208, 192
-0.99345, 413, 153, 444, 184
-0.993454, 49, 33, 80, 96
-0.993454, 405, 129, 436, 160
-0.993456, 389, 149, 420, 180
-0.993456, 305, 145, 336, 208
-0.993456, 357, 45, 388, 76
-0.993459, 129, 121, 160, 152
-0.993461, 177, 77, 208, 108
-0.993463, 153, 165, 184, 196
-0.993468, 61, 189, 92, 220
-0.993474, 389, 181, 420, 212
-0.993478, 209, 81, 240, 112
-0.993479, 233, 89, 264, 120
-0.993483, 297, 149, 328, 180
-0.993485, 73, 69, 104, 100
-0.993486, 337, 121, 368, 152
-0.993492, 177, 133, 208, 164
-0.993495, 385, 73, 416, 104
-0.993496, 409, 1, 440, 32
-0.993503, 413, 181, 444, 212
-0.99351, 421, 97, 452, 128
-0.993513, 145, 37, 176, 68
-0.993515, 249, 61, 280, 92
-0.993518, 165, 129, 196, 160
-0.993518, 153, 177, 184, 208
-0.993521, 13, 65, 44, 192
-0.993522, 85, 189, 116, 220
-0.993522, 133, 45, 164, 76
-0.993523, 369, 177, 400, 208
-0.993524, 29, 133, 60, 164
-0.993527, 137, 65, 168, 192
-0.993531, 189, 81, 220, 112
-0.993532, 349, 65, 380, 96
-0.993534, 181, 1, 212, 128
-0.993539, 105, 53, 136, 84
-0.993541, 105, 181, 136, 212
-0.993542, 253, 29, 284, 60
-0.993546, 285, 25, 316, 56
-0.993551, 237, 121, 268, 152
-0.993552, 397, 85, 428, 116
-0.993553, 281, 129, 312, 160
-0.993558, 445, 105, 476, 136
-0.993564, 133, 177, 164, 208
-0.993566, 461, 13, 492, 44
-0.993567, 161, 85, 192, 116
-0.993567, 69, 145, 100, 176
-0.993569, 117, 57, 148, 88
-0.99357, 109, 117, 140, 148
-0.993588, 197, 129, 228, 192
-0.993644, 257, 1, 320, 64
-0.993645, 85, 177, 116, 304
-0.993679, 89, 113, 120, 176
-0.993694, 25, 217, 88, 280
-0.993706, 257, 129, 500, 192
-0.993709, 433, 113, 496, 176
-0.993717, 337, 57, 464, 120
-0.993717, 73, 241, 136, 368
-0.993719, 81, 81, 112, 208
-0.993728, 25, 65, 56, 192
-0.993733, 1, 305, 128, 368
-0.993739, 65, 25, 96, 88
-0.99375, 89, 41, 120, 104
-0.99377, 49, 113, 112, 176
-0.993842, 233, 33, 264, 160
-0.993948, 25, 1, 88, 128
-0.99395, 65, 65, 96, 192
-0.993951, 97, 137, 352, 200
-0.993994, 217, 129, 280, 192
-0.994019, 329, 177, 392, 240
-0.99409, 361, 161, 392, 224
-0.994096, 117, 161, 148, 288
-0.994098, 297, 81, 328, 208
-0.994103, 181, 177, 212, 304
-0.994105, 65, 273, 192, 336
-0.994122, 369, 89, 496, 152
-0.994131, 297, 1, 360, 375
-0.994138, 137, 89, 200, 152
-0.994145, 265, 105, 328, 168
-0.994165, 9, 161, 40, 224
-0.994232, 365, 81, 396, 144
-0.994237, 193, 33, 224, 160
-0.994248, 193, 161, 224, 288
-0.994272, 381, 49, 412, 112
-0.99428, 411, 137, 426, 200
-0.994287, 321, 9, 384, 72
-0.994291, 229, 81, 260, 208
-0.994339, 337, 153, 368, 216
-0.994343, 169, 217, 232, 280
-0.994351, 129, 113, 384, 176
-0.994407, 413, 97, 444, 160
-0.994408, 409, 249, 472, 312
-0.994417, 253, 33, 284, 160
-0.99443, 113, 49, 240, 112
-0.994458, 385, 89, 416, 152
-0.994469, 157, 105, 188, 168
-0.994478, 1, 177, 256, 240
-0.994531, 1, 1, 64, 128
-0.994564, 161, 169, 192, 232
-0.994586, 225, 121, 256, 184
-0.994614, 85, 65, 116, 128
-0.994619, 413, 225, 444, 288
-0.994649, 121, 65, 152, 192
-0.994673, 89, 1, 152, 375
-0.994677, 389, 1, 420, 64
-0.994701, 21, 145, 52, 272
-0.994715, 225, 1, 288, 256
-0.994765, 433, 1, 464, 128
-0.994769, 265, 81, 328, 144
-0.994816, 209, 97, 240, 224
-0.994852, 325, 105, 356, 168
-0.994933, 41, 273, 104, 336
-0.99497, 425, 49, 456, 176
-0.994973, 185, 65, 216, 128
-0.995008, 233, 9, 296, 72
-0.995086, 185, 97, 248, 352
-0.995115, 97, 145, 224, 176
-0.99512, 293, 129, 324, 256
-0.995126, 399, 137, 414, 200
-0.995137, 321, 33, 384, 96
-0.99514, 97, 241, 160, 304
-0.995143, 193, 89, 448, 152
-0.995152, 33, 129, 96, 375
-0.99516, 321, 65, 352, 192
-0.995162, 131, 129, 146, 192
-0.99517, 425, 153, 456, 216
-0.995172, 205, 161, 236, 224
-0.995184, 273, 1, 336, 375
-0.995217, 193, 65, 448, 128
-0.995247, 365, 129, 380, 192
-0.995265, 49, 33, 112, 288
-0.995306, 341, 129, 356, 192
-0.995307, 109, 137, 124, 200
-0.995323, 105, 65, 136, 128
-0.995334, 177, 209, 304, 272
-0.995398, 321, 33, 448, 96
-0.995398, 187, 177, 202, 240
-0.995409, 151, 137, 166, 200
-0.995435, 417, 1, 448, 64
-0.995451, 321, 145, 448, 176
-0.995483, 433, 89, 496, 152
-0.995485, 373, 161, 404, 288
-0.995518, 89, 185, 152, 248
-0.995526, 123, 129, 138, 192
-0.995532, 85, 161, 100, 224
-0.995536, 1, 233, 64, 296
-0.995538, 33, 177, 64, 240
-0.995572, 249, 65, 280, 128
-0.995582, 369, 57, 400, 120
-0.995591, 321, 133, 448, 164
-0.995662, 1, 121, 64, 184
-0.995665, 241, 81, 272, 208
-0.995675, 225, 153, 480, 216
-0.995697, 433, 177, 496, 240
-0.99572, 347, 129, 362, 192
-0.995782, 49, 73, 176, 136
-0.995802, 405, 137, 420, 200
-0.995824, 407, 169, 422, 232
-0.995825, 129, 201, 256, 264
-0.995836, 33, 57, 288, 120
-0.995924, 37, 33, 68, 96
-0.995925, 57, 113, 88, 240
-0.995941, 193, 177, 208, 240
-0.995947, 89, 217, 152, 280
-0.995949, 387, 129, 402, 192
-0.995954, 257, 185, 500, 248
-0.995973, 233, 97, 296, 224
-0.995974, 381, 185, 412, 248
-0.995981, 1, 153, 500, 216
-0.996029, 393, 161, 408, 224
-0.996047, 179, 145, 194, 208
-0.996053, 103, 145, 118, 208
-0.996058, 161, 9, 224, 72
-0.996082, 137, 129, 152, 192
-0.996102, 193, 41, 448, 104
-0.996104, 381, 65, 412, 192
-0.996114, 353, 129, 368, 192
-0.996121, 65, 173, 192, 204
-0.996151, 33, 113, 288, 176
-0.996158, 165, 209, 196, 336
-0.99616, 79, 177, 94, 240
-0.996164, 221, 33, 252, 160
-0.996166, 201, 57, 232, 120
-0.996174, 93, 161, 108, 224
-0.996177, 285, 17, 316, 80
-0.996212, 371, 129, 386, 192
-0.996216, 49, 1, 176, 64
-0.996216, 97, 133, 224, 164
-0.996229, 161, 137, 176, 200
-0.996251, 109, 41, 140, 104
-0.996265, 171, 137, 186, 200
-0.996273, 301, 137, 316, 200
-0.996297, 369, 273, 496, 336
-0.996299, 281, 137, 312, 200
-0.996308, 417, 145, 432, 208
-0.99631, 469, 193, 500, 320
-0.996314, 265, 41, 296, 104
-0.996346, 105, 1, 168, 128
-0.99635, 191, 153, 206, 216
-0.996353, 337, 157, 464, 188
-0.996361, 449, 81, 480, 208
-0.996365, 289, 201, 416, 264
-0.996411, 289, 157, 416, 188
-0.996418, 387, 161, 402, 224
-0.996431, 393, 129, 408, 192
-0.996443, 301, 105, 332, 168
-0.996445, 181, 169, 196, 232
-0.996447, 145, 137, 160, 200
-0.996454, 1, 105, 500, 168
-0.996467, 17, 73, 48, 136
-0.99647, 41, 49, 72, 176
-0.996476, 359, 121, 374, 184
-0.996481, 117, 137, 132, 200
-0.996481, 65, 1, 128, 128
-0.996507, 185, 137, 200, 200
-0.996517, 173, 209, 204, 272
-0.996524, 1, 169, 128, 200
-0.996537, 1, 201, 256, 264
-0.996543, 97, 157, 224, 188
-0.996561, 25, 33, 88, 288
-0.99657, 45, 161, 76, 224
-0.996577, 345, 57, 376, 120
-0.996586, 1, 225, 32, 352
-0.996586, 65, 81, 320, 144
-0.996595, 369, 145, 496, 176
-0.996602, 381, 129, 396, 192
-0.996603, 209, 161, 272, 224
-0.996609, 257, 81, 384, 144
-0.996616, 217, 97, 232, 160
-0.996624, 239, 81, 254, 144
-0.996639, 129, 57, 160, 120
-0.996641, 305, 33, 336, 160
-0.996645, 237, 105, 252, 168
-0.996648, 401, 169, 416, 232
-0.996653, 145, 89, 272, 120
-0.99666, 369, 185, 400, 248
-0.996668, 49, 217, 112, 280
-0.996677, 33, 145, 64, 272
-0.996709, 429, 97, 460, 224
-0.996725, 25, 145, 40, 208
-0.996749, 65, 25, 320, 88
-0.996756, 273, 141, 400, 172
-0.996756, 313, 161, 376, 288
-0.996803, 157, 161, 172, 224
-0.996818, 415, 169, 430, 232
-0.996824, 381, 153, 396, 216
-0.996831, 281, 97, 344, 352
-0.996841, 145, 73, 272, 104
-0.996847, 97, 25, 160, 88
-0.99685, 295, 137, 310, 200
-0.996865, 87, 137, 102, 200
-0.996869, 49, 249, 112, 312
-0.99689, 49, 89, 112, 152
-0.996903, 229, 97, 244, 160
-0.996924, 49, 161, 176, 192
-0.996928, 73, 177, 88, 240
-0.996959, 353, 173, 480, 204
-0.996964, 121, 257, 152, 320
-0.997009, 209, 61, 336, 92
-0.997012, 145, 33, 176, 96
-0.997013, 53, 49, 84, 176
-0.997021, 17, 149, 144, 180
-0.997039, 129, 161, 384, 224
-0.997045, 285, 1, 316, 128
-0.99706, 397, 209, 428, 272
-0.99706, 153, 241, 184, 304
-0.99706, 161, 1, 288, 64
-0.997069, 209, 77, 336, 108
-0.997079, 1, 257, 64, 320
-0.997082, 421, 177, 452, 240
-0.997091, 151, 161, 166, 224
-0.997093, 359, 145, 374, 208
-0.997096, 335, 129, 350, 192
-0.997099, 49, 185, 176, 216
-0.997109, 9, 113, 40, 176
-0.997109, 69, 113, 100, 240
-0.997115, 17, 53, 144, 84
-0.99712, 73, 73, 104, 136
-0.997126, 23, 65, 38, 128
-0.997132, 245, 105, 260, 168
-0.997136, 217, 145, 248, 208
-0.997152, 307, 129, 322, 192
-0.997156, 421, 1, 452, 128
-0.997164, 149, 65, 180, 192
-0.997189, 407, 105, 422, 168
-0.997192, 201, 33, 232, 96
-0.997196, 293, 161, 324, 224
-0.997225, 25, 209, 56, 272
-0.997252, 429, 121, 460, 184
-0.997254, 65, 61, 192, 92
-0.997271, 281, 57, 344, 120
-0.997273, 405, 1, 436, 64
-0.997274, 423, 145, 438, 208
-0.997277, 113, 169, 240, 200
-0.997285, 21, 185, 52, 248
-0.997292, 113, 113, 128, 176
-0.997294, 1, 201, 500, 264
-0.997294, 245, 73, 260, 136
-0.997294, 73, 145, 88, 208
-0.997298, 257, 225, 500, 288
-0.9973, 361, 1, 392, 64
-0.997306, 425, 233, 456, 296
-0.997323, 225, 17, 480, 80
-0.997326, 169, 105, 200, 168
-0.997332, 25, 249, 88, 312
-0.997333, 373, 1, 404, 128
-0.997368, 305, 41, 336, 104
-0.997376, 1, 65, 128, 96
-0.997376, 465, 177, 496, 240
-0.997377, 369, 133, 496, 164
-0.997387, 207, 81, 222, 144
-0.997397, 1, 281, 256, 344
-0.9974, 127, 161, 142, 224
-0.997402, 143, 161, 158, 224
-0.997403, 419, 121, 434, 184
-0.997408, 199, 161, 214, 224
-0.997411, 97, 185, 224, 216
-0.997412, 453, 25, 484, 88
-0.99742, 337, 121, 464, 152
-0.997422, 145, 249, 272, 312
-0.997451, 77, 25, 108, 88
-0.997457, 65, 33, 80, 96
-0.997466, 1, 9, 128, 72
-0.997469, 369, 161, 384, 224
-0.997474, 119, 105, 134, 168
-0.997477, 113, 53, 240, 84
-0.997481, 137, 153, 152, 216
-0.997497, 29, 73, 44, 136
-0.997503, 165, 25, 196, 88
-0.997503, 1, 185, 128, 216
-0.997507, 95, 137, 110, 200
-0.997521, 257, 129, 384, 160
-0.997523, 371, 169, 386, 200
-0.997527, 145, 113, 176, 176
-0.997538, 223, 81, 238, 144
-0.997553, 397, 97, 428, 352
-0.997557, 329, 129, 344, 192
-0.997558, 79, 153, 94, 216
-0.997562, 145, 125, 272, 156
-0.997567, 353, 153, 368, 216
-0.99757, 413, 193, 444, 320
-0.99759, 383, 133, 398, 164
-0.9976, 99, 169, 114, 232
-0.997604, 25, 97, 56, 160
-0.997604, 369, 1, 496, 32
-0.997611, 31, 49, 46, 112
-0.997612, 251, 97, 266, 160
-0.997636, 133, 133, 148, 164
-0.997636, 421, 1, 436, 64
-0.997642, 157, 201, 188, 264
-0.997644, 93, 185, 124, 248
-0.997646, 53, 201, 84, 264
-0.997658, 101, 121, 116, 184
-0.997658, 257, 33, 384, 64
-0.997663, 375, 153, 390, 216
-0.997668, 185, 97, 216, 160
-0.997674, 209, 89, 336, 120
-0.997701, 419, 97, 434, 160
-0.997704, 217, 73, 232, 136
-0.997706, 209, 145, 336, 176
-0.997735, 193, 185, 256, 248
-0.997757, 401, 113, 416, 176
-0.997766, 105, 157, 120, 188
-0.997766, 73, 33, 88, 96
-0.997782, 49, 129, 176, 160
-0.997785, 421, 169, 436, 232
-0.997799, 433, 177, 464, 304
-0.9978, 81, 41, 96, 104
-0.9978, 239, 109, 254, 140
-0.997807, 413, 169, 428, 200
-0.997814, 17, 289, 48, 352
-0.997824, 81, 169, 96, 200
-0.997832, 425, 225, 456, 352
-0.997837, 191, 177, 206, 208
-0.997848, 389, 49, 404, 112
-0.997848, 173, 161, 188, 224
-0.997851, 415, 133, 430, 164
-0.997856, 49, 313, 176, 375
-0.997856, 109, 141, 124, 172
-0.997858, 211, 113, 226, 176
-0.997859, 393, 65, 424, 128
-0.997863, 31, 113, 46, 176
-0.997864, 121, 161, 136, 224
-0.997868, 87, 165, 102, 196
-0.997868, 129, 41, 256, 72
-0.997871, 161, 149, 288, 180
-0.997884, 31, 137, 46, 200
-0.997891, 289, 169, 416, 200
-0.997893, 341, 105, 356, 168
-0.997894, 105, 169, 120, 232
-0.997907, 97, 249, 352, 312
-0.997909, 163, 161, 178, 224
-0.997911, 145, 113, 160, 176
-0.997918, 261, 25, 276, 88
-0.997923, 219, 109, 234, 140
-0.997923, 385, 225, 448, 352
-0.997926, 433, 233, 496, 296
-0.997929, 289, 65, 416, 96
-0.997931, 191, 165, 206, 196
-0.997936, 387, 105, 402, 168
-0.997944, 161, 137, 288, 168
-0.997948, 101, 145, 116, 176
-0.997956, 343, 153, 358, 216
-0.997957, 59, 25, 74, 88
-0.997958, 1, 33, 500, 96
-0.997961, 113, 101, 240, 132
-0.997962, 1, 57, 500, 120
-0.997963, 363, 137, 378, 168
-0.997972, 109, 209, 140, 336
-0.997974, 81, 129, 112, 375
-0.997976, 407, 177, 422, 208
-0.997977, 43, 41, 58, 104
-0.997978, 129, 105, 144, 168
-0.997979, 409, 133, 424, 164
-0.997983, 241, 49, 368, 80
-0.997986, 77, 65, 92, 128
-0.997989, 85, 65, 100, 128
-0.99801, 229, 73, 244, 136
-0.998015, 67, 57, 82, 120
-0.998015, 137, 105, 152, 168
-0.998023, 199, 185, 214, 248
-0.998024, 209, 33, 336, 64
-0.998025, 161, 169, 288, 200
-0.998033, 373, 105, 388, 168
-0.998035, 143, 137, 158, 168
-0.998036, 357, 133, 372, 164
-0.998039, 93, 165, 108, 196
-0.99804, 225, 101, 352, 132
-0.998042, 399, 133, 414, 164
-0.998043, 161, 29, 288, 60
-0.998046, 113, 153, 128, 184
-0.99805, 59, 65, 74, 128
-0.998056, 209, 145, 240, 272
-0.998057, 249, 113, 264, 144
-0.99806, 229, 109, 244, 140
-0.998077, 109, 65, 124, 128
-0.998092, 209, 49, 240, 176
-0.998093, 339, 137, 354, 168
-0.998093, 129, 97, 160, 352
-0.998094, 81, 181, 96, 212
-0.998095, 397, 1, 428, 256
-0.998095, 223, 121, 238, 184
-0.998096, 25, 209, 56, 336
-0.998099, 289, 45, 416, 76
-0.998101, 217, 121, 232, 184
-0.998106, 193, 45, 320, 76
-0.998114, 263, 57, 278, 120
-0.998119, 251, 65, 266, 128
-0.998134, 1, 173, 16, 204
-0.99814, 309, 105, 324, 168
-0.998141, 113, 113, 240, 144
-0.998146, 393, 105, 408, 168
-0.998155, 255, 41, 270, 104
-0.998155, 127, 129, 142, 160
-0.998156, 29, 141, 44, 172
-0.998163, 93, 225, 124, 352
-0.998164, 317, 121, 332, 184
-0.998167, 161, 57, 288, 88
-0.99817, 413, 1, 444, 256
-0.99817, 51, 57, 66, 120
-0.998171, 377, 57, 392, 120
-0.998171, 377, 177, 392, 240
-0.998174, 297, 141, 312, 172
-0.998183, 115, 161, 130, 224
-0.998187, 363, 97, 378, 160
-0.998188, 349, 137, 364, 168
-0.998189, 305, 273, 432, 336
-0.998191, 19, 145, 34, 208
-0.998191, 45, 177, 60, 240
-0.9982, 65, 237, 192, 268
-0.998204, 11, 161, 26, 224
-0.998205, 149, 173, 164, 204
-0.998207, 469, 1, 500, 128
-0.998209, 373, 137, 388, 168
-0.998211, 413, 113, 428, 176
-0.998215, 411, 145, 426, 176
-0.998216, 389, 133, 404, 164
-0.998227, 387, 161, 402, 192
-0.998228, 17, 57, 32, 120
-0.998232, 289, 81, 416, 112
-0.998237, 105, 161, 136, 288
-0.998238, 183, 173, 198, 204
-0.998244, 361, 57, 376, 120
-0.998246, 65, 37, 192, 68
-0.998247, 225, 113, 352, 144
-0.998247, 349, 1, 380, 256
-0.998251, 369, 185, 496, 216
-0.998254, 159, 169, 174, 200
-0.998254, 1, 1, 32, 128
-0.998257, 1, 177, 500, 240
-0.998262, 363, 149, 378, 180
-0.998274, 369, 1, 400, 256
-0.998275, 111, 165, 126, 196
-0.998279, 393, 155, 424, 170
-0.99828, 133, 57, 164, 72
-0.998281, 1, 137, 128, 168
-0.998282, 13, 185, 44, 200
-0.998282, 117, 111, 148, 126
-0.998283, 101, 135, 132, 150
-0.998283, 81, 143, 112, 158
-0.998284, 113, 131, 144, 146
-0.998284, 53, 69, 84, 84
-0.998284, 449, 103, 480, 118
-0.998285, 173, 183, 204, 198
-0.998285, 389, 83, 420, 98
-0.998286, 381, 177, 412, 192
-0.998286, 237, 125, 268, 140
-0.998289, 165, 141, 196, 156
-0.99829, 333, 145, 364, 160
-0.998291, 205, 79, 236, 94
-0.998291, 149, 135, 180, 150
-0.998292, 193, 175, 224, 190
-0.998293, 181, 169, 212, 184
-0.998294, 197, 85, 228, 100
-0.998294, 185, 91, 216, 106
-0.998295, 409, 155, 440, 170
-0.998296, 245, 69, 276, 84
-0.998296, 369, 157, 400, 172
-0.998296, 325, 139, 356, 154
-0.998297, 377, 81, 408, 96
-0.998297, 13, 97, 44, 112
-0.998297, 77, 195, 108, 210
-0.998298, 233, 107, 264, 122
-0.998299, 237, 119, 268, 134
-0.998299, 385, 75, 416, 90
-0.998299, 73, 159, 104, 174
-0.998299, 305, 169, 336, 184
-0.9983, 381, 129, 412, 144
-0.998303, 301, 181, 332, 196
-0.998304, 417, 179, 448, 194
-0.998304, 217, 105, 248, 120
-0.998306, 25, 151, 56, 166
-0.998307, 401, 181, 432, 196
-0.998307, 417, 133, 448, 148
-0.99831, 341, 157, 372, 172
-0.99831, 173, 149, 204, 164
-0.998311, 105, 175, 136, 190
-0.998312, 329, 159, 360, 174
-0.998312, 349, 171, 380, 186
-0.998312, 133, 177, 164, 192
-0.998314, 353, 163, 384, 178
-0.998314, 201, 181, 232, 196
-0.998314, 381, 183, 412, 198
-0.998314, 1, 59, 32, 74
-0.998315, 1, 201, 128, 232
-0.998315, 109, 65, 140, 80
-0.998318, 303, 137, 318, 168
-0.998318, 293, 147, 324, 162
-0.998318, 177, 79, 208, 94
-0.99832, 85, 67, 116, 82
-0.998321, 317, 133, 348, 148
-0.998321, 337, 151, 368, 166
-0.998321, 369, 269, 496, 300
-0.998321, 201, 119, 232, 134
-0.998323, 185, 181, 216, 196
-0.998323, 403, 165, 418, 196
-0.998323, 9, 167, 40, 182
-0.998323, 237, 81, 268, 96
-0.998324, 365, 127, 396, 142
-0.998324, 225, 123, 256, 138
-0.998324, 65, 171, 96, 186
-0.998324, 369, 151, 400, 166
-0.998326, 1, 187, 32, 202
-0.998326, 349, 153, 364, 184
-0.998327, 97, 89, 224, 120
-0.998327, 141, 167, 172, 182
-0.998328, 29, 65, 60, 80
-0.998329, 273, 21, 400, 52
-0.998329, 13, 151, 44, 166
-0.99833, 109, 153, 140, 168
-0.998333, 85, 135, 116, 150
-0.998333, 137, 133, 168, 148
-0.998333, 21, 59, 52, 74
-0.998335, 65, 179, 96, 194
-0.998337, 93, 173, 124, 188
-0.99834, 65, 187, 96, 202
-0.998341, 409, 147, 440, 162
-0.998342, 23, 141, 38, 172
-0.998342, 201, 113, 232, 128
-0.998343, 357, 153, 372, 184
-0.998351, 165, 173, 196, 188
-0.998353, 9, 67, 40, 82
-0.998353, 361, 169, 392, 184
-0.998354, 77, 165, 108, 180
-0.998355, 125, 169, 156, 184
-0.998357, 129, 217, 384, 280
-0.998358, 77, 183, 108, 198
-0.998358, 353, 149, 384, 164
-0.998358, 273, 177, 400, 304
-0.998358, 381, 171, 412, 186
-0.998359, 13, 145, 44, 160
-0.998359, 93, 151, 124, 166
-0.99836, 93, 161, 124, 176
-0.998361, 297, 135, 328, 150
-0.998362, 241, 75, 272, 90
-0.998363, 341, 163, 372, 178
-0.998365, 153, 1, 184, 128
-0.998367, 353, 155, 384, 170
-0.998367, 41, 241, 72, 368
-0.998368, 117, 145, 148, 160
-0.99837, 125, 133, 156, 148
-0.998371, 397, 165, 428, 180
-0.998373, 1, 225, 256, 288
-0.998374, 33, 253, 160, 284
-0.998375, 285, 137, 316, 152
-0.998377, 105, 161, 136, 176
-0.998377, 181, 175, 212, 190
-0.998378, 421, 169, 436, 200
-0.998379, 41, 67, 72, 82
-0.99838, 29, 17, 60, 144
-0.99838, 213, 119, 244, 134
-0.998382, 417, 169, 448, 184
-0.998383, 1, 225, 500, 288
-0.998383, 381, 97, 412, 352
-0.998384, 353, 21, 480, 52
-0.998387, 209, 133, 336, 164
-0.998388, 305, 201, 432, 232
-0.998388, 105, 169, 136, 184
-0.998389, 129, 185, 384, 248
-0.99839, 77, 171, 108, 186
-0.99839, 229, 113, 260, 128
-0.998393, 305, 105, 432, 136
-0.998394, 377, 141, 408, 156
-0.998395, 205, 1, 236, 128
-0.998397, 329, 1, 360, 256
-0.998397, 121, 141, 136, 172
-0.998404, 393, 131, 424, 146
-0.998406, 93, 141, 124, 156
-0.998407, 77, 177, 108, 192
-0.998408, 337, 139, 368, 154
-0.998408, 113, 137, 144, 152
-0.998409, 99, 157, 114, 188
-0.998409, 153, 141, 184, 156
-0.998411, 377, 163, 408, 178
-0.998413, 397, 175, 428, 190
-0.998418, 141, 141, 172, 156
-0.998419, 81, 217, 208, 248
-0.99842, 363, 165, 378, 196
-0.998421, 25, 145, 56, 160
-0.998423, 361, 135, 392, 150
-0.998428, 353, 143, 384, 158
-0.998429, 297, 141, 328, 156
-0.998433, 1, 173, 32, 188
-0.998439, 177, 113, 304, 144
-0.998442, 413, 141, 444, 156
-0.998455, 209, 157, 336, 188
-0.998456, 405, 135, 436, 150
-0.998463, 21, 65, 36, 96
-0.998465, 29, 73, 44, 104
-0.998468, 345, 133, 376, 148
-0.998469, 105, 143, 136, 158
-0.99847, 213, 117, 228, 148
-0.998476, 393, 143, 424, 158
-0.998477, 125, 139, 156, 154
-0.998479, 365, 141, 396, 156
-0.998479, 101, 133, 116, 164
-0.998484, 395, 169, 410, 200
-0.998485, 337, 97, 368, 352
-0.99849, 173, 65, 204, 320
-0.998492, 75, 177, 90, 208
-0.998493, 241, 177, 368, 240
-0.998497, 125, 169, 140, 200
-0.9985, 1, 249, 256, 312
-0.998505, 363, 125, 378, 156
-0.998506, 413, 181, 428, 212
-0.998516, 361, 137, 424, 152
-0.998516, 65, 49, 192, 80
-0.998518, 199, 181, 214, 212
-0.998518, 117, 165, 132, 196
-0.998523, 139, 165, 154, 196
-0.998523, 361, 145, 424, 160
-0.998525, 89, 167, 120, 182
-0.998525, 337, 133, 400, 148
-0.998526, 105, 169, 120, 200
-0.998526, 121, 139, 184, 154
-0.998529, 217, 111, 248, 126
-0.998531, 257, 249, 500, 312
-0.998535, 379, 161, 394, 192
-0.998542, 373, 135, 404, 150
-0.998548, 85, 153, 100, 184
-0.998552, 81, 169, 144, 184
-0.998557, 337, 49, 464, 80
-0.998558, 445, 1, 476, 128
-0.998559, 391, 121, 406, 152
-0.99856, 393, 137, 424, 152
-0.998562, 209, 111, 272, 126
-0.998564, 369, 183, 432, 198
-0.998566, 371, 157, 386, 188
-0.998567, 9, 169, 24, 200
-0.998568, 329, 139, 392, 154
-0.998569, 161, 185, 288, 216
-0.998569, 149, 137, 164, 168
-0.998569, 415, 157, 430, 188
-0.998571, 409, 97, 440, 352
-0.998572, 97, 145, 160, 160
-0.998574, 373, 125, 388, 156
-0.998575, 421, 137, 436, 168
-0.998579, 387, 145, 402, 176
-0.99858, 165, 137, 180, 168
-0.998584, 17, 117, 144, 148
-0.998585, 385, 161, 448, 176
-0.998589, 349, 97, 380, 352
-0.99859, 393, 177, 456, 192
-0.998592, 31, 57, 46, 88
-0.998592, 353, 169, 416, 184
-0.998592, 137, 121, 152, 152
-0.998594, 97, 139, 160, 154
-0.998595, 143, 125, 158, 156
-0.998597, 369, 175, 432, 190
-0.998599, 377, 155, 440, 170
-0.998605, 401, 141, 464, 156
-0.998609, 65, 175, 128, 190
-0.998609, 121, 241, 152, 368
-0.99861, 361, 131, 424, 146
-0.998615, 65, 183, 128, 198
-0.998616, 73, 147, 136, 162
-0.998619, 289, 133, 352, 148
-0.998622, 361, 1, 392, 128
-0.998625, 385, 169, 448, 184
-0.998627, 377, 173, 392, 204
-0.998627, 17, 67, 80, 82
-0.998628, 145, 143, 208, 158
-0.998631, 329, 147, 392, 162
-0.998631, 345, 163, 408, 178
-0.998634, 145, 149, 208, 164
-0.998634, 25, 153, 40, 184
-0.998635, 409, 169, 472, 184
-0.998635, 93, 129, 124, 375
-0.998635, 57, 165, 120, 180
-0.998635, 183, 145, 198, 176
-0.998636, 235, 121, 250, 152
-0.998636, 321, 213, 448, 244
-0.998638, 41, 189, 104, 204
-0.998639, 337, 153, 400, 168
-0.998639, 97, 197, 224, 228
-0.99864, 313, 133, 376, 148
-0.998645, 393, 183, 456, 198
-0.998646, 401, 147, 464, 162
-0.998646, 343, 153, 358, 184
-0.998649, 105, 169, 168, 184
-0.998649, 377, 189, 440, 204
-0.998651, 313, 163, 376, 178
-0.998653, 305, 143, 368, 158
-0.998653, 385, 135, 448, 150
-0.998657, 213, 105, 228, 136
-0.998658, 81, 65, 144, 80
-0.998658, 161, 173, 224, 188
-0.998658, 243, 97, 258, 128
-0.998659, 409, 121, 424, 152
-0.998661, 89, 163, 152, 178
-0.998662, 149, 161, 164, 192
-0.998664, 1, 249, 500, 312
-0.998665, 73, 137, 136, 152
-0.998665, 241, 201, 368, 264
-0.998667, 169, 113, 232, 128
-0.998667, 73, 153, 136, 168
-0.998668, 193, 121, 256, 136
-0.998668, 55, 65, 70, 96
-0.99867, 105, 151, 168, 166
-0.99867, 151, 185, 166, 216
-0.99867, 25, 181, 88, 196
-0.99867, 89, 177, 104, 208
-0.998671, 353, 33, 480, 64
-0.998671, 371, 181, 386, 212
-0.998671, 409, 163, 472, 178
-0.998671, 185, 83, 248, 98
-0.998671, 321, 9, 448, 40
-0.998672, 145, 167, 208, 182
-0.998672, 185, 157, 248, 172
-0.998672, 319, 153, 334, 184
-0.998673, 229, 121, 244, 152
-0.998673, 97, 133, 160, 148
-0.998675, 17, 145, 80, 160
-0.998675, 1, 169, 64, 184
-0.998675, 105, 157, 168, 172
-0.998677, 169, 167, 232, 182
-0.998677, 41, 171, 104, 186
-0.998678, 111, 129, 126, 160
-0.998679, 121, 133, 184, 148
-0.99868, 169, 137, 232, 152
-0.998681, 309, 165, 324, 196
-0.998682, 41, 195, 104, 210
-0.998682, 175, 169, 190, 200
-0.998683, 135, 145, 150, 176
-0.998683, 65, 189, 128, 204
-0.998684, 9, 59, 72, 74
-0.998684, 153, 77, 216, 92
-0.998686, 177, 67, 240, 82
-0.998686, 217, 81, 280, 96
-0.998688, 265, 179, 328, 194
-0.998689, 73, 189, 88, 220
-0.998689, 305, 177, 368, 192
-0.998692, 177, 75, 240, 90
-0.998692, 185, 149, 248, 164
-0.998693, 121, 59, 184, 74
-0.998696, 95, 145, 110, 176
-0.998699, 49, 143, 112, 158
-0.998699, 185, 91, 248, 106
-0.998699, 17, 105, 144, 136
-0.998699, 401, 155, 464, 170
-0.998699, 289, 183, 352, 198
-0.9987, 65, 159, 128, 174
-0.9987, 41, 69, 104, 84
-0.9987, 169, 105, 232, 120
-0.9987, 145, 237, 272, 268
-0.9987, 209, 105, 272, 120
-0.998701, 41, 207, 104, 222
-0.998701, 297, 171, 360, 186
-0.998702, 137, 173, 200, 188
-0.998702, 369, 197, 496, 228
-0.998703, 289, 93, 416, 124
-0.998703, 217, 75, 280, 90
-0.998704, 17, 199, 80, 214
-0.998704, 153, 191, 216, 206
-0.998705, 409, 135, 472, 150
-0.998705, 281, 141, 344, 156
-0.998705, 265, 173, 328, 188
-0.998706, 401, 177, 416, 208
-0.998706, 185, 143, 248, 158
-0.998706, 141, 97, 172, 352
-0.998706, 377, 97, 440, 112
-0.998707, 193, 127, 256, 142
-0.998708, 345, 47, 408, 62
-0.998708, 41, 201, 104, 216
-0.998708, 257, 43, 320, 58
-0.998708, 217, 63, 280, 78
-0.998708, 417, 95, 480, 110
-0.998708, 145, 135, 208, 150
-0.998708, 89, 175, 152, 190
-0.998709, 251, 73, 266, 104
-0.99871, 161, 87, 224, 102
-0.99871, 297, 157, 360, 172
-0.99871, 141, 153, 156, 184
-0.998712, 393, 75, 456, 90
-0.998712, 145, 211, 208, 226
-0.998713, 337, 127, 400, 142
-0.998714, 209, 91, 272, 106
-0.998715, 369, 85, 432, 100
-0.998715, 169, 183, 232, 198
-0.998715, 257, 69, 320, 84
-0.998715, 393, 15, 456, 30
-0.998716, 393, 129, 456, 144
-0.998716, 221, 97, 236, 128
-0.998717, 417, 129, 480, 144
-0.998717, 17, 151, 80, 166
-0.998718, 417, 103, 480, 118
-0.998718, 369, 257, 496, 288
-0.998718, 65, 201, 128, 216
-0.998718, 177, 23, 240, 38
-0.99872, 273, 33, 336, 48
-0.99872, 9, 187, 72, 202
-0.998722, 289, 163, 352, 178
-0.998722, 249, 35, 312, 50
-0.998722, 297, 39, 360, 54
-0.998722, 185, 97, 248, 112
-0.998722, 171, 141, 186, 172
-0.998723, 143, 177, 158, 208
-0.998723, 417, 35, 480, 50
-0.998723, 89, 57, 152, 72
-0.998724, 353, 91, 416, 106
-0.998724, 217, 123, 280, 138
-0.998724, 345, 177, 408, 192
-0.998724, 129, 53, 192, 68
-0.998725, 257, 63, 320, 78
-0.998725, 257, 77, 320, 92
-0.998726, 131, 165, 146, 196
-0.998727, 33, 165, 96, 180
-0.998728, 97, 113, 160, 128
-0.998728, 357, 121, 372, 152
-0.998729, 305, 249, 432, 312
-0.998729, 113, 273, 240, 336
-0.99873, 241, 121, 256, 152
-0.998731, 229, 97, 244, 128
-0.998732, 99, 169, 114, 200
-0.99874, 273, 117, 400, 148
-0.998753, 157, 181, 172, 212
-0.998754, 201, 169, 216, 200
-0.998755, 157, 137, 172, 168
-0.998755, 127, 141, 142, 172
-0.998758, 377, 149, 392, 180
-0.998759, 1, 273, 128, 304
-0.998761, 49, 281, 176, 312
-0.998767, 289, 181, 416, 212
-0.998767, 337, 229, 464, 260
-0.998769, 239, 77, 254, 108
-0.99877, 195, 153, 210, 184
-0.998773, 421, 153, 436, 184
-0.998774, 71, 165, 86, 196
-0.998776, 389, 113, 404, 240
-0.998778, 369, 101, 496, 132
-0.998782, 101, 65, 116, 96
-0.998799, 69, 209, 100, 336
-0.998802, 41, 65, 56, 96
-0.998802, 303, 165, 318, 196
-0.998803, 357, 165, 372, 196
-0.998803, 79, 157, 94, 188
-0.998807, 97, 1, 224, 64
-0.998809, 403, 129, 418, 256
-0.998811, 97, 257, 224, 288
-0.998811, 161, 225, 288, 256
-0.998813, 357, 57, 372, 88
-0.998817, 185, 185, 200, 216
-0.998818, 185, 161, 200, 192
-0.998821, 329, 137, 344, 168
-0.998821, 1, 301, 128, 332
-0.998823, 1, 221, 128, 252
-0.998823, 177, 145, 192, 176
-0.998825, 381, 1, 412, 256
-0.998825, 209, 21, 336, 52
-0.998827, 353, 245, 480, 276
-0.998828, 111, 65, 126, 96
-0.998831, 295, 129, 310, 160
-0.998836, 117, 129, 148, 375
-0.998843, 161, 101, 288, 132
-0.998845, 179, 133, 194, 164
-0.998846, 365, 97, 396, 352
-0.99885, 153, 65, 184, 320
-0.998859, 457, 177, 488, 304
-0.998862, 177, 197, 304, 228
-0.998881, 353, 85, 480, 116
-0.99889, 257, 241, 384, 304
-0.998895, 409, 129, 424, 256
-0.998902, 285, 1, 316, 256
-0.998902, 65, 113, 192, 144
-0.998913, 65, 77, 192, 108
-0.99894, 333, 1, 364, 128
-0.998945, 49, 197, 176, 228
-0.998945, 161, 213, 288, 244
-0.998947, 113, 29, 240, 60
-0.998953, 397, 113, 412, 240
-0.998953, 317, 1, 348, 256
-0.998954, 65, 21, 192, 52
-0.998955, 305, 1, 336, 256
-0.99896, 137, 209, 168, 336
-0.998995, 337, 61, 464, 92
-0.998998, 209, 97, 272, 352
-0.999017, 17, 77, 144, 108
-0.999024, 383, 113, 398, 240
-0.999029, 305, 33, 432, 64
-0.999052, 189, 129, 204, 256
-0.999057, 101, 33, 132, 288
-0.999072, 1, 233, 128, 264
-0.999074, 131, 113, 146, 240
-0.999083, 81, 33, 112, 288
-0.999094, 49, 93, 176, 124
-0.999095, 145, 249, 272, 280
-0.9991, 461, 113, 492, 240
-0.999117, 49, 297, 176, 328
-0.999119, 81, 269, 208, 300
-0.999133, 1, 289, 128, 320
-0.999162, 53, 241, 84, 368
-0.999163, 341, 113, 356, 240
-0.999165, 1, 97, 32, 224
-0.999168, 141, 1, 172, 256
-0.999173, 179, 129, 194, 256
-0.999181, 209, 241, 336, 304
-0.999184, 213, 1, 244, 256
-0.999184, 241, 213, 368, 244
-0.999201, 81, 161, 96, 288
-0.999201, 125, 113, 140, 240
-0.999204, 87, 129, 102, 256
-0.999227, 415, 129, 430, 256
-0.999229, 13, 17, 44, 144
-0.999239, 161, 17, 288, 48
-0.999241, 1, 345, 128, 375
-0.999257, 195, 161, 210, 288
-0.999258, 157, 113, 172, 240
-0.999267, 151, 113, 166, 240
-0.999291, 353, 73, 480, 104
-0.999297, 155, 161, 170, 288
-0.999299, 305, 305, 432, 368
-0.999299, 369, 305, 496, 368
-0.999312, 75, 161, 90, 288
-0.999315, 347, 113, 362, 240
-0.999324, 1, 281, 500, 344
-0.999333, 1, 29, 128, 60
-0.999339, 1, 305, 256, 368
-0.999344, 189, 177, 204, 304
-0.999345, 137, 113, 152, 240
-0.999354, 393, 161, 408, 288
-0.999358, 357, 113, 372, 240
-0.99936, 173, 113, 188, 240
-0.999365, 17, 313, 144, 344
-0.999367, 165, 113, 180, 240
-0.999368, 149, 161, 164, 288
-0.99937, 441, 129, 472, 256
-0.999374, 377, 113, 392, 240
-0.999377, 369, 209, 496, 240
-0.999378, 409, 81, 424, 208
-0.999384, 41, 193, 72, 320
-0.999385, 179, 81, 194, 208
-0.999391, 99, 129, 114, 256
-0.999393, 367, 113, 382, 240
-0.999401, 145, 113, 160, 240
-0.999407, 415, 81, 430, 208
-0.999413, 29, 65, 44, 192
-0.999417, 53, 161, 84, 288
-0.999421, 403, 81, 418, 208
-0.999427, 199, 113, 214, 240
-0.999432, 421, 145, 436, 272
-0.999438, 425, 1, 456, 256
-0.999442, 193, 33, 224, 288
-0.999444, 177, 273, 304, 336
-0.999449, 187, 81, 202, 208
-0.999453, 13, 225, 44, 352
-0.999455, 111, 113, 126, 240
-0.999468, 265, 17, 296, 144
-0.999472, 1, 93, 128, 124
-0.999472, 93, 129, 108, 256
-0.999475, 149, 241, 180, 368
-0.999483, 199, 1, 214, 128
-0.999484, 325, 97, 356, 352
-0.999486, 335, 113, 350, 240
-0.99949, 307, 81, 322, 208
-0.99949, 167, 161, 182, 288
-0.999496, 209, 169, 336, 200
-0.999497, 273, 1, 304, 256
-0.999497, 69, 97, 100, 352
-0.999499, 299, 113, 314, 240
-0.9995, 161, 161, 176, 288
-0.999502, 389, 65, 404, 192
-0.999507, 337, 161, 368, 288
-0.99951, 1, 49, 32, 176
-0.999513, 289, 129, 320, 375
-0.999514, 413, 177, 428, 304
-0.999516, 357, 65, 372, 192
-0.999517, 347, 65, 362, 192
-0.999518, 379, 161, 394, 288
-0.999519, 405, 33, 436, 160
-0.999521, 1, 1, 64, 256
-0.999521, 351, 151, 366, 166
-0.999522, 231, 105, 246, 120
-0.999522, 157, 171, 172, 186
-0.999522, 87, 195, 102, 210
-0.999522, 215, 109, 230, 124
-0.999523, 217, 121, 232, 136
-0.999523, 381, 181, 396, 196
-0.999523, 129, 1, 160, 256
-0.999524, 179, 173, 194, 188
-0.999524, 79, 163, 94, 178
-0.999524, 229, 1, 260, 256
-0.999526, 119, 81, 134, 208
-0.999527, 75, 177, 90, 192
-0.999527, 391, 171, 406, 186
-0.999527, 49, 345, 176, 375
-0.999528, 371, 149, 386, 164
-0.999529, 413, 133, 428, 148
-0.999529, 81, 113, 96, 240
-0.999529, 419, 179, 434, 194
-0.99953, 339, 65, 354, 192
-0.999531, 411, 169, 426, 184
-0.999531, 41, 65, 56, 80
-0.999532, 55, 67, 70, 82
-0.999532, 349, 135, 364, 150
-0.999532, 421, 97, 436, 224
-0.999534, 75, 113, 90, 240
-0.999534, 107, 135, 122, 150
-0.999534, 391, 139, 406, 154
-0.999535, 397, 65, 412, 192
-0.999535, 81, 195, 96, 210
-0.999535, 89, 173, 104, 188
-0.999535, 343, 159, 358, 174
-0.999536, 117, 175, 132, 190
-0.999537, 307, 137, 322, 152
-0.999538, 297, 145, 312, 160
-0.999538, 419, 147, 434, 162
-0.999539, 157, 183, 172, 198
-0.999539, 377, 165, 392, 180
-0.999539, 243, 109, 258, 124
-0.99954, 355, 139, 370, 154
-0.999541, 147, 181, 162, 196
-0.999541, 151, 187, 166, 202
-0.999543, 359, 165, 374, 180
-0.999543, 143, 145, 158, 160
-0.999544, 167, 141, 182, 156
-0.999544, 19, 65, 34, 80
-0.999544, 303, 143, 318, 158
-0.999544, 363, 153, 378, 168
-0.999545, 241, 123, 256, 138
-0.999545, 251, 33, 266, 160
-0.999546, 143, 169, 158, 184
-0.999546, 87, 161, 102, 176
-0.999547, 123, 171, 138, 186
-0.999547, 191, 169, 206, 184
-0.99955, 379, 143, 394, 158
-0.99955, 361, 139, 376, 154
-0.999551, 245, 79, 260, 94
-0.999552, 119, 135, 134, 150
-0.999552, 193, 1, 208, 128
-0.999553, 127, 65, 142, 192
-0.999553, 209, 115, 224, 130
-0.999553, 385, 159, 400, 174
-0.999554, 441, 241, 472, 368
-0.999555, 157, 177, 172, 192
-0.999556, 359, 145, 374, 160
-0.999556, 371, 183, 386, 198
-0.999557, 407, 177, 422, 304
-0.999559, 149, 169, 164, 184
-0.99956, 141, 161, 156, 288
-0.999561, 189, 187, 204, 202
-0.999561, 399, 177, 414, 304
-0.999561, 119, 129, 134, 256
-0.999563, 351, 163, 366, 178
-0.999564, 81, 185, 96, 200
-0.999564, 437, 1, 452, 128
-0.999565, 13, 171, 28, 186
-0.999565, 419, 171, 434, 186
-0.999567, 185, 171, 200, 186
-0.999567, 111, 163, 126, 178
-0.999567, 23, 81, 38, 208
-0.999568, 71, 185, 86, 200
-0.999568, 173, 161, 188, 288
-0.999569, 371, 165, 386, 180
-0.99957, 199, 181, 214, 196
-0.999571, 119, 143, 134, 158
-0.999571, 419, 135, 434, 150
-0.999571, 1, 333, 128, 364
-0.999572, 405, 173, 420, 188
-0.999573, 105, 145, 120, 272
-0.999574, 407, 131, 422, 146
-0.999574, 405, 143, 420, 158
-0.999576, 341, 137, 356, 152
-0.999576, 153, 141, 168, 156
-0.999578, 365, 171, 380, 186
-0.999581, 113, 145, 128, 160
-0.999581, 101, 155, 116, 170
-0.999582, 111, 153, 126, 168
-0.999582, 135, 133, 150, 148
-0.999582, 229, 113, 244, 128
-0.999586, 245, 33, 260, 160
-0.999587, 243, 81, 258, 208
-0.999589, 365, 145, 380, 160
-0.99959, 161, 313, 288, 375
-0.99959, 185, 177, 200, 192
-0.999592, 149, 175, 164, 190
-0.999592, 411, 181, 426, 196
-0.999592, 89, 167, 104, 182
-0.999592, 133, 161, 148, 288
-0.999593, 23, 145, 38, 272
-0.999595, 103, 167, 118, 182
-0.999597, 361, 133, 376, 148
-0.999597, 1, 175, 16, 190
-0.999598, 195, 187, 210, 202
-0.999598, 213, 97, 228, 224
-0.9996, 419, 141, 434, 156
-0.999601, 101, 147, 116, 162
-0.999601, 353, 157, 368, 172
-0.999601, 405, 179, 420, 194
-0.999601, 103, 161, 118, 176
-0.999601, 113, 169, 128, 184
-0.999602, 379, 137, 394, 152
-0.999602, 97, 297, 224, 360
-0.999602, 241, 297, 368, 360
-0.999604, 7, 173, 22, 188
-0.999605, 109, 49, 124, 176
-0.999605, 127, 139, 142, 154
-0.999608, 413, 145, 428, 160
-0.999609, 149, 65, 164, 192
-0.99961, 377, 173, 392, 188
-0.99961, 141, 65, 156, 192
-0.999611, 143, 139, 158, 154
-0.999613, 391, 133, 406, 148
-0.999613, 133, 65, 148, 192
-0.999614, 371, 65, 386, 192
-0.999614, 355, 133, 370, 148
-0.999615, 191, 175, 206, 190
-0.999616, 399, 139, 414, 154
-0.999617, 183, 177, 198, 304
-0.999618, 387, 161, 402, 288
-0.999622, 373, 135, 388, 150
-0.999623, 33, 129, 48, 256
-0.999623, 137, 139, 152, 154
-0.999624, 113, 139, 128, 154
-0.999624, 385, 139, 400, 154
-0.999625, 295, 139, 310, 154
-0.999626, 327, 81, 342, 208
-0.999627, 245, 115, 260, 130
-0.999628, 381, 65, 396, 192
-0.999629, 95, 165, 110, 180
-0.999629, 363, 65, 378, 192
-0.999631, 107, 147, 122, 162
-0.999632, 39, 145, 54, 272
-0.999636, 387, 165, 402, 180
-0.999636, 373, 143, 388, 158
-0.999637, 257, 17, 272, 144
-0.999639, 81, 179, 96, 194
-0.99964, 215, 115, 230, 130
-0.99964, 465, 1, 480, 128
-0.999642, 371, 171, 386, 186
-0.999642, 17, 41, 144, 72
-0.999647, 83, 169, 98, 184
-0.999647, 95, 177, 110, 304
-0.999647, 229, 81, 244, 208
-0.999648, 371, 177, 386, 192
-0.999653, 301, 65, 316, 192
-0.999653, 171, 65, 186, 192
-0.999654, 129, 133, 144, 148
-0.999655, 27, 145, 42, 160
-0.999655, 237, 113, 252, 128
-0.999656, 201, 161, 216, 288
-0.999656, 373, 161, 388, 288
-0.999656, 345, 1, 376, 128
-0.999656, 241, 1, 272, 256
-0.999657, 205, 97, 220, 224
-0.999657, 477, 193, 492, 320
-0.999657, 101, 141, 116, 156
-0.999658, 219, 81, 234, 208
-0.999659, 313, 81, 328, 208
-0.999659, 367, 139, 382, 154
-0.999662, 301, 137, 316, 152
-0.999664, 65, 1, 320, 64
-0.999665, 79, 65, 94, 192
-0.999665, 385, 133, 400, 148
-0.999666, 257, 9, 384, 40
-0.999666, 193, 81, 208, 208
-0.999669, 383, 1, 398, 128
-0.999669, 293, 113, 308, 240
-0.999672, 191, 181, 206, 196
-0.999673, 429, 33, 444, 160
-0.999673, 103, 193, 118, 320
-0.999677, 95, 81, 110, 208
-0.999678, 221, 111, 236, 126
-0.999678, 235, 1, 250, 128
-0.999681, 87, 81, 102, 208
-0.999681, 407, 137, 422, 152
-0.999683, 17, 145, 32, 272
-0.999685, 427, 81, 442, 208
-0.999692, 127, 161, 142, 288
-0.999692, 281, 113, 312, 240
-0.999694, 105, 129, 136, 375
-0.999695, 207, 33, 222, 160
-0.999703, 69, 129, 84, 256
-0.999703, 113, 1, 144, 256
-0.999704, 35, 65, 50, 192
-0.999705, 307, 33, 322, 160
-0.999705, 433, 97, 464, 352
-0.999705, 411, 175, 426, 190
-0.999706, 251, 81, 266, 208
-0.999709, 1, 33, 16, 160
-0.99971, 105, 97, 120, 224
-0.99971, 55, 209, 70, 336
-0.999713, 413, 139, 428, 154
-0.999714, 107, 141, 122, 156
-0.999716, 17, 97, 32, 224
-0.999717, 301, 97, 332, 352
-0.999719, 427, 145, 442, 272
-0.999721, 113, 17, 240, 48
-0.999722, 87, 177, 102, 304
-0.999723, 171, 209, 186, 336
-0.999724, 155, 65, 170, 192
-0.999726, 47, 209, 62, 336
-0.999727, 265, 33, 280, 160
-0.999727, 297, 1, 312, 128
-0.99973, 63, 241, 78, 368
-0.99973, 187, 1, 202, 128
-0.999731, 237, 81, 252, 208
-0.999733, 9, 145, 24, 272
-0.999737, 103, 49, 118, 176
-0.99975, 5, 65, 36, 320
-0.999776, 65, 333, 192, 364
-0.999795, 305, 261, 432, 292
-0.9998, 225, 265, 352, 328
-0.999804, 69, 17, 100, 144
-0.999817, 369, 281, 496, 312
-0.999826, 421, 97, 452, 352
-0.999886, 65, 1, 96, 256
-0.999889, 29, 65, 60, 320
-0.999889, 445, 97, 476, 352
-0.99989, 457, 1, 488, 256
-0.999895, 81, 241, 112, 368
-0.999904, 221, 129, 252, 256
-0.999911, 253, 1, 284, 256
-0.999919, 97, 281, 224, 312
-0.999938, 305, 345, 432, 375
-0.999944, 1, 81, 500, 144
-0.999947, 461, 65, 492, 192
-0.99995, 17, 1, 48, 256
-0.999968, 45, 1, 76, 256
-0.999977, 37, 97, 68, 224
-0.999979, 101, 1, 132, 128
-0.999991, 53, 1, 84, 128
-0.999991, 169, 1, 200, 128
-1.00004, 389, 1, 420, 128
-1.00005, 17, 97, 48, 352
-1.00005, 461, 97, 492, 352
-1.00009, 217, 97, 248, 352
-1.00011, 313, 97, 344, 352
-1.00018, 469, 1, 500, 256
-1.00019, 437, 1, 468, 256
-1.0002, 225, 281, 480, 344
-1.00022, 205, 97, 236, 352
-1.00023, 1, 9, 500, 72
-1.00027, 457, 1, 488, 128
-1.00028, 193, 129, 224, 375
-1.00032, 57, 129, 88, 375
-1.00033, 233, 97, 264, 352
-1.00034, 445, 177, 476, 304
-1.00036, 97, 273, 352, 336
-1.00044, 81, 17, 112, 144
-1.00044, 41, 97, 72, 352
-1.00046, 361, 161, 392, 288
-1.00055, 97, 305, 352, 368
-1.00057, 305, 145, 336, 272
-1.00058, 125, 17, 156, 144
-1.00068, 465, 241, 496, 368
-1.00076, 257, 129, 320, 375
-1.00076, 1, 313, 500, 375
-1.00077, 193, 305, 448, 368
-1.00084, 437, 49, 468, 176
-1.00091, 249, 97, 280, 352
-1.00103, 285, 65, 316, 192
-1.00117, 277, 97, 308, 352
-1.00117, 257, 225, 384, 352
-1.00121, 9, 129, 72, 375
-1.00143, 261, 97, 292, 352
-1.00159, 265, 161, 328, 288
-1.00228, 225, 177, 352, 304
-1.00284, 209, 241, 336, 368
-1.00315, 217, 145, 280, 272
-1.00506, 233, 97, 296, 352
-1.00578, 281, 225, 344, 352
-1.0063, 289, 177, 352, 304
-1.00666, 241, 177, 304, 304
-1.00705, 193, 193, 256, 320
-1.00705, 337, 225, 400, 352
-1.00779, 361, 241, 424, 368
-1.00828, 313, 209, 376, 336
-1.00883, 249, 241, 312, 368
-1.00886, 201, 241, 264, 368
-1.00893, 217, 193, 280, 320
-1.01175, 225, 241, 288, 368
-1.01243, 177, 241, 240, 368
