1928
-0.552303, 1, 65, 500, 320
-0.633283, 161, 1, 416, 375
-0.635799, 1, 1, 256, 375
-0.636403, 1, 1, 500, 375
-0.646704, 193, 65, 448, 320
-0.703868, 257, 1, 500, 375
-0.703887, 1, 65, 256, 320
-0.760333, 97, 97, 352, 352
-0.764593, 97, 1, 352, 256
-0.878669, 241, 65, 368, 320
-0.891955, 161, 129, 288, 375
-0.893154, 145, 1, 272, 375
-0.896432, 65, 65, 192, 320
-0.902116, 225, 1, 352, 375
-0.902175, 97, 1, 224, 375
-0.903755, 129, 1, 256, 256
-0.913368, 49, 1, 176, 375
-0.916705, 1, 129, 500, 256
-0.923036, 1, 65, 128, 320
-0.926829, 1, 81, 500, 208
-0.928283, 273, 1, 400, 375
-0.928481, 161, 97, 416, 224
-0.929424, 1, 1, 128, 375
-0.931364, 289, 65, 416, 320
-0.93267, 353, 1, 480, 375
-0.932811, 113, 129, 240, 375
-0.934567, 33, 145, 288, 272
-0.934756, 369, 65, 496, 320
-0.936724, 177, 33, 304, 288
-0.941904, 33, 97, 288, 224
-0.944858, 1, 33, 500, 160
-0.948276, 209, 97, 336, 224
-0.949162, 225, 97, 288, 224
-0.949612, 97, 81, 160, 208
-0.951354, 49, 81, 176, 208
-0.951928, 129, 161, 384, 288
-0.952102, 145, 177, 272, 304
-0.953142, 257, 81, 500, 208
-0.953594, 129, 97, 256, 224
-0.954504, 201, 161, 264, 288
-0.955336, 265, 81, 328, 208
-0.957742, 129, 49, 384, 176
-0.959399, 217, 113, 280, 176
-0.96027, 257, 81, 384, 208
-0.961743, 129, 49, 256, 176
-0.962122, 145, 161, 208, 288
-0.962248, 121, 97, 184, 224
-0.962477, 185, 113, 248, 240
-0.962796, 225, 193, 288, 320
-0.962972, 1, 225, 500, 352
-0.965121, 265, 97, 328, 160
-0.965192, 145, 81, 208, 208
-0.966075, 33, 49, 288, 176
-0.966847, 81, 129, 208, 256
-0.968966, 193, 161, 320, 288
-0.969394, 225, 225, 288, 288
-0.969641, 185, 161, 248, 224
-0.97018, 105, 97, 168, 160
-0.970271, 217, 97, 280, 352
-0.970365, 65, 209, 320, 336
-0.970442, 105, 137, 168, 200
-0.970641, 193, 97, 256, 352
-0.970798, 145, 177, 208, 240
-0.971594, 225, 161, 480, 288
-0.971724, 217, 89, 280, 152
-0.972074, 137, 121, 200, 184
-0.972363, 25, 81, 88, 208
-0.972377, 73, 81, 136, 208
-0.972505, 257, 33, 500, 160
-0.972536, 169, 65, 232, 192
-0.973068, 193, 225, 320, 352
-0.973161, 313, 81, 376, 208
-0.973352, 353, 81, 416, 208
-0.97414, 1, 81, 128, 208
-0.974964, 369, 81, 496, 208
-0.975069, 201, 185, 264, 248
-0.975234, 129, 81, 160, 208
-0.975238, 161, 209, 416, 336
-0.975614, 289, 89, 352, 152
-0.97575, 49, 81, 112, 208
-0.976263, 185, 209, 248, 336
-0.976354, 249, 129, 312, 256
-0.976543, 225, 97, 256, 224
-0.976604, 193, 49, 320, 176
-0.976607, 129, 121, 256, 184
-0.976634, 289, 81, 352, 208
-0.976796, 265, 249, 328, 312
-0.976835, 113, 161, 176, 224
-0.976897, 193, 81, 256, 144
-0.977051, 321, 81, 448, 208
-0.977081, 49, 97, 176, 160
-0.977441, 97, 177, 224, 304
-0.97748, 229, 177, 260, 304
-0.977488, 241, 97, 304, 160
-0.977488, 241, 249, 304, 312
-0.977661, 1, 81, 64, 208
-0.977729, 193, 113, 320, 176
-0.977771, 257, 89, 384, 152
-0.97795, 225, 49, 288, 176
-0.977979, 177, 137, 240, 200
-0.97802, 241, 121, 304, 184
-0.978461, 241, 97, 304, 352
-0.978496, 269, 97, 300, 160
-0.978736, 121, 145, 184, 272
-0.978739, 137, 33, 200, 160
-0.978952, 1, 177, 500, 304
-0.979423, 401, 89, 464, 152
-0.979683, 145, 89, 272, 152
-0.980317, 281, 97, 312, 160
-0.980332, 161, 177, 288, 240
-0.980348, 425, 89, 488, 152
-0.98039, 257, 33, 384, 160
-0.980399, 393, 81, 456, 208
-0.98053, 433, 81, 496, 208
-0.980605, 25, 89, 88, 152
-0.980638, 129, 145, 256, 208
-0.980642, 161, 217, 288, 280
-0.980712, 185, 217, 248, 280
-0.980752, 177, 57, 240, 120
-0.980761, 209, 241, 272, 368
-0.980764, 153, 89, 216, 152
-0.981009, 145, 113, 176, 176
-0.981375, 257, 97, 288, 160
-0.981451, 193, 241, 320, 304
-0.981587, 149, 97, 180, 224
-0.981789, 81, 169, 208, 232
-0.981872, 209, 249, 272, 312
-0.981937, 81, 161, 144, 224
-0.982208, 105, 65, 168, 320
-0.982529, 241, 193, 272, 320
-0.982555, 353, 89, 416, 152
-0.983203, 129, 137, 160, 200
-0.983396, 173, 177, 204, 240
-0.983401, 217, 161, 248, 288
-0.98342, 401, 33, 464, 160
-0.983602, 153, 65, 216, 128
-0.983659, 265, 241, 296, 304
-0.983683, 129, 97, 192, 160
-0.983724, 273, 81, 304, 208
-0.983791, 225, 201, 288, 264
-0.984316, 249, 225, 312, 352
-0.984397, 161, 209, 224, 272
-0.984409, 233, 185, 264, 248
-0.984497, 313, 89, 376, 152
-0.984528, 1, 89, 64, 152
-0.984634, 105, 81, 136, 208
-0.984651, 265, 121, 328, 184
-0.984698, 177, 161, 208, 288
-0.984718, 249, 233, 280, 296
-0.984776, 133, 97, 164, 160
-0.984811, 209, 137, 336, 200
-0.984843, 81, 97, 144, 160
-0.984985, 221, 113, 252, 176
-0.985226, 193, 49, 256, 176
-0.985272, 137, 145, 200, 208
-0.985588, 177, 1, 240, 256
-0.985653, 305, 33, 368, 160
-0.9857, 145, 225, 272, 352
-0.985785, 221, 81, 252, 144
-0.985869, 237, 97, 268, 224
-0.98587, 97, 129, 160, 256
-0.9859, 193, 89, 320, 152
-0.985933, 109, 153, 140, 216
-0.986097, 241, 161, 368, 288
-0.986099, 57, 97, 120, 160
-0.986137, 65, 145, 192, 208
-0.986218, 177, 105, 240, 168
-0.986244, 169, 1, 232, 375
-0.986426, 89, 161, 120, 224
-0.986442, 377, 97, 440, 160
-0.986505, 249, 225, 312, 288
-0.986519, 321, 33, 448, 160
-0.986651, 153, 137, 184, 200
-0.986667, 153, 97, 216, 352
-0.986705, 273, 33, 336, 160
-0.986715, 217, 137, 280, 200
-0.986763, 49, 33, 176, 160
-0.986812, 113, 209, 240, 272
-0.986845, 137, 129, 168, 256
-0.986949, 253, 209, 284, 336
-0.987009, 273, 65, 336, 320
-0.987313, 249, 113, 280, 240
-0.987346, 377, 33, 440, 160
-0.987359, 285, 81, 316, 208
-0.987373, 345, 65, 408, 320
-0.987432, 209, 217, 336, 280
-0.987488, 265, 121, 296, 184
-0.987593, 241, 73, 304, 136
-0.987836, 249, 177, 312, 304
-0.988157, 57, 65, 120, 320
-0.988191, 161, 1, 224, 64
-0.988224, 305, 65, 368, 320
-0.988232, 141, 137, 172, 200
-0.988269, 241, 209, 368, 336
-0.988374, 369, 89, 496, 152
-0.988534, 377, 73, 440, 136
-0.988536, 85, 81, 116, 208
-0.988577, 213, 225, 244, 288
-0.988594, 237, 209, 268, 272
-0.988599, 1, 89, 128, 152
-0.988624, 297, 81, 328, 208
-0.988639, 161, 209, 224, 336
-0.988657, 129, 65, 192, 320
-0.988669, 329, 33, 392, 160
-0.98867, 105, 73, 168, 136
-0.988797, 321, 81, 352, 208
-0.988928, 241, 241, 368, 304
-0.989131, 185, 241, 248, 304
-0.989134, 305, 153, 368, 216
-0.989151, 249, 121, 280, 184
-0.989163, 369, 33, 496, 160
-0.989199, 117, 81, 148, 208
-0.989455, 365, 89, 396, 152
-0.989522, 1, 33, 128, 160
-0.989578, 145, 1, 208, 375
-0.989653, 329, 65, 392, 128
-0.989709, 73, 33, 136, 160
-0.989714, 425, 33, 488, 160
-0.989738, 321, 73, 448, 136
-0.989747, 29, 81, 60, 208
-0.989767, 357, 81, 388, 208
-0.989835, 217, 117, 280, 148
-0.989865, 241, 1, 304, 375
-0.98996, 33, 65, 96, 320
-0.990013, 433, 89, 464, 152
-0.990065, 81, 65, 144, 320
-0.990137, 141, 161, 172, 224
-0.990152, 97, 97, 224, 160
-0.990163, 321, 97, 448, 160
-0.990166, 105, 1, 168, 375
-0.990189, 193, 65, 320, 128
-0.990196, 105, 161, 168, 192
-0.990209, 221, 169, 252, 232
-0.99022, 149, 161, 180, 288
-0.990289, 241, 177, 304, 240
-0.990322, 161, 113, 192, 240
-0.990345, 261, 65, 292, 192
-0.990354, 193, 1, 256, 375
-0.990383, 57, 89, 88, 152
-0.990384, 65, 73, 128, 136
-0.990479, 129, 65, 256, 128
-0.990508, 233, 245, 296, 276
-0.990532, 69, 81, 100, 208
-0.990587, 277, 249, 308, 312
-0.990657, 257, 257, 320, 288
-0.990699, 241, 113, 368, 176
-0.990708, 49, 73, 176, 136
-0.990744, 9, 65, 72, 320
-0.99077, 121, 97, 152, 160
-0.990784, 17, 81, 48, 208
-0.990818, 265, 97, 328, 128
-0.99092, 33, 33, 96, 160
-0.990929, 241, 129, 304, 160
-0.990932, 169, 161, 232, 288
-0.990944, 197, 209, 228, 336
-0.991037, 105, 101, 168, 132
-0.991076, 217, 1, 280, 375
-0.991085, 185, 177, 248, 208
-0.991086, 241, 117, 304, 148
-0.991097, 241, 105, 304, 136
-0.991133, 137, 137, 200, 168
-0.991134, 97, 149, 160, 180
-0.99119, 217, 101, 280, 132
-0.99123, 97, 1, 352, 128
-0.991234, 217, 129, 280, 160
-0.991259, 225, 233, 288, 264
-0.991285, 145, 181, 208, 212
-0.991327, 333, 81, 364, 208
-0.991328, 265, 1, 328, 375
-0.991353, 293, 89, 324, 152
-0.991436, 249, 33, 312, 160
-0.991443, 177, 165, 240, 196
-0.991475, 241, 89, 272, 152
-0.991503, 57, 177, 120, 208
-0.991533, 257, 141, 320, 172
-0.991541, 33, 169, 288, 232
-0.991543, 153, 101, 216, 132
-0.991557, 81, 173, 144, 204
-0.991626, 225, 265, 352, 328
-0.991627, 209, 221, 272, 252
-0.991653, 433, 65, 496, 320
-0.991671, 177, 101, 240, 132
-0.991697, 165, 161, 196, 288
-0.991699, 9, 33, 72, 160
-0.991708, 137, 125, 200, 156
-0.991732, 225, 217, 256, 280
-0.991742, 273, 269, 336, 300
-0.991753, 181, 57, 212, 120
-0.991763, 233, 261, 296, 292
-0.991765, 9, 65, 72, 128
-0.991811, 209, 253, 272, 284
-0.991818, 201, 65, 232, 192
-0.991826, 289, 1, 352, 375
-0.991851, 193, 89, 256, 120
-0.991855, 45, 89, 76, 152
-0.99188, 265, 121, 328, 152
-0.991943, 249, 209, 280, 272
-0.991944, 329, 89, 360, 152
-0.991946, 465, 89, 496, 152
-0.991954, 225, 193, 352, 256
-0.991958, 169, 65, 232, 96
-0.991973, 409, 65, 472, 320
-0.992004, 9, 93, 72, 124
-0.992007, 49, 97, 112, 128
-0.992007, 81, 161, 144, 192
-0.992023, 353, 89, 416, 120
-0.992049, 437, 81, 468, 208
-0.992058, 33, 181, 96, 212
-0.992059, 417, 65, 480, 128
-0.992077, 45, 81, 76, 208
-0.992097, 193, 189, 256, 220
-0.99211, 329, 85, 392, 116
-0.992113, 153, 1, 216, 256
-0.992136, 225, 89, 288, 120
-0.992136, 409, 97, 472, 128
-0.992164, 113, 137, 176, 168
-0.992173, 345, 81, 376, 208
-0.992183, 129, 169, 192, 200
-0.99219, 421, 89, 452, 152
-0.992205, 185, 209, 248, 240
-0.992206, 169, 229, 232, 260
-0.992224, 177, 125, 240, 156
-0.99225, 177, 1, 240, 128
-0.992254, 81, 121, 208, 184
-0.992254, 209, 225, 240, 352
-0.992258, 145, 89, 208, 120
-0.992275, 81, 101, 144, 132
-0.992306, 313, 97, 376, 128
-0.99232, 113, 33, 176, 160
-0.992379, 177, 77, 240, 108
-0.992396, 261, 113, 292, 240
-0.992402, 57, 165, 120, 196
-0.992441, 317, 89, 348, 152
-0.992464, 57, 81, 88, 208
-0.992467, 289, 97, 352, 128
-0.99249, 377, 65, 440, 320
-0.992493, 205, 145, 236, 272
-0.992495, 193, 113, 256, 144
-0.992509, 1, 161, 64, 288
-0.992534, 193, 241, 256, 272
-0.992536, 233, 1, 296, 256
-0.992539, 281, 257, 344, 288
-0.99254, 9, 185, 72, 216
-0.992553, 281, 149, 344, 180
-0.992554, 125, 149, 156, 180
-0.992572, 369, 101, 432, 132
-0.992577, 265, 117, 296, 148
-0.992579, 129, 241, 256, 304
-0.9926, 177, 153, 240, 184
-0.992622, 405, 81, 436, 208
-0.992639, 449, 81, 480, 208
-0.992659, 65, 1, 128, 375
-0.992664, 153, 217, 216, 248
-0.992673, 137, 153, 200, 184
-0.992703, 461, 81, 492, 208
-0.992707, 209, 201, 272, 232
-0.992722, 137, 113, 200, 144
-0.992737, 253, 109, 284, 140
-0.992755, 209, 145, 272, 176
-0.992758, 205, 97, 236, 160
-0.992764, 433, 97, 496, 128
-0.992782, 153, 193, 216, 224
-0.992788, 149, 89, 180, 152
-0.992814, 217, 249, 248, 312
-0.992814, 109, 161, 140, 192
-0.992819, 97, 165, 128, 196
-0.992819, 273, 101, 304, 132
-0.992838, 177, 137, 240, 168
-0.992848, 345, 97, 376, 160
-0.99288, 33, 145, 288, 208
-0.992885, 105, 173, 168, 204
-0.992886, 141, 133, 172, 164
-0.992887, 249, 213, 312, 244
-0.992898, 225, 113, 256, 144
-0.992899, 129, 65, 192, 128
-0.99293, 257, 245, 320, 276
-0.99294, 85, 173, 116, 204
-0.992971, 9, 77, 72, 108
-0.992974, 169, 113, 232, 144
-0.992979, 313, 161, 376, 192
-0.992984, 169, 177, 200, 208
-0.992987, 129, 113, 384, 176
-0.992995, 133, 101, 164, 132
-0.993001, 149, 117, 180, 148
-0.993005, 33, 169, 96, 200
-0.993012, 217, 157, 280, 188
-0.993022, 1, 81, 32, 208
-0.993023, 1, 177, 128, 240
-0.993026, 177, 9, 240, 40
-0.993033, 57, 177, 120, 240
-0.993036, 241, 201, 304, 232
-0.993046, 29, 89, 60, 152
-0.99305, 81, 89, 144, 120
-0.993057, 281, 253, 312, 284
-0.993063, 77, 97, 108, 160
-0.993067, 269, 261, 300, 292
-0.993069, 185, 209, 216, 272
-0.993078, 261, 241, 292, 272
-0.993081, 161, 169, 192, 232
-0.993095, 273, 129, 304, 160
-0.993109, 253, 229, 284, 260
-0.993115, 365, 89, 396, 120
-0.99312, 249, 125, 280, 156
-0.993147, 221, 177, 252, 208
-0.993148, 385, 81, 416, 208
-0.993148, 273, 85, 336, 116
-0.99317, 305, 85, 368, 116
-0.993176, 209, 145, 240, 208
-0.993182, 309, 81, 340, 208
-0.993191, 241, 253, 272, 284
-0.993193, 185, 61, 216, 92
-0.993194, 337, 101, 400, 132
-0.993196, 33, 85, 96, 116
-0.9932, 225, 169, 288, 200
-0.993202, 221, 101, 252, 132
-0.993205, 129, 137, 160, 168
-0.99321, 233, 181, 296, 212
-0.993213, 377, 85, 440, 116
-0.993215, 137, 169, 168, 200
-0.993227, 433, 85, 496, 116
-0.993231, 385, 97, 416, 160
-0.993234, 205, 157, 236, 188
-0.993237, 1, 89, 32, 120
-0.993241, 257, 257, 288, 288
-0.993253, 277, 121, 308, 184
-0.993258, 241, 221, 272, 252
-0.99326, 153, 205, 216, 236
-0.993264, 185, 9, 216, 40
-0.993267, 233, 209, 264, 240
-0.993268, 273, 273, 336, 336
-0.993271, 33, 93, 64, 124
-0.993274, 121, 101, 152, 132
-0.993283, 33, 153, 96, 216
-0.993283, 77, 97, 108, 128
-0.993288, 149, 169, 180, 200
-0.993289, 69, 177, 100, 208
-0.99329, 57, 85, 120, 116
-0.993292, 293, 261, 324, 292
-0.993293, 81, 185, 112, 216
-0.993294, 221, 49, 252, 176
-0.993296, 237, 117, 268, 148
-0.993301, 221, 145, 252, 176
-0.99331, 353, 85, 384, 116
-0.993321, 153, 21, 216, 52
-0.993322, 113, 149, 144, 180
-0.993328, 281, 265, 312, 296
-0.993331, 421, 97, 452, 128
-0.993338, 241, 97, 272, 128
-0.993339, 109, 101, 140, 132
-0.99334, 313, 153, 344, 184
-0.99334, 373, 81, 404, 208
-0.99334, 285, 133, 316, 164
-0.993348, 269, 141, 300, 172
-0.993355, 421, 81, 452, 208
-0.993364, 229, 193, 260, 224
-0.99337, 345, 97, 376, 128
-0.993374, 97, 89, 352, 152
-0.993375, 353, 169, 384, 200
-0.993377, 145, 105, 176, 136
-0.99338, 229, 225, 260, 352
-0.99338, 145, 69, 208, 100
-0.99338, 173, 69, 204, 100
-0.993387, 225, 241, 256, 272
-0.993388, 289, 97, 320, 128
-0.993392, 241, 273, 304, 304
-0.993401, 325, 161, 356, 192
-0.993401, 93, 101, 124, 132
-0.993406, 217, 225, 248, 256
-0.993408, 237, 241, 268, 272
-0.993414, 225, 253, 256, 284
-0.993414, 169, 241, 232, 272
-0.993418, 205, 85, 236, 116
-0.993419, 153, 181, 184, 212
-0.993428, 177, 193, 208, 224
-0.993429, 145, 145, 176, 176
-0.993431, 45, 93, 76, 124
-0.993431, 301, 149, 332, 180
-0.993432, 329, 1, 392, 375
-0.993434, 65, 97, 96, 128
-0.993435, 373, 101, 404, 132
-0.993438, 385, 101, 416, 132
-0.993439, 21, 93, 52, 124
-0.993441, 177, 209, 208, 240
-0.993443, 433, 97, 464, 128
-0.993449, 353, 33, 416, 160
-0.993458, 201, 233, 232, 264
-0.99346, 169, 21, 200, 52
-0.993464, 409, 97, 440, 128
-0.993464, 113, 113, 176, 144
-0.99347, 333, 97, 364, 128
-0.993472, 309, 93, 340, 124
-0.993473, 281, 137, 344, 168
-0.993474, 265, 73, 328, 136
-0.993474, 341, 169, 372, 200
-0.993475, 181, 221, 212, 252
-0.993478, 221, 89, 252, 120
-0.993479, 241, 65, 368, 128
-0.993484, 221, 133, 252, 164
-0.993486, 305, 265, 336, 296
-0.993491, 273, 109, 336, 140
-0.993493, 249, 241, 280, 272
-0.993496, 157, 157, 188, 188
-0.9935, 397, 101, 428, 132
-0.993501, 1, 65, 128, 128
-0.993502, 45, 181, 76, 212
-0.993503, 245, 265, 276, 296
-0.993504, 445, 97, 476, 128
-0.993505, 73, 145, 136, 272
-0.993505, 153, 9, 216, 40
-0.993512, 357, 101, 388, 132
-0.993521, 249, 233, 312, 264
-0.993523, 261, 89, 292, 120
-0.993526, 205, 97, 236, 128
-0.993526, 185, 253, 248, 284
-0.993529, 469, 93, 500, 124
-0.993536, 321, 97, 352, 128
-0.993536, 197, 213, 228, 244
-0.99354, 1, 177, 64, 240
-0.99354, 213, 249, 244, 280
-0.993546, 205, 145, 236, 176
-0.993549, 457, 97, 488, 128
-0.993554, 209, 169, 240, 200
-0.993556, 157, 101, 188, 132
-0.993561, 337, 177, 400, 208
-0.993566, 261, 129, 292, 160
-0.993567, 137, 157, 168, 188
-0.993573, 181, 81, 212, 112
-0.993573, 305, 265, 368, 296
-0.993575, 205, 125, 236, 156
-0.993576, 409, 85, 472, 116
-0.99358, 169, 185, 232, 248
-0.993599, 21, 81, 52, 112
-0.993603, 213, 237, 244, 268
-0.993613, 257, 269, 288, 300
-0.993613, 237, 169, 268, 200
-0.993614, 97, 177, 128, 208
-0.993616, 269, 273, 300, 304
-0.993619, 57, 181, 88, 212
-0.993619, 113, 125, 176, 156
-0.993622, 105, 89, 168, 120
-0.993622, 57, 85, 88, 116
-0.993625, 189, 101, 220, 132
-0.993629, 377, 85, 408, 116
-0.993633, 97, 89, 128, 120
-0.993637, 249, 189, 280, 220
-0.993637, 153, 169, 216, 200
-0.99364, 305, 141, 368, 172
-0.993644, 229, 229, 260, 260
-0.993651, 85, 161, 116, 192
-0.993654, 169, 129, 200, 160
-0.993656, 289, 145, 320, 176
-0.993656, 325, 149, 356, 180
-0.993665, 69, 165, 100, 196
-0.993666, 1, 169, 64, 200
-0.993669, 285, 121, 316, 152
-0.993669, 289, 65, 352, 128
-0.993669, 193, 181, 224, 212
-0.99367, 117, 89, 148, 120
-0.993674, 33, 177, 64, 208
-0.993677, 229, 157, 260, 188
-0.993679, 253, 201, 284, 232
-0.99369, 193, 77, 224, 108
-0.99369, 137, 121, 168, 152
-0.99369, 305, 89, 336, 152
-0.993705, 445, 89, 476, 152
-0.993712, 369, 65, 496, 128
-0.993747, 33, 65, 96, 128
-0.993757, 17, 89, 48, 152
-0.993758, 401, 37, 464, 68
-0.993773, 129, 53, 192, 84
-0.993782, 105, 97, 136, 160
-0.993793, 89, 137, 152, 168
-0.993815, 361, 169, 424, 200
-0.993835, 249, 85, 312, 116
-0.993838, 129, 137, 384, 200
-0.993852, 289, 125, 352, 156
-0.993868, 193, 65, 256, 96
-0.993887, 225, 97, 480, 160
-0.993892, 225, 169, 352, 232
-0.993899, 229, 241, 260, 304
-0.993902, 281, 241, 344, 272
-0.993904, 81, 185, 144, 216
-0.993905, 185, 53, 248, 84
-0.993962, 25, 161, 88, 288
-0.993964, 313, 73, 376, 104
-0.993965, 57, 149, 120, 180
-0.993987, 233, 141, 296, 172
-0.993991, 305, 253, 368, 284
-0.993993, 193, 121, 320, 152
-0.993995, 129, 101, 192, 132
-0.994003, 289, 161, 352, 192
-0.994008, 297, 277, 360, 308
-0.994027, 89, 125, 152, 156
-0.99403, 273, 97, 288, 160
-0.994037, 217, 77, 280, 108
-0.994051, 1, 89, 32, 152
-0.994052, 1, 1, 64, 32
-0.994062, 209, 265, 272, 296
-0.994071, 197, 217, 228, 280
-0.99408, 409, 97, 440, 160
-0.994121, 237, 113, 268, 176
-0.994137, 273, 229, 336, 260
-0.994141, 273, 73, 304, 136
-0.994172, 353, 77, 416, 108
-0.99419, 329, 145, 392, 176
-0.99423, 57, 189, 120, 220
-0.994232, 129, 169, 384, 232
-0.994243, 65, 201, 320, 264
-0.994245, 145, 49, 176, 176
-0.994246, 169, 89, 232, 120
-0.99428, 417, 33, 448, 160
-0.994342, 17, 153, 144, 216
-0.994358, 97, 241, 352, 304
-0.994367, 1, 1, 64, 375
-0.994406, 241, 241, 272, 368
-0.994511, 433, 1, 496, 375
-0.994528, 93, 97, 124, 160
-0.99459, 353, 65, 416, 128
-0.994592, 1, 97, 256, 160
-0.994645, 41, 1, 104, 375
-0.994677, 289, 257, 320, 320
-0.99468, 205, 73, 236, 136
-0.994688, 125, 129, 156, 256
-0.994743, 397, 97, 428, 160
-0.994804, 25, 177, 88, 240
-0.994851, 145, 129, 160, 192
-0.994865, 409, 1, 472, 375
-0.994886, 129, 161, 256, 192
-0.994931, 361, 1, 424, 375
-0.994968, 273, 265, 400, 328
-0.994996, 29, 161, 60, 288
-0.995114, 329, 169, 392, 232
-0.995147, 161, 189, 288, 220
-0.995193, 113, 145, 240, 176
-0.995227, 145, 97, 160, 160
-0.995249, 133, 73, 164, 136
-0.995288, 249, 49, 280, 176
-0.995299, 181, 1, 212, 64
-0.995299, 429, 33, 460, 160
-0.995314, 297, 265, 360, 328
-0.995351, 209, 161, 272, 224
-0.99539, 353, 73, 384, 136
-0.995422, 257, 97, 384, 128
-0.995437, 385, 1, 448, 375
-0.995454, 267, 97, 282, 160
-0.995479, 65, 169, 192, 200
-0.995514, 273, 217, 400, 280
-0.995519, 213, 97, 244, 224
-0.995532, 113, 133, 240, 164
-0.995547, 29, 177, 60, 240
-0.995574, 241, 273, 304, 336
-0.995575, 145, 1, 272, 64
-0.995592, 225, 97, 256, 352
-0.995616, 281, 97, 296, 160
-0.995617, 201, 121, 232, 184
-0.995668, 173, 65, 204, 192
-0.995724, 1, 161, 128, 288
-0.995761, 129, 173, 256, 204
-0.995769, 49, 101, 176, 132
-0.995779, 189, 97, 220, 224
-0.995797, 129, 121, 256, 152
-0.995874, 287, 97, 302, 160
-0.995905, 1, 121, 500, 184
-0.995932, 277, 121, 292, 184
-0.995948, 129, 109, 256, 140
-0.996009, 97, 25, 224, 88
-0.996019, 97, 1, 224, 128
-0.996033, 289, 241, 416, 304
-0.996055, 225, 113, 240, 176
-0.996083, 81, 181, 208, 212
-0.996089, 177, 229, 304, 260
-0.996122, 155, 97, 170, 160
-0.996173, 257, 201, 320, 264
-0.996199, 273, 241, 288, 304
-0.99621, 161, 213, 288, 244
-0.996212, 273, 225, 336, 288
-0.996248, 281, 33, 312, 160
-0.996319, 161, 193, 416, 256
-0.996327, 185, 177, 200, 240
-0.996366, 341, 73, 372, 136
-0.996375, 267, 233, 282, 296
-0.996387, 249, 201, 264, 264
-0.996398, 341, 33, 372, 160
-0.996401, 161, 201, 288, 232
-0.99641, 237, 97, 268, 352
-0.996471, 89, 185, 152, 248
-0.996486, 161, 233, 224, 296
-0.99651, 193, 137, 320, 168
-0.99653, 97, 65, 352, 128
-0.996531, 253, 257, 284, 320
-0.996538, 193, 241, 320, 272
-0.99654, 139, 97, 154, 160
-0.996554, 227, 81, 242, 144
-0.996557, 255, 217, 270, 280
-0.996626, 281, 241, 344, 368
-0.99664, 165, 137, 196, 200
-0.996649, 227, 217, 242, 280
-0.996656, 231, 177, 246, 240
-0.996664, 249, 97, 280, 352
-0.996665, 313, 33, 344, 160
-0.99667, 233, 81, 248, 144
-0.996674, 1, 97, 500, 160
-0.996733, 1, 33, 32, 160
-0.996735, 1, 145, 500, 208
-0.99674, 367, 81, 382, 144
-0.996783, 1, 1, 256, 128
-0.996813, 225, 73, 480, 136
-0.996835, 151, 137, 166, 200
-0.996855, 33, 121, 288, 184
-0.99686, 253, 161, 284, 288
-0.996873, 261, 97, 276, 160
-0.996888, 209, 253, 336, 284
-0.996893, 145, 25, 208, 88
-0.996908, 81, 137, 144, 200
-0.996916, 261, 233, 276, 296
-0.99693, 193, 225, 448, 288
-0.996992, 177, 169, 192, 232
-0.996995, 185, 185, 216, 248
-0.997066, 177, 105, 304, 136
-0.997069, 369, 33, 400, 160
-0.997074, 139, 137, 154, 200
-0.997075, 49, 157, 176, 188
-0.997099, 185, 209, 216, 336
-0.997122, 89, 177, 104, 240
-0.997141, 69, 73, 100, 136
-0.997146, 193, 65, 224, 128
-0.997151, 145, 153, 160, 216
-0.99716, 1, 57, 256, 120
-0.997176, 255, 97, 270, 160
-0.99718, 405, 33, 436, 160
-0.997182, 105, 161, 120, 224
-0.997216, 177, 177, 304, 208
-0.997224, 145, 93, 272, 124
-0.99723, 309, 265, 340, 328
-0.997232, 123, 145, 138, 208
-0.997232, 243, 193, 258, 256
-0.997239, 165, 1, 196, 128
-0.997242, 129, 161, 160, 224
-0.997243, 245, 113, 260, 176
-0.997259, 317, 145, 348, 208
-0.997272, 263, 121, 278, 184
-0.997277, 279, 241, 294, 304
-0.997285, 223, 161, 238, 224
-0.997287, 157, 137, 172, 200
-0.997289, 257, 121, 272, 184
-0.997291, 265, 225, 296, 352
-0.997298, 151, 169, 166, 232
-0.997299, 99, 161, 114, 224
-0.9973, 1, 181, 128, 212
-0.997364, 1, 93, 128, 124
-0.997372, 33, 121, 160, 184
-0.997402, 377, 73, 408, 136
-0.997407, 61, 89, 76, 152
-0.997412, 237, 185, 252, 248
-0.997435, 81, 73, 112, 136
-0.997466, 297, 89, 312, 152
-0.997467, 111, 153, 126, 216
-0.997473, 193, 209, 208, 272
-0.997485, 449, 89, 464, 152
-0.997488, 373, 73, 388, 136
-0.997501, 17, 33, 48, 160
-0.997526, 9, 65, 40, 128
-0.997539, 191, 185, 206, 248
-0.997546, 431, 89, 446, 152
-0.997548, 445, 33, 476, 160
-0.997555, 197, 1, 212, 64
-0.997559, 225, 145, 288, 272
-0.997568, 335, 89, 350, 152
-0.997572, 405, 73, 436, 136
-0.997577, 89, 145, 120, 272
-0.99759, 91, 173, 106, 204
-0.997593, 133, 97, 148, 160
-0.997598, 233, 225, 248, 288
-0.997615, 241, 113, 368, 144
-0.997627, 225, 161, 480, 224
-0.997634, 275, 121, 290, 152
-0.99764, 1, 73, 500, 136
-0.997643, 221, 225, 236, 288
-0.997649, 177, 265, 304, 328
-0.997649, 217, 137, 232, 200
-0.997656, 469, 89, 484, 152
-0.997662, 97, 205, 224, 236
-0.997671, 321, 101, 448, 132
-0.997677, 213, 97, 244, 352
-0.997678, 191, 57, 206, 120
-0.997679, 189, 105, 220, 168
-0.997686, 125, 97, 140, 160
-0.997687, 169, 97, 200, 160
-0.997691, 469, 33, 500, 160
-0.997696, 41, 65, 72, 128
-0.997701, 369, 97, 496, 128
-0.997706, 71, 89, 86, 152
-0.997707, 283, 129, 298, 192
-0.997714, 55, 89, 70, 152
-0.997718, 381, 89, 396, 152
-0.99772, 77, 97, 92, 160
-0.997721, 87, 185, 102, 216
-0.997723, 177, 41, 304, 104
-0.997727, 269, 137, 284, 200
-0.99773, 197, 65, 212, 128
-0.997738, 45, 89, 60, 152
-0.997744, 193, 1, 320, 128
-0.997761, 243, 81, 258, 144
-0.997766, 39, 89, 54, 152
-0.997771, 101, 165, 116, 196
-0.997771, 111, 97, 126, 160
-0.997778, 265, 105, 280, 136
-0.997784, 23, 89, 38, 152
-0.997787, 85, 97, 100, 160
-0.997799, 31, 89, 46, 152
-0.997805, 209, 157, 336, 188
-0.997817, 93, 33, 124, 160
-0.997818, 233, 105, 248, 168
-0.997826, 91, 97, 106, 160
-0.997832, 99, 97, 114, 160
-0.997836, 89, 137, 120, 200
-0.997846, 253, 73, 284, 136
-0.99785, 145, 133, 160, 164
-0.99785, 475, 89, 490, 152
-0.997851, 225, 137, 240, 200
-0.997851, 69, 33, 100, 160
-0.997858, 303, 89, 318, 152
-0.997861, 353, 33, 384, 160
-0.997871, 463, 89, 478, 152
-0.997873, 257, 161, 384, 192
-0.997878, 113, 33, 144, 160
-0.997884, 443, 89, 458, 152
-0.997884, 197, 177, 228, 240
-0.997884, 347, 97, 362, 160
-0.997884, 161, 177, 176, 240
-0.997891, 241, 225, 368, 256
-0.997896, 163, 137, 178, 200
-0.997898, 117, 97, 132, 160
-0.997898, 97, 1, 224, 64
-0.997908, 293, 33, 324, 160
-0.997914, 425, 97, 440, 160
-0.997919, 289, 249, 304, 312
-0.997924, 1, 89, 16, 152
-0.997927, 251, 121, 266, 184
-0.997932, 437, 89, 452, 152
-0.997937, 245, 241, 260, 304
-0.997938, 181, 1, 212, 128
-0.997939, 161, 97, 176, 160
-0.997947, 29, 33, 60, 160
-0.997951, 17, 89, 32, 152
-0.997953, 233, 249, 248, 312
-0.997954, 483, 89, 498, 152
-0.997976, 275, 73, 290, 136
-0.997982, 281, 101, 296, 132
-0.997984, 413, 97, 428, 160
-0.997984, 225, 117, 240, 148
-0.997987, 317, 89, 332, 152
-0.99799, 201, 225, 216, 288
-0.99799, 405, 97, 420, 160
-0.997993, 329, 89, 344, 152
-0.997993, 109, 161, 124, 192
-0.997998, 361, 89, 376, 152
-0.998003, 225, 197, 352, 228
-0.998004, 341, 89, 356, 152
-0.998011, 419, 97, 434, 160
-0.998017, 393, 97, 408, 160
-0.998021, 241, 125, 368, 156
-0.998023, 269, 117, 284, 148
-0.998034, 117, 153, 132, 216
-0.998039, 149, 101, 164, 132
-0.998042, 243, 193, 258, 224
-0.998051, 399, 97, 414, 160
-0.998053, 49, 161, 112, 288
-0.998054, 353, 97, 368, 160
-0.998063, 179, 177, 194, 208
-0.998065, 453, 65, 484, 128
-0.998069, 9, 89, 24, 152
-0.998073, 365, 65, 396, 128
-0.998075, 105, 97, 120, 160
-0.998087, 167, 177, 182, 240
-0.998089, 231, 177, 246, 208
-0.99809, 41, 33, 72, 160
-0.998105, 129, 241, 256, 272
-0.99811, 455, 89, 470, 152
-0.998121, 387, 97, 402, 160
-0.998121, 227, 249, 242, 312
-0.998128, 173, 113, 204, 240
-0.998138, 181, 57, 196, 120
-0.998148, 151, 169, 166, 200
-0.998148, 283, 253, 298, 284
-0.998154, 221, 81, 236, 144
-0.998157, 169, 145, 184, 208
-0.998158, 49, 145, 176, 176
-0.998159, 321, 85, 448, 116
-0.998164, 239, 113, 254, 176
-0.998165, 97, 193, 224, 224
-0.998168, 135, 137, 150, 168
-0.998168, 225, 265, 352, 296
-0.998171, 271, 105, 286, 136
-0.998184, 457, 33, 488, 160
-0.998192, 281, 125, 296, 156
-0.998193, 129, 145, 144, 208
-0.998212, 369, 85, 384, 116
-0.998215, 105, 65, 136, 320
-0.998217, 249, 249, 264, 280
-0.998222, 183, 145, 198, 208
-0.998224, 283, 73, 298, 136
-0.998232, 255, 241, 270, 304
-0.998232, 237, 33, 268, 160
-0.998233, 57, 33, 88, 160
-0.998243, 275, 245, 290, 276
-0.998244, 117, 157, 132, 188
-0.998252, 267, 237, 282, 268
-0.998269, 323, 89, 338, 152
-0.99827, 81, 185, 112, 248
-0.998279, 145, 133, 176, 148
-0.99828, 209, 89, 240, 104
-0.99828, 369, 173, 384, 204
-0.998282, 285, 133, 316, 148
-0.998282, 357, 179, 388, 194
-0.998283, 289, 261, 320, 276
-0.998285, 369, 177, 400, 192
-0.998286, 197, 221, 228, 236
-0.998286, 209, 169, 240, 184
-0.998286, 173, 191, 204, 206
-0.998287, 221, 185, 252, 200
-0.998287, 237, 183, 268, 198
-0.998287, 193, 101, 224, 116
-0.998288, 5, 87, 36, 102
-0.998288, 249, 169, 280, 232
-0.998289, 313, 273, 344, 288
-0.998291, 373, 103, 404, 118
-0.998292, 233, 201, 264, 216
-0.998294, 85, 185, 116, 200
-0.998294, 345, 161, 376, 176
-0.998294, 217, 253, 248, 268
-0.998294, 241, 101, 272, 116
-0.998295, 187, 185, 202, 216
-0.998295, 213, 117, 244, 132
-0.998296, 261, 97, 292, 352
-0.998297, 101, 161, 132, 176
-0.998297, 1, 1, 128, 64
-0.998297, 241, 229, 272, 244
-0.998298, 81, 65, 112, 320
-0.998298, 113, 103, 144, 118
-0.998299, 141, 145, 172, 160
-0.998299, 193, 1, 224, 64
-0.9983, 377, 97, 408, 112
-0.9983, 177, 211, 208, 226
-0.9983, 257, 139, 288, 154
-0.998301, 249, 133, 280, 148
-0.998302, 177, 71, 208, 86
-0.998302, 305, 97, 336, 112
-0.998302, 245, 269, 276, 284
-0.998302, 53, 177, 84, 192
-0.998302, 237, 261, 268, 276
-0.998304, 221, 153, 252, 168
-0.998304, 205, 161, 236, 176
-0.998304, 469, 97, 500, 112
-0.998304, 213, 225, 244, 240
-0.998305, 233, 215, 264, 230
-0.998305, 157, 107, 188, 122
-0.998305, 261, 271, 292, 286
-0.998306, 329, 99, 360, 114
-0.998307, 185, 17, 216, 32
-0.998307, 221, 147, 252, 162
-0.998307, 405, 101, 436, 116
-0.998308, 181, 223, 212, 238
-0.998309, 345, 101, 376, 116
-0.99831, 317, 97, 348, 112
-0.99831, 293, 97, 324, 112
-0.998311, 233, 105, 248, 136
-0.998311, 273, 275, 304, 290
-0.998313, 205, 97, 236, 112
-0.998317, 237, 221, 268, 236
-0.998317, 233, 255, 264, 270
-0.998319, 253, 239, 284, 254
-0.99832, 105, 173, 136, 188
-0.998322, 133, 167, 164, 182
-0.998322, 9, 93, 40, 108
-0.998323, 273, 263, 304, 278
-0.998324, 181, 9, 212, 24
-0.998324, 33, 169, 48, 232
-0.998325, 69, 99, 100, 114
-0.998325, 253, 231, 284, 246
-0.998326, 125, 177, 156, 192
-0.998326, 225, 221, 240, 252
-0.998326, 229, 195, 260, 210
-0.998329, 207, 225, 222, 288
-0.99833, 257, 253, 272, 284
-0.998331, 265, 253, 296, 268
-0.998331, 125, 105, 156, 120
-0.998332, 101, 103, 132, 118
-0.998334, 149, 119, 180, 134
-0.998335, 165, 25, 196, 40
-0.998335, 417, 99, 448, 114
-0.998337, 305, 267, 336, 282
-0.998339, 73, 185, 104, 200
-0.998339, 261, 209, 276, 272
-0.99834, 125, 145, 156, 160
-0.998341, 45, 97, 76, 112
-0.998343, 57, 99, 88, 114
-0.998343, 261, 261, 292, 276
-0.998343, 269, 141, 300, 156
-0.998344, 81, 101, 112, 116
-0.998344, 193, 249, 448, 312
-0.998345, 429, 97, 460, 112
-0.998345, 113, 153, 144, 168
-0.998345, 25, 95, 56, 110
-0.998346, 277, 255, 308, 270
-0.998347, 301, 153, 332, 168
-0.998349, 281, 99, 312, 114
-0.99835, 217, 179, 248, 194
-0.998351, 237, 121, 268, 136
-0.998352, 81, 173, 112, 188
-0.998353, 157, 183, 188, 198
-0.998353, 221, 109, 252, 124
-0.998354, 169, 185, 200, 200
-0.998354, 231, 93, 246, 124
-0.998357, 221, 91, 252, 106
-0.998358, 141, 179, 172, 194
-0.998359, 101, 179, 132, 194
-0.998359, 245, 127, 276, 142
-0.99836, 353, 93, 384, 108
-0.99836, 239, 233, 254, 296
-0.998363, 143, 157, 158, 188
-0.998366, 193, 209, 208, 240
-0.998367, 181, 65, 212, 80
-0.998368, 249, 109, 280, 124
-0.998369, 257, 247, 288, 262
-0.998371, 225, 209, 352, 240
-0.998372, 275, 261, 290, 292
-0.998378, 129, 225, 256, 256
-0.998379, 5, 189, 36, 204
-0.998381, 221, 145, 252, 208
-0.998385, 65, 113, 192, 144
-0.998385, 285, 269, 316, 284
-0.998386, 49, 183, 80, 198
-0.998387, 153, 173, 184, 188
-0.998389, 193, 85, 320, 116
-0.998391, 125, 157, 156, 172
-0.998402, 233, 249, 264, 264
-0.998404, 227, 105, 242, 136
-0.998405, 125, 153, 140, 184
-0.998405, 263, 129, 278, 160
-0.998406, 293, 147, 324, 162
-0.998408, 155, 105, 170, 136
-0.998408, 181, 129, 212, 192
-0.998411, 313, 157, 344, 172
-0.998412, 375, 97, 390, 160
-0.998413, 219, 157, 234, 188
-0.998414, 349, 173, 380, 188
-0.998415, 21, 187, 52, 202
-0.998417, 225, 181, 352, 212
-0.998418, 265, 105, 296, 120
-0.998422, 89, 179, 120, 194
-0.998422, 245, 255, 276, 270
-0.998423, 29, 65, 60, 128
-0.998425, 261, 229, 276, 260
-0.998425, 141, 65, 172, 320
-0.998426, 33, 185, 64, 200
-0.998433, 157, 65, 188, 320
-0.998436, 231, 145, 246, 208
-0.998437, 337, 167, 368, 182
-0.998439, 271, 93, 286, 124
-0.998439, 311, 89, 326, 152
-0.998442, 365, 95, 396, 110
-0.998442, 245, 117, 260, 148
-0.998443, 253, 115, 284, 130
-0.998443, 137, 173, 168, 188
-0.998452, 389, 73, 420, 136
-0.998457, 261, 121, 292, 136
-0.998457, 137, 105, 168, 120
-0.998459, 61, 183, 92, 198
-0.998463, 213, 233, 228, 296
-0.998464, 281, 141, 312, 156
-0.998464, 85, 173, 100, 204
-0.998464, 161, 253, 288, 284
-0.998465, 97, 89, 224, 120
-0.99847, 151, 121, 166, 152
-0.998474, 141, 139, 172, 154
-0.998475, 325, 163, 356, 178
-0.998478, 113, 159, 144, 174
-0.998486, 93, 73, 124, 136
-0.998486, 285, 65, 316, 320
-0.998486, 353, 65, 384, 320
-0.998487, 265, 129, 296, 144
-0.998487, 269, 135, 300, 150
-0.998491, 169, 179, 200, 194
-0.998492, 101, 167, 132, 182
-0.998492, 85, 97, 100, 128
-0.998493, 73, 179, 104, 194
-0.998495, 105, 159, 168, 174
-0.998498, 215, 113, 230, 176
-0.998503, 255, 125, 270, 156
-0.998504, 287, 133, 302, 164
-0.998508, 209, 119, 272, 134
-0.998512, 201, 241, 232, 304
-0.998514, 239, 97, 254, 128
-0.998519, 225, 117, 256, 132
-0.998519, 135, 101, 150, 132
-0.998523, 113, 177, 176, 192
-0.998524, 93, 173, 124, 188
-0.998532, 49, 181, 112, 196
-0.998534, 79, 177, 94, 208
-0.998538, 369, 85, 496, 116
-0.998539, 49, 93, 64, 124
-0.998545, 255, 225, 270, 256
-0.998545, 333, 65, 364, 320
-0.998549, 233, 251, 296, 266
-0.99855, 17, 169, 144, 200
-0.998553, 133, 33, 164, 160
-0.998556, 263, 257, 278, 288
-0.998559, 73, 179, 136, 194
-0.998561, 257, 137, 384, 200
-0.998569, 25, 183, 88, 198
-0.998571, 187, 61, 202, 92
-0.998573, 209, 125, 272, 140
-0.998574, 249, 141, 312, 156
-0.998583, 137, 179, 200, 194
-0.998584, 217, 113, 280, 128
-0.998587, 433, 65, 464, 128
-0.998587, 97, 165, 160, 180
-0.998588, 105, 105, 168, 120
-0.998593, 173, 177, 188, 208
-0.998594, 1, 81, 128, 112
-0.998596, 273, 173, 400, 204
-0.998598, 241, 257, 304, 272
-0.998599, 233, 125, 296, 140
-0.9986, 49, 133, 176, 164
-0.998601, 281, 97, 344, 112
-0.998603, 273, 271, 336, 286
-0.998605, 185, 177, 248, 192
-0.998606, 241, 133, 304, 148
-0.998606, 225, 245, 288, 260
-0.998607, 249, 205, 264, 236
-0.998608, 279, 141, 294, 172
-0.998612, 129, 141, 192, 156
-0.998612, 241, 115, 304, 130
-0.998612, 329, 93, 392, 108
-0.998613, 121, 171, 184, 186
-0.998614, 325, 153, 340, 184
-0.998614, 217, 131, 280, 146
-0.998616, 89, 171, 152, 186
-0.998619, 137, 135, 200, 150
-0.99862, 193, 191, 256, 206
-0.998621, 123, 101, 138, 132
-0.998623, 255, 109, 270, 140
-0.998623, 109, 129, 140, 192
-0.998623, 137, 149, 152, 180
-0.998624, 113, 73, 144, 136
-0.998627, 125, 151, 156, 166
-0.998628, 15, 89, 30, 120
-0.998628, 369, 95, 432, 110
-0.99863, 145, 101, 208, 116
-0.998631, 243, 245, 258, 276
-0.998632, 185, 183, 248, 198
-0.998632, 409, 99, 472, 114
-0.998632, 143, 105, 158, 136
-0.998633, 257, 265, 320, 280
-0.998635, 257, 101, 320, 116
-0.998638, 161, 101, 176, 132
-0.998639, 257, 127, 320, 142
-0.998641, 49, 99, 112, 114
-0.998641, 25, 97, 88, 112
-0.998643, 193, 97, 256, 112
-0.998644, 113, 153, 176, 168
-0.998645, 265, 135, 328, 150
-0.998646, 393, 33, 424, 160
-0.998646, 363, 173, 378, 204
-0.998646, 217, 99, 280, 114
-0.998648, 257, 107, 320, 122
-0.998652, 217, 107, 280, 122
-0.998652, 209, 223, 272, 238
-0.998654, 177, 129, 240, 144
-0.998655, 65, 173, 128, 188
-0.998656, 81, 193, 96, 224
-0.998658, 209, 255, 272, 270
-0.99866, 333, 157, 348, 188
-0.998661, 329, 99, 392, 114
-0.998661, 1, 93, 64, 108
-0.998662, 281, 265, 344, 280
-0.998663, 217, 235, 280, 250
-0.998666, 217, 137, 280, 152
-0.998668, 137, 129, 200, 144
-0.99867, 257, 121, 320, 136
-0.99867, 153, 107, 216, 122
-0.998672, 1, 189, 64, 204
-0.998672, 265, 147, 328, 162
-0.998673, 193, 91, 256, 106
-0.998673, 145, 185, 208, 200
-0.998674, 81, 103, 144, 118
-0.998674, 297, 163, 360, 178
-0.998675, 423, 97, 438, 128
-0.998675, 185, 221, 248, 236
-0.99868, 145, 173, 208, 188
-0.99868, 9, 89, 24, 120
-0.998681, 137, 153, 200, 168
-0.998682, 57, 65, 88, 128
-0.998682, 297, 65, 328, 128
-0.998682, 333, 153, 364, 216
-0.998682, 385, 101, 448, 116
-0.998682, 225, 229, 288, 244
-0.998684, 305, 97, 368, 112
-0.998684, 237, 241, 252, 272
-0.998685, 265, 257, 328, 272
-0.998686, 77, 97, 92, 128
-0.998687, 43, 93, 58, 124
-0.998688, 209, 217, 272, 232
-0.998688, 201, 199, 264, 214
-0.998688, 269, 257, 284, 288
-0.99869, 273, 277, 336, 292
-0.998691, 137, 123, 200, 138
-0.998691, 169, 69, 232, 84
-0.998691, 91, 97, 106, 128
-0.998693, 273, 153, 336, 168
-0.998693, 169, 83, 232, 98
-0.998693, 129, 101, 144, 132
-0.998694, 233, 265, 296, 280
-0.998694, 161, 179, 224, 194
-0.998695, 249, 271, 312, 286
-0.998695, 201, 249, 264, 264
-0.998695, 237, 185, 252, 216
-0.998696, 177, 161, 240, 176
-0.998697, 369, 97, 384, 128
-0.998698, 169, 135, 232, 150
-0.998698, 177, 123, 240, 138
-0.998699, 177, 167, 240, 182
-0.998699, 233, 93, 296, 108
-0.9987, 177, 143, 240, 158
-0.9987, 185, 227, 248, 242
-0.998702, 315, 265, 330, 296
-0.998703, 121, 147, 184, 162
-0.998703, 169, 117, 232, 132
-0.998703, 97, 143, 160, 158
-0.998704, 177, 107, 240, 122
-0.998704, 97, 137, 160, 152
-0.998705, 225, 181, 288, 196
-0.998706, 433, 97, 496, 112
-0.998706, 313, 171, 376, 186
-0.998706, 329, 87, 392, 102
-0.998706, 161, 75, 224, 90
-0.998707, 153, 193, 216, 208
-0.998707, 351, 165, 366, 196
-0.998707, 113, 111, 176, 126
-0.998708, 217, 159, 280, 174
-0.998709, 209, 205, 272, 220
-0.99871, 241, 207, 304, 222
-0.99871, 177, 149, 240, 164
-0.998711, 217, 169, 280, 184
-0.998711, 195, 61, 210, 92
-0.998711, 153, 25, 216, 40
-0.998712, 241, 197, 304, 212
-0.998713, 137, 161, 200, 176
-0.998714, 249, 225, 312, 240
-0.998714, 185, 215, 248, 230
-0.998714, 121, 117, 184, 132
-0.998715, 341, 161, 356, 192
-0.998715, 25, 177, 88, 192
-0.998715, 305, 269, 368, 284
-0.998716, 1, 225, 256, 288
-0.998716, 209, 151, 272, 166
-0.998716, 209, 261, 272, 276
-0.998717, 249, 217, 312, 232
-0.998718, 145, 167, 208, 182
-0.998719, 153, 221, 216, 236
-0.998719, 233, 187, 296, 202
-0.99872, 361, 103, 424, 118
-0.998722, 185, 207, 248, 222
-0.998723, 153, 227, 216, 242
-0.998724, 179, 65, 194, 96
-0.998724, 297, 157, 360, 172
-0.998725, 177, 155, 240, 170
-0.998726, 201, 243, 264, 258
-0.998727, 49, 93, 112, 108
-0.998728, 37, 93, 52, 124
-0.998729, 153, 209, 216, 224
-0.99873, 249, 245, 312, 260
-0.99873, 153, 199, 216, 214
-0.99873, 49, 187, 112, 202
-0.998731, 49, 193, 176, 256
-0.998731, 261, 209, 292, 272
-0.998731, 209, 145, 272, 160
-0.998731, 169, 91, 232, 106
-0.998739, 271, 141, 286, 172
-0.998739, 157, 117, 172, 148
-0.99874, 163, 181, 178, 212
-0.998748, 3, 89, 18, 120
-0.99875, 289, 97, 304, 128
-0.998768, 249, 217, 264, 248
-0.998771, 375, 89, 390, 120
-0.998771, 215, 109, 230, 140
-0.998773, 305, 169, 432, 232
-0.998774, 291, 257, 306, 288
-0.998775, 225, 145, 240, 176
-0.998776, 121, 65, 152, 320
-0.998778, 221, 101, 236, 132
-0.998778, 157, 177, 172, 208
-0.998779, 257, 85, 384, 116
-0.998779, 115, 101, 130, 132
-0.998785, 191, 5, 206, 36
-0.998789, 351, 97, 366, 128
-0.99879, 241, 257, 272, 320
-0.998793, 71, 97, 86, 128
-0.998795, 195, 221, 210, 252
-0.998796, 109, 101, 124, 132
-0.9988, 225, 169, 240, 200
-0.998802, 281, 265, 296, 296
-0.998804, 103, 101, 118, 132
-0.998817, 61, 97, 76, 128
-0.998818, 215, 129, 230, 160
-0.998821, 163, 121, 178, 152
-0.998821, 381, 33, 412, 160
-0.998824, 31, 93, 46, 124
-0.998827, 191, 197, 206, 228
-0.998832, 225, 1, 256, 256
-0.998834, 109, 129, 140, 256
-0.998834, 363, 85, 378, 116
-0.998838, 223, 85, 238, 116
-0.998838, 53, 177, 68, 208
-0.998841, 23, 93, 38, 124
-0.998842, 317, 149, 332, 180
-0.998843, 485, 93, 500, 124
-0.998844, 53, 1, 84, 256
-0.998845, 429, 97, 444, 128
-0.998845, 239, 113, 254, 144
-0.998853, 97, 101, 112, 132
-0.998854, 189, 145, 220, 272
-0.998857, 417, 97, 432, 128
-0.998859, 225, 237, 240, 268
-0.998863, 345, 97, 360, 128
-0.998864, 361, 97, 376, 128
-0.998867, 145, 169, 160, 200
-0.998868, 399, 101, 414, 132
-0.998871, 47, 177, 62, 208
-0.998872, 303, 261, 318, 292
-0.998873, 55, 93, 70, 124
-0.998875, 235, 257, 250, 288
-0.998878, 181, 129, 212, 375
-0.998879, 161, 65, 288, 96
-0.998891, 203, 233, 218, 264
-0.998893, 317, 93, 332, 124
-0.998898, 65, 65, 96, 320
-0.998912, 177, 153, 208, 216
-0.998914, 1, 13, 128, 44
-0.998916, 93, 65, 124, 320
-0.998916, 305, 145, 336, 208
-0.998927, 337, 177, 464, 208
-0.998927, 241, 177, 256, 304
-0.998933, 353, 165, 480, 196
-0.998936, 227, 81, 242, 208
-0.998937, 135, 81, 150, 208
-0.998939, 145, 81, 160, 208
-0.998944, 129, 1, 384, 64
-0.998948, 257, 241, 384, 272
-0.998948, 309, 65, 340, 128
-0.998993, 201, 97, 232, 352
-0.998997, 49, 85, 176, 116
-0.999002, 231, 161, 246, 288
-0.999016, 273, 33, 304, 288
-0.999022, 1, 169, 500, 232
-0.999027, 249, 193, 264, 320
-0.999037, 353, 153, 480, 216
-0.999058, 365, 65, 396, 320
-0.999077, 97, 25, 224, 56
-0.999086, 33, 65, 64, 320
-0.999093, 301, 65, 332, 320
-0.999097, 155, 81, 170, 208
-0.999116, 441, 65, 472, 320
-0.999124, 413, 65, 444, 320
-0.999132, 21, 65, 52, 320
-0.999137, 161, 13, 288, 44
-0.999142, 321, 65, 352, 320
-0.999142, 9, 65, 40, 320
-0.999146, 469, 65, 500, 128
-0.999154, 325, 33, 356, 160
-0.999157, 281, 81, 296, 208
-0.99916, 337, 129, 400, 192
-0.999165, 243, 97, 258, 224
-0.999165, 49, 193, 176, 224
-0.999172, 469, 65, 500, 320
-0.999185, 273, 217, 304, 280
-0.999207, 225, 161, 240, 288
-0.999224, 145, 129, 160, 256
-0.999225, 235, 97, 250, 224
-0.999225, 385, 65, 416, 320
-0.999228, 457, 65, 488, 320
-0.999252, 273, 65, 288, 192
-0.999254, 161, 97, 176, 224
-0.999259, 185, 161, 200, 288
-0.99926, 65, 217, 192, 280
-0.999273, 257, 209, 272, 336
-0.999281, 185, 1, 248, 64
-0.999284, 321, 49, 448, 112
-0.99929, 121, 81, 136, 208
-0.999291, 241, 141, 368, 172
-0.9993, 81, 33, 112, 160
-0.999305, 309, 81, 324, 208
-0.999314, 1, 193, 128, 224
-0.999317, 321, 81, 336, 208
-0.999328, 129, 81, 144, 208
-0.99933, 429, 65, 460, 320
-0.999332, 257, 253, 384, 284
-0.999336, 219, 145, 234, 272
-0.999337, 397, 65, 428, 320
-0.999339, 287, 81, 302, 208
-0.99934, 151, 129, 166, 256
-0.999341, 293, 233, 324, 296
-0.999341, 245, 1, 276, 256
-0.999346, 113, 65, 240, 96
-0.999355, 191, 177, 206, 304
-0.999355, 81, 49, 208, 112
-0.999358, 249, 113, 264, 240
-0.999365, 321, 153, 448, 184
-0.999366, 105, 81, 120, 208
-0.999371, 193, 1, 224, 256
-0.99938, 31, 81, 46, 208
-0.999388, 355, 81, 370, 208
-0.999396, 367, 65, 382, 192
-0.999398, 273, 269, 400, 300
-0.999411, 95, 81, 110, 208
-0.999411, 179, 161, 194, 288
-0.999413, 177, 265, 304, 296
-0.999413, 305, 241, 368, 304
-0.99942, 345, 81, 360, 208
-0.999431, 269, 129, 284, 256
-0.999435, 65, 5, 192, 36
-0.999438, 37, 81, 52, 208
-0.999438, 83, 81, 98, 208
-0.999439, 115, 81, 130, 208
-0.999451, 167, 113, 182, 240
-0.999453, 57, 145, 120, 208
-0.999456, 165, 161, 180, 288
-0.999465, 315, 81, 330, 208
-0.999467, 173, 33, 204, 288
-0.999469, 197, 193, 212, 320
-0.999471, 173, 161, 188, 288
-0.999476, 265, 209, 280, 336
-0.999477, 89, 81, 104, 208
-0.999479, 221, 97, 236, 224
-0.999482, 189, 153, 220, 216
-0.999485, 25, 81, 40, 208
-0.999494, 165, 73, 196, 136
-0.999499, 263, 113, 278, 240
-0.999499, 161, 65, 192, 192
-0.999501, 161, 149, 288, 180
-0.999503, 43, 81, 58, 208
-0.999506, 361, 81, 376, 208
-0.999506, 293, 81, 308, 208
-0.999508, 177, 53, 304, 84
-0.999512, 341, 99, 356, 114
-0.999512, 223, 151, 238, 166
-0.999512, 363, 93, 378, 108
-0.999512, 303, 143, 318, 158
-0.999513, 161, 105, 176, 120
-0.999514, 225, 125, 240, 140
-0.999514, 119, 177, 134, 192
-0.999514, 91, 173, 106, 188
-0.999516, 7, 193, 22, 208
-0.999516, 241, 111, 256, 126
-0.999517, 217, 161, 232, 176
-0.999517, 423, 99, 438, 114
-0.999517, 77, 99, 92, 114
-0.999517, 125, 103, 140, 118
-0.999518, 233, 185, 248, 200
-0.999519, 245, 201, 260, 216
-0.999519, 105, 177, 136, 240
-0.999521, 281, 265, 296, 280
-0.999521, 49, 81, 64, 208
-0.999521, 99, 101, 114, 116
-0.999522, 183, 23, 198, 38
-0.999523, 187, 71, 202, 86
-0.999524, 197, 203, 212, 218
-0.999524, 33, 185, 48, 200
-0.999524, 253, 257, 268, 272
-0.999525, 179, 69, 194, 84
-0.999527, 19, 93, 34, 108
-0.999527, 463, 81, 478, 208
-0.999527, 473, 81, 488, 208
-0.999527, 275, 111, 290, 126
-0.999528, 249, 217, 264, 232
-0.999528, 137, 103, 152, 118
-0.999528, 239, 225, 254, 352
-0.999529, 267, 241, 282, 256
-0.999529, 275, 271, 290, 286
-0.99953, 275, 249, 290, 264
-0.99953, 85, 99, 100, 114
-0.999531, 267, 139, 282, 154
-0.999531, 65, 81, 80, 208
-0.999531, 73, 81, 88, 208
-0.999531, 141, 159, 156, 174
-0.999531, 35, 95, 50, 110
-0.999532, 59, 81, 74, 208
-0.999532, 243, 95, 258, 110
-0.999532, 423, 81, 438, 208
-0.999532, 275, 145, 290, 160
-0.999533, 277, 127, 292, 142
-0.999533, 217, 65, 280, 128
-0.999533, 189, 195, 204, 210
-0.999533, 1, 91, 16, 106
-0.999535, 279, 133, 294, 148
-0.999535, 103, 165, 118, 180
-0.999536, 55, 97, 70, 112
-0.999536, 159, 145, 174, 272
-0.999536, 427, 17, 442, 144
-0.999537, 185, 63, 200, 78
-0.999537, 327, 81, 342, 208
-0.999537, 319, 269, 334, 284
-0.999538, 239, 247, 254, 262
-0.999538, 439, 81, 454, 208
-0.999538, 453, 81, 468, 208
-0.999538, 255, 113, 270, 240
-0.999538, 225, 109, 240, 124
-0.999539, 485, 81, 500, 208
-0.999539, 113, 177, 128, 192
-0.999539, 197, 99, 212, 114
-0.999542, 259, 229, 274, 244
-0.999542, 49, 183, 64, 198
-0.999542, 117, 155, 132, 170
-0.999542, 93, 101, 108, 116
-0.999542, 143, 105, 158, 120
-0.999542, 227, 89, 242, 104
-0.999543, 283, 255, 298, 270
-0.999544, 113, 103, 128, 118
-0.999544, 269, 115, 284, 130
-0.999545, 75, 185, 90, 200
-0.999545, 221, 169, 236, 184
-0.999546, 135, 143, 150, 158
-0.999546, 407, 81, 422, 208
-0.999546, 417, 81, 432, 208
-0.999546, 71, 99, 86, 114
-0.999547, 253, 125, 268, 140
-0.999547, 9, 81, 24, 208
-0.999549, 303, 81, 318, 208
-0.99955, 17, 81, 32, 208
-0.999551, 375, 81, 390, 208
-0.999551, 69, 181, 84, 196
-0.999551, 275, 113, 290, 240
-0.999553, 401, 81, 416, 208
-0.999553, 281, 103, 296, 118
-0.999554, 235, 111, 250, 126
-0.999554, 169, 183, 184, 198
-0.999554, 479, 81, 494, 208
-0.999555, 179, 1, 194, 128
-0.999555, 151, 175, 166, 190
-0.999556, 59, 181, 74, 196
-0.999557, 39, 183, 54, 198
-0.999558, 263, 235, 278, 250
-0.999559, 245, 119, 260, 134
-0.999559, 95, 181, 110, 196
-0.999561, 261, 109, 276, 124
-0.999561, 185, 185, 200, 200
-0.999562, 447, 81, 462, 208
-0.999562, 217, 113, 232, 128
-0.999563, 165, 25, 180, 40
-0.999564, 3, 81, 18, 208
-0.999564, 173, 177, 188, 192
-0.999565, 159, 111, 174, 126
-0.999567, 295, 143, 310, 158
-0.999567, 97, 169, 112, 184
-0.999567, 163, 183, 178, 198
-0.999568, 235, 117, 250, 132
-0.99957, 241, 195, 256, 210
-0.99957, 193, 221, 208, 236
-0.99957, 355, 173, 370, 188
-0.999571, 339, 81, 354, 208
-0.999572, 27, 187, 42, 202
-0.999574, 333, 81, 348, 208
-0.999574, 197, 9, 212, 24
-0.999575, 389, 81, 404, 208
-0.999576, 225, 209, 240, 336
-0.999577, 3, 1, 18, 128
-0.999577, 217, 225, 232, 352
-0.999578, 157, 117, 172, 132
-0.999578, 103, 177, 118, 192
-0.999581, 303, 149, 318, 164
-0.999581, 371, 89, 386, 104
-0.999581, 433, 81, 448, 208
-0.999582, 145, 137, 160, 152
-0.999583, 19, 189, 34, 204
-0.999583, 193, 213, 208, 228
-0.999583, 369, 95, 384, 110
-0.999583, 395, 81, 410, 208
-0.999585, 367, 175, 382, 190
-0.999586, 275, 121, 290, 136
-0.999587, 375, 95, 390, 110
-0.999588, 245, 253, 260, 268
-0.999589, 203, 209, 218, 336
-0.999591, 225, 223, 240, 238
-0.999592, 13, 191, 28, 206
-0.999593, 259, 129, 274, 144
-0.999595, 85, 191, 100, 206
-0.999601, 309, 149, 324, 164
-0.999601, 349, 169, 364, 184
-0.999603, 433, 33, 448, 160
-0.999605, 255, 65, 270, 192
-0.999606, 229, 179, 244, 194
-0.999606, 215, 65, 230, 192
-0.99961, 327, 157, 342, 172
-0.999611, 381, 81, 396, 208
-0.999612, 361, 173, 376, 188
-0.999613, 343, 165, 358, 180
-0.999613, 33, 145, 48, 272
-0.999613, 233, 225, 248, 352
-0.999614, 317, 153, 332, 168
-0.999617, 79, 179, 94, 194
-0.999618, 81, 185, 96, 200
-0.99962, 151, 105, 166, 120
-0.999621, 247, 241, 262, 368
-0.999624, 335, 161, 350, 176
-0.999625, 209, 209, 224, 336
-0.999625, 111, 161, 126, 176
-0.999628, 227, 117, 242, 132
-0.999634, 267, 65, 282, 192
-0.999635, 89, 185, 104, 200
-0.999641, 285, 139, 300, 154
-0.999643, 139, 129, 154, 256
-0.999646, 87, 179, 102, 194
-0.99965, 273, 129, 304, 375
-0.999651, 149, 169, 164, 184
-0.999653, 269, 105, 284, 120
-0.999653, 421, 33, 436, 160
-0.999654, 117, 161, 132, 176
-0.999654, 271, 209, 286, 336
-0.999656, 321, 65, 352, 128
-0.999659, 123, 157, 138, 172
-0.999661, 169, 129, 200, 375
-0.999661, 439, 33, 454, 160
-0.999668, 109, 167, 124, 182
-0.999668, 173, 113, 188, 240
-0.99967, 127, 151, 142, 166
-0.999676, 145, 33, 160, 160
-0.999679, 185, 1, 200, 128
-0.999683, 135, 149, 150, 164
-0.99969, 257, 161, 272, 288
-0.999691, 103, 171, 118, 186
-0.999691, 283, 33, 298, 160
-0.999693, 181, 113, 196, 240
-0.999694, 179, 179, 194, 194
-0.999695, 277, 225, 308, 352
-0.999696, 331, 33, 346, 160
-0.999701, 375, 33, 390, 160
-0.999704, 203, 161, 218, 288
-0.999719, 97, 175, 112, 190
-0.999721, 187, 113, 202, 240
-0.999724, 323, 33, 338, 160
-0.999727, 261, 65, 276, 192
-0.999729, 317, 33, 332, 160
-0.999734, 11, 33, 26, 160
-0.999741, 445, 33, 460, 160
-0.999745, 309, 33, 324, 160
-0.999746, 197, 145, 212, 272
-0.999747, 361, 33, 376, 160
-0.999751, 233, 33, 248, 160
-0.999753, 243, 33, 258, 160
-0.999754, 349, 33, 364, 160
-0.999754, 25, 33, 40, 160
-0.999755, 119, 33, 134, 160
-0.999755, 127, 129, 142, 256
-0.999756, 31, 33, 46, 160
-0.999758, 293, 33, 308, 160
-0.999758, 125, 33, 140, 160
-0.99976, 37, 33, 52, 160
-0.999762, 249, 49, 264, 176
-0.999762, 133, 33, 148, 160
-0.999763, 451, 33, 466, 160
-0.999765, 83, 33, 98, 160
-0.999768, 265, 273, 296, 336
-0.999786, 273, 129, 304, 256
-0.999789, 145, 25, 272, 56
-0.999804, 305, 257, 432, 288
-0.999819, 113, 77, 240, 108
-0.999838, 209, 73, 336, 104
-0.999843, 157, 25, 188, 88
-0.99985, 157, 113, 188, 176
-0.999894, 225, 277, 352, 308
-0.999902, 121, 185, 184, 248
-0.999948, 321, 141, 448, 172
-0.99995, 33, 1, 288, 64
-0.999952, 209, 201, 240, 264
-1.00002, 225, 121, 480, 184
-1.00003, 193, 49, 448, 112
-1.00004, 205, 1, 236, 256
-1.00004, 261, 1, 292, 256
-1.00005, 17, 161, 48, 288
-1.00005, 49, 1, 176, 64
-1.00011, 1, 69, 128, 100
-1.00013, 97, 53, 224, 84
-1.00014, 1, 157, 128, 188
-1.00015, 161, 1, 288, 32
-1.00017, 97, 265, 352, 328
-1.00019, 1, 249, 500, 312
-1.00023, 81, 237, 208, 268
-1.00025, 289, 117, 416, 148
-1.00025, 273, 69, 400, 100
-1.00026, 421, 65, 452, 128
-1.00026, 193, 273, 448, 336
-1.00027, 81, 225, 208, 256
-1.00029, 1, 201, 128, 264
-1.00033, 1, 141, 128, 172
-1.00037, 1, 205, 128, 236
-1.00038, 49, 17, 176, 48
-1.00039, 257, 57, 384, 88
-1.00041, 1, 193, 500, 256
-1.00042, 113, 1, 240, 32
-1.00044, 273, 5, 400, 36
-1.00046, 301, 121, 332, 184
-1.00049, 353, 129, 480, 192
-1.00051, 185, 49, 216, 176
-1.00052, 17, 177, 48, 240
-1.00053, 33, 25, 288, 88
-1.00055, 181, 81, 212, 144
-1.00056, 161, 277, 288, 308
-1.00057, 5, 1, 36, 64
-1.00058, 321, 5, 448, 36
-1.00058, 321, 121, 352, 184
-1.00059, 113, 13, 240, 44
-1.0006, 117, 177, 148, 240
-1.00061, 289, 185, 416, 216
-1.00062, 49, 205, 176, 236
-1.00064, 313, 129, 376, 192
-1.00065, 289, 129, 416, 160
-1.00066, 33, 225, 160, 256
-1.00069, 53, 97, 84, 352
-1.00069, 369, 113, 496, 144
-1.0007, 273, 281, 400, 312
-1.00071, 349, 161, 380, 224
-1.00071, 49, 57, 176, 88
-1.00072, 205, 17, 236, 144
-1.00073, 209, 1, 272, 256
-1.00073, 49, 73, 176, 104
-1.00074, 97, 41, 224, 72
-1.00074, 177, 41, 304, 72
-1.00075, 49, 37, 176, 68
-1.00076, 1, 1, 128, 32
-1.0008, 209, 1, 336, 32
-1.0008, 257, 33, 384, 96
-1.0008, 113, 253, 240, 284
-1.00081, 305, 245, 432, 276
-1.00081, 337, 37, 464, 68
-1.00081, 257, 45, 384, 76
-1.00083, 321, 269, 448, 300
-1.00083, 233, 153, 264, 216
-1.00083, 81, 241, 208, 304
-1.00084, 1, 49, 128, 80
-1.00087, 369, 73, 496, 104
-1.00087, 1, 25, 128, 56
-1.00088, 369, 49, 496, 80
-1.00089, 225, 289, 352, 320
-1.0009, 337, 125, 464, 156
-1.00091, 297, 241, 328, 368
-1.00094, 1, 37, 128, 68
-1.00096, 177, 289, 304, 320
-1.00097, 369, 25, 496, 56
-1.00097, 193, 29, 320, 60
-1.00097, 353, 61, 480, 92
-1.00098, 33, 237, 160, 268
-1.00098, 321, 281, 448, 312
-1.00099, 113, 265, 240, 296
-1.00099, 305, 49, 432, 80
-1.00099, 241, 325, 368, 356
-1.00099, 289, 325, 416, 356
-1.00101, 209, 13, 336, 44
-1.00101, 369, 189, 496, 220
-1.00107, 129, 25, 384, 88
-1.00111, 169, 25, 232, 88
-1.00119, 1, 217, 500, 280
-1.00119, 277, 177, 308, 304
-1.00128, 257, 209, 500, 336
-1.00134, 193, 9, 320, 72
-1.00136, 225, 1, 480, 64
-1.00139, 369, 177, 496, 240
-1.00142, 257, 25, 500, 88
-1.00151, 277, 273, 308, 336
-1.00152, 305, 241, 336, 304
-1.00156, 281, 145, 344, 208
-1.00161, 305, 129, 432, 192
-1.00163, 257, 201, 500, 264
-1.00164, 241, 9, 368, 72
-1.00172, 257, 289, 384, 352
-1.00173, 321, 1, 448, 64
-1.00181, 337, 249, 464, 312
-1.00181, 1, 249, 256, 312
-1.00188, 369, 1, 496, 64
-1.00189, 161, 297, 416, 360
-1.00196, 257, 305, 500, 368
-1.002, 353, 153, 416, 216
-1.00201, 193, 289, 320, 352
-1.00204, 65, 297, 320, 360
-1.00205, 337, 25, 464, 88
-1.00209, 321, 273, 448, 336
-1.00211, 1, 273, 500, 336
-1.00214, 1, 273, 256, 336
-1.00227, 273, 193, 336, 320
-1.00236, 17, 225, 144, 288
-1.00237, 265, 177, 296, 304
-1.00241, 393, 49, 456, 112
-1.00242, 1, 1, 64, 64
-1.00255, 301, 193, 332, 320
-1.00255, 1, 49, 500, 112
-1.00262, 1, 249, 128, 312
-1.00262, 225, 313, 352, 375
-1.00262, 273, 313, 400, 375
-1.00266, 1, 41, 128, 104
-1.00271, 369, 225, 496, 288
-1.00273, 241, 145, 304, 208
-1.00276, 49, 25, 176, 88
-1.00276, 129, 281, 256, 344
-1.00276, 49, 289, 176, 352
-1.00276, 369, 289, 496, 352
-1.00276, 321, 297, 448, 360
-1.00276, 33, 313, 160, 375
-1.00285, 305, 145, 336, 272
-1.00288, 49, 265, 176, 328
-1.00289, 289, 113, 352, 176
-1.00291, 353, 201, 480, 264
-1.00291, 81, 313, 208, 375
-1.00291, 129, 313, 256, 375
-1.00291, 177, 313, 304, 375
-1.00293, 1, 289, 128, 352
-1.00304, 121, 217, 184, 280
-1.00305, 305, 193, 432, 256
-1.00318, 41, 145, 72, 272
-1.0032, 369, 313, 496, 375
-1.00323, 281, 1, 344, 64
-1.00325, 313, 145, 376, 272
-1.00328, 201, 41, 264, 104
-1.00338, 121, 1, 184, 64
-1.00344, 57, 121, 120, 184
-1.00349, 73, 177, 104, 304
-1.00353, 145, 1, 272, 128
-1.0037, 1, 17, 500, 80
-1.00379, 121, 41, 184, 104
-1.0038, 217, 273, 280, 336
-1.0038, 1, 313, 500, 375
-1.00385, 289, 193, 416, 320
-1.00413, 269, 17, 300, 144
-1.00413, 337, 145, 368, 272
-1.00413, 349, 145, 380, 272
-1.00424, 257, 49, 320, 112
-1.00428, 309, 241, 340, 368
-1.00451, 57, 49, 120, 112
-1.00453, 97, 225, 224, 352
-1.00459, 317, 129, 348, 256
-1.00486, 313, 1, 376, 64
-1.00491, 337, 145, 400, 272
-1.00508, 69, 129, 100, 256
-1.00511, 285, 129, 316, 256
-1.00537, 97, 209, 160, 272
-1.00541, 409, 25, 472, 88
-1.00551, 137, 241, 200, 304
-1.00554, 153, 1, 184, 128
-1.00562, 169, 209, 200, 336
-1.00564, 1, 153, 64, 216
-1.00569, 65, 201, 128, 264
-1.00575, 289, 193, 320, 320
-1.00579, 101, 177, 132, 304
-1.00584, 193, 1, 224, 128
-1.00604, 5, 129, 36, 256
-1.00629, 157, 209, 188, 336
-1.0063, 49, 193, 176, 320
-1.00633, 221, 1, 252, 128
-1.00647, 85, 193, 116, 320
-1.00653, 297, 193, 360, 320
-1.00657, 329, 249, 392, 312
-1.00661, 265, 25, 328, 88
-1.00664, 409, 113, 472, 176
-1.00666, 65, 1, 128, 64
-1.00668, 273, 129, 336, 256
-1.00669, 325, 225, 356, 352
-1.00673, 433, 25, 496, 88
-1.00673, 97, 25, 160, 88
-1.00674, 297, 217, 360, 280
-1.00689, 433, 113, 496, 176
-1.00691, 345, 1, 408, 64
-1.00695, 361, 129, 424, 192
-1.00703, 409, 1, 472, 64
-1.00705, 305, 177, 368, 240
-1.00707, 73, 25, 136, 88
-1.00712, 73, 225, 136, 288
-1.00716, 385, 25, 448, 88
-1.00721, 289, 25, 352, 88
-1.00733, 225, 1, 288, 64
-1.00735, 313, 41, 376, 104
-1.00736, 113, 177, 144, 304
-1.00736, 141, 225, 172, 352
-1.00744, 97, 1, 160, 64
-1.00744, 137, 177, 168, 304
-1.00747, 41, 209, 104, 272
-1.00754, 289, 241, 416, 368
-1.00754, 125, 177, 156, 304
-1.00754, 313, 193, 344, 320
-1.00763, 249, 1, 312, 64
-1.00769, 17, 129, 80, 192
-1.00778, 109, 225, 140, 352
-1.00781, 121, 225, 152, 352
-1.00784, 385, 121, 448, 184
-1.0079, 353, 33, 416, 96
-1.0079, 53, 161, 84, 288
-1.00797, 325, 177, 356, 304
-1.00802, 377, 153, 440, 216
-1.00804, 433, 161, 496, 224
-1.00806, 369, 1, 432, 64
-1.00809, 369, 177, 432, 240
-1.00815, 113, 193, 176, 320
-1.00825, 305, 241, 368, 368
-1.00838, 137, 225, 200, 352
-1.00845, 469, 129, 500, 256
-1.00864, 81, 193, 144, 320
-1.00875, 361, 129, 392, 256
-1.00917, 1, 209, 128, 336
-1.00924, 337, 209, 464, 336
-1.00976, 289, 145, 416, 272
-1.00989, 369, 129, 496, 256
-1.01013, 321, 193, 384, 320
-1.01061, 49, 241, 176, 368
-1.01116, 225, 1, 288, 128
-1.01215, 49, 209, 112, 336
-1.01222, 201, 1, 264, 128
-1.01312, 361, 129, 424, 256
-1.01361, 329, 241, 392, 368
-1.01364, 25, 209, 88, 336
-1.01374, 409, 241, 472, 368
-1.01406, 113, 241, 176, 368
-1.01435, 369, 241, 432, 368
-1.01442, 433, 161, 496, 288
-1.01442, 393, 193, 456, 320
-1.01442, 433, 209, 496, 336
-1.01442, 81, 241, 144, 368
-1.01471, 401, 145, 464, 272
-1.01478, 345, 193, 408, 320
-1.01478, 369, 193, 432, 320
-1.01478, 1, 241, 64, 368
