1884
-0.36592, 1, 33, 500, 288
-0.411331, 1, 1, 500, 335
-0.524894, 1, 65, 256, 320
-0.5742, 193, 1, 448, 335
-0.592624, 33, 1, 288, 335
-0.593639, 161, 65, 416, 320
-0.698332, 257, 65, 500, 320
-0.846645, 17, 1, 144, 335
-0.860994, 17, 33, 144, 288
-0.863618, 177, 65, 304, 320
-0.868819, 113, 65, 240, 320
-0.8736, 1, 113, 500, 240
-0.877837, 177, 1, 304, 335
-0.877871, 1, 193, 500, 320
-0.878787, 97, 1, 224, 335
-0.880934, 225, 1, 352, 335
-0.88188, 65, 65, 192, 320
-0.88361, 241, 65, 368, 320
-0.895496, 65, 129, 320, 256
-0.897665, 353, 1, 480, 335
-0.899222, 305, 1, 432, 335
-0.903561, 321, 65, 448, 320
-0.913154, 1, 65, 500, 192
-0.914179, 369, 65, 496, 320
-0.915499, 257, 145, 500, 272
-0.916072, 33, 81, 288, 208
-0.92028, 129, 209, 384, 335
-0.920845, 49, 161, 176, 288
-0.921487, 161, 81, 416, 208
-0.924007, 97, 129, 224, 256
-0.924059, 33, 209, 288, 335
-0.929291, 417, 193, 480, 320
-0.932933, 105, 161, 168, 288
-0.933099, 17, 97, 144, 224
-0.933665, 49, 161, 112, 288
-0.933838, 161, 193, 288, 320
-0.934445, 161, 129, 416, 256
-0.934551, 369, 209, 496, 335
-0.934962, 81, 113, 144, 240
-0.935165, 257, 209, 500, 335
-0.935766, 65, 33, 320, 160
-0.93744, 169, 113, 232, 240
-0.938206, 369, 161, 496, 288
-0.939393, 113, 81, 240, 208
-0.941055, 409, 145, 472, 272
-0.941279, 145, 129, 272, 256
-0.941543, 217, 113, 280, 240
-0.941598, 97, 209, 224, 335
-0.941599, 113, 209, 176, 335
-0.941743, 193, 113, 320, 240
-0.942252, 321, 145, 448, 272
-0.942383, 137, 209, 200, 335
-0.943206, 433, 145, 496, 272
-0.943232, 393, 209, 456, 335
-0.943598, 113, 113, 176, 240
-0.943641, 1, 17, 500, 144
-0.944478, 145, 97, 208, 224
-0.946024, 257, 65, 320, 192
-0.946232, 81, 193, 144, 320
-0.946625, 241, 97, 368, 224
-0.94772, 129, 161, 192, 288
-0.947872, 393, 241, 456, 304
-0.947965, 417, 193, 480, 256
-0.948082, 369, 257, 432, 320
-0.948197, 417, 217, 480, 280
-0.948422, 25, 145, 88, 272
-0.948616, 49, 209, 112, 335
-0.948623, 305, 193, 432, 320
-0.949423, 49, 209, 176, 335
-0.94964, 33, 49, 96, 176
-0.949903, 129, 273, 192, 335
-0.949966, 233, 49, 296, 176
-0.950111, 321, 113, 384, 240
-0.950155, 49, 217, 112, 280
-0.950204, 177, 49, 304, 176
-0.950825, 193, 129, 256, 256
-0.951124, 57, 113, 120, 240
-0.951599, 25, 193, 88, 320
-0.951833, 377, 161, 440, 288
-0.951991, 417, 257, 480, 320
-0.95204, 297, 113, 360, 240
-0.952192, 201, 209, 264, 335
-0.952269, 257, 97, 500, 224
-0.95264, 161, 209, 224, 335
-0.953881, 329, 265, 392, 328
-0.954233, 129, 185, 192, 248
-0.954498, 393, 265, 456, 328
-0.9546, 217, 185, 280, 248
-0.954635, 105, 273, 168, 335
-0.95489, 153, 257, 216, 320
-0.955109, 65, 81, 192, 208
-0.955364, 257, 129, 320, 256
-0.955691, 169, 65, 232, 192
-0.955795, 417, 161, 480, 224
-0.956306, 1, 145, 128, 272
-0.957084, 241, 209, 304, 335
-0.957216, 209, 209, 336, 335
-0.957365, 161, 33, 416, 160
-0.958096, 1, 49, 128, 176
-0.958464, 385, 153, 448, 216
-0.958776, 97, 121, 160, 184
-0.958912, 209, 65, 272, 192
-0.959054, 113, 225, 176, 288
-0.959432, 169, 153, 232, 216
-0.959639, 49, 193, 112, 256
-0.959804, 25, 97, 88, 224
-0.959866, 129, 249, 192, 312
-0.959979, 105, 161, 168, 224
-0.960028, 25, 209, 88, 272
-0.960783, 353, 113, 416, 240
-0.96087, 57, 65, 120, 192
-0.961091, 225, 33, 352, 160
-0.961352, 169, 121, 232, 184
-0.961645, 241, 177, 304, 240
-0.961852, 25, 121, 88, 184
-0.962278, 305, 273, 368, 335
-0.962439, 393, 209, 456, 272
-0.962633, 257, 97, 320, 160
-0.962649, 153, 201, 216, 264
-0.962727, 41, 161, 104, 224
-0.962934, 97, 201, 160, 264
-0.962953, 73, 169, 136, 232
-0.963092, 137, 161, 200, 224
-0.963098, 41, 89, 104, 152
-0.963306, 25, 249, 88, 312
-0.96367, 129, 121, 192, 184
-0.963707, 1, 209, 128, 335
-0.963819, 57, 129, 120, 192
-0.963968, 33, 273, 96, 335
-0.964629, 1, 89, 64, 152
-0.964674, 297, 193, 360, 320
-0.964679, 257, 17, 320, 144
-0.964964, 369, 209, 432, 335
-0.965222, 353, 137, 416, 200
-0.965318, 161, 161, 224, 288
-0.96535, 121, 97, 184, 160
-0.965786, 65, 105, 128, 168
-0.965794, 1, 65, 64, 192
-0.965875, 329, 121, 392, 184
-0.966052, 257, 177, 384, 304
-0.966566, 337, 177, 400, 304
-0.96673, 289, 65, 352, 192
-0.966773, 369, 249, 496, 312
-0.966888, 169, 65, 232, 320
-0.967075, 209, 121, 272, 184
-0.967201, 217, 161, 280, 288
-0.967461, 177, 265, 240, 328
-0.967721, 257, 201, 320, 264
-0.967789, 73, 273, 136, 335
-0.967803, 433, 97, 496, 224
-0.96802, 393, 257, 424, 320
-0.968038, 105, 249, 168, 312
-0.968104, 73, 193, 136, 256
-0.968223, 449, 209, 480, 272
-0.968323, 49, 169, 176, 232
-0.968428, 137, 225, 200, 288
-0.968472, 25, 185, 88, 248
-0.96849, 217, 273, 280, 335
-0.968624, 297, 177, 360, 240
-0.968695, 145, 97, 208, 160
-0.968808, 9, 273, 72, 335
-0.968822, 413, 233, 444, 296
-0.968873, 33, 65, 96, 128
-0.968927, 273, 273, 336, 335
-0.969003, 321, 97, 448, 224
-0.969247, 257, 17, 500, 144
-0.969332, 369, 257, 400, 320
-0.969562, 137, 273, 168, 335
-0.9696, 305, 113, 368, 176
-0.969606, 369, 113, 496, 240
-0.969881, 1, 145, 64, 272
-0.969888, 265, 193, 328, 320
-0.969899, 429, 217, 460, 280
-0.969941, 321, 169, 384, 232
-0.970041, 17, 113, 144, 176
-0.970154, 33, 33, 96, 288
-0.970369, 305, 273, 432, 335
-0.970572, 377, 113, 440, 240
-0.970619, 393, 185, 456, 248
-0.970619, 209, 161, 336, 288
-0.971113, 461, 145, 492, 272
-0.971157, 81, 33, 208, 160
-0.971164, 217, 153, 280, 216
-0.971213, 125, 129, 156, 256
-0.971347, 441, 161, 472, 224
-0.971359, 109, 113, 140, 176
-0.971565, 65, 233, 192, 296
-0.971626, 121, 65, 184, 192
-0.971718, 433, 193, 464, 256
-0.971798, 33, 273, 160, 335
-0.971888, 193, 161, 256, 224
-0.971915, 441, 249, 472, 312
-0.971963, 97, 273, 224, 335
-0.972002, 9, 65, 72, 128
-0.972006, 73, 225, 136, 288
-0.972101, 57, 33, 120, 288
-0.972157, 265, 169, 328, 232
-0.972165, 145, 49, 208, 176
-0.972194, 437, 177, 468, 304
-0.972293, 97, 129, 224, 192
-0.97233, 1, 113, 64, 176
-0.972379, 49, 201, 176, 264
-0.972392, 345, 161, 408, 224
-0.972417, 429, 257, 460, 320
-0.972494, 349, 265, 380, 328
-0.972571, 81, 145, 144, 208
-0.972663, 329, 273, 360, 335
-0.972726, 209, 65, 272, 320
-0.972756, 49, 241, 112, 304
-0.972918, 1, 193, 64, 320
-0.972948, 421, 193, 452, 256
-0.972974, 81, 65, 144, 192
-0.972977, 313, 145, 376, 208
-0.97315, 169, 97, 232, 160
-0.973151, 433, 1, 496, 128
-0.973215, 141, 177, 172, 304
-0.973275, 461, 265, 492, 328
-0.973345, 161, 169, 288, 232
-0.973467, 457, 241, 488, 304
-0.97353, 281, 97, 344, 160
-0.973716, 81, 65, 144, 320
-0.973745, 125, 273, 156, 335
-0.97379, 137, 129, 168, 256
-0.97401, 417, 193, 448, 320
-0.97401, 157, 273, 188, 335
-0.97419, 469, 209, 500, 335
-0.974282, 141, 201, 172, 264
-0.974299, 61, 161, 92, 224
-0.974332, 193, 193, 256, 256
-0.974335, 273, 49, 400, 176
-0.974344, 129, 201, 256, 264
-0.97437, 409, 137, 472, 200
-0.974481, 113, 113, 144, 240
-0.974499, 153, 209, 184, 335
-0.974737, 221, 129, 252, 256
-0.974766, 1, 249, 64, 312
-0.974899, 233, 81, 296, 144
-0.975012, 165, 209, 196, 335
-0.97502, 233, 121, 296, 184
-0.975065, 177, 121, 304, 184
-0.975222, 369, 225, 496, 288
-0.975226, 453, 193, 484, 320
-0.975282, 61, 145, 92, 272
-0.975344, 1, 89, 128, 152
-0.97538, 445, 185, 476, 248
-0.975392, 353, 273, 480, 335
-0.97543, 413, 265, 444, 328
-0.97544, 153, 233, 184, 296
-0.975481, 233, 65, 296, 320
-0.975482, 133, 161, 164, 224
-0.97549, 137, 65, 200, 320
-0.975572, 89, 97, 120, 224
-0.975624, 97, 169, 224, 232
-0.975632, 241, 97, 368, 160
-0.975819, 421, 161, 452, 224
-0.975823, 409, 145, 440, 272
-0.975844, 165, 249, 196, 312
-0.975959, 117, 177, 148, 304
-0.975996, 381, 257, 412, 320
-0.97611, 81, 249, 144, 312
-0.976215, 257, 65, 320, 320
-0.976312, 297, 249, 360, 312
-0.976362, 469, 241, 500, 304
-0.976416, 93, 177, 124, 304
-0.976472, 257, 273, 384, 335
-0.976558, 249, 129, 280, 256
-0.976575, 257, 121, 320, 184
-0.97659, 137, 241, 168, 304
-0.97661, 249, 273, 312, 335
-0.976626, 369, 201, 496, 264
-0.976677, 105, 161, 136, 288
-0.976704, 125, 137, 156, 200
-0.976908, 297, 65, 360, 320
-0.976951, 353, 233, 416, 296
-0.977023, 145, 265, 272, 328
-0.977054, 445, 273, 476, 335
-0.977067, 249, 177, 280, 240
-0.977087, 157, 129, 188, 256
-0.977118, 57, 193, 88, 256
-0.977178, 37, 129, 68, 256
-0.977189, 461, 161, 492, 224
-0.977264, 193, 81, 224, 208
-0.977291, 241, 153, 304, 216
-0.977394, 169, 177, 232, 240
-0.977506, 225, 177, 256, 240
-0.977526, 93, 273, 124, 335
-0.97774, 161, 225, 224, 288
-0.977743, 321, 249, 448, 312
-0.977831, 281, 201, 344, 264
-0.977834, 73, 81, 104, 208
-0.977854, 281, 17, 344, 144
-0.977865, 209, 169, 336, 232
-0.977869, 421, 145, 452, 272
-0.977976, 461, 201, 492, 264
-0.978009, 97, 97, 160, 160
-0.978063, 201, 217, 264, 280
-0.978065, 65, 81, 128, 144
-0.978134, 405, 153, 436, 216
-0.978143, 165, 217, 196, 280
-0.978144, 129, 209, 160, 335
-0.978158, 393, 233, 424, 296
-0.978238, 17, 241, 144, 304
-0.978417, 77, 161, 108, 288
-0.978441, 193, 121, 224, 184
-0.978573, 33, 137, 160, 200
-0.978686, 257, 249, 320, 312
-0.978789, 69, 193, 100, 256
-0.978819, 245, 65, 276, 192
-0.978827, 225, 217, 288, 280
-0.978858, 97, 217, 128, 280
-0.978906, 1, 41, 64, 104
-0.978911, 409, 209, 440, 272
-0.97893, 369, 209, 432, 272
-0.978953, 261, 49, 292, 176
-0.978957, 149, 177, 180, 240
-0.979052, 209, 273, 336, 335
-0.979214, 105, 209, 136, 335
-0.979217, 397, 209, 428, 335
-0.97929, 177, 73, 304, 136
-0.979338, 153, 209, 184, 272
-0.979365, 29, 97, 60, 160
-0.97942, 309, 273, 340, 335
-0.979478, 321, 145, 448, 208
-0.979496, 449, 145, 480, 272
-0.979532, 81, 105, 112, 168
-0.979609, 257, 193, 288, 320
-0.97969, 113, 273, 144, 335
-0.979898, 261, 129, 292, 256
-0.980004, 353, 169, 480, 232
-0.980146, 97, 97, 224, 160
-0.98027, 5, 273, 36, 335
-0.98029, 289, 153, 352, 216
-0.980302, 205, 81, 236, 208
-0.980429, 1, 193, 128, 256
-0.980485, 89, 129, 120, 192
-0.980538, 1, 33, 64, 288
-0.980575, 1, 161, 128, 224
-0.980664, 433, 137, 496, 200
-0.980667, 113, 145, 144, 208
-0.980716, 53, 193, 84, 320
-0.980768, 221, 153, 252, 216
-0.980819, 289, 273, 320, 335
-0.980847, 17, 153, 80, 216
-0.980891, 49, 273, 80, 335
-0.980971, 201, 129, 232, 256
-0.981054, 121, 177, 152, 240
-0.981058, 237, 177, 268, 240
-0.981097, 277, 65, 308, 192
-0.981103, 161, 177, 192, 240
-0.981161, 145, 97, 272, 160
-0.981174, 129, 201, 160, 264
-0.981224, 73, 161, 104, 224
-0.981246, 109, 241, 140, 304
-0.981282, 17, 273, 48, 335
-0.981378, 233, 129, 264, 256
-0.98139, 9, 89, 40, 152
-0.981419, 201, 17, 264, 144
-0.981459, 145, 145, 272, 208
-0.981468, 277, 89, 308, 152
-0.981624, 37, 169, 68, 232
-0.981637, 277, 17, 308, 144
-0.981655, 221, 121, 252, 184
-0.981684, 81, 193, 112, 256
-0.981923, 181, 209, 212, 335
-0.98198, 261, 89, 292, 152
-0.982046, 33, 41, 96, 104
-0.982057, 73, 81, 104, 144
-0.982072, 329, 65, 392, 192
-0.982076, 345, 121, 376, 184
-0.982096, 33, 249, 64, 312
-0.982116, 389, 161, 420, 288
-0.982137, 193, 193, 320, 256
-0.98214, 37, 201, 68, 264
-0.982161, 105, 65, 168, 320
-0.982167, 17, 121, 48, 184
-0.982262, 145, 105, 176, 168
-0.982285, 461, 137, 492, 200
-0.982316, 253, 65, 284, 128
-0.982404, 177, 81, 208, 208
-0.982484, 129, 241, 256, 304
-0.982517, 37, 121, 68, 184
-0.982521, 313, 105, 344, 168
-0.982521, 73, 217, 104, 280
-0.982528, 65, 33, 96, 160
-0.982536, 101, 113, 132, 240
-0.982565, 305, 169, 432, 232
-0.982596, 393, 161, 424, 224
-0.982614, 229, 209, 260, 335
-0.982691, 213, 209, 244, 335
-0.982692, 1, 65, 128, 128
-0.982726, 181, 273, 212, 335
-0.982755, 41, 177, 72, 304
-0.982766, 353, 49, 480, 176
-0.982885, 321, 97, 352, 224
-0.982896, 185, 129, 216, 256
-0.982952, 93, 105, 124, 168
-0.982969, 245, 121, 276, 184
-0.982986, 241, 121, 368, 184
-0.983066, 217, 65, 248, 192
-0.983096, 1, 17, 64, 144
-0.983127, 333, 113, 364, 240
-0.983163, 385, 129, 448, 192
-0.983165, 109, 209, 140, 272
-0.983186, 333, 113, 364, 176
-0.983393, 65, 209, 96, 335
-0.983396, 357, 113, 388, 240
-0.983401, 293, 97, 324, 224
-0.98344, 469, 1, 500, 128
-0.98351, 265, 193, 296, 256
-0.983536, 125, 225, 156, 288
-0.983558, 145, 153, 176, 216
-0.983566, 369, 177, 432, 240
-0.983584, 249, 17, 280, 144
-0.983613, 209, 121, 240, 184
-0.983648, 73, 241, 104, 304
-0.983652, 241, 153, 272, 216
-0.983701, 241, 193, 368, 256
-0.983701, 461, 97, 492, 224
-0.983723, 25, 65, 56, 128
-0.983752, 105, 169, 136, 232
-0.983781, 273, 249, 400, 312
-0.983812, 409, 97, 472, 224
-0.983887, 245, 209, 276, 335
-0.983939, 361, 65, 424, 320
-0.984085, 321, 65, 384, 320
-0.98418, 137, 129, 168, 192
-0.984197, 33, 1, 96, 128
-0.984267, 233, 57, 296, 120
-0.984287, 233, 65, 264, 192
-0.984369, 261, 161, 292, 224
-0.98441, 177, 1, 304, 128
-0.98443, 245, 201, 276, 264
-0.984541, 177, 121, 208, 184
-0.984558, 205, 153, 236, 216
-0.984561, 193, 97, 320, 160
-0.984585, 153, 73, 216, 136
-0.984603, 37, 145, 68, 208
-0.984655, 37, 273, 68, 335
-0.984676, 133, 105, 164, 168
-0.984706, 21, 65, 52, 192
-0.984734, 1, 193, 64, 256
-0.984744, 85, 217, 116, 280
-0.984764, 161, 1, 224, 128
-0.984792, 57, 225, 88, 288
-0.984842, 273, 57, 304, 120
-0.984968, 321, 201, 448, 264
-0.985004, 289, 121, 416, 184
-0.985042, 1, 225, 64, 288
-0.98507, 361, 129, 392, 192
-0.985185, 157, 153, 188, 216
-0.98521, 301, 33, 332, 160
-0.985312, 157, 121, 188, 184
-0.985318, 225, 249, 352, 312
-0.985329, 1, 217, 128, 280
-0.985368, 177, 217, 304, 280
-0.985411, 209, 97, 272, 160
-0.985434, 93, 193, 124, 256
-0.985455, 201, 193, 232, 320
-0.985497, 313, 169, 344, 232
-0.985507, 49, 161, 80, 224
-0.985566, 177, 249, 208, 312
-0.985598, 5, 113, 36, 176
-0.985658, 297, 97, 328, 160
-0.985692, 281, 209, 312, 335
-0.985762, 325, 137, 356, 200
-0.985768, 205, 265, 236, 328
-0.985788, 305, 89, 368, 152
-0.985789, 433, 25, 496, 88
-0.985816, 273, 73, 336, 136
-0.985859, 433, 33, 496, 288
-0.985876, 73, 129, 104, 192
-0.985896, 397, 209, 428, 272
-0.985904, 41, 65, 72, 192
-0.985945, 209, 97, 240, 160
-0.985975, 33, 1, 96, 335
-0.985987, 129, 1, 192, 335
-0.986, 265, 137, 296, 200
-0.986034, 377, 137, 408, 200
-0.986172, 209, 145, 336, 208
-0.986208, 49, 113, 80, 240
-0.986217, 329, 241, 392, 304
-0.986278, 277, 257, 308, 320
-0.986288, 177, 153, 208, 216
-0.986309, 293, 169, 324, 232
-0.986312, 433, 1, 496, 335
-0.986336, 81, 209, 112, 335
-0.986351, 61, 97, 92, 224
-0.986433, 469, 9, 500, 72
-0.986469, 273, 113, 304, 240
-0.986587, 41, 97, 72, 160
-0.986588, 353, 121, 480, 184
-0.986619, 73, 265, 104, 328
-0.986625, 173, 129, 204, 256
-0.98663, 49, 121, 80, 184
-0.98669, 233, 121, 264, 184
-0.98669, 281, 129, 344, 192
-0.986728, 5, 41, 36, 104
-0.986805, 233, 249, 296, 312
-0.986806, 273, 145, 400, 208
-0.986824, 369, 113, 400, 240
-0.987038, 1, 1, 64, 335
-0.987223, 289, 49, 320, 176
-0.987241, 305, 113, 336, 240
-0.987275, 369, 145, 496, 208
-0.987296, 177, 1, 240, 335
-0.987337, 329, 97, 392, 160
-0.987394, 365, 209, 396, 335
-0.987403, 457, 1, 488, 128
-0.987453, 129, 33, 256, 160
-0.987466, 293, 193, 324, 320
-0.987535, 49, 81, 176, 144
-0.987578, 233, 1, 296, 335
-0.987603, 437, 129, 468, 256
-0.987603, 233, 1, 296, 128
-0.987694, 137, 1, 200, 128
-0.987772, 409, 265, 472, 296
-0.987806, 321, 225, 448, 288
-0.987894, 89, 293, 152, 324
-0.988053, 345, 129, 376, 256
-0.988057, 209, 65, 272, 128
-0.988076, 129, 289, 192, 320
-0.988114, 409, 65, 472, 320
-0.98815, 257, 169, 384, 232
-0.988162, 201, 249, 264, 312
-0.988163, 417, 225, 480, 256
-0.988263, 49, 213, 112, 244
-0.988347, 145, 265, 208, 296
-0.988382, 377, 281, 440, 312
-0.988441, 73, 1, 136, 335
-0.988465, 257, 1, 320, 335
-0.988468, 81, 57, 144, 120
-0.988468, 157, 81, 188, 208
-0.988524, 409, 237, 472, 268
-0.988525, 81, 305, 144, 335
-0.98856, 425, 253, 488, 284
-0.988567, 377, 161, 408, 288
-0.988612, 1, 41, 128, 104
-0.988617, 121, 301, 184, 332
-0.988664, 345, 185, 408, 248
-0.98872, 269, 209, 300, 335
-0.988739, 313, 161, 344, 288
-0.988742, 133, 81, 164, 208
-0.988768, 33, 225, 96, 256
-0.988771, 209, 1, 272, 335
-0.988778, 433, 1, 496, 64
-0.988831, 129, 253, 192, 284
-0.988926, 345, 269, 408, 300
-0.988931, 57, 301, 120, 332
-0.988945, 129, 169, 192, 200
-0.988946, 33, 301, 96, 332
-0.988958, 137, 277, 200, 308
-0.988969, 145, 81, 176, 208
-0.989049, 25, 209, 88, 240
-0.989051, 361, 257, 424, 288
-0.989052, 161, 281, 224, 312
-0.989053, 345, 293, 408, 324
-0.989081, 321, 305, 384, 335
-0.989087, 9, 49, 40, 176
-0.989095, 85, 49, 116, 176
-0.989116, 345, 209, 376, 335
-0.989138, 217, 285, 280, 316
-0.98917, 49, 165, 112, 196
-0.989214, 113, 269, 176, 300
-0.989229, 129, 201, 192, 232
-0.98923, 161, 1, 224, 64
-0.98924, 385, 253, 448, 284
-0.989252, 129, 241, 192, 272
-0.989264, 297, 113, 360, 144
-0.98927, 409, 209, 472, 240
-0.98928, 73, 17, 136, 144
-0.98931, 393, 1, 456, 335
-0.989337, 433, 289, 496, 320
-0.989366, 53, 33, 84, 160
-0.989372, 409, 305, 472, 335
-0.989394, 9, 297, 72, 328
-0.989395, 153, 1, 216, 335
-0.989402, 89, 117, 152, 148
-0.989413, 33, 121, 288, 184
-0.989433, 193, 277, 256, 308
-0.989434, 1, 265, 256, 328
-0.989467, 409, 197, 472, 228
-0.989489, 89, 161, 152, 192
-0.989519, 297, 305, 360, 335
-0.989595, 381, 113, 412, 240
-0.989613, 25, 197, 88, 228
-0.989696, 105, 281, 168, 312
-0.989723, 129, 181, 192, 212
-0.989732, 57, 197, 120, 228
-0.989745, 169, 161, 232, 192
-0.989759, 377, 209, 408, 335
-0.989768, 121, 121, 184, 152
-0.989768, 1, 1, 128, 128
-0.989778, 265, 105, 328, 136
-0.989803, 89, 177, 152, 208
-0.989818, 385, 269, 448, 300
-0.989838, 225, 161, 288, 192
-0.989838, 433, 49, 496, 112
-0.989873, 49, 289, 112, 320
-0.98988, 49, 241, 112, 272
-0.989898, 121, 105, 184, 136
-0.989933, 169, 121, 232, 152
-0.989975, 417, 165, 480, 196
-0.989977, 161, 301, 224, 332
-0.990033, 97, 253, 160, 284
-0.990057, 217, 205, 280, 236
-0.990112, 65, 113, 128, 144
-0.990136, 209, 117, 272, 148
-0.990144, 297, 281, 360, 312
-0.990149, 89, 265, 152, 296
-0.990163, 169, 269, 232, 300
-0.990178, 409, 293, 472, 324
-0.990205, 73, 209, 136, 240
-0.99023, 369, 293, 432, 324
-0.990254, 321, 273, 384, 304
-0.990265, 105, 145, 168, 176
-0.990299, 433, 105, 496, 168
-0.990351, 257, 93, 320, 124
-0.99037, 17, 125, 80, 156
-0.990401, 145, 121, 208, 152
-0.990406, 385, 189, 448, 220
-0.990438, 89, 189, 152, 220
-0.990438, 393, 225, 456, 256
-0.990459, 17, 285, 80, 316
-0.990474, 193, 293, 256, 324
-0.990477, 169, 101, 232, 132
-0.990485, 41, 73, 104, 104
-0.990491, 169, 209, 232, 240
-0.990492, 193, 273, 448, 335
-0.990503, 137, 49, 200, 112
-0.990504, 25, 237, 88, 268
-0.990507, 433, 301, 496, 332
-0.99051, 145, 221, 208, 252
-0.990516, 305, 293, 368, 324
-0.99052, 41, 61, 104, 92
-0.990563, 273, 285, 336, 316
-0.990563, 57, 229, 120, 260
-0.990569, 65, 57, 192, 120
-0.990599, 97, 205, 160, 236
-0.990611, 97, 161, 352, 224
-0.990633, 25, 165, 88, 196
-0.990669, 273, 305, 336, 335
-0.990672, 249, 285, 312, 316
-0.990682, 217, 173, 280, 204
-0.990688, 57, 49, 120, 112
-0.990711, 385, 157, 448, 188
-0.990723, 185, 149, 248, 180
-0.990729, 353, 281, 416, 312
-0.99074, 1, 49, 64, 80
-0.990754, 425, 177, 488, 208
-0.990764, 433, 205, 496, 236
-0.990767, 97, 133, 160, 164
-0.990788, 393, 169, 456, 200
-0.990789, 433, 273, 496, 304
-0.990797, 293, 145, 324, 272
-0.990802, 41, 109, 104, 140
-0.990815, 113, 65, 144, 192
-0.990828, 129, 157, 192, 188
-0.990833, 369, 1, 496, 128
-0.990846, 113, 229, 176, 260
-0.990853, 145, 109, 208, 140
-0.990875, 25, 249, 88, 280
-0.990877, 305, 201, 368, 264
-0.990893, 217, 185, 280, 216
-0.990896, 409, 153, 472, 184
-0.990905, 169, 257, 232, 288
-0.99092, 89, 225, 152, 256
-0.990927, 225, 273, 288, 304
-0.990929, 313, 169, 376, 200
-0.990946, 225, 77, 288, 108
-0.990947, 361, 157, 424, 188
-0.990949, 73, 241, 136, 272
-0.990951, 385, 241, 448, 272
-0.990961, 241, 173, 304, 204
-0.990971, 409, 281, 472, 312
-0.99098, 49, 177, 112, 208
-0.990991, 377, 213, 440, 244
-0.991001, 25, 17, 56, 144
-0.991003, 241, 205, 304, 236
-0.99104, 209, 129, 272, 160
-0.991075, 41, 89, 104, 120
-0.991088, 377, 201, 440, 232
-0.991092, 25, 185, 88, 216
-0.991101, 73, 253, 136, 284
-0.991101, 49, 257, 112, 288
-0.991132, 81, 281, 144, 312
-0.991135, 337, 1, 400, 335
-0.991138, 9, 221, 72, 252
-0.991175, 353, 305, 416, 335
-0.991177, 249, 117, 312, 148
-0.991182, 313, 1, 376, 335
-0.991187, 29, 193, 60, 320
-0.991187, 161, 25, 224, 88
-0.99119, 433, 237, 496, 268
-0.991209, 353, 97, 480, 160
-0.991262, 333, 209, 364, 335
-0.991266, 397, 113, 428, 240
-0.99129, 225, 137, 480, 200
-0.991314, 257, 193, 500, 256
-0.991352, 361, 1, 424, 335
-0.99147, 209, 41, 272, 104
-0.991498, 65, 185, 320, 248
-0.991503, 177, 241, 304, 304
-0.991508, 129, 121, 384, 184
-0.991614, 241, 57, 368, 120
-0.991779, 1, 241, 256, 304
-0.991812, 281, 1, 344, 335
-0.99184, 353, 285, 480, 316
-0.991879, 97, 273, 352, 335
-0.991885, 177, 49, 304, 112
-0.991925, 361, 113, 424, 176
-0.991934, 157, 281, 188, 312
-0.991987, 1, 185, 500, 248
-0.992043, 441, 221, 472, 252
-0.992044, 425, 97, 456, 224
-0.992069, 145, 285, 176, 316
-0.992083, 145, 229, 176, 260
-0.99209, 149, 269, 180, 300
-0.992125, 69, 205, 100, 236
-0.992125, 105, 297, 136, 328
-0.992168, 125, 289, 156, 320
-0.992172, 373, 281, 404, 312
-0.992175, 421, 301, 452, 332
-0.992179, 469, 49, 500, 176
-0.992209, 433, 293, 464, 324
-0.992236, 349, 293, 380, 324
-0.992236, 137, 273, 168, 304
-0.992259, 165, 269, 196, 300
-0.992259, 273, 1, 400, 128
-0.99227, 429, 221, 460, 252
-0.992273, 89, 301, 120, 332
-0.99228, 165, 1, 196, 128
-0.992284, 353, 265, 480, 296
-0.99229, 361, 285, 392, 316
-0.992291, 129, 301, 160, 332
-0.992296, 1, 305, 128, 335
-0.992297, 57, 201, 88, 232
-0.992299, 293, 101, 324, 132
-0.992312, 33, 301, 64, 332
-0.992323, 449, 97, 480, 224
-0.992325, 1, 161, 500, 224
-0.992331, 1, 273, 500, 335
-0.992352, 177, 57, 240, 120
-0.992364, 361, 161, 392, 288
-0.992367, 137, 161, 168, 192
-0.992374, 97, 289, 224, 320
-0.992376, 17, 145, 48, 272
-0.992397, 157, 253, 188, 284
-0.992404, 125, 173, 156, 204
-0.992408, 409, 265, 440, 296
-0.99241, 137, 249, 168, 280
-0.992414, 273, 93, 304, 124
-0.992414, 101, 285, 132, 316
-0.992414, 389, 277, 420, 308
-0.992415, 453, 285, 484, 316
-0.992419, 169, 285, 200, 316
-0.992431, 313, 49, 344, 176
-0.992433, 113, 121, 144, 152
-0.992435, 465, 229, 496, 260
-0.992437, 117, 305, 148, 335
-0.992438, 329, 305, 360, 335
-0.992441, 453, 217, 484, 248
-0.992451, 357, 269, 388, 300
-0.992453, 1, 17, 64, 80
-0.992461, 437, 261, 468, 292
-0.992465, 85, 289, 116, 320
-0.99249, 249, 205, 280, 236
-0.992493, 129, 209, 384, 272
-0.992499, 133, 261, 164, 292
-0.992499, 425, 189, 456, 220
-0.992504, 449, 301, 480, 332
-0.992509, 93, 249, 124, 280
-0.992509, 321, 113, 352, 144
-0.992509, 453, 253, 484, 284
-0.992521, 137, 217, 168, 248
-0.992544, 469, 245, 500, 276
-0.992545, 389, 257, 420, 288
-0.99255, 109, 249, 140, 280
-0.992563, 77, 305, 108, 335
-0.992569, 117, 133, 148, 164
-0.992575, 157, 237, 188, 268
-0.992575, 461, 273, 492, 304
-0.992581, 177, 269, 208, 300
-0.992585, 65, 301, 96, 332
-0.99259, 1, 121, 500, 184
-0.992591, 125, 153, 156, 184
-0.992595, 405, 249, 436, 280
-0.992596, 445, 177, 476, 208
-0.992597, 225, 169, 480, 232
-0.992603, 421, 269, 452, 300
-0.992605, 153, 169, 184, 200
-0.992608, 361, 297, 392, 328
-0.992611, 133, 193, 164, 224
-0.992611, 437, 209, 468, 240
-0.992611, 149, 181, 180, 212
-0.992612, 229, 277, 260, 308
-0.992613, 325, 281, 356, 312
-0.992614, 125, 273, 156, 304
-0.992615, 333, 117, 364, 148
-0.992615, 273, 161, 304, 288
-0.992622, 469, 217, 500, 248
-0.992636, 17, 293, 48, 324
-0.992637, 105, 1, 168, 335
-0.992639, 469, 1, 500, 32
-0.99264, 129, 233, 160, 264
-0.99264, 249, 161, 280, 192
-0.992641, 425, 233, 456, 264
-0.992641, 381, 257, 396, 320
-0.992642, 345, 305, 376, 335
-0.992646, 225, 165, 256, 196
-0.992651, 333, 293, 364, 324
-0.992651, 217, 281, 248, 312
-0.992656, 465, 161, 496, 192
-0.992656, 413, 217, 444, 248
-0.992658, 453, 229, 484, 260
-0.99266, 141, 297, 172, 328
-0.992661, 169, 297, 200, 328
-0.992673, 401, 277, 432, 308
-0.992675, 257, 89, 288, 120
-0.992676, 249, 285, 280, 316
-0.992679, 185, 281, 216, 312
-0.992681, 425, 257, 456, 288
-0.992686, 1, 209, 500, 272
-0.992686, 81, 197, 112, 228
-0.992687, 153, 301, 184, 332
-0.992687, 53, 305, 84, 335
-0.992689, 453, 205, 484, 236
-0.992691, 341, 273, 372, 304
-0.992695, 377, 261, 408, 292
-0.992706, 69, 73, 100, 104
-0.992709, 53, 217, 84, 248
-0.992709, 89, 113, 120, 144
-0.992711, 373, 293, 404, 324
-0.992712, 305, 105, 336, 136
-0.99272, 469, 13, 500, 44
-0.992721, 409, 305, 440, 335
-0.992723, 277, 285, 308, 316
-0.992736, 113, 153, 144, 184
-0.992738, 121, 253, 152, 284
-0.99274, 73, 289, 104, 320
-0.992742, 137, 173, 168, 204
-0.992746, 401, 153, 432, 184
-0.992746, 61, 165, 92, 196
-0.992751, 73, 249, 104, 280
-0.992751, 237, 161, 268, 192
-0.992752, 305, 285, 336, 316
-0.992753, 289, 97, 416, 160
-0.992755, 297, 305, 328, 335
-0.992756, 309, 305, 340, 335
-0.992759, 445, 165, 476, 196
-0.992766, 153, 121, 184, 152
-0.992766, 97, 217, 128, 248
-0.992774, 417, 205, 448, 236
-0.992775, 117, 229, 148, 260
-0.992776, 117, 209, 148, 240
-0.992778, 249, 73, 280, 104
-0.992781, 65, 301, 192, 332
-0.992784, 37, 165, 68, 196
-0.992791, 173, 113, 204, 144
-0.992797, 93, 205, 124, 236
-0.992798, 401, 249, 416, 312
-0.992803, 229, 289, 260, 320
-0.992805, 93, 261, 124, 292
-0.992811, 417, 165, 448, 196
-0.992818, 433, 305, 464, 335
-0.992819, 1, 301, 32, 332
-0.992821, 245, 181, 276, 212
-0.992838, 369, 265, 384, 328
-0.992957, 457, 201, 472, 264
-0.992959, 369, 65, 432, 192
-0.993034, 65, 97, 320, 160
-0.993043, 145, 161, 272, 192
-0.993168, 337, 297, 464, 328
-0.993244, 363, 265, 378, 328
-0.99325, 139, 273, 154, 335
-0.993254, 17, 17, 144, 80
-0.993255, 17, 165, 144, 196
-0.993294, 451, 217, 466, 280
-0.993302, 431, 217, 446, 280
-0.993307, 395, 249, 410, 312
-0.99332, 33, 289, 160, 320
-0.993342, 133, 273, 148, 335
-0.993355, 1, 217, 256, 280
-0.993401, 325, 161, 356, 288
-0.993421, 129, 277, 256, 308
-0.993454, 155, 273, 170, 335
-0.993483, 443, 225, 458, 288
-0.993492, 345, 81, 376, 208
-0.993504, 161, 233, 176, 296
-0.993508, 433, 73, 496, 136
-0.99351, 257, 241, 500, 304
-0.993529, 465, 201, 480, 264
-0.993558, 137, 25, 200, 88
-0.99357, 49, 209, 176, 240
-0.993653, 81, 269, 208, 300
-0.993669, 93, 193, 108, 256
-0.993674, 1, 249, 500, 312
-0.99368, 229, 17, 260, 144
-0.993712, 433, 49, 496, 176
-0.993727, 97, 125, 224, 156
-0.993727, 309, 209, 340, 335
-0.993747, 289, 277, 416, 308
-0.993749, 407, 249, 422, 312
-0.993805, 97, 241, 352, 304
-0.993818, 353, 265, 368, 328
-0.993833, 375, 257, 390, 320
-0.993855, 457, 225, 472, 288
-0.993868, 369, 253, 496, 284
-0.993926, 137, 1, 200, 64
-0.993932, 113, 301, 240, 332
-0.99394, 167, 217, 182, 280
-0.99394, 417, 241, 432, 304
-0.993956, 177, 85, 304, 116
-0.993959, 175, 249, 190, 312
-0.99396, 443, 257, 458, 320
-0.993997, 145, 161, 160, 224
-0.994003, 343, 273, 358, 335
-0.99401, 435, 193, 450, 256
-0.99407, 427, 193, 442, 256
-0.994083, 57, 209, 72, 272
-0.994095, 65, 253, 192, 284
-0.994116, 149, 273, 164, 335
-0.994132, 145, 289, 272, 320
-0.994147, 387, 257, 402, 320
-0.994158, 91, 169, 106, 232
-0.994178, 177, 125, 304, 156
-0.9942, 141, 217, 156, 280
-0.994232, 471, 225, 486, 288
-0.994245, 337, 273, 352, 335
-0.994271, 17, 129, 144, 160
-0.994282, 161, 97, 416, 160
-0.994288, 155, 249, 170, 312
-0.994293, 147, 185, 162, 248
-0.994332, 425, 233, 440, 296
-0.994342, 433, 249, 448, 312
-0.994344, 169, 241, 184, 304
-0.994351, 81, 173, 208, 204
-0.994361, 33, 241, 160, 272
-0.994374, 385, 65, 448, 320
-0.99438, 49, 225, 176, 256
-0.994392, 151, 209, 166, 272
-0.99441, 69, 193, 84, 256
-0.994421, 463, 177, 478, 240
-0.994428, 445, 201, 460, 264
-0.994453, 81, 157, 208, 188
-0.994486, 427, 161, 442, 224
-0.994521, 457, 169, 472, 232
-0.994537, 129, 217, 256, 248
-0.994559, 457, 257, 472, 320
-0.994564, 1, 145, 256, 208
-0.994578, 305, 265, 432, 296
-0.994592, 225, 217, 352, 280
-0.994618, 463, 233, 478, 296
-0.994625, 241, 113, 368, 144
-0.994631, 17, 257, 144, 288
-0.99465, 137, 129, 152, 192
-0.994654, 413, 265, 428, 328
-0.994654, 141, 193, 156, 256
-0.994673, 475, 265, 490, 328
-0.994673, 423, 257, 438, 320
-0.994685, 467, 257, 482, 320
-0.994694, 81, 209, 96, 272
-0.994703, 451, 161, 466, 224
-0.994716, 177, 205, 304, 236
-0.994729, 81, 237, 208, 268
-0.994736, 61, 161, 76, 224
-0.994738, 241, 285, 368, 316
-0.994738, 201, 33, 232, 160
-0.994742, 449, 249, 464, 312
-0.994753, 147, 233, 162, 296
-0.994755, 407, 273, 422, 335
-0.99479, 167, 265, 182, 328
-0.994819, 141, 249, 156, 312
-0.994828, 437, 225, 452, 288
-0.99485, 451, 193, 466, 256
-0.994913, 289, 305, 416, 335
-0.994921, 131, 129, 146, 192
-0.994922, 97, 145, 224, 176
-0.994925, 369, 233, 496, 264
-0.994942, 93, 233, 108, 296
-0.994946, 103, 113, 118, 176
-0.994953, 17, 197, 144, 228
-0.994965, 129, 173, 256, 204
-0.994966, 1, 97, 500, 160
-0.994978, 431, 273, 446, 335
-0.994997, 305, 273, 320, 335
-0.995034, 411, 153, 426, 216
-0.995042, 41, 17, 72, 144
-0.995046, 435, 169, 450, 232
-0.995047, 485, 241, 500, 304
-0.995061, 253, 185, 268, 248
-0.995064, 135, 169, 150, 232
-0.995064, 99, 201, 114, 264
-0.995075, 305, 73, 432, 136
-0.995082, 123, 113, 138, 176
-0.995084, 95, 105, 110, 168
-0.995091, 65, 33, 192, 96
-0.995107, 247, 177, 262, 240
-0.995111, 183, 257, 198, 320
-0.995119, 175, 217, 190, 280
-0.995123, 161, 265, 176, 328
-0.995137, 97, 205, 224, 236
-0.995139, 237, 177, 252, 240
-0.995148, 241, 305, 368, 335
-0.995151, 21, 105, 36, 168
-0.995151, 161, 193, 176, 256
-0.995152, 85, 161, 100, 224
-0.99517, 1, 277, 128, 308
-0.995173, 421, 169, 436, 232
-0.995179, 167, 177, 182, 240
-0.99518, 53, 273, 68, 335
-0.995184, 241, 101, 368, 132
-0.995214, 155, 185, 170, 248
-0.995214, 339, 113, 354, 176
-0.995225, 177, 277, 304, 308
-0.995235, 31, 113, 46, 176
-0.995249, 441, 161, 456, 224
-0.99526, 407, 225, 422, 288
-0.995299, 87, 193, 102, 256
-0.995301, 227, 153, 242, 216
-0.995304, 193, 97, 320, 128
-0.995305, 329, 273, 344, 335
-0.995308, 49, 113, 176, 144
-0.995313, 41, 113, 56, 176
-0.995315, 147, 121, 162, 184
-0.995319, 177, 217, 304, 248
-0.995344, 227, 177, 242, 240
-0.995347, 49, 185, 176, 216
-0.995358, 265, 161, 280, 224
-0.995369, 393, 273, 408, 335
-0.995372, 111, 113, 126, 176
-0.995379, 449, 273, 464, 335
-0.995379, 155, 161, 170, 224
-0.995385, 319, 273, 334, 335
-0.995389, 69, 161, 84, 224
-0.995396, 17, 145, 144, 176
-0.9954, 33, 73, 288, 136
-0.995432, 1, 105, 128, 136
-0.995461, 421, 193, 436, 256
-0.995469, 483, 273, 498, 335
-0.995477, 257, 121, 272, 184
-0.995482, 181, 33, 212, 160
-0.995488, 93, 273, 108, 335
-0.99549, 113, 105, 240, 136
-0.99549, 5, 105, 20, 168
-0.995493, 1, 69, 128, 100
-0.995521, 15, 105, 30, 168
-0.995527, 289, 89, 304, 152
-0.995547, 325, 113, 340, 176
-0.995553, 231, 121, 246, 184
-0.99556, 479, 233, 494, 296
-0.995569, 209, 165, 336, 196
-0.995572, 417, 217, 432, 280
-0.995576, 401, 225, 416, 288
-0.995578, 237, 153, 252, 216
-0.995578, 35, 257, 50, 320
-0.99558, 259, 161, 274, 224
-0.995586, 113, 257, 240, 288
-0.995589, 195, 121, 210, 184
-0.995595, 173, 177, 188, 240
-0.995605, 33, 49, 288, 112
-0.995616, 369, 193, 496, 224
-0.995619, 99, 225, 114, 288
-0.99562, 437, 273, 452, 335
-0.995624, 1, 65, 500, 128
-0.995633, 481, 201, 496, 264
-0.995635, 303, 97, 318, 160
-0.995638, 263, 185, 278, 248
-0.995644, 311, 97, 326, 160
-0.995655, 211, 121, 226, 184
-0.995656, 83, 89, 98, 152
-0.995713, 409, 97, 440, 224
-0.99573, 101, 49, 132, 176
-0.995731, 257, 217, 500, 280
-0.99575, 369, 213, 496, 244
-0.995815, 321, 157, 448, 188
-0.995858, 13, 1, 44, 128
-0.995874, 129, 57, 256, 120
-0.995889, 193, 289, 320, 320
-0.995912, 321, 253, 448, 284
-0.995919, 225, 269, 352, 300
-0.996005, 177, 113, 304, 144
-0.996037, 41, 65, 72, 320
-0.996078, 321, 209, 352, 335
-0.996094, 209, 177, 336, 208
-0.996117, 353, 33, 480, 96
-0.996158, 129, 185, 256, 216
-0.996181, 1, 89, 128, 120
-0.996217, 61, 33, 92, 288
-0.996241, 305, 17, 368, 144
-0.996253, 1, 221, 128, 252
-0.996257, 9, 97, 40, 224
-0.996322, 241, 33, 368, 96
-0.996399, 457, 49, 488, 176
-0.9964, 289, 293, 416, 324
-0.996427, 177, 137, 304, 168
-0.99646, 161, 301, 288, 332
-0.996486, 289, 145, 416, 176
-0.996493, 241, 209, 368, 240
-0.996496, 145, 229, 272, 260
-0.996551, 145, 149, 272, 180
-0.996569, 1, 209, 128, 240
-0.996582, 161, 265, 288, 296
-0.996605, 257, 129, 384, 160
-0.996611, 353, 137, 480, 168
-0.996638, 153, 273, 168, 304
-0.996656, 229, 65, 260, 320
-0.996666, 1, 53, 128, 84
-0.996666, 179, 265, 194, 296
-0.996719, 159, 281, 174, 312
-0.996747, 167, 269, 182, 300
-0.996768, 305, 169, 432, 200
-0.996769, 305, 181, 432, 212
-0.996772, 201, 65, 232, 320
-0.996773, 73, 33, 104, 288
-0.996781, 245, 33, 276, 288
-0.996805, 173, 281, 188, 312
-0.996809, 465, 65, 496, 320
-0.996812, 171, 253, 186, 284
-0.996821, 289, 197, 416, 228
-0.996837, 241, 257, 368, 288
-0.996841, 429, 301, 444, 332
-0.996853, 129, 289, 144, 320
-0.996865, 449, 221, 464, 252
-0.996868, 353, 9, 480, 72
-0.996869, 241, 153, 368, 184
-0.996894, 89, 65, 120, 320
-0.996909, 173, 269, 188, 300
-0.996922, 81, 93, 208, 124
-0.996925, 75, 201, 90, 232
-0.996933, 351, 293, 366, 324
-0.996939, 69, 201, 84, 232
-0.996968, 181, 65, 212, 320
-0.996983, 455, 221, 470, 252
-0.997022, 141, 285, 156, 316
-0.99703, 381, 281, 396, 312
-0.997036, 1, 177, 128, 208
-0.997037, 137, 301, 152, 332
-0.997044, 105, 65, 136, 320
-0.997051, 167, 281, 182, 312
-0.997066, 369, 161, 496, 192
-0.99707, 177, 73, 304, 104
-0.99708, 177, 193, 304, 224
-0.997081, 151, 285, 166, 316
-0.997084, 359, 289, 374, 320
-0.997087, 97, 289, 112, 320
-0.99711, 59, 205, 74, 236
-0.997114, 241, 189, 368, 220
-0.997115, 371, 285, 386, 316
-0.997116, 165, 237, 180, 268
-0.997121, 411, 265, 426, 296
-0.997137, 431, 221, 446, 252
-0.997147, 95, 197, 110, 228
-0.997158, 129, 241, 256, 272
-0.997177, 17, 33, 48, 288
-0.997183, 93, 301, 108, 332
-0.997185, 423, 305, 438, 335
-0.997193, 473, 1, 488, 32
-0.997205, 295, 97, 310, 128
-0.997212, 265, 65, 296, 320
-0.997213, 443, 217, 458, 248
-0.997217, 1, 117, 128, 148
-0.997225, 85, 205, 100, 236
-0.99723, 147, 237, 162, 268
-0.997243, 399, 273, 414, 304
-0.997248, 95, 185, 110, 216
-0.997248, 177, 253, 192, 284
-0.997252, 391, 281, 406, 312
-0.997258, 459, 285, 474, 316
-0.997265, 337, 305, 352, 335
-0.997285, 353, 73, 480, 136
-0.997298, 135, 289, 150, 320
-0.997299, 157, 261, 172, 292
-0.997303, 345, 297, 360, 328
-0.997307, 373, 265, 388, 296
-0.997322, 157, 181, 172, 212
-0.99733, 153, 169, 168, 200
-0.99733, 265, 1, 296, 128
-0.997334, 125, 305, 140, 335
-0.997337, 409, 153, 424, 184
-0.997345, 71, 213, 86, 244
-0.997351, 147, 273, 162, 304
-0.997352, 139, 161, 154, 192
-0.997354, 133, 249, 148, 280
-0.997359, 267, 77, 282, 108
-0.997363, 475, 273, 490, 304
-0.997365, 137, 173, 152, 204
-0.997366, 461, 201, 476, 232
-0.997369, 441, 297, 456, 328
-0.99737, 287, 93, 302, 124
-0.997375, 465, 229, 480, 260
-0.997383, 171, 241, 186, 272
-0.997393, 353, 177, 480, 208
-0.997393, 65, 65, 192, 96
-0.9974, 331, 305, 346, 335
-0.997402, 157, 233, 172, 264
-0.997406, 171, 161, 186, 192
-0.997407, 447, 289, 462, 320
-0.997411, 123, 293, 138, 324
-0.997412, 435, 261, 450, 292
-0.997414, 141, 237, 156, 268
-0.997416, 307, 101, 322, 132
-0.997417, 365, 289, 380, 320
-0.997423, 65, 213, 80, 244
-0.997426, 97, 217, 112, 248
-0.99743, 37, 301, 52, 332
-0.997438, 437, 221, 452, 252
-0.997438, 453, 289, 468, 320
-0.997446, 131, 301, 146, 332
-0.997446, 29, 33, 60, 288
-0.997455, 129, 153, 144, 184
-0.997456, 417, 265, 432, 296
-0.997458, 137, 137, 152, 168
-0.997461, 483, 269, 498, 300
-0.997467, 333, 113, 348, 144
-0.997467, 289, 117, 416, 148
-0.997468, 453, 209, 468, 240
-0.997474, 235, 277, 250, 308
-0.997478, 365, 269, 380, 300
-0.997483, 141, 221, 156, 252
-0.99749, 325, 305, 340, 335
-0.997493, 465, 213, 480, 244
-0.997493, 417, 305, 432, 335
-0.997495, 435, 297, 450, 328
-0.997495, 103, 301, 118, 332
-0.997498, 445, 257, 460, 288
-0.997507, 277, 89, 292, 120
-0.997514, 109, 293, 124, 324
-0.997514, 165, 249, 180, 280
-0.997521, 147, 185, 162, 216
-0.997522, 315, 105, 330, 136
-0.997523, 423, 269, 438, 300
-0.997526, 45, 301, 60, 332
-0.997535, 145, 65, 176, 320
-0.997536, 481, 9, 496, 40
-0.997536, 147, 173, 162, 204
-0.997539, 141, 273, 156, 304
-0.99754, 67, 229, 82, 260
-0.99754, 357, 273, 372, 304
-0.99754, 159, 293, 174, 324
-0.997544, 161, 221, 176, 252
-0.997544, 85, 1, 116, 128
-0.997546, 345, 121, 360, 152
-0.997546, 101, 249, 116, 280
-0.997555, 23, 289, 38, 320
-0.997556, 35, 289, 50, 320
-0.997557, 193, 153, 320, 184
-0.99756, 77, 301, 92, 332
-0.997562, 465, 281, 480, 312
-0.997563, 251, 205, 266, 236
-0.997564, 429, 257, 444, 288
-0.997567, 15, 293, 30, 324
-0.997571, 427, 193, 442, 224
-0.997572, 117, 65, 148, 320
-0.997578, 273, 69, 288, 100
-0.99758, 131, 165, 146, 196
-0.997583, 477, 229, 492, 260
-0.997585, 113, 253, 128, 284
-0.997586, 405, 277, 420, 308
-0.997586, 161, 253, 288, 284
-0.997587, 467, 249, 482, 280
-0.997589, 313, 65, 344, 320
-0.99759, 147, 161, 162, 192
-0.997594, 65, 77, 192, 108
-0.997596, 327, 113, 342, 144
-0.997606, 277, 285, 292, 316
-0.997607, 91, 73, 106, 104
-0.997608, 81, 73, 96, 104
-0.997609, 257, 165, 384, 196
-0.997611, 101, 205, 116, 236
-0.997615, 127, 121, 142, 152
-0.997629, 87, 289, 102, 320
-0.997631, 329, 65, 360, 320
-0.997636, 405, 253, 420, 284
-0.99764, 185, 277, 200, 308
-0.997643, 289, 241, 416, 272
-0.997688, 213, 65, 244, 320
-0.997695, 289, 65, 320, 320
-0.997711, 177, 53, 304, 84
-0.997774, 129, 65, 160, 320
-0.9978, 305, 133, 432, 164
-0.997806, 17, 209, 48, 335
-0.997879, 257, 113, 500, 176
-0.99789, 361, 65, 392, 320
-0.997891, 145, 25, 272, 88
-0.997893, 241, 141, 368, 172
-0.997898, 161, 65, 192, 320
-0.998066, 273, 225, 400, 288
-0.998074, 353, 125, 480, 156
-0.99809, 321, 217, 448, 248
-0.998125, 257, 177, 384, 208
-0.998158, 241, 65, 368, 96
-0.99818, 453, 33, 484, 288
-0.998196, 321, 229, 448, 260
-0.998205, 49, 53, 176, 84
-0.998251, 289, 1, 320, 128
-0.998285, 369, 149, 496, 180
-0.99829, 257, 81, 500, 144
-0.998302, 277, 65, 308, 320
-0.998304, 33, 25, 288, 88
-0.998389, 25, 321, 88, 335
-0.998393, 301, 65, 332, 320
-0.998394, 81, 303, 144, 318
-0.998397, 417, 227, 480, 242
-0.998403, 257, 81, 384, 112
-0.998415, 341, 65, 372, 320
-0.998415, 65, 293, 128, 308
-0.998418, 409, 309, 472, 324
-0.998418, 33, 227, 96, 242
-0.998424, 33, 219, 96, 234
-0.998424, 89, 173, 152, 188
-0.998424, 129, 249, 192, 264
-0.998429, 89, 313, 152, 328
-0.998434, 57, 309, 120, 324
-0.998434, 41, 315, 104, 330
-0.998436, 1, 1, 32, 256
-0.998436, 425, 263, 488, 278
-0.998437, 401, 315, 464, 330
-0.998438, 129, 167, 192, 182
-0.998441, 353, 293, 416, 308
-0.998441, 41, 299, 104, 314
-0.998441, 57, 211, 120, 226
-0.998443, 49, 167, 112, 182
-0.998445, 273, 319, 336, 334
-0.998447, 105, 165, 168, 180
-0.998448, 225, 285, 288, 300
-0.998449, 433, 291, 496, 306
-0.99845, 25, 211, 88, 226
-0.99845, 113, 285, 176, 300
-0.998451, 169, 119, 232, 134
-0.998453, 9, 309, 72, 324
-0.998453, 113, 299, 176, 314
-0.998454, 121, 267, 184, 282
-0.998455, 177, 283, 240, 298
-0.998456, 129, 175, 192, 190
-0.99846, 105, 307, 168, 322
-0.998461, 305, 317, 368, 332
-0.998462, 297, 309, 360, 324
-0.998462, 121, 317, 184, 332
-0.998465, 409, 195, 472, 210
-0.998468, 369, 285, 432, 300
-0.998468, 393, 273, 456, 288
-0.998469, 425, 301, 488, 316
-0.998469, 137, 273, 200, 288
-0.99847, 417, 213, 480, 228
-0.99847, 137, 261, 200, 276
-0.998471, 385, 257, 448, 272
-0.998471, 153, 279, 216, 294
-0.998471, 169, 211, 232, 226
-0.998472, 401, 251, 464, 266
-0.998475, 161, 303, 224, 318
-0.998477, 417, 237, 480, 252
-0.998481, 401, 267, 464, 282
-0.998483, 369, 263, 432, 278
-0.998483, 129, 207, 192, 222
-0.998483, 321, 303, 384, 318
-0.998483, 381, 65, 412, 320
-0.998485, 9, 297, 72, 312
-0.998486, 65, 319, 128, 334
-0.998486, 89, 293, 152, 308
-0.998488, 49, 237, 112, 252
-0.998489, 321, 309, 384, 324
-0.998489, 121, 125, 184, 140
-0.99849, 385, 321, 448, 335
-0.99849, 133, 277, 164, 292
-0.99849, 201, 211, 232, 226
-0.998491, 165, 271, 196, 286
-0.998492, 433, 285, 496, 300
-0.998492, 401, 303, 464, 318
-0.998492, 185, 125, 248, 140
-0.998493, 433, 221, 496, 236
-0.998493, 449, 251, 480, 266
-0.998493, 137, 311, 200, 326
-0.998493, 85, 309, 116, 324
-0.998493, 117, 127, 148, 142
-0.998494, 113, 283, 144, 298
-0.998494, 249, 285, 280, 300
-0.998494, 113, 155, 144, 170
-0.998495, 121, 211, 152, 226
-0.998495, 325, 115, 356, 130
-0.998495, 301, 105, 332, 120
-0.998495, 329, 291, 392, 306
-0.998496, 101, 313, 132, 328
-0.998496, 137, 311, 168, 326
-0.998496, 273, 95, 304, 110
-0.998496, 397, 253, 428, 268
-0.998496, 425, 257, 488, 272
-0.998497, 205, 301, 236, 316
-0.998498, 361, 137, 392, 152
-0.998498, 129, 243, 160, 258
-0.998498, 289, 117, 352, 132
-0.998498, 173, 287, 204, 302
-0.998498, 193, 101, 224, 116
-0.998498, 265, 211, 328, 226
-0.998498, 405, 269, 436, 284
-0.9985, 129, 243, 192, 258
-0.9985, 125, 133, 156, 148
-0.9985, 409, 245, 472, 260
-0.9985, 337, 113, 464, 144
-0.998501, 161, 313, 192, 328
-0.998502, 385, 195, 448, 210
-0.998502, 437, 321, 468, 335
-0.998503, 5, 315, 36, 330
-0.998503, 245, 51, 276, 66
-0.998504, 401, 159, 432, 174
-0.998504, 97, 269, 160, 284
-0.998504, 145, 295, 208, 310
-0.998505, 385, 279, 448, 294
-0.998505, 157, 175, 188, 190
-0.998505, 461, 245, 492, 260
-0.998505, 413, 221, 444, 236
-0.998506, 189, 303, 220, 318
-0.998507, 277, 285, 308, 300
-0.998507, 345, 283, 408, 298
-0.998507, 105, 207, 168, 222
-0.998508, 25, 291, 88, 306
-0.998509, 409, 295, 472, 310
-0.998509, 217, 291, 280, 306
-0.99851, 453, 221, 484, 236
-0.99851, 345, 301, 408, 316
-0.998511, 353, 271, 416, 286
-0.998511, 409, 201, 472, 216
-0.998512, 25, 201, 88, 216
-0.998513, 133, 205, 164, 220
-0.998513, 445, 197, 476, 212
-0.998513, 129, 279, 192, 294
-0.998514, 289, 103, 320, 118
-0.998514, 69, 203, 100, 218
-0.998514, 173, 119, 204, 134
-0.998514, 297, 321, 328, 335
-0.998514, 157, 249, 188, 264
-0.998515, 49, 303, 80, 318
-0.998515, 113, 293, 176, 308
-0.998515, 161, 291, 192, 306
-0.998516, 425, 313, 456, 328
-0.998516, 209, 121, 272, 136
-0.998517, 161, 305, 192, 320
-0.998517, 77, 211, 108, 226
-0.998517, 305, 307, 336, 322
-0.998518, 129, 255, 160, 270
-0.998519, 145, 255, 208, 270
-0.998519, 145, 267, 208, 282
-0.998519, 137, 223, 168, 238
-0.99852, 137, 231, 168, 246
-0.99852, 409, 321, 472, 335
-0.99852, 425, 269, 488, 284
-0.99852, 85, 319, 116, 334
-0.99852, 273, 211, 304, 226
-0.99852, 129, 89, 256, 120
-0.99852, 169, 165, 232, 180
-0.998521, 409, 169, 472, 184
-0.998521, 133, 301, 164, 316
-0.998521, 69, 217, 100, 232
-0.998521, 313, 285, 376, 300
-0.998522, 433, 257, 464, 272
-0.998522, 145, 297, 176, 312
-0.998523, 105, 159, 168, 174
-0.998523, 221, 291, 252, 306
-0.998525, 137, 287, 200, 302
-0.998525, 281, 109, 344, 124
-0.998526, 101, 305, 132, 320
-0.998527, 425, 237, 456, 252
-0.998527, 93, 263, 124, 278
-0.998528, 133, 165, 164, 180
-0.998528, 177, 277, 240, 292
-0.998529, 25, 253, 88, 268
-0.99853, 313, 315, 344, 330
-0.99853, 417, 265, 448, 280
-0.998531, 401, 315, 432, 330
-0.998531, 81, 165, 144, 180
-0.998531, 117, 307, 148, 322
-0.998532, 89, 285, 152, 300
-0.998532, 37, 187, 68, 202
-0.998532, 73, 217, 136, 232
-0.998532, 433, 251, 496, 266
-0.998532, 329, 277, 392, 292
-0.998534, 109, 147, 140, 162
-0.998535, 25, 321, 56, 335
-0.998536, 313, 109, 344, 124
-0.998537, 425, 195, 456, 210
-0.998537, 161, 289, 224, 304
-0.998538, 145, 105, 208, 120
-0.998538, 57, 225, 120, 240
-0.998538, 409, 221, 472, 236
-0.998538, 105, 255, 168, 270
-0.998539, 257, 285, 320, 300
-0.998539, 25, 239, 88, 254
-0.998539, 21, 293, 52, 308
-0.998539, 69, 315, 100, 330
-0.998539, 181, 277, 212, 292
-0.99854, 129, 127, 160, 142
-0.998541, 61, 165, 92, 180
-0.998541, 105, 213, 168, 228
-0.998541, 101, 289, 132, 304
-0.998541, 313, 171, 376, 186
-0.998541, 97, 217, 128, 232
-0.998541, 201, 281, 264, 296
-0.998542, 133, 175, 164, 190
-0.998542, 89, 211, 120, 226
-0.998542, 185, 295, 248, 310
-0.998542, 413, 305, 444, 320
-0.998542, 25, 165, 88, 180
-0.998543, 217, 175, 280, 190
-0.998543, 129, 317, 160, 332
-0.998543, 421, 231, 452, 246
-0.998543, 105, 133, 168, 148
-0.998544, 173, 307, 204, 322
-0.998544, 113, 171, 144, 186
-0.998544, 89, 321, 152, 335
-0.998545, 153, 281, 184, 296
-0.998545, 185, 283, 216, 298
-0.998546, 89, 179, 152, 194
-0.998546, 145, 121, 208, 136
-0.998546, 433, 317, 496, 332
-0.998546, 185, 301, 248, 316
-0.998547, 409, 163, 472, 178
-0.998547, 369, 311, 432, 326
-0.998548, 113, 201, 176, 216
-0.998548, 369, 301, 432, 316
-0.998549, 49, 75, 112, 90
-0.998549, 49, 243, 112, 258
-0.998549, 137, 249, 168, 264
-0.998549, 173, 301, 204, 316
-0.998549, 105, 147, 168, 162
-0.998551, 409, 279, 472, 294
-0.998551, 57, 211, 88, 226
-0.998553, 113, 165, 144, 180
-0.998559, 129, 263, 160, 278
-0.998559, 469, 11, 500, 26
-0.998559, 393, 275, 424, 290
-0.998564, 165, 277, 196, 292
-0.998566, 245, 77, 276, 92
-0.998567, 85, 293, 116, 308
-0.998567, 45, 321, 76, 335
-0.998567, 69, 297, 100, 312
-0.998569, 57, 203, 88, 218
-0.998576, 145, 271, 176, 286
-0.998576, 433, 221, 464, 236
-0.998577, 361, 291, 392, 306
-0.998577, 93, 177, 108, 304
-0.998578, 333, 305, 364, 320
-0.998578, 129, 269, 160, 284
-0.99858, 137, 287, 168, 302
-0.998584, 113, 133, 144, 148
-0.998588, 393, 321, 424, 335
-0.998589, 149, 311, 180, 326
-0.99859, 121, 291, 152, 306
-0.998592, 445, 227, 476, 242
-0.998592, 155, 209, 170, 335
-0.998593, 465, 277, 496, 292
-0.998598, 373, 285, 404, 300
-0.998602, 145, 237, 176, 252
-0.998602, 117, 321, 148, 335
-0.998604, 469, 3, 500, 18
-0.998605, 349, 295, 380, 310
-0.998606, 445, 297, 476, 312
-0.998617, 89, 303, 120, 318
-0.998624, 145, 263, 176, 278
-0.998625, 109, 299, 140, 314
-0.998626, 483, 161, 498, 288
-0.998636, 321, 309, 352, 324
-0.998638, 73, 309, 104, 324
-0.998642, 99, 177, 114, 304
-0.998646, 457, 285, 488, 300
-0.998653, 405, 321, 436, 335
-0.998654, 57, 315, 88, 330
-0.998655, 419, 145, 434, 272
-0.998658, 425, 307, 456, 322
-0.998659, 433, 227, 464, 242
-0.99867, 171, 209, 186, 335
-0.998708, 433, 301, 464, 316
-0.998712, 479, 209, 494, 335
-0.998712, 413, 315, 444, 330
-0.998714, 445, 291, 476, 306
-0.998717, 321, 101, 448, 132
-0.998717, 397, 65, 428, 320
-0.998733, 465, 177, 480, 304
-0.998743, 161, 209, 176, 335
-0.998745, 127, 113, 142, 240
-0.99876, 449, 161, 464, 288
-0.998772, 129, 73, 384, 136
-0.998774, 151, 129, 166, 256
-0.998786, 231, 129, 246, 256
-0.998791, 443, 193, 458, 320
-0.998794, 473, 209, 488, 335
-0.998799, 457, 193, 472, 320
-0.998819, 145, 129, 160, 256
-0.998826, 147, 209, 162, 335
-0.998829, 85, 81, 100, 208
-0.998831, 409, 145, 424, 272
-0.998832, 177, 209, 192, 335
-0.998845, 83, 145, 98, 272
-0.998861, 225, 49, 352, 80
-0.998865, 259, 129, 274, 256
-0.998868, 63, 145, 78, 272
-0.998869, 125, 177, 140, 304
-0.99888, 69, 145, 84, 272
-0.998882, 249, 129, 264, 256
-0.998885, 91, 97, 106, 224
-0.998889, 57, 161, 72, 288
-0.998889, 473, 129, 488, 256
-0.998889, 429, 193, 444, 320
-0.998894, 369, 65, 400, 192
-0.998898, 1, 41, 500, 104
-0.998901, 269, 49, 284, 176
-0.998908, 333, 97, 348, 224
-0.998909, 131, 177, 146, 304
-0.998922, 459, 145, 474, 272
-0.998922, 423, 193, 438, 320
-0.998923, 119, 145, 134, 272
-0.998924, 301, 81, 316, 208
-0.998926, 413, 193, 428, 320
-0.998928, 117, 97, 132, 224
-0.998937, 365, 113, 380, 240
-0.998942, 119, 209, 134, 335
-0.99895, 441, 65, 472, 320
-0.998953, 113, 145, 128, 272
-0.998961, 171, 129, 186, 256
-0.998965, 437, 161, 452, 288
-0.998966, 239, 129, 254, 256
-0.998969, 157, 161, 172, 288
-0.998976, 425, 145, 440, 272
-0.998983, 141, 209, 156, 335
-0.998989, 265, 145, 280, 272
-0.998991, 247, 65, 262, 192
-0.998999, 79, 65, 94, 192
-0.999001, 103, 113, 118, 240
-0.99901, 473, 1, 488, 128
-0.99901, 129, 77, 256, 108
-0.999012, 257, 81, 272, 208
-0.999015, 225, 221, 352, 252
-0.999027, 77, 145, 92, 272
-0.999035, 69, 193, 84, 320
-0.999035, 185, 81, 200, 208
-0.999041, 137, 129, 152, 256
-0.999043, 431, 145, 446, 272
-0.99905, 417, 33, 448, 288
-0.999051, 97, 97, 112, 224
-0.999055, 257, 209, 272, 335
-0.999064, 87, 193, 102, 320
-0.999067, 163, 129, 178, 256
-0.999068, 211, 81, 226, 208
-0.999069, 485, 209, 500, 335
-0.999071, 275, 113, 290, 240
-0.99908, 279, 65, 294, 192
-0.999082, 189, 209, 204, 335
-0.999083, 295, 33, 310, 160
-0.999086, 107, 193, 122, 320
-0.999089, 51, 193, 66, 320
-0.999092, 353, 113, 368, 240
-0.999093, 371, 113, 386, 240
-0.999097, 399, 161, 414, 288
-0.9991, 53, 113, 68, 240
-0.999104, 157, 113, 172, 240
-0.999104, 237, 209, 252, 335
-0.999106, 443, 145, 458, 272
-0.999113, 263, 193, 278, 320
-0.999116, 195, 113, 210, 240
-0.999117, 481, 1, 496, 128
-0.999121, 289, 209, 304, 335
-0.999123, 183, 209, 198, 335
-0.999126, 473, 81, 488, 208
-0.999127, 225, 129, 240, 256
-0.999128, 215, 129, 230, 256
-0.99913, 279, 17, 294, 144
-0.999131, 341, 113, 356, 240
-0.999133, 33, 65, 48, 192
-0.999134, 39, 113, 54, 240
-0.999136, 75, 209, 90, 335
-0.999143, 111, 97, 126, 224
-0.999144, 303, 33, 318, 160
-0.999146, 113, 193, 128, 320
-0.999152, 247, 209, 262, 335
-0.999155, 465, 129, 480, 256
-0.999155, 43, 65, 58, 192
-0.999162, 323, 97, 338, 224
-0.999163, 295, 81, 310, 208
-0.999165, 41, 177, 56, 304
-0.999165, 81, 193, 96, 320
-0.999166, 221, 81, 236, 208
-0.999166, 307, 97, 322, 224
-0.999168, 175, 49, 190, 176
-0.999171, 253, 33, 268, 160
-0.999175, 231, 209, 246, 335
-0.999179, 63, 209, 78, 335
-0.99918, 463, 1, 478, 128
-0.999183, 177, 161, 192, 288
-0.999189, 199, 209, 214, 335
-0.999191, 1, 41, 128, 72
-0.999191, 289, 49, 304, 176
-0.999199, 219, 209, 234, 335
-0.999205, 347, 113, 362, 240
-0.999208, 129, 65, 256, 96
-0.999209, 271, 209, 286, 335
-0.999212, 353, 193, 368, 320
-0.999225, 301, 193, 316, 320
-0.999232, 263, 17, 278, 144
-0.999237, 197, 65, 212, 192
-0.99924, 205, 81, 220, 208
-0.999242, 331, 145, 346, 272
-0.999244, 269, 97, 284, 224
-0.999245, 343, 177, 358, 304
-0.999245, 395, 97, 410, 224
-0.999247, 71, 81, 86, 208
-0.999251, 313, 97, 328, 224
-0.999255, 225, 209, 240, 335
-0.999261, 275, 161, 290, 288
-0.999262, 377, 129, 392, 256
-0.999276, 435, 209, 450, 335
-0.999313, 209, 245, 336, 276
-0.999369, 353, 25, 480, 56
-0.999376, 369, 5, 496, 36
-0.99938, 1, 1, 32, 128
-0.999461, 325, 33, 356, 160
-0.999526, 49, 41, 176, 72
-0.999537, 305, 89, 432, 120
-0.999615, 369, 37, 496, 68
-0.99966, 225, 37, 352, 68
-0.999686, 485, 3, 500, 18
-0.999687, 53, 319, 68, 334
-0.999687, 379, 287, 394, 302
-0.999687, 451, 221, 466, 236
-0.999687, 185, 119, 200, 134
-0.999687, 83, 213, 98, 228
-0.999688, 427, 265, 442, 280
-0.999688, 439, 221, 454, 236
-0.999689, 451, 309, 466, 324
-0.999689, 325, 307, 340, 322
-0.999689, 147, 255, 162, 270
-0.99969, 95, 181, 110, 196
-0.99969, 91, 309, 106, 324
-0.99969, 129, 137, 144, 152
-0.999691, 331, 309, 346, 324
-0.999691, 147, 239, 162, 254
-0.999691, 115, 133, 130, 148
-0.999691, 175, 269, 190, 284
-0.999692, 411, 163, 426, 178
-0.999693, 135, 143, 150, 158
-0.999694, 433, 221, 448, 236
-0.999694, 103, 263, 118, 278
-0.999694, 115, 165, 130, 180
-0.999694, 323, 111, 338, 126
-0.999695, 99, 301, 114, 316
-0.999695, 385, 283, 400, 298
-0.999696, 345, 123, 360, 138
-0.999696, 353, 81, 480, 112
-0.999697, 471, 247, 486, 262
-0.999698, 443, 259, 458, 274
-0.999698, 7, 311, 22, 326
-0.999699, 141, 315, 156, 330
-0.999699, 329, 111, 344, 126
-0.9997, 459, 281, 474, 296
-0.9997, 139, 163, 154, 178
-0.9997, 61, 219, 76, 234
-0.999701, 87, 315, 102, 330
-0.999701, 95, 193, 110, 208
-0.999704, 113, 305, 128, 320
-0.999704, 183, 259, 198, 274
-0.999705, 189, 279, 204, 294
-0.999705, 439, 227, 454, 242
-0.999705, 275, 91, 290, 106
-0.999705, 339, 119, 354, 134
-0.999706, 55, 297, 70, 312
-0.999706, 317, 109, 332, 124
-0.999706, 79, 309, 94, 324
-0.999706, 129, 171, 144, 186
-0.999706, 421, 267, 436, 282
-0.999706, 227, 291, 242, 306
-0.999708, 153, 311, 168, 326
-0.999708, 395, 281, 410, 296
-0.999709, 119, 303, 134, 318
-0.999709, 167, 305, 182, 320
-0.999709, 151, 233, 166, 248
-0.99971, 61, 321, 76, 335
-0.99971, 65, 211, 80, 226
-0.99971, 427, 237, 442, 252
-0.99971, 75, 211, 90, 226
-0.99971, 363, 295, 378, 310
-0.99971, 479, 5, 494, 20
-0.999711, 423, 165, 438, 180
-0.999712, 457, 227, 472, 242
-0.999712, 165, 263, 180, 278
-0.999712, 149, 261, 164, 276
-0.999712, 59, 315, 74, 330
-0.999713, 245, 77, 260, 92
-0.999713, 269, 75, 284, 90
-0.999713, 481, 243, 496, 258
-0.999715, 247, 51, 262, 66
-0.999716, 93, 261, 108, 276
-0.999718, 293, 99, 308, 114
-0.999718, 161, 283, 176, 298
-0.999718, 165, 311, 180, 326
-0.999719, 425, 315, 440, 330
-0.99972, 135, 317, 150, 332
-0.99972, 149, 267, 164, 282
-0.999721, 413, 311, 428, 326
-0.999722, 65, 203, 80, 218
-0.999722, 465, 287, 480, 302
-0.999723, 155, 285, 170, 300
-0.999723, 181, 277, 196, 292
-0.999724, 125, 301, 140, 316
-0.999725, 445, 221, 460, 236
-0.999726, 459, 253, 474, 268
-0.99973, 71, 315, 86, 330
-0.999732, 225, 57, 480, 120
-0.999733, 481, 11, 496, 26
-0.999733, 173, 263, 188, 278
-0.999733, 429, 33, 460, 288
-0.999734, 167, 281, 182, 296
-0.999734, 139, 265, 154, 280
-0.999735, 95, 175, 110, 190
-0.999735, 23, 293, 38, 308
-0.999736, 453, 295, 468, 310
-0.999736, 65, 313, 80, 328
-0.999736, 483, 271, 498, 286
-0.999736, 161, 255, 176, 270
-0.999737, 283, 93, 298, 108
-0.999737, 221, 293, 236, 308
-0.99974, 125, 295, 140, 310
-0.999745, 93, 215, 108, 230
-0.999747, 137, 247, 152, 262
-0.999748, 303, 103, 318, 118
-0.999748, 173, 279, 188, 294
-0.999749, 161, 237, 176, 252
-0.999751, 85, 309, 100, 324
-0.999751, 437, 297, 452, 312
-0.999752, 169, 247, 184, 262
-0.999753, 311, 107, 326, 122
-0.999753, 431, 301, 446, 316
-0.999753, 433, 231, 448, 246
-0.999754, 409, 317, 424, 332
-0.999757, 155, 265, 170, 280
-0.999757, 465, 279, 480, 294
-0.999759, 119, 297, 134, 312
-0.999759, 417, 321, 432, 335
-0.999762, 123, 321, 138, 335
-0.999766, 129, 321, 144, 335
-0.999767, 471, 279, 486, 294
-0.999767, 431, 311, 446, 326
-0.999769, 449, 289, 464, 304
-0.999769, 443, 293, 458, 308
-0.999773, 273, 49, 400, 80
-0.999773, 401, 321, 416, 335
-0.999775, 113, 299, 128, 314
-0.999779, 419, 309, 434, 324
-0.999784, 459, 287, 474, 302
-0.999785, 477, 275, 492, 290
-0.999787, 171, 253, 186, 268
-0.999794, 439, 305, 454, 320
-0.999797, 445, 301, 460, 316
-0.999803, 471, 1, 486, 16
-0.999812, 425, 305, 440, 320
-0.999814, 129, 53, 256, 84
-0.999828, 257, 33, 500, 96
-0.999834, 113, 13, 240, 44
-0.99984, 353, 57, 480, 88
-0.999881, 1, 9, 128, 40
-0.999882, 369, 93, 496, 124
-0.999888, 145, 37, 272, 68
-1.00012, 321, 1, 448, 128
-1.00016, 213, 17, 244, 144
-1.00016, 1, 1, 256, 64
-1.00024, 129, 49, 384, 112
-1.00028, 125, 33, 156, 160
-1.00028, 153, 33, 184, 160
-1.0004, 97, 1, 224, 64
-1.0007, 5, 209, 36, 335
-1.00093, 161, 25, 416, 88
-1.00102, 289, 17, 416, 80
-1.00113, 357, 65, 388, 192
-1.00115, 409, 1, 472, 128
-1.00119, 193, 25, 320, 88
-1.00126, 393, 65, 424, 192
-1.00127, 225, 1, 352, 64
-1.00127, 1, 17, 500, 80
-1.00136, 145, 1, 272, 64
-1.00136, 257, 9, 500, 72
-1.00159, 313, 1, 344, 128
-1.00178, 161, 1, 416, 64
-1.0028, 289, 41, 416, 104
-1.00351, 329, 17, 392, 144
-1.00544, 105, 17, 168, 144
-1.00857, 393, 49, 456, 176
-1.01016, 385, 1, 448, 128
-1.01437, 353, 17, 416, 144
