1963
-0.375375, 1, 1, 500, 375
-0.428178, 1, 33, 500, 288
-0.467132, 97, 1, 352, 375
-0.473998, 1, 129, 500, 375
-0.50669, 193, 1, 448, 375
-0.620876, 161, 129, 416, 375
-0.673271, 257, 33, 500, 288
-0.679708, 129, 33, 384, 288
-0.722223, 65, 129, 320, 375
-0.723391, 257, 129, 500, 375
-0.751747, 1, 1, 256, 375
-0.765345, 33, 33, 288, 288
-0.864708, 209, 97, 336, 352
-0.865323, 225, 1, 352, 375
-0.873084, 257, 65, 384, 320
-0.878528, 161, 97, 288, 352
-0.885385, 369, 1, 496, 375
-0.887515, 305, 1, 432, 375
-0.88925, 145, 1, 272, 375
-0.893821, 113, 33, 240, 288
-0.896066, 305, 97, 432, 352
-0.900345, 193, 1, 320, 256
-0.901673, 1, 65, 500, 192
-0.902321, 369, 65, 496, 320
-0.907092, 1, 145, 500, 272
-0.920739, 129, 65, 384, 192
-0.921083, 97, 113, 352, 240
-0.923555, 1, 193, 500, 320
-0.924752, 81, 1, 208, 375
-0.925947, 65, 1, 192, 256
-0.927613, 257, 193, 500, 320
-0.928775, 305, 1, 432, 256
-0.931874, 129, 65, 256, 192
-0.933645, 161, 177, 416, 304
-0.935072, 145, 65, 208, 192
-0.937804, 33, 65, 288, 192
-0.938309, 193, 113, 320, 240
-0.939468, 113, 129, 240, 375
-0.939747, 257, 145, 500, 272
-0.942564, 65, 97, 192, 352
-0.945053, 193, 49, 320, 176
-0.945094, 1, 113, 256, 240
-0.945259, 241, 177, 368, 304
-0.945464, 145, 97, 208, 160
-0.946416, 169, 89, 232, 152
-0.946428, 177, 81, 240, 208
-0.947965, 249, 177, 312, 304
-0.948051, 209, 97, 272, 224
-0.948067, 177, 113, 240, 176
-0.948898, 113, 113, 240, 240
-0.952584, 225, 65, 480, 192
-0.953015, 121, 65, 184, 192
-0.953742, 289, 193, 416, 320
-0.954014, 209, 241, 336, 368
-0.954238, 281, 193, 344, 320
-0.954303, 217, 49, 280, 176
-0.954617, 241, 129, 368, 256
-0.954837, 145, 65, 208, 128
-0.955378, 313, 161, 376, 288
-0.955581, 257, 113, 320, 240
-0.956051, 193, 241, 448, 368
-0.956242, 137, 121, 200, 184
-0.956434, 33, 161, 288, 288
-0.956572, 1, 241, 500, 368
-0.956829, 169, 33, 232, 160
-0.957349, 81, 65, 208, 192
-0.957531, 257, 297, 320, 360
-0.95776, 33, 1, 160, 375
-0.959063, 129, 17, 384, 144
-0.959247, 193, 177, 320, 304
-0.959612, 97, 241, 352, 368
-0.959766, 1, 17, 500, 144
-0.959796, 353, 193, 480, 320
-0.959869, 289, 145, 416, 272
-0.959955, 1, 1, 256, 128
-0.959983, 233, 113, 296, 240
-0.960863, 281, 145, 344, 272
-0.960964, 121, 81, 184, 144
-0.961647, 241, 49, 368, 176
-0.962542, 337, 177, 400, 304
-0.962721, 129, 17, 256, 144
-0.963049, 1, 129, 128, 375
-0.963078, 353, 129, 480, 256
-0.963221, 289, 97, 416, 224
-0.963237, 1, 241, 256, 368
-0.963835, 257, 225, 320, 352
-0.964354, 313, 185, 376, 248
-0.965053, 353, 209, 416, 272
-0.965341, 65, 113, 192, 240
-0.96547, 145, 17, 208, 144
-0.965554, 209, 121, 272, 184
-0.965893, 337, 81, 464, 208
-0.966389, 305, 113, 368, 240
-0.966749, 169, 81, 200, 144
-0.966865, 241, 49, 304, 176
-0.967385, 193, 33, 256, 160
-0.967443, 257, 193, 320, 256
-0.967696, 329, 209, 392, 272
-0.968016, 169, 65, 232, 128
-0.968017, 209, 225, 272, 352
-0.968288, 225, 177, 288, 304
-0.968453, 165, 105, 196, 168
-0.968568, 145, 113, 208, 240
-0.969275, 161, 241, 288, 368
-0.969332, 149, 65, 180, 128
-0.969542, 281, 201, 344, 264
-0.969622, 257, 241, 384, 368
-0.969729, 233, 225, 296, 352
-0.969845, 105, 121, 168, 184
-0.969873, 177, 137, 240, 200
-0.969968, 145, 89, 176, 152
-0.969973, 257, 17, 500, 144
-0.969986, 305, 209, 368, 336
-0.97006, 129, 97, 256, 160
-0.970103, 145, 161, 272, 288
-0.97041, 257, 97, 320, 352
-0.970848, 153, 49, 184, 176
-0.970892, 201, 97, 264, 160
-0.97129, 281, 97, 344, 224
-0.971591, 425, 209, 488, 272
-0.971895, 385, 209, 448, 272
-0.971943, 433, 113, 496, 240
-0.971963, 225, 313, 288, 375
-0.972267, 361, 193, 424, 320
-0.972403, 417, 193, 480, 320
-0.972853, 113, 209, 240, 336
-0.972872, 361, 97, 424, 160
-0.973124, 17, 33, 144, 288
-0.973184, 337, 185, 400, 248
-0.973224, 217, 281, 280, 344
-0.973592, 289, 49, 416, 176
-0.973688, 369, 33, 496, 160
-0.973836, 129, 121, 256, 184
-0.974065, 181, 97, 212, 160
-0.974069, 177, 33, 240, 288
-0.974079, 193, 113, 224, 176
-0.974082, 265, 49, 328, 176
-0.974383, 121, 113, 184, 240
-0.974483, 189, 65, 220, 192
-0.97467, 321, 129, 384, 375
-0.974743, 337, 113, 400, 240
-0.975076, 193, 273, 256, 336
-0.975244, 361, 129, 424, 256
-0.975255, 121, 57, 184, 120
-0.975366, 213, 97, 244, 224
-0.975848, 353, 209, 480, 272
-0.976, 289, 185, 416, 248
-0.976018, 169, 225, 232, 352
-0.976057, 225, 193, 352, 256
-0.976303, 129, 65, 256, 128
-0.97635, 297, 97, 360, 352
-0.97639, 209, 65, 272, 128
-0.976421, 305, 217, 368, 280
-0.976423, 81, 89, 208, 152
-0.976587, 1, 209, 128, 336
-0.976655, 197, 89, 228, 152
-0.976714, 257, 233, 320, 296
-0.976784, 257, 273, 320, 336
-0.976842, 177, 121, 208, 184
-0.977015, 217, 97, 280, 352
-0.977278, 177, 121, 304, 184
-0.977307, 65, 17, 192, 144
-0.977313, 141, 65, 172, 192
-0.977553, 81, 121, 144, 184
-0.977601, 289, 153, 352, 216
-0.977647, 337, 225, 400, 352
-0.977886, 161, 257, 224, 320
-0.97804, 305, 209, 432, 272
-0.978056, 301, 201, 332, 264
-0.978109, 209, 97, 240, 160
-0.978123, 145, 41, 208, 104
-0.978325, 233, 257, 296, 320
-0.978339, 173, 97, 204, 224
-0.978435, 385, 193, 448, 320
-0.978441, 201, 65, 232, 192
-0.978441, 81, 121, 208, 184
-0.978594, 113, 17, 176, 144
-0.978613, 289, 49, 352, 176
-0.978644, 177, 49, 208, 176
-0.978757, 49, 193, 176, 320
-0.978848, 97, 65, 160, 192
-0.978935, 393, 105, 456, 168
-0.979018, 73, 97, 136, 224
-0.979122, 221, 49, 252, 176
-0.97915, 297, 273, 360, 336
-0.979212, 361, 193, 392, 256
-0.979602, 185, 129, 248, 256
-0.979753, 213, 121, 244, 184
-0.979784, 361, 81, 424, 208
-0.979859, 161, 57, 192, 120
-0.980045, 409, 129, 472, 256
-0.980359, 33, 65, 160, 192
-0.980427, 145, 121, 176, 184
-0.980582, 361, 185, 424, 248
-0.980832, 261, 113, 292, 240
-0.980838, 297, 305, 360, 368
-0.981015, 337, 65, 400, 192
-0.981041, 281, 241, 344, 368
-0.981296, 217, 1, 280, 256
-0.981503, 245, 113, 276, 240
-0.981513, 301, 193, 332, 320
-0.981528, 277, 177, 308, 304
-0.981664, 113, 121, 144, 184
-0.981686, 177, 97, 304, 160
-0.981733, 189, 65, 220, 128
-0.981735, 257, 169, 320, 232
-0.981744, 361, 65, 424, 320
-0.981748, 337, 97, 400, 160
-0.981795, 305, 241, 432, 368
-0.981982, 81, 65, 208, 128
-0.98228, 265, 65, 328, 128
-0.982289, 209, 289, 336, 352
-0.982369, 193, 305, 256, 368
-0.982413, 385, 129, 448, 256
-0.98248, 233, 129, 296, 192
-0.982528, 377, 209, 408, 272
-0.982532, 185, 249, 248, 312
-0.982587, 257, 177, 288, 304
-0.982783, 129, 209, 192, 336
-0.982829, 137, 33, 200, 288
-0.98285, 177, 257, 304, 320
-0.982876, 209, 169, 272, 232
-0.982905, 329, 161, 360, 288
-0.983065, 137, 257, 200, 320
-0.983117, 433, 97, 496, 352
-0.983196, 273, 129, 304, 256
-0.9832, 369, 241, 496, 368
-0.983222, 313, 65, 376, 192
-0.983469, 233, 193, 296, 256
-0.983514, 193, 113, 224, 240
-0.983547, 165, 129, 196, 192
-0.983784, 289, 177, 352, 240
-0.983911, 317, 209, 348, 336
-0.984024, 145, 289, 272, 352
-0.984058, 289, 129, 352, 192
-0.984095, 173, 57, 204, 120
-0.984238, 129, 257, 256, 320
-0.98426, 357, 161, 388, 288
-0.984316, 369, 185, 496, 248
-0.984341, 225, 97, 288, 160
-0.984416, 281, 225, 344, 288
-0.984538, 329, 33, 392, 288
-0.984604, 321, 129, 384, 192
-0.984691, 233, 113, 264, 240
-0.984733, 193, 57, 320, 120
-0.984762, 425, 97, 488, 160
-0.984788, 437, 209, 468, 272
-0.984788, 49, 241, 176, 368
-0.98479, 385, 185, 448, 248
-0.984834, 41, 177, 104, 304
-0.984918, 257, 1, 320, 256
-0.984922, 337, 105, 464, 168
-0.984929, 233, 57, 296, 120
-0.984964, 289, 193, 320, 256
-0.984966, 321, 73, 384, 136
-0.984979, 289, 305, 416, 368
-0.984983, 193, 129, 256, 375
-0.985056, 425, 65, 488, 192
-0.985066, 225, 217, 352, 280
-0.985093, 425, 233, 488, 296
-0.985101, 293, 129, 324, 256
-0.985151, 193, 137, 224, 200
-0.985174, 165, 49, 196, 176
-0.985243, 321, 1, 384, 375
-0.985277, 125, 121, 156, 184
-0.985396, 153, 145, 216, 208
-0.985412, 289, 161, 416, 224
-0.98542, 313, 161, 344, 288
-0.985543, 229, 129, 260, 192
-0.985565, 257, 113, 320, 176
-0.985597, 297, 65, 360, 128
-0.985665, 81, 97, 144, 160
-0.985718, 161, 289, 224, 352
-0.985754, 233, 233, 296, 296
-0.985758, 369, 177, 400, 304
-0.985907, 313, 209, 344, 272
-0.985965, 25, 145, 88, 208
-0.986013, 313, 161, 376, 224
-0.986027, 265, 241, 296, 368
-0.986048, 245, 177, 276, 304
-0.986075, 129, 145, 256, 208
-0.986077, 137, 65, 168, 128
-0.986112, 209, 1, 272, 375
-0.98619, 257, 105, 384, 168
-0.9862, 361, 81, 392, 208
-0.98625, 193, 169, 320, 232
-0.986251, 349, 209, 380, 272
-0.986256, 233, 65, 264, 192
-0.986321, 313, 113, 344, 240
-0.986364, 177, 313, 304, 375
-0.986423, 341, 185, 372, 248
-0.986486, 209, 1, 336, 128
-0.986533, 273, 1, 336, 375
-0.986573, 209, 241, 272, 304
-0.98663, 269, 297, 300, 360
-0.986647, 281, 1, 344, 256
-0.986796, 337, 305, 400, 368
-0.986859, 241, 145, 368, 208
-0.986911, 289, 177, 320, 304
-0.986925, 345, 161, 376, 288
-0.986952, 393, 97, 456, 352
-0.986974, 377, 89, 408, 152
-0.986996, 193, 177, 256, 304
-0.987007, 113, 249, 176, 312
-0.987057, 433, 129, 496, 192
-0.987087, 1, 161, 128, 288
-0.98713, 453, 217, 484, 280
-0.987298, 289, 241, 320, 368
-0.987361, 433, 185, 496, 248
-0.987402, 65, 209, 128, 336
-0.987456, 373, 81, 404, 208
-0.987577, 329, 209, 360, 272
-0.987621, 161, 97, 192, 224
-0.987674, 129, 41, 256, 104
-0.987712, 289, 129, 416, 192
-0.987815, 97, 113, 160, 240
-0.987817, 137, 281, 200, 344
-0.987822, 341, 209, 372, 336
-0.987823, 305, 81, 432, 144
-0.987837, 265, 145, 328, 208
-0.987944, 253, 313, 284, 375
-0.987946, 1, 81, 64, 144
-0.987947, 33, 121, 160, 184
-0.987952, 193, 145, 320, 208
-0.988002, 241, 65, 368, 128
-0.988039, 305, 105, 368, 168
-0.988053, 257, 49, 288, 176
-0.98809, 345, 1, 408, 375
-0.9881, 269, 49, 300, 176
-0.988113, 161, 117, 224, 148
-0.988132, 245, 225, 276, 352
-0.988252, 217, 65, 248, 128
-0.9883, 377, 1, 440, 375
-0.988313, 145, 81, 208, 112
-0.988334, 249, 1, 312, 375
-0.988352, 145, 1, 208, 375
-0.988439, 377, 185, 408, 248
-0.988443, 281, 249, 344, 312
-0.988466, 305, 1, 368, 256
-0.988542, 277, 241, 308, 368
-0.988547, 313, 177, 344, 240
-0.988548, 185, 121, 248, 152
-0.98857, 253, 193, 284, 256
-0.988597, 145, 177, 272, 240
-0.988636, 289, 233, 416, 296
-0.988659, 213, 273, 244, 336
-0.988671, 257, 281, 384, 344
-0.988688, 261, 241, 292, 304
-0.988726, 445, 193, 476, 320
-0.988737, 97, 73, 160, 136
-0.988744, 469, 113, 500, 240
-0.988748, 297, 1, 360, 375
-0.988778, 241, 249, 368, 312
-0.98878, 169, 41, 232, 104
-0.988813, 121, 125, 184, 156
-0.988836, 57, 113, 120, 176
-0.988881, 201, 17, 232, 144
-0.988949, 425, 1, 488, 375
-0.989017, 81, 257, 208, 320
-0.9891, 73, 225, 136, 288
-0.98916, 133, 89, 164, 152
-0.989207, 177, 101, 240, 132
-0.989225, 153, 105, 216, 136
-0.989232, 169, 85, 232, 116
-0.989255, 341, 113, 372, 240
-0.989273, 49, 97, 112, 224
-0.989291, 197, 265, 228, 328
-0.989325, 209, 217, 272, 280
-0.989334, 145, 69, 208, 100
-0.989341, 417, 257, 480, 320
-0.989455, 169, 1, 232, 375
-0.989479, 149, 41, 180, 104
-0.989493, 1, 113, 128, 240
-0.989494, 153, 129, 216, 160
-0.989533, 241, 281, 272, 344
-0.989554, 281, 297, 312, 360
-0.989563, 337, 233, 400, 296
-0.989573, 417, 209, 448, 272
-0.989578, 385, 81, 448, 144
-0.98959, 25, 129, 88, 256
-0.989677, 185, 73, 248, 104
-0.989721, 353, 213, 416, 244
-0.98973, 389, 209, 420, 272
-0.989756, 113, 273, 176, 336
-0.989764, 97, 49, 160, 112
-0.989788, 245, 49, 276, 176
-0.989853, 97, 281, 224, 344
-0.989861, 257, 193, 320, 224
-0.989896, 257, 89, 320, 152
-0.989928, 457, 129, 488, 256
-0.989996, 145, 93, 208, 124
-0.990005, 241, 313, 368, 375
-0.990054, 233, 313, 264, 375
-0.990083, 65, 193, 96, 256
-0.990093, 281, 49, 312, 176
-0.990098, 133, 113, 164, 240
-0.990115, 321, 217, 384, 248
-0.990135, 281, 89, 344, 152
-0.99014, 265, 265, 296, 328
-0.990142, 345, 121, 408, 184
-0.990159, 325, 113, 356, 240
-0.990159, 325, 185, 356, 248
-0.990161, 241, 129, 272, 192
-0.990228, 365, 97, 396, 160
-0.990233, 209, 133, 272, 164
-0.990238, 137, 17, 168, 144
-0.990281, 105, 1, 168, 64
-0.990326, 121, 73, 184, 104
-0.990358, 277, 193, 308, 256
-0.990421, 169, 177, 232, 304
-0.990459, 461, 193, 492, 320
-0.990497, 181, 257, 212, 320
-0.990523, 1, 1, 128, 128
-0.990538, 89, 265, 152, 328
-0.990584, 409, 185, 472, 248
-0.990606, 381, 193, 412, 320
-0.990612, 257, 317, 320, 348
-0.990652, 297, 273, 328, 336
-0.990657, 145, 233, 208, 296
-0.990688, 97, 97, 128, 160
-0.990707, 257, 209, 500, 272
-0.990735, 265, 297, 328, 328
-0.99075, 273, 209, 336, 240
-0.990803, 301, 177, 332, 240
-0.990813, 377, 233, 440, 296
-0.990827, 361, 217, 392, 280
-0.990841, 49, 233, 176, 296
-0.990865, 433, 193, 464, 320
-0.990876, 161, 233, 288, 296
-0.990882, 145, 113, 176, 240
-0.99091, 1, 193, 128, 256
-0.990953, 89, 225, 152, 352
-0.990956, 105, 85, 168, 116
-0.990975, 369, 81, 496, 144
-0.991001, 121, 113, 184, 144
-0.991002, 121, 97, 184, 128
-0.99103, 413, 105, 444, 168
-0.99104, 401, 1, 464, 375
-0.991051, 273, 1, 400, 128
-0.991067, 249, 281, 312, 312
-0.991127, 293, 49, 324, 176
-0.991211, 201, 65, 232, 128
-0.991228, 209, 121, 272, 152
-0.991234, 265, 249, 328, 280
-0.991239, 177, 133, 240, 164
-0.991243, 229, 281, 260, 344
-0.991254, 369, 257, 496, 320
-0.99126, 241, 301, 304, 332
-0.991289, 153, 1, 184, 128
-0.991335, 297, 213, 360, 244
-0.991351, 353, 201, 416, 232
-0.991354, 377, 241, 440, 368
-0.99137, 113, 137, 176, 168
-0.991422, 337, 129, 464, 192
-0.991427, 469, 209, 500, 272
-0.991427, 33, 177, 96, 240
-0.991435, 209, 289, 272, 320
-0.991445, 417, 213, 480, 244
-0.991463, 225, 317, 288, 348
-0.991469, 185, 61, 248, 92
-0.991469, 33, 81, 160, 144
-0.991475, 89, 125, 152, 156
-0.991501, 337, 233, 464, 296
-0.991515, 217, 65, 280, 96
-0.991517, 117, 113, 148, 240
-0.99152, 377, 105, 440, 136
-0.991528, 249, 133, 312, 164
-0.991528, 281, 257, 312, 320
-0.991574, 233, 261, 296, 292
-0.991607, 393, 213, 456, 244
-0.991618, 89, 65, 152, 320
-0.99162, 129, 65, 384, 128
-0.99168, 97, 129, 352, 192
-0.991681, 305, 201, 368, 232
-0.991687, 177, 161, 240, 224
-0.991689, 273, 281, 336, 312
-0.991691, 265, 261, 328, 292
-0.991723, 81, 41, 208, 104
-0.991758, 113, 233, 240, 296
-0.991777, 385, 113, 416, 240
-0.991813, 121, 97, 152, 160
-0.991817, 433, 233, 464, 296
-0.991828, 445, 129, 476, 256
-0.99185, 357, 209, 388, 336
-0.991855, 209, 265, 272, 296
-0.991871, 257, 237, 320, 268
-0.991892, 425, 253, 488, 284
-0.991931, 385, 117, 448, 148
-0.991934, 305, 241, 368, 304
-0.991951, 145, 141, 208, 172
-0.991958, 101, 121, 132, 184
-0.991961, 201, 109, 264, 140
-0.991969, 297, 185, 360, 216
-0.991978, 1, 113, 256, 176
-0.991985, 257, 149, 320, 180
-0.992014, 281, 197, 344, 228
-0.992019, 161, 117, 192, 148
-0.992021, 97, 89, 352, 152
-0.99203, 113, 65, 144, 192
-0.992049, 209, 145, 240, 208
-0.992059, 209, 249, 272, 280
-0.992067, 161, 253, 224, 284
-0.992076, 281, 69, 344, 100
-0.992088, 1, 313, 64, 375
-0.992098, 65, 161, 128, 288
-0.992104, 89, 113, 152, 144
-0.992107, 193, 185, 448, 248
-0.992113, 425, 73, 488, 136
-0.992119, 209, 77, 272, 108
-0.99213, 145, 129, 208, 375
-0.992135, 121, 129, 184, 375
-0.992137, 233, 245, 296, 276
-0.992139, 433, 201, 496, 232
-0.992141, 149, 69, 180, 100
-0.992144, 185, 265, 248, 296
-0.99215, 337, 309, 400, 340
-0.992155, 245, 241, 276, 304
-0.992166, 289, 297, 352, 328
-0.992168, 171, 89, 186, 152
-0.992194, 265, 185, 296, 248
-0.992198, 217, 301, 280, 332
-0.992219, 285, 233, 316, 296
-0.992223, 273, 133, 336, 164
-0.992232, 185, 301, 248, 332
-0.992247, 173, 117, 204, 148
-0.992256, 177, 277, 240, 308
-0.992273, 193, 113, 224, 144
-0.992279, 169, 257, 200, 320
-0.992313, 329, 197, 392, 228
-0.992314, 297, 153, 328, 216
-0.992314, 241, 169, 368, 232
-0.992314, 225, 277, 288, 308
-0.992321, 161, 293, 224, 324
-0.992322, 425, 105, 488, 136
-0.992324, 173, 133, 204, 164
-0.992326, 69, 161, 100, 288
-0.992328, 177, 93, 208, 124
-0.992331, 281, 153, 344, 184
-0.992345, 297, 285, 360, 316
-0.992346, 385, 201, 448, 232
-0.992363, 185, 145, 248, 176
-0.992391, 425, 225, 488, 256
-0.992393, 289, 261, 352, 292
-0.992397, 97, 73, 160, 104
-0.992411, 353, 97, 416, 128
-0.992412, 49, 185, 176, 248
-0.992425, 361, 213, 392, 244
-0.992433, 193, 89, 256, 120
-0.992443, 241, 69, 304, 100
-0.992457, 137, 257, 200, 288
-0.992467, 373, 129, 404, 256
-0.99247, 165, 105, 180, 168
-0.992475, 289, 257, 416, 320
-0.992479, 273, 221, 336, 252
-0.992488, 233, 117, 296, 148
-0.992502, 157, 81, 188, 112
-0.992502, 273, 333, 336, 364
-0.99252, 65, 161, 192, 224
-0.992522, 197, 97, 228, 128
-0.992523, 305, 313, 368, 344
-0.992524, 361, 73, 424, 136
-0.992526, 401, 209, 432, 272
-0.992534, 345, 225, 408, 256
-0.992537, 233, 169, 296, 232
-0.992539, 153, 57, 216, 88
-0.992541, 233, 233, 296, 264
-0.992544, 193, 125, 224, 156
-0.99255, 177, 81, 208, 112
-0.992551, 153, 129, 184, 160
-0.992557, 121, 61, 184, 92
-0.992558, 165, 101, 196, 132
-0.992561, 301, 129, 332, 192
-0.992562, 409, 117, 472, 148
-0.992564, 121, 33, 184, 96
-0.992588, 217, 305, 248, 368
-0.992598, 253, 289, 284, 352
-0.992599, 209, 189, 272, 220
-0.992601, 289, 245, 352, 276
-0.992608, 241, 181, 304, 212
-0.992614, 401, 253, 464, 284
-0.992621, 373, 213, 404, 244
-0.992627, 221, 97, 252, 160
-0.992638, 189, 85, 220, 116
-0.992638, 201, 313, 264, 344
-0.992647, 177, 105, 208, 136
-0.992649, 365, 169, 396, 232
-0.992651, 297, 233, 360, 264
-0.992654, 209, 109, 240, 140
-0.992657, 209, 69, 240, 100
-0.992671, 65, 113, 128, 144
-0.992672, 129, 125, 160, 156
-0.992679, 233, 329, 296, 360
-0.992681, 297, 273, 360, 304
-0.992681, 393, 65, 456, 192
-0.992689, 329, 109, 392, 140
-0.992689, 1, 345, 64, 375
-0.992697, 361, 313, 424, 344
-0.992702, 353, 305, 480, 368
-0.99273, 149, 97, 180, 128
-0.992733, 169, 69, 200, 100
-0.992743, 377, 93, 440, 124
-0.992762, 117, 129, 148, 160
-0.992764, 65, 97, 128, 352
-0.992766, 213, 125, 244, 156
-0.992778, 289, 113, 352, 144
-0.992783, 141, 125, 172, 156
-0.992789, 137, 77, 168, 108
-0.99279, 257, 257, 288, 288
-0.992791, 345, 217, 376, 248
-0.992795, 187, 97, 202, 160
-0.992797, 233, 149, 296, 180
-0.992805, 321, 233, 384, 264
-0.992813, 429, 113, 460, 240
-0.992826, 217, 53, 280, 84
-0.992852, 233, 341, 296, 372
-0.992852, 193, 41, 256, 104
-0.992858, 313, 301, 376, 332
-0.992872, 233, 197, 296, 228
-0.992873, 137, 285, 200, 316
-0.992875, 297, 197, 328, 228
-0.992882, 301, 65, 332, 128
-0.992894, 409, 109, 440, 140
-0.992899, 225, 161, 256, 288
-0.992901, 369, 201, 400, 232
-0.992907, 33, 345, 96, 375
-0.992907, 185, 69, 216, 100
-0.992908, 397, 193, 428, 320
-0.992909, 221, 69, 252, 100
-0.992926, 297, 209, 328, 240
-0.992944, 161, 265, 224, 296
-0.99295, 305, 161, 368, 192
-0.99295, 265, 317, 296, 348
-0.992952, 305, 73, 368, 104
-0.992952, 385, 241, 448, 272
-0.992955, 345, 85, 408, 116
-0.992955, 273, 265, 304, 296
-0.992957, 285, 193, 316, 224
-0.992967, 329, 129, 392, 160
-0.992974, 161, 153, 224, 184
-0.992975, 293, 281, 324, 312
-0.992998, 105, 269, 168, 300
-0.992999, 113, 125, 240, 156
-0.993007, 241, 217, 304, 248
-0.99301, 129, 65, 160, 192
-0.993015, 353, 109, 416, 140
-0.993017, 145, 241, 208, 272
-0.993017, 461, 209, 492, 240
-0.993018, 1, 89, 256, 152
-0.99302, 233, 133, 264, 164
-0.993035, 265, 289, 296, 320
-0.993043, 261, 273, 292, 304
-0.993044, 357, 225, 388, 256
-0.993045, 245, 217, 276, 280
-0.993053, 309, 213, 340, 244
-0.993076, 401, 233, 464, 296
-0.993083, 433, 129, 496, 160
-0.993084, 113, 33, 176, 288
-0.993089, 49, 201, 112, 232
-0.993091, 33, 189, 96, 220
-0.993103, 273, 253, 304, 284
-0.993104, 17, 173, 80, 204
-0.993109, 73, 233, 136, 264
-0.993112, 433, 213, 464, 244
-0.993112, 197, 145, 228, 176
-0.993118, 177, 181, 240, 212
-0.993123, 381, 93, 412, 124
-0.993124, 281, 281, 312, 312
-0.993124, 297, 129, 360, 160
-0.993148, 297, 297, 328, 328
-0.993151, 125, 77, 156, 108
-0.993156, 385, 213, 416, 244
-0.993158, 253, 129, 284, 192
-0.993164, 181, 145, 212, 208
-0.993166, 1, 217, 128, 280
-0.993172, 265, 133, 296, 164
-0.993175, 137, 113, 168, 144
-0.993183, 277, 133, 308, 164
-0.993195, 261, 245, 292, 276
-0.993196, 197, 73, 228, 104
-0.993196, 117, 113, 148, 144
-0.993197, 365, 105, 396, 136
-0.993205, 453, 221, 484, 252
-0.993212, 129, 145, 192, 208
-0.993214, 337, 161, 400, 224
-0.993218, 249, 321, 280, 352
-0.99322, 225, 269, 256, 300
-0.993224, 321, 217, 352, 248
-0.993238, 253, 309, 284, 340
-0.993239, 149, 113, 180, 144
-0.993243, 397, 113, 428, 240
-0.993243, 417, 113, 448, 240
-0.993247, 137, 137, 168, 168
-0.993251, 313, 233, 344, 296
-0.993257, 213, 81, 244, 112
-0.993262, 425, 253, 456, 284
-0.993264, 209, 97, 240, 128
-0.993265, 201, 85, 232, 116
-0.993265, 381, 201, 412, 232
-0.99327, 65, 217, 96, 248
-0.993272, 169, 241, 200, 368
-0.993273, 149, 141, 180, 172
-0.993273, 433, 1, 496, 256
-0.993281, 197, 261, 228, 292
-0.993287, 421, 117, 452, 148
-0.99329, 369, 225, 400, 256
-0.993293, 105, 117, 136, 148
-0.993295, 225, 121, 256, 152
-0.993301, 397, 213, 428, 244
-0.993308, 233, 317, 264, 348
-0.993309, 245, 137, 276, 168
-0.993315, 437, 253, 468, 284
-0.993319, 277, 333, 308, 364
-0.993323, 333, 213, 364, 244
-0.993328, 137, 89, 168, 120
-0.993329, 233, 65, 264, 96
-0.99333, 317, 65, 348, 128
-0.993332, 281, 129, 312, 192
-0.993333, 285, 317, 316, 348
-0.993333, 205, 57, 236, 88
-0.993334, 237, 105, 268, 168
-0.993341, 277, 305, 308, 336
-0.993342, 57, 189, 88, 220
-0.993342, 357, 197, 388, 228
-0.993346, 269, 189, 300, 220
-0.993347, 369, 85, 400, 116
-0.993347, 157, 57, 188, 88
-0.993348, 329, 209, 360, 336
-0.993352, 209, 269, 240, 300
-0.993355, 397, 105, 428, 136
-0.993363, 1, 169, 128, 232
-0.993363, 249, 125, 280, 156
-0.993365, 373, 313, 404, 344
-0.993366, 161, 141, 192, 172
-0.993368, 209, 137, 240, 168
-0.993371, 245, 277, 276, 308
-0.993373, 69, 185, 100, 216
-0.993374, 217, 309, 248, 340
-0.993375, 265, 329, 296, 360
-0.993383, 245, 253, 276, 284
-0.993383, 281, 241, 312, 272
-0.993385, 357, 309, 388, 340
-0.993387, 285, 153, 316, 184
-0.99339, 177, 253, 208, 284
-0.993394, 413, 213, 444, 244
-0.993396, 265, 65, 296, 96
-0.9934, 185, 141, 216, 172
-0.993401, 265, 233, 296, 264
-0.993404, 221, 57, 252, 88
-0.993406, 209, 145, 272, 208
-0.993411, 145, 113, 272, 144
-0.993412, 293, 269, 324, 300
-0.993412, 161, 209, 288, 272
-0.993414, 289, 69, 320, 100
-0.993414, 421, 193, 452, 320
-0.993416, 49, 217, 112, 280
-0.993416, 205, 305, 236, 336
-0.993417, 105, 129, 136, 160
-0.993419, 409, 193, 440, 320
-0.993421, 305, 317, 336, 348
-0.993424, 469, 229, 500, 260
-0.993426, 449, 249, 480, 280
-0.993426, 257, 197, 288, 228
-0.99344, 377, 105, 408, 136
-0.993447, 137, 65, 168, 96
-0.993447, 289, 333, 320, 364
-0.99345, 285, 257, 316, 288
-0.993452, 469, 49, 500, 176
-0.993455, 269, 149, 300, 180
-0.993458, 245, 297, 276, 328
-0.993459, 277, 293, 308, 324
-0.993459, 365, 237, 396, 268
-0.993463, 305, 69, 336, 100
-0.993485, 177, 81, 192, 144
-0.993509, 121, 1, 184, 375
-0.993513, 305, 57, 432, 120
-0.99353, 41, 241, 104, 304
-0.993533, 189, 17, 220, 144
-0.993558, 369, 121, 432, 184
-0.993631, 425, 1, 488, 128
-0.993643, 453, 129, 484, 192
-0.993662, 353, 153, 480, 216
-0.993669, 73, 153, 136, 216
-0.993708, 17, 145, 144, 208
-0.993722, 65, 233, 96, 296
-0.993728, 177, 105, 192, 168
-0.993759, 361, 305, 424, 368
-0.993828, 155, 65, 170, 128
-0.993837, 129, 69, 256, 100
-0.993845, 205, 241, 236, 368
-0.99385, 193, 129, 448, 192
-0.993878, 313, 121, 344, 184
-0.993916, 109, 97, 140, 160
-0.993927, 97, 161, 224, 288
-0.993944, 25, 121, 88, 184
-0.993968, 393, 97, 424, 160
-0.993987, 369, 57, 496, 120
-0.993999, 165, 81, 180, 144
-0.994015, 409, 129, 472, 192
-0.994015, 25, 217, 88, 280
-0.994028, 197, 297, 228, 360
-0.994031, 159, 89, 174, 152
-0.994037, 201, 193, 264, 256
-0.99404, 25, 81, 88, 144
-0.994041, 33, 257, 160, 320
-0.994055, 69, 169, 100, 232
-0.994058, 285, 153, 316, 216
-0.994063, 1, 73, 500, 136
-0.994069, 153, 89, 168, 152
-0.994074, 217, 209, 248, 336
-0.994085, 353, 213, 480, 244
-0.994094, 65, 1, 192, 64
-0.994123, 313, 65, 344, 192
-0.994126, 177, 289, 208, 352
-0.994152, 289, 193, 416, 224
-0.994186, 161, 129, 288, 160
-0.994204, 1, 97, 500, 160
-0.994218, 265, 217, 296, 280
-0.994254, 1, 65, 256, 128
-0.994269, 187, 121, 202, 184
-0.994272, 233, 177, 264, 240
-0.994277, 33, 49, 160, 112
-0.994289, 77, 81, 108, 144
-0.994308, 157, 257, 188, 320
-0.994371, 193, 97, 448, 160
-0.994431, 353, 169, 384, 232
-0.99444, 97, 85, 224, 116
-0.994504, 17, 313, 144, 375
-0.994521, 257, 105, 288, 168
-0.994528, 53, 177, 84, 304
-0.994532, 33, 281, 288, 344
-0.994565, 257, 41, 320, 104
-0.994606, 137, 41, 168, 104
-0.994633, 217, 105, 232, 168
-0.994639, 161, 209, 416, 272
-0.994651, 329, 65, 360, 192
-0.994684, 353, 89, 384, 152
-0.994734, 289, 213, 416, 244
-0.994751, 9, 169, 72, 232
-0.994757, 321, 17, 384, 144
-0.994782, 277, 57, 308, 120
-0.994796, 363, 209, 378, 272
-0.994797, 361, 33, 424, 160
-0.994813, 97, 177, 352, 240
-0.994831, 129, 97, 256, 128
-0.994834, 369, 201, 384, 264
-0.994844, 161, 273, 416, 336
-0.994919, 349, 297, 380, 360
-0.994943, 157, 241, 188, 368
-0.994954, 77, 225, 108, 288
-0.994979, 129, 17, 256, 80
-0.994985, 177, 33, 304, 96
-0.994995, 305, 89, 336, 152
-0.995008, 57, 193, 120, 256
-0.995016, 437, 185, 468, 248
-0.995019, 89, 177, 152, 304
-0.995029, 269, 121, 300, 184
-0.995029, 325, 129, 356, 192
-0.995069, 225, 201, 352, 232
-0.995088, 171, 113, 186, 176
-0.995094, 329, 281, 392, 344
-0.995111, 159, 121, 174, 184
-0.995113, 53, 97, 84, 224
-0.995145, 377, 33, 408, 160
-0.995158, 163, 57, 178, 120
-0.995172, 433, 121, 464, 184
-0.995176, 193, 121, 208, 184
-0.9952, 97, 249, 352, 312
-0.995205, 113, 225, 176, 288
-0.99521, 183, 73, 198, 136
-0.995213, 337, 281, 464, 344
-0.995218, 223, 113, 238, 176
-0.995226, 301, 241, 332, 368
-0.99523, 361, 305, 392, 368
-0.995234, 171, 65, 186, 128
-0.995249, 289, 65, 320, 128
-0.995261, 293, 297, 324, 360
-0.995261, 49, 153, 112, 216
-0.995297, 209, 293, 336, 324
-0.9953, 457, 193, 488, 256
-0.995318, 49, 209, 176, 272
-0.995321, 53, 185, 84, 248
-0.995344, 161, 281, 192, 344
-0.995349, 149, 65, 164, 128
-0.995357, 393, 257, 456, 320
-0.995382, 349, 49, 380, 176
-0.995382, 229, 225, 260, 352
-0.995404, 193, 97, 208, 160
-0.995405, 97, 113, 224, 144
-0.995422, 369, 33, 496, 96
-0.99544, 145, 9, 208, 72
-0.995466, 309, 201, 324, 264
-0.995495, 73, 97, 104, 224
-0.995507, 257, 233, 500, 296
-0.995524, 261, 161, 292, 224
-0.99554, 65, 257, 128, 320
-0.995554, 65, 125, 192, 156
-0.995572, 233, 57, 264, 120
-0.995573, 129, 153, 384, 216
-0.995596, 1, 137, 256, 200
-0.995603, 145, 249, 176, 312
-0.995609, 1, 201, 500, 264
-0.995617, 379, 209, 394, 272
-0.995622, 241, 41, 368, 104
-0.995632, 341, 129, 372, 192
-0.995632, 389, 177, 420, 240
-0.995632, 145, 81, 272, 112
-0.99566, 209, 89, 224, 152
-0.995679, 69, 113, 100, 176
-0.995704, 207, 113, 222, 176
-0.995713, 1, 257, 256, 320
-0.995718, 199, 105, 214, 168
-0.99572, 225, 297, 480, 360
-0.995737, 17, 177, 80, 304
-0.99574, 57, 89, 120, 152
-0.99575, 425, 25, 488, 88
-0.995758, 225, 1, 288, 128
-0.995763, 465, 233, 496, 296
-0.995807, 177, 145, 304, 176
-0.995813, 315, 209, 330, 272
-0.995849, 329, 97, 360, 160
-0.99588, 453, 217, 468, 280
-0.995885, 65, 209, 96, 336
-0.995927, 205, 145, 236, 272
-0.995948, 177, 129, 192, 192
-0.99595, 225, 257, 256, 320
-0.995958, 173, 1, 204, 128
-0.995971, 129, 261, 256, 292
-0.995997, 297, 41, 360, 104
-0.995998, 147, 89, 162, 152
-0.996006, 363, 185, 378, 248
-0.996043, 81, 209, 112, 336
-0.99605, 273, 161, 304, 224
-0.996065, 177, 97, 304, 128
-0.99609, 289, 313, 416, 344
-0.996092, 81, 73, 208, 104
-0.996092, 209, 265, 336, 296
-0.996095, 185, 241, 216, 368
-0.996118, 105, 145, 168, 208
-0.996124, 1, 225, 64, 352
-0.996128, 409, 1, 472, 256
-0.996129, 469, 129, 500, 192
-0.996131, 97, 305, 352, 368
-0.996145, 117, 113, 132, 176
-0.996148, 377, 97, 392, 160
-0.996166, 97, 41, 352, 104
-0.99617, 297, 241, 328, 304
-0.996175, 57, 153, 88, 216
-0.996212, 185, 225, 248, 288
-0.996234, 189, 73, 204, 136
-0.99625, 177, 69, 304, 100
-0.996254, 177, 277, 304, 308
-0.996261, 225, 213, 352, 244
-0.996265, 453, 65, 484, 192
-0.996292, 379, 185, 394, 248
-0.996325, 177, 57, 192, 120
-0.996328, 1, 153, 500, 216
-0.996336, 73, 1, 136, 375
-0.996338, 357, 209, 372, 272
-0.996339, 127, 121, 142, 184
-0.996362, 303, 193, 318, 256
-0.996369, 143, 121, 158, 184
-0.996383, 81, 97, 208, 128
-0.996383, 213, 129, 228, 192
-0.996393, 275, 297, 290, 360
-0.996396, 209, 313, 336, 344
-0.996415, 321, 209, 336, 272
-0.996424, 267, 313, 282, 375
-0.996429, 353, 201, 480, 232
-0.996433, 295, 193, 310, 256
-0.996442, 257, 301, 384, 332
-0.996455, 273, 97, 304, 352
-0.996459, 441, 209, 456, 272
-0.996482, 385, 209, 400, 272
-0.99649, 321, 109, 448, 140
-0.996512, 143, 65, 158, 128
-0.996515, 97, 137, 224, 168
-0.996527, 173, 193, 204, 320
-0.996554, 289, 225, 416, 256
-0.996558, 137, 121, 152, 184
-0.996586, 169, 129, 232, 375
-0.996593, 355, 185, 370, 248
-0.996593, 315, 185, 330, 248
-0.996606, 229, 121, 244, 184
-0.996621, 257, 133, 384, 164
-0.996684, 225, 69, 352, 100
-0.996735, 317, 129, 348, 375
-0.996736, 1, 121, 500, 184
-0.99675, 209, 125, 336, 156
-0.996761, 89, 97, 120, 224
-0.996764, 73, 49, 136, 176
-0.996785, 193, 253, 320, 284
-0.996785, 383, 89, 398, 152
-0.996794, 371, 97, 386, 160
-0.996804, 197, 73, 212, 136
-0.996811, 1, 177, 500, 240
-0.99683, 245, 97, 276, 352
-0.996842, 369, 225, 496, 256
-0.996843, 69, 185, 84, 248
-0.996843, 217, 73, 232, 136
-0.996848, 293, 65, 324, 320
-0.99685, 369, 1, 496, 64
-0.996851, 433, 209, 448, 272
-0.99686, 333, 65, 364, 320
-0.996861, 257, 161, 500, 224
-0.996863, 469, 225, 484, 288
-0.996886, 321, 185, 336, 248
-0.9969, 193, 97, 208, 128
-0.9969, 289, 89, 416, 120
-0.996919, 377, 241, 408, 368
-0.996921, 333, 209, 348, 272
-0.996925, 129, 161, 192, 288
-0.99693, 1, 161, 256, 224
-0.99695, 207, 137, 222, 200
-0.996965, 153, 121, 168, 184
-0.99698, 261, 97, 292, 352
-0.996987, 49, 85, 176, 116
-0.997004, 289, 241, 416, 272
-0.997006, 447, 209, 462, 272
-0.997018, 203, 81, 218, 144
-0.997022, 129, 57, 256, 88
-0.997024, 171, 85, 186, 116
-0.997028, 165, 117, 180, 148
-0.997029, 237, 129, 252, 192
-0.997044, 209, 189, 336, 220
-0.997059, 475, 209, 490, 272
-0.997065, 363, 213, 378, 244
-0.99708, 193, 113, 320, 144
-0.997082, 461, 217, 476, 280
-0.997089, 287, 193, 302, 256
-0.99709, 207, 57, 222, 120
-0.997095, 187, 117, 202, 148
-0.9971, 189, 145, 204, 208
-0.997101, 391, 209, 406, 272
-0.997105, 261, 297, 276, 360
-0.997138, 153, 41, 168, 104
-0.99714, 187, 97, 202, 128
-0.997144, 273, 181, 400, 212
-0.99715, 149, 73, 164, 104
-0.997161, 369, 65, 400, 320
-0.997163, 65, 313, 192, 375
-0.997163, 165, 129, 180, 192
-0.997164, 229, 97, 260, 352
-0.997167, 371, 177, 386, 240
-0.997178, 349, 65, 380, 320
-0.997222, 293, 289, 308, 352
-0.997229, 241, 253, 368, 284
-0.997237, 309, 177, 324, 240
-0.997247, 183, 81, 198, 112
-0.997265, 337, 313, 464, 344
-0.997271, 397, 209, 412, 272
-0.997281, 285, 305, 300, 368
-0.997284, 361, 33, 392, 160
-0.997289, 165, 81, 180, 112
-0.99729, 425, 105, 440, 168
-0.997293, 199, 109, 214, 140
-0.997295, 409, 241, 472, 368
-0.997298, 265, 185, 280, 248
-0.997308, 255, 129, 270, 192
-0.997311, 241, 281, 368, 312
-0.997318, 211, 273, 226, 336
-0.99732, 243, 129, 258, 192
-0.99732, 129, 313, 256, 375
-0.997324, 369, 117, 496, 148
-0.99733, 229, 281, 244, 344
-0.997347, 285, 265, 300, 328
-0.997347, 369, 213, 384, 244
-0.997353, 101, 97, 132, 224
-0.997355, 435, 241, 450, 304
-0.997362, 187, 257, 202, 320
-0.997387, 97, 249, 224, 280
-0.997389, 33, 225, 288, 288
-0.997391, 223, 69, 238, 100
-0.997391, 181, 117, 196, 148
-0.997393, 193, 241, 320, 272
-0.997394, 273, 185, 288, 248
-0.9974, 177, 93, 192, 124
-0.997405, 135, 97, 150, 160
-0.997407, 205, 33, 236, 288
-0.997413, 257, 41, 500, 104
-0.997418, 131, 125, 146, 156
-0.997444, 125, 225, 156, 352
-0.997445, 217, 65, 248, 320
-0.997446, 225, 73, 480, 136
-0.997453, 111, 113, 126, 176
-0.997463, 305, 97, 336, 352
-0.997463, 485, 209, 500, 272
-0.997468, 205, 265, 220, 328
-0.997475, 369, 105, 496, 136
-0.997476, 171, 117, 186, 148
-0.997486, 327, 209, 342, 272
-0.997486, 167, 101, 182, 132
-0.997486, 305, 273, 320, 336
-0.997493, 445, 233, 460, 296
-0.997494, 409, 49, 440, 176
-0.997496, 261, 241, 276, 304
-0.997502, 309, 297, 324, 360
-0.997512, 1, 193, 256, 256
-0.997515, 33, 113, 160, 144
-0.997515, 255, 177, 270, 240
-0.997515, 161, 301, 288, 332
-0.99752, 173, 73, 188, 104
-0.997552, 41, 225, 104, 352
-0.997558, 369, 253, 496, 284
-0.99756, 249, 129, 264, 192
-0.997572, 257, 329, 384, 360
-0.997582, 269, 233, 284, 296
-0.997584, 241, 281, 256, 344
-0.997588, 145, 225, 176, 352
-0.997593, 327, 185, 342, 248
-0.997593, 249, 313, 264, 375
-0.997595, 225, 229, 352, 260
-0.997596, 303, 169, 318, 232
-0.997597, 311, 273, 326, 336
-0.997598, 177, 133, 192, 164
-0.997598, 385, 185, 400, 248
-0.997604, 289, 33, 416, 96
-0.997615, 1, 221, 128, 252
-0.997626, 181, 105, 196, 136
-0.997629, 427, 209, 442, 272
-0.997629, 223, 273, 238, 336
-0.997647, 219, 137, 234, 200
-0.997652, 303, 129, 318, 192
-0.997654, 155, 69, 170, 100
-0.997663, 201, 137, 216, 200
-0.997663, 403, 209, 418, 272
-0.997666, 161, 97, 176, 128
-0.997671, 257, 257, 500, 320
-0.997672, 129, 273, 256, 304
-0.997674, 189, 85, 204, 116
-0.997679, 159, 121, 174, 152
-0.997687, 1, 41, 256, 104
-0.997689, 397, 97, 412, 160
-0.997693, 225, 149, 352, 180
-0.997696, 275, 257, 290, 320
-0.997697, 225, 65, 240, 128
-0.997699, 277, 225, 292, 288
-0.997706, 349, 185, 364, 248
-0.997713, 193, 109, 208, 140
-0.99772, 289, 241, 304, 304
-0.997721, 189, 133, 204, 164
-0.997721, 461, 129, 492, 375
-0.99773, 337, 97, 352, 160
-0.997735, 235, 289, 250, 352
-0.997739, 25, 81, 88, 208
-0.99774, 193, 273, 208, 336
-0.997743, 369, 89, 496, 120
-0.99775, 155, 81, 170, 112
-0.997757, 309, 65, 324, 128
-0.997757, 217, 273, 232, 336
-0.997758, 299, 65, 314, 128
-0.99776, 161, 289, 288, 320
-0.997761, 165, 133, 180, 164
-0.997776, 241, 241, 368, 272
-0.99778, 193, 177, 320, 208
-0.997781, 171, 133, 186, 164
-0.997791, 77, 161, 92, 224
-0.997792, 49, 281, 176, 344
-0.997793, 113, 297, 240, 328
-0.997795, 267, 281, 282, 344
-0.997796, 17, 125, 144, 156
-0.9978, 299, 297, 314, 360
-0.997812, 217, 109, 232, 140
-0.997814, 423, 109, 438, 140
-0.997842, 469, 1, 500, 128
-0.997846, 193, 121, 208, 152
-0.99785, 265, 1, 296, 256
-0.997863, 311, 205, 326, 236
-0.997874, 317, 33, 348, 288
-0.997898, 375, 209, 390, 240
-0.997912, 137, 33, 168, 288
-0.997913, 183, 133, 198, 164
-0.997915, 241, 113, 368, 144
-0.997919, 321, 1, 448, 128
-0.997942, 215, 77, 230, 108
-0.997945, 211, 93, 226, 124
-0.99795, 305, 201, 320, 232
-0.997953, 381, 213, 396, 244
-0.997967, 161, 313, 288, 344
-0.997977, 269, 257, 284, 288
-0.99798, 357, 213, 372, 244
-0.997995, 229, 65, 244, 96
-0.998007, 269, 317, 284, 348
-0.998012, 319, 213, 334, 244
-0.998013, 393, 65, 424, 192
-0.998019, 161, 69, 176, 100
-0.998021, 143, 73, 158, 104
-0.998025, 193, 81, 320, 112
-0.998062, 209, 57, 336, 88
-0.998063, 305, 125, 432, 156
-0.998075, 193, 33, 224, 288
-0.998075, 49, 217, 176, 248
-0.998076, 429, 113, 444, 144
-0.998085, 181, 33, 212, 288
-0.998086, 49, 241, 176, 272
-0.998091, 369, 189, 496, 220
-0.998098, 175, 105, 190, 136
-0.998099, 1, 225, 500, 288
-0.998102, 223, 117, 238, 148
-0.998103, 121, 125, 136, 156
-0.998104, 205, 109, 220, 140
-0.99812, 469, 33, 500, 288
-0.998122, 289, 77, 416, 108
-0.998134, 241, 93, 368, 124
-0.998143, 41, 1, 104, 375
-0.998151, 231, 129, 246, 160
-0.998156, 199, 97, 214, 128
-0.998159, 145, 85, 160, 116
-0.998167, 97, 1, 160, 375
-0.998174, 381, 65, 412, 320
-0.998177, 211, 65, 226, 96
-0.998181, 153, 121, 168, 152
-0.998206, 281, 1, 312, 256
-0.998209, 299, 197, 314, 228
-0.998214, 309, 297, 324, 328
-0.998224, 97, 209, 224, 272
-0.998229, 121, 113, 136, 144
-0.99823, 275, 245, 290, 276
-0.998237, 369, 237, 496, 268
-0.998238, 387, 213, 402, 244
-0.998239, 381, 201, 396, 232
-0.99826, 377, 109, 392, 140
-0.998261, 241, 1, 272, 256
-0.998265, 293, 289, 308, 320
-0.998274, 181, 145, 212, 272
-0.998275, 81, 261, 208, 292
-0.998275, 49, 229, 176, 260
-0.998278, 183, 69, 198, 100
-0.998278, 205, 89, 220, 120
-0.998287, 351, 213, 366, 244
-0.998295, 237, 133, 252, 164
-0.998297, 155, 97, 170, 128
-0.998301, 217, 65, 232, 96
-0.998304, 261, 253, 276, 284
-0.998306, 165, 33, 196, 288
-0.998307, 371, 225, 386, 256
-0.998314, 449, 97, 480, 352
-0.998321, 257, 161, 384, 192
-0.998321, 325, 217, 340, 248
-0.998321, 337, 213, 368, 228
-0.998321, 297, 157, 328, 172
-0.998322, 281, 257, 312, 272
-0.998324, 161, 97, 192, 112
-0.998324, 225, 271, 256, 286
-0.998324, 189, 261, 220, 276
-0.998326, 223, 57, 238, 88
-0.998326, 421, 257, 452, 272
-0.998326, 373, 93, 404, 108
-0.998327, 301, 297, 332, 312
-0.998327, 281, 329, 312, 344
-0.998327, 65, 223, 96, 238
-0.998328, 165, 151, 196, 166
-0.998328, 185, 81, 216, 96
-0.998328, 381, 313, 412, 328
-0.998328, 101, 121, 132, 136
-0.998329, 69, 189, 100, 204
-0.99833, 201, 137, 232, 152
-0.998331, 469, 209, 484, 240
-0.998331, 261, 295, 292, 310
-0.998331, 209, 263, 240, 278
-0.998334, 357, 309, 388, 324
-0.998334, 161, 129, 192, 144
-0.998335, 257, 269, 288, 284
-0.998336, 373, 107, 404, 122
-0.998336, 269, 251, 300, 266
-0.998336, 277, 287, 308, 302
-0.998337, 433, 211, 464, 226
-0.998337, 385, 213, 416, 228
-0.998339, 345, 225, 376, 240
-0.99834, 165, 113, 196, 128
-0.998341, 281, 191, 312, 206
-0.998343, 1, 95, 32, 110
-0.998343, 257, 137, 288, 152
-0.998347, 185, 127, 248, 142
-0.998348, 141, 121, 172, 136
-0.998348, 245, 253, 276, 268
-0.998349, 65, 229, 96, 244
-0.998349, 265, 321, 296, 336
-0.99835, 373, 225, 404, 240
-0.998352, 457, 227, 488, 242
-0.998352, 197, 83, 228, 98
-0.998354, 361, 225, 376, 256
-0.998354, 373, 207, 404, 222
-0.998355, 209, 269, 240, 284
-0.998358, 433, 255, 464, 270
-0.998358, 457, 213, 488, 228
-0.998359, 257, 269, 384, 300
-0.998359, 313, 93, 344, 108
-0.99836, 273, 233, 304, 248
-0.99836, 133, 137, 164, 152
-0.998361, 301, 281, 332, 296
-0.998362, 177, 129, 208, 144
-0.998363, 193, 145, 224, 160
-0.998365, 173, 143, 204, 158
-0.998365, 205, 67, 236, 82
-0.998365, 277, 281, 308, 296
-0.998366, 269, 333, 300, 348
-0.998368, 393, 213, 408, 244
-0.998368, 289, 197, 320, 212
-0.998369, 161, 141, 192, 156
-0.998369, 145, 141, 176, 156
-0.998372, 269, 269, 300, 284
-0.998373, 125, 125, 156, 140
-0.998379, 289, 293, 320, 308
-0.99838, 237, 137, 268, 152
-0.998381, 289, 287, 320, 302
-0.998381, 417, 119, 448, 134
-0.998381, 293, 203, 324, 218
-0.998382, 153, 119, 216, 134
-0.998382, 253, 315, 284, 330
-0.998383, 459, 221, 474, 252
-0.998383, 257, 263, 288, 278
-0.998385, 369, 311, 400, 326
-0.998387, 409, 113, 440, 128
-0.998388, 277, 263, 308, 278
-0.998389, 197, 141, 212, 172
-0.998391, 229, 69, 260, 84
-0.998392, 417, 109, 432, 140
-0.998393, 401, 107, 432, 122
-0.998394, 101, 129, 132, 144
-0.998395, 269, 257, 300, 272
-0.998395, 437, 217, 468, 232
-0.998396, 437, 253, 452, 284
-0.998397, 225, 135, 256, 150
-0.998398, 81, 281, 208, 312
-0.998398, 299, 281, 314, 312
-0.998399, 261, 277, 292, 292
-0.998402, 177, 135, 208, 150
-0.998403, 165, 103, 196, 118
-0.998403, 149, 127, 180, 142
-0.998404, 113, 123, 144, 138
-0.998405, 217, 77, 248, 92
-0.998408, 159, 133, 174, 164
-0.998409, 381, 99, 412, 114
-0.998409, 361, 105, 392, 120
-0.998413, 309, 213, 340, 228
-0.998413, 161, 85, 192, 100
-0.998416, 297, 209, 328, 224
-0.998417, 197, 91, 228, 106
-0.998418, 305, 253, 320, 284
-0.998418, 167, 69, 182, 100
-0.998419, 177, 89, 208, 104
-0.998419, 185, 75, 216, 90
-0.99842, 361, 225, 392, 240
-0.998422, 321, 219, 352, 234
-0.998423, 185, 121, 248, 136
-0.998426, 209, 117, 240, 132
-0.998427, 137, 81, 200, 96
-0.998428, 445, 213, 460, 244
-0.998431, 217, 69, 248, 84
-0.998433, 121, 137, 152, 152
-0.998437, 145, 241, 272, 272
-0.998438, 141, 91, 172, 106
-0.998438, 69, 193, 84, 224
-0.99844, 387, 201, 402, 232
-0.998442, 341, 219, 372, 234
-0.998443, 209, 125, 224, 156
-0.998444, 113, 129, 176, 144
-0.998445, 369, 129, 496, 160
-0.998446, 201, 109, 232, 124
-0.998447, 385, 1, 448, 256
-0.998448, 373, 213, 404, 228
-0.99845, 279, 265, 294, 296
-0.998454, 129, 83, 160, 98
-0.998454, 197, 97, 228, 112
-0.998455, 185, 115, 248, 130
-0.998456, 17, 1, 144, 64
-0.998457, 353, 213, 416, 228
-0.998458, 177, 341, 304, 372
-0.998459, 449, 221, 480, 236
-0.998459, 177, 109, 208, 124
-0.998461, 133, 75, 164, 90
-0.998461, 153, 93, 216, 108
-0.998462, 145, 135, 176, 150
-0.998464, 169, 99, 232, 114
-0.998465, 369, 77, 496, 108
-0.998468, 125, 131, 156, 146
-0.998469, 157, 135, 188, 150
-0.998469, 149, 97, 180, 112
-0.998471, 185, 99, 216, 114
-0.998472, 189, 109, 220, 124
-0.998473, 169, 135, 232, 150
-0.998474, 153, 125, 216, 140
-0.998479, 197, 103, 228, 118
-0.998484, 161, 69, 192, 84
-0.998484, 201, 77, 216, 108
-0.998485, 451, 217, 466, 248
-0.998486, 149, 83, 180, 98
-0.998486, 193, 121, 224, 136
-0.998487, 145, 87, 208, 102
-0.998488, 287, 257, 302, 288
-0.998488, 257, 257, 288, 272
-0.99849, 157, 77, 188, 92
-0.998493, 137, 129, 168, 144
-0.998495, 381, 89, 396, 120
-0.998496, 129, 75, 192, 90
-0.998496, 313, 219, 376, 234
-0.998498, 213, 123, 244, 138
-0.998499, 161, 79, 224, 94
-0.998502, 173, 119, 204, 134
-0.998505, 113, 149, 240, 180
-0.998508, 211, 145, 226, 176
-0.998509, 373, 197, 388, 228
-0.998509, 361, 215, 392, 230
-0.998514, 465, 221, 480, 252
-0.998514, 177, 73, 240, 88
-0.998515, 175, 61, 190, 92
-0.998517, 173, 97, 204, 112
-0.998517, 399, 213, 414, 244
-0.998519, 49, 137, 176, 168
-0.998521, 269, 233, 284, 264
-0.998522, 461, 209, 476, 240
-0.998522, 303, 293, 318, 324
-0.998523, 169, 85, 232, 100
-0.998525, 209, 131, 272, 146
-0.998525, 205, 73, 236, 88
-0.998526, 257, 199, 320, 214
-0.998527, 219, 265, 234, 296
-0.998529, 145, 135, 208, 150
-0.998531, 243, 133, 258, 164
-0.998533, 209, 137, 272, 152
-0.998537, 97, 1, 352, 64
-0.998539, 217, 129, 248, 144
-0.998542, 161, 119, 192, 134
-0.998543, 17, 1, 80, 375
-0.998544, 33, 261, 160, 292
-0.998545, 113, 123, 176, 138
-0.998546, 173, 83, 204, 98
-0.998549, 193, 115, 224, 130
-0.998549, 257, 319, 320, 334
-0.99855, 193, 127, 224, 142
-0.998552, 177, 109, 240, 124
-0.998552, 161, 91, 192, 106
-0.998553, 289, 285, 416, 316
-0.998554, 145, 69, 208, 84
-0.998559, 113, 129, 144, 144
-0.998562, 369, 103, 432, 118
-0.998562, 89, 133, 152, 148
-0.998564, 93, 209, 124, 336
-0.998565, 277, 305, 292, 336
-0.998567, 281, 133, 296, 164
-0.99857, 201, 75, 264, 90
-0.998575, 149, 71, 180, 86
-0.998576, 121, 89, 184, 104
-0.998578, 289, 281, 352, 296
-0.998579, 289, 253, 416, 284
-0.99858, 303, 317, 318, 348
-0.998581, 159, 49, 174, 176
-0.998582, 129, 95, 192, 110
-0.998583, 65, 61, 192, 92
-0.998584, 169, 77, 200, 92
-0.998585, 291, 269, 306, 300
-0.998586, 313, 209, 376, 224
-0.998588, 281, 213, 344, 228
-0.998589, 253, 1, 284, 256
-0.998592, 293, 69, 308, 100
-0.998593, 153, 113, 216, 128
-0.998594, 113, 135, 176, 150
-0.998597, 295, 237, 310, 268
-0.998597, 265, 295, 328, 310
-0.998599, 1, 345, 128, 375
-0.998599, 275, 317, 290, 348
-0.998601, 153, 107, 216, 122
-0.998601, 265, 207, 328, 222
-0.998602, 105, 75, 168, 90
-0.998603, 177, 265, 240, 280
-0.998603, 217, 67, 280, 82
-0.998607, 273, 133, 288, 164
-0.998608, 249, 277, 312, 292
-0.998609, 113, 117, 176, 132
-0.998609, 233, 267, 296, 282
-0.99861, 209, 125, 272, 140
-0.99861, 145, 101, 208, 116
-0.99861, 249, 289, 312, 304
-0.998611, 265, 313, 328, 328
-0.998612, 309, 281, 324, 312
-0.998614, 367, 197, 382, 228
-0.998615, 249, 283, 312, 298
-0.998615, 145, 133, 160, 164
-0.998617, 113, 81, 176, 96
-0.998619, 209, 261, 224, 292
-0.99862, 177, 67, 240, 82
-0.99862, 145, 141, 208, 156
-0.998621, 193, 271, 256, 286
-0.998622, 233, 311, 296, 326
-0.998622, 293, 193, 308, 224
-0.998622, 375, 97, 390, 128
-0.998626, 145, 77, 176, 92
-0.998627, 189, 69, 204, 100
-0.998627, 375, 85, 390, 116
-0.998628, 169, 145, 232, 160
-0.998629, 233, 261, 296, 276
-0.99863, 89, 127, 152, 142
-0.99863, 143, 121, 158, 152
-0.998631, 337, 315, 400, 330
-0.998632, 97, 87, 160, 102
-0.998632, 429, 213, 444, 244
-0.998632, 177, 93, 240, 108
-0.998633, 265, 301, 328, 316
-0.998633, 279, 333, 294, 364
-0.998634, 265, 259, 328, 274
-0.998634, 261, 241, 276, 272
-0.998635, 257, 191, 320, 206
-0.998636, 233, 321, 296, 336
-0.998637, 377, 209, 440, 224
-0.998637, 1, 49, 500, 112
-0.998638, 137, 129, 152, 160
-0.998639, 161, 259, 224, 274
-0.99864, 257, 247, 320, 262
-0.998642, 225, 73, 288, 88
-0.998643, 385, 111, 448, 126
-0.998644, 267, 137, 282, 168
-0.998644, 113, 141, 176, 156
-0.998645, 273, 307, 336, 322
-0.998646, 233, 137, 296, 152
-0.998651, 409, 97, 440, 352
-0.998651, 209, 259, 272, 274
-0.998651, 221, 81, 236, 112
-0.998651, 297, 289, 360, 304
-0.998652, 429, 97, 460, 352
-0.998653, 253, 133, 268, 164
-0.998653, 425, 255, 488, 270
-0.998654, 201, 143, 264, 158
-0.998655, 257, 253, 320, 268
-0.998656, 265, 325, 328, 340
-0.998657, 401, 215, 464, 230
-0.998657, 353, 207, 416, 222
-0.998661, 329, 309, 392, 324
-0.998662, 195, 73, 210, 104
-0.998662, 149, 1, 180, 256
-0.998663, 263, 309, 278, 340
-0.998663, 361, 129, 424, 144
-0.998664, 289, 295, 352, 310
-0.998664, 209, 119, 272, 134
-0.998665, 329, 225, 392, 240
-0.998666, 393, 257, 456, 272
-0.998667, 209, 277, 272, 292
-0.998668, 121, 101, 184, 116
-0.998669, 265, 337, 328, 352
-0.99867, 257, 135, 320, 150
-0.99867, 305, 305, 368, 320
-0.99867, 337, 107, 400, 122
-0.99867, 385, 119, 448, 134
-0.998671, 273, 155, 336, 170
-0.998671, 161, 189, 288, 220
-0.998672, 249, 149, 312, 164
-0.998674, 297, 201, 360, 216
-0.998676, 65, 125, 128, 140
-0.998676, 225, 305, 288, 320
-0.998677, 233, 129, 296, 144
-0.998677, 265, 269, 328, 284
-0.998677, 257, 239, 320, 254
-0.998678, 249, 67, 312, 82
-0.998679, 209, 265, 272, 280
-0.998679, 233, 243, 296, 258
-0.99868, 257, 331, 320, 346
-0.99868, 121, 69, 184, 84
-0.998681, 281, 133, 344, 148
-0.998682, 305, 131, 368, 146
-0.998683, 273, 287, 336, 302
-0.998683, 369, 313, 432, 328
-0.998683, 345, 219, 408, 234
-0.998683, 209, 101, 272, 116
-0.998684, 281, 73, 344, 88
-0.998684, 281, 229, 344, 244
-0.998685, 145, 253, 208, 268
-0.998685, 433, 231, 496, 246
-0.998686, 393, 125, 456, 140
-0.998686, 433, 213, 496, 228
-0.998687, 289, 219, 352, 234
-0.998688, 289, 195, 352, 210
-0.998688, 201, 109, 264, 124
-0.998688, 297, 161, 360, 176
-0.99869, 233, 255, 296, 270
-0.998692, 289, 275, 352, 290
-0.998692, 161, 299, 224, 314
-0.998693, 353, 225, 416, 240
-0.998694, 385, 249, 448, 264
-0.998695, 329, 101, 392, 116
-0.998695, 361, 109, 424, 124
-0.998696, 289, 207, 352, 222
-0.998722, 337, 177, 464, 208
-0.998722, 113, 209, 144, 336
-0.998729, 1, 173, 128, 204
-0.998741, 177, 329, 304, 360
-0.998755, 397, 97, 428, 352
-0.998762, 229, 1, 260, 256
-0.998763, 1, 233, 128, 264
-0.998777, 305, 1, 336, 256
-0.998781, 1, 297, 500, 360
-0.998782, 369, 301, 496, 332
-0.998832, 193, 81, 208, 208
-0.998847, 1, 1, 256, 64
-0.998851, 153, 49, 168, 176
-0.998889, 187, 97, 202, 224
-0.998894, 241, 341, 368, 372
-0.998897, 203, 65, 218, 192
-0.99891, 145, 161, 272, 192
-0.998918, 33, 73, 160, 104
-0.998942, 225, 49, 240, 176
-0.99895, 1, 249, 500, 312
-0.998958, 337, 337, 464, 368
-0.99896, 241, 81, 368, 112
-0.99897, 311, 193, 326, 320
-0.998971, 9, 97, 72, 352
-0.998978, 81, 345, 208, 375
-0.99898, 219, 97, 234, 224
-0.998994, 177, 81, 192, 208
-0.999004, 167, 49, 182, 176
-0.999004, 169, 145, 200, 272
-0.999007, 33, 65, 96, 320
-0.99901, 129, 129, 160, 375
-0.999018, 129, 173, 256, 204
-0.999037, 49, 205, 176, 236
-0.999037, 177, 225, 304, 256
-0.999039, 185, 49, 200, 176
-0.99904, 255, 113, 270, 240
-0.999041, 211, 81, 226, 208
-0.999044, 267, 113, 282, 240
-0.999064, 305, 301, 432, 332
-0.999075, 317, 161, 332, 288
-0.999079, 161, 205, 288, 236
-0.999083, 273, 113, 288, 240
-0.999085, 363, 161, 378, 288
-0.999104, 279, 113, 294, 240
-0.999105, 273, 177, 288, 304
-0.999111, 219, 33, 234, 160
-0.99912, 65, 165, 192, 196
-0.999121, 289, 65, 416, 96
-0.999129, 377, 161, 392, 288
-0.999129, 287, 177, 302, 304
-0.999129, 245, 113, 260, 240
-0.999147, 231, 49, 246, 176
-0.999149, 65, 9, 192, 40
-0.999155, 261, 113, 276, 240
-0.999155, 289, 145, 416, 176
-0.999157, 145, 129, 176, 375
-0.999172, 261, 177, 276, 304
-0.999174, 327, 161, 342, 288
-0.999176, 375, 81, 390, 208
-0.999184, 129, 29, 256, 60
-0.999197, 285, 129, 300, 256
-0.999201, 227, 113, 242, 240
-0.999226, 41, 81, 72, 208
-0.999233, 129, 229, 256, 260
-0.999234, 349, 161, 364, 288
-0.999238, 383, 161, 398, 288
-0.999242, 335, 161, 350, 288
-0.999244, 293, 113, 308, 240
-0.999246, 389, 241, 420, 368
-0.999252, 369, 161, 384, 288
-0.999256, 65, 153, 192, 184
-0.999257, 233, 113, 248, 240
-0.999257, 281, 177, 296, 304
-0.999257, 239, 113, 254, 240
-0.99926, 191, 33, 206, 160
-0.999264, 301, 177, 316, 304
-0.999264, 311, 145, 326, 272
-0.999266, 1, 333, 128, 364
-0.999278, 357, 161, 372, 288
-0.999279, 129, 337, 256, 368
-0.999282, 267, 161, 282, 288
-0.999289, 317, 209, 332, 336
-0.999298, 151, 97, 166, 224
-0.999301, 369, 81, 384, 208
-0.999304, 17, 161, 144, 192
-0.999308, 323, 209, 338, 336
-0.999311, 129, 1, 256, 32
-0.99932, 133, 97, 148, 224
-0.999322, 369, 65, 496, 96
-0.999324, 213, 33, 228, 160
-0.999327, 317, 113, 332, 240
-0.99933, 177, 33, 192, 160
-0.999331, 261, 49, 276, 176
-0.99934, 171, 97, 186, 224
-0.999345, 129, 41, 256, 72
-0.999346, 293, 177, 308, 304
-0.999349, 205, 113, 220, 240
-0.999355, 449, 193, 464, 320
-0.999357, 457, 1, 488, 256
-0.99936, 145, 65, 160, 192
-0.999364, 305, 325, 432, 356
-0.999364, 323, 113, 338, 240
-0.999364, 341, 161, 356, 288
-0.999366, 153, 1, 168, 128
-0.999367, 159, 1, 174, 128
-0.999369, 65, 21, 192, 52
-0.999374, 485, 129, 500, 256
-0.999375, 205, 129, 236, 375
-0.999377, 65, 49, 192, 80
-0.99938, 331, 113, 346, 240
-0.999383, 239, 65, 254, 192
-0.999388, 289, 49, 304, 176
-0.99939, 49, 333, 176, 364
-0.999395, 337, 113, 352, 240
-0.999396, 251, 49, 266, 176
-0.999396, 267, 49, 282, 176
-0.999398, 251, 177, 266, 304
-0.999403, 199, 113, 214, 240
-0.999404, 1, 205, 128, 236
-0.999406, 69, 177, 84, 304
-0.99941, 305, 129, 320, 256
-0.999413, 277, 49, 292, 176
-0.999418, 363, 113, 378, 240
-0.99942, 65, 33, 192, 64
-0.999425, 197, 33, 212, 160
-0.999427, 283, 49, 298, 176
-0.99943, 263, 225, 278, 352
-0.99943, 299, 113, 314, 240
-0.999434, 463, 129, 478, 256
-0.999438, 387, 113, 402, 240
-0.999446, 173, 241, 188, 368
-0.99945, 343, 209, 358, 336
-0.999453, 355, 113, 370, 240
-0.999455, 303, 241, 318, 368
-0.999458, 245, 49, 260, 176
-0.999464, 75, 177, 90, 304
-0.999465, 473, 129, 488, 256
-0.999465, 373, 209, 388, 336
-0.999467, 461, 193, 476, 320
-0.999469, 157, 97, 172, 224
-0.999471, 457, 129, 472, 256
-0.999478, 415, 193, 430, 320
-0.99948, 455, 193, 470, 320
-0.99948, 295, 49, 310, 176
-0.999485, 329, 209, 344, 336
-0.999485, 369, 325, 496, 356
-0.999496, 17, 1, 144, 32
-0.999497, 343, 113, 358, 240
-0.9995, 281, 225, 296, 352
-0.999502, 353, 209, 368, 336
-0.999504, 391, 193, 406, 320
-0.999508, 1, 281, 128, 344
-0.99951, 193, 165, 320, 196
-0.999514, 369, 49, 496, 80
-0.999516, 271, 225, 286, 352
-0.99952, 305, 49, 320, 176
-0.99952, 399, 193, 414, 320
-0.999526, 349, 113, 364, 240
-0.999527, 211, 129, 226, 256
-0.999528, 381, 65, 396, 192
-0.999535, 309, 241, 324, 368
-0.99954, 295, 241, 310, 368
-0.999541, 185, 153, 200, 168
-0.999541, 207, 95, 222, 110
-0.999542, 235, 69, 250, 84
-0.999542, 447, 215, 462, 230
-0.999542, 127, 65, 142, 192
-0.999542, 131, 137, 146, 152
-0.999543, 217, 241, 232, 368
-0.999543, 375, 311, 390, 326
-0.999543, 63, 177, 78, 304
-0.999544, 421, 119, 436, 134
-0.999545, 309, 297, 324, 312
-0.999546, 205, 259, 220, 274
-0.999547, 157, 85, 172, 100
-0.999547, 167, 79, 182, 94
-0.999547, 245, 137, 260, 152
-0.999548, 71, 199, 86, 214
-0.999548, 375, 225, 390, 240
-0.999548, 381, 311, 396, 326
-0.999549, 433, 257, 448, 272
-0.999549, 211, 241, 226, 368
-0.99955, 305, 257, 320, 272
-0.999551, 211, 261, 226, 276
-0.999551, 433, 123, 448, 138
-0.999552, 379, 105, 394, 120
-0.999553, 409, 193, 424, 320
-0.999553, 333, 95, 348, 110
-0.999553, 383, 207, 398, 222
-0.999554, 467, 193, 482, 320
-0.999555, 151, 135, 166, 150
-0.999556, 267, 315, 282, 330
-0.999557, 273, 261, 288, 276
-0.999559, 211, 71, 226, 86
-0.99956, 367, 103, 382, 118
-0.99956, 169, 117, 184, 132
-0.99956, 233, 131, 248, 146
-0.999561, 177, 101, 192, 116
-0.999562, 197, 97, 212, 112
-0.999562, 371, 231, 386, 246
-0.999563, 363, 223, 378, 238
-0.999563, 221, 265, 236, 280
-0.999564, 167, 135, 182, 150
-0.999564, 165, 1, 180, 128
-0.999566, 389, 211, 404, 226
-0.999566, 161, 125, 176, 140
-0.999566, 229, 69, 244, 84
-0.999566, 423, 113, 438, 240
-0.999567, 197, 127, 212, 142
-0.999568, 443, 193, 458, 320
-0.999568, 327, 93, 342, 108
-0.999569, 269, 321, 284, 336
-0.999569, 289, 283, 304, 298
-0.999569, 227, 127, 242, 142
-0.999571, 239, 135, 254, 150
-0.999572, 479, 113, 494, 240
-0.999572, 193, 193, 224, 320
-0.999573, 413, 109, 428, 124
-0.999573, 379, 209, 394, 336
-0.999573, 205, 113, 220, 128
-0.999574, 223, 121, 238, 136
-0.999574, 421, 193, 436, 320
-0.999575, 475, 193, 490, 320
-0.999576, 419, 113, 434, 128
-0.999576, 211, 103, 226, 118
-0.999576, 481, 235, 496, 250
-0.999577, 173, 135, 188, 150
-0.999577, 395, 113, 410, 240
-0.999577, 447, 129, 462, 256
-0.999578, 367, 209, 382, 336
-0.999578, 367, 33, 382, 160
-0.999579, 189, 135, 204, 150
-0.999579, 229, 75, 244, 90
-0.999579, 153, 69, 168, 84
-0.999581, 219, 115, 234, 130
-0.999582, 355, 219, 370, 234
-0.999583, 179, 133, 194, 148
-0.999583, 219, 77, 234, 92
-0.999584, 181, 75, 196, 90
-0.999584, 165, 87, 180, 102
-0.999584, 127, 113, 142, 240
-0.999585, 117, 121, 132, 136
-0.999586, 97, 185, 224, 248
-0.999587, 287, 261, 302, 276
-0.999587, 289, 241, 304, 368
-0.999587, 329, 217, 344, 232
-0.999588, 113, 129, 128, 144
-0.999588, 251, 137, 266, 152
-0.99959, 69, 129, 84, 256
-0.99959, 365, 231, 380, 246
-0.999591, 485, 193, 500, 320
-0.999591, 171, 99, 186, 114
-0.999592, 383, 213, 398, 228
-0.999592, 297, 195, 312, 210
-0.999592, 137, 137, 152, 152
-0.999594, 319, 217, 334, 232
-0.999595, 279, 259, 294, 274
-0.999595, 155, 125, 170, 140
-0.999595, 237, 177, 252, 304
-0.999596, 401, 113, 416, 240
-0.999599, 183, 109, 198, 124
-0.999599, 261, 255, 276, 270
-0.999599, 297, 289, 312, 304
-0.9996, 471, 229, 486, 244
-0.999602, 143, 131, 158, 146
-0.999603, 191, 129, 206, 144
-0.999604, 215, 109, 230, 124
-0.999604, 151, 93, 166, 108
-0.999606, 163, 99, 178, 114
-0.999606, 191, 91, 206, 106
-0.999608, 233, 17, 264, 144
-0.99961, 427, 119, 442, 134
-0.999611, 155, 77, 170, 92
-0.999612, 135, 81, 150, 96
-0.999612, 161, 135, 176, 150
-0.999612, 177, 85, 192, 100
-0.999614, 461, 223, 476, 238
-0.999616, 311, 205, 326, 220
-0.999617, 147, 87, 162, 102
-0.999617, 267, 257, 282, 272
-0.999617, 69, 193, 84, 208
-0.999621, 135, 129, 150, 144
-0.999622, 125, 125, 140, 140
-0.999622, 197, 115, 212, 130
-0.999623, 377, 213, 392, 228
-0.999625, 305, 199, 320, 214
-0.999626, 161, 79, 176, 94
-0.999626, 315, 211, 330, 226
-0.999628, 167, 93, 182, 108
-0.99963, 141, 83, 156, 98
-0.999631, 217, 71, 232, 86
-0.999632, 157, 91, 172, 106
-0.999637, 453, 219, 468, 234
-0.999638, 371, 213, 386, 228
-0.999641, 167, 69, 182, 84
-0.999647, 185, 99, 200, 114
-0.999647, 425, 111, 440, 126
-0.999649, 171, 85, 186, 100
-0.999651, 157, 97, 172, 112
-0.999653, 369, 225, 384, 240
-0.999655, 177, 95, 192, 110
-0.99966, 373, 105, 388, 120
-0.999664, 199, 103, 214, 118
-0.999668, 223, 71, 238, 86
-0.999676, 189, 109, 204, 124
-0.999677, 195, 109, 210, 124
-0.999679, 183, 81, 198, 96
-0.999682, 191, 99, 206, 114
-0.999686, 189, 119, 204, 134
-0.99969, 361, 217, 376, 232
-0.999696, 141, 77, 156, 92
-0.999704, 163, 119, 178, 134
-0.999709, 413, 1, 444, 256
-0.999709, 129, 131, 144, 146
-0.999718, 393, 1, 424, 256
-0.999724, 159, 71, 174, 86
-0.999726, 149, 81, 164, 96
-0.999726, 125, 1, 156, 256
-0.999731, 119, 127, 134, 142
-0.999737, 173, 77, 188, 92
-0.999774, 453, 1, 484, 128
-0.999778, 149, 75, 164, 90
-0.999792, 125, 17, 156, 144
-0.999838, 117, 97, 148, 352
-0.999861, 81, 161, 112, 288
-0.999864, 1, 313, 256, 375
-0.999887, 85, 97, 116, 352
-0.999927, 157, 193, 188, 320
-0.999937, 441, 1, 472, 256
-0.999947, 65, 129, 96, 375
-0.999957, 185, 129, 216, 375
-0.99997, 1, 273, 500, 336
-1.00002, 173, 129, 204, 375
-1.00007, 429, 1, 460, 256
-1.00012, 61, 49, 92, 176
-1.00014, 41, 1, 72, 128
-1.00015, 157, 129, 188, 375
-1.00018, 101, 49, 132, 176
-1.00028, 433, 241, 496, 368
-1.00029, 221, 1, 252, 128
-1.00029, 113, 1, 144, 256
-1.00032, 309, 17, 340, 144
-1.00036, 41, 129, 72, 256
-1.0004, 101, 129, 132, 375
-1.0004, 53, 97, 84, 352
-1.00041, 297, 1, 360, 128
-1.00044, 257, 17, 500, 80
-1.00045, 29, 97, 60, 352
-1.00056, 41, 65, 72, 320
-1.00057, 257, 1, 320, 128
-1.00059, 9, 65, 40, 320
-1.00061, 49, 49, 112, 176
-1.00061, 69, 33, 100, 288
-1.00065, 93, 1, 124, 256
-1.00076, 89, 33, 120, 160
-1.00089, 241, 17, 368, 80
-1.00091, 29, 1, 60, 256
-1.00092, 81, 1, 112, 256
-1.00101, 1, 25, 500, 88
-1.00103, 49, 225, 80, 352
-1.00106, 1, 1, 500, 64
-1.0011, 33, 25, 160, 88
-1.00111, 433, 65, 464, 192
-1.00116, 53, 1, 84, 256
-1.00146, 25, 193, 56, 320
-1.00149, 321, 1, 448, 64
-1.00166, 321, 17, 352, 144
-1.00168, 65, 1, 128, 128
-1.00182, 133, 177, 164, 304
-1.00184, 445, 241, 476, 368
-1.00184, 29, 145, 60, 272
-1.00191, 73, 49, 104, 176
-1.00198, 205, 193, 236, 320
-1.00198, 177, 1, 304, 64
-1.0021, 61, 1, 92, 128
-1.00213, 57, 1, 120, 256
-1.00346, 89, 1, 152, 128
-1.00388, 385, 17, 448, 144
-1.00418, 1, 129, 64, 256
-1.00463, 25, 33, 88, 160
-1.00528, 9, 1, 72, 256
-1.00538, 1, 65, 64, 192
-1.00665, 1, 17, 64, 144
