1910
-0.276402, 1, 1, 335, 500
-0.365043, 1, 193, 335, 448
-0.412038, 1, 97, 335, 352
-0.457396, 1, 1, 256, 500
-0.538472, 65, 97, 320, 352
-0.58134, 1, 193, 256, 448
-0.631094, 1, 1, 335, 256
-0.834522, 145, 97, 272, 352
-0.854059, 17, 257, 144, 500
-0.856534, 161, 193, 288, 448
-0.857915, 81, 97, 208, 352
-0.858318, 65, 1, 320, 256
-0.860834, 161, 1, 288, 500
-0.862591, 33, 1, 160, 500
-0.868398, 1, 129, 335, 256
-0.870658, 17, 161, 144, 416
-0.872244, 209, 1, 335, 500
-0.872329, 81, 1, 208, 500
-0.872335, 209, 65, 335, 320
-0.88065, 97, 193, 224, 448
-0.885443, 1, 273, 335, 400
-0.897399, 1, 193, 335, 320
-0.904687, 33, 129, 288, 256
-0.910702, 209, 257, 335, 500
-0.915639, 209, 161, 335, 416
-0.917994, 65, 177, 320, 304
-0.918347, 129, 1, 256, 256
-0.922563, 1, 273, 256, 400
-0.932095, 201, 177, 264, 304
-0.932256, 1, 81, 335, 208
-0.933124, 1, 225, 256, 352
-0.933959, 1, 353, 335, 480
-0.934049, 17, 273, 144, 400
-0.93411, 81, 113, 208, 240
-0.93449, 129, 97, 256, 224
-0.93737, 145, 177, 208, 304
-0.937941, 129, 177, 256, 304
-0.939586, 113, 113, 176, 240
-0.940526, 33, 65, 160, 320
-0.941293, 209, 113, 335, 240
-0.941461, 137, 97, 200, 224
-0.942198, 65, 81, 320, 208
-0.943974, 177, 129, 240, 256
-0.944704, 209, 113, 272, 240
-0.945564, 177, 193, 304, 320
-0.945583, 65, 209, 192, 336
-0.945907, 169, 209, 232, 336
-0.945954, 73, 113, 136, 240
-0.946472, 73, 177, 136, 304
-0.947121, 81, 1, 208, 256
-0.948717, 17, 225, 144, 352
-0.949242, 17, 145, 144, 272
-0.949542, 137, 121, 200, 184
-0.949738, 113, 209, 176, 336
-0.951058, 177, 65, 304, 192
-0.951312, 41, 273, 104, 400
-0.951417, 41, 145, 104, 272
-0.952223, 201, 193, 264, 256
-0.952801, 129, 225, 256, 352
-0.953228, 81, 161, 208, 288
-0.954325, 1, 353, 256, 480
-0.954529, 17, 273, 80, 400
-0.954772, 273, 161, 335, 288
-0.954816, 273, 17, 335, 144
-0.955194, 1, 17, 335, 144
-0.956482, 113, 161, 176, 288
-0.957023, 249, 193, 312, 320
-0.957811, 257, 65, 320, 192
-0.958173, 145, 241, 208, 368
-0.959462, 273, 169, 335, 232
-0.959468, 177, 273, 304, 400
-0.959677, 97, 273, 224, 400
-0.960159, 225, 105, 288, 168
-0.960583, 33, 209, 96, 336
-0.96083, 177, 249, 240, 312
-0.960998, 1, 337, 64, 464
-0.961191, 201, 129, 264, 192
-0.961459, 1, 353, 128, 480
-0.961506, 233, 97, 296, 224
-0.961998, 81, 257, 144, 320
-0.962024, 89, 225, 152, 352
-0.962091, 57, 137, 120, 200
-0.962263, 105, 137, 168, 200
-0.962369, 73, 185, 136, 248
-0.962866, 145, 217, 208, 280
-0.962898, 113, 241, 176, 304
-0.963291, 225, 193, 288, 320
-0.963618, 201, 97, 264, 352
-0.963708, 177, 137, 240, 200
-0.963745, 145, 185, 208, 248
-0.963862, 241, 185, 304, 248
-0.964794, 145, 97, 208, 352
-0.965315, 105, 185, 168, 248
-0.965332, 241, 145, 304, 272
-0.965486, 33, 281, 96, 344
-0.965642, 201, 241, 264, 368
-0.965905, 113, 113, 176, 176
-0.966026, 81, 129, 144, 192
-0.96614, 233, 153, 296, 216
-0.966403, 97, 273, 160, 400
-0.966454, 113, 65, 176, 192
-0.966487, 57, 225, 120, 352
-0.966494, 73, 273, 136, 400
-0.966797, 177, 193, 240, 256
-0.966813, 273, 241, 335, 368
-0.967081, 57, 265, 120, 328
-0.967865, 73, 217, 136, 280
-0.968014, 137, 97, 200, 160
-0.968175, 145, 241, 208, 304
-0.968286, 105, 209, 168, 272
-0.968308, 201, 217, 264, 280
-0.968843, 81, 153, 144, 216
-0.968887, 201, 265, 264, 328
-0.969025, 201, 161, 264, 224
-0.969237, 225, 241, 288, 368
-0.969299, 97, 353, 224, 480
-0.969384, 265, 33, 328, 288
-0.969563, 201, 241, 264, 304
-0.969704, 81, 121, 208, 184
-0.969725, 25, 337, 88, 464
-0.969796, 81, 65, 208, 192
-0.96986, 241, 241, 304, 304
-0.970117, 249, 217, 312, 280
-0.97037, 265, 65, 328, 128
-0.970612, 137, 265, 200, 328
-0.970899, 129, 121, 256, 184
-0.970955, 1, 353, 64, 416
-0.97103, 129, 49, 256, 176
-0.971353, 129, 289, 192, 416
-0.971363, 161, 161, 224, 224
-0.971399, 177, 225, 240, 288
-0.971403, 105, 161, 168, 224
-0.971434, 113, 265, 176, 328
-0.971437, 273, 217, 335, 280
-0.971593, 169, 113, 232, 176
-0.971846, 49, 353, 176, 480
-0.972198, 33, 161, 96, 224
-0.97223, 225, 65, 288, 320
-0.972421, 137, 193, 200, 448
-0.972581, 241, 73, 304, 136
-0.972697, 177, 257, 240, 384
-0.972816, 121, 97, 184, 352
-0.972945, 141, 113, 172, 240
-0.972972, 81, 353, 144, 480
-0.972985, 33, 249, 96, 312
-0.973213, 73, 161, 136, 416
-0.973501, 161, 145, 288, 208
-0.973523, 137, 153, 200, 216
-0.973703, 65, 1, 320, 128
-0.973831, 205, 177, 236, 304
-0.97384, 273, 249, 335, 312
-0.973924, 161, 81, 224, 208
-0.974057, 225, 161, 288, 416
-0.974095, 273, 193, 335, 256
-0.974144, 145, 97, 176, 160
-0.97415, 209, 113, 240, 240
-0.974222, 113, 257, 176, 500
-0.974399, 33, 145, 160, 208
-0.974829, 161, 193, 224, 448
-0.974836, 65, 241, 192, 304
-0.974869, 129, 345, 192, 408
-0.974927, 265, 41, 328, 104
-0.975079, 229, 97, 260, 224
-0.97515, 161, 113, 192, 240
-0.975314, 213, 121, 244, 184
-0.975417, 89, 65, 152, 192
-0.975427, 17, 265, 144, 328
-0.975489, 33, 225, 96, 480
-0.975666, 217, 81, 280, 144
-0.975761, 89, 113, 120, 240
-0.975766, 161, 193, 288, 256
-0.975767, 249, 241, 312, 368
-0.976008, 113, 97, 240, 160
-0.976284, 149, 177, 180, 304
-0.976512, 113, 121, 144, 184
-0.976579, 233, 265, 296, 328
-0.976827, 181, 145, 212, 272
-0.976971, 73, 361, 136, 424
-0.977064, 101, 113, 132, 240
-0.977082, 89, 297, 152, 360
-0.977087, 97, 177, 224, 240
-0.977299, 249, 129, 312, 384
-0.977305, 201, 185, 232, 248
-0.977313, 209, 65, 272, 192
-0.977332, 17, 329, 80, 392
-0.977348, 229, 177, 260, 304
-0.977423, 49, 185, 176, 248
-0.977425, 1, 305, 64, 368
-0.977593, 177, 97, 240, 352
-0.97776, 161, 249, 288, 312
-0.977821, 153, 337, 216, 400
-0.977833, 57, 241, 120, 304
-0.97793, 161, 193, 192, 320
-0.977932, 41, 193, 104, 256
-0.978108, 225, 129, 288, 192
-0.97819, 137, 121, 168, 184
-0.978263, 305, 1, 335, 128
-0.978268, 29, 273, 60, 400
-0.978432, 125, 129, 156, 256
-0.978453, 93, 137, 124, 200
-0.978529, 273, 113, 335, 240
-0.978708, 161, 97, 288, 160
-0.978783, 1, 225, 64, 352
-0.978827, 153, 289, 216, 416
-0.978876, 245, 81, 276, 208
-0.978884, 201, 193, 264, 448
-0.978915, 153, 121, 184, 184
-0.979081, 73, 273, 104, 400
-0.979121, 249, 161, 280, 224
-0.979144, 245, 81, 276, 144
-0.979172, 33, 225, 96, 288
-0.9792, 33, 137, 96, 200
-0.979236, 277, 177, 308, 304
-0.979269, 33, 129, 96, 384
-0.979285, 113, 241, 240, 304
-0.979307, 41, 273, 72, 400
-0.979446, 201, 129, 232, 192
-0.979466, 57, 353, 120, 480
-0.979468, 257, 137, 320, 200
-0.979508, 233, 49, 296, 176
-0.979535, 57, 257, 120, 500
-0.979595, 109, 289, 140, 416
-0.979676, 145, 337, 272, 464
-0.979695, 105, 177, 136, 304
-0.979737, 201, 105, 264, 168
-0.979774, 289, 161, 320, 288
-0.979793, 17, 209, 144, 272
-0.979822, 169, 137, 200, 200
-0.979849, 157, 97, 188, 160
-0.979875, 181, 185, 212, 248
-0.979917, 253, 161, 284, 288
-0.979963, 1, 337, 128, 400
-0.979997, 233, 97, 264, 160
-0.980116, 93, 337, 124, 400
-0.980174, 1, 257, 64, 320
-0.980177, 41, 361, 104, 424
-0.980192, 105, 185, 136, 248
-0.980286, 73, 265, 104, 328
-0.980344, 109, 257, 140, 320
-0.980383, 81, 153, 208, 216
-0.980475, 305, 161, 335, 288
-0.980482, 209, 241, 240, 304
-0.980537, 193, 121, 320, 184
-0.980628, 185, 193, 216, 320
-0.980649, 17, 233, 144, 296
-0.980672, 145, 353, 208, 480
-0.980721, 57, 137, 88, 200
-0.980759, 161, 169, 288, 232
-0.980848, 65, 337, 128, 400
-0.980911, 93, 337, 124, 464
-0.980952, 97, 265, 224, 328
-0.980953, 1, 281, 64, 344
-0.980964, 33, 97, 160, 224
-0.981062, 125, 137, 156, 200
-0.981107, 209, 241, 335, 304
-0.981131, 17, 289, 144, 352
-0.981258, 113, 89, 176, 152
-0.981269, 105, 337, 168, 400
-0.981284, 97, 97, 160, 352
-0.981296, 269, 177, 300, 240
-0.981433, 1, 257, 64, 500
-0.981454, 73, 241, 104, 304
-0.981493, 129, 97, 160, 160
-0.981545, 85, 249, 116, 312
-0.981601, 49, 97, 112, 224
-0.981633, 41, 281, 72, 344
-0.981686, 73, 137, 104, 200
-0.981871, 281, 33, 312, 160
-0.981878, 305, 169, 335, 232
-0.981905, 265, 89, 328, 152
-0.98193, 73, 113, 104, 240
-0.981933, 173, 113, 204, 176
-0.982051, 97, 209, 224, 272
-0.982094, 97, 1, 160, 500
-0.9821, 97, 249, 128, 312
-0.982146, 289, 185, 320, 248
-0.982157, 301, 17, 332, 80
-0.982236, 205, 225, 236, 352
-0.98226, 229, 193, 260, 256
-0.98233, 149, 241, 180, 368
-0.982374, 233, 1, 296, 500
-0.982439, 73, 185, 104, 248
-0.982505, 41, 337, 104, 400
-0.982535, 273, 161, 335, 416
-0.982608, 121, 337, 184, 464
-0.982639, 197, 113, 228, 240
-0.982684, 185, 217, 216, 280
-0.982692, 169, 353, 232, 480
-0.982706, 209, 177, 335, 240
-0.982758, 81, 257, 144, 500
-0.982787, 261, 65, 292, 128
-0.982971, 81, 337, 208, 400
-0.98301, 101, 113, 132, 176
-0.983035, 129, 1, 192, 500
-0.983039, 161, 225, 288, 288
-0.983073, 93, 161, 124, 288
-0.983089, 213, 153, 244, 216
-0.983094, 169, 89, 232, 152
-0.983108, 217, 177, 248, 304
-0.983248, 121, 273, 152, 400
-0.983253, 149, 177, 180, 240
-0.983265, 273, 1, 335, 500
-0.983315, 225, 289, 288, 416
-0.983337, 293, 17, 324, 144
-0.983346, 281, 41, 312, 104
-0.983358, 209, 97, 335, 160
-0.983384, 21, 321, 52, 448
-0.983439, 73, 177, 104, 304
-0.983441, 109, 145, 140, 208
-0.98346, 49, 361, 176, 424
-0.983491, 181, 241, 212, 304
-0.983528, 181, 137, 212, 200
-0.983562, 45, 153, 76, 216
-0.983586, 289, 225, 320, 288
-0.983594, 57, 161, 120, 224
-0.983682, 185, 81, 248, 208
-0.983755, 17, 273, 48, 400
-0.983908, 233, 257, 296, 500
-0.983924, 153, 1, 216, 500
-0.983937, 57, 273, 88, 400
-0.984027, 201, 153, 232, 216
-0.984034, 149, 65, 180, 192
-0.984046, 249, 185, 280, 248
-0.984115, 81, 1, 208, 128
-0.984144, 257, 65, 288, 192
-0.984176, 53, 129, 84, 256
-0.98424, 113, 113, 144, 240
-0.98437, 209, 1, 272, 500
-0.984387, 233, 265, 264, 328
-0.984425, 173, 209, 204, 336
-0.984443, 305, 193, 335, 256
-0.984447, 145, 265, 176, 328
-0.984559, 129, 81, 160, 208
-0.984564, 149, 241, 180, 304
-0.98457, 137, 49, 200, 176
-0.984656, 57, 257, 88, 320
-0.984657, 249, 209, 280, 336
-0.984701, 21, 321, 52, 384
-0.984716, 185, 161, 216, 224
-0.984762, 185, 345, 248, 408
-0.984764, 89, 105, 152, 168
-0.984785, 301, 209, 332, 336
-0.984801, 165, 257, 196, 320
-0.984903, 193, 321, 320, 448
-0.984926, 73, 1, 136, 500
-0.984935, 5, 353, 36, 416
-0.984947, 41, 1, 104, 500
-0.984958, 97, 225, 128, 352
-0.984991, 225, 121, 256, 184
-0.985118, 301, 217, 332, 280
-0.98512, 173, 97, 204, 224
-0.985143, 105, 361, 168, 424
-0.985171, 93, 273, 124, 400
-0.985201, 77, 337, 108, 400
-0.985215, 161, 281, 288, 344
-0.985242, 273, 209, 304, 272
-0.985344, 1, 361, 128, 424
-0.985404, 129, 353, 256, 416
-0.985421, 161, 361, 224, 424
-0.985486, 137, 241, 168, 368
-0.985486, 201, 217, 232, 280
-0.985498, 105, 217, 136, 280
-0.985527, 65, 97, 192, 160
-0.985553, 145, 153, 176, 216
-0.985597, 129, 1, 256, 128
-0.985612, 1, 305, 32, 432
-0.985657, 269, 49, 300, 176
-0.985688, 209, 153, 335, 216
-0.985731, 33, 121, 160, 184
-0.985735, 185, 1, 248, 500
-0.985754, 273, 17, 335, 80
-0.985785, 161, 161, 192, 224
-0.985793, 209, 201, 335, 264
-0.985844, 201, 289, 264, 416
-0.985988, 57, 113, 120, 176
-0.986094, 221, 257, 252, 320
-0.986133, 129, 241, 160, 304
-0.986134, 205, 265, 236, 328
-0.9862, 265, 273, 328, 336
-0.986276, 125, 161, 156, 224
-0.986282, 85, 185, 116, 248
-0.986302, 165, 257, 196, 384
-0.986379, 65, 289, 128, 352
-0.986381, 9, 305, 40, 368
-0.986384, 233, 241, 264, 368
-0.986419, 237, 121, 268, 184
-0.98649, 193, 241, 224, 368
-0.986493, 81, 353, 112, 480
-0.986521, 177, 281, 240, 344
-0.986615, 129, 329, 256, 392
-0.986793, 129, 73, 160, 136
-0.986841, 73, 225, 104, 352
-0.986905, 57, 225, 88, 352
-0.986999, 73, 217, 104, 280
-0.987014, 265, 193, 296, 320
-0.987134, 9, 353, 40, 480
-0.987188, 197, 241, 228, 304
-0.987206, 97, 273, 128, 336
-0.987343, 129, 193, 160, 320
-0.987594, 249, 249, 280, 312
-0.987598, 209, 73, 335, 136
-0.987719, 85, 225, 116, 352
-0.98782, 89, 361, 120, 424
-0.98789, 109, 241, 140, 368
-0.987925, 249, 289, 312, 416
-0.98793, 129, 321, 192, 384
-0.987942, 289, 209, 320, 336
-0.987952, 209, 17, 335, 144
-0.988066, 165, 217, 196, 280
-0.98807, 233, 241, 264, 304
-0.988086, 129, 289, 192, 352
-0.988089, 21, 345, 52, 408
-0.988142, 117, 193, 148, 320
-0.98818, 229, 161, 260, 224
-0.988211, 165, 345, 196, 408
-0.988252, 249, 217, 280, 280
-0.988419, 25, 305, 88, 368
-0.98846, 29, 289, 60, 352
-0.988542, 209, 265, 335, 328
-0.988649, 41, 145, 72, 272
-0.988729, 137, 125, 200, 156
-0.988732, 301, 97, 332, 224
-0.988756, 221, 97, 252, 160
-0.988833, 265, 89, 296, 152
-0.988861, 265, 153, 296, 216
-0.988865, 17, 145, 80, 272
-0.988881, 153, 353, 184, 416
-0.988915, 17, 313, 144, 376
-0.98901, 181, 273, 212, 400
-0.989012, 129, 1, 192, 128
-0.989028, 129, 185, 160, 248
-0.989133, 109, 321, 140, 384
-0.989222, 273, 113, 335, 176
-0.989272, 73, 253, 136, 284
-0.989358, 209, 33, 335, 96
-0.989368, 241, 129, 272, 256
-0.989382, 249, 105, 280, 168
-0.98941, 41, 225, 72, 352
-0.98941, 109, 353, 140, 480
-0.989411, 281, 161, 312, 224
-0.989421, 93, 225, 124, 288
-0.989422, 33, 321, 64, 448
-0.989459, 129, 73, 256, 136
-0.989596, 201, 197, 264, 228
-0.989637, 217, 193, 248, 256
-0.989657, 1, 329, 32, 392
-0.989691, 217, 225, 248, 352
-0.989709, 233, 289, 296, 352
-0.989712, 1, 185, 128, 248
-0.989807, 249, 113, 312, 176
-0.989808, 41, 149, 104, 180
-0.989808, 65, 121, 320, 184
-0.989861, 73, 193, 136, 224
-0.989878, 121, 65, 184, 128
-0.989908, 253, 273, 284, 400
-0.989913, 85, 273, 116, 336
-0.989929, 73, 161, 104, 224
-0.989949, 161, 1, 224, 256
-0.989978, 137, 97, 200, 128
-0.990028, 145, 241, 208, 272
-0.99003, 129, 137, 192, 168
-0.990082, 1, 433, 64, 496
-0.990101, 305, 241, 335, 304
-0.990139, 65, 137, 128, 168
-0.990154, 177, 345, 304, 408
-0.990155, 33, 321, 64, 384
-0.990213, 273, 129, 304, 256
-0.990236, 201, 249, 264, 280
-0.990237, 193, 149, 256, 180
-0.990238, 65, 185, 320, 248
-0.990246, 185, 137, 248, 168
-0.990276, 161, 225, 224, 256
-0.990285, 97, 121, 160, 152
-0.99031, 249, 193, 312, 224
-0.99032, 273, 177, 335, 208
-0.990343, 177, 265, 240, 296
-0.990381, 121, 281, 152, 344
-0.990406, 173, 161, 204, 224
-0.990409, 89, 113, 120, 176
-0.990409, 177, 253, 240, 284
-0.990462, 1, 145, 256, 208
-0.990463, 293, 153, 324, 216
-0.990479, 201, 353, 264, 480
-0.990492, 217, 121, 280, 152
-0.990505, 97, 141, 160, 172
-0.990523, 105, 1, 168, 256
-0.990533, 217, 153, 280, 184
-0.990553, 161, 145, 224, 176
-0.990559, 49, 417, 112, 480
-0.990561, 57, 361, 88, 424
-0.990594, 169, 117, 232, 148
-0.990599, 113, 253, 176, 284
-0.990602, 9, 153, 72, 216
-0.990618, 105, 237, 168, 268
-0.990634, 145, 213, 208, 244
-0.990638, 105, 345, 136, 408
-0.990666, 41, 285, 104, 316
-0.990668, 133, 289, 164, 416
-0.990701, 1, 137, 335, 200
-0.990752, 81, 365, 144, 396
-0.990753, 201, 269, 264, 300
-0.990821, 145, 185, 208, 216
-0.990848, 1, 257, 256, 320
-0.990856, 225, 105, 288, 136
-0.990858, 89, 161, 120, 224
-0.990868, 273, 65, 304, 128
-0.990878, 21, 265, 52, 328
-0.990884, 201, 237, 264, 268
-0.990885, 249, 253, 312, 284
-0.99091, 225, 217, 288, 280
-0.990947, 105, 265, 168, 296
-0.990958, 241, 89, 304, 120
-0.990968, 137, 113, 200, 144
-0.990988, 113, 189, 176, 220
-0.991002, 73, 217, 136, 248
-0.991024, 209, 137, 272, 168
-0.991033, 105, 221, 168, 252
-0.991041, 249, 221, 312, 252
-0.99105, 273, 249, 335, 280
-0.991054, 177, 193, 240, 224
-0.991061, 233, 265, 296, 296
-0.991091, 1, 353, 64, 384
-0.991109, 161, 65, 192, 192
-0.991139, 201, 221, 264, 252
-0.991148, 285, 73, 316, 136
-0.99116, 97, 289, 224, 352
-0.991164, 73, 269, 136, 300
-0.991167, 73, 241, 136, 272
-0.991184, 137, 201, 200, 232
-0.991196, 273, 209, 335, 240
-0.991206, 121, 365, 184, 396
-0.991206, 273, 189, 335, 220
-0.99121, 1, 257, 32, 384
-0.991216, 1, 369, 64, 400
-0.991228, 229, 217, 260, 280
-0.991228, 145, 269, 208, 300
-0.991242, 33, 297, 96, 328
-0.991247, 273, 57, 335, 88
-0.99127, 105, 209, 168, 240
-0.991305, 277, 233, 308, 296
-0.99131, 153, 357, 216, 388
-0.991331, 33, 197, 96, 228
-0.991341, 145, 253, 208, 284
-0.991366, 125, 217, 156, 280
-0.991387, 73, 285, 136, 316
-0.991414, 69, 321, 100, 448
-0.991432, 177, 237, 240, 268
-0.991433, 241, 205, 304, 236
-0.991439, 257, 69, 320, 100
-0.991446, 185, 321, 248, 384
-0.991448, 89, 297, 152, 328
-0.991468, 225, 181, 288, 212
-0.991469, 161, 129, 224, 160
-0.991506, 201, 209, 264, 240
-0.991558, 57, 161, 88, 224
-0.99156, 137, 229, 200, 260
-0.991562, 177, 213, 240, 244
-0.991571, 269, 257, 300, 320
-0.991593, 165, 193, 196, 256
-0.991599, 133, 281, 164, 344
-0.991616, 17, 385, 80, 448
-0.991628, 133, 329, 164, 392
-0.991634, 241, 237, 304, 268
-0.991662, 73, 229, 136, 260
-0.991662, 33, 265, 96, 296
-0.991663, 305, 57, 335, 120
-0.991664, 33, 209, 96, 240
-0.991691, 33, 249, 96, 280
-0.991692, 145, 289, 176, 416
-0.991701, 201, 185, 264, 216
-0.991702, 49, 337, 80, 464
-0.991714, 113, 105, 176, 136
-0.991717, 29, 225, 60, 352
-0.99172, 177, 305, 240, 432
-0.991735, 209, 469, 272, 500
-0.991758, 225, 165, 288, 196
-0.991768, 73, 65, 136, 320
-0.991794, 65, 149, 128, 180
-0.991796, 17, 285, 80, 316
-0.991804, 137, 153, 200, 184
-0.991816, 305, 137, 335, 200
-0.991825, 113, 285, 176, 316
-0.991828, 225, 285, 288, 316
-0.991849, 149, 217, 180, 280
-0.991869, 273, 221, 335, 252
-0.991872, 33, 369, 96, 400
-0.991889, 53, 281, 84, 344
-0.991892, 193, 265, 224, 328
-0.991898, 1, 161, 64, 416
-0.991942, 177, 353, 208, 416
-0.991946, 17, 1, 80, 500
-0.991985, 41, 161, 104, 192
-0.991986, 257, 161, 320, 192
-0.992, 1, 297, 64, 328
-0.992002, 1, 325, 64, 356
-0.992015, 105, 177, 168, 208
-0.992015, 57, 349, 120, 380
-0.992023, 269, 241, 300, 368
-0.992027, 265, 273, 328, 304
-0.992066, 273, 41, 335, 72
-0.992067, 25, 349, 88, 380
-0.992076, 261, 201, 292, 264
-0.992078, 41, 137, 104, 168
-0.992092, 249, 469, 312, 500
-0.992097, 57, 369, 120, 400
-0.992116, 177, 177, 240, 208
-0.992121, 193, 125, 256, 156
-0.992133, 241, 337, 304, 464
-0.992136, 273, 81, 335, 112
-0.992137, 33, 185, 96, 216
-0.992188, 89, 157, 152, 188
-0.992233, 257, 101, 320, 132
-0.992246, 73, 205, 136, 236
-0.992247, 193, 161, 256, 192
-0.992256, 225, 193, 288, 224
-0.992297, 217, 93, 280, 124
-0.992321, 249, 181, 312, 212
-0.99233, 233, 313, 296, 376
-0.992333, 33, 221, 96, 252
-0.992335, 97, 349, 160, 380
-0.992343, 137, 173, 200, 204
-0.99235, 1, 313, 64, 344
-0.992361, 1, 273, 64, 304
-0.992362, 305, 49, 335, 176
-0.992368, 153, 369, 216, 400
-0.992376, 33, 233, 96, 264
-0.992384, 265, 233, 328, 264
-0.99241, 273, 261, 335, 292
-0.992412, 145, 121, 176, 152
-0.99242, 193, 285, 256, 316
-0.99243, 145, 105, 176, 136
-0.992449, 169, 157, 232, 188
-0.992451, 281, 185, 312, 216
-0.992452, 233, 141, 296, 172
-0.992452, 209, 321, 335, 384
-0.992454, 113, 93, 176, 124
-0.992472, 225, 253, 288, 284
-0.992493, 301, 173, 332, 204
-0.992503, 17, 153, 80, 184
-0.992505, 233, 77, 296, 108
-0.992523, 65, 97, 320, 160
-0.992525, 141, 73, 172, 136
-0.992528, 173, 281, 204, 344
-0.992529, 137, 33, 168, 160
-0.992553, 33, 337, 96, 368
-0.992558, 57, 145, 88, 176
-0.992564, 129, 337, 192, 368
-0.992567, 25, 309, 88, 340
-0.992583, 161, 105, 192, 136
-0.992598, 173, 321, 204, 384
-0.992606, 257, 113, 288, 240
-0.992607, 73, 377, 104, 440
-0.992613, 201, 229, 232, 260
-0.992615, 153, 93, 184, 124
-0.992645, 117, 97, 148, 160
-0.992659, 161, 125, 192, 156
-0.992669, 193, 349, 256, 380
-0.992672, 153, 285, 216, 316
-0.992674, 213, 141, 244, 172
-0.992681, 37, 257, 68, 320
-0.992694, 209, 273, 240, 400
-0.992718, 105, 125, 136, 156
-0.992725, 89, 349, 120, 380
-0.992726, 137, 369, 200, 432
-0.992746, 289, 257, 320, 384
-0.992746, 45, 153, 76, 184
-0.992754, 289, 173, 320, 204
-0.992761, 33, 233, 288, 296
-0.992764, 233, 269, 264, 300
-0.992775, 181, 205, 212, 236
-0.99278, 73, 253, 104, 284
-0.992784, 237, 153, 268, 184
-0.992788, 125, 109, 156, 140
-0.9928, 201, 189, 232, 220
-0.992815, 229, 197, 260, 228
-0.992815, 125, 137, 156, 168
-0.992828, 105, 253, 136, 284
-0.992828, 213, 129, 244, 160
-0.992828, 73, 141, 104, 172
-0.992833, 117, 125, 148, 156
-0.992846, 237, 469, 268, 500
-0.992852, 181, 189, 212, 220
-0.992857, 181, 217, 212, 248
-0.99286, 201, 137, 232, 168
-0.992866, 241, 97, 272, 128
-0.992877, 85, 145, 116, 176
-0.992877, 57, 313, 120, 376
-0.992888, 1, 193, 335, 256
-0.992906, 249, 157, 280, 188
-0.992919, 93, 365, 124, 396
-0.992922, 249, 85, 280, 116
-0.992926, 225, 149, 256, 180
-0.992927, 225, 117, 256, 148
-0.992936, 269, 193, 300, 224
-0.992958, 169, 141, 200, 172
-0.992958, 189, 145, 220, 176
-0.992963, 145, 269, 176, 300
-0.992963, 73, 285, 104, 316
-0.992969, 269, 181, 300, 212
-0.992969, 125, 249, 156, 280
-0.992974, 109, 237, 140, 268
-0.992979, 77, 357, 108, 388
-0.992986, 49, 285, 80, 316
-0.992987, 153, 137, 184, 168
-0.992994, 253, 193, 284, 224
-0.992995, 153, 361, 184, 392
-0.992996, 85, 133, 116, 164
-0.992999, 225, 133, 256, 164
-0.993004, 109, 141, 140, 172
-0.993008, 25, 349, 56, 380
-0.99301, 229, 105, 260, 136
-0.993012, 305, 245, 335, 276
-0.993012, 281, 221, 312, 252
-0.993012, 69, 269, 100, 300
-0.993013, 173, 125, 204, 156
-0.993017, 105, 269, 136, 300
-0.993023, 217, 345, 280, 408
-0.993033, 181, 229, 212, 260
-0.993036, 173, 361, 204, 392
-0.993037, 269, 169, 300, 200
-0.993049, 165, 269, 196, 300
-0.993051, 97, 145, 128, 176
-0.993052, 205, 241, 236, 272
-0.993057, 141, 133, 172, 164
-0.993059, 209, 269, 240, 300
-0.993063, 205, 253, 236, 284
-0.993068, 273, 61, 304, 92
-0.99307, 73, 297, 104, 328
-0.993071, 269, 209, 300, 240
-0.993072, 73, 193, 104, 224
-0.993074, 105, 193, 136, 224
-0.993079, 221, 269, 252, 300
-0.99308, 305, 161, 335, 192
-0.993082, 285, 45, 316, 76
-0.993087, 213, 117, 244, 148
-0.993088, 37, 289, 68, 320
-0.99309, 181, 249, 212, 280
-0.993095, 301, 29, 332, 60
-0.993096, 201, 149, 232, 180
-0.993099, 249, 213, 280, 244
-0.993102, 21, 329, 52, 360
-0.993105, 149, 185, 180, 216
-0.993105, 1, 273, 335, 336
-0.993106, 293, 245, 324, 276
-0.99311, 89, 269, 120, 300
-0.993112, 249, 9, 312, 72
-0.993115, 305, 201, 335, 232
-0.99312, 201, 217, 232, 248
-0.993125, 289, 233, 320, 264
-0.993126, 249, 249, 280, 280
-0.993127, 161, 185, 192, 216
-0.993137, 289, 201, 320, 232
-0.993138, 1, 161, 335, 224
-0.993143, 149, 249, 180, 280
-0.993155, 301, 233, 332, 264
-0.993156, 261, 73, 292, 104
-0.993157, 9, 357, 40, 388
-0.993158, 217, 233, 248, 264
-0.993161, 181, 177, 212, 208
-0.993163, 133, 85, 164, 116
-0.993165, 1, 373, 32, 404
-0.99318, 305, 17, 335, 48
-0.99319, 57, 157, 88, 188
-0.993191, 25, 285, 56, 316
-0.993197, 97, 285, 128, 316
-0.9932, 105, 217, 136, 248
-0.993213, 165, 249, 196, 280
-0.993219, 121, 285, 152, 316
-0.99322, 81, 313, 208, 376
-0.993224, 129, 121, 160, 152
-0.993226, 249, 237, 280, 268
-0.993232, 125, 201, 156, 232
-0.993237, 165, 225, 196, 256
-0.993242, 149, 97, 164, 160
-0.993247, 25, 305, 56, 336
-0.99325, 81, 369, 112, 400
-0.993251, 37, 277, 68, 308
-0.993254, 93, 253, 124, 284
-0.993259, 257, 169, 288, 200
-0.993259, 1, 345, 32, 376
-0.993264, 265, 257, 328, 500
-0.993266, 125, 185, 156, 216
-0.993267, 57, 249, 88, 280
-0.993268, 21, 317, 52, 348
-0.993269, 173, 113, 204, 144
-0.993274, 117, 265, 148, 296
-0.993276, 73, 213, 104, 244
-0.993281, 289, 33, 320, 64
-0.993284, 149, 237, 180, 268
-0.993288, 233, 253, 264, 284
-0.993289, 73, 237, 104, 268
-0.99329, 269, 237, 300, 268
-0.993291, 305, 221, 335, 252
-0.993313, 81, 137, 208, 168
-0.993319, 285, 81, 316, 208
-0.993461, 117, 121, 132, 184
-0.993475, 65, 209, 320, 272
-0.993505, 1, 281, 256, 344
-0.993506, 221, 273, 252, 400
-0.99358, 1, 129, 64, 192
-0.993702, 241, 49, 304, 112
-0.993712, 241, 1, 304, 128
-0.99375, 145, 121, 272, 152
-0.993786, 193, 9, 320, 72
-0.993822, 165, 337, 196, 464
-0.993891, 61, 369, 92, 496
-0.993948, 33, 49, 160, 176
-0.994055, 161, 305, 288, 368
-0.994102, 1, 409, 64, 472
-0.994133, 153, 289, 216, 352
-0.994173, 193, 73, 256, 136
-0.994194, 141, 129, 156, 192
-0.994234, 1, 233, 64, 296
-0.994251, 129, 141, 256, 172
-0.994317, 209, 289, 335, 352
-0.994361, 81, 125, 208, 156
-0.994365, 41, 385, 104, 448
-0.99437, 177, 197, 304, 228
-0.994373, 1, 353, 128, 384
-0.994413, 137, 1, 200, 256
-0.994503, 217, 241, 232, 304
-0.99451, 129, 353, 160, 480
-0.994532, 175, 113, 190, 176
-0.994588, 129, 105, 256, 136
-0.994592, 1, 425, 128, 488
-0.994612, 25, 409, 88, 472
-0.994666, 149, 337, 180, 464
-0.994672, 1, 329, 256, 392
-0.994673, 1, 385, 128, 448
-0.994695, 185, 97, 216, 224
-0.994701, 49, 249, 176, 280
-0.994708, 283, 177, 298, 240
-0.994757, 33, 145, 160, 176
-0.994779, 227, 113, 242, 176
-0.994779, 1, 177, 64, 240
-0.994834, 161, 49, 288, 112
-0.99487, 153, 313, 216, 376
-0.994895, 177, 321, 208, 448
-0.994902, 1, 249, 335, 312
-0.99494, 97, 185, 224, 216
-0.994952, 49, 237, 176, 268
-0.99496, 181, 137, 196, 200
-0.995058, 17, 285, 144, 316
-0.995058, 193, 289, 224, 416
-0.995078, 105, 249, 120, 312
-0.995085, 221, 121, 236, 184
-0.995105, 155, 89, 170, 152
-0.995119, 49, 433, 176, 496
-0.995127, 169, 121, 184, 184
-0.995128, 277, 177, 292, 240
-0.995136, 161, 265, 288, 296
-0.99514, 111, 121, 126, 184
-0.995145, 57, 81, 88, 208
-0.995164, 117, 241, 132, 304
-0.99517, 123, 121, 138, 184
-0.995175, 49, 193, 176, 224
-0.995184, 133, 137, 148, 200
-0.995185, 65, 65, 320, 128
-0.995218, 201, 289, 264, 352
-0.995219, 273, 305, 335, 432
-0.995224, 215, 129, 230, 192
-0.995256, 91, 249, 106, 312
-0.995259, 229, 49, 260, 176
-0.995278, 321, 161, 335, 224
-0.995279, 245, 33, 276, 160
-0.995282, 171, 89, 186, 152
-0.995289, 105, 137, 120, 200
-0.995301, 99, 137, 114, 200
-0.995311, 233, 113, 248, 176
-0.995359, 239, 97, 254, 160
-0.995365, 93, 137, 108, 200
-0.99537, 255, 81, 270, 144
-0.995372, 117, 185, 132, 248
-0.995391, 73, 265, 88, 328
-0.995392, 211, 241, 226, 304
-0.995395, 207, 185, 222, 248
-0.995435, 111, 241, 126, 304
-0.995487, 265, 425, 328, 488
-0.995497, 73, 385, 136, 448
-0.995505, 99, 249, 114, 312
-0.995564, 111, 265, 126, 328
-0.995582, 193, 253, 320, 284
-0.995632, 81, 257, 96, 320
-0.995657, 175, 137, 190, 200
-0.99566, 75, 241, 90, 304
-0.995683, 17, 205, 144, 236
-0.995685, 1, 365, 128, 396
-0.995688, 43, 281, 58, 344
-0.995688, 17, 269, 144, 300
-0.99571, 59, 137, 74, 200
-0.995715, 81, 73, 208, 136
-0.995718, 181, 105, 196, 168
-0.995721, 87, 137, 102, 200
-0.995726, 247, 89, 262, 152
-0.995731, 269, 65, 284, 128
-0.99574, 311, 17, 326, 80
-0.995743, 263, 161, 278, 224
-0.995745, 209, 369, 335, 496
-0.995749, 261, 73, 276, 136
-0.995768, 203, 257, 218, 320
-0.995799, 97, 237, 224, 268
-0.9958, 311, 169, 326, 232
-0.995819, 129, 197, 256, 228
-0.995842, 121, 265, 136, 328
-0.995846, 283, 49, 298, 112
-0.995858, 111, 145, 126, 208
-0.995859, 319, 9, 334, 72
-0.995878, 205, 97, 236, 352
-0.995884, 117, 65, 148, 192
-0.995891, 289, 177, 304, 240
-0.995899, 97, 433, 224, 496
-0.995914, 113, 249, 240, 280
-0.995926, 125, 145, 140, 208
-0.995944, 33, 157, 160, 188
-0.995947, 49, 217, 176, 248
-0.995947, 51, 145, 66, 208
-0.99596, 179, 257, 194, 320
-0.995967, 205, 65, 236, 192
-0.995976, 279, 201, 294, 264
-0.995982, 257, 17, 288, 144
-0.995991, 305, 217, 320, 280
-0.995994, 209, 105, 335, 136
-0.995997, 149, 97, 180, 352
-0.995999, 161, 177, 288, 208
-0.996005, 81, 113, 208, 144
-0.996026, 213, 153, 228, 216
-0.996041, 75, 185, 90, 248
-0.996043, 1, 97, 64, 224
-0.996048, 243, 193, 258, 256
-0.996053, 193, 241, 320, 272
-0.996066, 105, 185, 120, 248
-0.996067, 161, 153, 288, 184
-0.996068, 277, 57, 292, 120
-0.996078, 1, 353, 256, 416
-0.996094, 209, 153, 335, 184
-0.996131, 117, 145, 132, 208
-0.996139, 219, 153, 234, 216
-0.996171, 293, 41, 308, 104
-0.99618, 139, 153, 154, 216
-0.996182, 151, 265, 166, 328
-0.996184, 147, 121, 162, 184
-0.996188, 193, 133, 320, 164
-0.99619, 35, 297, 50, 360
-0.996206, 157, 265, 172, 328
-0.996211, 81, 269, 208, 300
-0.996213, 79, 137, 94, 200
-0.996233, 207, 161, 222, 224
-0.996234, 49, 365, 176, 396
-0.996253, 301, 25, 316, 88
-0.996273, 165, 265, 180, 328
-0.996276, 305, 177, 320, 240
-0.996291, 49, 349, 176, 380
-0.996292, 169, 33, 232, 160
-0.996302, 149, 161, 164, 224
-0.996306, 245, 257, 260, 320
-0.996325, 161, 93, 288, 124
-0.996327, 209, 265, 224, 328
-0.996343, 137, 41, 200, 104
-0.996345, 95, 185, 110, 248
-0.996394, 57, 177, 88, 304
-0.996396, 313, 217, 328, 280
-0.996408, 305, 1, 335, 256
-0.996423, 97, 221, 224, 252
-0.996424, 191, 137, 206, 200
-0.996429, 33, 113, 96, 176
-0.996435, 207, 137, 222, 200
-0.996437, 227, 265, 242, 328
-0.996439, 69, 137, 84, 200
-0.996441, 285, 209, 300, 272
-0.996461, 1, 209, 64, 272
-0.996468, 273, 201, 288, 264
-0.996472, 35, 321, 50, 384
-0.996472, 193, 209, 320, 240
-0.996472, 15, 353, 30, 416
-0.996473, 209, 185, 335, 216
-0.996474, 225, 97, 256, 352
-0.996476, 237, 265, 252, 328
-0.996477, 221, 193, 236, 256
-0.996484, 1, 217, 335, 280
-0.996487, 311, 193, 326, 256
-0.996487, 151, 241, 166, 304
-0.996498, 185, 1, 248, 256
-0.996504, 81, 281, 96, 344
-0.996507, 221, 265, 236, 328
-0.996516, 139, 105, 154, 168
-0.996532, 257, 337, 320, 400
-0.996536, 167, 153, 182, 216
-0.996542, 159, 121, 174, 184
-0.996555, 171, 265, 186, 328
-0.996556, 177, 285, 304, 316
-0.996559, 261, 137, 276, 200
-0.99656, 139, 65, 154, 128
-0.996562, 27, 313, 42, 376
-0.996564, 233, 137, 248, 200
-0.996568, 209, 93, 335, 124
-0.996578, 187, 241, 202, 304
-0.996588, 165, 193, 196, 448
-0.996601, 321, 185, 335, 248
-0.996607, 111, 185, 126, 248
-0.996612, 89, 185, 104, 248
-0.996624, 145, 209, 272, 240
-0.996633, 81, 101, 208, 132
-0.996635, 165, 345, 180, 408
-0.996643, 145, 229, 272, 260
-0.996655, 97, 209, 224, 240
-0.996659, 209, 117, 335, 148
-0.996664, 101, 209, 116, 272
-0.996668, 35, 273, 50, 336
-0.996673, 249, 121, 264, 184
-0.996675, 199, 137, 214, 200
-0.996685, 67, 257, 82, 320
-0.996686, 137, 281, 152, 344
-0.996694, 5, 345, 20, 408
-0.996703, 201, 193, 232, 448
-0.996705, 125, 97, 156, 352
-0.996707, 117, 217, 132, 280
-0.996714, 177, 217, 192, 280
-0.996717, 241, 121, 256, 184
-0.99672, 153, 121, 168, 184
-0.996729, 273, 153, 288, 216
-0.996731, 145, 257, 160, 320
-0.996741, 223, 241, 238, 304
-0.996744, 225, 153, 240, 216
-0.996747, 271, 177, 286, 240
-0.996747, 123, 97, 138, 160
-0.996754, 85, 345, 100, 408
-0.996757, 95, 273, 110, 336
-0.996769, 265, 105, 280, 168
-0.996771, 193, 229, 320, 260
-0.996777, 129, 377, 256, 440
-0.996779, 159, 153, 174, 216
-0.996783, 5, 369, 20, 432
-0.996822, 217, 49, 280, 112
-0.996823, 293, 1, 324, 256
-0.996831, 69, 257, 100, 500
-0.99684, 17, 297, 144, 328
-0.99684, 161, 97, 192, 352
-0.996868, 181, 97, 212, 352
-0.996896, 249, 65, 280, 320
-0.996926, 1, 341, 128, 372
-0.996937, 33, 133, 160, 164
-0.99694, 129, 285, 256, 316
-0.996944, 33, 73, 160, 136
-0.996971, 1, 321, 335, 384
-0.996985, 129, 361, 256, 392
-0.997032, 49, 257, 80, 500
-0.997048, 137, 97, 168, 352
-0.99706, 1, 249, 128, 280
-0.99711, 109, 257, 140, 500
-0.997129, 265, 297, 328, 360
-0.997132, 73, 161, 104, 416
-0.997146, 1, 345, 335, 408
-0.99715, 305, 97, 335, 352
-0.997152, 81, 337, 208, 368
-0.99716, 161, 165, 288, 196
-0.997188, 147, 105, 162, 136
-0.997193, 173, 125, 188, 156
-0.997234, 181, 257, 212, 500
-0.997234, 17, 329, 144, 360
-0.99724, 161, 81, 288, 112
-0.99725, 65, 385, 192, 448
-0.997252, 283, 185, 298, 216
-0.997276, 1, 113, 335, 176
-0.997299, 129, 257, 160, 500
-0.997312, 145, 193, 176, 448
-0.997334, 253, 161, 284, 416
-0.997354, 273, 193, 288, 224
-0.997365, 209, 425, 335, 488
-0.997369, 113, 157, 240, 188
-0.997374, 119, 125, 134, 156
-0.997379, 273, 401, 335, 464
-0.99738, 149, 117, 164, 148
-0.997384, 217, 65, 248, 192
-0.997416, 65, 25, 320, 88
-0.99742, 209, 269, 335, 300
-0.997433, 49, 181, 176, 212
-0.99749, 49, 129, 80, 384
-0.997492, 29, 257, 60, 500
-0.997493, 113, 433, 176, 496
-0.997499, 213, 225, 244, 480
-0.997505, 281, 1, 312, 256
-0.997522, 265, 161, 296, 416
-0.997526, 1, 233, 128, 264
-0.997538, 321, 165, 335, 196
-0.99755, 17, 313, 144, 344
-0.997568, 219, 129, 234, 160
-0.997573, 59, 145, 74, 176
-0.997585, 129, 333, 256, 364
-0.997589, 237, 97, 268, 352
-0.997608, 153, 97, 168, 128
-0.997623, 225, 117, 240, 148
-0.997639, 201, 353, 232, 480
-0.997652, 163, 125, 178, 156
-0.997655, 269, 1, 300, 128
-0.997658, 51, 149, 66, 180
-0.997662, 213, 137, 228, 168
-0.997666, 225, 193, 256, 448
-0.9977, 1, 305, 256, 368
-0.997703, 161, 433, 288, 496
-0.997704, 73, 417, 136, 480
-0.997704, 145, 1, 176, 256
-0.997709, 89, 257, 120, 500
-0.997729, 75, 249, 90, 280
-0.997732, 173, 105, 188, 136
-0.997751, 209, 401, 335, 464
-0.997768, 241, 433, 304, 496
-0.99777, 233, 109, 248, 140
-0.99777, 81, 285, 208, 316
-0.997773, 217, 253, 232, 284
-0.997774, 277, 181, 292, 212
-0.997778, 5, 257, 36, 500
-0.997783, 105, 65, 136, 192
-0.997794, 283, 205, 298, 236
-0.997818, 273, 369, 335, 432
-0.997831, 65, 145, 80, 176
-0.997832, 129, 345, 256, 376
-0.997836, 241, 101, 256, 132
-0.997851, 1, 193, 128, 224
-0.997856, 305, 173, 320, 204
-0.99786, 17, 225, 48, 352
-0.997862, 61, 161, 92, 416
-0.997874, 105, 161, 136, 416
-0.997881, 289, 181, 304, 212
-0.997891, 265, 337, 296, 464
-0.997895, 235, 269, 250, 300
-0.997898, 209, 81, 335, 112
-0.997912, 227, 269, 242, 300
-0.997918, 285, 97, 316, 352
-0.997923, 117, 253, 132, 284
-0.99793, 113, 173, 240, 204
-0.997932, 211, 241, 226, 272
-0.997933, 225, 141, 240, 172
-0.997933, 313, 169, 328, 200
-0.997935, 85, 145, 100, 176
-0.997959, 277, 193, 308, 448
-0.997968, 155, 121, 170, 152
-0.997974, 45, 157, 60, 188
-0.997976, 251, 89, 266, 120
-0.997979, 207, 193, 222, 224
-0.997985, 169, 137, 184, 168
-0.997995, 1, 297, 335, 360
-0.998003, 221, 233, 236, 264
-0.998008, 163, 113, 178, 144
-0.998018, 215, 229, 230, 260
-0.998019, 207, 145, 222, 176
-0.99802, 77, 137, 92, 168
-0.998023, 137, 137, 152, 168
-0.998024, 125, 1, 156, 256
-0.998026, 209, 165, 335, 196
-0.998034, 193, 65, 320, 96
-0.998035, 233, 149, 248, 180
-0.998042, 239, 153, 254, 184
-0.99805, 125, 293, 140, 324
-0.998053, 165, 93, 180, 124
-0.998055, 219, 141, 234, 172
-0.998056, 253, 153, 268, 184
-0.998058, 37, 161, 68, 416
-0.998061, 95, 141, 110, 172
-0.998065, 161, 469, 288, 500
-0.998068, 71, 145, 86, 176
-0.998069, 85, 129, 116, 384
-0.998074, 209, 45, 335, 76
-0.998079, 151, 269, 166, 300
-0.998079, 273, 353, 335, 480
-0.998083, 209, 369, 335, 432
-0.998085, 293, 41, 308, 72
-0.998094, 303, 29, 318, 60
-0.998095, 305, 221, 320, 252
-0.998098, 263, 161, 278, 192
-0.998105, 111, 141, 126, 172
-0.998109, 247, 153, 262, 184
-0.998115, 175, 137, 190, 168
-0.998115, 261, 65, 292, 320
-0.998116, 17, 257, 48, 500
-0.998118, 117, 141, 132, 172
-0.998121, 123, 141, 138, 172
-0.998121, 247, 469, 262, 500
-0.998124, 177, 361, 304, 392
-0.998127, 311, 21, 326, 52
-0.998127, 119, 237, 134, 268
-0.998133, 101, 145, 116, 176
-0.998141, 285, 49, 300, 80
-0.998142, 91, 269, 106, 300
-0.998145, 65, 1, 320, 64
-0.998146, 113, 125, 128, 156
-0.998147, 149, 17, 180, 144
-0.998147, 311, 201, 326, 232
-0.998151, 321, 9, 335, 40
-0.998153, 253, 469, 268, 500
-0.998158, 3, 377, 18, 408
-0.998159, 243, 197, 258, 228
-0.998161, 73, 269, 88, 300
-0.998164, 117, 221, 132, 252
-0.998172, 1, 365, 16, 396
-0.998176, 117, 193, 132, 224
-0.998178, 105, 269, 120, 300
-0.998179, 81, 285, 96, 316
-0.998185, 181, 109, 196, 140
-0.998188, 179, 269, 194, 300
-0.998189, 105, 253, 120, 284
-0.998199, 241, 269, 256, 300
-0.998202, 165, 269, 180, 300
-0.998202, 101, 133, 116, 164
-0.998204, 273, 169, 288, 200
-0.998204, 201, 145, 216, 176
-0.998207, 271, 65, 286, 96
-0.998209, 95, 365, 110, 396
-0.998212, 237, 193, 268, 448
-0.998215, 171, 93, 186, 124
-0.998217, 17, 169, 144, 200
-0.998223, 159, 269, 174, 300
-0.998226, 117, 269, 132, 300
-0.998226, 179, 121, 194, 152
-0.998227, 221, 265, 236, 296
-0.998228, 297, 177, 312, 208
-0.998241, 233, 133, 248, 164
-0.998245, 177, 49, 208, 176
-0.998246, 213, 149, 228, 180
-0.998251, 297, 193, 328, 448
-0.998253, 111, 253, 126, 284
-0.998254, 209, 425, 272, 488
-0.998257, 249, 401, 312, 464
-0.998257, 45, 289, 60, 320
-0.998263, 279, 217, 294, 248
-0.99827, 159, 93, 174, 124
-0.998275, 9, 369, 24, 400
-0.998275, 321, 205, 335, 236
-0.998276, 241, 289, 272, 416
-0.998276, 131, 141, 146, 172
-0.998282, 95, 253, 110, 284
-0.998283, 155, 365, 170, 396
-0.998284, 41, 33, 104, 288
-0.998285, 261, 77, 276, 108
-0.998286, 207, 269, 222, 300
-0.998287, 97, 353, 112, 384
-0.998288, 143, 133, 158, 164
-0.998289, 49, 377, 176, 408
-0.998294, 273, 205, 288, 236
-0.998299, 277, 57, 292, 88
-0.998301, 1, 377, 128, 408
-0.998319, 203, 233, 218, 264
-0.99832, 35, 293, 50, 324
-0.998329, 171, 269, 186, 300
-0.998329, 113, 233, 128, 264
-0.998332, 87, 349, 102, 380
-0.998335, 243, 141, 258, 172
-0.998343, 49, 409, 176, 472
-0.998343, 105, 17, 168, 144
-0.998344, 85, 269, 100, 300
-0.998352, 87, 253, 102, 284
-0.998357, 1, 73, 335, 136
-0.998358, 9, 373, 40, 388
-0.998358, 217, 265, 248, 280
-0.998358, 285, 201, 316, 216
-0.998358, 277, 193, 308, 208
-0.998358, 173, 117, 204, 132
-0.998359, 73, 261, 104, 276
-0.99836, 41, 153, 72, 168
-0.998361, 265, 199, 296, 214
-0.998361, 305, 31, 335, 46
-0.998361, 169, 157, 200, 172
-0.998361, 125, 203, 156, 218
-0.998361, 161, 265, 192, 280
-0.998361, 41, 283, 72, 298
-0.998361, 125, 119, 156, 134
-0.998362, 213, 135, 244, 150
-0.998362, 185, 261, 216, 276
-0.998363, 1, 217, 128, 248
-0.998363, 305, 239, 335, 254
-0.998364, 169, 363, 200, 378
-0.998364, 249, 265, 280, 280
-0.998365, 79, 269, 94, 300
-0.998366, 133, 109, 164, 124
-0.998366, 129, 135, 160, 150
-0.998366, 77, 149, 92, 180
-0.998366, 165, 101, 196, 116
-0.998368, 261, 485, 292, 500
-0.998368, 57, 289, 88, 304
-0.99837, 105, 123, 136, 138
-0.99837, 269, 209, 300, 224
-0.998371, 165, 127, 196, 142
-0.998372, 289, 215, 320, 230
-0.998373, 57, 159, 88, 174
-0.998373, 229, 199, 260, 214
-0.998373, 297, 39, 328, 54
-0.998373, 105, 157, 136, 172
-0.998373, 249, 211, 280, 226
-0.998374, 201, 227, 232, 242
-0.998375, 149, 259, 180, 274
-0.998375, 257, 85, 288, 100
-0.998375, 141, 101, 172, 116
-0.998376, 253, 193, 284, 208
-0.998376, 225, 125, 256, 140
-0.998378, 185, 361, 200, 392
-0.998378, 289, 187, 320, 202
-0.998379, 265, 187, 296, 202
-0.998379, 77, 157, 108, 172
-0.998379, 149, 367, 180, 382
-0.99838, 65, 141, 96, 156
-0.99838, 129, 253, 160, 268
-0.99838, 73, 301, 104, 316
-0.998381, 17, 325, 48, 340
-0.998384, 193, 97, 224, 352
-0.998384, 83, 369, 98, 400
-0.998384, 121, 157, 152, 172
-0.998384, 97, 269, 112, 300
-0.998384, 213, 269, 228, 300
-0.998385, 181, 195, 212, 210
-0.998385, 141, 105, 156, 136
-0.998385, 237, 473, 268, 488
-0.998386, 273, 65, 304, 80
-0.998386, 81, 363, 112, 378
-0.998386, 25, 353, 56, 368
-0.998387, 281, 249, 296, 280
-0.998388, 173, 135, 204, 150
-0.998388, 65, 149, 96, 164
-0.998389, 253, 205, 284, 220
-0.998389, 77, 139, 108, 154
-0.998389, 165, 357, 180, 388
-0.998389, 149, 185, 180, 200
-0.99839, 93, 357, 124, 372
-0.998392, 205, 159, 236, 174
-0.998392, 25, 297, 56, 312
-0.998393, 149, 265, 180, 280
-0.998393, 301, 181, 332, 196
-0.998393, 85, 351, 116, 366
-0.998394, 33, 309, 48, 340
-0.998396, 73, 253, 104, 268
-0.998397, 181, 229, 212, 244
-0.998399, 129, 373, 256, 404
-0.9984, 195, 145, 210, 176
-0.9984, 181, 249, 212, 264
-0.998401, 105, 235, 136, 250
-0.998401, 257, 479, 288, 494
-0.998402, 293, 243, 324, 258
-0.998403, 41, 289, 72, 304
-0.998403, 105, 255, 136, 270
-0.998403, 201, 255, 232, 270
-0.998405, 181, 237, 212, 252
-0.998406, 289, 175, 320, 190
-0.998408, 221, 161, 252, 176
-0.998408, 305, 247, 335, 262
-0.998408, 249, 93, 280, 108
-0.998411, 201, 249, 232, 264
-0.998412, 181, 243, 212, 258
-0.998412, 209, 33, 335, 64
-0.998413, 305, 203, 335, 218
-0.998413, 161, 107, 192, 122
-0.998416, 125, 261, 156, 276
-0.998418, 209, 13, 335, 44
-0.998418, 157, 157, 188, 172
-0.99842, 233, 163, 264, 178
-0.998422, 201, 239, 232, 254
-0.998422, 93, 157, 124, 172
-0.998424, 185, 201, 216, 216
-0.998424, 137, 17, 200, 80
-0.998426, 233, 269, 264, 284
-0.998428, 137, 125, 200, 140
-0.998428, 269, 181, 300, 196
-0.99843, 181, 211, 212, 226
-0.998432, 201, 197, 232, 212
-0.998433, 181, 217, 212, 232
-0.998434, 93, 363, 124, 378
-0.998435, 165, 357, 196, 372
-0.998439, 301, 169, 332, 184
-0.998441, 181, 189, 212, 204
-0.998444, 145, 115, 176, 130
-0.998445, 137, 135, 200, 150
-0.998445, 217, 151, 248, 166
-0.998447, 157, 115, 188, 130
-0.998448, 181, 223, 212, 238
-0.998453, 213, 129, 244, 144
-0.998456, 229, 153, 260, 168
-0.998456, 125, 125, 156, 140
-0.998457, 141, 157, 172, 172
-0.998457, 89, 137, 120, 152
-0.998458, 253, 199, 284, 214
-0.99846, 105, 129, 136, 144
-0.998461, 209, 141, 240, 156
-0.998462, 289, 181, 320, 196
-0.998462, 233, 111, 264, 126
-0.998463, 157, 135, 188, 150
-0.998466, 53, 151, 84, 166
-0.998467, 241, 103, 272, 118
-0.99847, 249, 165, 280, 180
-0.99847, 201, 233, 232, 248
-0.998473, 249, 257, 280, 500
-0.998477, 265, 193, 296, 208
-0.998479, 145, 107, 176, 122
-0.998482, 169, 133, 232, 148
-0.998484, 1, 97, 128, 160
-0.998484, 225, 119, 256, 134
-0.998485, 45, 159, 76, 174
-0.998491, 161, 121, 192, 136
-0.998501, 49, 149, 112, 164
-0.998503, 137, 119, 200, 134
-0.998504, 113, 117, 176, 132
-0.998505, 41, 157, 104, 172
-0.998508, 145, 121, 176, 136
-0.99851, 145, 241, 208, 256
-0.998512, 241, 479, 272, 494
-0.998512, 241, 157, 272, 172
-0.998514, 1, 409, 256, 472
-0.998517, 277, 187, 308, 202
-0.998519, 209, 151, 272, 166
-0.998522, 41, 289, 104, 304
-0.998525, 201, 199, 264, 214
-0.998534, 97, 129, 160, 144
-0.998535, 113, 261, 176, 276
-0.998535, 129, 141, 192, 156
-0.99854, 145, 97, 208, 112
-0.99854, 209, 133, 272, 148
-0.998541, 145, 247, 208, 262
-0.998542, 73, 255, 136, 270
-0.998546, 177, 265, 240, 280
-0.998546, 73, 261, 136, 276
-0.998552, 217, 161, 280, 176
-0.998553, 145, 221, 208, 236
-0.998555, 161, 231, 224, 246
-0.998557, 145, 255, 208, 270
-0.998557, 301, 175, 332, 190
-0.998558, 145, 135, 176, 150
-0.998558, 153, 127, 184, 142
-0.998564, 105, 235, 168, 250
-0.998565, 137, 157, 200, 172
-0.998565, 169, 139, 232, 154
-0.998569, 249, 485, 280, 500
-0.998571, 73, 233, 136, 248
-0.998571, 105, 123, 168, 138
-0.998572, 241, 97, 304, 112
-0.998575, 265, 191, 328, 206
-0.998576, 145, 261, 208, 276
-0.998576, 105, 251, 168, 266
-0.998578, 249, 255, 312, 270
-0.998578, 201, 259, 264, 274
-0.998579, 177, 321, 304, 352
-0.998581, 193, 161, 256, 176
-0.998581, 249, 247, 312, 262
-0.998582, 121, 187, 184, 202
-0.998582, 65, 157, 128, 172
-0.998582, 73, 197, 136, 212
-0.998582, 169, 127, 232, 142
-0.998584, 177, 237, 240, 252
-0.998584, 105, 267, 168, 282
-0.998587, 217, 483, 280, 498
-0.998588, 137, 103, 200, 118
-0.998588, 201, 241, 264, 256
-0.998589, 201, 193, 264, 208
-0.998589, 241, 219, 304, 234
-0.998589, 201, 229, 264, 244
-0.998592, 201, 251, 264, 266
-0.998593, 209, 125, 272, 140
-0.998595, 273, 221, 335, 236
-0.998595, 81, 137, 144, 152
-0.998596, 1, 363, 64, 378
-0.998597, 177, 247, 240, 262
-0.998597, 161, 215, 224, 230
-0.998597, 241, 267, 304, 282
-0.998598, 273, 185, 335, 200
-0.998599, 217, 117, 280, 132
-0.998599, 105, 213, 168, 228
-0.9986, 273, 179, 335, 194
-0.9986, 225, 109, 288, 124
-0.998601, 241, 91, 304, 106
-0.998601, 137, 209, 200, 224
-0.998602, 153, 361, 216, 376
-0.998605, 249, 197, 312, 212
-0.998605, 161, 157, 224, 172
-0.998605, 177, 221, 240, 236
-0.998605, 273, 253, 335, 268
-0.998606, 81, 303, 144, 318
-0.998606, 161, 209, 224, 224
-0.998606, 201, 235, 264, 250
-0.998606, 89, 157, 152, 172
-0.998607, 105, 245, 168, 260
-0.998608, 113, 205, 176, 220
-0.998609, 249, 203, 312, 218
-0.998609, 161, 203, 224, 218
-0.99861, 265, 213, 328, 228
-0.99861, 33, 207, 96, 222
-0.998611, 265, 63, 328, 78
-0.998611, 193, 141, 256, 156
-0.998612, 201, 223, 264, 238
-0.998612, 1, 371, 64, 386
-0.998612, 233, 103, 296, 118
-0.998612, 177, 253, 240, 268
-0.998616, 145, 97, 160, 224
-0.998618, 137, 215, 200, 230
-0.998618, 137, 199, 200, 214
-0.998618, 137, 235, 200, 250
-0.998619, 249, 485, 312, 500
-0.998621, 169, 121, 232, 136
-0.998621, 105, 229, 168, 244
-0.998622, 241, 479, 304, 494
-0.998622, 265, 71, 328, 86
-0.998622, 33, 265, 96, 280
-0.998623, 177, 259, 240, 274
-0.998625, 121, 193, 184, 208
-0.998625, 249, 261, 312, 276
-0.998625, 241, 191, 304, 206
-0.998625, 209, 477, 272, 492
-0.998626, 97, 189, 160, 204
-0.998626, 273, 173, 335, 188
-0.998627, 153, 97, 184, 112
-0.998628, 81, 297, 144, 312
-0.998628, 33, 197, 96, 212
-0.998629, 241, 225, 304, 240
-0.99863, 185, 147, 248, 162
-0.99863, 73, 207, 136, 222
-0.998631, 145, 271, 208, 286
-0.998633, 113, 199, 176, 214
-0.998633, 201, 217, 264, 232
-0.998634, 81, 369, 144, 384
-0.998636, 177, 197, 240, 212
-0.998636, 241, 161, 304, 176
-0.998637, 33, 191, 96, 206
-0.998638, 225, 199, 288, 214
-0.998638, 201, 211, 264, 226
-0.998638, 113, 157, 176, 172
-0.998639, 153, 375, 216, 390
-0.998639, 121, 367, 184, 382
-0.99864, 121, 95, 184, 110
-0.99864, 257, 77, 320, 92
-0.99864, 241, 235, 304, 250
-0.99864, 241, 209, 304, 224
-0.998641, 121, 373, 184, 388
-0.998641, 57, 139, 120, 154
-0.998642, 41, 163, 104, 178
-0.998644, 17, 289, 80, 304
-0.998645, 137, 227, 200, 242
-0.998645, 1, 281, 64, 296
-0.998646, 265, 97, 328, 112
-0.998646, 33, 213, 96, 228
-0.998669, 173, 97, 188, 224
-0.998671, 177, 349, 304, 380
-0.998673, 217, 113, 232, 240
-0.998686, 29, 369, 60, 496
-0.998705, 301, 257, 332, 384
-0.998737, 209, 177, 224, 304
-0.998743, 317, 1, 332, 128
-0.998766, 153, 113, 168, 240
-0.998781, 165, 113, 180, 240
-0.998788, 99, 113, 114, 240
-0.998799, 265, 289, 296, 416
-0.998824, 245, 97, 260, 224
-0.998833, 223, 113, 238, 240
-0.998846, 207, 129, 222, 256
-0.998861, 287, 161, 302, 288
-0.998862, 177, 309, 304, 340
-0.998863, 237, 353, 268, 480
-0.998877, 33, 121, 160, 152
-0.998906, 105, 113, 120, 240
-0.99891, 281, 177, 296, 304
-0.998914, 33, 385, 288, 448
-0.998922, 17, 465, 144, 496
-0.998932, 93, 113, 108, 240
-0.998933, 43, 273, 58, 400
-0.99894, 117, 193, 132, 320
-0.998947, 185, 129, 200, 256
-0.998948, 1, 425, 128, 456
-0.99895, 229, 97, 244, 224
-0.998954, 117, 113, 132, 240
-0.998955, 255, 65, 270, 192
-0.998965, 221, 177, 236, 304
-0.998966, 139, 113, 154, 240
-0.998969, 215, 209, 230, 336
-0.998976, 177, 193, 192, 320
-0.998979, 321, 145, 335, 272
-0.998979, 35, 273, 50, 400
-0.998986, 179, 113, 194, 240
-0.998988, 81, 1, 208, 32
-0.99899, 97, 297, 224, 328
-0.999002, 311, 1, 326, 128
-0.999002, 239, 97, 254, 224
-0.999014, 201, 193, 216, 320
-0.999015, 305, 17, 320, 144
-0.999018, 177, 297, 304, 328
-0.99902, 149, 177, 164, 304
-0.99902, 65, 321, 192, 352
-0.999021, 1, 389, 128, 420
-0.999024, 159, 81, 174, 208
-0.999036, 97, 65, 160, 128
-0.999036, 87, 113, 102, 240
-0.999052, 267, 65, 282, 192
-0.999059, 253, 145, 268, 272
-0.999068, 107, 161, 122, 288
-0.999071, 293, 353, 324, 480
-0.999073, 1, 181, 128, 212
-0.999074, 111, 113, 126, 240
-0.999075, 123, 273, 138, 400
-0.999087, 241, 177, 256, 304
-0.99909, 127, 113, 142, 240
-0.999091, 199, 129, 214, 256
-0.999105, 287, 33, 302, 160
-0.999106, 305, 177, 320, 304
-0.999107, 299, 17, 314, 144
-0.999118, 129, 1, 256, 32
-0.999121, 97, 161, 112, 288
-0.999126, 275, 161, 290, 288
-0.999126, 97, 469, 224, 500
-0.999127, 157, 177, 172, 304
-0.999145, 65, 89, 192, 120
-0.999146, 161, 1, 192, 256
-0.999147, 227, 177, 242, 304
-0.99915, 25, 433, 88, 496
-0.99915, 117, 289, 132, 416
-0.999155, 261, 65, 276, 192
-0.999156, 215, 161, 230, 288
-0.999157, 275, 49, 290, 176
-0.999159, 1, 305, 16, 432
-0.999162, 159, 129, 174, 256
-0.999177, 281, 33, 296, 160
-0.999178, 171, 145, 186, 272
-0.999181, 137, 273, 152, 400
-0.999183, 293, 33, 308, 160
-0.999186, 1, 413, 128, 444
-0.999186, 79, 273, 94, 400
-0.999189, 75, 113, 90, 240
-0.999191, 297, 177, 312, 304
-0.999193, 81, 129, 96, 256
-0.999194, 313, 161, 328, 288
-0.999201, 151, 65, 166, 192
-0.999204, 69, 273, 84, 400
-0.999208, 139, 161, 154, 288
-0.999209, 73, 225, 88, 352
-0.999211, 177, 337, 304, 368
-0.999216, 91, 161, 106, 288
-0.999217, 29, 273, 44, 400
-0.999219, 7, 321, 22, 448
-0.999221, 149, 241, 164, 368
-0.999226, 203, 241, 218, 368
-0.999227, 209, 465, 335, 496
-0.999236, 37, 321, 52, 448
-0.999242, 13, 289, 28, 416
-0.999247, 105, 209, 120, 336
-0.999248, 289, 209, 304, 336
-0.999248, 217, 1, 248, 256
-0.999249, 19, 353, 34, 480
-0.999249, 97, 273, 112, 400
-0.999249, 19, 289, 34, 416
-0.999254, 133, 113, 148, 240
-0.999257, 169, 193, 184, 320
-0.999264, 275, 209, 290, 336
-0.999265, 75, 161, 90, 288
-0.999265, 139, 209, 154, 336
-0.999265, 131, 289, 146, 416
-0.999267, 161, 241, 176, 368
-0.999268, 49, 273, 64, 400
-0.999268, 1, 25, 335, 88
-0.999273, 163, 177, 178, 304
-0.999273, 189, 337, 220, 464
-0.999277, 127, 225, 142, 352
-0.999277, 197, 273, 212, 400
-0.999284, 209, 241, 224, 368
-0.999287, 99, 225, 114, 352
-0.999288, 187, 209, 202, 336
-0.999289, 65, 169, 192, 200
-0.999292, 13, 353, 28, 480
-0.999294, 111, 209, 126, 336
-0.9993, 59, 273, 74, 400
-0.999301, 65, 129, 80, 256
-0.999302, 221, 241, 236, 368
-0.999304, 25, 161, 56, 416
-0.999305, 137, 65, 152, 192
-0.999305, 155, 241, 170, 368
-0.999307, 275, 113, 290, 240
-0.99931, 193, 129, 208, 256
-0.99931, 247, 193, 262, 320
-0.999315, 89, 225, 104, 352
-0.999319, 283, 81, 298, 208
-0.999319, 1, 449, 128, 480
-0.99932, 89, 273, 104, 400
-0.999321, 233, 177, 248, 304
-0.999324, 179, 241, 194, 368
-0.999329, 111, 273, 126, 400
-0.999336, 313, 209, 328, 336
-0.999338, 25, 321, 40, 448
-0.999341, 83, 225, 98, 352
-0.999346, 117, 241, 132, 368
-0.999348, 167, 241, 182, 368
-0.99935, 97, 337, 112, 464
-0.999352, 105, 273, 120, 400
-0.999353, 269, 113, 284, 240
-0.999358, 113, 321, 240, 352
-0.999364, 73, 65, 104, 320
-0.999367, 193, 225, 208, 352
-0.999368, 1, 369, 16, 496
-0.999375, 31, 321, 46, 448
-0.999384, 85, 177, 100, 304
-0.999384, 37, 225, 52, 352
-0.999384, 305, 225, 320, 352
-0.999386, 243, 241, 258, 368
-0.999387, 57, 129, 72, 256
-0.999391, 191, 273, 206, 400
-0.999397, 259, 113, 274, 240
-0.999397, 185, 257, 200, 384
-0.999414, 261, 257, 292, 500
-0.999419, 209, 429, 335, 460
-0.999424, 81, 309, 208, 340
-0.999447, 237, 1, 268, 256
-0.999457, 81, 65, 112, 192
-0.999471, 101, 65, 132, 320
-0.999472, 209, 1, 335, 32
-0.999473, 97, 457, 224, 488
-0.999479, 33, 109, 160, 140
-0.99955, 129, 385, 256, 416
-0.999565, 291, 243, 306, 258
-0.999567, 311, 201, 326, 216
-0.999567, 207, 197, 222, 212
-0.999567, 155, 121, 170, 136
-0.999568, 279, 181, 294, 196
-0.999568, 259, 83, 274, 98
-0.999568, 285, 125, 300, 140
-0.999568, 285, 247, 300, 262
-0.999568, 287, 177, 302, 192
-0.999568, 271, 71, 286, 86
-0.999568, 3, 379, 18, 394
-0.999568, 1, 371, 16, 386
-0.999568, 117, 131, 132, 146
-0.999569, 253, 151, 268, 166
-0.999569, 273, 207, 288, 222
-0.99957, 175, 141, 190, 156
-0.999572, 217, 265, 232, 280
-0.999572, 287, 207, 302, 222
-0.999572, 219, 239, 234, 254
-0.999573, 253, 89, 268, 104
-0.999573, 209, 249, 224, 264
-0.999573, 171, 157, 186, 172
-0.999573, 243, 473, 258, 488
-0.999574, 279, 59, 294, 74
-0.999574, 95, 157, 110, 172
-0.999574, 61, 159, 76, 174
-0.999574, 235, 269, 250, 284
-0.999575, 125, 291, 140, 306
-0.999575, 45, 165, 60, 180
-0.999575, 75, 263, 90, 278
-0.999576, 297, 39, 312, 54
-0.999576, 175, 101, 190, 116
-0.999576, 107, 157, 122, 172
-0.999577, 291, 45, 306, 60
-0.999578, 251, 163, 266, 178
-0.999578, 283, 219, 298, 234
-0.999578, 165, 367, 180, 382
-0.999578, 75, 251, 90, 266
-0.999579, 275, 133, 290, 148
-0.999579, 227, 117, 242, 132
-0.999579, 149, 185, 164, 200
-0.99958, 233, 151, 248, 166
-0.99958, 35, 299, 50, 314
-0.999582, 209, 141, 224, 156
-0.999582, 305, 221, 320, 236
-0.999582, 245, 103, 260, 118
-0.999583, 217, 245, 232, 260
-0.999584, 247, 95, 262, 110
-0.999584, 101, 157, 116, 172
-0.999584, 233, 161, 248, 176
-0.999585, 149, 129, 164, 144
-0.999585, 223, 267, 238, 282
-0.999585, 305, 179, 320, 194
-0.999586, 317, 99, 332, 114
-0.999586, 305, 29, 320, 44
-0.999586, 9, 375, 24, 390
-0.999587, 289, 189, 304, 204
-0.999587, 233, 111, 248, 126
-0.999587, 73, 141, 88, 156
-0.999589, 149, 157, 164, 172
-0.999589, 319, 173, 334, 188
-0.99959, 117, 257, 132, 272
-0.99959, 161, 457, 288, 488
-0.999591, 305, 109, 320, 124
-0.999591, 159, 127, 174, 142
-0.999592, 153, 109, 168, 124
-0.999592, 319, 13, 334, 28
-0.999597, 159, 135, 174, 150
-0.999598, 91, 137, 106, 152
-0.999598, 171, 115, 186, 130
-0.9996, 217, 259, 232, 274
-0.9996, 211, 235, 226, 250
-0.999604, 311, 207, 326, 222
-0.999604, 279, 201, 294, 216
-0.999605, 313, 21, 328, 36
-0.999605, 225, 125, 240, 140
-0.999606, 289, 217, 304, 232
-0.999606, 239, 153, 254, 168
-0.999607, 293, 183, 308, 198
-0.999607, 221, 143, 236, 158
-0.999608, 117, 235, 132, 250
-0.999608, 279, 207, 294, 222
-0.999609, 245, 155, 260, 170
-0.999609, 155, 157, 170, 172
-0.999609, 171, 127, 186, 142
-0.999609, 311, 105, 326, 120
-0.99961, 211, 241, 226, 256
-0.99961, 273, 189, 288, 204
-0.999612, 155, 367, 170, 382
-0.999612, 165, 157, 180, 172
-0.999613, 143, 157, 158, 172
-0.999618, 317, 203, 332, 218
-0.999619, 273, 201, 288, 216
-0.99962, 261, 163, 276, 178
-0.999629, 283, 213, 298, 228
-0.999629, 145, 135, 160, 150
-0.999632, 125, 307, 140, 322
-0.999632, 121, 297, 136, 312
-0.999634, 297, 177, 312, 192
-0.999635, 219, 233, 234, 248
-0.999637, 257, 477, 272, 492
-0.999639, 215, 133, 230, 148
-0.99964, 165, 119, 180, 134
-0.99964, 59, 151, 74, 166
-0.999643, 215, 141, 230, 156
-0.999645, 283, 193, 298, 208
-0.999645, 169, 97, 184, 112
-0.999646, 161, 95, 176, 110
-0.999655, 175, 107, 190, 122
-0.999657, 175, 133, 190, 148
-0.999657, 305, 173, 320, 188
-0.999661, 149, 101, 164, 116
-0.999663, 49, 157, 64, 172
-0.999665, 253, 157, 268, 172
-0.999665, 313, 169, 328, 184
-0.999668, 265, 485, 280, 500
-0.999668, 53, 151, 68, 166
-0.999671, 173, 121, 188, 136
-0.999676, 287, 183, 302, 198
-0.999678, 165, 135, 180, 150
-0.999679, 155, 97, 170, 112
-0.999684, 147, 113, 162, 128
-0.999686, 1, 437, 128, 468
-0.999686, 1, 401, 128, 432
-0.99969, 277, 289, 308, 416
-0.999694, 255, 483, 270, 498
-0.999695, 165, 127, 180, 142
-0.999697, 147, 107, 162, 122
-0.999704, 149, 119, 164, 134
-0.999715, 119, 125, 134, 140
-0.99972, 321, 165, 335, 180
-0.999726, 1, 433, 256, 496
-0.999736, 249, 477, 264, 492
-0.99974, 113, 33, 144, 288
-0.999755, 279, 187, 294, 202
-0.999756, 273, 195, 288, 210
-0.99978, 161, 53, 288, 84
-0.999789, 113, 89, 240, 120
-0.999804, 81, 445, 208, 476
-0.999804, 209, 409, 335, 440
-0.999821, 213, 353, 244, 480
-0.999856, 193, 445, 320, 476
-0.999899, 89, 33, 120, 288
-0.999913, 113, 53, 240, 84
-0.999919, 173, 1, 204, 256
-0.999935, 65, 389, 192, 420
-0.999956, 129, 309, 256, 340
-0.99998, 209, 373, 335, 404
-1.00003, 61, 65, 92, 320
-1.00004, 205, 1, 236, 256
-1.00007, 145, 445, 272, 476
-1.00011, 49, 53, 176, 84
-1.00012, 49, 421, 176, 452
-1.00015, 49, 409, 176, 440
-1.00016, 49, 433, 176, 464
-1.00016, 189, 1, 220, 256
-1.00026, 209, 397, 335, 428
-1.00026, 13, 161, 44, 416
-1.00026, 65, 77, 192, 108
-1.00029, 161, 409, 288, 472
-1.00031, 145, 65, 272, 96
-1.00038, 161, 417, 288, 448
-1.0004, 129, 41, 256, 72
-1.00042, 113, 433, 240, 464
-1.00042, 17, 97, 144, 128
-1.00043, 33, 41, 160, 72
-1.00053, 81, 1, 208, 64
-1.00054, 1, 369, 335, 432
-1.00065, 1, 401, 335, 464
-1.00065, 49, 33, 80, 288
-1.00068, 97, 409, 224, 472
-1.00069, 1, 161, 32, 416
-1.00074, 1, 425, 335, 488
-1.00074, 293, 305, 324, 432
-1.00078, 305, 353, 335, 480
-1.00078, 57, 49, 120, 176
-1.00079, 281, 337, 312, 464
-1.00087, 37, 65, 68, 320
-1.00096, 29, 177, 60, 304
-1.001, 41, 81, 72, 208
-1.00108, 97, 49, 224, 112
-1.00114, 225, 337, 256, 464
-1.00118, 49, 49, 176, 112
-1.00119, 25, 81, 88, 208
-1.00119, 69, 65, 100, 192
-1.00132, 249, 337, 280, 464
-1.00133, 25, 33, 56, 288
-1.00139, 1, 1, 335, 64
-1.00153, 1, 49, 335, 112
-1.00175, 129, 1, 256, 64
-1.0018, 13, 65, 44, 320
-1.00181, 1, 1, 32, 256
-1.00188, 209, 17, 272, 144
-1.00229, 113, 25, 240, 88
-1.0024, 33, 25, 160, 88
-1.00291, 1, 1, 128, 64
-1.00315, 1, 33, 64, 288
-1.00324, 1, 49, 128, 112
-1.00581, 81, 1, 144, 128
-1.00995, 1, 1, 128, 128
-1.01366, 1, 49, 64, 176
-1.01378, 33, 33, 96, 160
-1.01478, 9, 1, 72, 128
-1.01607, 57, 1, 120, 128
