1870
-0.564628, 1, 65, 500, 320
-0.64298, 1, 1, 500, 322
-0.703309, 161, 1, 416, 322
-0.763197, 33, 1, 288, 322
-0.787406, 257, 1, 500, 322
-0.797996, 161, 65, 416, 320
-0.832296, 33, 65, 288, 320
-0.877805, 257, 65, 500, 320
-0.91252, 289, 65, 416, 320
-0.913913, 1, 113, 500, 240
-0.917666, 305, 1, 432, 322
-0.919573, 129, 65, 256, 320
-0.920297, 49, 65, 176, 320
-0.924554, 337, 65, 464, 320
-0.92537, 97, 113, 352, 240
-0.926349, 177, 65, 304, 320
-0.926764, 49, 1, 176, 322
-0.927485, 193, 1, 320, 322
-0.93023, 257, 1, 384, 322
-0.931855, 353, 1, 480, 322
-0.933731, 145, 1, 272, 322
-0.934132, 1, 129, 256, 256
-0.935643, 225, 129, 480, 256
-0.937809, 97, 1, 224, 322
-0.939001, 305, 129, 432, 256
-0.941144, 345, 113, 408, 240
-0.941903, 241, 65, 368, 320
-0.946214, 33, 145, 160, 272
-0.946327, 113, 129, 240, 256
-0.947775, 1, 177, 500, 304
-0.948224, 1, 65, 128, 320
-0.951435, 193, 81, 448, 208
-0.951739, 73, 145, 136, 272
-0.952841, 209, 129, 336, 256
-0.954788, 193, 193, 448, 320
-0.954942, 1, 1, 128, 322
-0.956801, 113, 129, 176, 256
-0.958346, 321, 113, 384, 240
-0.961352, 345, 105, 408, 168
-0.961968, 297, 129, 360, 256
-0.962099, 257, 129, 320, 256
-0.96223, 369, 129, 432, 256
-0.962581, 1, 177, 256, 304
-0.962702, 257, 129, 384, 256
-0.963179, 161, 113, 288, 240
-0.963496, 41, 113, 104, 240
-0.964863, 289, 81, 416, 208
-0.964915, 145, 129, 208, 256
-0.965447, 97, 161, 352, 288
-0.965616, 353, 113, 480, 240
-0.965683, 73, 153, 136, 216
-0.966756, 273, 193, 400, 320
-0.967274, 33, 97, 160, 224
-0.968125, 345, 129, 408, 192
-0.968874, 129, 193, 256, 320
-0.970155, 1, 65, 500, 192
-0.970229, 337, 65, 400, 192
-0.970268, 97, 145, 160, 208
-0.970355, 369, 81, 432, 208
-0.970439, 393, 129, 456, 256
-0.970595, 169, 129, 232, 256
-0.970688, 305, 185, 368, 248
-0.97073, 345, 161, 408, 288
-0.971412, 81, 177, 208, 304
-0.971488, 193, 113, 256, 240
-0.971488, 217, 113, 280, 240
-0.971901, 1, 65, 256, 192
-0.972787, 337, 177, 464, 304
-0.97298, 369, 137, 432, 200
-0.973233, 145, 201, 208, 264
-0.973409, 321, 129, 384, 192
-0.974126, 305, 161, 368, 224
-0.974134, 393, 177, 456, 304
-0.974405, 369, 105, 400, 168
-0.975162, 369, 193, 432, 320
-0.975858, 121, 137, 184, 200
-0.976302, 369, 97, 400, 224
-0.97638, 297, 193, 360, 320
-0.976461, 297, 209, 360, 272
-0.976546, 17, 97, 80, 224
-0.976565, 65, 129, 128, 192
-0.977159, 225, 177, 352, 304
-0.977272, 49, 153, 176, 216
-0.977994, 89, 97, 152, 224
-0.978015, 89, 145, 120, 208
-0.9781, 169, 209, 232, 272
-0.978229, 41, 129, 104, 192
-0.97831, 41, 161, 104, 224
-0.978355, 305, 129, 432, 192
-0.978526, 121, 177, 184, 304
-0.978699, 145, 129, 208, 192
-0.978736, 345, 129, 376, 192
-0.978781, 273, 217, 336, 280
-0.978878, 297, 137, 360, 200
-0.978935, 241, 81, 368, 208
-0.979021, 121, 193, 184, 256
-0.979331, 145, 193, 208, 320
-0.979771, 265, 185, 328, 248
-0.979993, 97, 121, 160, 184
-0.980268, 33, 193, 160, 320
-0.980495, 345, 169, 408, 232
-0.980733, 169, 193, 232, 320
-0.980805, 353, 65, 480, 192
-0.980966, 113, 225, 176, 288
-0.981356, 345, 65, 408, 320
-0.981451, 433, 129, 496, 256
-0.981783, 357, 97, 388, 224
-0.981832, 373, 137, 404, 200
-0.981899, 321, 161, 384, 288
-0.982039, 193, 193, 256, 320
-0.982069, 353, 209, 416, 272
-0.982071, 133, 129, 164, 256
-0.982182, 97, 137, 224, 200
-0.982202, 393, 137, 456, 200
-0.98229, 285, 145, 316, 272
-0.982359, 185, 185, 248, 248
-0.982402, 381, 97, 412, 224
-0.982512, 385, 169, 448, 232
-0.982576, 17, 113, 80, 176
-0.98258, 97, 201, 160, 264
-0.982599, 177, 121, 304, 184
-0.982657, 49, 161, 112, 288
-0.982784, 41, 193, 104, 256
-0.982788, 273, 193, 336, 320
-0.982855, 225, 121, 288, 184
-0.983006, 257, 129, 384, 192
-0.983108, 157, 129, 188, 256
-0.983191, 73, 177, 136, 240
-0.983206, 121, 145, 152, 272
-0.983265, 113, 137, 144, 200
-0.983329, 113, 81, 240, 208
-0.9835, 101, 153, 132, 216
-0.983519, 193, 113, 256, 176
-0.983577, 265, 161, 328, 224
-0.983584, 145, 177, 208, 240
-0.983746, 69, 145, 100, 208
-0.983767, 17, 129, 144, 192
-0.984023, 69, 129, 100, 256
-0.984049, 49, 185, 176, 248
-0.984161, 305, 129, 336, 256
-0.984162, 329, 193, 392, 256
-0.984318, 309, 185, 340, 248
-0.984489, 345, 129, 376, 256
-0.984512, 249, 129, 312, 192
-0.98455, 181, 201, 212, 264
-0.984573, 225, 161, 288, 288
-0.98472, 129, 177, 256, 240
-0.985061, 105, 145, 136, 272
-0.985095, 177, 177, 304, 304
-0.985303, 289, 201, 416, 264
-0.985345, 93, 145, 124, 272
-0.985368, 113, 81, 176, 208
-0.985603, 137, 225, 200, 288
-0.985609, 305, 177, 432, 240
-0.985629, 389, 145, 420, 272
-0.98565, 357, 121, 388, 184
-0.985708, 369, 113, 432, 176
-0.985805, 49, 113, 80, 240
-0.986281, 361, 145, 392, 272
-0.986439, 257, 81, 320, 208
-0.986446, 309, 177, 340, 304
-0.986495, 129, 201, 256, 264
-0.986694, 105, 169, 168, 232
-0.986702, 225, 153, 352, 216
-0.986718, 353, 137, 480, 200
-0.98674, 89, 193, 152, 320
-0.986824, 81, 129, 112, 256
-0.986843, 73, 201, 136, 264
-0.986931, 113, 161, 144, 224
-0.986948, 193, 209, 224, 272
-0.98697, 193, 185, 320, 248
-0.98699, 305, 153, 432, 216
-0.987001, 133, 193, 164, 256
-0.987008, 65, 97, 128, 224
-0.987073, 145, 129, 176, 256
-0.987204, 121, 193, 152, 256
-0.987314, 297, 81, 360, 208
-0.987386, 305, 65, 368, 320
-0.987479, 145, 65, 208, 192
-0.987577, 153, 129, 184, 192
-0.987579, 329, 225, 392, 288
-0.987622, 409, 161, 472, 224
-0.987649, 289, 97, 416, 160
-0.98765, 417, 137, 480, 200
-0.987751, 153, 153, 216, 216
-0.987835, 305, 241, 368, 304
-0.987888, 1, 153, 128, 216
-0.987937, 377, 145, 408, 272
-0.988011, 353, 113, 480, 176
-0.98811, 385, 193, 448, 256
-0.988151, 385, 137, 416, 200
-0.988225, 169, 129, 232, 192
-0.98823, 121, 113, 184, 176
-0.988255, 161, 65, 288, 192
-0.988301, 177, 161, 240, 224
-0.988322, 333, 113, 364, 240
-0.988344, 129, 153, 160, 216
-0.988367, 361, 233, 424, 296
-0.98841, 397, 193, 428, 320
-0.988413, 181, 129, 212, 256
-0.988525, 209, 193, 272, 256
-0.98868, 301, 209, 332, 272
-0.988689, 193, 113, 224, 240
-0.988704, 273, 137, 336, 200
-0.988754, 97, 65, 352, 192
-0.988805, 237, 113, 268, 240
-0.988957, 193, 65, 256, 320
-0.988988, 321, 113, 352, 240
-0.989071, 169, 257, 232, 320
-0.989096, 53, 129, 84, 192
-0.989152, 25, 161, 88, 288
-0.98921, 193, 33, 448, 160
-0.989231, 381, 113, 412, 176
-0.98931, 361, 145, 392, 208
-0.989477, 153, 193, 184, 256
-0.989517, 9, 185, 72, 248
-0.989609, 357, 97, 388, 160
-0.989651, 273, 225, 400, 288
-0.989652, 361, 209, 392, 272
-0.989712, 49, 49, 176, 176
-0.989774, 141, 137, 172, 200
-0.989796, 417, 193, 480, 320
-0.989805, 369, 65, 432, 320
-0.989807, 137, 257, 200, 320
-0.98985, 321, 105, 384, 168
-0.989863, 353, 169, 384, 232
-0.989888, 385, 193, 416, 320
-0.989931, 1, 145, 64, 272
-0.98994, 97, 149, 160, 180
-0.990023, 161, 65, 224, 320
-0.990066, 169, 193, 200, 256
-0.990092, 241, 153, 304, 216
-0.990109, 129, 113, 256, 176
-0.990117, 81, 209, 208, 272
-0.990133, 73, 169, 104, 232
-0.99014, 125, 129, 156, 192
-0.990153, 169, 129, 200, 256
-0.9903, 377, 217, 408, 280
-0.990354, 65, 153, 128, 184
-0.990364, 161, 105, 224, 168
-0.990437, 333, 129, 364, 192
-0.990461, 169, 81, 232, 208
-0.990473, 321, 241, 448, 304
-0.990476, 61, 193, 92, 320
-0.990573, 329, 133, 392, 164
-0.990639, 257, 177, 384, 240
-0.990641, 249, 113, 280, 240
-0.990644, 65, 113, 192, 176
-0.990685, 145, 177, 176, 304
-0.990701, 193, 65, 256, 192
-0.990809, 349, 177, 380, 304
-0.990846, 337, 1, 400, 322
-0.990859, 137, 141, 200, 172
-0.990933, 117, 97, 148, 224
-0.99095, 161, 205, 224, 236
-0.990955, 353, 125, 416, 156
-0.990984, 369, 193, 400, 320
-0.990995, 345, 145, 408, 176
-0.991004, 405, 145, 436, 272
-0.991048, 305, 193, 368, 224
-0.991121, 297, 113, 360, 176
-0.991126, 101, 129, 132, 192
-0.991131, 385, 225, 448, 288
-0.991169, 61, 193, 92, 256
-0.991169, 361, 157, 424, 188
-0.991181, 133, 217, 164, 280
-0.991195, 337, 201, 464, 264
-0.991228, 105, 137, 168, 168
-0.991231, 137, 209, 200, 240
-0.991251, 301, 153, 332, 216
-0.991286, 217, 113, 248, 240
-0.991299, 297, 205, 360, 236
-0.99132, 297, 177, 328, 304
-0.991328, 121, 153, 184, 184
-0.991342, 369, 233, 496, 296
-0.991349, 217, 185, 248, 248
-0.991393, 241, 201, 368, 264
-0.991416, 25, 225, 88, 288
-0.991436, 369, 89, 432, 152
-0.991456, 201, 217, 264, 280
-0.991492, 1, 257, 64, 320
-0.991494, 345, 113, 408, 144
-0.991509, 305, 133, 368, 164
-0.991516, 205, 193, 236, 256
-0.991579, 217, 177, 248, 304
-0.991595, 49, 217, 112, 280
-0.991599, 85, 169, 116, 232
-0.991609, 97, 161, 160, 192
-0.99163, 225, 65, 288, 320
-0.991658, 197, 193, 228, 320
-0.991666, 241, 105, 368, 168
-0.991688, 185, 221, 248, 252
-0.991722, 113, 205, 176, 236
-0.991737, 65, 141, 128, 172
-0.991815, 161, 217, 224, 248
-0.99182, 89, 217, 152, 248
-0.991869, 41, 165, 104, 196
-0.991883, 337, 97, 400, 128
-0.991896, 177, 209, 304, 272
-0.991911, 185, 205, 248, 236
-0.991917, 129, 289, 192, 320
-0.991932, 361, 101, 424, 132
-0.991935, 73, 165, 136, 196
-0.991948, 401, 169, 464, 200
-0.991972, 369, 141, 432, 172
-0.991984, 9, 145, 72, 208
-0.991992, 265, 153, 328, 184
-0.992001, 145, 217, 176, 280
-0.992009, 321, 145, 384, 176
-0.992031, 193, 113, 256, 144
-0.992065, 129, 221, 192, 252
-0.992112, 353, 201, 416, 232
-0.992125, 225, 257, 352, 320
-0.992133, 369, 49, 400, 176
-0.992135, 177, 145, 304, 208
-0.992173, 73, 193, 136, 224
-0.992174, 353, 177, 480, 240
-0.992182, 273, 205, 336, 236
-0.992187, 17, 117, 80, 148
-0.992192, 361, 169, 424, 200
-0.992205, 329, 205, 392, 236
-0.992207, 345, 189, 408, 220
-0.992229, 49, 213, 112, 244
-0.992234, 413, 137, 444, 200
-0.992242, 153, 153, 216, 184
-0.992288, 209, 217, 272, 248
-0.99229, 305, 173, 368, 204
-0.992307, 273, 189, 336, 220
-0.992328, 281, 221, 344, 252
-0.992345, 113, 193, 176, 224
-0.992346, 401, 153, 464, 184
-0.992346, 41, 177, 104, 208
-0.992352, 205, 97, 236, 224
-0.992353, 397, 161, 428, 224
-0.992378, 289, 185, 320, 248
-0.992385, 297, 145, 360, 176
-0.992405, 73, 205, 136, 236
-0.992411, 41, 197, 104, 228
-0.992419, 177, 281, 240, 312
-0.99242, 41, 149, 104, 180
-0.992424, 145, 129, 208, 160
-0.992425, 185, 193, 248, 224
-0.99243, 349, 209, 380, 272
-0.992431, 257, 137, 320, 168
-0.992432, 81, 181, 144, 212
-0.992444, 93, 153, 124, 184
-0.992466, 397, 137, 428, 200
-0.992494, 89, 225, 152, 288
-0.992536, 193, 185, 224, 248
-0.992536, 345, 229, 408, 260
-0.992546, 101, 97, 132, 224
-0.992552, 321, 161, 384, 192
-0.99256, 89, 281, 152, 312
-0.992562, 393, 141, 456, 172
-0.992563, 369, 213, 432, 244
-0.992565, 105, 149, 136, 180
-0.992568, 369, 97, 400, 128
-0.992572, 169, 125, 232, 156
-0.992578, 217, 121, 280, 152
-0.992609, 433, 161, 496, 224
-0.992618, 137, 185, 200, 216
-0.992656, 33, 289, 96, 320
-0.992659, 345, 133, 376, 164
-0.992667, 281, 257, 344, 320
-0.992669, 261, 129, 292, 192
-0.992681, 369, 109, 400, 140
-0.992681, 345, 217, 408, 248
-0.992683, 309, 193, 340, 224
-0.992689, 321, 137, 352, 200
-0.992692, 33, 137, 96, 168
-0.992702, 1, 257, 128, 320
-0.992713, 385, 185, 448, 216
-0.992714, 125, 149, 156, 180
-0.992723, 193, 137, 256, 200
-0.992739, 137, 197, 200, 228
-0.992755, 153, 289, 216, 320
-0.992756, 209, 201, 272, 232
-0.992768, 389, 209, 420, 272
-0.99277, 177, 153, 240, 184
-0.992771, 129, 225, 256, 288
-0.99279, 17, 193, 80, 224
-0.992809, 185, 165, 248, 196
-0.992856, 369, 225, 432, 256
-0.992877, 321, 217, 384, 248
-0.992879, 353, 205, 384, 236
-0.99288, 81, 157, 112, 188
-0.992883, 121, 125, 184, 156
-0.992887, 329, 249, 392, 312
-0.992888, 105, 229, 168, 260
-0.992898, 233, 133, 296, 164
-0.992899, 73, 193, 104, 256
-0.9929, 113, 277, 176, 308
-0.992905, 337, 173, 400, 204
-0.992914, 181, 177, 212, 304
-0.992914, 125, 193, 156, 320
-0.992942, 425, 157, 488, 188
-0.992942, 137, 65, 200, 320
-0.992948, 37, 97, 68, 224
-0.992951, 265, 129, 296, 256
-0.992952, 297, 233, 360, 264
-0.992955, 65, 129, 320, 192
-0.992956, 249, 241, 312, 272
-0.992957, 225, 137, 480, 200
-0.992961, 249, 165, 312, 196
-0.992961, 173, 205, 204, 236
-0.992979, 41, 225, 104, 256
-0.992981, 17, 205, 80, 236
-0.992987, 305, 205, 336, 236
-0.992988, 185, 181, 248, 212
-0.992989, 129, 201, 160, 232
-0.993007, 361, 145, 392, 176
-0.993008, 369, 245, 432, 276
-0.99301, 217, 233, 280, 264
-0.993025, 241, 153, 304, 184
-0.993027, 181, 217, 212, 248
-0.993045, 105, 161, 136, 192
-0.993046, 257, 221, 320, 252
-0.99305, 165, 129, 196, 192
-0.993051, 361, 129, 392, 160
-0.993063, 1, 273, 64, 304
-0.993072, 433, 141, 496, 172
-0.993073, 109, 137, 140, 168
-0.993089, 141, 137, 172, 168
-0.993096, 57, 105, 120, 168
-0.993105, 137, 213, 168, 244
-0.993105, 249, 201, 312, 232
-0.993115, 301, 181, 332, 212
-0.993118, 377, 137, 408, 168
-0.993126, 185, 205, 216, 236
-0.993127, 345, 277, 408, 308
-0.993136, 65, 129, 128, 160
-0.993145, 297, 157, 360, 188
-0.993145, 5, 113, 36, 240
-0.993153, 385, 197, 448, 228
-0.993154, 153, 1, 216, 322
-0.99316, 49, 277, 112, 308
-0.993163, 85, 141, 116, 172
-0.993167, 117, 193, 148, 224
-0.993171, 217, 153, 280, 184
-0.993171, 321, 277, 384, 308
-0.993173, 149, 209, 180, 240
-0.993174, 17, 153, 80, 184
-0.993178, 93, 165, 124, 196
-0.99318, 377, 129, 440, 160
-0.993184, 361, 1, 424, 322
-0.993184, 169, 137, 232, 168
-0.993186, 281, 177, 344, 208
-0.993189, 393, 233, 424, 296
-0.993189, 129, 137, 160, 168
-0.993191, 161, 189, 224, 220
-0.993191, 393, 157, 424, 188
-0.993193, 321, 193, 352, 224
-0.993199, 69, 149, 100, 180
-0.993201, 137, 153, 168, 184
-0.993201, 117, 161, 148, 192
-0.993202, 17, 181, 80, 212
-0.993204, 393, 221, 456, 252
-0.993208, 369, 113, 432, 144
-0.993215, 373, 185, 404, 248
-0.993218, 53, 197, 84, 228
-0.993218, 221, 205, 252, 236
-0.993223, 393, 241, 456, 272
-0.993228, 201, 209, 232, 240
-0.993229, 321, 241, 384, 272
-0.993233, 105, 177, 168, 208
-0.993235, 85, 121, 116, 184
-0.993244, 397, 237, 428, 268
-0.993247, 353, 89, 480, 152
-0.993248, 417, 249, 480, 312
-0.993252, 289, 245, 352, 276
-0.993252, 69, 165, 100, 196
-0.993257, 225, 169, 288, 200
-0.993262, 53, 285, 84, 316
-0.993268, 161, 205, 192, 236
-0.993268, 169, 217, 200, 248
-0.993271, 353, 157, 384, 188
-0.993273, 313, 265, 376, 296
-0.99328, 153, 137, 184, 168
-0.99328, 333, 129, 364, 160
-0.993281, 1, 153, 256, 216
-0.993288, 377, 149, 408, 180
-0.993289, 433, 269, 496, 300
-0.993301, 321, 253, 384, 284
-0.993305, 353, 217, 384, 248
-0.993308, 341, 193, 372, 224
-0.993308, 301, 217, 332, 248
-0.993312, 217, 193, 248, 224
-0.993315, 325, 181, 356, 212
-0.993317, 69, 281, 100, 312
-0.99332, 65, 225, 128, 256
-0.993323, 213, 217, 244, 248
-0.993324, 381, 245, 412, 276
-0.993327, 305, 289, 368, 320
-0.993328, 361, 169, 392, 200
-0.99333, 65, 289, 128, 320
-0.99333, 169, 113, 232, 144
-0.99333, 381, 101, 412, 132
-0.993331, 293, 149, 324, 180
-0.993338, 33, 209, 160, 272
-0.993341, 349, 145, 380, 176
-0.993345, 149, 221, 180, 252
-0.993357, 129, 233, 192, 264
-0.99336, 249, 177, 312, 304
-0.993362, 289, 201, 320, 232
-0.993363, 65, 213, 96, 244
-0.993364, 145, 165, 208, 196
-0.993364, 353, 289, 416, 320
-0.993366, 49, 185, 80, 216
-0.99337, 113, 65, 176, 320
-0.993375, 357, 117, 388, 148
-0.993379, 149, 149, 180, 180
-0.993383, 281, 149, 312, 180
-0.993384, 65, 193, 96, 224
-0.993385, 125, 217, 156, 248
-0.99339, 301, 137, 332, 168
-0.993393, 209, 185, 272, 216
-0.993395, 353, 193, 384, 224
-0.993396, 157, 289, 188, 320
-0.993398, 357, 93, 388, 124
-0.993399, 81, 281, 112, 312
-0.993405, 417, 129, 448, 256
-0.993412, 381, 233, 412, 264
-0.993412, 125, 181, 156, 212
-0.993416, 161, 233, 224, 296
-0.993416, 361, 89, 424, 120
-0.993416, 389, 137, 420, 168
-0.993417, 373, 205, 404, 236
-0.993418, 201, 225, 232, 256
-0.993419, 137, 225, 168, 256
-0.993421, 193, 141, 256, 172
-0.993428, 393, 249, 424, 280
-0.99343, 1, 185, 128, 248
-0.993437, 165, 129, 196, 160
-0.993441, 313, 181, 344, 212
-0.993444, 273, 137, 304, 168
-0.993444, 413, 169, 444, 200
-0.993444, 197, 113, 228, 144
-0.993445, 417, 157, 448, 188
-0.993447, 113, 181, 144, 212
-0.993451, 97, 137, 128, 168
-0.993456, 181, 193, 212, 224
-0.993459, 289, 221, 320, 252
-0.993462, 137, 189, 168, 220
-0.993463, 109, 213, 140, 244
-0.993468, 369, 225, 400, 256
-0.993469, 149, 197, 180, 228
-0.993469, 361, 181, 392, 212
-0.993477, 329, 73, 392, 136
-0.993478, 365, 193, 396, 224
-0.993485, 217, 289, 248, 320
-0.993486, 189, 153, 220, 184
-0.99349, 121, 281, 152, 312
-0.993493, 341, 165, 372, 196
-0.993493, 77, 221, 108, 252
-0.993496, 233, 221, 264, 252
-0.993497, 109, 185, 140, 248
-0.993498, 377, 125, 408, 156
-0.993498, 213, 181, 244, 212
-0.993499, 53, 229, 84, 260
-0.993503, 345, 181, 376, 212
-0.993508, 249, 217, 312, 280
-0.99351, 369, 237, 400, 268
-0.993511, 317, 205, 348, 236
-0.993512, 405, 149, 436, 180
-0.993512, 325, 157, 356, 188
-0.993517, 53, 153, 84, 184
-0.993524, 177, 149, 208, 180
-0.993535, 373, 161, 404, 192
-0.993537, 45, 117, 76, 148
-0.99354, 393, 205, 424, 236
-0.99354, 21, 97, 52, 224
-0.993542, 345, 121, 376, 152
-0.993545, 77, 189, 108, 220
-0.993546, 233, 189, 264, 220
-0.993547, 81, 257, 208, 320
-0.993548, 293, 245, 324, 276
-0.993548, 273, 161, 304, 192
-0.993551, 125, 229, 156, 260
-0.993551, 253, 129, 284, 160
-0.993552, 161, 193, 192, 224
-0.993552, 161, 149, 192, 180
-0.993557, 193, 193, 224, 224
-0.993562, 41, 289, 72, 320
-0.993562, 321, 141, 352, 172
-0.993566, 105, 193, 136, 224
-0.993572, 61, 137, 92, 168
-0.993572, 201, 157, 232, 188
-0.993573, 61, 181, 92, 212
-0.993574, 341, 217, 372, 248
-0.993575, 253, 157, 284, 188
-0.993576, 181, 129, 212, 192
-0.993595, 217, 161, 280, 224
-0.993607, 249, 121, 280, 184
-0.993742, 9, 65, 72, 320
-0.993752, 273, 113, 336, 176
-0.99388, 65, 65, 128, 320
-0.993948, 161, 185, 416, 248
-0.993962, 49, 185, 80, 248
-0.993997, 273, 249, 400, 312
-0.994047, 321, 177, 352, 304
-0.994066, 229, 177, 260, 304
-0.994117, 273, 137, 304, 200
-0.99412, 73, 121, 104, 184
-0.994143, 77, 177, 108, 304
-0.994145, 1, 105, 128, 168
-0.994272, 385, 249, 448, 312
-0.994285, 17, 233, 144, 296
-0.994312, 177, 97, 304, 160
-0.994328, 341, 153, 372, 216
-0.994352, 89, 257, 152, 320
-0.994359, 305, 1, 368, 322
-0.994368, 385, 1, 448, 322
-0.994515, 181, 177, 212, 240
-0.994517, 329, 169, 360, 232
-0.994574, 49, 161, 80, 224
-0.994577, 393, 185, 424, 248
-0.99463, 393, 113, 456, 176
-0.994649, 145, 169, 176, 232
-0.994664, 265, 65, 328, 320
-0.994666, 217, 65, 280, 192
-0.99467, 289, 145, 320, 208
-0.994679, 49, 149, 176, 180
-0.994683, 97, 149, 224, 180
-0.994695, 161, 209, 416, 272
-0.994711, 49, 177, 80, 304
-0.994718, 393, 81, 456, 208
-0.994723, 373, 81, 404, 144
-0.994773, 265, 1, 328, 322
-0.994839, 157, 193, 188, 320
-0.994844, 169, 193, 200, 320
-0.994866, 193, 233, 320, 296
-0.994871, 37, 105, 68, 168
-0.994887, 57, 257, 120, 320
-0.994911, 373, 97, 388, 160
-0.994921, 169, 225, 200, 288
-0.994938, 25, 113, 56, 176
-0.99494, 73, 1, 136, 322
-0.994957, 113, 193, 144, 320
-0.994961, 249, 241, 312, 304
-0.995, 233, 193, 264, 256
-0.995039, 213, 161, 244, 224
-0.995043, 165, 153, 196, 216
-0.995062, 205, 217, 236, 280
-0.995076, 193, 89, 256, 152
-0.995081, 5, 121, 36, 184
-0.995115, 141, 113, 172, 176
-0.995128, 33, 65, 96, 320
-0.995172, 363, 137, 378, 200
-0.995189, 129, 257, 256, 320
-0.995199, 353, 233, 384, 296
-0.995261, 17, 1, 80, 322
-0.995312, 453, 129, 484, 256
-0.995362, 393, 113, 424, 176
-0.995371, 353, 49, 384, 176
-0.995378, 379, 97, 394, 160
-0.995383, 61, 169, 92, 232
-0.995404, 441, 129, 472, 256
-0.995416, 201, 105, 232, 168
-0.995444, 305, 141, 432, 172
-0.995447, 237, 121, 268, 184
-0.995447, 289, 217, 320, 280
-0.995455, 103, 145, 118, 208
-0.995456, 393, 81, 424, 208
-0.995476, 341, 185, 372, 248
-0.995483, 413, 193, 444, 320
-0.995521, 129, 81, 160, 208
-0.995551, 201, 1, 264, 322
-0.995565, 1, 137, 500, 200
-0.995576, 79, 145, 94, 208
-0.99561, 97, 145, 112, 208
-0.995665, 369, 241, 400, 304
-0.995723, 225, 105, 480, 168
-0.99574, 9, 89, 72, 152
-0.995741, 369, 257, 496, 320
-0.995761, 49, 1, 112, 322
-0.995768, 409, 209, 472, 272
-0.995785, 121, 1, 184, 322
-0.995789, 97, 137, 224, 168
-0.995789, 437, 137, 468, 200
-0.995796, 317, 177, 332, 240
-0.995816, 87, 145, 102, 208
-0.995845, 157, 217, 188, 280
-0.995853, 257, 133, 384, 164
-0.995863, 257, 169, 500, 232
-0.995875, 377, 33, 440, 160
-0.995876, 125, 137, 140, 200
-0.995879, 119, 153, 134, 216
-0.995907, 413, 169, 444, 232
-0.99591, 281, 97, 312, 224
-0.995959, 367, 113, 382, 176
-0.995997, 111, 145, 126, 208
-0.996016, 33, 185, 288, 248
-0.996021, 469, 137, 500, 200
-0.996034, 113, 225, 144, 288
-0.99604, 337, 193, 368, 320
-0.996077, 313, 209, 344, 272
-0.996089, 305, 129, 432, 160
-0.99611, 401, 209, 432, 272
-0.996115, 33, 161, 160, 192
-0.996141, 373, 137, 388, 200
-0.996154, 337, 209, 368, 272
-0.996243, 129, 213, 256, 244
-0.996269, 393, 65, 456, 320
-0.996278, 305, 189, 432, 220
-0.996278, 351, 129, 366, 192
-0.996304, 177, 1, 240, 322
-0.996312, 33, 257, 96, 320
-0.99632, 17, 137, 144, 168
-0.996327, 429, 177, 460, 304
-0.996327, 389, 113, 404, 176
-0.996396, 147, 201, 162, 264
-0.996404, 289, 201, 416, 232
-0.996421, 49, 209, 80, 272
-0.996423, 205, 145, 236, 272
-0.996455, 221, 113, 252, 176
-0.996463, 97, 153, 352, 216
-0.99647, 225, 1, 288, 322
-0.996472, 193, 161, 224, 224
-0.996501, 81, 221, 208, 252
-0.996521, 73, 161, 88, 224
-0.996537, 305, 129, 336, 192
-0.996559, 49, 201, 176, 232
-0.996568, 257, 209, 500, 272
-0.99657, 385, 137, 400, 200
-0.996586, 177, 257, 304, 320
-0.996593, 225, 257, 288, 320
-0.996621, 395, 121, 410, 184
-0.996631, 139, 201, 154, 264
-0.996638, 301, 81, 332, 208
-0.99665, 235, 193, 250, 256
-0.996655, 135, 137, 150, 200
-0.996676, 97, 1, 160, 322
-0.996691, 309, 193, 324, 256
-0.9967, 177, 125, 304, 156
-0.996703, 325, 185, 340, 248
-0.996706, 357, 129, 372, 192
-0.996727, 63, 193, 78, 256
-0.996776, 89, 33, 152, 288
-0.996779, 197, 209, 212, 272
-0.996783, 153, 201, 168, 264
-0.996792, 405, 233, 436, 296
-0.996798, 65, 233, 192, 296
-0.996813, 69, 81, 100, 208
-0.996825, 113, 249, 176, 312
-0.996847, 193, 241, 256, 304
-0.996858, 113, 113, 144, 176
-0.996859, 465, 129, 496, 256
-0.99686, 307, 169, 322, 232
-0.996883, 181, 257, 212, 320
-0.996924, 363, 193, 378, 256
-0.99694, 65, 105, 320, 168
-0.996943, 191, 201, 206, 264
-0.996946, 345, 129, 360, 192
-0.996951, 1, 149, 128, 180
-0.996961, 173, 81, 204, 208
-0.996968, 177, 137, 304, 168
-0.996979, 375, 209, 390, 272
-0.996995, 229, 185, 244, 248
-0.997043, 81, 81, 112, 208
-0.997055, 457, 137, 488, 200
-0.997055, 367, 161, 382, 224
-0.99706, 429, 129, 460, 256
-0.99706, 445, 193, 476, 320
-0.997061, 361, 65, 392, 320
-0.997064, 303, 209, 318, 272
-0.997103, 33, 217, 288, 280
-0.997113, 69, 185, 84, 248
-0.997117, 209, 181, 336, 212
-0.997122, 33, 185, 160, 216
-0.997132, 381, 241, 412, 304
-0.997132, 81, 161, 208, 192
-0.997161, 225, 161, 256, 224
-0.997168, 357, 185, 372, 248
-0.997181, 17, 289, 144, 320
-0.997186, 129, 201, 256, 232
-0.997193, 225, 97, 288, 160
-0.997196, 221, 209, 252, 272
-0.997197, 241, 193, 304, 256
-0.997204, 109, 149, 124, 180
-0.997225, 167, 121, 182, 184
-0.997229, 223, 185, 238, 248
-0.997236, 149, 225, 164, 288
-0.997242, 145, 225, 272, 256
-0.997244, 49, 89, 176, 152
-0.997246, 181, 193, 196, 256
-0.99726, 373, 65, 404, 320
-0.997268, 83, 169, 98, 232
-0.99728, 149, 81, 180, 208
-0.997291, 119, 129, 134, 192
-0.997292, 375, 73, 390, 136
-0.997294, 49, 125, 176, 156
-0.997298, 113, 185, 240, 216
-0.99731, 125, 185, 140, 248
-0.997319, 341, 241, 372, 304
-0.997325, 375, 93, 390, 124
-0.997327, 257, 153, 384, 184
-0.997332, 305, 177, 432, 208
-0.997339, 391, 225, 406, 288
-0.997359, 353, 161, 368, 224
-0.997362, 1, 161, 500, 224
-0.997372, 141, 137, 156, 200
-0.997375, 215, 201, 230, 264
-0.997377, 381, 217, 396, 280
-0.997388, 317, 197, 332, 228
-0.99739, 339, 129, 354, 192
-0.997394, 257, 189, 384, 220
-0.997406, 1, 113, 500, 176
-0.997417, 125, 161, 140, 224
-0.997419, 209, 193, 336, 224
-0.997426, 367, 89, 382, 152
-0.997432, 337, 153, 464, 184
-0.997436, 379, 137, 394, 200
-0.997444, 157, 129, 172, 192
-0.997451, 353, 217, 368, 280
-0.997453, 157, 257, 188, 320
-0.997454, 353, 125, 480, 156
-0.997454, 409, 137, 424, 200
-0.997502, 409, 1, 472, 322
-0.997512, 319, 209, 334, 272
-0.997517, 133, 193, 148, 256
-0.99752, 135, 161, 150, 224
-0.997526, 149, 137, 164, 200
-0.997533, 103, 153, 118, 184
-0.997559, 193, 205, 320, 236
-0.997567, 425, 137, 456, 200
-0.997568, 143, 177, 158, 240
-0.99758, 1, 257, 256, 320
-0.997589, 399, 201, 414, 264
-0.997602, 61, 257, 92, 320
-0.997606, 107, 121, 122, 184
-0.997608, 73, 129, 88, 192
-0.997613, 231, 161, 246, 224
-0.997622, 369, 141, 496, 172
-0.997642, 295, 153, 310, 216
-0.997654, 309, 257, 340, 320
-0.997656, 173, 185, 188, 248
-0.997657, 225, 217, 288, 280
-0.997663, 373, 161, 388, 224
-0.997665, 289, 229, 416, 260
-0.997675, 159, 193, 174, 256
-0.997685, 423, 137, 438, 200
-0.997686, 241, 161, 272, 288
-0.997697, 209, 201, 224, 264
-0.997701, 337, 201, 464, 232
-0.99771, 309, 209, 324, 240
-0.997711, 257, 121, 384, 152
-0.997719, 75, 193, 90, 256
-0.997746, 97, 89, 224, 152
-0.997747, 409, 185, 472, 248
-0.997771, 307, 197, 322, 228
-0.997792, 177, 149, 304, 180
-0.997806, 113, 169, 128, 232
-0.997818, 93, 157, 108, 188
-0.997819, 373, 241, 388, 304
-0.997821, 305, 117, 432, 148
-0.997827, 67, 129, 82, 192
-0.997837, 165, 209, 180, 272
-0.997842, 189, 177, 204, 240
-0.997845, 119, 145, 134, 176
-0.997855, 151, 209, 166, 240
-0.997859, 97, 201, 128, 264
-0.997861, 1, 225, 500, 288
-0.997863, 321, 245, 448, 276
-0.997865, 415, 169, 430, 232
-0.997868, 129, 173, 256, 204
-0.997882, 173, 129, 188, 192
-0.997886, 377, 65, 440, 128
-0.997892, 385, 89, 400, 152
-0.997893, 17, 277, 144, 308
-0.9979, 175, 209, 190, 272
-0.997901, 271, 129, 286, 192
-0.997903, 289, 217, 416, 248
-0.997907, 113, 121, 128, 184
-0.997911, 391, 201, 406, 264
-0.997915, 1, 201, 500, 264
-0.997933, 381, 97, 396, 128
-0.997935, 101, 121, 116, 184
-0.997954, 145, 221, 160, 252
-0.997958, 91, 169, 106, 232
-0.99796, 131, 113, 146, 176
-0.997962, 319, 185, 334, 216
-0.997963, 81, 149, 96, 180
-0.997964, 299, 185, 314, 248
-0.997982, 237, 169, 252, 232
-0.997989, 133, 145, 148, 176
-0.997994, 367, 145, 382, 176
-0.997998, 193, 129, 224, 192
-0.997998, 181, 225, 212, 288
-0.998002, 307, 145, 322, 208
-0.998002, 139, 113, 154, 176
-0.99801, 409, 169, 424, 232
-0.998014, 33, 173, 160, 204
-0.998015, 97, 249, 128, 312
-0.998016, 9, 113, 24, 176
-0.998016, 87, 157, 102, 188
-0.998017, 139, 149, 154, 180
-0.998022, 401, 233, 416, 296
-0.998024, 125, 149, 140, 180
-0.998025, 273, 245, 400, 276
-0.998031, 273, 165, 400, 196
-0.998035, 141, 225, 156, 288
-0.998037, 93, 121, 108, 184
-0.998042, 67, 161, 82, 224
-0.998046, 33, 213, 160, 244
-0.998048, 261, 217, 292, 280
-0.998049, 353, 133, 368, 164
-0.998056, 317, 209, 332, 240
-0.998061, 145, 113, 160, 176
-0.998064, 149, 177, 164, 240
-0.99807, 185, 129, 200, 192
-0.99807, 97, 177, 128, 240
-0.998071, 263, 121, 278, 184
-0.998073, 219, 161, 234, 224
-0.998076, 363, 125, 378, 156
-0.998078, 117, 161, 132, 192
-0.998083, 341, 97, 372, 160
-0.998086, 361, 141, 376, 172
-0.998086, 365, 201, 380, 232
-0.998092, 327, 193, 342, 224
-0.998099, 33, 233, 160, 264
-0.998099, 351, 185, 366, 248
-0.998101, 209, 285, 336, 316
-0.998103, 359, 161, 374, 224
-0.998109, 65, 289, 192, 320
-0.998111, 129, 289, 256, 320
-0.998114, 203, 193, 218, 256
-0.998116, 79, 121, 94, 184
-0.998116, 371, 109, 386, 140
-0.998119, 257, 121, 272, 184
-0.998129, 161, 113, 288, 144
-0.99813, 177, 153, 192, 216
-0.998137, 347, 161, 362, 224
-0.998149, 145, 137, 160, 168
-0.99815, 187, 205, 202, 236
-0.998152, 193, 233, 320, 264
-0.998155, 373, 145, 388, 176
-0.998157, 165, 129, 180, 160
-0.998157, 313, 153, 328, 216
-0.998159, 197, 217, 212, 248
-0.998159, 155, 225, 170, 288
-0.998165, 227, 209, 242, 272
-0.99817, 399, 145, 414, 208
-0.998177, 57, 201, 72, 264
-0.99819, 281, 137, 296, 200
-0.998191, 323, 161, 338, 224
-0.998196, 209, 217, 336, 248
-0.998201, 81, 193, 96, 256
-0.998204, 59, 113, 74, 176
-0.998205, 67, 197, 82, 228
-0.998207, 309, 217, 324, 280
-0.998211, 203, 105, 218, 168
-0.998214, 313, 233, 344, 296
-0.998216, 383, 241, 398, 304
-0.99822, 229, 197, 244, 228
-0.998222, 337, 165, 464, 196
-0.998222, 367, 217, 382, 280
-0.998231, 49, 113, 64, 176
-0.998241, 207, 225, 222, 288
-0.998242, 395, 249, 410, 312
-0.998257, 161, 249, 416, 312
-0.998266, 63, 217, 78, 280
-0.998266, 369, 237, 496, 268
-0.998268, 337, 97, 464, 128
-0.998271, 1, 113, 16, 176
-0.998274, 297, 257, 328, 320
-0.998277, 15, 121, 30, 184
-0.998283, 297, 199, 328, 214
-0.998283, 233, 191, 264, 206
-0.998284, 117, 165, 148, 180
-0.998285, 209, 305, 240, 320
-0.998285, 161, 209, 192, 224
-0.998286, 179, 205, 194, 236
-0.998287, 153, 155, 184, 170
-0.998287, 393, 215, 424, 230
-0.998287, 213, 191, 244, 206
-0.998288, 277, 145, 308, 160
-0.998288, 341, 169, 372, 184
-0.998288, 317, 185, 348, 200
-0.998288, 353, 175, 384, 190
-0.998289, 369, 221, 400, 236
-0.998289, 57, 217, 88, 232
-0.998291, 365, 165, 396, 180
-0.998292, 385, 105, 416, 120
-0.998293, 209, 225, 240, 240
-0.998293, 365, 205, 396, 220
-0.998294, 373, 243, 404, 258
-0.998295, 105, 145, 136, 160
-0.998295, 353, 219, 384, 234
-0.998296, 127, 137, 142, 168
-0.998296, 1, 49, 64, 176
-0.998296, 147, 149, 162, 180
-0.998298, 341, 205, 372, 220
-0.998298, 145, 295, 176, 310
-0.998299, 73, 279, 104, 294
-0.9983, 61, 287, 92, 302
-0.9983, 193, 211, 224, 226
-0.9983, 397, 169, 428, 184
-0.9983, 153, 301, 184, 316
-0.998302, 117, 203, 148, 218
-0.998302, 221, 293, 252, 308
-0.998302, 361, 153, 392, 168
-0.998303, 57, 165, 88, 180
-0.998303, 193, 299, 224, 314
-0.998303, 141, 143, 172, 158
-0.998304, 301, 147, 332, 162
-0.998305, 53, 157, 84, 172
-0.998305, 121, 143, 152, 158
-0.998306, 297, 205, 328, 220
-0.998306, 361, 199, 392, 214
-0.998307, 353, 163, 384, 178
-0.998309, 377, 155, 408, 170
-0.99831, 125, 191, 156, 206
-0.99831, 125, 213, 156, 228
-0.99831, 173, 129, 204, 144
-0.998311, 69, 305, 100, 320
-0.998314, 357, 107, 388, 122
-0.998314, 343, 133, 358, 164
-0.998315, 65, 297, 96, 312
-0.998315, 85, 289, 116, 304
-0.998315, 169, 221, 200, 236
-0.998316, 193, 203, 224, 218
-0.998316, 141, 151, 172, 166
-0.998318, 289, 215, 320, 230
-0.998318, 65, 225, 96, 240
-0.998318, 357, 137, 388, 152
-0.998319, 321, 113, 352, 176
-0.99832, 353, 185, 480, 216
-0.99832, 389, 239, 420, 254
-0.998321, 37, 297, 68, 312
-0.998321, 49, 195, 80, 210
-0.998321, 289, 221, 320, 236
-0.998321, 53, 297, 84, 312
-0.998323, 309, 225, 340, 240
-0.998324, 301, 187, 332, 202
-0.998325, 209, 291, 240, 306
-0.998327, 221, 221, 252, 236
-0.998327, 169, 297, 200, 312
-0.998328, 141, 217, 172, 232
-0.998329, 389, 141, 420, 156
-0.998329, 153, 215, 184, 230
-0.998329, 133, 229, 164, 244
-0.998329, 173, 215, 204, 230
-0.998332, 69, 195, 100, 210
-0.998332, 121, 223, 152, 238
-0.998333, 213, 197, 244, 212
-0.998333, 353, 213, 384, 228
-0.998334, 193, 223, 224, 238
-0.998335, 355, 193, 370, 224
-0.998335, 129, 205, 160, 220
-0.998335, 413, 171, 444, 186
-0.998335, 73, 169, 104, 184
-0.998336, 309, 213, 340, 228
-0.998338, 353, 169, 384, 184
-0.998338, 61, 279, 92, 294
-0.998339, 209, 169, 336, 200
-0.99834, 73, 285, 104, 300
-0.998343, 357, 131, 388, 146
-0.998344, 209, 245, 336, 276
-0.998344, 369, 141, 400, 156
-0.998345, 345, 199, 376, 214
-0.998348, 181, 203, 212, 218
-0.99835, 281, 151, 312, 166
-0.99835, 157, 133, 188, 148
-0.998352, 57, 201, 88, 216
-0.998352, 297, 193, 328, 208
-0.998355, 201, 217, 232, 232
-0.998356, 117, 149, 148, 164
-0.99836, 231, 185, 246, 216
-0.998361, 301, 219, 332, 234
-0.998362, 213, 205, 244, 220
-0.998362, 325, 191, 356, 206
-0.998363, 181, 221, 212, 236
-0.998363, 289, 97, 416, 128
-0.998365, 345, 143, 376, 158
-0.998365, 181, 209, 212, 224
-0.998365, 131, 157, 146, 188
-0.998366, 97, 167, 128, 182
-0.998367, 293, 153, 324, 168
-0.998369, 125, 197, 156, 212
-0.998369, 397, 245, 428, 260
-0.99837, 73, 153, 104, 168
-0.99837, 111, 161, 126, 192
-0.998372, 141, 157, 172, 172
-0.998373, 85, 169, 116, 184
-0.998374, 145, 227, 176, 242
-0.998375, 153, 141, 168, 172
-0.998375, 377, 113, 392, 144
-0.998377, 133, 223, 164, 238
-0.998378, 153, 221, 184, 236
-0.998378, 309, 207, 340, 222
-0.998379, 323, 205, 338, 236
-0.998381, 383, 109, 398, 140
-0.998382, 381, 249, 412, 264
-0.998383, 353, 205, 384, 220
-0.998384, 369, 105, 400, 120
-0.998385, 161, 189, 288, 220
-0.998386, 85, 149, 116, 164
-0.998388, 99, 281, 114, 312
-0.998389, 369, 133, 384, 164
-0.998389, 361, 147, 392, 162
-0.998398, 321, 197, 352, 212
-0.998399, 297, 149, 312, 180
-0.998401, 97, 145, 112, 176
-0.998402, 113, 195, 144, 210
-0.998415, 189, 105, 220, 168
-0.998417, 269, 81, 300, 208
-0.998419, 373, 147, 404, 162
-0.998421, 193, 205, 208, 236
-0.998432, 309, 199, 340, 214
-0.998433, 129, 125, 256, 156
-0.998434, 141, 201, 156, 232
-0.998436, 373, 161, 388, 192
-0.998437, 129, 159, 160, 174
-0.998441, 241, 229, 368, 260
-0.998445, 69, 163, 100, 178
-0.998445, 369, 115, 400, 130
-0.998449, 97, 151, 160, 166
-0.99845, 127, 197, 142, 228
-0.998454, 105, 165, 120, 196
-0.998456, 157, 213, 172, 244
-0.99846, 363, 157, 378, 188
-0.998461, 117, 281, 132, 312
-0.998461, 337, 135, 368, 150
-0.998467, 393, 137, 408, 168
-0.998469, 201, 205, 216, 236
-0.998474, 201, 65, 232, 320
-0.998474, 405, 237, 420, 268
-0.998475, 91, 145, 106, 176
-0.998476, 129, 151, 160, 166
-0.998477, 1, 249, 32, 312
-0.998481, 73, 157, 136, 172
-0.998489, 237, 193, 252, 224
-0.998491, 369, 93, 384, 124
-0.998491, 105, 161, 136, 176
-0.998492, 67, 213, 82, 244
-0.998493, 309, 193, 340, 208
-0.998495, 337, 221, 464, 252
-0.998504, 393, 245, 408, 276
-0.998504, 129, 281, 144, 312
-0.998508, 105, 159, 168, 174
-0.998511, 215, 205, 230, 236
-0.998518, 81, 161, 112, 176
-0.998518, 105, 151, 136, 166
-0.99852, 313, 185, 328, 216
-0.998521, 391, 233, 406, 264
-0.998523, 117, 159, 148, 174
-0.998536, 137, 217, 152, 248
-0.998538, 379, 145, 394, 176
-0.998542, 89, 155, 120, 170
-0.998544, 139, 137, 154, 168
-0.998547, 151, 221, 166, 252
-0.998548, 257, 177, 384, 208
-0.998555, 81, 163, 144, 178
-0.998556, 337, 137, 400, 152
-0.998559, 381, 49, 412, 176
-0.998559, 219, 221, 234, 252
-0.998563, 173, 213, 188, 244
-0.998566, 369, 99, 400, 114
-0.998567, 109, 281, 124, 312
-0.998575, 313, 197, 376, 212
-0.998576, 349, 65, 380, 320
-0.998577, 133, 201, 148, 232
-0.99858, 49, 163, 112, 178
-0.998582, 105, 137, 120, 168
-0.998587, 37, 177, 68, 304
-0.998588, 345, 131, 408, 146
-0.998589, 387, 141, 402, 172
-0.998592, 313, 161, 344, 224
-0.998596, 313, 137, 376, 152
-0.998596, 161, 221, 224, 236
-0.998597, 337, 147, 400, 162
-0.9986, 185, 223, 248, 238
-0.998602, 217, 65, 248, 192
-0.998608, 365, 173, 380, 204
-0.998608, 399, 245, 414, 276
-0.99861, 123, 213, 138, 244
-0.99861, 219, 193, 234, 224
-0.998612, 137, 295, 200, 310
-0.998613, 231, 209, 246, 240
-0.998614, 129, 153, 192, 168
-0.998615, 97, 277, 224, 308
-0.998618, 375, 133, 390, 164
-0.998618, 361, 103, 424, 118
-0.998619, 93, 161, 124, 176
-0.998622, 71, 285, 86, 316
-0.998628, 187, 217, 202, 248
-0.998628, 61, 205, 76, 236
-0.998632, 337, 103, 400, 118
-0.998633, 65, 151, 128, 166
-0.998633, 361, 165, 424, 180
-0.998636, 265, 153, 328, 168
-0.998637, 73, 169, 136, 184
-0.998639, 225, 213, 240, 244
-0.998641, 289, 193, 352, 208
-0.998642, 1, 201, 128, 232
-0.998643, 385, 171, 448, 186
-0.998644, 65, 299, 128, 314
-0.998646, 297, 205, 360, 220
-0.998647, 313, 191, 376, 206
-0.998648, 297, 213, 360, 228
-0.99865, 169, 299, 232, 314
-0.998652, 369, 141, 432, 156
-0.998653, 33, 299, 96, 314
-0.998656, 167, 213, 182, 244
-0.998658, 105, 165, 168, 180
-0.998658, 313, 143, 376, 158
-0.998659, 41, 219, 104, 234
-0.998659, 153, 203, 216, 218
-0.99866, 273, 207, 336, 222
-0.998661, 123, 281, 138, 312
-0.998662, 145, 131, 208, 146
-0.998662, 97, 145, 160, 160
-0.998662, 303, 181, 318, 212
-0.998663, 273, 217, 336, 232
-0.998663, 369, 215, 432, 230
-0.998664, 121, 221, 184, 236
-0.998664, 121, 229, 184, 244
-0.998664, 129, 197, 192, 212
-0.998664, 213, 65, 244, 320
-0.998665, 353, 203, 416, 218
-0.998666, 375, 205, 390, 236
-0.998669, 97, 299, 160, 314
-0.998669, 145, 301, 208, 316
-0.998669, 297, 137, 312, 168
-0.998669, 129, 159, 192, 174
-0.99867, 361, 109, 424, 124
-0.99867, 153, 211, 216, 226
-0.998671, 129, 143, 192, 158
-0.998671, 9, 299, 72, 314
-0.998672, 185, 217, 248, 232
-0.998673, 361, 147, 424, 162
-0.998674, 61, 193, 76, 224
-0.998675, 145, 227, 208, 242
-0.998675, 353, 155, 416, 170
-0.998676, 209, 223, 272, 238
-0.998679, 181, 217, 196, 248
-0.998681, 165, 289, 180, 320
-0.998682, 345, 197, 408, 212
-0.998682, 89, 225, 152, 240
-0.998684, 41, 289, 104, 304
-0.998684, 125, 161, 140, 192
-0.998684, 365, 105, 380, 136
-0.998685, 25, 123, 88, 138
-0.998686, 65, 191, 128, 206
-0.998687, 345, 115, 408, 130
-0.998688, 337, 109, 400, 124
-0.998688, 401, 165, 464, 180
-0.998688, 345, 125, 408, 140
-0.998689, 153, 155, 216, 170
-0.998689, 353, 209, 416, 224
-0.998692, 329, 153, 392, 168
-0.998692, 49, 169, 112, 184
-0.998693, 289, 155, 352, 170
-0.998693, 185, 201, 248, 216
-0.998695, 171, 201, 186, 232
-0.998695, 401, 177, 464, 192
-0.998695, 377, 233, 392, 264
-0.998696, 289, 149, 352, 164
-0.998696, 265, 167, 328, 182
-0.998696, 1, 279, 64, 294
-0.998697, 297, 219, 360, 234
-0.998698, 345, 171, 408, 186
-0.9987, 153, 149, 216, 164
-0.9987, 81, 219, 144, 234
-0.9987, 361, 97, 424, 112
-0.9987, 41, 185, 104, 200
-0.9987, 65, 143, 128, 158
-0.9987, 83, 169, 98, 200
-0.998701, 49, 157, 112, 172
-0.998701, 121, 205, 184, 220
-0.998701, 305, 185, 368, 200
-0.998701, 321, 167, 384, 182
-0.998701, 121, 131, 184, 146
-0.998701, 345, 191, 408, 206
-0.998702, 273, 199, 336, 214
-0.998702, 177, 153, 208, 216
-0.998703, 9, 117, 72, 132
-0.998704, 37, 285, 52, 316
-0.998705, 393, 199, 456, 214
-0.998705, 81, 291, 144, 306
-0.998706, 41, 191, 104, 206
-0.998706, 41, 199, 104, 214
-0.998706, 33, 205, 96, 220
-0.998706, 193, 307, 256, 322
-0.998706, 329, 161, 392, 176
-0.998707, 161, 293, 224, 308
-0.998707, 177, 211, 240, 226
-0.998707, 73, 197, 136, 212
-0.998708, 413, 169, 428, 200
-0.998708, 193, 119, 256, 134
-0.998708, 185, 293, 248, 308
-0.998709, 321, 205, 384, 220
-0.99871, 33, 211, 96, 226
-0.998711, 129, 137, 192, 152
-0.998711, 337, 97, 400, 112
-0.998712, 105, 199, 168, 214
-0.998712, 409, 171, 472, 186
-0.998712, 273, 223, 336, 238
-0.998713, 161, 307, 224, 322
-0.998713, 57, 227, 120, 242
-0.998713, 393, 157, 456, 172
-0.998714, 299, 201, 314, 232
-0.998716, 185, 195, 248, 210
-0.998716, 177, 157, 240, 172
-0.998716, 345, 217, 408, 232
-0.998717, 33, 137, 96, 152
-0.998717, 121, 211, 184, 226
-0.998717, 121, 289, 184, 304
-0.998718, 73, 213, 136, 228
-0.998718, 289, 143, 352, 158
-0.998719, 385, 187, 448, 202
-0.99872, 321, 175, 384, 190
-0.99872, 369, 221, 432, 236
-0.998721, 81, 183, 144, 198
-0.998721, 121, 303, 184, 318
-0.998722, 375, 221, 390, 252
-0.998722, 25, 159, 88, 174
-0.998722, 353, 237, 416, 252
-0.998722, 93, 281, 108, 312
-0.998722, 81, 305, 144, 320
-0.998723, 313, 131, 376, 146
-0.998723, 17, 193, 80, 208
-0.998724, 25, 131, 88, 146
-0.998724, 153, 137, 216, 152
-0.998725, 357, 205, 372, 236
-0.998727, 273, 73, 400, 136
-0.998727, 209, 209, 224, 240
-0.998734, 233, 173, 248, 204
-0.998738, 191, 193, 206, 224
-0.99874, 159, 133, 174, 164
-0.998742, 385, 237, 400, 268
-0.998745, 99, 165, 114, 196
-0.998745, 129, 185, 144, 216
-0.99875, 17, 265, 144, 296
-0.998752, 75, 157, 90, 188
-0.998761, 381, 217, 396, 248
-0.998769, 175, 289, 190, 320
-0.998774, 227, 289, 242, 320
-0.998778, 81, 281, 96, 312
-0.998778, 159, 225, 174, 256
-0.99878, 385, 65, 416, 320
-0.998783, 119, 185, 134, 216
-0.998784, 353, 113, 480, 144
-0.998785, 73, 201, 88, 232
-0.998785, 193, 161, 208, 192
-0.998793, 157, 65, 188, 320
-0.998796, 353, 221, 368, 252
-0.998799, 93, 217, 108, 248
-0.9988, 133, 229, 148, 260
-0.998802, 413, 201, 444, 264
-0.998806, 45, 289, 60, 320
-0.998809, 121, 197, 136, 228
-0.99881, 241, 205, 368, 236
-0.998812, 291, 153, 306, 184
-0.998817, 329, 241, 360, 304
-0.998822, 49, 105, 80, 168
-0.998826, 1, 121, 128, 152
-0.998842, 379, 81, 394, 208
-0.998847, 249, 105, 312, 168
-0.998858, 417, 65, 480, 320
-0.998864, 49, 113, 176, 144
-0.998866, 233, 217, 264, 280
-0.998874, 145, 277, 272, 308
-0.998892, 81, 173, 208, 204
-0.998893, 257, 241, 500, 304
-0.998903, 373, 97, 388, 224
-0.998908, 433, 1, 496, 322
-0.998918, 129, 161, 256, 192
-0.998939, 237, 169, 268, 232
-0.998941, 37, 177, 68, 240
-0.998972, 367, 97, 382, 224
-0.998974, 1, 65, 32, 192
-0.99898, 173, 105, 204, 168
-0.998985, 163, 129, 178, 256
-0.998988, 97, 113, 224, 144
-0.999001, 337, 65, 368, 320
-0.999003, 353, 65, 480, 128
-0.999013, 53, 65, 84, 320
-0.99902, 369, 249, 496, 280
-0.999021, 173, 65, 204, 320
-0.999027, 119, 145, 134, 272
-0.999031, 81, 233, 208, 264
-0.999034, 33, 153, 64, 216
-0.999038, 385, 97, 400, 224
-0.999039, 353, 257, 416, 320
-0.999058, 357, 129, 372, 256
-0.999068, 237, 65, 268, 192
-0.999091, 321, 257, 448, 288
-0.999104, 353, 289, 480, 320
-0.999109, 233, 65, 264, 320
-0.999119, 307, 145, 322, 272
-0.999123, 145, 65, 176, 320
-0.999123, 317, 129, 332, 256
-0.999126, 405, 97, 436, 224
-0.999148, 81, 145, 96, 272
-0.999164, 185, 65, 216, 320
-0.999165, 145, 237, 272, 268
-0.999177, 257, 109, 384, 140
-0.999179, 125, 129, 140, 256
-0.999187, 351, 113, 366, 240
-0.999194, 135, 145, 150, 272
-0.999203, 297, 145, 312, 272
-0.999208, 173, 129, 188, 256
-0.999211, 393, 113, 408, 240
-0.999215, 273, 257, 400, 288
-0.999229, 145, 129, 160, 256
-0.999232, 407, 145, 422, 272
-0.999238, 111, 145, 126, 272
-0.999244, 289, 289, 416, 320
-0.999245, 375, 145, 390, 272
-0.999257, 75, 129, 90, 256
-0.999265, 103, 145, 118, 272
-0.999266, 153, 129, 168, 256
-0.999268, 129, 65, 160, 320
-0.999269, 369, 265, 496, 296
-0.999276, 57, 65, 88, 192
-0.999279, 345, 113, 360, 240
-0.999281, 367, 145, 382, 272
-0.999282, 289, 277, 416, 308
-0.99929, 399, 145, 414, 272
-0.999295, 307, 193, 322, 320
-0.999296, 33, 65, 64, 320
-0.999318, 187, 129, 202, 256
-0.999343, 97, 129, 112, 256
-0.999345, 319, 177, 334, 304
-0.99935, 193, 113, 208, 240
-0.999355, 65, 113, 80, 240
-0.999366, 3, 113, 18, 240
-0.999373, 63, 193, 78, 320
-0.999374, 65, 65, 96, 320
-0.99938, 91, 129, 106, 256
-0.999402, 425, 81, 488, 208
-0.999402, 327, 129, 342, 256
-0.999404, 1, 209, 64, 272
-0.999412, 231, 113, 246, 240
-0.999422, 241, 273, 368, 304
-0.999424, 81, 265, 208, 296
-0.999426, 381, 145, 396, 272
-0.999426, 59, 113, 74, 240
-0.999433, 361, 81, 376, 208
-0.999434, 127, 177, 142, 304
-0.999438, 399, 193, 414, 320
-0.999441, 229, 161, 244, 288
-0.999449, 161, 81, 192, 208
-0.99945, 69, 177, 84, 304
-0.999451, 81, 245, 208, 276
-0.999452, 75, 177, 90, 304
-0.999455, 139, 97, 154, 224
-0.999455, 241, 113, 256, 240
-0.999457, 245, 65, 276, 320
-0.999463, 153, 177, 168, 304
-0.999463, 211, 193, 226, 320
-0.999465, 181, 129, 196, 256
-0.999465, 397, 65, 428, 320
-0.999471, 131, 97, 146, 224
-0.999471, 339, 113, 354, 240
-0.999476, 313, 177, 328, 304
-0.999476, 53, 97, 68, 224
-0.999476, 291, 129, 306, 256
-0.999481, 371, 193, 386, 320
-0.999493, 201, 193, 216, 320
-0.999495, 325, 65, 356, 320
-0.999501, 391, 161, 406, 288
-0.999501, 251, 113, 266, 240
-0.999505, 325, 177, 340, 304
-0.999506, 221, 113, 236, 240
-0.999508, 195, 193, 210, 320
-0.999514, 297, 157, 312, 172
-0.999514, 193, 273, 320, 304
-0.999514, 373, 49, 388, 176
-0.999514, 365, 193, 380, 320
-0.999515, 75, 153, 90, 168
-0.999515, 435, 197, 450, 212
-0.999515, 175, 193, 190, 320
-0.999516, 69, 297, 84, 312
-0.999517, 189, 223, 204, 238
-0.999518, 409, 247, 424, 262
-0.999518, 71, 291, 86, 306
-0.999519, 201, 211, 216, 226
-0.999519, 375, 245, 390, 260
-0.99952, 375, 219, 390, 234
-0.99952, 57, 213, 72, 228
-0.99952, 231, 219, 246, 234
-0.999521, 195, 205, 210, 220
-0.999521, 133, 227, 148, 242
-0.999522, 147, 209, 162, 224
-0.999522, 375, 159, 390, 174
-0.999524, 95, 283, 110, 298
-0.999524, 369, 111, 384, 126
-0.999524, 123, 225, 138, 240
-0.999524, 291, 151, 306, 166
-0.999525, 133, 197, 148, 212
-0.999525, 303, 215, 318, 230
-0.999527, 349, 199, 364, 214
-0.999527, 361, 173, 376, 188
-0.999527, 369, 151, 384, 166
-0.999528, 215, 219, 230, 234
-0.99953, 221, 199, 236, 214
-0.99953, 71, 197, 86, 212
-0.99953, 391, 65, 406, 192
-0.999531, 303, 153, 318, 168
-0.999531, 39, 97, 54, 224
-0.999532, 175, 211, 190, 226
-0.999532, 259, 113, 274, 240
-0.999532, 91, 169, 106, 184
-0.999532, 143, 231, 158, 246
-0.999534, 67, 217, 82, 232
-0.999534, 117, 281, 132, 296
-0.999534, 319, 223, 334, 238
-0.999534, 161, 131, 176, 146
-0.999534, 127, 191, 142, 206
-0.999534, 419, 171, 434, 186
-0.999534, 363, 139, 378, 154
-0.999534, 233, 203, 248, 218
-0.999535, 139, 159, 154, 174
-0.999536, 407, 193, 422, 320
-0.999536, 187, 203, 202, 218
-0.999536, 153, 211, 168, 226
-0.999536, 365, 161, 380, 176
-0.999537, 395, 249, 410, 264
-0.999537, 117, 149, 132, 164
-0.999537, 101, 297, 116, 312
-0.999537, 61, 199, 76, 214
-0.999539, 351, 177, 366, 304
-0.99954, 171, 293, 186, 308
-0.99954, 443, 177, 458, 304
-0.999541, 133, 203, 148, 218
-0.999542, 99, 289, 114, 304
-0.999543, 237, 197, 252, 212
-0.999543, 221, 177, 236, 304
-0.999544, 101, 149, 116, 164
-0.999544, 363, 133, 378, 148
-0.999544, 371, 171, 386, 186
-0.999545, 119, 155, 134, 170
-0.999547, 199, 145, 214, 272
-0.999547, 365, 105, 380, 120
-0.999547, 103, 167, 118, 182
-0.999547, 403, 243, 418, 258
-0.999548, 13, 113, 28, 240
-0.999548, 357, 137, 372, 152
-0.999548, 189, 213, 204, 228
-0.999549, 149, 155, 164, 170
-0.999549, 129, 299, 144, 314
-0.99955, 129, 249, 256, 280
-0.999552, 107, 297, 122, 312
-0.999552, 117, 299, 132, 314
-0.999552, 141, 203, 156, 218
-0.999552, 323, 209, 338, 224
-0.999553, 183, 213, 198, 228
-0.999555, 297, 145, 312, 160
-0.999555, 211, 207, 226, 222
-0.999557, 355, 205, 370, 220
-0.999558, 129, 151, 144, 166
-0.99956, 163, 137, 178, 152
-0.999562, 297, 97, 312, 224
-0.999562, 1, 245, 128, 276
-0.999563, 317, 213, 332, 228
-0.999564, 343, 135, 358, 150
-0.999566, 83, 167, 98, 182
-0.999569, 317, 189, 332, 204
-0.999569, 299, 193, 314, 320
-0.999571, 151, 227, 166, 242
-0.999571, 375, 107, 390, 122
-0.999571, 141, 177, 156, 304
-0.999571, 169, 193, 184, 320
-0.999571, 225, 291, 240, 306
-0.999572, 393, 141, 408, 156
-0.999572, 311, 219, 326, 234
-0.999576, 135, 193, 150, 320
-0.999576, 357, 199, 372, 214
-0.999576, 197, 221, 212, 236
-0.999578, 353, 277, 480, 308
-0.999578, 325, 193, 340, 208
-0.999579, 209, 113, 224, 240
-0.999579, 233, 191, 248, 206
-0.999579, 365, 145, 380, 160
-0.999579, 383, 109, 398, 124
-0.99958, 127, 197, 142, 212
-0.99958, 365, 203, 380, 218
-0.999581, 435, 129, 450, 256
-0.999582, 375, 147, 390, 162
-0.999582, 379, 99, 394, 114
-0.999582, 139, 225, 154, 240
-0.999583, 267, 113, 282, 240
-0.999584, 285, 129, 300, 256
-0.999586, 373, 165, 388, 180
-0.999586, 87, 153, 102, 168
-0.999586, 143, 153, 158, 168
-0.999586, 189, 193, 204, 320
-0.999587, 417, 145, 432, 272
-0.999587, 375, 115, 390, 130
-0.999587, 73, 163, 88, 178
-0.999588, 107, 97, 122, 224
-0.999588, 81, 153, 96, 168
-0.999588, 147, 193, 162, 320
-0.999589, 275, 129, 290, 256
-0.999589, 107, 151, 122, 166
-0.99959, 67, 203, 82, 218
-0.999592, 135, 151, 150, 166
-0.999592, 385, 147, 400, 162
-0.999595, 323, 201, 338, 216
-0.999595, 47, 97, 62, 224
-0.999595, 133, 159, 148, 174
-0.999595, 235, 177, 250, 304
-0.999596, 309, 211, 324, 226
-0.999596, 363, 167, 378, 182
-0.999598, 153, 221, 168, 236
-0.999601, 447, 129, 462, 256
-0.999602, 231, 197, 246, 212
-0.999603, 305, 97, 320, 224
-0.999603, 143, 219, 158, 234
-0.999604, 109, 167, 124, 182
-0.999605, 167, 131, 182, 146
-0.999605, 121, 193, 136, 320
-0.999607, 85, 97, 100, 224
-0.99961, 351, 135, 366, 150
-0.99961, 357, 193, 372, 320
-0.999611, 215, 129, 230, 256
-0.999613, 385, 49, 400, 176
-0.999616, 127, 159, 142, 174
-0.999621, 201, 97, 216, 224
-0.999629, 417, 193, 432, 320
-0.999632, 307, 199, 322, 214
-0.999632, 413, 65, 444, 320
-0.999632, 241, 161, 256, 288
-0.999633, 85, 159, 100, 174
-0.999633, 345, 161, 360, 288
-0.999635, 317, 207, 332, 222
-0.999636, 95, 153, 110, 168
-0.999637, 181, 177, 196, 304
-0.999637, 111, 193, 126, 320
-0.999639, 209, 257, 336, 288
-0.999641, 385, 193, 400, 320
-0.999641, 437, 193, 452, 320
-0.999641, 171, 81, 186, 208
-0.999642, 333, 113, 348, 240
-0.999644, 373, 97, 388, 112
-0.999649, 23, 113, 38, 240
-0.999649, 101, 161, 116, 176
-0.99965, 79, 161, 94, 176
-0.999654, 93, 163, 108, 178
-0.999658, 297, 151, 312, 166
-0.999658, 379, 193, 394, 320
-0.99966, 307, 205, 322, 220
-0.999662, 145, 225, 160, 240
-0.999663, 1, 65, 32, 320
-0.999664, 379, 33, 394, 160
-0.999666, 117, 97, 132, 224
-0.999667, 423, 129, 438, 256
-0.999679, 481, 129, 496, 256
-0.999684, 399, 97, 414, 224
-0.999685, 31, 97, 46, 224
-0.99969, 157, 81, 172, 208
-0.999691, 117, 163, 132, 178
-0.999693, 159, 177, 174, 304
-0.999694, 367, 49, 382, 176
-0.999694, 463, 129, 478, 256
-0.999695, 317, 201, 332, 216
-0.999696, 163, 81, 178, 208
-0.9997, 55, 177, 70, 304
-0.999702, 455, 129, 470, 256
-0.999706, 317, 195, 332, 210
-0.999713, 93, 65, 124, 320
-0.999718, 441, 129, 456, 256
-0.999721, 257, 33, 384, 160
-0.999724, 257, 65, 288, 320
-0.99973, 79, 81, 94, 208
-0.99973, 123, 81, 138, 208
-0.999732, 469, 129, 484, 256
-0.999736, 87, 177, 102, 304
-0.999737, 407, 97, 422, 224
-0.999746, 101, 81, 116, 208
-0.999747, 475, 129, 490, 256
-0.999749, 101, 155, 116, 170
-0.999749, 109, 161, 124, 176
-0.999768, 129, 265, 256, 296
-0.999782, 309, 65, 340, 320
-0.999787, 193, 81, 448, 144
-0.999801, 341, 65, 372, 192
-0.999801, 77, 65, 108, 320
-0.999804, 253, 161, 284, 288
-0.999883, 249, 65, 280, 192
-0.999889, 25, 49, 88, 176
-0.999916, 289, 85, 416, 116
-0.999918, 117, 65, 148, 320
-0.999943, 353, 85, 480, 116
-0.99996, 21, 65, 52, 320
-0.99997, 269, 65, 300, 320
-0.999992, 129, 101, 256, 132
-0.999997, 1, 109, 128, 140
-1, 437, 65, 468, 320
-1.00004, 209, 113, 336, 144
-1.00011, 281, 65, 312, 320
-1.00012, 417, 113, 480, 176
-1.00013, 457, 65, 488, 320
-1.00015, 1, 81, 256, 144
-1.00021, 105, 65, 136, 320
-1.00021, 225, 81, 352, 144
-1.00025, 209, 101, 336, 132
-1.00028, 425, 65, 456, 320
-1.0003, 49, 101, 176, 132
-1.00034, 297, 65, 328, 320
-1.00039, 185, 65, 216, 192
-1.00043, 433, 225, 496, 288
-1.00048, 369, 41, 496, 72
-1.00049, 285, 193, 316, 320
-1.00049, 469, 65, 500, 320
-1.00057, 25, 145, 56, 272
-1.00072, 337, 29, 464, 60
-1.00074, 337, 73, 464, 104
-1.00078, 137, 89, 200, 152
-1.0008, 369, 13, 496, 44
-1.00083, 113, 25, 240, 56
-1.00083, 321, 41, 448, 72
-1.00085, 97, 37, 224, 68
-1.00086, 289, 73, 416, 104
-1.00087, 17, 21, 144, 52
-1.00088, 1, 49, 128, 80
-1.00088, 177, 89, 304, 120
-1.00089, 49, 37, 176, 68
-1.0009, 369, 1, 496, 32
-1.00091, 33, 89, 96, 152
-1.00092, 369, 53, 496, 84
-1.00093, 1, 81, 128, 144
-1.00093, 1, 249, 500, 312
-1.00093, 433, 201, 496, 264
-1.00094, 241, 85, 368, 116
-1.00094, 65, 13, 192, 44
-1.00095, 1, 9, 128, 40
-1.00096, 161, 13, 288, 44
-1.00096, 1, 33, 128, 64
-1.00098, 97, 89, 224, 120
-1.001, 273, 41, 400, 72
-1.001, 193, 49, 320, 80
-1.00101, 65, 1, 192, 32
-1.00101, 161, 1, 288, 32
-1.00103, 113, 13, 240, 44
-1.00103, 289, 13, 416, 44
-1.00103, 209, 37, 336, 68
-1.00103, 225, 61, 352, 92
-1.00103, 273, 61, 400, 92
-1.0014, 353, 33, 480, 96
-1.00143, 457, 177, 488, 304
-1.00144, 469, 177, 500, 304
-1.00152, 45, 49, 76, 176
-1.00157, 325, 65, 356, 192
-1.00159, 205, 49, 236, 176
-1.00164, 257, 9, 500, 72
-1.00166, 177, 73, 304, 136
-1.00167, 369, 1, 496, 64
-1.00167, 269, 177, 300, 304
-1.00171, 193, 57, 448, 120
-1.00172, 1, 1, 256, 64
-1.00174, 1, 193, 64, 320
-1.0018, 257, 33, 500, 96
-1.0019, 97, 73, 352, 136
-1.00192, 1, 25, 256, 88
-1.00192, 129, 25, 384, 88
-1.00197, 129, 1, 384, 64
-1.00198, 321, 9, 448, 72
-1.002, 101, 193, 132, 320
-1.00201, 57, 49, 120, 176
-1.00203, 97, 49, 352, 112
-1.00205, 1, 9, 128, 72
-1.00213, 29, 49, 60, 176
-1.00216, 113, 33, 240, 160
-1.00219, 1, 49, 256, 112
-1.00223, 5, 161, 36, 288
-1.00227, 1, 33, 128, 96
-1.00227, 469, 81, 500, 208
-1.00233, 129, 41, 256, 104
-1.00239, 305, 49, 432, 112
-1.00243, 313, 65, 344, 192
-1.00247, 129, 9, 256, 72
-1.00247, 177, 41, 304, 104
-1.00253, 1, 89, 500, 152
-1.00259, 81, 33, 208, 96
-1.00262, 209, 17, 336, 80
-1.00263, 1, 233, 64, 296
-1.00264, 1, 1, 500, 128
-1.00267, 445, 81, 476, 208
-1.00274, 49, 9, 176, 72
-1.00274, 113, 65, 240, 128
-1.00276, 273, 1, 400, 64
-1.00288, 225, 41, 352, 104
-1.00291, 273, 25, 400, 88
-1.00294, 433, 81, 464, 208
-1.0031, 13, 49, 44, 176
-1.00317, 89, 97, 152, 160
-1.0032, 457, 81, 488, 208
-1.00329, 1, 57, 128, 120
-1.0034, 17, 193, 48, 320
-1.00342, 1, 1, 500, 64
-1.00347, 417, 81, 448, 208
-1.00371, 1, 33, 500, 96
-1.00372, 65, 57, 192, 120
-1.00402, 161, 81, 224, 144
-1.00404, 57, 81, 120, 144
-1.00407, 1, 57, 500, 120
-1.00415, 209, 33, 336, 160
-1.00459, 1, 17, 256, 144
-1.00477, 89, 193, 120, 320
-1.00499, 1, 49, 128, 176
-1.00509, 313, 33, 376, 160
-1.00516, 417, 33, 480, 96
-1.00543, 105, 49, 136, 176
-1.00553, 297, 89, 360, 152
-1.00559, 353, 65, 416, 128
-1.00562, 337, 17, 400, 144
-1.00582, 353, 17, 480, 144
-1.00584, 233, 73, 296, 136
-1.00604, 393, 89, 456, 152
-1.00617, 281, 49, 312, 176
-1.0063, 89, 49, 152, 176
-1.00639, 405, 49, 436, 176
-1.00646, 393, 33, 424, 160
-1.00677, 69, 33, 100, 160
-1.00689, 393, 33, 456, 96
-1.00693, 365, 1, 396, 128
-1.00708, 273, 89, 336, 152
-1.0071, 113, 89, 176, 152
-1.00737, 433, 9, 496, 72
-1.0074, 393, 9, 456, 72
-1.00746, 57, 17, 88, 144
-1.00756, 173, 33, 204, 160
-1.00759, 149, 33, 180, 160
-1.00768, 217, 17, 248, 144
-1.00781, 261, 33, 292, 160
-1.00782, 305, 1, 432, 128
-1.00782, 329, 49, 392, 112
-1.00785, 209, 65, 272, 128
-1.00792, 129, 33, 160, 160
-1.00799, 33, 65, 96, 128
-1.00802, 117, 49, 148, 176
-1.0082, 89, 73, 152, 136
-1.00829, 361, 41, 424, 104
-1.00838, 433, 1, 464, 128
-1.00839, 369, 17, 432, 80
-1.0084, 185, 17, 216, 144
-1.00848, 129, 9, 192, 72
-1.00848, 97, 33, 160, 96
-1.00848, 121, 33, 184, 96
-1.00853, 345, 9, 408, 72
-1.00853, 305, 25, 368, 88
-1.00853, 177, 41, 240, 104
-1.00853, 229, 17, 260, 144
-1.00856, 421, 1, 452, 128
-1.00861, 381, 1, 412, 128
-1.00873, 445, 1, 476, 128
-1.00886, 1, 17, 32, 144
-1.009, 117, 1, 148, 128
-1.009, 161, 1, 192, 128
-1.00903, 257, 33, 320, 160
-1.00918, 457, 1, 488, 128
-1.00962, 169, 33, 232, 160
-1.00983, 97, 1, 352, 128
-1.00985, 1, 1, 128, 128
-1.01046, 433, 1, 496, 128
-1.01104, 113, 33, 176, 160
-1.01148, 161, 1, 288, 128
-1.01309, 409, 1, 472, 128
-1.01316, 225, 17, 288, 144
-1.01377, 193, 17, 256, 144
-1.01403, 65, 1, 192, 128
-1.01414, 33, 1, 96, 128
-1.01476, 137, 17, 200, 144
-1.01506, 89, 1, 152, 128
-1.01541, 9, 1, 72, 128
-1.01543, 281, 1, 344, 128
-1.01867, 65, 1, 128, 128
