1948
-0.311752, 1, 33, 500, 288
-0.322221, 1, 1, 500, 375
-0.432556, 161, 1, 416, 375
-0.457466, 1, 129, 500, 375
-0.49657, 257, 1, 500, 375
-0.538024, 257, 97, 500, 352
-0.590787, 161, 65, 416, 320
-0.600402, 65, 1, 320, 375
-0.681854, 257, 1, 500, 256
-0.71476, 65, 97, 320, 352
-0.775914, 65, 1, 320, 256
-0.834769, 289, 1, 416, 375
-0.836264, 353, 129, 480, 375
-0.854593, 273, 97, 400, 352
-0.857079, 337, 1, 464, 375
-0.866117, 225, 1, 352, 375
-0.868576, 289, 1, 416, 256
-0.872709, 1, 81, 500, 208
-0.87677, 1, 129, 500, 256
-0.879147, 177, 1, 304, 375
-0.881942, 177, 97, 304, 352
-0.883085, 353, 33, 480, 288
-0.886068, 113, 1, 240, 375
-0.886724, 225, 97, 352, 352
-0.895228, 225, 1, 352, 256
-0.895343, 113, 33, 240, 288
-0.901598, 65, 1, 192, 256
-0.903852, 177, 1, 304, 256
-0.906341, 1, 33, 500, 160
-0.906538, 81, 129, 208, 375
-0.90663, 161, 81, 416, 208
-0.906876, 65, 1, 192, 375
-0.906921, 193, 177, 448, 304
-0.907546, 257, 113, 500, 240
-0.910235, 129, 129, 256, 375
-0.916806, 1, 177, 500, 304
-0.919029, 353, 209, 480, 336
-0.920454, 1, 1, 128, 375
-0.920943, 337, 129, 464, 256
-0.92233, 225, 225, 480, 352
-0.92282, 1, 129, 128, 375
-0.926278, 1, 241, 500, 368
-0.926803, 17, 33, 144, 288
-0.928396, 385, 193, 448, 320
-0.928751, 97, 129, 352, 256
-0.929263, 345, 161, 408, 288
-0.929388, 257, 97, 384, 224
-0.932695, 385, 129, 448, 256
-0.933444, 425, 97, 488, 224
-0.93377, 1, 81, 256, 208
-0.936418, 353, 209, 416, 336
-0.936554, 289, 241, 416, 368
-0.936653, 257, 177, 384, 304
-0.938461, 177, 129, 304, 256
-0.939497, 321, 161, 384, 288
-0.939655, 193, 65, 320, 192
-0.939988, 305, 177, 432, 304
-0.940386, 345, 113, 408, 240
-0.941592, 321, 113, 384, 240
-0.943142, 257, 49, 500, 176
-0.943708, 409, 177, 472, 304
-0.943721, 161, 33, 416, 160
-0.943855, 289, 81, 352, 208
-0.94521, 193, 113, 256, 240
-0.94594, 425, 105, 488, 168
-0.948905, 273, 33, 336, 160
-0.950188, 65, 17, 320, 144
-0.950258, 129, 97, 256, 224
-0.950552, 329, 209, 392, 336
-0.950655, 297, 161, 360, 224
-0.950801, 1, 145, 256, 272
-0.95096, 393, 201, 456, 264
-0.952911, 97, 145, 224, 272
-0.953181, 281, 177, 344, 304
-0.953378, 337, 225, 400, 288
-0.953415, 129, 225, 384, 352
-0.954315, 193, 137, 256, 200
-0.954403, 225, 241, 352, 368
-0.954851, 241, 113, 304, 240
-0.95491, 193, 17, 320, 144
-0.955525, 305, 81, 432, 208
-0.956121, 385, 137, 448, 200
-0.956219, 377, 241, 440, 304
-0.956335, 281, 129, 344, 256
-0.956733, 289, 97, 352, 160
-0.957125, 345, 113, 408, 176
-0.957401, 169, 145, 232, 272
-0.957811, 209, 209, 272, 336
-0.957898, 169, 97, 232, 224
-0.958628, 153, 161, 216, 224
-0.958742, 369, 209, 432, 272
-0.959071, 273, 33, 400, 160
-0.959269, 305, 241, 368, 368
-0.959333, 97, 177, 352, 304
-0.959759, 369, 81, 496, 208
-0.959857, 433, 177, 496, 304
-0.959874, 265, 81, 328, 208
-0.960542, 217, 241, 280, 304
-0.960751, 377, 241, 440, 368
-0.961185, 273, 145, 336, 208
-0.961717, 337, 177, 400, 240
-0.961992, 401, 241, 464, 368
-0.962006, 201, 65, 264, 192
-0.96233, 81, 97, 208, 224
-0.96236, 113, 49, 240, 176
-0.962504, 393, 129, 456, 375
-0.962674, 385, 113, 448, 176
-0.962812, 273, 73, 336, 136
-0.96285, 369, 97, 432, 352
-0.962951, 113, 1, 240, 128
-0.963221, 345, 49, 408, 176
-0.9638, 177, 193, 304, 320
-0.963885, 17, 145, 144, 272
-0.96407, 145, 145, 208, 272
-0.964765, 57, 153, 120, 216
-0.965047, 193, 249, 256, 312
-0.965349, 425, 97, 488, 352
-0.965706, 217, 129, 280, 256
-0.965858, 177, 241, 304, 368
-0.965948, 321, 153, 384, 216
-0.966033, 17, 97, 144, 224
-0.966049, 393, 81, 456, 208
-0.966111, 249, 177, 312, 304
-0.966361, 177, 161, 240, 224
-0.966592, 233, 241, 296, 368
-0.966737, 169, 129, 232, 192
-0.967197, 1, 193, 256, 320
-0.967214, 97, 161, 160, 224
-0.967424, 329, 65, 392, 320
-0.967496, 401, 249, 464, 312
-0.967557, 225, 145, 288, 208
-0.967668, 313, 185, 376, 248
-0.9677, 137, 81, 200, 208
-0.967822, 257, 1, 500, 128
-0.96789, 281, 121, 344, 184
-0.968439, 433, 49, 496, 176
-0.968569, 353, 209, 480, 272
-0.968614, 33, 113, 96, 240
-0.968631, 233, 265, 296, 328
-0.968722, 409, 177, 472, 240
-0.969146, 409, 137, 472, 200
-0.969258, 361, 193, 392, 320
-0.969267, 397, 193, 428, 320
-0.969403, 129, 161, 192, 224
-0.969434, 289, 249, 352, 312
-0.969635, 313, 233, 376, 296
-0.969661, 241, 121, 304, 184
-0.969708, 73, 145, 136, 272
-0.969749, 345, 249, 408, 312
-0.969885, 129, 209, 256, 336
-0.969916, 321, 233, 448, 296
-0.970051, 105, 129, 168, 256
-0.970162, 273, 65, 336, 320
-0.970222, 137, 1, 200, 128
-0.970355, 273, 169, 336, 232
-0.970367, 433, 209, 496, 272
-0.970436, 433, 113, 464, 240
-0.970537, 369, 81, 432, 208
-0.970639, 425, 161, 456, 288
-0.970695, 33, 161, 96, 224
-0.970863, 333, 97, 364, 224
-0.970871, 313, 105, 376, 168
-0.97104, 321, 161, 352, 224
-0.971162, 273, 1, 336, 64
-0.971263, 433, 153, 496, 216
-0.971267, 349, 193, 380, 320
-0.971288, 169, 193, 232, 320
-0.971368, 381, 209, 412, 336
-0.971466, 353, 33, 480, 160
-0.971507, 177, 137, 304, 200
-0.971671, 249, 153, 312, 216
-0.971768, 413, 193, 444, 320
-0.971914, 393, 209, 424, 272
-0.971921, 433, 129, 496, 192
-0.972166, 265, 97, 328, 160
-0.972259, 401, 225, 464, 288
-0.972478, 429, 185, 460, 248
-0.972481, 457, 89, 488, 152
-0.972692, 241, 49, 304, 176
-0.972847, 201, 161, 264, 224
-0.973023, 193, 161, 256, 288
-0.973074, 433, 113, 464, 176
-0.973189, 113, 81, 176, 208
-0.973328, 201, 105, 264, 168
-0.973376, 297, 33, 360, 160
-0.973376, 257, 241, 320, 368
-0.973402, 305, 185, 432, 248
-0.973748, 397, 129, 428, 256
-0.973749, 321, 65, 384, 192
-0.973826, 185, 241, 248, 368
-0.973878, 385, 241, 416, 304
-0.973881, 305, 121, 432, 184
-0.973886, 369, 265, 432, 328
-0.973901, 273, 153, 400, 216
-0.974156, 301, 161, 332, 224
-0.974281, 361, 185, 424, 248
-0.974289, 425, 81, 488, 144
-0.974312, 97, 161, 224, 224
-0.974374, 353, 153, 480, 216
-0.974483, 225, 249, 256, 312
-0.974514, 425, 225, 488, 352
-0.97456, 413, 129, 444, 256
-0.974695, 265, 49, 328, 112
-0.974826, 249, 1, 312, 128
-0.974893, 405, 201, 436, 264
-0.974936, 177, 241, 304, 304
-0.974961, 273, 241, 400, 304
-0.974986, 361, 153, 424, 216
-0.975018, 333, 177, 364, 304
-0.975086, 441, 177, 472, 240
-0.975204, 237, 241, 268, 304
-0.975333, 289, 265, 416, 328
-0.975363, 169, 105, 232, 168
-0.975564, 289, 1, 320, 128
-0.975571, 65, 97, 128, 224
-0.975605, 257, 105, 384, 168
-0.975613, 225, 161, 352, 224
-0.975668, 285, 153, 316, 216
-0.975699, 169, 49, 232, 176
-0.975802, 341, 233, 372, 296
-0.975944, 369, 249, 496, 312
-0.975982, 137, 17, 200, 80
-0.975997, 33, 121, 96, 184
-0.976006, 361, 97, 392, 224
-0.976009, 433, 185, 496, 248
-0.976025, 313, 257, 376, 320
-0.97605, 273, 25, 336, 88
-0.976066, 33, 241, 288, 368
-0.976168, 33, 161, 96, 288
-0.976224, 9, 97, 72, 224
-0.976267, 453, 81, 484, 208
-0.97649, 225, 249, 352, 312
-0.976583, 193, 81, 320, 144
-0.976667, 281, 97, 312, 224
-0.976667, 369, 105, 496, 168
-0.976902, 137, 137, 200, 200
-0.976926, 177, 129, 240, 375
-0.977024, 73, 177, 136, 240
-0.977032, 349, 113, 380, 240
-0.977367, 193, 273, 256, 336
-0.977459, 305, 97, 368, 352
-0.977604, 281, 225, 344, 288
-0.977604, 249, 241, 312, 304
-0.977676, 469, 49, 500, 176
-0.977678, 209, 249, 240, 312
-0.977819, 381, 217, 412, 280
-0.977929, 425, 217, 456, 280
-0.977938, 293, 97, 324, 224
-0.978004, 205, 137, 236, 200
-0.978234, 201, 113, 232, 240
-0.97826, 265, 313, 328, 375
-0.97834, 289, 193, 352, 256
-0.978481, 345, 273, 408, 336
-0.978544, 345, 89, 408, 152
-0.978718, 329, 241, 360, 304
-0.978743, 469, 97, 500, 160
-0.978822, 293, 89, 324, 152
-0.978876, 225, 225, 352, 288
-0.978885, 281, 49, 312, 176
-0.978947, 173, 161, 204, 224
-0.978979, 437, 177, 468, 304
-0.97915, 361, 225, 392, 288
-0.979176, 405, 129, 436, 192
-0.979194, 377, 113, 408, 240
-0.979205, 385, 89, 448, 152
-0.979229, 377, 161, 408, 288
-0.979355, 41, 185, 104, 248
-0.979365, 421, 121, 452, 184
-0.979369, 321, 129, 384, 192
-0.979375, 369, 129, 496, 192
-0.97951, 33, 17, 160, 144
-0.979697, 193, 153, 224, 216
-0.979698, 137, 73, 200, 136
-0.979825, 417, 185, 448, 248
-0.979885, 445, 97, 476, 160
-0.980088, 361, 145, 392, 272
-0.980303, 201, 81, 264, 144
-0.980325, 217, 137, 248, 200
-0.980346, 113, 1, 176, 128
-0.980362, 281, 1, 344, 375
-0.980383, 297, 73, 360, 136
-0.98041, 137, 65, 200, 320
-0.980419, 321, 81, 352, 208
-0.980486, 425, 225, 456, 352
-0.98049, 285, 121, 316, 184
-0.980547, 233, 217, 296, 280
-0.980562, 17, 153, 144, 216
-0.980563, 257, 265, 320, 328
-0.980612, 145, 193, 208, 320
-0.980623, 169, 273, 232, 336
-0.980691, 161, 161, 192, 288
-0.980731, 337, 97, 368, 160
-0.980753, 285, 145, 316, 272
-0.980806, 385, 1, 448, 256
-0.981146, 293, 49, 324, 176
-0.981207, 377, 121, 408, 184
-0.981307, 133, 161, 164, 224
-0.981456, 113, 89, 240, 152
-0.981541, 281, 97, 312, 160
-0.98155, 413, 249, 444, 312
-0.981562, 113, 185, 176, 248
-0.981571, 225, 129, 352, 192
-0.981606, 137, 49, 200, 112
-0.981638, 293, 17, 324, 80
-0.981729, 353, 185, 480, 248
-0.981864, 333, 153, 364, 216
-0.981877, 449, 201, 480, 264
-0.981894, 177, 161, 304, 224
-0.981911, 169, 33, 232, 288
-0.981924, 169, 73, 232, 136
-0.981953, 249, 233, 280, 296
-0.981989, 413, 241, 444, 368
-0.982005, 161, 161, 192, 224
-0.982023, 129, 137, 256, 200
-0.98211, 429, 161, 460, 224
-0.982143, 201, 97, 264, 352
-0.982195, 249, 97, 312, 352
-0.982222, 445, 153, 476, 216
-0.982229, 425, 1, 488, 256
-0.982359, 281, 73, 312, 136
-0.982436, 9, 145, 72, 272
-0.982477, 397, 233, 428, 296
-0.982524, 257, 201, 384, 264
-0.982576, 137, 185, 200, 248
-0.982631, 465, 97, 496, 224
-0.982651, 177, 193, 240, 256
-0.982651, 337, 81, 464, 144
-0.982657, 221, 225, 252, 352
-0.98271, 373, 249, 404, 312
-0.982745, 193, 105, 320, 168
-0.982805, 197, 257, 228, 320
-0.982818, 393, 137, 424, 200
-0.982913, 249, 177, 312, 240
-0.982919, 113, 113, 240, 176
-0.982972, 433, 233, 496, 296
-0.983035, 229, 145, 260, 208
-0.983055, 317, 177, 348, 304
-0.983075, 181, 145, 212, 272
-0.983083, 113, 25, 176, 88
-0.983188, 89, 137, 152, 200
-0.983206, 193, 225, 256, 288
-0.983249, 57, 121, 120, 184
-0.983267, 257, 257, 288, 320
-0.983313, 237, 265, 268, 328
-0.983341, 353, 1, 416, 256
-0.983469, 9, 153, 72, 216
-0.9835, 269, 97, 300, 224
-0.983525, 297, 137, 328, 200
-0.983544, 105, 89, 168, 152
-0.983565, 193, 57, 320, 120
-0.983627, 249, 73, 312, 136
-0.983798, 273, 161, 304, 224
-0.983865, 25, 97, 88, 160
-0.983875, 393, 281, 456, 344
-0.983916, 209, 273, 336, 336
-0.983995, 169, 249, 232, 312
-0.983995, 289, 177, 320, 240
-0.98402, 305, 41, 368, 104
-0.984053, 349, 105, 380, 168
-0.984055, 325, 97, 356, 160
-0.984091, 305, 209, 432, 272
-0.984094, 57, 89, 120, 152
-0.984169, 213, 65, 244, 192
-0.9842, 129, 265, 256, 328
-0.984246, 329, 1, 392, 375
-0.984292, 217, 113, 248, 176
-0.984363, 349, 161, 380, 224
-0.984374, 389, 113, 420, 176
-0.984386, 113, 177, 176, 304
-0.98452, 225, 225, 256, 288
-0.984531, 257, 1, 384, 64
-0.984544, 241, 209, 272, 336
-0.984546, 197, 113, 228, 176
-0.984589, 281, 241, 344, 368
-0.984661, 81, 137, 208, 200
-0.984688, 409, 105, 440, 168
-0.984843, 213, 113, 244, 240
-0.984851, 33, 193, 160, 320
-0.984855, 161, 241, 224, 368
-0.984855, 309, 97, 340, 224
-0.984921, 409, 225, 440, 288
-0.984949, 241, 97, 304, 160
-0.984987, 305, 313, 368, 375
-0.985025, 329, 225, 360, 352
-0.985053, 293, 65, 324, 128
-0.985079, 393, 1, 456, 375
-0.985123, 469, 73, 500, 136
-0.985149, 145, 153, 176, 216
-0.985192, 361, 113, 392, 176
-0.985193, 33, 65, 96, 192
-0.985217, 361, 153, 392, 216
-0.985273, 469, 121, 500, 184
-0.985285, 229, 129, 260, 256
-0.985295, 289, 41, 320, 104
-0.985334, 145, 81, 176, 208
-0.985337, 297, 313, 328, 375
-0.985347, 437, 209, 468, 272
-0.985368, 305, 185, 336, 248
-0.98542, 385, 161, 448, 224
-0.985459, 337, 281, 464, 344
-0.985495, 221, 273, 252, 336
-0.985536, 217, 289, 280, 352
-0.985538, 69, 153, 100, 216
-0.985543, 373, 65, 404, 192
-0.985567, 281, 9, 312, 72
-0.985594, 453, 177, 484, 240
-0.98562, 433, 1, 496, 375
-0.985623, 181, 137, 212, 200
-0.985639, 333, 185, 364, 248
-0.985686, 321, 81, 384, 144
-0.985733, 257, 81, 384, 144
-0.985819, 265, 289, 328, 352
-0.985828, 461, 145, 492, 208
-0.98583, 349, 193, 380, 256
-0.986003, 305, 1, 368, 375
-0.98605, 469, 169, 500, 232
-0.986103, 425, 257, 456, 320
-0.986165, 113, 137, 176, 200
-0.986259, 177, 217, 304, 280
-0.986278, 9, 49, 72, 176
-0.98628, 49, 161, 80, 224
-0.986324, 309, 97, 340, 160
-0.986346, 113, 57, 240, 120
-0.9864, 113, 49, 176, 112
-0.986403, 49, 177, 176, 240
-0.986424, 149, 145, 180, 272
-0.986433, 317, 249, 348, 312
-0.986446, 269, 121, 300, 184
-0.986471, 273, 257, 304, 320
-0.98653, 89, 81, 152, 208
-0.986579, 177, 1, 240, 128
-0.986584, 361, 1, 424, 375
-0.986597, 305, 161, 336, 288
-0.986614, 309, 17, 340, 144
-0.986636, 345, 241, 376, 368
-0.986684, 177, 33, 304, 96
-0.986748, 113, 1, 240, 64
-0.986753, 181, 81, 212, 208
-0.986755, 273, 145, 304, 272
-0.986804, 129, 241, 256, 304
-0.986816, 261, 241, 292, 368
-0.986826, 297, 1, 360, 256
-0.986843, 209, 209, 240, 336
-0.986849, 413, 81, 444, 208
-0.986907, 165, 113, 196, 240
-0.98691, 369, 241, 400, 368
-0.987027, 349, 49, 380, 176
-0.987078, 113, 65, 176, 320
-0.987082, 257, 49, 384, 112
-0.987088, 369, 289, 432, 352
-0.987162, 433, 137, 464, 200
-0.987229, 457, 113, 488, 176
-0.987254, 225, 169, 288, 232
-0.987258, 41, 97, 72, 224
-0.987333, 109, 161, 140, 224
-0.987342, 257, 25, 384, 88
-0.987362, 121, 161, 152, 224
-0.987398, 377, 33, 440, 160
-0.987486, 185, 177, 216, 240
-0.987506, 209, 1, 336, 64
-0.987527, 133, 129, 164, 256
-0.987532, 249, 1, 312, 256
-0.987544, 137, 1, 200, 375
-0.987665, 169, 1, 232, 375
-0.987683, 225, 177, 256, 304
-0.987748, 81, 193, 208, 320
-0.987788, 437, 225, 468, 352
-0.987842, 249, 1, 312, 375
-0.987883, 225, 97, 288, 352
-0.987935, 225, 81, 256, 208
-0.987936, 257, 217, 320, 280
-0.987998, 185, 257, 216, 320
-0.98806, 241, 145, 272, 208
-0.988067, 385, 65, 416, 192
-0.988117, 17, 129, 144, 192
-0.988161, 321, 185, 352, 248
-0.988172, 17, 97, 144, 160
-0.988219, 193, 65, 224, 192
-0.988223, 209, 297, 336, 360
-0.988314, 425, 113, 488, 144
-0.988331, 169, 137, 200, 200
-0.988357, 177, 49, 240, 112
-0.988387, 361, 177, 392, 240
-0.988411, 277, 1, 308, 128
-0.988445, 417, 161, 448, 224
-0.988491, 113, 25, 240, 88
-0.988525, 145, 249, 208, 312
-0.988563, 449, 177, 480, 304
-0.988568, 93, 161, 124, 224
-0.988579, 193, 145, 256, 176
-0.988598, 285, 193, 316, 320
-0.988622, 97, 185, 224, 248
-0.988632, 129, 153, 384, 216
-0.988654, 229, 121, 260, 184
-0.988694, 289, 181, 352, 212
-0.988748, 353, 81, 384, 144
-0.988775, 145, 97, 208, 160
-0.98879, 393, 273, 424, 336
-0.988831, 209, 273, 240, 336
-0.988833, 1, 177, 128, 240
-0.988847, 177, 185, 304, 248
-0.988849, 113, 1, 176, 64
-0.988911, 161, 105, 416, 168
-0.988916, 305, 9, 432, 72
-0.988941, 381, 145, 412, 208
-0.988946, 129, 209, 256, 272
-0.989152, 193, 233, 448, 296
-0.989167, 217, 245, 280, 276
-0.989168, 273, 157, 336, 188
-0.989197, 169, 225, 232, 288
-0.989247, 445, 129, 476, 256
-0.989255, 361, 49, 392, 176
-0.989268, 1, 65, 64, 320
-0.989273, 385, 129, 448, 160
-0.989354, 185, 261, 248, 292
-0.989375, 9, 129, 72, 192
-0.989377, 377, 245, 440, 276
-0.989382, 289, 101, 352, 132
-0.989382, 181, 193, 212, 320
-0.989421, 249, 1, 312, 64
-0.989463, 209, 273, 272, 304
-0.989481, 409, 197, 472, 228
-0.989503, 153, 185, 184, 248
-0.989524, 225, 257, 480, 320
-0.989554, 305, 17, 368, 80
-0.989587, 53, 129, 84, 256
-0.989639, 397, 241, 428, 368
-0.98965, 177, 161, 240, 192
-0.989652, 145, 173, 208, 204
-0.989659, 321, 185, 384, 216
-0.989663, 33, 33, 96, 288
-0.989722, 365, 81, 396, 144
-0.98974, 401, 225, 464, 256
-0.989779, 113, 1, 176, 375
-0.989892, 137, 161, 200, 192
-0.989912, 273, 89, 336, 120
-0.989935, 425, 257, 488, 320
-0.989974, 349, 137, 380, 200
-0.989989, 409, 33, 472, 160
-0.990032, 225, 153, 288, 184
-0.990051, 385, 141, 448, 172
-0.990087, 141, 185, 172, 248
-0.990093, 213, 81, 244, 144
-0.990115, 209, 257, 272, 288
-0.990125, 337, 265, 368, 328
-0.990128, 257, 185, 500, 248
-0.990128, 313, 209, 376, 272
-0.990141, 289, 169, 352, 200
-0.990153, 433, 101, 496, 132
-0.99018, 321, 169, 384, 200
-0.990218, 425, 125, 488, 156
-0.990276, 385, 117, 448, 148
-0.990306, 177, 9, 240, 72
-0.990309, 257, 153, 500, 216
-0.99032, 333, 121, 364, 184
-0.990324, 1, 97, 64, 160
-0.99033, 409, 141, 472, 172
-0.990336, 193, 133, 256, 164
-0.990354, 353, 121, 416, 152
-0.990356, 353, 109, 416, 140
-0.990358, 57, 161, 120, 192
-0.990367, 241, 273, 304, 304
-0.990379, 329, 105, 392, 136
-0.990388, 453, 33, 484, 160
-0.990407, 457, 65, 488, 128
-0.990444, 161, 1, 192, 128
-0.990445, 405, 177, 436, 240
-0.990451, 353, 41, 416, 104
-0.990488, 401, 65, 432, 192
-0.990503, 233, 49, 296, 112
-0.990511, 41, 121, 72, 184
-0.990512, 317, 241, 348, 368
-0.990539, 249, 141, 312, 172
-0.990542, 81, 153, 112, 216
-0.990544, 41, 1, 104, 128
-0.990561, 81, 113, 144, 176
-0.990562, 97, 165, 160, 196
-0.990579, 257, 113, 500, 176
-0.990589, 73, 129, 104, 256
-0.990599, 337, 233, 400, 264
-0.990612, 225, 165, 288, 196
-0.990626, 205, 161, 236, 224
-0.990627, 269, 49, 300, 176
-0.99066, 249, 25, 312, 88
-0.990696, 357, 241, 388, 368
-0.990704, 369, 217, 432, 248
-0.990709, 121, 181, 184, 212
-0.990721, 345, 257, 408, 288
-0.990737, 209, 1, 272, 375
-0.990747, 273, 193, 304, 320
-0.990758, 309, 65, 340, 128
-0.990784, 289, 313, 416, 375
-0.990814, 401, 209, 464, 240
-0.990815, 201, 157, 264, 188
-0.990845, 265, 77, 328, 108
-0.990846, 177, 273, 240, 304
-0.990868, 161, 149, 224, 180
-0.990888, 265, 185, 328, 216
-0.99091, 105, 113, 168, 176
-0.990912, 433, 89, 464, 152
-0.990914, 353, 137, 416, 168
-0.990924, 377, 205, 440, 236
-0.990928, 225, 137, 288, 168
-0.990932, 433, 213, 496, 244
-0.990964, 73, 65, 136, 320
-0.990971, 65, 181, 128, 212
-0.990984, 249, 157, 312, 188
-0.991008, 353, 273, 384, 336
-0.991021, 277, 33, 308, 96
-0.991023, 281, 253, 344, 284
-0.991028, 273, 141, 336, 172
-0.991039, 321, 153, 384, 184
-0.991044, 193, 161, 224, 288
-0.991046, 417, 185, 480, 216
-0.991063, 145, 1, 176, 128
-0.991078, 409, 281, 440, 344
-0.991115, 345, 181, 408, 212
-0.991129, 265, 169, 328, 200
-0.991158, 265, 101, 328, 132
-0.99116, 273, 21, 336, 52
-0.991164, 433, 157, 496, 188
-0.991197, 133, 81, 164, 208
-0.991217, 209, 161, 240, 288
-0.991221, 321, 129, 352, 256
-0.99123, 217, 233, 280, 264
-0.99123, 225, 285, 288, 316
-0.991258, 361, 269, 424, 300
-0.991261, 401, 237, 464, 268
-0.991277, 313, 241, 376, 272
-0.991286, 29, 97, 60, 160
-0.991294, 241, 249, 304, 280
-0.9913, 401, 253, 464, 284
-0.991303, 445, 121, 476, 184
-0.991353, 265, 65, 328, 96
-0.991362, 273, 9, 336, 40
-0.991371, 177, 121, 240, 152
-0.991395, 237, 217, 268, 280
-0.991403, 305, 289, 368, 352
-0.991405, 69, 185, 100, 248
-0.991426, 345, 221, 408, 252
-0.991429, 169, 109, 232, 140
-0.99144, 297, 193, 360, 224
-0.99144, 209, 117, 272, 148
-0.991441, 249, 261, 312, 292
-0.991456, 161, 49, 192, 112
-0.991459, 281, 345, 344, 375
-0.99146, 437, 65, 468, 192
-0.991461, 201, 17, 264, 144
-0.991478, 93, 81, 124, 208
-0.99148, 185, 249, 248, 280
-0.991482, 329, 57, 392, 120
-0.991483, 305, 113, 368, 144
-0.991497, 193, 285, 256, 316
-0.991503, 273, 53, 336, 84
-0.991508, 57, 81, 88, 208
-0.991513, 377, 233, 440, 264
-0.991523, 249, 125, 312, 156
-0.991533, 385, 105, 448, 136
-0.991539, 33, 161, 96, 192
-0.991589, 241, 237, 304, 268
-0.991592, 273, 33, 336, 64
-0.991594, 121, 129, 152, 256
-0.991596, 33, 177, 96, 208
-0.991613, 201, 169, 264, 200
-0.991629, 33, 129, 96, 375
-0.991631, 409, 101, 472, 132
-0.991643, 49, 73, 176, 136
-0.991646, 153, 265, 216, 296
-0.991664, 137, 53, 200, 84
-0.991685, 305, 261, 368, 292
-0.991704, 337, 245, 400, 276
-0.991719, 273, 333, 336, 364
-0.991722, 137, 25, 200, 56
-0.991734, 377, 257, 440, 288
-0.991734, 137, 209, 200, 272
-0.991737, 161, 81, 416, 144
-0.991742, 177, 173, 240, 204
-0.991757, 161, 289, 288, 352
-0.991769, 33, 201, 160, 264
-0.991772, 337, 201, 400, 264
-0.991778, 273, 241, 336, 272
-0.991789, 385, 277, 448, 308
-0.991791, 433, 145, 496, 176
-0.991802, 57, 1, 120, 375
-0.991804, 321, 17, 384, 144
-0.99183, 1, 97, 500, 160
-0.991839, 277, 233, 308, 296
-0.991861, 161, 97, 224, 128
-0.991875, 297, 157, 360, 188
-0.991877, 329, 117, 392, 148
-0.99189, 337, 273, 400, 304
-0.991913, 281, 117, 344, 148
-0.991916, 153, 189, 216, 220
-0.991919, 137, 77, 200, 108
-0.991922, 1, 121, 256, 184
-0.991926, 249, 89, 312, 120
-0.99193, 377, 169, 408, 232
-0.991935, 161, 49, 192, 176
-0.991939, 33, 25, 160, 88
-0.991952, 277, 185, 308, 248
-0.991962, 425, 65, 456, 192
-0.991963, 305, 345, 368, 375
-0.99197, 97, 181, 160, 212
-0.991976, 385, 153, 448, 184
-0.992026, 297, 137, 360, 168
-0.992033, 257, 193, 288, 320
-0.992049, 65, 49, 128, 176
-0.992068, 41, 189, 104, 220
-0.992086, 273, 197, 336, 228
-0.992088, 433, 237, 496, 268
-0.992088, 433, 173, 496, 204
-0.992093, 381, 273, 412, 336
-0.992095, 1, 121, 500, 184
-0.992099, 137, 149, 200, 180
-0.992115, 177, 189, 240, 220
-0.992117, 305, 245, 432, 276
-0.992142, 193, 89, 256, 120
-0.992151, 409, 165, 472, 196
-0.992153, 129, 257, 384, 320
-0.992164, 9, 109, 72, 140
-0.99217, 469, 49, 500, 112
-0.992178, 433, 201, 496, 232
-0.99219, 169, 133, 232, 164
-0.992208, 361, 285, 424, 316
-0.992213, 25, 125, 88, 156
-0.992215, 369, 169, 432, 200
-0.992219, 89, 1, 152, 128
-0.992233, 233, 105, 296, 136
-0.992236, 433, 225, 496, 256
-0.992239, 389, 241, 420, 272
-0.992246, 305, 333, 368, 364
-0.992247, 137, 41, 200, 72
-0.992247, 457, 97, 488, 128
-0.992253, 201, 185, 264, 248
-0.992254, 257, 209, 500, 272
-0.992255, 333, 185, 364, 216
-0.992264, 433, 117, 464, 148
-0.992266, 289, 289, 416, 352
-0.992286, 453, 189, 484, 220
-0.992287, 453, 109, 484, 140
-0.992298, 229, 277, 260, 308
-0.992344, 1, 73, 128, 136
-0.992425, 397, 129, 428, 160
-0.992426, 129, 129, 384, 192
-0.992432, 193, 261, 224, 292
-0.992443, 289, 153, 320, 184
-0.992453, 437, 193, 468, 224
-0.992475, 469, 109, 500, 140
-0.992481, 445, 177, 476, 208
-0.992492, 313, 173, 344, 204
-0.992494, 425, 213, 456, 244
-0.992514, 309, 161, 340, 192
-0.992516, 321, 185, 352, 216
-0.992517, 93, 129, 124, 256
-0.99253, 293, 181, 324, 212
-0.992531, 409, 125, 440, 156
-0.992544, 385, 217, 416, 248
-0.992573, 233, 149, 264, 180
-0.992574, 17, 73, 80, 136
-0.992582, 249, 265, 280, 296
-0.992588, 161, 193, 416, 256
-0.992595, 1, 193, 64, 320
-0.992596, 213, 149, 244, 180
-0.992603, 209, 269, 240, 300
-0.992617, 161, 165, 192, 196
-0.992617, 109, 145, 140, 272
-0.992625, 297, 97, 328, 128
-0.992627, 401, 233, 432, 264
-0.992636, 409, 205, 440, 236
-0.992636, 225, 241, 256, 272
-0.992637, 349, 101, 380, 132
-0.992653, 249, 145, 280, 272
-0.99266, 329, 109, 360, 140
-0.992661, 25, 1, 88, 375
-0.992666, 145, 169, 176, 200
-0.992667, 189, 157, 220, 188
-0.992672, 353, 181, 384, 212
-0.992675, 261, 261, 292, 292
-0.992676, 49, 1, 176, 64
-0.992679, 453, 201, 484, 232
-0.992686, 369, 225, 400, 256
-0.992694, 205, 137, 236, 168
-0.992697, 469, 121, 500, 152
-0.992705, 273, 161, 304, 192
-0.992706, 441, 213, 472, 244
-0.992714, 413, 113, 444, 144
-0.992721, 305, 185, 336, 216
-0.992723, 469, 181, 500, 212
-0.992731, 425, 137, 456, 168
-0.992741, 213, 249, 244, 280
-0.992743, 241, 277, 272, 308
-0.992754, 409, 141, 440, 172
-0.992757, 361, 113, 392, 144
-0.992769, 321, 249, 352, 280
-0.992783, 173, 173, 204, 204
-0.992784, 329, 173, 360, 204
-0.992793, 217, 137, 248, 168
-0.992802, 469, 97, 500, 128
-0.992805, 241, 233, 272, 264
-0.992811, 293, 165, 324, 196
-0.992813, 333, 241, 364, 272
-0.992822, 33, 153, 288, 216
-0.992829, 297, 345, 328, 375
-0.992833, 425, 201, 456, 232
-0.992835, 293, 141, 324, 172
-0.992842, 397, 209, 428, 240
-0.992848, 181, 265, 212, 296
-0.992856, 233, 165, 264, 196
-0.992856, 173, 161, 204, 192
-0.992863, 113, 81, 144, 208
-0.992875, 421, 125, 452, 156
-0.992877, 213, 285, 244, 316
-0.992885, 349, 113, 380, 144
-0.992892, 261, 273, 292, 304
-0.9929, 293, 41, 324, 72
-0.992911, 237, 245, 268, 276
-0.992915, 281, 125, 312, 156
-0.992915, 385, 137, 416, 168
-0.992916, 281, 105, 312, 136
-0.992928, 441, 105, 472, 136
-0.992935, 293, 29, 324, 60
-0.99294, 309, 101, 340, 132
-0.992942, 225, 73, 288, 136
-0.992965, 257, 89, 500, 152
-0.992967, 225, 253, 256, 284
-0.992968, 133, 173, 164, 204
-0.992977, 17, 185, 80, 248
-0.992978, 53, 161, 84, 192
-0.992983, 249, 245, 280, 276
-0.992983, 49, 173, 80, 204
-0.992997, 293, 85, 324, 116
-0.993, 189, 277, 220, 308
-0.993002, 365, 181, 396, 212
-0.993005, 273, 145, 304, 176
-0.993008, 341, 173, 372, 204
-0.99301, 193, 145, 224, 176
-0.993015, 349, 233, 380, 264
-0.993023, 461, 169, 492, 200
-0.993031, 385, 121, 416, 152
-0.993031, 281, 185, 312, 216
-0.993033, 413, 225, 444, 256
-0.993035, 297, 321, 328, 352
-0.993035, 293, 241, 324, 368
-0.99304, 293, 117, 324, 148
-0.99304, 425, 241, 456, 272
-0.993051, 145, 185, 176, 216
-0.993051, 289, 17, 320, 48
-0.993053, 281, 37, 312, 68
-0.993054, 201, 281, 232, 312
-0.993063, 443, 185, 458, 248
-0.993064, 293, 53, 324, 84
-0.99307, 257, 157, 288, 188
-0.993077, 301, 197, 332, 228
-0.993079, 381, 273, 412, 304
-0.993079, 277, 173, 308, 204
-0.993089, 321, 161, 352, 192
-0.993092, 373, 261, 404, 292
-0.993095, 69, 185, 100, 216
-0.993101, 229, 137, 260, 168
-0.993103, 433, 181, 464, 212
-0.993103, 297, 333, 328, 364
-0.993103, 245, 161, 276, 192
-0.993107, 277, 93, 308, 124
-0.993109, 385, 109, 416, 140
-0.993109, 145, 157, 176, 188
-0.993111, 237, 289, 268, 320
-0.993112, 353, 221, 480, 252
-0.993116, 201, 249, 232, 280
-0.993121, 161, 153, 192, 184
-0.993125, 361, 101, 392, 132
-0.993127, 161, 181, 192, 212
-0.993132, 289, 5, 320, 36
-0.993141, 217, 125, 248, 156
-0.993141, 197, 125, 228, 156
-0.993145, 285, 65, 316, 96
-0.993145, 397, 109, 428, 140
-0.993147, 429, 105, 460, 136
-0.993148, 397, 149, 428, 180
-0.993148, 173, 149, 204, 180
-0.993149, 185, 169, 216, 200
-0.993153, 309, 345, 340, 375
-0.993154, 253, 285, 284, 316
-0.99316, 29, 145, 60, 272
-0.993168, 125, 1, 156, 128
-0.99321, 475, 97, 490, 160
-0.99329, 177, 149, 304, 180
-0.993297, 209, 1, 272, 256
-0.993309, 1, 97, 256, 160
-0.993343, 399, 209, 414, 272
-0.993389, 81, 233, 208, 296
-0.993401, 337, 233, 464, 264
-0.993444, 329, 161, 344, 224
-0.993469, 337, 117, 464, 148
-0.993476, 13, 97, 44, 224
-0.993496, 413, 201, 428, 264
-0.9935, 177, 257, 304, 288
-0.993526, 65, 1, 128, 128
-0.993539, 353, 57, 480, 120
-0.993631, 321, 185, 448, 216
-0.993916, 393, 209, 408, 272
-0.993921, 273, 241, 304, 368
-0.993924, 369, 1, 400, 128
-0.993957, 65, 177, 320, 240
-0.994032, 197, 241, 228, 368
-0.994033, 65, 73, 320, 136
-0.994055, 65, 105, 192, 168
-0.99413, 353, 209, 480, 240
-0.994132, 405, 209, 420, 272
-0.994134, 81, 1, 144, 375
-0.994135, 429, 193, 444, 256
-0.994144, 291, 113, 306, 176
-0.994171, 289, 117, 416, 148
-0.994174, 223, 249, 238, 312
-0.994229, 241, 249, 256, 312
-0.994252, 441, 105, 456, 168
-0.994313, 69, 65, 100, 192
-0.994331, 1, 73, 500, 136
-0.994338, 333, 241, 348, 304
-0.994354, 193, 269, 320, 300
-0.994362, 483, 113, 498, 176
-0.994364, 1, 257, 500, 320
-0.994372, 257, 261, 384, 292
-0.994377, 273, 173, 400, 204
-0.994378, 1, 1, 64, 375
-0.994383, 457, 185, 472, 248
-0.994387, 113, 169, 240, 200
-0.994403, 247, 225, 262, 288
-0.994459, 81, 81, 112, 208
-0.99453, 387, 217, 402, 280
-0.994537, 349, 233, 364, 296
-0.994538, 29, 97, 60, 224
-0.994546, 451, 177, 466, 240
-0.994588, 465, 89, 480, 152
-0.994601, 209, 241, 336, 272
-0.994622, 257, 185, 384, 216
-0.994637, 431, 113, 446, 176
-0.994667, 257, 281, 500, 344
-0.994675, 231, 249, 246, 312
-0.994678, 297, 97, 312, 160
-0.994692, 257, 105, 384, 136
-0.994704, 323, 153, 338, 216
-0.994706, 97, 233, 352, 296
-0.994732, 469, 1, 500, 128
-0.994734, 353, 137, 480, 168
-0.994748, 225, 161, 352, 192
-0.994755, 231, 137, 246, 200
-0.994756, 209, 281, 336, 312
-0.994816, 343, 233, 358, 296
-0.994819, 381, 217, 396, 280
-0.99483, 353, 253, 480, 284
-0.994839, 291, 145, 306, 208
-0.994881, 177, 169, 192, 232
-0.994913, 305, 33, 432, 96
-0.994922, 197, 145, 212, 208
-0.994938, 273, 157, 400, 188
-0.994987, 433, 97, 464, 352
-0.995007, 161, 1, 288, 64
-0.995013, 477, 121, 492, 184
-0.995019, 297, 145, 312, 208
-0.995038, 447, 113, 462, 176
-0.99507, 377, 97, 408, 352
-0.995097, 33, 49, 160, 112
-0.995139, 177, 161, 304, 192
-0.995159, 343, 97, 358, 160
-0.99516, 299, 121, 314, 184
-0.995168, 1, 177, 500, 240
-0.995173, 285, 121, 300, 184
-0.99518, 285, 153, 300, 216
-0.995207, 387, 241, 402, 304
-0.995224, 97, 281, 352, 344
-0.995266, 321, 105, 448, 136
-0.995275, 471, 73, 486, 136
-0.995275, 459, 89, 474, 152
-0.995276, 129, 153, 256, 184
-0.99531, 447, 153, 462, 216
-0.995317, 209, 129, 336, 160
-0.995326, 1, 153, 500, 216
-0.995333, 217, 129, 232, 192
-0.995356, 393, 241, 408, 304
-0.995358, 185, 169, 200, 232
-0.995393, 191, 153, 206, 216
-0.995409, 225, 149, 352, 180
-0.995422, 317, 161, 332, 224
-0.995424, 399, 241, 414, 304
-0.995434, 145, 273, 272, 304
-0.995438, 161, 57, 416, 120
-0.995447, 257, 65, 500, 128
-0.995456, 303, 145, 318, 208
-0.995463, 295, 169, 310, 232
-0.995468, 177, 85, 304, 116
-0.995474, 393, 113, 408, 176
-0.995478, 449, 201, 464, 264
-0.995497, 17, 1, 80, 128
-0.995498, 65, 49, 320, 112
-0.995498, 457, 161, 472, 224
-0.9955, 251, 265, 266, 328
-0.995507, 419, 209, 434, 272
-0.995514, 211, 129, 226, 192
-0.995515, 357, 233, 372, 296
-0.995533, 353, 173, 480, 204
-0.995537, 137, 177, 168, 304
-0.995546, 293, 9, 308, 72
-0.995559, 249, 97, 280, 224
-0.995568, 65, 165, 192, 196
-0.995579, 41, 145, 72, 272
-0.995621, 289, 273, 416, 304
-0.995642, 401, 121, 416, 184
-0.995658, 253, 233, 268, 296
-0.995677, 483, 89, 498, 152
-0.995693, 449, 65, 480, 320
-0.995695, 417, 129, 448, 375
-0.995711, 437, 217, 452, 280
-0.995719, 351, 105, 366, 168
-0.995729, 225, 173, 352, 204
-0.99573, 437, 193, 452, 256
-0.995734, 1, 217, 500, 280
-0.995737, 33, 257, 288, 320
-0.995739, 257, 249, 384, 280
-0.995741, 257, 1, 500, 64
-0.995744, 97, 25, 352, 88
-0.99575, 81, 241, 208, 368
-0.995752, 305, 97, 320, 160
-0.995752, 237, 81, 268, 208
-0.995767, 233, 273, 248, 336
-0.995775, 297, 73, 312, 136
-0.995788, 137, 161, 152, 224
-0.995821, 437, 161, 452, 224
-0.995821, 193, 117, 320, 148
-0.995823, 289, 233, 416, 264
-0.995823, 417, 137, 432, 200
-0.995823, 369, 197, 496, 228
-0.995827, 299, 9, 314, 72
-0.99584, 405, 129, 436, 375
-0.995853, 169, 225, 200, 352
-0.995861, 453, 113, 468, 176
-0.99587, 217, 249, 232, 312
-0.995876, 239, 137, 254, 200
-0.995894, 205, 105, 220, 168
-0.995899, 259, 233, 274, 296
-0.995901, 413, 249, 428, 312
-0.995915, 311, 105, 326, 168
-0.995925, 339, 161, 354, 224
-0.995926, 351, 169, 366, 232
-0.995927, 97, 1, 352, 64
-0.995938, 63, 153, 78, 216
-0.995941, 193, 97, 320, 128
-0.995955, 425, 217, 440, 280
-0.995976, 301, 169, 316, 232
-0.995981, 287, 89, 302, 152
-0.995982, 311, 161, 326, 224
-0.995988, 161, 245, 288, 276
-0.996009, 469, 113, 484, 176
-0.996009, 427, 137, 442, 200
-0.996017, 239, 225, 254, 288
-0.996023, 327, 241, 342, 304
-0.996026, 225, 273, 240, 336
-0.996071, 239, 273, 254, 336
-0.996089, 147, 161, 162, 224
-0.996095, 425, 249, 440, 312
-0.996095, 17, 161, 144, 192
-0.996097, 431, 169, 446, 232
-0.996108, 33, 181, 160, 212
-0.99611, 211, 249, 226, 312
-0.996142, 231, 113, 246, 176
-0.996177, 333, 49, 364, 176
-0.99619, 407, 121, 422, 184
-0.996208, 257, 133, 384, 164
-0.996212, 323, 177, 338, 240
-0.996222, 291, 33, 306, 96
-0.996229, 407, 233, 422, 296
-0.996242, 361, 169, 376, 232
-0.996247, 463, 185, 478, 248
-0.996257, 389, 129, 420, 375
-0.99626, 281, 33, 312, 288
-0.996264, 301, 65, 332, 320
-0.99628, 365, 65, 396, 320
-0.996283, 165, 153, 180, 216
-0.996283, 113, 105, 240, 136
-0.996302, 387, 121, 402, 184
-0.996303, 181, 33, 212, 160
-0.996316, 177, 73, 304, 104
-0.996334, 363, 225, 378, 288
-0.996344, 395, 137, 410, 200
-0.996346, 129, 261, 256, 292
-0.996354, 371, 153, 386, 216
-0.996357, 81, 149, 208, 180
-0.996367, 257, 9, 384, 40
-0.996374, 183, 145, 198, 208
-0.996377, 129, 141, 256, 172
-0.996377, 225, 25, 480, 88
-0.996379, 307, 313, 322, 375
-0.99638, 203, 145, 218, 208
-0.996388, 321, 149, 448, 180
-0.996394, 443, 217, 458, 280
-0.996395, 137, 241, 200, 368
-0.9964, 57, 193, 120, 320
-0.996413, 297, 41, 312, 104
-0.99642, 451, 89, 466, 152
-0.996424, 201, 257, 216, 320
-0.996442, 307, 73, 322, 136
-0.996459, 337, 97, 352, 160
-0.996475, 419, 249, 434, 312
-0.996482, 325, 97, 340, 160
-0.996484, 225, 129, 240, 192
-0.996485, 261, 257, 276, 320
-0.996489, 161, 285, 288, 316
-0.996491, 211, 105, 226, 168
-0.996492, 241, 229, 368, 260
-0.996496, 1, 9, 500, 72
-0.9965, 155, 161, 170, 224
-0.996549, 353, 33, 480, 96
-0.996551, 475, 145, 490, 208
-0.996554, 475, 105, 490, 136
-0.996554, 305, 133, 432, 164
-0.996565, 345, 153, 360, 216
-0.996565, 75, 153, 90, 216
-0.996568, 355, 193, 370, 256
-0.99657, 369, 105, 496, 136
-0.996586, 337, 65, 368, 320
-0.99662, 375, 217, 390, 280
-0.996621, 313, 1, 328, 64
-0.996627, 357, 105, 372, 168
-0.996653, 37, 49, 68, 176
-0.996659, 305, 197, 432, 228
-0.99666, 425, 113, 440, 176
-0.996664, 457, 189, 472, 220
-0.996664, 69, 153, 84, 216
-0.996717, 353, 265, 480, 296
-0.996813, 257, 93, 384, 124
-0.99682, 25, 49, 56, 176
-0.996825, 273, 145, 400, 176
-0.996838, 305, 261, 432, 292
-0.996855, 33, 209, 288, 272
-0.996872, 193, 57, 320, 88
-0.996872, 193, 185, 320, 216
-0.996875, 113, 121, 240, 152
-0.996883, 113, 185, 240, 216
-0.996887, 461, 145, 492, 272
-0.996894, 113, 85, 240, 116
-0.996912, 257, 21, 384, 52
-0.996922, 1, 233, 256, 296
-0.996966, 161, 229, 288, 260
-0.996971, 209, 293, 336, 324
-0.996974, 17, 241, 144, 304
-0.996996, 305, 285, 432, 316
-0.997024, 305, 57, 432, 120
-0.997044, 457, 177, 472, 208
-0.997051, 441, 113, 456, 144
-0.997083, 475, 117, 490, 148
-0.997095, 449, 193, 464, 224
-0.997098, 369, 185, 496, 216
-0.997104, 177, 173, 304, 204
-0.997115, 113, 25, 240, 56
-0.997118, 237, 145, 252, 176
-0.997134, 481, 113, 496, 144
-0.997137, 113, 73, 240, 104
-0.997143, 461, 65, 492, 320
-0.997149, 193, 45, 320, 76
-0.997158, 313, 97, 344, 352
-0.99717, 353, 97, 384, 352
-0.997178, 335, 185, 350, 216
-0.99719, 407, 233, 422, 264
-0.997198, 113, 5, 240, 36
-0.997205, 341, 185, 356, 216
-0.997209, 389, 241, 404, 272
-0.997242, 449, 209, 464, 240
-0.99725, 465, 189, 480, 220
-0.997255, 439, 213, 454, 244
-0.997261, 81, 257, 208, 320
-0.997307, 247, 233, 262, 264
-0.997313, 225, 325, 352, 356
-0.997316, 113, 37, 240, 68
-0.997326, 289, 221, 416, 252
-0.997342, 369, 157, 496, 188
-0.997344, 329, 181, 344, 212
-0.997375, 81, 209, 208, 272
-0.997394, 177, 1, 304, 32
-0.997402, 347, 185, 362, 216
-0.997408, 325, 97, 356, 352
-0.997419, 177, 33, 304, 64
-0.997428, 235, 277, 250, 308
-0.997435, 369, 277, 496, 308
-0.997451, 251, 273, 266, 304
-0.997461, 221, 273, 236, 304
-0.997462, 257, 33, 384, 64
-0.997467, 399, 237, 414, 268
-0.997469, 229, 277, 244, 308
-0.997471, 241, 277, 256, 308
-0.997472, 285, 157, 300, 188
-0.997474, 291, 153, 306, 184
-0.997477, 109, 33, 140, 160
-0.997484, 1, 193, 128, 224
-0.997525, 229, 141, 244, 172
-0.99753, 459, 201, 474, 232
-0.997532, 113, 49, 240, 80
-0.997532, 443, 193, 458, 224
-0.99754, 465, 93, 480, 124
-0.997544, 213, 253, 228, 284
-0.997549, 243, 149, 258, 180
-0.997573, 225, 345, 352, 375
-0.99758, 17, 129, 144, 160
-0.997584, 263, 265, 278, 296
-0.997587, 409, 125, 424, 156
-0.997589, 329, 249, 344, 280
-0.99759, 357, 181, 372, 212
-0.997614, 353, 93, 480, 124
-0.997632, 435, 121, 450, 152
-0.997636, 341, 105, 356, 136
-0.997647, 279, 161, 294, 192
-0.997648, 257, 197, 384, 228
-0.997651, 325, 161, 340, 192
-0.997657, 199, 261, 214, 292
-0.99766, 403, 133, 418, 164
-0.99766, 305, 17, 432, 48
-0.997664, 257, 57, 384, 88
-0.997668, 241, 237, 256, 268
-0.99767, 451, 181, 466, 212
-0.997682, 129, 313, 384, 375
-0.997684, 417, 205, 432, 236
-0.997687, 305, 209, 336, 336
-0.997707, 425, 201, 440, 232
-0.997719, 295, 185, 310, 216
-0.997722, 427, 129, 442, 160
-0.997722, 303, 181, 318, 212
-0.997727, 389, 1, 420, 256
-0.997734, 269, 97, 300, 352
-0.997735, 177, 13, 304, 44
-0.997735, 219, 249, 234, 280
-0.997739, 363, 181, 378, 212
-0.997742, 231, 241, 246, 272
-0.997744, 17, 117, 144, 148
-0.997754, 295, 137, 310, 168
-0.997758, 335, 245, 350, 276
-0.997759, 319, 157, 334, 188
-0.997763, 301, 157, 316, 188
-0.997765, 199, 149, 214, 180
-0.997767, 97, 273, 224, 304
-0.997771, 185, 161, 200, 192
-0.997778, 209, 269, 224, 300
-0.997783, 433, 197, 448, 228
-0.997783, 411, 209, 426, 240
-0.997784, 157, 169, 172, 200
-0.997792, 447, 113, 462, 144
-0.997792, 193, 265, 208, 296
-0.997795, 113, 61, 240, 92
-0.997796, 257, 269, 272, 300
-0.997802, 301, 169, 316, 200
-0.997807, 377, 1, 408, 256
-0.997816, 481, 125, 496, 156
-0.997819, 269, 261, 284, 292
-0.997819, 305, 5, 432, 36
-0.99782, 147, 173, 162, 204
-0.997821, 403, 213, 418, 244
-0.997824, 417, 33, 448, 288
-0.99783, 421, 141, 436, 172
-0.997836, 281, 129, 312, 375
-0.997844, 153, 65, 184, 320
-0.997846, 383, 221, 398, 252
-0.997846, 387, 253, 402, 284
-0.997847, 161, 129, 288, 160
-0.997852, 323, 177, 338, 208
-0.997855, 49, 101, 176, 132
-0.997856, 321, 161, 448, 192
-0.997862, 187, 265, 202, 296
-0.997863, 289, 113, 304, 144
-0.99787, 473, 93, 488, 124
-0.997871, 175, 157, 190, 188
-0.997872, 155, 181, 170, 212
-0.997876, 367, 101, 382, 132
-0.997885, 167, 165, 182, 196
-0.997889, 307, 157, 322, 188
-0.997889, 369, 181, 384, 212
-0.997894, 323, 249, 338, 280
-0.997907, 293, 9, 308, 40
-0.99791, 455, 109, 470, 140
-0.997919, 399, 121, 414, 152
-0.99792, 237, 157, 252, 188
-0.99792, 225, 313, 352, 344
-0.997923, 215, 265, 230, 296
-0.997931, 217, 137, 232, 168
-0.997935, 413, 229, 428, 260
-0.997941, 67, 181, 82, 212
-0.997942, 283, 121, 298, 152
-0.997943, 469, 109, 484, 140
-0.997948, 1, 1, 128, 64
-0.997951, 225, 261, 240, 292
-0.997953, 113, 249, 240, 280
-0.99796, 289, 345, 416, 375
-0.99796, 459, 93, 474, 124
-0.99796, 241, 117, 368, 148
-0.997961, 287, 169, 302, 200
-0.997964, 257, 45, 384, 76
-0.997965, 1, 33, 500, 96
-0.997969, 231, 153, 246, 184
-0.997975, 317, 1, 348, 256
-0.997981, 301, 141, 316, 172
-0.997981, 313, 157, 328, 188
-0.997985, 335, 173, 350, 204
-0.997987, 483, 101, 498, 132
-0.997993, 97, 197, 224, 228
-0.998001, 419, 125, 434, 156
-0.998006, 425, 221, 440, 252
-0.998009, 391, 217, 406, 248
-0.998012, 273, 69, 400, 100
-0.998018, 181, 129, 212, 375
-0.998018, 313, 169, 328, 200
-0.99802, 397, 137, 412, 168
-0.998025, 353, 289, 480, 320
-0.998028, 205, 257, 220, 288
-0.998032, 165, 1, 196, 256
-0.998035, 357, 105, 372, 136
-0.998041, 303, 129, 318, 160
-0.998045, 295, 121, 310, 152
-0.998046, 375, 173, 390, 204
-0.998049, 471, 181, 486, 212
-0.998051, 133, 65, 164, 320
-0.998054, 33, 149, 160, 180
-0.998059, 269, 1, 300, 256
-0.99806, 483, 137, 498, 168
-0.998066, 353, 1, 480, 64
-0.998072, 295, 109, 310, 140
-0.998073, 293, 21, 308, 52
-0.998074, 177, 173, 192, 204
-0.998078, 431, 217, 446, 248
-0.998086, 203, 273, 218, 304
-0.998094, 85, 1, 116, 128
-0.998095, 275, 257, 290, 288
-0.998095, 61, 161, 76, 192
-0.998096, 309, 181, 324, 212
-0.998097, 481, 177, 496, 208
-0.998097, 193, 153, 208, 184
-0.998106, 367, 113, 382, 144
-0.998109, 185, 241, 216, 368
-0.998112, 223, 141, 238, 172
-0.998112, 351, 173, 366, 204
-0.998115, 449, 221, 464, 252
-0.99812, 289, 181, 304, 212
-0.998123, 465, 177, 480, 208
-0.998138, 113, 237, 240, 268
-0.998143, 49, 193, 176, 224
-0.99819, 217, 129, 248, 375
-0.998196, 405, 33, 436, 288
-0.998202, 197, 97, 228, 352
-0.998214, 161, 313, 288, 375
-0.998235, 129, 217, 256, 248
-0.998325, 33, 21, 160, 52
-0.998335, 65, 1, 96, 128
-0.998351, 273, 209, 400, 240
-0.998365, 289, 313, 416, 344
-0.998386, 257, 81, 384, 112
-0.998394, 293, 31, 324, 46
-0.998395, 213, 261, 244, 276
-0.998396, 345, 193, 376, 208
-0.998397, 233, 151, 264, 166
-0.998399, 245, 161, 276, 176
-0.998401, 133, 183, 164, 198
-0.998402, 461, 193, 492, 208
-0.998404, 201, 147, 232, 162
-0.998405, 293, 51, 324, 66
-0.998405, 225, 169, 256, 184
-0.998406, 297, 193, 328, 208
-0.998406, 205, 165, 236, 180
-0.998406, 281, 99, 312, 114
-0.998407, 221, 291, 252, 306
-0.998407, 389, 125, 420, 140
-0.998408, 405, 207, 436, 222
-0.998408, 289, 153, 320, 168
-0.998409, 285, 195, 316, 210
-0.99841, 225, 243, 256, 258
-0.998411, 293, 167, 324, 182
-0.998411, 313, 179, 344, 194
-0.998412, 285, 115, 316, 130
-0.998413, 445, 219, 476, 234
-0.998414, 201, 259, 232, 274
-0.998415, 281, 159, 344, 174
-0.998415, 469, 127, 500, 142
-0.998417, 321, 185, 384, 200
-0.998417, 429, 251, 460, 266
-0.998417, 293, 37, 324, 52
-0.998418, 357, 191, 388, 206
-0.998418, 277, 153, 308, 168
-0.998419, 321, 251, 352, 266
-0.998422, 209, 277, 272, 292
-0.998426, 257, 159, 288, 174
-0.998427, 241, 271, 272, 286
-0.998427, 193, 169, 224, 184
-0.998427, 293, 45, 324, 60
-0.998427, 297, 347, 328, 362
-0.998429, 245, 245, 276, 260
-0.99843, 425, 115, 488, 130
-0.998431, 265, 273, 296, 288
-0.998431, 401, 229, 464, 244
-0.998432, 209, 253, 240, 268
-0.998432, 293, 355, 324, 370
-0.998435, 441, 207, 472, 222
-0.998435, 53, 163, 84, 178
-0.998435, 385, 239, 416, 254
-0.998436, 141, 169, 172, 184
-0.998436, 161, 163, 224, 178
-0.998437, 269, 167, 300, 182
-0.998437, 365, 107, 396, 122
-0.998439, 189, 265, 220, 280
-0.998439, 233, 157, 264, 172
-0.998439, 433, 1, 464, 256
-0.99844, 233, 291, 264, 306
-0.998441, 173, 171, 204, 186
-0.998441, 345, 121, 376, 136
-0.998442, 205, 283, 236, 298
-0.998442, 281, 187, 312, 202
-0.998442, 385, 133, 448, 148
-0.998443, 245, 283, 276, 298
-0.998443, 421, 227, 452, 242
-0.998444, 289, 129, 320, 144
-0.998444, 197, 277, 228, 292
-0.998446, 257, 279, 288, 294
-0.998446, 189, 157, 220, 172
-0.998447, 217, 141, 248, 156
-0.998447, 153, 165, 184, 180
-0.998449, 241, 163, 304, 178
-0.998449, 453, 205, 484, 220
-0.99845, 293, 361, 324, 375
-0.99845, 421, 139, 452, 154
-0.998451, 281, 185, 344, 200
-0.998452, 293, 107, 324, 122
-0.998456, 145, 185, 176, 200
-0.998456, 301, 187, 332, 202
-0.998457, 453, 125, 484, 140
-0.998458, 409, 197, 472, 212
-0.998459, 305, 159, 336, 174
-0.99846, 449, 185, 480, 200
-0.998461, 441, 111, 472, 126
-0.998461, 289, 105, 352, 120
-0.998461, 425, 121, 488, 136
-0.998461, 329, 195, 360, 210
-0.998462, 181, 271, 212, 286
-0.998464, 217, 281, 248, 296
-0.998466, 289, 135, 320, 150
-0.998466, 313, 111, 376, 126
-0.998466, 1, 101, 128, 132
-0.998467, 397, 137, 428, 152
-0.998469, 361, 185, 392, 200
-0.998469, 237, 239, 268, 254
-0.99847, 425, 115, 456, 130
-0.998474, 313, 103, 344, 118
-0.998475, 293, 159, 324, 174
-0.998476, 261, 263, 292, 278
-0.998477, 469, 103, 500, 118
-0.998477, 185, 277, 216, 292
-0.998478, 409, 203, 472, 218
-0.998478, 225, 1, 288, 128
-0.998478, 457, 199, 488, 214
-0.998483, 313, 165, 344, 180
-0.998484, 309, 197, 340, 212
-0.998486, 193, 147, 256, 162
-0.998486, 409, 145, 440, 160
-0.998486, 321, 193, 384, 208
-0.998486, 401, 209, 464, 224
-0.998493, 229, 285, 260, 300
-0.998493, 97, 1, 128, 128
-0.998494, 185, 163, 248, 178
-0.998495, 289, 191, 352, 206
-0.998495, 289, 325, 416, 356
-0.998496, 313, 185, 344, 200
-0.998496, 453, 117, 484, 132
-0.998497, 465, 183, 496, 198
-0.998497, 305, 29, 432, 60
-0.998498, 369, 247, 432, 262
-0.998499, 433, 109, 496, 124
-0.998499, 385, 139, 448, 154
-0.9985, 33, 37, 160, 68
-0.9985, 357, 119, 388, 134
-0.9985, 273, 99, 336, 114
-0.998502, 201, 157, 264, 172
-0.998502, 185, 275, 248, 290
-0.998503, 337, 113, 368, 128
-0.998505, 401, 123, 464, 138
-0.998506, 397, 237, 428, 252
-0.998509, 237, 167, 268, 182
-0.998511, 353, 1, 384, 256
-0.998512, 429, 215, 460, 230
-0.998514, 177, 217, 304, 248
-0.998514, 317, 191, 348, 206
-0.998515, 69, 177, 100, 304
-0.998515, 297, 101, 328, 116
-0.998515, 357, 113, 388, 128
-0.998515, 429, 125, 460, 140
-0.998516, 201, 267, 232, 282
-0.998516, 281, 165, 344, 180
-0.998516, 337, 119, 400, 134
-0.998517, 177, 269, 240, 284
-0.998519, 233, 273, 296, 288
-0.998519, 345, 109, 408, 124
-0.998521, 393, 235, 456, 250
-0.998521, 413, 121, 444, 136
-0.998524, 469, 115, 500, 130
-0.998526, 377, 221, 440, 236
-0.998526, 405, 231, 436, 246
-0.998527, 297, 197, 360, 212
-0.998528, 377, 253, 440, 268
-0.99853, 329, 105, 360, 120
-0.99853, 241, 155, 304, 170
-0.998531, 253, 269, 284, 284
-0.998531, 189, 163, 220, 178
-0.998531, 349, 107, 380, 122
-0.998532, 125, 177, 156, 304
-0.998534, 137, 169, 200, 184
-0.998535, 313, 105, 376, 120
-0.998536, 361, 231, 424, 246
-0.998537, 409, 141, 472, 156
-0.998538, 289, 181, 320, 196
-0.998539, 469, 109, 500, 124
-0.998539, 169, 165, 200, 180
-0.998539, 157, 171, 188, 186
-0.998541, 337, 239, 400, 254
-0.998542, 377, 125, 440, 140
-0.998543, 425, 129, 488, 144
-0.998543, 229, 279, 260, 294
-0.998544, 393, 215, 456, 230
-0.998545, 229, 145, 260, 160
-0.998545, 457, 103, 488, 118
-0.998548, 353, 65, 480, 96
-0.998549, 113, 185, 176, 200
-0.99855, 401, 223, 464, 238
-0.99855, 209, 285, 272, 300
-0.998553, 217, 251, 280, 266
-0.998553, 441, 213, 472, 228
-0.998555, 241, 277, 272, 292
-0.998557, 469, 121, 500, 136
-0.998558, 425, 221, 456, 236
-0.998558, 265, 93, 328, 108
-0.998558, 273, 257, 336, 272
-0.99856, 1, 65, 32, 192
-0.998562, 161, 157, 224, 172
-0.998563, 137, 163, 200, 178
-0.998565, 281, 161, 312, 176
-0.998567, 193, 141, 256, 156
-0.998567, 161, 169, 224, 184
-0.998567, 425, 219, 488, 234
-0.998569, 265, 87, 328, 102
-0.998571, 437, 117, 468, 132
-0.998573, 353, 271, 416, 286
-0.998573, 289, 179, 352, 194
-0.998574, 145, 175, 208, 190
-0.998575, 409, 129, 440, 144
-0.998575, 185, 287, 248, 302
-0.998576, 401, 245, 464, 260
-0.998576, 265, 361, 328, 375
-0.998576, 225, 147, 288, 162
-0.998577, 225, 245, 288, 260
-0.998577, 33, 65, 64, 320
-0.998578, 385, 117, 448, 132
-0.998579, 201, 269, 264, 284
-0.99858, 377, 147, 440, 162
-0.998583, 257, 305, 500, 368
-0.998583, 433, 191, 496, 206
-0.998584, 345, 187, 408, 202
-0.998584, 353, 143, 416, 158
-0.998587, 321, 165, 384, 180
-0.998587, 249, 129, 280, 375
-0.998588, 453, 111, 484, 126
-0.998589, 169, 281, 232, 296
-0.99859, 265, 81, 328, 96
-0.998592, 225, 169, 288, 184
-0.998592, 49, 159, 112, 174
-0.998593, 329, 245, 392, 260
-0.998593, 337, 263, 400, 278
-0.998594, 287, 97, 302, 224
-0.998595, 73, 181, 136, 196
-0.998595, 241, 141, 304, 156
-0.998595, 185, 169, 248, 184
-0.998596, 161, 275, 224, 290
-0.998596, 233, 279, 296, 294
-0.998597, 425, 99, 488, 114
-0.998598, 457, 97, 488, 112
-0.998598, 377, 241, 440, 256
-0.998599, 313, 253, 376, 268
-0.998599, 353, 125, 416, 140
-0.998599, 273, 171, 336, 186
-0.9986, 265, 105, 328, 120
-0.9986, 369, 111, 432, 126
-0.998602, 273, 345, 336, 360
-0.998603, 363, 193, 378, 320
-0.998603, 337, 103, 400, 118
-0.998607, 209, 261, 272, 276
-0.998607, 177, 197, 304, 228
-0.998608, 273, 27, 336, 42
-0.998608, 273, 197, 336, 212
-0.998609, 349, 185, 380, 200
-0.998609, 265, 131, 328, 146
-0.99861, 217, 291, 280, 306
-0.99861, 65, 121, 192, 152
-0.998611, 437, 195, 468, 210
-0.998611, 313, 177, 376, 192
-0.998612, 41, 179, 104, 194
-0.998614, 265, 75, 328, 90
-0.998614, 395, 193, 410, 320
-0.998615, 369, 277, 432, 292
-0.998616, 265, 355, 328, 370
-0.998616, 57, 187, 120, 202
-0.998617, 153, 269, 216, 284
-0.998617, 273, 21, 336, 36
-0.998617, 97, 179, 160, 194
-0.998618, 209, 275, 240, 290
-0.998619, 273, 339, 336, 354
-0.998619, 305, 123, 368, 138
-0.998619, 53, 33, 84, 160
-0.998621, 321, 157, 384, 172
-0.998622, 425, 213, 488, 228
-0.998623, 177, 135, 240, 150
-0.998624, 233, 239, 296, 254
-0.998625, 185, 261, 248, 276
-0.998625, 273, 53, 336, 68
-0.998625, 153, 181, 216, 196
-0.998626, 297, 357, 360, 372
-0.998626, 273, 33, 336, 48
-0.998627, 273, 39, 336, 54
-0.998628, 289, 135, 352, 150
-0.998628, 409, 109, 472, 124
-0.99863, 289, 263, 352, 278
-0.99863, 385, 245, 416, 260
-0.99863, 249, 99, 312, 114
-0.99863, 265, 67, 328, 82
-0.99863, 337, 179, 400, 194
-0.998632, 361, 117, 424, 132
-0.998633, 433, 177, 496, 192
-0.998633, 113, 171, 176, 186
-0.998633, 401, 253, 464, 268
-0.998634, 265, 251, 328, 266
-0.998634, 281, 153, 344, 168
-0.998635, 217, 139, 280, 154
-0.998636, 333, 187, 364, 202
-0.998639, 81, 261, 208, 292
-0.998641, 437, 97, 452, 224
-0.998655, 33, 9, 160, 40
-0.998667, 305, 297, 432, 328
-0.998668, 437, 161, 452, 288
-0.998675, 351, 177, 366, 304
-0.998684, 417, 193, 432, 320
-0.998717, 371, 193, 386, 320
-0.998721, 449, 191, 480, 206
-0.998721, 321, 17, 352, 144
-0.998728, 407, 193, 422, 320
-0.998739, 429, 161, 444, 288
-0.99874, 65, 89, 192, 120
-0.998755, 33, 205, 160, 236
-0.99877, 355, 113, 370, 240
-0.998789, 377, 193, 392, 320
-0.998793, 357, 177, 372, 304
-0.998794, 353, 81, 480, 112
-0.998797, 399, 129, 414, 256
-0.998798, 89, 193, 152, 320
-0.998807, 345, 97, 360, 224
-0.99881, 413, 129, 428, 256
-0.998812, 389, 193, 404, 320
-0.998819, 443, 161, 458, 288
-0.99882, 33, 57, 160, 88
-0.998827, 443, 97, 458, 224
-0.998836, 405, 145, 420, 272
-0.99884, 423, 193, 438, 320
-0.998845, 1, 17, 256, 80
-0.998855, 299, 1, 314, 128
-0.998856, 465, 81, 480, 208
-0.998862, 65, 281, 192, 344
-0.998864, 113, 313, 240, 375
-0.998865, 331, 177, 346, 304
-0.99887, 45, 1, 76, 256
-0.998875, 305, 93, 432, 124
-0.998876, 161, 297, 288, 328
-0.998878, 345, 177, 360, 304
-0.998883, 169, 97, 200, 352
-0.998889, 475, 97, 490, 224
-0.998891, 225, 69, 352, 100
-0.998892, 453, 97, 468, 224
-0.998892, 293, 81, 308, 208
-0.998897, 401, 193, 416, 320
-0.998913, 181, 33, 212, 288
-0.998918, 361, 113, 376, 240
-0.998922, 339, 97, 354, 224
-0.998932, 473, 33, 488, 160
-0.998948, 121, 129, 152, 375
-0.998951, 1, 281, 500, 344
-0.998955, 419, 129, 434, 256
-0.998956, 249, 209, 264, 336
-0.998961, 459, 81, 474, 208
-0.998964, 365, 65, 380, 192
-0.998978, 229, 97, 260, 352
-0.998985, 53, 97, 84, 352
-0.998988, 449, 177, 464, 304
-0.998992, 281, 97, 296, 224
-0.999015, 351, 225, 366, 352
-0.999024, 73, 33, 104, 288
-0.999033, 383, 209, 398, 336
-0.999036, 371, 113, 386, 240
-0.999043, 393, 113, 408, 240
-0.99905, 177, 145, 192, 272
-0.999052, 481, 97, 496, 224
-0.999055, 479, 49, 494, 176
-0.999056, 329, 81, 344, 208
-0.999062, 209, 97, 224, 224
-0.999067, 435, 209, 450, 336
-0.99907, 431, 113, 446, 240
-0.999072, 311, 1, 326, 128
-0.999074, 183, 145, 198, 272
-0.999077, 337, 177, 352, 304
-0.999078, 377, 113, 392, 240
-0.999085, 293, 33, 308, 160
-0.999088, 291, 145, 306, 272
-0.999096, 287, 17, 302, 144
-0.999114, 441, 209, 456, 336
-0.999124, 425, 113, 440, 240
-0.999129, 357, 225, 372, 352
-0.999133, 419, 241, 434, 368
-0.999135, 221, 209, 236, 336
-0.999141, 285, 145, 300, 272
-0.999142, 485, 49, 500, 176
-0.999151, 113, 33, 144, 288
-0.999155, 89, 33, 120, 288
-0.999164, 261, 145, 292, 272
-0.999174, 323, 97, 338, 224
-0.999174, 215, 113, 230, 240
-0.999176, 345, 225, 360, 352
-0.999196, 301, 129, 316, 256
-0.999197, 425, 241, 440, 368
-0.999209, 17, 97, 48, 352
-0.999213, 243, 225, 258, 352
-0.999216, 325, 177, 340, 304
-0.999223, 383, 113, 398, 240
-0.999228, 371, 33, 386, 160
-0.999236, 369, 305, 496, 368
-0.999236, 171, 161, 186, 288
-0.999239, 389, 65, 404, 192
-0.999256, 307, 49, 322, 176
-0.999277, 281, 49, 296, 176
-0.999277, 165, 145, 180, 272
-0.999286, 225, 161, 240, 288
-0.999287, 235, 225, 250, 352
-0.999289, 479, 1, 494, 128
-0.99929, 389, 241, 404, 368
-0.999295, 261, 209, 276, 336
-0.999297, 467, 33, 482, 160
-0.999306, 159, 145, 174, 272
-0.999306, 203, 97, 218, 224
-0.99931, 113, 289, 240, 352
-0.999311, 457, 161, 472, 288
-0.999311, 231, 145, 246, 272
-0.999312, 65, 313, 192, 375
-0.999312, 383, 161, 398, 288
-0.999314, 397, 241, 412, 368
-0.999321, 213, 193, 228, 320
-0.999322, 413, 241, 428, 368
-0.999322, 301, 65, 316, 192
-0.999329, 177, 97, 192, 224
-0.99933, 329, 129, 344, 256
-0.999341, 317, 81, 332, 208
-0.999342, 149, 161, 164, 288
-0.999346, 339, 225, 354, 352
-0.999346, 101, 33, 132, 288
-0.999351, 355, 65, 370, 192
-0.99936, 231, 97, 246, 224
-0.999365, 205, 1, 236, 128
-0.99937, 227, 209, 242, 336
-0.999382, 285, 193, 300, 320
-0.999387, 319, 161, 334, 288
-0.999396, 221, 65, 236, 192
-0.9994, 77, 129, 92, 256
-0.9994, 139, 129, 154, 256
-0.999408, 245, 145, 260, 272
-0.999411, 371, 241, 386, 368
-0.999412, 171, 113, 186, 240
-0.999413, 183, 97, 198, 224
-0.999414, 383, 65, 398, 192
-0.999416, 255, 209, 270, 336
-0.999425, 189, 145, 204, 272
-0.999427, 447, 49, 462, 176
-0.99943, 49, 97, 64, 224
-0.999434, 215, 65, 230, 192
-0.999437, 311, 97, 326, 224
-0.999443, 57, 177, 88, 304
-0.999446, 275, 113, 290, 240
-0.999446, 141, 81, 156, 208
-0.99945, 239, 113, 254, 240
-0.999451, 215, 241, 230, 368
-0.999452, 209, 241, 224, 368
-0.999453, 17, 145, 48, 272
-0.999454, 395, 65, 410, 192
-0.999465, 219, 161, 234, 288
-0.999469, 153, 81, 168, 208
-0.99947, 405, 97, 420, 224
-0.999474, 279, 161, 294, 288
-0.999479, 365, 241, 380, 368
-0.999482, 217, 33, 248, 288
-0.999483, 313, 161, 328, 288
-0.999487, 377, 241, 392, 368
-0.999489, 17, 1, 48, 256
-0.999493, 55, 129, 70, 256
-0.999615, 237, 253, 252, 268
-0.999615, 217, 287, 232, 302
-0.999615, 249, 285, 264, 300
-0.999615, 373, 181, 388, 196
-0.999616, 265, 275, 280, 290
-0.999617, 245, 243, 260, 258
-0.999617, 279, 165, 294, 180
-0.999618, 209, 275, 224, 290
-0.999619, 211, 265, 226, 280
-0.999619, 297, 103, 312, 118
-0.99962, 455, 185, 470, 200
-0.999621, 221, 281, 236, 296
-0.999621, 349, 115, 364, 130
-0.999621, 407, 231, 422, 246
-0.999624, 271, 263, 286, 278
-0.999626, 303, 181, 318, 196
-0.999626, 345, 105, 360, 120
-0.999627, 201, 1, 232, 256
-0.999629, 289, 123, 304, 138
-0.999629, 461, 203, 476, 218
-0.999629, 243, 251, 258, 266
-0.99963, 237, 289, 252, 304
-0.999631, 465, 197, 480, 212
-0.999631, 303, 359, 318, 374
-0.999632, 307, 101, 322, 116
-0.999632, 243, 291, 258, 306
-0.999632, 333, 195, 348, 210
-0.999632, 175, 173, 190, 188
-0.999632, 167, 165, 182, 180
-0.999633, 243, 149, 258, 164
-0.999633, 409, 125, 424, 140
-0.999634, 199, 271, 214, 286
-0.999634, 223, 289, 238, 304
-0.999634, 325, 163, 340, 178
-0.999635, 481, 111, 496, 126
-0.999635, 451, 111, 466, 126
-0.999635, 367, 107, 382, 122
-0.999637, 205, 263, 220, 278
-0.999638, 469, 123, 484, 138
-0.999638, 433, 125, 448, 140
-0.999638, 451, 215, 466, 230
-0.999639, 425, 127, 440, 142
-0.99964, 305, 187, 320, 202
-0.999641, 349, 121, 364, 136
-0.999641, 441, 121, 456, 136
-0.999642, 231, 145, 246, 160
-0.999643, 195, 263, 210, 278
-0.999643, 235, 169, 250, 184
-0.999643, 199, 277, 214, 292
-0.999643, 185, 171, 200, 186
-0.999645, 219, 251, 234, 266
-0.999646, 301, 197, 316, 212
-0.999646, 155, 185, 170, 200
-0.999646, 189, 273, 204, 288
-0.999647, 231, 257, 246, 272
-0.999647, 455, 209, 470, 224
-0.999648, 205, 163, 220, 178
-0.999649, 465, 95, 480, 110
-0.999649, 339, 105, 354, 120
-0.999649, 105, 129, 136, 375
-0.999649, 265, 265, 280, 280
-0.99965, 223, 261, 238, 276
-0.99965, 293, 153, 308, 168
-0.999651, 241, 167, 256, 182
-0.999652, 77, 129, 108, 375
-0.999655, 189, 267, 204, 282
-0.999655, 259, 267, 274, 282
-0.999655, 211, 283, 226, 298
-0.999656, 459, 95, 474, 110
-0.999656, 243, 277, 258, 292
-0.999656, 367, 113, 382, 128
-0.999658, 289, 185, 304, 200
-0.999659, 159, 169, 174, 184
-0.99966, 215, 273, 230, 288
-0.99966, 331, 189, 346, 204
-0.999661, 253, 273, 268, 288
-0.999662, 427, 225, 442, 240
-0.999662, 217, 265, 232, 280
-0.999666, 255, 285, 270, 300
-0.999666, 297, 181, 312, 196
-0.999668, 247, 237, 262, 252
-0.999669, 443, 193, 458, 208
-0.999669, 359, 109, 374, 124
-0.99967, 231, 279, 246, 294
-0.99967, 295, 191, 310, 206
-0.999672, 481, 177, 496, 192
-0.999672, 233, 245, 248, 260
-0.999674, 251, 163, 266, 178
-0.999674, 295, 133, 310, 148
-0.999675, 189, 163, 204, 178
-0.999675, 299, 159, 314, 174
-0.999676, 325, 193, 340, 208
-0.999676, 367, 185, 382, 200
-0.999677, 443, 211, 458, 226
-0.999677, 213, 257, 228, 272
-0.99968, 419, 229, 434, 244
-0.99968, 225, 249, 240, 264
-0.999681, 417, 121, 432, 136
-0.999681, 165, 171, 180, 186
-0.999682, 449, 117, 464, 132
-0.999685, 221, 275, 236, 290
-0.999685, 291, 159, 306, 174
-0.999686, 305, 133, 320, 148
-0.999686, 481, 125, 496, 140
-0.999687, 351, 107, 366, 122
-0.999688, 323, 253, 338, 268
-0.999689, 239, 241, 254, 256
-0.99969, 453, 197, 468, 212
-0.99969, 465, 191, 480, 206
-0.99969, 431, 219, 446, 234
-0.999691, 455, 203, 470, 218
-0.999694, 355, 117, 370, 132
-0.999694, 473, 99, 488, 114
-0.999696, 355, 185, 370, 200
-0.999699, 397, 239, 412, 254
-0.999701, 57, 1, 88, 256
-0.999701, 285, 163, 300, 178
-0.999705, 413, 229, 428, 244
-0.999714, 441, 113, 456, 128
-0.999716, 405, 237, 420, 252
-0.999717, 449, 191, 464, 206
-0.999721, 345, 187, 360, 202
-0.999724, 237, 147, 252, 162
-0.999727, 475, 113, 490, 128
-0.999736, 337, 187, 352, 202
-0.999738, 459, 197, 474, 212
-0.99974, 481, 117, 496, 132
-0.999747, 5, 65, 36, 320
-0.999754, 361, 185, 376, 200
-0.999761, 389, 243, 404, 258
-0.999777, 449, 209, 464, 224
-0.999784, 439, 217, 454, 232
-0.999805, 475, 121, 490, 136
-0.999806, 65, 129, 96, 375
-0.999817, 93, 129, 124, 375
-0.999823, 1, 281, 256, 344
-0.999826, 459, 191, 474, 206
-0.999855, 475, 107, 490, 122
-0.999985, 33, 313, 288, 375
-1.00017, 257, 1, 288, 256
-1.0003, 241, 1, 272, 256
-1.00033, 1, 313, 500, 375
-1.00046, 17, 281, 144, 344
-1.00071, 1, 313, 128, 375
-1.00071, 229, 1, 260, 256
-1.00099, 353, 1, 416, 128
-1.003, 17, 241, 144, 368
-1.00344, 33, 209, 96, 336
-1.00383, 113, 225, 176, 352
-1.00617, 9, 241, 72, 368
-1.00655, 433, 1, 496, 128
-1.0075, 89, 241, 152, 368
-1.00935, 65, 241, 128, 368
