1970
-0.346927, 1, 1, 374, 500
-0.382857, 1, 1, 374, 256
-0.452531, 1, 97, 374, 352
-0.528383, 1, 1, 256, 500
-0.541975, 1, 225, 374, 480
-0.548643, 129, 1, 374, 500
-0.596616, 129, 97, 374, 352
-0.601148, 97, 1, 352, 256
-0.654039, 1, 1, 256, 256
-0.69223, 1, 161, 256, 416
-0.752791, 97, 193, 352, 448
-0.767908, 1, 257, 256, 500
-0.847694, 161, 1, 288, 256
-0.85637, 241, 33, 368, 288
-0.864412, 1, 1, 128, 256
-0.866167, 97, 161, 224, 416
-0.869902, 65, 1, 192, 500
-0.870216, 1, 1, 128, 500
-0.87256, 1, 33, 374, 160
-0.873861, 81, 33, 208, 288
-0.87885, 33, 257, 160, 500
-0.880178, 129, 1, 256, 500
-0.889267, 177, 1, 304, 500
-0.890724, 145, 129, 272, 384
-0.89158, 1, 129, 128, 384
-0.89183, 225, 1, 352, 500
-0.895037, 1, 97, 374, 224
-0.897069, 1, 145, 374, 272
-0.907098, 209, 161, 336, 416
-0.907434, 49, 129, 176, 384
-0.91351, 1, 1, 256, 128
-0.914355, 1, 241, 374, 368
-0.915312, 129, 257, 256, 500
-0.915665, 129, 1, 374, 128
-0.921803, 97, 49, 352, 176
-0.926785, 81, 257, 208, 500
-0.929752, 241, 33, 368, 160
-0.929938, 1, 289, 374, 416
-0.930643, 161, 1, 288, 128
-0.934276, 177, 257, 304, 500
-0.93464, 17, 209, 80, 336
-0.93647, 1, 369, 374, 496
-0.936676, 129, 97, 374, 224
-0.936722, 1, 257, 256, 384
-0.939173, 249, 33, 312, 160
-0.939362, 225, 257, 352, 500
-0.9404, 305, 33, 368, 160
-0.940816, 1, 145, 256, 272
-0.941874, 281, 1, 344, 128
-0.943324, 177, 49, 304, 176
-0.943587, 33, 257, 160, 384
-0.94534, 129, 161, 374, 288
-0.945497, 217, 1, 280, 128
-0.945513, 129, 161, 256, 288
-0.946136, 57, 209, 120, 336
-0.946219, 1, 209, 256, 336
-0.946528, 97, 17, 224, 144
-0.946603, 49, 257, 112, 384
-0.947573, 129, 145, 192, 272
-0.948181, 1, 65, 256, 192
-0.948196, 65, 97, 192, 224
-0.948205, 9, 273, 72, 400
-0.948613, 177, 113, 240, 240
-0.948688, 177, 33, 240, 160
-0.948931, 1, 145, 128, 272
-0.949071, 1, 17, 128, 144
-0.94948, 65, 369, 320, 496
-0.94985, 25, 257, 88, 320
-0.949906, 129, 97, 256, 224
-0.949912, 273, 17, 336, 80
-0.950284, 241, 97, 368, 224
-0.950336, 1, 209, 128, 336
-0.95106, 273, 97, 336, 224
-0.952278, 1, 193, 374, 320
-0.952435, 97, 145, 160, 272
-0.952489, 65, 145, 192, 272
-0.9525, 153, 81, 216, 208
-0.952717, 233, 33, 296, 96
-0.953151, 193, 97, 320, 224
-0.953354, 113, 33, 176, 160
-0.953725, 217, 9, 280, 72
-0.954807, 129, 161, 192, 224
-0.955196, 281, 49, 344, 176
-0.955259, 113, 193, 176, 320
-0.955384, 49, 33, 176, 160
-0.95555, 81, 241, 208, 368
-0.955726, 153, 17, 216, 144
-0.956832, 153, 145, 216, 272
-0.956918, 305, 33, 368, 96
-0.9571, 17, 145, 80, 272
-0.957119, 121, 97, 184, 224
-0.957624, 177, 41, 240, 104
-0.957654, 17, 97, 144, 224
-0.957664, 97, 25, 160, 88
-0.957755, 137, 193, 200, 320
-0.958269, 257, 49, 320, 112
-0.958353, 153, 153, 216, 216
-0.958355, 217, 97, 280, 224
-0.958607, 249, 433, 312, 496
-0.958705, 97, 321, 352, 448
-0.958782, 105, 241, 168, 368
-0.95882, 209, 161, 336, 288
-0.959203, 57, 273, 120, 336
-0.959545, 233, 161, 296, 288
-0.960221, 305, 81, 368, 208
-0.960235, 225, 49, 288, 176
-0.960314, 73, 257, 136, 384
-0.960752, 97, 225, 352, 352
-0.960902, 249, 97, 312, 224
-0.960913, 97, 377, 160, 440
-0.961452, 49, 193, 176, 320
-0.961745, 313, 65, 374, 128
-0.961982, 9, 17, 72, 144
-0.961998, 9, 281, 72, 344
-0.962401, 233, 73, 296, 136
-0.963118, 121, 369, 184, 496
-0.963123, 185, 145, 248, 208
-0.963291, 209, 145, 272, 272
-0.963339, 73, 233, 136, 296
-0.963426, 313, 97, 374, 160
-0.963534, 137, 1, 200, 64
-0.963584, 81, 145, 144, 208
-0.963783, 233, 161, 296, 224
-0.963962, 105, 153, 168, 216
-0.964497, 177, 161, 240, 288
-0.96455, 249, 1, 312, 64
-0.964598, 281, 41, 344, 104
-0.965213, 241, 1, 304, 256
-0.965243, 241, 49, 368, 112
-0.965259, 161, 129, 224, 192
-0.965463, 297, 1, 360, 64
-0.965507, 177, 17, 240, 80
-0.965547, 17, 217, 80, 280
-0.966086, 89, 97, 152, 224
-0.966333, 33, 281, 96, 344
-0.966858, 33, 305, 96, 432
-0.966967, 1, 305, 256, 432
-0.967093, 97, 273, 352, 400
-0.967131, 257, 161, 320, 288
-0.967146, 137, 193, 200, 256
-0.967307, 129, 241, 256, 368
-0.967413, 281, 369, 344, 496
-0.967443, 73, 33, 136, 160
-0.967513, 65, 97, 128, 224
-0.967628, 49, 249, 112, 312
-0.96765, 105, 241, 168, 304
-0.967708, 161, 369, 288, 496
-0.967718, 17, 369, 144, 496
-0.967796, 113, 265, 176, 328
-0.968075, 129, 241, 192, 368
-0.96815, 1, 241, 64, 304
-0.968364, 265, 1, 328, 256
-0.968745, 57, 17, 120, 80
-0.968773, 113, 337, 240, 464
-0.968965, 121, 97, 184, 352
-0.969, 105, 217, 168, 280
-0.969009, 81, 193, 144, 320
-0.969042, 177, 73, 240, 136
-0.969043, 129, 137, 192, 200
-0.969093, 161, 33, 288, 96
-0.969121, 209, 65, 272, 128
-0.969207, 137, 57, 200, 120
-0.96922, 313, 1, 374, 256
-0.969264, 1, 305, 128, 432
-0.96951, 49, 145, 112, 272
-0.969701, 129, 137, 256, 200
-0.969756, 257, 97, 320, 160
-0.969781, 41, 1, 104, 128
-0.969974, 161, 185, 224, 248
-0.970408, 241, 369, 368, 496
-0.970617, 193, 121, 256, 184
-0.970683, 249, 1, 280, 128
-0.970723, 137, 377, 200, 440
-0.970791, 153, 129, 216, 384
-0.970799, 253, 33, 284, 96
-0.970823, 65, 153, 192, 216
-0.970874, 201, 33, 264, 96
-0.971028, 41, 201, 104, 264
-0.971271, 241, 17, 368, 80
-0.971347, 65, 369, 192, 496
-0.971416, 145, 161, 176, 288
-0.971449, 89, 57, 152, 120
-0.971645, 145, 353, 208, 480
-0.971862, 289, 1, 352, 256
-0.971923, 145, 233, 208, 296
-0.972024, 9, 169, 72, 232
-0.972034, 49, 153, 112, 216
-0.972139, 201, 49, 264, 176
-0.972201, 265, 17, 296, 144
-0.972228, 113, 113, 176, 176
-0.972288, 121, 225, 184, 480
-0.972296, 1, 193, 64, 256
-0.972312, 289, 105, 352, 168
-0.972335, 65, 121, 128, 184
-0.9726, 25, 305, 88, 368
-0.972702, 209, 161, 272, 224
-0.97282, 177, 9, 304, 72
-0.972895, 89, 1, 152, 64
-0.972972, 57, 257, 120, 500
-0.973113, 265, 25, 296, 88
-0.973136, 45, 281, 76, 344
-0.973245, 153, 81, 216, 144
-0.973252, 33, 225, 64, 352
-0.973305, 261, 65, 292, 128
-0.973309, 97, 129, 160, 384
-0.973369, 257, 161, 320, 224
-0.973507, 57, 257, 88, 320
-0.973887, 49, 265, 176, 328
-0.974259, 121, 25, 184, 88
-0.974278, 345, 49, 374, 112
-0.974321, 1, 257, 128, 320
-0.974337, 17, 1, 80, 256
-0.974378, 81, 25, 208, 88
-0.974448, 81, 257, 144, 320
-0.974531, 137, 161, 168, 224
-0.974597, 161, 1, 224, 256
-0.974662, 73, 1, 136, 256
-0.974766, 233, 137, 296, 200
-0.974807, 113, 401, 176, 464
-0.974809, 1, 145, 64, 208
-0.974859, 309, 1, 340, 128
-0.975101, 193, 145, 224, 208
-0.975174, 249, 65, 280, 128
-0.975316, 17, 97, 80, 224
-0.975362, 217, 1, 280, 256
-0.975452, 145, 25, 208, 88
-0.975467, 281, 49, 312, 176
-0.975623, 1, 161, 64, 416
-0.975675, 69, 273, 100, 336
-0.975692, 333, 73, 364, 136
-0.975731, 301, 17, 332, 80
-0.975739, 241, 161, 272, 224
-0.975754, 285, 1, 316, 128
-0.975874, 9, 193, 40, 320
-0.975876, 129, 289, 256, 416
-0.975895, 261, 161, 292, 224
-0.976013, 345, 81, 374, 144
-0.976154, 73, 97, 136, 160
-0.976261, 345, 33, 374, 160
-0.976294, 45, 257, 76, 384
-0.976302, 121, 17, 152, 80
-0.976397, 205, 145, 236, 208
-0.976506, 325, 1, 356, 64
-0.976612, 161, 105, 224, 168
-0.976616, 105, 25, 136, 88
-0.976752, 17, 145, 144, 208
-0.976798, 273, 433, 304, 496
-0.976828, 49, 241, 176, 304
-0.976871, 97, 257, 160, 500
-0.976914, 21, 241, 52, 304
-0.976973, 41, 225, 104, 288
-0.977016, 65, 97, 192, 160
-0.977062, 33, 177, 96, 240
-0.977069, 297, 97, 328, 224
-0.977075, 73, 145, 136, 272
-0.977106, 333, 33, 364, 96
-0.97714, 313, 17, 344, 80
-0.977276, 165, 153, 196, 216
-0.977306, 281, 161, 312, 224
-0.977481, 273, 97, 336, 352
-0.977521, 257, 73, 320, 136
-0.977527, 149, 185, 180, 248
-0.977561, 237, 65, 268, 128
-0.977661, 225, 153, 256, 216
-0.977773, 129, 1, 256, 64
-0.977776, 81, 121, 208, 184
-0.977815, 113, 49, 176, 112
-0.977883, 137, 1, 200, 256
-0.977943, 165, 129, 196, 256
-0.977992, 105, 369, 136, 432
-0.977999, 237, 17, 268, 144
-0.978093, 205, 145, 236, 272
-0.978156, 113, 1, 176, 64
-0.978158, 33, 161, 96, 416
-0.978192, 161, 57, 288, 120
-0.978192, 21, 209, 52, 336
-0.978221, 81, 281, 144, 344
-0.978285, 33, 1, 96, 64
-0.978308, 105, 1, 168, 256
-0.978375, 141, 225, 172, 288
-0.9784, 129, 145, 160, 272
-0.978451, 289, 1, 320, 64
-0.978452, 57, 297, 120, 360
-0.978512, 313, 49, 344, 176
-0.97852, 193, 129, 224, 256
-0.978523, 261, 425, 292, 488
-0.978656, 9, 417, 72, 480
-0.97871, 237, 1, 268, 64
-0.978767, 133, 377, 164, 440
-0.978842, 185, 177, 216, 304
-0.978892, 17, 1, 48, 128
-0.978932, 9, 257, 72, 500
-0.978957, 333, 1, 364, 128
-0.978994, 1, 17, 128, 80
-0.979003, 273, 97, 304, 224
-0.97903, 281, 289, 344, 416
-0.979056, 33, 249, 64, 312
-0.979074, 313, 305, 374, 432
-0.97908, 81, 1, 208, 64
-0.979092, 77, 249, 108, 312
-0.97911, 273, 137, 336, 200
-0.979129, 185, 169, 248, 232
-0.97914, 225, 425, 288, 488
-0.979196, 97, 369, 160, 496
-0.979299, 241, 89, 368, 152
-0.979337, 33, 305, 64, 368
-0.979345, 161, 177, 288, 240
-0.979361, 129, 89, 192, 152
-0.979462, 253, 49, 284, 176
-0.979464, 297, 17, 328, 144
-0.979506, 181, 49, 212, 112
-0.979518, 33, 273, 64, 336
-0.979528, 193, 89, 320, 152
-0.979554, 289, 65, 352, 128
-0.979556, 321, 1, 352, 128
-0.979632, 305, 145, 368, 272
-0.979659, 133, 225, 164, 352
-0.979705, 169, 49, 200, 112
-0.979784, 257, 369, 320, 496
-0.979869, 117, 153, 148, 216
-0.979928, 57, 305, 120, 432
-0.980006, 257, 1, 288, 64
-0.980007, 217, 97, 280, 160
-0.980017, 73, 377, 136, 440
-0.980094, 57, 161, 120, 416
-0.980119, 161, 209, 224, 336
-0.980147, 113, 73, 240, 136
-0.980224, 209, 161, 336, 224
-0.980244, 1, 185, 32, 248
-0.980429, 65, 209, 128, 272
-0.980444, 45, 209, 76, 336
-0.980511, 81, 177, 208, 240
-0.980516, 321, 41, 352, 104
-0.980526, 177, 305, 304, 432
-0.980528, 57, 161, 88, 224
-0.980554, 185, 17, 216, 144
-0.980581, 45, 241, 76, 304
-0.980625, 113, 353, 176, 416
-0.980679, 93, 137, 124, 200
-0.980691, 241, 161, 272, 288
-0.9808, 305, 129, 368, 384
-0.980806, 293, 161, 324, 224
-0.980814, 137, 353, 200, 416
-0.980814, 185, 177, 216, 240
-0.980832, 213, 97, 244, 224
-0.980836, 241, 137, 368, 200
-0.980969, 185, 17, 216, 80
-0.980971, 225, 145, 256, 272
-0.980974, 57, 57, 120, 120
-0.980977, 57, 257, 88, 384
-0.981055, 265, 393, 328, 456
-0.981081, 173, 177, 204, 240
-0.981094, 305, 353, 368, 480
-0.981143, 49, 369, 176, 432
-0.981153, 81, 49, 208, 112
-0.981242, 233, 369, 296, 496
-0.981282, 25, 209, 56, 272
-0.981311, 281, 49, 312, 112
-0.981364, 65, 233, 96, 296
-0.981365, 297, 137, 328, 200
-0.981383, 305, 161, 368, 224
-0.981414, 281, 161, 312, 288
-0.981481, 33, 273, 64, 400
-0.981528, 77, 153, 108, 216
-0.98162, 49, 217, 176, 280
-0.981636, 205, 113, 236, 176
-0.981661, 1, 33, 32, 160
-0.9817, 161, 113, 288, 176
-0.981701, 161, 177, 192, 304
-0.981789, 193, 1, 256, 256
-0.98179, 49, 305, 176, 432
-0.981801, 17, 289, 144, 352
-0.981851, 241, 305, 368, 432
-0.981874, 1, 201, 128, 264
-0.98191, 57, 297, 88, 360
-0.981939, 145, 241, 176, 368
-0.981957, 49, 1, 112, 256
-0.982005, 17, 145, 48, 272
-0.982118, 145, 97, 176, 224
-0.982134, 177, 97, 240, 352
-0.982212, 245, 97, 276, 224
-0.982224, 17, 121, 144, 184
-0.982242, 193, 97, 256, 160
-0.98227, 97, 81, 160, 144
-0.982381, 1, 305, 64, 368
-0.982485, 57, 177, 120, 240
-0.982569, 141, 265, 172, 328
-0.982592, 261, 97, 292, 224
-0.982602, 177, 433, 304, 496
-0.982606, 245, 433, 276, 496
-0.982621, 129, 249, 160, 312
-0.982622, 249, 97, 312, 352
-0.98264, 325, 49, 356, 176
-0.982659, 89, 121, 152, 184
-0.982663, 9, 1, 72, 64
-0.982676, 121, 17, 152, 144
-0.982742, 97, 257, 224, 320
-0.982861, 129, 225, 256, 288
-0.982967, 133, 17, 164, 144
-0.983053, 89, 225, 120, 352
-0.983125, 317, 97, 348, 224
-0.983195, 205, 169, 236, 232
-0.983217, 1, 1, 64, 500
-0.983272, 297, 361, 360, 424
-0.983311, 117, 129, 148, 192
-0.983315, 217, 185, 280, 248
-0.983319, 317, 153, 348, 216
-0.983394, 69, 121, 100, 184
-0.983427, 13, 281, 44, 344
-0.983534, 169, 25, 200, 88
-0.983615, 281, 329, 344, 392
-0.983641, 133, 25, 164, 88
-0.983652, 41, 217, 72, 280
-0.983683, 9, 25, 72, 88
-0.983715, 261, 145, 292, 272
-0.983776, 1, 177, 128, 240
-0.983801, 137, 401, 200, 464
-0.983821, 169, 81, 200, 208
-0.983824, 105, 193, 168, 256
-0.983908, 13, 425, 44, 488
-0.983912, 113, 97, 240, 160
-0.983997, 113, 321, 176, 448
-0.984016, 253, 89, 284, 152
-0.984031, 113, 361, 240, 424
-0.984036, 25, 353, 88, 480
-0.984079, 93, 57, 124, 120
-0.984112, 109, 1, 140, 128
-0.984134, 121, 225, 152, 352
-0.984144, 281, 25, 312, 88
-0.984144, 9, 249, 40, 312
-0.984165, 249, 185, 312, 248
-0.984197, 145, 225, 208, 480
-0.984202, 41, 121, 104, 184
-0.984219, 49, 321, 80, 384
-0.984266, 45, 177, 76, 240
-0.984285, 17, 121, 80, 184
-0.984311, 321, 65, 352, 128
-0.984324, 189, 121, 220, 184
-0.984363, 105, 145, 136, 208
-0.984405, 105, 241, 136, 368
-0.984411, 53, 145, 84, 272
-0.984426, 81, 273, 112, 336
-0.984493, 305, 257, 368, 384
-0.984496, 241, 33, 272, 96
-0.984597, 1, 233, 128, 296
-0.984648, 117, 41, 148, 104
-0.984677, 129, 1, 192, 500
-0.984741, 9, 241, 40, 368
-0.984745, 153, 305, 216, 432
-0.984829, 289, 193, 352, 320
-0.984833, 289, 417, 352, 480
-0.984877, 169, 17, 200, 144
-0.984911, 225, 97, 256, 224
-0.984919, 13, 201, 44, 264
-0.984964, 61, 193, 92, 320
-0.984977, 185, 81, 216, 208
-0.985027, 345, 113, 374, 240
-0.985053, 121, 369, 152, 432
-0.985113, 277, 137, 308, 200
-0.985119, 21, 273, 52, 400
-0.985155, 137, 257, 200, 320
-0.985161, 113, 385, 240, 448
-0.985179, 1, 145, 32, 272
-0.985198, 69, 257, 100, 384
-0.985211, 89, 417, 152, 480
-0.985216, 273, 353, 336, 416
-0.985226, 153, 257, 216, 384
-0.985232, 161, 369, 224, 432
-0.985235, 101, 193, 132, 320
-0.98526, 225, 433, 352, 496
-0.985333, 73, 177, 104, 240
-0.985356, 93, 257, 124, 320
-0.985356, 93, 361, 124, 424
-0.985362, 1, 161, 32, 224
-0.985426, 165, 81, 196, 144
-0.985473, 153, 145, 184, 208
-0.985534, 73, 369, 136, 496
-0.98556, 209, 225, 336, 352
-0.985579, 45, 305, 76, 432
-0.985655, 313, 337, 374, 400
-0.985726, 1, 409, 128, 472
-0.985737, 161, 201, 192, 264
-0.985751, 261, 369, 292, 496
-0.985778, 85, 17, 116, 80
-0.985807, 153, 305, 216, 368
-0.985874, 21, 161, 52, 224
-0.985883, 313, 105, 344, 168
-0.985905, 333, 97, 364, 160
-0.985922, 305, 41, 336, 104
-0.985929, 193, 137, 320, 200
-0.985984, 81, 33, 112, 160
-0.985994, 225, 1, 256, 64
-0.985997, 285, 97, 316, 224
-0.986026, 217, 97, 280, 352
-0.986048, 305, 137, 368, 200
-0.986079, 229, 41, 260, 104
-0.986085, 177, 129, 208, 192
-0.98612, 197, 33, 228, 96
-0.986139, 293, 97, 324, 160
-0.986157, 113, 97, 144, 224
-0.986189, 329, 161, 360, 224
-0.986221, 109, 1, 140, 64
-0.986289, 313, 185, 374, 248
-0.986314, 1, 57, 128, 120
-0.986338, 1, 225, 32, 288
-0.986343, 225, 1, 256, 128
-0.986381, 105, 241, 136, 304
-0.986465, 25, 145, 88, 208
-0.986499, 245, 137, 276, 200
-0.986543, 129, 305, 192, 368
-0.986596, 33, 1, 64, 64
-0.986619, 173, 177, 204, 304
-0.986643, 1, 97, 128, 160
-0.986732, 153, 57, 184, 120
-0.986747, 289, 425, 320, 488
-0.986755, 81, 185, 144, 248
-0.986777, 105, 1, 168, 500
-0.98679, 181, 73, 212, 136
-0.986807, 285, 369, 316, 496
-0.986819, 197, 33, 228, 160
-0.986821, 9, 353, 40, 480
-0.986886, 33, 257, 96, 500
-0.986905, 197, 81, 228, 144
-0.986965, 129, 225, 160, 288
-0.987, 49, 97, 112, 160
-0.987046, 345, 145, 374, 208
-0.987053, 225, 177, 256, 240
-0.98712, 33, 1, 96, 500
-0.987122, 257, 305, 320, 432
-0.987254, 105, 393, 136, 456
-0.987291, 85, 97, 116, 160
-0.987296, 181, 129, 212, 256
-0.987391, 113, 201, 240, 264
-0.9874, 249, 1, 312, 500
-0.98741, 265, 89, 296, 152
-0.987461, 161, 209, 224, 272
-0.987482, 297, 377, 328, 440
-0.987496, 89, 177, 120, 240
-0.987552, 137, 113, 200, 176
-0.98756, 33, 25, 96, 88
-0.987581, 137, 369, 168, 496
-0.987622, 241, 113, 368, 176
-0.987684, 261, 137, 292, 200
-0.987735, 281, 105, 312, 168
-0.987791, 117, 241, 148, 304
-0.987818, 305, 1, 368, 500
-0.987829, 153, 1, 216, 500
-0.987894, 345, 121, 374, 184
-0.987956, 73, 113, 104, 240
-0.987968, 93, 233, 124, 296
-0.988022, 133, 81, 164, 208
-0.988044, 109, 265, 140, 328
-0.988077, 149, 385, 180, 448
-0.988114, 297, 145, 328, 272
-0.988143, 57, 1, 120, 500
-0.988144, 289, 385, 352, 448
-0.988178, 65, 393, 192, 456
-0.988207, 177, 1, 240, 500
-0.988253, 193, 345, 256, 408
-0.98827, 113, 161, 144, 288
-0.988273, 225, 385, 352, 448
-0.988332, 33, 433, 96, 496
-0.988355, 121, 401, 152, 464
-0.988401, 145, 33, 176, 160
-0.988424, 33, 313, 160, 376
-0.988438, 177, 321, 240, 448
-0.988443, 345, 169, 374, 232
-0.988452, 85, 273, 116, 400
-0.98848, 277, 393, 308, 456
-0.988524, 109, 49, 140, 176
-0.988531, 297, 289, 328, 416
-0.988649, 93, 49, 124, 176
-0.988664, 113, 337, 240, 400
-0.988681, 265, 241, 328, 368
-0.988704, 337, 161, 368, 288
-0.988747, 1, 361, 64, 424
-0.988756, 101, 369, 132, 496
-0.988815, 281, 161, 344, 224
-0.988917, 305, 289, 368, 352
-0.988984, 25, 285, 88, 316
-0.988988, 105, 165, 168, 196
-0.989098, 81, 153, 144, 184
-0.989132, 97, 381, 160, 412
-0.989169, 97, 25, 160, 56
-0.989202, 65, 41, 320, 104
-0.989233, 81, 1, 144, 500
-0.989249, 101, 113, 132, 240
-0.989329, 281, 1, 344, 500
-0.989331, 317, 161, 348, 288
-0.989339, 49, 273, 112, 304
-0.989359, 313, 45, 374, 76
-0.989408, 233, 165, 296, 196
-0.98941, 77, 209, 108, 336
-0.989446, 257, 33, 320, 64
-0.989451, 25, 261, 88, 292
-0.989458, 281, 13, 344, 44
-0.989479, 241, 393, 304, 456
-0.989484, 161, 137, 224, 168
-0.989499, 213, 17, 244, 144
-0.989615, 129, 329, 192, 392
-0.989635, 233, 45, 296, 76
-0.989651, 145, 173, 208, 204
-0.989716, 233, 305, 296, 432
-0.989738, 273, 45, 336, 76
-0.989796, 41, 161, 72, 288
-0.989799, 289, 185, 352, 248
-0.989805, 65, 73, 192, 136
-0.989823, 257, 21, 320, 52
-0.989841, 177, 37, 240, 68
-0.989873, 89, 269, 152, 300
-0.989879, 233, 33, 296, 64
-0.989891, 217, 177, 280, 208
-0.989925, 177, 409, 304, 472
-0.98993, 1, 369, 128, 432
-0.98994, 129, 153, 192, 184
-0.989945, 233, 193, 296, 448
-0.989971, 21, 369, 52, 496
-0.989984, 177, 13, 240, 44
-0.989998, 233, 1, 296, 32
-0.990009, 281, 33, 344, 64
-0.990013, 17, 305, 80, 336
-0.990035, 113, 405, 176, 436
-0.990056, 217, 17, 280, 48
-0.990084, 65, 289, 192, 352
-0.990104, 69, 1, 100, 128
-0.990118, 241, 441, 304, 472
-0.990182, 97, 37, 160, 68
-0.990213, 41, 301, 104, 332
-0.990248, 197, 81, 228, 208
-0.990251, 297, 1, 360, 32
-0.990266, 85, 97, 116, 224
-0.990266, 281, 57, 344, 88
-0.990277, 157, 81, 188, 208
-0.990296, 225, 49, 256, 176
-0.990301, 209, 185, 336, 248
-0.990312, 177, 25, 240, 56
-0.990316, 33, 225, 96, 256
-0.990323, 97, 17, 352, 80
-0.990352, 129, 305, 256, 368
-0.99037, 281, 145, 344, 272
-0.990375, 209, 77, 272, 108
-0.990383, 209, 1, 272, 500
-0.990394, 25, 273, 88, 304
-0.9904, 153, 161, 216, 192
-0.990422, 113, 393, 176, 424
-0.990426, 137, 393, 200, 424
-0.99046, 313, 25, 374, 56
-0.99047, 9, 245, 72, 276
-0.990493, 33, 213, 96, 244
-0.990497, 113, 249, 176, 280
-0.990501, 313, 65, 374, 96
-0.990503, 73, 225, 136, 256
-0.990535, 1, 289, 32, 416
-0.990538, 177, 361, 304, 424
-0.990539, 249, 69, 312, 100
-0.990551, 305, 13, 368, 44
-0.990567, 137, 29, 200, 60
-0.990642, 41, 317, 104, 348
-0.990674, 245, 369, 276, 496
-0.990675, 233, 97, 296, 128
-0.99069, 57, 285, 120, 316
-0.990694, 209, 5, 272, 36
-0.990714, 313, 89, 374, 120
-0.990714, 225, 57, 288, 88
-0.990736, 217, 209, 280, 336
-0.990757, 209, 29, 272, 60
-0.99076, 65, 141, 128, 172
-0.990808, 57, 253, 120, 284
-0.990822, 297, 101, 360, 132
-0.990836, 121, 177, 184, 208
-0.990876, 161, 125, 224, 156
-0.990878, 73, 121, 136, 152
-0.990894, 33, 237, 96, 268
-0.990927, 177, 73, 240, 104
-0.990929, 305, 113, 368, 144
-0.99093, 17, 17, 80, 48
-0.990954, 57, 157, 120, 188
-0.990957, 105, 225, 168, 256
-0.990977, 137, 17, 200, 48
-0.990985, 1, 177, 64, 208
-0.991, 249, 57, 312, 88
-0.991009, 257, 9, 320, 40
-0.99105, 65, 73, 320, 136
-0.991052, 193, 121, 256, 152
-0.991056, 81, 97, 144, 128
-0.991057, 185, 173, 248, 204
-0.991058, 169, 149, 232, 180
-0.991069, 29, 161, 60, 288
-0.991081, 137, 405, 200, 436
-0.991086, 57, 25, 120, 56
-0.991093, 177, 369, 240, 496
-0.991098, 41, 1, 72, 128
-0.991107, 1, 281, 64, 312
-0.991118, 9, 437, 72, 468
-0.991138, 89, 241, 152, 272
-0.99115, 1, 17, 256, 80
-0.99115, 185, 101, 248, 132
-0.991158, 49, 173, 112, 204
-0.991165, 17, 433, 144, 496
-0.991179, 193, 321, 224, 448
-0.991198, 57, 17, 88, 144
-0.991209, 161, 225, 192, 352
-0.991214, 41, 97, 104, 224
-0.991217, 249, 177, 312, 208
-0.991229, 105, 153, 168, 184
-0.991251, 121, 237, 184, 268
-0.991257, 81, 165, 144, 196
-0.991259, 113, 101, 176, 132
-0.991267, 209, 165, 272, 196
-0.991285, 161, 185, 224, 216
-0.991292, 153, 61, 216, 92
-0.991304, 1, 165, 64, 196
-0.991356, 81, 257, 144, 288
-0.991361, 9, 221, 72, 252
-0.991369, 33, 145, 288, 208
-0.991374, 113, 265, 176, 296
-0.99138, 233, 153, 296, 184
-0.991381, 65, 109, 128, 140
-0.99139, 273, 101, 336, 132
-0.991397, 329, 97, 360, 224
-0.991404, 153, 89, 216, 120
-0.991422, 273, 173, 336, 204
-0.991423, 209, 89, 272, 120
-0.991427, 89, 53, 152, 84
-0.991435, 153, 77, 216, 108
-0.991441, 177, 1, 240, 32
-0.991448, 33, 249, 96, 280
-0.991473, 17, 345, 144, 408
-0.991482, 1, 293, 64, 324
-0.991523, 89, 393, 152, 424
-0.99154, 137, 381, 200, 412
-0.991554, 177, 49, 240, 80
-0.991554, 129, 141, 192, 172
-0.991576, 309, 337, 340, 464
-0.991578, 193, 153, 256, 184
-0.991602, 225, 409, 352, 472
-0.991626, 233, 469, 296, 500
-0.991634, 9, 233, 72, 264
-0.991643, 209, 105, 272, 136
-0.991662, 1, 269, 64, 300
-0.991683, 49, 13, 112, 44
-0.991689, 129, 189, 192, 220
-0.99169, 153, 49, 216, 80
-0.991706, 137, 5, 200, 36
-0.991733, 65, 241, 128, 272
-0.991738, 25, 5, 88, 36
-0.991739, 137, 205, 200, 236
-0.991739, 145, 245, 208, 276
-0.991743, 1, 209, 64, 240
-0.991794, 89, 109, 152, 140
-0.991808, 73, 37, 136, 68
-0.99186, 57, 213, 120, 244
-0.991865, 113, 277, 176, 308
-0.99188, 177, 89, 240, 120
-0.991884, 73, 9, 136, 40
-0.991896, 201, 53, 264, 84
-0.991909, 1, 97, 32, 224
-0.991939, 1, 1, 374, 64
-0.991974, 121, 21, 152, 52
-0.992025, 221, 193, 252, 320
-0.992027, 177, 329, 304, 392
-0.992063, 177, 273, 240, 400
-0.992203, 153, 353, 184, 480
-0.99224, 161, 201, 288, 264
-0.992265, 201, 193, 232, 320
-0.992324, 333, 45, 364, 76
-0.992337, 157, 33, 188, 160
-0.992364, 125, 161, 156, 192
-0.992381, 245, 169, 276, 200
-0.992383, 177, 385, 304, 448
-0.992416, 325, 5, 356, 36
-0.992419, 273, 257, 336, 500
-0.992426, 49, 301, 80, 332
-0.992436, 209, 369, 272, 496
-0.992446, 1, 321, 64, 448
-0.992455, 273, 41, 304, 72
-0.992467, 281, 161, 312, 192
-0.992481, 305, 45, 336, 76
-0.992495, 113, 153, 144, 184
-0.992507, 137, 401, 168, 432
-0.992528, 261, 437, 292, 468
-0.992531, 105, 377, 136, 408
-0.992556, 345, 61, 374, 92
-0.992563, 101, 153, 132, 184
-0.992579, 193, 173, 224, 204
-0.992581, 125, 381, 156, 412
-0.992586, 265, 161, 296, 192
-0.992588, 237, 25, 268, 56
-0.992589, 129, 261, 160, 292
-0.992591, 29, 273, 60, 304
-0.992594, 297, 9, 328, 40
-0.992598, 57, 269, 88, 300
-0.9926, 65, 305, 96, 432
-0.992602, 137, 389, 168, 420
-0.992609, 277, 53, 308, 84
-0.992621, 297, 161, 328, 192
-0.99263, 69, 273, 100, 304
-0.992649, 309, 13, 340, 44
-0.992672, 225, 169, 256, 200
-0.992675, 289, 45, 320, 76
-0.992675, 137, 165, 168, 196
-0.992679, 61, 289, 92, 320
-0.992679, 225, 361, 352, 424
-0.992681, 61, 161, 92, 192
-0.992681, 81, 285, 112, 316
-0.992686, 225, 157, 256, 188
-0.992693, 269, 173, 300, 204
-0.992696, 253, 69, 284, 100
-0.992702, 205, 153, 236, 184
-0.992714, 185, 21, 216, 52
-0.992721, 265, 53, 296, 84
-0.992721, 321, 25, 352, 56
-0.992722, 297, 369, 328, 496
-0.992729, 193, 157, 224, 188
-0.992739, 53, 313, 84, 344
-0.99274, 229, 13, 260, 44
-0.992741, 129, 281, 256, 344
-0.992745, 105, 33, 136, 64
-0.992749, 241, 1, 272, 32
-0.99275, 89, 25, 120, 56
-0.992751, 205, 169, 236, 200
-0.992752, 333, 65, 364, 96
-0.992755, 65, 145, 96, 176
-0.992758, 125, 405, 156, 436
-0.992761, 313, 1, 344, 32
-0.992768, 273, 353, 304, 480
-0.99277, 13, 433, 44, 464
-0.992774, 261, 97, 292, 128
-0.992776, 317, 49, 348, 80
-0.99278, 13, 285, 44, 316
-0.992785, 333, 85, 364, 116
-0.992786, 153, 201, 184, 232
-0.992789, 137, 249, 168, 280
-0.992794, 261, 17, 292, 48
-0.992796, 45, 253, 76, 284
-0.992801, 101, 389, 132, 420
-0.992802, 245, 157, 276, 188
-0.992803, 101, 101, 132, 132
-0.992807, 253, 33, 284, 64
-0.992808, 181, 45, 212, 76
-0.992815, 89, 149, 120, 180
-0.992816, 249, 469, 280, 500
-0.992826, 337, 1, 368, 32
-0.99283, 317, 161, 348, 192
-0.992831, 53, 173, 84, 204
-0.992836, 281, 173, 312, 204
-0.992837, 345, 37, 374, 68
-0.992844, 137, 177, 168, 208
-0.992848, 129, 97, 374, 160
-0.992851, 337, 13, 368, 44
-0.992856, 77, 157, 108, 188
-0.992859, 149, 185, 180, 216
-0.99286, 33, 241, 64, 272
-0.992862, 285, 33, 316, 64
-0.992864, 305, 25, 336, 56
-0.992867, 33, 309, 64, 340
-0.992868, 165, 189, 196, 220
-0.992869, 13, 253, 44, 284
-0.992869, 109, 165, 140, 196
-0.992875, 1, 193, 32, 224
-0.992877, 249, 13, 280, 44
-0.992892, 277, 17, 308, 48
-0.992895, 241, 181, 272, 212
-0.992901, 345, 81, 374, 112
-0.992901, 149, 245, 180, 276
-0.992908, 41, 289, 72, 320
-0.992914, 277, 1, 308, 32
-0.992915, 69, 301, 100, 332
-0.992916, 253, 53, 284, 84
-0.992924, 293, 101, 324, 132
-0.992926, 169, 137, 200, 168
-0.992927, 185, 185, 216, 216
-0.992934, 101, 269, 132, 300
-0.992946, 165, 53, 196, 84
-0.992947, 85, 261, 116, 292
-0.992947, 181, 81, 212, 112
-0.992948, 9, 421, 40, 452
-0.992949, 213, 101, 244, 132
-0.99295, 345, 101, 374, 132
-0.992952, 1, 273, 256, 336
-0.992958, 113, 269, 144, 300
-0.992961, 265, 29, 296, 60
-0.992964, 105, 365, 136, 396
-0.992966, 1, 241, 32, 272
-0.992967, 273, 437, 304, 468
-0.992971, 61, 97, 92, 224
-0.992974, 237, 73, 268, 104
-0.992979, 69, 133, 100, 164
-0.992985, 109, 409, 140, 440
-0.992988, 245, 89, 276, 120
-0.99299, 189, 137, 220, 168
-0.992992, 57, 257, 88, 288
-0.992998, 169, 149, 200, 180
-0.992999, 125, 393, 156, 424
-0.993002, 45, 265, 76, 296
-0.993008, 333, 101, 364, 132
-0.993008, 205, 125, 236, 156
-0.993013, 77, 113, 108, 144
-0.993022, 89, 97, 120, 128
-0.993023, 225, 181, 256, 212
-0.993024, 205, 185, 236, 216
-0.993025, 273, 449, 304, 480
-0.993026, 281, 425, 312, 456
-0.993027, 317, 61, 348, 92
-0.993028, 85, 37, 116, 68
-0.993032, 165, 73, 196, 104
-0.993036, 209, 29, 240, 60
-0.993123, 193, 193, 256, 448
-0.993151, 305, 257, 368, 500
-0.993164, 225, 313, 352, 376
-0.99319, 41, 49, 104, 176
-0.993213, 129, 153, 374, 216
-0.993269, 201, 257, 232, 384
-0.993416, 241, 45, 368, 76
-0.993445, 241, 65, 368, 96
-0.993497, 249, 321, 280, 448
-0.993506, 213, 257, 244, 384
-0.993508, 1, 121, 256, 184
-0.993571, 251, 65, 266, 128
-0.993588, 161, 29, 288, 60
-0.993594, 29, 17, 60, 144
-0.993598, 225, 337, 352, 400
-0.993623, 73, 161, 104, 288
-0.99368, 129, 129, 374, 192
-0.993766, 267, 49, 282, 112
-0.993806, 17, 153, 144, 184
-0.993814, 1, 65, 374, 128
-0.99382, 129, 177, 374, 240
-0.993831, 185, 49, 200, 112
-0.993889, 181, 257, 212, 384
-0.993898, 161, 41, 288, 72
-0.993927, 129, 149, 256, 180
-0.993929, 177, 225, 304, 288
-0.993935, 1, 161, 374, 224
-0.993935, 325, 1, 340, 64
-0.994002, 125, 369, 156, 496
-0.994016, 1, 201, 256, 264
-0.994025, 85, 369, 116, 496
-0.994078, 1, 25, 374, 88
-0.994108, 351, 73, 366, 136
-0.99413, 325, 321, 356, 448
-0.994157, 55, 289, 70, 352
-0.994158, 299, 17, 314, 80
-0.994199, 261, 193, 292, 320
-0.99421, 33, 249, 288, 312
-0.994217, 49, 277, 176, 308
-0.994221, 1, 277, 128, 308
-0.994223, 1, 97, 256, 160
-0.994223, 65, 157, 192, 188
-0.994235, 141, 377, 156, 440
-0.99425, 65, 265, 80, 328
-0.994288, 161, 305, 192, 432
-0.994312, 177, 305, 304, 368
-0.994315, 265, 25, 280, 88
-0.99432, 125, 273, 156, 400
-0.994321, 255, 1, 270, 64
-0.99433, 35, 241, 50, 304
-0.994337, 161, 53, 288, 84
-0.994354, 1, 169, 256, 232
-0.994359, 257, 65, 272, 128
-0.994364, 135, 25, 150, 88
-0.994381, 225, 9, 352, 40
-0.994381, 65, 417, 192, 480
-0.99441, 209, 257, 336, 320
-0.994417, 209, 337, 240, 464
-0.994433, 49, 257, 176, 288
-0.994459, 229, 337, 260, 464
-0.994469, 357, 57, 372, 120
-0.994551, 319, 17, 334, 80
-0.994551, 345, 65, 360, 128
-0.994561, 1, 113, 374, 176
-0.994566, 257, 33, 272, 96
-0.99457, 289, 241, 320, 368
-0.994611, 127, 17, 142, 80
-0.994617, 243, 161, 258, 224
-0.994643, 145, 249, 272, 312
-0.994654, 25, 249, 40, 312
-0.994695, 105, 361, 120, 424
-0.994722, 97, 25, 224, 56
-0.99474, 73, 273, 88, 336
-0.994745, 113, 369, 144, 496
-0.994746, 177, 13, 304, 44
-0.994752, 145, 73, 272, 104
-0.994759, 339, 57, 354, 120
-0.994804, 65, 345, 192, 408
-0.994827, 347, 41, 362, 104
-0.994849, 151, 169, 166, 232
-0.99485, 81, 37, 208, 68
-0.994853, 61, 297, 76, 360
-0.994867, 193, 225, 256, 352
-0.99487, 273, 33, 288, 96
-0.994875, 97, 137, 224, 168
-0.994875, 273, 57, 288, 120
-0.994888, 159, 177, 174, 240
-0.994901, 241, 25, 368, 56
-0.994925, 169, 161, 184, 224
-0.994945, 139, 249, 154, 312
-0.994949, 309, 17, 324, 80
-0.994949, 325, 25, 340, 88
-0.994956, 47, 305, 62, 368
-0.995002, 357, 81, 372, 144
-0.995007, 1, 265, 128, 296
-0.995016, 35, 265, 50, 328
-0.995056, 1, 137, 374, 200
-0.995101, 251, 25, 266, 88
-0.995144, 17, 165, 144, 196
-0.995171, 59, 257, 74, 320
-0.995189, 177, 281, 304, 344
-0.995195, 129, 169, 256, 200
-0.995212, 25, 425, 40, 488
-0.995213, 143, 225, 158, 288
-0.995239, 265, 161, 280, 224
-0.99524, 119, 25, 134, 88
-0.995248, 41, 273, 56, 336
-0.995269, 1, 181, 128, 212
-0.995278, 133, 153, 148, 216
-0.995281, 113, 409, 240, 472
-0.995282, 151, 385, 166, 448
-0.99529, 149, 233, 164, 296
-0.995295, 191, 145, 206, 208
-0.995308, 143, 161, 158, 224
-0.995354, 331, 1, 346, 64
-0.995354, 349, 97, 364, 160
-0.995363, 227, 153, 242, 216
-0.995364, 115, 369, 130, 432
-0.995385, 97, 117, 224, 148
-0.995392, 217, 145, 232, 208
-0.995396, 245, 65, 260, 128
-0.995405, 237, 153, 252, 216
-0.995406, 257, 1, 288, 256
-0.995442, 203, 153, 218, 216
-0.995445, 77, 169, 92, 232
-0.995458, 209, 173, 336, 204
-0.995504, 285, 433, 300, 496
-0.995515, 15, 185, 30, 248
-0.995529, 3, 185, 18, 248
-0.995539, 135, 369, 150, 432
-0.99555, 209, 153, 224, 216
-0.995554, 65, 241, 192, 272
-0.995593, 145, 137, 272, 168
-0.995596, 47, 281, 62, 344
-0.995599, 99, 49, 114, 112
-0.995627, 1, 89, 374, 152
-0.995633, 109, 137, 124, 200
-0.995641, 249, 1, 264, 64
-0.995647, 81, 265, 96, 328
-0.995648, 241, 85, 368, 116
-0.995653, 115, 145, 130, 208
-0.995657, 121, 369, 136, 432
-0.995659, 241, 101, 368, 132
-0.995685, 261, 1, 276, 64
-0.995687, 41, 201, 56, 264
-0.995687, 71, 241, 86, 304
-0.995692, 17, 141, 144, 172
-0.995694, 177, 185, 192, 248
-0.995694, 17, 289, 144, 320
-0.995715, 333, 65, 348, 128
-0.995735, 97, 433, 352, 496
-0.995766, 135, 1, 150, 64
-0.995779, 269, 1, 300, 256
-0.995797, 1, 241, 374, 304
-0.995801, 271, 1, 286, 64
-0.995808, 33, 209, 48, 272
-0.995827, 33, 297, 288, 360
-0.995835, 271, 425, 286, 488
-0.995854, 53, 257, 68, 320
-0.995866, 1, 29, 128, 60
-0.99587, 165, 185, 180, 248
-0.995873, 193, 93, 320, 124
-0.995881, 339, 81, 354, 144
-0.995887, 155, 225, 170, 288
-0.995894, 213, 121, 228, 184
-0.995896, 169, 137, 184, 200
-0.995897, 225, 281, 352, 344
-0.995903, 241, 1, 256, 64
-0.995908, 97, 269, 224, 300
-0.995921, 185, 1, 216, 256
-0.995923, 301, 97, 316, 160
-0.995924, 49, 305, 176, 336
-0.995925, 185, 25, 200, 88
-0.995927, 81, 49, 208, 80
-0.99593, 113, 89, 240, 120
-0.995933, 281, 49, 296, 112
-0.995943, 161, 181, 288, 212
-0.995946, 85, 153, 100, 216
-0.995952, 189, 89, 204, 152
-0.995959, 241, 209, 304, 336
-0.995974, 185, 145, 200, 208
-0.995988, 67, 145, 82, 208
-0.995998, 255, 161, 270, 224
-0.995999, 163, 153, 178, 216
-0.996002, 15, 433, 30, 496
-0.996006, 41, 225, 56, 288
-0.996009, 145, 121, 272, 152
-0.996013, 157, 257, 172, 320
-0.996015, 337, 1, 368, 256
-0.996022, 133, 1, 164, 256
-0.996032, 189, 1, 204, 64
-0.996033, 133, 241, 148, 304
-0.996044, 127, 377, 142, 440
-0.996047, 331, 41, 346, 104
-0.996048, 241, 217, 368, 280
-0.996051, 121, 145, 136, 208
-0.996051, 15, 409, 30, 472
-0.99606, 161, 1, 288, 32
-0.996078, 241, 41, 256, 104
-0.996082, 53, 321, 68, 384
-0.996083, 49, 21, 176, 52
-0.996084, 187, 169, 202, 232
-0.996087, 197, 137, 212, 200
-0.996096, 27, 201, 42, 264
-0.996097, 77, 145, 92, 208
-0.99611, 241, 161, 368, 192
-0.99612, 313, 193, 374, 320
-0.996136, 117, 113, 132, 176
-0.996138, 99, 137, 114, 200
-0.996147, 325, 1, 356, 256
-0.996148, 97, 385, 352, 448
-0.996153, 81, 169, 208, 200
-0.996166, 167, 209, 182, 272
-0.996167, 165, 65, 196, 320
-0.996172, 125, 41, 140, 104
-0.996175, 175, 57, 190, 120
-0.996176, 273, 161, 288, 224
-0.996177, 297, 1, 328, 256
-0.996183, 9, 193, 24, 256
-0.996185, 277, 433, 292, 496
-0.996193, 281, 153, 296, 216
-0.99621, 67, 289, 82, 352
-0.996213, 125, 257, 156, 500
-0.996218, 61, 145, 76, 208
-0.996229, 127, 145, 142, 208
-0.996235, 309, 41, 324, 104
-0.996242, 203, 129, 218, 192
-0.996247, 357, 153, 372, 216
-0.996252, 1, 1, 32, 256
-0.996261, 33, 409, 288, 472
-0.996266, 129, 101, 256, 132
-0.996268, 145, 257, 160, 320
-0.996288, 337, 161, 352, 224
-0.996316, 51, 177, 66, 240
-0.996323, 169, 49, 184, 112
-0.996325, 193, 69, 320, 100
-0.99633, 71, 177, 86, 240
-0.996379, 149, 65, 180, 320
-0.9964, 1, 185, 374, 248
-0.996405, 285, 1, 316, 256
-0.996426, 97, 273, 352, 336
-0.996481, 1, 401, 374, 464
-0.996482, 245, 1, 276, 256
-0.996492, 141, 225, 172, 480
-0.996512, 65, 229, 192, 260
-0.996519, 113, 257, 144, 500
-0.996526, 129, 13, 256, 44
-0.996535, 65, 101, 192, 132
-0.996544, 49, 385, 176, 416
-0.996546, 65, 361, 320, 424
-0.996568, 81, 69, 208, 100
-0.996586, 81, 181, 208, 212
-0.996595, 81, 205, 208, 236
-0.996601, 113, 257, 240, 288
-0.996602, 313, 1, 344, 256
-0.99664, 129, 209, 374, 272
-0.996647, 225, 257, 288, 384
-0.996703, 209, 321, 272, 448
-0.996718, 193, 105, 320, 136
-0.996736, 193, 441, 320, 472
-0.996749, 1, 17, 128, 48
-0.996754, 1, 385, 256, 448
-0.996755, 1, 265, 374, 328
-0.996757, 1, 225, 256, 288
-0.996805, 177, 469, 304, 500
-0.996806, 225, 469, 352, 500
-0.996809, 49, 405, 176, 436
-0.996819, 17, 213, 144, 244
-0.996823, 1, 429, 128, 460
-0.996826, 9, 161, 40, 416
-0.996862, 17, 225, 144, 256
-0.996866, 193, 125, 320, 156
-0.996877, 125, 129, 156, 384
-0.996903, 1, 241, 128, 272
-0.996915, 97, 1, 224, 32
-0.996927, 1, 253, 128, 284
-0.996961, 161, 161, 192, 416
-0.996963, 1, 193, 128, 224
-0.997005, 113, 393, 240, 424
-0.997033, 241, 113, 368, 144
-0.997042, 193, 161, 320, 192
-0.997062, 1, 433, 256, 496
-0.997064, 81, 321, 144, 448
-0.997066, 33, 317, 160, 348
-0.997106, 129, 193, 256, 224
-0.997112, 81, 313, 208, 376
-0.997125, 209, 185, 336, 216
-0.997125, 145, 389, 160, 420
-0.997145, 1, 117, 128, 148
-0.997158, 13, 1, 44, 256
-0.997178, 129, 229, 256, 260
-0.99721, 201, 97, 232, 352
-0.997238, 325, 49, 340, 80
-0.997238, 1, 457, 128, 488
-0.997281, 17, 129, 144, 160
-0.997291, 1, 57, 128, 88
-0.997307, 313, 97, 344, 352
-0.997315, 1, 397, 128, 428
-0.997316, 147, 169, 162, 200
-0.997329, 81, 217, 208, 248
-0.997332, 89, 1, 120, 256
-0.997333, 129, 241, 256, 272
-0.997347, 81, 193, 208, 224
-0.99735, 193, 453, 320, 484
-0.997359, 33, 225, 64, 480
-0.997362, 327, 5, 342, 36
-0.997388, 267, 53, 282, 84
-0.99739, 129, 305, 374, 368
-0.997393, 137, 97, 168, 352
-0.997402, 125, 157, 140, 188
-0.997403, 181, 97, 212, 352
-0.997426, 123, 21, 138, 52
-0.997427, 133, 161, 148, 192
-0.997428, 1, 45, 128, 76
-0.997454, 1, 441, 128, 472
-0.997459, 97, 329, 352, 392
-0.997464, 169, 257, 232, 500
-0.997469, 89, 257, 120, 500
-0.997478, 119, 153, 134, 184
-0.997478, 319, 45, 334, 76
-0.997501, 313, 41, 328, 72
-0.997503, 141, 165, 156, 196
-0.997505, 13, 437, 28, 468
-0.997509, 49, 161, 80, 416
-0.997522, 113, 153, 128, 184
-0.997529, 251, 73, 266, 104
-0.99753, 1, 417, 128, 448
-0.997531, 241, 165, 256, 196
-0.997539, 43, 309, 58, 340
-0.997558, 21, 433, 36, 464
-0.99756, 265, 97, 296, 352
-0.99757, 163, 185, 178, 216
-0.99759, 225, 33, 256, 288
-0.997605, 25, 1, 56, 256
-0.997613, 45, 1, 76, 256
-0.997622, 275, 41, 290, 72
-0.997627, 71, 277, 86, 308
-0.997633, 67, 289, 82, 320
-0.997633, 169, 145, 184, 176
-0.997636, 187, 73, 202, 104
-0.997638, 345, 65, 360, 96
-0.997642, 63, 257, 78, 288
-0.997646, 139, 401, 154, 432
-0.99765, 61, 269, 76, 300
-0.997654, 129, 233, 374, 296
-0.997654, 281, 49, 296, 80
-0.997661, 277, 97, 308, 352
-0.997665, 121, 389, 136, 420
-0.997668, 125, 401, 140, 432
-0.99767, 333, 49, 348, 80
-0.99767, 107, 153, 122, 184
-0.99767, 77, 1, 108, 256
-0.997678, 107, 117, 122, 148
-0.997682, 61, 1, 92, 256
-0.997694, 151, 397, 166, 428
-0.997695, 101, 257, 132, 500
-0.997696, 1, 301, 128, 332
-0.9977, 249, 97, 280, 352
-0.997702, 249, 25, 264, 56
-0.997706, 305, 41, 320, 72
-0.997707, 51, 185, 66, 216
-0.997712, 135, 21, 150, 52
-0.997713, 197, 1, 228, 256
-0.997721, 337, 69, 352, 100
-0.997722, 69, 265, 84, 296
-0.997727, 153, 173, 168, 204
-0.99773, 135, 389, 150, 420
-0.997731, 131, 409, 146, 440
-0.997741, 287, 449, 302, 480
-0.997745, 107, 377, 122, 408
-0.997748, 113, 405, 240, 436
-0.997769, 65, 289, 192, 320
-0.997772, 1, 93, 128, 124
-0.997772, 293, 97, 324, 352
-0.997773, 25, 253, 40, 284
-0.997774, 223, 157, 238, 188
-0.997781, 343, 81, 358, 112
-0.997782, 351, 61, 366, 92
-0.997783, 333, 129, 364, 384
-0.997785, 113, 377, 128, 408
-0.997785, 241, 437, 368, 468
-0.997785, 265, 177, 280, 208
-0.997787, 193, 81, 320, 112
-0.997788, 319, 13, 334, 44
-0.99779, 3, 189, 18, 220
-0.997792, 203, 157, 218, 188
-0.997798, 37, 233, 52, 264
-0.9978, 121, 1, 152, 256
-0.997805, 1, 345, 374, 408
-0.997807, 261, 161, 276, 192
-0.997812, 313, 17, 328, 48
-0.997816, 271, 165, 286, 196
-0.997818, 105, 129, 136, 384
-0.997839, 141, 253, 156, 284
-0.997839, 1, 369, 374, 432
-0.997842, 241, 13, 256, 44
-0.997846, 71, 161, 86, 192
-0.99785, 55, 173, 70, 204
-0.99785, 35, 245, 50, 276
-0.997852, 275, 437, 290, 468
-0.997853, 189, 177, 204, 208
-0.997858, 299, 25, 314, 56
-0.997859, 65, 85, 192, 116
-0.997864, 193, 417, 320, 448
-0.997867, 249, 85, 264, 116
-0.997873, 79, 153, 94, 184
-0.997873, 1, 329, 256, 392
-0.997877, 113, 369, 240, 400
-0.997884, 263, 17, 278, 48
-0.997888, 243, 177, 258, 208
-0.997895, 141, 377, 156, 408
-0.9979, 65, 157, 80, 188
-0.997901, 251, 173, 266, 204
-0.997902, 105, 141, 120, 172
-0.997906, 209, 153, 224, 184
-0.99791, 333, 5, 348, 36
-0.997917, 67, 145, 82, 176
-0.997924, 227, 173, 242, 204
-0.997928, 289, 41, 304, 72
-0.997929, 217, 153, 232, 184
-0.997931, 237, 153, 252, 184
-0.997932, 295, 45, 310, 76
-0.997933, 167, 197, 182, 228
-0.997937, 33, 273, 48, 304
-0.99794, 343, 41, 358, 72
-0.997943, 97, 381, 224, 412
-0.997943, 257, 93, 272, 124
-0.997945, 119, 413, 134, 444
-0.997949, 1, 105, 128, 136
-0.99795, 79, 281, 94, 312
-0.997951, 299, 9, 314, 40
-0.997952, 63, 313, 78, 344
-0.997953, 49, 113, 176, 144
-0.997953, 39, 205, 54, 236
-0.997959, 281, 169, 296, 200
-0.99796, 241, 145, 368, 176
-0.99796, 257, 73, 272, 104
-0.997968, 203, 169, 218, 200
-0.997969, 323, 25, 338, 56
-0.997969, 13, 421, 28, 452
-0.997969, 1, 369, 128, 400
-0.997979, 269, 29, 284, 60
-0.997991, 93, 25, 108, 56
-0.997991, 99, 141, 114, 172
-0.997991, 239, 469, 254, 500
-0.997992, 309, 29, 324, 60
-0.997995, 213, 33, 244, 288
-0.998001, 137, 265, 152, 296
-0.998002, 185, 157, 200, 188
-0.998013, 247, 161, 262, 192
-0.998014, 357, 57, 372, 88
-0.998018, 111, 105, 126, 136
-0.998018, 251, 1, 266, 32
-0.998026, 107, 365, 122, 396
-0.998027, 33, 445, 48, 476
-0.998028, 23, 281, 38, 312
-0.998033, 233, 169, 248, 200
-0.998036, 339, 5, 354, 36
-0.998043, 147, 249, 162, 280
-0.99805, 275, 97, 290, 128
-0.99805, 233, 469, 248, 500
-0.998052, 281, 441, 296, 472
-0.998054, 359, 37, 374, 68
-0.998055, 289, 1, 304, 32
-0.998065, 273, 57, 288, 88
-0.998066, 209, 401, 336, 432
-0.998068, 13, 257, 44, 500
-0.998068, 113, 25, 128, 56
-0.998074, 101, 25, 116, 56
-0.998074, 59, 281, 74, 312
-0.998075, 131, 261, 146, 292
-0.99808, 97, 57, 112, 88
-0.99808, 293, 13, 308, 44
-0.998081, 145, 457, 272, 488
-0.99809, 185, 49, 200, 80
-0.998092, 145, 269, 160, 300
-0.998092, 93, 129, 124, 384
-0.998092, 191, 153, 206, 184
-0.998093, 259, 37, 274, 68
-0.998123, 221, 129, 252, 384
-0.998133, 21, 129, 52, 384
-0.998144, 1, 289, 374, 352
-0.998146, 65, 461, 192, 492
-0.998149, 145, 381, 272, 412
-0.998162, 193, 149, 320, 180
-0.998168, 57, 257, 88, 500
-0.998171, 129, 209, 256, 240
-0.998171, 129, 321, 256, 352
-0.998186, 241, 133, 368, 164
-0.998205, 241, 425, 368, 456
-0.998212, 105, 1, 136, 256
-0.998236, 1, 81, 128, 112
-0.998254, 129, 281, 256, 312
-0.998269, 1, 321, 374, 384
-0.998281, 33, 69, 160, 100
-0.998302, 193, 429, 320, 460
-0.998357, 61, 161, 92, 416
-0.998377, 145, 337, 272, 368
-0.99838, 205, 193, 236, 448
-0.998386, 97, 385, 160, 400
-0.998392, 49, 5, 176, 36
-0.998423, 145, 181, 176, 196
-0.998423, 193, 95, 224, 110
-0.998423, 105, 413, 136, 428
-0.998423, 333, 11, 364, 26
-0.998423, 29, 279, 60, 294
-0.998424, 181, 51, 212, 66
-0.998424, 297, 161, 328, 176
-0.998425, 281, 19, 312, 34
-0.998426, 293, 27, 324, 42
-0.998426, 77, 275, 108, 290
-0.998428, 97, 165, 128, 180
-0.998428, 125, 273, 156, 288
-0.998429, 193, 157, 224, 172
-0.998429, 225, 481, 256, 496
-0.99843, 253, 29, 284, 44
-0.99843, 265, 167, 296, 182
-0.99843, 1, 257, 32, 500
-0.998431, 257, 485, 288, 500
-0.998432, 237, 1, 268, 16
-0.998433, 165, 83, 196, 98
-0.998433, 341, 83, 372, 98
-0.998433, 121, 43, 152, 58
-0.998433, 225, 165, 256, 180
-0.998433, 181, 87, 212, 102
-0.998434, 205, 183, 236, 198
-0.998435, 85, 39, 116, 54
-0.998437, 41, 299, 72, 314
-0.998437, 105, 389, 136, 404
-0.998438, 321, 163, 352, 178
-0.998439, 117, 173, 148, 188
-0.998439, 245, 39, 276, 54
-0.998439, 21, 433, 52, 448
-0.998439, 269, 179, 300, 194
-0.99844, 309, 5, 340, 20
-0.99844, 205, 167, 236, 182
-0.998441, 69, 283, 100, 298
-0.998442, 185, 33, 216, 48
-0.998442, 1, 193, 32, 208
-0.998443, 265, 161, 296, 176
-0.998443, 185, 21, 216, 36
-0.998443, 53, 175, 84, 190
-0.998443, 21, 251, 52, 266
-0.998444, 305, 35, 336, 50
-0.998444, 289, 175, 320, 190
-0.998447, 69, 163, 100, 178
-0.998447, 245, 15, 276, 30
-0.998448, 193, 167, 224, 182
-0.998449, 317, 41, 348, 56
-0.99845, 45, 305, 76, 320
-0.99845, 333, 19, 364, 34
-0.998451, 133, 173, 164, 188
-0.998451, 309, 63, 340, 78
-0.998452, 333, 53, 364, 68
-0.998452, 129, 293, 256, 324
-0.998452, 205, 177, 236, 192
-0.998453, 297, 51, 328, 66
-0.998453, 269, 445, 300, 460
-0.998453, 193, 187, 224, 202
-0.998453, 281, 43, 344, 58
-0.998456, 249, 69, 280, 84
-0.998457, 153, 203, 184, 218
-0.998457, 253, 475, 284, 490
-0.998459, 225, 181, 256, 196
-0.99846, 297, 167, 328, 182
-0.998461, 257, 47, 320, 62
-0.998462, 77, 157, 108, 172
-0.998462, 141, 385, 172, 400
-0.998463, 241, 31, 272, 46
-0.998464, 245, 185, 276, 200
-0.998464, 225, 157, 256, 172
-0.998465, 25, 293, 88, 308
-0.998467, 121, 31, 152, 46
-0.998468, 185, 15, 216, 30
-0.998468, 89, 279, 120, 294
-0.998468, 297, 27, 360, 42
-0.998469, 305, 19, 336, 34
-0.998469, 225, 173, 256, 188
-0.99847, 257, 37, 320, 52
-0.99847, 133, 393, 164, 408
-0.998471, 285, 49, 316, 64
-0.998473, 289, 11, 352, 26
-0.998474, 249, 75, 280, 90
-0.998474, 261, 37, 292, 52
-0.998475, 305, 25, 336, 40
-0.998476, 105, 39, 136, 54
-0.998476, 329, 59, 360, 74
-0.998476, 33, 247, 64, 262
-0.998476, 145, 251, 176, 266
-0.998476, 13, 283, 44, 298
-0.998476, 57, 279, 120, 294
-0.998477, 193, 175, 224, 190
-0.998478, 97, 25, 160, 40
-0.998478, 105, 169, 168, 184
-0.998479, 325, 27, 356, 42
-0.998479, 265, 173, 296, 188
-0.998479, 145, 173, 176, 188
-0.99848, 21, 273, 52, 288
-0.998481, 269, 481, 300, 496
-0.998481, 241, 443, 304, 458
-0.998482, 281, 169, 312, 184
-0.998482, 109, 167, 140, 182
-0.998483, 261, 65, 292, 80
-0.998483, 265, 55, 328, 70
-0.998484, 81, 155, 144, 170
-0.998484, 313, 53, 374, 68
-0.998484, 61, 169, 92, 184
-0.998485, 205, 157, 236, 172
-0.998486, 137, 259, 168, 274
-0.998489, 73, 165, 136, 180
-0.99849, 233, 23, 264, 38
-0.998491, 245, 159, 276, 174
-0.998492, 309, 49, 340, 64
-0.998493, 113, 405, 176, 420
-0.998495, 129, 165, 192, 180
-0.998495, 161, 141, 224, 156
-0.998496, 145, 173, 208, 188
-0.998497, 233, 177, 296, 192
-0.9985, 261, 99, 292, 114
-0.998502, 125, 401, 156, 416
-0.998503, 245, 167, 276, 182
-0.998503, 133, 167, 164, 182
-0.998506, 193, 181, 224, 196
-0.998508, 313, 101, 374, 116
-0.998508, 277, 57, 308, 72
-0.998509, 177, 17, 240, 32
-0.998509, 129, 409, 160, 424
-0.99851, 33, 299, 96, 314
-0.99851, 245, 173, 276, 188
-0.998511, 113, 157, 144, 172
-0.998512, 61, 297, 92, 312
-0.998513, 1, 5, 128, 36
-0.998514, 249, 19, 312, 34
-0.998515, 41, 317, 104, 332
-0.998515, 97, 41, 160, 56
-0.998516, 293, 257, 324, 500
-0.998517, 237, 97, 268, 352
-0.998517, 133, 265, 164, 280
-0.998517, 177, 25, 240, 40
-0.998517, 25, 285, 88, 300
-0.998517, 321, 13, 352, 28
-0.998518, 333, 45, 364, 60
-0.998518, 321, 47, 352, 62
-0.998521, 125, 383, 156, 398
-0.998522, 305, 43, 336, 58
-0.998522, 237, 477, 268, 492
-0.998522, 297, 17, 360, 32
-0.998523, 97, 31, 160, 46
-0.998524, 305, 35, 368, 50
-0.998525, 281, 61, 344, 76
-0.998525, 281, 49, 344, 64
-0.998525, 101, 33, 132, 48
-0.998525, 269, 45, 300, 60
-0.998528, 245, 483, 276, 498
-0.99853, 241, 75, 304, 90
-0.99853, 201, 19, 264, 34
-0.99853, 201, 485, 264, 500
-0.998531, 225, 43, 288, 58
-0.998532, 145, 179, 208, 194
-0.998532, 81, 277, 144, 292
-0.998532, 217, 183, 280, 198
-0.998533, 65, 277, 96, 292
-0.998533, 177, 41, 240, 56
-0.998533, 265, 13, 328, 28
-0.998535, 41, 273, 104, 288
-0.998537, 281, 163, 312, 178
-0.998537, 209, 381, 336, 412
-0.998538, 125, 161, 156, 176
-0.998538, 281, 105, 344, 120
-0.998539, 273, 29, 336, 44
-0.998539, 233, 63, 296, 78
-0.99854, 105, 175, 168, 190
-0.998541, 141, 403, 172, 418
-0.998542, 113, 391, 176, 406
-0.998545, 33, 221, 96, 236
-0.998545, 9, 433, 40, 448
-0.998545, 161, 147, 224, 162
-0.998546, 1, 309, 64, 324
-0.998547, 233, 3, 296, 18
-0.998547, 233, 37, 296, 52
-0.998549, 53, 317, 84, 332
-0.998549, 137, 33, 200, 48
-0.998552, 137, 159, 200, 174
-0.998553, 245, 179, 276, 194
-0.998554, 217, 9, 280, 24
-0.998554, 113, 261, 176, 276
-0.998554, 233, 163, 296, 178
-0.998555, 233, 171, 296, 186
-0.998556, 161, 135, 224, 150
-0.998556, 281, 37, 344, 52
-0.998556, 105, 163, 168, 178
-0.998557, 65, 285, 128, 300
-0.99856, 249, 29, 312, 44
-0.998561, 1, 385, 128, 416
-0.998561, 65, 263, 128, 278
-0.998561, 241, 53, 304, 68
-0.998562, 49, 311, 80, 326
-0.998562, 57, 271, 88, 286
-0.998563, 41, 307, 104, 322
-0.998564, 177, 11, 240, 26
-0.998564, 241, 13, 304, 28
-0.998564, 113, 411, 176, 426
-0.998565, 305, 45, 368, 60
-0.998568, 33, 229, 96, 244
-0.998574, 1, 243, 64, 258
-0.998574, 177, 75, 240, 90
-0.998575, 153, 167, 216, 182
-0.998576, 217, 31, 280, 46
-0.998578, 209, 69, 272, 84
-0.998579, 41, 323, 104, 338
-0.998582, 73, 25, 136, 40
-0.998583, 217, 25, 280, 40
-0.998583, 49, 175, 112, 190
-0.998583, 1, 179, 64, 194
-0.998584, 17, 469, 144, 500
-0.998587, 137, 23, 200, 38
-0.998587, 137, 399, 200, 414
-0.998588, 261, 439, 292, 454
-0.998588, 233, 97, 296, 112
-0.998588, 129, 309, 256, 340
-0.998588, 33, 247, 96, 262
-0.998589, 177, 35, 240, 50
-0.998591, 81, 111, 144, 126
-0.998591, 217, 157, 280, 172
-0.998591, 17, 317, 80, 332
-0.998592, 89, 95, 152, 110
-0.998592, 121, 151, 184, 166
-0.998593, 145, 59, 208, 74
-0.998596, 169, 53, 232, 68
-0.998596, 57, 257, 120, 272
-0.998596, 269, 51, 300, 66
-0.998596, 1, 249, 64, 264
-0.998596, 1, 445, 64, 460
-0.998597, 249, 185, 312, 200
-0.998597, 25, 213, 88, 228
-0.998597, 33, 19, 96, 34
-0.998598, 305, 137, 368, 152
-0.998598, 153, 83, 216, 98
-0.998598, 257, 7, 320, 22
-0.998598, 241, 105, 304, 120
-0.998598, 241, 485, 304, 500
-0.998598, 225, 479, 288, 494
-0.998599, 161, 129, 224, 144
-0.998599, 105, 383, 136, 398
-0.9986, 105, 267, 168, 282
-0.998601, 137, 405, 200, 420
-0.998601, 153, 89, 216, 104
-0.998601, 145, 185, 208, 200
-0.998602, 65, 223, 128, 238
-0.998602, 241, 437, 304, 452
-0.998602, 113, 399, 176, 414
-0.998603, 209, 79, 272, 94
-0.998603, 137, 391, 200, 406
-0.998603, 161, 121, 224, 136
-0.998604, 25, 257, 88, 272
-0.998605, 33, 235, 96, 250
-0.998605, 65, 229, 128, 244
-0.998606, 273, 19, 336, 34
-0.998607, 201, 479, 264, 494
-0.998607, 1, 215, 64, 230
-0.998608, 121, 255, 184, 270
-0.998609, 57, 299, 120, 314
-0.998609, 257, 99, 320, 114
-0.99861, 81, 101, 144, 116
-0.998612, 193, 179, 256, 194
-0.998613, 1, 223, 64, 238
-0.998613, 105, 157, 168, 172
-0.998614, 297, 11, 328, 26
-0.998624, 145, 349, 272, 380
-0.998624, 37, 209, 52, 336
-0.998647, 121, 25, 152, 40
-0.99865, 81, 129, 112, 384
-0.998662, 201, 273, 264, 400
-0.998691, 65, 417, 192, 448
-0.998694, 345, 97, 374, 352
-0.99874, 193, 137, 320, 168
-0.998745, 259, 1, 274, 128
-0.998756, 247, 17, 262, 144
-0.99876, 57, 273, 72, 400
-0.998785, 153, 257, 184, 500
-0.998793, 357, 1, 372, 128
-0.998807, 141, 209, 156, 336
-0.998825, 163, 177, 178, 304
-0.998825, 49, 373, 176, 404
-0.99883, 193, 225, 224, 480
-0.998835, 15, 193, 30, 320
-0.998849, 27, 193, 42, 320
-0.998855, 253, 17, 268, 144
-0.998863, 319, 1, 334, 128
-0.998868, 305, 1, 320, 128
-0.998872, 193, 197, 320, 228
-0.998875, 265, 49, 280, 176
-0.998884, 299, 49, 314, 176
-0.998894, 21, 1, 36, 128
-0.998896, 241, 1, 256, 128
-0.998903, 285, 49, 300, 176
-0.998903, 273, 17, 288, 144
-0.998915, 3, 177, 18, 304
-0.998916, 291, 49, 306, 176
-0.998918, 181, 193, 212, 448
-0.998927, 21, 193, 36, 320
-0.998936, 241, 457, 368, 488
-0.998943, 297, 1, 312, 128
-0.99895, 113, 469, 240, 500
-0.998953, 153, 161, 168, 288
-0.998963, 287, 1, 302, 128
-0.998974, 325, 49, 340, 176
-0.998985, 343, 33, 358, 160
-0.998986, 145, 429, 272, 460
-0.998989, 241, 341, 368, 372
-0.998991, 27, 241, 42, 368
-0.998997, 45, 257, 76, 500
-0.998998, 309, 49, 324, 176
-0.999001, 327, 1, 342, 128
-0.999008, 33, 97, 64, 352
-0.999015, 193, 333, 320, 364
-0.999016, 243, 161, 258, 288
-0.999021, 1, 33, 16, 160
-0.999024, 351, 33, 366, 160
-0.999025, 9, 177, 24, 304
-0.999025, 187, 161, 202, 288
-0.999025, 43, 257, 58, 384
-0.999032, 185, 33, 200, 160
-0.999033, 185, 81, 200, 208
-0.99904, 313, 1, 328, 128
-0.999041, 357, 49, 372, 176
-0.999043, 143, 145, 158, 272
-0.999059, 235, 145, 250, 272
-0.999062, 259, 49, 274, 176
-0.999071, 265, 97, 280, 224
-0.999085, 191, 33, 206, 160
-0.999088, 123, 1, 138, 128
-0.999088, 199, 113, 214, 240
-0.999092, 23, 145, 38, 272
-0.999093, 137, 129, 152, 256
-0.999093, 335, 1, 350, 128
-0.999095, 265, 1, 280, 128
-0.999096, 261, 161, 276, 288
-0.999101, 223, 161, 238, 288
-0.999103, 281, 97, 296, 224
-0.999103, 63, 177, 78, 304
-0.999105, 135, 17, 150, 144
-0.999111, 1, 217, 374, 280
-0.999112, 217, 145, 232, 272
-0.999115, 55, 225, 70, 352
-0.999122, 205, 145, 220, 272
-0.999122, 37, 257, 52, 384
-0.999123, 191, 97, 206, 224
-0.999126, 63, 241, 78, 368
-0.999134, 107, 225, 122, 352
-0.999134, 313, 193, 344, 448
-0.999136, 1, 425, 374, 488
-0.999141, 213, 97, 228, 224
-0.999142, 135, 209, 150, 336
-0.999143, 345, 225, 374, 480
-0.999151, 49, 273, 64, 400
-0.999152, 125, 97, 140, 224
-0.999153, 21, 241, 36, 368
-0.999155, 177, 177, 192, 304
-0.999155, 73, 225, 104, 480
-0.99916, 159, 113, 174, 240
-0.999164, 253, 97, 268, 224
-0.999164, 289, 97, 304, 224
-0.999166, 147, 225, 162, 352
-0.999174, 225, 113, 240, 240
-0.999176, 253, 145, 268, 272
-0.999177, 63, 289, 78, 416
-0.999178, 335, 65, 350, 192
-0.99918, 71, 225, 86, 352
-0.999181, 177, 129, 192, 256
-0.999183, 233, 193, 264, 448
-0.999184, 115, 97, 130, 224
-0.999185, 319, 49, 334, 176
-0.999189, 123, 49, 138, 176
-0.99919, 113, 225, 128, 352
-0.99919, 357, 145, 372, 272
-0.999199, 299, 97, 314, 224
-0.9992, 9, 33, 24, 160
-0.999203, 351, 81, 366, 208
-0.999205, 17, 145, 32, 272
-0.999208, 131, 129, 146, 256
-0.999216, 275, 97, 290, 224
-0.999221, 319, 97, 334, 224
-0.999233, 273, 145, 288, 272
-0.999235, 45, 193, 60, 320
-0.999244, 29, 289, 44, 416
-0.999244, 137, 257, 152, 384
-0.999248, 15, 1, 30, 128
-0.999249, 63, 129, 78, 256
-0.99925, 157, 241, 172, 368
-0.999252, 281, 1, 296, 128
-0.999263, 197, 177, 212, 304
-0.999267, 169, 161, 184, 288
-0.99927, 141, 17, 156, 144
-0.999272, 133, 81, 148, 208
-0.999272, 9, 225, 24, 352
-0.999274, 357, 97, 372, 224
-0.999277, 279, 49, 294, 176
-0.999279, 151, 369, 166, 496
-0.99928, 129, 17, 144, 144
-0.999296, 167, 81, 182, 208
-0.999296, 345, 97, 360, 224
-0.999298, 199, 1, 214, 128
-0.999302, 1, 369, 64, 496
-0.999306, 243, 97, 258, 224
-0.999308, 207, 97, 222, 224
-0.999309, 115, 49, 130, 176
-0.99931, 281, 161, 296, 288
-0.999311, 129, 433, 256, 496
-0.999312, 97, 209, 112, 336
-0.999318, 103, 273, 118, 400
-0.999321, 27, 1, 42, 128
-0.999322, 283, 369, 298, 496
-0.999323, 179, 17, 194, 144
-0.999323, 15, 369, 30, 496
-0.999325, 97, 33, 112, 160
-0.999327, 313, 97, 328, 224
-0.999327, 327, 97, 342, 224
-0.999328, 337, 145, 352, 272
-0.999331, 237, 97, 252, 224
-0.999333, 261, 193, 292, 448
-0.999334, 277, 257, 308, 500
-0.999336, 35, 161, 50, 288
-0.999336, 81, 17, 96, 144
-0.999336, 157, 33, 172, 160
-0.999339, 55, 161, 70, 288
-0.99934, 53, 321, 68, 448
-0.999378, 217, 225, 248, 480
-0.9994, 325, 225, 356, 480
-0.999558, 245, 193, 276, 448
-0.999606, 123, 409, 138, 424
-0.999607, 69, 167, 84, 182
-0.999607, 161, 317, 176, 332
-0.999607, 127, 45, 142, 60
-0.999607, 195, 97, 210, 112
-0.999608, 189, 187, 204, 202
-0.999608, 63, 313, 78, 328
-0.999609, 13, 451, 28, 466
-0.99961, 347, 19, 362, 34
-0.99961, 59, 265, 74, 280
-0.99961, 163, 195, 178, 210
-0.999611, 351, 79, 366, 94
-0.999611, 319, 25, 334, 40
-0.999613, 29, 217, 44, 232
-0.999613, 7, 193, 22, 208
-0.999613, 113, 111, 128, 126
-0.999614, 35, 439, 50, 454
-0.999614, 285, 177, 300, 192
-0.999614, 325, 65, 340, 80
-0.999614, 139, 409, 154, 424
-0.999614, 253, 443, 268, 458
-0.999615, 257, 39, 272, 54
-0.999615, 335, 89, 350, 104
-0.999615, 127, 159, 142, 174
-0.999617, 13, 439, 28, 454
-0.999618, 71, 267, 86, 282
-0.999618, 325, 25, 340, 40
-0.99962, 227, 163, 242, 178
-0.99962, 305, 25, 320, 40
-0.99962, 129, 103, 144, 118
-0.99962, 95, 59, 110, 74
-0.99962, 313, 35, 328, 50
-0.999621, 249, 483, 264, 498
-0.999621, 265, 185, 280, 200
-0.999622, 65, 261, 80, 276
-0.999622, 203, 165, 218, 180
-0.999622, 111, 117, 126, 132
-0.999622, 113, 35, 128, 50
-0.999623, 357, 77, 372, 92
-0.999624, 109, 99, 124, 114
-0.999624, 115, 413, 130, 428
-0.999624, 261, 99, 276, 114
-0.999624, 241, 159, 256, 174
-0.999625, 131, 265, 146, 280
-0.999625, 153, 401, 168, 416
-0.999626, 135, 25, 150, 40
-0.999626, 345, 43, 360, 58
-0.999626, 301, 53, 316, 68
-0.999627, 145, 391, 160, 406
-0.999628, 323, 41, 338, 56
-0.999628, 129, 383, 144, 398
-0.999628, 21, 281, 36, 296
-0.999631, 133, 173, 148, 188
-0.999632, 271, 473, 286, 488
-0.999632, 125, 169, 140, 184
-0.999632, 71, 161, 86, 176
-0.999633, 87, 277, 102, 292
-0.999634, 209, 157, 224, 172
-0.999634, 343, 83, 358, 98
-0.999637, 133, 43, 148, 58
-0.999638, 119, 167, 134, 182
-0.99964, 325, 11, 340, 26
-0.99964, 143, 255, 158, 270
-0.999641, 251, 75, 266, 90
-0.999641, 223, 157, 238, 172
-0.999642, 99, 39, 114, 54
-0.999642, 93, 37, 108, 52
-0.999643, 327, 53, 342, 68
-0.999643, 81, 275, 96, 290
-0.999644, 335, 47, 350, 62
-0.999645, 241, 475, 256, 490
-0.999645, 167, 201, 182, 216
-0.999645, 251, 179, 266, 194
-0.999646, 37, 239, 52, 254
-0.999646, 53, 183, 68, 198
-0.999648, 185, 87, 200, 102
-0.999648, 55, 319, 70, 334
-0.999648, 121, 25, 136, 40
-0.999652, 281, 441, 296, 456
-0.999652, 131, 401, 146, 416
-0.999652, 265, 475, 280, 490
-0.999653, 169, 151, 184, 166
-0.999653, 271, 65, 286, 80
-0.999654, 113, 381, 128, 396
-0.999654, 125, 403, 140, 418
-0.999656, 315, 9, 330, 24
-0.999658, 279, 55, 294, 70
-0.999659, 253, 31, 268, 46
-0.999659, 119, 381, 134, 396
-0.999659, 267, 55, 282, 70
-0.99966, 241, 171, 256, 186
-0.999661, 257, 483, 272, 498
-0.999662, 137, 261, 152, 276
-0.999662, 315, 19, 330, 34
-0.999662, 203, 157, 218, 172
-0.999662, 33, 211, 48, 226
-0.999662, 269, 39, 284, 54
-0.99967, 105, 385, 120, 400
-0.999671, 261, 179, 276, 194
-0.999671, 319, 49, 334, 64
-0.999672, 289, 51, 304, 66
-0.999673, 13, 445, 28, 460
-0.999674, 275, 49, 290, 64
-0.999674, 247, 25, 262, 40
-0.999674, 239, 483, 254, 498
-0.999675, 123, 99, 138, 114
-0.999675, 301, 9, 316, 24
-0.999675, 283, 447, 298, 462
-0.999676, 135, 163, 150, 178
-0.999676, 147, 173, 162, 188
-0.999677, 241, 179, 256, 194
-0.999678, 137, 403, 152, 418
-0.999678, 279, 175, 294, 190
-0.999678, 117, 105, 132, 120
-0.999678, 21, 433, 36, 448
-0.999681, 11, 433, 26, 448
-0.999684, 61, 271, 76, 286
-0.999687, 259, 439, 274, 454
-0.999687, 155, 181, 170, 196
-0.999689, 299, 27, 314, 42
-0.99969, 129, 409, 144, 424
-0.999694, 275, 439, 290, 454
-0.999694, 141, 385, 156, 400
-0.999698, 141, 167, 156, 182
-0.999699, 45, 313, 60, 328
-0.999701, 267, 437, 282, 452
-0.999703, 309, 41, 324, 56
-0.999705, 121, 417, 136, 432
-0.999706, 329, 47, 344, 62
-0.99972, 147, 399, 162, 414
-0.999818, 165, 257, 196, 500
-1.00012, 129, 409, 374, 472
-1.0005, 49, 369, 112, 496
